0.872339
200
1.0655e+09
8589934592
0.0129181 0 1.58924e-09 0 0 0 0 0.00677225 0 13.6515
0.0136515 0 1.87554e-09 0 0 0 0 0.00688819 0 16.1108
0.0144264 0 2.21343e-09 0 0 0 0 0.00699249 0 19.0132
0.0152454 0 2.61218e-09 0 0 0 0 0.00708412 0 22.4385
0.0161108 0 3.08278e-09 0 0 0 0 0.00716212 0 26.4808
0.0170254 0 3.63815e-09 0 0 0 0 0.00722559 0 31.2514
0.0179919 0 4.29357e-09 0 0 0 0 0.00727371 0 36.8815
0.0190132 0 5.06707e-09 0 0 0 0 0.00730578 0 43.5258
0.0200925 0 5.97991e-09 0 0 0 0 0.00732122 0 51.367
0.0212331 0 7.05721e-09 0 0 0 0 0.00731958 0 60.621
0.0224385 0 8.32858e-09 0 0 0 0 0.00730056 0 71.542
0.0237123 0 9.829e-09 0 0 0 0 0.00726401 0 84.4305
0.0250583 0 1.15997e-08 0 0 0 0 0.00720995 0 99.6408
0.0264808 0 1.36894e-08 0 0 0 0 0.00713857 0 117.591
0.0279841 0 1.61556e-08 0 0 0 0 0.00705021 0 138.776
0.0295727 0 1.90661e-08 0 0 0 0 0.00694538 0 163.777
0.0312514 0 2.25009e-08 0 0 0 0 0.00682475 0 193.281
0.0330255 0 2.65545e-08 0 0 0 0 0.00668915 0 228.102
0.0349003 0 3.13384e-08 0 0 0 0 0.00653951 0 269.195
0.0368815 0 3.69841e-08 0 0 0 0 0.00637693 0 317.691
0.0389751 0 4.36469e-08 0 0 0 0 0.00620256 0 374.924
0.0411876 0 5.151e-08 0 0 0 0 0.00601767 0 442.467
0.0435258 0 6.07896e-08 0 0 0 0 0.00582358 0 522.179
0.0459966 0 7.1741e-08 0 0 0 0 0.00562166 0 616.251
0.0486077 0 8.46654e-08 0 0 0 0 0.0054133 0 727.27
0.051367 0 9.99181e-08 0 0 0 0 0.00519989 0 858.29
0.054283 0 1.17919e-07 0 0 0 0 0.0049828 0 1012.91
0.0573645 0 1.39162e-07 0 0 0 0 0.00476339 0 1195.39
0.060621 0 1.64232e-07 0 0 0 0 0.00454293 0 1410.75
0.0640622 0 1.93819e-07 0 0 0 0 0.00432265 0 1664.89
0.0676989 0 2.28736e-07 0 0 0 0 0.00410371 0 1964.83
0.071542 0 2.69944e-07 0 0 0 0 0.00388717 0 2318.8
0.0756032 0 3.18575e-07 0 0 0 0 0.00367401 0 2736.54
0.079895 0 3.75967e-07 0 0 0 0 0.0034651 0 3229.53
0.0844305 0 4.43698e-07 0 0 0 0 0.00326121 0 3811.34
0.0892234 0 5.23632e-07 0 0 0 0 0.00306301 0 4497.96
0.0942883 0 6.17966e-07 0 0 0 0 0.00287109 0 5308.28
0.0996408 0 7.29294e-07 0 0 0 0 0.00268591 0 6264.59
0.105297 0 8.60678e-07 0 0 0 0 0.00250785 0 7393.17
0.111275 0 1.01573e-06 0 0 0 0 0.00233721 0 8725.07
0.117591 0 1.19872e-06 0 0 0 0 0.00217419 0 10296.9
0.124267 0 1.41467e-06 0 0 0 0 0.00201893 0 12151.9
0.131321 0 1.66953e-06 0 0 0 0 0.00187147 0 14341.1
0.138776 0 1.9703e-06 0 0 0 0 0.00173182 0 16924.7
0.146654 0 2.32525e-06 0 0 0 0 0.00159991 0 19973.8
0.154979 0 2.74415e-06 0 0 0 0 0.00147563 0 23572.1
0.163777 0 3.23852e-06 0 0 0 0 0.00135884 0 27818.7
0.173074 0 3.82195e-06 0 0 0 0 0.00124933 0 32830.3
0.182899 0 4.51048e-06 0 0 0 0 0.00114689 0 38744.7
0.193281 0 5.32305e-06 0 0 0 0 0.00105127 0 45724.7
0.204254 0 6.28202e-06 0 0 0 0 0.000962209 0 53962.1
0.215848 0 7.41374e-06 0 0 0 0 0.000879423 0 63683.5
0.228102 0 8.74934e-06 0 0 0 0 0.000802624 0 75156.3
0.24105 0 1.03256e-05 0 0 0 0 0.000731515 0 88695.9
0.254734 0 1.21857e-05 0 0 0 0 0.000665798 0 104675
0.269195 0 1.4381e-05 0 0 0 0 0.000605173 0 123532
0.284476 0 1.69718e-05 0 0 0 0 0.000549345 0 145787
0.300625 0 2.00293e-05 0 0 0 0 0.000498021 0 172051
0.317691 0 2.36377e-05 0 0 0 0 0.000450916 0 203046
0.335725 0 2.78961e-05 0 0 0 0 0.000407755 0 239625
0.354784 0 3.29216e-05 0 0 0 0 0.000368269 0 282795
0.374924 0 3.88525e-05 0 0 0 0 0.000332202 0 333741
0.396207 1.67481 4.58519e-05 4.25225e-06 6 1.62825 4.13403e-06 0.000299307 0.085242 393865
0.418699 0 5.41123e-05 0 0 0 0 0.00026935 0 464821
0.442467 0 6.38607e-05 0 0 0 0 0.000242108 0 548560
0.467585 0 7.53654e-05 0 0 0 0 0.00021737 0 647384
0.494129 0 8.89427e-05 0 0 0 0 0.000194938 0 764012
0.522179 0 0.000104966 0 0 0 0 0.000174625 0 901651
0.551822 0 0.000123876 0 0 0 0 0.000156255 0 1.06409e+06
0.583147 5.69713 0.000146192 4.53672e-06 12 5.99626 4.77492e-06 0.000139664 0.389797 1.25578e+06
0.616251 0 0.000172529 0 0 0 0 0.0001247 0 1.48202e+06
0.651234 0 0.000203611 0 0 0 0 0.00011122 0 1.74901e+06
0.688203 10.4344 0.000240292 5.05519e-06 8 10.1748 4.92942e-06 9.90935e-05 0.408115 2.06409e+06
0.72727 0 0.000283581 0 0 0 0 8.81969e-05 0 2.43595e+06
0.768555 0 0.000334669 0 0 0 0 7.84179e-05 0 2.87479e+06
0.812184 5.27517 0.000394961 1.55486e-06 6 5.38795 1.58811e-06 6.96525e-05 0.133939 3.39269e+06
0.85829 0 0.000466114 0 0 0 0 6.1805e-05 0 4.00389e+06
0.907013 1.24632 0.000550086 2.63759e-07 24 1.27023 2.6882e-07 5.47875e-05 0.115541 4.7252e+06
0.958501 4.95119 0.000649185 8.87874e-07 24 4.66118 8.35868e-07 4.85194e-05 0.439184 5.57646e+06
1.01291 0 0.000766138 0 0 0 0 4.29272e-05 0 6.58107e+06
1.07041 0 0.00090416 0 0 0 0 3.79435e-05 0 7.76667e+06
1.13118 9.29148 0.00106705 1.01371e-06 12 9.17735 1.00125e-06 3.3507e-05 0.363042 9.16586e+06
1.19539 4.01399 0.00125928 3.71078e-07 30 3.93124 3.63428e-07 2.9562e-05 0.376575 1.08171e+07
1.26325 13.2731 0.00148614 1.03973e-06 24 13.0733 1.02409e-06 2.60578e-05 0.957623 1.27658e+07
1.33496 17.0804 0.00175387 1.13373e-06 24 17.1179 1.13622e-06 2.29484e-05 1.18568 1.50656e+07
1.41075 15.7145 0.00206984 8.83844e-07 32 16.0031 9.00072e-07 2.01923e-05 1.40068 1.77798e+07
1.49083 5.39114 0.00244272 2.56931e-07 48 5.27621 2.51454e-07 1.77518e-05 0.694731 2.09828e+07
1.57546 35.8571 0.00288279 1.44801e-06 6 34.144 1.37884e-06 1.55929e-05 0.557184 2.4763e+07
1.66489 6.96416 0.00340213 2.38302e-07 84 6.75593 2.31177e-07 1.3685e-05 1.46272 2.92241e+07
1.75941 6.98967 0.00401503 2.02665e-07 48 6.86297 1.98991e-07 1.20007e-05 0.810612 3.44889e+07
1.85928 6.8048 0.00473835 1.67185e-07 72 6.85273 1.68363e-07 1.05151e-05 1.14477 4.07021e+07
1.96483 13.6755 0.00559198 2.847e-07 54 13.4134 2.79244e-07 9.20606e-06 1.66996 4.80347e+07
2.07637 12.0778 0.00659939 2.13056e-07 104 12.2431 2.15972e-07 8.05366e-06 2.75128 5.66883e+07
2.19424 10.901 0.00778828 1.62943e-07 120 11.1223 1.6625e-07 7.04008e-06 2.77741 6.69008e+07
2.3188 9.85917 0.00919136 1.24874e-07 156 9.62902 1.21959e-07 6.1494e-06 3.16783 7.89532e+07
2.45043 11.4588 0.0108472 1.22979e-07 126 11.3646 1.21968e-07 5.36741e-06 2.88692 9.31768e+07
2.58954 11.0716 0.0128014 1.00685e-07 192 11.1419 1.01324e-07 4.68145e-06 4.1294 1.09963e+08
2.73654 33.7202 0.0151076 2.5984e-07 152 34.2056 2.63581e-07 4.08023e-06 9.67975 1.29773e+08
2.89188 13.5242 0.0178292 8.83057e-08 378 13.6013 8.88089e-08 3.55373e-06 9.39281 1.53152e+08
3.05605 15.0529 0.0210412 8.32835e-08 264 15.0115 8.30543e-08 3.09304e-06 7.10849 1.80743e+08
3.22953 18.6612 0.0248319 8.74864e-08 366 18.5525 8.69768e-08 2.69025e-06 11.9022 2.13304e+08
3.41286 17.7761 0.0293054 7.06152e-08 428 17.5425 6.96872e-08 2.33837e-06 12.9249 2.51731e+08
3.6066 21.508 0.0345848 7.23976e-08 486 21.3808 7.19694e-08 2.0312e-06 17.3224 2.97081e+08
3.81134 19.6474 0.0408154 5.6039e-08 600 19.6928 5.61687e-08 1.76327e-06 19.0688 3.50601e+08
4.0277 22.7074 0.0481684 5.48802e-08 738 22.6992 5.48605e-08 1.52972e-06 26.4764 4.13763e+08
4.25634 25.9884 0.056846 5.32219e-08 824 25.8124 5.28613e-08 1.32631e-06 33.0654 4.88304e+08
4.49796 28.9907 0.067087 5.03073e-08 954 28.7445 4.988e-08 1.14926e-06 41.7602 5.76273e+08
4.7533 25.8447 0.0791729 3.80019e-08 1094 25.634 3.76921e-08 9.95263e-07 41.772 6.8009e+08
5.02313 29.1719 0.0934361 3.63463e-08 1332 29.286 3.64884e-08 8.61414e-07 56.2021 8.0261e+08
5.30828 38.135 0.110269 4.02607e-08 1614 38.1373 4.0263e-08 7.45152e-07 87.2047 9.47202e+08
5.60962 39.92 0.130134 3.57116e-08 1850 39.886 3.56812e-08 6.44232e-07 102.551 1.11784e+09
5.92807 37.4744 0.153578 2.84063e-08 2238 37.4417 2.83816e-08 5.56685e-07 114.2 1.31923e+09
6.26459 37.4406 0.181246 2.40483e-08 2546 37.4592 2.40603e-08 4.80786e-07 127.348 1.55689e+09
6.62021 39.4583 0.213898 2.14755e-08 3264 39.5242 2.15113e-08 4.15026e-07 168.895 1.83737e+09
6.99602 42.1201 0.252432 1.94247e-08 3506 42.2049 1.94639e-08 3.58083e-07 190.188 2.16837e+09
7.39317 46.8532 0.297908 1.83091e-08 4506 46.8467 1.83066e-08 3.08803e-07 267.163 2.55901e+09
7.81286 50.2427 0.351577 1.66365e-08 5018 50.1809 1.66161e-08 2.66181e-07 313.629 3.02002e+09
8.25637 54.045 0.414914 1.51638e-08 5852 54.1042 1.51804e-08 2.29336e-07 386.936 3.56409e+09
8.72507 56.2063 0.489662 1.33628e-08 7362 56.1104 1.334e-08 1.97503e-07 498.105 4.20617e+09
9.22037 58.1495 0.577876 1.17144e-08 8306 57.9242 1.1669e-08 1.70014e-07 572.306 4.96392e+09
9.74378 63.9215 0.681982 1.09115e-08 9698 63.8587 1.09008e-08 1.46289e-07 723.36 5.85818e+09
10.2969 64.7883 0.804843 9.3712e-09 11816 64.7077 9.35955e-09 1.25822e-07 880.051 6.91355e+09
10.8814 75.1715 0.949838 9.21327e-09 13682 74.8717 9.17652e-09 1.08175e-07 1165.29 8.15905e+09
11.4992 77.6121 1.12095 8.06031e-09 16152 77.5817 8.05716e-09 9.29669e-08 1400.39 9.62892e+09
12.1519 79.6082 1.3229 7.00555e-09 19472 79.5198 6.99777e-09 7.98658e-08 1708.02 1.13636e+10
12.8418 83.3475 1.56122 6.21496e-09 22670 83.1376 6.19931e-09 6.85852e-08 2054.28 1.34108e+10
13.5708 88.7183 1.84248 5.60559e-09 26224 88.5548 5.59526e-09 5.88765e-08 2496.77 1.58268e+10
14.3411 95.362 2.17441 5.10558e-09 31640 95.2319 5.09861e-09 5.05241e-08 3197.29 1.8678e+10
15.1552 99.9064 2.56613 4.53237e-09 37484 99.714 4.52364e-09 4.33417e-08 3919.81 2.20429e+10
16.0156 108.02 3.02843 4.1524e-09 43856 107.834 4.14524e-09 3.71677e-08 4899.61 2.6014e+10
16.9247 113.129 3.574 3.68494e-09 51362 112.997 3.68062e-09 3.18628e-08 5940.03 3.07005e+10
17.8855 117.743 4.21787 3.24976e-09 61636 117.576 3.24514e-09 2.73063e-08 7335.38 3.62312e+10
18.9008 125.318 4.97773 2.93085e-09 72218 125.052 2.92462e-09 2.33941e-08 9047.58 4.27584e+10
19.9738 134.221 5.87448 2.65988e-09 84586 133.992 2.65533e-09 2.00364e-08 11229 5.04614e+10
21.1076 141.387 6.93279 2.37417e-09 100708 141.121 2.36971e-09 1.71555e-08 13937.1 5.95522e+10
22.3058 150.219 8.18175 2.13741e-09 118712 149.97 2.13387e-09 1.46847e-08 17279 7.02807e+10
23.5721 156.408 9.65571 1.88575e-09 140410 156.139 1.88251e-09 1.25662e-08 21070.7 8.29419e+10
24.9102 164.771 11.3952 1.68333e-09 164374 164.477 1.68032e-09 1.07504e-08 25738.2 9.78842e+10
26.3243 172.452 13.4481 1.49285e-09 194680 172.193 1.49061e-09 9.19452e-09 31608.9 1.15518e+11
27.8187 181.418 15.8708 1.33074e-09 230196 181.118 1.32854e-09 7.86182e-09 38964.3 1.36329e+11
29.3979 190.603 18.73 1.18469e-09 271156 190.27 1.18261e-09 6.72061e-09 47798.5 1.60889e+11
31.0667 201.371 22.1042 1.06055e-09 321076 201.005 1.05863e-09 5.74366e-09 59285.7 1.89874e+11
32.8303 212.429 26.0864 9.48004e-10 377436 212.046 9.46297e-10 4.90756e-09 72910.1 2.2408e+11
34.694 222.573 30.7859 8.4165e-10 447594 222.184 8.40177e-10 4.19221e-09 89861.4 2.64449e+11
36.6634 233.537 36.3321 7.483e-10 525078 233.1 7.46901e-10 3.58032e-09 109743 3.1209e+11
38.7447 245.639 42.8774 6.66929e-10 621924 245.178 6.65676e-10 3.05709e-09 135678 3.68314e+11
40.9442 257.788 50.6018 5.9307e-10 732630 257.317 5.91988e-10 2.60976e-09 166491 4.34667e+11
43.2685 271.077 59.7179 5.28444e-10 865596 270.669 5.27649e-10 2.22743e-09 205357 5.12973e+11
45.7247 283.777 70.4762 4.68753e-10 1.02168e+06 283.34 4.68032e-10 1.90073e-09 251963 6.05386e+11
48.3204 296.54 83.1727 4.15061e-10 1.20544e+06 296.014 4.14325e-10 1.62163e-09 308535 7.14448e+11
51.0634 311.16 98.1565 3.69041e-10 1.42103e+06 310.658 3.68446e-10 1.38326e-09 379119 8.43158e+11
53.9621 325.905 115.84 3.27525e-10 1.67997e+06 325.373 3.2699e-10 1.1797e-09 466415 9.95055e+11
57.0254 343.281 136.709 2.92324e-10 1.98018e+06 342.66 2.91795e-10 1.00592e-09 575448 1.17432e+12
60.2626 360.185 161.337 2.59898e-10 2.33957e+06 359.544 2.59435e-10 8.57591e-10 709019 1.38587e+12
63.6835 379.551 190.402 2.32064e-10 2.75676e+06 378.862 2.31643e-10 7.3101e-10 875155 1.63554e+12
67.2987 399.194 224.704 2.06816e-10 3.25638e+06 398.469 2.06441e-10 6.23009e-10 1.081e+06 1.93019e+12
71.1191 421.86 265.185 1.85195e-10 3.84387e+06 421.091 1.84858e-10 5.30879e-10 1.34092e+06 2.27792e+12
75.1563 446.24 312.958 1.65994e-10 4.53277e+06 445.441 1.65697e-10 4.52303e-10 1.66351e+06 2.68829e+12
79.4227 473.385 369.339 1.49211e-10 5.35083e+06 472.519 1.48938e-10 3.85299e-10 2.07216e+06 3.17259e+12
83.9313 503.735 435.876 1.34539e-10 6.32174e+06 502.764 1.3428e-10 3.28173e-10 2.59169e+06 3.74415e+12
88.6959 537.745 514.4 1.21698e-10 7.44986e+06 536.675 1.21456e-10 2.79476e-10 3.24406e+06 4.41866e+12
93.7309 577.008 607.071 1.1065e-10 8.79764e+06 575.832 1.10425e-10 2.37972e-10 4.09065e+06 5.2147e+12
99.0518 621.255 716.436 1.00949e-10 1.03827e+07 619.981 1.00742e-10 2.02605e-10 5.17324e+06 6.15414e+12
104.675 672.553 845.504 9.26021e-11 1.22515e+07 671.079 9.23991e-11 1.72471e-10 6.57802e+06 7.26283e+12
110.617 733.307 997.824 8.55543e-11 1.44573e+07 731.638 8.53596e-11 1.468e-10 8.42565e+06 8.57124e+12
116.896 804.766 1177.58 7.95587e-11 1.70664e+07 802.854 7.93697e-11 1.24935e-10 1.08679e+07 1.01154e+13
123.532 888.792 1389.73 7.44526e-11 2.0139e+07 886.587 7.42679e-11 1.06313e-10 1.41036e+07 1.19377e+13
130.545 987.78 1640.09 7.01135e-11 2.37643e+07 985.223 6.9932e-11 9.04567e-11 1.84198e+07 1.40883e+13
137.955 1105.21 1935.56 6.64737e-11 2.80503e+07 1102.27 6.62967e-11 7.69563e-11 2.42294e+07 1.66263e+13
145.787 1245.22 2284.26 6.34615e-11 3.30981e+07 1241.8 6.32873e-11 6.54636e-11 3.20859e+07 1.96216e+13
154.063 1411.65 2695.77 6.09613e-11 3.90634e+07 1407.67 6.07895e-11 5.56812e-11 4.27678e+07 2.31565e+13
162.808 1608.5 3181.42 5.88584e-11 4.61057e+07 1603.84 5.8688e-11 4.73556e-11 5.73049e+07 2.73282e+13
172.051 1845.21 3754.56 5.72131e-11 5.44046e+07 1839.72 5.7043e-11 4.02708e-11 7.72931e+07 3.22515e+13
181.818 2126.99 4430.96 5.58829e-11 6.42064e+07 2120.55 5.57136e-11 3.42426e-11 1.04783e+08 3.80616e+13
192.139 2460.89 5229.21 5.47855e-11 7.57748e+07 2453.27 5.4616e-11 2.91139e-11 1.4259e+08 4.49186e+13
203.046 2859.77 6171.26 5.3947e-11 8.94213e+07 2850.77 5.37773e-11 2.4751e-11 1.94902e+08 5.30108e+13
214.572 3338.08 7283.03 5.33573e-11 1.05538e+08 3327.37 5.31863e-11 2.10401e-11 2.67644e+08 6.25608e+13
226.753 3910.45 8595.09 5.29647e-11 1.24552e+08 3897.72 5.27923e-11 1.78839e-11 3.6887e+08 7.38313e+13
239.625 4598.51 10143.5 5.27762e-11 1.46987e+08 4583.25 5.26011e-11 1.51999e-11 5.1036e+08 8.71322e+13
253.228 5424.2 11970.9 5.27496e-11 1.7347e+08 5405.99 5.25725e-11 1.29176e-11 7.08371e+08 1.02829e+14
267.603 6423.28 14127.5 5.293e-11 2.04703e+08 6401.34 5.27492e-11 1.09771e-11 9.87045e+08 1.21354e+14
282.795 7637.48 16672.6 5.33282e-11 2.4161e+08 7610.96 5.3143e-11 9.3274e-12 1.38137e+09 1.43217e+14
298.848 9127.95 19676.2 5.4006e-11 2.85122e+08 9095.47 5.38138e-11 7.925e-12 1.94301e+09 1.69017e+14
315.813 10982.1 23220.9 5.50574e-11 3.36491e+08 10941.9 5.48558e-11 6.73295e-12 2.75159e+09 1.99466e+14
333.741 13324.5 27404.3 5.66037e-11 3.97115e+08 13274 5.6389e-11 5.71979e-12 3.92989e+09 2.35401e+14
352.686 16347.8 32341.2 5.88456e-11 4.68637e+08 16282.9 5.8612e-11 4.85874e-12 5.6758e+09 2.77809e+14
372.707 20373.5 38167.6 6.21415e-11 5.53074e+08 20287.7 6.18796e-11 4.12703e-12 8.32774e+09 3.27857e+14
393.865 25941.8 45043.5 6.70468e-11 6.52716e+08 25823.8 6.67418e-11 3.50528e-12 1.24847e+10 3.86921e+14
416.224 30628.5 53158.3 6.70756e-11 2.2184e+08 32402 7.09596e-11 2.97701e-12 4.99831e+09 4.56626e+14
439.852 0 62734.9 0 0 0 0 2.52819e-12 0 5.38888e+14
464.821 0 74036.7 0 0 0 0 2.1469e-12 0 6.35971e+14
491.207 0 87374.6 0 0 0 0 1.82301e-12 0 7.50542e+14
519.092 0 103115 0 0 0 0 1.54789e-12 0 8.85755e+14
548.56 0 121692 0 0 0 0 1.31422e-12 0 1.04533e+15
579.7 0 143615 0 0 0 0 1.11576e-12 0 1.23364e+15
612.608 0 169488 0 0 0 0 9.47223e-13 0 1.45589e+15
647.384 0 200021 0 0 0 0 8.041e-13 0 1.71817e+15
684.134 0 236056 0 0 0 0 6.82568e-13 0 2.0277e+15
722.971 0 278582 0 0 0 0 5.79376e-13 0 2.393e+15
764.012 0 328769 0 0 0 0 4.91762e-13 0 2.8241e+15
0.872339
200
1.0655e+09
8589934592
0.0129181 0.00187795 1.58924e-09 0.000137564 6 0.00186076 0.000136305 0.00677225 0.121877 13.6515
0.0136515 0 1.87554e-09 0 0 0 0 0.00688819 0 16.1108
0.0144264 0 2.21343e-09 0 0 0 0 0.00699249 0 19.0132
0.0152454 0 2.61218e-09 0 0 0 0 0.00708412 0 22.4385
0.0161108 0 3.08278e-09 0 0 0 0 0.00716212 0 26.4808
0.0170254 0 3.63815e-09 0 0 0 0 0.00722559 0 31.2514
0.0179919 0.00411989 4.29357e-09 0.000111706 12 0.00411458 0.000111562 0.00727371 0.18429 36.8815
0.0190132 0 5.06707e-09 0 0 0 0 0.00730578 0 43.5258
0.0200925 0 5.97991e-09 0 0 0 0 0.00732122 0 51.367
0.0212331 0.00386894 7.05721e-09 6.38219e-05 8 0.00386558 6.37664e-05 0.00731958 0.0697547 60.621
0.0224385 0 8.32858e-09 0 0 0 0 0.00730056 0 71.542
0.0237123 0 9.829e-09 0 0 0 0 0.00726401 0 84.4305
0.0250583 0.024194 1.15997e-08 0.000242812 6 0.0241826 0.000242698 0.00720995 0.202064 99.6408
0.0264808 0 1.36894e-08 0 0 0 0 0.00713857 0 117.591
0.0279841 0.0148027 1.61556e-08 0.000106667 24 0.0147876 0.000106557 0.00705021 0.36311 138.776
0.0295727 0 1.90661e-08 0 0 0 0 0.00694538 0 163.777
0.0312514 0.0261769 2.25009e-08 0.000135434 24 0.0263098 0.000136122 0.00682475 0.476269 193.281
0.0330255 0 2.65545e-08 0 0 0 0 0.00668915 0 228.102
0.0349003 0.0396598 3.13384e-08 0.000147328 12 0.0393423 0.000146148 0.00653951 0.270346 269.195
0.0368815 0.0315631 3.69841e-08 9.93515e-05 30 0.031227 9.82936e-05 0.00637693 0.467395 317.691
0.0389751 0.0355321 4.36469e-08 9.47715e-05 24 0.0351666 9.37966e-05 0.00620256 0.366706 374.924
0.0411876 0.0228213 5.151e-08 5.15773e-05 24 0.0226663 5.12271e-05 0.00601767 0.205704 442.467
0.0435258 0.0568573 6.07896e-08 0.000108885 8 0.0568529 0.000108876 0.00582358 0.149578 522.179
0.0459966 0.0692022 7.1741e-08 0.000112296 72 0.068657 0.000111411 0.00562166 1.43824 616.251
0.0486077 0 8.46654e-08 0 0 0 0 0.0054133 0 727.27
0.051367 0.0941844 9.99181e-08 0.000109735 54 0.0938716 0.00010937 0.00519989 1.13958 858.29
0.054283 0.0759857 1.17919e-07 7.5017e-05 60 0.0763325 7.53594e-05 0.0049828 0.903311 1012.91
0.0573645 0.0708336 1.39162e-07 5.92555e-05 96 0.0706531 5.91046e-05 0.00476339 1.19422 1195.39
0.060621 0.0840112 1.64232e-07 5.95509e-05 24 0.082873 5.87441e-05 0.00454293 0.314604 1410.75
0.0640622 0.143847 1.93819e-07 8.64002e-05 134 0.143911 8.64387e-05 0.00432265 2.67836 1664.89
0.0676989 0.140559 2.28736e-07 7.15377e-05 120 0.13987 7.11868e-05 0.00410371 2.09189 1964.83
0.071542 0.132315 2.69944e-07 5.70617e-05 108 0.130852 5.6431e-05 0.00388717 1.58538 2318.8
0.0756032 0.195775 3.18575e-07 7.15413e-05 174 0.194687 7.11436e-05 0.00367401 3.38817 2736.54
0.079895 0.203975 3.75967e-07 6.31592e-05 168 0.20206 6.25664e-05 0.0034651 3.06218 3229.53
0.0844305 0.169557 4.43698e-07 4.44875e-05 168 0.170396 4.47075e-05 0.00326121 2.29176 3811.34
0.0892234 0.203148 5.23632e-07 4.51645e-05 290 0.20219 4.49514e-05 0.00306301 4.27609 4497.96
0.0942883 0.243851 6.17966e-07 4.59379e-05 288 0.243339 4.58413e-05 0.00287109 4.60804 5308.28
0.0996408 0.218459 7.29294e-07 3.48721e-05 366 0.216794 3.46063e-05 0.00268591 4.75191 6264.59
0.105297 0.256793 8.60678e-07 3.47338e-05 420 0.254965 3.44865e-05 0.00250785 5.817 7393.17
0.111275 0.274105 1.01573e-06 3.14158e-05 398 0.273351 3.13293e-05 0.00233721 5.34975 8725.07
0.117591 0.324986 1.19872e-06 3.15615e-05 624 0.325906 3.16508e-05 0.00217419 9.05824 10296.9
0.124267 0.377302 1.41467e-06 3.10487e-05 642 0.376443 3.09781e-05 0.00201893 9.87321 12151.9
0.131321 0.442876 1.66953e-06 3.08815e-05 800 0.442995 3.08898e-05 0.00187147 13.201 14341.1
0.138776 0.409552 1.9703e-06 2.41984e-05 858 0.411284 2.43008e-05 0.00173182 11.9887 16924.7
0.146654 0.476958 2.32525e-06 2.38792e-05 1080 0.480931 2.40781e-05 0.00159991 16.1194 19973.8
0.154979 0.553797 2.74415e-06 2.34938e-05 1286 0.557293 2.36421e-05 0.00147563 20.4746 23572.1
0.163777 0.542386 3.23852e-06 1.94972e-05 1650 0.543944 1.95532e-05 0.00135884 23.6749 27818.7
0.173074 0.603267 3.82195e-06 1.83753e-05 1778 0.603743 1.83898e-05 0.00124933 26.1511 32830.3
0.182899 0.649196 4.51048e-06 1.67557e-05 2112 0.650704 1.67946e-05 0.00114689 30.8556 38744.7
0.193281 0.716437 5.32305e-06 1.56685e-05 2570 0.716973 1.56802e-05 0.00105127 38.3041 45724.7
0.204254 0.838387 6.28202e-06 1.55366e-05 3030 0.837835 1.55263e-05 0.000962209 48.9248 53962.1
0.215848 0.87076 7.41374e-06 1.36732e-05 3434 0.870423 1.36679e-05 0.000879423 53.3917 63683.5
0.228102 0.923436 8.74934e-06 1.22869e-05 4218 0.922877 1.22794e-05 0.000802624 64.5708 75156.3
0.24105 1.02809 1.03256e-05 1.15912e-05 4766 1.02871 1.15981e-05 0.000731515 75.5193 88695.9
0.254734 1.11788 1.21857e-05 1.06796e-05 6026 1.11786 1.06794e-05 0.000665798 96.6586 104675
0.269195 1.27268 1.4381e-05 1.03025e-05 6480 1.27155 1.02933e-05 0.000605173 110.315 123532
0.284476 1.37189 1.69718e-05 9.41023e-06 8162 1.37433 9.42699e-06 0.000549345 139.814 145787
0.300625 1.51387 2.00293e-05 8.79895e-06 9578 1.5144 8.80207e-06 0.000498021 169.223 172051
0.317691 1.67397 2.36377e-05 8.24428e-06 11234 1.67257 8.23741e-06 0.000450916 205.396 203046
0.335725 1.80115 2.78961e-05 7.51654e-06 13344 1.79791 7.50299e-06 0.000407755 245.983 239625
0.354784 2.02391 3.29216e-05 7.15681e-06 15464 2.02269 7.15251e-06 0.000368269 300.522 282795
0.374924 2.18273 3.88525e-05 6.54019e-06 18458 2.18063 6.53391e-06 0.000332202 363.39 333741
0.396207 2.52255 4.58519e-05 6.40461e-06 22232 2.51854 6.39443e-06 0.000299307 475.723 393865
0.418699 2.70764 5.41123e-05 5.82512e-06 25628 2.70108 5.81101e-06 0.00026935 554.246 464821
0.442467 2.95404 6.38607e-05 5.38509e-06 30320 2.94905 5.37599e-06 0.000242108 674.393 548560
0.467585 3.33809 7.53654e-05 5.15627e-06 35452 3.33206 5.14697e-06 0.00021737 840.962 647384
0.494129 3.68902 8.89427e-05 4.82848e-06 41792 3.68491 4.8231e-06 0.000194938 1035.16 764012
0.522179 4.14819 0.000104966 4.60066e-06 49988 4.14778 4.60021e-06 0.000174625 1316.98 901651
0.551822 4.61752 0.000123876 4.33942e-06 59110 4.61142 4.33369e-06 0.000156255 1641.57 1.06409e+06
0.583147 5.1329 0.000146192 4.08741e-06 69716 5.12472 4.0809e-06 0.000139664 2040.31 1.25578e+06
0.616251 5.71834 0.000172529 3.85848e-06 82210 5.70704 3.85086e-06 0.0001247 2543.75 1.48202e+06
0.651234 6.30668 0.000203611 3.60587e-06 96722 6.29265 3.59785e-06 0.00011122 3135.81 1.74901e+06
0.688203 7.14697 0.000240292 3.46252e-06 113098 7.13539 3.45691e-06 9.90935e-05 3951.87 2.06409e+06
0.72727 7.98579 0.000283581 3.27831e-06 135190 7.97407 3.2735e-06 8.81969e-05 5025.06 2.43595e+06
0.768555 8.91019 0.000334669 3.09942e-06 158170 8.89652 3.09467e-06 7.84179e-05 6251.58 2.87479e+06
0.812184 9.96201 0.000394961 2.93632e-06 188560 9.94557 2.93147e-06 6.96525e-05 7949.06 3.39269e+06
0.85829 11.1282 0.000466114 2.77936e-06 220444 11.1102 2.77484e-06 6.1805e-05 9913.32 4.00389e+06
0.907013 12.4285 0.000550086 2.63026e-06 261388 12.4072 2.62576e-06 5.47875e-05 12548.8 4.7252e+06
0.958501 13.8915 0.000649185 2.4911e-06 308244 13.8706 2.48735e-06 4.85194e-05 15826 5.57646e+06
1.01291 15.5831 0.000766138 2.36787e-06 364396 15.5568 2.36387e-06 4.29272e-05 20100.1 6.58107e+06
1.07041 17.2995 0.00090416 2.2274e-06 429162 17.2676 2.2233e-06 3.79435e-05 25193.2 7.76667e+06
1.13118 19.2869 0.00106705 2.10421e-06 506358 19.2546 2.10069e-06 3.3507e-05 31798.8 9.16586e+06
1.19539 21.5377 0.00125928 1.99107e-06 598590 21.4976 1.98737e-06 2.9562e-05 40316.5 1.08171e+07
1.26325 23.9078 0.00148614 1.87279e-06 704844 23.8649 1.86943e-06 2.60578e-05 50657.6 1.27658e+07
1.33496 26.5428 0.00175387 1.76181e-06 834620 26.4905 1.75834e-06 2.29484e-05 64075.8 1.50656e+07
1.41075 29.4219 0.00206984 1.6548e-06 981444 29.3664 1.65167e-06 2.01923e-05 80431.2 1.77798e+07
1.49083 32.4594 0.00244272 1.54695e-06 1.15998e+06 32.4007 1.54415e-06 1.77518e-05 101084 2.09828e+07
1.57546 35.8384 0.00288279 1.44726e-06 1.36931e+06 35.7735 1.44464e-06 1.55929e-05 127093 2.4763e+07
1.66489 39.4896 0.00340213 1.35127e-06 1.61652e+06 39.4168 1.34878e-06 1.3685e-05 159616 2.92241e+07
1.75941 43.5143 0.00401503 1.26169e-06 1.90601e+06 43.4333 1.25934e-06 1.20007e-05 200388 3.44889e+07
1.85928 47.6503 0.00473835 1.17071e-06 2.24913e+06 47.5598 1.16848e-06 1.05151e-05 250408 4.07021e+07
1.96483 52.0654 0.00559198 1.08391e-06 2.65744e+06 51.9673 1.08187e-06 9.20606e-06 312884 4.80347e+07
2.07637 56.9115 0.00659939 1.00394e-06 3.13125e+06 56.8082 1.00211e-06 8.05366e-06 390330 5.66883e+07
2.19424 62.0466 0.00778828 9.27441e-07 3.69915e+06 61.9335 9.25751e-07 7.04008e-06 487316 6.69008e+07
2.3188 67.3166 0.00919136 8.52614e-07 4.36472e+06 67.2007 8.51146e-07 6.1494e-06 605169 7.89532e+07
2.45043 73.2058 0.0108472 7.85666e-07 5.14913e+06 73.0784 7.84297e-07 5.36741e-06 753714 9.31768e+07
2.58954 79.0921 0.0128014 7.19262e-07 6.07894e+06 78.9556 7.18021e-07 4.68145e-06 933973 1.09963e+08
2.73654 85.4826 0.0151076 6.58709e-07 7.17304e+06 85.3379 6.57594e-07 4.08023e-06 1.15801e+06 1.29773e+08
2.89188 92.2812 0.0178292 6.02546e-07 8.46557e+06 92.1245 6.01523e-07 3.55373e-06 1.43536e+06 1.53152e+08
3.05605 99.4241 0.0210412 5.50086e-07 9.98773e+06 99.2602 5.4918e-07 3.09304e-06 1.77628e+06 1.80743e+08
3.22953 106.974 0.0248319 5.01508e-07 1.1797e+07 106.796 5.00676e-07 2.69025e-06 2.19916e+06 2.13304e+08
3.41286 114.84 0.0293054 4.56199e-07 1.39144e+07 114.644 4.55423e-07 2.33837e-06 2.7146e+06 2.51731e+08
3.6066 123.194 0.0345848 4.14682e-07 1.64163e+07 122.99 4.13993e-07 2.0312e-06 3.35148e+06 2.97081e+08
3.81134 131.86 0.0408154 3.76096e-07 1.93821e+07 131.643 3.75479e-07 1.76327e-06 4.13412e+06 3.50601e+08
4.0277 141.105 0.0481684 3.41029e-07 2.28754e+07 140.874 3.40471e-07 1.52972e-06 5.09974e+06 4.13763e+08
4.25634 150.819 0.056846 3.08863e-07 2.69929e+07 150.569 3.08352e-07 1.32631e-06 6.28597e+06 4.88304e+08
4.49796 160.92 0.067087 2.79243e-07 3.18542e+07 160.652 2.78777e-07 1.14926e-06 7.73984e+06 5.76273e+08
4.7533 171.57 0.0791729 2.52275e-07 3.75892e+07 171.289 2.51862e-07 9.95263e-07 9.52794e+06 6.8009e+08
5.02313 182.791 0.0934361 2.27745e-07 4.43706e+07 182.493 2.27374e-07 8.61414e-07 1.1731e+07 8.0261e+08
5.30828 194.458 0.110269 2.05297e-07 5.23593e+07 194.137 2.04959e-07 7.45152e-07 1.44255e+07 9.47202e+08
5.60962 206.558 0.130134 1.84783e-07 6.1787e+07 206.221 1.84481e-07 6.44232e-07 1.77221e+07 1.11784e+09
5.92807 219.412 0.153578 1.66318e-07 7.29346e+07 219.053 1.66046e-07 5.56685e-07 2.17904e+07 1.31923e+09
6.26459 232.737 0.181246 1.49489e-07 8.60651e+07 232.353 1.49242e-07 4.80786e-07 2.67598e+07 1.55689e+09
6.62021 246.632 0.213898 1.34231e-07 1.01558e+08 246.228 1.34011e-07 4.15026e-07 3.28468e+07 1.83737e+09
6.99602 261.199 0.252432 1.20458e-07 1.1986e+08 260.776 1.20263e-07 3.58083e-07 4.03207e+07 2.16837e+09
7.39317 276.345 0.297908 1.07989e-07 1.41457e+08 275.895 1.07813e-07 3.08803e-07 4.94677e+07 2.55901e+09
7.81286 292.341 0.351577 9.68009e-08 1.66936e+08 291.862 9.66425e-08 2.66181e-07 6.07088e+07 3.02002e+09
8.25637 309.19 0.414914 8.67516e-08 1.97025e+08 308.687 8.66103e-08 2.29336e-07 7.45292e+07 3.56409e+09
8.72507 326.754 0.489662 7.76844e-08 2.32497e+08 326.216 7.75566e-08 1.97503e-07 9.14486e+07 4.20617e+09
9.22037 345.671 0.577876 6.96367e-08 2.74404e+08 345.092 6.95201e-08 1.70014e-07 1.12394e+08 4.96392e+09
9.74378 366.265 0.681982 6.2522e-08 3.2382e+08 365.644 6.2416e-08 1.46289e-07 1.38396e+08 5.85818e+09
10.2969 389.202 0.804843 5.62955e-08 3.82165e+08 388.516 5.61962e-08 1.25822e-07 1.70988e+08 6.91355e+09
10.8814 416.484 0.949838 5.10456e-08 4.51027e+08 415.697 5.09493e-08 1.08175e-07 2.1283e+08 8.15905e+09
11.4992 451.482 1.12095 4.68881e-08 5.32251e+08 450.532 4.67895e-08 9.29669e-08 2.68442e+08 9.62892e+09
12.1519 500.766 1.3229 4.40676e-08 6.28157e+08 499.522 4.39581e-08 7.98658e-08 3.46599e+08 1.13636e+10
12.8418 556.277 1.56122 4.14798e-08 3.82727e+08 575.769 4.29333e-08 6.85852e-08 2.3147e+08 1.34108e+10
13.5708 0 1.84248 0 0 0 0 5.88765e-08 0 1.58268e+10
14.3411 0 2.17441 0 0 0 0 5.05241e-08 0 1.8678e+10
15.1552 0 2.56613 0 0 0 0 4.33417e-08 0 2.20429e+10
16.0156 0 3.02843 0 0 0 0 3.71677e-08 0 2.6014e+10
16.9247 0 3.574 0 0 0 0 3.18628e-08 0 3.07005e+10
17.8855 0 4.21787 0 0 0 0 2.73063e-08 0 3.62312e+10
18.9008 0 4.97773 0 0 0 0 2.33941e-08 0 4.27584e+10
19.9738 0 5.87448 0 0 0 0 2.00364e-08 0 5.04614e+10
21.1076 0 6.93279 0 0 0 0 1.71555e-08 0 5.95522e+10
22.3058 0 8.18175 0 0 0 0 1.46847e-08 0 7.02807e+10
23.5721 0 9.65571 0 0 0 0 1.25662e-08 0 8.29419e+10
24.9102 0 11.3952 0 0 0 0 1.07504e-08 0 9.78842e+10
26.3243 0 13.4481 0 0 0 0 9.19452e-09 0 1.15518e+11
27.8187 0 15.8708 0 0 0 0 7.86182e-09 0 1.36329e+11
29.3979 0 18.73 0 0 0 0 6.72061e-09 0 1.60889e+11
31.0667 0 22.1042 0 0 0 0 5.74366e-09 0 1.89874e+11
32.8303 0 26.0864 0 0 0 0 4.90756e-09 0 2.2408e+11
34.694 0 30.7859 0 0 0 0 4.19221e-09 0 2.64449e+11
36.6634 0 36.3321 0 0 0 0 3.58032e-09 0 3.1209e+11
38.7447 0 42.8774 0 0 0 0 3.05709e-09 0 3.68314e+11
40.9442 0 50.6018 0 0 0 0 2.60976e-09 0 4.34667e+11
43.2685 0 59.7179 0 0 0 0 2.22743e-09 0 5.12973e+11
45.7247 0 70.4762 0 0 0 0 1.90073e-09 0 6.05386e+11
48.3204 0 83.1727 0 0 0 0 1.62163e-09 0 7.14448e+11
51.0634 0 98.1565 0 0 0 0 1.38326e-09 0 8.43158e+11
53.9621 0 115.84 0 0 0 0 1.1797e-09 0 9.95055e+11
57.0254 0 136.709 0 0 0 0 1.00592e-09 0 1.17432e+12
60.2626 0 161.337 0 0 0 0 8.57591e-10 0 1.38587e+12
63.6835 0 190.402 0 0 0 0 7.3101e-10 0 1.63554e+12
67.2987 0 224.704 0 0 0 0 6.23009e-10 0 1.93019e+12
71.1191 0 265.185 0 0 0 0 5.30879e-10 0 2.27792e+12
75.1563 0 312.958 0 0 0 0 4.52303e-10 0 2.68829e+12
79.4227 0 369.339 0 0 0 0 3.85299e-10 0 3.17259e+12
83.9313 0 435.876 0 0 0 0 3.28173e-10 0 3.74415e+12
88.6959 0 514.4 0 0 0 0 2.79476e-10 0 4.41866e+12
93.7309 0 607.071 0 0 0 0 2.37972e-10 0 5.2147e+12
99.0518 0 716.436 0 0 0 0 2.02605e-10 0 6.15414e+12
104.675 0 845.504 0 0 0 0 1.72471e-10 0 7.26283e+12
110.617 0 997.824 0 0 0 0 1.468e-10 0 8.57124e+12
116.896 0 1177.58 0 0 0 0 1.24935e-10 0 1.01154e+13
123.532 0 1389.73 0 0 0 0 1.06313e-10 0 1.19377e+13
130.545 0 1640.09 0 0 0 0 9.04567e-11 0 1.40883e+13
137.955 0 1935.56 0 0 0 0 7.69563e-11 0 1.66263e+13
145.787 0 2284.26 0 0 0 0 6.54636e-11 0 1.96216e+13
154.063 0 2695.77 0 0 0 0 5.56812e-11 0 2.31565e+13
162.808 0 3181.42 0 0 0 0 4.73556e-11 0 2.73282e+13
172.051 0 3754.56 0 0 0 0 4.02708e-11 0 3.22515e+13
181.818 0 4430.96 0 0 0 0 3.42426e-11 0 3.80616e+13
192.139 0 5229.21 0 0 0 0 2.91139e-11 0 4.49186e+13
203.046 0 6171.26 0 0 0 0 2.4751e-11 0 5.30108e+13
214.572 0 7283.03 0 0 0 0 2.10401e-11 0 6.25608e+13
226.753 0 8595.09 0 0 0 0 1.78839e-11 0 7.38313e+13
239.625 0 10143.5 0 0 0 0 1.51999e-11 0 8.71322e+13
253.228 0 11970.9 0 0 0 0 1.29176e-11 0 1.02829e+14
267.603 0 14127.5 0 0 0 0 1.09771e-11 0 1.21354e+14
282.795 0 16672.6 0 0 0 0 9.3274e-12 0 1.43217e+14
298.848 0 19676.2 0 0 0 0 7.925e-12 0 1.69017e+14
315.813 0 23220.9 0 0 0 0 6.73295e-12 0 1.99466e+14
333.741 0 27404.3 0 0 0 0 5.71979e-12 0 2.35401e+14
352.686 0 32341.2 0 0 0 0 4.85874e-12 0 2.77809e+14
372.707 0 38167.6 0 0 0 0 4.12703e-12 0 3.27857e+14
393.865 0 45043.5 0 0 0 0 3.50528e-12 0 3.86921e+14
416.224 0 53158.3 0 0 0 0 2.97701e-12 0 4.56626e+14
439.852 0 62734.9 0 0 0 0 2.52819e-12 0 5.38888e+14
464.821 0 74036.7 0 0 0 0 2.1469e-12 0 6.35971e+14
491.207 0 87374.6 0 0 0 0 1.82301e-12 0 7.50542e+14
519.092 0 103115 0 0 0 0 1.54789e-12 0 8.85755e+14
548.56 0 121692 0 0 0 0 1.31422e-12 0 1.04533e+15
579.7 0 143615 0 0 0 0 1.11576e-12 0 1.23364e+15
612.608 0 169488 0 0 0 0 9.47223e-13 0 1.45589e+15
647.384 0 200021 0 0 0 0 8.041e-13 0 1.71817e+15
684.134 0 236056 0 0 0 0 6.82568e-13 0 2.0277e+15
722.971 0 278582 0 0 0 0 5.79376e-13 0 2.393e+15
764.012 0 328769 0 0 0 0 4.91762e-13 0 2.8241e+15
