0.139277
200
1.0655e+09
8589934592
0.0129181 0 1.58924e-09 0 0 0 0 0.00677225 0 13.6515
0.0136515 0 1.87554e-09 0 0 0 0 0.00688819 0 16.1108
0.0144264 0 2.21343e-09 0 0 0 0 0.00699249 0 19.0132
0.0152454 0 2.61218e-09 0 0 0 0 0.00708412 0 22.4385
0.0161108 0 3.08278e-09 0 0 0 0 0.00716212 0 26.4808
0.0170254 0 3.63815e-09 0 0 0 0 0.00722559 0 31.2514
0.0179919 0 4.29357e-09 0 0 0 0 0.00727371 0 36.8815
0.0190132 0 5.06707e-09 0 0 0 0 0.00730578 0 43.5258
0.0200925 0 5.97991e-09 0 0 0 0 0.00732122 0 51.367
0.0212331 0 7.05721e-09 0 0 0 0 0.00731958 0 60.621
0.0224385 0 8.32858e-09 0 0 0 0 0.00730056 0 71.542
0.0237123 0 9.829e-09 0 0 0 0 0.00726401 0 84.4305
0.0250583 0 1.15997e-08 0 0 0 0 0.00720995 0 99.6408
0.0264808 0 1.36894e-08 0 0 0 0 0.00713857 0 117.591
0.0279841 0 1.61556e-08 0 0 0 0 0.00705021 0 138.776
0.0295727 0 1.90661e-08 0 0 0 0 0.00694538 0 163.777
0.0312514 0 2.25009e-08 0 0 0 0 0.00682475 0 193.281
0.0330255 0 2.65545e-08 0 0 0 0 0.00668915 0 228.102
0.0349003 0 3.13384e-08 0 0 0 0 0.00653951 0 269.195
0.0368815 0 3.69841e-08 0 0 0 0 0.00637693 0 317.691
0.0389751 0 4.36469e-08 0 0 0 0 0.00620256 0 374.924
0.0411876 0 5.151e-08 0 0 0 0 0.00601767 0 442.467
0.0435258 0 6.07896e-08 0 0 0 0 0.00582358 0 522.179
0.0459966 0 7.1741e-08 0 0 0 0 0.00562166 0 616.251
0.0486077 0 8.46654e-08 0 0 0 0 0.0054133 0 727.27
0.051367 0 9.99181e-08 0 0 0 0 0.00519989 0 858.29
0.054283 0 1.17919e-07 0 0 0 0 0.0049828 0 1012.91
0.0573645 0 1.39162e-07 0 0 0 0 0.00476339 0 1195.39
0.060621 0 1.64232e-07 0 0 0 0 0.00454293 0 1410.75
0.0640622 0 1.93819e-07 0 0 0 0 0.00432265 0 1664.89
0.0676989 0 2.28736e-07 0 0 0 0 0.00410371 0 1964.83
0.071542 0 2.69944e-07 0 0 0 0 0.00388717 0 2318.8
0.0756032 0 3.18575e-07 0 0 0 0 0.00367401 0 2736.54
0.079895 0 3.75967e-07 0 0 0 0 0.0034651 0 3229.53
0.0844305 0 4.43698e-07 0 0 0 0 0.00326121 0 3811.34
0.0892234 0 5.23632e-07 0 0 0 0 0.00306301 0 4497.96
0.0942883 0 6.17966e-07 0 0 0 0 0.00287109 0 5308.28
0.0996408 0 7.29294e-07 0 0 0 0 0.00268591 0 6264.59
0.105297 0 8.60678e-07 0 0 0 0 0.00250785 0 7393.17
0.111275 0 1.01573e-06 0 0 0 0 0.00233721 0 8725.07
0.117591 0 1.19872e-06 0 0 0 0 0.00217419 0 10296.9
0.124267 0 1.41467e-06 0 0 0 0 0.00201893 0 12151.9
0.131321 0 1.66953e-06 0 0 0 0 0.00187147 0 14341.1
0.138776 0 1.9703e-06 0 0 0 0 0.00173182 0 16924.7
0.146654 0 2.32525e-06 0 0 0 0 0.00159991 0 19973.8
0.154979 0 2.74415e-06 0 0 0 0 0.00147563 0 23572.1
0.163777 0 3.23852e-06 0 0 0 0 0.00135884 0 27818.7
0.173074 0 3.82195e-06 0 0 0 0 0.00124933 0 32830.3
0.182899 0 4.51048e-06 0 0 0 0 0.00114689 0 38744.7
0.193281 0 5.32305e-06 0 0 0 0 0.00105127 0 45724.7
0.204254 0 6.28202e-06 0 0 0 0 0.000962209 0 53962.1
0.215848 0 7.41374e-06 0 0 0 0 0.000879423 0 63683.5
0.228102 0 8.74934e-06 0 0 0 0 0.000802624 0 75156.3
0.24105 0 1.03256e-05 0 0 0 0 0.000731515 0 88695.9
0.254734 0 1.21857e-05 0 0 0 0 0.000665798 0 104675
0.269195 0 1.4381e-05 0 0 0 0 0.000605173 0 123532
0.284476 0 1.69718e-05 0 0 0 0 0.000549345 0 145787
0.300625 0 2.00293e-05 0 0 0 0 0.000498021 0 172051
0.317691 0 2.36377e-05 0 0 0 0 0.000450916 0 203046
0.335725 0 2.78961e-05 0 0 0 0 0.000407755 0 239625
0.354784 0 3.29216e-05 0 0 0 0 0.000368269 0 282795
0.374924 0 3.88525e-05 0 0 0 0 0.000332202 0 333741
0.396207 0.562321 4.58519e-05 1.4277e-06 6 0.546687 1.38801e-06 0.000299307 0.0286201 393865
0.418699 0 5.41123e-05 0 0 0 0 0.00026935 0 464821
0.442467 0 6.38607e-05 0 0 0 0 0.000242108 0 548560
0.467585 0 7.53654e-05 0 0 0 0 0.00021737 0 647384
0.494129 0 8.89427e-05 0 0 0 0 0.000194938 0 764012
0.522179 0 0.000104966 0 0 0 0 0.000174625 0 901651
0.551822 0 0.000123876 0 0 0 0 0.000156255 0 1.06409e+06
0.583147 6.47098 0.000146192 5.15294e-06 12 6.81074 5.4235e-06 0.000139664 0.442743 1.25578e+06
0.616251 0 0.000172529 0 0 0 0 0.0001247 0 1.48202e+06
0.651234 0 0.000203611 0 0 0 0 0.00011122 0 1.74901e+06
0.688203 25.6206 0.000240292 1.24125e-05 8 24.9832 1.21037e-05 9.90935e-05 1.00209 2.06409e+06
0.72727 0 0.000283581 0 0 0 0 8.81969e-05 0 2.43595e+06
0.768555 0 0.000334669 0 0 0 0 7.84179e-05 0 2.87479e+06
0.812184 0.10489 0.000394961 3.09166e-08 6 0.107133 3.15776e-08 6.96525e-05 0.00266321 3.39269e+06
0.85829 0 0.000466114 0 0 0 0 6.1805e-05 0 4.00389e+06
0.907013 0.163851 0.000550086 3.46759e-08 24 0.166995 3.53413e-08 5.47875e-05 0.01519 4.7252e+06
0.958501 0.932251 0.000649185 1.67176e-07 24 0.877646 1.57384e-07 4.85194e-05 0.0826933 5.57646e+06
1.01291 0 0.000766138 0 0 0 0 4.29272e-05 0 6.58107e+06
1.07041 0 0.00090416 0 0 0 0 3.79435e-05 0 7.76667e+06
1.13118 1.57352 0.00106705 1.71672e-07 12 1.55419 1.69563e-07 3.3507e-05 0.0614817 9.16586e+06
1.19539 0.881489 0.00125928 8.14903e-08 30 0.863318 7.98103e-08 2.9562e-05 0.0826976 1.08171e+07
1.26325 7.51394 0.00148614 5.88597e-07 24 7.40087 5.7974e-07 2.60578e-05 0.542115 1.27658e+07
1.33496 19.3775 0.00175387 1.2862e-06 24 19.4201 1.28903e-06 2.29484e-05 1.34514 1.50656e+07
1.41075 5.68687 0.00206984 3.19851e-07 32 5.84463 3.28723e-07 2.01923e-05 0.506888 1.77798e+07
1.49083 0.487065 0.00244272 2.32125e-08 48 0.476681 2.27177e-08 1.77518e-05 0.0627657 2.09828e+07
1.57546 0.0578117 0.00288279 2.33461e-09 6 0.0550498 2.22307e-09 1.55929e-05 0.000898337 2.4763e+07
1.66489 0.447581 0.00340213 1.53155e-08 84 0.433028 1.48175e-08 1.3685e-05 0.0940081 2.92241e+07
1.75941 2.35167 0.00401503 6.81864e-08 48 2.36992 6.87154e-08 1.20007e-05 0.27273 3.44889e+07
1.85928 0.241636 0.00473835 5.93669e-09 72 0.243222 5.97566e-09 1.05151e-05 0.0406503 4.07021e+07
1.96483 0.804846 0.00559198 1.67555e-08 54 0.787087 1.63858e-08 9.20606e-06 0.0982828 4.80347e+07
2.07637 9.23442 0.00659939 1.62898e-07 104 9.21895 1.62625e-07 8.05366e-06 2.10357 5.66883e+07
2.19424 0.316547 0.00778828 4.73158e-09 120 0.319774 4.77982e-09 7.04008e-06 0.0806511 6.69008e+07
2.3188 1.84094 0.00919136 2.33168e-08 156 1.75144 2.21833e-08 6.1494e-06 0.591509 7.89532e+07
2.45043 0.663432 0.0108472 7.12014e-09 126 0.657134 7.05255e-09 5.36741e-06 0.167145 9.31768e+07
2.58954 0.661448 0.0128014 6.01519e-09 192 0.670919 6.10133e-09 4.68145e-06 0.2467 1.09963e+08
2.73654 3.97733 0.0151076 3.06484e-08 152 4.13148 3.18362e-08 4.08023e-06 1.14174 1.29773e+08
2.89188 3.8758 0.0178292 2.53069e-08 378 3.96713 2.59032e-08 3.55373e-06 2.69182 1.53152e+08
3.05605 1.44657 0.0210412 8.0035e-09 264 1.41993 7.85611e-09 3.09304e-06 0.683122 1.80743e+08
3.22953 0.285676 0.0248319 1.33929e-09 366 0.281689 1.3206e-09 2.69025e-06 0.182206 2.13304e+08
3.41286 0.787705 0.0293054 3.12915e-09 428 0.754133 2.99579e-09 2.33837e-06 0.572739 2.51731e+08
3.6066 3.47119 0.0345848 1.16843e-08 486 3.35639 1.12979e-08 2.0312e-06 2.79567 2.97081e+08
3.81134 0.848709 0.0408154 2.42072e-09 600 0.84398 2.40723e-09 1.76327e-06 0.823718 3.50601e+08
4.0277 0.613251 0.0481684 1.48213e-09 738 0.602442 1.45601e-09 1.52972e-06 0.71504 4.13763e+08
4.25634 1.22801 0.056846 2.51485e-09 824 1.27187 2.60467e-09 1.32631e-06 1.56241 4.88304e+08
4.49796 2.84351 0.067087 4.93431e-09 954 2.86481 4.97127e-09 1.14926e-06 4.09598 5.76273e+08
4.7533 0.620834 0.0791729 9.1287e-10 1094 0.610545 8.97741e-10 9.95263e-07 1.00343 6.8009e+08
5.02313 0.421943 0.0934361 5.25713e-10 1332 0.421007 5.24548e-10 8.61414e-07 0.812908 8.0261e+08
5.30828 2.3266 0.110269 2.45629e-09 1614 2.35579 2.48711e-09 7.45152e-07 5.32031 9.47202e+08
5.60962 1.13909 0.130134 1.01901e-09 1850 1.10774 9.90962e-10 6.44232e-07 2.92622 1.11784e+09
5.92807 1.61697 0.153578 1.22569e-09 2238 1.55361 1.17767e-09 5.56685e-07 4.92756 1.31923e+09
6.26459 0.789871 0.181246 5.0734e-10 2546 0.799428 5.13478e-10 4.80786e-07 2.68661 1.55689e+09
6.62021 0.432352 0.213898 2.35311e-10 3264 0.432097 2.35172e-10 4.15026e-07 1.85062 1.83737e+09
6.99602 1.62037 0.252432 7.47273e-10 3506 1.66837 7.69411e-10 3.58083e-07 7.31658 2.16837e+09
7.39317 0.790869 0.297908 3.09053e-10 4506 0.798014 3.11845e-10 3.08803e-07 4.50964 2.55901e+09
7.81286 1.42617 0.351577 4.72238e-10 5018 1.46571 4.85329e-10 2.66181e-07 8.90255 3.02002e+09
8.25637 1.30137 0.414914 3.65135e-10 5852 1.26106 3.53824e-10 2.29336e-07 9.3172 3.56409e+09
8.72507 0.943386 0.489662 2.24286e-10 7362 0.936133 2.22562e-10 1.97503e-07 8.36036 4.20617e+09
9.22037 1.2353 0.577876 2.48856e-10 8306 1.22414 2.46607e-10 1.70014e-07 12.1578 4.96392e+09
9.74378 0.673986 0.681982 1.1505e-10 9698 0.674459 1.15131e-10 1.46289e-07 7.62708 5.85818e+09
10.2969 1.33319 0.804843 1.92837e-10 11816 1.34833 1.95027e-10 1.25822e-07 18.1093 6.91355e+09
10.8814 1.21251 0.949838 1.48609e-10 13682 1.21349 1.48729e-10 1.08175e-07 18.796 8.15905e+09
11.4992 1.21102 1.12095 1.25769e-10 16152 1.19634 1.24245e-10 9.29669e-08 21.851 9.62892e+09
12.1519 1.25805 1.3229 1.10709e-10 19472 1.23845 1.08984e-10 7.98658e-08 26.9919 1.13636e+10
12.8418 0.950328 1.56122 7.0863e-11 22670 0.952927 7.10568e-11 6.85852e-08 23.4229 1.34108e+10
13.5708 1.37662 1.84248 8.69803e-11 26224 1.38694 8.76324e-11 5.88765e-08 38.7416 1.58268e+10
14.3411 1.35935 2.17441 7.27782e-11 31640 1.36761 7.32206e-11 5.05241e-08 45.5763 1.8678e+10
15.1552 1.5593 2.56613 7.07393e-11 37484 1.56323 7.09175e-11 4.33417e-08 61.1788 2.20429e+10
16.0156 1.64058 3.02843 6.30654e-11 43856 1.64824 6.33599e-11 3.71677e-08 74.4139 2.6014e+10
16.9247 2.23241 3.574 7.27159e-11 51362 2.22804 7.25736e-11 3.18628e-08 117.216 3.07005e+10
17.8855 2.37605 4.21787 6.55802e-11 61636 2.36025 6.51442e-11 2.73063e-08 148.028 3.62312e+10
18.9008 3.0124 4.97773 7.04518e-11 72218 3.00075 7.01791e-11 2.33941e-08 217.486 4.27584e+10
19.9738 3.65749 5.87448 7.2481e-11 84586 3.64079 7.215e-11 2.00364e-08 305.987 5.04614e+10
21.1076 4.42393 6.93279 7.42866e-11 100708 4.41336 7.41092e-11 1.71555e-08 436.084 5.95522e+10
22.3058 5.48053 8.18175 7.79806e-11 118712 5.46723 7.77913e-11 1.46847e-08 630.402 7.02807e+10
23.5721 6.45136 9.65571 7.77816e-11 140410 6.43227 7.75515e-11 1.25662e-08 869.106 8.29419e+10
24.9102 7.59576 11.3952 7.75994e-11 164374 7.56977 7.7334e-11 1.07504e-08 1186.5 9.78842e+10
26.3243 8.94224 13.4481 7.74097e-11 194680 8.91393 7.71647e-11 9.19452e-09 1639.03 1.15518e+11
27.8187 10.3108 15.8708 7.56319e-11 230196 10.2743 7.53639e-11 7.86182e-09 2214.52 1.36329e+11
29.3979 12.0871 18.73 7.51267e-11 271156 12.0473 7.48795e-11 6.72061e-09 3031.13 1.60889e+11
31.0667 13.963 22.1042 7.35381e-11 321076 13.9163 7.32923e-11 5.74366e-09 4110.85 1.89874e+11
32.8303 16.0012 26.0864 7.14084e-11 377436 15.9458 7.11612e-11 4.90756e-09 5491.96 2.2408e+11
34.694 18.4115 30.7859 6.96222e-11 447594 18.3538 6.94042e-11 4.19221e-09 7433.44 2.64449e+11
36.6634 21.3199 36.3321 6.83134e-11 525078 21.2552 6.81061e-11 3.58032e-09 10018.6 3.1209e+11
38.7447 24.7953 42.8774 6.73211e-11 621924 24.7227 6.71239e-11 3.05709e-09 13695.6 3.68314e+11
40.9442 28.8619 50.6018 6.64001e-11 732630 28.7692 6.61869e-11 2.60976e-09 18640.3 4.34667e+11
43.2685 33.8232 59.7179 6.59356e-11 865596 33.7138 6.57224e-11 2.22743e-09 25623 5.12973e+11
45.7247 39.4377 70.4762 6.51447e-11 1.02168e+06 39.3147 6.49415e-11 1.90073e-09 35016.4 6.05386e+11
48.3204 46.2734 83.1727 6.4768e-11 1.20544e+06 46.1334 6.45721e-11 1.62163e-09 48145.1 7.14448e+11
51.0634 54.0225 98.1565 6.40716e-11 1.42103e+06 53.8547 6.38726e-11 1.38326e-09 65821.3 8.43158e+11
53.9621 63.3663 115.84 6.36812e-11 1.67997e+06 63.1655 6.34794e-11 1.1797e-09 90685.8 9.95055e+11
57.0254 74.2984 136.709 6.32695e-11 1.98018e+06 74.0639 6.30697e-11 1.00592e-09 124548 1.17432e+12
60.2626 86.9913 161.337 6.277e-11 2.33957e+06 86.7032 6.25621e-11 8.57591e-10 171241 1.38587e+12
63.6835 101.995 190.402 6.23618e-11 2.75676e+06 101.668 6.21617e-11 7.3101e-10 235177 1.63554e+12
67.2987 120.073 224.704 6.22078e-11 3.25638e+06 119.688 6.20083e-11 6.23009e-10 325151 1.93019e+12
71.1191 140.785 265.185 6.18043e-11 3.84387e+06 140.335 6.16069e-11 5.30879e-10 447499 2.27792e+12
75.1563 165.611 312.958 6.16045e-11 4.53277e+06 165.086 6.14091e-11 4.52303e-10 617371 2.68829e+12
79.4227 194.893 369.339 6.14301e-11 5.35083e+06 194.264 6.12318e-11 3.85299e-10 853108 3.17259e+12
83.9313 229.123 435.876 6.11949e-11 6.32174e+06 228.383 6.09973e-11 3.28173e-10 1.17882e+06 3.74415e+12
88.6959 270.008 514.4 6.11061e-11 7.44986e+06 269.109 6.09027e-11 2.79476e-10 1.62888e+06 4.41866e+12
93.7309 317.583 607.071 6.09015e-11 8.79764e+06 316.55 6.07034e-11 2.37972e-10 2.25148e+06 5.2147e+12
99.0518 374.65 716.436 6.08777e-11 1.03827e+07 373.42 6.06778e-11 2.02605e-10 3.11974e+06 6.15414e+12
104.675 441.359 845.504 6.07696e-11 1.22515e+07 439.911 6.05703e-11 1.72471e-10 4.31679e+06 7.26283e+12
110.617 520.43 997.824 6.07182e-11 1.44573e+07 518.721 6.05188e-11 1.468e-10 5.97971e+06 8.57124e+12
116.896 613.894 1177.58 6.06892e-11 1.70664e+07 611.88 6.049e-11 1.24935e-10 8.2903e+06 1.01154e+13
123.532 724.163 1389.73 6.06619e-11 2.0139e+07 721.766 6.04612e-11 1.06313e-10 1.14912e+07 1.19377e+13
130.545 867.423 1640.09 6.15705e-11 2.37643e+07 865.158 6.14097e-11 9.04567e-11 1.61755e+07 1.40883e+13
137.955 1008.51 1935.56 6.06576e-11 2.80503e+07 1005.17 6.04563e-11 7.69563e-11 2.21095e+07 1.66263e+13
145.787 1189.71 2284.26 6.06329e-11 3.30981e+07 1185.79 6.0433e-11 6.54636e-11 3.06557e+07 1.96216e+13
154.063 1405.97 2695.77 6.07158e-11 3.90634e+07 1401.26 6.05127e-11 5.56812e-11 4.25955e+07 2.31565e+13
162.808 1658.91 3181.42 6.07034e-11 4.61057e+07 1653.39 6.05011e-11 4.73556e-11 5.91011e+07 2.73282e+13
172.051 1958.84 3754.56 6.07364e-11 5.44046e+07 1952.28 6.05332e-11 4.02708e-11 8.20529e+07 3.22515e+13
181.818 2319.73 4430.96 6.09466e-11 6.42064e+07 2312.1 6.07462e-11 3.42426e-11 1.14278e+08 3.80616e+13
192.139 2737.01 5229.21 6.09328e-11 7.57748e+07 2727.81 6.0728e-11 2.91139e-11 1.5859e+08 4.49186e+13
203.046 3243.13 6171.26 6.11788e-11 8.94213e+07 3232.04 6.09696e-11 2.4751e-11 2.21029e+08 5.30108e+13
214.572 3831.88 7283.03 6.12505e-11 1.05538e+08 3818.93 6.10435e-11 2.10401e-11 3.07236e+08 6.25608e+13
226.753 4541.12 8595.09 6.15067e-11 1.24552e+08 4525.66 6.12973e-11 1.78839e-11 4.28361e+08 7.38313e+13
239.625 5386.43 10143.5 6.1819e-11 1.46987e+08 5368.06 6.16083e-11 1.51999e-11 5.97807e+08 8.71322e+13
253.228 6397.05 11970.9 6.22104e-11 1.7347e+08 6375.03 6.19963e-11 1.29176e-11 8.3542e+08 1.02829e+14
267.603 7617.83 14127.5 6.27735e-11 2.04703e+08 7591.41 6.25557e-11 1.09771e-11 1.17061e+09 1.21354e+14
282.795 9097.05 16672.6 6.35196e-11 2.4161e+08 9064.97 6.32956e-11 9.3274e-12 1.64536e+09 1.43217e+14
298.848 10902 19676.2 6.45024e-11 2.85122e+08 10862.9 6.42708e-11 7.925e-12 2.32064e+09 1.69017e+14
315.813 13142 23220.9 6.58856e-11 3.36491e+08 13093.8 6.56442e-11 6.73295e-12 3.29275e+09 1.99466e+14
333.741 15957.7 27404.3 6.77896e-11 3.97115e+08 15897 6.75317e-11 5.71979e-12 4.70651e+09 2.35401e+14
352.686 19586 32341.2 7.05018e-11 4.68637e+08 19508.2 7.02218e-11 4.85874e-12 6.80007e+09 2.77809e+14
372.707 24402.3 38167.6 7.44299e-11 5.53074e+08 24299.7 7.41167e-11 4.12703e-12 9.97454e+09 3.27857e+14
393.865 31050 45043.5 8.02489e-11 6.52716e+08 30909.1 7.98849e-11 3.50528e-12 1.49431e+10 3.86921e+14
416.224 36635.9 53158.3 8.02318e-11 2.2184e+08 38757.4 8.48778e-11 2.97701e-12 5.97868e+09 4.56626e+14
439.852 0 62734.9 0 0 0 0 2.52819e-12 0 5.38888e+14
464.821 0 74036.7 0 0 0 0 2.1469e-12 0 6.35971e+14
491.207 0 87374.6 0 0 0 0 1.82301e-12 0 7.50542e+14
519.092 0 103115 0 0 0 0 1.54789e-12 0 8.85755e+14
548.56 0 121692 0 0 0 0 1.31422e-12 0 1.04533e+15
579.7 0 143615 0 0 0 0 1.11576e-12 0 1.23364e+15
612.608 0 169488 0 0 0 0 9.47223e-13 0 1.45589e+15
647.384 0 200021 0 0 0 0 8.041e-13 0 1.71817e+15
684.134 0 236056 0 0 0 0 6.82568e-13 0 2.0277e+15
722.971 0 278582 0 0 0 0 5.79376e-13 0 2.393e+15
764.012 0 328769 0 0 0 0 4.91762e-13 0 2.8241e+15
0.139277
200
1.0655e+09
8589934592
0.0129181 6.84295e-05 1.58924e-09 5.01262e-06 6 6.78031e-05 4.96673e-06 0.00677225 0.00444102 13.6515
0.0136515 0 1.87554e-09 0 0 0 0 0.00688819 0 16.1108
0.0144264 0 2.21343e-09 0 0 0 0 0.00699249 0 19.0132
0.0152454 0 2.61218e-09 0 0 0 0 0.00708412 0 22.4385
0.0161108 0 3.08278e-09 0 0 0 0 0.00716212 0 26.4808
0.0170254 0 3.63815e-09 0 0 0 0 0.00722559 0 31.2514
0.0179919 0.00014948 4.29357e-09 4.05299e-06 12 0.000149288 4.04777e-06 0.00727371 0.00668653 36.8815
0.0190132 0 5.06707e-09 0 0 0 0 0.00730578 0 43.5258
0.0200925 0 5.97991e-09 0 0 0 0 0.00732122 0 51.367
0.0212331 0.000140024 7.05721e-09 2.30984e-06 8 0.000139903 2.30783e-06 0.00731958 0.00252456 60.621
0.0224385 0 8.32858e-09 0 0 0 0 0.00730056 0 71.542
0.0237123 0 9.829e-09 0 0 0 0 0.00726401 0 84.4305
0.0250583 0.000893579 1.15997e-08 8.968e-06 6 0.000893158 8.96377e-06 0.00720995 0.00746301 99.6408
0.0264808 0 1.36894e-08 0 0 0 0 0.00713857 0 117.591
0.0279841 0.000553291 1.61556e-08 3.98694e-06 24 0.000552723 3.98285e-06 0.00705021 0.0135722 138.776
0.0295727 0 1.90661e-08 0 0 0 0 0.00694538 0 163.777
0.0312514 0.000985113 2.25009e-08 5.09678e-06 24 0.000990115 5.12266e-06 0.00682475 0.0179234 193.281
0.0330255 0 2.65545e-08 0 0 0 0 0.00668915 0 228.102
0.0349003 0.0013719 3.13384e-08 5.09629e-06 12 0.00136091 5.05549e-06 0.00653951 0.00935169 269.195
0.0368815 0.00118294 3.69841e-08 3.72357e-06 30 0.00117035 3.68392e-06 0.00637693 0.0175174 317.691
0.0389751 0.00140522 4.36469e-08 3.74801e-06 24 0.00139076 3.70946e-06 0.00620256 0.0145025 374.924
0.0411876 0.000888853 5.151e-08 2.00886e-06 24 0.000882817 1.99521e-06 0.00601767 0.00801183 442.467
0.0435258 0.00191813 6.07896e-08 3.67332e-06 8 0.00191798 3.67304e-06 0.00582358 0.00504614 522.179
0.0459966 0.00244329 7.1741e-08 3.96476e-06 72 0.00242398 3.93343e-06 0.00562166 0.050779 616.251
0.0486077 0 8.46654e-08 0 0 0 0 0.0054133 0 727.27
0.051367 0.00363422 9.99181e-08 4.23426e-06 54 0.00362271 4.22085e-06 0.00519989 0.0439721 858.29
0.054283 0.0028189 1.17919e-07 2.78296e-06 60 0.00283067 2.79459e-06 0.0049828 0.0335108 1012.91
0.0573645 0.00279596 1.39162e-07 2.33895e-06 96 0.00278882 2.33297e-06 0.00476339 0.0471385 1195.39
0.060621 0.00321835 1.64232e-07 2.28131e-06 24 0.00317475 2.25041e-06 0.00454293 0.012052 1410.75
0.0640622 0.00566181 1.93819e-07 3.4007e-06 134 0.00566493 3.40257e-06 0.00432265 0.10542 1664.89
0.0676989 0.00541486 2.28736e-07 2.75589e-06 120 0.00539007 2.74327e-06 0.00410371 0.0805873 1964.83
0.071542 0.00493421 2.69944e-07 2.12792e-06 108 0.00488086 2.10491e-06 0.00388717 0.0591214 2318.8
0.0756032 0.00715704 3.18575e-07 2.61536e-06 174 0.00711981 2.60176e-06 0.00367401 0.123863 2736.54
0.079895 0.00762792 3.75967e-07 2.36193e-06 168 0.00755602 2.33966e-06 0.0034651 0.114515 3229.53
0.0844305 0.00650943 4.43698e-07 1.70791e-06 168 0.006542 1.71646e-06 0.00326121 0.0879825 3811.34
0.0892234 0.0073035 5.23632e-07 1.62373e-06 290 0.00727293 1.61694e-06 0.00306301 0.153732 4497.96
0.0942883 0.00945982 6.17966e-07 1.78209e-06 288 0.00943606 1.77761e-06 0.00287109 0.178762 5308.28
0.0996408 0.00858634 7.29294e-07 1.37061e-06 366 0.00851401 1.35907e-06 0.00268591 0.186769 6264.59
0.105297 0.00928515 8.60678e-07 1.25591e-06 420 0.0092212 1.24726e-06 0.00250785 0.210332 7393.17
0.111275 0.0098006 1.01573e-06 1.12327e-06 398 0.00977384 1.1202e-06 0.00233721 0.19128 8725.07
0.117591 0.0116392 1.19872e-06 1.13036e-06 624 0.0116632 1.13269e-06 0.00217419 0.324417 10296.9
0.124267 0.0128433 1.41467e-06 1.05689e-06 642 0.0128272 1.05557e-06 0.00201893 0.336082 12151.9
0.131321 0.0162635 1.66953e-06 1.13405e-06 800 0.0162696 1.13447e-06 0.00187147 0.484773 14341.1
0.138776 0.0147204 1.9703e-06 8.69756e-07 858 0.0147915 8.73957e-07 0.00173182 0.430906 16924.7
0.146654 0.0158587 2.32525e-06 7.93979e-07 1080 0.0159916 8.0063e-07 0.00159991 0.535966 19973.8
0.154979 0.0187204 2.74415e-06 7.94179e-07 1286 0.0188502 7.99683e-07 0.00147563 0.692118 23572.1
0.163777 0.0176666 3.23852e-06 6.35062e-07 1650 0.0176986 6.36212e-07 0.00135884 0.771138 27818.7
0.173074 0.0207582 3.82195e-06 6.3229e-07 1778 0.020761 6.32374e-07 0.00124933 0.89985 32830.3
0.182899 0.0202393 4.51048e-06 5.22376e-07 2112 0.0202879 5.23629e-07 0.00114689 0.961956 38744.7
0.193281 0.0237388 5.32305e-06 5.19167e-07 2570 0.023774 5.19937e-07 0.00105127 1.26919 45724.7
0.204254 0.0263268 6.28202e-06 4.87875e-07 3030 0.026316 4.87676e-07 0.000962209 1.53632 53962.1
0.215848 0.026111 7.41374e-06 4.10012e-07 3434 0.0261067 4.09944e-07 0.000879423 1.60103 63683.5
0.228102 0.0272207 8.74934e-06 3.62187e-07 4218 0.027228 3.62285e-07 0.000802624 1.90339 75156.3
0.24105 0.0306629 1.03256e-05 3.45708e-07 4766 0.0306927 3.46045e-07 0.000731515 2.25237 88695.9
0.254734 0.0327129 1.21857e-05 3.1252e-07 6026 0.0327035 3.1243e-07 0.000665798 2.82855 104675
0.269195 0.0341619 1.4381e-05 2.76543e-07 6480 0.0341461 2.76414e-07 0.000605173 2.96113 123532
0.284476 0.0369791 1.69718e-05 2.53652e-07 8162 0.0370655 2.54245e-07 0.000549345 3.76869 145787
0.300625 0.0371491 2.00293e-05 2.1592e-07 9578 0.037197 2.16198e-07 0.000498021 4.15259 172051
0.317691 0.0412263 2.36377e-05 2.03039e-07 11234 0.0411965 2.02892e-07 0.000450916 5.05845 203046
0.335725 0.0430482 2.78961e-05 1.79648e-07 13344 0.0430291 1.79568e-07 0.000407755 5.87908 239625
0.354784 0.0445654 3.29216e-05 1.57589e-07 15464 0.0445397 1.57499e-07 0.000368269 6.61734 282795
0.374924 0.047766 3.88525e-05 1.43123e-07 18458 0.0477604 1.43106e-07 0.000332202 7.95229 333741
0.396207 0.05 4.58519e-05 1.26947e-07 22232 0.0499294 1.26768e-07 0.000299307 9.4294 393865
0.418699 0.0539854 5.41123e-05 1.16142e-07 25628 0.0538742 1.15903e-07 0.00026935 11.0507 464821
0.442467 0.0561842 6.38607e-05 1.02421e-07 30320 0.0560874 1.02245e-07 0.000242108 12.8266 548560
0.467585 0.0587345 7.53654e-05 9.07258e-08 35452 0.0586512 9.05972e-08 0.00021737 14.7969 647384
0.494129 0.0608326 8.89427e-05 7.96225e-08 41792 0.0608108 7.95941e-08 0.000194938 17.0699 764012
0.522179 0.0656444 0.000104966 7.28047e-08 49988 0.0656267 7.27851e-08 0.000174625 20.841 901651
0.551822 0.0685017 0.000123876 6.43761e-08 59110 0.0684594 6.43364e-08 0.000156255 24.353 1.06409e+06
0.583147 0.0722032 0.000146192 5.74965e-08 69716 0.0721172 5.74281e-08 0.000139664 28.7005 1.25578e+06
0.616251 0.0760327 0.000172529 5.13036e-08 82210 0.0759139 5.12234e-08 0.0001247 33.8225 1.48202e+06
0.651234 0.080272 0.000203611 4.58958e-08 96722 0.0801271 4.5813e-08 0.00011122 39.9129 1.74901e+06
0.688203 0.0842791 0.000240292 4.08311e-08 113098 0.084204 4.07946e-08 9.90935e-05 46.6016 2.06409e+06
0.72727 0.0874812 0.000283581 3.59126e-08 135190 0.0873933 3.58766e-08 8.81969e-05 55.0476 2.43595e+06
0.768555 0.0927218 0.000334669 3.22534e-08 158170 0.0926411 3.22254e-08 7.84179e-05 65.0556 2.87479e+06
0.812184 0.096859 0.000394961 2.85493e-08 188560 0.0967663 2.8522e-08 6.96525e-05 77.2874 3.39269e+06
0.85829 0.101217 0.000466114 2.52798e-08 220444 0.101104 2.52515e-08 6.1805e-05 90.167 4.00389e+06
0.907013 0.106308 0.000550086 2.2498e-08 261388 0.106203 2.24758e-08 5.47875e-05 107.337 4.7252e+06
0.958501 0.111259 0.000649185 1.99515e-08 308244 0.111143 1.99307e-08 4.85194e-05 126.752 5.57646e+06
1.01291 0.117323 0.000766138 1.78274e-08 364396 0.117197 1.78082e-08 4.29272e-05 151.331 6.58107e+06
1.07041 0.122382 0.00090416 1.57573e-08 429162 0.122233 1.57382e-08 3.79435e-05 178.224 7.76667e+06
1.13118 0.128904 0.00106705 1.40635e-08 506358 0.128754 1.40471e-08 3.3507e-05 212.527 9.16586e+06
1.19539 0.134592 0.00125928 1.24425e-08 598590 0.134423 1.24269e-08 2.9562e-05 251.943 1.08171e+07
1.26325 0.141185 0.00148614 1.10596e-08 704844 0.141008 1.10457e-08 2.60578e-05 299.153 1.27658e+07
1.33496 0.147563 0.00175387 9.79467e-09 834620 0.147374 9.78215e-09 2.29484e-05 356.226 1.50656e+07
1.41075 0.154488 0.00206984 8.689e-09 981444 0.154305 8.67868e-09 2.01923e-05 422.328 1.77798e+07
1.49083 0.161858 0.00244272 7.71383e-09 1.15998e+06 0.161652 7.704e-09 1.77518e-05 504.055 2.09828e+07
1.57546 0.170185 0.00288279 6.87256e-09 1.36931e+06 0.169964 6.86364e-09 1.55929e-05 603.524 2.4763e+07
1.66489 0.178185 0.00340213 6.09719e-09 1.61652e+06 0.177933 6.08857e-09 1.3685e-05 720.219 2.92241e+07
1.75941 0.186633 0.00401503 5.4114e-09 1.90601e+06 0.186377 5.40398e-09 1.20007e-05 859.465 3.44889e+07
1.85928 0.195958 0.00473835 4.81444e-09 2.24913e+06 0.195704 4.8082e-09 1.05151e-05 1029.78 4.07021e+07
1.96483 0.205024 0.00559198 4.26824e-09 2.65744e+06 0.204733 4.26219e-09 9.20606e-06 1232.08 4.80347e+07
2.07637 0.215366 0.00659939 3.79912e-09 3.13125e+06 0.215071 3.79392e-09 8.05366e-06 1477.09 5.66883e+07
2.19424 0.226052 0.00778828 3.37891e-09 3.69915e+06 0.225749 3.37438e-09 7.04008e-06 1775.42 6.69008e+07
2.3188 0.237227 0.00919136 3.00465e-09 4.36472e+06 0.236891 3.0004e-09 6.1494e-06 2132.64 7.89532e+07
2.45043 0.249424 0.0108472 2.67689e-09 5.14913e+06 0.249071 2.6731e-09 5.36741e-06 2568.03 9.31768e+07
2.58954 0.262509 0.0128014 2.38725e-09 6.07894e+06 0.262127 2.38377e-09 4.68145e-06 3099.88 1.09963e+08
2.73654 0.275915 0.0151076 2.12614e-09 7.17304e+06 0.275519 2.12309e-09 4.08023e-06 3737.75 1.29773e+08
2.89188 0.290349 0.0178292 1.89583e-09 8.46557e+06 0.28993 1.89309e-09 3.55373e-06 4516.17 1.53152e+08
3.05605 0.305924 0.0210412 1.69259e-09 9.98773e+06 0.3055 1.69025e-09 3.09304e-06 5465.55 1.80743e+08
3.22953 0.322406 0.0248319 1.51149e-09 1.1797e+07 0.321938 1.50929e-09 2.69025e-06 6628.01 2.13304e+08
3.41286 0.340383 0.0293054 1.35217e-09 1.39144e+07 0.339864 1.35011e-09 2.33837e-06 8046.03 2.51731e+08
3.6066 0.359152 0.0345848 1.20894e-09 1.64163e+07 0.35862 1.20715e-09 2.0312e-06 9770.68 2.97081e+08
3.81134 0.379602 0.0408154 1.08272e-09 1.93821e+07 0.379028 1.08108e-09 1.76327e-06 11901.4 3.50601e+08
4.0277 0.401543 0.0481684 9.70466e-10 2.28754e+07 0.400927 9.68977e-10 1.52972e-06 14512.3 4.13763e+08
4.25634 0.425053 0.056846 8.70468e-10 2.69929e+07 0.424385 8.691e-10 1.32631e-06 17715.7 4.88304e+08
4.49796 0.450713 0.067087 7.82117e-10 3.18542e+07 0.449995 7.80872e-10 1.14926e-06 21678.1 5.76273e+08
4.7533 0.47828 0.0791729 7.03259e-10 3.75892e+07 0.477511 7.02129e-10 9.95263e-07 26560.8 6.8009e+08
5.02313 0.50789 0.0934361 6.32798e-10 4.43706e+07 0.50707 6.31776e-10 8.61414e-07 32594.8 8.0261e+08
5.30828 0.540044 0.110269 5.70147e-10 5.23593e+07 0.539144 5.69196e-10 7.45152e-07 40062.2 9.47202e+08
5.60962 0.575138 0.130134 5.14506e-10 6.1787e+07 0.574186 5.13655e-10 6.44232e-07 49345.3 1.11784e+09
5.92807 0.61345 0.153578 4.65008e-10 7.29346e+07 0.612395 4.64208e-10 5.56685e-07 60923.4 1.31923e+09
6.26459 0.65494 0.181246 4.20673e-10 8.60651e+07 0.653798 4.19939e-10 4.80786e-07 75304.2 1.55689e+09
6.62021 0.700938 0.213898 3.81491e-10 1.01558e+08 0.699699 3.80816e-10 4.15026e-07 93351.9 1.83737e+09
6.99602 0.751277 0.252432 3.46471e-10 1.1986e+08 0.749933 3.45851e-10 3.58083e-07 115973 2.16837e+09
7.39317 0.807115 0.297908 3.15401e-10 1.41457e+08 0.805647 3.14828e-10 3.08803e-07 144479 2.55901e+09
7.81286 0.868553 0.351577 2.87598e-10 1.66936e+08 0.866931 2.87061e-10 2.66181e-07 180368 3.02002e+09
8.25637 0.936759 0.414914 2.62833e-10 1.97025e+08 0.934986 2.62335e-10 2.29336e-07 225803 3.56409e+09
8.72507 1.0125 0.489662 2.40719e-10 2.32497e+08 1.01055 2.40254e-10 1.97503e-07 283369 4.20617e+09
9.22037 1.09761 0.577876 2.21117e-10 2.74404e+08 1.09542 2.20677e-10 1.70014e-07 356884 4.96392e+09
9.74378 1.19434 0.681982 2.03875e-10 3.2382e+08 1.19189 2.03457e-10 1.46289e-07 451290 5.85818e+09
10.2969 1.30673 0.804843 1.89011e-10 3.82165e+08 1.30393 1.88605e-10 1.25822e-07 574088 6.91355e+09
10.8814 1.44294 0.949838 1.76852e-10 4.51027e+08 1.43963 1.76446e-10 1.08175e-07 737366 8.15905e+09
11.4992 1.61805 1.12095 1.68041e-10 5.32251e+08 1.61393 1.67612e-10 9.29669e-08 962060 9.62892e+09
12.1519 1.86149 1.3229 1.63812e-10 6.28157e+08 1.85599 1.63328e-10 7.98658e-08 1.28841e+06 1.13636e+10
12.8418 2.12668 1.56122 1.5858e-10 3.82727e+08 2.2009 1.64114e-10 6.85852e-08 884925 1.34108e+10
13.5708 0 1.84248 0 0 0 0 5.88765e-08 0 1.58268e+10
14.3411 0 2.17441 0 0 0 0 5.05241e-08 0 1.8678e+10
15.1552 0 2.56613 0 0 0 0 4.33417e-08 0 2.20429e+10
16.0156 0 3.02843 0 0 0 0 3.71677e-08 0 2.6014e+10
16.9247 0 3.574 0 0 0 0 3.18628e-08 0 3.07005e+10
17.8855 0 4.21787 0 0 0 0 2.73063e-08 0 3.62312e+10
18.9008 0 4.97773 0 0 0 0 2.33941e-08 0 4.27584e+10
19.9738 0 5.87448 0 0 0 0 2.00364e-08 0 5.04614e+10
21.1076 0 6.93279 0 0 0 0 1.71555e-08 0 5.95522e+10
22.3058 0 8.18175 0 0 0 0 1.46847e-08 0 7.02807e+10
23.5721 0 9.65571 0 0 0 0 1.25662e-08 0 8.29419e+10
24.9102 0 11.3952 0 0 0 0 1.07504e-08 0 9.78842e+10
26.3243 0 13.4481 0 0 0 0 9.19452e-09 0 1.15518e+11
27.8187 0 15.8708 0 0 0 0 7.86182e-09 0 1.36329e+11
29.3979 0 18.73 0 0 0 0 6.72061e-09 0 1.60889e+11
31.0667 0 22.1042 0 0 0 0 5.74366e-09 0 1.89874e+11
32.8303 0 26.0864 0 0 0 0 4.90756e-09 0 2.2408e+11
34.694 0 30.7859 0 0 0 0 4.19221e-09 0 2.64449e+11
36.6634 0 36.3321 0 0 0 0 3.58032e-09 0 3.1209e+11
38.7447 0 42.8774 0 0 0 0 3.05709e-09 0 3.68314e+11
40.9442 0 50.6018 0 0 0 0 2.60976e-09 0 4.34667e+11
43.2685 0 59.7179 0 0 0 0 2.22743e-09 0 5.12973e+11
45.7247 0 70.4762 0 0 0 0 1.90073e-09 0 6.05386e+11
48.3204 0 83.1727 0 0 0 0 1.62163e-09 0 7.14448e+11
51.0634 0 98.1565 0 0 0 0 1.38326e-09 0 8.43158e+11
53.9621 0 115.84 0 0 0 0 1.1797e-09 0 9.95055e+11
57.0254 0 136.709 0 0 0 0 1.00592e-09 0 1.17432e+12
60.2626 0 161.337 0 0 0 0 8.57591e-10 0 1.38587e+12
63.6835 0 190.402 0 0 0 0 7.3101e-10 0 1.63554e+12
67.2987 0 224.704 0 0 0 0 6.23009e-10 0 1.93019e+12
71.1191 0 265.185 0 0 0 0 5.30879e-10 0 2.27792e+12
75.1563 0 312.958 0 0 0 0 4.52303e-10 0 2.68829e+12
79.4227 0 369.339 0 0 0 0 3.85299e-10 0 3.17259e+12
83.9313 0 435.876 0 0 0 0 3.28173e-10 0 3.74415e+12
88.6959 0 514.4 0 0 0 0 2.79476e-10 0 4.41866e+12
93.7309 0 607.071 0 0 0 0 2.37972e-10 0 5.2147e+12
99.0518 0 716.436 0 0 0 0 2.02605e-10 0 6.15414e+12
104.675 0 845.504 0 0 0 0 1.72471e-10 0 7.26283e+12
110.617 0 997.824 0 0 0 0 1.468e-10 0 8.57124e+12
116.896 0 1177.58 0 0 0 0 1.24935e-10 0 1.01154e+13
123.532 0 1389.73 0 0 0 0 1.06313e-10 0 1.19377e+13
130.545 0 1640.09 0 0 0 0 9.04567e-11 0 1.40883e+13
137.955 0 1935.56 0 0 0 0 7.69563e-11 0 1.66263e+13
145.787 0 2284.26 0 0 0 0 6.54636e-11 0 1.96216e+13
154.063 0 2695.77 0 0 0 0 5.56812e-11 0 2.31565e+13
162.808 0 3181.42 0 0 0 0 4.73556e-11 0 2.73282e+13
172.051 0 3754.56 0 0 0 0 4.02708e-11 0 3.22515e+13
181.818 0 4430.96 0 0 0 0 3.42426e-11 0 3.80616e+13
192.139 0 5229.21 0 0 0 0 2.91139e-11 0 4.49186e+13
203.046 0 6171.26 0 0 0 0 2.4751e-11 0 5.30108e+13
214.572 0 7283.03 0 0 0 0 2.10401e-11 0 6.25608e+13
226.753 0 8595.09 0 0 0 0 1.78839e-11 0 7.38313e+13
239.625 0 10143.5 0 0 0 0 1.51999e-11 0 8.71322e+13
253.228 0 11970.9 0 0 0 0 1.29176e-11 0 1.02829e+14
267.603 0 14127.5 0 0 0 0 1.09771e-11 0 1.21354e+14
282.795 0 16672.6 0 0 0 0 9.3274e-12 0 1.43217e+14
298.848 0 19676.2 0 0 0 0 7.925e-12 0 1.69017e+14
315.813 0 23220.9 0 0 0 0 6.73295e-12 0 1.99466e+14
333.741 0 27404.3 0 0 0 0 5.71979e-12 0 2.35401e+14
352.686 0 32341.2 0 0 0 0 4.85874e-12 0 2.77809e+14
372.707 0 38167.6 0 0 0 0 4.12703e-12 0 3.27857e+14
393.865 0 45043.5 0 0 0 0 3.50528e-12 0 3.86921e+14
416.224 0 53158.3 0 0 0 0 2.97701e-12 0 4.56626e+14
439.852 0 62734.9 0 0 0 0 2.52819e-12 0 5.38888e+14
464.821 0 74036.7 0 0 0 0 2.1469e-12 0 6.35971e+14
491.207 0 87374.6 0 0 0 0 1.82301e-12 0 7.50542e+14
519.092 0 103115 0 0 0 0 1.54789e-12 0 8.85755e+14
548.56 0 121692 0 0 0 0 1.31422e-12 0 1.04533e+15
579.7 0 143615 0 0 0 0 1.11576e-12 0 1.23364e+15
612.608 0 169488 0 0 0 0 9.47223e-13 0 1.45589e+15
647.384 0 200021 0 0 0 0 8.041e-13 0 1.71817e+15
684.134 0 236056 0 0 0 0 6.82568e-13 0 2.0277e+15
722.971 0 278582 0 0 0 0 5.79376e-13 0 2.393e+15
764.012 0 328769 0 0 0 0 4.91762e-13 0 2.8241e+15
