0.979207
200
1.0655e+09
8589934592
0.0129181 0 1.58924e-09 0 0 0 0 0.00677225 0 13.6515
0.0136515 0 1.87554e-09 0 0 0 0 0.00688819 0 16.1108
0.0144264 0 2.21343e-09 0 0 0 0 0.00699249 0 19.0132
0.0152454 0 2.61218e-09 0 0 0 0 0.00708412 0 22.4385
0.0161108 0 3.08278e-09 0 0 0 0 0.00716212 0 26.4808
0.0170254 0 3.63815e-09 0 0 0 0 0.00722559 0 31.2514
0.0179919 0 4.29357e-09 0 0 0 0 0.00727371 0 36.8815
0.0190132 0 5.06707e-09 0 0 0 0 0.00730578 0 43.5258
0.0200925 0 5.97991e-09 0 0 0 0 0.00732122 0 51.367
0.0212331 0 7.05721e-09 0 0 0 0 0.00731958 0 60.621
0.0224385 0 8.32858e-09 0 0 0 0 0.00730056 0 71.542
0.0237123 0 9.829e-09 0 0 0 0 0.00726401 0 84.4305
0.0250583 0 1.15997e-08 0 0 0 0 0.00720995 0 99.6408
0.0264808 0 1.36894e-08 0 0 0 0 0.00713857 0 117.591
0.0279841 0 1.61556e-08 0 0 0 0 0.00705021 0 138.776
0.0295727 0 1.90661e-08 0 0 0 0 0.00694538 0 163.777
0.0312514 0 2.25009e-08 0 0 0 0 0.00682475 0 193.281
0.0330255 0 2.65545e-08 0 0 0 0 0.00668915 0 228.102
0.0349003 0 3.13384e-08 0 0 0 0 0.00653951 0 269.195
0.0368815 0 3.69841e-08 0 0 0 0 0.00637693 0 317.691
0.0389751 0 4.36469e-08 0 0 0 0 0.00620256 0 374.924
0.0411876 0 5.151e-08 0 0 0 0 0.00601767 0 442.467
0.0435258 0 6.07896e-08 0 0 0 0 0.00582358 0 522.179
0.0459966 0 7.1741e-08 0 0 0 0 0.00562166 0 616.251
0.0486077 0 8.46654e-08 0 0 0 0 0.0054133 0 727.27
0.051367 0 9.99181e-08 0 0 0 0 0.00519989 0 858.29
0.054283 0 1.17919e-07 0 0 0 0 0.0049828 0 1012.91
0.0573645 0 1.39162e-07 0 0 0 0 0.00476339 0 1195.39
0.060621 0 1.64232e-07 0 0 0 0 0.00454293 0 1410.75
0.0640622 0 1.93819e-07 0 0 0 0 0.00432265 0 1664.89
0.0676989 0 2.28736e-07 0 0 0 0 0.00410371 0 1964.83
0.071542 0 2.69944e-07 0 0 0 0 0.00388717 0 2318.8
0.0756032 0 3.18575e-07 0 0 0 0 0.00367401 0 2736.54
0.079895 0 3.75967e-07 0 0 0 0 0.0034651 0 3229.53
0.0844305 0 4.43698e-07 0 0 0 0 0.00326121 0 3811.34
0.0892234 0 5.23632e-07 0 0 0 0 0.00306301 0 4497.96
0.0942883 0 6.17966e-07 0 0 0 0 0.00287109 0 5308.28
0.0996408 0 7.29294e-07 0 0 0 0 0.00268591 0 6264.59
0.105297 0 8.60678e-07 0 0 0 0 0.00250785 0 7393.17
0.111275 0 1.01573e-06 0 0 0 0 0.00233721 0 8725.07
0.117591 0 1.19872e-06 0 0 0 0 0.00217419 0 10296.9
0.124267 0 1.41467e-06 0 0 0 0 0.00201893 0 12151.9
0.131321 0 1.66953e-06 0 0 0 0 0.00187147 0 14341.1
0.138776 0 1.9703e-06 0 0 0 0 0.00173182 0 16924.7
0.146654 0 2.32525e-06 0 0 0 0 0.00159991 0 19973.8
0.154979 0 2.74415e-06 0 0 0 0 0.00147563 0 23572.1
0.163777 0 3.23852e-06 0 0 0 0 0.00135884 0 27818.7
0.173074 0 3.82195e-06 0 0 0 0 0.00124933 0 32830.3
0.182899 0 4.51048e-06 0 0 0 0 0.00114689 0 38744.7
0.193281 0 5.32305e-06 0 0 0 0 0.00105127 0 45724.7
0.204254 0 6.28202e-06 0 0 0 0 0.000962209 0 53962.1
0.215848 0 7.41374e-06 0 0 0 0 0.000879423 0 63683.5
0.228102 0 8.74934e-06 0 0 0 0 0.000802624 0 75156.3
0.24105 0 1.03256e-05 0 0 0 0 0.000731515 0 88695.9
0.254734 0 1.21857e-05 0 0 0 0 0.000665798 0 104675
0.269195 0 1.4381e-05 0 0 0 0 0.000605173 0 123532
0.284476 0 1.69718e-05 0 0 0 0 0.000549345 0 145787
0.300625 0 2.00293e-05 0 0 0 0 0.000498021 0 172051
0.317691 0 2.36377e-05 0 0 0 0 0.000450916 0 203046
0.335725 0 2.78961e-05 0 0 0 0 0.000407755 0 239625
0.354784 0 3.29216e-05 0 0 0 0 0.000368269 0 282795
0.374924 0 3.88525e-05 0 0 0 0 0.000332202 0 333741
0.396207 2.09632 4.58519e-05 5.32242e-06 6 2.03803 5.17445e-06 0.000299307 0.106695 393865
0.418699 0 5.41123e-05 0 0 0 0 0.00026935 0 464821
0.442467 0 6.38607e-05 0 0 0 0 0.000242108 0 548560
0.467585 0 7.53654e-05 0 0 0 0 0.00021737 0 647384
0.494129 0 8.89427e-05 0 0 0 0 0.000194938 0 764012
0.522179 0 0.000104966 0 0 0 0 0.000174625 0 901651
0.551822 0 0.000123876 0 0 0 0 0.000156255 0 1.06409e+06
0.583147 6.90681 0.000146192 5.5e-06 12 7.26945 5.78878e-06 0.000139664 0.472562 1.25578e+06
0.616251 0 0.000172529 0 0 0 0 0.0001247 0 1.48202e+06
0.651234 0 0.000203611 0 0 0 0 0.00011122 0 1.74901e+06
0.688203 12.779 0.000240292 6.19111e-06 8 12.4611 6.03708e-06 9.90935e-05 0.49982 2.06409e+06
0.72727 0 0.000283581 0 0 0 0 8.81969e-05 0 2.43595e+06
0.768555 0 0.000334669 0 0 0 0 7.84179e-05 0 2.87479e+06
0.812184 11.7935 0.000394961 3.47616e-06 6 12.0457 3.55048e-06 6.96525e-05 0.299443 3.39269e+06
0.85829 0 0.000466114 0 0 0 0 6.1805e-05 0 4.00389e+06
0.907013 0.964634 0.000550086 2.04147e-07 24 0.983143 2.08064e-07 5.47875e-05 0.0894278 4.7252e+06
0.958501 5.23806 0.000649185 9.39317e-07 24 4.93125 8.84298e-07 4.85194e-05 0.464631 5.57646e+06
1.01291 0 0.000766138 0 0 0 0 4.29272e-05 0 6.58107e+06
1.07041 0 0.00090416 0 0 0 0 3.79435e-05 0 7.76667e+06
1.13118 10.6728 0.00106705 1.16441e-06 12 10.5417 1.15011e-06 3.3507e-05 0.417015 9.16586e+06
1.19539 3.71909 0.00125928 3.43815e-07 30 3.64242 3.36728e-07 2.9562e-05 0.348909 1.08171e+07
1.26325 10.3413 0.00148614 8.10078e-07 24 10.1857 7.97888e-07 2.60578e-05 0.746105 1.27658e+07
1.33496 14.1062 0.00175387 9.36314e-07 24 14.1372 9.38372e-07 2.29484e-05 0.979218 1.50656e+07
1.41075 11.7523 0.00206984 6.60995e-07 32 11.8257 6.65124e-07 2.01923e-05 1.04752 1.77798e+07
1.49083 3.14404 0.00244272 1.49839e-07 48 3.07702 1.46644e-07 1.77518e-05 0.405158 2.09828e+07
1.57546 25.5846 0.00288279 1.03318e-06 6 24.3623 9.83821e-07 1.55929e-05 0.397559 2.4763e+07
1.66489 6.03818 0.00340213 2.06617e-07 84 5.89348 2.01665e-07 1.3685e-05 1.26823 2.92241e+07
1.75941 10.0806 0.00401503 2.92285e-07 48 9.92714 2.87836e-07 1.20007e-05 1.16907 3.44889e+07
1.85928 6.17403 0.00473835 1.51688e-07 72 6.17543 1.51723e-07 1.05151e-05 1.03865 4.07021e+07
1.96483 18.557 0.00559198 3.86324e-07 54 18.2403 3.79731e-07 9.20606e-06 2.26606 4.80347e+07
2.07637 10.1602 0.00659939 1.79229e-07 104 10.2888 1.81498e-07 8.05366e-06 2.31445 5.66883e+07
2.19424 11.9989 0.00778828 1.79354e-07 120 12.1839 1.82119e-07 7.04008e-06 3.05714 6.69008e+07
2.3188 10.688 0.00919136 1.35372e-07 156 10.4549 1.32419e-07 6.1494e-06 3.43415 7.89532e+07
2.45043 12.4385 0.0108472 1.33494e-07 126 12.2949 1.31952e-07 5.36741e-06 3.13376 9.31768e+07
2.58954 11.4572 0.0128014 1.04191e-07 192 11.5446 1.04987e-07 4.68145e-06 4.27318 1.09963e+08
2.73654 33.4295 0.0151076 2.576e-07 152 33.6441 2.59253e-07 4.08023e-06 9.5963 1.29773e+08
2.89188 16.3888 0.0178292 1.0701e-07 378 16.4864 1.07647e-07 3.55373e-06 11.3823 1.53152e+08
3.05605 15.4913 0.0210412 8.57092e-08 264 15.3303 8.48181e-08 3.09304e-06 7.31553 1.80743e+08
3.22953 18.7639 0.0248319 8.79678e-08 366 18.6968 8.76531e-08 2.69025e-06 11.9677 2.13304e+08
3.41286 18.2249 0.0293054 7.23983e-08 428 18.0416 7.167e-08 2.33837e-06 13.2513 2.51731e+08
3.6066 21.913 0.0345848 7.37609e-08 486 21.6368 7.28313e-08 2.0312e-06 17.6485 2.97081e+08
3.81134 19.8425 0.0408154 5.65957e-08 600 19.9148 5.68018e-08 1.76327e-06 19.2583 3.50601e+08
4.0277 26.2041 0.0481684 6.33311e-08 738 26.1019 6.30842e-08 1.52972e-06 30.5535 4.13763e+08
4.25634 23.4893 0.056846 4.81039e-08 824 23.3863 4.7893e-08 1.32631e-06 29.8857 4.88304e+08
4.49796 28.8354 0.067087 5.00377e-08 954 28.6352 4.96903e-08 1.14926e-06 41.5364 5.76273e+08
4.7533 29.58 0.0791729 4.34942e-08 1094 29.4902 4.33623e-08 9.95263e-07 47.8091 6.8009e+08
5.02313 31.6478 0.0934361 3.94311e-08 1332 31.7777 3.9593e-08 8.61414e-07 60.9721 8.0261e+08
5.30828 37.8339 0.110269 3.99427e-08 1614 37.896 4.00084e-08 7.45152e-07 86.516 9.47202e+08
5.60962 40.9238 0.130134 3.66096e-08 1850 40.8593 3.65519e-08 6.44232e-07 105.129 1.11784e+09
5.92807 36.9563 0.153578 2.80136e-08 2238 37.0066 2.80518e-08 5.56685e-07 112.621 1.31923e+09
6.26459 40.7562 0.181246 2.6178e-08 2546 40.9296 2.62894e-08 4.80786e-07 138.625 1.55689e+09
6.62021 43.5709 0.213898 2.37138e-08 3264 43.5788 2.37181e-08 4.15026e-07 186.499 1.83737e+09
6.99602 44.2543 0.252432 2.0409e-08 3506 44.3552 2.04555e-08 3.58083e-07 199.825 2.16837e+09
7.39317 49.4483 0.297908 1.93232e-08 4506 49.4596 1.93276e-08 3.08803e-07 281.96 2.55901e+09
7.81286 57.3228 0.351577 1.89809e-08 5018 57.0273 1.88831e-08 2.66181e-07 357.825 3.02002e+09
8.25637 58.774 0.414914 1.64906e-08 5852 58.7869 1.64942e-08 2.29336e-07 420.793 3.56409e+09
8.72507 60.1411 0.489662 1.42983e-08 7362 60.0375 1.42737e-08 1.97503e-07 532.975 4.20617e+09
9.22037 64.8779 0.577876 1.30699e-08 8306 64.6433 1.30226e-08 1.70014e-07 638.527 4.96392e+09
9.74378 69.9057 0.681982 1.1933e-08 9698 69.8833 1.19292e-08 1.46289e-07 791.079 5.85818e+09
10.2969 71.1453 0.804843 1.02907e-08 11816 71.029 1.02739e-08 1.25822e-07 966.401 6.91355e+09
10.8814 83.6831 0.949838 1.02565e-08 13682 83.4811 1.02317e-08 1.08175e-07 1297.24 8.15905e+09
11.4992 84.1921 1.12095 8.74367e-09 16152 84.1283 8.73704e-09 9.29669e-08 1519.12 9.62892e+09
12.1519 86.2408 1.3229 7.58922e-09 19472 86.1283 7.57932e-09 7.98658e-08 1850.32 1.13636e+10
12.8418 93.3644 1.56122 6.96189e-09 22670 93.061 6.93927e-09 6.85852e-08 2301.17 1.34108e+10
13.5708 99.3262 1.84248 6.27584e-09 26224 99.1582 6.26522e-09 5.88765e-08 2795.3 1.58268e+10
14.3411 105.044 2.17441 5.62396e-09 31640 104.92 5.61729e-09 5.05241e-08 3521.92 1.8678e+10
15.1552 112.539 2.56613 5.10544e-09 37484 112.342 5.09651e-09 4.33417e-08 4415.43 2.20429e+10
16.0156 120.707 3.02843 4.6401e-09 43856 120.532 4.63336e-09 3.71677e-08 5475.07 2.6014e+10
16.9247 125.987 3.574 4.10373e-09 51362 125.85 4.09928e-09 3.18628e-08 6615.11 3.07005e+10
17.8855 132.623 4.21787 3.66047e-09 61636 132.39 3.65402e-09 2.73063e-08 8262.44 3.62312e+10
18.9008 140.535 4.97773 3.28672e-09 72218 140.181 3.27845e-09 2.33941e-08 10146.1 4.27584e+10
19.9738 149.418 5.87448 2.96103e-09 84586 149.131 2.95534e-09 2.00364e-08 12500.3 5.04614e+10
21.1076 159.109 6.93279 2.67175e-09 100708 158.854 2.66747e-09 1.71555e-08 15684 5.95522e+10
22.3058 167.661 8.18175 2.38559e-09 118712 167.402 2.38191e-09 1.46847e-08 19285.3 7.02807e+10
23.5721 175.02 9.65571 2.11015e-09 140410 174.693 2.10621e-09 1.25662e-08 23578.2 8.29419e+10
24.9102 183.751 11.3952 1.87723e-09 164374 183.39 1.87354e-09 1.07504e-08 28703 9.78842e+10
26.3243 193.863 13.4481 1.6782e-09 194680 193.567 1.67564e-09 9.19452e-09 35533.3 1.15518e+11
27.8187 204.933 15.8708 1.50322e-09 230196 204.633 1.50102e-09 7.86182e-09 44014.6 1.36329e+11
29.3979 216.571 18.73 1.34609e-09 271156 216.204 1.34381e-09 6.72061e-09 54310.4 1.60889e+11
31.0667 228.219 22.1042 1.20195e-09 321076 227.793 1.19971e-09 5.74366e-09 67190.2 1.89874e+11
32.8303 240.218 26.0864 1.07202e-09 377436 239.771 1.07002e-09 4.90756e-09 82447.9 2.2408e+11
34.694 253.011 30.7859 9.56748e-10 447594 252.524 9.54906e-10 4.19221e-09 102150 2.64449e+11
36.6634 265.368 36.3321 8.50294e-10 525078 264.895 8.48779e-10 3.58032e-09 124701 3.1209e+11
38.7447 279.472 42.8774 7.58788e-10 621924 278.951 7.57373e-10 3.05709e-09 154366 3.68314e+11
40.9442 293.784 50.6018 6.75883e-10 732630 293.235 6.74621e-10 2.60976e-09 189738 4.34667e+11
43.2685 308.022 59.7179 6.00465e-10 865596 307.554 5.99551e-10 2.22743e-09 233345 5.12973e+11
45.7247 324.23 70.4762 5.35575e-10 1.02168e+06 323.722 5.34736e-10 1.90073e-09 287881 6.05386e+11
48.3204 339.146 83.1727 4.74696e-10 1.20544e+06 338.56 4.73876e-10 1.62163e-09 352864 7.14448e+11
51.0634 355.196 98.1565 4.21268e-10 1.42103e+06 354.565 4.2052e-10 1.38326e-09 432772 8.43158e+11
53.9621 372.452 115.84 3.74303e-10 1.67997e+06 371.833 3.73681e-10 1.1797e-09 533029 9.95055e+11
57.0254 391.827 136.709 3.33664e-10 1.98018e+06 391.108 3.33051e-10 1.00592e-09 656826 1.17432e+12
60.2626 410.92 161.337 2.96506e-10 2.33957e+06 410.165 2.95961e-10 8.57591e-10 808891 1.38587e+12
63.6835 431.88 190.402 2.64059e-10 2.75676e+06 431.102 2.63584e-10 7.3101e-10 995814 1.63554e+12
67.2987 454.417 224.704 2.35426e-10 3.25638e+06 453.653 2.3503e-10 6.23009e-10 1.23054e+06 1.93019e+12
71.1191 478.618 265.185 2.10112e-10 3.84387e+06 477.769 2.09739e-10 5.30879e-10 1.52133e+06 2.27792e+12
75.1563 504.315 312.958 1.87597e-10 4.53277e+06 503.396 1.87255e-10 4.52303e-10 1.88e+06 2.68829e+12
79.4227 533.057 369.339 1.68019e-10 5.35083e+06 532.116 1.67723e-10 3.85299e-10 2.33336e+06 3.17259e+12
83.9313 565.233 435.876 1.50964e-10 6.32174e+06 564.15 1.50675e-10 3.28173e-10 2.90809e+06 3.74415e+12
88.6959 600.133 514.4 1.35818e-10 7.44986e+06 598.955 1.35551e-10 2.79476e-10 3.62043e+06 4.41866e+12
93.7309 639.247 607.071 1.22586e-10 8.79764e+06 638.022 1.22351e-10 2.37972e-10 4.53188e+06 5.2147e+12
99.0518 683.238 716.436 1.11021e-10 1.03827e+07 681.886 1.10801e-10 2.02605e-10 5.68937e+06 6.15414e+12
104.675 733.592 845.504 1.01006e-10 1.22515e+07 732.073 1.00797e-10 1.72471e-10 7.17502e+06 7.26283e+12
110.617 792.863 997.824 9.25027e-11 1.44573e+07 791.157 9.23036e-11 1.468e-10 9.10995e+06 8.57124e+12
116.896 862.812 1177.58 8.52971e-11 1.70664e+07 860.889 8.5107e-11 1.24935e-10 1.16518e+07 1.01154e+13
123.532 943.764 1389.73 7.90575e-11 2.0139e+07 941.539 7.88712e-11 1.06313e-10 1.49759e+07 1.19377e+13
130.545 1039.39 1640.09 7.37769e-11 2.37643e+07 1036.86 7.3597e-11 9.04567e-11 1.93823e+07 1.40883e+13
137.955 1152.29 1935.56 6.93052e-11 2.80503e+07 1149.38 6.91302e-11 7.69563e-11 2.52615e+07 1.66263e+13
145.787 1287.1 2284.26 6.55961e-11 3.30981e+07 1283.73 6.54243e-11 6.54636e-11 3.31651e+07 1.96216e+13
154.063 1445.99 2695.77 6.24444e-11 3.90634e+07 1442.07 6.2275e-11 5.56812e-11 4.38082e+07 2.31565e+13
162.808 1635.37 3181.42 5.98418e-11 4.61057e+07 1630.8 5.96747e-11 4.73556e-11 5.82623e+07 2.73282e+13
172.051 1862.23 3754.56 5.7741e-11 5.44046e+07 1856.87 5.75746e-11 4.02708e-11 7.80062e+07 3.22515e+13
181.818 2132.64 4430.96 5.60311e-11 6.42064e+07 2126.33 5.58655e-11 3.42426e-11 1.05061e+08 3.80616e+13
192.139 2454.2 5229.21 5.46366e-11 7.57748e+07 2446.76 5.4471e-11 2.91139e-11 1.42203e+08 4.49186e+13
203.046 2838.6 6171.26 5.35476e-11 8.94213e+07 2829.83 5.33822e-11 2.4751e-11 1.93459e+08 5.30108e+13
214.572 3298.67 7283.03 5.27274e-11 1.05538e+08 3288.28 5.25613e-11 2.10401e-11 2.64484e+08 6.25608e+13
226.753 3850.8 8595.09 5.21567e-11 1.24552e+08 3838.38 5.19886e-11 1.78839e-11 3.63243e+08 7.38313e+13
239.625 4514.45 10143.5 5.18115e-11 1.46987e+08 4499.65 5.16416e-11 1.51999e-11 5.01031e+08 8.71322e+13
253.228 5312.41 11970.9 5.16624e-11 1.7347e+08 5294.66 5.14898e-11 1.29176e-11 6.93772e+08 1.02829e+14
267.603 6279.53 14127.5 5.17454e-11 2.04703e+08 6258.2 5.15697e-11 1.09771e-11 9.64954e+08 1.21354e+14
282.795 7457.11 16672.6 5.20688e-11 2.4161e+08 7431.37 5.18891e-11 9.3274e-12 1.34875e+09 1.43217e+14
298.848 8903.34 19676.2 5.26771e-11 2.85122e+08 8871.79 5.24904e-11 7.925e-12 1.89519e+09 1.69017e+14
315.813 10701.2 23220.9 5.36492e-11 3.36491e+08 10662.2 5.34536e-11 6.73295e-12 2.68122e+09 1.99466e+14
333.741 12974.2 27404.3 5.51155e-11 3.97115e+08 12925.2 5.49071e-11 5.71979e-12 3.82657e+09 2.35401e+14
352.686 15910.9 32341.2 5.72729e-11 4.68637e+08 15847.9 5.7046e-11 4.85874e-12 5.52411e+09 2.77809e+14
372.707 19825.3 38167.6 6.04692e-11 5.53074e+08 19741.9 6.02149e-11 4.12703e-12 8.10364e+09 3.27857e+14
393.865 25234.9 45043.5 6.52197e-11 6.52716e+08 25120 6.49227e-11 3.50528e-12 1.21445e+10 3.86921e+14
416.224 29789.9 53158.3 6.52391e-11 2.2184e+08 31514.9 6.90168e-11 2.97701e-12 4.86146e+09 4.56626e+14
439.852 0 62734.9 0 0 0 0 2.52819e-12 0 5.38888e+14
464.821 0 74036.7 0 0 0 0 2.1469e-12 0 6.35971e+14
491.207 0 87374.6 0 0 0 0 1.82301e-12 0 7.50542e+14
519.092 0 103115 0 0 0 0 1.54789e-12 0 8.85755e+14
548.56 0 121692 0 0 0 0 1.31422e-12 0 1.04533e+15
579.7 0 143615 0 0 0 0 1.11576e-12 0 1.23364e+15
612.608 0 169488 0 0 0 0 9.47223e-13 0 1.45589e+15
647.384 0 200021 0 0 0 0 8.041e-13 0 1.71817e+15
684.134 0 236056 0 0 0 0 6.82568e-13 0 2.0277e+15
722.971 0 278582 0 0 0 0 5.79376e-13 0 2.393e+15
764.012 0 328769 0 0 0 0 4.91762e-13 0 2.8241e+15
0.979207
200
1.0655e+09
8589934592
0.0129181 0.00214238 1.58924e-09 0.000156934 6 0.00212277 0.000155498 0.00677225 0.139039 13.6515
0.0136515 0 1.87554e-09 0 0 0 0 0.00688819 0 16.1108
0.0144264 0 2.21343e-09 0 0 0 0 0.00699249 0 19.0132
0.0152454 0 2.61218e-09 0 0 0 0 0.00708412 0 22.4385
0.0161108 0 3.08278e-09 0 0 0 0 0.00716212 0 26.4808
0.0170254 0 3.63815e-09 0 0 0 0 0.00722559 0 31.2514
0.0179919 0.00470101 4.29357e-09 0.000127463 12 0.00469496 0.000127299 0.00727371 0.210285 36.8815
0.0190132 0 5.06707e-09 0 0 0 0 0.00730578 0 43.5258
0.0200925 0 5.97991e-09 0 0 0 0 0.00732122 0 51.367
0.0212331 0.00441524 7.05721e-09 7.28335e-05 8 0.00441139 7.27701e-05 0.00731958 0.0796041 60.621
0.0224385 0 8.32858e-09 0 0 0 0 0.00730056 0 71.542
0.0237123 0 9.829e-09 0 0 0 0 0.00726401 0 84.4305
0.0250583 0.0275572 1.15997e-08 0.000276565 6 0.0275442 0.000276435 0.00720995 0.230153 99.6408
0.0264808 0 1.36894e-08 0 0 0 0 0.00713857 0 117.591
0.0279841 0.0168491 1.61556e-08 0.000121413 24 0.0168318 0.000121288 0.00705021 0.413307 138.776
0.0295727 0 1.90661e-08 0 0 0 0 0.00694538 0 163.777
0.0312514 0.029767 2.25009e-08 0.000154009 24 0.0299181 0.000154791 0.00682475 0.541588 193.281
0.0330255 0 2.65545e-08 0 0 0 0 0.00668915 0 228.102
0.0349003 0.0453999 3.13384e-08 0.000168651 12 0.0450364 0.0001673 0.00653951 0.309474 269.195
0.0368815 0.0359017 3.69841e-08 0.000113008 30 0.0355194 0.000111805 0.00637693 0.531642 317.691
0.0389751 0.0402224 4.36469e-08 0.000107282 24 0.0398086 0.000106178 0.00620256 0.415112 374.924
0.0411876 0.0258859 5.151e-08 5.85036e-05 24 0.0257101 5.81063e-05 0.00601767 0.233327 442.467
0.0435258 0.0651862 6.07896e-08 0.000124835 8 0.0651812 0.000124825 0.00582358 0.171489 522.179
0.0459966 0.0790556 7.1741e-08 0.000128285 72 0.0784329 0.000127274 0.00562166 1.64302 616.251
0.0486077 0 8.46654e-08 0 0 0 0 0.0054133 0 727.27
0.051367 0.106838 9.99181e-08 0.000124478 54 0.106482 0.000124063 0.00519989 1.29269 858.29
0.054283 0.0864484 1.17919e-07 8.53463e-05 60 0.0868457 8.57385e-05 0.0049828 1.02769 1012.91
0.0573645 0.080232 1.39162e-07 6.71177e-05 96 0.0800277 6.69468e-05 0.00476339 1.35267 1195.39
0.060621 0.0954303 1.64232e-07 6.76453e-05 24 0.0941374 6.67289e-05 0.00454293 0.357366 1410.75
0.0640622 0.162739 1.93819e-07 9.77472e-05 134 0.162808 9.77889e-05 0.00432265 3.03011 1664.89
0.0676989 0.159374 2.28736e-07 8.11134e-05 120 0.158587 8.07129e-05 0.00410371 2.3719 1964.83
0.071542 0.150533 2.69944e-07 6.49185e-05 108 0.148864 6.41989e-05 0.00388717 1.80368 2318.8
0.0756032 0.222887 3.18575e-07 8.14487e-05 174 0.221644 8.09942e-05 0.00367401 3.85739 2736.54
0.079895 0.231951 3.75967e-07 7.18219e-05 168 0.229773 7.11476e-05 0.0034651 3.48218 3229.53
0.0844305 0.192417 4.43698e-07 5.04854e-05 168 0.193366 5.07345e-05 0.00326121 2.60074 3811.34
0.0892234 0.232292 5.23632e-07 5.16439e-05 290 0.231182 5.1397e-05 0.00306301 4.88954 4497.96
0.0942883 0.27641 6.17966e-07 5.20714e-05 288 0.275841 5.19643e-05 0.00287109 5.2233 5308.28
0.0996408 0.248319 7.29294e-07 3.96385e-05 366 0.246443 3.93391e-05 0.00268591 5.40141 6264.59
0.105297 0.293611 8.60678e-07 3.97138e-05 420 0.291511 3.94298e-05 0.00250785 6.65102 7393.17
0.111275 0.313221 1.01573e-06 3.5899e-05 398 0.312383 3.5803e-05 0.00233721 6.11318 8725.07
0.117591 0.37086 1.19872e-06 3.60166e-05 624 0.371947 3.61222e-05 0.00217419 10.3369 10296.9
0.124267 0.432409 1.41467e-06 3.55836e-05 642 0.431397 3.55003e-05 0.00201893 11.3153 12151.9
0.131321 0.502993 1.66953e-06 3.50734e-05 800 0.503112 3.50817e-05 0.00187147 14.9929 14341.1
0.138776 0.468365 1.9703e-06 2.76734e-05 858 0.470317 2.77887e-05 0.00173182 13.7103 16924.7
0.146654 0.548635 2.32525e-06 2.74678e-05 1080 0.553186 2.76956e-05 0.00159991 18.5418 19973.8
0.154979 0.63574 2.74415e-06 2.697e-05 1286 0.639723 2.7139e-05 0.00147563 23.5041 23572.1
0.163777 0.625963 3.23852e-06 2.25016e-05 1650 0.627793 2.25673e-05 0.00135884 27.323 27818.7
0.173074 0.69275 3.82195e-06 2.1101e-05 1778 0.693334 2.11187e-05 0.00124933 30.03 32830.3
0.182899 0.754916 4.51048e-06 1.94843e-05 2112 0.756619 1.95283e-05 0.00114689 35.8804 38744.7
0.193281 0.831457 5.32305e-06 1.8184e-05 2570 0.832014 1.81962e-05 0.00105127 44.4536 45724.7
0.204254 0.972455 6.28202e-06 1.80211e-05 3030 0.971791 1.80088e-05 0.000962209 56.7484 53962.1
0.215848 1.01444 7.41374e-06 1.59293e-05 3434 1.01404 1.59231e-05 0.000879423 62.2013 63683.5
0.228102 1.07873 8.74934e-06 1.43531e-05 4218 1.07798 1.43431e-05 0.000802624 75.4294 75156.3
0.24105 1.20199 1.03256e-05 1.35519e-05 4766 1.20272 1.35601e-05 0.000731515 88.2937 88695.9
0.254734 1.30719 1.21857e-05 1.24881e-05 6026 1.30714 1.24877e-05 0.000665798 113.027 104675
0.269195 1.49521 1.4381e-05 1.21038e-05 6480 1.49387 1.2093e-05 0.000605173 129.604 123532
0.284476 1.61107 1.69718e-05 1.10509e-05 8162 1.61378 1.10695e-05 0.000549345 164.191 145787
0.300625 1.78588 2.00293e-05 1.038e-05 9578 1.78629 1.03824e-05 0.000498021 199.629 172051
0.317691 1.98419 2.36377e-05 9.77213e-06 11234 1.98276 9.76507e-06 0.000450916 243.46 203046
0.335725 2.13194 2.78961e-05 8.89698e-06 13344 2.1282 8.88136e-06 0.000407755 291.158 239625
0.354784 2.40824 3.29216e-05 8.51587e-06 15464 2.40682 8.51084e-06 0.000368269 357.59 282795
0.374924 2.61281 3.88525e-05 7.82887e-06 18458 2.6101 7.82074e-06 0.000332202 434.993 333741
0.396207 3.02589 4.58519e-05 7.68257e-06 22232 3.02073 7.66945e-06 0.000299307 570.648 393865
0.418699 3.25468 5.41123e-05 7.00201e-06 25628 3.24669 6.98482e-06 0.00026935 666.225 464821
0.442467 3.57353 6.38607e-05 6.51439e-06 30320 3.56736 6.50314e-06 0.000242108 815.819 548560
0.467585 4.03418 7.53654e-05 6.2315e-06 35452 4.02673 6.22e-06 0.00021737 1016.33 647384
0.494129 4.47752 8.89427e-05 5.86054e-06 41792 4.47251 5.85398e-06 0.000194938 1256.42 764012
0.522179 5.04249 0.000104966 5.59251e-06 49988 5.04186 5.59181e-06 0.000174625 1600.91 901651
0.551822 5.64187 0.000123876 5.30208e-06 59110 5.63447 5.29513e-06 0.000156255 2005.74 1.06409e+06
0.583147 6.29783 0.000146192 5.01506e-06 69716 6.28794 5.00718e-06 0.000139664 2503.36 1.25578e+06
0.616251 7.04713 0.000172529 4.75509e-06 82210 7.03303 4.74558e-06 0.0001247 3134.85 1.48202e+06
0.651234 7.75884 0.000203611 4.43614e-06 96722 7.74187 4.42644e-06 0.00011122 3857.86 1.74901e+06
0.688203 8.80789 0.000240292 4.2672e-06 113098 8.79332 4.26014e-06 9.90935e-05 4870.27 2.06409e+06
0.72727 9.89607 0.000283581 4.06252e-06 135190 9.88106 4.05635e-06 8.81969e-05 6227.11 2.43595e+06
0.768555 11.0316 0.000334669 3.83737e-06 158170 11.0133 3.83101e-06 7.84179e-05 7740.03 2.87479e+06
0.812184 12.3892 0.000394961 3.65174e-06 188560 12.3696 3.64597e-06 6.96525e-05 9885.82 3.39269e+06
0.85829 13.8622 0.000466114 3.46217e-06 220444 13.8393 3.45647e-06 6.1805e-05 12348.8 4.00389e+06
0.907013 15.4746 0.000550086 3.27491e-06 261388 15.4489 3.26947e-06 5.47875e-05 15624.4 4.7252e+06
0.958501 17.3301 0.000649185 3.10772e-06 308244 17.3029 3.10284e-06 4.85194e-05 19743.3 5.57646e+06
1.01291 19.4303 0.000766138 2.95244e-06 364396 19.397 2.94739e-06 4.29272e-05 25062.4 6.58107e+06
1.07041 21.6219 0.00090416 2.78394e-06 429162 21.582 2.7788e-06 3.79435e-05 31487.9 7.76667e+06
1.13118 24.1333 0.00106705 2.63296e-06 506358 24.0918 2.62842e-06 3.3507e-05 39789.2 9.16586e+06
1.19539 26.9533 0.00125928 2.49173e-06 598590 26.903 2.48708e-06 2.9562e-05 50454.1 1.08171e+07
1.26325 29.9572 0.00148614 2.34666e-06 704844 29.9051 2.34259e-06 2.60578e-05 63475.5 1.27658e+07
1.33496 33.2446 0.00175387 2.20665e-06 834620 33.1795 2.20233e-06 2.29484e-05 80254.4 1.50656e+07
1.41075 36.8942 0.00206984 2.07507e-06 981444 36.825 2.07117e-06 2.01923e-05 100858 1.77798e+07
1.49083 40.6981 0.00244272 1.93959e-06 1.15998e+06 40.6245 1.93608e-06 1.77518e-05 126741 2.09828e+07
1.57546 44.8897 0.00288279 1.81278e-06 1.36931e+06 44.8086 1.8095e-06 1.55929e-05 159192 2.4763e+07
1.66489 49.3932 0.00340213 1.69015e-06 1.61652e+06 49.3028 1.68706e-06 1.3685e-05 199646 2.92241e+07
1.75941 54.2815 0.00401503 1.57388e-06 1.90601e+06 54.1804 1.57095e-06 1.20007e-05 249972 3.44889e+07
1.85928 59.5118 0.00473835 1.46213e-06 2.24913e+06 59.4024 1.45944e-06 1.05151e-05 312742 4.07021e+07
1.96483 64.9349 0.00559198 1.35183e-06 2.65744e+06 64.8176 1.34939e-06 9.20606e-06 390223 4.80347e+07
2.07637 70.7119 0.00659939 1.24738e-06 3.13125e+06 70.5888 1.24521e-06 8.05366e-06 484980 5.66883e+07
2.19424 77.0782 0.00778828 1.15213e-06 3.69915e+06 76.9394 1.15005e-06 7.04008e-06 605375 6.69008e+07
2.3188 83.5636 0.00919136 1.05839e-06 4.36472e+06 83.4203 1.05658e-06 6.1494e-06 751227 7.89532e+07
2.45043 90.7292 0.0108472 9.73731e-07 5.14913e+06 90.5669 9.71989e-07 5.36741e-06 934131 9.31768e+07
2.58954 98.2372 0.0128014 8.93367e-07 6.07894e+06 98.0746 8.91889e-07 4.68145e-06 1.16005e+06 1.09963e+08
2.73654 106.235 0.0151076 8.18624e-07 7.17304e+06 106.053 8.17217e-07 4.08023e-06 1.43914e+06 1.29773e+08
2.89188 114.695 0.0178292 7.48896e-07 8.46557e+06 114.503 7.47642e-07 3.55373e-06 1.78399e+06 1.53152e+08
3.05605 123.493 0.0210412 6.83254e-07 9.98773e+06 123.286 6.82108e-07 3.09304e-06 2.20629e+06 1.80743e+08
3.22953 132.777 0.0248319 6.22477e-07 1.1797e+07 132.558 6.21453e-07 2.69025e-06 2.72962e+06 2.13304e+08
3.41286 142.597 0.0293054 5.66466e-07 1.39144e+07 142.354 5.65501e-07 2.33837e-06 3.37073e+06 2.51731e+08
3.6066 152.858 0.0345848 5.14531e-07 1.64163e+07 152.601 5.13668e-07 2.0312e-06 4.15847e+06 2.97081e+08
3.81134 164.023 0.0408154 4.67833e-07 1.93821e+07 163.755 4.67069e-07 1.76327e-06 5.14251e+06 3.50601e+08
4.0277 175.536 0.0481684 4.24243e-07 2.28754e+07 175.243 4.23534e-07 1.52972e-06 6.34412e+06 4.13763e+08
4.25634 187.644 0.056846 3.84278e-07 2.69929e+07 187.33 3.83635e-07 1.32631e-06 7.82079e+06 4.88304e+08
4.49796 200.186 0.067087 3.4738e-07 3.18542e+07 199.856 3.46807e-07 1.14926e-06 9.62842e+06 5.76273e+08
4.7533 213.737 0.0791729 3.14278e-07 3.75892e+07 213.381 3.13754e-07 9.95263e-07 1.18697e+07 6.8009e+08
5.02313 227.639 0.0934361 2.83623e-07 4.43706e+07 227.264 2.83156e-07 8.61414e-07 1.46092e+07 8.0261e+08
5.30828 242.468 0.110269 2.55984e-07 5.23593e+07 242.066 2.55559e-07 7.45152e-07 1.79871e+07 9.47202e+08
5.60962 258.095 0.130134 2.30886e-07 6.1787e+07 257.672 2.30508e-07 6.44232e-07 2.21439e+07 1.11784e+09
5.92807 274.267 0.153578 2.079e-07 7.29346e+07 273.814 2.07557e-07 5.56685e-07 2.72382e+07 1.31923e+09
6.26459 291.011 0.181246 1.86918e-07 8.60651e+07 290.53 1.86609e-07 4.80786e-07 3.34601e+07 1.55689e+09
6.62021 308.869 0.213898 1.68104e-07 1.01558e+08 308.359 1.67827e-07 4.15026e-07 4.11357e+07 1.83737e+09
6.99602 327.325 0.252432 1.50954e-07 1.1986e+08 326.786 1.50706e-07 3.58083e-07 5.05285e+07 2.16837e+09
7.39317 346.949 0.297908 1.35579e-07 1.41457e+08 346.378 1.35356e-07 3.08803e-07 6.21061e+07 2.55901e+09
7.81286 367.299 0.351577 1.21621e-07 1.66936e+08 366.7 1.21423e-07 2.66181e-07 7.6275e+07 3.02002e+09
8.25637 388.917 0.414914 1.09121e-07 1.97025e+08 388.275 1.08941e-07 2.29336e-07 9.3747e+07 3.56409e+09
8.72507 411.74 0.489662 9.78897e-08 2.32497e+08 411.055 9.77268e-08 1.97503e-07 1.15234e+08 4.20617e+09
9.22037 435.903 0.577876 8.78142e-08 2.74404e+08 435.17 8.76667e-08 1.70014e-07 1.41733e+08 4.96392e+09
9.74378 462.154 0.681982 7.88903e-08 3.2382e+08 461.364 7.87554e-08 1.46289e-07 1.74629e+08 5.85818e+09
10.2969 491.721 0.804843 7.11242e-08 3.82165e+08 490.848 7.0998e-08 1.25822e-07 2.16028e+08 6.91355e+09
10.8814 526.815 0.949838 6.45683e-08 4.51027e+08 525.815 6.44457e-08 1.08175e-07 2.69211e+08 8.15905e+09
11.4992 571.664 1.12095 5.93695e-08 5.32251e+08 570.454 5.92438e-08 9.29669e-08 3.399e+08 9.62892e+09
12.1519 634.677 1.3229 5.58518e-08 6.28157e+08 633.093 5.57123e-08 7.98658e-08 4.39284e+08 1.13636e+10
12.8418 705.648 1.56122 5.2618e-08 3.82727e+08 730.371 5.44615e-08 6.85852e-08 2.93625e+08 1.34108e+10
13.5708 0 1.84248 0 0 0 0 5.88765e-08 0 1.58268e+10
14.3411 0 2.17441 0 0 0 0 5.05241e-08 0 1.8678e+10
15.1552 0 2.56613 0 0 0 0 4.33417e-08 0 2.20429e+10
16.0156 0 3.02843 0 0 0 0 3.71677e-08 0 2.6014e+10
16.9247 0 3.574 0 0 0 0 3.18628e-08 0 3.07005e+10
17.8855 0 4.21787 0 0 0 0 2.73063e-08 0 3.62312e+10
18.9008 0 4.97773 0 0 0 0 2.33941e-08 0 4.27584e+10
19.9738 0 5.87448 0 0 0 0 2.00364e-08 0 5.04614e+10
21.1076 0 6.93279 0 0 0 0 1.71555e-08 0 5.95522e+10
22.3058 0 8.18175 0 0 0 0 1.46847e-08 0 7.02807e+10
23.5721 0 9.65571 0 0 0 0 1.25662e-08 0 8.29419e+10
24.9102 0 11.3952 0 0 0 0 1.07504e-08 0 9.78842e+10
26.3243 0 13.4481 0 0 0 0 9.19452e-09 0 1.15518e+11
27.8187 0 15.8708 0 0 0 0 7.86182e-09 0 1.36329e+11
29.3979 0 18.73 0 0 0 0 6.72061e-09 0 1.60889e+11
31.0667 0 22.1042 0 0 0 0 5.74366e-09 0 1.89874e+11
32.8303 0 26.0864 0 0 0 0 4.90756e-09 0 2.2408e+11
34.694 0 30.7859 0 0 0 0 4.19221e-09 0 2.64449e+11
36.6634 0 36.3321 0 0 0 0 3.58032e-09 0 3.1209e+11
38.7447 0 42.8774 0 0 0 0 3.05709e-09 0 3.68314e+11
40.9442 0 50.6018 0 0 0 0 2.60976e-09 0 4.34667e+11
43.2685 0 59.7179 0 0 0 0 2.22743e-09 0 5.12973e+11
45.7247 0 70.4762 0 0 0 0 1.90073e-09 0 6.05386e+11
48.3204 0 83.1727 0 0 0 0 1.62163e-09 0 7.14448e+11
51.0634 0 98.1565 0 0 0 0 1.38326e-09 0 8.43158e+11
53.9621 0 115.84 0 0 0 0 1.1797e-09 0 9.95055e+11
57.0254 0 136.709 0 0 0 0 1.00592e-09 0 1.17432e+12
60.2626 0 161.337 0 0 0 0 8.57591e-10 0 1.38587e+12
63.6835 0 190.402 0 0 0 0 7.3101e-10 0 1.63554e+12
67.2987 0 224.704 0 0 0 0 6.23009e-10 0 1.93019e+12
71.1191 0 265.185 0 0 0 0 5.30879e-10 0 2.27792e+12
75.1563 0 312.958 0 0 0 0 4.52303e-10 0 2.68829e+12
79.4227 0 369.339 0 0 0 0 3.85299e-10 0 3.17259e+12
83.9313 0 435.876 0 0 0 0 3.28173e-10 0 3.74415e+12
88.6959 0 514.4 0 0 0 0 2.79476e-10 0 4.41866e+12
93.7309 0 607.071 0 0 0 0 2.37972e-10 0 5.2147e+12
99.0518 0 716.436 0 0 0 0 2.02605e-10 0 6.15414e+12
104.675 0 845.504 0 0 0 0 1.72471e-10 0 7.26283e+12
110.617 0 997.824 0 0 0 0 1.468e-10 0 8.57124e+12
116.896 0 1177.58 0 0 0 0 1.24935e-10 0 1.01154e+13
123.532 0 1389.73 0 0 0 0 1.06313e-10 0 1.19377e+13
130.545 0 1640.09 0 0 0 0 9.04567e-11 0 1.40883e+13
137.955 0 1935.56 0 0 0 0 7.69563e-11 0 1.66263e+13
145.787 0 2284.26 0 0 0 0 6.54636e-11 0 1.96216e+13
154.063 0 2695.77 0 0 0 0 5.56812e-11 0 2.31565e+13
162.808 0 3181.42 0 0 0 0 4.73556e-11 0 2.73282e+13
172.051 0 3754.56 0 0 0 0 4.02708e-11 0 3.22515e+13
181.818 0 4430.96 0 0 0 0 3.42426e-11 0 3.80616e+13
192.139 0 5229.21 0 0 0 0 2.91139e-11 0 4.49186e+13
203.046 0 6171.26 0 0 0 0 2.4751e-11 0 5.30108e+13
214.572 0 7283.03 0 0 0 0 2.10401e-11 0 6.25608e+13
226.753 0 8595.09 0 0 0 0 1.78839e-11 0 7.38313e+13
239.625 0 10143.5 0 0 0 0 1.51999e-11 0 8.71322e+13
253.228 0 11970.9 0 0 0 0 1.29176e-11 0 1.02829e+14
267.603 0 14127.5 0 0 0 0 1.09771e-11 0 1.21354e+14
282.795 0 16672.6 0 0 0 0 9.3274e-12 0 1.43217e+14
298.848 0 19676.2 0 0 0 0 7.925e-12 0 1.69017e+14
315.813 0 23220.9 0 0 0 0 6.73295e-12 0 1.99466e+14
333.741 0 27404.3 0 0 0 0 5.71979e-12 0 2.35401e+14
352.686 0 32341.2 0 0 0 0 4.85874e-12 0 2.77809e+14
372.707 0 38167.6 0 0 0 0 4.12703e-12 0 3.27857e+14
393.865 0 45043.5 0 0 0 0 3.50528e-12 0 3.86921e+14
416.224 0 53158.3 0 0 0 0 2.97701e-12 0 4.56626e+14
439.852 0 62734.9 0 0 0 0 2.52819e-12 0 5.38888e+14
464.821 0 74036.7 0 0 0 0 2.1469e-12 0 6.35971e+14
491.207 0 87374.6 0 0 0 0 1.82301e-12 0 7.50542e+14
519.092 0 103115 0 0 0 0 1.54789e-12 0 8.85755e+14
548.56 0 121692 0 0 0 0 1.31422e-12 0 1.04533e+15
579.7 0 143615 0 0 0 0 1.11576e-12 0 1.23364e+15
612.608 0 169488 0 0 0 0 9.47223e-13 0 1.45589e+15
647.384 0 200021 0 0 0 0 8.041e-13 0 1.71817e+15
684.134 0 236056 0 0 0 0 6.82568e-13 0 2.0277e+15
722.971 0 278582 0 0 0 0 5.79376e-13 0 2.393e+15
764.012 0 328769 0 0 0 0 4.91762e-13 0 2.8241e+15
