0.129031
200
1.0655e+09
8589934592
0.0129181 0 1.58924e-09 0 0 0 0 0.00677225 0 13.6515
0.0136515 0 1.87554e-09 0 0 0 0 0.00688819 0 16.1108
0.0144264 0 2.21343e-09 0 0 0 0 0.00699249 0 19.0132
0.0152454 0 2.61218e-09 0 0 0 0 0.00708412 0 22.4385
0.0161108 0 3.08278e-09 0 0 0 0 0.00716212 0 26.4808
0.0170254 0 3.63815e-09 0 0 0 0 0.00722559 0 31.2514
0.0179919 0 4.29357e-09 0 0 0 0 0.00727371 0 36.8815
0.0190132 0 5.06707e-09 0 0 0 0 0.00730578 0 43.5258
0.0200925 0 5.97991e-09 0 0 0 0 0.00732122 0 51.367
0.0212331 0 7.05721e-09 0 0 0 0 0.00731958 0 60.621
0.0224385 0 8.32858e-09 0 0 0 0 0.00730056 0 71.542
0.0237123 0 9.829e-09 0 0 0 0 0.00726401 0 84.4305
0.0250583 0 1.15997e-08 0 0 0 0 0.00720995 0 99.6408
0.0264808 0 1.36894e-08 0 0 0 0 0.00713857 0 117.591
0.0279841 0 1.61556e-08 0 0 0 0 0.00705021 0 138.776
0.0295727 0 1.90661e-08 0 0 0 0 0.00694538 0 163.777
0.0312514 0 2.25009e-08 0 0 0 0 0.00682475 0 193.281
0.0330255 0 2.65545e-08 0 0 0 0 0.00668915 0 228.102
0.0349003 0 3.13384e-08 0 0 0 0 0.00653951 0 269.195
0.0368815 0 3.69841e-08 0 0 0 0 0.00637693 0 317.691
0.0389751 0 4.36469e-08 0 0 0 0 0.00620256 0 374.924
0.0411876 0 5.151e-08 0 0 0 0 0.00601767 0 442.467
0.0435258 0 6.07896e-08 0 0 0 0 0.00582358 0 522.179
0.0459966 0 7.1741e-08 0 0 0 0 0.00562166 0 616.251
0.0486077 0 8.46654e-08 0 0 0 0 0.0054133 0 727.27
0.051367 0 9.99181e-08 0 0 0 0 0.00519989 0 858.29
0.054283 0 1.17919e-07 0 0 0 0 0.0049828 0 1012.91
0.0573645 0 1.39162e-07 0 0 0 0 0.00476339 0 1195.39
0.060621 0 1.64232e-07 0 0 0 0 0.00454293 0 1410.75
0.0640622 0 1.93819e-07 0 0 0 0 0.00432265 0 1664.89
0.0676989 0 2.28736e-07 0 0 0 0 0.00410371 0 1964.83
0.071542 0 2.69944e-07 0 0 0 0 0.00388717 0 2318.8
0.0756032 0 3.18575e-07 0 0 0 0 0.00367401 0 2736.54
0.079895 0 3.75967e-07 0 0 0 0 0.0034651 0 3229.53
0.0844305 0 4.43698e-07 0 0 0 0 0.00326121 0 3811.34
0.0892234 0 5.23632e-07 0 0 0 0 0.00306301 0 4497.96
0.0942883 0 6.17966e-07 0 0 0 0 0.00287109 0 5308.28
0.0996408 0 7.29294e-07 0 0 0 0 0.00268591 0 6264.59
0.105297 0 8.60678e-07 0 0 0 0 0.00250785 0 7393.17
0.111275 0 1.01573e-06 0 0 0 0 0.00233721 0 8725.07
0.117591 0 1.19872e-06 0 0 0 0 0.00217419 0 10296.9
0.124267 0 1.41467e-06 0 0 0 0 0.00201893 0 12151.9
0.131321 0 1.66953e-06 0 0 0 0 0.00187147 0 14341.1
0.138776 0 1.9703e-06 0 0 0 0 0.00173182 0 16924.7
0.146654 0 2.32525e-06 0 0 0 0 0.00159991 0 19973.8
0.154979 0 2.74415e-06 0 0 0 0 0.00147563 0 23572.1
0.163777 0 3.23852e-06 0 0 0 0 0.00135884 0 27818.7
0.173074 0 3.82195e-06 0 0 0 0 0.00124933 0 32830.3
0.182899 0 4.51048e-06 0 0 0 0 0.00114689 0 38744.7
0.193281 0 5.32305e-06 0 0 0 0 0.00105127 0 45724.7
0.204254 0 6.28202e-06 0 0 0 0 0.000962209 0 53962.1
0.215848 0 7.41374e-06 0 0 0 0 0.000879423 0 63683.5
0.228102 0 8.74934e-06 0 0 0 0 0.000802624 0 75156.3
0.24105 0 1.03256e-05 0 0 0 0 0.000731515 0 88695.9
0.254734 0 1.21857e-05 0 0 0 0 0.000665798 0 104675
0.269195 0 1.4381e-05 0 0 0 0 0.000605173 0 123532
0.284476 0 1.69718e-05 0 0 0 0 0.000549345 0 145787
0.300625 0 2.00293e-05 0 0 0 0 0.000498021 0 172051
0.317691 0 2.36377e-05 0 0 0 0 0.000450916 0 203046
0.335725 0 2.78961e-05 0 0 0 0 0.000407755 0 239625
0.354784 0 3.29216e-05 0 0 0 0 0.000368269 0 282795
0.374924 0 3.88525e-05 0 0 0 0 0.000332202 0 333741
0.396207 0.477401 4.58519e-05 1.21209e-06 6 0.464128 1.17839e-06 0.000299307 0.024298 393865
0.418699 0 5.41123e-05 0 0 0 0 0.00026935 0 464821
0.442467 0 6.38607e-05 0 0 0 0 0.000242108 0 548560
0.467585 0 7.53654e-05 0 0 0 0 0.00021737 0 647384
0.494129 0 8.89427e-05 0 0 0 0 0.000194938 0 764012
0.522179 0 0.000104966 0 0 0 0 0.000174625 0 901651
0.551822 0 0.000123876 0 0 0 0 0.000156255 0 1.06409e+06
0.583147 5.90594 0.000146192 4.70299e-06 12 6.21603 4.94992e-06 0.000139664 0.404083 1.25578e+06
0.616251 0 0.000172529 0 0 0 0 0.0001247 0 1.48202e+06
0.651234 0 0.000203611 0 0 0 0 0.00011122 0 1.74901e+06
0.688203 23.2799 0.000240292 1.12785e-05 8 22.7008 1.09979e-05 9.90935e-05 0.910536 2.06409e+06
0.72727 0 0.000283581 0 0 0 0 8.81969e-05 0 2.43595e+06
0.768555 0 0.000334669 0 0 0 0 7.84179e-05 0 2.87479e+06
0.812184 0.0824866 0.000394961 2.43131e-08 6 0.0842502 2.48329e-08 6.96525e-05 0.00209437 3.39269e+06
0.85829 0 0.000466114 0 0 0 0 6.1805e-05 0 4.00389e+06
0.907013 0.212027 0.000550086 4.48716e-08 24 0.216096 4.57325e-08 5.47875e-05 0.0196563 4.7252e+06
0.958501 0.867824 0.000649185 1.55623e-07 24 0.816992 1.46507e-07 4.85194e-05 0.0769784 5.57646e+06
1.01291 0 0.000766138 0 0 0 0 4.29272e-05 0 6.58107e+06
1.07041 0 0.00090416 0 0 0 0 3.79435e-05 0 7.76667e+06
1.13118 0.937013 0.00106705 1.02229e-07 12 0.925503 1.00973e-07 3.3507e-05 0.0366115 9.16586e+06
1.19539 0.805297 0.00125928 7.44465e-08 30 0.788695 7.29118e-08 2.9562e-05 0.0755495 1.08171e+07
1.26325 7.26429 0.00148614 5.69041e-07 24 7.15498 5.60478e-07 2.60578e-05 0.524103 1.27658e+07
1.33496 17.2266 0.00175387 1.14344e-06 24 17.2645 1.14595e-06 2.29484e-05 1.19583 1.50656e+07
1.41075 6.20188 0.00206984 3.48817e-07 32 6.37877 3.58766e-07 2.01923e-05 0.552792 1.77798e+07
1.49083 0.491861 0.00244272 2.34411e-08 48 0.481375 2.29414e-08 1.77518e-05 0.0633837 2.09828e+07
1.57546 0.0322471 0.00288279 1.30223e-09 6 0.0307065 1.24002e-09 1.55929e-05 0.000501088 2.4763e+07
1.66489 0.50959 0.00340213 1.74373e-08 84 0.492896 1.68661e-08 1.3685e-05 0.107032 2.92241e+07
1.75941 2.20972 0.00401503 6.40707e-08 48 2.22552 6.45286e-08 1.20007e-05 0.256268 3.44889e+07
1.85928 0.250394 0.00473835 6.15186e-09 72 0.251979 6.19081e-09 1.05151e-05 0.0421236 4.07021e+07
1.96483 0.649093 0.00559198 1.3513e-08 54 0.636211 1.32448e-08 9.20606e-06 0.0792633 4.80347e+07
2.07637 8.10296 0.00659939 1.42939e-07 104 8.0968 1.4283e-07 8.05366e-06 1.84583 5.66883e+07
2.19424 0.323792 0.00778828 4.83987e-09 120 0.326219 4.87616e-09 7.04008e-06 0.0824969 6.69008e+07
2.3188 1.64645 0.00919136 2.08535e-08 156 1.56649 1.98407e-08 6.1494e-06 0.529019 7.89532e+07
2.45043 0.610375 0.0108472 6.55072e-09 126 0.605389 6.4972e-09 5.36741e-06 0.153778 9.31768e+07
2.58954 0.594029 0.0128014 5.40209e-09 192 0.602985 5.48353e-09 4.68145e-06 0.221555 1.09963e+08
2.73654 3.90722 0.0151076 3.01081e-08 152 4.06218 3.13022e-08 4.08023e-06 1.12161 1.29773e+08
2.89188 3.49106 0.0178292 2.27948e-08 378 3.57143 2.33195e-08 3.55373e-06 2.42461 1.53152e+08
3.05605 1.31385 0.0210412 7.26917e-09 264 1.29056 7.14033e-09 3.09304e-06 0.620445 1.80743e+08
3.22953 0.244916 0.0248319 1.1482e-09 366 0.241482 1.1321e-09 2.69025e-06 0.156209 2.13304e+08
3.41286 0.738989 0.0293054 2.93563e-09 428 0.706885 2.80809e-09 2.33837e-06 0.537317 2.51731e+08
3.6066 3.13152 0.0345848 1.0541e-08 486 3.02929 1.01968e-08 2.0312e-06 2.5221 2.97081e+08
3.81134 0.769543 0.0408154 2.19492e-09 600 0.766109 2.18513e-09 1.76327e-06 0.746883 3.50601e+08
4.0277 0.548637 0.0481684 1.32597e-09 738 0.538886 1.3024e-09 1.52972e-06 0.639701 4.13763e+08
4.25634 1.17479 0.056846 2.40586e-09 824 1.2175 2.49333e-09 1.32631e-06 1.4947 4.88304e+08
4.49796 2.52886 0.067087 4.3883e-09 954 2.54743 4.42052e-09 1.14926e-06 3.64274 5.76273e+08
4.7533 0.581446 0.0791729 8.54955e-10 1094 0.572984 8.42512e-10 9.95263e-07 0.939773 6.8009e+08
5.02313 0.346545 0.0934361 4.31772e-10 1332 0.348072 4.33676e-10 8.61414e-07 0.667647 8.0261e+08
5.30828 2.02001 0.110269 2.13261e-09 1614 2.04615 2.1602e-09 7.45152e-07 4.61923 9.47202e+08
5.60962 1.06738 0.130134 9.54853e-10 1850 1.03447 9.25415e-10 6.44232e-07 2.74199 1.11784e+09
5.92807 1.41527 0.153578 1.0728e-09 2238 1.35777 1.02922e-09 5.56685e-07 4.31291 1.31923e+09
6.26459 0.677125 0.181246 4.34922e-10 2546 0.686153 4.40721e-10 4.80786e-07 2.30313 1.55689e+09
6.62021 0.317737 0.213898 1.72931e-10 3264 0.317401 1.72748e-10 4.15026e-07 1.36003 1.83737e+09
6.99602 1.4216 0.252432 6.55608e-10 3506 1.46696 6.76525e-10 3.58083e-07 6.41908 2.16837e+09
7.39317 0.6903 0.297908 2.69753e-10 4506 0.698035 2.72775e-10 3.08803e-07 3.93618 2.55901e+09
7.81286 1.21622 0.351577 4.0272e-10 5018 1.25263 4.14777e-10 2.66181e-07 7.59201 3.02002e+09
8.25637 1.08331 0.414914 3.03952e-10 5852 1.04663 2.9366e-10 2.29336e-07 7.75597 3.56409e+09
8.72507 0.767312 0.489662 1.82425e-10 7362 0.76027 1.80751e-10 1.97503e-07 6.79998 4.20617e+09
9.22037 1.00632 0.577876 2.02726e-10 8306 0.995389 2.00525e-10 1.70014e-07 9.90415 4.96392e+09
9.74378 0.496285 0.681982 8.47165e-11 9698 0.496726 8.47917e-11 1.46289e-07 5.61615 5.85818e+09
10.2969 1.10094 0.804843 1.59244e-10 11816 1.11467 1.6123e-10 1.25822e-07 14.9546 6.91355e+09
10.8814 0.96133 0.949838 1.17824e-10 13682 0.962392 1.17954e-10 1.08175e-07 14.9023 8.15905e+09
11.4992 0.95025 1.12095 9.8687e-11 16152 0.937964 9.74111e-11 9.29669e-08 17.1458 9.62892e+09
12.1519 0.997125 1.3229 8.77473e-11 19472 0.980169 8.62551e-11 7.98658e-08 21.3936 1.13636e+10
12.8418 0.698383 1.56122 5.20763e-11 22670 0.701428 5.23033e-11 6.85852e-08 17.2132 1.34108e+10
13.5708 1.03799 1.84248 6.55845e-11 26224 1.04632 6.61108e-11 5.88765e-08 29.2118 1.58268e+10
14.3411 1.01727 2.17441 5.44635e-11 31640 1.02419 5.48342e-11 5.05241e-08 34.107 1.8678e+10
15.1552 1.16476 2.56613 5.28407e-11 37484 1.16835 5.30034e-11 4.33417e-08 45.6992 2.20429e+10
16.0156 1.19388 3.02843 4.58937e-11 43856 1.20095 4.61655e-11 3.71677e-08 54.1522 2.6014e+10
16.9247 1.71286 3.574 5.57926e-11 51362 1.71043 5.57134e-11 3.18628e-08 89.9362 3.07005e+10
17.8855 1.84353 4.21787 5.08822e-11 61636 1.83184 5.05596e-11 2.73063e-08 114.852 3.62312e+10
18.9008 2.4331 4.97773 5.69035e-11 72218 2.42205 5.66451e-11 2.33941e-08 175.662 4.27584e+10
19.9738 3.09871 5.87448 6.14075e-11 84586 3.08391 6.11141e-11 2.00364e-08 259.239 5.04614e+10
21.1076 3.88368 6.93279 6.52148e-11 100708 3.87298 6.50351e-11 1.71555e-08 382.83 5.95522e+10
22.3058 4.85709 8.18175 6.91099e-11 118712 4.85025 6.90126e-11 1.46847e-08 558.69 7.02807e+10
23.5721 5.92626 9.65571 7.14507e-11 140410 5.90808 7.12315e-11 1.25662e-08 798.366 8.29419e+10
24.9102 7.10977 11.3952 7.26345e-11 164374 7.08159 7.23467e-11 1.07504e-08 1110.59 9.78842e+10
26.3243 8.30099 13.4481 7.18587e-11 194680 8.27429 7.16276e-11 9.19452e-09 1521.5 1.15518e+11
27.8187 9.75477 15.8708 7.15531e-11 230196 9.71988 7.12972e-11 7.86182e-09 2095.09 1.36329e+11
29.3979 11.3788 18.73 7.07246e-11 271156 11.3436 7.05054e-11 6.72061e-09 2853.52 1.60889e+11
31.0667 13.2688 22.1042 6.98822e-11 321076 13.2257 6.96551e-11 5.74366e-09 3906.48 1.89874e+11
32.8303 15.3583 26.0864 6.85393e-11 377436 15.311 6.83282e-11 4.90756e-09 5271.3 2.2408e+11
34.694 17.7549 30.7859 6.71394e-11 447594 17.6992 6.69285e-11 4.19221e-09 7168.35 2.64449e+11
36.6634 20.5116 36.3321 6.57234e-11 525078 20.4487 6.55218e-11 3.58032e-09 9638.76 3.1209e+11
38.7447 23.9161 42.8774 6.49339e-11 621924 23.8398 6.47268e-11 3.05709e-09 13210 3.68314e+11
40.9442 27.8282 50.6018 6.40219e-11 732630 27.7455 6.38317e-11 2.60976e-09 17972.7 4.34667e+11
43.2685 32.7188 59.7179 6.37827e-11 865596 32.6161 6.35825e-11 2.22743e-09 24786.4 5.12973e+11
45.7247 38.3986 70.4762 6.34282e-11 1.02168e+06 38.2742 6.32227e-11 1.90073e-09 34093.7 6.05386e+11
48.3204 45.0957 83.1727 6.31197e-11 1.20544e+06 44.9456 6.29095e-11 1.62163e-09 46919.8 7.14448e+11
51.0634 53.0305 98.1565 6.2895e-11 1.42103e+06 52.8601 6.2693e-11 1.38326e-09 64612.6 8.43158e+11
53.9621 62.2475 115.84 6.25568e-11 1.67997e+06 62.0498 6.23581e-11 1.1797e-09 89084.6 9.95055e+11
57.0254 73.077 136.709 6.22294e-11 1.98018e+06 72.844 6.2031e-11 1.00592e-09 122500 1.17432e+12
60.2626 85.8823 161.337 6.19698e-11 2.33957e+06 85.6 6.17661e-11 8.57591e-10 169058 1.38587e+12
63.6835 100.721 190.402 6.15827e-11 2.75676e+06 100.397 6.13846e-11 7.3101e-10 232239 1.63554e+12
67.2987 118.67 224.704 6.14809e-11 3.25638e+06 118.292 6.12851e-11 6.23009e-10 321352 1.93019e+12
71.1191 139.551 265.185 6.12623e-11 3.84387e+06 139.102 6.10654e-11 5.30879e-10 443575 2.27792e+12
75.1563 164.397 312.958 6.11529e-11 4.53277e+06 163.86 6.09533e-11 4.52303e-10 612845 2.68829e+12
79.4227 193.524 369.339 6.09988e-11 5.35083e+06 192.905 6.08035e-11 3.85299e-10 847118 3.17259e+12
83.9313 227.8 435.876 6.08415e-11 6.32174e+06 227.059 6.06436e-11 3.28173e-10 1.17202e+06 3.74415e+12
88.6959 268.975 514.4 6.08726e-11 7.44986e+06 268.083 6.06706e-11 2.79476e-10 1.62265e+06 4.41866e+12
93.7309 316.876 607.071 6.07659e-11 8.79764e+06 315.835 6.05663e-11 2.37972e-10 2.24646e+06 5.2147e+12
99.0518 373.225 716.436 6.06462e-11 1.03827e+07 372.01 6.04487e-11 2.02605e-10 3.10788e+06 6.15414e+12
104.675 440.392 845.504 6.06365e-11 1.22515e+07 438.933 6.04356e-11 1.72471e-10 4.30733e+06 7.26283e+12
110.617 519.494 997.824 6.06089e-11 1.44573e+07 517.774 6.04083e-11 1.468e-10 5.96895e+06 8.57124e+12
116.896 612.725 1177.58 6.05736e-11 1.70664e+07 610.698 6.03732e-11 1.24935e-10 8.27451e+06 1.01154e+13
123.532 723.331 1389.73 6.05922e-11 2.0139e+07 720.923 6.03905e-11 1.06313e-10 1.1478e+07 1.19377e+13
130.545 865.313 1640.09 6.14207e-11 2.37643e+07 862.963 6.12539e-11 9.04567e-11 1.61361e+07 1.40883e+13
137.955 1007.01 1935.56 6.05669e-11 2.80503e+07 1003.64 6.03646e-11 7.69563e-11 2.20764e+07 1.66263e+13
145.787 1188.68 2284.26 6.05804e-11 3.30981e+07 1184.72 6.03782e-11 6.54636e-11 3.06292e+07 1.96216e+13
154.063 1406.15 2695.77 6.07236e-11 3.90634e+07 1401.45 6.05208e-11 5.56812e-11 4.2601e+07 2.31565e+13
162.808 1658.26 3181.42 6.06796e-11 4.61057e+07 1652.74 6.04774e-11 4.73556e-11 5.9078e+07 2.73282e+13
172.051 1958.36 3754.56 6.07217e-11 5.44046e+07 1951.8 6.05183e-11 4.02708e-11 8.2033e+07 3.22515e+13
181.818 2318.98 4430.96 6.09268e-11 6.42064e+07 2311.37 6.07271e-11 3.42426e-11 1.14241e+08 3.80616e+13
192.139 2735.44 5229.21 6.08977e-11 7.57748e+07 2726.24 6.0693e-11 2.91139e-11 1.58499e+08 4.49186e+13
203.046 3243.33 6171.26 6.11826e-11 8.94213e+07 3232.13 6.09713e-11 2.4751e-11 2.21042e+08 5.30108e+13
214.572 3832.23 7283.03 6.12562e-11 1.05538e+08 3819.3 6.10494e-11 2.10401e-11 3.07265e+08 6.25608e+13
226.753 4541.06 8595.09 6.1506e-11 1.24552e+08 4525.48 6.12949e-11 1.78839e-11 4.28356e+08 7.38313e+13
239.625 5384.6 10143.5 6.17981e-11 1.46987e+08 5366.2 6.15868e-11 1.51999e-11 5.97604e+08 8.71322e+13
253.228 6396.68 11970.9 6.22068e-11 1.7347e+08 6374.6 6.19921e-11 1.29176e-11 8.35372e+08 1.02829e+14
267.603 7615.74 14127.5 6.27563e-11 2.04703e+08 7589.25 6.2538e-11 1.09771e-11 1.17029e+09 1.21354e+14
282.795 9093.67 16672.6 6.34959e-11 2.4161e+08 9061.69 6.32726e-11 9.3274e-12 1.64475e+09 1.43217e+14
298.848 10898.6 19676.2 6.44824e-11 2.85122e+08 10859.6 6.42512e-11 7.925e-12 2.31992e+09 1.69017e+14
315.813 13137 23220.9 6.58608e-11 3.36491e+08 13088.8 6.56193e-11 6.73295e-12 3.29151e+09 1.99466e+14
333.741 15953.4 27404.3 6.77713e-11 3.97115e+08 15892.7 6.75135e-11 5.71979e-12 4.70524e+09 2.35401e+14
352.686 19579.7 32341.2 7.0479e-11 4.68637e+08 19501.8 7.01988e-11 4.85874e-12 6.79787e+09 2.77809e+14
372.707 24390.4 38167.6 7.43935e-11 5.53074e+08 24287.9 7.40807e-11 4.12703e-12 9.96967e+09 3.27857e+14
393.865 31031.7 45043.5 8.02016e-11 6.52716e+08 30890.9 7.98377e-11 3.50528e-12 1.49343e+10 3.86921e+14
416.224 36615.1 53158.3 8.01862e-11 2.2184e+08 38735.4 8.48295e-11 2.97701e-12 5.97529e+09 4.56626e+14
439.852 0 62734.9 0 0 0 0 2.52819e-12 0 5.38888e+14
464.821 0 74036.7 0 0 0 0 2.1469e-12 0 6.35971e+14
491.207 0 87374.6 0 0 0 0 1.82301e-12 0 7.50542e+14
519.092 0 103115 0 0 0 0 1.54789e-12 0 8.85755e+14
548.56 0 121692 0 0 0 0 1.31422e-12 0 1.04533e+15
579.7 0 143615 0 0 0 0 1.11576e-12 0 1.23364e+15
612.608 0 169488 0 0 0 0 9.47223e-13 0 1.45589e+15
647.384 0 200021 0 0 0 0 8.041e-13 0 1.71817e+15
684.134 0 236056 0 0 0 0 6.82568e-13 0 2.0277e+15
722.971 0 278582 0 0 0 0 5.79376e-13 0 2.393e+15
764.012 0 328769 0 0 0 0 4.91762e-13 0 2.8241e+15
0.129031
200
1.0655e+09
8589934592
0.0129181 5.87473e-05 1.58924e-09 4.30337e-06 6 5.82095e-05 4.26398e-06 0.00677225 0.00381265 13.6515
0.0136515 0 1.87554e-09 0 0 0 0 0.00688819 0 16.1108
0.0144264 0 2.21343e-09 0 0 0 0 0.00699249 0 19.0132
0.0152454 0 2.61218e-09 0 0 0 0 0.00708412 0 22.4385
0.0161108 0 3.08278e-09 0 0 0 0 0.00716212 0 26.4808
0.0170254 0 3.63815e-09 0 0 0 0 0.00722559 0 31.2514
0.0179919 0.000128316 4.29357e-09 3.47915e-06 12 0.000128151 3.47467e-06 0.00727371 0.00573983 36.8815
0.0190132 0 5.06707e-09 0 0 0 0 0.00730578 0 43.5258
0.0200925 0 5.97991e-09 0 0 0 0 0.00732122 0 51.367
0.0212331 0.000120192 7.05721e-09 1.98268e-06 8 0.000120087 1.98096e-06 0.00731958 0.00216699 60.621
0.0224385 0 8.32858e-09 0 0 0 0 0.00730056 0 71.542
0.0237123 0 9.829e-09 0 0 0 0 0.00726401 0 84.4305
0.0250583 0.000767249 1.15997e-08 7.70014e-06 6 0.000766888 7.69652e-06 0.00720995 0.00640793 99.6408
0.0264808 0 1.36894e-08 0 0 0 0 0.00713857 0 117.591
0.0279841 0.000475197 1.61556e-08 3.4242e-06 24 0.000474709 3.42069e-06 0.00705021 0.0116565 138.776
0.0295727 0 1.90661e-08 0 0 0 0 0.00694538 0 163.777
0.0312514 0.000846107 2.25009e-08 4.37759e-06 24 0.000850403 4.39982e-06 0.00682475 0.0153943 193.281
0.0330255 0 2.65545e-08 0 0 0 0 0.00668915 0 228.102
0.0349003 0.00117648 3.13384e-08 4.37037e-06 12 0.00116706 4.33538e-06 0.00653951 0.00801962 269.195
0.0368815 0.00101594 3.69841e-08 3.19789e-06 30 0.00100512 3.16384e-06 0.00637693 0.0150444 317.691
0.0389751 0.00120787 4.36469e-08 3.22165e-06 24 0.00119545 3.18851e-06 0.00620256 0.0124658 374.924
0.0411876 0.000763926 5.151e-08 1.72651e-06 24 0.000758738 1.71479e-06 0.00601767 0.00688578 442.467
0.0435258 0.00164404 6.07896e-08 3.14843e-06 8 0.00164392 3.14818e-06 0.00582358 0.00432507 522.179
0.0459966 0.00209588 7.1741e-08 3.40102e-06 72 0.00207932 3.37414e-06 0.00562166 0.0435589 616.251
0.0486077 0 8.46654e-08 0 0 0 0 0.0054133 0 727.27
0.051367 0.00312241 9.99181e-08 3.63794e-06 54 0.00311253 3.62643e-06 0.00519989 0.0377794 858.29
0.054283 0.00242016 1.17919e-07 2.3893e-06 60 0.00243025 2.39927e-06 0.0049828 0.0287706 1012.91
0.0573645 0.00240331 1.39162e-07 2.01048e-06 96 0.00239717 2.00534e-06 0.00476339 0.0405186 1195.39
0.060621 0.00276512 1.64232e-07 1.96004e-06 24 0.00272766 1.93349e-06 0.00454293 0.0103548 1410.75
0.0640622 0.00486503 1.93819e-07 2.92212e-06 134 0.00486771 2.92373e-06 0.00432265 0.0905843 1664.89
0.0676989 0.00465166 2.28736e-07 2.36746e-06 120 0.00463038 2.35663e-06 0.00410371 0.0692289 1964.83
0.071542 0.00423638 2.69944e-07 1.82697e-06 108 0.00419058 1.80722e-06 0.00388717 0.05076 2318.8
0.0756032 0.00614255 3.18575e-07 2.24464e-06 174 0.00611065 2.23298e-06 0.00367401 0.106306 2736.54
0.079895 0.00654979 3.75967e-07 2.02809e-06 168 0.00648804 2.00897e-06 0.0034651 0.098329 3229.53
0.0844305 0.00559182 4.43698e-07 1.46715e-06 168 0.0056198 1.47449e-06 0.00326121 0.0755799 3811.34
0.0892234 0.00627093 5.23632e-07 1.39417e-06 290 0.00624472 1.38834e-06 0.00306301 0.131997 4497.96
0.0942883 0.00812743 6.17966e-07 1.53108e-06 288 0.00810697 1.52723e-06 0.00287109 0.153584 5308.28
0.0996408 0.00738429 7.29294e-07 1.17874e-06 366 0.00732199 1.16879e-06 0.00268591 0.160622 6264.59
0.105297 0.0079737 8.60678e-07 1.07852e-06 420 0.00791878 1.07109e-06 0.00250785 0.180624 7393.17
0.111275 0.00841216 1.01573e-06 9.64137e-07 398 0.00838931 9.61519e-07 0.00233721 0.164181 8725.07
0.117591 0.00998993 1.19872e-06 9.70187e-07 624 0.0100104 9.72177e-07 0.00217419 0.278446 10296.9
0.124267 0.0110128 1.41467e-06 9.06261e-07 642 0.0109992 9.0514e-07 0.00201893 0.288183 12151.9
0.131321 0.0139526 1.66953e-06 9.72907e-07 800 0.0139578 9.73271e-07 0.00187147 0.41589 14341.1
0.138776 0.0126419 1.9703e-06 7.4695e-07 858 0.012703 7.50561e-07 0.00173182 0.370064 16924.7
0.146654 0.0136031 2.32525e-06 6.81046e-07 1080 0.013717 6.86749e-07 0.00159991 0.459732 19973.8
0.154979 0.01605 2.74415e-06 6.80892e-07 1286 0.0161614 6.85617e-07 0.00147563 0.59339 23572.1
0.163777 0.0151553 3.23852e-06 5.44789e-07 1650 0.0151826 5.45769e-07 0.00135884 0.661522 27818.7
0.173074 0.017809 3.82195e-06 5.42458e-07 1778 0.0178114 5.4253e-07 0.00124933 0.772005 32830.3
0.182899 0.0173702 4.51048e-06 4.48325e-07 2112 0.0174117 4.49396e-07 0.00114689 0.825591 38744.7
0.193281 0.0203838 5.32305e-06 4.45795e-07 2570 0.0204142 4.4646e-07 0.00105127 1.08982 45724.7
0.204254 0.0225679 6.28202e-06 4.18217e-07 3030 0.022559 4.18052e-07 0.000962209 1.31697 53962.1
0.215848 0.0223833 7.41374e-06 3.51478e-07 3434 0.02238 3.51426e-07 0.000879423 1.37246 63683.5
0.228102 0.0233372 8.74934e-06 3.10516e-07 4218 0.0233433 3.10597e-07 0.000802624 1.63184 75156.3
0.24105 0.0262948 1.03256e-05 2.9646e-07 4766 0.0263203 2.96747e-07 0.000731515 1.93151 88695.9
0.254734 0.0280267 1.21857e-05 2.6775e-07 6026 0.0280186 2.67673e-07 0.000665798 2.42335 104675
0.269195 0.0292496 1.4381e-05 2.36777e-07 6480 0.0292365 2.36671e-07 0.000605173 2.53533 123532
0.284476 0.0316357 1.69718e-05 2.17e-07 8162 0.0317097 2.17507e-07 0.000549345 3.22412 145787
0.300625 0.031779 2.00293e-05 1.84707e-07 9578 0.0318202 1.84947e-07 0.000498021 3.55232 172051
0.317691 0.0352426 2.36377e-05 1.73569e-07 11234 0.0352176 1.73446e-07 0.000450916 4.32426 203046
0.335725 0.0367967 2.78961e-05 1.53559e-07 13344 0.0367812 1.53494e-07 0.000407755 5.02531 239625
0.354784 0.0380591 3.29216e-05 1.34582e-07 15464 0.0380373 1.34505e-07 0.000368269 5.65124 282795
0.374924 0.0407933 3.88525e-05 1.22231e-07 18458 0.040788 1.22215e-07 0.000332202 6.79145 333741
0.396207 0.0426749 4.58519e-05 1.08349e-07 22232 0.0426145 1.08196e-07 0.000299307 8.04798 393865
0.418699 0.0460615 5.41123e-05 9.90951e-08 25628 0.045968 9.8894e-08 0.00026935 9.42866 464821
0.442467 0.0478558 6.38607e-05 8.72391e-08 30320 0.0477747 8.70911e-08 0.000242108 10.9253 548560
0.467585 0.0500348 7.53654e-05 7.72877e-08 35452 0.0499638 7.71781e-08 0.00021737 12.6052 647384
0.494129 0.0517441 8.89427e-05 6.77268e-08 41792 0.0517263 6.77036e-08 0.000194938 14.5197 764012
0.522179 0.0558369 0.000104966 6.19275e-08 49988 0.0558224 6.19113e-08 0.000174625 17.7273 901651
0.551822 0.0582206 0.000123876 5.47142e-08 59110 0.0581854 5.46812e-08 0.000156255 20.698 1.06409e+06
0.583147 0.0612765 0.000146192 4.87954e-08 69716 0.0612046 4.87382e-08 0.000139664 24.3572 1.25578e+06
0.616251 0.0645056 0.000172529 4.35255e-08 82210 0.0644055 4.3458e-08 0.0001247 28.6947 1.48202e+06
0.651234 0.0680291 0.000203611 3.88959e-08 96722 0.0679076 3.88264e-08 0.00011122 33.8255 1.74901e+06
0.688203 0.0713409 0.000240292 3.45628e-08 113098 0.0712787 3.45327e-08 9.90935e-05 39.4475 2.06409e+06
0.72727 0.0739176 0.000283581 3.03445e-08 135190 0.0738438 3.03142e-08 8.81969e-05 46.5127 2.43595e+06
0.768555 0.0783058 0.000334669 2.72388e-08 158170 0.078239 2.72156e-08 7.84179e-05 54.9411 2.87479e+06
0.812184 0.0816931 0.000394961 2.40792e-08 188560 0.0816159 2.40564e-08 6.96525e-05 65.186 3.39269e+06
0.85829 0.0852136 0.000466114 2.12827e-08 220444 0.0851195 2.12592e-08 6.1805e-05 75.9104 4.00389e+06
0.907013 0.0894599 0.000550086 1.89325e-08 261388 0.0893733 1.89142e-08 5.47875e-05 90.3259 4.7252e+06
0.958501 0.0934002 0.000649185 1.6749e-08 308244 0.0933032 1.67316e-08 4.85194e-05 106.407 5.57646e+06
1.01291 0.0983387 0.000766138 1.49427e-08 364396 0.098233 1.49266e-08 4.29272e-05 126.844 6.58107e+06
1.07041 0.102437 0.00090416 1.31892e-08 429162 0.102315 1.31736e-08 3.79435e-05 149.178 7.76667e+06
1.13118 0.107706 0.00106705 1.17508e-08 506358 0.107581 1.17372e-08 3.3507e-05 177.577 9.16586e+06
1.19539 0.112212 0.00125928 1.03736e-08 598590 0.112074 1.03608e-08 2.9562e-05 210.05 1.08171e+07
1.26325 0.117523 0.00148614 9.20602e-09 704844 0.117377 9.19464e-09 2.60578e-05 249.016 1.27658e+07
1.33496 0.122615 0.00175387 8.13869e-09 834620 0.122461 8.12849e-09 2.29484e-05 295.999 1.50656e+07
1.41075 0.12807 0.00206984 7.20312e-09 981444 0.127921 7.19473e-09 2.01923e-05 350.107 1.77798e+07
1.49083 0.133895 0.00244272 6.38115e-09 1.15998e+06 0.133725 6.37308e-09 1.77518e-05 416.972 2.09828e+07
1.57546 0.140431 0.00288279 5.671e-09 1.36931e+06 0.140252 5.66378e-09 1.55929e-05 498.007 2.4763e+07
1.66489 0.146703 0.00340213 5.01992e-09 1.61652e+06 0.146498 5.01293e-09 1.3685e-05 592.968 2.92241e+07
1.75941 0.153259 0.00401503 4.44372e-09 1.90601e+06 0.153053 4.43774e-09 1.20007e-05 705.773 3.44889e+07
1.85928 0.160468 0.00473835 3.9425e-09 2.24913e+06 0.160265 3.93751e-09 1.05151e-05 843.281 4.07021e+07
1.96483 0.167473 0.00559198 3.48651e-09 2.65744e+06 0.167242 3.4817e-09 9.20606e-06 1006.42 4.80347e+07
2.07637 0.175368 0.00659939 3.09356e-09 3.13125e+06 0.175134 3.08942e-09 8.05366e-06 1202.77 5.66883e+07
2.19424 0.183563 0.00778828 2.74381e-09 3.69915e+06 0.183322 2.7402e-09 7.04008e-06 1441.71 6.69008e+07
2.3188 0.192012 0.00919136 2.43197e-09 4.36472e+06 0.191745 2.42859e-09 6.1494e-06 1726.16 7.89532e+07
2.45043 0.201244 0.0108472 2.15981e-09 5.14913e+06 0.200967 2.15684e-09 5.36741e-06 2071.97 9.31768e+07
2.58954 0.211063 0.0128014 1.91941e-09 6.07894e+06 0.210765 1.91669e-09 4.68145e-06 2492.38 1.09963e+08
2.73654 0.221121 0.0151076 1.70391e-09 7.17304e+06 0.220812 1.70153e-09 4.08023e-06 2995.46 1.29773e+08
2.89188 0.231765 0.0178292 1.5133e-09 8.46557e+06 0.23144 1.51118e-09 3.55373e-06 3604.93 1.53152e+08
3.05605 0.243238 0.0210412 1.34577e-09 9.98773e+06 0.242913 1.34397e-09 3.09304e-06 4345.62 1.80743e+08
3.22953 0.255408 0.0248319 1.19739e-09 1.1797e+07 0.255051 1.19572e-09 2.69025e-06 5250.67 2.13304e+08
3.41286 0.268534 0.0293054 1.06675e-09 1.39144e+07 0.268137 1.06517e-09 2.33837e-06 6347.64 2.51731e+08
3.6066 0.282139 0.0345848 9.49702e-10 1.64163e+07 0.281735 9.48342e-10 2.0312e-06 7675.54 2.97081e+08
3.81134 0.296859 0.0408154 8.46713e-10 1.93821e+07 0.296427 8.45481e-10 1.76327e-06 9307.23 3.50601e+08
4.0277 0.312648 0.0481684 7.5562e-10 2.28754e+07 0.312185 7.54502e-10 1.52972e-06 11299.5 4.13763e+08
4.25634 0.329417 0.056846 6.74614e-10 2.69929e+07 0.328918 6.73593e-10 1.32631e-06 13729.7 4.88304e+08
4.49796 0.347631 0.067087 6.0324e-10 3.18542e+07 0.347096 6.02312e-10 1.14926e-06 16720.1 5.76273e+08
4.7533 0.367161 0.0791729 5.39872e-10 3.75892e+07 0.366595 5.39039e-10 9.95263e-07 20389.9 6.8009e+08
5.02313 0.387997 0.0934361 4.83419e-10 4.43706e+07 0.387392 4.82665e-10 8.61414e-07 24900.5 8.0261e+08
5.30828 0.410549 0.110269 4.33433e-10 5.23593e+07 0.409886 4.32733e-10 7.45152e-07 30455.9 9.47202e+08
5.60962 0.434984 0.130134 3.89127e-10 6.1787e+07 0.434288 3.88505e-10 6.44232e-07 37320.4 1.11784e+09
5.92807 0.461738 0.153578 3.50007e-10 7.29346e+07 0.460975 3.49428e-10 5.56685e-07 45856.4 1.31923e+09
6.26459 0.490451 0.181246 3.1502e-10 8.60651e+07 0.489625 3.14489e-10 4.80786e-07 56391.4 1.55689e+09
6.62021 0.52216 0.213898 2.84189e-10 1.01558e+08 0.521269 2.83705e-10 4.15026e-07 69542 1.83737e+09
6.99602 0.556854 0.252432 2.56807e-10 1.1986e+08 0.555894 2.56365e-10 3.58083e-07 85960.3 2.16837e+09
7.39317 0.594941 0.297908 2.32489e-10 1.41457e+08 0.593899 2.32082e-10 3.08803e-07 106499 2.55901e+09
7.81286 0.636699 0.351577 2.10826e-10 1.66936e+08 0.635558 2.10448e-10 2.66181e-07 132220 3.02002e+09
8.25637 0.682587 0.414914 1.91518e-10 1.97025e+08 0.681349 1.91171e-10 2.29336e-07 164535 3.56409e+09
8.72507 0.733197 0.489662 1.74315e-10 2.32497e+08 0.731838 1.73992e-10 1.97503e-07 205200 4.20617e+09
9.22037 0.789741 0.577876 1.59096e-10 2.74404e+08 0.788238 1.58794e-10 1.70014e-07 256783 4.96392e+09
9.74378 0.853239 0.681982 1.45649e-10 3.2382e+08 0.851567 1.45364e-10 1.46289e-07 322404 5.85818e+09
10.2969 0.927208 0.804843 1.34115e-10 3.82165e+08 0.925305 1.33839e-10 1.25822e-07 407351 6.91355e+09
10.8814 1.01685 0.949838 1.24629e-10 4.51027e+08 1.01461 1.24354e-10 1.08175e-07 519628 8.15905e+09
11.4992 1.13334 1.12095 1.17702e-10 5.32251e+08 1.13053 1.1741e-10 9.29669e-08 673862 9.62892e+09
12.1519 1.29656 1.3229 1.14098e-10 6.28157e+08 1.2928 1.13767e-10 7.98658e-08 897397 1.13636e+10
12.8418 1.47672 1.56122 1.10114e-10 3.82727e+08 1.52828 1.13959e-10 6.85852e-08 614472 1.34108e+10
13.5708 0 1.84248 0 0 0 0 5.88765e-08 0 1.58268e+10
14.3411 0 2.17441 0 0 0 0 5.05241e-08 0 1.8678e+10
15.1552 0 2.56613 0 0 0 0 4.33417e-08 0 2.20429e+10
16.0156 0 3.02843 0 0 0 0 3.71677e-08 0 2.6014e+10
16.9247 0 3.574 0 0 0 0 3.18628e-08 0 3.07005e+10
17.8855 0 4.21787 0 0 0 0 2.73063e-08 0 3.62312e+10
18.9008 0 4.97773 0 0 0 0 2.33941e-08 0 4.27584e+10
19.9738 0 5.87448 0 0 0 0 2.00364e-08 0 5.04614e+10
21.1076 0 6.93279 0 0 0 0 1.71555e-08 0 5.95522e+10
22.3058 0 8.18175 0 0 0 0 1.46847e-08 0 7.02807e+10
23.5721 0 9.65571 0 0 0 0 1.25662e-08 0 8.29419e+10
24.9102 0 11.3952 0 0 0 0 1.07504e-08 0 9.78842e+10
26.3243 0 13.4481 0 0 0 0 9.19452e-09 0 1.15518e+11
27.8187 0 15.8708 0 0 0 0 7.86182e-09 0 1.36329e+11
29.3979 0 18.73 0 0 0 0 6.72061e-09 0 1.60889e+11
31.0667 0 22.1042 0 0 0 0 5.74366e-09 0 1.89874e+11
32.8303 0 26.0864 0 0 0 0 4.90756e-09 0 2.2408e+11
34.694 0 30.7859 0 0 0 0 4.19221e-09 0 2.64449e+11
36.6634 0 36.3321 0 0 0 0 3.58032e-09 0 3.1209e+11
38.7447 0 42.8774 0 0 0 0 3.05709e-09 0 3.68314e+11
40.9442 0 50.6018 0 0 0 0 2.60976e-09 0 4.34667e+11
43.2685 0 59.7179 0 0 0 0 2.22743e-09 0 5.12973e+11
45.7247 0 70.4762 0 0 0 0 1.90073e-09 0 6.05386e+11
48.3204 0 83.1727 0 0 0 0 1.62163e-09 0 7.14448e+11
51.0634 0 98.1565 0 0 0 0 1.38326e-09 0 8.43158e+11
53.9621 0 115.84 0 0 0 0 1.1797e-09 0 9.95055e+11
57.0254 0 136.709 0 0 0 0 1.00592e-09 0 1.17432e+12
60.2626 0 161.337 0 0 0 0 8.57591e-10 0 1.38587e+12
63.6835 0 190.402 0 0 0 0 7.3101e-10 0 1.63554e+12
67.2987 0 224.704 0 0 0 0 6.23009e-10 0 1.93019e+12
71.1191 0 265.185 0 0 0 0 5.30879e-10 0 2.27792e+12
75.1563 0 312.958 0 0 0 0 4.52303e-10 0 2.68829e+12
79.4227 0 369.339 0 0 0 0 3.85299e-10 0 3.17259e+12
83.9313 0 435.876 0 0 0 0 3.28173e-10 0 3.74415e+12
88.6959 0 514.4 0 0 0 0 2.79476e-10 0 4.41866e+12
93.7309 0 607.071 0 0 0 0 2.37972e-10 0 5.2147e+12
99.0518 0 716.436 0 0 0 0 2.02605e-10 0 6.15414e+12
104.675 0 845.504 0 0 0 0 1.72471e-10 0 7.26283e+12
110.617 0 997.824 0 0 0 0 1.468e-10 0 8.57124e+12
116.896 0 1177.58 0 0 0 0 1.24935e-10 0 1.01154e+13
123.532 0 1389.73 0 0 0 0 1.06313e-10 0 1.19377e+13
130.545 0 1640.09 0 0 0 0 9.04567e-11 0 1.40883e+13
137.955 0 1935.56 0 0 0 0 7.69563e-11 0 1.66263e+13
145.787 0 2284.26 0 0 0 0 6.54636e-11 0 1.96216e+13
154.063 0 2695.77 0 0 0 0 5.56812e-11 0 2.31565e+13
162.808 0 3181.42 0 0 0 0 4.73556e-11 0 2.73282e+13
172.051 0 3754.56 0 0 0 0 4.02708e-11 0 3.22515e+13
181.818 0 4430.96 0 0 0 0 3.42426e-11 0 3.80616e+13
192.139 0 5229.21 0 0 0 0 2.91139e-11 0 4.49186e+13
203.046 0 6171.26 0 0 0 0 2.4751e-11 0 5.30108e+13
214.572 0 7283.03 0 0 0 0 2.10401e-11 0 6.25608e+13
226.753 0 8595.09 0 0 0 0 1.78839e-11 0 7.38313e+13
239.625 0 10143.5 0 0 0 0 1.51999e-11 0 8.71322e+13
253.228 0 11970.9 0 0 0 0 1.29176e-11 0 1.02829e+14
267.603 0 14127.5 0 0 0 0 1.09771e-11 0 1.21354e+14
282.795 0 16672.6 0 0 0 0 9.3274e-12 0 1.43217e+14
298.848 0 19676.2 0 0 0 0 7.925e-12 0 1.69017e+14
315.813 0 23220.9 0 0 0 0 6.73295e-12 0 1.99466e+14
333.741 0 27404.3 0 0 0 0 5.71979e-12 0 2.35401e+14
352.686 0 32341.2 0 0 0 0 4.85874e-12 0 2.77809e+14
372.707 0 38167.6 0 0 0 0 4.12703e-12 0 3.27857e+14
393.865 0 45043.5 0 0 0 0 3.50528e-12 0 3.86921e+14
416.224 0 53158.3 0 0 0 0 2.97701e-12 0 4.56626e+14
439.852 0 62734.9 0 0 0 0 2.52819e-12 0 5.38888e+14
464.821 0 74036.7 0 0 0 0 2.1469e-12 0 6.35971e+14
491.207 0 87374.6 0 0 0 0 1.82301e-12 0 7.50542e+14
519.092 0 103115 0 0 0 0 1.54789e-12 0 8.85755e+14
548.56 0 121692 0 0 0 0 1.31422e-12 0 1.04533e+15
579.7 0 143615 0 0 0 0 1.11576e-12 0 1.23364e+15
612.608 0 169488 0 0 0 0 9.47223e-13 0 1.45589e+15
647.384 0 200021 0 0 0 0 8.041e-13 0 1.71817e+15
684.134 0 236056 0 0 0 0 6.82568e-13 0 2.0277e+15
722.971 0 278582 0 0 0 0 5.79376e-13 0 2.393e+15
764.012 0 328769 0 0 0 0 4.91762e-13 0 2.8241e+15
