0.785342
200
1.0655e+09
8589934592
0.0129181 0 1.58924e-09 0 0 0 0 0.00677225 0 13.6515
0.0136515 0 1.87554e-09 0 0 0 0 0.00688819 0 16.1108
0.0144264 0 2.21343e-09 0 0 0 0 0.00699249 0 19.0132
0.0152454 0 2.61218e-09 0 0 0 0 0.00708412 0 22.4385
0.0161108 0 3.08278e-09 0 0 0 0 0.00716212 0 26.4808
0.0170254 0 3.63815e-09 0 0 0 0 0.00722559 0 31.2514
0.0179919 0 4.29357e-09 0 0 0 0 0.00727371 0 36.8815
0.0190132 0 5.06707e-09 0 0 0 0 0.00730578 0 43.5258
0.0200925 0 5.97991e-09 0 0 0 0 0.00732122 0 51.367
0.0212331 0 7.05721e-09 0 0 0 0 0.00731958 0 60.621
0.0224385 0 8.32858e-09 0 0 0 0 0.00730056 0 71.542
0.0237123 0 9.829e-09 0 0 0 0 0.00726401 0 84.4305
0.0250583 0 1.15997e-08 0 0 0 0 0.00720995 0 99.6408
0.0264808 0 1.36894e-08 0 0 0 0 0.00713857 0 117.591
0.0279841 0 1.61556e-08 0 0 0 0 0.00705021 0 138.776
0.0295727 0 1.90661e-08 0 0 0 0 0.00694538 0 163.777
0.0312514 0 2.25009e-08 0 0 0 0 0.00682475 0 193.281
0.0330255 0 2.65545e-08 0 0 0 0 0.00668915 0 228.102
0.0349003 0 3.13384e-08 0 0 0 0 0.00653951 0 269.195
0.0368815 0 3.69841e-08 0 0 0 0 0.00637693 0 317.691
0.0389751 0 4.36469e-08 0 0 0 0 0.00620256 0 374.924
0.0411876 0 5.151e-08 0 0 0 0 0.00601767 0 442.467
0.0435258 0 6.07896e-08 0 0 0 0 0.00582358 0 522.179
0.0459966 0 7.1741e-08 0 0 0 0 0.00562166 0 616.251
0.0486077 0 8.46654e-08 0 0 0 0 0.0054133 0 727.27
0.051367 0 9.99181e-08 0 0 0 0 0.00519989 0 858.29
0.054283 0 1.17919e-07 0 0 0 0 0.0049828 0 1012.91
0.0573645 0 1.39162e-07 0 0 0 0 0.00476339 0 1195.39
0.060621 0 1.64232e-07 0 0 0 0 0.00454293 0 1410.75
0.0640622 0 1.93819e-07 0 0 0 0 0.00432265 0 1664.89
0.0676989 0 2.28736e-07 0 0 0 0 0.00410371 0 1964.83
0.071542 0 2.69944e-07 0 0 0 0 0.00388717 0 2318.8
0.0756032 0 3.18575e-07 0 0 0 0 0.00367401 0 2736.54
0.079895 0 3.75967e-07 0 0 0 0 0.0034651 0 3229.53
0.0844305 0 4.43698e-07 0 0 0 0 0.00326121 0 3811.34
0.0892234 0 5.23632e-07 0 0 0 0 0.00306301 0 4497.96
0.0942883 0 6.17966e-07 0 0 0 0 0.00287109 0 5308.28
0.0996408 0 7.29294e-07 0 0 0 0 0.00268591 0 6264.59
0.105297 0 8.60678e-07 0 0 0 0 0.00250785 0 7393.17
0.111275 0 1.01573e-06 0 0 0 0 0.00233721 0 8725.07
0.117591 0 1.19872e-06 0 0 0 0 0.00217419 0 10296.9
0.124267 0 1.41467e-06 0 0 0 0 0.00201893 0 12151.9
0.131321 0 1.66953e-06 0 0 0 0 0.00187147 0 14341.1
0.138776 0 1.9703e-06 0 0 0 0 0.00173182 0 16924.7
0.146654 0 2.32525e-06 0 0 0 0 0.00159991 0 19973.8
0.154979 0 2.74415e-06 0 0 0 0 0.00147563 0 23572.1
0.163777 0 3.23852e-06 0 0 0 0 0.00135884 0 27818.7
0.173074 0 3.82195e-06 0 0 0 0 0.00124933 0 32830.3
0.182899 0 4.51048e-06 0 0 0 0 0.00114689 0 38744.7
0.193281 0 5.32305e-06 0 0 0 0 0.00105127 0 45724.7
0.204254 0 6.28202e-06 0 0 0 0 0.000962209 0 53962.1
0.215848 0 7.41374e-06 0 0 0 0 0.000879423 0 63683.5
0.228102 0 8.74934e-06 0 0 0 0 0.000802624 0 75156.3
0.24105 0 1.03256e-05 0 0 0 0 0.000731515 0 88695.9
0.254734 0 1.21857e-05 0 0 0 0 0.000665798 0 104675
0.269195 0 1.4381e-05 0 0 0 0 0.000605173 0 123532
0.284476 0 1.69718e-05 0 0 0 0 0.000549345 0 145787
0.300625 0 2.00293e-05 0 0 0 0 0.000498021 0 172051
0.317691 0 2.36377e-05 0 0 0 0 0.000450916 0 203046
0.335725 0 2.78961e-05 0 0 0 0 0.000407755 0 239625
0.354784 0 3.29216e-05 0 0 0 0 0.000368269 0 282795
0.374924 0 3.88525e-05 0 0 0 0 0.000332202 0 333741
0.396207 1.71624 4.58519e-05 4.35743e-06 6 1.66853 4.23629e-06 0.000299307 0.0873505 393865
0.418699 0 5.41123e-05 0 0 0 0 0.00026935 0 464821
0.442467 0 6.38607e-05 0 0 0 0 0.000242108 0 548560
0.467585 0 7.53654e-05 0 0 0 0 0.00021737 0 647384
0.494129 0 8.89427e-05 0 0 0 0 0.000194938 0 764012
0.522179 0 0.000104966 0 0 0 0 0.000174625 0 901651
0.551822 0 0.000123876 0 0 0 0 0.000156255 0 1.06409e+06
0.583147 8.65659 0.000146192 6.89338e-06 12 9.11111 7.25532e-06 0.000139664 0.592282 1.25578e+06
0.616251 0 0.000172529 0 0 0 0 0.0001247 0 1.48202e+06
0.651234 0 0.000203611 0 0 0 0 0.00011122 0 1.74901e+06
0.688203 11.5325 0.000240292 5.58717e-06 8 11.2455 5.44817e-06 9.90935e-05 0.451063 2.06409e+06
0.72727 0 0.000283581 0 0 0 0 8.81969e-05 0 2.43595e+06
0.768555 0 0.000334669 0 0 0 0 7.84179e-05 0 2.87479e+06
0.812184 8.00628 0.000394961 2.35986e-06 6 8.17745 2.41032e-06 6.96525e-05 0.203283 3.39269e+06
0.85829 0 0.000466114 0 0 0 0 6.1805e-05 0 4.00389e+06
0.907013 1.01475 0.000550086 2.14753e-07 24 1.03422 2.18873e-07 5.47875e-05 0.0940737 4.7252e+06
0.958501 4.29065 0.000649185 7.69422e-07 24 4.03933 7.24354e-07 4.85194e-05 0.380593 5.57646e+06
1.01291 0 0.000766138 0 0 0 0 4.29272e-05 0 6.58107e+06
1.07041 0 0.00090416 0 0 0 0 3.79435e-05 0 7.76667e+06
1.13118 7.86042 0.00106705 8.57576e-07 12 7.76387 8.47042e-07 3.3507e-05 0.307127 9.16586e+06
1.19539 2.82518 0.00125928 2.61177e-07 30 2.76694 2.55793e-07 2.9562e-05 0.265046 1.08171e+07
1.26325 9.73493 0.00148614 7.62576e-07 24 9.58844 7.51101e-07 2.60578e-05 0.702354 1.27658e+07
1.33496 13.8556 0.00175387 9.19683e-07 24 13.8861 9.21704e-07 2.29484e-05 0.961825 1.50656e+07
1.41075 18.485 0.00206984 1.03967e-06 32 18.771 1.05575e-06 2.01923e-05 1.64762 1.77798e+07
1.49083 3.13977 0.00244272 1.49635e-07 48 3.07283 1.46445e-07 1.77518e-05 0.404607 2.09828e+07
1.57546 27.796 0.00288279 1.12248e-06 6 26.4681 1.06886e-06 1.55929e-05 0.431922 2.4763e+07
1.66489 5.77534 0.00340213 1.97623e-07 84 5.64948 1.93316e-07 1.3685e-05 1.21303 2.92241e+07
1.75941 6.07016 0.00401503 1.76003e-07 48 6.01355 1.74362e-07 1.20007e-05 0.703974 3.44889e+07
1.85928 6.12118 0.00473835 1.5039e-07 72 6.12492 1.50482e-07 1.05151e-05 1.02976 4.07021e+07
1.96483 13.5751 0.00559198 2.8261e-07 54 13.198 2.7476e-07 9.20606e-06 1.65771 4.80347e+07
2.07637 13.5009 0.00659939 2.38161e-07 104 13.6271 2.40387e-07 8.05366e-06 3.07546 5.66883e+07
2.19424 7.20043 0.00778828 1.07628e-07 120 7.30841 1.09242e-07 7.04008e-06 1.83455 6.69008e+07
2.3188 11.0065 0.00919136 1.39406e-07 156 10.7828 1.36572e-07 6.1494e-06 3.53649 7.89532e+07
2.45043 8.62013 0.0108472 9.25137e-08 126 8.59126 9.22038e-08 5.36741e-06 2.17176 9.31768e+07
2.58954 12.2625 0.0128014 1.11515e-07 192 12.349 1.12301e-07 4.68145e-06 4.57354 1.09963e+08
2.73654 30.141 0.0151076 2.3226e-07 152 30.6551 2.36221e-07 4.08023e-06 8.65231 1.29773e+08
2.89188 12.4442 0.0178292 8.1254e-08 378 12.509 8.16773e-08 3.55373e-06 8.64275 1.53152e+08
3.05605 14.412 0.0210412 7.97379e-08 264 14.256 7.88747e-08 3.09304e-06 6.80586 1.80743e+08
3.22953 15.6866 0.0248319 7.35411e-08 366 15.5382 7.28453e-08 2.69025e-06 10.005 2.13304e+08
3.41286 16.8171 0.0293054 6.68059e-08 428 16.631 6.60663e-08 2.33837e-06 12.2277 2.51731e+08
3.6066 20.5063 0.0345848 6.90259e-08 486 20.3305 6.84342e-08 2.0312e-06 16.5156 2.97081e+08
3.81134 16.6578 0.0408154 4.7512e-08 600 16.6294 4.74312e-08 1.76327e-06 16.1673 3.50601e+08
4.0277 21.267 0.0481684 5.13989e-08 738 21.1487 5.11131e-08 1.52972e-06 24.7969 4.13763e+08
4.25634 21.6285 0.056846 4.42931e-08 824 21.5959 4.42264e-08 1.32631e-06 27.5182 4.88304e+08
4.49796 22.6238 0.067087 3.92588e-08 954 22.4673 3.89873e-08 1.14926e-06 32.5888 5.76273e+08
4.7533 24.8304 0.0791729 3.65104e-08 1094 24.7037 3.63241e-08 9.95263e-07 40.1325 6.8009e+08
5.02313 26.8504 0.0934361 3.34539e-08 1332 26.9685 3.3601e-08 8.61414e-07 51.7295 8.0261e+08
5.30828 33.9644 0.110269 3.58576e-08 1614 33.9251 3.58161e-08 7.45152e-07 77.6675 9.47202e+08
5.60962 35.5102 0.130134 3.17667e-08 1850 35.465 3.17263e-08 6.44232e-07 91.2223 1.11784e+09
5.92807 34.0234 0.153578 2.57904e-08 2238 34.031 2.57962e-08 5.56685e-07 103.683 1.31923e+09
6.26459 33.853 0.181246 2.1744e-08 2546 33.9373 2.17982e-08 4.80786e-07 115.145 1.55689e+09
6.62021 33.6777 0.213898 1.83293e-08 3264 33.6701 1.83252e-08 4.15026e-07 144.152 1.83737e+09
6.99602 38.0297 0.252432 1.75384e-08 3506 38.0496 1.75476e-08 3.58083e-07 171.719 2.16837e+09
7.39317 39.0734 0.297908 1.5269e-08 4506 39.071 1.5268e-08 3.08803e-07 222.802 2.55901e+09
7.81286 46.6289 0.351577 1.54399e-08 5018 46.5162 1.54026e-08 2.66181e-07 291.071 3.02002e+09
8.25637 48.2883 0.414914 1.35486e-08 5852 48.2637 1.35417e-08 2.29336e-07 345.721 3.56409e+09
8.72507 48.6789 0.489662 1.15732e-08 7362 48.6203 1.15593e-08 1.97503e-07 431.396 4.20617e+09
9.22037 51.901 0.577876 1.04557e-08 8306 51.7431 1.04238e-08 1.70014e-07 510.808 4.96392e+09
9.74378 56.3694 0.681982 9.62233e-09 9698 56.2694 9.60527e-09 1.46289e-07 637.897 5.85818e+09
10.2969 58.1133 0.804843 8.40571e-09 11816 58.0357 8.39449e-09 1.25822e-07 789.382 6.91355e+09
10.8814 67.0567 0.949838 8.21869e-09 13682 66.8794 8.19696e-09 1.08175e-07 1039.5 8.15905e+09
11.4992 67.4486 1.12095 7.0048e-09 16152 67.4473 7.00466e-09 9.29669e-08 1217.01 9.62892e+09
12.1519 70.3205 1.3229 6.18822e-09 19472 70.2318 6.18042e-09 7.98658e-08 1508.75 1.13636e+10
12.8418 74.2807 1.56122 5.53888e-09 22670 74.0427 5.52113e-09 6.85852e-08 1830.81 1.34108e+10
13.5708 77.7914 1.84248 4.91518e-09 26224 77.7141 4.91029e-09 5.88765e-08 2189.26 1.58268e+10
14.3411 84.3172 2.17441 4.51425e-09 31640 84.2082 4.50842e-09 5.05241e-08 2826.99 1.8678e+10
15.1552 88.5207 2.56613 4.01584e-09 37484 88.3251 4.00696e-09 4.33417e-08 3473.09 2.20429e+10
16.0156 94.9348 3.02843 3.64938e-09 43856 94.7963 3.64405e-09 3.71677e-08 4306.08 2.6014e+10
16.9247 100.244 3.574 3.26521e-09 51362 100.122 3.26125e-09 3.18628e-08 5263.44 3.07005e+10
17.8855 105.215 4.21787 2.90399e-09 61636 105.101 2.90084e-09 2.73063e-08 6554.9 3.62312e+10
18.9008 111.091 4.97773 2.59811e-09 72218 110.833 2.59208e-09 2.33941e-08 8020.41 4.27584e+10
19.9738 118.052 5.87448 2.33944e-09 84586 117.879 2.33602e-09 2.00364e-08 9876.23 5.04614e+10
21.1076 125.372 6.93279 2.10524e-09 100708 125.159 2.10167e-09 1.71555e-08 12358.4 5.95522e+10
22.3058 132.17 8.18175 1.8806e-09 118712 131.958 1.87759e-09 1.46847e-08 15202.9 7.02807e+10
23.5721 137.676 9.65571 1.6599e-09 140410 137.402 1.65661e-09 1.25662e-08 18547.2 8.29419e+10
24.9102 145.324 11.3952 1.48465e-09 164374 145.067 1.48203e-09 1.07504e-08 22700.5 9.78842e+10
26.3243 152.322 13.4481 1.31859e-09 194680 152.147 1.31708e-09 9.19452e-09 27919.2 1.15518e+11
27.8187 160.114 15.8708 1.17446e-09 230196 159.836 1.17243e-09 7.86182e-09 34388.6 1.36329e+11
29.3979 168.515 18.73 1.0474e-09 271156 168.252 1.04576e-09 6.72061e-09 42259.3 1.60889e+11
31.0667 177.286 22.1042 9.33702e-10 321076 176.943 9.31899e-10 5.74366e-09 52194.8 1.89874e+11
32.8303 185.926 26.0864 8.29731e-10 377436 185.596 8.28256e-10 4.90756e-09 63813.8 2.2408e+11
34.694 195.52 30.7859 7.39349e-10 447594 195.153 7.3796e-10 4.19221e-09 78938.9 2.64449e+11
36.6634 205.717 36.3321 6.59158e-10 525078 205.363 6.58025e-10 3.58032e-09 96669.9 3.1209e+11
38.7447 215.441 42.8774 5.8494e-10 621924 215.045 5.83862e-10 3.05709e-09 118998 3.68314e+11
40.9442 226.436 50.6018 5.20941e-10 732630 226.008 5.19957e-10 2.60976e-09 146242 4.34667e+11
43.2685 237.78 59.7179 4.63533e-10 865596 237.385 4.62762e-10 2.22743e-09 180132 5.12973e+11
45.7247 249.919 70.4762 4.12826e-10 1.02168e+06 249.511 4.12151e-10 1.90073e-09 221901 6.05386e+11
48.3204 260.976 83.1727 3.65283e-10 1.20544e+06 260.517 3.64641e-10 1.62163e-09 271532 7.14448e+11
51.0634 273.93 98.1565 3.24885e-10 1.42103e+06 273.484 3.24356e-10 1.38326e-09 333757 8.43158e+11
53.9621 287.155 115.84 2.88582e-10 1.67997e+06 286.64 2.88065e-10 1.1797e-09 410958 9.95055e+11
57.0254 302.248 136.709 2.57382e-10 1.98018e+06 301.711 2.56924e-10 1.00592e-09 506663 1.17432e+12
60.2626 318.362 161.337 2.29719e-10 2.33957e+06 317.773 2.29294e-10 8.57591e-10 626690 1.38587e+12
63.6835 335.62 190.402 2.05204e-10 2.75676e+06 334.996 2.04822e-10 7.3101e-10 773860 1.63554e+12
67.2987 354.714 224.704 1.83772e-10 3.25638e+06 354.101 1.83454e-10 6.23009e-10 960548 1.93019e+12
71.1191 375.88 265.185 1.6501e-10 3.84387e+06 375.162 1.64695e-10 5.30879e-10 1.19477e+06 2.27792e+12
75.1563 399.262 312.958 1.48519e-10 4.53277e+06 398.507 1.48238e-10 4.52303e-10 1.48838e+06 2.68829e+12
79.4227 425.1 369.339 1.33991e-10 5.35083e+06 424.306 1.33741e-10 3.85299e-10 1.8608e+06 3.17259e+12
83.9313 455.126 435.876 1.21557e-10 6.32174e+06 454.206 1.21311e-10 3.28173e-10 2.3416e+06 3.74415e+12
88.6959 489.342 514.4 1.10744e-10 7.44986e+06 488.323 1.10514e-10 2.79476e-10 2.95206e+06 4.41866e+12
93.7309 528.13 607.071 1.01277e-10 8.79764e+06 526.984 1.01057e-10 2.37972e-10 3.74413e+06 5.2147e+12
99.0518 572.64 716.436 9.30495e-11 1.03827e+07 571.356 9.28409e-11 2.02605e-10 4.76842e+06 6.15414e+12
104.675 625.8 845.504 8.61648e-11 1.22515e+07 624.341 8.5964e-11 1.72471e-10 6.12074e+06 7.26283e+12
110.617 687.209 997.824 8.01761e-11 1.44573e+07 685.555 7.99831e-11 1.468e-10 7.89598e+06 8.57124e+12
116.896 760.854 1177.58 7.52176e-11 1.70664e+07 758.966 7.50309e-11 1.24935e-10 1.02749e+07 1.01154e+13
123.532 847.956 1389.73 7.10318e-11 2.0139e+07 845.785 7.08499e-11 1.06313e-10 1.34556e+07 1.19377e+13
130.545 950.436 1640.09 6.74628e-11 2.37643e+07 947.899 6.72827e-11 9.04567e-11 1.77235e+07 1.40883e+13
137.955 1072.78 1935.56 6.4523e-11 2.80503e+07 1069.84 6.43462e-11 7.69563e-11 2.35184e+07 1.66263e+13
145.787 1217.18 2284.26 6.20325e-11 3.30981e+07 1213.68 6.18544e-11 6.54636e-11 3.13634e+07 1.96216e+13
154.063 1389.96 2695.77 6.00244e-11 3.90634e+07 1385.9 5.98492e-11 5.56812e-11 4.21104e+07 2.31565e+13
162.808 1594.71 3181.42 5.8354e-11 4.61057e+07 1589.95 5.81797e-11 4.73556e-11 5.68138e+07 2.73282e+13
172.051 1839.05 3754.56 5.70221e-11 5.44046e+07 1833.43 5.68479e-11 4.02708e-11 7.7035e+07 3.22515e+13
181.818 2130.02 4430.96 5.59624e-11 6.42064e+07 2123.37 5.57878e-11 3.42426e-11 1.04932e+08 3.80616e+13
192.139 2476.27 5229.21 5.5128e-11 7.57748e+07 2468.46 5.49541e-11 2.91139e-11 1.43482e+08 4.49186e+13
203.046 2889.09 6171.26 5.45001e-11 8.94213e+07 2879.84 5.43255e-11 2.4751e-11 1.969e+08 5.30108e+13
214.572 3381.58 7283.03 5.40526e-11 1.05538e+08 3370.57 5.38767e-11 2.10401e-11 2.71131e+08 6.25608e+13
226.753 3972.28 8595.09 5.38021e-11 1.24552e+08 3959.19 5.36248e-11 1.78839e-11 3.74703e+08 7.38313e+13
239.625 4679.25 10143.5 5.37029e-11 1.46987e+08 4663.63 5.35237e-11 1.51999e-11 5.19322e+08 8.71322e+13
253.228 5528.86 11970.9 5.37673e-11 1.7347e+08 5510.15 5.35854e-11 1.29176e-11 7.22039e+08 1.02829e+14
267.603 6553.61 14127.5 5.4004e-11 2.04703e+08 6531.19 5.38192e-11 1.09771e-11 1.00707e+09 1.21354e+14
282.795 7802.2 16672.6 5.44783e-11 2.4161e+08 7775.03 5.42886e-11 9.3274e-12 1.41117e+09 1.43217e+14
298.848 9332.91 19676.2 5.52187e-11 2.85122e+08 9299.56 5.50213e-11 7.925e-12 1.98663e+09 1.69017e+14
315.813 11235.5 23220.9 5.63277e-11 3.36491e+08 11194.3 5.61215e-11 6.73295e-12 2.81508e+09 1.99466e+14
333.741 13635.9 27404.3 5.79265e-11 3.97115e+08 13584.1 5.77063e-11 5.71979e-12 4.02173e+09 2.35401e+14
352.686 16738.1 32341.2 6.02504e-11 4.68637e+08 16671.6 6.00109e-11 4.85874e-12 5.8113e+09 2.77809e+14
372.707 20862.8 38167.6 6.36339e-11 5.53074e+08 20774.8 6.33656e-11 4.12703e-12 8.52775e+09 3.27857e+14
393.865 26569.2 45043.5 6.86684e-11 6.52716e+08 26448.5 6.83562e-11 3.50528e-12 1.27867e+10 3.86921e+14
416.224 31368.4 53158.3 6.8696e-11 2.2184e+08 33184.8 7.26739e-11 2.97701e-12 5.11906e+09 4.56626e+14
439.852 0 62734.9 0 0 0 0 2.52819e-12 0 5.38888e+14
464.821 0 74036.7 0 0 0 0 2.1469e-12 0 6.35971e+14
491.207 0 87374.6 0 0 0 0 1.82301e-12 0 7.50542e+14
519.092 0 103115 0 0 0 0 1.54789e-12 0 8.85755e+14
548.56 0 121692 0 0 0 0 1.31422e-12 0 1.04533e+15
579.7 0 143615 0 0 0 0 1.11576e-12 0 1.23364e+15
612.608 0 169488 0 0 0 0 9.47223e-13 0 1.45589e+15
647.384 0 200021 0 0 0 0 8.041e-13 0 1.71817e+15
684.134 0 236056 0 0 0 0 6.82568e-13 0 2.0277e+15
722.971 0 278582 0 0 0 0 5.79376e-13 0 2.393e+15
764.012 0 328769 0 0 0 0 4.91762e-13 0 2.8241e+15
0.785342
200
1.0655e+09
8589934592
0.0129181 0.00164278 1.58924e-09 0.000120337 6 0.00162774 0.000119236 0.00677225 0.106615 13.6515
0.0136515 0 1.87554e-09 0 0 0 0 0.00688819 0 16.1108
0.0144264 0 2.21343e-09 0 0 0 0 0.00699249 0 19.0132
0.0152454 0 2.61218e-09 0 0 0 0 0.00708412 0 22.4385
0.0161108 0 3.08278e-09 0 0 0 0 0.00716212 0 26.4808
0.0170254 0 3.63815e-09 0 0 0 0 0.00722559 0 31.2514
0.0179919 0.00360319 4.29357e-09 9.76965e-05 12 0.00359855 9.75707e-05 0.00727371 0.161178 36.8815
0.0190132 0 5.06707e-09 0 0 0 0 0.00730578 0 43.5258
0.0200925 0 5.97991e-09 0 0 0 0 0.00732122 0 51.367
0.0212331 0.00338323 7.05721e-09 5.58097e-05 8 0.00338029 5.57611e-05 0.00731958 0.0609977 60.621
0.0224385 0 8.32858e-09 0 0 0 0 0.00730056 0 71.542
0.0237123 0 9.829e-09 0 0 0 0 0.00726401 0 84.4305
0.0250583 0.0211951 1.15997e-08 0.000212715 6 0.0211851 0.000212615 0.00720995 0.177018 99.6408
0.0264808 0 1.36894e-08 0 0 0 0 0.00713857 0 117.591
0.0279841 0.0129767 1.61556e-08 9.35085e-05 24 0.0129634 9.34125e-05 0.00705021 0.318318 138.776
0.0295727 0 1.90661e-08 0 0 0 0 0.00694538 0 163.777
0.0312514 0.0229675 2.25009e-08 0.000118829 24 0.0230841 0.000119433 0.00682475 0.417877 193.281
0.0330255 0 2.65545e-08 0 0 0 0 0.00668915 0 228.102
0.0349003 0.0345768 3.13384e-08 0.000128445 12 0.0342999 0.000127417 0.00653951 0.235697 269.195
0.0368815 0.0276862 3.69841e-08 8.71481e-05 30 0.0273914 8.62201e-05 0.00637693 0.409985 317.691
0.0389751 0.0313099 4.36469e-08 8.35099e-05 24 0.0309878 8.26508e-05 0.00620256 0.323131 374.924
0.0411876 0.0200727 5.151e-08 4.53655e-05 24 0.0199364 4.50574e-05 0.00601767 0.180929 442.467
0.0435258 0.0494934 6.07896e-08 9.47824e-05 8 0.0494896 9.47751e-05 0.00582358 0.130205 522.179
0.0459966 0.0604473 7.1741e-08 9.80888e-05 72 0.0599709 9.73158e-05 0.00562166 1.25628 616.251
0.0486077 0 8.46654e-08 0 0 0 0 0.0054133 0 727.27
0.051367 0.0828297 9.99181e-08 9.65056e-05 54 0.0825555 9.61861e-05 0.00519989 1.00219 858.29
0.054283 0.0666348 1.17919e-07 6.57853e-05 60 0.0669369 6.60836e-05 0.0049828 0.792148 1012.91
0.0573645 0.0623869 1.39162e-07 5.21895e-05 96 0.0622279 5.20565e-05 0.00476339 1.05181 1195.39
0.060621 0.0737974 1.64232e-07 5.2311e-05 24 0.0727976 5.16022e-05 0.00454293 0.276356 1410.75
0.0640622 0.126816 1.93819e-07 7.61706e-05 134 0.126875 7.62058e-05 0.00432265 2.36125 1664.89
0.0676989 0.123657 2.28736e-07 6.29355e-05 120 0.123055 6.26286e-05 0.00410371 1.84035 1964.83
0.071542 0.116051 2.69944e-07 5.00481e-05 108 0.114772 4.94963e-05 0.00388717 1.39052 2318.8
0.0756032 0.17156 3.18575e-07 6.26922e-05 174 0.170609 6.2345e-05 0.00367401 2.96908 2736.54
0.079895 0.178968 3.75967e-07 5.54161e-05 168 0.177289 5.48961e-05 0.0034651 2.68677 3229.53
0.0844305 0.149074 4.43698e-07 3.91132e-05 168 0.149813 3.93071e-05 0.00326121 2.0149 3811.34
0.0892234 0.177346 5.23632e-07 3.94282e-05 290 0.17652 3.92443e-05 0.00306301 3.73298 4497.96
0.0942883 0.214622 6.17966e-07 4.04316e-05 288 0.214162 4.03449e-05 0.00287109 4.05571 5308.28
0.0996408 0.191859 7.29294e-07 3.06259e-05 366 0.190384 3.03904e-05 0.00268591 4.17329 6264.59
0.105297 0.224213 8.60678e-07 3.0327e-05 420 0.222623 3.0112e-05 0.00250785 5.07899 7393.17
0.111275 0.239428 1.01573e-06 2.74414e-05 398 0.238754 2.73641e-05 0.00233721 4.67295 8725.07
0.117591 0.284153 1.19872e-06 2.75959e-05 624 0.284931 2.76715e-05 0.00217419 7.92011 10296.9
0.124267 0.32858 1.41467e-06 2.70394e-05 642 0.327854 2.69796e-05 0.00201893 8.59827 12151.9
0.131321 0.388952 1.66953e-06 2.71215e-05 800 0.389068 2.71295e-05 0.00187147 11.5937 14341.1
0.138776 0.357489 1.9703e-06 2.11223e-05 858 0.359022 2.12128e-05 0.00173182 10.4647 16924.7
0.146654 0.413909 2.32525e-06 2.07226e-05 1080 0.417368 2.08958e-05 0.00159991 13.9886 19973.8
0.154979 0.48169 2.74415e-06 2.04348e-05 1286 0.484753 2.05647e-05 0.00147563 17.8087 23572.1
0.163777 0.469283 3.23852e-06 1.68693e-05 1650 0.470602 1.69168e-05 0.00135884 20.484 27818.7
0.173074 0.524736 3.82195e-06 1.59833e-05 1778 0.525119 1.5995e-05 0.00124933 22.7468 32830.3
0.182899 0.557742 4.51048e-06 1.43953e-05 2112 0.55907 1.44296e-05 0.00114689 26.5089 38744.7
0.193281 0.617294 5.32305e-06 1.35002e-05 2570 0.617802 1.35113e-05 0.00105127 33.0034 45724.7
0.204254 0.722385 6.28202e-06 1.33869e-05 3030 0.721923 1.33783e-05 0.000962209 42.1554 53962.1
0.215848 0.747128 7.41374e-06 1.17319e-05 3434 0.746838 1.17273e-05 0.000879423 45.8111 63683.5
0.228102 0.790409 8.74934e-06 1.05169e-05 4218 0.790006 1.05115e-05 0.000802624 55.269 75156.3
0.24105 0.879501 1.03256e-05 9.91592e-06 4766 0.88003 9.92188e-06 0.000731515 64.6046 88695.9
0.254734 0.956687 1.21857e-05 9.13962e-06 6026 0.956682 9.13957e-06 0.000665798 82.7208 104675
0.269195 1.08308 1.4381e-05 8.76758e-06 6480 1.08212 8.75981e-06 0.000605173 93.8804 123532
0.284476 1.16896 1.69718e-05 8.01827e-06 8162 1.17114 8.03326e-06 0.000549345 119.133 145787
0.300625 1.28283 2.00293e-05 7.45611e-06 9578 1.28343 7.45959e-06 0.000498021 143.397 172051
0.317691 1.41291 2.36377e-05 6.95857e-06 11234 1.41159 6.95207e-06 0.000450916 173.364 203046
0.335725 1.52234 2.78961e-05 6.35299e-06 13344 1.51956 6.3414e-06 0.000407755 207.905 239625
0.354784 1.70007 3.29216e-05 6.01169e-06 15464 1.699 6.00791e-06 0.000368269 252.437 282795
0.374924 1.82472 3.88525e-05 5.46747e-06 18458 1.82315 5.46278e-06 0.000332202 303.787 333741
0.396207 2.10301 4.58519e-05 5.33941e-06 22232 2.09988 5.33147e-06 0.000299307 396.602 393865
0.418699 2.25278 5.41123e-05 4.84655e-06 25628 2.24734 4.83485e-06 0.00026935 461.138 464821
0.442467 2.44859 6.38607e-05 4.46367e-06 30320 2.44442 4.45607e-06 0.000242108 559 548560
0.467585 2.76166 7.53654e-05 4.26588e-06 35452 2.75676 4.25831e-06 0.00021737 695.743 647384
0.494129 3.04132 8.89427e-05 3.98073e-06 41792 3.03807 3.97647e-06 0.000194938 853.412 764012
0.522179 3.41481 0.000104966 3.78729e-06 49988 3.41459 3.78704e-06 0.000174625 1084.15 901651
0.551822 3.78044 0.000123876 3.55276e-06 59110 3.77543 3.54805e-06 0.000156255 1343.98 1.06409e+06
0.583147 4.191 0.000146192 3.33736e-06 69716 4.18408 3.33185e-06 0.000139664 1665.91 1.25578e+06
0.616251 4.6526 0.000172529 3.13937e-06 82210 4.64339 3.13316e-06 0.0001247 2069.67 1.48202e+06
0.651234 5.13571 0.000203611 2.93636e-06 96722 5.12407 2.9297e-06 0.00011122 2553.58 1.74901e+06
0.688203 5.8046 0.000240292 2.81218e-06 113098 5.79535 2.8077e-06 9.90935e-05 3209.61 2.06409e+06
0.72727 6.45039 0.000283581 2.648e-06 135190 6.44115 2.64421e-06 8.81969e-05 4058.91 2.43595e+06
0.768555 7.18611 0.000334669 2.4997e-06 158170 7.17602 2.49619e-06 7.84179e-05 5041.93 2.87479e+06
0.812184 8.01629 0.000394961 2.36281e-06 188560 8.00257 2.35877e-06 6.96525e-05 6396.5 3.39269e+06
0.85829 8.93855 0.000466114 2.23247e-06 220444 8.92407 2.22885e-06 6.1805e-05 7962.69 4.00389e+06
0.907013 9.97263 0.000550086 2.11052e-06 261388 9.95564 2.10692e-06 5.47875e-05 10069.2 4.7252e+06
0.958501 11.1191 0.000649185 1.99394e-06 308244 11.103 1.99104e-06 4.85194e-05 12667.5 5.57646e+06
1.01291 12.4564 0.000766138 1.89277e-06 364396 12.4356 1.8896e-06 4.29272e-05 16067.1 6.58107e+06
1.07041 13.8063 0.00090416 1.77763e-06 429162 13.781 1.77438e-06 3.79435e-05 20106 7.76667e+06
1.13118 15.3929 0.00106705 1.67937e-06 506358 15.3672 1.67657e-06 3.3507e-05 25378.7 9.16586e+06
1.19539 17.1872 0.00125928 1.58889e-06 598590 17.1558 1.58598e-06 2.9562e-05 32172.8 1.08171e+07
1.26325 19.0965 0.00148614 1.49591e-06 704844 19.0606 1.49309e-06 2.60578e-05 40463.1 1.27658e+07
1.33496 21.1958 0.00175387 1.4069e-06 834620 21.1537 1.4041e-06 2.29484e-05 51168 1.50656e+07
1.41075 23.4468 0.00206984 1.31874e-06 981444 23.4019 1.31621e-06 2.01923e-05 64097.1 1.77798e+07
1.49083 25.9471 0.00244272 1.23659e-06 1.15998e+06 25.9003 1.23435e-06 1.77518e-05 80804 2.09828e+07
1.57546 28.7127 0.00288279 1.1595e-06 1.36931e+06 28.6609 1.15741e-06 1.55929e-05 101823 2.4763e+07
1.66489 31.7432 0.00340213 1.0862e-06 1.61652e+06 31.6842 1.08418e-06 1.3685e-05 128305 2.92241e+07
1.75941 34.933 0.00401503 1.01288e-06 1.90601e+06 34.8696 1.01104e-06 1.20007e-05 160870 3.44889e+07
1.85928 38.3347 0.00473835 9.41834e-07 2.24913e+06 38.263 9.40075e-07 1.05151e-05 201454 4.07021e+07
1.96483 41.9116 0.00559198 8.72527e-07 2.65744e+06 41.8314 8.70857e-07 9.20606e-06 251865 4.80347e+07
2.07637 45.8002 0.00659939 8.0793e-07 3.13125e+06 45.7153 8.06433e-07 8.05366e-06 314122 5.66883e+07
2.19424 49.9398 0.00778828 7.46474e-07 3.69915e+06 49.849 7.45118e-07 7.04008e-06 392229 6.69008e+07
2.3188 54.2589 0.00919136 6.87229e-07 4.36472e+06 54.1636 6.86022e-07 6.1494e-06 487782 7.89532e+07
2.45043 59.0381 0.0108472 6.33614e-07 5.14913e+06 58.9381 6.32541e-07 5.36741e-06 607846 9.31768e+07
2.58954 63.8931 0.0128014 5.81042e-07 6.07894e+06 63.7803 5.80017e-07 4.68145e-06 754492 1.09963e+08
2.73654 69.114 0.0151076 5.32576e-07 7.17304e+06 68.9965 5.31671e-07 4.08023e-06 936268 1.29773e+08
2.89188 74.5872 0.0178292 4.87014e-07 8.46557e+06 74.4619 4.86196e-07 3.55373e-06 1.16015e+06 1.53152e+08
3.05605 80.2662 0.0210412 4.44091e-07 9.98773e+06 80.1327 4.43352e-07 3.09304e-06 1.43401e+06 1.80743e+08
3.22953 86.2331 0.0248319 4.04273e-07 1.1797e+07 86.0915 4.03609e-07 2.69025e-06 1.77278e+06 2.13304e+08
3.41286 92.4258 0.0293054 3.67161e-07 1.39144e+07 92.2689 3.66537e-07 2.33837e-06 2.18477e+06 2.51731e+08
3.6066 99.0973 0.0345848 3.3357e-07 1.64163e+07 98.9324 3.33014e-07 2.0312e-06 2.69593e+06 2.97081e+08
3.81134 106.141 0.0408154 3.02739e-07 1.93821e+07 105.966 3.0224e-07 1.76327e-06 3.32776e+06 3.50601e+08
4.0277 113.449 0.0481684 2.74187e-07 2.28754e+07 113.263 2.73738e-07 1.52972e-06 4.10018e+06 4.13763e+08
4.25634 121.141 0.056846 2.48085e-07 2.69929e+07 120.939 2.47671e-07 1.32631e-06 5.04901e+06 4.88304e+08
4.49796 129.115 0.067087 2.24052e-07 3.18542e+07 128.901 2.23681e-07 1.14926e-06 6.21009e+06 5.76273e+08
4.7533 137.551 0.0791729 2.02255e-07 3.75892e+07 137.323 2.01918e-07 9.95263e-07 7.63877e+06 6.8009e+08
5.02313 146.374 0.0934361 1.82372e-07 4.43706e+07 146.137 1.82078e-07 8.61414e-07 9.39382e+06 8.0261e+08
5.30828 155.567 0.110269 1.64238e-07 5.23593e+07 155.312 1.6397e-07 7.45152e-07 1.15405e+07 9.47202e+08
5.60962 165.184 0.130134 1.4777e-07 6.1787e+07 164.917 1.47531e-07 6.44232e-07 1.41724e+07 1.11784e+09
5.92807 175.201 0.153578 1.32806e-07 7.29346e+07 174.915 1.32589e-07 5.56685e-07 1.73997e+07 1.31923e+09
6.26459 185.735 0.181246 1.19299e-07 8.60651e+07 185.431 1.19104e-07 4.80786e-07 2.13556e+07 1.55689e+09
6.62021 196.723 0.213898 1.07068e-07 1.01558e+08 196.401 1.06893e-07 4.15026e-07 2.61999e+07 1.83737e+09
6.99602 208.411 0.252432 9.61139e-08 1.1986e+08 208.071 9.59574e-08 3.58083e-07 3.21719e+07 2.16837e+09
7.39317 220.406 0.297908 8.61295e-08 1.41457e+08 220.047 8.59892e-08 3.08803e-07 3.94542e+07 2.55901e+09
7.81286 232.984 0.351577 7.71466e-08 1.66936e+08 232.606 7.70212e-08 2.66181e-07 4.83826e+07 3.02002e+09
8.25637 246.32 0.414914 6.91116e-08 1.97025e+08 245.917 6.89987e-08 2.29336e-07 5.93746e+07 3.56409e+09
8.72507 260.504 0.489662 6.19338e-08 2.32497e+08 260.076 6.1832e-08 1.97503e-07 7.29073e+07 4.20617e+09
9.22037 275.507 0.577876 5.55019e-08 2.74404e+08 275.051 5.541e-08 1.70014e-07 8.95806e+07 4.96392e+09
9.74378 291.901 0.681982 4.98279e-08 3.2382e+08 291.405 4.97432e-08 1.46289e-07 1.10297e+08 5.85818e+09
10.2969 310.457 0.804843 4.49056e-08 3.82165e+08 309.91 4.48264e-08 1.25822e-07 1.36393e+08 6.91355e+09
10.8814 332.464 0.949838 4.07479e-08 4.51027e+08 331.835 4.06708e-08 1.08175e-07 1.69894e+08 8.15905e+09
11.4992 360.383 1.12095 3.74272e-08 5.32251e+08 359.626 3.73485e-08 9.29669e-08 2.14277e+08 9.62892e+09
12.1519 399.724 1.3229 3.51759e-08 6.28157e+08 398.73 3.50883e-08 7.98658e-08 2.76664e+08 1.13636e+10
12.8418 444.17 1.56122 3.31204e-08 3.82727e+08 459.732 3.42807e-08 6.85852e-08 1.84822e+08 1.34108e+10
13.5708 0 1.84248 0 0 0 0 5.88765e-08 0 1.58268e+10
14.3411 0 2.17441 0 0 0 0 5.05241e-08 0 1.8678e+10
15.1552 0 2.56613 0 0 0 0 4.33417e-08 0 2.20429e+10
16.0156 0 3.02843 0 0 0 0 3.71677e-08 0 2.6014e+10
16.9247 0 3.574 0 0 0 0 3.18628e-08 0 3.07005e+10
17.8855 0 4.21787 0 0 0 0 2.73063e-08 0 3.62312e+10
18.9008 0 4.97773 0 0 0 0 2.33941e-08 0 4.27584e+10
19.9738 0 5.87448 0 0 0 0 2.00364e-08 0 5.04614e+10
21.1076 0 6.93279 0 0 0 0 1.71555e-08 0 5.95522e+10
22.3058 0 8.18175 0 0 0 0 1.46847e-08 0 7.02807e+10
23.5721 0 9.65571 0 0 0 0 1.25662e-08 0 8.29419e+10
24.9102 0 11.3952 0 0 0 0 1.07504e-08 0 9.78842e+10
26.3243 0 13.4481 0 0 0 0 9.19452e-09 0 1.15518e+11
27.8187 0 15.8708 0 0 0 0 7.86182e-09 0 1.36329e+11
29.3979 0 18.73 0 0 0 0 6.72061e-09 0 1.60889e+11
31.0667 0 22.1042 0 0 0 0 5.74366e-09 0 1.89874e+11
32.8303 0 26.0864 0 0 0 0 4.90756e-09 0 2.2408e+11
34.694 0 30.7859 0 0 0 0 4.19221e-09 0 2.64449e+11
36.6634 0 36.3321 0 0 0 0 3.58032e-09 0 3.1209e+11
38.7447 0 42.8774 0 0 0 0 3.05709e-09 0 3.68314e+11
40.9442 0 50.6018 0 0 0 0 2.60976e-09 0 4.34667e+11
43.2685 0 59.7179 0 0 0 0 2.22743e-09 0 5.12973e+11
45.7247 0 70.4762 0 0 0 0 1.90073e-09 0 6.05386e+11
48.3204 0 83.1727 0 0 0 0 1.62163e-09 0 7.14448e+11
51.0634 0 98.1565 0 0 0 0 1.38326e-09 0 8.43158e+11
53.9621 0 115.84 0 0 0 0 1.1797e-09 0 9.95055e+11
57.0254 0 136.709 0 0 0 0 1.00592e-09 0 1.17432e+12
60.2626 0 161.337 0 0 0 0 8.57591e-10 0 1.38587e+12
63.6835 0 190.402 0 0 0 0 7.3101e-10 0 1.63554e+12
67.2987 0 224.704 0 0 0 0 6.23009e-10 0 1.93019e+12
71.1191 0 265.185 0 0 0 0 5.30879e-10 0 2.27792e+12
75.1563 0 312.958 0 0 0 0 4.52303e-10 0 2.68829e+12
79.4227 0 369.339 0 0 0 0 3.85299e-10 0 3.17259e+12
83.9313 0 435.876 0 0 0 0 3.28173e-10 0 3.74415e+12
88.6959 0 514.4 0 0 0 0 2.79476e-10 0 4.41866e+12
93.7309 0 607.071 0 0 0 0 2.37972e-10 0 5.2147e+12
99.0518 0 716.436 0 0 0 0 2.02605e-10 0 6.15414e+12
104.675 0 845.504 0 0 0 0 1.72471e-10 0 7.26283e+12
110.617 0 997.824 0 0 0 0 1.468e-10 0 8.57124e+12
116.896 0 1177.58 0 0 0 0 1.24935e-10 0 1.01154e+13
123.532 0 1389.73 0 0 0 0 1.06313e-10 0 1.19377e+13
130.545 0 1640.09 0 0 0 0 9.04567e-11 0 1.40883e+13
137.955 0 1935.56 0 0 0 0 7.69563e-11 0 1.66263e+13
145.787 0 2284.26 0 0 0 0 6.54636e-11 0 1.96216e+13
154.063 0 2695.77 0 0 0 0 5.56812e-11 0 2.31565e+13
162.808 0 3181.42 0 0 0 0 4.73556e-11 0 2.73282e+13
172.051 0 3754.56 0 0 0 0 4.02708e-11 0 3.22515e+13
181.818 0 4430.96 0 0 0 0 3.42426e-11 0 3.80616e+13
192.139 0 5229.21 0 0 0 0 2.91139e-11 0 4.49186e+13
203.046 0 6171.26 0 0 0 0 2.4751e-11 0 5.30108e+13
214.572 0 7283.03 0 0 0 0 2.10401e-11 0 6.25608e+13
226.753 0 8595.09 0 0 0 0 1.78839e-11 0 7.38313e+13
239.625 0 10143.5 0 0 0 0 1.51999e-11 0 8.71322e+13
253.228 0 11970.9 0 0 0 0 1.29176e-11 0 1.02829e+14
267.603 0 14127.5 0 0 0 0 1.09771e-11 0 1.21354e+14
282.795 0 16672.6 0 0 0 0 9.3274e-12 0 1.43217e+14
298.848 0 19676.2 0 0 0 0 7.925e-12 0 1.69017e+14
315.813 0 23220.9 0 0 0 0 6.73295e-12 0 1.99466e+14
333.741 0 27404.3 0 0 0 0 5.71979e-12 0 2.35401e+14
352.686 0 32341.2 0 0 0 0 4.85874e-12 0 2.77809e+14
372.707 0 38167.6 0 0 0 0 4.12703e-12 0 3.27857e+14
393.865 0 45043.5 0 0 0 0 3.50528e-12 0 3.86921e+14
416.224 0 53158.3 0 0 0 0 2.97701e-12 0 4.56626e+14
439.852 0 62734.9 0 0 0 0 2.52819e-12 0 5.38888e+14
464.821 0 74036.7 0 0 0 0 2.1469e-12 0 6.35971e+14
491.207 0 87374.6 0 0 0 0 1.82301e-12 0 7.50542e+14
519.092 0 103115 0 0 0 0 1.54789e-12 0 8.85755e+14
548.56 0 121692 0 0 0 0 1.31422e-12 0 1.04533e+15
579.7 0 143615 0 0 0 0 1.11576e-12 0 1.23364e+15
612.608 0 169488 0 0 0 0 9.47223e-13 0 1.45589e+15
647.384 0 200021 0 0 0 0 8.041e-13 0 1.71817e+15
684.134 0 236056 0 0 0 0 6.82568e-13 0 2.0277e+15
722.971 0 278582 0 0 0 0 5.79376e-13 0 2.393e+15
764.012 0 328769 0 0 0 0 4.91762e-13 0 2.8241e+15
