0.642005
200
1.0655e+09
8589934592
0.0129181 0 1.58924e-09 0 0 0 0 0.00677225 0 13.6515
0.0136515 0 1.87554e-09 0 0 0 0 0.00688819 0 16.1108
0.0144264 0 2.21343e-09 0 0 0 0 0.00699249 0 19.0132
0.0152454 0 2.61218e-09 0 0 0 0 0.00708412 0 22.4385
0.0161108 0 3.08278e-09 0 0 0 0 0.00716212 0 26.4808
0.0170254 0 3.63815e-09 0 0 0 0 0.00722559 0 31.2514
0.0179919 0 4.29357e-09 0 0 0 0 0.00727371 0 36.8815
0.0190132 0 5.06707e-09 0 0 0 0 0.00730578 0 43.5258
0.0200925 0 5.97991e-09 0 0 0 0 0.00732122 0 51.367
0.0212331 0 7.05721e-09 0 0 0 0 0.00731958 0 60.621
0.0224385 0 8.32858e-09 0 0 0 0 0.00730056 0 71.542
0.0237123 0 9.829e-09 0 0 0 0 0.00726401 0 84.4305
0.0250583 0 1.15997e-08 0 0 0 0 0.00720995 0 99.6408
0.0264808 0 1.36894e-08 0 0 0 0 0.00713857 0 117.591
0.0279841 0 1.61556e-08 0 0 0 0 0.00705021 0 138.776
0.0295727 0 1.90661e-08 0 0 0 0 0.00694538 0 163.777
0.0312514 0 2.25009e-08 0 0 0 0 0.00682475 0 193.281
0.0330255 0 2.65545e-08 0 0 0 0 0.00668915 0 228.102
0.0349003 0 3.13384e-08 0 0 0 0 0.00653951 0 269.195
0.0368815 0 3.69841e-08 0 0 0 0 0.00637693 0 317.691
0.0389751 0 4.36469e-08 0 0 0 0 0.00620256 0 374.924
0.0411876 0 5.151e-08 0 0 0 0 0.00601767 0 442.467
0.0435258 0 6.07896e-08 0 0 0 0 0.00582358 0 522.179
0.0459966 0 7.1741e-08 0 0 0 0 0.00562166 0 616.251
0.0486077 0 8.46654e-08 0 0 0 0 0.0054133 0 727.27
0.051367 0 9.99181e-08 0 0 0 0 0.00519989 0 858.29
0.054283 0 1.17919e-07 0 0 0 0 0.0049828 0 1012.91
0.0573645 0 1.39162e-07 0 0 0 0 0.00476339 0 1195.39
0.060621 0 1.64232e-07 0 0 0 0 0.00454293 0 1410.75
0.0640622 0 1.93819e-07 0 0 0 0 0.00432265 0 1664.89
0.0676989 0 2.28736e-07 0 0 0 0 0.00410371 0 1964.83
0.071542 0 2.69944e-07 0 0 0 0 0.00388717 0 2318.8
0.0756032 0 3.18575e-07 0 0 0 0 0.00367401 0 2736.54
0.079895 0 3.75967e-07 0 0 0 0 0.0034651 0 3229.53
0.0844305 0 4.43698e-07 0 0 0 0 0.00326121 0 3811.34
0.0892234 0 5.23632e-07 0 0 0 0 0.00306301 0 4497.96
0.0942883 0 6.17966e-07 0 0 0 0 0.00287109 0 5308.28
0.0996408 0 7.29294e-07 0 0 0 0 0.00268591 0 6264.59
0.105297 0 8.60678e-07 0 0 0 0 0.00250785 0 7393.17
0.111275 0 1.01573e-06 0 0 0 0 0.00233721 0 8725.07
0.117591 0 1.19872e-06 0 0 0 0 0.00217419 0 10296.9
0.124267 0 1.41467e-06 0 0 0 0 0.00201893 0 12151.9
0.131321 0 1.66953e-06 0 0 0 0 0.00187147 0 14341.1
0.138776 0 1.9703e-06 0 0 0 0 0.00173182 0 16924.7
0.146654 0 2.32525e-06 0 0 0 0 0.00159991 0 19973.8
0.154979 0 2.74415e-06 0 0 0 0 0.00147563 0 23572.1
0.163777 0 3.23852e-06 0 0 0 0 0.00135884 0 27818.7
0.173074 0 3.82195e-06 0 0 0 0 0.00124933 0 32830.3
0.182899 0 4.51048e-06 0 0 0 0 0.00114689 0 38744.7
0.193281 0 5.32305e-06 0 0 0 0 0.00105127 0 45724.7
0.204254 0 6.28202e-06 0 0 0 0 0.000962209 0 53962.1
0.215848 0 7.41374e-06 0 0 0 0 0.000879423 0 63683.5
0.228102 0 8.74934e-06 0 0 0 0 0.000802624 0 75156.3
0.24105 0 1.03256e-05 0 0 0 0 0.000731515 0 88695.9
0.254734 0 1.21857e-05 0 0 0 0 0.000665798 0 104675
0.269195 0 1.4381e-05 0 0 0 0 0.000605173 0 123532
0.284476 0 1.69718e-05 0 0 0 0 0.000549345 0 145787
0.300625 0 2.00293e-05 0 0 0 0 0.000498021 0 172051
0.317691 0 2.36377e-05 0 0 0 0 0.000450916 0 203046
0.335725 0 2.78961e-05 0 0 0 0 0.000407755 0 239625
0.354784 0 3.29216e-05 0 0 0 0 0.000368269 0 282795
0.374924 0 3.88525e-05 0 0 0 0 0.000332202 0 333741
0.396207 2.23627 4.58519e-05 5.67775e-06 6 2.17409 5.5199e-06 0.000299307 0.113818 393865
0.418699 0 5.41123e-05 0 0 0 0 0.00026935 0 464821
0.442467 0 6.38607e-05 0 0 0 0 0.000242108 0 548560
0.467585 0 7.53654e-05 0 0 0 0 0.00021737 0 647384
0.494129 0 8.89427e-05 0 0 0 0 0.000194938 0 764012
0.522179 0 0.000104966 0 0 0 0 0.000174625 0 901651
0.551822 0 0.000123876 0 0 0 0 0.000156255 0 1.06409e+06
0.583147 7.21984 0.000146192 5.74928e-06 12 7.59893 6.05114e-06 0.000139664 0.49398 1.25578e+06
0.616251 0 0.000172529 0 0 0 0 0.0001247 0 1.48202e+06
0.651234 0 0.000203611 0 0 0 0 0.00011122 0 1.74901e+06
0.688203 15.8423 0.000240292 7.6752e-06 8 15.4482 7.48425e-06 9.90935e-05 0.619633 2.06409e+06
0.72727 0 0.000283581 0 0 0 0 8.81969e-05 0 2.43595e+06
0.768555 0 0.000334669 0 0 0 0 7.84179e-05 0 2.87479e+06
0.812184 6.74259 0.000394961 1.98739e-06 6 6.88674 2.02988e-06 6.96525e-05 0.171197 3.39269e+06
0.85829 0 0.000466114 0 0 0 0 6.1805e-05 0 4.00389e+06
0.907013 1.88226 0.000550086 3.98345e-07 24 1.91838 4.05989e-07 5.47875e-05 0.174498 4.7252e+06
0.958501 4.31932 0.000649185 7.74563e-07 24 4.06632 7.29194e-07 4.85194e-05 0.383136 5.57646e+06
1.01291 0 0.000766138 0 0 0 0 4.29272e-05 0 6.58107e+06
1.07041 0 0.00090416 0 0 0 0 3.79435e-05 0 7.76667e+06
1.13118 6.87877 0.00106705 7.50477e-07 12 6.79427 7.41259e-07 3.3507e-05 0.268771 9.16586e+06
1.19539 2.46056 0.00125928 2.27469e-07 30 2.40983 2.22779e-07 2.9562e-05 0.230839 1.08171e+07
1.26325 14.5076 0.00148614 1.13643e-06 24 14.2893 1.11933e-06 2.60578e-05 1.04669 1.27658e+07
1.33496 14.658 0.00175387 9.72942e-07 24 14.6902 9.75081e-07 2.29484e-05 1.01753 1.50656e+07
1.41075 16.0493 0.00206984 9.02675e-07 32 16.4256 9.23839e-07 2.01923e-05 1.43053 1.77798e+07
1.49083 4.30874 0.00244272 2.05346e-07 48 4.21688 2.00968e-07 1.77518e-05 0.555247 2.09828e+07
1.57546 28.8032 0.00288279 1.16316e-06 6 27.4272 1.10759e-06 1.55929e-05 0.447574 2.4763e+07
1.66489 4.58562 0.00340213 1.56912e-07 84 4.52083 1.54695e-07 1.3685e-05 0.963144 2.92241e+07
1.75941 5.90631 0.00401503 1.71253e-07 48 5.82777 1.68975e-07 1.20007e-05 0.684972 3.44889e+07
1.85928 4.17446 0.00473835 1.02561e-07 72 4.2012 1.03218e-07 1.05151e-05 0.702268 4.07021e+07
1.96483 9.00211 0.00559198 1.87408e-07 54 8.75863 1.8234e-07 9.20606e-06 1.09928 4.80347e+07
2.07637 11.4601 0.00659939 2.02161e-07 104 11.5245 2.03297e-07 8.05366e-06 2.61058 5.66883e+07
2.19424 6.30104 0.00778828 9.41848e-08 120 6.3935 9.55668e-08 7.04008e-06 1.6054 6.69008e+07
2.3188 7.41692 0.00919136 9.39407e-08 156 7.26091 9.19647e-08 6.1494e-06 2.38312 7.89532e+07
2.45043 11.456 0.0108472 1.22949e-07 126 11.3672 1.21996e-07 5.36741e-06 2.88622 9.31768e+07
2.58954 8.70217 0.0128014 7.91373e-08 192 8.75754 7.96409e-08 4.68145e-06 3.24565 1.09963e+08
2.73654 26.3991 0.0151076 2.03425e-07 152 26.734 2.06006e-07 4.08023e-06 7.57814 1.29773e+08
2.89188 12.4664 0.0178292 8.13986e-08 378 12.5102 8.16846e-08 3.55373e-06 8.65813 1.53152e+08
3.05605 10.1302 0.0210412 5.60474e-08 264 9.95654 5.50868e-08 3.09304e-06 4.78381 1.80743e+08
3.22953 13.4855 0.0248319 6.32218e-08 366 13.3259 6.24739e-08 2.69025e-06 8.60112 2.13304e+08
3.41286 14.058 0.0293054 5.58454e-08 428 13.9075 5.52472e-08 2.33837e-06 10.2216 2.51731e+08
3.6066 17.8572 0.0345848 6.01087e-08 486 17.5799 5.91754e-08 2.0312e-06 14.382 2.97081e+08
3.81134 13.3626 0.0408154 3.81133e-08 600 13.3244 3.80044e-08 1.76327e-06 12.9691 3.50601e+08
4.0277 20.3344 0.0481684 4.91449e-08 738 20.3071 4.9079e-08 1.52972e-06 23.7095 4.13763e+08
4.25634 18.1135 0.056846 3.70948e-08 824 18.0917 3.70501e-08 1.32631e-06 23.046 4.88304e+08
4.49796 20.744 0.067087 3.59969e-08 954 20.6496 3.5833e-08 1.14926e-06 29.8811 5.76273e+08
4.7533 19.881 0.0791729 2.92329e-08 1094 19.8182 2.91405e-08 9.95263e-07 32.133 6.8009e+08
5.02313 21.4114 0.0934361 2.66772e-08 1332 21.4872 2.67716e-08 8.61414e-07 41.2509 8.0261e+08
5.30828 26.3075 0.110269 2.77739e-08 1614 26.2948 2.77604e-08 7.45152e-07 60.1583 9.47202e+08
5.60962 30.5246 0.130134 2.73067e-08 1850 30.4878 2.72737e-08 6.44232e-07 78.4147 1.11784e+09
5.92807 25.7676 0.153578 1.95324e-08 2238 25.7916 1.95506e-08 5.56685e-07 78.5245 1.31923e+09
6.26459 27.8959 0.181246 1.79177e-08 2546 27.9846 1.79747e-08 4.80786e-07 94.8832 1.55689e+09
6.62021 28.0052 0.213898 1.52421e-08 3264 28.0428 1.52625e-08 4.15026e-07 119.872 1.83737e+09
6.99602 32.0542 0.252432 1.47826e-08 3506 32.0899 1.47991e-08 3.58083e-07 144.737 2.16837e+09
7.39317 33.812 0.297908 1.32129e-08 4506 33.8423 1.32248e-08 3.08803e-07 192.8 2.55901e+09
7.81286 36.8112 0.351577 1.2189e-08 5018 36.7106 1.21557e-08 2.66181e-07 229.786 3.02002e+09
8.25637 39.3114 0.414914 1.10299e-08 5852 39.298 1.10261e-08 2.29336e-07 281.45 3.56409e+09
8.72507 41.0356 0.489662 9.75605e-09 7362 40.9111 9.72645e-09 1.97503e-07 363.661 4.20617e+09
9.22037 44.1653 0.577876 8.89726e-09 8306 44.019 8.86778e-09 1.70014e-07 434.674 4.96392e+09
9.74378 46.2533 0.681982 7.8955e-09 9698 46.1682 7.88098e-09 1.46289e-07 523.42 5.85818e+09
10.2969 49.3969 0.804843 7.14494e-09 11816 49.3093 7.13227e-09 1.25822e-07 670.982 6.91355e+09
10.8814 54.4399 0.949838 6.67234e-09 13682 54.3626 6.66286e-09 1.08175e-07 843.916 8.15905e+09
11.4992 55.6856 1.12095 5.78317e-09 16152 55.6322 5.77761e-09 9.29669e-08 1004.76 9.62892e+09
12.1519 59.4456 1.3229 5.23124e-09 19472 59.3606 5.22375e-09 7.98658e-08 1275.42 1.13636e+10
12.8418 59.9436 1.56122 4.4698e-09 22670 59.7804 4.45764e-09 6.85852e-08 1477.44 1.34108e+10
13.5708 64.2941 1.84248 4.06237e-09 26224 64.2349 4.05862e-09 5.88765e-08 1809.41 1.58268e+10
14.3411 68.5985 2.17441 3.67269e-09 31640 68.5363 3.66936e-09 5.05241e-08 2299.97 1.8678e+10
15.1552 72.3478 2.56613 3.28214e-09 37484 72.2601 3.27816e-09 4.33417e-08 2838.55 2.20429e+10
16.0156 76.6506 3.02843 2.94652e-09 43856 76.4869 2.94022e-09 3.71677e-08 3476.74 2.6014e+10
16.9247 81.3217 3.574 2.64888e-09 51362 81.2189 2.64553e-09 3.18628e-08 4269.92 3.07005e+10
17.8855 84.6605 4.21787 2.33667e-09 61636 84.5725 2.33424e-09 2.73063e-08 5274.35 3.62312e+10
18.9008 89.6525 4.97773 2.09672e-09 72218 89.4398 2.09175e-09 2.33941e-08 6472.61 4.27584e+10
19.9738 95.1573 5.87448 1.88574e-09 84586 95.0243 1.88311e-09 2.00364e-08 7960.89 5.04614e+10
21.1076 100.18 6.93279 1.68222e-09 100708 100.021 1.67954e-09 1.71555e-08 9875.12 5.95522e+10
22.3058 105.767 8.18175 1.50492e-09 118712 105.611 1.5027e-09 1.46847e-08 12165.9 7.02807e+10
23.5721 109.947 9.65571 1.32559e-09 140410 109.741 1.32311e-09 1.25662e-08 14811.7 8.29419e+10
24.9102 115.912 11.3952 1.18418e-09 164374 115.7 1.182e-09 1.07504e-08 18106.2 9.78842e+10
26.3243 122.79 13.4481 1.06295e-09 194680 122.719 1.06233e-09 9.19452e-09 22506.4 1.15518e+11
27.8187 128.794 15.8708 9.44728e-10 230196 128.587 9.4321e-10 7.86182e-09 27661.9 1.36329e+11
29.3979 134.169 18.73 8.33923e-10 271156 133.969 8.32678e-10 6.72061e-09 33646.2 1.60889e+11
31.0667 140.958 22.1042 7.42378e-10 321076 140.707 7.41056e-10 5.74366e-09 41499.7 1.89874e+11
32.8303 147.952 26.0864 6.60262e-10 377436 147.696 6.59119e-10 4.90756e-09 50780.1 2.2408e+11
34.694 154.803 30.7859 5.85378e-10 447594 154.547 5.84413e-10 4.19221e-09 62499.8 2.64449e+11
36.6634 162.317 36.3321 5.20098e-10 525078 162.039 5.19207e-10 3.58032e-09 76275.7 3.1209e+11
38.7447 170.679 42.8774 4.63407e-10 621924 170.363 4.62548e-10 3.05709e-09 94274.1 3.68314e+11
40.9442 178.837 50.6018 4.11434e-10 732630 178.513 4.1069e-10 2.60976e-09 115501 4.34667e+11
43.2685 187.928 59.7179 3.6635e-10 865596 187.62 3.65751e-10 2.22743e-09 142366 5.12973e+11
45.7247 198.04 70.4762 3.2713e-10 1.02168e+06 197.722 3.26604e-10 1.90073e-09 175838 6.05386e+11
48.3204 207.167 83.1727 2.89968e-10 1.20544e+06 206.799 2.89453e-10 1.62163e-09 215547 7.14448e+11
51.0634 217.404 98.1565 2.57845e-10 1.42103e+06 217.035 2.57407e-10 1.38326e-09 264886 8.43158e+11
53.9621 229.184 115.84 2.30322e-10 1.67997e+06 228.789 2.29926e-10 1.1797e-09 327993 9.95055e+11
57.0254 242.411 136.709 2.06427e-10 1.98018e+06 241.947 2.06032e-10 1.00592e-09 406358 1.17432e+12
60.2626 255.805 161.337 1.8458e-10 2.33957e+06 255.326 1.84235e-10 8.57591e-10 503548 1.38587e+12
63.6835 271.879 190.402 1.66231e-10 2.75676e+06 271.363 1.65916e-10 7.3101e-10 626888 1.63554e+12
67.2987 288.98 224.704 1.49716e-10 3.25638e+06 288.436 1.49434e-10 6.23009e-10 782544 1.93019e+12
71.1191 308.555 265.185 1.35455e-10 3.84387e+06 307.927 1.35179e-10 5.30879e-10 980771 2.27792e+12
75.1563 330.869 312.958 1.23078e-10 4.53277e+06 330.184 1.22823e-10 4.52303e-10 1.23343e+06 2.68829e+12
79.4227 356.812 369.339 1.12467e-10 5.35083e+06 356.085 1.12238e-10 3.85299e-10 1.56188e+06 3.17259e+12
83.9313 386.183 435.876 1.03143e-10 6.32174e+06 385.339 1.02918e-10 3.28173e-10 1.98689e+06 3.74415e+12
88.6959 420.312 514.4 9.51219e-11 7.44986e+06 419.354 9.49052e-11 2.79476e-10 2.53562e+06 4.41866e+12
93.7309 460.816 607.071 8.83686e-11 8.79764e+06 459.759 8.8166e-11 2.37972e-10 3.26691e+06 5.2147e+12
99.0518 507.591 716.436 8.24795e-11 1.03827e+07 506.364 8.22802e-11 2.02605e-10 4.22675e+06 6.15414e+12
104.675 563.177 845.504 7.75425e-11 1.22515e+07 561.77 7.73486e-11 1.72471e-10 5.50825e+06 7.26283e+12
110.617 628.752 997.824 7.3356e-11 1.44573e+07 627.119 7.31655e-11 1.468e-10 7.22432e+06 8.57124e+12
116.896 706.984 1177.58 6.9892e-11 1.70664e+07 705.075 6.97033e-11 1.24935e-10 9.54742e+06 1.01154e+13
123.532 799.066 1389.73 6.69364e-11 2.0139e+07 796.83 6.67491e-11 1.06313e-10 1.26798e+07 1.19377e+13
130.545 908.521 1640.09 6.44877e-11 2.37643e+07 905.917 6.43028e-11 9.04567e-11 1.69418e+07 1.40883e+13
137.955 1038.98 1935.56 6.24902e-11 2.80503e+07 1035.93 6.23068e-11 7.69563e-11 2.27775e+07 1.66263e+13
145.787 1193.04 2284.26 6.08021e-11 3.30981e+07 1189.46 6.06199e-11 6.54636e-11 3.07413e+07 1.96216e+13
154.063 1377.2 2695.77 5.94734e-11 3.90634e+07 1372.97 5.92911e-11 5.56812e-11 4.17239e+07 2.31565e+13
162.808 1595.47 3181.42 5.83819e-11 4.61057e+07 1590.52 5.82007e-11 4.73556e-11 5.6841e+07 2.73282e+13
172.051 1854.7 3754.56 5.75076e-11 5.44046e+07 1848.83 5.73256e-11 4.02708e-11 7.76909e+07 3.22515e+13
181.818 2163.24 4430.96 5.68352e-11 6.42064e+07 2156.35 5.66541e-11 3.42426e-11 1.06569e+08 3.80616e+13
192.139 2531.33 5229.21 5.63537e-11 7.57748e+07 2523.14 5.61715e-11 2.91139e-11 1.46672e+08 4.49186e+13
203.046 2968.3 6171.26 5.59944e-11 8.94213e+07 2958.64 5.5812e-11 2.4751e-11 2.02298e+08 5.30108e+13
214.572 3488.76 7283.03 5.57659e-11 1.05538e+08 3477.3 5.55827e-11 2.10401e-11 2.79725e+08 6.25608e+13
226.753 4110.28 8595.09 5.56713e-11 1.24552e+08 4096.61 5.54861e-11 1.78839e-11 3.8772e+08 7.38313e+13
239.625 4855.62 10143.5 5.57271e-11 1.46987e+08 4839.28 5.55395e-11 1.51999e-11 5.38896e+08 8.71322e+13
253.228 5749.26 11970.9 5.59108e-11 1.7347e+08 5729.65 5.572e-11 1.29176e-11 7.50822e+08 1.02829e+14
267.603 6827.98 14127.5 5.62648e-11 2.04703e+08 6804.43 5.60708e-11 1.09771e-11 1.04923e+09 1.21354e+14
282.795 8138.02 16672.6 5.68232e-11 2.4161e+08 8109.54 5.66243e-11 9.3274e-12 1.4719e+09 1.43217e+14
298.848 9744.56 19676.2 5.76542e-11 2.85122e+08 9709.71 5.7448e-11 7.925e-12 2.07426e+09 1.69017e+14
315.813 11735.5 23220.9 5.88346e-11 3.36491e+08 11692.5 5.8619e-11 6.73295e-12 2.94036e+09 1.99466e+14
333.741 14253.5 27404.3 6.05501e-11 3.97115e+08 14199.3 6.03196e-11 5.71979e-12 4.20389e+09 2.35401e+14
352.686 17502.6 32341.2 6.30025e-11 4.68637e+08 17433 6.27517e-11 4.85874e-12 6.07674e+09 2.77809e+14
372.707 21823.8 38167.6 6.65651e-11 5.53074e+08 21731.8 6.62843e-11 4.12703e-12 8.92056e+09 3.27857e+14
393.865 27790.8 45043.5 7.18255e-11 6.52716e+08 27664.4 7.14988e-11 3.50528e-12 1.33746e+10 3.86921e+14
416.224 32808.7 53158.3 7.18503e-11 2.2184e+08 34708.6 7.60109e-11 2.97701e-12 5.35411e+09 4.56626e+14
439.852 0 62734.9 0 0 0 0 2.52819e-12 0 5.38888e+14
464.821 0 74036.7 0 0 0 0 2.1469e-12 0 6.35971e+14
491.207 0 87374.6 0 0 0 0 1.82301e-12 0 7.50542e+14
519.092 0 103115 0 0 0 0 1.54789e-12 0 8.85755e+14
548.56 0 121692 0 0 0 0 1.31422e-12 0 1.04533e+15
579.7 0 143615 0 0 0 0 1.11576e-12 0 1.23364e+15
612.608 0 169488 0 0 0 0 9.47223e-13 0 1.45589e+15
647.384 0 200021 0 0 0 0 8.041e-13 0 1.71817e+15
684.134 0 236056 0 0 0 0 6.82568e-13 0 2.0277e+15
722.971 0 278582 0 0 0 0 5.79376e-13 0 2.393e+15
764.012 0 328769 0 0 0 0 4.91762e-13 0 2.8241e+15
0.642005
200
1.0655e+09
8589934592
0.0129181 0.00122701 1.58924e-09 8.98813e-05 6 0.00121578 8.90585e-05 0.00677225 0.079632 13.6515
0.0136515 0 1.87554e-09 0 0 0 0 0.00688819 0 16.1108
0.0144264 0 2.21343e-09 0 0 0 0 0.00699249 0 19.0132
0.0152454 0 2.61218e-09 0 0 0 0 0.00708412 0 22.4385
0.0161108 0 3.08278e-09 0 0 0 0 0.00716212 0 26.4808
0.0170254 0 3.63815e-09 0 0 0 0 0.00722559 0 31.2514
0.0179919 0.00268999 4.29357e-09 7.29361e-05 12 0.00268653 7.28422e-05 0.00727371 0.120328 36.8815
0.0190132 0 5.06707e-09 0 0 0 0 0.00730578 0 43.5258
0.0200925 0 5.97991e-09 0 0 0 0 0.00732122 0 51.367
0.0212331 0.00252503 7.05721e-09 4.16528e-05 8 0.00252283 4.16165e-05 0.00731958 0.0455248 60.621
0.0224385 0 8.32858e-09 0 0 0 0 0.00730056 0 71.542
0.0237123 0 9.829e-09 0 0 0 0 0.00726401 0 84.4305
0.0250583 0.0158737 1.15997e-08 0.000159309 6 0.0158662 0.000159234 0.00720995 0.132574 99.6408
0.0264808 0 1.36894e-08 0 0 0 0 0.00713857 0 117.591
0.0279841 0.00973296 1.61556e-08 7.01344e-05 24 0.00972296 7.00624e-05 0.00705021 0.238748 138.776
0.0295727 0 1.90661e-08 0 0 0 0 0.00694538 0 163.777
0.0312514 0.0172527 2.25009e-08 8.92619e-05 24 0.0173403 8.97151e-05 0.00682475 0.313899 193.281
0.0330255 0 2.65545e-08 0 0 0 0 0.00668915 0 228.102
0.0349003 0.0256471 3.13384e-08 9.52733e-05 12 0.0254417 9.45104e-05 0.00653951 0.174826 269.195
0.0368815 0.020786 3.69841e-08 6.54283e-05 30 0.0205646 6.47315e-05 0.00637693 0.307805 317.691
0.0389751 0.0237151 4.36469e-08 6.32531e-05 24 0.0234711 6.26024e-05 0.00620256 0.24475 374.924
0.0411876 0.0151542 5.151e-08 3.42494e-05 24 0.0150513 3.40168e-05 0.00601767 0.136595 442.467
0.0435258 0.0365922 6.07896e-08 7.00759e-05 8 0.0365894 7.00705e-05 0.00582358 0.0962651 522.179
0.0459966 0.044998 7.1741e-08 7.3019e-05 72 0.0446432 7.24433e-05 0.00562166 0.935198 616.251
0.0486077 0 8.46654e-08 0 0 0 0 0.0054133 0 727.27
0.051367 0.0625009 9.99181e-08 7.28202e-05 54 0.0622954 7.25808e-05 0.00519989 0.756226 858.29
0.054283 0.0499903 1.17919e-07 4.9353e-05 60 0.050214 4.95738e-05 0.0049828 0.59428 1012.91
0.0573645 0.0472228 1.39162e-07 3.9504e-05 96 0.0471024 3.94033e-05 0.00476339 0.796153 1195.39
0.060621 0.0555786 1.64232e-07 3.93966e-05 24 0.0548256 3.88629e-05 0.00454293 0.20813 1410.75
0.0640622 0.0961175 1.93819e-07 5.77319e-05 134 0.0961648 5.77603e-05 0.00432265 1.78966 1664.89
0.0676989 0.0933512 2.28736e-07 4.75111e-05 120 0.0929016 4.72822e-05 0.00410371 1.38931 1964.83
0.071542 0.0871283 2.69944e-07 3.75748e-05 108 0.0861722 3.71624e-05 0.00388717 1.04396 2318.8
0.0756032 0.128498 3.18575e-07 4.69564e-05 174 0.127792 4.66985e-05 0.00367401 2.22384 2736.54
0.079895 0.134436 3.75967e-07 4.16271e-05 168 0.133175 4.12367e-05 0.0034651 2.01823 3229.53
0.0844305 0.112437 4.43698e-07 2.95006e-05 168 0.112996 2.96474e-05 0.00326121 1.51971 3811.34
0.0892234 0.131988 5.23632e-07 2.9344e-05 290 0.131387 2.92102e-05 0.00306301 2.77823 4497.96
0.0942883 0.162204 6.17966e-07 3.05568e-05 288 0.161844 3.04889e-05 0.00287109 3.06516 5308.28
0.0996408 0.144605 7.29294e-07 2.30829e-05 366 0.143474 2.29024e-05 0.00268591 3.14542 6264.59
0.105297 0.166951 8.60678e-07 2.25817e-05 420 0.165776 2.24228e-05 0.00250785 3.78185 7393.17
0.111275 0.178336 1.01573e-06 2.04395e-05 398 0.177817 2.038e-05 0.00233721 3.48061 8725.07
0.117591 0.211919 1.19872e-06 2.05809e-05 624 0.212464 2.06338e-05 0.00217419 5.90677 10296.9
0.124267 0.243169 1.41467e-06 2.00107e-05 642 0.242666 1.99693e-05 0.00201893 6.36323 12151.9
0.131321 0.292448 1.66953e-06 2.03922e-05 800 0.292546 2.03991e-05 0.00187147 8.7171 14341.1
0.138776 0.265976 1.9703e-06 1.57152e-05 858 0.267146 1.57844e-05 0.00173182 7.78585 16924.7
0.146654 0.304298 2.32525e-06 1.52349e-05 1080 0.306854 1.53629e-05 0.00159991 10.2841 19973.8
0.154979 0.355909 2.74415e-06 1.50987e-05 1286 0.358207 1.51962e-05 0.00147563 13.1584 23572.1
0.163777 0.3431 3.23852e-06 1.23334e-05 1650 0.344012 1.23662e-05 0.00135884 14.9761 27818.7
0.173074 0.388091 3.82195e-06 1.18211e-05 1778 0.388322 1.18282e-05 0.00124933 16.8234 32830.3
0.182899 0.402481 4.51048e-06 1.0388e-05 2112 0.40348 1.04138e-05 0.00114689 19.1295 38744.7
0.193281 0.449286 5.32305e-06 9.82588e-06 2570 0.449716 9.8353e-06 0.00105127 24.0209 45724.7
0.204254 0.524724 6.28202e-06 9.72393e-06 3030 0.524404 9.718e-06 0.000962209 30.6207 53962.1
0.215848 0.538211 7.41374e-06 8.45134e-06 3434 0.537993 8.44791e-06 0.000879423 33.0011 63683.5
0.228102 0.566767 8.74934e-06 7.54118e-06 4218 0.566593 7.53886e-06 0.000802624 39.6309 75156.3
0.24105 0.630751 1.03256e-05 7.11138e-06 4766 0.63115 7.11589e-06 0.000731515 46.3324 88695.9
0.254734 0.686845 1.21857e-05 6.56171e-06 6026 0.686836 6.56162e-06 0.000665798 59.3887 104675
0.269195 0.767083 1.4381e-05 6.20958e-06 6480 0.766399 6.20405e-06 0.000605173 66.4902 123532
0.284476 0.831053 1.69718e-05 5.70047e-06 8162 0.83273 5.71197e-06 0.000549345 84.6958 145787
0.300625 0.898657 2.00293e-05 5.22321e-06 9578 0.899253 5.22667e-06 0.000498021 100.453 172051
0.317691 0.985551 2.36377e-05 4.85383e-06 11234 0.984484 4.84857e-06 0.000450916 120.927 203046
0.335725 1.06294 2.78961e-05 4.43582e-06 13344 1.06106 4.42801e-06 0.000407755 145.165 239625
0.354784 1.17013 3.29216e-05 4.13775e-06 15464 1.16932 4.13486e-06 0.000368269 173.748 282795
0.374924 1.2487 3.88525e-05 3.74153e-06 18458 1.24793 3.73923e-06 0.000332202 207.889 333741
0.396207 1.4253 4.58519e-05 3.61876e-06 22232 1.4234 3.61393e-06 0.000299307 268.796 393865
0.418699 1.52247 5.41123e-05 3.2754e-06 25628 1.51874 3.26737e-06 0.00026935 311.647 464821
0.442467 1.65307 6.38607e-05 3.01348e-06 30320 1.65003 3.00793e-06 0.000242108 377.389 548560
0.467585 1.84185 7.53654e-05 2.84507e-06 35452 1.83872 2.84023e-06 0.00021737 464.017 647384
0.494129 2.01793 8.89427e-05 2.64123e-06 41792 2.01618 2.63894e-06 0.000194938 566.242 764012
0.522179 2.25501 0.000104966 2.50098e-06 49988 2.25494 2.5009e-06 0.000174625 715.929 901651
0.551822 2.4719 0.000123876 2.32303e-06 59110 2.46862 2.31995e-06 0.000156255 878.783 1.06409e+06
0.583147 2.72482 0.000146192 2.16982e-06 69716 2.72004 2.16601e-06 0.000139664 1083.11 1.25578e+06
0.616251 3.00852 0.000172529 2.03002e-06 82210 3.00238 2.02588e-06 0.0001247 1338.31 1.48202e+06
0.651234 3.30785 0.000203611 1.89127e-06 96722 3.30038 1.88701e-06 0.00011122 1644.73 1.74901e+06
0.688203 3.70627 0.000240292 1.79559e-06 113098 3.7005 1.7928e-06 9.90935e-05 2049.36 2.06409e+06
0.72727 4.07651 0.000283581 1.67348e-06 135190 4.0709 1.67118e-06 8.81969e-05 2565.14 2.43595e+06
0.768555 4.50569 0.000334669 1.56731e-06 158170 4.50012 1.56537e-06 7.84179e-05 3161.29 2.87479e+06
0.812184 5.0248 0.000394961 1.48107e-06 188560 5.01638 1.47859e-06 6.96525e-05 4009.47 3.39269e+06
0.85829 5.57347 0.000466114 1.39201e-06 220444 5.56456 1.38979e-06 6.1805e-05 4964.99 4.00389e+06
0.907013 6.18916 0.000550086 1.30982e-06 261388 6.17951 1.30778e-06 5.47875e-05 6249.08 4.7252e+06
0.958501 6.88389 0.000649185 1.23446e-06 308244 6.87438 1.23275e-06 4.85194e-05 7842.5 5.57646e+06
1.01291 7.69393 0.000766138 1.1691e-06 364396 7.68118 1.16716e-06 4.29272e-05 9924.14 6.58107e+06
1.07041 8.52628 0.00090416 1.0978e-06 429162 8.51117 1.09586e-06 3.79435e-05 12416.8 7.76667e+06
1.13118 9.5303 0.00106705 1.03976e-06 506358 9.5141 1.03799e-06 3.3507e-05 15712.9 9.16586e+06
1.19539 10.6084 0.00125928 9.80701e-07 598590 10.5891 9.78925e-07 2.9562e-05 19857.8 1.08171e+07
1.26325 11.7882 0.00148614 9.23416e-07 704844 11.7662 9.21695e-07 2.60578e-05 24977.7 1.27658e+07
1.33496 13.11 0.00175387 8.70189e-07 834620 13.0833 8.68417e-07 2.29484e-05 31648.2 1.50656e+07
1.41075 14.5187 0.00206984 8.16584e-07 981444 14.4893 8.14934e-07 2.01923e-05 39690 1.77798e+07
1.49083 16.1764 0.00244272 7.70936e-07 1.15998e+06 16.1463 7.69502e-07 1.77518e-05 50376.3 2.09828e+07
1.57546 17.9511 0.00288279 7.24916e-07 1.36931e+06 17.916 7.23502e-07 1.55929e-05 63659.5 2.4763e+07
1.66489 19.8707 0.00340213 6.79945e-07 1.61652e+06 19.8333 6.78664e-07 1.3685e-05 80317.1 2.92241e+07
1.75941 21.8882 0.00401503 6.34645e-07 1.90601e+06 21.8464 6.33433e-07 1.20007e-05 100797 3.44889e+07
1.85928 24.1106 0.00473835 5.92368e-07 2.24913e+06 24.0654 5.91256e-07 1.05151e-05 126704 4.07021e+07
1.96483 26.5426 0.00559198 5.52572e-07 2.65744e+06 26.4924 5.51526e-07 9.20606e-06 159506 4.80347e+07
2.07637 29.2507 0.00659939 5.15991e-07 3.13125e+06 29.1964 5.15034e-07 8.05366e-06 200617 5.66883e+07
2.19424 31.99 0.00778828 4.78171e-07 3.69915e+06 31.9318 4.773e-07 7.04008e-06 251251 6.69008e+07
2.3188 34.994 0.00919136 4.43225e-07 4.36472e+06 34.9295 4.42407e-07 6.1494e-06 314592 7.89532e+07
2.45043 38.1386 0.0108472 4.09314e-07 5.14913e+06 38.0694 4.08572e-07 5.36741e-06 392669 9.31768e+07
2.58954 41.4909 0.0128014 3.77318e-07 6.07894e+06 41.4187 3.76661e-07 4.68145e-06 489953 1.09963e+08
2.73654 44.9996 0.0151076 3.46757e-07 7.17304e+06 44.9207 3.46148e-07 4.08023e-06 609597 1.29773e+08
2.89188 48.7786 0.0178292 3.18498e-07 8.46557e+06 48.6924 3.17935e-07 3.55373e-06 758715 1.53152e+08
3.05605 52.6937 0.0210412 2.9154e-07 9.98773e+06 52.6053 2.91051e-07 3.09304e-06 941411 1.80743e+08
3.22953 56.7491 0.0248319 2.66048e-07 1.1797e+07 56.6534 2.65599e-07 2.69025e-06 1.16665e+06 2.13304e+08
3.41286 61.135 0.0293054 2.42858e-07 1.39144e+07 61.031 2.42445e-07 2.33837e-06 1.44512e+06 2.51731e+08
3.6066 65.5944 0.0345848 2.20796e-07 1.64163e+07 65.4873 2.20435e-07 2.0312e-06 1.78449e+06 2.97081e+08
3.81134 70.3479 0.0408154 2.00649e-07 1.93821e+07 70.2317 2.00318e-07 1.76327e-06 2.20557e+06 3.50601e+08
4.0277 75.3316 0.0481684 1.82065e-07 2.28754e+07 75.2078 1.81765e-07 1.52972e-06 2.72259e+06 4.13763e+08
4.25634 80.4303 0.056846 1.64714e-07 2.69929e+07 80.2975 1.64442e-07 1.32631e-06 3.35224e+06 4.88304e+08
4.49796 85.8113 0.067087 1.48907e-07 3.18542e+07 85.6692 1.48661e-07 1.14926e-06 4.1273e+06 5.76273e+08
4.7533 91.4481 0.0791729 1.34465e-07 3.75892e+07 91.2988 1.34245e-07 9.95263e-07 5.07848e+06 6.8009e+08
5.02313 97.3436 0.0934361 1.21284e-07 4.43706e+07 97.1841 1.21085e-07 8.61414e-07 6.24721e+06 8.0261e+08
5.30828 103.501 0.110269 1.09271e-07 5.23593e+07 103.331 1.09091e-07 7.45152e-07 7.67807e+06 9.47202e+08
5.60962 109.959 0.130134 9.83673e-08 6.1787e+07 109.78 9.82073e-08 6.44232e-07 9.43422e+06 1.11784e+09
5.92807 116.683 0.153578 8.84478e-08 7.29346e+07 116.494 8.83049e-08 5.56685e-07 1.15881e+07 1.31923e+09
6.26459 123.655 0.181246 7.94245e-08 8.60651e+07 123.452 7.92938e-08 4.80786e-07 1.42177e+07 1.55689e+09
6.62021 130.977 0.213898 7.12853e-08 1.01558e+08 130.763 7.11688e-08 4.15026e-07 1.74437e+07 1.83737e+09
6.99602 138.568 0.252432 6.3904e-08 1.1986e+08 138.344 6.3801e-08 3.58083e-07 2.13904e+07 2.16837e+09
7.39317 146.458 0.297908 5.72324e-08 1.41457e+08 146.222 5.71399e-08 3.08803e-07 2.6217e+07 2.55901e+09
7.81286 154.714 0.351577 5.12296e-08 1.66936e+08 154.464 5.11467e-08 2.66181e-07 3.21287e+07 3.02002e+09
8.25637 163.431 0.414914 4.5855e-08 1.97025e+08 163.166 4.57807e-08 2.29336e-07 3.93945e+07 3.56409e+09
8.72507 172.596 0.489662 4.1034e-08 2.32497e+08 172.314 4.0967e-08 1.97503e-07 4.83045e+07 4.20617e+09
9.22037 182.32 0.577876 3.6729e-08 2.74404e+08 182.018 3.66682e-08 1.70014e-07 5.92808e+07 4.96392e+09
9.74378 192.988 0.681982 3.29433e-08 3.2382e+08 192.662 3.28877e-08 1.46289e-07 7.29221e+07 5.85818e+09
10.2969 205.014 0.804843 2.9654e-08 3.82165e+08 204.655 2.9602e-08 1.25822e-07 9.00691e+07 6.91355e+09
10.8814 219.272 0.949838 2.68747e-08 4.51027e+08 218.859 2.68241e-08 1.08175e-07 1.12051e+08 8.15905e+09
11.4992 237.586 1.12095 2.46743e-08 5.32251e+08 237.088 2.46225e-08 9.29669e-08 1.41264e+08 9.62892e+09
12.1519 263.402 1.3229 2.31795e-08 6.28157e+08 262.75 2.3122e-08 7.98658e-08 1.8231e+08 1.13636e+10
12.8418 292.505 1.56122 2.18112e-08 3.82727e+08 302.755 2.25755e-08 6.85852e-08 1.21713e+08 1.34108e+10
13.5708 0 1.84248 0 0 0 0 5.88765e-08 0 1.58268e+10
14.3411 0 2.17441 0 0 0 0 5.05241e-08 0 1.8678e+10
15.1552 0 2.56613 0 0 0 0 4.33417e-08 0 2.20429e+10
16.0156 0 3.02843 0 0 0 0 3.71677e-08 0 2.6014e+10
16.9247 0 3.574 0 0 0 0 3.18628e-08 0 3.07005e+10
17.8855 0 4.21787 0 0 0 0 2.73063e-08 0 3.62312e+10
18.9008 0 4.97773 0 0 0 0 2.33941e-08 0 4.27584e+10
19.9738 0 5.87448 0 0 0 0 2.00364e-08 0 5.04614e+10
21.1076 0 6.93279 0 0 0 0 1.71555e-08 0 5.95522e+10
22.3058 0 8.18175 0 0 0 0 1.46847e-08 0 7.02807e+10
23.5721 0 9.65571 0 0 0 0 1.25662e-08 0 8.29419e+10
24.9102 0 11.3952 0 0 0 0 1.07504e-08 0 9.78842e+10
26.3243 0 13.4481 0 0 0 0 9.19452e-09 0 1.15518e+11
27.8187 0 15.8708 0 0 0 0 7.86182e-09 0 1.36329e+11
29.3979 0 18.73 0 0 0 0 6.72061e-09 0 1.60889e+11
31.0667 0 22.1042 0 0 0 0 5.74366e-09 0 1.89874e+11
32.8303 0 26.0864 0 0 0 0 4.90756e-09 0 2.2408e+11
34.694 0 30.7859 0 0 0 0 4.19221e-09 0 2.64449e+11
36.6634 0 36.3321 0 0 0 0 3.58032e-09 0 3.1209e+11
38.7447 0 42.8774 0 0 0 0 3.05709e-09 0 3.68314e+11
40.9442 0 50.6018 0 0 0 0 2.60976e-09 0 4.34667e+11
43.2685 0 59.7179 0 0 0 0 2.22743e-09 0 5.12973e+11
45.7247 0 70.4762 0 0 0 0 1.90073e-09 0 6.05386e+11
48.3204 0 83.1727 0 0 0 0 1.62163e-09 0 7.14448e+11
51.0634 0 98.1565 0 0 0 0 1.38326e-09 0 8.43158e+11
53.9621 0 115.84 0 0 0 0 1.1797e-09 0 9.95055e+11
57.0254 0 136.709 0 0 0 0 1.00592e-09 0 1.17432e+12
60.2626 0 161.337 0 0 0 0 8.57591e-10 0 1.38587e+12
63.6835 0 190.402 0 0 0 0 7.3101e-10 0 1.63554e+12
67.2987 0 224.704 0 0 0 0 6.23009e-10 0 1.93019e+12
71.1191 0 265.185 0 0 0 0 5.30879e-10 0 2.27792e+12
75.1563 0 312.958 0 0 0 0 4.52303e-10 0 2.68829e+12
79.4227 0 369.339 0 0 0 0 3.85299e-10 0 3.17259e+12
83.9313 0 435.876 0 0 0 0 3.28173e-10 0 3.74415e+12
88.6959 0 514.4 0 0 0 0 2.79476e-10 0 4.41866e+12
93.7309 0 607.071 0 0 0 0 2.37972e-10 0 5.2147e+12
99.0518 0 716.436 0 0 0 0 2.02605e-10 0 6.15414e+12
104.675 0 845.504 0 0 0 0 1.72471e-10 0 7.26283e+12
110.617 0 997.824 0 0 0 0 1.468e-10 0 8.57124e+12
116.896 0 1177.58 0 0 0 0 1.24935e-10 0 1.01154e+13
123.532 0 1389.73 0 0 0 0 1.06313e-10 0 1.19377e+13
130.545 0 1640.09 0 0 0 0 9.04567e-11 0 1.40883e+13
137.955 0 1935.56 0 0 0 0 7.69563e-11 0 1.66263e+13
145.787 0 2284.26 0 0 0 0 6.54636e-11 0 1.96216e+13
154.063 0 2695.77 0 0 0 0 5.56812e-11 0 2.31565e+13
162.808 0 3181.42 0 0 0 0 4.73556e-11 0 2.73282e+13
172.051 0 3754.56 0 0 0 0 4.02708e-11 0 3.22515e+13
181.818 0 4430.96 0 0 0 0 3.42426e-11 0 3.80616e+13
192.139 0 5229.21 0 0 0 0 2.91139e-11 0 4.49186e+13
203.046 0 6171.26 0 0 0 0 2.4751e-11 0 5.30108e+13
214.572 0 7283.03 0 0 0 0 2.10401e-11 0 6.25608e+13
226.753 0 8595.09 0 0 0 0 1.78839e-11 0 7.38313e+13
239.625 0 10143.5 0 0 0 0 1.51999e-11 0 8.71322e+13
253.228 0 11970.9 0 0 0 0 1.29176e-11 0 1.02829e+14
267.603 0 14127.5 0 0 0 0 1.09771e-11 0 1.21354e+14
282.795 0 16672.6 0 0 0 0 9.3274e-12 0 1.43217e+14
298.848 0 19676.2 0 0 0 0 7.925e-12 0 1.69017e+14
315.813 0 23220.9 0 0 0 0 6.73295e-12 0 1.99466e+14
333.741 0 27404.3 0 0 0 0 5.71979e-12 0 2.35401e+14
352.686 0 32341.2 0 0 0 0 4.85874e-12 0 2.77809e+14
372.707 0 38167.6 0 0 0 0 4.12703e-12 0 3.27857e+14
393.865 0 45043.5 0 0 0 0 3.50528e-12 0 3.86921e+14
416.224 0 53158.3 0 0 0 0 2.97701e-12 0 4.56626e+14
439.852 0 62734.9 0 0 0 0 2.52819e-12 0 5.38888e+14
464.821 0 74036.7 0 0 0 0 2.1469e-12 0 6.35971e+14
491.207 0 87374.6 0 0 0 0 1.82301e-12 0 7.50542e+14
519.092 0 103115 0 0 0 0 1.54789e-12 0 8.85755e+14
548.56 0 121692 0 0 0 0 1.31422e-12 0 1.04533e+15
579.7 0 143615 0 0 0 0 1.11576e-12 0 1.23364e+15
612.608 0 169488 0 0 0 0 9.47223e-13 0 1.45589e+15
647.384 0 200021 0 0 0 0 8.041e-13 0 1.71817e+15
684.134 0 236056 0 0 0 0 6.82568e-13 0 2.0277e+15
722.971 0 278582 0 0 0 0 5.79376e-13 0 2.393e+15
764.012 0 328769 0 0 0 0 4.91762e-13 0 2.8241e+15
