0.159811
200
1.0655e+09
8589934592
0.0129181 0 1.58924e-09 0 0 0 0 0.00677225 0 13.6515
0.0136515 0 1.87554e-09 0 0 0 0 0.00688819 0 16.1108
0.0144264 0 2.21343e-09 0 0 0 0 0.00699249 0 19.0132
0.0152454 0 2.61218e-09 0 0 0 0 0.00708412 0 22.4385
0.0161108 0 3.08278e-09 0 0 0 0 0.00716212 0 26.4808
0.0170254 0 3.63815e-09 0 0 0 0 0.00722559 0 31.2514
0.0179919 0 4.29357e-09 0 0 0 0 0.00727371 0 36.8815
0.0190132 0 5.06707e-09 0 0 0 0 0.00730578 0 43.5258
0.0200925 0 5.97991e-09 0 0 0 0 0.00732122 0 51.367
0.0212331 0 7.05721e-09 0 0 0 0 0.00731958 0 60.621
0.0224385 0 8.32858e-09 0 0 0 0 0.00730056 0 71.542
0.0237123 0 9.829e-09 0 0 0 0 0.00726401 0 84.4305
0.0250583 0 1.15997e-08 0 0 0 0 0.00720995 0 99.6408
0.0264808 0 1.36894e-08 0 0 0 0 0.00713857 0 117.591
0.0279841 0 1.61556e-08 0 0 0 0 0.00705021 0 138.776
0.0295727 0 1.90661e-08 0 0 0 0 0.00694538 0 163.777
0.0312514 0 2.25009e-08 0 0 0 0 0.00682475 0 193.281
0.0330255 0 2.65545e-08 0 0 0 0 0.00668915 0 228.102
0.0349003 0 3.13384e-08 0 0 0 0 0.00653951 0 269.195
0.0368815 0 3.69841e-08 0 0 0 0 0.00637693 0 317.691
0.0389751 0 4.36469e-08 0 0 0 0 0.00620256 0 374.924
0.0411876 0 5.151e-08 0 0 0 0 0.00601767 0 442.467
0.0435258 0 6.07896e-08 0 0 0 0 0.00582358 0 522.179
0.0459966 0 7.1741e-08 0 0 0 0 0.00562166 0 616.251
0.0486077 0 8.46654e-08 0 0 0 0 0.0054133 0 727.27
0.051367 0 9.99181e-08 0 0 0 0 0.00519989 0 858.29
0.054283 0 1.17919e-07 0 0 0 0 0.0049828 0 1012.91
0.0573645 0 1.39162e-07 0 0 0 0 0.00476339 0 1195.39
0.060621 0 1.64232e-07 0 0 0 0 0.00454293 0 1410.75
0.0640622 0 1.93819e-07 0 0 0 0 0.00432265 0 1664.89
0.0676989 0 2.28736e-07 0 0 0 0 0.00410371 0 1964.83
0.071542 0 2.69944e-07 0 0 0 0 0.00388717 0 2318.8
0.0756032 0 3.18575e-07 0 0 0 0 0.00367401 0 2736.54
0.079895 0 3.75967e-07 0 0 0 0 0.0034651 0 3229.53
0.0844305 0 4.43698e-07 0 0 0 0 0.00326121 0 3811.34
0.0892234 0 5.23632e-07 0 0 0 0 0.00306301 0 4497.96
0.0942883 0 6.17966e-07 0 0 0 0 0.00287109 0 5308.28
0.0996408 0 7.29294e-07 0 0 0 0 0.00268591 0 6264.59
0.105297 0 8.60678e-07 0 0 0 0 0.00250785 0 7393.17
0.111275 0 1.01573e-06 0 0 0 0 0.00233721 0 8725.07
0.117591 0 1.19872e-06 0 0 0 0 0.00217419 0 10296.9
0.124267 0 1.41467e-06 0 0 0 0 0.00201893 0 12151.9
0.131321 0 1.66953e-06 0 0 0 0 0.00187147 0 14341.1
0.138776 0 1.9703e-06 0 0 0 0 0.00173182 0 16924.7
0.146654 0 2.32525e-06 0 0 0 0 0.00159991 0 19973.8
0.154979 0 2.74415e-06 0 0 0 0 0.00147563 0 23572.1
0.163777 0 3.23852e-06 0 0 0 0 0.00135884 0 27818.7
0.173074 0 3.82195e-06 0 0 0 0 0.00124933 0 32830.3
0.182899 0 4.51048e-06 0 0 0 0 0.00114689 0 38744.7
0.193281 0 5.32305e-06 0 0 0 0 0.00105127 0 45724.7
0.204254 0 6.28202e-06 0 0 0 0 0.000962209 0 53962.1
0.215848 0 7.41374e-06 0 0 0 0 0.000879423 0 63683.5
0.228102 0 8.74934e-06 0 0 0 0 0.000802624 0 75156.3
0.24105 0 1.03256e-05 0 0 0 0 0.000731515 0 88695.9
0.254734 0 1.21857e-05 0 0 0 0 0.000665798 0 104675
0.269195 0 1.4381e-05 0 0 0 0 0.000605173 0 123532
0.284476 0 1.69718e-05 0 0 0 0 0.000549345 0 145787
0.300625 0 2.00293e-05 0 0 0 0 0.000498021 0 172051
0.317691 0 2.36377e-05 0 0 0 0 0.000450916 0 203046
0.335725 0 2.78961e-05 0 0 0 0 0.000407755 0 239625
0.354784 0 3.29216e-05 0 0 0 0 0.000368269 0 282795
0.374924 0 3.88525e-05 0 0 0 0 0.000332202 0 333741
0.396207 0.609437 4.58519e-05 1.54733e-06 6 0.592494 1.50431e-06 0.000299307 0.0310182 393865
0.418699 0 5.41123e-05 0 0 0 0 0.00026935 0 464821
0.442467 0 6.38607e-05 0 0 0 0 0.000242108 0 548560
0.467585 0 7.53654e-05 0 0 0 0 0.00021737 0 647384
0.494129 0 8.89427e-05 0 0 0 0 0.000194938 0 764012
0.522179 0 0.000104966 0 0 0 0 0.000174625 0 901651
0.551822 0 0.000123876 0 0 0 0 0.000156255 0 1.06409e+06
0.583147 6.3415 0.000146192 5.04983e-06 12 6.67446 5.31498e-06 0.000139664 0.433884 1.25578e+06
0.616251 0 0.000172529 0 0 0 0 0.0001247 0 1.48202e+06
0.651234 0 0.000203611 0 0 0 0 0.00011122 0 1.74901e+06
0.688203 23.9326 0.000240292 1.15947e-05 8 23.3372 1.13063e-05 9.90935e-05 0.936065 2.06409e+06
0.72727 0 0.000283581 0 0 0 0 8.81969e-05 0 2.43595e+06
0.768555 0 0.000334669 0 0 0 0 7.84179e-05 0 2.87479e+06
0.812184 0.229245 0.000394961 6.75703e-08 6 0.234146 6.9015e-08 6.96525e-05 0.00582064 3.39269e+06
0.85829 0 0.000466114 0 0 0 0 6.1805e-05 0 4.00389e+06
0.907013 0.22716 0.000550086 4.80741e-08 24 0.231518 4.89965e-08 5.47875e-05 0.0210592 4.7252e+06
0.958501 0.896191 0.000649185 1.6071e-07 24 0.843698 1.51296e-07 4.85194e-05 0.0794946 5.57646e+06
1.01291 0 0.000766138 0 0 0 0 4.29272e-05 0 6.58107e+06
1.07041 0 0.00090416 0 0 0 0 3.79435e-05 0 7.76667e+06
1.13118 1.19156 0.00106705 1.3e-07 12 1.17692 1.28403e-07 3.3507e-05 0.0465574 9.16586e+06
1.19539 1.14953 0.00125928 1.0627e-07 30 1.12583 1.04079e-07 2.9562e-05 0.107844 1.08171e+07
1.26325 7.57641 0.00148614 5.93491e-07 24 7.46241 5.8456e-07 2.60578e-05 0.546622 1.27658e+07
1.33496 18.3955 0.00175387 1.22102e-06 24 18.4359 1.22371e-06 2.29484e-05 1.27697 1.50656e+07
1.41075 5.87787 0.00206984 3.30593e-07 32 6.04449 3.39965e-07 2.01923e-05 0.523912 1.77798e+07
1.49083 0.63325 0.00244272 3.01794e-08 48 0.61975 2.9536e-08 1.77518e-05 0.0816039 2.09828e+07
1.57546 0.100952 0.00288279 4.07674e-09 6 0.0961292 3.88198e-09 1.55929e-05 0.0015687 2.4763e+07
1.66489 0.627474 0.00340213 2.14712e-08 84 0.608305 2.08152e-08 1.3685e-05 0.131792 2.92241e+07
1.75941 2.4452 0.00401503 7.08984e-08 48 2.46302 7.1415e-08 1.20007e-05 0.283577 3.44889e+07
1.85928 0.413081 0.00473835 1.01489e-08 72 0.415977 1.022e-08 1.05151e-05 0.0694924 4.07021e+07
1.96483 0.787813 0.00559198 1.64009e-08 54 0.766885 1.59652e-08 9.20606e-06 0.0962028 4.80347e+07
2.07637 9.02534 0.00659939 1.5921e-07 104 9.02222 1.59155e-07 8.05366e-06 2.05594 5.66883e+07
2.19424 0.364152 0.00778828 5.44317e-09 120 0.368391 5.50652e-09 7.04008e-06 0.0927803 6.69008e+07
2.3188 1.85309 0.00919136 2.34708e-08 156 1.77032 2.24224e-08 6.1494e-06 0.595415 7.89532e+07
2.45043 0.755631 0.0108472 8.10964e-09 126 0.749248 8.04113e-09 5.36741e-06 0.190374 9.31768e+07
2.58954 0.84707 0.0128014 7.70323e-09 192 0.857717 7.80006e-09 4.68145e-06 0.315932 1.09963e+08
2.73654 3.94514 0.0151076 3.04003e-08 152 4.07777 3.14223e-08 4.08023e-06 1.1325 1.29773e+08
2.89188 3.97058 0.0178292 2.59257e-08 378 4.06467 2.65401e-08 3.55373e-06 2.75764 1.53152e+08
3.05605 1.41904 0.0210412 7.85116e-09 264 1.39429 7.71421e-09 3.09304e-06 0.67012 1.80743e+08
3.22953 0.410906 0.0248319 1.92639e-09 366 0.406312 1.90485e-09 2.69025e-06 0.262079 2.13304e+08
3.41286 0.844381 0.0293054 3.3543e-09 428 0.812686 3.22839e-09 2.33837e-06 0.613948 2.51731e+08
3.6066 3.48127 0.0345848 1.17182e-08 486 3.36982 1.13431e-08 2.0312e-06 2.80379 2.97081e+08
3.81134 0.967918 0.0408154 2.76074e-09 600 0.965256 2.75314e-09 1.76327e-06 0.939417 3.50601e+08
4.0277 0.810511 0.0481684 1.95888e-09 738 0.796219 1.92433e-09 1.52972e-06 0.945042 4.13763e+08
4.25634 1.36504 0.056846 2.79548e-09 824 1.40447 2.87622e-09 1.32631e-06 1.73676 4.88304e+08
4.49796 2.91958 0.067087 5.06631e-09 954 2.94007 5.10187e-09 1.14926e-06 4.20556 5.76273e+08
4.7533 0.782922 0.0791729 1.1512e-09 1094 0.771583 1.13453e-09 9.95263e-07 1.26541 6.8009e+08
5.02313 0.665243 0.0934361 8.2885e-10 1332 0.666583 8.30519e-10 8.61414e-07 1.28165 8.0261e+08
5.30828 2.52114 0.110269 2.66167e-09 1614 2.54836 2.69041e-09 7.45152e-07 5.76517 9.47202e+08
5.60962 1.3248 0.130134 1.18514e-09 1850 1.29295 1.15665e-09 6.44232e-07 3.40329 1.11784e+09
5.92807 1.84892 0.153578 1.40152e-09 2238 1.78525 1.35325e-09 5.56685e-07 5.63442 1.31923e+09
6.26459 1.04351 0.181246 6.70255e-10 2546 1.05496 6.7761e-10 4.80786e-07 3.54933 1.55689e+09
6.62021 0.692559 0.213898 3.7693e-10 3264 0.692488 3.76892e-10 4.15026e-07 2.9644 1.83737e+09
6.99602 1.80583 0.252432 8.32807e-10 3506 1.85005 8.532e-10 3.58083e-07 8.15404 2.16837e+09
7.39317 1.12274 0.297908 4.3874e-10 4506 1.13113 4.4202e-10 3.08803e-07 6.40201 2.55901e+09
7.81286 1.70687 0.351577 5.65185e-10 5018 1.74068 5.76378e-10 2.66181e-07 10.6548 3.02002e+09
8.25637 1.68104 0.414914 4.7166e-10 5852 1.64131 4.60513e-10 2.29336e-07 12.0354 3.56409e+09
8.72507 1.36605 0.489662 3.24773e-10 7362 1.35833 3.22937e-10 1.97503e-07 12.106 4.20617e+09
9.22037 1.71453 0.577876 3.45398e-10 8306 1.70137 3.42748e-10 1.70014e-07 16.8743 4.96392e+09
9.74378 1.18575 0.681982 2.02409e-10 9698 1.18679 2.02586e-10 1.46289e-07 13.4184 5.85818e+09
10.2969 1.85688 0.804843 2.68585e-10 11816 1.8714 2.70686e-10 1.25822e-07 25.2229 6.91355e+09
10.8814 1.77663 0.949838 2.1775e-10 13682 1.77683 2.17774e-10 1.08175e-07 27.5409 8.15905e+09
11.4992 1.8947 1.12095 1.96772e-10 16152 1.88118 1.95368e-10 9.29669e-08 34.187 9.62892e+09
12.1519 1.98542 1.3229 1.74718e-10 19472 1.96492 1.72914e-10 7.98658e-08 42.5978 1.13636e+10
12.8418 1.76526 1.56122 1.3163e-10 22670 1.76525 1.31629e-10 6.85852e-08 43.5086 1.34108e+10
13.5708 2.23353 1.84248 1.41123e-10 26224 2.24078 1.41582e-10 5.88765e-08 62.8573 1.58268e+10
14.3411 2.3369 2.17441 1.25115e-10 31640 2.3448 1.25538e-10 5.05241e-08 78.3517 1.8678e+10
15.1552 2.61857 2.56613 1.18794e-10 37484 2.61842 1.18788e-10 4.33417e-08 102.739 2.20429e+10
16.0156 2.87115 3.02843 1.1037e-10 43856 2.87573 1.10546e-10 3.71677e-08 130.23 2.6014e+10
16.9247 3.48513 3.574 1.1352e-10 51362 3.48065 1.13375e-10 3.18628e-08 182.992 3.07005e+10
17.8855 3.85976 4.21787 1.06531e-10 61636 3.84402 1.06097e-10 2.73063e-08 240.463 3.62312e+10
18.9008 4.50199 4.97773 1.05289e-10 72218 4.48752 1.04951e-10 2.33941e-08 325.028 4.27584e+10
19.9738 5.38806 5.87448 1.06776e-10 84586 5.36741 1.06367e-10 2.00364e-08 450.767 5.04614e+10
21.1076 6.10922 6.93279 1.02586e-10 100708 6.09731 1.02386e-10 1.71555e-08 602.21 5.95522e+10
22.3058 7.13667 8.18175 1.01545e-10 118712 7.11913 1.01296e-10 1.46847e-08 820.901 7.02807e+10
23.5721 8.2796 9.65571 9.98241e-11 140410 8.25581 9.95373e-11 1.25662e-08 1115.4 8.29419e+10
24.9102 9.41847 11.3952 9.62205e-11 164374 9.38848 9.59141e-11 1.07504e-08 1471.22 9.78842e+10
26.3243 10.81 13.4481 9.35787e-11 194680 10.7793 9.33126e-11 9.19452e-09 1981.39 1.15518e+11
27.8187 12.4055 15.8708 9.09964e-11 230196 12.3697 9.07339e-11 7.86182e-09 2664.4 1.36329e+11
29.3979 14.0376 18.73 8.72498e-11 271156 13.9997 8.70146e-11 6.72061e-09 3520.26 1.60889e+11
31.0667 16.0219 22.1042 8.43816e-11 321076 15.9711 8.41144e-11 5.74366e-09 4717.01 1.89874e+11
32.8303 18.1665 26.0864 8.10713e-11 377436 18.1172 8.08514e-11 4.90756e-09 6235.12 2.2408e+11
34.694 20.8085 30.7859 7.86861e-11 447594 20.7484 7.84591e-11 4.19221e-09 8401.17 2.64449e+11
36.6634 23.8761 36.3321 7.6504e-11 525078 23.8067 7.62816e-11 3.58032e-09 11219.8 3.1209e+11
38.7447 27.3828 42.8774 7.43465e-11 621924 27.2988 7.41182e-11 3.05709e-09 15124.8 3.68314e+11
40.9442 31.6527 50.6018 7.28207e-11 732630 31.5568 7.25999e-11 2.60976e-09 20442.7 4.34667e+11
43.2685 36.6298 59.7179 7.14069e-11 865596 36.522 7.11968e-11 2.22743e-09 27749.2 5.12973e+11
45.7247 42.3823 70.4762 7.00086e-11 1.02168e+06 42.2549 6.97982e-11 1.90073e-09 37630.8 6.05386e+11
48.3204 49.1407 83.1727 6.87814e-11 1.20544e+06 48.9845 6.85627e-11 1.62163e-09 51128.5 7.14448e+11
51.0634 57.0757 98.1565 6.76928e-11 1.42103e+06 56.8988 6.74829e-11 1.38326e-09 69541.4 8.43158e+11
53.9621 66.2535 115.84 6.65827e-11 1.67997e+06 66.0502 6.63784e-11 1.1797e-09 94817.8 9.95055e+11
57.0254 77.0269 136.709 6.55929e-11 1.98018e+06 76.7826 6.53849e-11 1.00592e-09 129121 1.17432e+12
60.2626 89.8659 161.337 6.48442e-11 2.33957e+06 89.5788 6.46371e-11 8.57591e-10 176900 1.38587e+12
63.6835 104.959 190.402 6.41739e-11 2.75676e+06 104.622 6.39681e-11 7.3101e-10 242011 1.63554e+12
67.2987 122.655 224.704 6.35453e-11 3.25638e+06 122.264 6.3343e-11 6.23009e-10 332143 1.93019e+12
71.1191 143.514 265.185 6.30024e-11 3.84387e+06 143.06 6.28031e-11 5.30879e-10 456174 2.27792e+12
75.1563 168.194 312.958 6.25655e-11 4.53277e+06 167.668 6.23698e-11 4.52303e-10 627001 2.68829e+12
79.4227 197.147 369.339 6.21406e-11 5.35083e+06 196.532 6.19468e-11 3.85299e-10 862974 3.17259e+12
83.9313 231.734 435.876 6.18924e-11 6.32174e+06 230.994 6.16948e-11 3.28173e-10 1.19226e+06 3.74415e+12
88.6959 272.148 514.4 6.15907e-11 7.44986e+06 271.264 6.13904e-11 2.79476e-10 1.64179e+06 4.41866e+12
93.7309 320.249 607.071 6.14127e-11 8.79764e+06 319.218 6.12151e-11 2.37972e-10 2.27038e+06 5.2147e+12
99.0518 376.717 716.436 6.12135e-11 1.03827e+07 375.487 6.10138e-11 2.02605e-10 3.13695e+06 6.15414e+12
104.675 457.158 845.504 6.29449e-11 1.22515e+07 456.393 6.28396e-11 1.72471e-10 4.47131e+06 7.26283e+12
110.617 522.596 997.824 6.09708e-11 1.44573e+07 520.866 6.0769e-11 1.468e-10 6.00459e+06 8.57124e+12
116.896 615.999 1177.58 6.08973e-11 1.70664e+07 613.962 6.06959e-11 1.24935e-10 8.31872e+06 1.01154e+13
123.532 726.261 1389.73 6.08376e-11 2.0139e+07 723.85 6.06357e-11 1.06313e-10 1.15245e+07 1.19377e+13
130.545 861.138 1640.09 6.11243e-11 2.37643e+07 858.512 6.0938e-11 9.04567e-11 1.60583e+07 1.40883e+13
137.955 1010 1935.56 6.0747e-11 2.80503e+07 1006.67 6.05465e-11 7.69563e-11 2.2142e+07 1.66263e+13
145.787 1191.95 2284.26 6.07469e-11 3.30981e+07 1187.98 6.05444e-11 6.54636e-11 3.07134e+07 1.96216e+13
154.063 1409.42 2695.77 6.08651e-11 3.90634e+07 1404.74 6.06628e-11 5.56812e-11 4.27002e+07 2.31565e+13
162.808 1660.14 3181.42 6.07481e-11 4.61057e+07 1654.57 6.05445e-11 4.73556e-11 5.91447e+07 2.73282e+13
172.051 1960.34 3754.56 6.07828e-11 5.44046e+07 1953.75 6.05788e-11 4.02708e-11 8.21157e+07 3.22515e+13
181.818 2317.42 4430.96 6.08861e-11 6.42064e+07 2309.7 6.06831e-11 3.42426e-11 1.14164e+08 3.80616e+13
192.139 2738.08 5229.21 6.09565e-11 7.57748e+07 2728.87 6.07515e-11 2.91139e-11 1.58652e+08 4.49186e+13
203.046 3238.85 6171.26 6.1098e-11 8.94213e+07 3227.97 6.08927e-11 2.4751e-11 2.20737e+08 5.30108e+13
214.572 3832.53 7283.03 6.12609e-11 1.05538e+08 3819.56 6.10535e-11 2.10401e-11 3.07288e+08 6.25608e+13
226.753 4540.33 8595.09 6.14961e-11 1.24552e+08 4524.92 6.12874e-11 1.78839e-11 4.28287e+08 7.38313e+13
239.625 5385.12 10143.5 6.1804e-11 1.46987e+08 5366.71 6.15927e-11 1.51999e-11 5.97661e+08 8.71322e+13
253.228 6399.71 11970.9 6.22363e-11 1.7347e+08 6377.58 6.20211e-11 1.29176e-11 8.35768e+08 1.02829e+14
267.603 7617.08 14127.5 6.27673e-11 2.04703e+08 7590.62 6.25492e-11 1.09771e-11 1.17049e+09 1.21354e+14
282.795 9096.18 16672.6 6.35135e-11 2.4161e+08 9064.13 6.32897e-11 9.3274e-12 1.6452e+09 1.43217e+14
298.848 10902.8 19676.2 6.45069e-11 2.85122e+08 10863.7 6.42755e-11 7.925e-12 2.3208e+09 1.69017e+14
315.813 13142.8 23220.9 6.58898e-11 3.36491e+08 13094.7 6.56489e-11 6.73295e-12 3.29296e+09 1.99466e+14
333.741 15956.6 27404.3 6.77847e-11 3.97115e+08 15895.9 6.7527e-11 5.71979e-12 4.70617e+09 2.35401e+14
352.686 19586.4 32341.2 7.0503e-11 4.68637e+08 19508.5 7.02229e-11 4.85874e-12 6.80019e+09 2.77809e+14
372.707 24401.1 38167.6 7.4426e-11 5.53074e+08 24298.4 7.41129e-11 4.12703e-12 9.97402e+09 3.27857e+14
393.865 31047.7 45043.5 8.0243e-11 6.52716e+08 30906.8 7.98789e-11 3.50528e-12 1.4942e+10 3.86921e+14
416.224 36642.1 53158.3 8.02453e-11 2.2184e+08 38763.9 8.4892e-11 2.97701e-12 5.97969e+09 4.56626e+14
439.852 0 62734.9 0 0 0 0 2.52819e-12 0 5.38888e+14
464.821 0 74036.7 0 0 0 0 2.1469e-12 0 6.35971e+14
491.207 0 87374.6 0 0 0 0 1.82301e-12 0 7.50542e+14
519.092 0 103115 0 0 0 0 1.54789e-12 0 8.85755e+14
548.56 0 121692 0 0 0 0 1.31422e-12 0 1.04533e+15
579.7 0 143615 0 0 0 0 1.11576e-12 0 1.23364e+15
612.608 0 169488 0 0 0 0 9.47223e-13 0 1.45589e+15
647.384 0 200021 0 0 0 0 8.041e-13 0 1.71817e+15
684.134 0 236056 0 0 0 0 6.82568e-13 0 2.0277e+15
722.971 0 278582 0 0 0 0 5.79376e-13 0 2.393e+15
764.012 0 328769 0 0 0 0 4.91762e-13 0 2.8241e+15
0.159811
200
1.0655e+09
8589934592
0.0129181 9.00291e-05 1.58924e-09 6.59483e-06 6 8.92049e-05 6.53446e-06 0.00677225 0.00584281 13.6515
0.0136515 0 1.87554e-09 0 0 0 0 0.00688819 0 16.1108
0.0144264 0 2.21343e-09 0 0 0 0 0.00699249 0 19.0132
0.0152454 0 2.61218e-09 0 0 0 0 0.00708412 0 22.4385
0.0161108 0 3.08278e-09 0 0 0 0 0.00716212 0 26.4808
0.0170254 0 3.63815e-09 0 0 0 0 0.00722559 0 31.2514
0.0179919 0.000196705 4.29357e-09 5.33343e-06 12 0.000196451 5.32656e-06 0.00727371 0.00879898 36.8815
0.0190132 0 5.06707e-09 0 0 0 0 0.00730578 0 43.5258
0.0200925 0 5.97991e-09 0 0 0 0 0.00732122 0 51.367
0.0212331 0.000184284 7.05721e-09 3.03993e-06 8 0.000184123 3.03729e-06 0.00731958 0.00332252 60.621
0.0224385 0 8.32858e-09 0 0 0 0 0.00730056 0 71.542
0.0237123 0 9.829e-09 0 0 0 0 0.00726401 0 84.4305
0.0250583 0.0011753 1.15997e-08 1.17954e-05 6 0.00117475 1.17898e-05 0.00720995 0.00981593 99.6408
0.0264808 0 1.36894e-08 0 0 0 0 0.00713857 0 117.591
0.0279841 0.000727346 1.61556e-08 5.24116e-06 24 0.000726599 5.23578e-06 0.00705021 0.0178417 138.776
0.0295727 0 1.90661e-08 0 0 0 0 0.00694538 0 163.777
0.0312514 0.00129488 2.25009e-08 6.69947e-06 24 0.00130146 6.73349e-06 0.00682475 0.0235594 193.281
0.0330255 0 2.65545e-08 0 0 0 0 0.00668915 0 228.102
0.0349003 0.0018089 3.13384e-08 6.71966e-06 12 0.00179441 6.66586e-06 0.00653951 0.0123306 269.195
0.0368815 0.00155517 3.69841e-08 4.89523e-06 30 0.00153861 4.84311e-06 0.00637693 0.0230294 317.691
0.0389751 0.00184421 4.36469e-08 4.91889e-06 24 0.00182524 4.86829e-06 0.00620256 0.019033 374.924
0.0411876 0.00116685 5.151e-08 2.63713e-06 24 0.00115892 2.61922e-06 0.00601767 0.0105176 442.467
0.0435258 0.0025318 6.07896e-08 4.84852e-06 8 0.0025316 4.84815e-06 0.00582358 0.00666054 522.179
0.0459966 0.00321965 7.1741e-08 5.22458e-06 72 0.00319421 5.18329e-06 0.00562166 0.0669143 616.251
0.0486077 0 8.46654e-08 0 0 0 0 0.0054133 0 727.27
0.051367 0.00477391 9.99181e-08 5.56211e-06 54 0.00475876 5.54447e-06 0.00519989 0.0577616 858.29
0.054283 0.00370825 1.17919e-07 3.66097e-06 60 0.00372379 3.67632e-06 0.0049828 0.0440833 1012.91
0.0573645 0.00366939 1.39162e-07 3.06961e-06 96 0.00366002 3.06177e-06 0.00476339 0.0618641 1195.39
0.060621 0.00422763 1.64232e-07 2.99674e-06 24 0.00417036 2.95614e-06 0.00454293 0.0158316 1410.75
0.0640622 0.0074354 1.93819e-07 4.46599e-06 134 0.0074395 4.46845e-06 0.00432265 0.138443 1664.89
0.0676989 0.00711479 2.28736e-07 3.62107e-06 120 0.00708215 3.60446e-06 0.00410371 0.105887 1964.83
0.071542 0.00649049 2.69944e-07 2.79907e-06 108 0.00642028 2.76879e-06 0.00388717 0.0777685 2318.8
0.0756032 0.0094215 3.18575e-07 3.44285e-06 174 0.00937235 3.42489e-06 0.00367401 0.163052 2736.54
0.079895 0.0100319 3.75967e-07 3.1063e-06 168 0.00993738 3.07703e-06 0.0034651 0.150604 3229.53
0.0844305 0.00855341 4.43698e-07 2.2442e-06 168 0.00859622 2.25543e-06 0.00326121 0.115609 3811.34
0.0892234 0.00960692 5.23632e-07 2.13584e-06 290 0.00956662 2.12688e-06 0.00306301 0.202217 4497.96
0.0942883 0.0124268 6.17966e-07 2.34102e-06 288 0.0123957 2.33516e-06 0.00287109 0.234828 5308.28
0.0996408 0.0112578 7.29294e-07 1.79706e-06 366 0.0111633 1.78197e-06 0.00268591 0.244879 6264.59
0.105297 0.0122098 8.60678e-07 1.65149e-06 420 0.0121256 1.64011e-06 0.00250785 0.276582 7393.17
0.111275 0.0129002 1.01573e-06 1.47852e-06 398 0.0128646 1.47444e-06 0.00233721 0.251774 8725.07
0.117591 0.0153215 1.19872e-06 1.48797e-06 624 0.0153532 1.49105e-06 0.00217419 0.427053 10296.9
0.124267 0.0169388 1.41467e-06 1.39392e-06 642 0.016917 1.39212e-06 0.00201893 0.443255 12151.9
0.131321 0.0214261 1.66953e-06 1.49403e-06 800 0.0214341 1.49459e-06 0.00187147 0.638655 14341.1
0.138776 0.0193559 1.9703e-06 1.14365e-06 858 0.0194492 1.14916e-06 0.00173182 0.566602 16924.7
0.146654 0.0209043 2.32525e-06 1.04659e-06 1080 0.0210796 1.05536e-06 0.00159991 0.706488 19973.8
0.154979 0.0246973 2.74415e-06 1.04773e-06 1286 0.024868 1.05498e-06 0.00147563 0.913089 23572.1
0.163777 0.0232838 3.23852e-06 8.36984e-07 1650 0.0233265 8.3852e-07 0.00135884 1.01633 27818.7
0.173074 0.0273506 3.82195e-06 8.3309e-07 1778 0.0273543 8.33204e-07 0.00124933 1.18562 32830.3
0.182899 0.0266537 4.51048e-06 6.87931e-07 2112 0.0267182 6.89597e-07 0.00114689 1.26683 38744.7
0.193281 0.0312269 5.32305e-06 6.82933e-07 2570 0.0312727 6.83934e-07 0.00105127 1.66954 45724.7
0.204254 0.034749 6.28202e-06 6.43951e-07 3030 0.0347338 6.43671e-07 0.000962209 2.0278 53962.1
0.215848 0.0344687 7.41374e-06 5.4125e-07 3434 0.034462 5.41145e-07 0.000879423 2.11349 63683.5
0.228102 0.0359276 8.74934e-06 4.78038e-07 4218 0.0359377 4.78173e-07 0.000802624 2.51222 75156.3
0.24105 0.0404493 1.03256e-05 4.56045e-07 4766 0.0404891 4.56493e-07 0.000731515 2.97125 88695.9
0.254734 0.0432349 1.21857e-05 4.1304e-07 6026 0.0432227 4.12924e-07 0.000665798 3.73834 104675
0.269195 0.0452149 1.4381e-05 3.66018e-07 6480 0.0451926 3.65837e-07 0.000605173 3.9192 123532
0.284476 0.0490217 1.69718e-05 3.36256e-07 8162 0.0491361 3.37041e-07 0.000549345 4.99599 145787
0.300625 0.0492676 2.00293e-05 2.86355e-07 9578 0.0493306 2.86721e-07 0.000498021 5.50722 172051
0.317691 0.0547411 2.36377e-05 2.69599e-07 11234 0.0547001 2.69397e-07 0.000450916 6.71672 203046
0.335725 0.0571788 2.78961e-05 2.38618e-07 13344 0.0571507 2.385e-07 0.000407755 7.80889 239625
0.354784 0.0593119 3.29216e-05 2.09735e-07 15464 0.0592772 2.09612e-07 0.000368269 8.80699 282795
0.374924 0.0635703 3.88525e-05 1.90478e-07 18458 0.0635644 1.9046e-07 0.000332202 10.5835 333741
0.396207 0.0666458 4.58519e-05 1.6921e-07 22232 0.0665523 1.68972e-07 0.000299307 12.5686 393865
0.418699 0.0719953 5.41123e-05 1.54888e-07 25628 0.0718425 1.5456e-07 0.00026935 14.7373 464821
0.442467 0.0752026 6.38607e-05 1.37091e-07 30320 0.075069 1.36848e-07 0.000242108 17.1684 548560
0.467585 0.0785893 7.53654e-05 1.21395e-07 35452 0.0784782 1.21224e-07 0.00021737 19.7989 647384
0.494129 0.0816919 8.89427e-05 1.06925e-07 41792 0.0816609 1.06884e-07 0.000194938 22.9232 764012
0.522179 0.0881395 0.000104966 9.77535e-08 49988 0.0881145 9.77258e-08 0.000174625 27.9829 901651
0.551822 0.0921346 0.000123876 8.65857e-08 59110 0.0920758 8.65305e-08 0.000156255 32.7547 1.06409e+06
0.583147 0.0974115 0.000146192 7.75703e-08 69716 0.0972917 7.74749e-08 0.000139664 38.7207 1.25578e+06
0.616251 0.102675 0.000172529 6.92806e-08 82210 0.102512 6.91708e-08 0.0001247 45.6741 1.48202e+06
0.651234 0.10864 0.000203611 6.21153e-08 96722 0.10844 6.20008e-08 0.00011122 54.0181 1.74901e+06
0.688203 0.114342 0.000240292 5.53956e-08 113098 0.114235 5.53437e-08 9.90935e-05 63.2245 2.06409e+06
0.72727 0.119174 0.000283581 4.89233e-08 135190 0.119053 4.88736e-08 8.81969e-05 74.9906 2.43595e+06
0.768555 0.126451 0.000334669 4.39862e-08 158170 0.126337 4.39466e-08 7.84179e-05 88.7208 2.87479e+06
0.812184 0.132456 0.000394961 3.90416e-08 188560 0.132326 3.90032e-08 6.96525e-05 105.692 3.39269e+06
0.85829 0.138979 0.000466114 3.47111e-08 220444 0.13882 3.46712e-08 6.1805e-05 123.806 4.00389e+06
0.907013 0.14612 0.000550086 3.09235e-08 261388 0.145972 3.08921e-08 5.47875e-05 147.534 4.7252e+06
0.958501 0.153736 0.000649185 2.75687e-08 308244 0.153573 2.75396e-08 4.85194e-05 175.144 5.57646e+06
1.01291 0.16259 0.000766138 2.47057e-08 364396 0.162411 2.46785e-08 4.29272e-05 209.719 6.58107e+06
1.07041 0.170174 0.00090416 2.19108e-08 429162 0.169959 2.18831e-08 3.79435e-05 247.823 7.76667e+06
1.13118 0.179878 0.00106705 1.96248e-08 506358 0.179666 1.96016e-08 3.3507e-05 296.57 9.16586e+06
1.19539 0.188751 0.00125928 1.74493e-08 598590 0.188506 1.74266e-08 2.9562e-05 353.324 1.08171e+07
1.26325 0.198669 0.00148614 1.55625e-08 704844 0.198412 1.55424e-08 2.60578e-05 420.955 1.27658e+07
1.33496 0.208483 0.00175387 1.38383e-08 834620 0.208204 1.38198e-08 2.29484e-05 503.291 1.50656e+07
1.41075 0.21938 0.00206984 1.23388e-08 981444 0.219106 1.23234e-08 2.01923e-05 599.724 1.77798e+07
1.49083 0.230874 0.00244272 1.1003e-08 1.15998e+06 0.230576 1.09888e-08 1.77518e-05 718.984 2.09828e+07
1.57546 0.243945 0.00288279 9.8512e-09 1.36931e+06 0.243614 9.83785e-09 1.55929e-05 865.098 2.4763e+07
1.66489 0.256774 0.00340213 8.7864e-09 1.61652e+06 0.256401 8.77364e-09 1.3685e-05 1037.88 2.92241e+07
1.75941 0.270445 0.00401503 7.84151e-09 1.90601e+06 0.270059 7.83032e-09 1.20007e-05 1245.43 3.44889e+07
1.85928 0.285593 0.00473835 7.01666e-09 2.24913e+06 0.285203 7.00709e-09 1.05151e-05 1500.83 4.07021e+07
1.96483 0.300532 0.00559198 6.25656e-09 2.65744e+06 0.30008 6.24716e-09 9.20606e-06 1806.03 4.80347e+07
2.07637 0.317689 0.00659939 5.60414e-09 3.13125e+06 0.317232 5.59607e-09 8.05366e-06 2178.88 5.66883e+07
2.19424 0.335505 0.00778828 5.01495e-09 3.69915e+06 0.335036 5.00795e-09 7.04008e-06 2635.06 6.69008e+07
2.3188 0.354495 0.00919136 4.48994e-09 4.36472e+06 0.353975 4.48335e-09 6.1494e-06 3186.87 7.89532e+07
2.45043 0.375178 0.0108472 4.02652e-09 5.14913e+06 0.374616 4.02048e-09 5.36741e-06 3862.77 9.31768e+07
2.58954 0.397842 0.0128014 3.61796e-09 6.07894e+06 0.397232 3.61242e-09 4.68145e-06 4697.98 1.09963e+08
2.73654 0.421049 0.0151076 3.24451e-09 7.17304e+06 0.420412 3.2396e-09 4.08023e-06 5703.84 1.29773e+08
2.89188 0.446792 0.0178292 2.91731e-09 8.46557e+06 0.446111 2.91286e-09 3.55373e-06 6949.51 1.53152e+08
3.05605 0.474522 0.0210412 2.6254e-09 9.98773e+06 0.473817 2.6215e-09 3.09304e-06 8477.67 1.80743e+08
3.22953 0.504082 0.0248319 2.36321e-09 1.1797e+07 0.50329 2.3595e-09 2.69025e-06 10362.9 2.13304e+08
3.41286 0.536496 0.0293054 2.13123e-09 1.39144e+07 0.535629 2.12778e-09 2.33837e-06 12681.8 2.51731e+08
3.6066 0.571354 0.0345848 1.92322e-09 1.64163e+07 0.570447 1.92017e-09 2.0312e-06 15543.6 2.97081e+08
3.81134 0.609158 0.0408154 1.73747e-09 1.93821e+07 0.608169 1.73465e-09 1.76327e-06 19098.5 3.50601e+08
4.0277 0.650278 0.0481684 1.57162e-09 2.28754e+07 0.649214 1.56905e-09 1.52972e-06 23501.9 4.13763e+08
4.25634 0.694868 0.056846 1.42302e-09 2.69929e+07 0.693702 1.42064e-09 1.32631e-06 28961.3 4.88304e+08
4.49796 0.743846 0.067087 1.29079e-09 3.18542e+07 0.742576 1.28858e-09 1.14926e-06 35777.1 5.76273e+08
4.7533 0.796874 0.0791729 1.17172e-09 3.75892e+07 0.795503 1.1697e-09 9.95263e-07 44253.6 6.8009e+08
5.02313 0.854611 0.0934361 1.06479e-09 4.43706e+07 0.853138 1.06296e-09 8.61414e-07 54846.3 8.0261e+08
5.30828 0.91752 0.110269 9.68663e-10 5.23593e+07 0.9159 9.66953e-10 7.45152e-07 68064.6 9.47202e+08
5.60962 0.98683 0.130134 8.82798e-10 6.1787e+07 0.985067 8.81221e-10 6.44232e-07 84667.4 1.11784e+09
5.92807 1.0623 0.153578 8.05248e-10 7.29346e+07 1.06036 8.03771e-10 5.56685e-07 105500 1.31923e+09
6.26459 1.14517 0.181246 7.35554e-10 8.60651e+07 1.14304 7.34184e-10 4.80786e-07 131671 1.55689e+09
6.62021 1.23711 0.213898 6.73305e-10 1.01558e+08 1.23478 6.72037e-10 4.15026e-07 164760 1.83737e+09
6.99602 1.33798 0.252432 6.17044e-10 1.1986e+08 1.33544 6.15871e-10 3.58083e-07 206541 2.16837e+09
7.39317 1.45041 0.297908 5.66785e-10 1.41457e+08 1.44759 5.65684e-10 3.08803e-07 259633 2.55901e+09
7.81286 1.57468 0.351577 5.21415e-10 1.66936e+08 1.57157 5.20384e-10 2.66181e-07 327006 3.02002e+09
8.25637 1.71386 0.414914 4.80869e-10 1.97025e+08 1.71042 4.79904e-10 2.29336e-07 413120 3.56409e+09
8.72507 1.86973 0.489662 4.44522e-10 2.32497e+08 1.86589 4.43609e-10 1.97503e-07 523283 4.20617e+09
9.22037 2.04569 0.577876 4.12113e-10 2.74404e+08 2.0414 4.11247e-10 1.70014e-07 665153 4.96392e+09
9.74378 2.24686 0.681982 3.83543e-10 3.2382e+08 2.24201 3.82714e-10 1.46289e-07 848997 5.85818e+09
10.2969 2.48177 0.804843 3.58972e-10 3.82165e+08 2.47617 3.58161e-10 1.25822e-07 1.09032e+06 6.91355e+09
10.8814 2.76678 0.949838 3.39106e-10 4.51027e+08 2.76012 3.3829e-10 1.08175e-07 1.41387e+06 8.15905e+09
11.4992 3.12882 1.12095 3.24939e-10 5.32251e+08 3.12053 3.24079e-10 9.29669e-08 1.86033e+06 9.62892e+09
12.1519 3.62441 1.3229 3.18949e-10 6.28157e+08 3.61343 3.17983e-10 7.98658e-08 2.50859e+06 1.13636e+10
12.8418 4.15561 1.56122 3.09871e-10 3.82727e+08 4.30058 3.20681e-10 6.85852e-08 1.72917e+06 1.34108e+10
13.5708 0 1.84248 0 0 0 0 5.88765e-08 0 1.58268e+10
14.3411 0 2.17441 0 0 0 0 5.05241e-08 0 1.8678e+10
15.1552 0 2.56613 0 0 0 0 4.33417e-08 0 2.20429e+10
16.0156 0 3.02843 0 0 0 0 3.71677e-08 0 2.6014e+10
16.9247 0 3.574 0 0 0 0 3.18628e-08 0 3.07005e+10
17.8855 0 4.21787 0 0 0 0 2.73063e-08 0 3.62312e+10
18.9008 0 4.97773 0 0 0 0 2.33941e-08 0 4.27584e+10
19.9738 0 5.87448 0 0 0 0 2.00364e-08 0 5.04614e+10
21.1076 0 6.93279 0 0 0 0 1.71555e-08 0 5.95522e+10
22.3058 0 8.18175 0 0 0 0 1.46847e-08 0 7.02807e+10
23.5721 0 9.65571 0 0 0 0 1.25662e-08 0 8.29419e+10
24.9102 0 11.3952 0 0 0 0 1.07504e-08 0 9.78842e+10
26.3243 0 13.4481 0 0 0 0 9.19452e-09 0 1.15518e+11
27.8187 0 15.8708 0 0 0 0 7.86182e-09 0 1.36329e+11
29.3979 0 18.73 0 0 0 0 6.72061e-09 0 1.60889e+11
31.0667 0 22.1042 0 0 0 0 5.74366e-09 0 1.89874e+11
32.8303 0 26.0864 0 0 0 0 4.90756e-09 0 2.2408e+11
34.694 0 30.7859 0 0 0 0 4.19221e-09 0 2.64449e+11
36.6634 0 36.3321 0 0 0 0 3.58032e-09 0 3.1209e+11
38.7447 0 42.8774 0 0 0 0 3.05709e-09 0 3.68314e+11
40.9442 0 50.6018 0 0 0 0 2.60976e-09 0 4.34667e+11
43.2685 0 59.7179 0 0 0 0 2.22743e-09 0 5.12973e+11
45.7247 0 70.4762 0 0 0 0 1.90073e-09 0 6.05386e+11
48.3204 0 83.1727 0 0 0 0 1.62163e-09 0 7.14448e+11
51.0634 0 98.1565 0 0 0 0 1.38326e-09 0 8.43158e+11
53.9621 0 115.84 0 0 0 0 1.1797e-09 0 9.95055e+11
57.0254 0 136.709 0 0 0 0 1.00592e-09 0 1.17432e+12
60.2626 0 161.337 0 0 0 0 8.57591e-10 0 1.38587e+12
63.6835 0 190.402 0 0 0 0 7.3101e-10 0 1.63554e+12
67.2987 0 224.704 0 0 0 0 6.23009e-10 0 1.93019e+12
71.1191 0 265.185 0 0 0 0 5.30879e-10 0 2.27792e+12
75.1563 0 312.958 0 0 0 0 4.52303e-10 0 2.68829e+12
79.4227 0 369.339 0 0 0 0 3.85299e-10 0 3.17259e+12
83.9313 0 435.876 0 0 0 0 3.28173e-10 0 3.74415e+12
88.6959 0 514.4 0 0 0 0 2.79476e-10 0 4.41866e+12
93.7309 0 607.071 0 0 0 0 2.37972e-10 0 5.2147e+12
99.0518 0 716.436 0 0 0 0 2.02605e-10 0 6.15414e+12
104.675 0 845.504 0 0 0 0 1.72471e-10 0 7.26283e+12
110.617 0 997.824 0 0 0 0 1.468e-10 0 8.57124e+12
116.896 0 1177.58 0 0 0 0 1.24935e-10 0 1.01154e+13
123.532 0 1389.73 0 0 0 0 1.06313e-10 0 1.19377e+13
130.545 0 1640.09 0 0 0 0 9.04567e-11 0 1.40883e+13
137.955 0 1935.56 0 0 0 0 7.69563e-11 0 1.66263e+13
145.787 0 2284.26 0 0 0 0 6.54636e-11 0 1.96216e+13
154.063 0 2695.77 0 0 0 0 5.56812e-11 0 2.31565e+13
162.808 0 3181.42 0 0 0 0 4.73556e-11 0 2.73282e+13
172.051 0 3754.56 0 0 0 0 4.02708e-11 0 3.22515e+13
181.818 0 4430.96 0 0 0 0 3.42426e-11 0 3.80616e+13
192.139 0 5229.21 0 0 0 0 2.91139e-11 0 4.49186e+13
203.046 0 6171.26 0 0 0 0 2.4751e-11 0 5.30108e+13
214.572 0 7283.03 0 0 0 0 2.10401e-11 0 6.25608e+13
226.753 0 8595.09 0 0 0 0 1.78839e-11 0 7.38313e+13
239.625 0 10143.5 0 0 0 0 1.51999e-11 0 8.71322e+13
253.228 0 11970.9 0 0 0 0 1.29176e-11 0 1.02829e+14
267.603 0 14127.5 0 0 0 0 1.09771e-11 0 1.21354e+14
282.795 0 16672.6 0 0 0 0 9.3274e-12 0 1.43217e+14
298.848 0 19676.2 0 0 0 0 7.925e-12 0 1.69017e+14
315.813 0 23220.9 0 0 0 0 6.73295e-12 0 1.99466e+14
333.741 0 27404.3 0 0 0 0 5.71979e-12 0 2.35401e+14
352.686 0 32341.2 0 0 0 0 4.85874e-12 0 2.77809e+14
372.707 0 38167.6 0 0 0 0 4.12703e-12 0 3.27857e+14
393.865 0 45043.5 0 0 0 0 3.50528e-12 0 3.86921e+14
416.224 0 53158.3 0 0 0 0 2.97701e-12 0 4.56626e+14
439.852 0 62734.9 0 0 0 0 2.52819e-12 0 5.38888e+14
464.821 0 74036.7 0 0 0 0 2.1469e-12 0 6.35971e+14
491.207 0 87374.6 0 0 0 0 1.82301e-12 0 7.50542e+14
519.092 0 103115 0 0 0 0 1.54789e-12 0 8.85755e+14
548.56 0 121692 0 0 0 0 1.31422e-12 0 1.04533e+15
579.7 0 143615 0 0 0 0 1.11576e-12 0 1.23364e+15
612.608 0 169488 0 0 0 0 9.47223e-13 0 1.45589e+15
647.384 0 200021 0 0 0 0 8.041e-13 0 1.71817e+15
684.134 0 236056 0 0 0 0 6.82568e-13 0 2.0277e+15
722.971 0 278582 0 0 0 0 5.79376e-13 0 2.393e+15
764.012 0 328769 0 0 0 0 4.91762e-13 0 2.8241e+15
