0.0565352
200
1.0655e+09
8589934592
0.0129181 0 1.58924e-09 0 0 0 0 0.00677225 0 13.6515
0.0136515 0 1.87554e-09 0 0 0 0 0.00688819 0 16.1108
0.0144264 0 2.21343e-09 0 0 0 0 0.00699249 0 19.0132
0.0152454 0 2.61218e-09 0 0 0 0 0.00708412 0 22.4385
0.0161108 0 3.08278e-09 0 0 0 0 0.00716212 0 26.4808
0.0170254 0 3.63815e-09 0 0 0 0 0.00722559 0 31.2514
0.0179919 0 4.29357e-09 0 0 0 0 0.00727371 0 36.8815
0.0190132 0 5.06707e-09 0 0 0 0 0.00730578 0 43.5258
0.0200925 0 5.97991e-09 0 0 0 0 0.00732122 0 51.367
0.0212331 0 7.05721e-09 0 0 0 0 0.00731958 0 60.621
0.0224385 0 8.32858e-09 0 0 0 0 0.00730056 0 71.542
0.0237123 0 9.829e-09 0 0 0 0 0.00726401 0 84.4305
0.0250583 0 1.15997e-08 0 0 0 0 0.00720995 0 99.6408
0.0264808 0 1.36894e-08 0 0 0 0 0.00713857 0 117.591
0.0279841 0 1.61556e-08 0 0 0 0 0.00705021 0 138.776
0.0295727 0 1.90661e-08 0 0 0 0 0.00694538 0 163.777
0.0312514 0 2.25009e-08 0 0 0 0 0.00682475 0 193.281
0.0330255 0 2.65545e-08 0 0 0 0 0.00668915 0 228.102
0.0349003 0 3.13384e-08 0 0 0 0 0.00653951 0 269.195
0.0368815 0 3.69841e-08 0 0 0 0 0.00637693 0 317.691
0.0389751 0 4.36469e-08 0 0 0 0 0.00620256 0 374.924
0.0411876 0 5.151e-08 0 0 0 0 0.00601767 0 442.467
0.0435258 0 6.07896e-08 0 0 0 0 0.00582358 0 522.179
0.0459966 0 7.1741e-08 0 0 0 0 0.00562166 0 616.251
0.0486077 0 8.46654e-08 0 0 0 0 0.0054133 0 727.27
0.051367 0 9.99181e-08 0 0 0 0 0.00519989 0 858.29
0.054283 0 1.17919e-07 0 0 0 0 0.0049828 0 1012.91
0.0573645 0 1.39162e-07 0 0 0 0 0.00476339 0 1195.39
0.060621 0 1.64232e-07 0 0 0 0 0.00454293 0 1410.75
0.0640622 0 1.93819e-07 0 0 0 0 0.00432265 0 1664.89
0.0676989 0 2.28736e-07 0 0 0 0 0.00410371 0 1964.83
0.071542 0 2.69944e-07 0 0 0 0 0.00388717 0 2318.8
0.0756032 0 3.18575e-07 0 0 0 0 0.00367401 0 2736.54
0.079895 0 3.75967e-07 0 0 0 0 0.0034651 0 3229.53
0.0844305 0 4.43698e-07 0 0 0 0 0.00326121 0 3811.34
0.0892234 0 5.23632e-07 0 0 0 0 0.00306301 0 4497.96
0.0942883 0 6.17966e-07 0 0 0 0 0.00287109 0 5308.28
0.0996408 0 7.29294e-07 0 0 0 0 0.00268591 0 6264.59
0.105297 0 8.60678e-07 0 0 0 0 0.00250785 0 7393.17
0.111275 0 1.01573e-06 0 0 0 0 0.00233721 0 8725.07
0.117591 0 1.19872e-06 0 0 0 0 0.00217419 0 10296.9
0.124267 0 1.41467e-06 0 0 0 0 0.00201893 0 12151.9
0.131321 0 1.66953e-06 0 0 0 0 0.00187147 0 14341.1
0.138776 0 1.9703e-06 0 0 0 0 0.00173182 0 16924.7
0.146654 0 2.32525e-06 0 0 0 0 0.00159991 0 19973.8
0.154979 0 2.74415e-06 0 0 0 0 0.00147563 0 23572.1
0.163777 0 3.23852e-06 0 0 0 0 0.00135884 0 27818.7
0.173074 0 3.82195e-06 0 0 0 0 0.00124933 0 32830.3
0.182899 0 4.51048e-06 0 0 0 0 0.00114689 0 38744.7
0.193281 0 5.32305e-06 0 0 0 0 0.00105127 0 45724.7
0.204254 0 6.28202e-06 0 0 0 0 0.000962209 0 53962.1
0.215848 0 7.41374e-06 0 0 0 0 0.000879423 0 63683.5
0.228102 0 8.74934e-06 0 0 0 0 0.000802624 0 75156.3
0.24105 0 1.03256e-05 0 0 0 0 0.000731515 0 88695.9
0.254734 0 1.21857e-05 0 0 0 0 0.000665798 0 104675
0.269195 0 1.4381e-05 0 0 0 0 0.000605173 0 123532
0.284476 0 1.69718e-05 0 0 0 0 0.000549345 0 145787
0.300625 0 2.00293e-05 0 0 0 0 0.000498021 0 172051
0.317691 0 2.36377e-05 0 0 0 0 0.000450916 0 203046
0.335725 0 2.78961e-05 0 0 0 0 0.000407755 0 239625
0.354784 0 3.29216e-05 0 0 0 0 0.000368269 0 282795
0.374924 0 3.88525e-05 0 0 0 0 0.000332202 0 333741
0.396207 0.282581 4.58519e-05 7.17458e-07 6 0.274725 6.97511e-07 0.000299307 0.0143824 393865
0.418699 0 5.41123e-05 0 0 0 0 0.00026935 0 464821
0.442467 0 6.38607e-05 0 0 0 0 0.000242108 0 548560
0.467585 0 7.53654e-05 0 0 0 0 0.00021737 0 647384
0.494129 0 8.89427e-05 0 0 0 0 0.000194938 0 764012
0.522179 0 0.000104966 0 0 0 0 0.000174625 0 901651
0.551822 0 0.000123876 0 0 0 0 0.000156255 0 1.06409e+06
0.583147 5.24919 0.000146192 4.18001e-06 12 5.5248 4.39949e-06 0.000139664 0.359149 1.25578e+06
0.616251 0 0.000172529 0 0 0 0 0.0001247 0 1.48202e+06
0.651234 0 0.000203611 0 0 0 0 0.00011122 0 1.74901e+06
0.688203 29.1973 0.000240292 1.41453e-05 8 28.4709 1.37934e-05 9.90935e-05 1.14198 2.06409e+06
0.72727 0 0.000283581 0 0 0 0 8.81969e-05 0 2.43595e+06
0.768555 0 0.000334669 0 0 0 0 7.84179e-05 0 2.87479e+06
0.812184 0.0549267 0.000394961 1.61897e-08 6 0.0561011 1.65359e-08 6.96525e-05 0.00139461 3.39269e+06
0.85829 0 0.000466114 0 0 0 0 6.1805e-05 0 4.00389e+06
0.907013 0.106418 0.000550086 2.25214e-08 24 0.10846 2.29535e-08 5.47875e-05 0.00986563 4.7252e+06
0.958501 0.762294 0.000649185 1.36698e-07 24 0.717643 1.28692e-07 4.85194e-05 0.0676175 5.57646e+06
1.01291 0 0.000766138 0 0 0 0 4.29272e-05 0 6.58107e+06
1.07041 0 0.00090416 0 0 0 0 3.79435e-05 0 7.76667e+06
1.13118 1.25255 0.00106705 1.36654e-07 12 1.23717 1.34975e-07 3.3507e-05 0.0489404 9.16586e+06
1.19539 0.332019 0.00125928 3.06939e-08 30 0.325174 3.00611e-08 2.9562e-05 0.0311486 1.08171e+07
1.26325 6.29538 0.00148614 4.93143e-07 24 6.20066 4.85722e-07 2.60578e-05 0.454199 1.27658e+07
1.33496 23.4171 0.00175387 1.55434e-06 24 23.4686 1.55776e-06 2.29484e-05 1.62556 1.50656e+07
1.41075 6.38979 0.00206984 3.59385e-07 32 6.5766 3.69892e-07 2.01923e-05 0.569541 1.77798e+07
1.49083 0.334108 0.00244272 1.59229e-08 48 0.326985 1.55835e-08 1.77518e-05 0.0430549 2.09828e+07
1.57546 0.0584629 0.00288279 2.3609e-09 6 0.0556698 2.24811e-09 1.55929e-05 0.000908454 2.4763e+07
1.66489 0.364403 0.00340213 1.24693e-08 84 0.348676 1.19311e-08 1.3685e-05 0.0765377 2.92241e+07
1.75941 2.88272 0.00401503 8.3584e-08 48 2.90708 8.42906e-08 1.20007e-05 0.334317 3.44889e+07
1.85928 0.159214 0.00473835 3.91169e-09 72 0.161292 3.96273e-09 1.05151e-05 0.0267845 4.07021e+07
1.96483 0.769014 0.00559198 1.60096e-08 54 0.756903 1.57574e-08 9.20606e-06 0.0939073 4.80347e+07
2.07637 9.69638 0.00659939 1.71047e-07 104 9.65524 1.70322e-07 8.05366e-06 2.2088 5.66883e+07
2.19424 0.235782 0.00778828 3.52435e-09 120 0.237894 3.55591e-09 7.04008e-06 0.0600735 6.69008e+07
2.3188 1.9332 0.00919136 2.44854e-08 156 1.83075 2.31878e-08 6.1494e-06 0.621154 7.89532e+07
2.45043 0.534006 0.0108472 5.7311e-09 126 0.53206 5.71022e-09 5.36741e-06 0.134537 9.31768e+07
2.58954 0.389445 0.0128014 3.5416e-09 192 0.394952 3.59169e-09 4.68145e-06 0.145251 1.09963e+08
2.73654 4.60598 0.0151076 3.54926e-08 152 4.77009 3.67572e-08 4.08023e-06 1.3222 1.29773e+08
2.89188 3.9914 0.0178292 2.60617e-08 378 4.07944 2.66366e-08 3.55373e-06 2.77211 1.53152e+08
3.05605 1.43759 0.0210412 7.9538e-09 264 1.40952 7.79848e-09 3.09304e-06 0.67888 1.80743e+08
3.22953 0.148734 0.0248319 6.97286e-10 366 0.145726 6.83183e-10 2.69025e-06 0.0948635 2.13304e+08
3.41286 0.738164 0.0293054 2.93235e-09 428 0.700304 2.78195e-09 2.33837e-06 0.536717 2.51731e+08
3.6066 3.64911 0.0345848 1.22832e-08 486 3.52012 1.1849e-08 2.0312e-06 2.93897 2.97081e+08
3.81134 0.727782 0.0408154 2.07581e-09 600 0.721566 2.05808e-09 1.76327e-06 0.706352 3.50601e+08
4.0277 0.465048 0.0481684 1.12395e-09 738 0.4618 1.1161e-09 1.52972e-06 0.542238 4.13763e+08
4.25634 1.15555 0.056846 2.36646e-09 824 1.20645 2.47071e-09 1.32631e-06 1.47022 4.88304e+08
4.49796 2.90558 0.067087 5.04202e-09 954 2.92664 5.07856e-09 1.14926e-06 4.18539 5.76273e+08
4.7533 0.505234 0.0791729 7.42893e-10 1094 0.49317 7.25154e-10 9.95263e-07 0.816593 6.8009e+08
5.02313 0.264022 0.0934361 3.28955e-10 1332 0.263365 3.28136e-10 8.61414e-07 0.508661 8.0261e+08
5.30828 2.3205 0.110269 2.44984e-09 1614 2.34804 2.47892e-09 7.45152e-07 5.30635 9.47202e+08
5.60962 1.01122 0.130134 9.04613e-10 1850 0.975341 8.7252e-10 6.44232e-07 2.59772 1.11784e+09
5.92807 1.41219 0.153578 1.07047e-09 2238 1.34467 1.01928e-09 5.56685e-07 4.30351 1.31923e+09
6.26459 0.555039 0.181246 3.56505e-10 2546 0.564589 3.62639e-10 4.80786e-07 1.88787 1.55689e+09
6.62021 0.121971 0.213898 6.63836e-11 3264 0.121911 6.63508e-11 4.15026e-07 0.522079 1.83737e+09
6.99602 1.37969 0.252432 6.3628e-10 3506 1.43129 6.60077e-10 3.58083e-07 6.22984 2.16837e+09
7.39317 0.479609 0.297908 1.8742e-10 4506 0.487742 1.90598e-10 3.08803e-07 2.73479 2.55901e+09
7.81286 1.12107 0.351577 3.71214e-10 5018 1.16307 3.85119e-10 2.66181e-07 6.99806 3.02002e+09
8.25637 0.970786 0.414914 2.7238e-10 5852 0.926425 2.59933e-10 2.29336e-07 6.95036 3.56409e+09
8.72507 0.533951 0.489662 1.26945e-10 7362 0.526763 1.25236e-10 1.97503e-07 4.73192 4.20617e+09
9.22037 0.834297 0.577876 1.68072e-10 8306 0.822358 1.65667e-10 1.70014e-07 8.21113 4.96392e+09
9.74378 0.194277 0.681982 3.31633e-11 9698 0.195341 3.33449e-11 1.46289e-07 2.19851 5.85818e+09
10.2969 0.819364 0.804843 1.18516e-10 11816 0.838755 1.2132e-10 1.25822e-07 11.1298 6.91355e+09
10.8814 0.687333 0.949838 8.42419e-11 13682 0.688877 8.4431e-11 1.08175e-07 10.6549 8.15905e+09
11.4992 0.644251 1.12095 6.69079e-11 16152 0.62896 6.53199e-11 9.29669e-08 11.6245 9.62892e+09
12.1519 0.61562 1.3229 5.41747e-11 19472 0.595994 5.24477e-11 7.98658e-08 13.2083 1.13636e+10
12.8418 0.212042 1.56122 1.58113e-11 22670 0.217279 1.62018e-11 6.85852e-08 5.22624 1.34108e+10
13.5708 0.566925 1.84248 3.58206e-11 26224 0.579491 3.66146e-11 5.88765e-08 15.9548 1.58268e+10
14.3411 0.473008 2.17441 2.53243e-11 31640 0.483476 2.58848e-11 5.05241e-08 15.859 1.8678e+10
15.1552 0.500325 2.56613 2.26978e-11 37484 0.507734 2.30339e-11 4.33417e-08 19.6302 2.20429e+10
16.0156 0.398048 3.02843 1.53013e-11 43856 0.409474 1.57405e-11 3.71677e-08 18.0547 2.6014e+10
16.9247 0.694143 3.574 2.26102e-11 51362 0.697071 2.27056e-11 3.18628e-08 36.447 3.07005e+10
17.8855 0.494304 4.21787 1.3643e-11 61636 0.487688 1.34604e-11 2.73063e-08 30.7952 3.62312e+10
18.9008 0.651242 4.97773 1.52307e-11 72218 0.650636 1.52166e-11 2.33941e-08 47.0175 4.27584e+10
19.9738 0.981732 5.87448 1.94551e-11 84586 0.971493 1.92522e-11 2.00364e-08 82.132 5.04614e+10
21.1076 1.53181 6.93279 2.57221e-11 100708 1.52588 2.56225e-11 1.71555e-08 150.996 5.95522e+10
22.3058 3.2044 8.18175 4.55943e-11 118712 3.19354 4.54397e-11 1.46847e-08 368.588 7.02807e+10
23.5721 6.97367 9.65571 8.4079e-11 140410 6.90786 8.32855e-11 1.25662e-08 939.47 8.29419e+10
24.9102 9.33941 11.3952 9.54128e-11 164374 9.26977 9.47014e-11 1.07504e-08 1458.87 9.78842e+10
26.3243 11.3963 13.4481 9.86534e-11 194680 11.3509 9.82608e-11 9.19452e-09 2088.84 1.15518e+11
27.8187 9.60148 15.8708 7.04286e-11 230196 9.58408 7.0301e-11 7.86182e-09 2062.17 1.36329e+11
29.3979 9.05101 18.73 5.62561e-11 271156 9.04425 5.62141e-11 6.72061e-09 2269.76 1.60889e+11
31.0667 10.4061 22.1042 5.48053e-11 321076 10.3387 5.44504e-11 5.74366e-09 3063.67 1.89874e+11
32.8303 14.4028 26.0864 6.42751e-11 377436 14.3003 6.38178e-11 4.90756e-09 4943.34 2.2408e+11
34.694 20.3023 30.7859 7.67722e-11 447594 20.1937 7.63615e-11 4.19221e-09 8196.83 2.64449e+11
36.6634 23.5072 36.3321 7.5322e-11 525078 23.4244 7.50566e-11 3.58032e-09 11046.5 3.1209e+11
38.7447 24.429 42.8774 6.63265e-11 621924 24.3814 6.61974e-11 3.05709e-09 13493.3 3.68314e+11
40.9442 25.9513 50.6018 5.9704e-11 732630 25.917 5.9625e-11 2.60976e-09 16760.5 4.34667e+11
43.2685 27.8293 59.7179 5.42511e-11 865596 27.7624 5.41206e-11 2.22743e-09 21082.4 5.12973e+11
45.7247 30.9465 70.4762 5.11187e-11 1.02168e+06 30.8558 5.09687e-11 1.90073e-09 27477.2 6.05386e+11
48.3204 37.3116 83.1727 5.22243e-11 1.20544e+06 37.1614 5.20142e-11 1.62163e-09 38820.8 7.14448e+11
51.0634 47.7739 98.1565 5.66607e-11 1.42103e+06 47.5519 5.63974e-11 1.38326e-09 58208 8.43158e+11
53.9621 61.9674 115.84 6.22754e-11 1.67997e+06 61.7003 6.20069e-11 1.1797e-09 88683.8 9.95055e+11
57.0254 76.5848 136.709 6.52165e-11 1.98018e+06 76.3311 6.50004e-11 1.00592e-09 128380 1.17432e+12
60.2626 88.6069 161.337 6.39358e-11 2.33957e+06 88.3704 6.37651e-11 8.57591e-10 174421 1.38587e+12
63.6835 99.1046 190.402 6.05943e-11 2.75676e+06 98.8384 6.04316e-11 7.3101e-10 228512 1.63554e+12
67.2987 113.211 224.704 5.86529e-11 3.25638e+06 112.864 5.8473e-11 6.23009e-10 306571 1.93019e+12
71.1191 134.416 265.185 5.90082e-11 3.84387e+06 133.951 5.88039e-11 5.30879e-10 427254 2.27792e+12
75.1563 161.623 312.958 6.01211e-11 4.53277e+06 161.066 5.99138e-11 4.52303e-10 602504 2.68829e+12
79.4227 192.713 369.339 6.0743e-11 5.35083e+06 192.081 6.05437e-11 3.85299e-10 843565 3.17259e+12
83.9313 227.156 435.876 6.06696e-11 6.32174e+06 226.431 6.04761e-11 3.28173e-10 1.16871e+06 3.74415e+12
88.6959 266.515 514.4 6.03157e-11 7.44986e+06 265.654 6.01208e-11 2.79476e-10 1.60781e+06 4.41866e+12
93.7309 313.821 607.071 6.018e-11 8.79764e+06 312.784 5.99812e-11 2.37972e-10 2.2248e+06 5.2147e+12
99.0518 370.776 716.436 6.02482e-11 1.03827e+07 369.545 6.00482e-11 2.02605e-10 3.08748e+06 6.15414e+12
104.675 438.814 845.504 6.04192e-11 1.22515e+07 437.354 6.02181e-11 1.72471e-10 4.2919e+06 7.26283e+12
110.617 517.501 997.824 6.03764e-11 1.44573e+07 515.797 6.01776e-11 1.468e-10 5.94605e+06 8.57124e+12
116.896 610.952 1177.58 6.03983e-11 1.70664e+07 608.907 6.01962e-11 1.24935e-10 8.25056e+06 1.01154e+13
123.532 721.352 1389.73 6.04265e-11 2.0139e+07 718.953 6.02255e-11 1.06313e-10 1.14466e+07 1.19377e+13
130.545 851.986 1640.09 6.04747e-11 2.37643e+07 849.143 6.02729e-11 9.04567e-11 1.58876e+07 1.40883e+13
137.955 1006.36 1935.56 6.0528e-11 2.80503e+07 1003.02 6.03271e-11 7.69563e-11 2.20622e+07 1.66263e+13
145.787 1188.36 2284.26 6.05638e-11 3.30981e+07 1184.36 6.03598e-11 6.54636e-11 3.06208e+07 1.96216e+13
154.063 1403.67 2695.77 6.06166e-11 3.90634e+07 1399.01 6.04154e-11 5.56812e-11 4.25259e+07 2.31565e+13
162.808 1658.89 3181.42 6.07024e-11 4.61057e+07 1653.35 6.04999e-11 4.73556e-11 5.91002e+07 2.73282e+13
172.051 1959.91 3754.56 6.07698e-11 5.44046e+07 1953.32 6.05654e-11 4.02708e-11 8.2098e+07 3.22515e+13
181.818 2316.99 4430.96 6.08745e-11 6.42064e+07 2309.22 6.06705e-11 3.42426e-11 1.14143e+08 3.80616e+13
192.139 2739.7 5229.21 6.09926e-11 7.57748e+07 2730.44 6.07864e-11 2.91139e-11 1.58746e+08 4.49186e+13
203.046 3241.73 6171.26 6.11523e-11 8.94213e+07 3230.75 6.09453e-11 2.4751e-11 2.20933e+08 5.30108e+13
214.572 3838.45 7283.03 6.13556e-11 1.05538e+08 3825.5 6.11486e-11 2.10401e-11 3.07763e+08 6.25608e+13
226.753 4548.56 8595.09 6.16075e-11 1.24552e+08 4533.06 6.13975e-11 1.78839e-11 4.29063e+08 7.38313e+13
239.625 5396.28 10143.5 6.19321e-11 1.46987e+08 5377.72 6.17191e-11 1.51999e-11 5.98901e+08 8.71322e+13
253.228 6412.82 11970.9 6.23637e-11 1.7347e+08 6390.7 6.21487e-11 1.29176e-11 8.37479e+08 1.02829e+14
267.603 7635.63 14127.5 6.29202e-11 2.04703e+08 7609.1 6.27015e-11 1.09771e-11 1.17334e+09 1.21354e+14
282.795 9119.3 16672.6 6.36749e-11 2.4161e+08 9087.11 6.34501e-11 9.3274e-12 1.64939e+09 1.43217e+14
298.848 10931.2 19676.2 6.46748e-11 2.85122e+08 10891.8 6.44421e-11 7.925e-12 2.32684e+09 1.69017e+14
315.813 13176.8 23220.9 6.60604e-11 3.36491e+08 13128.4 6.58175e-11 6.73295e-12 3.30149e+09 1.99466e+14
333.741 16005.5 27404.3 6.79924e-11 3.97115e+08 15944.6 6.7734e-11 5.71979e-12 4.72059e+09 2.35401e+14
352.686 19648.6 32341.2 7.0727e-11 4.68637e+08 19570.4 7.04457e-11 4.85874e-12 6.82179e+09 2.77809e+14
372.707 24485.2 38167.6 7.46825e-11 5.53074e+08 24382.1 7.43682e-11 4.12703e-12 1.00084e+10 3.27857e+14
393.865 31158.8 45043.5 8.05301e-11 6.52716e+08 31017.5 8.01648e-11 3.50528e-12 1.49954e+10 3.86921e+14
416.224 36778.2 53158.3 8.05433e-11 2.2184e+08 38907.9 8.52073e-11 2.97701e-12 6.0019e+09 4.56626e+14
439.852 0 62734.9 0 0 0 0 2.52819e-12 0 5.38888e+14
464.821 0 74036.7 0 0 0 0 2.1469e-12 0 6.35971e+14
491.207 0 87374.6 0 0 0 0 1.82301e-12 0 7.50542e+14
519.092 0 103115 0 0 0 0 1.54789e-12 0 8.85755e+14
548.56 0 121692 0 0 0 0 1.31422e-12 0 1.04533e+15
579.7 0 143615 0 0 0 0 1.11576e-12 0 1.23364e+15
612.608 0 169488 0 0 0 0 9.47223e-13 0 1.45589e+15
647.384 0 200021 0 0 0 0 8.041e-13 0 1.71817e+15
684.134 0 236056 0 0 0 0 6.82568e-13 0 2.0277e+15
722.971 0 278582 0 0 0 0 5.79376e-13 0 2.393e+15
764.012 0 328769 0 0 0 0 4.91762e-13 0 2.8241e+15
0.0565352
200
1.0655e+09
8589934592
0.0129181 1.12805e-05 1.58924e-09 8.26323e-07 6 1.11772e-05 8.18758e-07 0.00677225 0.000732096 13.6515
0.0136515 0 1.87554e-09 0 0 0 0 0.00688819 0 16.1108
0.0144264 0 2.21343e-09 0 0 0 0 0.00699249 0 19.0132
0.0152454 0 2.61218e-09 0 0 0 0 0.00708412 0 22.4385
0.0161108 0 3.08278e-09 0 0 0 0 0.00716212 0 26.4808
0.0170254 0 3.63815e-09 0 0 0 0 0.00722559 0 31.2514
0.0179919 2.46195e-05 4.29357e-09 6.67529e-07 12 2.45877e-05 6.66669e-07 0.00727371 0.00110127 36.8815
0.0190132 0 5.06707e-09 0 0 0 0 0.00730578 0 43.5258
0.0200925 0 5.97991e-09 0 0 0 0 0.00732122 0 51.367
0.0212331 2.30506e-05 7.05721e-09 3.80242e-07 8 2.30306e-05 3.79911e-07 0.00731958 0.000415589 60.621
0.0224385 0 8.32858e-09 0 0 0 0 0.00730056 0 71.542
0.0237123 0 9.829e-09 0 0 0 0 0.00726401 0 84.4305
0.0250583 0.000147454 1.15997e-08 1.47986e-06 6 0.000147385 1.47916e-06 0.00720995 0.00123151 99.6408
0.0264808 0 1.36894e-08 0 0 0 0 0.00713857 0 117.591
0.0279841 9.15034e-05 1.61556e-08 6.59362e-07 24 9.14095e-05 6.58685e-07 0.00705021 0.00224457 138.776
0.0295727 0 1.90661e-08 0 0 0 0 0.00694538 0 163.777
0.0312514 0.000162968 2.25009e-08 8.43165e-07 24 0.000163796 8.47446e-07 0.00682475 0.00296508 193.281
0.0330255 0 2.65545e-08 0 0 0 0 0.00668915 0 228.102
0.0349003 0.000224098 3.13384e-08 8.32477e-07 12 0.000222304 8.25811e-07 0.00653951 0.00152759 269.195
0.0368815 0.00019557 3.69841e-08 6.15598e-07 30 0.000193487 6.09042e-07 0.00637693 0.00289605 317.691
0.0389751 0.000233913 4.36469e-08 6.23895e-07 24 0.000231507 6.17477e-07 0.00620256 0.00241408 374.924
0.0411876 0.000147827 5.151e-08 3.34097e-07 24 0.000146823 3.31828e-07 0.00601767 0.00133246 442.467
0.0435258 0.000311974 6.07896e-08 5.97446e-07 8 0.00031195 5.974e-07 0.00582358 0.000820726 522.179
0.0459966 0.000400051 7.1741e-08 6.49168e-07 72 0.000396887 6.44035e-07 0.00562166 0.00831429 616.251
0.0486077 0 8.46654e-08 0 0 0 0 0.0054133 0 727.27
0.051367 0.000602704 9.99181e-08 7.02215e-07 54 0.00060081 7.00009e-07 0.00519989 0.00729239 858.29
0.054283 0.00046476 1.17919e-07 4.58835e-07 60 0.000466677 4.60728e-07 0.0049828 0.00552503 1012.91
0.0573645 0.00046546 1.39162e-07 3.89379e-07 96 0.000464272 3.88385e-07 0.00476339 0.00784743 1195.39
0.060621 0.000533843 1.64232e-07 3.78412e-07 24 0.000526611 3.73285e-07 0.00454293 0.00199913 1410.75
0.0640622 0.000939689 1.93819e-07 5.64413e-07 134 0.000940204 5.64723e-07 0.00432265 0.0174965 1664.89
0.0676989 0.000897011 2.28736e-07 4.56534e-07 120 0.000892933 4.54458e-07 0.00410371 0.0133499 1964.83
0.071542 0.000813622 2.69944e-07 3.50881e-07 108 0.000804836 3.47092e-07 0.00388717 0.00974876 2318.8
0.0756032 0.00117673 3.18575e-07 4.30009e-07 174 0.00117068 4.27798e-07 0.00367401 0.0203651 2736.54
0.079895 0.00125903 3.75967e-07 3.8985e-07 168 0.00124714 3.86168e-07 0.0034651 0.0189013 3229.53
0.0844305 0.00107815 4.43698e-07 2.82879e-07 168 0.00108353 2.84292e-07 0.00326121 0.0145724 3811.34
0.0892234 0.00120602 5.23632e-07 2.68125e-07 290 0.00120101 2.67012e-07 0.00306301 0.0253856 4497.96
0.0942883 0.00156863 6.17966e-07 2.95505e-07 288 0.00156462 2.94751e-07 0.00287109 0.0296423 5308.28
0.0996408 0.00143623 7.29294e-07 2.29262e-07 366 0.00142399 2.27308e-07 0.00268591 0.0312408 6264.59
0.105297 0.00153538 8.60678e-07 2.07676e-07 420 0.00152481 2.06246e-07 0.00250785 0.0347803 7393.17
0.111275 0.00161397 1.01573e-06 1.8498e-07 398 0.00160976 1.84498e-07 0.00233721 0.0315 8725.07
0.117591 0.0019162 1.19872e-06 1.86094e-07 624 0.0019201 1.86473e-07 0.00217419 0.0534097 10296.9
0.124267 0.00209821 1.41467e-06 1.72665e-07 642 0.00209586 1.72472e-07 0.00201893 0.0549059 12151.9
0.131321 0.00266514 1.66953e-06 1.85839e-07 800 0.00266611 1.85907e-07 0.00187147 0.079441 14341.1
0.138776 0.00243666 1.9703e-06 1.4397e-07 858 0.0024485 1.4467e-07 0.00173182 0.0713277 16924.7
0.146654 0.00260072 2.32525e-06 1.30207e-07 1080 0.00262244 1.31294e-07 0.00159991 0.0878946 19973.8
0.154979 0.00305474 2.74415e-06 1.29592e-07 1286 0.00307612 1.30498e-07 0.00147563 0.112938 23572.1
0.163777 0.00290093 3.23852e-06 1.0428e-07 1650 0.00290597 1.04461e-07 0.00135884 0.126624 27818.7
0.173074 0.00340752 3.82195e-06 1.03792e-07 1778 0.00340799 1.03806e-07 0.00124933 0.147713 32830.3
0.182899 0.00333956 4.51048e-06 8.61938e-08 2112 0.00334725 8.63924e-08 0.00114689 0.158726 38744.7
0.193281 0.00392838 5.32305e-06 8.59138e-08 2570 0.00393445 8.60464e-08 0.00105127 0.21003 45724.7
0.204254 0.00429875 6.28202e-06 7.96624e-08 3030 0.00429757 7.96405e-08 0.000962209 0.250857 53962.1
0.215848 0.00427138 7.41374e-06 6.7072e-08 3434 0.00427129 6.70705e-08 0.000879423 0.261905 63683.5
0.228102 0.00445942 8.74934e-06 5.93352e-08 4218 0.00446019 5.93455e-08 0.000802624 0.311822 75156.3
0.24105 0.00503105 1.03256e-05 5.67225e-08 4766 0.00503555 5.67732e-08 0.000731515 0.369561 88695.9
0.254734 0.00532994 1.21857e-05 5.09191e-08 6026 0.00532835 5.09039e-08 0.000665798 0.460858 104675
0.269195 0.00554625 1.4381e-05 4.48972e-08 6480 0.00554428 4.48813e-08 0.000605173 0.480745 123532
0.284476 0.0059631 1.69718e-05 4.09029e-08 8162 0.00597701 4.09983e-08 0.000549345 0.607723 145787
0.300625 0.00600274 2.00293e-05 3.48894e-08 9578 0.00601062 3.49351e-08 0.000498021 0.670997 172051
0.317691 0.00661728 2.36377e-05 3.259e-08 11234 0.00661315 3.25697e-08 0.000450916 0.811938 203046
0.335725 0.00691107 2.78961e-05 2.88412e-08 13344 0.00690905 2.88327e-08 0.000407755 0.943842 239625
0.354784 0.00711782 3.29216e-05 2.51696e-08 15464 0.0071139 2.51557e-08 0.000368269 1.0569 282795
0.374924 0.00763439 3.88525e-05 2.28752e-08 18458 0.00763266 2.287e-08 0.000332202 1.27101 333741
0.396207 0.00796949 4.58519e-05 2.02341e-08 22232 0.00795818 2.02053e-08 0.000299307 1.50295 393865
0.418699 0.00857896 5.41123e-05 1.84565e-08 25628 0.00856346 1.84231e-08 0.00026935 1.75609 464821
0.442467 0.00883309 6.38607e-05 1.61023e-08 30320 0.00881911 1.60769e-08 0.000242108 2.01655 548560
0.467585 0.00923239 7.53654e-05 1.42611e-08 35452 0.00921959 1.42413e-08 0.00021737 2.32591 647384
0.494129 0.0095104 8.89427e-05 1.2448e-08 41792 0.00950829 1.24452e-08 0.000194938 2.66867 764012
0.522179 0.010239 0.000104966 1.13559e-08 49988 0.0102372 1.13539e-08 0.000174625 3.25072 901651
0.551822 0.0106326 0.000123876 9.99226e-09 59110 0.0106276 9.98752e-09 0.000156255 3.78 1.06409e+06
0.583147 0.0110994 0.000146192 8.83866e-09 69716 0.0110872 8.8289e-09 0.000139664 4.41199 1.25578e+06
0.616251 0.011693 0.000172529 7.88991e-09 82210 0.0116755 7.87812e-09 0.0001247 5.20152 1.48202e+06
0.651234 0.0122519 0.000203611 7.00509e-09 96722 0.0122315 6.99339e-09 0.00011122 6.09192 1.74901e+06
0.688203 0.0127533 0.000240292 6.17864e-09 113098 0.0127432 6.17377e-09 9.90935e-05 7.05185 2.06409e+06
0.72727 0.0131191 0.000283581 5.38564e-09 135190 0.0131064 5.38043e-09 8.81969e-05 8.25522 2.43595e+06
0.768555 0.013848 0.000334669 4.81705e-09 158170 0.0138377 4.81347e-09 7.84179e-05 9.71606 2.87479e+06
0.812184 0.0143469 0.000394961 4.22878e-09 188560 0.0143343 4.22506e-09 6.96525e-05 11.448 3.39269e+06
0.85829 0.0148488 0.000466114 3.70859e-09 220444 0.0148339 3.70487e-09 6.1805e-05 13.2277 4.00389e+06
0.907013 0.0155479 0.000550086 3.29042e-09 261388 0.0155357 3.28784e-09 5.47875e-05 15.6984 4.7252e+06
0.958501 0.0160571 0.000649185 2.87945e-09 308244 0.0160407 2.87651e-09 4.85194e-05 18.2932 5.57646e+06
1.01291 0.0167424 0.000766138 2.54402e-09 364396 0.0167236 2.54117e-09 4.29272e-05 21.5954 6.58107e+06
1.07041 0.0173396 0.00090416 2.23256e-09 429162 0.0173211 2.23018e-09 3.79435e-05 25.2515 7.76667e+06
1.13118 0.0180362 0.00106705 1.96776e-09 506358 0.0180144 1.96538e-09 3.3507e-05 29.7367 9.16586e+06
1.19539 0.0186378 0.00125928 1.72299e-09 598590 0.0186166 1.72103e-09 2.9562e-05 34.8882 1.08171e+07
1.26325 0.0193682 0.00148614 1.51719e-09 704844 0.0193468 1.51551e-09 2.60578e-05 41.0389 1.27658e+07
1.33496 0.0200251 0.00175387 1.32919e-09 834620 0.020002 1.32766e-09 2.29484e-05 48.3417 1.50656e+07
1.41075 0.0207046 0.00206984 1.16451e-09 981444 0.0206821 1.16324e-09 2.01923e-05 56.6007 1.77798e+07
1.49083 0.0213657 0.00244272 1.01825e-09 1.15998e+06 0.0213418 1.01711e-09 1.77518e-05 66.5366 2.09828e+07
1.57546 0.022143 0.00288279 8.942e-10 1.36931e+06 0.0221179 8.93186e-10 1.55929e-05 78.5255 2.4763e+07
1.66489 0.0228834 0.00340213 7.83034e-10 1.61652e+06 0.022855 7.82061e-10 1.3685e-05 92.4944 2.92241e+07
1.75941 0.0236253 0.00401503 6.85011e-10 1.90601e+06 0.023597 6.84193e-10 1.20007e-05 108.797 3.44889e+07
1.85928 0.0243806 0.00473835 5.99e-10 2.24913e+06 0.0243527 5.98314e-10 1.05151e-05 128.123 4.07021e+07
1.96483 0.0251873 0.00559198 5.24357e-10 2.65744e+06 0.0251576 5.23738e-10 9.20606e-06 151.362 4.80347e+07
2.07637 0.0259543 0.00659939 4.57842e-10 3.13125e+06 0.0259248 4.57323e-10 8.05366e-06 178.008 5.66883e+07
2.19424 0.026797 0.00778828 4.00548e-10 3.69915e+06 0.0267651 4.00072e-10 7.04008e-06 210.464 6.69008e+07
2.3188 0.0276401 0.00919136 3.50082e-10 4.36472e+06 0.0276074 3.49668e-10 6.1494e-06 248.482 7.89532e+07
2.45043 0.0285317 0.0108472 3.0621e-10 5.14913e+06 0.0284979 3.05847e-10 5.36741e-06 293.757 9.31768e+07
2.58954 0.0294165 0.0128014 2.67513e-10 6.07894e+06 0.0293824 2.67203e-10 4.68145e-06 347.369 1.09963e+08
2.73654 0.0303597 0.0151076 2.33945e-10 7.17304e+06 0.030324 2.33669e-10 4.08023e-06 411.275 1.29773e+08
2.89188 0.031265 0.0178292 2.04144e-10 8.46557e+06 0.0312273 2.03897e-10 3.55373e-06 486.304 1.53152e+08
3.05605 0.0322454 0.0210412 1.78405e-10 9.98773e+06 0.0322082 1.78199e-10 3.09304e-06 576.087 1.80743e+08
3.22953 0.033261 0.0248319 1.55933e-10 1.1797e+07 0.0332214 1.55747e-10 2.69025e-06 683.779 2.13304e+08
3.41286 0.034293 0.0293054 1.36228e-10 1.39144e+07 0.0342504 1.36059e-10 2.33837e-06 810.622 2.51731e+08
3.6066 0.0353647 0.0345848 1.1904e-10 1.64163e+07 0.0353214 1.18895e-10 2.0312e-06 962.092 2.97081e+08
3.81134 0.0364876 0.0408154 1.04071e-10 1.93821e+07 0.0364437 1.03946e-10 1.76327e-06 1143.97 3.50601e+08
4.0277 0.0376489 0.0481684 9.09914e-11 2.28754e+07 0.0376018 9.08775e-11 1.52972e-06 1360.68 4.13763e+08
4.25634 0.0388587 0.056846 7.9579e-11 2.69929e+07 0.0388099 7.94791e-11 1.32631e-06 1619.59 4.88304e+08
4.49796 0.0401149 0.067087 6.96109e-11 3.18542e+07 0.0400643 6.95232e-11 1.14926e-06 1929.42 5.76273e+08
4.7533 0.0414372 0.0791729 6.0929e-11 3.75892e+07 0.0413842 6.08511e-11 9.95263e-07 2301.17 6.8009e+08
5.02313 0.0427901 0.0934361 5.33137e-11 4.43706e+07 0.0427351 5.32452e-11 8.61414e-07 2746.14 8.0261e+08
5.30828 0.0442093 0.110269 4.66735e-11 5.23593e+07 0.0441518 4.66128e-11 7.45152e-07 3279.59 9.47202e+08
5.60962 0.045698 0.130134 4.08805e-11 6.1787e+07 0.0456386 4.08274e-11 6.44232e-07 3920.77 1.11784e+09
5.92807 0.04725 0.153578 3.58165e-11 7.29346e+07 0.0471872 3.57688e-11 5.56685e-07 4692.53 1.31923e+09
6.26459 0.048872 0.181246 3.13908e-11 8.60651e+07 0.0488063 3.13486e-11 4.80786e-07 5619.24 1.55689e+09
6.62021 0.0505857 0.213898 2.75317e-11 1.01558e+08 0.0505165 2.7494e-11 4.15026e-07 6737.08 1.83737e+09
6.99602 0.0523763 0.252432 2.41547e-11 1.1986e+08 0.0523049 2.41217e-11 3.58083e-07 8085.22 2.16837e+09
7.39317 0.0542858 0.297908 2.12136e-11 1.41457e+08 0.0542108 2.11843e-11 3.08803e-07 9717.53 2.55901e+09
7.81286 0.0562981 0.351577 1.86416e-11 1.66936e+08 0.0562195 1.86156e-11 2.66181e-07 11691.1 3.02002e+09
8.25637 0.0584527 0.414914 1.64005e-11 1.97025e+08 0.0583697 1.63772e-11 2.29336e-07 14089.8 3.56409e+09
8.72507 0.0607536 0.489662 1.44439e-11 2.32497e+08 0.0606655 1.4423e-11 1.97503e-07 17003.1 4.20617e+09
9.22037 0.0632749 0.577876 1.2747e-11 2.74404e+08 0.0631811 1.27281e-11 1.70014e-07 20573.7 4.96392e+09
9.74378 0.0661311 0.681982 1.12887e-11 3.2382e+08 0.0660291 1.12713e-11 1.46289e-07 24988.2 5.85818e+09
10.2969 0.0694252 0.804843 1.00419e-11 3.82165e+08 0.0693125 1.00256e-11 1.25822e-07 30500.6 6.91355e+09
10.8814 0.0734795 0.949838 9.0059e-12 4.51027e+08 0.0733512 8.99017e-12 1.08175e-07 37549.2 8.15905e+09
11.4992 0.0787778 1.12095 8.18138e-12 5.32251e+08 0.0786239 8.16539e-12 9.29669e-08 46839.8 9.62892e+09
12.1519 0.086349 1.3229 7.59874e-12 6.28157e+08 0.0861482 7.58106e-12 7.98658e-08 59765.3 1.13636e+10
12.8418 0.0950512 1.56122 7.08767e-12 3.82727e+08 0.0983854 7.3363e-12 6.85852e-08 39551.4 1.34108e+10
13.5708 0 1.84248 0 0 0 0 5.88765e-08 0 1.58268e+10
14.3411 0 2.17441 0 0 0 0 5.05241e-08 0 1.8678e+10
15.1552 0 2.56613 0 0 0 0 4.33417e-08 0 2.20429e+10
16.0156 0 3.02843 0 0 0 0 3.71677e-08 0 2.6014e+10
16.9247 0 3.574 0 0 0 0 3.18628e-08 0 3.07005e+10
17.8855 0 4.21787 0 0 0 0 2.73063e-08 0 3.62312e+10
18.9008 0 4.97773 0 0 0 0 2.33941e-08 0 4.27584e+10
19.9738 0 5.87448 0 0 0 0 2.00364e-08 0 5.04614e+10
21.1076 0 6.93279 0 0 0 0 1.71555e-08 0 5.95522e+10
22.3058 0 8.18175 0 0 0 0 1.46847e-08 0 7.02807e+10
23.5721 0 9.65571 0 0 0 0 1.25662e-08 0 8.29419e+10
24.9102 0 11.3952 0 0 0 0 1.07504e-08 0 9.78842e+10
26.3243 0 13.4481 0 0 0 0 9.19452e-09 0 1.15518e+11
27.8187 0 15.8708 0 0 0 0 7.86182e-09 0 1.36329e+11
29.3979 0 18.73 0 0 0 0 6.72061e-09 0 1.60889e+11
31.0667 0 22.1042 0 0 0 0 5.74366e-09 0 1.89874e+11
32.8303 0 26.0864 0 0 0 0 4.90756e-09 0 2.2408e+11
34.694 0 30.7859 0 0 0 0 4.19221e-09 0 2.64449e+11
36.6634 0 36.3321 0 0 0 0 3.58032e-09 0 3.1209e+11
38.7447 0 42.8774 0 0 0 0 3.05709e-09 0 3.68314e+11
40.9442 0 50.6018 0 0 0 0 2.60976e-09 0 4.34667e+11
43.2685 0 59.7179 0 0 0 0 2.22743e-09 0 5.12973e+11
45.7247 0 70.4762 0 0 0 0 1.90073e-09 0 6.05386e+11
48.3204 0 83.1727 0 0 0 0 1.62163e-09 0 7.14448e+11
51.0634 0 98.1565 0 0 0 0 1.38326e-09 0 8.43158e+11
53.9621 0 115.84 0 0 0 0 1.1797e-09 0 9.95055e+11
57.0254 0 136.709 0 0 0 0 1.00592e-09 0 1.17432e+12
60.2626 0 161.337 0 0 0 0 8.57591e-10 0 1.38587e+12
63.6835 0 190.402 0 0 0 0 7.3101e-10 0 1.63554e+12
67.2987 0 224.704 0 0 0 0 6.23009e-10 0 1.93019e+12
71.1191 0 265.185 0 0 0 0 5.30879e-10 0 2.27792e+12
75.1563 0 312.958 0 0 0 0 4.52303e-10 0 2.68829e+12
79.4227 0 369.339 0 0 0 0 3.85299e-10 0 3.17259e+12
83.9313 0 435.876 0 0 0 0 3.28173e-10 0 3.74415e+12
88.6959 0 514.4 0 0 0 0 2.79476e-10 0 4.41866e+12
93.7309 0 607.071 0 0 0 0 2.37972e-10 0 5.2147e+12
99.0518 0 716.436 0 0 0 0 2.02605e-10 0 6.15414e+12
104.675 0 845.504 0 0 0 0 1.72471e-10 0 7.26283e+12
110.617 0 997.824 0 0 0 0 1.468e-10 0 8.57124e+12
116.896 0 1177.58 0 0 0 0 1.24935e-10 0 1.01154e+13
123.532 0 1389.73 0 0 0 0 1.06313e-10 0 1.19377e+13
130.545 0 1640.09 0 0 0 0 9.04567e-11 0 1.40883e+13
137.955 0 1935.56 0 0 0 0 7.69563e-11 0 1.66263e+13
145.787 0 2284.26 0 0 0 0 6.54636e-11 0 1.96216e+13
154.063 0 2695.77 0 0 0 0 5.56812e-11 0 2.31565e+13
162.808 0 3181.42 0 0 0 0 4.73556e-11 0 2.73282e+13
172.051 0 3754.56 0 0 0 0 4.02708e-11 0 3.22515e+13
181.818 0 4430.96 0 0 0 0 3.42426e-11 0 3.80616e+13
192.139 0 5229.21 0 0 0 0 2.91139e-11 0 4.49186e+13
203.046 0 6171.26 0 0 0 0 2.4751e-11 0 5.30108e+13
214.572 0 7283.03 0 0 0 0 2.10401e-11 0 6.25608e+13
226.753 0 8595.09 0 0 0 0 1.78839e-11 0 7.38313e+13
239.625 0 10143.5 0 0 0 0 1.51999e-11 0 8.71322e+13
253.228 0 11970.9 0 0 0 0 1.29176e-11 0 1.02829e+14
267.603 0 14127.5 0 0 0 0 1.09771e-11 0 1.21354e+14
282.795 0 16672.6 0 0 0 0 9.3274e-12 0 1.43217e+14
298.848 0 19676.2 0 0 0 0 7.925e-12 0 1.69017e+14
315.813 0 23220.9 0 0 0 0 6.73295e-12 0 1.99466e+14
333.741 0 27404.3 0 0 0 0 5.71979e-12 0 2.35401e+14
352.686 0 32341.2 0 0 0 0 4.85874e-12 0 2.77809e+14
372.707 0 38167.6 0 0 0 0 4.12703e-12 0 3.27857e+14
393.865 0 45043.5 0 0 0 0 3.50528e-12 0 3.86921e+14
416.224 0 53158.3 0 0 0 0 2.97701e-12 0 4.56626e+14
439.852 0 62734.9 0 0 0 0 2.52819e-12 0 5.38888e+14
464.821 0 74036.7 0 0 0 0 2.1469e-12 0 6.35971e+14
491.207 0 87374.6 0 0 0 0 1.82301e-12 0 7.50542e+14
519.092 0 103115 0 0 0 0 1.54789e-12 0 8.85755e+14
548.56 0 121692 0 0 0 0 1.31422e-12 0 1.04533e+15
579.7 0 143615 0 0 0 0 1.11576e-12 0 1.23364e+15
612.608 0 169488 0 0 0 0 9.47223e-13 0 1.45589e+15
647.384 0 200021 0 0 0 0 8.041e-13 0 1.71817e+15
684.134 0 236056 0 0 0 0 6.82568e-13 0 2.0277e+15
722.971 0 278582 0 0 0 0 5.79376e-13 0 2.393e+15
764.012 0 328769 0 0 0 0 4.91762e-13 0 2.8241e+15
