1
200
1.0655e+09
8589934592
0.0129181 0 1.58924e-09 0 0 0 0 0.00677225 0 13.6515
0.0136515 0 1.87554e-09 0 0 0 0 0.00688819 0 16.1108
0.0144264 0 2.21343e-09 0 0 0 0 0.00699249 0 19.0132
0.0152454 0 2.61218e-09 0 0 0 0 0.00708412 0 22.4385
0.0161108 0 3.08278e-09 0 0 0 0 0.00716212 0 26.4808
0.0170254 0 3.63815e-09 0 0 0 0 0.00722559 0 31.2514
0.0179919 0 4.29357e-09 0 0 0 0 0.00727371 0 36.8815
0.0190132 0 5.06707e-09 0 0 0 0 0.00730578 0 43.5258
0.0200925 0 5.97991e-09 0 0 0 0 0.00732122 0 51.367
0.0212331 0 7.05721e-09 0 0 0 0 0.00731958 0 60.621
0.0224385 0 8.32858e-09 0 0 0 0 0.00730056 0 71.542
0.0237123 0 9.829e-09 0 0 0 0 0.00726401 0 84.4305
0.0250583 0 1.15997e-08 0 0 0 0 0.00720995 0 99.6408
0.0264808 0 1.36894e-08 0 0 0 0 0.00713857 0 117.591
0.0279841 0 1.61556e-08 0 0 0 0 0.00705021 0 138.776
0.0295727 0 1.90661e-08 0 0 0 0 0.00694538 0 163.777
0.0312514 0 2.25009e-08 0 0 0 0 0.00682475 0 193.281
0.0330255 0 2.65545e-08 0 0 0 0 0.00668915 0 228.102
0.0349003 0 3.13384e-08 0 0 0 0 0.00653951 0 269.195
0.0368815 0 3.69841e-08 0 0 0 0 0.00637693 0 317.691
0.0389751 0 4.36469e-08 0 0 0 0 0.00620256 0 374.924
0.0411876 0 5.151e-08 0 0 0 0 0.00601767 0 442.467
0.0435258 0 6.07896e-08 0 0 0 0 0.00582358 0 522.179
0.0459966 0 7.1741e-08 0 0 0 0 0.00562166 0 616.251
0.0486077 0 8.46654e-08 0 0 0 0 0.0054133 0 727.27
0.051367 0 9.99181e-08 0 0 0 0 0.00519989 0 858.29
0.054283 0 1.17919e-07 0 0 0 0 0.0049828 0 1012.91
0.0573645 0 1.39162e-07 0 0 0 0 0.00476339 0 1195.39
0.060621 0 1.64232e-07 0 0 0 0 0.00454293 0 1410.75
0.0640622 0 1.93819e-07 0 0 0 0 0.00432265 0 1664.89
0.0676989 0 2.28736e-07 0 0 0 0 0.00410371 0 1964.83
0.071542 0 2.69944e-07 0 0 0 0 0.00388717 0 2318.8
0.0756032 0 3.18575e-07 0 0 0 0 0.00367401 0 2736.54
0.079895 0 3.75967e-07 0 0 0 0 0.0034651 0 3229.53
0.0844305 0 4.43698e-07 0 0 0 0 0.00326121 0 3811.34
0.0892234 0 5.23632e-07 0 0 0 0 0.00306301 0 4497.96
0.0942883 0 6.17966e-07 0 0 0 0 0.00287109 0 5308.28
0.0996408 0 7.29294e-07 0 0 0 0 0.00268591 0 6264.59
0.105297 0 8.60678e-07 0 0 0 0 0.00250785 0 7393.17
0.111275 0 1.01573e-06 0 0 0 0 0.00233721 0 8725.07
0.117591 0 1.19872e-06 0 0 0 0 0.00217419 0 10296.9
0.124267 0 1.41467e-06 0 0 0 0 0.00201893 0 12151.9
0.131321 0 1.66953e-06 0 0 0 0 0.00187147 0 14341.1
0.138776 0 1.9703e-06 0 0 0 0 0.00173182 0 16924.7
0.146654 0 2.32525e-06 0 0 0 0 0.00159991 0 19973.8
0.154979 0 2.74415e-06 0 0 0 0 0.00147563 0 23572.1
0.163777 0 3.23852e-06 0 0 0 0 0.00135884 0 27818.7
0.173074 0 3.82195e-06 0 0 0 0 0.00124933 0 32830.3
0.182899 0 4.51048e-06 0 0 0 0 0.00114689 0 38744.7
0.193281 0 5.32305e-06 0 0 0 0 0.00105127 0 45724.7
0.204254 0 6.28202e-06 0 0 0 0 0.000962209 0 53962.1
0.215848 0 7.41374e-06 0 0 0 0 0.000879423 0 63683.5
0.228102 0 8.74934e-06 0 0 0 0 0.000802624 0 75156.3
0.24105 0 1.03256e-05 0 0 0 0 0.000731515 0 88695.9
0.254734 0 1.21857e-05 0 0 0 0 0.000665798 0 104675
0.269195 0 1.4381e-05 0 0 0 0 0.000605173 0 123532
0.284476 0 1.69718e-05 0 0 0 0 0.000549345 0 145787
0.300625 0 2.00293e-05 0 0 0 0 0.000498021 0 172051
0.317691 0 2.36377e-05 0 0 0 0 0.000450916 0 203046
0.335725 0 2.78961e-05 0 0 0 0 0.000407755 0 239625
0.354784 0 3.29216e-05 0 0 0 0 0.000368269 0 282795
0.374924 0 3.88525e-05 0 0 0 0 0.000332202 0 333741
0.396207 1.92283 4.58519e-05 4.88194e-06 6 1.86937 4.74622e-06 0.000299307 0.097865 393865
0.418699 0 5.41123e-05 0 0 0 0 0.00026935 0 464821
0.442467 0 6.38607e-05 0 0 0 0 0.000242108 0 548560
0.467585 0 7.53654e-05 0 0 0 0 0.00021737 0 647384
0.494129 0 8.89427e-05 0 0 0 0 0.000194938 0 764012
0.522179 0 0.000104966 0 0 0 0 0.000174625 0 901651
0.551822 0 0.000123876 0 0 0 0 0.000156255 0 1.06409e+06
0.583147 5.72175 0.000146192 4.55632e-06 12 6.02217 4.79555e-06 0.000139664 0.391481 1.25578e+06
0.616251 0 0.000172529 0 0 0 0 0.0001247 0 1.48202e+06
0.651234 0 0.000203611 0 0 0 0 0.00011122 0 1.74901e+06
0.688203 16.472 0.000240292 7.98027e-06 8 16.0622 7.78173e-06 9.90935e-05 0.644262 2.06409e+06
0.72727 0 0.000283581 0 0 0 0 8.81969e-05 0 2.43595e+06
0.768555 0 0.000334669 0 0 0 0 7.84179e-05 0 2.87479e+06
0.812184 8.92063 0.000394961 2.62937e-06 6 9.11136 2.68559e-06 6.96525e-05 0.226499 3.39269e+06
0.85829 0 0.000466114 0 0 0 0 6.1805e-05 0 4.00389e+06
0.907013 1.31019 0.000550086 2.77276e-07 24 1.33533 2.82597e-07 5.47875e-05 0.121463 4.7252e+06
0.958501 5.64259 0.000649185 1.01186e-06 24 5.31208 9.5259e-07 4.85194e-05 0.500513 5.57646e+06
1.01291 0 0.000766138 0 0 0 0 4.29272e-05 0 6.58107e+06
1.07041 0 0.00090416 0 0 0 0 3.79435e-05 0 7.76667e+06
1.13118 9.28299 0.00106705 1.01278e-06 12 9.16896 1.00034e-06 3.3507e-05 0.36271 9.16586e+06
1.19539 4.67722 0.00125928 4.32391e-07 30 4.5808 4.23477e-07 2.9562e-05 0.438797 1.08171e+07
1.26325 6.89707 0.00148614 5.40275e-07 24 6.79328 5.32145e-07 2.60578e-05 0.497609 1.27658e+07
1.33496 17.1546 0.00175387 1.13865e-06 24 17.1923 1.14116e-06 2.29484e-05 1.19083 1.50656e+07
1.41075 17.6385 0.00206984 9.92052e-07 32 17.8056 1.00146e-06 2.01923e-05 1.57217 1.77798e+07
1.49083 5.15515 0.00244272 2.45684e-07 48 5.04525 2.40447e-07 1.77518e-05 0.66432 2.09828e+07
1.57546 22.1139 0.00288279 8.93026e-07 6 21.0575 8.50361e-07 1.55929e-05 0.343629 2.4763e+07
1.66489 7.10797 0.00340213 2.43223e-07 84 6.92526 2.36971e-07 1.3685e-05 1.49293 2.92241e+07
1.75941 9.73698 0.00401503 2.82322e-07 48 9.58479 2.7791e-07 1.20007e-05 1.12923 3.44889e+07
1.85928 7.14603 0.00473835 1.75569e-07 72 7.14387 1.75516e-07 1.05151e-05 1.20217 4.07021e+07
1.96483 17.2458 0.00559198 3.59027e-07 54 16.8489 3.50766e-07 9.20606e-06 2.10595 4.80347e+07
2.07637 16.2808 0.00659939 2.87198e-07 104 16.3812 2.88969e-07 8.05366e-06 3.7087 5.66883e+07
2.19424 12.4846 0.00778828 1.86613e-07 120 12.7138 1.9004e-07 7.04008e-06 3.18087 6.69008e+07
2.3188 13.2155 0.00919136 1.67384e-07 156 12.9252 1.63707e-07 6.1494e-06 4.24626 7.89532e+07
2.45043 12.4634 0.0108472 1.3376e-07 126 12.3904 1.32978e-07 5.36741e-06 3.14002 9.31768e+07
2.58954 11.1763 0.0128014 1.01637e-07 192 11.2301 1.02126e-07 4.68145e-06 4.16842 1.09963e+08
2.73654 36.6684 0.0151076 2.82558e-07 152 36.8695 2.84108e-07 4.08023e-06 10.5261 1.29773e+08
2.89188 14.8511 0.0178292 9.69695e-08 378 14.9038 9.73136e-08 3.55373e-06 10.3144 1.53152e+08
3.05605 15.9924 0.0210412 8.84819e-08 264 15.7823 8.73189e-08 3.09304e-06 7.55219 1.80743e+08
3.22953 21.0927 0.0248319 9.88857e-08 366 20.937 9.81556e-08 2.69025e-06 13.4531 2.13304e+08
3.41286 16.795 0.0293054 6.67181e-08 428 16.5432 6.57178e-08 2.33837e-06 12.2116 2.51731e+08
3.6066 23.9274 0.0345848 8.05414e-08 486 23.6433 7.95854e-08 2.0312e-06 19.2709 2.97081e+08
3.81134 18.1578 0.0408154 5.17904e-08 600 18.1723 5.18319e-08 1.76327e-06 17.6231 3.50601e+08
4.0277 25.974 0.0481684 6.2775e-08 738 25.8677 6.2518e-08 1.52972e-06 30.2852 4.13763e+08
4.25634 26.4364 0.056846 5.41393e-08 824 26.3538 5.39701e-08 1.32631e-06 33.6354 4.88304e+08
4.49796 30.6555 0.067087 5.31961e-08 954 30.3859 5.27284e-08 1.14926e-06 44.1582 5.76273e+08
4.7533 29.5678 0.0791729 4.34763e-08 1094 29.3844 4.32066e-08 9.95263e-07 47.7895 6.8009e+08
5.02313 30.5768 0.0934361 3.80967e-08 1332 30.7205 3.82758e-08 8.61414e-07 58.9087 8.0261e+08
5.30828 38.5679 0.110269 4.07177e-08 1614 38.5459 4.06945e-08 7.45152e-07 88.1945 9.47202e+08
5.60962 43.1926 0.130134 3.86392e-08 1850 43.2148 3.86591e-08 6.44232e-07 110.958 1.11784e+09
5.92807 37.6667 0.153578 2.85521e-08 2238 37.602 2.85031e-08 5.56685e-07 114.786 1.31923e+09
6.26459 41.0384 0.181246 2.63592e-08 2546 41.0543 2.63695e-08 4.80786e-07 139.585 1.55689e+09
6.62021 41.4684 0.213898 2.25695e-08 3264 41.5215 2.25984e-08 4.15026e-07 177.499 1.83737e+09
6.99602 47.4403 0.252432 2.18783e-08 3506 47.4347 2.18757e-08 3.58083e-07 214.211 2.16837e+09
7.39317 51.2696 0.297908 2.00349e-08 4506 51.323 2.00558e-08 3.08803e-07 292.346 2.55901e+09
7.81286 55.4646 0.351577 1.83656e-08 5018 55.1984 1.82775e-08 2.66181e-07 346.226 3.02002e+09
8.25637 57.794 0.414914 1.62156e-08 5852 57.8112 1.62205e-08 2.29336e-07 413.777 3.56409e+09
8.72507 62.3217 0.489662 1.48167e-08 7362 62.2071 1.47895e-08 1.97503e-07 552.3 4.20617e+09
9.22037 66.4625 0.577876 1.33891e-08 8306 66.2796 1.33523e-08 1.70014e-07 654.122 4.96392e+09
9.74378 70.8442 0.681982 1.20932e-08 9698 70.7598 1.20788e-08 1.46289e-07 801.7 5.85818e+09
10.2969 71.6696 0.804843 1.03665e-08 11816 71.5273 1.0346e-08 1.25822e-07 973.522 6.91355e+09
10.8814 85.6734 0.949838 1.05004e-08 13682 85.4345 1.04711e-08 1.08175e-07 1328.09 8.15905e+09
11.4992 84.718 1.12095 8.79829e-09 16152 84.6427 8.79047e-09 9.29669e-08 1528.61 9.62892e+09
12.1519 88.5369 1.3229 7.79128e-09 19472 88.4771 7.78601e-09 7.98658e-08 1899.58 1.13636e+10
12.8418 91.7524 1.56122 6.84169e-09 22670 91.5053 6.82326e-09 6.85852e-08 2261.44 1.34108e+10
13.5708 100.015 1.84248 6.31934e-09 26224 99.9067 6.31252e-09 5.88765e-08 2814.68 1.58268e+10
14.3411 106.57 2.17441 5.70562e-09 31640 106.501 5.70195e-09 5.05241e-08 3573.06 1.8678e+10
15.1552 112.956 2.56613 5.12438e-09 37484 112.766 5.11574e-09 4.33417e-08 4431.82 2.20429e+10
16.0156 120.359 3.02843 4.62672e-09 43856 120.186 4.62004e-09 3.71677e-08 5459.29 2.6014e+10
16.9247 128.654 3.574 4.19063e-09 51362 128.547 4.18715e-09 3.18628e-08 6755.18 3.07005e+10
17.8855 135.954 4.21787 3.7524e-09 61636 135.731 3.74623e-09 2.73063e-08 8469.95 3.62312e+10
18.9008 143.125 4.97773 3.34729e-09 72218 142.816 3.34007e-09 2.33941e-08 10333.1 4.27584e+10
19.9738 152.829 5.87448 3.02863e-09 84586 152.563 3.02337e-09 2.00364e-08 12785.7 5.04614e+10
21.1076 161.479 6.93279 2.71155e-09 100708 161.222 2.70723e-09 1.71555e-08 15917.6 5.95522e+10
22.3058 171.887 8.18175 2.44572e-09 118712 171.582 2.44138e-09 1.46847e-08 19771.4 7.02807e+10
23.5721 180.095 9.65571 2.17133e-09 140410 179.73 2.16694e-09 1.25662e-08 24261.8 8.29419e+10
24.9102 188.465 11.3952 1.92539e-09 164374 188.071 1.92136e-09 1.07504e-08 29439.4 9.78842e+10
26.3243 197.792 13.4481 1.71221e-09 194680 197.511 1.70978e-09 9.19452e-09 36253.5 1.15518e+11
27.8187 209.785 15.8708 1.53882e-09 230196 209.426 1.53618e-09 7.86182e-09 45056.9 1.36329e+11
29.3979 222.053 18.73 1.38016e-09 271156 221.696 1.37794e-09 6.72061e-09 55685.2 1.60889e+11
31.0667 233.09 22.1042 1.2276e-09 321076 232.669 1.22539e-09 5.74366e-09 68624.3 1.89874e+11
32.8303 246.262 26.0864 1.09899e-09 377436 245.801 1.09693e-09 4.90756e-09 84522.5 2.2408e+11
34.694 258.073 30.7859 9.75891e-10 447594 257.577 9.74016e-10 4.19221e-09 104194 2.64449e+11
36.6634 271.947 36.3321 8.71374e-10 525078 271.41 8.69653e-10 3.58032e-09 127793 3.1209e+11
38.7447 286.686 42.8774 7.78375e-10 621924 286.179 7.76999e-10 3.05709e-09 158350 3.68314e+11
40.9442 301.77 50.6018 6.94256e-10 732630 301.197 6.92937e-10 2.60976e-09 194896 4.34667e+11
43.2685 315.916 59.7179 6.15854e-10 865596 315.377 6.14803e-10 2.22743e-09 239325 5.12973e+11
45.7247 333.418 70.4762 5.50752e-10 1.02168e+06 332.871 5.49848e-10 1.90073e-09 296039 6.05386e+11
48.3204 348.292 83.1727 4.87498e-10 1.20544e+06 347.686 4.8665e-10 1.62163e-09 362380 7.14448e+11
51.0634 365.696 98.1565 4.33722e-10 1.42103e+06 365.08 4.32991e-10 1.38326e-09 445566 8.43158e+11
53.9621 383.009 115.84 3.84912e-10 1.67997e+06 382.366 3.84266e-10 1.1797e-09 548138 9.95055e+11
57.0254 402.088 136.709 3.42401e-10 1.98018e+06 401.394 3.41811e-10 1.00592e-09 674026 1.17432e+12
60.2626 422.38 161.337 3.04775e-10 2.33957e+06 421.619 3.04226e-10 8.57591e-10 831448 1.38587e+12
63.6835 443.504 190.402 2.71166e-10 2.75676e+06 442.714 2.70683e-10 7.3101e-10 1.02261e+06 1.63554e+12
67.2987 467.438 224.704 2.42172e-10 3.25638e+06 466.618 2.41747e-10 6.23009e-10 1.2658e+06 1.93019e+12
71.1191 491.25 265.185 2.15657e-10 3.84387e+06 490.403 2.15285e-10 5.30879e-10 1.56148e+06 2.27792e+12
75.1563 517.901 312.958 1.92651e-10 4.53277e+06 516.965 1.92302e-10 4.52303e-10 1.93065e+06 2.68829e+12
79.4227 546.327 369.339 1.72202e-10 5.35083e+06 545.355 1.71896e-10 3.85299e-10 2.39145e+06 3.17259e+12
83.9313 579.839 435.876 1.54865e-10 6.32174e+06 578.735 1.54571e-10 3.28173e-10 2.98324e+06 3.74415e+12
88.6959 614.753 514.4 1.39126e-10 7.44986e+06 613.586 1.38862e-10 2.79476e-10 3.70862e+06 4.41866e+12
93.7309 654.115 607.071 1.25437e-10 8.79764e+06 652.885 1.25201e-10 2.37972e-10 4.63729e+06 5.2147e+12
99.0518 698.965 716.436 1.13576e-10 1.03827e+07 697.584 1.13352e-10 2.02605e-10 5.82033e+06 6.15414e+12
104.675 749.219 845.504 1.03158e-10 1.22515e+07 747.687 1.02947e-10 1.72471e-10 7.32786e+06 7.26283e+12
110.617 809.017 997.824 9.43873e-11 1.44573e+07 807.293 9.41862e-11 1.468e-10 9.29555e+06 8.57124e+12
116.896 878.877 1177.58 8.68852e-11 1.70664e+07 876.93 8.66928e-11 1.24935e-10 1.18687e+07 1.01154e+13
123.532 959.065 1389.73 8.03393e-11 2.0139e+07 956.825 8.01516e-11 1.06313e-10 1.52187e+07 1.19377e+13
130.545 1055.09 1640.09 7.48915e-11 2.37643e+07 1052.56 7.47114e-11 9.04567e-11 1.96751e+07 1.40883e+13
137.955 1167.83 1935.56 7.02397e-11 2.80503e+07 1164.89 7.0063e-11 7.69563e-11 2.56021e+07 1.66263e+13
145.787 1301.57 2284.26 6.63336e-11 3.30981e+07 1298.19 6.6161e-11 6.54636e-11 3.3538e+07 1.96216e+13
154.063 1459.96 2695.77 6.30477e-11 3.90634e+07 1456.04 6.28783e-11 5.56812e-11 4.42315e+07 2.31565e+13
162.808 1649.12 3181.42 6.03448e-11 4.61057e+07 1644.55 6.01777e-11 4.73556e-11 5.8752e+07 2.73282e+13
172.051 1874.64 3754.56 5.81258e-11 5.44046e+07 1869.26 5.7959e-11 4.02708e-11 7.85261e+07 3.22515e+13
181.818 2142.89 4430.96 5.63005e-11 6.42064e+07 2136.54 5.61337e-11 3.42426e-11 1.05566e+08 3.80616e+13
192.139 2463.85 5229.21 5.48514e-11 7.57748e+07 2456.44 5.46865e-11 2.91139e-11 1.42762e+08 4.49186e+13
203.046 2846.67 6171.26 5.36999e-11 8.94213e+07 2837.91 5.35346e-11 2.4751e-11 1.94009e+08 5.30108e+13
214.572 3305.19 7283.03 5.28317e-11 1.05538e+08 3294.8 5.26655e-11 2.10401e-11 2.65007e+08 6.25608e+13
226.753 3856.08 8595.09 5.22283e-11 1.24552e+08 3843.68 5.20604e-11 1.78839e-11 3.63742e+08 7.38313e+13
239.625 4517.09 10143.5 5.18418e-11 1.46987e+08 4502.35 5.16727e-11 1.51999e-11 5.01324e+08 8.71322e+13
253.228 5314.4 11970.9 5.16818e-11 1.7347e+08 5296.73 5.151e-11 1.29176e-11 6.94031e+08 1.02829e+14
267.603 6277.9 14127.5 5.1732e-11 2.04703e+08 6256.6 5.15565e-11 1.09771e-11 9.64704e+08 1.21354e+14
282.795 7452.11 16672.6 5.20339e-11 2.4161e+08 7426.34 5.18539e-11 9.3274e-12 1.34785e+09 1.43217e+14
298.848 8894.56 19676.2 5.26251e-11 2.85122e+08 8863.11 5.2439e-11 7.925e-12 1.89333e+09 1.69017e+14
315.813 10688.8 23220.9 5.35871e-11 3.36491e+08 10649.8 5.33914e-11 6.73295e-12 2.67811e+09 1.99466e+14
333.741 12957.2 27404.3 5.50432e-11 3.97115e+08 12908.2 5.48348e-11 5.71979e-12 3.82155e+09 2.35401e+14
352.686 15889.4 32341.2 5.71953e-11 4.68637e+08 15826.4 5.69685e-11 4.85874e-12 5.51663e+09 2.77809e+14
372.707 19795.7 38167.6 6.03791e-11 5.53074e+08 19712.3 6.01248e-11 4.12703e-12 8.09156e+09 3.27857e+14
393.865 25198.4 45043.5 6.51254e-11 6.52716e+08 25083.8 6.48293e-11 3.50528e-12 1.2127e+10 3.86921e+14
416.224 29751.3 53158.3 6.51547e-11 2.2184e+08 31474.2 6.89277e-11 2.97701e-12 4.85518e+09 4.56626e+14
439.852 0 62734.9 0 0 0 0 2.52819e-12 0 5.38888e+14
464.821 0 74036.7 0 0 0 0 2.1469e-12 0 6.35971e+14
491.207 0 87374.6 0 0 0 0 1.82301e-12 0 7.50542e+14
519.092 0 103115 0 0 0 0 1.54789e-12 0 8.85755e+14
548.56 0 121692 0 0 0 0 1.31422e-12 0 1.04533e+15
579.7 0 143615 0 0 0 0 1.11576e-12 0 1.23364e+15
612.608 0 169488 0 0 0 0 9.47223e-13 0 1.45589e+15
647.384 0 200021 0 0 0 0 8.041e-13 0 1.71817e+15
684.134 0 236056 0 0 0 0 6.82568e-13 0 2.0277e+15
722.971 0 278582 0 0 0 0 5.79376e-13 0 2.393e+15
764.012 0 328769 0 0 0 0 4.91762e-13 0 2.8241e+15
1
200
1.0655e+09
8589934592
0.0129181 0.00219047 1.58924e-09 0.000160457 6 0.00217042 0.000158988 0.00677225 0.14216 13.6515
0.0136515 0 1.87554e-09 0 0 0 0 0.00688819 0 16.1108
0.0144264 0 2.21343e-09 0 0 0 0 0.00699249 0 19.0132
0.0152454 0 2.61218e-09 0 0 0 0 0.00708412 0 22.4385
0.0161108 0 3.08278e-09 0 0 0 0 0.00716212 0 26.4808
0.0170254 0 3.63815e-09 0 0 0 0 0.00722559 0 31.2514
0.0179919 0.00480669 4.29357e-09 0.000130328 12 0.0048005 0.00013016 0.00727371 0.215013 36.8815
0.0190132 0 5.06707e-09 0 0 0 0 0.00730578 0 43.5258
0.0200925 0 5.97991e-09 0 0 0 0 0.00732122 0 51.367
0.0212331 0.00451459 7.05721e-09 7.44724e-05 8 0.00451066 7.44076e-05 0.00731958 0.0813953 60.621
0.0224385 0 8.32858e-09 0 0 0 0 0.00730056 0 71.542
0.0237123 0 9.829e-09 0 0 0 0 0.00726401 0 84.4305
0.0250583 0.0281677 1.15997e-08 0.000282692 6 0.0281545 0.000282559 0.00720995 0.235252 99.6408
0.0264808 0 1.36894e-08 0 0 0 0 0.00713857 0 117.591
0.0279841 0.0172205 1.61556e-08 0.000124089 24 0.0172028 0.000123961 0.00705021 0.422417 138.776
0.0295727 0 1.90661e-08 0 0 0 0 0.00694538 0 163.777
0.0312514 0.0304178 2.25009e-08 0.000157375 24 0.0305722 0.000158174 0.00682475 0.553428 193.281
0.0330255 0 2.65545e-08 0 0 0 0 0.00668915 0 228.102
0.0349003 0.0464463 3.13384e-08 0.000172538 12 0.0460744 0.000171156 0.00653951 0.316607 269.195
0.0368815 0.0366883 3.69841e-08 0.000115484 30 0.0362976 0.000114255 0.00637693 0.543291 317.691
0.0389751 0.0410691 4.36469e-08 0.00010954 24 0.0406466 0.000108413 0.00620256 0.42385 374.924
0.0411876 0.0264405 5.151e-08 5.97569e-05 24 0.0262609 5.9351e-05 0.00601767 0.238326 442.467
0.0435258 0.0667058 6.07896e-08 0.000127745 8 0.0667007 0.000127735 0.00582358 0.175487 522.179
0.0459966 0.0808482 7.1741e-08 0.000131194 72 0.0802113 0.00013016 0.00562166 1.68028 616.251
0.0486077 0 8.46654e-08 0 0 0 0 0.0054133 0 727.27
0.051367 0.109127 9.99181e-08 0.000127145 54 0.108763 0.000126721 0.00519989 1.32038 858.29
0.054283 0.0883452 1.17919e-07 8.7219e-05 60 0.0887517 8.76202e-05 0.0049828 1.05024 1012.91
0.0573645 0.0819305 1.39162e-07 6.85386e-05 96 0.0817218 6.8364e-05 0.00476339 1.38131 1195.39
0.060621 0.0975001 1.64232e-07 6.91125e-05 24 0.0961791 6.81761e-05 0.00454293 0.365117 1410.75
0.0640622 0.166146 1.93819e-07 9.97936e-05 134 0.166216 9.98358e-05 0.00432265 3.09355 1664.89
0.0676989 0.162775 2.28736e-07 8.28441e-05 120 0.16197 8.24345e-05 0.00410371 2.42251 1964.83
0.071542 0.153839 2.69944e-07 6.63443e-05 108 0.152133 6.56085e-05 0.00388717 1.84329 2318.8
0.0756032 0.227804 3.18575e-07 8.32455e-05 174 0.226533 8.27807e-05 0.00367401 3.94248 2736.54
0.079895 0.237023 3.75967e-07 7.33924e-05 168 0.234798 7.27033e-05 0.0034651 3.55832 3229.53
0.0844305 0.196556 4.43698e-07 5.15713e-05 168 0.197525 5.18256e-05 0.00326121 2.65668 3811.34
0.0892234 0.237607 5.23632e-07 5.28254e-05 290 0.236468 5.25722e-05 0.00306301 5.0014 4497.96
0.0942883 0.282298 6.17966e-07 5.31806e-05 288 0.28172 5.30717e-05 0.00287109 5.33457 5308.28
0.0996408 0.253746 7.29294e-07 4.05048e-05 366 0.251832 4.01993e-05 0.00268591 5.51945 6264.59
0.105297 0.300327 8.60678e-07 4.06222e-05 420 0.298177 4.03315e-05 0.00250785 6.80316 7393.17
0.111275 0.32035 1.01573e-06 3.67161e-05 398 0.319498 3.66183e-05 0.00233721 6.25232 8725.07
0.117591 0.379196 1.19872e-06 3.68261e-05 624 0.380313 3.69347e-05 0.00217419 10.5692 10296.9
0.124267 0.442465 1.41467e-06 3.64111e-05 642 0.441424 3.63255e-05 0.00201893 11.5784 12151.9
0.131321 0.513869 1.66953e-06 3.58318e-05 800 0.513987 3.584e-05 0.00187147 15.3171 14341.1
0.138776 0.479092 1.9703e-06 2.83072e-05 858 0.481083 2.84249e-05 0.00173182 14.0243 16924.7
0.146654 0.561751 2.32525e-06 2.81245e-05 1080 0.566408 2.83576e-05 0.00159991 18.9851 19973.8
0.154979 0.650738 2.74415e-06 2.76063e-05 1286 0.654811 2.77791e-05 0.00147563 24.0586 23572.1
0.163777 0.641313 3.23852e-06 2.30533e-05 1650 0.643192 2.31209e-05 0.00135884 27.993 27818.7
0.173074 0.709163 3.82195e-06 2.16009e-05 1778 0.709767 2.16193e-05 0.00124933 30.7415 32830.3
0.182899 0.774449 4.51048e-06 1.99885e-05 2112 0.776187 2.00334e-05 0.00114689 36.8088 38744.7
0.193281 0.852774 5.32305e-06 1.86502e-05 2570 0.853334 1.86624e-05 0.00105127 45.5933 45724.7
0.204254 0.997241 6.28202e-06 1.84804e-05 3030 0.996555 1.84677e-05 0.000962209 58.1948 53962.1
0.215848 1.04109 7.41374e-06 1.63478e-05 3434 1.04068 1.63414e-05 0.000879423 63.8355 63683.5
0.228102 1.1076 8.74934e-06 1.47373e-05 4218 1.10682 1.47269e-05 0.000802624 77.4486 75156.3
0.24105 1.23438 1.03256e-05 1.3917e-05 4766 1.23513 1.39255e-05 0.000731515 90.6729 88695.9
0.254734 1.34256 1.21857e-05 1.28261e-05 6026 1.34251 1.28255e-05 0.000665798 116.086 104675
0.269195 1.53672 1.4381e-05 1.24398e-05 6480 1.53534 1.24287e-05 0.000605173 133.202 123532
0.284476 1.65587 1.69718e-05 1.13581e-05 8162 1.65862 1.13771e-05 0.000549345 168.756 145787
0.300625 1.83676 2.00293e-05 1.06757e-05 9578 1.83714 1.06779e-05 0.000498021 205.316 172051
0.317691 2.04247 2.36377e-05 1.00591e-05 11234 2.04103 1.00521e-05 0.000450916 250.611 203046
0.335725 2.19416 2.78961e-05 9.15663e-06 13344 2.19033 9.14066e-06 0.000407755 299.656 239625
0.354784 2.48046 3.29216e-05 8.77123e-06 15464 2.47899 8.76604e-06 0.000368269 368.313 282795
0.374924 2.69408 3.88525e-05 8.07238e-06 18458 2.69125 8.06391e-06 0.000332202 448.523 333741
0.396207 3.12109 4.58519e-05 7.92425e-06 22232 3.11569 7.91055e-06 0.000299307 588.6 393865
0.418699 3.35827 5.41123e-05 7.22487e-06 25628 3.34999 7.20706e-06 0.00026935 687.429 464821
0.442467 3.69216 6.38607e-05 6.73065e-06 30320 3.68575 6.71895e-06 0.000242108 842.902 548560
0.467585 4.16633 7.53654e-05 6.43564e-06 35452 4.1586 6.4237e-06 0.00021737 1049.62 647384
0.494129 4.62803 8.89427e-05 6.05753e-06 41792 4.62287 6.05078e-06 0.000194938 1298.65 764012
0.522179 5.2136 0.000104966 5.78228e-06 49988 5.21291 5.78152e-06 0.000174625 1655.23 901651
0.551822 5.83769 0.000123876 5.48611e-06 59110 5.83005 5.47893e-06 0.000156255 2075.36 1.06409e+06
0.583147 6.52203 0.000146192 5.19359e-06 69716 6.51177 5.18542e-06 0.000139664 2592.48 1.25578e+06
0.616251 7.30445 0.000172529 4.92873e-06 82210 7.28978 4.91883e-06 0.0001247 3249.32 1.48202e+06
0.651234 8.04025 0.000203611 4.59704e-06 96722 8.0227 4.587e-06 0.00011122 3997.78 1.74901e+06
0.688203 9.12927 0.000240292 4.4229e-06 113098 9.11408 4.41554e-06 9.90935e-05 5047.97 2.06409e+06
0.72727 10.2673 0.000283581 4.21491e-06 135190 10.2516 4.20847e-06 8.81969e-05 6460.7 2.43595e+06
0.768555 11.4421 0.000334669 3.98014e-06 158170 11.4229 3.97346e-06 7.84179e-05 8028 2.87479e+06
0.812184 12.8632 0.000394961 3.79146e-06 188560 12.843 3.78549e-06 6.96525e-05 10264.1 3.39269e+06
0.85829 14.3958 0.000466114 3.59546e-06 220444 14.372 3.58952e-06 6.1805e-05 12824.2 4.00389e+06
0.907013 16.0704 0.000550086 3.40099e-06 261388 16.0439 3.39538e-06 5.47875e-05 16226 4.7252e+06
0.958501 18 0.000649185 3.22785e-06 308244 17.9716 3.22276e-06 4.85194e-05 20506.5 5.57646e+06
1.01291 20.1771 0.000766138 3.06593e-06 364396 20.1426 3.06068e-06 4.29272e-05 26025.8 6.58107e+06
1.07041 22.4613 0.00090416 2.892e-06 429162 22.4197 2.88665e-06 3.79435e-05 32710.2 7.76667e+06
1.13118 25.0768 0.00106705 2.73589e-06 506358 25.0333 2.73114e-06 3.3507e-05 41344.8 9.16586e+06
1.19539 28.0047 0.00125928 2.58892e-06 598590 27.9525 2.5841e-06 2.9562e-05 52422.1 1.08171e+07
1.26325 31.1435 0.00148614 2.43959e-06 704844 31.0895 2.43537e-06 2.60578e-05 65989.1 1.27658e+07
1.33496 34.5613 0.00175387 2.29405e-06 834620 34.4936 2.28955e-06 2.29484e-05 83433.1 1.50656e+07
1.41075 38.3653 0.00206984 2.15781e-06 981444 38.2932 2.15375e-06 2.01923e-05 104880 1.77798e+07
1.49083 42.3315 0.00244272 2.01743e-06 1.15998e+06 42.2551 2.01379e-06 1.77518e-05 131828 2.09828e+07
1.57546 46.6962 0.00288279 1.88573e-06 1.36931e+06 46.6122 1.88233e-06 1.55929e-05 165598 2.4763e+07
1.66489 51.3797 0.00340213 1.75813e-06 1.61652e+06 51.2858 1.75492e-06 1.3685e-05 207676 2.92241e+07
1.75941 56.4482 0.00401503 1.63671e-06 1.90601e+06 56.3438 1.63368e-06 1.20007e-05 259950 3.44889e+07
1.85928 61.904 0.00473835 1.5209e-06 2.24913e+06 61.7907 1.51812e-06 1.05151e-05 325314 4.07021e+07
1.96483 67.5635 0.00559198 1.40655e-06 2.65744e+06 67.4415 1.40401e-06 9.20606e-06 406019 4.80347e+07
2.07637 73.5712 0.00659939 1.29782e-06 3.13125e+06 73.4434 1.29557e-06 8.05366e-06 504591 5.66883e+07
2.19424 80.1927 0.00778828 1.19868e-06 3.69915e+06 80.0488 1.19653e-06 7.04008e-06 629836 6.69008e+07
2.3188 86.9103 0.00919136 1.10078e-06 4.36472e+06 86.7624 1.09891e-06 6.1494e-06 781314 7.89532e+07
2.45043 94.2809 0.0108472 1.01185e-06 5.14913e+06 94.1133 1.01005e-06 5.36741e-06 970700 9.31768e+07
2.58954 102.158 0.0128014 9.29024e-07 6.07894e+06 101.989 9.27485e-07 4.68145e-06 1.20635e+06 1.09963e+08
2.73654 110.421 0.0151076 8.50882e-07 7.17304e+06 110.231 8.49417e-07 4.08023e-06 1.49585e+06 1.29773e+08
2.89188 119.261 0.0178292 7.78712e-07 8.46557e+06 119.06 7.77398e-07 3.55373e-06 1.85502e+06 1.53152e+08
3.05605 128.455 0.0210412 7.10708e-07 9.98773e+06 128.24 7.09516e-07 3.09304e-06 2.29495e+06 1.80743e+08
3.22953 138.183 0.0248319 6.47823e-07 1.1797e+07 137.956 6.46755e-07 2.69025e-06 2.84076e+06 2.13304e+08
3.41286 148.383 0.0293054 5.89449e-07 1.39144e+07 148.128 5.88436e-07 2.33837e-06 3.50749e+06 2.51731e+08
3.6066 159.118 0.0345848 5.35604e-07 1.64163e+07 158.852 5.34708e-07 2.0312e-06 4.32878e+06 2.97081e+08
3.81134 170.732 0.0408154 4.86969e-07 1.93821e+07 170.451 4.86168e-07 1.76327e-06 5.35285e+06 3.50601e+08
4.0277 182.755 0.0481684 4.41691e-07 2.28754e+07 182.451 4.40954e-07 1.52972e-06 6.60502e+06 4.13763e+08
4.25634 195.447 0.056846 4.00256e-07 2.69929e+07 195.119 3.99585e-07 1.32631e-06 8.14598e+06 4.88304e+08
4.49796 208.603 0.067087 3.61986e-07 3.18542e+07 208.259 3.61389e-07 1.14926e-06 1.00332e+07 5.76273e+08
4.7533 222.698 0.0791729 3.27454e-07 3.75892e+07 222.326 3.26907e-07 9.95263e-07 1.23673e+07 6.8009e+08
5.02313 237.217 0.0934361 2.95557e-07 4.43706e+07 236.829 2.95073e-07 8.61414e-07 1.52239e+07 8.0261e+08
5.30828 252.615 0.110269 2.66696e-07 5.23593e+07 252.197 2.66255e-07 7.45152e-07 1.87398e+07 9.47202e+08
5.60962 269.055 0.130134 2.40691e-07 6.1787e+07 268.61 2.40293e-07 6.44232e-07 2.30842e+07 1.11784e+09
5.92807 286.098 0.153578 2.16868e-07 7.29346e+07 285.624 2.16509e-07 5.56685e-07 2.84131e+07 1.31923e+09
6.26459 303.724 0.181246 1.95084e-07 8.60651e+07 303.222 1.94761e-07 4.80786e-07 3.49218e+07 1.55689e+09
6.62021 322.439 0.213898 1.7549e-07 1.01558e+08 321.902 1.75198e-07 4.15026e-07 4.29429e+07 1.83737e+09
6.99602 341.725 0.252432 1.57595e-07 1.1986e+08 341.165 1.57337e-07 3.58083e-07 5.27514e+07 2.16837e+09
7.39317 362.091 0.297908 1.41496e-07 1.41457e+08 361.495 1.41264e-07 3.08803e-07 6.48167e+07 2.55901e+09
7.81286 383.186 0.351577 1.26882e-07 1.66936e+08 382.559 1.26674e-07 2.66181e-07 7.95742e+07 3.02002e+09
8.25637 405.52 0.414914 1.13779e-07 1.97025e+08 404.849 1.13591e-07 2.29336e-07 9.77491e+07 3.56409e+09
8.72507 429.156 0.489662 1.0203e-07 2.32497e+08 428.444 1.01861e-07 1.97503e-07 1.20108e+08 4.20617e+09
9.22037 454.385 0.577876 9.15376e-08 2.74404e+08 453.62 9.13834e-08 1.70014e-07 1.47742e+08 4.96392e+09
9.74378 481.959 0.681982 8.2271e-08 3.2382e+08 481.133 8.213e-08 1.46289e-07 1.82112e+08 5.85818e+09
10.2969 512.849 0.804843 7.41803e-08 3.82165e+08 511.938 7.40486e-08 1.25822e-07 2.2531e+08 6.91355e+09
10.8814 549.516 0.949838 6.73506e-08 4.51027e+08 548.471 6.72224e-08 1.08175e-07 2.80811e+08 8.15905e+09
11.4992 596.399 1.12095 6.19383e-08 5.32251e+08 595.133 6.18068e-08 9.29669e-08 3.54607e+08 9.62892e+09
12.1519 662.63 1.3229 5.83117e-08 6.28157e+08 660.97 5.81656e-08 7.98658e-08 4.58631e+08 1.13636e+10
12.8418 737.078 1.56122 5.49616e-08 3.82727e+08 762.901 5.68871e-08 6.85852e-08 3.06703e+08 1.34108e+10
13.5708 0 1.84248 0 0 0 0 5.88765e-08 0 1.58268e+10
14.3411 0 2.17441 0 0 0 0 5.05241e-08 0 1.8678e+10
15.1552 0 2.56613 0 0 0 0 4.33417e-08 0 2.20429e+10
16.0156 0 3.02843 0 0 0 0 3.71677e-08 0 2.6014e+10
16.9247 0 3.574 0 0 0 0 3.18628e-08 0 3.07005e+10
17.8855 0 4.21787 0 0 0 0 2.73063e-08 0 3.62312e+10
18.9008 0 4.97773 0 0 0 0 2.33941e-08 0 4.27584e+10
19.9738 0 5.87448 0 0 0 0 2.00364e-08 0 5.04614e+10
21.1076 0 6.93279 0 0 0 0 1.71555e-08 0 5.95522e+10
22.3058 0 8.18175 0 0 0 0 1.46847e-08 0 7.02807e+10
23.5721 0 9.65571 0 0 0 0 1.25662e-08 0 8.29419e+10
24.9102 0 11.3952 0 0 0 0 1.07504e-08 0 9.78842e+10
26.3243 0 13.4481 0 0 0 0 9.19452e-09 0 1.15518e+11
27.8187 0 15.8708 0 0 0 0 7.86182e-09 0 1.36329e+11
29.3979 0 18.73 0 0 0 0 6.72061e-09 0 1.60889e+11
31.0667 0 22.1042 0 0 0 0 5.74366e-09 0 1.89874e+11
32.8303 0 26.0864 0 0 0 0 4.90756e-09 0 2.2408e+11
34.694 0 30.7859 0 0 0 0 4.19221e-09 0 2.64449e+11
36.6634 0 36.3321 0 0 0 0 3.58032e-09 0 3.1209e+11
38.7447 0 42.8774 0 0 0 0 3.05709e-09 0 3.68314e+11
40.9442 0 50.6018 0 0 0 0 2.60976e-09 0 4.34667e+11
43.2685 0 59.7179 0 0 0 0 2.22743e-09 0 5.12973e+11
45.7247 0 70.4762 0 0 0 0 1.90073e-09 0 6.05386e+11
48.3204 0 83.1727 0 0 0 0 1.62163e-09 0 7.14448e+11
51.0634 0 98.1565 0 0 0 0 1.38326e-09 0 8.43158e+11
53.9621 0 115.84 0 0 0 0 1.1797e-09 0 9.95055e+11
57.0254 0 136.709 0 0 0 0 1.00592e-09 0 1.17432e+12
60.2626 0 161.337 0 0 0 0 8.57591e-10 0 1.38587e+12
63.6835 0 190.402 0 0 0 0 7.3101e-10 0 1.63554e+12
67.2987 0 224.704 0 0 0 0 6.23009e-10 0 1.93019e+12
71.1191 0 265.185 0 0 0 0 5.30879e-10 0 2.27792e+12
75.1563 0 312.958 0 0 0 0 4.52303e-10 0 2.68829e+12
79.4227 0 369.339 0 0 0 0 3.85299e-10 0 3.17259e+12
83.9313 0 435.876 0 0 0 0 3.28173e-10 0 3.74415e+12
88.6959 0 514.4 0 0 0 0 2.79476e-10 0 4.41866e+12
93.7309 0 607.071 0 0 0 0 2.37972e-10 0 5.2147e+12
99.0518 0 716.436 0 0 0 0 2.02605e-10 0 6.15414e+12
104.675 0 845.504 0 0 0 0 1.72471e-10 0 7.26283e+12
110.617 0 997.824 0 0 0 0 1.468e-10 0 8.57124e+12
116.896 0 1177.58 0 0 0 0 1.24935e-10 0 1.01154e+13
123.532 0 1389.73 0 0 0 0 1.06313e-10 0 1.19377e+13
130.545 0 1640.09 0 0 0 0 9.04567e-11 0 1.40883e+13
137.955 0 1935.56 0 0 0 0 7.69563e-11 0 1.66263e+13
145.787 0 2284.26 0 0 0 0 6.54636e-11 0 1.96216e+13
154.063 0 2695.77 0 0 0 0 5.56812e-11 0 2.31565e+13
162.808 0 3181.42 0 0 0 0 4.73556e-11 0 2.73282e+13
172.051 0 3754.56 0 0 0 0 4.02708e-11 0 3.22515e+13
181.818 0 4430.96 0 0 0 0 3.42426e-11 0 3.80616e+13
192.139 0 5229.21 0 0 0 0 2.91139e-11 0 4.49186e+13
203.046 0 6171.26 0 0 0 0 2.4751e-11 0 5.30108e+13
214.572 0 7283.03 0 0 0 0 2.10401e-11 0 6.25608e+13
226.753 0 8595.09 0 0 0 0 1.78839e-11 0 7.38313e+13
239.625 0 10143.5 0 0 0 0 1.51999e-11 0 8.71322e+13
253.228 0 11970.9 0 0 0 0 1.29176e-11 0 1.02829e+14
267.603 0 14127.5 0 0 0 0 1.09771e-11 0 1.21354e+14
282.795 0 16672.6 0 0 0 0 9.3274e-12 0 1.43217e+14
298.848 0 19676.2 0 0 0 0 7.925e-12 0 1.69017e+14
315.813 0 23220.9 0 0 0 0 6.73295e-12 0 1.99466e+14
333.741 0 27404.3 0 0 0 0 5.71979e-12 0 2.35401e+14
352.686 0 32341.2 0 0 0 0 4.85874e-12 0 2.77809e+14
372.707 0 38167.6 0 0 0 0 4.12703e-12 0 3.27857e+14
393.865 0 45043.5 0 0 0 0 3.50528e-12 0 3.86921e+14
416.224 0 53158.3 0 0 0 0 2.97701e-12 0 4.56626e+14
439.852 0 62734.9 0 0 0 0 2.52819e-12 0 5.38888e+14
464.821 0 74036.7 0 0 0 0 2.1469e-12 0 6.35971e+14
491.207 0 87374.6 0 0 0 0 1.82301e-12 0 7.50542e+14
519.092 0 103115 0 0 0 0 1.54789e-12 0 8.85755e+14
548.56 0 121692 0 0 0 0 1.31422e-12 0 1.04533e+15
579.7 0 143615 0 0 0 0 1.11576e-12 0 1.23364e+15
612.608 0 169488 0 0 0 0 9.47223e-13 0 1.45589e+15
647.384 0 200021 0 0 0 0 8.041e-13 0 1.71817e+15
684.134 0 236056 0 0 0 0 6.82568e-13 0 2.0277e+15
722.971 0 278582 0 0 0 0 5.79376e-13 0 2.393e+15
764.012 0 328769 0 0 0 0 4.91762e-13 0 2.8241e+15
