0.919388
200
1.0655e+09
8589934592
0.0129181 0 1.58924e-09 0 0 0 0 0.00677225 0 13.6515
0.0136515 0 1.87554e-09 0 0 0 0 0.00688819 0 16.1108
0.0144264 0 2.21343e-09 0 0 0 0 0.00699249 0 19.0132
0.0152454 0 2.61218e-09 0 0 0 0 0.00708412 0 22.4385
0.0161108 0 3.08278e-09 0 0 0 0 0.00716212 0 26.4808
0.0170254 0 3.63815e-09 0 0 0 0 0.00722559 0 31.2514
0.0179919 0 4.29357e-09 0 0 0 0 0.00727371 0 36.8815
0.0190132 0 5.06707e-09 0 0 0 0 0.00730578 0 43.5258
0.0200925 0 5.97991e-09 0 0 0 0 0.00732122 0 51.367
0.0212331 0 7.05721e-09 0 0 0 0 0.00731958 0 60.621
0.0224385 0 8.32858e-09 0 0 0 0 0.00730056 0 71.542
0.0237123 0 9.829e-09 0 0 0 0 0.00726401 0 84.4305
0.0250583 0 1.15997e-08 0 0 0 0 0.00720995 0 99.6408
0.0264808 0 1.36894e-08 0 0 0 0 0.00713857 0 117.591
0.0279841 0 1.61556e-08 0 0 0 0 0.00705021 0 138.776
0.0295727 0 1.90661e-08 0 0 0 0 0.00694538 0 163.777
0.0312514 0 2.25009e-08 0 0 0 0 0.00682475 0 193.281
0.0330255 0 2.65545e-08 0 0 0 0 0.00668915 0 228.102
0.0349003 0 3.13384e-08 0 0 0 0 0.00653951 0 269.195
0.0368815 0 3.69841e-08 0 0 0 0 0.00637693 0 317.691
0.0389751 0 4.36469e-08 0 0 0 0 0.00620256 0 374.924
0.0411876 0 5.151e-08 0 0 0 0 0.00601767 0 442.467
0.0435258 0 6.07896e-08 0 0 0 0 0.00582358 0 522.179
0.0459966 0 7.1741e-08 0 0 0 0 0.00562166 0 616.251
0.0486077 0 8.46654e-08 0 0 0 0 0.0054133 0 727.27
0.051367 0 9.99181e-08 0 0 0 0 0.00519989 0 858.29
0.054283 0 1.17919e-07 0 0 0 0 0.0049828 0 1012.91
0.0573645 0 1.39162e-07 0 0 0 0 0.00476339 0 1195.39
0.060621 0 1.64232e-07 0 0 0 0 0.00454293 0 1410.75
0.0640622 0 1.93819e-07 0 0 0 0 0.00432265 0 1664.89
0.0676989 0 2.28736e-07 0 0 0 0 0.00410371 0 1964.83
0.071542 0 2.69944e-07 0 0 0 0 0.00388717 0 2318.8
0.0756032 0 3.18575e-07 0 0 0 0 0.00367401 0 2736.54
0.079895 0 3.75967e-07 0 0 0 0 0.0034651 0 3229.53
0.0844305 0 4.43698e-07 0 0 0 0 0.00326121 0 3811.34
0.0892234 0 5.23632e-07 0 0 0 0 0.00306301 0 4497.96
0.0942883 0 6.17966e-07 0 0 0 0 0.00287109 0 5308.28
0.0996408 0 7.29294e-07 0 0 0 0 0.00268591 0 6264.59
0.105297 0 8.60678e-07 0 0 0 0 0.00250785 0 7393.17
0.111275 0 1.01573e-06 0 0 0 0 0.00233721 0 8725.07
0.117591 0 1.19872e-06 0 0 0 0 0.00217419 0 10296.9
0.124267 0 1.41467e-06 0 0 0 0 0.00201893 0 12151.9
0.131321 0 1.66953e-06 0 0 0 0 0.00187147 0 14341.1
0.138776 0 1.9703e-06 0 0 0 0 0.00173182 0 16924.7
0.146654 0 2.32525e-06 0 0 0 0 0.00159991 0 19973.8
0.154979 0 2.74415e-06 0 0 0 0 0.00147563 0 23572.1
0.163777 0 3.23852e-06 0 0 0 0 0.00135884 0 27818.7
0.173074 0 3.82195e-06 0 0 0 0 0.00124933 0 32830.3
0.182899 0 4.51048e-06 0 0 0 0 0.00114689 0 38744.7
0.193281 0 5.32305e-06 0 0 0 0 0.00105127 0 45724.7
0.204254 0 6.28202e-06 0 0 0 0 0.000962209 0 53962.1
0.215848 0 7.41374e-06 0 0 0 0 0.000879423 0 63683.5
0.228102 0 8.74934e-06 0 0 0 0 0.000802624 0 75156.3
0.24105 0 1.03256e-05 0 0 0 0 0.000731515 0 88695.9
0.254734 0 1.21857e-05 0 0 0 0 0.000665798 0 104675
0.269195 0 1.4381e-05 0 0 0 0 0.000605173 0 123532
0.284476 0 1.69718e-05 0 0 0 0 0.000549345 0 145787
0.300625 0 2.00293e-05 0 0 0 0 0.000498021 0 172051
0.317691 0 2.36377e-05 0 0 0 0 0.000450916 0 203046
0.335725 0 2.78961e-05 0 0 0 0 0.000407755 0 239625
0.354784 0 3.29216e-05 0 0 0 0 0.000368269 0 282795
0.374924 0 3.88525e-05 0 0 0 0 0.000332202 0 333741
0.396207 2.50108 4.58519e-05 6.35009e-06 6 2.43155 6.17355e-06 0.000299307 0.127296 393865
0.418699 0 5.41123e-05 0 0 0 0 0.00026935 0 464821
0.442467 0 6.38607e-05 0 0 0 0 0.000242108 0 548560
0.467585 0 7.53654e-05 0 0 0 0 0.00021737 0 647384
0.494129 0 8.89427e-05 0 0 0 0 0.000194938 0 764012
0.522179 0 0.000104966 0 0 0 0 0.000174625 0 901651
0.551822 0 0.000123876 0 0 0 0 0.000156255 0 1.06409e+06
0.583147 5.37444 0.000146192 4.27975e-06 12 5.65662 4.50446e-06 0.000139664 0.367718 1.25578e+06
0.616251 0 0.000172529 0 0 0 0 0.0001247 0 1.48202e+06
0.651234 0 0.000203611 0 0 0 0 0.00011122 0 1.74901e+06
0.688203 13.4475 0.000240292 6.51496e-06 8 13.1129 6.35288e-06 9.90935e-05 0.525965 2.06409e+06
0.72727 0 0.000283581 0 0 0 0 8.81969e-05 0 2.43595e+06
0.768555 0 0.000334669 0 0 0 0 7.84179e-05 0 2.87479e+06
0.812184 7.57761 0.000394961 2.23351e-06 6 7.73962 2.28126e-06 6.96525e-05 0.192399 3.39269e+06
0.85829 0 0.000466114 0 0 0 0 6.1805e-05 0 4.00389e+06
0.907013 1.72365 0.000550086 3.64777e-07 24 1.75672 3.71777e-07 5.47875e-05 0.159793 4.7252e+06
0.958501 3.4963 0.000649185 6.26975e-07 24 3.29151 5.90251e-07 4.85194e-05 0.310131 5.57646e+06
1.01291 0 0.000766138 0 0 0 0 4.29272e-05 0 6.58107e+06
1.07041 0 0.00090416 0 0 0 0 3.79435e-05 0 7.76667e+06
1.13118 7.38636 0.00106705 8.05856e-07 12 7.29563 7.95957e-07 3.3507e-05 0.288604 9.16586e+06
1.19539 4.37005 0.00125928 4.03994e-07 30 4.27996 3.95666e-07 2.9562e-05 0.40998 1.08171e+07
1.26325 8.56837 0.00148614 6.71195e-07 24 8.43944 6.61095e-07 2.60578e-05 0.61819 1.27658e+07
1.33496 13.3243 0.00175387 8.84415e-07 24 13.3536 8.8636e-07 2.29484e-05 0.924942 1.50656e+07
1.41075 16.0077 0.00206984 9.00335e-07 32 16.071 9.03891e-07 2.01923e-05 1.42682 1.77798e+07
1.49083 4.74177 0.00244272 2.25983e-07 48 4.64068 2.21166e-07 1.77518e-05 0.611049 2.09828e+07
1.57546 31.2715 0.00288279 1.26283e-06 6 29.7775 1.2025e-06 1.55929e-05 0.485927 2.4763e+07
1.66489 5.31537 0.00340213 1.81883e-07 84 5.19266 1.77684e-07 1.3685e-05 1.11642 2.92241e+07
1.75941 7.32887 0.00401503 2.125e-07 48 7.21339 2.09151e-07 1.20007e-05 0.849951 3.44889e+07
1.85928 7.52804 0.00473835 1.84955e-07 72 7.5131 1.84587e-07 1.05151e-05 1.26644 4.07021e+07
1.96483 16.2035 0.00559198 3.37329e-07 54 15.8601 3.3018e-07 9.20606e-06 1.97867 4.80347e+07
2.07637 12.633 0.00659939 2.22851e-07 104 12.8239 2.26218e-07 8.05366e-06 2.87776 5.66883e+07
2.19424 11.5361 0.00778828 1.72435e-07 120 11.7338 1.7539e-07 7.04008e-06 2.93921 6.69008e+07
2.3188 9.27092 0.00919136 1.17423e-07 156 9.09198 1.15157e-07 6.1494e-06 2.97883 7.89532e+07
2.45043 11.1132 0.0108472 1.1927e-07 126 11.036 1.18441e-07 5.36741e-06 2.79987 9.31768e+07
2.58954 10.7666 0.0128014 9.79116e-08 192 10.8517 9.86852e-08 4.68145e-06 4.01564 1.09963e+08
2.73654 34.7696 0.0151076 2.67926e-07 152 35.2577 2.71688e-07 4.08023e-06 9.98099 1.29773e+08
2.89188 15.4852 0.0178292 1.0111e-07 378 15.5746 1.01694e-07 3.55373e-06 10.7548 1.53152e+08
3.05605 15.0882 0.0210412 8.3479e-08 264 14.9501 8.2715e-08 3.09304e-06 7.12518 1.80743e+08
3.22953 17.8933 0.0248319 8.38865e-08 366 17.7218 8.30821e-08 2.69025e-06 11.4125 2.13304e+08
3.41286 15.2912 0.0293054 6.07441e-08 428 15.095 5.99649e-08 2.33837e-06 11.1182 2.51731e+08
3.6066 21.8802 0.0345848 7.36504e-08 486 21.6116 7.27466e-08 2.0312e-06 17.6221 2.97081e+08
3.81134 17.5152 0.0408154 4.99576e-08 600 17.5576 5.00784e-08 1.76327e-06 16.9995 3.50601e+08
4.0277 26.2542 0.0481684 6.34522e-08 738 26.1808 6.32748e-08 1.52972e-06 30.6119 4.13763e+08
4.25634 25.4845 0.056846 5.21898e-08 824 25.4607 5.21411e-08 1.32631e-06 32.4242 4.88304e+08
4.49796 26.4075 0.067087 4.58247e-08 954 26.2239 4.5506e-08 1.14926e-06 38.0392 5.76273e+08
4.7533 27.4671 0.0791729 4.03875e-08 1094 27.358 4.0227e-08 9.95263e-07 44.3942 6.8009e+08
5.02313 28.4563 0.0934361 3.54547e-08 1332 28.4732 3.54758e-08 8.61414e-07 54.8234 8.0261e+08
5.30828 35.6528 0.110269 3.76401e-08 1614 35.6292 3.76152e-08 7.45152e-07 81.5285 9.47202e+08
5.60962 40.3371 0.130134 3.60847e-08 1850 40.4225 3.61611e-08 6.44232e-07 103.622 1.11784e+09
5.92807 38.3824 0.153578 2.90946e-08 2238 38.2918 2.90259e-08 5.56685e-07 116.967 1.31923e+09
6.26459 38.0291 0.181246 2.44263e-08 2546 38.1407 2.4498e-08 4.80786e-07 129.349 1.55689e+09
6.62021 39.3293 0.213898 2.14053e-08 3264 39.3704 2.14276e-08 4.15026e-07 168.343 1.83737e+09
6.99602 43.6447 0.252432 2.01279e-08 3506 43.6463 2.01286e-08 3.58083e-07 197.073 2.16837e+09
7.39317 46.9248 0.297908 1.83371e-08 4506 46.9498 1.83468e-08 3.08803e-07 267.571 2.55901e+09
7.81286 51.2692 0.351577 1.69764e-08 5018 51.1078 1.6923e-08 2.66181e-07 320.037 3.02002e+09
8.25637 56.0107 0.414914 1.57153e-08 5852 55.9365 1.56945e-08 2.29336e-07 401.009 3.56409e+09
8.72507 56.4094 0.489662 1.34111e-08 7362 56.3615 1.33997e-08 1.97503e-07 499.905 4.20617e+09
9.22037 61.3961 0.577876 1.23685e-08 8306 61.233 1.23356e-08 1.70014e-07 604.258 4.96392e+09
9.74378 66.6359 0.681982 1.13748e-08 9698 66.4537 1.13437e-08 1.46289e-07 754.077 5.85818e+09
10.2969 69.7161 0.804843 1.0084e-08 11816 69.6526 1.00748e-08 1.25822e-07 946.988 6.91355e+09
10.8814 78.564 0.949838 9.62907e-09 13682 78.3151 9.59856e-09 1.08175e-07 1217.88 8.15905e+09
11.4992 77.5027 1.12095 8.04895e-09 16152 77.4648 8.04502e-09 9.29669e-08 1398.42 9.62892e+09
12.1519 82.3678 1.3229 7.2484e-09 19472 82.2176 7.23518e-09 7.98658e-08 1767.22 1.13636e+10
12.8418 88.3491 1.56122 6.58792e-09 22670 88.0388 6.56478e-09 6.85852e-08 2177.56 1.34108e+10
13.5708 92.2672 1.84248 5.82982e-09 26224 92.1392 5.82173e-09 5.88765e-08 2596.64 1.58268e+10
14.3411 100.746 2.17441 5.39381e-09 31640 100.63 5.38762e-09 5.05241e-08 3377.8 1.8678e+10
15.1552 102.894 2.56613 4.66791e-09 37484 102.622 4.65556e-09 4.33417e-08 4037.04 2.20429e+10
16.0156 112.53 3.02843 4.32573e-09 43856 112.357 4.31912e-09 3.71677e-08 5104.14 2.6014e+10
16.9247 117.763 3.574 3.83586e-09 51362 117.595 3.83038e-09 3.18628e-08 6183.3 3.07005e+10
17.8855 124.394 4.21787 3.43335e-09 61636 124.202 3.42805e-09 2.73063e-08 7749.78 3.62312e+10
18.9008 132.015 4.97773 3.08746e-09 72218 131.72 3.08056e-09 2.33941e-08 9531.02 4.27584e+10
19.9738 139.202 5.87448 2.75857e-09 84586 138.977 2.75412e-09 2.00364e-08 11645.6 5.04614e+10
21.1076 146.502 6.93279 2.46006e-09 100708 146.293 2.45654e-09 1.71555e-08 14441.3 5.95522e+10
22.3058 155.915 8.18175 2.21846e-09 118712 155.673 2.21502e-09 1.46847e-08 17934.2 7.02807e+10
23.5721 163.932 9.65571 1.97646e-09 140410 163.555 1.97192e-09 1.25662e-08 22084.3 8.29419e+10
24.9102 172.075 11.3952 1.75795e-09 164374 171.791 1.75504e-09 1.07504e-08 26879.2 9.78842e+10
26.3243 181.033 13.4481 1.56714e-09 194680 180.718 1.56441e-09 9.19452e-09 33181.7 1.15518e+11
27.8187 191.487 15.8708 1.40459e-09 230196 191.185 1.40238e-09 7.86182e-09 41126.7 1.36329e+11
29.3979 201.209 18.73 1.2506e-09 271156 200.886 1.2486e-09 6.72061e-09 50458 1.60889e+11
31.0667 212.83 22.1042 1.1209e-09 321076 212.454 1.11892e-09 5.74366e-09 62659.6 1.89874e+11
32.8303 223.548 26.0864 9.97625e-10 377436 223.075 9.95516e-10 4.90756e-09 76726.5 2.2408e+11
34.694 234.994 30.7859 8.88618e-10 447594 234.523 8.86836e-10 4.19221e-09 94876 2.64449e+11
36.6634 246.811 36.3321 7.90834e-10 525078 246.375 7.89437e-10 3.58032e-09 115981 3.1209e+11
38.7447 260.855 42.8774 7.0824e-10 621924 260.382 7.06956e-10 3.05709e-09 144082 3.68314e+11
40.9442 272.448 50.6018 6.26799e-10 732630 271.953 6.25659e-10 2.60976e-09 175959 4.34667e+11
43.2685 286.724 59.7179 5.58946e-10 865596 286.261 5.58043e-10 2.22743e-09 217211 5.12973e+11
45.7247 301.728 70.4762 4.98405e-10 1.02168e+06 301.215 4.97559e-10 1.90073e-09 267901 6.05386e+11
48.3204 315.301 83.1727 4.4132e-10 1.20544e+06 314.729 4.40521e-10 1.62163e-09 328054 7.14448e+11
51.0634 329.845 98.1565 3.91202e-10 1.42103e+06 329.27 3.9052e-10 1.38326e-09 401885 8.43158e+11
53.9621 346.715 115.84 3.48438e-10 1.67997e+06 346.13 3.4785e-10 1.1797e-09 496196 9.95055e+11
57.0254 363.591 136.709 3.09619e-10 1.98018e+06 362.956 3.09079e-10 1.00592e-09 609494 1.17432e+12
60.2626 382.465 161.337 2.75974e-10 2.33957e+06 381.806 2.75499e-10 8.57591e-10 752877 1.38587e+12
63.6835 402.27 190.402 2.45955e-10 2.75676e+06 401.555 2.45518e-10 7.3101e-10 927540 1.63554e+12
67.2987 423.289 224.704 2.19299e-10 3.25638e+06 422.548 2.18915e-10 6.23009e-10 1.14625e+06 1.93019e+12
71.1191 446.369 265.185 1.95955e-10 3.84387e+06 445.573 1.95606e-10 5.30879e-10 1.41883e+06 2.27792e+12
75.1563 471.599 312.958 1.75427e-10 4.53277e+06 470.738 1.75107e-10 4.52303e-10 1.75804e+06 2.68829e+12
79.4227 499.387 369.339 1.57406e-10 5.35083e+06 498.504 1.57128e-10 3.85299e-10 2.18598e+06 3.17259e+12
83.9313 530.53 435.876 1.41696e-10 6.32174e+06 529.509 1.41423e-10 3.28173e-10 2.72955e+06 3.74415e+12
88.6959 564.544 514.4 1.27764e-10 7.44986e+06 563.408 1.27506e-10 2.79476e-10 3.40573e+06 4.41866e+12
93.7309 602.989 607.071 1.15633e-10 8.79764e+06 601.808 1.15406e-10 2.37972e-10 4.27484e+06 5.2147e+12
99.0518 647.873 716.436 1.05274e-10 1.03827e+07 646.55 1.05059e-10 2.02605e-10 5.39489e+06 6.15414e+12
104.675 697.526 845.504 9.60406e-11 1.22515e+07 695.997 9.58301e-11 1.72471e-10 6.82227e+06 7.26283e+12
110.617 758.212 997.824 8.846e-11 1.44573e+07 756.523 8.82629e-11 1.468e-10 8.71181e+06 8.57124e+12
116.896 828.799 1177.58 8.19346e-11 1.70664e+07 826.869 8.17438e-11 1.24935e-10 1.11925e+07 1.01154e+13
123.532 910.964 1389.73 7.63099e-11 2.0139e+07 908.76 7.61253e-11 1.06313e-10 1.44554e+07 1.19377e+13
130.545 1009.1 1640.09 7.16268e-11 2.37643e+07 1006.59 7.14486e-11 9.04567e-11 1.88174e+07 1.40883e+13
137.955 1124.04 1935.56 6.76063e-11 2.80503e+07 1121.11 6.743e-11 7.69563e-11 2.46422e+07 1.66263e+13
145.787 1262 2284.26 6.43169e-11 3.30981e+07 1258.62 6.41445e-11 6.54636e-11 3.25184e+07 1.96216e+13
154.063 1424.96 2695.77 6.15359e-11 3.90634e+07 1421.01 6.13656e-11 5.56812e-11 4.31708e+07 2.31565e+13
162.808 1619.38 3181.42 5.92568e-11 4.61057e+07 1614.76 5.90876e-11 4.73556e-11 5.76927e+07 2.73282e+13
172.051 1850.92 3754.56 5.73904e-11 5.44046e+07 1845.49 5.72219e-11 4.02708e-11 7.75326e+07 3.22515e+13
181.818 2126.81 4430.96 5.58781e-11 6.42064e+07 2120.4 5.57097e-11 3.42426e-11 1.04774e+08 3.80616e+13
192.139 2455.65 5229.21 5.46689e-11 7.57748e+07 2448.11 5.45011e-11 2.91139e-11 1.42287e+08 4.49186e+13
203.046 2848.97 6171.26 5.37433e-11 8.94213e+07 2840.13 5.35764e-11 2.4751e-11 1.94166e+08 5.30108e+13
214.572 3318.31 7283.03 5.30414e-11 1.05538e+08 3307.75 5.28725e-11 2.10401e-11 2.66059e+08 6.25608e+13
226.753 3881.77 8595.09 5.25762e-11 1.24552e+08 3869.15 5.24053e-11 1.78839e-11 3.66164e+08 7.38313e+13
239.625 4557.49 10143.5 5.23055e-11 1.46987e+08 4542.48 5.21333e-11 1.51999e-11 5.05808e+08 8.71322e+13
253.228 5371.75 11970.9 5.22395e-11 1.7347e+08 5353.72 5.20642e-11 1.29176e-11 7.01522e+08 1.02829e+14
267.603 6355.3 14127.5 5.23698e-11 2.04703e+08 6333.68 5.21917e-11 1.09771e-11 9.76598e+08 1.21354e+14
282.795 7552.98 16672.6 5.27382e-11 2.4161e+08 7526.8 5.25554e-11 9.3274e-12 1.36609e+09 1.43217e+14
298.848 9022.65 19676.2 5.3383e-11 2.85122e+08 8990.59 5.31933e-11 7.925e-12 1.92059e+09 1.69017e+14
315.813 10852 23220.9 5.44053e-11 3.36491e+08 10812.4 5.42064e-11 6.73295e-12 2.719e+09 1.99466e+14
333.741 13161.3 27404.3 5.59101e-11 3.97115e+08 13111.4 5.56984e-11 5.71979e-12 3.88174e+09 2.35401e+14
352.686 16144.6 32341.2 5.8114e-11 4.68637e+08 16080.5 5.78834e-11 4.85874e-12 5.60524e+09 2.77809e+14
372.707 20119.6 38167.6 6.13671e-11 5.53074e+08 20034.9 6.11087e-11 4.12703e-12 8.22397e+09 3.27857e+14
393.865 25615 45043.5 6.6202e-11 6.52716e+08 25498.4 6.59009e-11 3.50528e-12 1.23274e+10 3.86921e+14
416.224 30242.6 53158.3 6.62305e-11 2.2184e+08 31993.8 7.00657e-11 2.97701e-12 4.93534e+09 4.56626e+14
439.852 0 62734.9 0 0 0 0 2.52819e-12 0 5.38888e+14
464.821 0 74036.7 0 0 0 0 2.1469e-12 0 6.35971e+14
491.207 0 87374.6 0 0 0 0 1.82301e-12 0 7.50542e+14
519.092 0 103115 0 0 0 0 1.54789e-12 0 8.85755e+14
548.56 0 121692 0 0 0 0 1.31422e-12 0 1.04533e+15
579.7 0 143615 0 0 0 0 1.11576e-12 0 1.23364e+15
612.608 0 169488 0 0 0 0 9.47223e-13 0 1.45589e+15
647.384 0 200021 0 0 0 0 8.041e-13 0 1.71817e+15
684.134 0 236056 0 0 0 0 6.82568e-13 0 2.0277e+15
722.971 0 278582 0 0 0 0 5.79376e-13 0 2.393e+15
764.012 0 328769 0 0 0 0 4.91762e-13 0 2.8241e+15
0.919388
200
1.0655e+09
8589934592
0.0129181 0.00199788 1.58924e-09 0.000146349 6 0.00197959 0.000145009 0.00677225 0.129661 13.6515
0.0136515 0 1.87554e-09 0 0 0 0 0.00688819 0 16.1108
0.0144264 0 2.21343e-09 0 0 0 0 0.00699249 0 19.0132
0.0152454 0 2.61218e-09 0 0 0 0 0.00708412 0 22.4385
0.0161108 0 3.08278e-09 0 0 0 0 0.00716212 0 26.4808
0.0170254 0 3.63815e-09 0 0 0 0 0.00722559 0 31.2514
0.0179919 0.00438344 4.29357e-09 0.000118852 12 0.00437779 0.000118699 0.00727371 0.19608 36.8815
0.0190132 0 5.06707e-09 0 0 0 0 0.00730578 0 43.5258
0.0200925 0 5.97991e-09 0 0 0 0 0.00732122 0 51.367
0.0212331 0.0041167 7.05721e-09 6.79088e-05 8 0.00411312 6.78497e-05 0.00731958 0.0742216 60.621
0.0224385 0 8.32858e-09 0 0 0 0 0.00730056 0 71.542
0.0237123 0 9.829e-09 0 0 0 0 0.00726401 0 84.4305
0.0250583 0.0257205 1.15997e-08 0.000258132 6 0.0257084 0.00025801 0.00720995 0.214813 99.6408
0.0264808 0 1.36894e-08 0 0 0 0 0.00713857 0 117.591
0.0279841 0.0157318 1.61556e-08 0.000113361 24 0.0157156 0.000113245 0.00705021 0.385898 138.776
0.0295727 0 1.90661e-08 0 0 0 0 0.00694538 0 163.777
0.0312514 0.0278076 2.25009e-08 0.000143871 24 0.0279488 0.000144601 0.00682475 0.505938 193.281
0.0330255 0 2.65545e-08 0 0 0 0 0.00668915 0 228.102
0.0349003 0.0422602 3.13384e-08 0.000156987 12 0.0419218 0.00015573 0.00653951 0.288072 269.195
0.0368815 0.0335335 3.69841e-08 0.000105554 30 0.0331764 0.00010443 0.00637693 0.496573 317.691
0.0389751 0.0376666 4.36469e-08 0.000100465 24 0.0372791 9.94313e-05 0.00620256 0.388736 374.924
0.0411876 0.0242145 5.151e-08 5.47261e-05 24 0.0240501 5.43544e-05 0.00601767 0.218262 442.467
0.0435258 0.0606287 6.07896e-08 0.000116107 8 0.0606241 0.000116098 0.00582358 0.159499 522.179
0.0459966 0.0736702 7.1741e-08 0.000119546 72 0.0730898 0.000118604 0.00562166 1.53109 616.251
0.0486077 0 8.46654e-08 0 0 0 0 0.0054133 0 727.27
0.051367 0.099938 9.99181e-08 0.000116439 54 0.0996055 0.000116051 0.00519989 1.2092 858.29
0.054283 0.0807377 1.17919e-07 7.97084e-05 60 0.0811074 8.00734e-05 0.0049828 0.959802 1012.91
0.0573645 0.0751087 1.39162e-07 6.28318e-05 96 0.0749174 6.26718e-05 0.00476339 1.2663 1195.39
0.060621 0.0891985 1.64232e-07 6.3228e-05 24 0.08799 6.23713e-05 0.00454293 0.334029 1410.75
0.0640622 0.152448 1.93819e-07 9.15663e-05 134 0.152515 9.16064e-05 0.00432265 2.83851 1664.89
0.0676989 0.149117 2.28736e-07 7.58931e-05 120 0.148383 7.55196e-05 0.00410371 2.21925 1964.83
0.071542 0.140586 2.69944e-07 6.06286e-05 108 0.13903 5.99576e-05 0.00388717 1.68449 2318.8
0.0756032 0.208087 3.18575e-07 7.60403e-05 174 0.206928 7.56168e-05 0.00367401 3.60124 2736.54
0.079895 0.216681 3.75967e-07 6.70937e-05 168 0.214647 6.64639e-05 0.0034651 3.25294 3229.53
0.0844305 0.179946 4.43698e-07 4.72134e-05 168 0.180835 4.74467e-05 0.00326121 2.43218 3811.34
0.0892234 0.21635 5.23632e-07 4.80994e-05 290 0.215322 4.78711e-05 0.00306301 4.55396 4497.96
0.0942883 0.258656 6.17966e-07 4.87269e-05 288 0.258118 4.86255e-05 0.00287109 4.88782 5308.28
0.0996408 0.232007 7.29294e-07 3.70346e-05 366 0.230246 3.67535e-05 0.00268591 5.04659 6264.59
0.105297 0.273467 8.60678e-07 3.69891e-05 420 0.271516 3.67252e-05 0.00250785 6.19471 7393.17
0.111275 0.291829 1.01573e-06 3.34472e-05 398 0.291035 3.33562e-05 0.00233721 5.69566 8725.07
0.117591 0.345799 1.19872e-06 3.35828e-05 624 0.346794 3.36794e-05 0.00217419 9.63836 10296.9
0.124267 0.402255 1.41467e-06 3.31022e-05 642 0.401328 3.30258e-05 0.00201893 10.5262 12151.9
0.131321 0.470207 1.66953e-06 3.27873e-05 800 0.470327 3.27957e-05 0.00187147 14.0157 14341.1
0.138776 0.43619 1.9703e-06 2.57724e-05 858 0.438023 2.58806e-05 0.00173182 12.7685 16924.7
0.146654 0.509369 2.32525e-06 2.55019e-05 1080 0.513604 2.57139e-05 0.00159991 17.2148 19973.8
0.154979 0.59085 2.74415e-06 2.50657e-05 1286 0.594566 2.52233e-05 0.00147563 21.8444 23572.1
0.163777 0.580116 3.23852e-06 2.08535e-05 1650 0.581797 2.09139e-05 0.00135884 25.3218 27818.7
0.173074 0.643692 3.82195e-06 1.96067e-05 1778 0.644217 1.96227e-05 0.00124933 27.9035 32830.3
0.182899 0.696782 4.51048e-06 1.79839e-05 2112 0.698379 1.80251e-05 0.00114689 33.1174 38744.7
0.193281 0.768145 5.32305e-06 1.67993e-05 2570 0.768693 1.68113e-05 0.00105127 41.0687 45724.7
0.204254 0.898722 6.28202e-06 1.66547e-05 3030 0.89812 1.66435e-05 0.000962209 52.4457 53962.1
0.215848 0.93532 7.41374e-06 1.4687e-05 3434 0.934957 1.46813e-05 0.000879423 57.3502 63683.5
0.228102 0.993128 8.74934e-06 1.32142e-05 4218 0.992484 1.32056e-05 0.000802624 69.4439 75156.3
0.24105 1.10608 1.03256e-05 1.24705e-05 4766 1.10674 1.2478e-05 0.000731515 81.2481 88695.9
0.254734 1.20267 1.21857e-05 1.14896e-05 6026 1.20264 1.14893e-05 0.000665798 103.99 104675
0.269195 1.3724 1.4381e-05 1.11097e-05 6480 1.37118 1.10998e-05 0.000605173 118.959 123532
0.284476 1.4789 1.69718e-05 1.01443e-05 8162 1.48147 1.01619e-05 0.000549345 150.72 145787
0.300625 1.63563 2.00293e-05 9.50665e-06 9578 1.63611 9.50948e-06 0.000498021 182.833 172051
0.317691 1.81251 2.36377e-05 8.92661e-06 11234 1.8111 8.91963e-06 0.000450916 222.395 203046
0.335725 1.94886 2.78961e-05 8.13295e-06 13344 1.94538 8.11844e-06 0.000407755 266.155 239625
0.354784 2.19558 3.29216e-05 7.76387e-06 15464 2.19428 7.75927e-06 0.000368269 326.013 282795
0.374924 2.37425 3.88525e-05 7.11407e-06 18458 2.37188 7.10695e-06 0.000332202 395.276 333741
0.396207 2.74669 4.58519e-05 6.97369e-06 22232 2.74218 6.96223e-06 0.000299307 517.993 393865
0.418699 2.9511 5.41123e-05 6.34891e-06 25628 2.94392 6.33345e-06 0.00026935 604.084 464821
0.442467 3.22819 6.38607e-05 5.88485e-06 30320 3.2227 5.87484e-06 0.000242108 736.98 548560
0.467585 3.64755 7.53654e-05 5.63429e-06 35452 3.6409 5.62403e-06 0.00021737 918.925 647384
0.494129 4.03867 8.89427e-05 5.28613e-06 41792 4.03414 5.2802e-06 0.000194938 1133.27 764012
0.522179 4.5444 0.000104966 5.04009e-06 49988 4.54389 5.03953e-06 0.000174625 1442.77 901651
0.551822 5.07138 0.000123876 4.76595e-06 59110 5.06469 4.75967e-06 0.000156255 1802.92 1.06409e+06
0.583147 5.64724 0.000146192 4.49699e-06 69716 5.63834 4.4899e-06 0.000139664 2244.76 1.25578e+06
0.616251 6.30355 0.000172529 4.25336e-06 82210 6.29105 4.24492e-06 0.0001247 2804.08 1.48202e+06
0.651234 6.94638 0.000203611 3.97162e-06 96722 6.93107 3.96286e-06 0.00011122 3453.89 1.74901e+06
0.688203 7.8792 0.000240292 3.81727e-06 113098 7.86633 3.81104e-06 9.90935e-05 4356.75 2.06409e+06
0.72727 8.82664 0.000283581 3.6235e-06 135190 8.81351 3.61811e-06 8.81969e-05 5554.17 2.43595e+06
0.768555 9.84667 0.000334669 3.42518e-06 158170 9.83098 3.41972e-06 7.84179e-05 6908.64 2.87479e+06
0.812184 11.029 0.000394961 3.25083e-06 188560 11.0112 3.24558e-06 6.96525e-05 8800.48 3.39269e+06
0.85829 12.3303 0.000466114 3.07959e-06 220444 12.3102 3.07456e-06 6.1805e-05 10984.2 4.00389e+06
0.907013 13.7684 0.000550086 2.91382e-06 261388 13.7451 2.90889e-06 5.47875e-05 13901.7 4.7252e+06
0.958501 15.4072 0.000649185 2.76291e-06 308244 15.3836 2.75867e-06 4.85194e-05 17552.8 5.57646e+06
1.01291 17.2844 0.000766138 2.62637e-06 364396 17.255 2.62191e-06 4.29272e-05 22294.5 6.58107e+06
1.07041 19.2078 0.00090416 2.47311e-06 429162 19.1725 2.46856e-06 3.79435e-05 27972.2 7.76667e+06
1.13118 21.4244 0.00106705 2.33742e-06 506358 21.3883 2.33347e-06 3.3507e-05 35323.1 9.16586e+06
1.19539 23.9284 0.00125928 2.21209e-06 598590 23.8837 2.20795e-06 2.9562e-05 44791.7 1.08171e+07
1.26325 26.5666 0.00148614 2.08107e-06 704844 26.5199 2.07741e-06 2.60578e-05 56291.3 1.27658e+07
1.33496 29.4891 0.00175387 1.95737e-06 834620 29.4312 1.95353e-06 2.29484e-05 71188.3 1.50656e+07
1.41075 32.7091 0.00206984 1.83968e-06 981444 32.6476 1.83622e-06 2.01923e-05 89417.5 1.77798e+07
1.49083 36.0844 0.00244272 1.71971e-06 1.15998e+06 36.0188 1.71658e-06 1.77518e-05 112373 2.09828e+07
1.57546 39.8196 0.00288279 1.60803e-06 1.36931e+06 39.7472 1.60511e-06 1.55929e-05 141212 2.4763e+07
1.66489 43.8311 0.00340213 1.49983e-06 1.61652e+06 43.7506 1.49707e-06 1.3685e-05 177164 2.92241e+07
1.75941 48.2441 0.00401503 1.39883e-06 1.90601e+06 48.1534 1.3962e-06 1.20007e-05 222169 3.44889e+07
1.85928 52.8486 0.00473835 1.29843e-06 2.24913e+06 52.7497 1.29599e-06 1.05151e-05 277727 4.07021e+07
1.96483 57.6757 0.00559198 1.20071e-06 2.65744e+06 57.5694 1.1985e-06 9.20606e-06 346599 4.80347e+07
2.07637 62.9643 0.00659939 1.11071e-06 3.13125e+06 62.8514 1.10872e-06 8.05366e-06 431843 5.66883e+07
2.19424 68.6983 0.00778828 1.02687e-06 3.69915e+06 68.573 1.02499e-06 7.04008e-06 539559 6.69008e+07
2.3188 74.5821 0.00919136 9.44637e-07 4.36472e+06 74.4526 9.42997e-07 6.1494e-06 670485 7.89532e+07
2.45043 81.0966 0.0108472 8.70351e-07 5.14913e+06 80.9523 8.68803e-07 5.36741e-06 834956 9.31768e+07
2.58954 87.6782 0.0128014 7.97344e-07 6.07894e+06 87.5298 7.95994e-07 4.68145e-06 1.03536e+06 1.09963e+08
2.73654 94.8453 0.0151076 7.30855e-07 7.17304e+06 94.6852 7.29621e-07 4.08023e-06 1.28484e+06 1.29773e+08
2.89188 102.199 0.0178292 6.67307e-07 8.46557e+06 102.029 6.66192e-07 3.55373e-06 1.58963e+06 1.53152e+08
3.05605 110.113 0.0210412 6.09223e-07 9.98773e+06 109.929 6.08209e-07 3.09304e-06 1.96724e+06 1.80743e+08
3.22953 118.37 0.0248319 5.54937e-07 1.1797e+07 118.174 5.54018e-07 2.69025e-06 2.43345e+06 2.13304e+08
3.41286 127.069 0.0293054 5.04779e-07 1.39144e+07 126.854 5.03928e-07 2.33837e-06 3.00366e+06 2.51731e+08
3.6066 136.36 0.0345848 4.59e-07 1.64163e+07 136.13 4.58226e-07 2.0312e-06 3.70966e+06 2.97081e+08
3.81134 146.099 0.0408154 4.1671e-07 1.93821e+07 145.862 4.16035e-07 1.76327e-06 4.58055e+06 3.50601e+08
4.0277 156.243 0.0481684 3.77615e-07 2.28754e+07 155.985 3.76991e-07 1.52972e-06 5.64684e+06 4.13763e+08
4.25634 166.872 0.056846 3.41739e-07 2.69929e+07 166.591 3.41163e-07 1.32631e-06 6.95505e+06 4.88304e+08
4.49796 178.073 0.067087 3.09008e-07 3.18542e+07 177.778 3.08497e-07 1.14926e-06 8.56485e+06 5.76273e+08
4.7533 189.933 0.0791729 2.79276e-07 3.75892e+07 189.622 2.78818e-07 9.95263e-07 1.05477e+07 6.8009e+08
5.02313 202.193 0.0934361 2.51919e-07 4.43706e+07 201.861 2.51505e-07 8.61414e-07 1.29761e+07 8.0261e+08
5.30828 215.144 0.110269 2.27136e-07 5.23593e+07 214.789 2.26762e-07 7.45152e-07 1.596e+07 9.47202e+08
5.60962 228.834 0.130134 2.04711e-07 6.1787e+07 228.461 2.04377e-07 6.44232e-07 1.96334e+07 1.11784e+09
5.92807 243.133 0.153578 1.843e-07 7.29346e+07 242.735 1.83998e-07 5.56685e-07 2.41462e+07 1.31923e+09
6.26459 257.843 0.181246 1.65614e-07 8.60651e+07 257.418 1.65342e-07 4.80786e-07 2.96465e+07 1.55689e+09
6.62021 273.336 0.213898 1.48765e-07 1.01558e+08 272.886 1.4852e-07 4.15026e-07 3.64033e+07 1.83737e+09
6.99602 289.698 0.252432 1.33602e-07 1.1986e+08 289.223 1.33382e-07 3.58083e-07 4.472e+07 2.16837e+09
7.39317 306.692 0.297908 1.19848e-07 1.41457e+08 306.194 1.19653e-07 3.08803e-07 5.48999e+07 2.55901e+09
7.81286 324.392 0.351577 1.07414e-07 1.66936e+08 323.863 1.07238e-07 2.66181e-07 6.73647e+07 3.02002e+09
8.25637 343.206 0.414914 9.62957e-08 1.97025e+08 342.65 9.61397e-08 2.29336e-07 8.27287e+07 3.56409e+09
8.72507 362.808 0.489662 8.62561e-08 2.32497e+08 362.209 8.61137e-08 1.97503e-07 1.01539e+08 4.20617e+09
9.22037 383.799 0.577876 7.73177e-08 2.74404e+08 383.162 7.71893e-08 1.70014e-07 1.24791e+08 4.96392e+09
9.74378 406.874 0.681982 6.9454e-08 3.2382e+08 406.183 6.93359e-08 1.46289e-07 1.53741e+08 5.85818e+09
10.2969 432.521 0.804843 6.25614e-08 3.82165e+08 431.755 6.24505e-08 1.25822e-07 1.9002e+08 6.91355e+09
10.8814 463.001 0.949838 5.67469e-08 4.51027e+08 462.127 5.66398e-08 1.08175e-07 2.36601e+08 8.15905e+09
11.4992 502.07 1.12095 5.21419e-08 5.32251e+08 501.011 5.20319e-08 9.29669e-08 2.98521e+08 9.62892e+09
12.1519 556.991 1.3229 4.90154e-08 6.28157e+08 555.603 4.88932e-08 7.98658e-08 3.85514e+08 1.13636e+10
12.8418 619.04 1.56122 4.61599e-08 3.82727e+08 640.734 4.77775e-08 6.85852e-08 2.57587e+08 1.34108e+10
13.5708 0 1.84248 0 0 0 0 5.88765e-08 0 1.58268e+10
14.3411 0 2.17441 0 0 0 0 5.05241e-08 0 1.8678e+10
15.1552 0 2.56613 0 0 0 0 4.33417e-08 0 2.20429e+10
16.0156 0 3.02843 0 0 0 0 3.71677e-08 0 2.6014e+10
16.9247 0 3.574 0 0 0 0 3.18628e-08 0 3.07005e+10
17.8855 0 4.21787 0 0 0 0 2.73063e-08 0 3.62312e+10
18.9008 0 4.97773 0 0 0 0 2.33941e-08 0 4.27584e+10
19.9738 0 5.87448 0 0 0 0 2.00364e-08 0 5.04614e+10
21.1076 0 6.93279 0 0 0 0 1.71555e-08 0 5.95522e+10
22.3058 0 8.18175 0 0 0 0 1.46847e-08 0 7.02807e+10
23.5721 0 9.65571 0 0 0 0 1.25662e-08 0 8.29419e+10
24.9102 0 11.3952 0 0 0 0 1.07504e-08 0 9.78842e+10
26.3243 0 13.4481 0 0 0 0 9.19452e-09 0 1.15518e+11
27.8187 0 15.8708 0 0 0 0 7.86182e-09 0 1.36329e+11
29.3979 0 18.73 0 0 0 0 6.72061e-09 0 1.60889e+11
31.0667 0 22.1042 0 0 0 0 5.74366e-09 0 1.89874e+11
32.8303 0 26.0864 0 0 0 0 4.90756e-09 0 2.2408e+11
34.694 0 30.7859 0 0 0 0 4.19221e-09 0 2.64449e+11
36.6634 0 36.3321 0 0 0 0 3.58032e-09 0 3.1209e+11
38.7447 0 42.8774 0 0 0 0 3.05709e-09 0 3.68314e+11
40.9442 0 50.6018 0 0 0 0 2.60976e-09 0 4.34667e+11
43.2685 0 59.7179 0 0 0 0 2.22743e-09 0 5.12973e+11
45.7247 0 70.4762 0 0 0 0 1.90073e-09 0 6.05386e+11
48.3204 0 83.1727 0 0 0 0 1.62163e-09 0 7.14448e+11
51.0634 0 98.1565 0 0 0 0 1.38326e-09 0 8.43158e+11
53.9621 0 115.84 0 0 0 0 1.1797e-09 0 9.95055e+11
57.0254 0 136.709 0 0 0 0 1.00592e-09 0 1.17432e+12
60.2626 0 161.337 0 0 0 0 8.57591e-10 0 1.38587e+12
63.6835 0 190.402 0 0 0 0 7.3101e-10 0 1.63554e+12
67.2987 0 224.704 0 0 0 0 6.23009e-10 0 1.93019e+12
71.1191 0 265.185 0 0 0 0 5.30879e-10 0 2.27792e+12
75.1563 0 312.958 0 0 0 0 4.52303e-10 0 2.68829e+12
79.4227 0 369.339 0 0 0 0 3.85299e-10 0 3.17259e+12
83.9313 0 435.876 0 0 0 0 3.28173e-10 0 3.74415e+12
88.6959 0 514.4 0 0 0 0 2.79476e-10 0 4.41866e+12
93.7309 0 607.071 0 0 0 0 2.37972e-10 0 5.2147e+12
99.0518 0 716.436 0 0 0 0 2.02605e-10 0 6.15414e+12
104.675 0 845.504 0 0 0 0 1.72471e-10 0 7.26283e+12
110.617 0 997.824 0 0 0 0 1.468e-10 0 8.57124e+12
116.896 0 1177.58 0 0 0 0 1.24935e-10 0 1.01154e+13
123.532 0 1389.73 0 0 0 0 1.06313e-10 0 1.19377e+13
130.545 0 1640.09 0 0 0 0 9.04567e-11 0 1.40883e+13
137.955 0 1935.56 0 0 0 0 7.69563e-11 0 1.66263e+13
145.787 0 2284.26 0 0 0 0 6.54636e-11 0 1.96216e+13
154.063 0 2695.77 0 0 0 0 5.56812e-11 0 2.31565e+13
162.808 0 3181.42 0 0 0 0 4.73556e-11 0 2.73282e+13
172.051 0 3754.56 0 0 0 0 4.02708e-11 0 3.22515e+13
181.818 0 4430.96 0 0 0 0 3.42426e-11 0 3.80616e+13
192.139 0 5229.21 0 0 0 0 2.91139e-11 0 4.49186e+13
203.046 0 6171.26 0 0 0 0 2.4751e-11 0 5.30108e+13
214.572 0 7283.03 0 0 0 0 2.10401e-11 0 6.25608e+13
226.753 0 8595.09 0 0 0 0 1.78839e-11 0 7.38313e+13
239.625 0 10143.5 0 0 0 0 1.51999e-11 0 8.71322e+13
253.228 0 11970.9 0 0 0 0 1.29176e-11 0 1.02829e+14
267.603 0 14127.5 0 0 0 0 1.09771e-11 0 1.21354e+14
282.795 0 16672.6 0 0 0 0 9.3274e-12 0 1.43217e+14
298.848 0 19676.2 0 0 0 0 7.925e-12 0 1.69017e+14
315.813 0 23220.9 0 0 0 0 6.73295e-12 0 1.99466e+14
333.741 0 27404.3 0 0 0 0 5.71979e-12 0 2.35401e+14
352.686 0 32341.2 0 0 0 0 4.85874e-12 0 2.77809e+14
372.707 0 38167.6 0 0 0 0 4.12703e-12 0 3.27857e+14
393.865 0 45043.5 0 0 0 0 3.50528e-12 0 3.86921e+14
416.224 0 53158.3 0 0 0 0 2.97701e-12 0 4.56626e+14
439.852 0 62734.9 0 0 0 0 2.52819e-12 0 5.38888e+14
464.821 0 74036.7 0 0 0 0 2.1469e-12 0 6.35971e+14
491.207 0 87374.6 0 0 0 0 1.82301e-12 0 7.50542e+14
519.092 0 103115 0 0 0 0 1.54789e-12 0 8.85755e+14
548.56 0 121692 0 0 0 0 1.31422e-12 0 1.04533e+15
579.7 0 143615 0 0 0 0 1.11576e-12 0 1.23364e+15
612.608 0 169488 0 0 0 0 9.47223e-13 0 1.45589e+15
647.384 0 200021 0 0 0 0 8.041e-13 0 1.71817e+15
684.134 0 236056 0 0 0 0 6.82568e-13 0 2.0277e+15
722.971 0 278582 0 0 0 0 5.79376e-13 0 2.393e+15
764.012 0 328769 0 0 0 0 4.91762e-13 0 2.8241e+15
