0.93891
200
1.0655e+09
8589934592
0.0129181 0 1.58924e-09 0 0 0 0 0.00677225 0 13.6515
0.0136515 0 1.87554e-09 0 0 0 0 0.00688819 0 16.1108
0.0144264 0 2.21343e-09 0 0 0 0 0.00699249 0 19.0132
0.0152454 0 2.61218e-09 0 0 0 0 0.00708412 0 22.4385
0.0161108 0 3.08278e-09 0 0 0 0 0.00716212 0 26.4808
0.0170254 0 3.63815e-09 0 0 0 0 0.00722559 0 31.2514
0.0179919 0 4.29357e-09 0 0 0 0 0.00727371 0 36.8815
0.0190132 0 5.06707e-09 0 0 0 0 0.00730578 0 43.5258
0.0200925 0 5.97991e-09 0 0 0 0 0.00732122 0 51.367
0.0212331 0 7.05721e-09 0 0 0 0 0.00731958 0 60.621
0.0224385 0 8.32858e-09 0 0 0 0 0.00730056 0 71.542
0.0237123 0 9.829e-09 0 0 0 0 0.00726401 0 84.4305
0.0250583 0 1.15997e-08 0 0 0 0 0.00720995 0 99.6408
0.0264808 0 1.36894e-08 0 0 0 0 0.00713857 0 117.591
0.0279841 0 1.61556e-08 0 0 0 0 0.00705021 0 138.776
0.0295727 0 1.90661e-08 0 0 0 0 0.00694538 0 163.777
0.0312514 0 2.25009e-08 0 0 0 0 0.00682475 0 193.281
0.0330255 0 2.65545e-08 0 0 0 0 0.00668915 0 228.102
0.0349003 0 3.13384e-08 0 0 0 0 0.00653951 0 269.195
0.0368815 0 3.69841e-08 0 0 0 0 0.00637693 0 317.691
0.0389751 0 4.36469e-08 0 0 0 0 0.00620256 0 374.924
0.0411876 0 5.151e-08 0 0 0 0 0.00601767 0 442.467
0.0435258 0 6.07896e-08 0 0 0 0 0.00582358 0 522.179
0.0459966 0 7.1741e-08 0 0 0 0 0.00562166 0 616.251
0.0486077 0 8.46654e-08 0 0 0 0 0.0054133 0 727.27
0.051367 0 9.99181e-08 0 0 0 0 0.00519989 0 858.29
0.054283 0 1.17919e-07 0 0 0 0 0.0049828 0 1012.91
0.0573645 0 1.39162e-07 0 0 0 0 0.00476339 0 1195.39
0.060621 0 1.64232e-07 0 0 0 0 0.00454293 0 1410.75
0.0640622 0 1.93819e-07 0 0 0 0 0.00432265 0 1664.89
0.0676989 0 2.28736e-07 0 0 0 0 0.00410371 0 1964.83
0.071542 0 2.69944e-07 0 0 0 0 0.00388717 0 2318.8
0.0756032 0 3.18575e-07 0 0 0 0 0.00367401 0 2736.54
0.079895 0 3.75967e-07 0 0 0 0 0.0034651 0 3229.53
0.0844305 0 4.43698e-07 0 0 0 0 0.00326121 0 3811.34
0.0892234 0 5.23632e-07 0 0 0 0 0.00306301 0 4497.96
0.0942883 0 6.17966e-07 0 0 0 0 0.00287109 0 5308.28
0.0996408 0 7.29294e-07 0 0 0 0 0.00268591 0 6264.59
0.105297 0 8.60678e-07 0 0 0 0 0.00250785 0 7393.17
0.111275 0 1.01573e-06 0 0 0 0 0.00233721 0 8725.07
0.117591 0 1.19872e-06 0 0 0 0 0.00217419 0 10296.9
0.124267 0 1.41467e-06 0 0 0 0 0.00201893 0 12151.9
0.131321 0 1.66953e-06 0 0 0 0 0.00187147 0 14341.1
0.138776 0 1.9703e-06 0 0 0 0 0.00173182 0 16924.7
0.146654 0 2.32525e-06 0 0 0 0 0.00159991 0 19973.8
0.154979 0 2.74415e-06 0 0 0 0 0.00147563 0 23572.1
0.163777 0 3.23852e-06 0 0 0 0 0.00135884 0 27818.7
0.173074 0 3.82195e-06 0 0 0 0 0.00124933 0 32830.3
0.182899 0 4.51048e-06 0 0 0 0 0.00114689 0 38744.7
0.193281 0 5.32305e-06 0 0 0 0 0.00105127 0 45724.7
0.204254 0 6.28202e-06 0 0 0 0 0.000962209 0 53962.1
0.215848 0 7.41374e-06 0 0 0 0 0.000879423 0 63683.5
0.228102 0 8.74934e-06 0 0 0 0 0.000802624 0 75156.3
0.24105 0 1.03256e-05 0 0 0 0 0.000731515 0 88695.9
0.254734 0 1.21857e-05 0 0 0 0 0.000665798 0 104675
0.269195 0 1.4381e-05 0 0 0 0 0.000605173 0 123532
0.284476 0 1.69718e-05 0 0 0 0 0.000549345 0 145787
0.300625 0 2.00293e-05 0 0 0 0 0.000498021 0 172051
0.317691 0 2.36377e-05 0 0 0 0 0.000450916 0 203046
0.335725 0 2.78961e-05 0 0 0 0 0.000407755 0 239625
0.354784 0 3.29216e-05 0 0 0 0 0.000368269 0 282795
0.374924 0 3.88525e-05 0 0 0 0 0.000332202 0 333741
0.396207 1.91056 4.58519e-05 4.85079e-06 6 1.85744 4.71593e-06 0.000299307 0.0972405 393865
0.418699 0 5.41123e-05 0 0 0 0 0.00026935 0 464821
0.442467 0 6.38607e-05 0 0 0 0 0.000242108 0 548560
0.467585 0 7.53654e-05 0 0 0 0 0.00021737 0 647384
0.494129 0 8.89427e-05 0 0 0 0 0.000194938 0 764012
0.522179 0 0.000104966 0 0 0 0 0.000174625 0 901651
0.551822 0 0.000123876 0 0 0 0 0.000156255 0 1.06409e+06
0.583147 5.79218 0.000146192 4.61241e-06 12 6.0963 4.85458e-06 0.000139664 0.3963 1.25578e+06
0.616251 0 0.000172529 0 0 0 0 0.0001247 0 1.48202e+06
0.651234 0 0.000203611 0 0 0 0 0.00011122 0 1.74901e+06
0.688203 12.7589 0.000240292 6.18134e-06 8 12.4414 6.02756e-06 9.90935e-05 0.499031 2.06409e+06
0.72727 0 0.000283581 0 0 0 0 8.81969e-05 0 2.43595e+06
0.768555 0 0.000334669 0 0 0 0 7.84179e-05 0 2.87479e+06
0.812184 8.94875 0.000394961 2.63766e-06 6 9.14008 2.69405e-06 6.96525e-05 0.227213 3.39269e+06
0.85829 0 0.000466114 0 0 0 0 6.1805e-05 0 4.00389e+06
0.907013 1.22261 0.000550086 2.58742e-07 24 1.24607 2.63706e-07 5.47875e-05 0.113343 4.7252e+06
0.958501 7.63942 0.000649185 1.36994e-06 24 7.19195 1.2897e-06 4.85194e-05 0.677637 5.57646e+06
1.01291 0 0.000766138 0 0 0 0 4.29272e-05 0 6.58107e+06
1.07041 0 0.00090416 0 0 0 0 3.79435e-05 0 7.76667e+06
1.13118 7.64101 0.00106705 8.33638e-07 12 7.54715 8.23398e-07 3.3507e-05 0.298554 9.16586e+06
1.19539 3.97175 0.00125928 3.67173e-07 30 3.88987 3.59604e-07 2.9562e-05 0.372613 1.08171e+07
1.26325 10.201 0.00148614 7.99085e-07 24 10.0475 7.87061e-07 2.60578e-05 0.735981 1.27658e+07
1.33496 20.1005 0.00175387 1.33419e-06 24 20.1447 1.33713e-06 2.29484e-05 1.39533 1.50656e+07
1.41075 17.4576 0.00206984 9.81879e-07 32 17.7308 9.97244e-07 2.01923e-05 1.55605 1.77798e+07
1.49083 4.23834 0.00244272 2.01991e-07 48 4.14798 1.97684e-07 1.77518e-05 0.546174 2.09828e+07
1.57546 20.5036 0.00288279 8.27996e-07 6 19.5241 7.88439e-07 1.55929e-05 0.318606 2.4763e+07
1.66489 6.15161 0.00340213 2.10498e-07 84 6.01112 2.05691e-07 1.3685e-05 1.29206 2.92241e+07
1.75941 6.38496 0.00401503 1.85131e-07 48 6.25514 1.81367e-07 1.20007e-05 0.740483 3.44889e+07
1.85928 7.48435 0.00473835 1.83881e-07 72 7.4762 1.83681e-07 1.05151e-05 1.25909 4.07021e+07
1.96483 14.1744 0.00559198 2.95086e-07 54 13.773 2.86729e-07 9.20606e-06 1.73089 4.80347e+07
2.07637 12.1441 0.00659939 2.14226e-07 104 12.2974 2.16931e-07 8.05366e-06 2.76639 5.66883e+07
2.19424 10.8222 0.00778828 1.61765e-07 120 10.9996 1.64417e-07 7.04008e-06 2.75732 6.69008e+07
2.3188 12.6633 0.00919136 1.6039e-07 156 12.5068 1.58407e-07 6.1494e-06 4.06882 7.89532e+07
2.45043 11.7301 0.0108472 1.25891e-07 126 11.6812 1.25366e-07 5.36741e-06 2.95528 9.31768e+07
2.58954 12.1686 0.0128014 1.10661e-07 192 12.1799 1.10764e-07 4.68145e-06 4.53853 1.09963e+08
2.73654 33.0804 0.0151076 2.5491e-07 152 33.4272 2.57582e-07 4.08023e-06 9.4961 1.29773e+08
2.89188 16.0235 0.0178292 1.04625e-07 378 16.1793 1.05642e-07 3.55373e-06 11.1286 1.53152e+08
3.05605 16.5064 0.0210412 9.13255e-08 264 16.289 9.01228e-08 3.09304e-06 7.7949 1.80743e+08
3.22953 21.5577 0.0248319 1.01065e-07 366 21.4798 1.007e-07 2.69025e-06 13.7496 2.13304e+08
3.41286 16.6614 0.0293054 6.61872e-08 428 16.4888 6.55016e-08 2.33837e-06 12.1145 2.51731e+08
3.6066 20.6036 0.0345848 6.93535e-08 486 20.3355 6.84511e-08 2.0312e-06 16.594 2.97081e+08
3.81134 19.6975 0.0408154 5.6182e-08 600 19.7731 5.63978e-08 1.76327e-06 19.1175 3.50601e+08
4.0277 26.4046 0.0481684 6.38158e-08 738 26.2272 6.33869e-08 1.52972e-06 30.7873 4.13763e+08
4.25634 25.1224 0.056846 5.14482e-08 824 25.0972 5.13967e-08 1.32631e-06 31.9635 4.88304e+08
4.49796 27.1497 0.067087 4.71126e-08 954 27.0211 4.68894e-08 1.14926e-06 39.1082 5.76273e+08
4.7533 27.3956 0.0791729 4.02824e-08 1094 27.2957 4.01355e-08 9.95263e-07 44.2786 6.8009e+08
5.02313 31.9506 0.0934361 3.98083e-08 1332 32.0648 3.99506e-08 8.61414e-07 61.5554 8.0261e+08
5.30828 35.2581 0.110269 3.72235e-08 1614 35.2439 3.72084e-08 7.45152e-07 80.626 9.47202e+08
5.60962 42.1617 0.130134 3.7717e-08 1850 42.1462 3.77031e-08 6.44232e-07 108.309 1.11784e+09
5.92807 37.7053 0.153578 2.85814e-08 2238 37.7867 2.86431e-08 5.56685e-07 114.904 1.31923e+09
6.26459 37.1851 0.181246 2.38843e-08 2546 37.2676 2.39372e-08 4.80786e-07 126.479 1.55689e+09
6.62021 39.3725 0.213898 2.14288e-08 3264 39.4829 2.14889e-08 4.15026e-07 168.528 1.83737e+09
6.99602 44.6978 0.252432 2.06136e-08 3506 44.7541 2.06395e-08 3.58083e-07 201.828 2.16837e+09
7.39317 48.6875 0.297908 1.90259e-08 4506 48.6601 1.90152e-08 3.08803e-07 277.622 2.55901e+09
7.81286 53.2541 0.351577 1.76337e-08 5018 53.0331 1.75605e-08 2.66181e-07 332.427 3.02002e+09
8.25637 56.8408 0.414914 1.59482e-08 5852 56.8639 1.59547e-08 2.29336e-07 406.952 3.56409e+09
8.72507 57.9877 0.489662 1.37864e-08 7362 57.8279 1.37483e-08 1.97503e-07 513.892 4.20617e+09
9.22037 62.9426 0.577876 1.268e-08 8306 62.7767 1.26466e-08 1.70014e-07 619.479 4.96392e+09
9.74378 66.487 0.681982 1.13494e-08 9698 66.3914 1.13331e-08 1.46289e-07 752.392 5.85818e+09
10.2969 68.869 0.804843 9.96144e-09 11816 68.8491 9.95858e-09 1.25822e-07 935.48 6.91355e+09
10.8814 82.1646 0.949838 1.00704e-08 13682 81.9184 1.00402e-08 1.08175e-07 1273.7 8.15905e+09
11.4992 80.0906 1.12095 8.31771e-09 16152 80.0929 8.31795e-09 9.29669e-08 1445.11 9.62892e+09
12.1519 85.9804 1.3229 7.5663e-09 19472 85.8279 7.55288e-09 7.98658e-08 1844.73 1.13636e+10
12.8418 88.7777 1.56122 6.61988e-09 22670 88.5264 6.60114e-09 6.85852e-08 2188.12 1.34108e+10
13.5708 93.6068 1.84248 5.91446e-09 26224 93.4513 5.90463e-09 5.88765e-08 2634.34 1.58268e+10
14.3411 101.252 2.17441 5.42093e-09 31640 101.127 5.41423e-09 5.05241e-08 3394.78 1.8678e+10
15.1552 108.619 2.56613 4.92764e-09 37484 108.436 4.91933e-09 4.33417e-08 4261.66 2.20429e+10
16.0156 115.047 3.02843 4.42252e-09 43856 114.821 4.41384e-09 3.71677e-08 5218.35 2.6014e+10
16.9247 121.442 3.574 3.9557e-09 51362 121.286 3.95062e-09 3.18628e-08 6376.49 3.07005e+10
17.8855 126.972 4.21787 3.50448e-09 61636 126.798 3.49968e-09 2.73063e-08 7910.35 3.62312e+10
18.9008 134.492 4.97773 3.14539e-09 72218 134.174 3.13796e-09 2.33941e-08 9709.86 4.27584e+10
19.9738 142.132 5.87448 2.81665e-09 84586 141.915 2.81235e-09 2.00364e-08 11890.8 5.04614e+10
21.1076 152.101 6.93279 2.55408e-09 100708 151.838 2.54967e-09 1.71555e-08 14993.2 5.95522e+10
22.3058 162.292 8.18175 2.30919e-09 118712 162.034 2.30553e-09 1.46847e-08 18667.7 7.02807e+10
23.5721 168.153 9.65571 2.02736e-09 140410 167.794 2.02303e-09 1.25662e-08 22653 8.29419e+10
24.9102 176.378 11.3952 1.8019e-09 164374 176.105 1.79912e-09 1.07504e-08 27551.2 9.78842e+10
26.3243 185.173 13.4481 1.60298e-09 194680 184.909 1.60069e-09 9.19452e-09 33940.6 1.15518e+11
27.8187 196.295 15.8708 1.43986e-09 230196 195.962 1.43742e-09 7.86182e-09 42159.4 1.36329e+11
29.3979 206.58 18.73 1.28399e-09 271156 206.246 1.28192e-09 6.72061e-09 51805 1.60889e+11
31.0667 217.929 22.1042 1.14776e-09 321076 217.546 1.14574e-09 5.74366e-09 64160.7 1.89874e+11
32.8303 229.932 26.0864 1.02612e-09 377436 229.509 1.02423e-09 4.90756e-09 78917.7 2.2408e+11
34.694 241.089 30.7859 9.11665e-10 447594 240.629 9.09926e-10 4.19221e-09 97336.7 2.64449e+11
36.6634 252.739 36.3321 8.09827e-10 525078 252.23 8.08197e-10 3.58032e-09 118766 3.1209e+11
38.7447 266.526 42.8774 7.23637e-10 621924 266.009 7.22235e-10 3.05709e-09 147215 3.68314e+11
40.9442 280.062 50.6018 6.44314e-10 732630 279.562 6.43163e-10 2.60976e-09 180876 4.34667e+11
43.2685 293.545 59.7179 5.72243e-10 865596 293.078 5.71333e-10 2.22743e-09 222378 5.12973e+11
45.7247 308.942 70.4762 5.10323e-10 1.02168e+06 308.414 5.0945e-10 1.90073e-09 274307 6.05386e+11
48.3204 322.294 83.1727 4.51109e-10 1.20544e+06 321.716 4.50299e-10 1.62163e-09 335330 7.14448e+11
51.0634 337.72 98.1565 4.00541e-10 1.42103e+06 337.157 3.99874e-10 1.38326e-09 411479 8.43158e+11
53.9621 354.166 115.84 3.55926e-10 1.67997e+06 353.568 3.55325e-10 1.1797e-09 506859 9.95055e+11
57.0254 372.377 136.709 3.171e-10 1.98018e+06 371.698 3.16523e-10 1.00592e-09 624221 1.17432e+12
60.2626 391.851 161.337 2.82747e-10 2.33957e+06 391.16 2.82248e-10 8.57591e-10 771353 1.38587e+12
63.6835 411.605 190.402 2.51662e-10 2.75676e+06 410.887 2.51224e-10 7.3101e-10 949063 1.63554e+12
67.2987 433.572 224.704 2.24627e-10 3.25638e+06 432.784 2.24218e-10 6.23009e-10 1.17409e+06 1.93019e+12
71.1191 456.35 265.185 2.00336e-10 3.84387e+06 455.528 1.99976e-10 5.30879e-10 1.45055e+06 2.27792e+12
75.1563 481.494 312.958 1.79108e-10 4.53277e+06 480.601 1.78776e-10 4.52303e-10 1.79493e+06 2.68829e+12
79.4227 509.712 369.339 1.60661e-10 5.35083e+06 508.793 1.60371e-10 3.85299e-10 2.23117e+06 3.17259e+12
83.9313 540.446 435.876 1.44344e-10 6.32174e+06 539.424 1.44071e-10 3.28173e-10 2.78057e+06 3.74415e+12
88.6959 576.08 514.4 1.30374e-10 7.44986e+06 574.93 1.30114e-10 2.79476e-10 3.47532e+06 4.41866e+12
93.7309 614.293 607.071 1.178e-10 8.79764e+06 613.084 1.17568e-10 2.37972e-10 4.35497e+06 5.2147e+12
99.0518 658.334 716.436 1.06974e-10 1.03827e+07 657.013 1.0676e-10 2.02605e-10 5.482e+06 6.15414e+12
104.675 709.295 845.504 9.76611e-11 1.22515e+07 707.779 9.74523e-11 1.72471e-10 6.93738e+06 7.26283e+12
110.617 769.558 997.824 8.97837e-11 1.44573e+07 767.876 8.95875e-11 1.468e-10 8.84217e+06 8.57124e+12
116.896 838.888 1177.58 8.2932e-11 1.70664e+07 836.97 8.27424e-11 1.24935e-10 1.13287e+07 1.01154e+13
123.532 921.439 1389.73 7.71874e-11 2.0139e+07 919.243 7.70035e-11 1.06313e-10 1.46217e+07 1.19377e+13
130.545 1018.86 1640.09 7.23193e-11 2.37643e+07 1016.35 7.21412e-11 9.04567e-11 1.89993e+07 1.40883e+13
137.955 1133.56 1935.56 6.81788e-11 2.80503e+07 1130.63 6.80026e-11 7.69563e-11 2.48509e+07 1.66263e+13
145.787 1269.59 2284.26 6.47036e-11 3.30981e+07 1266.2 6.45309e-11 6.54636e-11 3.27139e+07 1.96216e+13
154.063 1431.76 2695.77 6.18299e-11 3.90634e+07 1427.8 6.16587e-11 5.56812e-11 4.33771e+07 2.31565e+13
162.808 1624.16 3181.42 5.94315e-11 4.61057e+07 1619.53 5.92622e-11 4.73556e-11 5.78628e+07 2.73282e+13
172.051 1853.74 3754.56 5.74777e-11 5.44046e+07 1848.32 5.73096e-11 4.02708e-11 7.76505e+07 3.22515e+13
181.818 2128.74 4430.96 5.59288e-11 6.42064e+07 2122.37 5.57613e-11 3.42426e-11 1.04869e+08 3.80616e+13
192.139 2454.86 5229.21 5.46514e-11 7.57748e+07 2447.32 5.44835e-11 2.91139e-11 1.42241e+08 4.49186e+13
203.046 2845.52 6171.26 5.36781e-11 8.94213e+07 2836.67 5.35112e-11 2.4751e-11 1.9393e+08 5.30108e+13
214.572 3312.1 7283.03 5.29421e-11 1.05538e+08 3301.56 5.27736e-11 2.10401e-11 2.65561e+08 6.25608e+13
226.753 3872.56 8595.09 5.24514e-11 1.24552e+08 3860.08 5.22824e-11 1.78839e-11 3.65296e+08 7.38313e+13
239.625 4544.09 10143.5 5.21517e-11 1.46987e+08 4529.11 5.19798e-11 1.51999e-11 5.04321e+08 8.71322e+13
253.228 5354.33 11970.9 5.20701e-11 1.7347e+08 5336.37 5.18954e-11 1.29176e-11 6.99247e+08 1.02829e+14
267.603 6333.48 14127.5 5.219e-11 2.04703e+08 6311.95 5.20126e-11 1.09771e-11 9.73245e+08 1.21354e+14
282.795 7524.64 16672.6 5.25403e-11 2.4161e+08 7498.55 5.23581e-11 9.3274e-12 1.36096e+09 1.43217e+14
298.848 8986.51 19676.2 5.31692e-11 2.85122e+08 8954.61 5.29804e-11 7.925e-12 1.9129e+09 1.69017e+14
315.813 10805.4 23220.9 5.41716e-11 3.36491e+08 10765.9 5.39737e-11 6.73295e-12 2.70733e+09 1.99466e+14
333.741 13105.1 27404.3 5.56716e-11 3.97115e+08 13055.4 5.54605e-11 5.71979e-12 3.86518e+09 2.35401e+14
352.686 16076 32341.2 5.78671e-11 4.68637e+08 16012.3 5.76377e-11 4.85874e-12 5.58142e+09 2.77809e+14
372.707 20029.6 38167.6 6.10925e-11 5.53074e+08 19945.3 6.08354e-11 4.12703e-12 8.18716e+09 3.27857e+14
393.865 25502.3 45043.5 6.59109e-11 6.52716e+08 25386.3 6.56112e-11 3.50528e-12 1.22732e+10 3.86921e+14
416.224 30109.6 53158.3 6.59393e-11 2.2184e+08 31853.1 6.97575e-11 2.97701e-12 4.91364e+09 4.56626e+14
439.852 0 62734.9 0 0 0 0 2.52819e-12 0 5.38888e+14
464.821 0 74036.7 0 0 0 0 2.1469e-12 0 6.35971e+14
491.207 0 87374.6 0 0 0 0 1.82301e-12 0 7.50542e+14
519.092 0 103115 0 0 0 0 1.54789e-12 0 8.85755e+14
548.56 0 121692 0 0 0 0 1.31422e-12 0 1.04533e+15
579.7 0 143615 0 0 0 0 1.11576e-12 0 1.23364e+15
612.608 0 169488 0 0 0 0 9.47223e-13 0 1.45589e+15
647.384 0 200021 0 0 0 0 8.041e-13 0 1.71817e+15
684.134 0 236056 0 0 0 0 6.82568e-13 0 2.0277e+15
722.971 0 278582 0 0 0 0 5.79376e-13 0 2.393e+15
764.012 0 328769 0 0 0 0 4.91762e-13 0 2.8241e+15
0.93891
200
1.0655e+09
8589934592
0.0129181 0.00204604 1.58924e-09 0.000149877 6 0.00202731 0.000148505 0.00677225 0.132786 13.6515
0.0136515 0 1.87554e-09 0 0 0 0 0.00688819 0 16.1108
0.0144264 0 2.21343e-09 0 0 0 0 0.00699249 0 19.0132
0.0152454 0 2.61218e-09 0 0 0 0 0.00708412 0 22.4385
0.0161108 0 3.08278e-09 0 0 0 0 0.00716212 0 26.4808
0.0170254 0 3.63815e-09 0 0 0 0 0.00722559 0 31.2514
0.0179919 0.00448927 4.29357e-09 0.000121722 12 0.00448349 0.000121565 0.00727371 0.200814 36.8815
0.0190132 0 5.06707e-09 0 0 0 0 0.00730578 0 43.5258
0.0200925 0 5.97991e-09 0 0 0 0 0.00732122 0 51.367
0.0212331 0.00421619 7.05721e-09 6.955e-05 8 0.00421252 6.94895e-05 0.00731958 0.0760153 60.621
0.0224385 0 8.32858e-09 0 0 0 0 0.00730056 0 71.542
0.0237123 0 9.829e-09 0 0 0 0 0.00726401 0 84.4305
0.0250583 0.0263329 1.15997e-08 0.000264278 6 0.0263205 0.000264154 0.00720995 0.219928 99.6408
0.0264808 0 1.36894e-08 0 0 0 0 0.00713857 0 117.591
0.0279841 0.0161044 1.61556e-08 0.000116046 24 0.0160878 0.000115927 0.00705021 0.395039 138.776
0.0295727 0 1.90661e-08 0 0 0 0 0.00694538 0 163.777
0.0312514 0.0284612 2.25009e-08 0.000147253 24 0.0286057 0.000148 0.00682475 0.51783 193.281
0.0330255 0 2.65545e-08 0 0 0 0 0.00668915 0 228.102
0.0349003 0.0433057 3.13384e-08 0.000160871 12 0.042959 0.000159583 0.00653951 0.295199 269.195
0.0368815 0.0343234 3.69841e-08 0.00010804 30 0.0339579 0.00010689 0.00637693 0.508271 317.691
0.0389751 0.0385203 4.36469e-08 0.000102742 24 0.038124 0.000101685 0.00620256 0.397546 374.924
0.0411876 0.0247724 5.151e-08 5.5987e-05 24 0.0246042 5.56067e-05 0.00601767 0.22329 442.467
0.0435258 0.062146 6.07896e-08 0.000119013 8 0.0621412 0.000119004 0.00582358 0.163491 522.179
0.0459966 0.0754647 7.1741e-08 0.000122458 72 0.0748702 0.000121493 0.00562166 1.56839 616.251
0.0486077 0 8.46654e-08 0 0 0 0 0.0054133 0 727.27
0.051367 0.102241 9.99181e-08 0.000119122 54 0.101901 0.000118726 0.00519989 1.23707 858.29
0.054283 0.0826426 1.17919e-07 8.15891e-05 60 0.0830215 8.19631e-05 0.0049828 0.982448 1012.91
0.0573645 0.0768194 1.39162e-07 6.42629e-05 96 0.0766237 6.40992e-05 0.00476339 1.29514 1195.39
0.060621 0.0912774 1.64232e-07 6.47016e-05 24 0.0900408 6.3825e-05 0.00454293 0.341814 1410.75
0.0640622 0.155886 1.93819e-07 9.36314e-05 134 0.155954 9.3672e-05 0.00432265 2.90253 1664.89
0.0676989 0.152542 2.28736e-07 7.76361e-05 120 0.15179 7.72536e-05 0.00410371 2.27022 1964.83
0.071542 0.143903 2.69944e-07 6.20592e-05 108 0.142309 6.1372e-05 0.00388717 1.72423 2318.8
0.0756032 0.213024 3.18575e-07 7.78442e-05 174 0.211836 7.74103e-05 0.00367401 3.68668 2736.54
0.079895 0.221775 3.75967e-07 6.86709e-05 168 0.219693 6.80263e-05 0.0034651 3.32941 3229.53
0.0844305 0.184108 4.43698e-07 4.83053e-05 168 0.185017 4.85439e-05 0.00326121 2.48843 3811.34
0.0892234 0.221658 5.23632e-07 4.92797e-05 290 0.220603 4.90451e-05 0.00306301 4.6657 4497.96
0.0942883 0.264583 6.17966e-07 4.98434e-05 288 0.264035 4.97401e-05 0.00287109 4.99981 5308.28
0.0996408 0.237444 7.29294e-07 3.79026e-05 366 0.235645 3.76153e-05 0.00268591 5.16486 6264.59
0.105297 0.280173 8.60678e-07 3.78963e-05 420 0.278173 3.76257e-05 0.00250785 6.34663 7393.17
0.111275 0.298953 1.01573e-06 3.42637e-05 398 0.298145 3.41711e-05 0.00233721 5.83471 8725.07
0.117591 0.354153 1.19872e-06 3.43941e-05 624 0.355178 3.44937e-05 0.00217419 9.87121 10296.9
0.124267 0.412294 1.41467e-06 3.39283e-05 642 0.411338 3.38496e-05 0.00201893 10.7889 12151.9
0.131321 0.481151 1.66953e-06 3.35504e-05 800 0.48127 3.35587e-05 0.00187147 14.3419 14341.1
0.138776 0.446903 1.9703e-06 2.64053e-05 858 0.448775 2.6516e-05 0.00173182 13.0821 16924.7
0.146654 0.52243 2.32525e-06 2.61558e-05 1080 0.52677 2.63731e-05 0.00159991 17.6562 19973.8
0.154979 0.60578 2.74415e-06 2.5699e-05 1286 0.609585 2.58605e-05 0.00147563 22.3964 23572.1
0.163777 0.595348 3.23852e-06 2.1401e-05 1650 0.597078 2.14632e-05 0.00135884 25.9867 27818.7
0.173074 0.659998 3.82195e-06 2.01033e-05 1778 0.660543 2.01199e-05 0.00124933 28.6103 32830.3
0.182899 0.71606 4.51048e-06 1.84815e-05 2112 0.717693 1.85236e-05 0.00114689 34.0336 38744.7
0.193281 0.789121 5.32305e-06 1.72581e-05 2570 0.789672 1.72701e-05 0.00105127 42.1901 45724.7
0.204254 0.923169 6.28202e-06 1.71077e-05 3030 0.922546 1.70962e-05 0.000962209 53.8723 53962.1
0.215848 0.961524 7.41374e-06 1.50985e-05 3434 0.96115 1.50926e-05 0.000879423 58.957 63683.5
0.228102 1.02146 8.74934e-06 1.35911e-05 4218 1.02078 1.35821e-05 0.000802624 71.4249 75156.3
0.24105 1.13781 1.03256e-05 1.28282e-05 4766 1.13849 1.28359e-05 0.000731515 83.5788 88695.9
0.254734 1.23721 1.21857e-05 1.18196e-05 6026 1.23718 1.18193e-05 0.000665798 106.977 104675
0.269195 1.41301 1.4381e-05 1.14384e-05 6480 1.41175 1.14282e-05 0.000605173 122.479 123532
0.284476 1.52255 1.69718e-05 1.04436e-05 8162 1.52516 1.04616e-05 0.000549345 155.169 145787
0.300625 1.68527 2.00293e-05 9.79517e-06 9578 1.68573 9.79786e-06 0.000498021 188.382 172051
0.317691 1.86915 2.36377e-05 9.20556e-06 11234 1.86773 9.19855e-06 0.000450916 229.345 203046
0.335725 2.00924 2.78961e-05 8.38492e-06 13344 2.00567 8.37003e-06 0.000407755 274.401 239625
0.354784 2.26574 3.29216e-05 8.01196e-06 15464 2.2644 8.00722e-06 0.000368269 336.43 282795
0.374924 2.45281 3.88525e-05 7.34946e-06 18458 2.45032 7.342e-06 0.000332202 408.355 333741
0.396207 2.83861 4.58519e-05 7.20706e-06 22232 2.83388 7.19506e-06 0.000299307 535.328 393865
0.418699 3.05102 5.41123e-05 6.56386e-06 25628 3.04357 6.54784e-06 0.00026935 624.536 464821
0.442467 3.34143 6.38607e-05 6.09129e-06 30320 3.33573 6.08088e-06 0.000242108 762.833 548560
0.467585 3.77469 7.53654e-05 5.83069e-06 35452 3.76779 5.82002e-06 0.00021737 950.955 647384
0.494129 4.18273 8.89427e-05 5.47469e-06 41792 4.17804 5.46855e-06 0.000194938 1173.7 764012
0.522179 4.7078 0.000104966 5.22131e-06 49988 4.70725 5.2207e-06 0.000174625 1494.65 901651
0.551822 5.25858 0.000123876 4.94188e-06 59110 5.25166 4.93538e-06 0.000156255 1869.48 1.06409e+06
0.583147 5.86026 0.000146192 4.66661e-06 69716 5.85104 4.65927e-06 0.000139664 2329.43 1.25578e+06
0.616251 6.54656 0.000172529 4.41734e-06 82210 6.53354 4.40855e-06 0.0001247 2912.18 1.48202e+06
0.651234 7.21185 0.000203611 4.1234e-06 96722 7.196 4.11434e-06 0.00011122 3585.88 1.74901e+06
0.688203 8.18279 0.000240292 3.96435e-06 113098 8.16937 3.95785e-06 9.90935e-05 4524.62 2.06409e+06
0.72727 9.17579 0.000283581 3.76683e-06 135190 9.16205 3.76119e-06 8.81969e-05 5773.87 2.43595e+06
0.768555 10.2341 0.000334669 3.55995e-06 158170 10.2176 3.5542e-06 7.84179e-05 7180.47 2.87479e+06
0.812184 11.4725 0.000394961 3.38153e-06 188560 11.4541 3.37611e-06 6.96525e-05 9154.31 3.39269e+06
0.85829 12.8298 0.000466114 3.20433e-06 220444 12.8088 3.19909e-06 6.1805e-05 11429.1 4.00389e+06
0.907013 14.3245 0.000550086 3.03151e-06 261388 14.3004 3.0264e-06 5.47875e-05 14463.1 4.7252e+06
0.958501 16.0348 0.000649185 2.87544e-06 308244 16.01 2.871e-06 4.85194e-05 18267.7 5.57646e+06
1.01291 17.9858 0.000766138 2.73296e-06 364396 17.9551 2.7283e-06 4.29272e-05 23199.3 6.58107e+06
1.07041 19.9969 0.00090416 2.5747e-06 429162 19.96 2.56996e-06 3.79435e-05 29121.3 7.76667e+06
1.13118 22.309 0.00106705 2.43392e-06 506358 22.2711 2.42979e-06 3.3507e-05 36781.4 9.16586e+06
1.19539 24.9172 0.00125928 2.3035e-06 598590 24.8707 2.2992e-06 2.9562e-05 46642.7 1.08171e+07
1.26325 27.6709 0.00148614 2.16757e-06 704844 27.6225 2.16378e-06 2.60578e-05 58631.2 1.27658e+07
1.33496 30.7114 0.00175387 2.0385e-06 834620 30.6512 2.03451e-06 2.29484e-05 74139.1 1.50656e+07
1.41075 34.0701 0.00206984 1.91623e-06 981444 34.0061 1.91263e-06 2.01923e-05 93138 1.77798e+07
1.49083 37.5824 0.00244272 1.7911e-06 1.15998e+06 37.5141 1.78785e-06 1.77518e-05 117038 2.09828e+07
1.57546 41.464 0.00288279 1.67444e-06 1.36931e+06 41.3886 1.67139e-06 1.55929e-05 147043 2.4763e+07
1.66489 45.6329 0.00340213 1.56148e-06 1.61652e+06 45.5492 1.55862e-06 1.3685e-05 184447 2.92241e+07
1.75941 50.1982 0.00401503 1.45549e-06 1.90601e+06 50.1039 1.45276e-06 1.20007e-05 231168 3.44889e+07
1.85928 55.0044 0.00473835 1.35139e-06 2.24913e+06 54.9021 1.34888e-06 1.05151e-05 289055 4.07021e+07
1.96483 60.0089 0.00559198 1.24928e-06 2.65744e+06 59.8995 1.247e-06 9.20606e-06 360621 4.80347e+07
2.07637 65.442 0.00659939 1.15442e-06 3.13125e+06 65.3258 1.15237e-06 8.05366e-06 448836 5.66883e+07
2.19424 71.3886 0.00778828 1.06708e-06 3.69915e+06 71.2588 1.06514e-06 7.04008e-06 560688 6.69008e+07
2.3188 77.4796 0.00919136 9.81336e-07 4.36472e+06 77.3452 9.79634e-07 6.1494e-06 696533 7.89532e+07
2.45043 84.2295 0.0108472 9.03975e-07 5.14913e+06 84.0788 9.02357e-07 5.36741e-06 867212 9.31768e+07
2.58954 91.1015 0.0128014 8.28475e-07 6.07894e+06 90.9486 8.27085e-07 4.68145e-06 1.07579e+06 1.09963e+08
2.73654 98.588 0.0151076 7.59696e-07 7.17304e+06 98.4203 7.58403e-07 4.08023e-06 1.33554e+06 1.29773e+08
2.89188 106.261 0.0178292 6.93829e-07 8.46557e+06 106.085 6.92675e-07 3.55373e-06 1.65281e+06 1.53152e+08
3.05605 114.442 0.0210412 6.33176e-07 9.98773e+06 114.251 6.32117e-07 3.09304e-06 2.04459e+06 1.80743e+08
3.22953 123.002 0.0248319 5.76652e-07 1.1797e+07 122.799 5.757e-07 2.69025e-06 2.52868e+06 2.13304e+08
3.41286 132.05 0.0293054 5.24565e-07 1.39144e+07 131.828 5.23684e-07 2.33837e-06 3.1214e+06 2.51731e+08
3.6066 141.648 0.0345848 4.768e-07 1.64163e+07 141.409 4.75994e-07 2.0312e-06 3.85353e+06 2.97081e+08
3.81134 151.914 0.0408154 4.33296e-07 1.93821e+07 151.668 4.32593e-07 1.76327e-06 4.76287e+06 3.50601e+08
4.0277 162.53 0.0481684 3.92809e-07 2.28754e+07 162.26 3.92156e-07 1.52972e-06 5.87404e+06 4.13763e+08
4.25634 173.548 0.056846 3.5541e-07 2.69929e+07 173.256 3.54812e-07 1.32631e-06 7.23328e+06 4.88304e+08
4.49796 185.209 0.067087 3.2139e-07 3.18542e+07 184.902 3.20858e-07 1.14926e-06 8.90805e+06 5.76273e+08
4.7533 197.684 0.0791729 2.90673e-07 3.75892e+07 197.357 2.90193e-07 9.95263e-07 1.09782e+07 6.8009e+08
5.02313 210.516 0.0934361 2.6229e-07 4.43706e+07 210.169 2.61857e-07 8.61414e-07 1.35103e+07 8.0261e+08
5.30828 224.016 0.110269 2.36503e-07 5.23593e+07 223.649 2.36115e-07 7.45152e-07 1.66182e+07 9.47202e+08
5.60962 238.209 0.130134 2.13097e-07 6.1787e+07 237.819 2.12748e-07 6.44232e-07 2.04377e+07 1.11784e+09
5.92807 253.277 0.153578 1.91989e-07 7.29346e+07 252.861 1.91674e-07 5.56685e-07 2.51537e+07 1.31923e+09
6.26459 268.699 0.181246 1.72587e-07 8.60651e+07 268.255 1.72302e-07 4.80786e-07 3.08946e+07 1.55689e+09
6.62021 284.914 0.213898 1.55067e-07 1.01558e+08 284.447 1.54812e-07 4.15026e-07 3.79453e+07 1.83737e+09
6.99602 301.967 0.252432 1.3926e-07 1.1986e+08 301.47 1.39031e-07 3.58083e-07 4.66141e+07 2.16837e+09
7.39317 319.739 0.297908 1.24946e-07 1.41457e+08 319.219 1.24743e-07 3.08803e-07 5.72354e+07 2.55901e+09
7.81286 338.081 0.351577 1.11947e-07 1.66936e+08 337.531 1.11765e-07 2.66181e-07 7.02075e+07 3.02002e+09
8.25637 357.872 0.414914 1.00411e-07 1.97025e+08 357.285 1.00246e-07 2.29336e-07 8.62638e+07 3.56409e+09
8.72507 378.419 0.489662 8.99676e-08 2.32497e+08 377.794 8.9819e-08 1.97503e-07 1.05908e+08 4.20617e+09
9.22037 400.371 0.577876 8.06562e-08 2.74404e+08 399.705 8.05221e-08 1.70014e-07 1.3018e+08 4.96392e+09
9.74378 424.45 0.681982 7.24541e-08 3.2382e+08 423.721 7.23297e-08 1.46289e-07 1.60382e+08 5.85818e+09
10.2969 451.437 0.804843 6.52974e-08 3.82165e+08 450.637 6.51817e-08 1.25822e-07 1.9833e+08 6.91355e+09
10.8814 483.368 0.949838 5.92432e-08 4.51027e+08 482.453 5.9131e-08 1.08175e-07 2.47009e+08 8.15905e+09
11.4992 524.223 1.12095 5.44426e-08 5.32251e+08 523.116 5.43276e-08 9.29669e-08 3.11693e+08 9.62892e+09
12.1519 581.781 1.3229 5.11969e-08 6.28157e+08 580.334 5.10696e-08 7.98658e-08 4.02672e+08 1.13636e+10
12.8418 646.621 1.56122 4.82165e-08 3.82727e+08 669.28 4.99061e-08 6.85852e-08 2.69063e+08 1.34108e+10
13.5708 0 1.84248 0 0 0 0 5.88765e-08 0 1.58268e+10
14.3411 0 2.17441 0 0 0 0 5.05241e-08 0 1.8678e+10
15.1552 0 2.56613 0 0 0 0 4.33417e-08 0 2.20429e+10
16.0156 0 3.02843 0 0 0 0 3.71677e-08 0 2.6014e+10
16.9247 0 3.574 0 0 0 0 3.18628e-08 0 3.07005e+10
17.8855 0 4.21787 0 0 0 0 2.73063e-08 0 3.62312e+10
18.9008 0 4.97773 0 0 0 0 2.33941e-08 0 4.27584e+10
19.9738 0 5.87448 0 0 0 0 2.00364e-08 0 5.04614e+10
21.1076 0 6.93279 0 0 0 0 1.71555e-08 0 5.95522e+10
22.3058 0 8.18175 0 0 0 0 1.46847e-08 0 7.02807e+10
23.5721 0 9.65571 0 0 0 0 1.25662e-08 0 8.29419e+10
24.9102 0 11.3952 0 0 0 0 1.07504e-08 0 9.78842e+10
26.3243 0 13.4481 0 0 0 0 9.19452e-09 0 1.15518e+11
27.8187 0 15.8708 0 0 0 0 7.86182e-09 0 1.36329e+11
29.3979 0 18.73 0 0 0 0 6.72061e-09 0 1.60889e+11
31.0667 0 22.1042 0 0 0 0 5.74366e-09 0 1.89874e+11
32.8303 0 26.0864 0 0 0 0 4.90756e-09 0 2.2408e+11
34.694 0 30.7859 0 0 0 0 4.19221e-09 0 2.64449e+11
36.6634 0 36.3321 0 0 0 0 3.58032e-09 0 3.1209e+11
38.7447 0 42.8774 0 0 0 0 3.05709e-09 0 3.68314e+11
40.9442 0 50.6018 0 0 0 0 2.60976e-09 0 4.34667e+11
43.2685 0 59.7179 0 0 0 0 2.22743e-09 0 5.12973e+11
45.7247 0 70.4762 0 0 0 0 1.90073e-09 0 6.05386e+11
48.3204 0 83.1727 0 0 0 0 1.62163e-09 0 7.14448e+11
51.0634 0 98.1565 0 0 0 0 1.38326e-09 0 8.43158e+11
53.9621 0 115.84 0 0 0 0 1.1797e-09 0 9.95055e+11
57.0254 0 136.709 0 0 0 0 1.00592e-09 0 1.17432e+12
60.2626 0 161.337 0 0 0 0 8.57591e-10 0 1.38587e+12
63.6835 0 190.402 0 0 0 0 7.3101e-10 0 1.63554e+12
67.2987 0 224.704 0 0 0 0 6.23009e-10 0 1.93019e+12
71.1191 0 265.185 0 0 0 0 5.30879e-10 0 2.27792e+12
75.1563 0 312.958 0 0 0 0 4.52303e-10 0 2.68829e+12
79.4227 0 369.339 0 0 0 0 3.85299e-10 0 3.17259e+12
83.9313 0 435.876 0 0 0 0 3.28173e-10 0 3.74415e+12
88.6959 0 514.4 0 0 0 0 2.79476e-10 0 4.41866e+12
93.7309 0 607.071 0 0 0 0 2.37972e-10 0 5.2147e+12
99.0518 0 716.436 0 0 0 0 2.02605e-10 0 6.15414e+12
104.675 0 845.504 0 0 0 0 1.72471e-10 0 7.26283e+12
110.617 0 997.824 0 0 0 0 1.468e-10 0 8.57124e+12
116.896 0 1177.58 0 0 0 0 1.24935e-10 0 1.01154e+13
123.532 0 1389.73 0 0 0 0 1.06313e-10 0 1.19377e+13
130.545 0 1640.09 0 0 0 0 9.04567e-11 0 1.40883e+13
137.955 0 1935.56 0 0 0 0 7.69563e-11 0 1.66263e+13
145.787 0 2284.26 0 0 0 0 6.54636e-11 0 1.96216e+13
154.063 0 2695.77 0 0 0 0 5.56812e-11 0 2.31565e+13
162.808 0 3181.42 0 0 0 0 4.73556e-11 0 2.73282e+13
172.051 0 3754.56 0 0 0 0 4.02708e-11 0 3.22515e+13
181.818 0 4430.96 0 0 0 0 3.42426e-11 0 3.80616e+13
192.139 0 5229.21 0 0 0 0 2.91139e-11 0 4.49186e+13
203.046 0 6171.26 0 0 0 0 2.4751e-11 0 5.30108e+13
214.572 0 7283.03 0 0 0 0 2.10401e-11 0 6.25608e+13
226.753 0 8595.09 0 0 0 0 1.78839e-11 0 7.38313e+13
239.625 0 10143.5 0 0 0 0 1.51999e-11 0 8.71322e+13
253.228 0 11970.9 0 0 0 0 1.29176e-11 0 1.02829e+14
267.603 0 14127.5 0 0 0 0 1.09771e-11 0 1.21354e+14
282.795 0 16672.6 0 0 0 0 9.3274e-12 0 1.43217e+14
298.848 0 19676.2 0 0 0 0 7.925e-12 0 1.69017e+14
315.813 0 23220.9 0 0 0 0 6.73295e-12 0 1.99466e+14
333.741 0 27404.3 0 0 0 0 5.71979e-12 0 2.35401e+14
352.686 0 32341.2 0 0 0 0 4.85874e-12 0 2.77809e+14
372.707 0 38167.6 0 0 0 0 4.12703e-12 0 3.27857e+14
393.865 0 45043.5 0 0 0 0 3.50528e-12 0 3.86921e+14
416.224 0 53158.3 0 0 0 0 2.97701e-12 0 4.56626e+14
439.852 0 62734.9 0 0 0 0 2.52819e-12 0 5.38888e+14
464.821 0 74036.7 0 0 0 0 2.1469e-12 0 6.35971e+14
491.207 0 87374.6 0 0 0 0 1.82301e-12 0 7.50542e+14
519.092 0 103115 0 0 0 0 1.54789e-12 0 8.85755e+14
548.56 0 121692 0 0 0 0 1.31422e-12 0 1.04533e+15
579.7 0 143615 0 0 0 0 1.11576e-12 0 1.23364e+15
612.608 0 169488 0 0 0 0 9.47223e-13 0 1.45589e+15
647.384 0 200021 0 0 0 0 8.041e-13 0 1.71817e+15
684.134 0 236056 0 0 0 0 6.82568e-13 0 2.0277e+15
722.971 0 278582 0 0 0 0 5.79376e-13 0 2.393e+15
764.012 0 328769 0 0 0 0 4.91762e-13 0 2.8241e+15
