0.0658696
200
1.0655e+09
8589934592
0.0129181 0 1.58924e-09 0 0 0 0 0.00677225 0 13.6515
0.0136515 0 1.87554e-09 0 0 0 0 0.00688819 0 16.1108
0.0144264 0 2.21343e-09 0 0 0 0 0.00699249 0 19.0132
0.0152454 0 2.61218e-09 0 0 0 0 0.00708412 0 22.4385
0.0161108 0 3.08278e-09 0 0 0 0 0.00716212 0 26.4808
0.0170254 0 3.63815e-09 0 0 0 0 0.00722559 0 31.2514
0.0179919 0 4.29357e-09 0 0 0 0 0.00727371 0 36.8815
0.0190132 0 5.06707e-09 0 0 0 0 0.00730578 0 43.5258
0.0200925 0 5.97991e-09 0 0 0 0 0.00732122 0 51.367
0.0212331 0 7.05721e-09 0 0 0 0 0.00731958 0 60.621
0.0224385 0 8.32858e-09 0 0 0 0 0.00730056 0 71.542
0.0237123 0 9.829e-09 0 0 0 0 0.00726401 0 84.4305
0.0250583 0 1.15997e-08 0 0 0 0 0.00720995 0 99.6408
0.0264808 0 1.36894e-08 0 0 0 0 0.00713857 0 117.591
0.0279841 0 1.61556e-08 0 0 0 0 0.00705021 0 138.776
0.0295727 0 1.90661e-08 0 0 0 0 0.00694538 0 163.777
0.0312514 0 2.25009e-08 0 0 0 0 0.00682475 0 193.281
0.0330255 0 2.65545e-08 0 0 0 0 0.00668915 0 228.102
0.0349003 0 3.13384e-08 0 0 0 0 0.00653951 0 269.195
0.0368815 0 3.69841e-08 0 0 0 0 0.00637693 0 317.691
0.0389751 0 4.36469e-08 0 0 0 0 0.00620256 0 374.924
0.0411876 0 5.151e-08 0 0 0 0 0.00601767 0 442.467
0.0435258 0 6.07896e-08 0 0 0 0 0.00582358 0 522.179
0.0459966 0 7.1741e-08 0 0 0 0 0.00562166 0 616.251
0.0486077 0 8.46654e-08 0 0 0 0 0.0054133 0 727.27
0.051367 0 9.99181e-08 0 0 0 0 0.00519989 0 858.29
0.054283 0 1.17919e-07 0 0 0 0 0.0049828 0 1012.91
0.0573645 0 1.39162e-07 0 0 0 0 0.00476339 0 1195.39
0.060621 0 1.64232e-07 0 0 0 0 0.00454293 0 1410.75
0.0640622 0 1.93819e-07 0 0 0 0 0.00432265 0 1664.89
0.0676989 0 2.28736e-07 0 0 0 0 0.00410371 0 1964.83
0.071542 0 2.69944e-07 0 0 0 0 0.00388717 0 2318.8
0.0756032 0 3.18575e-07 0 0 0 0 0.00367401 0 2736.54
0.079895 0 3.75967e-07 0 0 0 0 0.0034651 0 3229.53
0.0844305 0 4.43698e-07 0 0 0 0 0.00326121 0 3811.34
0.0892234 0 5.23632e-07 0 0 0 0 0.00306301 0 4497.96
0.0942883 0 6.17966e-07 0 0 0 0 0.00287109 0 5308.28
0.0996408 0 7.29294e-07 0 0 0 0 0.00268591 0 6264.59
0.105297 0 8.60678e-07 0 0 0 0 0.00250785 0 7393.17
0.111275 0 1.01573e-06 0 0 0 0 0.00233721 0 8725.07
0.117591 0 1.19872e-06 0 0 0 0 0.00217419 0 10296.9
0.124267 0 1.41467e-06 0 0 0 0 0.00201893 0 12151.9
0.131321 0 1.66953e-06 0 0 0 0 0.00187147 0 14341.1
0.138776 0 1.9703e-06 0 0 0 0 0.00173182 0 16924.7
0.146654 0 2.32525e-06 0 0 0 0 0.00159991 0 19973.8
0.154979 0 2.74415e-06 0 0 0 0 0.00147563 0 23572.1
0.163777 0 3.23852e-06 0 0 0 0 0.00135884 0 27818.7
0.173074 0 3.82195e-06 0 0 0 0 0.00124933 0 32830.3
0.182899 0 4.51048e-06 0 0 0 0 0.00114689 0 38744.7
0.193281 0 5.32305e-06 0 0 0 0 0.00105127 0 45724.7
0.204254 0 6.28202e-06 0 0 0 0 0.000962209 0 53962.1
0.215848 0 7.41374e-06 0 0 0 0 0.000879423 0 63683.5
0.228102 0 8.74934e-06 0 0 0 0 0.000802624 0 75156.3
0.24105 0 1.03256e-05 0 0 0 0 0.000731515 0 88695.9
0.254734 0 1.21857e-05 0 0 0 0 0.000665798 0 104675
0.269195 0 1.4381e-05 0 0 0 0 0.000605173 0 123532
0.284476 0 1.69718e-05 0 0 0 0 0.000549345 0 145787
0.300625 0 2.00293e-05 0 0 0 0 0.000498021 0 172051
0.317691 0 2.36377e-05 0 0 0 0 0.000450916 0 203046
0.335725 0 2.78961e-05 0 0 0 0 0.000407755 0 239625
0.354784 0 3.29216e-05 0 0 0 0 0.000368269 0 282795
0.374924 0 3.88525e-05 0 0 0 0 0.000332202 0 333741
0.396207 0.483037 4.58519e-05 1.2264e-06 6 0.469608 1.19231e-06 0.000299307 0.0245849 393865
0.418699 0 5.41123e-05 0 0 0 0 0.00026935 0 464821
0.442467 0 6.38607e-05 0 0 0 0 0.000242108 0 548560
0.467585 0 7.53654e-05 0 0 0 0 0.00021737 0 647384
0.494129 0 8.89427e-05 0 0 0 0 0.000194938 0 764012
0.522179 0 0.000104966 0 0 0 0 0.000174625 0 901651
0.551822 0 0.000123876 0 0 0 0 0.000156255 0 1.06409e+06
0.583147 4.02332 0.000146192 3.20383e-06 12 4.23456 3.37205e-06 0.000139664 0.275274 1.25578e+06
0.616251 0 0.000172529 0 0 0 0 0.0001247 0 1.48202e+06
0.651234 0 0.000203611 0 0 0 0 0.00011122 0 1.74901e+06
0.688203 23.6861 0.000240292 1.14753e-05 8 23.0968 1.11898e-05 9.90935e-05 0.926423 2.06409e+06
0.72727 0 0.000283581 0 0 0 0 8.81969e-05 0 2.43595e+06
0.768555 0 0.000334669 0 0 0 0 7.84179e-05 0 2.87479e+06
0.812184 0.0844979 0.000394961 2.49059e-08 6 0.0863045 2.54384e-08 6.96525e-05 0.00214544 3.39269e+06
0.85829 0 0.000466114 0 0 0 0 6.1805e-05 0 4.00389e+06
0.907013 0.137573 0.000550086 2.91147e-08 24 0.140212 2.96733e-08 5.47875e-05 0.0127539 4.7252e+06
0.958501 0.605144 0.000649185 1.08518e-07 24 0.569699 1.02161e-07 4.85194e-05 0.053678 5.57646e+06
1.01291 0 0.000766138 0 0 0 0 4.29272e-05 0 6.58107e+06
1.07041 0 0.00090416 0 0 0 0 3.79435e-05 0 7.76667e+06
1.13118 1.12217 0.00106705 1.22429e-07 12 1.10838 1.20925e-07 3.3507e-05 0.0438459 9.16586e+06
1.19539 0.541172 0.00125928 5.00292e-08 30 0.530016 4.89979e-08 2.9562e-05 0.0507704 1.08171e+07
1.26325 4.7154 0.00148614 3.69376e-07 24 4.64444 3.63818e-07 2.60578e-05 0.340206 1.27658e+07
1.33496 19.2362 0.00175387 1.27683e-06 24 19.2785 1.27964e-06 2.29484e-05 1.33534 1.50656e+07
1.41075 5.9109 0.00206984 3.32451e-07 32 6.08345 3.42156e-07 2.01923e-05 0.526856 1.77798e+07
1.49083 0.260431 0.00244272 1.24116e-08 48 0.254879 1.2147e-08 1.77518e-05 0.0335605 2.09828e+07
1.57546 0.0942022 0.00288279 3.80416e-09 6 0.0897017 3.62242e-09 1.55929e-05 0.00146381 2.4763e+07
1.66489 0.308388 0.00340213 1.05525e-08 84 0.297191 1.01694e-08 1.3685e-05 0.0647725 2.92241e+07
1.75941 2.40118 0.00401503 6.96219e-08 48 2.41952 7.01537e-08 1.20007e-05 0.278472 3.44889e+07
1.85928 0.150443 0.00473835 3.69619e-09 72 0.151896 3.73189e-09 1.05151e-05 0.0253089 4.07021e+07
1.96483 0.763484 0.00559198 1.58944e-08 54 0.746417 1.55391e-08 9.20606e-06 0.093232 4.80347e+07
2.07637 7.93117 0.00659939 1.39908e-07 104 7.89272 1.3923e-07 8.05366e-06 1.80669 5.66883e+07
2.19424 0.201822 0.00778828 3.01673e-09 120 0.203946 3.04848e-09 7.04008e-06 0.051421 6.69008e+07
2.3188 1.6566 0.00919136 2.09821e-08 156 1.56916 1.98745e-08 6.1494e-06 0.532281 7.89532e+07
2.45043 0.477537 0.0108472 5.12506e-09 126 0.476574 5.11473e-09 5.36741e-06 0.120311 9.31768e+07
2.58954 0.436494 0.0128014 3.96947e-09 192 0.444019 4.0379e-09 4.68145e-06 0.1628 1.09963e+08
2.73654 4.04586 0.0151076 3.11765e-08 152 4.20133 3.23745e-08 4.08023e-06 1.16141 1.29773e+08
2.89188 3.16808 0.0178292 2.06859e-08 378 3.23965 2.11532e-08 3.55373e-06 2.20029 1.53152e+08
3.05605 1.18111 0.0210412 6.53477e-09 264 1.15838 6.40897e-09 3.09304e-06 0.557762 1.80743e+08
3.22953 0.131285 0.0248319 6.15482e-10 366 0.12866 6.03174e-10 2.69025e-06 0.0837343 2.13304e+08
3.41286 0.651631 0.0293054 2.5886e-09 428 0.618536 2.45713e-09 2.33837e-06 0.473799 2.51731e+08
3.6066 2.96837 0.0345848 9.99179e-09 486 2.86441 9.64185e-09 2.0312e-06 2.39071 2.97081e+08
3.81134 0.626327 0.0408154 1.78644e-09 600 0.621251 1.77196e-09 1.76327e-06 0.607884 3.50601e+08
4.0277 0.406277 0.0481684 9.81908e-10 738 0.400811 9.68696e-10 1.52972e-06 0.473712 4.13763e+08
4.25634 1.02979 0.056846 2.10892e-09 824 1.07502 2.20153e-09 1.32631e-06 1.31022 4.88304e+08
4.49796 2.3293 0.067087 4.042e-09 954 2.34558 4.07026e-09 1.14926e-06 3.35527 5.76273e+08
4.7533 0.451978 0.0791729 6.64585e-10 1094 0.442397 6.50497e-10 9.95263e-07 0.730517 6.8009e+08
5.02313 0.228376 0.0934361 2.84542e-10 1332 0.227145 2.83008e-10 8.61414e-07 0.439985 8.0261e+08
5.30828 1.89327 0.110269 1.9988e-09 1614 1.91564 2.02242e-09 7.45152e-07 4.3294 9.47202e+08
5.60962 0.886514 0.130134 7.93057e-10 1850 0.854359 7.64292e-10 6.44232e-07 2.27737 1.11784e+09
5.92807 1.16614 0.153578 8.83958e-10 2238 1.11117 8.42286e-10 5.56685e-07 3.55371 1.31923e+09
6.26459 0.48158 0.181246 3.09322e-10 2546 0.490271 3.14905e-10 4.80786e-07 1.63801 1.55689e+09
6.62021 0.122484 0.213898 6.66628e-11 3264 0.122518 6.66812e-11 4.15026e-07 0.524275 1.83737e+09
6.99602 1.13226 0.252432 5.2217e-10 3506 1.17376 5.41307e-10 3.58083e-07 5.11259 2.16837e+09
7.39317 0.44698 0.297908 1.74669e-10 4506 0.454767 1.77712e-10 3.08803e-07 2.54874 2.55901e+09
7.81286 0.926391 0.351577 3.0675e-10 5018 0.960465 3.18032e-10 2.66181e-07 5.7828 3.02002e+09
8.25637 0.820171 0.414914 2.30121e-10 5852 0.783964 2.19962e-10 2.29336e-07 5.87202 3.56409e+09
8.72507 0.478479 0.489662 1.13756e-10 7362 0.471726 1.12151e-10 1.97503e-07 4.24032 4.20617e+09
9.22037 0.696508 0.577876 1.40314e-10 8306 0.686945 1.38388e-10 1.70014e-07 6.85501 4.96392e+09
9.74378 0.181547 0.681982 3.09903e-11 9698 0.182365 3.113e-11 1.46289e-07 2.05445 5.85818e+09
10.2969 0.70803 0.804843 1.02412e-10 11816 0.721803 1.04404e-10 1.25822e-07 9.61752 6.91355e+09
10.8814 0.583026 0.949838 7.14576e-11 13682 0.584394 7.16253e-11 1.08175e-07 9.03793 8.15905e+09
11.4992 0.545192 1.12095 5.66202e-11 16152 0.533031 5.53573e-11 9.29669e-08 9.83716 9.62892e+09
12.1519 0.533326 1.3229 4.69328e-11 19472 0.518341 4.56142e-11 7.98658e-08 11.4426 1.13636e+10
12.8418 0.21394 1.56122 1.59528e-11 22670 0.217958 1.62525e-11 6.85852e-08 5.27301 1.34108e+10
13.5708 0.515505 1.84248 3.25717e-11 26224 0.525155 3.31815e-11 5.88765e-08 14.5077 1.58268e+10
14.3411 0.423769 2.17441 2.26881e-11 31640 0.431814 2.31189e-11 5.05241e-08 14.2081 1.8678e+10
15.1552 0.474016 2.56613 2.15043e-11 37484 0.479706 2.17624e-11 4.33417e-08 18.5979 2.20429e+10
16.0156 0.396795 3.02843 1.52531e-11 43856 0.405853 1.56013e-11 3.71677e-08 17.9979 2.6014e+10
16.9247 0.682181 3.574 2.22205e-11 51362 0.682966 2.22461e-11 3.18628e-08 35.8189 3.07005e+10
17.8855 0.543501 4.21787 1.50009e-11 61636 0.537659 1.48396e-11 2.73063e-08 33.8601 3.62312e+10
18.9008 0.796066 4.97773 1.86178e-11 72218 0.792743 1.85401e-11 2.33941e-08 57.4733 4.27584e+10
19.9738 1.33266 5.87448 2.64094e-11 84586 1.31893 2.61374e-11 2.00364e-08 111.49 5.04614e+10
21.1076 2.03685 6.93279 3.42027e-11 100708 2.02911 3.40727e-11 1.71555e-08 200.78 5.95522e+10
22.3058 3.78272 8.18175 5.3823e-11 118712 3.78042 5.37902e-11 1.46847e-08 435.11 7.02807e+10
23.5721 6.42012 9.65571 7.7405e-11 140410 6.38668 7.70018e-11 1.25662e-08 864.898 8.29419e+10
24.9102 7.97831 11.3952 8.15077e-11 164374 7.93322 8.1047e-11 1.07504e-08 1246.26 9.78842e+10
26.3243 9.16811 13.4481 7.93651e-11 194680 9.13658 7.90921e-11 9.19452e-09 1680.43 1.15518e+11
27.8187 9.12205 15.8708 6.6912e-11 230196 9.09245 6.66948e-11 7.86182e-09 1959.2 1.36329e+11
29.3979 10.0592 18.73 6.25225e-11 271156 10.0298 6.23398e-11 6.72061e-09 2522.59 1.60889e+11
31.0667 12.2194 22.1042 6.43553e-11 321076 12.1653 6.40707e-11 5.74366e-09 3597.52 1.89874e+11
32.8303 15.1953 26.0864 6.78121e-11 377436 15.123 6.74894e-11 4.90756e-09 5215.37 2.2408e+11
34.694 18.5932 30.7859 7.03093e-11 447594 18.5237 7.00466e-11 4.19221e-09 7506.79 2.64449e+11
36.6634 21.3589 36.3321 6.84384e-11 525078 21.2836 6.81969e-11 3.58032e-09 10036.9 3.1209e+11
38.7447 23.2116 42.8774 6.30212e-11 621924 23.1564 6.28714e-11 3.05709e-09 12820.8 3.68314e+11
40.9442 25.8557 50.6018 5.94839e-11 732630 25.7909 5.93348e-11 2.60976e-09 16698.7 4.34667e+11
43.2685 28.9078 59.7179 5.63534e-11 865596 28.8245 5.61912e-11 2.22743e-09 21899.4 5.12973e+11
45.7247 33.5688 70.4762 5.54502e-11 1.02168e+06 33.4517 5.52567e-11 1.90073e-09 29805.4 6.05386e+11
48.3204 40.7355 83.1727 5.70167e-11 1.20544e+06 40.5768 5.67946e-11 1.62163e-09 42383.2 7.14448e+11
51.0634 50.1109 98.1565 5.94323e-11 1.42103e+06 49.9102 5.91943e-11 1.38326e-09 61055.3 8.43158e+11
53.9621 61.1224 115.84 6.14261e-11 1.67997e+06 60.9128 6.12155e-11 1.1797e-09 87474.5 9.95055e+11
57.0254 72.7927 136.709 6.19872e-11 1.98018e+06 72.5619 6.17907e-11 1.00592e-09 122024 1.17432e+12
60.2626 84.8456 161.337 6.12218e-11 2.33957e+06 84.5878 6.10357e-11 8.57591e-10 167017 1.38587e+12
63.6835 98.3347 190.402 6.01236e-11 2.75676e+06 98.0318 5.99384e-11 7.3101e-10 226737 1.63554e+12
67.2987 115.448 224.704 5.98115e-11 3.25638e+06 115.082 5.96223e-11 6.23009e-10 312626 1.93019e+12
71.1191 136.759 265.185 6.0037e-11 3.84387e+06 136.31 5.98396e-11 5.30879e-10 434703 2.27792e+12
75.1563 161.943 312.958 6.02401e-11 4.53277e+06 161.414 6.00435e-11 4.52303e-10 603697 2.68829e+12
79.4227 191.376 369.339 6.03217e-11 5.35083e+06 190.754 6.01256e-11 3.85299e-10 837714 3.17259e+12
83.9313 226.048 435.876 6.03737e-11 6.32174e+06 225.307 6.01758e-11 3.28173e-10 1.163e+06 3.74415e+12
88.6959 266.198 514.4 6.02441e-11 7.44986e+06 265.307 6.00423e-11 2.79476e-10 1.6059e+06 4.41866e+12
93.7309 313.912 607.071 6.01975e-11 8.79764e+06 312.887 6.00009e-11 2.37972e-10 2.22545e+06 5.2147e+12
99.0518 371.145 716.436 6.03081e-11 1.03827e+07 369.922 6.01095e-11 2.02605e-10 3.09055e+06 6.15414e+12
104.675 437.938 845.504 6.02985e-11 1.22515e+07 436.485 6.00985e-11 1.72471e-10 4.28332e+06 7.26283e+12
110.617 517.304 997.824 6.03534e-11 1.44573e+07 515.599 6.01545e-11 1.468e-10 5.94379e+06 8.57124e+12
116.896 610.322 1177.58 6.03361e-11 1.70664e+07 608.301 6.01363e-11 1.24935e-10 8.24206e+06 1.01154e+13
123.532 721.039 1389.73 6.04002e-11 2.0139e+07 718.642 6.01994e-11 1.06313e-10 1.14417e+07 1.19377e+13
130.545 850.802 1640.09 6.03907e-11 2.37643e+07 847.972 6.01898e-11 9.04567e-11 1.58655e+07 1.40883e+13
137.955 1005.32 1935.56 6.04656e-11 2.80503e+07 1001.97 6.0264e-11 7.69563e-11 2.20395e+07 1.66263e+13
145.787 1187.11 2284.26 6.04999e-11 3.30981e+07 1183.15 6.02984e-11 6.54636e-11 3.05885e+07 1.96216e+13
154.063 1401.98 2695.77 6.05438e-11 3.90634e+07 1397.3 6.03414e-11 5.56812e-11 4.24749e+07 2.31565e+13
162.808 1656.76 3181.42 6.06247e-11 4.61057e+07 1651.23 6.04221e-11 4.73556e-11 5.90245e+07 2.73282e+13
172.051 1957.05 3754.56 6.06809e-11 5.44046e+07 1950.47 6.04771e-11 4.02708e-11 8.19779e+07 3.22515e+13
181.818 2314.14 4430.96 6.07999e-11 6.42064e+07 2306.39 6.05961e-11 3.42426e-11 1.14003e+08 3.80616e+13
192.139 2737.2 5229.21 6.0937e-11 7.57748e+07 2727.98 6.07317e-11 2.91139e-11 1.58601e+08 4.49186e+13
203.046 3238.68 6171.26 6.10947e-11 8.94213e+07 3227.75 6.08886e-11 2.4751e-11 2.20725e+08 5.30108e+13
214.572 3833.21 7283.03 6.12718e-11 1.05538e+08 3820.24 6.10644e-11 2.10401e-11 3.07343e+08 6.25608e+13
226.753 4543.32 8595.09 6.15365e-11 1.24552e+08 4527.9 6.13277e-11 1.78839e-11 4.28569e+08 7.38313e+13
239.625 5390.54 10143.5 6.18663e-11 1.46987e+08 5372.15 6.16551e-11 1.51999e-11 5.98263e+08 8.71322e+13
253.228 6406.02 11970.9 6.22976e-11 1.7347e+08 6383.98 6.20833e-11 1.29176e-11 8.36592e+08 1.02829e+14
267.603 7626.67 14127.5 6.28463e-11 2.04703e+08 7600.09 6.26273e-11 1.09771e-11 1.17197e+09 1.21354e+14
282.795 9106.71 16672.6 6.3587e-11 2.4161e+08 9074.61 6.33628e-11 9.3274e-12 1.64711e+09 1.43217e+14
298.848 10915.1 19676.2 6.45796e-11 2.85122e+08 10876 6.43481e-11 7.925e-12 2.32342e+09 1.69017e+14
315.813 13164.8 23220.9 6.60001e-11 3.36491e+08 13117 6.57606e-11 6.73295e-12 3.29847e+09 1.99466e+14
333.741 15980.4 27404.3 6.78861e-11 3.97115e+08 15919.6 6.76277e-11 5.71979e-12 4.71321e+09 2.35401e+14
352.686 19613.3 32341.2 7.06002e-11 4.68637e+08 19535.4 7.03196e-11 4.85874e-12 6.80955e+09 2.77809e+14
372.707 24433.2 38167.6 7.4524e-11 5.53074e+08 24330.3 7.42101e-11 4.12703e-12 9.98715e+09 3.27857e+14
393.865 31087.2 45043.5 8.0345e-11 6.52716e+08 30946.2 7.99805e-11 3.50528e-12 1.4961e+10 3.86921e+14
416.224 36683.5 53158.3 8.0336e-11 2.2184e+08 38807.9 8.49884e-11 2.97701e-12 5.98645e+09 4.56626e+14
439.852 0 62734.9 0 0 0 0 2.52819e-12 0 5.38888e+14
464.821 0 74036.7 0 0 0 0 2.1469e-12 0 6.35971e+14
491.207 0 87374.6 0 0 0 0 1.82301e-12 0 7.50542e+14
519.092 0 103115 0 0 0 0 1.54789e-12 0 8.85755e+14
548.56 0 121692 0 0 0 0 1.31422e-12 0 1.04533e+15
579.7 0 143615 0 0 0 0 1.11576e-12 0 1.23364e+15
612.608 0 169488 0 0 0 0 9.47223e-13 0 1.45589e+15
647.384 0 200021 0 0 0 0 8.041e-13 0 1.71817e+15
684.134 0 236056 0 0 0 0 6.82568e-13 0 2.0277e+15
722.971 0 278582 0 0 0 0 5.79376e-13 0 2.393e+15
764.012 0 328769 0 0 0 0 4.91762e-13 0 2.8241e+15
0.0658696
200
1.0655e+09
8589934592
0.0129181 1.12052e-05 1.58924e-09 8.20805e-07 6 1.11026e-05 8.13291e-07 0.00677225 0.000727207 13.6515
0.0136515 0 1.87554e-09 0 0 0 0 0.00688819 0 16.1108
0.0144264 0 2.21343e-09 0 0 0 0 0.00699249 0 19.0132
0.0152454 0 2.61218e-09 0 0 0 0 0.00708412 0 22.4385
0.0161108 0 3.08278e-09 0 0 0 0 0.00716212 0 26.4808
0.0170254 0 3.63815e-09 0 0 0 0 0.00722559 0 31.2514
0.0179919 4.48111e-05 4.29357e-09 1.215e-06 12 4.47533e-05 1.21344e-06 0.00727371 0.00200448 36.8815
0.0190132 0 5.06707e-09 0 0 0 0 0.00730578 0 43.5258
0.0200925 0 5.97991e-09 0 0 0 0 0.00732122 0 51.367
0.0212331 3.26314e-05 7.05721e-09 5.38286e-07 8 3.2603e-05 5.37818e-07 0.00731958 0.000588325 60.621
0.0224385 0 8.32858e-09 0 0 0 0 0.00730056 0 71.542
0.0237123 0 9.829e-09 0 0 0 0 0.00726401 0 84.4305
0.0250583 6.88669e-05 1.15997e-08 6.91151e-07 6 6.88344e-05 6.90826e-07 0.00720995 0.000575164 99.6408
0.0264808 0 1.36894e-08 0 0 0 0 0.00713857 0 117.591
0.0279841 0.0001651 1.61556e-08 1.18969e-06 24 0.00016493 1.18847e-06 0.00705021 0.00404988 138.776
0.0295727 0 1.90661e-08 0 0 0 0 0.00694538 0 163.777
0.0312514 0.000321603 2.25009e-08 1.66391e-06 24 0.000323236 1.67236e-06 0.00682475 0.00585133 193.281
0.0330255 0 2.65545e-08 0 0 0 0 0.00668915 0 228.102
0.0349003 0.000300214 3.13384e-08 1.11523e-06 12 0.00029781 1.1063e-06 0.00653951 0.00204644 269.195
0.0368815 0.000410649 3.69841e-08 1.29261e-06 30 0.000406276 1.27884e-06 0.00637693 0.00608101 317.691
0.0389751 0.000587771 4.36469e-08 1.56771e-06 24 0.000581724 1.55158e-06 0.00620256 0.00606604 374.924
0.0411876 0.000335128 5.151e-08 7.57407e-07 24 0.000332852 7.52263e-07 0.00601767 0.00302073 442.467
0.0435258 0.000496709 6.07896e-08 9.51223e-07 8 0.00049667 9.5115e-07 0.00582358 0.00130672 522.179
0.0459966 0.000525426 7.1741e-08 8.52617e-07 72 0.00052057 8.44737e-07 0.00562166 0.01092 616.251
0.0486077 0 8.46654e-08 0 0 0 0 0.0054133 0 727.27
0.051367 0.000590259 9.99181e-08 6.87715e-07 54 0.000589347 6.86652e-07 0.00519989 0.0071418 858.29
0.054283 0.000670469 1.17919e-07 6.61921e-07 60 0.00067331 6.64726e-07 0.0049828 0.00797047 1012.91
0.0573645 0.000918756 1.39162e-07 7.68582e-07 96 0.000911184 7.62247e-07 0.00476339 0.0154898 1195.39
0.060621 0.00147985 1.64232e-07 1.04899e-06 24 0.0014598 1.03477e-06 0.00454293 0.00554173 1410.75
0.0640622 0.00102031 1.93819e-07 6.12837e-07 134 0.00101753 6.11169e-07 0.00432265 0.0189976 1664.89
0.0676989 0.00115494 2.28736e-07 5.87806e-07 120 0.0011473 5.83918e-07 0.00410371 0.0171885 1964.83
0.071542 0.00161874 2.69944e-07 6.98094e-07 108 0.00159857 6.89395e-07 0.00388717 0.0193956 2318.8
0.0756032 0.00146745 3.18575e-07 5.36243e-07 174 0.00146206 5.34272e-07 0.00367401 0.0253963 2736.54
0.079895 0.00138971 3.75967e-07 4.30312e-07 168 0.0013774 4.26501e-07 0.0034651 0.020863 3229.53
0.0844305 0.00129042 4.43698e-07 3.38572e-07 168 0.00129428 3.39588e-07 0.00326121 0.0174415 3811.34
0.0892234 0.00194972 5.23632e-07 4.33467e-07 290 0.00194149 4.31637e-07 0.00306301 0.0410398 4497.96
0.0942883 0.00181159 6.17966e-07 3.41276e-07 288 0.00181656 3.42213e-07 0.00287109 0.0342335 5308.28
0.0996408 0.00179502 7.29294e-07 2.86535e-07 366 0.00178019 2.84167e-07 0.00268591 0.0390452 6264.59
0.105297 0.00208977 8.60678e-07 2.82662e-07 420 0.00208081 2.8145e-07 0.00250785 0.0473385 7393.17
0.111275 0.00229954 1.01573e-06 2.63556e-07 398 0.00229258 2.62758e-07 0.00233721 0.0448805 8725.07
0.117591 0.00273527 1.19872e-06 2.6564e-07 624 0.00274045 2.66143e-07 0.00217419 0.0762395 10296.9
0.124267 0.00321567 1.41467e-06 2.64622e-07 642 0.00321502 2.64569e-07 0.00201893 0.0841474 12151.9
0.131321 0.00349708 1.66953e-06 2.4385e-07 800 0.00349857 2.43954e-07 0.00187147 0.104239 14341.1
0.138776 0.00380373 1.9703e-06 2.24744e-07 858 0.00381317 2.25302e-07 0.00173182 0.111346 16924.7
0.146654 0.00393659 2.32525e-06 1.97088e-07 1080 0.00396843 1.98682e-07 0.00159991 0.133042 19973.8
0.154979 0.00405678 2.74415e-06 1.72101e-07 1286 0.00408141 1.73146e-07 0.00147563 0.149984 23572.1
0.163777 0.00446712 3.23852e-06 1.6058e-07 1650 0.00448349 1.61168e-07 0.00135884 0.194988 27818.7
0.173074 0.00431715 3.82195e-06 1.31499e-07 1778 0.00432504 1.31739e-07 0.00124933 0.187144 32830.3
0.182899 0.00491309 4.51048e-06 1.26807e-07 2112 0.00492005 1.26986e-07 0.00114689 0.233515 38744.7
0.193281 0.005924 5.32305e-06 1.29558e-07 2570 0.00593097 1.29711e-07 0.00105127 0.316725 45724.7
0.204254 0.0058184 6.28202e-06 1.07824e-07 3030 0.00581705 1.07799e-07 0.000962209 0.339537 53962.1
0.215848 0.00619356 7.41374e-06 9.72552e-08 3434 0.00620402 9.74196e-08 0.000879423 0.379765 63683.5
0.228102 0.00653844 8.74934e-06 8.69979e-08 4218 0.00653877 8.70023e-08 0.000802624 0.457197 75156.3
0.24105 0.00698061 1.03256e-05 7.87027e-08 4766 0.00698623 7.87661e-08 0.000731515 0.512767 88695.9
0.254734 0.00778381 1.21857e-05 7.43619e-08 6026 0.00777838 7.431e-08 0.000665798 0.673034 104675
0.269195 0.00806174 1.4381e-05 6.52603e-08 6480 0.00805932 6.52407e-08 0.000605173 0.698786 123532
0.284476 0.00845857 1.69718e-05 5.80201e-08 8162 0.00847018 5.80998e-08 0.000549345 0.862046 145787
0.300625 0.00896324 2.00293e-05 5.20965e-08 9578 0.00895955 5.20751e-08 0.000498021 1.00193 172051
0.317691 0.0093632 2.36377e-05 4.61137e-08 11234 0.00936188 4.61072e-08 0.000450916 1.14886 203046
0.335725 0.0101066 2.78961e-05 4.21765e-08 13344 0.0101025 4.21594e-08 0.000407755 1.38025 239625
0.354784 0.0108188 3.29216e-05 3.82567e-08 15464 0.0108129 3.82359e-08 0.000368269 1.60644 282795
0.374924 0.01136 3.88525e-05 3.40384e-08 18458 0.011361 3.40413e-08 0.000332202 1.89127 333741
0.396207 0.0119067 4.58519e-05 3.02304e-08 22232 0.0118886 3.01846e-08 0.000299307 2.24546 393865
0.418699 0.0124929 5.41123e-05 2.68768e-08 25628 0.0124705 2.68286e-08 0.00026935 2.55727 464821
0.442467 0.012966 6.38607e-05 2.36365e-08 30320 0.0129357 2.35812e-08 0.000242108 2.96007 548560
0.467585 0.013796 7.53654e-05 2.13104e-08 35452 0.0137738 2.1276e-08 0.00021737 3.47561 647384
0.494129 0.0143174 8.89427e-05 1.87398e-08 41792 0.0143116 1.87321e-08 0.000194938 4.01755 764012
0.522179 0.015469 0.000104966 1.71563e-08 49988 0.015472 1.71597e-08 0.000174625 4.91115 901651
0.551822 0.0160438 0.000123876 1.50776e-08 59110 0.0160362 1.50704e-08 0.000156255 5.70373 1.06409e+06
0.583147 0.0167214 0.000146192 1.33155e-08 69716 0.0167 1.32984e-08 0.000139664 6.64667 1.25578e+06
0.616251 0.0176889 0.000172529 1.19357e-08 82210 0.0176601 1.19163e-08 0.0001247 7.86877 1.48202e+06
0.651234 0.0184442 0.000203611 1.05455e-08 96722 0.0184142 1.05284e-08 0.00011122 9.17085 1.74901e+06
0.688203 0.0191888 0.000240292 9.29646e-09 113098 0.0191682 9.28652e-09 9.90935e-05 10.6103 2.06409e+06
0.72727 0.0200389 0.000283581 8.22635e-09 135190 0.0200158 8.21686e-09 8.81969e-05 12.6095 2.43595e+06
0.768555 0.0211646 0.000334669 7.36214e-09 158170 0.0211489 7.3567e-09 7.84179e-05 14.8495 2.87479e+06
0.812184 0.0220031 0.000394961 6.48544e-09 188560 0.0219846 6.47999e-09 6.96525e-05 17.5571 3.39269e+06
0.85829 0.0229041 0.000466114 5.72046e-09 220444 0.0228793 5.71426e-09 6.1805e-05 20.4036 4.00389e+06
0.907013 0.023968 0.000550086 5.07238e-09 261388 0.0239443 5.06736e-09 5.47875e-05 24.2 4.7252e+06
0.958501 0.0249048 0.000649185 4.46605e-09 308244 0.0248812 4.46183e-09 4.85194e-05 28.3729 5.57646e+06
1.01291 0.0260342 0.000766138 3.95592e-09 364396 0.026008 3.95194e-09 4.29272e-05 33.5806 6.58107e+06
1.07041 0.0272016 0.00090416 3.50234e-09 429162 0.0271699 3.49827e-09 3.79435e-05 39.6135 7.76667e+06
1.13118 0.028098 0.00106705 3.0655e-09 506358 0.0280678 3.06222e-09 3.3507e-05 46.3259 9.16586e+06
1.19539 0.0293774 0.00125928 2.71583e-09 598590 0.029343 2.71264e-09 2.9562e-05 54.9918 1.08171e+07
1.26325 0.0304442 0.00148614 2.38482e-09 704844 0.0304058 2.38181e-09 2.60578e-05 64.5075 1.27658e+07
1.33496 0.0316362 0.00175387 2.09989e-09 834620 0.0315997 2.09747e-09 2.29484e-05 76.3717 1.50656e+07
1.41075 0.0329391 0.00206984 1.85261e-09 981444 0.0328982 1.85032e-09 2.01923e-05 90.0461 1.77798e+07
1.49083 0.0342295 0.00244272 1.63131e-09 1.15998e+06 0.0341918 1.62951e-09 1.77518e-05 106.597 2.09828e+07
1.57546 0.0355305 0.00288279 1.43482e-09 1.36931e+06 0.03549 1.43319e-09 1.55929e-05 126.001 2.4763e+07
1.66489 0.036775 0.00340213 1.25838e-09 1.61652e+06 0.0367252 1.25668e-09 1.3685e-05 148.644 2.92241e+07
1.75941 0.0381885 0.00401503 1.10727e-09 1.90601e+06 0.0381411 1.1059e-09 1.20007e-05 175.862 3.44889e+07
1.85928 0.0395674 0.00473835 9.7212e-10 2.24913e+06 0.0395183 9.70914e-10 1.05151e-05 207.932 4.07021e+07
1.96483 0.0409456 0.00559198 8.52418e-10 2.65744e+06 0.0408954 8.51371e-10 9.20606e-06 246.061 4.80347e+07
2.07637 0.0425142 0.00659939 7.49965e-10 3.13125e+06 0.0424615 7.49035e-10 8.05366e-06 291.585 5.66883e+07
2.19424 0.0440463 0.00778828 6.58382e-10 3.69915e+06 0.0439929 6.57583e-10 7.04008e-06 345.941 6.69008e+07
2.3188 0.0456084 0.00919136 5.77663e-10 4.36472e+06 0.0455509 5.76935e-10 6.1494e-06 410.014 7.89532e+07
2.45043 0.0471908 0.0108472 5.06465e-10 5.14913e+06 0.0471317 5.05831e-10 5.36741e-06 485.868 9.31768e+07
2.58954 0.0488971 0.0128014 4.44669e-10 6.07894e+06 0.0488374 4.44126e-10 4.68145e-06 577.41 1.09963e+08
2.73654 0.0506019 0.0151076 3.89926e-10 7.17304e+06 0.0505392 3.89443e-10 4.08023e-06 685.49 1.29773e+08
2.89188 0.0524015 0.0178292 3.42153e-10 8.46557e+06 0.0523388 3.41744e-10 3.55373e-06 815.065 1.53152e+08
3.05605 0.0542893 0.0210412 3.00368e-10 9.98773e+06 0.0542237 3.00005e-10 3.09304e-06 969.917 1.80743e+08
3.22953 0.056174 0.0248319 2.63352e-10 1.1797e+07 0.0561047 2.63027e-10 2.69025e-06 1154.82 2.13304e+08
3.41286 0.0582478 0.0293054 2.31389e-10 1.39144e+07 0.058174 2.31096e-10 2.33837e-06 1376.87 2.51731e+08
3.6066 0.0603146 0.0345848 2.03024e-10 1.64163e+07 0.0602366 2.02761e-10 2.0312e-06 1640.85 2.97081e+08
3.81134 0.0625321 0.0408154 1.78357e-10 1.93821e+07 0.0624517 1.78128e-10 1.76327e-06 1960.53 3.50601e+08
4.0277 0.0647745 0.0481684 1.5655e-10 2.28754e+07 0.0646894 1.56344e-10 1.52972e-06 2341.04 4.13763e+08
4.25634 0.0671678 0.056846 1.37553e-10 2.69929e+07 0.0670791 1.37372e-10 1.32631e-06 2799.48 4.88304e+08
4.49796 0.0696776 0.067087 1.20911e-10 3.18542e+07 0.0695856 1.20751e-10 1.14926e-06 3351.31 5.76273e+08
4.7533 0.0722722 0.0791729 1.06269e-10 3.75892e+07 0.072176 1.06127e-10 9.95263e-07 4013.56 6.8009e+08
5.02313 0.075045 0.0934361 9.35012e-11 4.43706e+07 0.0749447 9.33762e-11 8.61414e-07 4816.16 8.0261e+08
5.30828 0.0779504 0.110269 8.22954e-11 5.23593e+07 0.0778438 8.21828e-11 7.45152e-07 5782.61 9.47202e+08
5.60962 0.0809992 0.130134 7.24602e-11 6.1787e+07 0.0808871 7.236e-11 6.44232e-07 6949.52 1.11784e+09
5.92807 0.0841906 0.153578 6.38182e-11 7.29346e+07 0.0840747 6.37303e-11 5.56685e-07 8361.19 1.31923e+09
6.26459 0.0874925 0.181246 5.61971e-11 8.60651e+07 0.0873687 5.61175e-11 4.80786e-07 10059.8 1.55689e+09
6.62021 0.0910531 0.213898 4.95563e-11 1.01558e+08 0.0909227 4.94854e-11 4.15026e-07 12126.6 1.83737e+09
6.99602 0.094744 0.252432 4.36936e-11 1.1986e+08 0.0946082 4.3631e-11 3.58083e-07 14625.4 2.16837e+09
7.39317 0.0986692 0.297908 3.85576e-11 1.41457e+08 0.0985275 3.85022e-11 3.08803e-07 17662.4 2.55901e+09
7.81286 0.102804 0.351577 3.40409e-11 1.66936e+08 0.102655 3.39914e-11 2.66181e-07 21348.8 3.02002e+09
8.25637 0.107217 0.414914 3.00825e-11 1.97025e+08 0.107059 3.00382e-11 2.29336e-07 25844.2 3.56409e+09
8.72507 0.11195 0.489662 2.66157e-11 2.32497e+08 0.111782 2.65758e-11 1.97503e-07 31331.5 4.20617e+09
9.22037 0.117126 0.577876 2.35954e-11 2.74404e+08 0.116946 2.35591e-11 1.70014e-07 38083.1 4.96392e+09
9.74378 0.12298 0.681982 2.09929e-11 3.2382e+08 0.122784 2.09595e-11 1.46289e-07 46469.1 5.85818e+09
10.2969 0.129795 0.804843 1.87741e-11 3.82165e+08 0.129576 1.87424e-11 1.25822e-07 57023.1 6.91355e+09
10.8814 0.138214 0.949838 1.694e-11 4.51027e+08 0.137961 1.69089e-11 1.08175e-07 70629.7 8.15905e+09
11.4992 0.149337 1.12095 1.55092e-11 5.32251e+08 0.149027 1.5477e-11 9.29669e-08 88792.7 9.62892e+09
12.1519 0.165336 1.3229 1.45496e-11 6.28157e+08 0.164928 1.45137e-11 7.98658e-08 114435 1.13636e+10
12.8418 0.183644 1.56122 1.36938e-11 3.82727e+08 0.190078 1.41735e-11 6.85852e-08 76415.4 1.34108e+10
13.5708 0 1.84248 0 0 0 0 5.88765e-08 0 1.58268e+10
14.3411 0 2.17441 0 0 0 0 5.05241e-08 0 1.8678e+10
15.1552 0 2.56613 0 0 0 0 4.33417e-08 0 2.20429e+10
16.0156 0 3.02843 0 0 0 0 3.71677e-08 0 2.6014e+10
16.9247 0 3.574 0 0 0 0 3.18628e-08 0 3.07005e+10
17.8855 0 4.21787 0 0 0 0 2.73063e-08 0 3.62312e+10
18.9008 0 4.97773 0 0 0 0 2.33941e-08 0 4.27584e+10
19.9738 0 5.87448 0 0 0 0 2.00364e-08 0 5.04614e+10
21.1076 0 6.93279 0 0 0 0 1.71555e-08 0 5.95522e+10
22.3058 0 8.18175 0 0 0 0 1.46847e-08 0 7.02807e+10
23.5721 0 9.65571 0 0 0 0 1.25662e-08 0 8.29419e+10
24.9102 0 11.3952 0 0 0 0 1.07504e-08 0 9.78842e+10
26.3243 0 13.4481 0 0 0 0 9.19452e-09 0 1.15518e+11
27.8187 0 15.8708 0 0 0 0 7.86182e-09 0 1.36329e+11
29.3979 0 18.73 0 0 0 0 6.72061e-09 0 1.60889e+11
31.0667 0 22.1042 0 0 0 0 5.74366e-09 0 1.89874e+11
32.8303 0 26.0864 0 0 0 0 4.90756e-09 0 2.2408e+11
34.694 0 30.7859 0 0 0 0 4.19221e-09 0 2.64449e+11
36.6634 0 36.3321 0 0 0 0 3.58032e-09 0 3.1209e+11
38.7447 0 42.8774 0 0 0 0 3.05709e-09 0 3.68314e+11
40.9442 0 50.6018 0 0 0 0 2.60976e-09 0 4.34667e+11
43.2685 0 59.7179 0 0 0 0 2.22743e-09 0 5.12973e+11
45.7247 0 70.4762 0 0 0 0 1.90073e-09 0 6.05386e+11
48.3204 0 83.1727 0 0 0 0 1.62163e-09 0 7.14448e+11
51.0634 0 98.1565 0 0 0 0 1.38326e-09 0 8.43158e+11
53.9621 0 115.84 0 0 0 0 1.1797e-09 0 9.95055e+11
57.0254 0 136.709 0 0 0 0 1.00592e-09 0 1.17432e+12
60.2626 0 161.337 0 0 0 0 8.57591e-10 0 1.38587e+12
63.6835 0 190.402 0 0 0 0 7.3101e-10 0 1.63554e+12
67.2987 0 224.704 0 0 0 0 6.23009e-10 0 1.93019e+12
71.1191 0 265.185 0 0 0 0 5.30879e-10 0 2.27792e+12
75.1563 0 312.958 0 0 0 0 4.52303e-10 0 2.68829e+12
79.4227 0 369.339 0 0 0 0 3.85299e-10 0 3.17259e+12
83.9313 0 435.876 0 0 0 0 3.28173e-10 0 3.74415e+12
88.6959 0 514.4 0 0 0 0 2.79476e-10 0 4.41866e+12
93.7309 0 607.071 0 0 0 0 2.37972e-10 0 5.2147e+12
99.0518 0 716.436 0 0 0 0 2.02605e-10 0 6.15414e+12
104.675 0 845.504 0 0 0 0 1.72471e-10 0 7.26283e+12
110.617 0 997.824 0 0 0 0 1.468e-10 0 8.57124e+12
116.896 0 1177.58 0 0 0 0 1.24935e-10 0 1.01154e+13
123.532 0 1389.73 0 0 0 0 1.06313e-10 0 1.19377e+13
130.545 0 1640.09 0 0 0 0 9.04567e-11 0 1.40883e+13
137.955 0 1935.56 0 0 0 0 7.69563e-11 0 1.66263e+13
145.787 0 2284.26 0 0 0 0 6.54636e-11 0 1.96216e+13
154.063 0 2695.77 0 0 0 0 5.56812e-11 0 2.31565e+13
162.808 0 3181.42 0 0 0 0 4.73556e-11 0 2.73282e+13
172.051 0 3754.56 0 0 0 0 4.02708e-11 0 3.22515e+13
181.818 0 4430.96 0 0 0 0 3.42426e-11 0 3.80616e+13
192.139 0 5229.21 0 0 0 0 2.91139e-11 0 4.49186e+13
203.046 0 6171.26 0 0 0 0 2.4751e-11 0 5.30108e+13
214.572 0 7283.03 0 0 0 0 2.10401e-11 0 6.25608e+13
226.753 0 8595.09 0 0 0 0 1.78839e-11 0 7.38313e+13
239.625 0 10143.5 0 0 0 0 1.51999e-11 0 8.71322e+13
253.228 0 11970.9 0 0 0 0 1.29176e-11 0 1.02829e+14
267.603 0 14127.5 0 0 0 0 1.09771e-11 0 1.21354e+14
282.795 0 16672.6 0 0 0 0 9.3274e-12 0 1.43217e+14
298.848 0 19676.2 0 0 0 0 7.925e-12 0 1.69017e+14
315.813 0 23220.9 0 0 0 0 6.73295e-12 0 1.99466e+14
333.741 0 27404.3 0 0 0 0 5.71979e-12 0 2.35401e+14
352.686 0 32341.2 0 0 0 0 4.85874e-12 0 2.77809e+14
372.707 0 38167.6 0 0 0 0 4.12703e-12 0 3.27857e+14
393.865 0 45043.5 0 0 0 0 3.50528e-12 0 3.86921e+14
416.224 0 53158.3 0 0 0 0 2.97701e-12 0 4.56626e+14
439.852 0 62734.9 0 0 0 0 2.52819e-12 0 5.38888e+14
464.821 0 74036.7 0 0 0 0 2.1469e-12 0 6.35971e+14
491.207 0 87374.6 0 0 0 0 1.82301e-12 0 7.50542e+14
519.092 0 103115 0 0 0 0 1.54789e-12 0 8.85755e+14
548.56 0 121692 0 0 0 0 1.31422e-12 0 1.04533e+15
579.7 0 143615 0 0 0 0 1.11576e-12 0 1.23364e+15
612.608 0 169488 0 0 0 0 9.47223e-13 0 1.45589e+15
647.384 0 200021 0 0 0 0 8.041e-13 0 1.71817e+15
684.134 0 236056 0 0 0 0 6.82568e-13 0 2.0277e+15
722.971 0 278582 0 0 0 0 5.79376e-13 0 2.393e+15
764.012 0 328769 0 0 0 0 4.91762e-13 0 2.8241e+15
