0.0980024
200
1.0655e+09
8589934592
0.0129181 0 1.58924e-09 0 0 0 0 0.00677225 0 13.6515
0.0136515 0 1.87554e-09 0 0 0 0 0.00688819 0 16.1108
0.0144264 0 2.21343e-09 0 0 0 0 0.00699249 0 19.0132
0.0152454 0 2.61218e-09 0 0 0 0 0.00708412 0 22.4385
0.0161108 0 3.08278e-09 0 0 0 0 0.00716212 0 26.4808
0.0170254 0 3.63815e-09 0 0 0 0 0.00722559 0 31.2514
0.0179919 0 4.29357e-09 0 0 0 0 0.00727371 0 36.8815
0.0190132 0 5.06707e-09 0 0 0 0 0.00730578 0 43.5258
0.0200925 0 5.97991e-09 0 0 0 0 0.00732122 0 51.367
0.0212331 0 7.05721e-09 0 0 0 0 0.00731958 0 60.621
0.0224385 0 8.32858e-09 0 0 0 0 0.00730056 0 71.542
0.0237123 0 9.829e-09 0 0 0 0 0.00726401 0 84.4305
0.0250583 0 1.15997e-08 0 0 0 0 0.00720995 0 99.6408
0.0264808 0 1.36894e-08 0 0 0 0 0.00713857 0 117.591
0.0279841 0 1.61556e-08 0 0 0 0 0.00705021 0 138.776
0.0295727 0 1.90661e-08 0 0 0 0 0.00694538 0 163.777
0.0312514 0 2.25009e-08 0 0 0 0 0.00682475 0 193.281
0.0330255 0 2.65545e-08 0 0 0 0 0.00668915 0 228.102
0.0349003 0 3.13384e-08 0 0 0 0 0.00653951 0 269.195
0.0368815 0 3.69841e-08 0 0 0 0 0.00637693 0 317.691
0.0389751 0 4.36469e-08 0 0 0 0 0.00620256 0 374.924
0.0411876 0 5.151e-08 0 0 0 0 0.00601767 0 442.467
0.0435258 0 6.07896e-08 0 0 0 0 0.00582358 0 522.179
0.0459966 0 7.1741e-08 0 0 0 0 0.00562166 0 616.251
0.0486077 0 8.46654e-08 0 0 0 0 0.0054133 0 727.27
0.051367 0 9.99181e-08 0 0 0 0 0.00519989 0 858.29
0.054283 0 1.17919e-07 0 0 0 0 0.0049828 0 1012.91
0.0573645 0 1.39162e-07 0 0 0 0 0.00476339 0 1195.39
0.060621 0 1.64232e-07 0 0 0 0 0.00454293 0 1410.75
0.0640622 0 1.93819e-07 0 0 0 0 0.00432265 0 1664.89
0.0676989 0 2.28736e-07 0 0 0 0 0.00410371 0 1964.83
0.071542 0 2.69944e-07 0 0 0 0 0.00388717 0 2318.8
0.0756032 0 3.18575e-07 0 0 0 0 0.00367401 0 2736.54
0.079895 0 3.75967e-07 0 0 0 0 0.0034651 0 3229.53
0.0844305 0 4.43698e-07 0 0 0 0 0.00326121 0 3811.34
0.0892234 0 5.23632e-07 0 0 0 0 0.00306301 0 4497.96
0.0942883 0 6.17966e-07 0 0 0 0 0.00287109 0 5308.28
0.0996408 0 7.29294e-07 0 0 0 0 0.00268591 0 6264.59
0.105297 0 8.60678e-07 0 0 0 0 0.00250785 0 7393.17
0.111275 0 1.01573e-06 0 0 0 0 0.00233721 0 8725.07
0.117591 0 1.19872e-06 0 0 0 0 0.00217419 0 10296.9
0.124267 0 1.41467e-06 0 0 0 0 0.00201893 0 12151.9
0.131321 0 1.66953e-06 0 0 0 0 0.00187147 0 14341.1
0.138776 0 1.9703e-06 0 0 0 0 0.00173182 0 16924.7
0.146654 0 2.32525e-06 0 0 0 0 0.00159991 0 19973.8
0.154979 0 2.74415e-06 0 0 0 0 0.00147563 0 23572.1
0.163777 0 3.23852e-06 0 0 0 0 0.00135884 0 27818.7
0.173074 0 3.82195e-06 0 0 0 0 0.00124933 0 32830.3
0.182899 0 4.51048e-06 0 0 0 0 0.00114689 0 38744.7
0.193281 0 5.32305e-06 0 0 0 0 0.00105127 0 45724.7
0.204254 0 6.28202e-06 0 0 0 0 0.000962209 0 53962.1
0.215848 0 7.41374e-06 0 0 0 0 0.000879423 0 63683.5
0.228102 0 8.74934e-06 0 0 0 0 0.000802624 0 75156.3
0.24105 0 1.03256e-05 0 0 0 0 0.000731515 0 88695.9
0.254734 0 1.21857e-05 0 0 0 0 0.000665798 0 104675
0.269195 0 1.4381e-05 0 0 0 0 0.000605173 0 123532
0.284476 0 1.69718e-05 0 0 0 0 0.000549345 0 145787
0.300625 0 2.00293e-05 0 0 0 0 0.000498021 0 172051
0.317691 0 2.36377e-05 0 0 0 0 0.000450916 0 203046
0.335725 0 2.78961e-05 0 0 0 0 0.000407755 0 239625
0.354784 0 3.29216e-05 0 0 0 0 0.000368269 0 282795
0.374924 0 3.88525e-05 0 0 0 0 0.000332202 0 333741
0.396207 0.62952 4.58519e-05 1.59831e-06 6 0.612018 1.55388e-06 0.000299307 0.0320403 393865
0.418699 0 5.41123e-05 0 0 0 0 0.00026935 0 464821
0.442467 0 6.38607e-05 0 0 0 0 0.000242108 0 548560
0.467585 0 7.53654e-05 0 0 0 0 0.00021737 0 647384
0.494129 0 8.89427e-05 0 0 0 0 0.000194938 0 764012
0.522179 0 0.000104966 0 0 0 0 0.000174625 0 901651
0.551822 0 0.000123876 0 0 0 0 0.000156255 0 1.06409e+06
0.583147 4.42961 0.000146192 3.52737e-06 12 4.66219 3.71258e-06 0.000139664 0.303073 1.25578e+06
0.616251 0 0.000172529 0 0 0 0 0.0001247 0 1.48202e+06
0.651234 0 0.000203611 0 0 0 0 0.00011122 0 1.74901e+06
0.688203 20.6482 0.000240292 1.00035e-05 8 20.1345 9.75463e-06 9.90935e-05 0.807602 2.06409e+06
0.72727 0 0.000283581 0 0 0 0 8.81969e-05 0 2.43595e+06
0.768555 0 0.000334669 0 0 0 0 7.84179e-05 0 2.87479e+06
0.812184 0.114519 0.000394961 3.37547e-08 6 0.116968 3.44764e-08 6.96525e-05 0.00290769 3.39269e+06
0.85829 0 0.000466114 0 0 0 0 6.1805e-05 0 4.00389e+06
0.907013 0.217726 0.000550086 4.60776e-08 24 0.221903 4.69617e-08 5.47875e-05 0.0201846 4.7252e+06
0.958501 0.716955 0.000649185 1.28568e-07 24 0.67496 1.21037e-07 4.85194e-05 0.0635959 5.57646e+06
1.01291 0 0.000766138 0 0 0 0 4.29272e-05 0 6.58107e+06
1.07041 0 0.00090416 0 0 0 0 3.79435e-05 0 7.76667e+06
1.13118 1.30342 0.00106705 1.42204e-07 12 1.28741 1.40457e-07 3.3507e-05 0.0509281 9.16586e+06
1.19539 0.727087 0.00125928 6.72164e-08 30 0.712098 6.58307e-08 2.9562e-05 0.0682122 1.08171e+07
1.26325 4.86863 0.00148614 3.81379e-07 24 4.79537 3.75641e-07 2.60578e-05 0.351261 1.27658e+07
1.33496 16.1827 0.00175387 1.07414e-06 24 16.2183 1.07651e-06 2.29484e-05 1.12336 1.50656e+07
1.41075 5.56802 0.00206984 3.13166e-07 32 5.72731 3.22125e-07 2.01923e-05 0.496294 1.77798e+07
1.49083 0.275395 0.00244272 1.31248e-08 48 0.269524 1.2845e-08 1.77518e-05 0.0354888 2.09828e+07
1.57546 0.103519 0.00288279 4.1804e-09 6 0.0985735 3.98068e-09 1.55929e-05 0.00160858 2.4763e+07
1.66489 0.338991 0.00340213 1.15997e-08 84 0.327094 1.11926e-08 1.3685e-05 0.0712001 2.92241e+07
1.75941 2.22478 0.00401503 6.45073e-08 48 2.24057 6.49652e-08 1.20007e-05 0.258014 3.44889e+07
1.85928 0.206094 0.00473835 5.06348e-09 72 0.208266 5.11683e-09 1.05151e-05 0.0346711 4.07021e+07
1.96483 0.805724 0.00559198 1.67738e-08 54 0.7834 1.6309e-08 9.20606e-06 0.09839 4.80347e+07
2.07637 7.1001 0.00659939 1.25248e-07 104 7.07759 1.24851e-07 8.05366e-06 1.61738 5.66883e+07
2.19424 0.28787 0.00778828 4.30294e-09 120 0.290791 4.3466e-09 7.04008e-06 0.0733448 6.69008e+07
2.3188 1.51662 0.00919136 1.92091e-08 156 1.44119 1.82537e-08 6.1494e-06 0.487303 7.89532e+07
2.45043 0.553923 0.0108472 5.94486e-09 126 0.552834 5.93317e-09 5.36741e-06 0.139556 9.31768e+07
2.58954 0.504172 0.0128014 4.58493e-09 192 0.513268 4.66765e-09 4.68145e-06 0.188041 1.09963e+08
2.73654 3.92651 0.0151076 3.02568e-08 152 4.07628 3.14109e-08 4.08023e-06 1.12715 1.29773e+08
2.89188 3.00157 0.0178292 1.95986e-08 378 3.07072 2.00501e-08 3.55373e-06 2.08465 1.53152e+08
3.05605 1.08953 0.0210412 6.02806e-09 264 1.06906 5.91481e-09 3.09304e-06 0.514513 1.80743e+08
3.22953 0.170786 0.0248319 8.00669e-10 366 0.168148 7.88303e-10 2.69025e-06 0.108928 2.13304e+08
3.41286 0.664114 0.0293054 2.63819e-09 428 0.632108 2.51104e-09 2.33837e-06 0.482876 2.51731e+08
3.6066 2.80218 0.0345848 9.43236e-09 486 2.70722 9.11273e-09 2.0312e-06 2.25685 2.97081e+08
3.81134 0.613202 0.0408154 1.749e-09 600 0.609566 1.73863e-09 1.76327e-06 0.595146 3.50601e+08
4.0277 0.45122 0.0481684 1.09053e-09 738 0.443047 1.07077e-09 1.52972e-06 0.526115 4.13763e+08
4.25634 1.01324 0.056846 2.07501e-09 824 1.05461 2.15975e-09 1.32631e-06 1.28915 4.88304e+08
4.49796 2.19958 0.067087 3.81691e-09 954 2.21578 3.84502e-09 1.14926e-06 3.16842 5.76273e+08
4.7533 0.458395 0.0791729 6.74022e-10 1094 0.449517 6.60967e-10 9.95263e-07 0.740889 6.8009e+08
5.02313 0.266104 0.0934361 3.31548e-10 1332 0.265023 3.30201e-10 8.61414e-07 0.512671 8.0261e+08
5.30828 1.8067 0.110269 1.90741e-09 1614 1.82808 1.92997e-09 7.45152e-07 4.13145 9.47202e+08
5.60962 0.917713 0.130134 8.20968e-10 1850 0.885863 7.92475e-10 6.44232e-07 2.35752 1.11784e+09
5.92807 1.14631 0.153578 8.68922e-10 2238 1.09666 8.31287e-10 5.56685e-07 3.49326 1.31923e+09
6.26459 0.535923 0.181246 3.44227e-10 2546 0.543766 3.49264e-10 4.80786e-07 1.82285 1.55689e+09
6.62021 0.203149 0.213898 1.10565e-10 3264 0.203428 1.10717e-10 4.15026e-07 0.869549 1.83737e+09
6.99602 1.14305 0.252432 5.27147e-10 3506 1.18242 5.45302e-10 3.58083e-07 5.16132 2.16837e+09
7.39317 0.518096 0.297908 2.0246e-10 4506 0.525182 2.05228e-10 3.08803e-07 2.95425 2.55901e+09
7.81286 0.9557 0.351577 3.16455e-10 5018 0.986421 3.26627e-10 2.66181e-07 5.96575 3.02002e+09
8.25637 0.847901 0.414914 2.37901e-10 5852 0.815058 2.28686e-10 2.29336e-07 6.07056 3.56409e+09
8.72507 0.565414 0.489662 1.34425e-10 7362 0.558219 1.32714e-10 1.97503e-07 5.01075 4.20617e+09
9.22037 0.770644 0.577876 1.55249e-10 8306 0.761594 1.53426e-10 1.70014e-07 7.58465 4.96392e+09
9.74378 0.292395 0.681982 4.99122e-11 9698 0.292841 4.99884e-11 1.46289e-07 3.30885 5.85818e+09
10.2969 0.783681 0.804843 1.13354e-10 11816 0.795478 1.15061e-10 1.25822e-07 10.6451 6.91355e+09
10.8814 0.657403 0.949838 8.05736e-11 13682 0.658169 8.06674e-11 1.08175e-07 10.1909 8.15905e+09
11.4992 0.652628 1.12095 6.77779e-11 16152 0.64153 6.66253e-11 9.29669e-08 11.7757 9.62892e+09
12.1519 0.667954 1.3229 5.87801e-11 19472 0.653429 5.7502e-11 7.98658e-08 14.3311 1.13636e+10
12.8418 0.369103 1.56122 2.75228e-11 22670 0.372367 2.77662e-11 6.85852e-08 9.09734 1.34108e+10
13.5708 0.663882 1.84248 4.19468e-11 26224 0.671958 4.2457e-11 5.88765e-08 18.6834 1.58268e+10
14.3411 0.596568 2.17441 3.19396e-11 31640 0.603957 3.23352e-11 5.05241e-08 20.0017 1.8678e+10
15.1552 0.699337 2.56613 3.17262e-11 37484 0.703632 3.1921e-11 4.33417e-08 27.4384 2.20429e+10
16.0156 0.671547 3.02843 2.58148e-11 43856 0.678625 2.60869e-11 3.71677e-08 30.4602 2.6014e+10
16.9247 1.02149 3.574 3.32727e-11 51362 1.01858 3.31778e-11 3.18628e-08 53.6347 3.07005e+10
17.8855 1.08922 4.21787 3.0063e-11 61636 1.08013 2.98121e-11 2.73063e-08 67.8584 3.62312e+10
18.9008 1.56783 4.97773 3.66672e-11 72218 1.55841 3.64469e-11 2.33941e-08 113.192 4.27584e+10
19.9738 2.30757 5.87448 4.57295e-11 84586 2.29093 4.53995e-11 2.00364e-08 193.052 5.04614e+10
21.1076 3.05709 6.93279 5.13347e-11 100708 3.04992 5.12142e-11 1.71555e-08 301.35 5.95522e+10
22.3058 4.23177 8.18175 6.02124e-11 118712 4.22866 6.01681e-11 1.46847e-08 486.762 7.02807e+10
23.5721 5.4069 9.65571 6.5189e-11 140410 5.38642 6.49421e-11 1.25662e-08 728.4 8.29419e+10
24.9102 6.58313 11.3952 6.72543e-11 164374 6.5599 6.70169e-11 1.07504e-08 1028.32 9.78842e+10
26.3243 7.64498 13.4481 6.61798e-11 194680 7.61523 6.59223e-11 9.19452e-09 1401.26 1.15518e+11
27.8187 8.91752 15.8708 6.54117e-11 230196 8.88096 6.51435e-11 7.86182e-09 1915.27 1.36329e+11
29.3979 10.6982 18.73 6.6494e-11 271156 10.6595 6.62537e-11 6.72061e-09 2682.83 1.60889e+11
31.0667 12.706 22.1042 6.69181e-11 321076 12.6585 6.66678e-11 5.74366e-09 3740.78 1.89874e+11
32.8303 14.7791 26.0864 6.59547e-11 377436 14.7304 6.57373e-11 4.90756e-09 5072.51 2.2408e+11
34.694 17.0909 30.7859 6.46283e-11 447594 17.0336 6.44116e-11 4.19221e-09 6900.24 2.64449e+11
36.6634 19.6767 36.3321 6.3048e-11 525078 19.6161 6.2854e-11 3.58032e-09 9246.41 3.1209e+11
38.7447 22.5267 42.8774 6.11618e-11 621924 22.459 6.09778e-11 3.05709e-09 12442.6 3.68314e+11
40.9442 26.1553 50.6018 6.01733e-11 732630 26.0754 5.99895e-11 2.60976e-09 16892.3 4.34667e+11
43.2685 30.8206 59.7179 6.00823e-11 865596 30.7192 5.98847e-11 2.22743e-09 23348.4 5.12973e+11
45.7247 36.5106 70.4762 6.03096e-11 1.02168e+06 36.3899 6.01102e-11 1.90073e-09 32417.4 6.05386e+11
48.3204 43.5869 83.1727 6.10077e-11 1.20544e+06 43.4407 6.08031e-11 1.62163e-09 45350 7.14448e+11
51.0634 51.5362 98.1565 6.11228e-11 1.42103e+06 51.3617 6.09159e-11 1.38326e-09 62792 8.43158e+11
53.9621 60.6149 115.84 6.09161e-11 1.67997e+06 60.4205 6.07207e-11 1.1797e-09 86748.2 9.95055e+11
57.0254 71.2603 136.709 6.06824e-11 1.98018e+06 71.03 6.04862e-11 1.00592e-09 119455 1.17432e+12
60.2626 84.0588 161.337 6.0654e-11 2.33957e+06 83.778 6.04514e-11 8.57591e-10 165468 1.38587e+12
63.6835 99.1329 190.402 6.06116e-11 2.75676e+06 98.8074 6.04126e-11 7.3101e-10 228577 1.63554e+12
67.2987 116.709 224.704 6.04648e-11 3.25638e+06 116.324 6.02656e-11 6.23009e-10 316041 1.93019e+12
71.1191 137.866 265.185 6.05228e-11 3.84387e+06 137.414 6.03243e-11 5.30879e-10 438220 2.27792e+12
75.1563 162.493 312.958 6.04449e-11 4.53277e+06 161.959 6.02461e-11 4.52303e-10 605749 2.68829e+12
79.4227 191.514 369.339 6.03649e-11 5.35083e+06 190.9 6.01716e-11 3.85299e-10 838315 3.17259e+12
83.9313 226.218 435.876 6.0419e-11 6.32174e+06 225.486 6.02237e-11 3.28173e-10 1.16388e+06 3.74415e+12
88.6959 266.796 514.4 6.03793e-11 7.44986e+06 265.913 6.01795e-11 2.79476e-10 1.6095e+06 4.41866e+12
93.7309 314.775 607.071 6.03631e-11 8.79764e+06 313.756 6.01677e-11 2.37972e-10 2.23157e+06 5.2147e+12
99.0518 371.616 716.436 6.03848e-11 1.03827e+07 370.388 6.01853e-11 2.02605e-10 3.09448e+06 6.15414e+12
104.675 438.254 845.504 6.03421e-11 1.22515e+07 436.803 6.01424e-11 1.72471e-10 4.28642e+06 7.26283e+12
110.617 517.659 997.824 6.03948e-11 1.44573e+07 515.945 6.01948e-11 1.468e-10 5.94787e+06 8.57124e+12
116.896 610.672 1177.58 6.03707e-11 1.70664e+07 608.656 6.01714e-11 1.24935e-10 8.24679e+06 1.01154e+13
123.532 720.269 1389.73 6.03357e-11 2.0139e+07 717.877 6.01353e-11 1.06313e-10 1.14294e+07 1.19377e+13
130.545 850.909 1640.09 6.03983e-11 2.37643e+07 848.094 6.01985e-11 9.04567e-11 1.58675e+07 1.40883e+13
137.955 1004.96 1935.56 6.04436e-11 2.80503e+07 1001.63 6.02433e-11 7.69563e-11 2.20315e+07 1.66263e+13
145.787 1186.3 2284.26 6.04586e-11 3.30981e+07 1182.36 6.02579e-11 6.54636e-11 3.05676e+07 1.96216e+13
154.063 1416.99 2695.77 6.11918e-11 3.90634e+07 1412.23 6.09861e-11 5.56812e-11 4.29294e+07 2.31565e+13
162.808 1654.62 3181.42 6.05463e-11 4.61057e+07 1649.07 6.03432e-11 4.73556e-11 5.89482e+07 2.73282e+13
172.051 1955.28 3754.56 6.0626e-11 5.44046e+07 1948.72 6.04226e-11 4.02708e-11 8.19038e+07 3.22515e+13
181.818 2313.84 4430.96 6.0792e-11 6.42064e+07 2306.15 6.05898e-11 3.42426e-11 1.13988e+08 3.80616e+13
192.139 2733.89 5229.21 6.08634e-11 7.57748e+07 2724.71 6.06588e-11 2.91139e-11 1.58409e+08 4.49186e+13
203.046 3242.86 6171.26 6.11736e-11 8.94213e+07 3231.55 6.09604e-11 2.4751e-11 2.2101e+08 5.30108e+13
214.572 3828.71 7283.03 6.11998e-11 1.05538e+08 3815.76 6.09928e-11 2.10401e-11 3.06982e+08 6.25608e+13
226.753 4545.04 8595.09 6.15599e-11 1.24552e+08 4529.08 6.13437e-11 1.78839e-11 4.28731e+08 7.38313e+13
239.625 5380.26 10143.5 6.17483e-11 1.46987e+08 5361.82 6.15366e-11 1.51999e-11 5.97122e+08 8.71322e+13
253.228 6396.17 11970.9 6.22018e-11 1.7347e+08 6373.95 6.19858e-11 1.29176e-11 8.35304e+08 1.02829e+14
267.603 7609.62 14127.5 6.27059e-11 2.04703e+08 7583.19 6.24881e-11 1.09771e-11 1.16935e+09 1.21354e+14
282.795 9088.56 16672.6 6.34603e-11 2.4161e+08 9056.55 6.32368e-11 9.3274e-12 1.64383e+09 1.43217e+14
298.848 10893 19676.2 6.44488e-11 2.85122e+08 10853.9 6.42174e-11 7.925e-12 2.31871e+09 1.69017e+14
315.813 13127.2 23220.9 6.58118e-11 3.36491e+08 13078.9 6.55696e-11 6.73295e-12 3.28906e+09 1.99466e+14
333.741 15939.8 27404.3 6.77135e-11 3.97115e+08 15879.3 6.74564e-11 5.71979e-12 4.70122e+09 2.35401e+14
352.686 19565.5 32341.2 7.0428e-11 4.68637e+08 19487.8 7.01483e-11 4.85874e-12 6.79295e+09 2.77809e+14
372.707 24375.9 38167.6 7.43493e-11 5.53074e+08 24273.3 7.40362e-11 4.12703e-12 9.96375e+09 3.27857e+14
393.865 31019.4 45043.5 8.01697e-11 6.52716e+08 30878.8 7.98066e-11 3.50528e-12 1.49284e+10 3.86921e+14
416.224 36599.6 53158.3 8.01521e-11 2.2184e+08 38718.9 8.47935e-11 2.97701e-12 5.97275e+09 4.56626e+14
439.852 0 62734.9 0 0 0 0 2.52819e-12 0 5.38888e+14
464.821 0 74036.7 0 0 0 0 2.1469e-12 0 6.35971e+14
491.207 0 87374.6 0 0 0 0 1.82301e-12 0 7.50542e+14
519.092 0 103115 0 0 0 0 1.54789e-12 0 8.85755e+14
548.56 0 121692 0 0 0 0 1.31422e-12 0 1.04533e+15
579.7 0 143615 0 0 0 0 1.11576e-12 0 1.23364e+15
612.608 0 169488 0 0 0 0 9.47223e-13 0 1.45589e+15
647.384 0 200021 0 0 0 0 8.041e-13 0 1.71817e+15
684.134 0 236056 0 0 0 0 6.82568e-13 0 2.0277e+15
722.971 0 278582 0 0 0 0 5.79376e-13 0 2.393e+15
764.012 0 328769 0 0 0 0 4.91762e-13 0 2.8241e+15
0.0980024
200
1.0655e+09
8589934592
0.0129181 2.47913e-05 1.58924e-09 1.81602e-06 6 2.45643e-05 1.79939e-06 0.00677225 0.00160894 13.6515
0.0136515 0 1.87554e-09 0 0 0 0 0.00688819 0 16.1108
0.0144264 0 2.21343e-09 0 0 0 0 0.00699249 0 19.0132
0.0152454 0 2.61218e-09 0 0 0 0 0.00708412 0 22.4385
0.0161108 0 3.08278e-09 0 0 0 0 0.00716212 0 26.4808
0.0170254 0 3.63815e-09 0 0 0 0 0.00722559 0 31.2514
0.0179919 9.91524e-05 4.29357e-09 2.68841e-06 12 9.90246e-05 2.68494e-06 0.00727371 0.00443527 36.8815
0.0190132 0 5.06707e-09 0 0 0 0 0.00730578 0 43.5258
0.0200925 0 5.97991e-09 0 0 0 0 0.00732122 0 51.367
0.0212331 7.21472e-05 7.05721e-09 1.19014e-06 8 7.20844e-05 1.1891e-06 0.00731958 0.00130077 60.621
0.0224385 0 8.32858e-09 0 0 0 0 0.00730056 0 71.542
0.0237123 0 9.829e-09 0 0 0 0 0.00726401 0 84.4305
0.0250583 0.000152557 1.15997e-08 1.53107e-06 6 0.000152485 1.53035e-06 0.00720995 0.00127413 99.6408
0.0264808 0 1.36894e-08 0 0 0 0 0.00713857 0 117.591
0.0279841 0.000365359 1.61556e-08 2.63273e-06 24 0.000364984 2.63003e-06 0.00705021 0.00896222 138.776
0.0295727 0 1.90661e-08 0 0 0 0 0.00694538 0 163.777
0.0312514 0.000712469 2.25009e-08 3.68618e-06 24 0.000716087 3.70489e-06 0.00682475 0.0129628 193.281
0.0330255 0 2.65545e-08 0 0 0 0 0.00668915 0 228.102
0.0349003 0.000663889 3.13384e-08 2.4662e-06 12 0.000658573 2.44646e-06 0.00653951 0.00452548 269.195
0.0368815 0.000910898 3.69841e-08 2.86725e-06 30 0.000901199 2.83672e-06 0.00637693 0.0134889 317.691
0.0389751 0.00130235 4.36469e-08 3.47363e-06 24 0.00128895 3.43789e-06 0.00620256 0.0134407 374.924
0.0411876 0.000740977 5.151e-08 1.67465e-06 24 0.000735945 1.66328e-06 0.00601767 0.00667893 442.467
0.0435258 0.00110856 6.07896e-08 2.12295e-06 8 0.00110847 2.12278e-06 0.00582358 0.00291634 522.179
0.0459966 0.00116026 7.1741e-08 1.88277e-06 72 0.00114949 1.86529e-06 0.00562166 0.0241138 616.251
0.0486077 0 8.46654e-08 0 0 0 0 0.0054133 0 727.27
0.051367 0.00131365 9.99181e-08 1.53054e-06 54 0.00131157 1.52812e-06 0.00519989 0.0158944 858.29
0.054283 0.00148167 1.17919e-07 1.46278e-06 60 0.00148796 1.46899e-06 0.0049828 0.017614 1012.91
0.0573645 0.00203212 1.39162e-07 1.69996e-06 96 0.00201541 1.68598e-06 0.00476339 0.0342606 1195.39
0.060621 0.00325289 1.64232e-07 2.3058e-06 24 0.00320882 2.27456e-06 0.00454293 0.0121814 1410.75
0.0640622 0.00225939 1.93819e-07 1.35707e-06 134 0.0022533 1.35342e-06 0.00432265 0.0420686 1664.89
0.0676989 0.00255846 2.28736e-07 1.30213e-06 120 0.00254156 1.29353e-06 0.00410371 0.0380766 1964.83
0.071542 0.00358126 2.69944e-07 1.54445e-06 108 0.00353662 1.5252e-06 0.00388717 0.0429104 2318.8
0.0756032 0.00323518 3.18575e-07 1.18222e-06 174 0.00322335 1.17789e-06 0.00367401 0.0559894 2736.54
0.079895 0.00307257 3.75967e-07 9.51397e-07 168 0.0030454 9.42984e-07 0.0034651 0.046127 3229.53
0.0844305 0.002856 4.43698e-07 7.49342e-07 168 0.00286436 7.51536e-07 0.00326121 0.0386021 3811.34
0.0892234 0.00431612 5.23632e-07 9.59572e-07 290 0.00429803 9.55549e-07 0.00306301 0.0908504 4497.96
0.0942883 0.00400455 6.17966e-07 7.54396e-07 288 0.00401538 7.56436e-07 0.00287109 0.0756737 5308.28
0.0996408 0.00397053 7.29294e-07 6.33806e-07 366 0.00393777 6.28576e-07 0.00268591 0.0863666 6264.59
0.105297 0.00463061 8.60678e-07 6.26336e-07 420 0.00461013 6.23566e-07 0.00250785 0.104895 7393.17
0.111275 0.00509101 1.01573e-06 5.83493e-07 398 0.00507608 5.81781e-07 0.00233721 0.099362 8725.07
0.117591 0.0060527 1.19872e-06 5.87817e-07 624 0.00606453 5.88966e-07 0.00217419 0.168705 10296.9
0.124267 0.00711924 1.41467e-06 5.85852e-07 642 0.00711794 5.85746e-07 0.00201893 0.186296 12151.9
0.131321 0.00772944 1.66953e-06 5.3897e-07 800 0.00773301 5.39219e-07 0.00187147 0.230395 14341.1
0.138776 0.00841652 1.9703e-06 4.97292e-07 858 0.00843714 4.9851e-07 0.00173182 0.246375 16924.7
0.146654 0.00871236 2.32525e-06 4.3619e-07 1080 0.00878231 4.39693e-07 0.00159991 0.294445 19973.8
0.154979 0.00899231 2.74415e-06 3.81481e-07 1286 0.00904742 3.83819e-07 0.00147563 0.332457 23572.1
0.163777 0.00988492 3.23852e-06 3.55334e-07 1650 0.00992109 3.56634e-07 0.00135884 0.431472 27818.7
0.173074 0.00956406 3.82195e-06 2.91319e-07 1778 0.00958157 2.91852e-07 0.00124933 0.414593 32830.3
0.182899 0.0109064 4.51048e-06 2.81493e-07 2112 0.0109221 2.819e-07 0.00114689 0.51837 38744.7
0.193281 0.0131283 5.32305e-06 2.87117e-07 2570 0.0131436 2.87451e-07 0.00105127 0.701902 45724.7
0.204254 0.012914 6.28202e-06 2.39317e-07 3030 0.0129101 2.39243e-07 0.000962209 0.753609 53962.1
0.215848 0.0137134 7.41374e-06 2.15337e-07 3434 0.0137359 2.1569e-07 0.000879423 0.840854 63683.5
0.228102 0.0144872 8.74934e-06 1.92761e-07 4218 0.0144876 1.92766e-07 0.000802624 1.01301 75156.3
0.24105 0.0155551 1.03256e-05 1.75376e-07 4766 0.0155697 1.7554e-07 0.000731515 1.14262 88695.9
0.254734 0.0173097 1.21857e-05 1.65367e-07 6026 0.0172989 1.65263e-07 0.000665798 1.4967 104675
0.269195 0.0179547 1.4381e-05 1.45344e-07 6480 0.0179508 1.45313e-07 0.000605173 1.5563 123532
0.284476 0.018835 1.69718e-05 1.29196e-07 8162 0.0188609 1.29373e-07 0.000549345 1.91955 145787
0.300625 0.0200247 2.00293e-05 1.16389e-07 9578 0.0200169 1.16343e-07 0.000498021 2.2384 172051
0.317691 0.0208761 2.36377e-05 1.02815e-07 11234 0.0208735 1.02802e-07 0.000450916 2.56149 203046
0.335725 0.02255 2.78961e-05 9.41052e-08 13344 0.0225419 9.40716e-08 0.000407755 3.07964 239625
0.354784 0.0241682 3.29216e-05 8.54619e-08 15464 0.024155 8.54154e-08 0.000368269 3.58863 282795
0.374924 0.0254214 3.88525e-05 7.61712e-08 18458 0.0254225 7.61745e-08 0.000332202 4.23227 333741
0.396207 0.0266473 4.58519e-05 6.7656e-08 22232 0.0266055 6.75497e-08 0.000299307 5.02537 393865
0.418699 0.0279833 5.41123e-05 6.02023e-08 25628 0.0279341 6.00964e-08 0.00026935 5.72811 464821
0.442467 0.029169 6.38607e-05 5.31738e-08 30320 0.0290987 5.30456e-08 0.000242108 6.65914 548560
0.467585 0.0309447 7.53654e-05 4.77997e-08 35452 0.0308946 4.77222e-08 0.00021737 7.79588 647384
0.494129 0.0323185 8.89427e-05 4.2301e-08 41792 0.0323047 4.2283e-08 0.000194938 9.06874 764012
0.522179 0.0348878 0.000104966 3.86933e-08 49988 0.034895 3.87012e-08 0.000174625 11.0763 901651
0.551822 0.0362681 0.000123876 3.40838e-08 59110 0.0362511 3.40678e-08 0.000156255 12.8937 1.06409e+06
0.583147 0.0379267 0.000146192 3.02017e-08 69716 0.0378784 3.01632e-08 0.000139664 15.0757 1.25578e+06
0.616251 0.0401797 0.000172529 2.71115e-08 82210 0.040113 2.70665e-08 0.0001247 17.8736 1.48202e+06
0.651234 0.0418954 0.000203611 2.39538e-08 96722 0.0418266 2.39145e-08 0.00011122 20.8313 1.74901e+06
0.688203 0.0436965 0.000240292 2.11698e-08 113098 0.0436485 2.11466e-08 9.90935e-05 24.1617 2.06409e+06
0.72727 0.0457791 0.000283581 1.87932e-08 135190 0.0457272 1.87719e-08 8.81969e-05 28.8065 2.43595e+06
0.768555 0.0483485 0.000334669 1.68181e-08 158170 0.0483114 1.68052e-08 7.84179e-05 33.9224 2.87479e+06
0.812184 0.0505542 0.000394961 1.49009e-08 188560 0.0505114 1.48883e-08 6.96525e-05 40.3391 3.39269e+06
0.85829 0.0527494 0.000466114 1.31745e-08 220444 0.0526901 1.31597e-08 6.1805e-05 46.9905 4.00389e+06
0.907013 0.0552401 0.000550086 1.16905e-08 261388 0.0551829 1.16784e-08 5.47875e-05 55.7749 4.7252e+06
0.958501 0.0577196 0.000649185 1.03506e-08 308244 0.0576643 1.03407e-08 4.85194e-05 65.7573 5.57646e+06
1.01291 0.0604791 0.000766138 9.18985e-09 364396 0.0604168 9.18039e-09 4.29272e-05 78.0099 6.58107e+06
1.07041 0.0633985 0.00090416 8.16289e-09 429162 0.0633259 8.15354e-09 3.79435e-05 92.3269 7.76667e+06
1.13118 0.065768 0.00106705 7.17532e-09 506358 0.0656973 7.16761e-09 3.3507e-05 108.433 9.16586e+06
1.19539 0.0690602 0.00125928 6.38435e-09 598590 0.0689761 6.37658e-09 2.9562e-05 129.274 1.08171e+07
1.26325 0.0717082 0.00148614 5.61719e-09 704844 0.0716177 5.6101e-09 2.60578e-05 151.941 1.27658e+07
1.33496 0.0749193 0.00175387 4.97285e-09 834620 0.0748287 4.96685e-09 2.29484e-05 180.859 1.50656e+07
1.41075 0.0783682 0.00206984 4.40772e-09 981444 0.0782658 4.40196e-09 2.01923e-05 214.237 1.77798e+07
1.49083 0.0817389 0.00244272 3.89551e-09 1.15998e+06 0.0816486 3.89121e-09 1.77518e-05 254.55 2.09828e+07
1.57546 0.0853734 0.00288279 3.44763e-09 1.36931e+06 0.0852689 3.44341e-09 1.55929e-05 302.758 2.4763e+07
1.66489 0.0887418 0.00340213 3.0366e-09 1.61652e+06 0.088618 3.03236e-09 1.3685e-05 358.692 2.92241e+07
1.75941 0.092669 0.00401503 2.68693e-09 1.90601e+06 0.0925457 2.68335e-09 1.20007e-05 426.75 3.44889e+07
1.85928 0.096404 0.00473835 2.36853e-09 2.24913e+06 0.0962835 2.36556e-09 1.05151e-05 506.616 4.07021e+07
1.96483 0.100532 0.00559198 2.09289e-09 2.65744e+06 0.100402 2.09019e-09 9.20606e-06 604.139 4.80347e+07
2.07637 0.10473 0.00659939 1.84747e-09 3.13125e+06 0.104592 1.84503e-09 8.05366e-06 718.292 5.66883e+07
2.19424 0.109404 0.00778828 1.63532e-09 3.69915e+06 0.109268 1.63329e-09 7.04008e-06 859.264 6.69008e+07
2.3188 0.113912 0.00919136 1.44277e-09 4.36472e+06 0.113759 1.44084e-09 6.1494e-06 1024.05 7.89532e+07
2.45043 0.118666 0.0108472 1.27356e-09 5.14913e+06 0.11851 1.27188e-09 5.36741e-06 1221.76 9.31768e+07
2.58954 0.12371 0.0128014 1.12501e-09 6.07894e+06 0.123549 1.12355e-09 4.68145e-06 1460.85 1.09963e+08
2.73654 0.129087 0.0151076 9.94715e-10 7.17304e+06 0.128916 9.93398e-10 4.08023e-06 1748.71 1.29773e+08
2.89188 0.134567 0.0178292 8.78652e-10 8.46557e+06 0.134391 8.77503e-10 3.55373e-06 2093.09 1.53152e+08
3.05605 0.140458 0.0210412 7.77117e-10 9.98773e+06 0.140278 7.76118e-10 3.09304e-06 2509.39 1.80743e+08
3.22953 0.146499 0.0248319 6.86809e-10 1.1797e+07 0.146305 6.85901e-10 2.69025e-06 3011.72 2.13304e+08
3.41286 0.1531 0.0293054 6.08189e-10 1.39144e+07 0.152891 6.07358e-10 2.33837e-06 3619 2.51731e+08
3.6066 0.15985 0.0345848 5.38067e-10 1.64163e+07 0.159631 5.37331e-10 2.0312e-06 4348.69 2.97081e+08
3.81134 0.167061 0.0408154 4.765e-10 1.93821e+07 0.166832 4.75845e-10 1.76327e-06 5237.77 3.50601e+08
4.0277 0.174594 0.0481684 4.21967e-10 2.28754e+07 0.174348 4.21372e-10 1.52972e-06 6310.08 4.13763e+08
4.25634 0.182609 0.056846 3.73967e-10 2.69929e+07 0.182351 3.73438e-10 1.32631e-06 7610.94 4.88304e+08
4.49796 0.191082 0.067087 3.31583e-10 3.18542e+07 0.190808 3.31108e-10 1.14926e-06 9190.55 5.76273e+08
4.7533 0.200205 0.0791729 2.9438e-10 3.75892e+07 0.199917 2.93957e-10 9.95263e-07 11118.2 6.8009e+08
5.02313 0.209881 0.0934361 2.61498e-10 4.43706e+07 0.209571 2.61111e-10 8.61414e-07 13469.5 8.0261e+08
5.30828 0.220166 0.110269 2.32438e-10 5.23593e+07 0.219835 2.32089e-10 7.45152e-07 16332.6 9.47202e+08
5.60962 0.231377 0.130134 2.06985e-10 6.1787e+07 0.231025 2.0667e-10 6.44232e-07 19851.5 1.11784e+09
5.92807 0.243389 0.153578 1.84493e-10 7.29346e+07 0.243014 1.8421e-10 5.56685e-07 24171.6 1.31923e+09
6.26459 0.256144 0.181246 1.64523e-10 8.60651e+07 0.255744 1.64266e-10 4.80786e-07 29451.1 1.55689e+09
6.62021 0.269938 0.213898 1.46916e-10 1.01558e+08 0.269507 1.46681e-10 4.15026e-07 35950.8 1.83737e+09
6.99602 0.284835 0.252432 1.31359e-10 1.1986e+08 0.284381 1.31149e-10 3.58083e-07 43969.4 2.16837e+09
7.39317 0.300827 0.297908 1.17556e-10 1.41457e+08 0.30034 1.17366e-10 3.08803e-07 53850 2.55901e+09
7.81286 0.31804 0.351577 1.0531e-10 1.66936e+08 0.317521 1.05139e-10 2.66181e-07 66045.5 3.02002e+09
8.25637 0.336532 0.414914 9.4423e-11 1.97025e+08 0.335978 9.42675e-11 2.29336e-07 81119.8 3.56409e+09
8.72507 0.356506 0.489662 8.47579e-11 2.32497e+08 0.355908 8.46158e-11 1.97503e-07 99775.3 4.20617e+09
9.22037 0.378231 0.577876 7.6196e-11 2.74404e+08 0.377584 7.60657e-11 1.70014e-07 122981 4.96392e+09
9.74378 0.402714 0.681982 6.87438e-11 3.2382e+08 0.402 6.86219e-11 1.46289e-07 152169 5.85818e+09
10.2969 0.43105 0.804843 6.23485e-11 3.82165e+08 0.430247 6.22323e-11 1.25822e-07 189373 6.91355e+09
10.8814 0.46592 0.949838 5.71047e-11 4.51027e+08 0.464975 5.69889e-11 1.08175e-07 238093 8.15905e+09
11.4992 0.511917 1.12095 5.31645e-11 5.32251e+08 0.510742 5.30425e-11 9.29669e-08 304376 9.62892e+09
12.1519 0.577971 1.3229 5.08616e-11 6.28157e+08 0.576391 5.07226e-11 7.98658e-08 400035 1.13636e+10
12.8418 0.652332 1.56122 4.86424e-11 3.82727e+08 0.675137 5.03429e-11 6.85852e-08 271440 1.34108e+10
13.5708 0 1.84248 0 0 0 0 5.88765e-08 0 1.58268e+10
14.3411 0 2.17441 0 0 0 0 5.05241e-08 0 1.8678e+10
15.1552 0 2.56613 0 0 0 0 4.33417e-08 0 2.20429e+10
16.0156 0 3.02843 0 0 0 0 3.71677e-08 0 2.6014e+10
16.9247 0 3.574 0 0 0 0 3.18628e-08 0 3.07005e+10
17.8855 0 4.21787 0 0 0 0 2.73063e-08 0 3.62312e+10
18.9008 0 4.97773 0 0 0 0 2.33941e-08 0 4.27584e+10
19.9738 0 5.87448 0 0 0 0 2.00364e-08 0 5.04614e+10
21.1076 0 6.93279 0 0 0 0 1.71555e-08 0 5.95522e+10
22.3058 0 8.18175 0 0 0 0 1.46847e-08 0 7.02807e+10
23.5721 0 9.65571 0 0 0 0 1.25662e-08 0 8.29419e+10
24.9102 0 11.3952 0 0 0 0 1.07504e-08 0 9.78842e+10
26.3243 0 13.4481 0 0 0 0 9.19452e-09 0 1.15518e+11
27.8187 0 15.8708 0 0 0 0 7.86182e-09 0 1.36329e+11
29.3979 0 18.73 0 0 0 0 6.72061e-09 0 1.60889e+11
31.0667 0 22.1042 0 0 0 0 5.74366e-09 0 1.89874e+11
32.8303 0 26.0864 0 0 0 0 4.90756e-09 0 2.2408e+11
34.694 0 30.7859 0 0 0 0 4.19221e-09 0 2.64449e+11
36.6634 0 36.3321 0 0 0 0 3.58032e-09 0 3.1209e+11
38.7447 0 42.8774 0 0 0 0 3.05709e-09 0 3.68314e+11
40.9442 0 50.6018 0 0 0 0 2.60976e-09 0 4.34667e+11
43.2685 0 59.7179 0 0 0 0 2.22743e-09 0 5.12973e+11
45.7247 0 70.4762 0 0 0 0 1.90073e-09 0 6.05386e+11
48.3204 0 83.1727 0 0 0 0 1.62163e-09 0 7.14448e+11
51.0634 0 98.1565 0 0 0 0 1.38326e-09 0 8.43158e+11
53.9621 0 115.84 0 0 0 0 1.1797e-09 0 9.95055e+11
57.0254 0 136.709 0 0 0 0 1.00592e-09 0 1.17432e+12
60.2626 0 161.337 0 0 0 0 8.57591e-10 0 1.38587e+12
63.6835 0 190.402 0 0 0 0 7.3101e-10 0 1.63554e+12
67.2987 0 224.704 0 0 0 0 6.23009e-10 0 1.93019e+12
71.1191 0 265.185 0 0 0 0 5.30879e-10 0 2.27792e+12
75.1563 0 312.958 0 0 0 0 4.52303e-10 0 2.68829e+12
79.4227 0 369.339 0 0 0 0 3.85299e-10 0 3.17259e+12
83.9313 0 435.876 0 0 0 0 3.28173e-10 0 3.74415e+12
88.6959 0 514.4 0 0 0 0 2.79476e-10 0 4.41866e+12
93.7309 0 607.071 0 0 0 0 2.37972e-10 0 5.2147e+12
99.0518 0 716.436 0 0 0 0 2.02605e-10 0 6.15414e+12
104.675 0 845.504 0 0 0 0 1.72471e-10 0 7.26283e+12
110.617 0 997.824 0 0 0 0 1.468e-10 0 8.57124e+12
116.896 0 1177.58 0 0 0 0 1.24935e-10 0 1.01154e+13
123.532 0 1389.73 0 0 0 0 1.06313e-10 0 1.19377e+13
130.545 0 1640.09 0 0 0 0 9.04567e-11 0 1.40883e+13
137.955 0 1935.56 0 0 0 0 7.69563e-11 0 1.66263e+13
145.787 0 2284.26 0 0 0 0 6.54636e-11 0 1.96216e+13
154.063 0 2695.77 0 0 0 0 5.56812e-11 0 2.31565e+13
162.808 0 3181.42 0 0 0 0 4.73556e-11 0 2.73282e+13
172.051 0 3754.56 0 0 0 0 4.02708e-11 0 3.22515e+13
181.818 0 4430.96 0 0 0 0 3.42426e-11 0 3.80616e+13
192.139 0 5229.21 0 0 0 0 2.91139e-11 0 4.49186e+13
203.046 0 6171.26 0 0 0 0 2.4751e-11 0 5.30108e+13
214.572 0 7283.03 0 0 0 0 2.10401e-11 0 6.25608e+13
226.753 0 8595.09 0 0 0 0 1.78839e-11 0 7.38313e+13
239.625 0 10143.5 0 0 0 0 1.51999e-11 0 8.71322e+13
253.228 0 11970.9 0 0 0 0 1.29176e-11 0 1.02829e+14
267.603 0 14127.5 0 0 0 0 1.09771e-11 0 1.21354e+14
282.795 0 16672.6 0 0 0 0 9.3274e-12 0 1.43217e+14
298.848 0 19676.2 0 0 0 0 7.925e-12 0 1.69017e+14
315.813 0 23220.9 0 0 0 0 6.73295e-12 0 1.99466e+14
333.741 0 27404.3 0 0 0 0 5.71979e-12 0 2.35401e+14
352.686 0 32341.2 0 0 0 0 4.85874e-12 0 2.77809e+14
372.707 0 38167.6 0 0 0 0 4.12703e-12 0 3.27857e+14
393.865 0 45043.5 0 0 0 0 3.50528e-12 0 3.86921e+14
416.224 0 53158.3 0 0 0 0 2.97701e-12 0 4.56626e+14
439.852 0 62734.9 0 0 0 0 2.52819e-12 0 5.38888e+14
464.821 0 74036.7 0 0 0 0 2.1469e-12 0 6.35971e+14
491.207 0 87374.6 0 0 0 0 1.82301e-12 0 7.50542e+14
519.092 0 103115 0 0 0 0 1.54789e-12 0 8.85755e+14
548.56 0 121692 0 0 0 0 1.31422e-12 0 1.04533e+15
579.7 0 143615 0 0 0 0 1.11576e-12 0 1.23364e+15
612.608 0 169488 0 0 0 0 9.47223e-13 0 1.45589e+15
647.384 0 200021 0 0 0 0 8.041e-13 0 1.71817e+15
684.134 0 236056 0 0 0 0 6.82568e-13 0 2.0277e+15
722.971 0 278582 0 0 0 0 5.79376e-13 0 2.393e+15
764.012 0 328769 0 0 0 0 4.91762e-13 0 2.8241e+15
