0.919388
200
1.0655e+09
8589934592
0.0129181 0 1.58924e-09 0 0 0 0 0.00677225 0 13.6515
0.0136515 0 1.87554e-09 0 0 0 0 0.00688819 0 16.1108
0.0144264 0 2.21343e-09 0 0 0 0 0.00699249 0 19.0132
0.0152454 0 2.61218e-09 0 0 0 0 0.00708412 0 22.4385
0.0161108 0 3.08278e-09 0 0 0 0 0.00716212 0 26.4808
0.0170254 0 3.63815e-09 0 0 0 0 0.00722559 0 31.2514
0.0179919 0 4.29357e-09 0 0 0 0 0.00727371 0 36.8815
0.0190132 0 5.06707e-09 0 0 0 0 0.00730578 0 43.5258
0.0200925 0 5.97991e-09 0 0 0 0 0.00732122 0 51.367
0.0212331 0 7.05721e-09 0 0 0 0 0.00731958 0 60.621
0.0224385 0 8.32858e-09 0 0 0 0 0.00730056 0 71.542
0.0237123 0 9.829e-09 0 0 0 0 0.00726401 0 84.4305
0.0250583 0 1.15997e-08 0 0 0 0 0.00720995 0 99.6408
0.0264808 0 1.36894e-08 0 0 0 0 0.00713857 0 117.591
0.0279841 0 1.61556e-08 0 0 0 0 0.00705021 0 138.776
0.0295727 0 1.90661e-08 0 0 0 0 0.00694538 0 163.777
0.0312514 0 2.25009e-08 0 0 0 0 0.00682475 0 193.281
0.0330255 0 2.65545e-08 0 0 0 0 0.00668915 0 228.102
0.0349003 0 3.13384e-08 0 0 0 0 0.00653951 0 269.195
0.0368815 0 3.69841e-08 0 0 0 0 0.00637693 0 317.691
0.0389751 0 4.36469e-08 0 0 0 0 0.00620256 0 374.924
0.0411876 0 5.151e-08 0 0 0 0 0.00601767 0 442.467
0.0435258 0 6.07896e-08 0 0 0 0 0.00582358 0 522.179
0.0459966 0 7.1741e-08 0 0 0 0 0.00562166 0 616.251
0.0486077 0 8.46654e-08 0 0 0 0 0.0054133 0 727.27
0.051367 0 9.99181e-08 0 0 0 0 0.00519989 0 858.29
0.054283 0 1.17919e-07 0 0 0 0 0.0049828 0 1012.91
0.0573645 0 1.39162e-07 0 0 0 0 0.00476339 0 1195.39
0.060621 0 1.64232e-07 0 0 0 0 0.00454293 0 1410.75
0.0640622 0 1.93819e-07 0 0 0 0 0.00432265 0 1664.89
0.0676989 0 2.28736e-07 0 0 0 0 0.00410371 0 1964.83
0.071542 0 2.69944e-07 0 0 0 0 0.00388717 0 2318.8
0.0756032 0 3.18575e-07 0 0 0 0 0.00367401 0 2736.54
0.079895 0 3.75967e-07 0 0 0 0 0.0034651 0 3229.53
0.0844305 0 4.43698e-07 0 0 0 0 0.00326121 0 3811.34
0.0892234 0 5.23632e-07 0 0 0 0 0.00306301 0 4497.96
0.0942883 0 6.17966e-07 0 0 0 0 0.00287109 0 5308.28
0.0996408 0 7.29294e-07 0 0 0 0 0.00268591 0 6264.59
0.105297 0 8.60678e-07 0 0 0 0 0.00250785 0 7393.17
0.111275 0 1.01573e-06 0 0 0 0 0.00233721 0 8725.07
0.117591 0 1.19872e-06 0 0 0 0 0.00217419 0 10296.9
0.124267 0 1.41467e-06 0 0 0 0 0.00201893 0 12151.9
0.131321 0 1.66953e-06 0 0 0 0 0.00187147 0 14341.1
0.138776 0 1.9703e-06 0 0 0 0 0.00173182 0 16924.7
0.146654 0 2.32525e-06 0 0 0 0 0.00159991 0 19973.8
0.154979 0 2.74415e-06 0 0 0 0 0.00147563 0 23572.1
0.163777 0 3.23852e-06 0 0 0 0 0.00135884 0 27818.7
0.173074 0 3.82195e-06 0 0 0 0 0.00124933 0 32830.3
0.182899 0 4.51048e-06 0 0 0 0 0.00114689 0 38744.7
0.193281 0 5.32305e-06 0 0 0 0 0.00105127 0 45724.7
0.204254 0 6.28202e-06 0 0 0 0 0.000962209 0 53962.1
0.215848 0 7.41374e-06 0 0 0 0 0.000879423 0 63683.5
0.228102 0 8.74934e-06 0 0 0 0 0.000802624 0 75156.3
0.24105 0 1.03256e-05 0 0 0 0 0.000731515 0 88695.9
0.254734 0 1.21857e-05 0 0 0 0 0.000665798 0 104675
0.269195 0 1.4381e-05 0 0 0 0 0.000605173 0 123532
0.284476 0 1.69718e-05 0 0 0 0 0.000549345 0 145787
0.300625 0 2.00293e-05 0 0 0 0 0.000498021 0 172051
0.317691 0 2.36377e-05 0 0 0 0 0.000450916 0 203046
0.335725 0 2.78961e-05 0 0 0 0 0.000407755 0 239625
0.354784 0 3.29216e-05 0 0 0 0 0.000368269 0 282795
0.374924 0 3.88525e-05 0 0 0 0 0.000332202 0 333741
0.396207 2.52278 4.58519e-05 6.40519e-06 6 2.45264 6.22712e-06 0.000299307 0.128401 393865
0.418699 0 5.41123e-05 0 0 0 0 0.00026935 0 464821
0.442467 0 6.38607e-05 0 0 0 0 0.000242108 0 548560
0.467585 0 7.53654e-05 0 0 0 0 0.00021737 0 647384
0.494129 0 8.89427e-05 0 0 0 0 0.000194938 0 764012
0.522179 0 0.000104966 0 0 0 0 0.000174625 0 901651
0.551822 0 0.000123876 0 0 0 0 0.000156255 0 1.06409e+06
0.583147 5.3488 0.000146192 4.25933e-06 12 5.62964 4.48297e-06 0.000139664 0.365964 1.25578e+06
0.616251 0 0.000172529 0 0 0 0 0.0001247 0 1.48202e+06
0.651234 0 0.000203611 0 0 0 0 0.00011122 0 1.74901e+06
0.688203 14.543 0.000240292 7.04572e-06 8 14.1812 6.87043e-06 9.90935e-05 0.568814 2.06409e+06
0.72727 0 0.000283581 0 0 0 0 8.81969e-05 0 2.43595e+06
0.768555 0 0.000334669 0 0 0 0 7.84179e-05 0 2.87479e+06
0.812184 7.98651 0.000394961 2.35404e-06 6 8.15726 2.40437e-06 6.96525e-05 0.202781 3.39269e+06
0.85829 0 0.000466114 0 0 0 0 6.1805e-05 0 4.00389e+06
0.907013 2.17436 0.000550086 4.60162e-07 24 2.21608 4.68991e-07 5.47875e-05 0.201577 4.7252e+06
0.958501 6.18816 0.000649185 1.10969e-06 24 5.82569 1.04469e-06 4.85194e-05 0.548907 5.57646e+06
1.01291 0 0.000766138 0 0 0 0 4.29272e-05 0 6.58107e+06
1.07041 0 0.00090416 0 0 0 0 3.79435e-05 0 7.76667e+06
1.13118 3.88527 0.00106705 4.23885e-07 12 3.83754 4.18678e-07 3.3507e-05 0.151807 9.16586e+06
1.19539 4.47014 0.00125928 4.13247e-07 30 4.37799 4.04728e-07 2.9562e-05 0.41937 1.08171e+07
1.26325 10.1019 0.00148614 7.91322e-07 24 9.94989 7.79415e-07 2.60578e-05 0.72883 1.27658e+07
1.33496 14.5208 0.00175387 9.63835e-07 24 14.5527 9.65954e-07 2.29484e-05 1.008 1.50656e+07
1.41075 18.6787 0.00206984 1.05056e-06 32 18.9301 1.0647e-06 2.01923e-05 1.66489 1.77798e+07
1.49083 6.11447 0.00244272 2.91403e-07 48 5.98412 2.85191e-07 1.77518e-05 0.787943 2.09828e+07
1.57546 26.9825 0.00288279 1.08963e-06 6 25.6934 1.03757e-06 1.55929e-05 0.419281 2.4763e+07
1.66489 5.65359 0.00340213 1.93457e-07 84 5.5871 1.91181e-07 1.3685e-05 1.18746 2.92241e+07
1.75941 5.76535 0.00401503 1.67166e-07 48 5.66781 1.64337e-07 1.20007e-05 0.668624 3.44889e+07
1.85928 8.74151 0.00473835 2.14768e-07 72 8.793 2.16033e-07 1.05151e-05 1.47058 4.07021e+07
1.96483 17.9052 0.00559198 3.72755e-07 54 17.6395 3.67225e-07 9.20606e-06 2.18647 4.80347e+07
2.07637 14.1641 0.00659939 2.4986e-07 104 14.3554 2.53233e-07 8.05366e-06 3.22654 5.66883e+07
2.19424 9.6424 0.00778828 1.4413e-07 120 9.79085 1.46349e-07 7.04008e-06 2.45673 6.69008e+07
2.3188 12.5275 0.00919136 1.5867e-07 156 12.3156 1.55986e-07 6.1494e-06 4.0252 7.89532e+07
2.45043 13.8726 0.0108472 1.48885e-07 126 13.7247 1.47297e-07 5.36741e-06 3.49507 9.31768e+07
2.58954 15.2583 0.0128014 1.38759e-07 192 15.3712 1.39786e-07 4.68145e-06 5.69091 1.09963e+08
2.73654 36.1157 0.0151076 2.78299e-07 152 36.6305 2.82266e-07 4.08023e-06 10.3674 1.29773e+08
2.89188 17.9258 0.0178292 1.17046e-07 378 17.9537 1.17228e-07 3.55373e-06 12.4498 1.53152e+08
3.05605 18.3053 0.0210412 1.01278e-07 264 18.1407 1.00367e-07 3.09304e-06 8.64441 1.80743e+08
3.22953 19.162 0.0248319 8.98341e-08 366 19.0019 8.90835e-08 2.69025e-06 12.2216 2.13304e+08
3.41286 18.1399 0.0293054 7.20606e-08 428 17.9836 7.14398e-08 2.33837e-06 13.1895 2.51731e+08
3.6066 20.9705 0.0345848 7.05884e-08 486 20.6535 6.95213e-08 2.0312e-06 16.8895 2.97081e+08
3.81134 21.8599 0.0408154 6.23497e-08 600 21.8879 6.24295e-08 1.76327e-06 21.2162 3.50601e+08
4.0277 26.8611 0.0481684 6.4919e-08 738 26.7776 6.47172e-08 1.52972e-06 31.3196 4.13763e+08
4.25634 27.9313 0.056846 5.72006e-08 824 27.8094 5.69511e-08 1.32631e-06 35.5373 4.88304e+08
4.49796 28.1424 0.067087 4.88352e-08 954 27.9734 4.8542e-08 1.14926e-06 40.5382 5.76273e+08
4.7533 29.0245 0.0791729 4.26775e-08 1094 28.951 4.25694e-08 9.95263e-07 46.9114 6.8009e+08
5.02313 33.2547 0.0934361 4.14332e-08 1332 33.3849 4.15955e-08 8.61414e-07 64.0679 8.0261e+08
5.30828 38.6092 0.110269 4.07613e-08 1614 38.5599 4.07093e-08 7.45152e-07 88.289 9.47202e+08
5.60962 45.2414 0.130134 4.0472e-08 1850 45.1389 4.03803e-08 6.44232e-07 116.221 1.11784e+09
5.92807 37.9768 0.153578 2.87872e-08 2238 37.9621 2.8776e-08 5.56685e-07 115.731 1.31923e+09
6.26459 41.4214 0.181246 2.66053e-08 2546 41.5399 2.66814e-08 4.80786e-07 140.888 1.55689e+09
6.62021 41.5817 0.213898 2.26312e-08 3264 41.5727 2.26263e-08 4.15026e-07 177.985 1.83737e+09
6.99602 48.0873 0.252432 2.21767e-08 3506 48.0792 2.21729e-08 3.58083e-07 217.133 2.16837e+09
7.39317 51.5941 0.297908 2.01617e-08 4506 51.607 2.01668e-08 3.08803e-07 294.196 2.55901e+09
7.81286 59.4539 0.351577 1.96866e-08 5018 59.2769 1.96279e-08 2.66181e-07 371.128 3.02002e+09
8.25637 61.7769 0.414914 1.73332e-08 5852 61.7297 1.73199e-08 2.29336e-07 442.293 3.56409e+09
8.72507 60.9463 0.489662 1.44897e-08 7362 60.8498 1.44668e-08 1.97503e-07 540.111 4.20617e+09
9.22037 68.0081 0.577876 1.37005e-08 8306 67.8452 1.36677e-08 1.70014e-07 669.334 4.96392e+09
9.74378 71.8667 0.681982 1.22677e-08 9698 71.7946 1.22554e-08 1.46289e-07 813.271 5.85818e+09
10.2969 77.5406 0.804843 1.12157e-08 11816 77.428 1.11995e-08 1.25822e-07 1053.27 6.91355e+09
10.8814 86.0272 0.949838 1.05438e-08 13682 85.8322 1.05199e-08 1.08175e-07 1333.57 8.15905e+09
11.4992 86.8991 1.12095 9.0248e-09 16152 86.8473 9.01943e-09 9.29669e-08 1567.96 9.62892e+09
12.1519 91.5531 1.3229 8.0567e-09 19472 91.3831 8.04174e-09 7.98658e-08 1964.3 1.13636e+10
12.8418 94.214 1.56122 7.02524e-09 22670 93.9527 7.00576e-09 6.85852e-08 2322.11 1.34108e+10
13.5708 104.298 1.84248 6.59e-09 26224 104.164 6.58152e-09 5.88765e-08 2935.23 1.58268e+10
14.3411 111.165 2.17441 5.95165e-09 31640 111.066 5.94634e-09 5.05241e-08 3727.14 1.8678e+10
15.1552 114.765 2.56613 5.20643e-09 37484 114.595 5.19871e-09 4.33417e-08 4502.78 2.20429e+10
16.0156 122.512 3.02843 4.70948e-09 43856 122.328 4.70241e-09 3.71677e-08 5556.95 2.6014e+10
16.9247 132.904 3.574 4.32906e-09 51362 132.717 4.32296e-09 3.18628e-08 6978.34 3.07005e+10
17.8855 135.982 4.21787 3.75316e-09 61636 135.8 3.74815e-09 2.73063e-08 8471.66 3.62312e+10
18.9008 145.005 4.97773 3.39126e-09 72218 144.697 3.38405e-09 2.33941e-08 10468.9 4.27584e+10
19.9738 155.318 5.87448 3.07795e-09 84586 155.055 3.07275e-09 2.00364e-08 12993.9 5.04614e+10
21.1076 163.42 6.93279 2.74415e-09 100708 163.169 2.73994e-09 1.71555e-08 16109 5.95522e+10
22.3058 175.942 8.18175 2.50341e-09 118712 175.598 2.49852e-09 1.46847e-08 20237.8 7.02807e+10
23.5721 182.988 9.65571 2.20621e-09 140410 182.634 2.20195e-09 1.25662e-08 24651.5 8.29419e+10
24.9102 191.644 11.3952 1.95786e-09 164374 191.275 1.95409e-09 1.07504e-08 29935.9 9.78842e+10
26.3243 202.497 13.4481 1.75295e-09 194680 202.168 1.7501e-09 9.19452e-09 37116 1.15518e+11
27.8187 213.72 15.8708 1.56768e-09 230196 213.39 1.56525e-09 7.86182e-09 45901.9 1.36329e+11
29.3979 225.376 18.73 1.40081e-09 271156 225.05 1.39879e-09 6.72061e-09 56518.6 1.60889e+11
31.0667 237.347 22.1042 1.25003e-09 321076 236.874 1.24753e-09 5.74366e-09 69877.7 1.89874e+11
32.8303 250.841 26.0864 1.11943e-09 377436 250.4 1.11746e-09 4.90756e-09 86094 2.2408e+11
34.694 262.819 30.7859 9.93837e-10 447594 262.297 9.91863e-10 4.19221e-09 106110 2.64449e+11
36.6634 276.627 36.3321 8.86368e-10 525078 276.133 8.84787e-10 3.58032e-09 129992 3.1209e+11
38.7447 291.119 42.8774 7.90411e-10 621924 290.62 7.89057e-10 3.05709e-09 160799 3.68314e+11
40.9442 306.2 50.6018 7.04447e-10 732630 305.649 7.0318e-10 2.60976e-09 197757 4.34667e+11
43.2685 322.318 59.7179 6.28333e-10 865596 321.784 6.27293e-10 2.22743e-09 244175 5.12973e+11
45.7247 338.861 70.4762 5.59743e-10 1.02168e+06 338.316 5.58844e-10 1.90073e-09 300871 6.05386e+11
48.3204 354.51 83.1727 4.96201e-10 1.20544e+06 353.879 4.95318e-10 1.62163e-09 368850 7.14448e+11
51.0634 371.166 98.1565 4.40209e-10 1.42103e+06 370.54 4.39467e-10 1.38326e-09 452230 8.43158e+11
53.9621 388.936 115.84 3.90869e-10 1.67997e+06 388.262 3.90192e-10 1.1797e-09 556620 9.95055e+11
57.0254 408.181 136.709 3.47591e-10 1.98018e+06 407.473 3.46987e-10 1.00592e-09 684241 1.17432e+12
60.2626 429.224 161.337 3.09713e-10 2.33957e+06 428.436 3.09145e-10 8.57591e-10 844920 1.38587e+12
63.6835 451.275 190.402 2.75918e-10 2.75676e+06 450.459 2.75419e-10 7.3101e-10 1.04053e+06 1.63554e+12
67.2987 474.602 224.704 2.45884e-10 3.25638e+06 473.78 2.45457e-10 6.23009e-10 1.2852e+06 1.93019e+12
71.1191 499.328 265.185 2.19204e-10 3.84387e+06 498.452 2.18819e-10 5.30879e-10 1.58716e+06 2.27792e+12
75.1563 525.86 312.958 1.95611e-10 4.53277e+06 524.921 1.95262e-10 4.52303e-10 1.96032e+06 2.68829e+12
79.4227 554.864 369.339 1.74893e-10 5.35083e+06 553.919 1.74595e-10 3.85299e-10 2.42881e+06 3.17259e+12
83.9313 587.513 435.876 1.56915e-10 6.32174e+06 586.435 1.56627e-10 3.28173e-10 3.02272e+06 3.74415e+12
88.6959 622.968 514.4 1.40986e-10 7.44986e+06 621.762 1.40713e-10 2.79476e-10 3.75818e+06 4.41866e+12
93.7309 662.688 607.071 1.27081e-10 8.79764e+06 661.444 1.26842e-10 2.37972e-10 4.69807e+06 5.2147e+12
99.0518 707.327 716.436 1.14935e-10 1.03827e+07 705.924 1.14707e-10 2.02605e-10 5.88996e+06 6.15414e+12
104.675 759.414 845.504 1.04562e-10 1.22515e+07 757.837 1.04345e-10 1.72471e-10 7.42758e+06 7.26283e+12
110.617 818.579 997.824 9.5503e-11 1.44573e+07 816.817 9.52974e-11 1.468e-10 9.40542e+06 8.57124e+12
116.896 888.155 1177.58 8.78024e-11 1.70664e+07 886.215 8.76107e-11 1.24935e-10 1.1994e+07 1.01154e+13
123.532 968.944 1389.73 8.11668e-11 2.0139e+07 966.681 8.09772e-11 1.06313e-10 1.53755e+07 1.19377e+13
130.545 1065.43 1640.09 7.56248e-11 2.37643e+07 1062.87 7.54435e-11 9.04567e-11 1.98677e+07 1.40883e+13
137.955 1178.67 1935.56 7.08918e-11 2.80503e+07 1175.71 7.07137e-11 7.69563e-11 2.58398e+07 1.66263e+13
145.787 1313.75 2284.26 6.69544e-11 3.30981e+07 1310.34 6.67803e-11 6.54636e-11 3.38519e+07 1.96216e+13
154.063 1473.22 2695.77 6.362e-11 3.90634e+07 1469.27 6.34497e-11 5.56812e-11 4.4633e+07 2.31565e+13
162.808 1663.46 3181.42 6.08696e-11 4.61057e+07 1658.84 6.07006e-11 4.73556e-11 5.92629e+07 2.73282e+13
172.051 1889.88 3754.56 5.85983e-11 5.44046e+07 1884.44 5.84296e-11 4.02708e-11 7.91644e+07 3.22515e+13
181.818 2161.16 4430.96 5.67805e-11 6.42064e+07 2154.8 5.66134e-11 3.42426e-11 1.06466e+08 3.80616e+13
192.139 2483.1 5229.21 5.528e-11 7.57748e+07 2475.64 5.51139e-11 2.91139e-11 1.43877e+08 4.49186e+13
203.046 2868.27 6171.26 5.41073e-11 8.94213e+07 2859.48 5.39415e-11 2.4751e-11 1.95481e+08 5.30108e+13
214.572 3330.23 7283.03 5.32319e-11 1.05538e+08 3319.78 5.30648e-11 2.10401e-11 2.67014e+08 6.25608e+13
226.753 3885.38 8595.09 5.26252e-11 1.24552e+08 3872.91 5.24562e-11 1.78839e-11 3.66506e+08 7.38313e+13
239.625 4550.44 10143.5 5.22245e-11 1.46987e+08 4535.59 5.20542e-11 1.51999e-11 5.05025e+08 8.71322e+13
253.228 5353.15 11970.9 5.20586e-11 1.7347e+08 5335.36 5.18856e-11 1.29176e-11 6.99092e+08 1.02829e+14
267.603 6324.52 14127.5 5.21162e-11 2.04703e+08 6303.16 5.19401e-11 1.09771e-11 9.71868e+08 1.21354e+14
282.795 7506.94 16672.6 5.24167e-11 2.4161e+08 7481.02 5.22357e-11 9.3274e-12 1.35776e+09 1.43217e+14
298.848 8959.5 19676.2 5.30093e-11 2.85122e+08 8927.8 5.28218e-11 7.925e-12 1.90715e+09 1.69017e+14
315.813 10766.7 23220.9 5.39775e-11 3.36491e+08 10727.5 5.37808e-11 6.73295e-12 2.69762e+09 1.99466e+14
333.741 13050.3 27404.3 5.54388e-11 3.97115e+08 13000.9 5.5229e-11 5.71979e-12 3.84902e+09 2.35401e+14
352.686 16005.9 32341.2 5.76148e-11 4.68637e+08 15942.4 5.73863e-11 4.85874e-12 5.55708e+09 2.77809e+14
372.707 19939.9 38167.6 6.08188e-11 5.53074e+08 19856 6.0563e-11 4.12703e-12 8.15049e+09 3.27857e+14
393.865 25385 45043.5 6.56077e-11 6.52716e+08 25269.6 6.53096e-11 3.50528e-12 1.22168e+10 3.86921e+14
416.224 29969.1 53158.3 6.56316e-11 2.2184e+08 31704.4 6.9432e-11 2.97701e-12 4.89072e+09 4.56626e+14
439.852 0 62734.9 0 0 0 0 2.52819e-12 0 5.38888e+14
464.821 0 74036.7 0 0 0 0 2.1469e-12 0 6.35971e+14
491.207 0 87374.6 0 0 0 0 1.82301e-12 0 7.50542e+14
519.092 0 103115 0 0 0 0 1.54789e-12 0 8.85755e+14
548.56 0 121692 0 0 0 0 1.31422e-12 0 1.04533e+15
579.7 0 143615 0 0 0 0 1.11576e-12 0 1.23364e+15
612.608 0 169488 0 0 0 0 9.47223e-13 0 1.45589e+15
647.384 0 200021 0 0 0 0 8.041e-13 0 1.71817e+15
684.134 0 236056 0 0 0 0 6.82568e-13 0 2.0277e+15
722.971 0 278582 0 0 0 0 5.79376e-13 0 2.393e+15
764.012 0 328769 0 0 0 0 4.91762e-13 0 2.8241e+15
0.919388
200
1.0655e+09
8589934592
0.0129181 0.00144255 1.58924e-09 0.00010567 6 0.00142934 0.000104703 0.00677225 0.0936202 13.6515
0.0136515 0 1.87554e-09 0 0 0 0 0.00688819 0 16.1108
0.0144264 0 2.21343e-09 0 0 0 0 0.00699249 0 19.0132
0.0152454 0 2.61218e-09 0 0 0 0 0.00708412 0 22.4385
0.0161108 0 3.08278e-09 0 0 0 0 0.00716212 0 26.4808
0.0170254 0 3.63815e-09 0 0 0 0 0.00722559 0 31.2514
0.0179919 0.00576828 4.29357e-09 0.0001564 12 0.00576084 0.000156199 0.00727371 0.258026 36.8815
0.0190132 0 5.06707e-09 0 0 0 0 0.00730578 0 43.5258
0.0200925 0 5.97991e-09 0 0 0 0 0.00732122 0 51.367
0.0212331 0.00412681 7.05721e-09 6.80756e-05 8 0.00412321 6.80163e-05 0.00731958 0.0744038 60.621
0.0224385 0 8.32858e-09 0 0 0 0 0.00730056 0 71.542
0.0237123 0 9.829e-09 0 0 0 0 0.00726401 0 84.4305
0.0250583 0.00907243 1.15997e-08 9.10513e-05 6 0.00906816 9.10085e-05 0.00720995 0.0757714 99.6408
0.0264808 0 1.36894e-08 0 0 0 0 0.00713857 0 117.591
0.0279841 0.0211729 1.61556e-08 0.000152569 24 0.0211511 0.000152412 0.00705021 0.519368 138.776
0.0295727 0 1.90661e-08 0 0 0 0 0.00694538 0 163.777
0.0312514 0.0422246 2.25009e-08 0.000218462 24 0.042439 0.000219571 0.00682475 0.768245 193.281
0.0330255 0 2.65545e-08 0 0 0 0 0.00668915 0 228.102
0.0349003 0.0375765 3.13384e-08 0.000139589 12 0.0372756 0.000138471 0.00653951 0.256145 269.195
0.0368815 0.055285 3.69841e-08 0.000174021 30 0.0546963 0.000172168 0.00637693 0.818677 317.691
0.0389751 0.0771418 4.36469e-08 0.000205753 24 0.0763482 0.000203637 0.00620256 0.796135 374.924
0.0411876 0.0422184 5.151e-08 9.54159e-05 24 0.0419317 9.47679e-05 0.00601767 0.380543 442.467
0.0435258 0.0748719 6.07896e-08 0.000143384 8 0.0748662 0.000143373 0.00582358 0.19697 522.179
0.0459966 0.0639505 7.1741e-08 0.000103774 72 0.0633073 0.00010273 0.00562166 1.32909 616.251
0.0486077 0 8.46654e-08 0 0 0 0 0.0054133 0 727.27
0.051367 0.0855773 9.99181e-08 9.97068e-05 54 0.0853886 9.94869e-05 0.00519989 1.03544 858.29
0.054283 0.0832412 1.17919e-07 8.218e-05 60 0.0836175 8.25515e-05 0.0049828 0.989563 1012.91
0.0573645 0.115905 1.39162e-07 9.69597e-05 96 0.115025 9.6224e-05 0.00476339 1.9541 1195.39
0.060621 0.1552 1.64232e-07 0.000110013 24 0.153097 0.000108522 0.00454293 0.58119 1410.75
0.0640622 0.130907 1.93819e-07 7.86276e-05 134 0.130634 7.84636e-05 0.00432265 2.43742 1664.89
0.0676989 0.150687 2.28736e-07 7.66923e-05 120 0.149698 7.61889e-05 0.00410371 2.24262 1964.83
0.071542 0.205083 2.69944e-07 8.84436e-05 108 0.202521 8.73387e-05 0.00388717 2.45729 2318.8
0.0756032 0.17331 3.18575e-07 6.33319e-05 174 0.172675 6.30997e-05 0.00367401 2.99938 2736.54
0.079895 0.17813 3.75967e-07 5.51567e-05 168 0.17659 5.46796e-05 0.0034651 2.67419 3229.53
0.0844305 0.171524 4.43698e-07 4.50037e-05 168 0.171848 4.50886e-05 0.00326121 2.31835 3811.34
0.0892234 0.24466 5.23632e-07 5.43935e-05 290 0.243745 5.41901e-05 0.00306301 5.14987 4497.96
0.0942883 0.236408 6.17966e-07 4.45357e-05 288 0.236966 4.46408e-05 0.00287109 4.46739 5308.28
0.0996408 0.244091 7.29294e-07 3.89636e-05 366 0.242195 3.8661e-05 0.00268591 5.30944 6264.59
0.105297 0.278034 8.60678e-07 3.76068e-05 420 0.276152 3.73523e-05 0.00250785 6.29816 7393.17
0.111275 0.31215 1.01573e-06 3.57762e-05 398 0.311738 3.5729e-05 0.00233721 6.09226 8725.07
0.117591 0.366164 1.19872e-06 3.55606e-05 624 0.367288 3.56698e-05 0.00217419 10.206 10296.9
0.124267 0.433741 1.41467e-06 3.56932e-05 642 0.433586 3.56805e-05 0.00201893 11.3501 12151.9
0.131321 0.441205 1.66953e-06 3.0765e-05 800 0.441551 3.07891e-05 0.00187147 13.1512 14341.1
0.138776 0.492994 1.9703e-06 2.91287e-05 858 0.49427 2.9204e-05 0.00173182 14.4313 16924.7
0.146654 0.52192 2.32525e-06 2.61303e-05 1080 0.52523 2.6296e-05 0.00159991 17.6389 19973.8
0.154979 0.5608 2.74415e-06 2.37909e-05 1286 0.564593 2.39518e-05 0.00147563 20.7335 23572.1
0.163777 0.626787 3.23852e-06 2.25312e-05 1650 0.628847 2.26052e-05 0.00135884 27.359 27818.7
0.173074 0.682163 3.82195e-06 2.07785e-05 1778 0.682054 2.07752e-05 0.00124933 29.5711 32830.3
0.182899 0.74074 4.51048e-06 1.91185e-05 2112 0.742283 1.91583e-05 0.00114689 35.2067 38744.7
0.193281 0.829016 5.32305e-06 1.81306e-05 2570 0.830129 1.81549e-05 0.00105127 44.3231 45724.7
0.204254 0.898748 6.28202e-06 1.66552e-05 3030 0.8983 1.66469e-05 0.000962209 52.4472 53962.1
0.215848 0.93382 7.41374e-06 1.46635e-05 3434 0.934002 1.46663e-05 0.000879423 57.2583 63683.5
0.228102 1.0299 8.74934e-06 1.37035e-05 4218 1.02943 1.36973e-05 0.000802624 72.0155 75156.3
0.24105 1.20795 1.03256e-05 1.3619e-05 4766 1.20867 1.36271e-05 0.000731515 88.7314 88695.9
0.254734 1.31316 1.21857e-05 1.25452e-05 6026 1.3135 1.25484e-05 0.000665798 113.544 104675
0.269195 1.44222 1.4381e-05 1.16748e-05 6480 1.44245 1.16767e-05 0.000605173 125.01 123532
0.284476 1.56142 1.69718e-05 1.07103e-05 8162 1.56319 1.07225e-05 0.000549345 159.13 145787
0.300625 1.70309 2.00293e-05 9.89878e-06 9578 1.70514 9.9107e-06 0.000498021 190.375 172051
0.317691 1.92908 2.36377e-05 9.50071e-06 11234 1.92938 9.50218e-06 0.000450916 236.698 203046
0.335725 2.14792 2.78961e-05 8.96368e-06 13344 2.14559 8.95394e-06 0.000407755 293.341 239625
0.354784 2.35049 3.29216e-05 8.31165e-06 15464 2.34938 8.30771e-06 0.000368269 349.015 282795
0.374924 2.60851 3.88525e-05 7.81599e-06 18458 2.60731 7.81239e-06 0.000332202 434.277 333741
0.396207 2.86322 4.58519e-05 7.26954e-06 22232 2.85801 7.25632e-06 0.000299307 539.969 393865
0.418699 3.18673 5.41123e-05 6.85582e-06 25628 3.17877 6.83871e-06 0.00026935 652.315 464821
0.442467 3.50992 6.38607e-05 6.39843e-06 30320 3.50144 6.38298e-06 0.000242108 801.297 548560
0.467585 3.91375 7.53654e-05 6.04548e-06 35452 3.90679 6.03473e-06 0.00021737 985.987 647384
0.494129 4.34103 8.89427e-05 5.68189e-06 41792 4.33814 5.6781e-06 0.000194938 1218.12 764012
0.522179 4.86477 0.000104966 5.3954e-06 49988 4.86241 5.39279e-06 0.000174625 1544.48 901651
0.551822 5.44393 0.000123876 5.11606e-06 59110 5.43858 5.11104e-06 0.000156255 1935.37 1.06409e+06
0.583147 6.03379 0.000146192 4.8048e-06 69716 6.02256 4.79586e-06 0.000139664 2398.41 1.25578e+06
0.616251 6.76127 0.000172529 4.56221e-06 82210 6.74602 4.55192e-06 0.0001247 3007.69 1.48202e+06
0.651234 7.66011 0.000203611 4.3797e-06 96722 7.64188 4.36927e-06 0.00011122 3808.77 1.74901e+06
0.688203 8.55351 0.000240292 4.14396e-06 113098 8.53713 4.13602e-06 9.90935e-05 4729.61 2.06409e+06
0.72727 9.52764 0.000283581 3.91127e-06 135190 9.51342 3.90543e-06 8.81969e-05 5995.28 2.43595e+06
0.768555 10.6721 0.000334669 3.71229e-06 158170 10.6554 3.70648e-06 7.84179e-05 7487.74 2.87479e+06
0.812184 11.9161 0.000394961 3.5123e-06 188560 11.8957 3.50627e-06 6.96525e-05 9508.34 3.39269e+06
0.85829 13.4494 0.000466114 3.35909e-06 220444 13.4253 3.35308e-06 6.1805e-05 11981.1 4.00389e+06
0.907013 15.0213 0.000550086 3.17897e-06 261388 15.0003 3.17452e-06 5.47875e-05 15166.7 4.7252e+06
0.958501 16.7026 0.000649185 2.9952e-06 308244 16.6774 2.99068e-06 4.85194e-05 19028.5 5.57646e+06
1.01291 18.766 0.000766138 2.85151e-06 364396 18.7337 2.8466e-06 4.29272e-05 24205.6 6.58107e+06
1.07041 20.8701 0.00090416 2.68714e-06 429162 20.832 2.68224e-06 3.79435e-05 30393 7.76667e+06
1.13118 23.377 0.00106705 2.55044e-06 506358 23.3363 2.546e-06 3.3507e-05 38542.3 9.16586e+06
1.19539 25.955 0.00125928 2.39944e-06 598590 25.9064 2.39494e-06 2.9562e-05 48585.4 1.08171e+07
1.26325 28.988 0.00148614 2.27075e-06 704844 28.9354 2.26663e-06 2.60578e-05 61422 1.27658e+07
1.33496 32.0732 0.00175387 2.1289e-06 834620 32.0108 2.12476e-06 2.29484e-05 77426.6 1.50656e+07
1.41075 35.5316 0.00206984 1.99843e-06 981444 35.4632 1.99458e-06 2.01923e-05 97133.3 1.77798e+07
1.49083 39.3455 0.00244272 1.87513e-06 1.15998e+06 39.2726 1.87165e-06 1.77518e-05 122529 2.09828e+07
1.57546 43.175 0.00288279 1.74353e-06 1.36931e+06 43.0963 1.74035e-06 1.55929e-05 153111 2.4763e+07
1.66489 47.4934 0.00340213 1.62515e-06 1.61652e+06 47.4027 1.62204e-06 1.3685e-05 191967 2.92241e+07
1.75941 52.2126 0.00401503 1.5139e-06 1.90601e+06 52.1158 1.51109e-06 1.20007e-05 240444 3.44889e+07
1.85928 57.2352 0.00473835 1.4062e-06 2.24913e+06 57.1298 1.40361e-06 1.05151e-05 300778 4.07021e+07
1.96483 62.5721 0.00559198 1.30264e-06 2.65744e+06 62.4576 1.30026e-06 9.20606e-06 376024 4.80347e+07
2.07637 68.3912 0.00659939 1.20644e-06 3.13125e+06 68.2678 1.20427e-06 8.05366e-06 469063 5.66883e+07
2.19424 74.4284 0.00778828 1.11252e-06 3.69915e+06 74.2951 1.11053e-06 7.04008e-06 584563 6.69008e+07
2.3188 81.079 0.00919136 1.02692e-06 4.36472e+06 80.9353 1.0251e-06 6.1494e-06 728891 7.89532e+07
2.45043 87.9534 0.0108472 9.43941e-07 5.14913e+06 87.7927 9.42216e-07 5.36741e-06 905553 9.31768e+07
2.58954 95.4758 0.0128014 8.68255e-07 6.07894e+06 95.3083 8.66732e-07 4.68145e-06 1.12744e+06 1.09963e+08
2.73654 103.051 0.0151076 7.94088e-07 7.17304e+06 102.871 7.92701e-07 4.08023e-06 1.396e+06 1.29773e+08
2.89188 111.275 0.0178292 7.26566e-07 8.46557e+06 111.084 7.25322e-07 3.55373e-06 1.7308e+06 1.53152e+08
3.05605 120.191 0.0210412 6.64983e-07 9.98773e+06 119.987 6.63856e-07 3.09304e-06 2.14729e+06 1.80743e+08
3.22953 129.395 0.0248319 6.06624e-07 1.1797e+07 129.181 6.0562e-07 2.69025e-06 2.66011e+06 2.13304e+08
3.41286 139.041 0.0293054 5.52339e-07 1.39144e+07 138.8 5.5138e-07 2.33837e-06 3.28667e+06 2.51731e+08
3.6066 149.353 0.0345848 5.02733e-07 1.64163e+07 149.102 5.0189e-07 2.0312e-06 4.06312e+06 2.97081e+08
3.81134 160.055 0.0408154 4.56516e-07 1.93821e+07 159.788 4.55754e-07 1.76327e-06 5.01811e+06 3.50601e+08
4.0277 171.476 0.0481684 4.14429e-07 2.28754e+07 171.19 4.1374e-07 1.52972e-06 6.19736e+06 4.13763e+08
4.25634 183.39 0.056846 3.75566e-07 2.69929e+07 183.083 3.74936e-07 1.32631e-06 7.64348e+06 4.88304e+08
4.49796 195.787 0.067087 3.39747e-07 3.18542e+07 195.458 3.39175e-07 1.14926e-06 9.41686e+06 5.76273e+08
4.7533 209.04 0.0791729 3.07371e-07 3.75892e+07 208.691 3.06858e-07 9.95263e-07 1.16088e+07 6.8009e+08
5.02313 223.072 0.0934361 2.77933e-07 4.43706e+07 222.701 2.77471e-07 8.61414e-07 1.43161e+07 8.0261e+08
5.30828 237.754 0.110269 2.51007e-07 5.23593e+07 237.358 2.50588e-07 7.45152e-07 1.76374e+07 9.47202e+08
5.60962 253.016 0.130134 2.26343e-07 6.1787e+07 252.598 2.25969e-07 6.44232e-07 2.17081e+07 1.11784e+09
5.92807 268.805 0.153578 2.0376e-07 7.29346e+07 268.357 2.0342e-07 5.56685e-07 2.66957e+07 1.31923e+09
6.26459 285.705 0.181246 1.8351e-07 8.60651e+07 285.23 1.83205e-07 4.80786e-07 3.285e+07 1.55689e+09
6.62021 303.151 0.213898 1.64992e-07 1.01558e+08 302.651 1.6472e-07 4.15026e-07 4.03741e+07 1.83737e+09
6.99602 321.446 0.252432 1.48243e-07 1.1986e+08 320.917 1.47999e-07 3.58083e-07 4.96209e+07 2.16837e+09
7.39317 340.61 0.297908 1.33102e-07 1.41457e+08 340.045 1.32882e-07 3.08803e-07 6.09714e+07 2.55901e+09
7.81286 360.571 0.351577 1.19394e-07 1.66936e+08 359.981 1.19198e-07 2.66181e-07 7.48778e+07 3.02002e+09
8.25637 381.673 0.414914 1.07089e-07 1.97025e+08 381.043 1.06912e-07 2.29336e-07 9.2001e+07 3.56409e+09
8.72507 403.871 0.489662 9.60187e-08 2.32497e+08 403.201 9.58595e-08 1.97503e-07 1.13031e+08 4.20617e+09
9.22037 427.358 0.577876 8.60928e-08 2.74404e+08 426.646 8.59493e-08 1.70014e-07 1.38955e+08 4.96392e+09
9.74378 453.295 0.681982 7.73781e-08 3.2382e+08 452.515 7.72449e-08 1.46289e-07 1.71281e+08 5.85818e+09
10.2969 482.69 0.804843 6.9818e-08 3.82165e+08 481.828 6.96932e-08 1.25822e-07 2.12061e+08 6.91355e+09
10.8814 517.324 0.949838 6.3405e-08 4.51027e+08 516.339 6.32842e-08 1.08175e-07 2.64361e+08 8.15905e+09
11.4992 561.709 1.12095 5.83356e-08 5.32251e+08 560.515 5.82116e-08 9.29669e-08 3.33981e+08 9.62892e+09
12.1519 623.856 1.3229 5.48995e-08 6.28157e+08 622.298 5.47624e-08 7.98658e-08 4.31794e+08 1.13636e+10
12.8418 693.691 1.56122 5.17264e-08 3.82727e+08 717.996 5.35387e-08 6.85852e-08 2.88649e+08 1.34108e+10
13.5708 0 1.84248 0 0 0 0 5.88765e-08 0 1.58268e+10
14.3411 0 2.17441 0 0 0 0 5.05241e-08 0 1.8678e+10
15.1552 0 2.56613 0 0 0 0 4.33417e-08 0 2.20429e+10
16.0156 0 3.02843 0 0 0 0 3.71677e-08 0 2.6014e+10
16.9247 0 3.574 0 0 0 0 3.18628e-08 0 3.07005e+10
17.8855 0 4.21787 0 0 0 0 2.73063e-08 0 3.62312e+10
18.9008 0 4.97773 0 0 0 0 2.33941e-08 0 4.27584e+10
19.9738 0 5.87448 0 0 0 0 2.00364e-08 0 5.04614e+10
21.1076 0 6.93279 0 0 0 0 1.71555e-08 0 5.95522e+10
22.3058 0 8.18175 0 0 0 0 1.46847e-08 0 7.02807e+10
23.5721 0 9.65571 0 0 0 0 1.25662e-08 0 8.29419e+10
24.9102 0 11.3952 0 0 0 0 1.07504e-08 0 9.78842e+10
26.3243 0 13.4481 0 0 0 0 9.19452e-09 0 1.15518e+11
27.8187 0 15.8708 0 0 0 0 7.86182e-09 0 1.36329e+11
29.3979 0 18.73 0 0 0 0 6.72061e-09 0 1.60889e+11
31.0667 0 22.1042 0 0 0 0 5.74366e-09 0 1.89874e+11
32.8303 0 26.0864 0 0 0 0 4.90756e-09 0 2.2408e+11
34.694 0 30.7859 0 0 0 0 4.19221e-09 0 2.64449e+11
36.6634 0 36.3321 0 0 0 0 3.58032e-09 0 3.1209e+11
38.7447 0 42.8774 0 0 0 0 3.05709e-09 0 3.68314e+11
40.9442 0 50.6018 0 0 0 0 2.60976e-09 0 4.34667e+11
43.2685 0 59.7179 0 0 0 0 2.22743e-09 0 5.12973e+11
45.7247 0 70.4762 0 0 0 0 1.90073e-09 0 6.05386e+11
48.3204 0 83.1727 0 0 0 0 1.62163e-09 0 7.14448e+11
51.0634 0 98.1565 0 0 0 0 1.38326e-09 0 8.43158e+11
53.9621 0 115.84 0 0 0 0 1.1797e-09 0 9.95055e+11
57.0254 0 136.709 0 0 0 0 1.00592e-09 0 1.17432e+12
60.2626 0 161.337 0 0 0 0 8.57591e-10 0 1.38587e+12
63.6835 0 190.402 0 0 0 0 7.3101e-10 0 1.63554e+12
67.2987 0 224.704 0 0 0 0 6.23009e-10 0 1.93019e+12
71.1191 0 265.185 0 0 0 0 5.30879e-10 0 2.27792e+12
75.1563 0 312.958 0 0 0 0 4.52303e-10 0 2.68829e+12
79.4227 0 369.339 0 0 0 0 3.85299e-10 0 3.17259e+12
83.9313 0 435.876 0 0 0 0 3.28173e-10 0 3.74415e+12
88.6959 0 514.4 0 0 0 0 2.79476e-10 0 4.41866e+12
93.7309 0 607.071 0 0 0 0 2.37972e-10 0 5.2147e+12
99.0518 0 716.436 0 0 0 0 2.02605e-10 0 6.15414e+12
104.675 0 845.504 0 0 0 0 1.72471e-10 0 7.26283e+12
110.617 0 997.824 0 0 0 0 1.468e-10 0 8.57124e+12
116.896 0 1177.58 0 0 0 0 1.24935e-10 0 1.01154e+13
123.532 0 1389.73 0 0 0 0 1.06313e-10 0 1.19377e+13
130.545 0 1640.09 0 0 0 0 9.04567e-11 0 1.40883e+13
137.955 0 1935.56 0 0 0 0 7.69563e-11 0 1.66263e+13
145.787 0 2284.26 0 0 0 0 6.54636e-11 0 1.96216e+13
154.063 0 2695.77 0 0 0 0 5.56812e-11 0 2.31565e+13
162.808 0 3181.42 0 0 0 0 4.73556e-11 0 2.73282e+13
172.051 0 3754.56 0 0 0 0 4.02708e-11 0 3.22515e+13
181.818 0 4430.96 0 0 0 0 3.42426e-11 0 3.80616e+13
192.139 0 5229.21 0 0 0 0 2.91139e-11 0 4.49186e+13
203.046 0 6171.26 0 0 0 0 2.4751e-11 0 5.30108e+13
214.572 0 7283.03 0 0 0 0 2.10401e-11 0 6.25608e+13
226.753 0 8595.09 0 0 0 0 1.78839e-11 0 7.38313e+13
239.625 0 10143.5 0 0 0 0 1.51999e-11 0 8.71322e+13
253.228 0 11970.9 0 0 0 0 1.29176e-11 0 1.02829e+14
267.603 0 14127.5 0 0 0 0 1.09771e-11 0 1.21354e+14
282.795 0 16672.6 0 0 0 0 9.3274e-12 0 1.43217e+14
298.848 0 19676.2 0 0 0 0 7.925e-12 0 1.69017e+14
315.813 0 23220.9 0 0 0 0 6.73295e-12 0 1.99466e+14
333.741 0 27404.3 0 0 0 0 5.71979e-12 0 2.35401e+14
352.686 0 32341.2 0 0 0 0 4.85874e-12 0 2.77809e+14
372.707 0 38167.6 0 0 0 0 4.12703e-12 0 3.27857e+14
393.865 0 45043.5 0 0 0 0 3.50528e-12 0 3.86921e+14
416.224 0 53158.3 0 0 0 0 2.97701e-12 0 4.56626e+14
439.852 0 62734.9 0 0 0 0 2.52819e-12 0 5.38888e+14
464.821 0 74036.7 0 0 0 0 2.1469e-12 0 6.35971e+14
491.207 0 87374.6 0 0 0 0 1.82301e-12 0 7.50542e+14
519.092 0 103115 0 0 0 0 1.54789e-12 0 8.85755e+14
548.56 0 121692 0 0 0 0 1.31422e-12 0 1.04533e+15
579.7 0 143615 0 0 0 0 1.11576e-12 0 1.23364e+15
612.608 0 169488 0 0 0 0 9.47223e-13 0 1.45589e+15
647.384 0 200021 0 0 0 0 8.041e-13 0 1.71817e+15
684.134 0 236056 0 0 0 0 6.82568e-13 0 2.0277e+15
722.971 0 278582 0 0 0 0 5.79376e-13 0 2.393e+15
764.012 0 328769 0 0 0 0 4.91762e-13 0 2.8241e+15
