0.359209
200
1.0655e+09
8589934592
0.0129181 0 1.58924e-09 0 0 0 0 0.00677225 0 13.6515
0.0136515 0 1.87554e-09 0 0 0 0 0.00688819 0 16.1108
0.0144264 0 2.21343e-09 0 0 0 0 0.00699249 0 19.0132
0.0152454 0 2.61218e-09 0 0 0 0 0.00708412 0 22.4385
0.0161108 0 3.08278e-09 0 0 0 0 0.00716212 0 26.4808
0.0170254 0 3.63815e-09 0 0 0 0 0.00722559 0 31.2514
0.0179919 0 4.29357e-09 0 0 0 0 0.00727371 0 36.8815
0.0190132 0 5.06707e-09 0 0 0 0 0.00730578 0 43.5258
0.0200925 0 5.97991e-09 0 0 0 0 0.00732122 0 51.367
0.0212331 0 7.05721e-09 0 0 0 0 0.00731958 0 60.621
0.0224385 0 8.32858e-09 0 0 0 0 0.00730056 0 71.542
0.0237123 0 9.829e-09 0 0 0 0 0.00726401 0 84.4305
0.0250583 0 1.15997e-08 0 0 0 0 0.00720995 0 99.6408
0.0264808 0 1.36894e-08 0 0 0 0 0.00713857 0 117.591
0.0279841 0 1.61556e-08 0 0 0 0 0.00705021 0 138.776
0.0295727 0 1.90661e-08 0 0 0 0 0.00694538 0 163.777
0.0312514 0 2.25009e-08 0 0 0 0 0.00682475 0 193.281
0.0330255 0 2.65545e-08 0 0 0 0 0.00668915 0 228.102
0.0349003 0 3.13384e-08 0 0 0 0 0.00653951 0 269.195
0.0368815 0 3.69841e-08 0 0 0 0 0.00637693 0 317.691
0.0389751 0 4.36469e-08 0 0 0 0 0.00620256 0 374.924
0.0411876 0 5.151e-08 0 0 0 0 0.00601767 0 442.467
0.0435258 0 6.07896e-08 0 0 0 0 0.00582358 0 522.179
0.0459966 0 7.1741e-08 0 0 0 0 0.00562166 0 616.251
0.0486077 0 8.46654e-08 0 0 0 0 0.0054133 0 727.27
0.051367 0 9.99181e-08 0 0 0 0 0.00519989 0 858.29
0.054283 0 1.17919e-07 0 0 0 0 0.0049828 0 1012.91
0.0573645 0 1.39162e-07 0 0 0 0 0.00476339 0 1195.39
0.060621 0 1.64232e-07 0 0 0 0 0.00454293 0 1410.75
0.0640622 0 1.93819e-07 0 0 0 0 0.00432265 0 1664.89
0.0676989 0 2.28736e-07 0 0 0 0 0.00410371 0 1964.83
0.071542 0 2.69944e-07 0 0 0 0 0.00388717 0 2318.8
0.0756032 0 3.18575e-07 0 0 0 0 0.00367401 0 2736.54
0.079895 0 3.75967e-07 0 0 0 0 0.0034651 0 3229.53
0.0844305 0 4.43698e-07 0 0 0 0 0.00326121 0 3811.34
0.0892234 0 5.23632e-07 0 0 0 0 0.00306301 0 4497.96
0.0942883 0 6.17966e-07 0 0 0 0 0.00287109 0 5308.28
0.0996408 0 7.29294e-07 0 0 0 0 0.00268591 0 6264.59
0.105297 0 8.60678e-07 0 0 0 0 0.00250785 0 7393.17
0.111275 0 1.01573e-06 0 0 0 0 0.00233721 0 8725.07
0.117591 0 1.19872e-06 0 0 0 0 0.00217419 0 10296.9
0.124267 0 1.41467e-06 0 0 0 0 0.00201893 0 12151.9
0.131321 0 1.66953e-06 0 0 0 0 0.00187147 0 14341.1
0.138776 0 1.9703e-06 0 0 0 0 0.00173182 0 16924.7
0.146654 0 2.32525e-06 0 0 0 0 0.00159991 0 19973.8
0.154979 0 2.74415e-06 0 0 0 0 0.00147563 0 23572.1
0.163777 0 3.23852e-06 0 0 0 0 0.00135884 0 27818.7
0.173074 0 3.82195e-06 0 0 0 0 0.00124933 0 32830.3
0.182899 0 4.51048e-06 0 0 0 0 0.00114689 0 38744.7
0.193281 0 5.32305e-06 0 0 0 0 0.00105127 0 45724.7
0.204254 0 6.28202e-06 0 0 0 0 0.000962209 0 53962.1
0.215848 0 7.41374e-06 0 0 0 0 0.000879423 0 63683.5
0.228102 0 8.74934e-06 0 0 0 0 0.000802624 0 75156.3
0.24105 0 1.03256e-05 0 0 0 0 0.000731515 0 88695.9
0.254734 0 1.21857e-05 0 0 0 0 0.000665798 0 104675
0.269195 0 1.4381e-05 0 0 0 0 0.000605173 0 123532
0.284476 0 1.69718e-05 0 0 0 0 0.000549345 0 145787
0.300625 0 2.00293e-05 0 0 0 0 0.000498021 0 172051
0.317691 0 2.36377e-05 0 0 0 0 0.000450916 0 203046
0.335725 0 2.78961e-05 0 0 0 0 0.000407755 0 239625
0.354784 0 3.29216e-05 0 0 0 0 0.000368269 0 282795
0.374924 0 3.88525e-05 0 0 0 0 0.000332202 0 333741
0.396207 1.39615 4.58519e-05 3.54475e-06 6 1.35734 3.4462e-06 0.000299307 0.0710592 393865
0.418699 0 5.41123e-05 0 0 0 0 0.00026935 0 464821
0.442467 0 6.38607e-05 0 0 0 0 0.000242108 0 548560
0.467585 0 7.53654e-05 0 0 0 0 0.00021737 0 647384
0.494129 0 8.89427e-05 0 0 0 0 0.000194938 0 764012
0.522179 0 0.000104966 0 0 0 0 0.000174625 0 901651
0.551822 0 0.000123876 0 0 0 0 0.000156255 0 1.06409e+06
0.583147 6.46939 0.000146192 5.15168e-06 12 6.80907 5.42217e-06 0.000139664 0.442635 1.25578e+06
0.616251 0 0.000172529 0 0 0 0 0.0001247 0 1.48202e+06
0.651234 0 0.000203611 0 0 0 0 0.00011122 0 1.74901e+06
0.688203 23.0052 0.000240292 1.11454e-05 8 22.4329 1.08682e-05 9.90935e-05 0.899792 2.06409e+06
0.72727 0 0.000283581 0 0 0 0 8.81969e-05 0 2.43595e+06
0.768555 0 0.000334669 0 0 0 0 7.84179e-05 0 2.87479e+06
0.812184 0.810461 0.000394961 2.38885e-07 6 0.827789 2.43992e-07 6.96525e-05 0.020578 3.39269e+06
0.85829 0 0.000466114 0 0 0 0 6.1805e-05 0 4.00389e+06
0.907013 0.680499 0.000550086 1.44015e-07 24 0.693556 1.46778e-07 5.47875e-05 0.0630866 4.7252e+06
0.958501 3.03616 0.000649185 5.4446e-07 24 2.85832 5.12569e-07 4.85194e-05 0.269316 5.57646e+06
1.01291 0 0.000766138 0 0 0 0 4.29272e-05 0 6.58107e+06
1.07041 0 0.00090416 0 0 0 0 3.79435e-05 0 7.76667e+06
1.13118 2.46252 0.00106705 2.68663e-07 12 2.43227 2.65362e-07 3.3507e-05 0.0962172 9.16586e+06
1.19539 2.44068 0.00125928 2.25632e-07 30 2.39037 2.2098e-07 2.9562e-05 0.228974 1.08171e+07
1.26325 8.87028 0.00148614 6.94845e-07 24 8.73681 6.84389e-07 2.60578e-05 0.639972 1.27658e+07
1.33496 19.2481 0.00175387 1.27761e-06 24 19.2904 1.28042e-06 2.29484e-05 1.33616 1.50656e+07
1.41075 11.2719 0.00206984 6.33973e-07 32 11.5545 6.4987e-07 2.01923e-05 1.0047 1.77798e+07
1.49083 1.86708 0.00244272 8.89814e-08 48 1.82728 8.70844e-08 1.77518e-05 0.240602 2.09828e+07
1.57546 1.4116 0.00288279 5.70046e-08 6 1.34416 5.42812e-08 1.55929e-05 0.0219349 2.4763e+07
1.66489 1.55432 0.00340213 5.31861e-08 84 1.52547 5.21991e-08 1.3685e-05 0.326462 2.92241e+07
1.75941 4.00142 0.00401503 1.16021e-07 48 3.98839 1.15643e-07 1.20007e-05 0.464057 3.44889e+07
1.85928 2.44079 0.00473835 5.99671e-08 72 2.4549 6.03139e-08 1.05151e-05 0.410613 4.07021e+07
1.96483 4.83845 0.00559198 1.00728e-07 54 4.74668 9.88177e-08 9.20606e-06 0.590841 4.80347e+07
2.07637 9.64968 0.00659939 1.70223e-07 104 9.66505 1.70495e-07 8.05366e-06 2.19816 5.66883e+07
2.19424 3.11859 0.00778828 4.66151e-08 120 3.14645 4.70315e-08 7.04008e-06 0.794568 6.69008e+07
2.3188 4.45953 0.00919136 5.64832e-08 156 4.31813 5.46922e-08 6.1494e-06 1.43288 7.89532e+07
2.45043 5.5868 0.0108472 5.99591e-08 126 5.56009 5.96724e-08 5.36741e-06 1.40754 9.31768e+07
2.58954 3.51392 0.0128014 3.19555e-08 192 3.5391 3.21845e-08 4.68145e-06 1.31059 1.09963e+08
2.73654 14.1323 0.0151076 1.089e-07 152 14.5286 1.11954e-07 4.08023e-06 4.05684 1.29773e+08
2.89188 7.25474 0.0178292 4.73695e-08 378 7.3551 4.80248e-08 3.55373e-06 5.03856 1.53152e+08
3.05605 5.22659 0.0210412 2.89173e-08 264 5.17438 2.86284e-08 3.09304e-06 2.46818 1.80743e+08
3.22953 4.79323 0.0248319 2.24714e-08 366 4.73168 2.21828e-08 2.69025e-06 3.05715 2.13304e+08
3.41286 6.32059 0.0293054 2.51085e-08 428 6.20259 2.46397e-08 2.33837e-06 4.59568 2.51731e+08
3.6066 8.35072 0.0345848 2.81092e-08 486 8.20807 2.7629e-08 2.0312e-06 6.72561 2.97081e+08
3.81134 6.65941 0.0408154 1.89942e-08 600 6.65662 1.89863e-08 1.76327e-06 6.46332 3.50601e+08
4.0277 7.40408 0.0481684 1.78945e-08 738 7.32008 1.76915e-08 1.52972e-06 8.63302 4.13763e+08
4.25634 9.41 0.056846 1.92708e-08 824 9.46104 1.93753e-08 1.32631e-06 11.9725 4.88304e+08
4.49796 9.84159 0.067087 1.7078e-08 954 9.79171 1.69914e-08 1.14926e-06 14.1765 5.76273e+08
4.7533 8.91073 0.0791729 1.31023e-08 1094 8.86788 1.30393e-08 9.95263e-07 14.4021 6.8009e+08
5.02313 10.1057 0.0934361 1.2591e-08 1332 10.1124 1.25994e-08 8.61414e-07 19.4695 8.0261e+08
5.30828 12.8305 0.110269 1.35456e-08 1614 12.8569 1.35736e-08 7.45152e-07 29.3398 9.47202e+08
5.60962 12.7545 0.130134 1.14099e-08 1850 12.6987 1.136e-08 6.44232e-07 32.765 1.11784e+09
5.92807 13.5594 0.153578 1.02783e-08 2238 13.5265 1.02534e-08 5.56685e-07 41.3212 1.31923e+09
6.26459 13.2975 0.181246 8.54106e-09 2546 13.361 8.58187e-09 4.80786e-07 45.2291 1.55689e+09
6.62021 13.3536 0.213898 7.26779e-09 3264 13.3349 7.25761e-09 4.15026e-07 57.1581 1.83737e+09
6.99602 16.1336 0.252432 7.44043e-09 3506 16.1825 7.46299e-09 3.58083e-07 72.8496 2.16837e+09
7.39317 16.2103 0.297908 6.33461e-09 4506 16.2169 6.33716e-09 3.08803e-07 92.4334 2.55901e+09
7.81286 18.179 0.351577 6.01948e-09 5018 18.161 6.01354e-09 2.66181e-07 113.478 3.02002e+09
8.25637 18.9851 0.414914 5.32678e-09 5852 18.9326 5.31205e-09 2.29336e-07 135.924 3.56409e+09
8.72507 20.0605 0.489662 4.7693e-09 7362 20.0241 4.76065e-09 1.97503e-07 177.777 4.20617e+09
9.22037 21.1949 0.577876 4.2698e-09 8306 21.1236 4.25544e-09 1.70014e-07 208.6 4.96392e+09
9.74378 22.6763 0.681982 3.87087e-09 9698 22.6715 3.87005e-09 1.46289e-07 256.614 5.85818e+09
10.2969 24.0576 0.804843 3.47977e-09 11816 24.0417 3.47748e-09 1.25822e-07 326.786 6.91355e+09
10.8814 26.8629 0.949838 3.29241e-09 13682 26.8219 3.28738e-09 1.08175e-07 416.423 8.15905e+09
11.4992 27.7934 1.12095 2.88645e-09 16152 27.7757 2.88461e-09 9.29669e-08 501.489 9.62892e+09
12.1519 29.3912 1.3229 2.58643e-09 19472 29.3211 2.58027e-09 7.98658e-08 630.596 1.13636e+10
12.8418 30.2144 1.56122 2.25299e-09 22670 30.1447 2.24779e-09 6.85852e-08 744.7 1.34108e+10
13.5708 32.5552 1.84248 2.05697e-09 26224 32.508 2.05399e-09 5.88765e-08 916.188 1.58268e+10
14.3411 34.5767 2.17441 1.8512e-09 31640 34.5701 1.85084e-09 5.05241e-08 1159.29 1.8678e+10
15.1552 36.373 2.56613 1.6501e-09 37484 36.3144 1.64744e-09 4.33417e-08 1427.09 2.20429e+10
16.0156 38.2924 3.02843 1.47199e-09 43856 38.226 1.46944e-09 3.71677e-08 1736.87 2.6014e+10
16.9247 40.9365 3.574 1.33342e-09 51362 40.8868 1.3318e-09 3.18628e-08 2149.43 3.07005e+10
17.8855 42.6825 4.21787 1.17806e-09 61636 42.6193 1.17631e-09 2.73063e-08 2659.12 3.62312e+10
18.9008 45.0523 4.97773 1.05365e-09 72218 44.9423 1.05108e-09 2.33941e-08 3252.63 4.27584e+10
19.9738 47.5782 5.87448 9.42862e-10 84586 47.4754 9.40825e-10 2.00364e-08 3980.41 5.04614e+10
21.1076 49.788 6.93279 8.3604e-10 100708 49.7036 8.34622e-10 1.71555e-08 4907.8 5.95522e+10
22.3058 53.2793 8.18175 7.58093e-10 118712 53.1801 7.56682e-10 1.46847e-08 6128.49 7.02807e+10
23.5721 55.3398 9.65571 6.67211e-10 140410 55.1956 6.65473e-10 1.25662e-08 7455.2 8.29419e+10
24.9102 58.5377 11.3952 5.9803e-10 164374 58.4322 5.96953e-10 1.07504e-08 9143.94 9.78842e+10
26.3243 62.0025 13.4481 5.36734e-10 194680 61.8992 5.35839e-10 9.19452e-09 11364.5 1.15518e+11
27.8187 64.764 15.8708 4.75056e-10 230196 64.6424 4.74164e-10 7.86182e-09 13909.8 1.36329e+11
29.3979 68.5287 18.73 4.25937e-10 271156 68.4156 4.25234e-10 6.72061e-09 17185.3 1.60889e+11
31.0667 72.1902 22.1042 3.80201e-10 321076 72.0659 3.79546e-10 5.74366e-09 21253.6 1.89874e+11
32.8303 76.1887 26.0864 3.40006e-10 377436 76.0382 3.39335e-10 4.90756e-09 26149.6 2.2408e+11
34.694 80.6185 30.7859 3.04855e-10 447594 80.4542 3.04234e-10 4.19221e-09 32548.8 2.64449e+11
36.6634 85.0241 36.3321 2.72435e-10 525078 84.8518 2.71883e-10 3.58032e-09 39954.3 3.1209e+11
38.7447 89.8113 42.8774 2.43844e-10 621924 89.6424 2.43386e-10 3.05709e-09 49606.9 3.68314e+11
40.9442 95.2331 50.6018 2.19095e-10 732630 95.0522 2.18678e-10 2.60976e-09 61505.8 4.34667e+11
43.2685 101.485 59.7179 1.97837e-10 865596 101.301 1.97478e-10 2.22743e-09 76880.7 5.12973e+11
45.7247 108.51 70.4762 1.79242e-10 1.02168e+06 108.299 1.78892e-10 1.90073e-09 96345.5 6.05386e+11
48.3204 115.765 83.1727 1.62034e-10 1.20544e+06 115.53 1.61706e-10 1.62163e-09 120448 7.14448e+11
51.0634 126.463 98.1565 1.49987e-10 1.42103e+06 126.168 1.49637e-10 1.38326e-09 154083 8.43158e+11
53.9621 133.207 115.84 1.33869e-10 1.67997e+06 132.93 1.33591e-10 1.1797e-09 190638 9.95055e+11
57.0254 144.728 136.709 1.23244e-10 1.98018e+06 144.413 1.22976e-10 1.00592e-09 242610 1.17432e+12
60.2626 157.371 161.337 1.13554e-10 2.33957e+06 157.031 1.13308e-10 8.57591e-10 309783 1.38587e+12
63.6835 171.669 190.402 1.04962e-10 2.75676e+06 171.271 1.04718e-10 7.3101e-10 395828 1.63554e+12
67.2987 188.824 224.704 9.78266e-11 3.25638e+06 188.384 9.75987e-11 6.23009e-10 511326 1.93019e+12
71.1191 208.5 265.185 9.15307e-11 3.84387e+06 207.992 9.13081e-11 5.30879e-10 662736 2.27792e+12
75.1563 231.999 312.958 8.62997e-11 4.53277e+06 231.412 8.60816e-11 4.52303e-10 864854 2.68829e+12
79.4227 258.964 369.339 8.16252e-11 5.35083e+06 258.298 8.14155e-11 3.85299e-10 1.13357e+06 3.17259e+12
83.9313 291.14 435.876 7.77587e-11 6.32174e+06 290.378 7.75551e-11 3.28173e-10 1.4979e+06 3.74415e+12
88.6959 329.474 514.4 7.45641e-11 7.44986e+06 328.567 7.43589e-11 2.79476e-10 1.98762e+06 4.41866e+12
93.7309 374.274 607.071 7.17729e-11 8.79764e+06 373.21 7.15688e-11 2.37972e-10 2.65338e+06 5.2147e+12
99.0518 427.579 716.436 6.94782e-11 1.03827e+07 426.343 6.92774e-11 2.02605e-10 3.56048e+06 6.15414e+12
104.675 490.981 845.504 6.76019e-11 1.22515e+07 489.533 6.74025e-11 1.72471e-10 4.80212e+06 7.26283e+12
110.617 565.38 997.824 6.59625e-11 1.44573e+07 563.702 6.57667e-11 1.468e-10 6.49618e+06 8.57124e+12
116.896 653.922 1177.58 6.46463e-11 1.70664e+07 651.923 6.44487e-11 1.24935e-10 8.83085e+06 1.01154e+13
123.532 759.167 1389.73 6.35942e-11 2.0139e+07 756.809 6.33966e-11 1.06313e-10 1.20467e+07 1.19377e+13
130.545 883.463 1640.09 6.2709e-11 2.37643e+07 880.707 6.25134e-11 9.04567e-11 1.64746e+07 1.40883e+13
137.955 1030.62 1935.56 6.19871e-11 2.80503e+07 1027.34 6.17897e-11 7.69563e-11 2.25941e+07 1.66263e+13
145.787 1205.08 2284.26 6.14161e-11 3.30981e+07 1201.21 6.12188e-11 6.54636e-11 3.10517e+07 1.96216e+13
154.063 1412.66 2695.77 6.1005e-11 3.90634e+07 1408.1 6.08081e-11 5.56812e-11 4.27984e+07 2.31565e+13
162.808 1655.43 3181.42 6.05758e-11 4.61057e+07 1650.02 6.03779e-11 4.73556e-11 5.89769e+07 2.73282e+13
172.051 1945.97 3754.56 6.03374e-11 5.44046e+07 1939.59 6.01396e-11 4.02708e-11 8.15139e+07 3.22515e+13
181.818 2290.06 4430.96 6.01672e-11 6.42064e+07 2282.48 5.99681e-11 3.42426e-11 1.12816e+08 3.80616e+13
192.139 2697.94 5229.21 6.00628e-11 7.57748e+07 2688.98 5.98635e-11 2.91139e-11 1.56326e+08 4.49186e+13
203.046 3182.11 6171.26 6.00277e-11 8.94213e+07 3171.5 5.98274e-11 2.4751e-11 2.1687e+08 5.30108e+13
214.572 3757.77 7283.03 6.00659e-11 1.05538e+08 3745.19 5.98647e-11 2.10401e-11 3.01294e+08 6.25608e+13
226.753 4444.45 8595.09 6.01973e-11 1.24552e+08 4429.47 5.99945e-11 1.78839e-11 4.19242e+08 7.38313e+13
239.625 5265.64 10143.5 6.04328e-11 1.46987e+08 5247.79 6.02279e-11 1.51999e-11 5.84401e+08 8.71322e+13
253.228 6248.46 11970.9 6.07654e-11 1.7347e+08 6226.99 6.05565e-11 1.29176e-11 8.16015e+08 1.02829e+14
267.603 7433.17 14127.5 6.12518e-11 2.04703e+08 7407.4 6.10395e-11 1.09771e-11 1.14223e+09 1.21354e+14
282.795 8871.22 16672.6 6.19427e-11 2.4161e+08 8840 6.17247e-11 9.3274e-12 1.60452e+09 1.43217e+14
298.848 10632.3 19676.2 6.29064e-11 2.85122e+08 10594.1 6.26804e-11 7.925e-12 2.26322e+09 1.69017e+14
315.813 12816.6 23220.9 6.42544e-11 3.36491e+08 12769.4 6.40181e-11 6.73295e-12 3.21123e+09 1.99466e+14
333.741 15567.5 27404.3 6.6132e-11 3.97115e+08 15508.2 6.58801e-11 5.71979e-12 4.59143e+09 2.35401e+14
352.686 19115.9 32341.2 6.88097e-11 4.68637e+08 19039.9 6.85361e-11 4.85874e-12 6.63686e+09 2.77809e+14
372.707 23835.3 38167.6 7.27003e-11 5.53074e+08 23734.8 7.23938e-11 4.12703e-12 9.74276e+09 3.27857e+14
393.865 30342.7 45043.5 7.84209e-11 6.52716e+08 30204.8 7.80644e-11 3.50528e-12 1.46027e+10 3.86921e+14
416.224 35825.5 53158.3 7.84569e-11 2.2184e+08 37900 8.3e-11 2.97701e-12 5.84642e+09 4.56626e+14
439.852 0 62734.9 0 0 0 0 2.52819e-12 0 5.38888e+14
464.821 0 74036.7 0 0 0 0 2.1469e-12 0 6.35971e+14
491.207 0 87374.6 0 0 0 0 1.82301e-12 0 7.50542e+14
519.092 0 103115 0 0 0 0 1.54789e-12 0 8.85755e+14
548.56 0 121692 0 0 0 0 1.31422e-12 0 1.04533e+15
579.7 0 143615 0 0 0 0 1.11576e-12 0 1.23364e+15
612.608 0 169488 0 0 0 0 9.47223e-13 0 1.45589e+15
647.384 0 200021 0 0 0 0 8.041e-13 0 1.71817e+15
684.134 0 236056 0 0 0 0 6.82568e-13 0 2.0277e+15
722.971 0 278582 0 0 0 0 5.79376e-13 0 2.393e+15
764.012 0 328769 0 0 0 0 4.91762e-13 0 2.8241e+15
0.359209
200
1.0655e+09
8589934592
0.0129181 0.000321315 1.58924e-09 2.35371e-05 6 0.000318374 2.33216e-05 0.00677225 0.0208531 13.6515
0.0136515 0 1.87554e-09 0 0 0 0 0.00688819 0 16.1108
0.0144264 0 2.21343e-09 0 0 0 0 0.00699249 0 19.0132
0.0152454 0 2.61218e-09 0 0 0 0 0.00708412 0 22.4385
0.0161108 0 3.08278e-09 0 0 0 0 0.00716212 0 26.4808
0.0170254 0 3.63815e-09 0 0 0 0 0.00722559 0 31.2514
0.0179919 0.00128555 4.29357e-09 3.48562e-05 12 0.00128389 3.48112e-05 0.00727371 0.0575049 36.8815
0.0190132 0 5.06707e-09 0 0 0 0 0.00730578 0 43.5258
0.0200925 0 5.97991e-09 0 0 0 0 0.00732122 0 51.367
0.0212331 0.000929532 7.05721e-09 1.53335e-05 8 0.000928724 1.53202e-05 0.00731958 0.0167589 60.621
0.0224385 0 8.32858e-09 0 0 0 0 0.00730056 0 71.542
0.0237123 0 9.829e-09 0 0 0 0 0.00726401 0 84.4305
0.0250583 0.00199593 1.15997e-08 2.00312e-05 6 0.00199499 2.00218e-05 0.00720995 0.0166696 99.6408
0.0264808 0 1.36894e-08 0 0 0 0 0.00713857 0 117.591
0.0279841 0.00473706 1.61556e-08 3.41346e-05 24 0.00473219 3.40996e-05 0.00705021 0.116199 138.776
0.0295727 0 1.90661e-08 0 0 0 0 0.00694538 0 163.777
0.0312514 0.00931788 2.25009e-08 4.82088e-05 24 0.00936519 4.84536e-05 0.00682475 0.169532 193.281
0.0330255 0 2.65545e-08 0 0 0 0 0.00668915 0 228.102
0.0349003 0.00854655 3.13384e-08 3.17486e-05 12 0.00847812 3.14944e-05 0.00653951 0.0582586 269.195
0.0368815 0.0120306 3.69841e-08 3.78688e-05 30 0.0119025 3.74656e-05 0.00637693 0.178152 317.691
0.0389751 0.0170447 4.36469e-08 4.54617e-05 24 0.0168693 4.4994e-05 0.00620256 0.175908 374.924
0.0411876 0.00954066 5.151e-08 2.15624e-05 24 0.00947587 2.1416e-05 0.00601767 0.0859964 442.467
0.0435258 0.0153258 6.07896e-08 2.93497e-05 8 0.0153246 2.93474e-05 0.00582358 0.0403184 522.179
0.0459966 0.0147712 7.1741e-08 2.39695e-05 72 0.0146293 2.37391e-05 0.00562166 0.306992 616.251
0.0486077 0 8.46654e-08 0 0 0 0 0.0054133 0 727.27
0.051367 0.0178269 9.99181e-08 2.07702e-05 54 0.017794 2.07319e-05 0.00519989 0.215696 858.29
0.054283 0.0189898 1.17919e-07 1.87477e-05 60 0.0190719 1.88288e-05 0.0049828 0.225748 1012.91
0.0573645 0.0262191 1.39162e-07 2.19335e-05 96 0.0260086 2.17574e-05 0.00476339 0.442041 1195.39
0.060621 0.0395967 1.64232e-07 2.80679e-05 24 0.0390602 2.76876e-05 0.00454293 0.148281 1410.75
0.0640622 0.0293937 1.93819e-07 1.7655e-05 134 0.0293214 1.76116e-05 0.00432265 0.547295 1664.89
0.0676989 0.0334418 2.28736e-07 1.70202e-05 120 0.0332222 1.69085e-05 0.00410371 0.497702 1964.83
0.071542 0.0462916 2.69944e-07 1.99636e-05 108 0.0457135 1.97143e-05 0.00388717 0.554662 2318.8
0.0756032 0.0406769 3.18575e-07 1.48644e-05 174 0.0405315 1.48112e-05 0.00367401 0.703971 2736.54
0.079895 0.0396823 3.75967e-07 1.22873e-05 168 0.0393352 1.21799e-05 0.0034651 0.595732 3229.53
0.0844305 0.0373281 4.43698e-07 9.79394e-06 168 0.0374183 9.81762e-06 0.00326121 0.504532 3811.34
0.0892234 0.0558589 5.23632e-07 1.24187e-05 290 0.0556374 1.23695e-05 0.00306301 1.17578 4497.96
0.0942883 0.0518255 6.17966e-07 9.76314e-06 288 0.0519522 9.78701e-06 0.00287109 0.979344 5308.28
0.0996408 0.051929 7.29294e-07 8.28929e-06 366 0.0515065 8.22185e-06 0.00268591 1.12955 6264.59
0.105297 0.0609111 8.60678e-07 8.23884e-06 420 0.0605772 8.19368e-06 0.00250785 1.37979 7393.17
0.111275 0.0668957 1.01573e-06 7.66707e-06 398 0.0667515 7.65055e-06 0.00233721 1.30561 8725.07
0.117591 0.0792399 1.19872e-06 7.6955e-06 624 0.0794373 7.71467e-06 0.00217419 2.20863 10296.9
0.124267 0.0934706 1.41467e-06 7.69183e-06 642 0.09346 7.69096e-06 0.00201893 2.44593 12151.9
0.131321 0.0995155 1.66953e-06 6.93917e-06 800 0.0995858 6.94407e-06 0.00187147 2.9663 14341.1
0.138776 0.109209 1.9703e-06 6.45262e-06 858 0.109458 6.46733e-06 0.00173182 3.19684 16924.7
0.146654 0.113805 2.32525e-06 5.69773e-06 1080 0.114644 5.73975e-06 0.00159991 3.84619 19973.8
0.154979 0.119166 2.74415e-06 5.05538e-06 1286 0.119953 5.08879e-06 0.00147563 4.40571 23572.1
0.163777 0.130657 3.23852e-06 4.69675e-06 1650 0.131117 4.71328e-06 0.00135884 5.70313 27818.7
0.173074 0.130799 3.82195e-06 3.98411e-06 1778 0.130966 3.98917e-06 0.00124933 5.67003 32830.3
0.182899 0.14867 4.51048e-06 3.83716e-06 2112 0.148913 3.84343e-06 0.00114689 7.06612 38744.7
0.193281 0.173938 5.32305e-06 3.80403e-06 2570 0.174138 3.80841e-06 0.00105127 9.29955 45724.7
0.204254 0.177523 6.28202e-06 3.28977e-06 3030 0.177393 3.28735e-06 0.000962209 10.3595 53962.1
0.215848 0.183894 7.41374e-06 2.88761e-06 3434 0.184072 2.89042e-06 0.000879423 11.2757 63683.5
0.228102 0.197694 8.74934e-06 2.63044e-06 4218 0.197631 2.6296e-06 0.000802624 13.8237 75156.3
0.24105 0.223391 1.03256e-05 2.51861e-06 4766 0.223697 2.52207e-06 0.000731515 16.4094 88695.9
0.254734 0.244144 1.21857e-05 2.33241e-06 6026 0.24414 2.33237e-06 0.000665798 21.1101 104675
0.269195 0.258831 1.4381e-05 2.09526e-06 6480 0.258946 2.09619e-06 0.000605173 22.4353 123532
0.284476 0.272566 1.69718e-05 1.86962e-06 8162 0.27286 1.87164e-06 0.000549345 27.7782 145787
0.300625 0.294972 2.00293e-05 1.71445e-06 9578 0.295039 1.71484e-06 0.000498021 32.9725 172051
0.317691 0.316788 2.36377e-05 1.56018e-06 11234 0.316845 1.56046e-06 0.000450916 38.8699 203046
0.335725 0.347189 2.78961e-05 1.44888e-06 13344 0.346998 1.44808e-06 0.000407755 47.4154 239625
0.354784 0.368631 3.29216e-05 1.30353e-06 15464 0.368415 1.30277e-06 0.000368269 54.7365 282795
0.374924 0.398379 3.88525e-05 1.19368e-06 18458 0.39832 1.1935e-06 0.000332202 66.3239 333741
0.396207 0.426632 4.58519e-05 1.08319e-06 22232 0.425732 1.08091e-06 0.000299307 80.4577 393865
0.418699 0.453644 5.41123e-05 9.75955e-07 25628 0.452684 9.7389e-07 0.00026935 92.8599 464821
0.442467 0.48828 6.38607e-05 8.90114e-07 30320 0.487123 8.88004e-07 0.000242108 111.472 548560
0.467585 0.518791 7.53654e-05 8.01365e-07 35452 0.518146 8.00368e-07 0.00021737 130.699 647384
0.494129 0.576215 8.89427e-05 7.54196e-07 41792 0.575971 7.53877e-07 0.000194938 161.689 764012
0.522179 0.620946 0.000104966 6.88677e-07 49988 0.620852 6.88572e-07 0.000174625 197.14 901651
0.551822 0.671267 0.000123876 6.30839e-07 59110 0.670713 6.30319e-07 0.000156255 238.642 1.06409e+06
0.583147 0.727561 0.000146192 5.79368e-07 69716 0.726495 5.78519e-07 0.000139664 289.203 1.25578e+06
0.616251 0.794662 0.000172529 5.36204e-07 82210 0.793093 5.35144e-07 0.0001247 353.499 1.48202e+06
0.651234 0.852745 0.000203611 4.8756e-07 96722 0.851109 4.86625e-07 0.00011122 424.003 1.74901e+06
0.688203 0.92125 0.000240292 4.46322e-07 113098 0.919891 4.45663e-07 9.90935e-05 509.399 2.06409e+06
0.72727 1.00227 0.000283581 4.1145e-07 135190 1.00097 4.10915e-07 8.81969e-05 630.679 2.43595e+06
0.768555 1.08216 0.000334669 3.76431e-07 158170 1.08079 3.75954e-07 7.84179e-05 759.265 2.87479e+06
0.812184 1.17356 0.000394961 3.45909e-07 188560 1.17201 3.45451e-07 6.96525e-05 936.429 3.39269e+06
0.85829 1.282 0.000466114 3.20188e-07 220444 1.28022 3.19744e-07 6.1805e-05 1142.03 4.00389e+06
0.907013 1.39967 0.000550086 2.96215e-07 261388 1.39781 2.95821e-07 5.47875e-05 1413.22 4.7252e+06
0.958501 1.5322 0.000649185 2.74763e-07 308244 1.52961 2.74298e-07 4.85194e-05 1745.57 5.57646e+06
1.01291 1.67053 0.000766138 2.53839e-07 364396 1.66777 2.53418e-07 4.29272e-05 2154.76 6.58107e+06
1.07041 1.82829 0.00090416 2.35402e-07 429162 1.82532 2.35019e-07 3.79435e-05 2662.52 7.76667e+06
1.13118 2.00435 0.00106705 2.18676e-07 506358 2.00107 2.18318e-07 3.3507e-05 3304.62 9.16586e+06
1.19539 2.19619 0.00125928 2.03029e-07 598590 2.19242 2.0268e-07 2.9562e-05 4111.05 1.08171e+07
1.26325 2.41316 0.00148614 1.89032e-07 704844 2.40885 1.88695e-07 2.60578e-05 5113.18 1.27658e+07
1.33496 2.65763 0.00175387 1.76403e-07 834620 2.65314 1.76105e-07 2.29484e-05 6415.67 1.50656e+07
1.41075 2.92512 0.00206984 1.6452e-07 981444 2.91961 1.64209e-07 2.01923e-05 7996.46 1.77798e+07
1.49083 3.21793 0.00244272 1.5336e-07 1.15998e+06 3.21214 1.53084e-07 1.77518e-05 10021.2 2.09828e+07
1.57546 3.54688 0.00288279 1.43233e-07 1.36931e+06 3.5406 1.4298e-07 1.55929e-05 12578.2 2.4763e+07
1.66489 3.91667 0.00340213 1.34022e-07 1.61652e+06 3.90929 1.33769e-07 1.3685e-05 15831.1 2.92241e+07
1.75941 4.31554 0.00401503 1.25128e-07 1.90601e+06 4.30732 1.2489e-07 1.20007e-05 19873.5 3.44889e+07
1.85928 4.76746 0.00473835 1.17131e-07 2.24913e+06 4.75845 1.16909e-07 1.05151e-05 25053.6 4.07021e+07
1.96483 5.27281 0.00559198 1.09771e-07 2.65744e+06 5.26261 1.09559e-07 9.20606e-06 31686.7 4.80347e+07
2.07637 5.81946 0.00659939 1.02657e-07 3.13125e+06 5.80825 1.02459e-07 8.05366e-06 39912.9 5.66883e+07
2.19424 6.43186 0.00778828 9.61403e-08 3.69915e+06 6.41939 9.59539e-08 7.04008e-06 50516.1 6.69008e+07
2.3188 7.10769 0.00919136 9.00241e-08 4.36472e+06 7.09363 8.9846e-08 6.1494e-06 63897.3 7.89532e+07
2.45043 7.8496 0.0108472 8.42442e-08 5.14913e+06 7.83417 8.40785e-08 5.36741e-06 80818.1 9.31768e+07
2.58954 8.66688 0.0128014 7.88164e-08 6.07894e+06 8.65007 7.86635e-08 4.68145e-06 102344 1.09963e+08
2.73654 9.56874 0.0151076 7.37344e-08 7.17304e+06 9.54974 7.35881e-08 4.08023e-06 129625 1.29773e+08
2.89188 10.5527 0.0178292 6.89034e-08 8.46557e+06 10.5322 6.87695e-08 3.55373e-06 164139 1.53152e+08
3.05605 11.5989 0.0210412 6.41738e-08 9.98773e+06 11.5766 6.40501e-08 3.09304e-06 207224 1.80743e+08
3.22953 12.754 0.0248319 5.97926e-08 1.1797e+07 12.7291 5.96757e-08 2.69025e-06 262196 2.13304e+08
3.41286 13.9996 0.0293054 5.56133e-08 1.39144e+07 13.9723 5.55049e-08 2.33837e-06 330924 2.51731e+08
3.6066 15.3629 0.0345848 5.17126e-08 1.64163e+07 15.3336 5.16141e-08 2.0312e-06 417944 2.97081e+08
3.81134 16.8077 0.0408154 4.79397e-08 1.93821e+07 16.7756 4.7848e-08 1.76327e-06 526962 3.50601e+08
4.0277 18.3718 0.0481684 4.44017e-08 2.28754e+07 18.3368 4.43172e-08 1.52972e-06 663981 4.13763e+08
4.25634 20.0312 0.056846 4.1022e-08 2.69929e+07 19.9933 4.09443e-08 1.32631e-06 834878 4.88304e+08
4.49796 21.7874 0.067087 3.78075e-08 3.18542e+07 21.7459 3.77354e-08 1.14926e-06 1.04792e+06 5.76273e+08
4.7533 23.6623 0.0791729 3.47929e-08 3.75892e+07 23.6182 3.47281e-08 9.95263e-07 1.31406e+06 6.8009e+08
5.02313 25.6338 0.0934361 3.1938e-08 4.43706e+07 25.5863 3.18789e-08 8.61414e-07 1.6451e+06 8.0261e+08
5.30828 27.7229 0.110269 2.92682e-08 5.23593e+07 27.6723 2.92148e-08 7.45152e-07 2.05657e+06 9.47202e+08
5.60962 29.896 0.130134 2.67444e-08 6.1787e+07 29.8424 2.66964e-08 6.44232e-07 2.565e+06 1.11784e+09
5.92807 32.1848 0.153578 2.43967e-08 7.29346e+07 32.1268 2.43528e-08 5.56685e-07 3.19636e+06 1.31923e+09
6.26459 34.5844 0.181246 2.22138e-08 8.60651e+07 34.5225 2.2174e-08 4.80786e-07 3.97648e+06 1.55689e+09
6.62021 37.0729 0.213898 2.01772e-08 1.01558e+08 37.0072 2.01414e-08 4.15026e-07 4.93742e+06 1.83737e+09
6.99602 39.6601 0.252432 1.82902e-08 1.1986e+08 39.5907 1.82582e-08 3.58083e-07 6.12224e+06 2.16837e+09
7.39317 42.3644 0.297908 1.6555e-08 1.41457e+08 42.2907 1.65262e-08 3.08803e-07 7.58352e+06 2.55901e+09
7.81286 45.1943 0.351577 1.49649e-08 1.66936e+08 45.1162 1.4939e-08 2.66181e-07 9.38525e+06 3.02002e+09
8.25637 48.1433 0.414914 1.35079e-08 1.97025e+08 48.06 1.34845e-08 2.29336e-07 1.16048e+07 3.56409e+09
8.72507 51.2718 0.489662 1.21897e-08 2.32497e+08 51.1831 1.21686e-08 1.97503e-07 1.43495e+07 4.20617e+09
9.22037 54.6106 0.577876 1.10015e-08 2.74404e+08 54.5152 1.09823e-08 1.70014e-07 1.77565e+07 4.96392e+09
9.74378 58.236 0.681982 9.94097e-09 3.2382e+08 58.1319 9.92319e-09 1.46289e-07 2.2005e+07 5.85818e+09
10.2969 62.3259 0.804843 9.01503e-09 3.82165e+08 62.2108 8.99839e-09 1.25822e-07 2.73817e+07 6.91355e+09
10.8814 67.1633 0.949838 8.23176e-09 4.51027e+08 67.0305 8.21548e-09 1.08175e-07 3.43215e+07 8.15905e+09
11.4992 73.3187 1.12095 7.61443e-09 5.32251e+08 73.1578 7.59772e-09 9.29669e-08 4.35939e+07 9.62892e+09
12.1519 81.9108 1.3229 7.20817e-09 6.28157e+08 81.6996 7.18959e-09 7.98658e-08 5.66934e+07 1.13636e+10
12.8418 91.4787 1.56122 6.82128e-09 3.82727e+08 94.6817 7.06012e-09 6.85852e-08 3.80649e+07 1.34108e+10
13.5708 0 1.84248 0 0 0 0 5.88765e-08 0 1.58268e+10
14.3411 0 2.17441 0 0 0 0 5.05241e-08 0 1.8678e+10
15.1552 0 2.56613 0 0 0 0 4.33417e-08 0 2.20429e+10
16.0156 0 3.02843 0 0 0 0 3.71677e-08 0 2.6014e+10
16.9247 0 3.574 0 0 0 0 3.18628e-08 0 3.07005e+10
17.8855 0 4.21787 0 0 0 0 2.73063e-08 0 3.62312e+10
18.9008 0 4.97773 0 0 0 0 2.33941e-08 0 4.27584e+10
19.9738 0 5.87448 0 0 0 0 2.00364e-08 0 5.04614e+10
21.1076 0 6.93279 0 0 0 0 1.71555e-08 0 5.95522e+10
22.3058 0 8.18175 0 0 0 0 1.46847e-08 0 7.02807e+10
23.5721 0 9.65571 0 0 0 0 1.25662e-08 0 8.29419e+10
24.9102 0 11.3952 0 0 0 0 1.07504e-08 0 9.78842e+10
26.3243 0 13.4481 0 0 0 0 9.19452e-09 0 1.15518e+11
27.8187 0 15.8708 0 0 0 0 7.86182e-09 0 1.36329e+11
29.3979 0 18.73 0 0 0 0 6.72061e-09 0 1.60889e+11
31.0667 0 22.1042 0 0 0 0 5.74366e-09 0 1.89874e+11
32.8303 0 26.0864 0 0 0 0 4.90756e-09 0 2.2408e+11
34.694 0 30.7859 0 0 0 0 4.19221e-09 0 2.64449e+11
36.6634 0 36.3321 0 0 0 0 3.58032e-09 0 3.1209e+11
38.7447 0 42.8774 0 0 0 0 3.05709e-09 0 3.68314e+11
40.9442 0 50.6018 0 0 0 0 2.60976e-09 0 4.34667e+11
43.2685 0 59.7179 0 0 0 0 2.22743e-09 0 5.12973e+11
45.7247 0 70.4762 0 0 0 0 1.90073e-09 0 6.05386e+11
48.3204 0 83.1727 0 0 0 0 1.62163e-09 0 7.14448e+11
51.0634 0 98.1565 0 0 0 0 1.38326e-09 0 8.43158e+11
53.9621 0 115.84 0 0 0 0 1.1797e-09 0 9.95055e+11
57.0254 0 136.709 0 0 0 0 1.00592e-09 0 1.17432e+12
60.2626 0 161.337 0 0 0 0 8.57591e-10 0 1.38587e+12
63.6835 0 190.402 0 0 0 0 7.3101e-10 0 1.63554e+12
67.2987 0 224.704 0 0 0 0 6.23009e-10 0 1.93019e+12
71.1191 0 265.185 0 0 0 0 5.30879e-10 0 2.27792e+12
75.1563 0 312.958 0 0 0 0 4.52303e-10 0 2.68829e+12
79.4227 0 369.339 0 0 0 0 3.85299e-10 0 3.17259e+12
83.9313 0 435.876 0 0 0 0 3.28173e-10 0 3.74415e+12
88.6959 0 514.4 0 0 0 0 2.79476e-10 0 4.41866e+12
93.7309 0 607.071 0 0 0 0 2.37972e-10 0 5.2147e+12
99.0518 0 716.436 0 0 0 0 2.02605e-10 0 6.15414e+12
104.675 0 845.504 0 0 0 0 1.72471e-10 0 7.26283e+12
110.617 0 997.824 0 0 0 0 1.468e-10 0 8.57124e+12
116.896 0 1177.58 0 0 0 0 1.24935e-10 0 1.01154e+13
123.532 0 1389.73 0 0 0 0 1.06313e-10 0 1.19377e+13
130.545 0 1640.09 0 0 0 0 9.04567e-11 0 1.40883e+13
137.955 0 1935.56 0 0 0 0 7.69563e-11 0 1.66263e+13
145.787 0 2284.26 0 0 0 0 6.54636e-11 0 1.96216e+13
154.063 0 2695.77 0 0 0 0 5.56812e-11 0 2.31565e+13
162.808 0 3181.42 0 0 0 0 4.73556e-11 0 2.73282e+13
172.051 0 3754.56 0 0 0 0 4.02708e-11 0 3.22515e+13
181.818 0 4430.96 0 0 0 0 3.42426e-11 0 3.80616e+13
192.139 0 5229.21 0 0 0 0 2.91139e-11 0 4.49186e+13
203.046 0 6171.26 0 0 0 0 2.4751e-11 0 5.30108e+13
214.572 0 7283.03 0 0 0 0 2.10401e-11 0 6.25608e+13
226.753 0 8595.09 0 0 0 0 1.78839e-11 0 7.38313e+13
239.625 0 10143.5 0 0 0 0 1.51999e-11 0 8.71322e+13
253.228 0 11970.9 0 0 0 0 1.29176e-11 0 1.02829e+14
267.603 0 14127.5 0 0 0 0 1.09771e-11 0 1.21354e+14
282.795 0 16672.6 0 0 0 0 9.3274e-12 0 1.43217e+14
298.848 0 19676.2 0 0 0 0 7.925e-12 0 1.69017e+14
315.813 0 23220.9 0 0 0 0 6.73295e-12 0 1.99466e+14
333.741 0 27404.3 0 0 0 0 5.71979e-12 0 2.35401e+14
352.686 0 32341.2 0 0 0 0 4.85874e-12 0 2.77809e+14
372.707 0 38167.6 0 0 0 0 4.12703e-12 0 3.27857e+14
393.865 0 45043.5 0 0 0 0 3.50528e-12 0 3.86921e+14
416.224 0 53158.3 0 0 0 0 2.97701e-12 0 4.56626e+14
439.852 0 62734.9 0 0 0 0 2.52819e-12 0 5.38888e+14
464.821 0 74036.7 0 0 0 0 2.1469e-12 0 6.35971e+14
491.207 0 87374.6 0 0 0 0 1.82301e-12 0 7.50542e+14
519.092 0 103115 0 0 0 0 1.54789e-12 0 8.85755e+14
548.56 0 121692 0 0 0 0 1.31422e-12 0 1.04533e+15
579.7 0 143615 0 0 0 0 1.11576e-12 0 1.23364e+15
612.608 0 169488 0 0 0 0 9.47223e-13 0 1.45589e+15
647.384 0 200021 0 0 0 0 8.041e-13 0 1.71817e+15
684.134 0 236056 0 0 0 0 6.82568e-13 0 2.0277e+15
722.971 0 278582 0 0 0 0 5.79376e-13 0 2.393e+15
764.012 0 328769 0 0 0 0 4.91762e-13 0 2.8241e+15
