0.737365
200
1.0655e+09
8589934592
0.0129181 0 1.58924e-09 0 0 0 0 0.00677225 0 13.6515
0.0136515 0 1.87554e-09 0 0 0 0 0.00688819 0 16.1108
0.0144264 0 2.21343e-09 0 0 0 0 0.00699249 0 19.0132
0.0152454 0 2.61218e-09 0 0 0 0 0.00708412 0 22.4385
0.0161108 0 3.08278e-09 0 0 0 0 0.00716212 0 26.4808
0.0170254 0 3.63815e-09 0 0 0 0 0.00722559 0 31.2514
0.0179919 0 4.29357e-09 0 0 0 0 0.00727371 0 36.8815
0.0190132 0 5.06707e-09 0 0 0 0 0.00730578 0 43.5258
0.0200925 0 5.97991e-09 0 0 0 0 0.00732122 0 51.367
0.0212331 0 7.05721e-09 0 0 0 0 0.00731958 0 60.621
0.0224385 0 8.32858e-09 0 0 0 0 0.00730056 0 71.542
0.0237123 0 9.829e-09 0 0 0 0 0.00726401 0 84.4305
0.0250583 0 1.15997e-08 0 0 0 0 0.00720995 0 99.6408
0.0264808 0 1.36894e-08 0 0 0 0 0.00713857 0 117.591
0.0279841 0 1.61556e-08 0 0 0 0 0.00705021 0 138.776
0.0295727 0 1.90661e-08 0 0 0 0 0.00694538 0 163.777
0.0312514 0 2.25009e-08 0 0 0 0 0.00682475 0 193.281
0.0330255 0 2.65545e-08 0 0 0 0 0.00668915 0 228.102
0.0349003 0 3.13384e-08 0 0 0 0 0.00653951 0 269.195
0.0368815 0 3.69841e-08 0 0 0 0 0.00637693 0 317.691
0.0389751 0 4.36469e-08 0 0 0 0 0.00620256 0 374.924
0.0411876 0 5.151e-08 0 0 0 0 0.00601767 0 442.467
0.0435258 0 6.07896e-08 0 0 0 0 0.00582358 0 522.179
0.0459966 0 7.1741e-08 0 0 0 0 0.00562166 0 616.251
0.0486077 0 8.46654e-08 0 0 0 0 0.0054133 0 727.27
0.051367 0 9.99181e-08 0 0 0 0 0.00519989 0 858.29
0.054283 0 1.17919e-07 0 0 0 0 0.0049828 0 1012.91
0.0573645 0 1.39162e-07 0 0 0 0 0.00476339 0 1195.39
0.060621 0 1.64232e-07 0 0 0 0 0.00454293 0 1410.75
0.0640622 0 1.93819e-07 0 0 0 0 0.00432265 0 1664.89
0.0676989 0 2.28736e-07 0 0 0 0 0.00410371 0 1964.83
0.071542 0 2.69944e-07 0 0 0 0 0.00388717 0 2318.8
0.0756032 0 3.18575e-07 0 0 0 0 0.00367401 0 2736.54
0.079895 0 3.75967e-07 0 0 0 0 0.0034651 0 3229.53
0.0844305 0 4.43698e-07 0 0 0 0 0.00326121 0 3811.34
0.0892234 0 5.23632e-07 0 0 0 0 0.00306301 0 4497.96
0.0942883 0 6.17966e-07 0 0 0 0 0.00287109 0 5308.28
0.0996408 0 7.29294e-07 0 0 0 0 0.00268591 0 6264.59
0.105297 0 8.60678e-07 0 0 0 0 0.00250785 0 7393.17
0.111275 0 1.01573e-06 0 0 0 0 0.00233721 0 8725.07
0.117591 0 1.19872e-06 0 0 0 0 0.00217419 0 10296.9
0.124267 0 1.41467e-06 0 0 0 0 0.00201893 0 12151.9
0.131321 0 1.66953e-06 0 0 0 0 0.00187147 0 14341.1
0.138776 0 1.9703e-06 0 0 0 0 0.00173182 0 16924.7
0.146654 0 2.32525e-06 0 0 0 0 0.00159991 0 19973.8
0.154979 0 2.74415e-06 0 0 0 0 0.00147563 0 23572.1
0.163777 0 3.23852e-06 0 0 0 0 0.00135884 0 27818.7
0.173074 0 3.82195e-06 0 0 0 0 0.00124933 0 32830.3
0.182899 0 4.51048e-06 0 0 0 0 0.00114689 0 38744.7
0.193281 0 5.32305e-06 0 0 0 0 0.00105127 0 45724.7
0.204254 0 6.28202e-06 0 0 0 0 0.000962209 0 53962.1
0.215848 0 7.41374e-06 0 0 0 0 0.000879423 0 63683.5
0.228102 0 8.74934e-06 0 0 0 0 0.000802624 0 75156.3
0.24105 0 1.03256e-05 0 0 0 0 0.000731515 0 88695.9
0.254734 0 1.21857e-05 0 0 0 0 0.000665798 0 104675
0.269195 0 1.4381e-05 0 0 0 0 0.000605173 0 123532
0.284476 0 1.69718e-05 0 0 0 0 0.000549345 0 145787
0.300625 0 2.00293e-05 0 0 0 0 0.000498021 0 172051
0.317691 0 2.36377e-05 0 0 0 0 0.000450916 0 203046
0.335725 0 2.78961e-05 0 0 0 0 0.000407755 0 239625
0.354784 0 3.29216e-05 0 0 0 0 0.000368269 0 282795
0.374924 0 3.88525e-05 0 0 0 0 0.000332202 0 333741
0.396207 2.49768 4.58519e-05 6.34145e-06 6 2.42824 6.16515e-06 0.000299307 0.127123 393865
0.418699 0 5.41123e-05 0 0 0 0 0.00026935 0 464821
0.442467 0 6.38607e-05 0 0 0 0 0.000242108 0 548560
0.467585 0 7.53654e-05 0 0 0 0 0.00021737 0 647384
0.494129 0 8.89427e-05 0 0 0 0 0.000194938 0 764012
0.522179 0 0.000104966 0 0 0 0 0.000174625 0 901651
0.551822 0 0.000123876 0 0 0 0 0.000156255 0 1.06409e+06
0.583147 6.83356 0.000146192 5.44167e-06 12 7.19236 5.72739e-06 0.000139664 0.467551 1.25578e+06
0.616251 0 0.000172529 0 0 0 0 0.0001247 0 1.48202e+06
0.651234 0 0.000203611 0 0 0 0 0.00011122 0 1.74901e+06
0.688203 12.2334 0.000240292 5.92678e-06 8 11.9291 5.77933e-06 9.90935e-05 0.47848 2.06409e+06
0.72727 0 0.000283581 0 0 0 0 8.81969e-05 0 2.43595e+06
0.768555 0 0.000334669 0 0 0 0 7.84179e-05 0 2.87479e+06
0.812184 7.75236 0.000394961 2.28502e-06 6 7.91811 2.33387e-06 6.96525e-05 0.196836 3.39269e+06
0.85829 0 0.000466114 0 0 0 0 6.1805e-05 0 4.00389e+06
0.907013 1.98625 0.000550086 4.20352e-07 24 2.02436 4.28417e-07 5.47875e-05 0.184138 4.7252e+06
0.958501 5.65862 0.000649185 1.01473e-06 24 5.32717 9.55296e-07 4.85194e-05 0.501935 5.57646e+06
1.01291 0 0.000766138 0 0 0 0 4.29272e-05 0 6.58107e+06
1.07041 0 0.00090416 0 0 0 0 3.79435e-05 0 7.76667e+06
1.13118 4.64859 0.00106705 5.07163e-07 12 4.59148 5.00933e-07 3.3507e-05 0.181632 9.16586e+06
1.19539 3.9428 0.00125928 3.64496e-07 30 3.86152 3.56982e-07 2.9562e-05 0.369897 1.08171e+07
1.26325 14.1943 0.00148614 1.1119e-06 24 13.9808 1.09517e-06 2.60578e-05 1.02409 1.27658e+07
1.33496 20.1193 0.00175387 1.33545e-06 24 20.1636 1.33838e-06 2.29484e-05 1.39664 1.50656e+07
1.41075 17.7968 0.00206984 1.00096e-06 32 18.058 1.01565e-06 2.01923e-05 1.58628 1.77798e+07
1.49083 4.89756 0.00244272 2.33408e-07 48 4.79315 2.28432e-07 1.77518e-05 0.631126 2.09828e+07
1.57546 34.5968 0.00288279 1.39712e-06 6 32.9439 1.33037e-06 1.55929e-05 0.537599 2.4763e+07
1.66489 5.78192 0.00340213 1.97848e-07 84 5.67693 1.94255e-07 1.3685e-05 1.21441 2.92241e+07
1.75941 5.76904 0.00401503 1.67273e-07 48 5.701 1.653e-07 1.20007e-05 0.669052 3.44889e+07
1.85928 6.56332 0.00473835 1.61253e-07 72 6.617 1.62571e-07 1.05151e-05 1.10414 4.07021e+07
1.96483 10.7267 0.00559198 2.23312e-07 54 10.4907 2.18399e-07 9.20606e-06 1.30988 4.80347e+07
2.07637 15.0765 0.00659939 2.65954e-07 104 15.2179 2.6845e-07 8.05366e-06 3.43437 5.66883e+07
2.19424 6.51178 0.00778828 9.73348e-08 120 6.61897 9.8937e-08 7.04008e-06 1.6591 6.69008e+07
2.3188 9.36835 0.00919136 1.18657e-07 156 9.09936 1.1525e-07 6.1494e-06 3.01013 7.89532e+07
2.45043 12.8351 0.0108472 1.3775e-07 126 12.8551 1.37964e-07 5.36741e-06 3.23367 9.31768e+07
2.58954 9.83868 0.0128014 8.94727e-08 192 9.92603 9.02671e-08 4.68145e-06 3.66954 1.09963e+08
2.73654 38.8197 0.0151076 2.99135e-07 152 39.2429 3.02396e-07 4.08023e-06 11.1436 1.29773e+08
2.89188 13.3385 0.0178292 8.70931e-08 378 13.3864 8.74061e-08 3.55373e-06 9.26383 1.53152e+08
3.05605 12.9243 0.0210412 7.15066e-08 264 12.7831 7.07254e-08 3.09304e-06 6.1033 1.80743e+08
3.22953 15.058 0.0248319 7.05942e-08 366 14.9039 6.98716e-08 2.69025e-06 9.60411 2.13304e+08
3.41286 17.2935 0.0293054 6.86984e-08 428 17.1437 6.81033e-08 2.33837e-06 12.5741 2.51731e+08
3.6066 18.7368 0.0345848 6.30696e-08 486 18.4316 6.20423e-08 2.0312e-06 15.0905 2.97081e+08
3.81134 17.7648 0.0408154 5.06696e-08 600 17.7607 5.06579e-08 1.76327e-06 17.2417 3.50601e+08
4.0277 20.7635 0.0481684 5.01822e-08 738 20.658 4.99271e-08 1.52972e-06 24.2099 4.13763e+08
4.25634 20.5064 0.056846 4.19952e-08 824 20.4803 4.19416e-08 1.32631e-06 26.0906 4.88304e+08
4.49796 23.7039 0.067087 4.11331e-08 954 23.4932 4.07675e-08 1.14926e-06 34.1447 5.76273e+08
4.7533 24.2365 0.0791729 3.56372e-08 1094 24.1353 3.54883e-08 9.95263e-07 39.1727 6.8009e+08
5.02313 25.1766 0.0934361 3.13684e-08 1332 25.231 3.14361e-08 8.61414e-07 48.5048 8.0261e+08
5.30828 29.7438 0.110269 3.14017e-08 1614 29.7066 3.13624e-08 7.45152e-07 68.0162 9.47202e+08
5.60962 34.643 0.130134 3.09909e-08 1850 34.6538 3.10006e-08 6.44232e-07 88.9945 1.11784e+09
5.92807 31.9707 0.153578 2.42344e-08 2238 31.9235 2.41987e-08 5.56685e-07 97.4278 1.31923e+09
6.26459 33.9114 0.181246 2.17815e-08 2546 33.9623 2.18142e-08 4.80786e-07 115.344 1.55689e+09
6.62021 32.8316 0.213898 1.78688e-08 3264 32.8761 1.7893e-08 4.15026e-07 140.531 1.83737e+09
6.99602 38.8053 0.252432 1.7896e-08 3506 38.9231 1.79504e-08 3.58083e-07 175.221 2.16837e+09
7.39317 41.6477 0.297908 1.62749e-08 4506 41.5818 1.62492e-08 3.08803e-07 237.48 2.55901e+09
7.81286 46.7754 0.351577 1.54884e-08 5018 46.598 1.54297e-08 2.66181e-07 291.985 3.02002e+09
8.25637 48.6421 0.414914 1.36478e-08 5852 48.6368 1.36464e-08 2.29336e-07 348.254 3.56409e+09
8.72507 49.2088 0.489662 1.16992e-08 7362 49.1453 1.16841e-08 1.97503e-07 436.092 4.20617e+09
9.22037 52.4857 0.577876 1.05734e-08 8306 52.3494 1.0546e-08 1.70014e-07 516.562 4.96392e+09
9.74378 56.0698 0.681982 9.57119e-09 9698 56.0234 9.56326e-09 1.46289e-07 634.507 5.85818e+09
10.2969 59.1408 0.804843 8.55432e-09 11816 59.093 8.54742e-09 1.25822e-07 803.338 6.91355e+09
10.8814 66.7912 0.949838 8.18615e-09 13682 66.6102 8.16397e-09 1.08175e-07 1035.38 8.15905e+09
11.4992 68.6464 1.12095 7.12919e-09 16152 68.5752 7.12179e-09 9.29669e-08 1238.62 9.62892e+09
12.1519 72.9193 1.3229 6.41692e-09 19472 72.7934 6.40585e-09 7.98658e-08 1564.5 1.13636e+10
12.8418 74.0044 1.56122 5.51827e-09 22670 73.8045 5.50338e-09 6.85852e-08 1824 1.34108e+10
13.5708 80.3048 1.84248 5.07399e-09 26224 80.1388 5.0635e-09 5.88765e-08 2259.99 1.58268e+10
14.3411 85.3898 2.17441 4.57168e-09 31640 85.2436 4.56385e-09 5.05241e-08 2862.95 1.8678e+10
15.1552 90.2792 2.56613 4.09561e-09 37484 90.1113 4.088e-09 4.33417e-08 3542.09 2.20429e+10
16.0156 95.2174 3.02843 3.66024e-09 43856 95.0566 3.65406e-09 3.71677e-08 4318.89 2.6014e+10
16.9247 100.916 3.574 3.28712e-09 51362 100.83 3.28431e-09 3.18628e-08 5298.75 3.07005e+10
17.8855 105.646 4.21787 2.91589e-09 61636 105.468 2.91097e-09 2.73063e-08 6581.77 3.62312e+10
18.9008 113.159 4.97773 2.64648e-09 72218 112.9 2.64042e-09 2.33941e-08 8169.71 4.27584e+10
19.9738 119.758 5.87448 2.37326e-09 84586 119.543 2.369e-09 2.00364e-08 10019 5.04614e+10
21.1076 127.155 6.93279 2.13518e-09 100708 126.94 2.13158e-09 1.71555e-08 12534.1 5.95522e+10
22.3058 133.587 8.18175 1.90077e-09 118712 133.366 1.89762e-09 1.46847e-08 15366 7.02807e+10
23.5721 139.534 9.65571 1.68231e-09 140410 139.253 1.67893e-09 1.25662e-08 18797.6 8.29419e+10
24.9102 146.92 11.3952 1.50096e-09 164374 146.701 1.49872e-09 1.07504e-08 22949.8 9.78842e+10
26.3243 155.478 13.4481 1.34592e-09 194680 155.259 1.34402e-09 9.19452e-09 28497.7 1.15518e+11
27.8187 163.118 15.8708 1.1965e-09 230196 162.847 1.19451e-09 7.86182e-09 35033.8 1.36329e+11
29.3979 171.051 18.73 1.06316e-09 271156 170.769 1.06141e-09 6.72061e-09 42895.3 1.60889e+11
31.0667 180.494 22.1042 9.50597e-10 321076 180.176 9.48926e-10 5.74366e-09 53139.3 1.89874e+11
32.8303 188.35 26.0864 8.40549e-10 377436 187.991 8.38947e-10 4.90756e-09 64645.9 2.2408e+11
34.694 197.799 30.7859 7.47967e-10 447594 197.411 7.465e-10 4.19221e-09 79859 2.64449e+11
36.6634 207.776 36.3321 6.65758e-10 525078 207.368 6.6445e-10 3.58032e-09 97637.7 3.1209e+11
38.7447 218.666 42.8774 5.93695e-10 621924 218.236 5.92528e-10 3.05709e-09 120780 3.68314e+11
40.9442 229.885 50.6018 5.28876e-10 732630 229.469 5.27921e-10 2.60976e-09 148470 4.34667e+11
43.2685 241.595 59.7179 4.7097e-10 865596 241.203 4.70206e-10 2.22743e-09 183022 5.12973e+11
45.7247 253.672 70.4762 4.19025e-10 1.02168e+06 253.251 4.1833e-10 1.90073e-09 225233 6.05386e+11
48.3204 265.297 83.1727 3.71331e-10 1.20544e+06 264.836 3.70686e-10 1.62163e-09 276028 7.14448e+11
51.0634 278.257 98.1565 3.30017e-10 1.42103e+06 277.821 3.295e-10 1.38326e-09 339029 8.43158e+11
53.9621 291.851 115.84 2.93302e-10 1.67997e+06 291.361 2.92809e-10 1.1797e-09 417679 9.95055e+11
57.0254 306.904 136.709 2.61347e-10 1.98018e+06 306.336 2.60863e-10 1.00592e-09 514468 1.17432e+12
60.2626 323.598 161.337 2.33497e-10 2.33957e+06 323.008 2.33072e-10 8.57591e-10 636998 1.38587e+12
63.6835 340.575 190.402 2.08234e-10 2.75676e+06 339.969 2.07863e-10 7.3101e-10 785285 1.63554e+12
67.2987 360.015 224.704 1.86518e-10 3.25638e+06 359.354 1.86176e-10 6.23009e-10 974904 1.93019e+12
71.1191 380.656 265.185 1.67107e-10 3.84387e+06 379.963 1.66803e-10 5.30879e-10 1.20995e+06 2.27792e+12
75.1563 405.037 312.958 1.50667e-10 4.53277e+06 404.274 1.50383e-10 4.52303e-10 1.50991e+06 2.68829e+12
79.4227 431.107 369.339 1.35885e-10 5.35083e+06 430.288 1.35627e-10 3.85299e-10 1.88709e+06 3.17259e+12
83.9313 461.848 435.876 1.23352e-10 6.32174e+06 460.915 1.23103e-10 3.28173e-10 2.37618e+06 3.74415e+12
88.6959 495.584 514.4 1.12157e-10 7.44986e+06 494.545 1.11922e-10 2.79476e-10 2.98971e+06 4.41866e+12
93.7309 534.337 607.071 1.02468e-10 8.79764e+06 533.196 1.02249e-10 2.37972e-10 3.78814e+06 5.2147e+12
99.0518 579.254 716.436 9.41243e-11 1.03827e+07 577.979 9.39172e-11 2.02605e-10 4.82349e+06 6.15414e+12
104.675 632.555 845.504 8.70949e-11 1.22515e+07 631.073 8.68909e-11 1.72471e-10 6.18681e+06 7.26283e+12
110.617 694.374 997.824 8.10121e-11 1.44573e+07 692.747 8.08223e-11 1.468e-10 7.97831e+06 8.57124e+12
116.896 767.723 1177.58 7.58967e-11 1.70664e+07 765.836 7.57101e-11 1.24935e-10 1.03677e+07 1.01154e+13
123.532 854.627 1389.73 7.15907e-11 2.0139e+07 852.407 7.14047e-11 1.06313e-10 1.35615e+07 1.19377e+13
130.545 956.866 1640.09 6.79192e-11 2.37643e+07 954.309 6.77377e-11 9.04567e-11 1.78434e+07 1.40883e+13
137.955 1078.76 1935.56 6.48826e-11 2.80503e+07 1075.81 6.47049e-11 7.69563e-11 2.36495e+07 1.66263e+13
145.787 1223.54 2284.26 6.23567e-11 3.30981e+07 1220.08 6.21803e-11 6.54636e-11 3.15273e+07 1.96216e+13
154.063 1395.65 2695.77 6.02702e-11 3.90634e+07 1391.62 6.00962e-11 5.56812e-11 4.22829e+07 2.31565e+13
162.808 1600.87 3181.42 5.85794e-11 4.61057e+07 1596.11 5.84051e-11 4.73556e-11 5.70332e+07 2.73282e+13
172.051 1845.25 3754.56 5.72145e-11 5.44046e+07 1839.66 5.70412e-11 4.02708e-11 7.72949e+07 3.22515e+13
181.818 2135.77 4430.96 5.61133e-11 6.42064e+07 2129.13 5.59389e-11 3.42426e-11 1.05215e+08 3.80616e+13
192.139 2482.35 5229.21 5.52634e-11 7.57748e+07 2474.52 5.5089e-11 2.91139e-11 1.43834e+08 4.49186e+13
203.046 2895.34 6171.26 5.46179e-11 8.94213e+07 2886.07 5.44432e-11 2.4751e-11 1.97325e+08 5.30108e+13
214.572 3387.75 7283.03 5.41513e-11 1.05538e+08 3376.78 5.3976e-11 2.10401e-11 2.71626e+08 6.25608e+13
226.753 3978.33 8595.09 5.3884e-11 1.24552e+08 3965.22 5.37065e-11 1.78839e-11 3.75273e+08 7.38313e+13
239.625 4685.51 10143.5 5.37747e-11 1.46987e+08 4669.89 5.35954e-11 1.51999e-11 5.20016e+08 8.71322e+13
253.228 5535.94 11970.9 5.38362e-11 1.7347e+08 5517.21 5.3654e-11 1.29176e-11 7.22964e+08 1.02829e+14
267.603 6562.69 14127.5 5.40787e-11 2.04703e+08 6540.14 5.38929e-11 1.09771e-11 1.00847e+09 1.21354e+14
282.795 7811.23 16672.6 5.45414e-11 2.4161e+08 7783.99 5.43512e-11 9.3274e-12 1.4128e+09 1.43217e+14
298.848 9342.95 19676.2 5.5278e-11 2.85122e+08 9309.59 5.50807e-11 7.925e-12 1.98877e+09 1.69017e+14
315.813 11246 23220.9 5.63806e-11 3.36491e+08 11204.9 5.61741e-11 6.73295e-12 2.81772e+09 1.99466e+14
333.741 13647.8 27404.3 5.7977e-11 3.97115e+08 13596 5.77569e-11 5.71979e-12 4.02524e+09 2.35401e+14
352.686 16750.4 32341.2 6.02947e-11 4.68637e+08 16683.8 6.00551e-11 4.85874e-12 5.81557e+09 2.77809e+14
372.707 20879.5 38167.6 6.36849e-11 5.53074e+08 20791.6 6.34166e-11 4.12703e-12 8.53459e+09 3.27857e+14
393.865 26583.8 45043.5 6.87061e-11 6.52716e+08 26462.9 6.83936e-11 3.50528e-12 1.27937e+10 3.86921e+14
416.224 31389.7 53158.3 6.87428e-11 2.2184e+08 33207.5 7.27235e-11 2.97701e-12 5.12255e+09 4.56626e+14
439.852 0 62734.9 0 0 0 0 2.52819e-12 0 5.38888e+14
464.821 0 74036.7 0 0 0 0 2.1469e-12 0 6.35971e+14
491.207 0 87374.6 0 0 0 0 1.82301e-12 0 7.50542e+14
519.092 0 103115 0 0 0 0 1.54789e-12 0 8.85755e+14
548.56 0 121692 0 0 0 0 1.31422e-12 0 1.04533e+15
579.7 0 143615 0 0 0 0 1.11576e-12 0 1.23364e+15
612.608 0 169488 0 0 0 0 9.47223e-13 0 1.45589e+15
647.384 0 200021 0 0 0 0 8.041e-13 0 1.71817e+15
684.134 0 236056 0 0 0 0 6.82568e-13 0 2.0277e+15
722.971 0 278582 0 0 0 0 5.79376e-13 0 2.393e+15
764.012 0 328769 0 0 0 0 4.91762e-13 0 2.8241e+15
0.737365
200
1.0655e+09
8589934592
0.0129181 0.00109011 1.58924e-09 7.98528e-05 6 0.00108013 7.91217e-05 0.00677225 0.070747 13.6515
0.0136515 0 1.87554e-09 0 0 0 0 0.00688819 0 16.1108
0.0144264 0 2.21343e-09 0 0 0 0 0.00699249 0 19.0132
0.0152454 0 2.61218e-09 0 0 0 0 0.00708412 0 22.4385
0.0161108 0 3.08278e-09 0 0 0 0 0.00716212 0 26.4808
0.0170254 0 3.63815e-09 0 0 0 0 0.00722559 0 31.2514
0.0179919 0.00435993 4.29357e-09 0.000118215 12 0.00435431 0.000118062 0.00727371 0.195028 36.8815
0.0190132 0 5.06707e-09 0 0 0 0 0.00730578 0 43.5258
0.0200925 0 5.97991e-09 0 0 0 0 0.00732122 0 51.367
0.0212331 0.00312775 7.05721e-09 5.15952e-05 8 0.00312503 5.15503e-05 0.00731958 0.0563915 60.621
0.0224385 0 8.32858e-09 0 0 0 0 0.00730056 0 71.542
0.0237123 0 9.829e-09 0 0 0 0 0.00726401 0 84.4305
0.0250583 0.00683656 1.15997e-08 6.8612e-05 6 0.00683334 6.85797e-05 0.00720995 0.0570978 99.6408
0.0264808 0 1.36894e-08 0 0 0 0 0.00713857 0 117.591
0.0279841 0.0160254 1.61556e-08 0.000115477 24 0.016009 0.000115359 0.00705021 0.393102 138.776
0.0295727 0 1.90661e-08 0 0 0 0 0.00694538 0 163.777
0.0312514 0.0318491 2.25009e-08 0.000164781 24 0.0320108 0.000165618 0.00682475 0.57947 193.281
0.0330255 0 2.65545e-08 0 0 0 0 0.00668915 0 228.102
0.0349003 0.0285744 3.13384e-08 0.000106148 12 0.0283456 0.000105298 0.00653951 0.194781 269.195
0.0368815 0.0415611 3.69841e-08 0.000130822 30 0.0411185 0.000129429 0.00637693 0.615449 317.691
0.0389751 0.0582147 4.36469e-08 0.000155271 24 0.0576159 0.000153674 0.00620256 0.600801 374.924
0.0411876 0.0320249 5.151e-08 7.2378e-05 24 0.0318074 7.18864e-05 0.00601767 0.288662 442.467
0.0435258 0.055495 6.07896e-08 0.000106276 8 0.0554908 0.000106268 0.00582358 0.145994 522.179
0.0459966 0.0488003 7.1741e-08 7.91891e-05 72 0.0483146 7.84008e-05 0.00562166 1.01422 616.251
0.0486077 0 8.46654e-08 0 0 0 0 0.0054133 0 727.27
0.051367 0.0636316 9.99181e-08 7.41377e-05 54 0.0634965 7.39802e-05 0.00519989 0.769907 858.29
0.054283 0.0633037 1.17919e-07 6.24967e-05 60 0.0635864 6.27758e-05 0.0049828 0.752548 1012.91
0.0573645 0.0879865 1.39162e-07 7.36047e-05 96 0.0873081 7.30372e-05 0.00476339 1.48341 1195.39
0.060621 0.121764 1.64232e-07 8.63116e-05 24 0.120114 8.51422e-05 0.00454293 0.455979 1410.75
0.0640622 0.099256 1.93819e-07 5.9617e-05 134 0.0990398 5.94871e-05 0.00432265 1.8481 1664.89
0.0676989 0.113905 2.28736e-07 5.79718e-05 120 0.113158 5.75917e-05 0.00410371 1.6952 1964.83
0.071542 0.155576 2.69944e-07 6.70935e-05 108 0.153632 6.6255e-05 0.00388717 1.8641 2318.8
0.0756032 0.132665 3.18575e-07 4.8479e-05 174 0.132184 4.83035e-05 0.00367401 2.29595 2736.54
0.079895 0.134521 3.75967e-07 4.16534e-05 168 0.133355 4.12925e-05 0.0034651 2.0195 3229.53
0.0844305 0.128768 4.43698e-07 3.37855e-05 168 0.129023 3.38524e-05 0.00326121 1.74045 3811.34
0.0892234 0.186394 5.23632e-07 4.14396e-05 290 0.185691 4.12833e-05 0.00306301 3.92342 4497.96
0.0942883 0.177523 6.17966e-07 3.34427e-05 288 0.177939 3.3521e-05 0.00287109 3.35465 5308.28
0.0996408 0.181746 7.29294e-07 2.90117e-05 366 0.180312 2.87828e-05 0.00268591 3.95333 6264.59
0.105297 0.209478 8.60678e-07 2.8334e-05 420 0.208115 2.81497e-05 0.00250785 4.74521 7393.17
0.111275 0.233248 1.01573e-06 2.67331e-05 398 0.23291 2.66943e-05 0.00233721 4.55234 8725.07
0.117591 0.274509 1.19872e-06 2.66593e-05 624 0.275328 2.67389e-05 0.00217419 7.65131 10296.9
0.124267 0.324754 1.41467e-06 2.67245e-05 642 0.324671 2.67177e-05 0.00201893 8.49815 12151.9
0.131321 0.334157 1.66953e-06 2.33006e-05 800 0.334429 2.33196e-05 0.00187147 9.96035 14341.1
0.138776 0.371197 1.9703e-06 2.19322e-05 858 0.372107 2.1986e-05 0.00173182 10.866 16924.7
0.146654 0.391417 2.32525e-06 1.95966e-05 1080 0.393978 1.97248e-05 0.00159991 13.2284 19973.8
0.154979 0.417977 2.74415e-06 1.77319e-05 1286 0.420828 1.78528e-05 0.00147563 15.4531 23572.1
0.163777 0.464326 3.23852e-06 1.66912e-05 1650 0.465864 1.67465e-05 0.00135884 20.2676 27818.7
0.173074 0.496213 3.82195e-06 1.51145e-05 1778 0.496275 1.51164e-05 0.00124933 21.5104 32830.3
0.182899 0.545118 4.51048e-06 1.40695e-05 2112 0.546179 1.40969e-05 0.00114689 25.9089 38744.7
0.193281 0.613549 5.32305e-06 1.34183e-05 2570 0.614359 1.3436e-05 0.00105127 32.8032 45724.7
0.204254 0.658874 6.28202e-06 1.22099e-05 3030 0.658472 1.22025e-05 0.000962209 38.4492 53962.1
0.215848 0.678063 7.41374e-06 1.06474e-05 3434 0.67826 1.06505e-05 0.000879423 41.5762 63683.5
0.228102 0.745996 8.74934e-06 9.92592e-06 4218 0.745627 9.92102e-06 0.000802624 52.1634 75156.3
0.24105 0.872781 1.03256e-05 9.84015e-06 4766 0.87343 9.84746e-06 0.000731515 64.111 88695.9
0.254734 0.947322 1.21857e-05 9.05015e-06 6026 0.947566 9.05249e-06 0.000665798 81.911 104675
0.269195 1.0331 1.4381e-05 8.36297e-06 6480 1.03349 8.36619e-06 0.000605173 89.548 123532
0.284476 1.10711 1.69718e-05 7.59406e-06 8162 1.10823 7.60171e-06 0.000549345 112.83 145787
0.300625 1.20291 2.00293e-05 6.9916e-06 9578 1.20417 6.99894e-06 0.000498021 134.463 172051
0.317691 1.35909 2.36377e-05 6.69352e-06 11234 1.35942 6.69515e-06 0.000450916 166.76 203046
0.335725 1.50118 2.78961e-05 6.2647e-06 13344 1.49963 6.25822e-06 0.000407755 205.016 239625
0.354784 1.62338 3.29216e-05 5.7405e-06 15464 1.62265 5.73789e-06 0.000368269 241.049 282795
0.374924 1.80225 3.88525e-05 5.40015e-06 18458 1.80167 5.3984e-06 0.000332202 300.047 333741
0.396207 1.96056 4.58519e-05 4.97774e-06 22232 1.95683 4.96828e-06 0.000299307 369.738 393865
0.418699 2.1582 5.41123e-05 4.64307e-06 25628 2.15287 4.63162e-06 0.00026935 441.778 464821
0.442467 2.36468 6.38607e-05 4.3107e-06 30320 2.3592 4.30071e-06 0.000242108 539.844 548560
0.467585 2.61994 7.53654e-05 4.04697e-06 35452 2.61564 4.04032e-06 0.00021737 660.04 647384
0.494129 2.88788 8.89427e-05 3.77988e-06 41792 2.88612 3.77758e-06 0.000194938 810.353 764012
0.522179 3.21937 0.000104966 3.57053e-06 49988 3.21825 3.56928e-06 0.000174625 1022.1 901651
0.551822 3.59732 0.000123876 3.38067e-06 59110 3.59393 3.37748e-06 0.000156255 1278.88 1.06409e+06
0.583147 3.97869 0.000146192 3.16829e-06 69716 3.9705 3.16177e-06 0.000139664 1581.51 1.25578e+06
0.616251 4.44334 0.000172529 2.99817e-06 82210 4.43322 2.99135e-06 0.0001247 1976.58 1.48202e+06
0.651234 5.00408 0.000203611 2.8611e-06 96722 4.99263 2.85456e-06 0.00011122 2488.13 1.74901e+06
0.688203 5.53675 0.000240292 2.68241e-06 113098 5.52631 2.67735e-06 9.90935e-05 3061.51 2.06409e+06
0.72727 6.14096 0.000283581 2.52097e-06 135190 6.13182 2.51722e-06 8.81969e-05 3864.2 2.43595e+06
0.768555 6.8771 0.000334669 2.39221e-06 158170 6.86659 2.38855e-06 7.84179e-05 4825.12 2.87479e+06
0.812184 7.69271 0.000394961 2.26744e-06 188560 7.68015 2.26374e-06 6.96525e-05 6138.3 3.39269e+06
0.85829 8.61544 0.000466114 2.15177e-06 220444 8.60088 2.14813e-06 6.1805e-05 7674.85 4.00389e+06
0.907013 9.56742 0.000550086 2.02476e-06 261388 9.55402 2.02193e-06 5.47875e-05 9660.04 4.7252e+06
0.958501 10.6716 0.000649185 1.91369e-06 308244 10.6541 1.91054e-06 4.85194e-05 12157.7 5.57646e+06
1.01291 11.9725 0.000766138 1.81923e-06 364396 11.9528 1.81624e-06 4.29272e-05 15442.9 6.58107e+06
1.07041 13.3572 0.00090416 1.71981e-06 429162 13.3324 1.71662e-06 3.79435e-05 19452.1 7.76667e+06
1.13118 14.8791 0.00106705 1.62332e-06 506358 14.8504 1.62018e-06 3.3507e-05 24531.5 9.16586e+06
1.19539 16.5716 0.00125928 1.53198e-06 598590 16.5415 1.52919e-06 2.9562e-05 31020.4 1.08171e+07
1.26325 18.4021 0.00148614 1.44151e-06 704844 18.3692 1.43894e-06 2.60578e-05 38991.8 1.27658e+07
1.33496 20.4401 0.00175387 1.35674e-06 834620 20.4008 1.35413e-06 2.29484e-05 49343.7 1.50656e+07
1.41075 22.6907 0.00206984 1.27621e-06 981444 22.646 1.2737e-06 2.01923e-05 62030 1.77798e+07
1.49083 25.1129 0.00244272 1.19683e-06 1.15998e+06 25.0659 1.19459e-06 1.77518e-05 78206.2 2.09828e+07
1.57546 27.6847 0.00288279 1.11799e-06 1.36931e+06 27.6318 1.11585e-06 1.55929e-05 98177.8 2.4763e+07
1.66489 30.6435 0.00340213 1.04857e-06 1.61652e+06 30.5836 1.04652e-06 1.3685e-05 123860 2.92241e+07
1.75941 33.7427 0.00401503 9.78364e-07 1.90601e+06 33.6793 9.76528e-07 1.20007e-05 155389 3.44889e+07
1.85928 37.0642 0.00473835 9.10621e-07 2.24913e+06 36.9971 9.08974e-07 1.05151e-05 194777 4.07021e+07
1.96483 40.6453 0.00559198 8.46164e-07 2.65744e+06 40.5705 8.44608e-07 9.20606e-06 244256 4.80347e+07
2.07637 44.3825 0.00659939 7.82921e-07 3.13125e+06 44.3036 7.8153e-07 8.05366e-06 304399 5.66883e+07
2.19424 48.3818 0.00778828 7.23187e-07 3.69915e+06 48.2962 7.21908e-07 7.04008e-06 379992 6.69008e+07
2.3188 52.6932 0.00919136 6.67398e-07 4.36472e+06 52.5978 6.66189e-07 6.1494e-06 473706 7.89532e+07
2.45043 57.3363 0.0108472 6.15349e-07 5.14913e+06 57.2364 6.14277e-07 5.36741e-06 590325 9.31768e+07
2.58954 62.0575 0.0128014 5.64349e-07 6.07894e+06 61.951 5.63381e-07 4.68145e-06 732816 1.09963e+08
2.73654 67.1411 0.0151076 5.17374e-07 7.17304e+06 67.0253 5.16481e-07 4.08023e-06 909542 1.29773e+08
2.89188 72.4311 0.0178292 4.72936e-07 8.46557e+06 72.3082 4.72133e-07 3.55373e-06 1.12661e+06 1.53152e+08
3.05605 78.0736 0.0210412 4.3196e-07 9.98773e+06 77.9457 4.31252e-07 3.09304e-06 1.39484e+06 1.80743e+08
3.22953 83.8881 0.0248319 3.93279e-07 1.1797e+07 83.7461 3.92614e-07 2.69025e-06 1.72457e+06 2.13304e+08
3.41286 89.8088 0.0293054 3.56765e-07 1.39144e+07 89.6592 3.5617e-07 2.33837e-06 2.12291e+06 2.51731e+08
3.6066 96.1794 0.0345848 3.23748e-07 1.64163e+07 96.0207 3.23214e-07 2.0312e-06 2.61655e+06 2.97081e+08
3.81134 102.931 0.0408154 2.93583e-07 1.93821e+07 102.763 2.93106e-07 1.76327e-06 3.22712e+06 3.50601e+08
4.0277 109.993 0.0481684 2.65836e-07 2.28754e+07 109.811 2.65395e-07 1.52972e-06 3.9753e+06 4.13763e+08
4.25634 117.398 0.056846 2.40419e-07 2.69929e+07 117.202 2.40018e-07 1.32631e-06 4.89299e+06 4.88304e+08
4.49796 125.274 0.067087 2.17387e-07 3.18542e+07 125.067 2.17027e-07 1.14926e-06 6.02536e+06 5.76273e+08
4.7533 133.461 0.0791729 1.9624e-07 3.75892e+07 133.245 1.95922e-07 9.95263e-07 7.4116e+06 6.8009e+08
5.02313 141.869 0.0934361 1.7676e-07 4.43706e+07 141.639 1.76473e-07 8.61414e-07 9.10474e+06 8.0261e+08
5.30828 150.928 0.110269 1.59341e-07 5.23593e+07 150.678 1.59077e-07 7.45152e-07 1.11964e+07 9.47202e+08
5.60962 160.373 0.130134 1.43467e-07 6.1787e+07 160.112 1.43233e-07 6.44232e-07 1.37596e+07 1.11784e+09
5.92807 170.164 0.153578 1.28987e-07 7.29346e+07 169.886 1.28777e-07 5.56685e-07 1.68994e+07 1.31923e+09
6.26459 180.441 0.181246 1.15899e-07 8.60651e+07 180.144 1.15708e-07 4.80786e-07 2.07469e+07 1.55689e+09
6.62021 191.191 0.213898 1.04057e-07 1.01558e+08 190.876 1.03886e-07 4.15026e-07 2.5463e+07 1.83737e+09
6.99602 202.442 0.252432 9.33612e-08 1.1986e+08 202.112 9.32089e-08 3.58083e-07 3.12505e+07 2.16837e+09
7.39317 214.233 0.297908 8.3717e-08 1.41457e+08 213.882 8.358e-08 3.08803e-07 3.83491e+07 2.55901e+09
7.81286 226.584 0.351577 7.50272e-08 1.66936e+08 226.216 7.49052e-08 2.66181e-07 4.70534e+07 3.02002e+09
8.25637 239.633 0.414914 6.72355e-08 1.97025e+08 239.24 6.71251e-08 2.29336e-07 5.77627e+07 3.56409e+09
8.72507 253.356 0.489662 6.02344e-08 2.32497e+08 252.937 6.01348e-08 1.97503e-07 7.09067e+07 4.20617e+09
9.22037 268.061 0.577876 5.4002e-08 2.74404e+08 267.612 5.39115e-08 1.70014e-07 8.71596e+07 4.96392e+09
9.74378 284.075 0.681982 4.8492e-08 3.2382e+08 283.593 4.84097e-08 1.46289e-07 1.0734e+08 5.85818e+09
10.2969 302.054 0.804843 4.36901e-08 3.82165e+08 301.522 4.36132e-08 1.25822e-07 1.32701e+08 6.91355e+09
10.8814 323.366 0.949838 3.96328e-08 4.51027e+08 322.752 3.95576e-08 1.08175e-07 1.65245e+08 8.15905e+09
11.4992 350.86 1.12095 3.64382e-08 5.32251e+08 350.119 3.63612e-08 9.29669e-08 2.08615e+08 9.62892e+09
12.1519 389.512 1.3229 3.42772e-08 6.28157e+08 388.539 3.41916e-08 7.98658e-08 2.69596e+08 1.13636e+10
12.8418 432.948 1.56122 3.22836e-08 3.82727e+08 448.117 3.34147e-08 6.85852e-08 1.80152e+08 1.34108e+10
13.5708 0 1.84248 0 0 0 0 5.88765e-08 0 1.58268e+10
14.3411 0 2.17441 0 0 0 0 5.05241e-08 0 1.8678e+10
15.1552 0 2.56613 0 0 0 0 4.33417e-08 0 2.20429e+10
16.0156 0 3.02843 0 0 0 0 3.71677e-08 0 2.6014e+10
16.9247 0 3.574 0 0 0 0 3.18628e-08 0 3.07005e+10
17.8855 0 4.21787 0 0 0 0 2.73063e-08 0 3.62312e+10
18.9008 0 4.97773 0 0 0 0 2.33941e-08 0 4.27584e+10
19.9738 0 5.87448 0 0 0 0 2.00364e-08 0 5.04614e+10
21.1076 0 6.93279 0 0 0 0 1.71555e-08 0 5.95522e+10
22.3058 0 8.18175 0 0 0 0 1.46847e-08 0 7.02807e+10
23.5721 0 9.65571 0 0 0 0 1.25662e-08 0 8.29419e+10
24.9102 0 11.3952 0 0 0 0 1.07504e-08 0 9.78842e+10
26.3243 0 13.4481 0 0 0 0 9.19452e-09 0 1.15518e+11
27.8187 0 15.8708 0 0 0 0 7.86182e-09 0 1.36329e+11
29.3979 0 18.73 0 0 0 0 6.72061e-09 0 1.60889e+11
31.0667 0 22.1042 0 0 0 0 5.74366e-09 0 1.89874e+11
32.8303 0 26.0864 0 0 0 0 4.90756e-09 0 2.2408e+11
34.694 0 30.7859 0 0 0 0 4.19221e-09 0 2.64449e+11
36.6634 0 36.3321 0 0 0 0 3.58032e-09 0 3.1209e+11
38.7447 0 42.8774 0 0 0 0 3.05709e-09 0 3.68314e+11
40.9442 0 50.6018 0 0 0 0 2.60976e-09 0 4.34667e+11
43.2685 0 59.7179 0 0 0 0 2.22743e-09 0 5.12973e+11
45.7247 0 70.4762 0 0 0 0 1.90073e-09 0 6.05386e+11
48.3204 0 83.1727 0 0 0 0 1.62163e-09 0 7.14448e+11
51.0634 0 98.1565 0 0 0 0 1.38326e-09 0 8.43158e+11
53.9621 0 115.84 0 0 0 0 1.1797e-09 0 9.95055e+11
57.0254 0 136.709 0 0 0 0 1.00592e-09 0 1.17432e+12
60.2626 0 161.337 0 0 0 0 8.57591e-10 0 1.38587e+12
63.6835 0 190.402 0 0 0 0 7.3101e-10 0 1.63554e+12
67.2987 0 224.704 0 0 0 0 6.23009e-10 0 1.93019e+12
71.1191 0 265.185 0 0 0 0 5.30879e-10 0 2.27792e+12
75.1563 0 312.958 0 0 0 0 4.52303e-10 0 2.68829e+12
79.4227 0 369.339 0 0 0 0 3.85299e-10 0 3.17259e+12
83.9313 0 435.876 0 0 0 0 3.28173e-10 0 3.74415e+12
88.6959 0 514.4 0 0 0 0 2.79476e-10 0 4.41866e+12
93.7309 0 607.071 0 0 0 0 2.37972e-10 0 5.2147e+12
99.0518 0 716.436 0 0 0 0 2.02605e-10 0 6.15414e+12
104.675 0 845.504 0 0 0 0 1.72471e-10 0 7.26283e+12
110.617 0 997.824 0 0 0 0 1.468e-10 0 8.57124e+12
116.896 0 1177.58 0 0 0 0 1.24935e-10 0 1.01154e+13
123.532 0 1389.73 0 0 0 0 1.06313e-10 0 1.19377e+13
130.545 0 1640.09 0 0 0 0 9.04567e-11 0 1.40883e+13
137.955 0 1935.56 0 0 0 0 7.69563e-11 0 1.66263e+13
145.787 0 2284.26 0 0 0 0 6.54636e-11 0 1.96216e+13
154.063 0 2695.77 0 0 0 0 5.56812e-11 0 2.31565e+13
162.808 0 3181.42 0 0 0 0 4.73556e-11 0 2.73282e+13
172.051 0 3754.56 0 0 0 0 4.02708e-11 0 3.22515e+13
181.818 0 4430.96 0 0 0 0 3.42426e-11 0 3.80616e+13
192.139 0 5229.21 0 0 0 0 2.91139e-11 0 4.49186e+13
203.046 0 6171.26 0 0 0 0 2.4751e-11 0 5.30108e+13
214.572 0 7283.03 0 0 0 0 2.10401e-11 0 6.25608e+13
226.753 0 8595.09 0 0 0 0 1.78839e-11 0 7.38313e+13
239.625 0 10143.5 0 0 0 0 1.51999e-11 0 8.71322e+13
253.228 0 11970.9 0 0 0 0 1.29176e-11 0 1.02829e+14
267.603 0 14127.5 0 0 0 0 1.09771e-11 0 1.21354e+14
282.795 0 16672.6 0 0 0 0 9.3274e-12 0 1.43217e+14
298.848 0 19676.2 0 0 0 0 7.925e-12 0 1.69017e+14
315.813 0 23220.9 0 0 0 0 6.73295e-12 0 1.99466e+14
333.741 0 27404.3 0 0 0 0 5.71979e-12 0 2.35401e+14
352.686 0 32341.2 0 0 0 0 4.85874e-12 0 2.77809e+14
372.707 0 38167.6 0 0 0 0 4.12703e-12 0 3.27857e+14
393.865 0 45043.5 0 0 0 0 3.50528e-12 0 3.86921e+14
416.224 0 53158.3 0 0 0 0 2.97701e-12 0 4.56626e+14
439.852 0 62734.9 0 0 0 0 2.52819e-12 0 5.38888e+14
464.821 0 74036.7 0 0 0 0 2.1469e-12 0 6.35971e+14
491.207 0 87374.6 0 0 0 0 1.82301e-12 0 7.50542e+14
519.092 0 103115 0 0 0 0 1.54789e-12 0 8.85755e+14
548.56 0 121692 0 0 0 0 1.31422e-12 0 1.04533e+15
579.7 0 143615 0 0 0 0 1.11576e-12 0 1.23364e+15
612.608 0 169488 0 0 0 0 9.47223e-13 0 1.45589e+15
647.384 0 200021 0 0 0 0 8.041e-13 0 1.71817e+15
684.134 0 236056 0 0 0 0 6.82568e-13 0 2.0277e+15
722.971 0 278582 0 0 0 0 5.79376e-13 0 2.393e+15
764.012 0 328769 0 0 0 0 4.91762e-13 0 2.8241e+15
