0.308306
200
1.0655e+09
8589934592
0.0129181 0 1.58924e-09 0 0 0 0 0.00677225 0 13.6515
0.0136515 0 1.87554e-09 0 0 0 0 0.00688819 0 16.1108
0.0144264 0 2.21343e-09 0 0 0 0 0.00699249 0 19.0132
0.0152454 0 2.61218e-09 0 0 0 0 0.00708412 0 22.4385
0.0161108 0 3.08278e-09 0 0 0 0 0.00716212 0 26.4808
0.0170254 0 3.63815e-09 0 0 0 0 0.00722559 0 31.2514
0.0179919 0 4.29357e-09 0 0 0 0 0.00727371 0 36.8815
0.0190132 0 5.06707e-09 0 0 0 0 0.00730578 0 43.5258
0.0200925 0 5.97991e-09 0 0 0 0 0.00732122 0 51.367
0.0212331 0 7.05721e-09 0 0 0 0 0.00731958 0 60.621
0.0224385 0 8.32858e-09 0 0 0 0 0.00730056 0 71.542
0.0237123 0 9.829e-09 0 0 0 0 0.00726401 0 84.4305
0.0250583 0 1.15997e-08 0 0 0 0 0.00720995 0 99.6408
0.0264808 0 1.36894e-08 0 0 0 0 0.00713857 0 117.591
0.0279841 0 1.61556e-08 0 0 0 0 0.00705021 0 138.776
0.0295727 0 1.90661e-08 0 0 0 0 0.00694538 0 163.777
0.0312514 0 2.25009e-08 0 0 0 0 0.00682475 0 193.281
0.0330255 0 2.65545e-08 0 0 0 0 0.00668915 0 228.102
0.0349003 0 3.13384e-08 0 0 0 0 0.00653951 0 269.195
0.0368815 0 3.69841e-08 0 0 0 0 0.00637693 0 317.691
0.0389751 0 4.36469e-08 0 0 0 0 0.00620256 0 374.924
0.0411876 0 5.151e-08 0 0 0 0 0.00601767 0 442.467
0.0435258 0 6.07896e-08 0 0 0 0 0.00582358 0 522.179
0.0459966 0 7.1741e-08 0 0 0 0 0.00562166 0 616.251
0.0486077 0 8.46654e-08 0 0 0 0 0.0054133 0 727.27
0.051367 0 9.99181e-08 0 0 0 0 0.00519989 0 858.29
0.054283 0 1.17919e-07 0 0 0 0 0.0049828 0 1012.91
0.0573645 0 1.39162e-07 0 0 0 0 0.00476339 0 1195.39
0.060621 0 1.64232e-07 0 0 0 0 0.00454293 0 1410.75
0.0640622 0 1.93819e-07 0 0 0 0 0.00432265 0 1664.89
0.0676989 0 2.28736e-07 0 0 0 0 0.00410371 0 1964.83
0.071542 0 2.69944e-07 0 0 0 0 0.00388717 0 2318.8
0.0756032 0 3.18575e-07 0 0 0 0 0.00367401 0 2736.54
0.079895 0 3.75967e-07 0 0 0 0 0.0034651 0 3229.53
0.0844305 0 4.43698e-07 0 0 0 0 0.00326121 0 3811.34
0.0892234 0 5.23632e-07 0 0 0 0 0.00306301 0 4497.96
0.0942883 0 6.17966e-07 0 0 0 0 0.00287109 0 5308.28
0.0996408 0 7.29294e-07 0 0 0 0 0.00268591 0 6264.59
0.105297 0 8.60678e-07 0 0 0 0 0.00250785 0 7393.17
0.111275 0 1.01573e-06 0 0 0 0 0.00233721 0 8725.07
0.117591 0 1.19872e-06 0 0 0 0 0.00217419 0 10296.9
0.124267 0 1.41467e-06 0 0 0 0 0.00201893 0 12151.9
0.131321 0 1.66953e-06 0 0 0 0 0.00187147 0 14341.1
0.138776 0 1.9703e-06 0 0 0 0 0.00173182 0 16924.7
0.146654 0 2.32525e-06 0 0 0 0 0.00159991 0 19973.8
0.154979 0 2.74415e-06 0 0 0 0 0.00147563 0 23572.1
0.163777 0 3.23852e-06 0 0 0 0 0.00135884 0 27818.7
0.173074 0 3.82195e-06 0 0 0 0 0.00124933 0 32830.3
0.182899 0 4.51048e-06 0 0 0 0 0.00114689 0 38744.7
0.193281 0 5.32305e-06 0 0 0 0 0.00105127 0 45724.7
0.204254 0 6.28202e-06 0 0 0 0 0.000962209 0 53962.1
0.215848 0 7.41374e-06 0 0 0 0 0.000879423 0 63683.5
0.228102 0 8.74934e-06 0 0 0 0 0.000802624 0 75156.3
0.24105 0 1.03256e-05 0 0 0 0 0.000731515 0 88695.9
0.254734 0 1.21857e-05 0 0 0 0 0.000665798 0 104675
0.269195 0 1.4381e-05 0 0 0 0 0.000605173 0 123532
0.284476 0 1.69718e-05 0 0 0 0 0.000549345 0 145787
0.300625 0 2.00293e-05 0 0 0 0 0.000498021 0 172051
0.317691 0 2.36377e-05 0 0 0 0 0.000450916 0 203046
0.335725 0 2.78961e-05 0 0 0 0 0.000407755 0 239625
0.354784 0 3.29216e-05 0 0 0 0 0.000368269 0 282795
0.374924 0 3.88525e-05 0 0 0 0 0.000332202 0 333741
0.396207 1.27244 4.58519e-05 3.23066e-06 6 1.23707 3.14084e-06 0.000299307 0.0647629 393865
0.418699 0 5.41123e-05 0 0 0 0 0.00026935 0 464821
0.442467 0 6.38607e-05 0 0 0 0 0.000242108 0 548560
0.467585 0 7.53654e-05 0 0 0 0 0.00021737 0 647384
0.494129 0 8.89427e-05 0 0 0 0 0.000194938 0 764012
0.522179 0 0.000104966 0 0 0 0 0.000174625 0 901651
0.551822 0 0.000123876 0 0 0 0 0.000156255 0 1.06409e+06
0.583147 7.12482 0.000146192 5.6736e-06 12 7.49891 5.9715e-06 0.000139664 0.487479 1.25578e+06
0.616251 0 0.000172529 0 0 0 0 0.0001247 0 1.48202e+06
0.651234 0 0.000203611 0 0 0 0 0.00011122 0 1.74901e+06
0.688203 29.0862 0.000240292 1.40915e-05 8 28.3626 1.37409e-05 9.90935e-05 1.13763 2.06409e+06
0.72727 0 0.000283581 0 0 0 0 8.81969e-05 0 2.43595e+06
0.768555 0 0.000334669 0 0 0 0 7.84179e-05 0 2.87479e+06
0.812184 1.1363 0.000394961 3.34926e-07 6 1.16059 3.42087e-07 6.96525e-05 0.0288512 3.39269e+06
0.85829 0 0.000466114 0 0 0 0 6.1805e-05 0 4.00389e+06
0.907013 0.729014 0.000550086 1.54282e-07 24 0.743002 1.57242e-07 5.47875e-05 0.0675842 4.7252e+06
0.958501 2.32608 0.000649185 4.17125e-07 24 2.18983 3.92692e-07 4.85194e-05 0.20633 5.57646e+06
1.01291 0 0.000766138 0 0 0 0 4.29272e-05 0 6.58107e+06
1.07041 0 0.00090416 0 0 0 0 3.79435e-05 0 7.76667e+06
1.13118 2.71067 0.00106705 2.95735e-07 12 2.67737 2.92102e-07 3.3507e-05 0.105913 9.16586e+06
1.19539 1.87098 0.00125928 1.72965e-07 30 1.83241 1.69399e-07 2.9562e-05 0.175528 1.08171e+07
1.26325 9.51037 0.00148614 7.44986e-07 24 9.36726 7.33775e-07 2.60578e-05 0.686153 1.27658e+07
1.33496 21.7052 0.00175387 1.44071e-06 24 21.7529 1.44388e-06 2.29484e-05 1.50673 1.50656e+07
1.41075 9.97211 0.00206984 5.60869e-07 32 10.2108 5.74291e-07 2.01923e-05 0.888844 1.77798e+07
1.49083 2.19786 0.00244272 1.04746e-07 48 2.15101 1.02513e-07 1.77518e-05 0.283228 2.09828e+07
1.57546 1.99137 0.00288279 8.04173e-08 6 1.89623 7.65754e-08 1.55929e-05 0.0309439 2.4763e+07
1.66489 1.55276 0.00340213 5.31329e-08 84 1.52028 5.20215e-08 1.3685e-05 0.326135 2.92241e+07
1.75941 3.74383 0.00401503 1.08552e-07 48 3.73756 1.0837e-07 1.20007e-05 0.434182 3.44889e+07
1.85928 1.48244 0.00473835 3.64217e-08 72 1.48944 3.65937e-08 1.05151e-05 0.24939 4.07021e+07
1.96483 3.08775 0.00559198 6.42817e-08 54 3.02917 6.3062e-08 9.20606e-06 0.377057 4.80347e+07
2.07637 12.8426 0.00659939 2.26548e-07 104 12.8707 2.27043e-07 8.05366e-06 2.92551 5.66883e+07
2.19424 1.73737 0.00778828 2.59693e-08 120 1.75742 2.62691e-08 7.04008e-06 0.442653 6.69008e+07
2.3188 4.02462 0.00919136 5.09748e-08 156 3.8919 4.92937e-08 6.1494e-06 1.29315 7.89532e+07
2.45043 2.79067 0.0108472 2.99502e-08 126 2.76544 2.96795e-08 5.36741e-06 0.703082 9.31768e+07
2.58954 2.87303 0.0128014 2.61273e-08 192 2.88359 2.62233e-08 4.68145e-06 1.07156 1.09963e+08
2.73654 9.99434 0.0151076 7.7014e-08 152 10.3138 7.94756e-08 4.08023e-06 2.86898 1.29773e+08
2.89188 6.46209 0.0178292 4.2194e-08 378 6.55509 4.28012e-08 3.55373e-06 4.48805 1.53152e+08
3.05605 4.30141 0.0210412 2.37985e-08 264 4.24644 2.34944e-08 3.09304e-06 2.03128 1.80743e+08
3.22953 3.01139 0.0248319 1.41179e-08 366 2.98686 1.40029e-08 2.69025e-06 1.92069 2.13304e+08
3.41286 4.02522 0.0293054 1.59901e-08 428 3.95999 1.5731e-08 2.33837e-06 2.92673 2.51731e+08
3.6066 8.02023 0.0345848 2.69967e-08 486 7.84076 2.63926e-08 2.0312e-06 6.45943 2.97081e+08
3.81134 4.8601 0.0408154 1.38622e-08 600 4.83857 1.38008e-08 1.76327e-06 4.71699 3.50601e+08
4.0277 5.28424 0.0481684 1.27712e-08 738 5.22929 1.26384e-08 1.52972e-06 6.16133 4.13763e+08
4.25634 6.69908 0.056846 1.37191e-08 824 6.7517 1.38269e-08 1.32631e-06 8.52332 4.88304e+08
4.49796 8.49696 0.067087 1.47447e-08 954 8.4714 1.47003e-08 1.14926e-06 12.2396 5.76273e+08
4.7533 6.46516 0.0791729 9.50632e-09 1094 6.43224 9.45792e-09 9.95263e-07 10.4494 6.8009e+08
5.02313 6.73262 0.0934361 8.3884e-09 1332 6.74718 8.40655e-09 8.61414e-07 12.9709 8.0261e+08
5.30828 10.3246 0.110269 1.09001e-08 1614 10.347 1.09237e-08 7.45152e-07 23.6097 9.47202e+08
5.60962 8.81956 0.130134 7.8898e-09 1850 8.76991 7.84538e-09 6.44232e-07 22.6566 1.11784e+09
5.92807 9.33314 0.153578 7.07471e-09 2238 9.26768 7.02509e-09 5.56685e-07 28.4419 1.31923e+09
6.26459 9.7994 0.181246 6.29422e-09 2546 9.85669 6.33102e-09 4.80786e-07 33.331 1.55689e+09
6.62021 9.43574 0.213898 5.13547e-09 3264 9.43832 5.13688e-09 4.15026e-07 40.3883 1.83737e+09
6.99602 12.2036 0.252432 5.62798e-09 3506 12.2592 5.65365e-09 3.58083e-07 55.1038 2.16837e+09
7.39317 11.7481 0.297908 4.59088e-09 4506 11.75 4.59162e-09 3.08803e-07 66.9892 2.55901e+09
7.81286 13.1763 0.351577 4.36298e-09 5018 13.1642 4.35896e-09 2.66181e-07 82.2501 3.02002e+09
8.25637 14.3027 0.414914 4.01301e-09 5852 14.2613 4.00138e-09 2.29336e-07 102.401 3.56409e+09
8.72507 14.8983 0.489662 3.54201e-09 7362 14.8939 3.54096e-09 1.97503e-07 132.03 4.20617e+09
9.22037 16.0778 0.577876 3.23892e-09 8306 16.0131 3.2259e-09 1.70014e-07 158.237 4.96392e+09
9.74378 16.2934 0.681982 2.7813e-09 9698 16.276 2.77834e-09 1.46289e-07 184.382 5.85818e+09
10.2969 17.728 0.804843 2.56424e-09 11816 17.7396 2.56592e-09 1.25822e-07 240.808 6.91355e+09
10.8814 19.0815 0.949838 2.3387e-09 13682 19.0596 2.33601e-09 1.08175e-07 295.798 8.15905e+09
11.4992 20.5195 1.12095 2.13102e-09 16152 20.4906 2.12803e-09 9.29669e-08 370.243 9.62892e+09
12.1519 21.7956 1.3229 1.91802e-09 19472 21.7427 1.91337e-09 7.98658e-08 467.63 1.13636e+10
12.8418 21.8526 1.56122 1.62948e-09 22670 21.8069 1.62607e-09 6.85852e-08 538.604 1.34108e+10
13.5708 24.4331 1.84248 1.54378e-09 26224 24.3993 1.54165e-09 5.88765e-08 687.611 1.58268e+10
14.3411 25.3836 2.17441 1.35901e-09 31640 25.3628 1.3579e-09 5.05241e-08 851.06 1.8678e+10
15.1552 27.1327 2.56613 1.23091e-09 37484 27.0903 1.22898e-09 4.33417e-08 1064.55 2.20429e+10
16.0156 28.5811 3.02843 1.09868e-09 43856 28.5385 1.09704e-09 3.71677e-08 1296.39 2.6014e+10
16.9247 30.5849 3.574 9.96235e-10 51362 30.5344 9.94591e-10 3.18628e-08 1605.91 3.07005e+10
17.8855 32.1076 4.21787 8.86186e-10 61636 32.0465 8.845e-10 2.73063e-08 2000.31 3.62312e+10
18.9008 33.6773 4.97773 7.87618e-10 72218 33.6146 7.86153e-10 2.33941e-08 2431.39 4.27584e+10
19.9738 35.7581 5.87448 7.08622e-10 84586 35.6831 7.07136e-10 2.00364e-08 2991.53 5.04614e+10
21.1076 37.8631 6.93279 6.35798e-10 100708 37.7997 6.34732e-10 1.71555e-08 3732.32 5.95522e+10
22.3058 39.8779 8.18175 5.67409e-10 118712 39.8139 5.66499e-10 1.46847e-08 4586.98 7.02807e+10
23.5721 42.1792 9.65571 5.08539e-10 140410 42.0787 5.07327e-10 1.25662e-08 5682.24 8.29419e+10
24.9102 44.7457 11.3952 4.57129e-10 164374 44.6634 4.56289e-10 1.07504e-08 6989.54 9.78842e+10
26.3243 47.1372 13.4481 4.0805e-10 194680 47.0648 4.07423e-10 9.19452e-09 8639.84 1.15518e+11
27.8187 49.7755 15.8708 3.65113e-10 230196 49.6947 3.6452e-10 7.86182e-09 10690.6 1.36329e+11
29.3979 52.7194 18.73 3.27675e-10 271156 52.6328 3.27137e-10 6.72061e-09 13220.7 1.60889e+11
31.0667 56.0943 22.1042 2.95429e-10 321076 55.9839 2.94848e-10 5.74366e-09 16514.8 1.89874e+11
32.8303 59.5587 26.0864 2.65792e-10 377436 59.437 2.65249e-10 4.90756e-09 20441.8 2.2408e+11
34.694 62.9073 30.7859 2.37881e-10 447594 62.7761 2.37385e-10 4.19221e-09 25398.1 2.64449e+11
36.6634 67.2086 36.3321 2.1535e-10 525078 67.0712 2.1491e-10 3.58032e-09 31582.5 3.1209e+11
38.7447 71.5838 42.8774 1.94355e-10 621924 71.4317 1.93942e-10 3.05709e-09 39539.1 3.68314e+11
40.9442 76.5886 50.6018 1.76201e-10 732630 76.4294 1.75835e-10 2.60976e-09 49464.3 4.34667e+11
43.2685 82.4808 59.7179 1.6079e-10 865596 82.3075 1.60452e-10 2.22743e-09 62484.1 5.12973e+11
45.7247 88.828 70.4762 1.46729e-10 1.02168e+06 88.6428 1.46424e-10 1.90073e-09 78869.5 6.05386e+11
48.3204 95.9828 83.1727 1.34345e-10 1.20544e+06 95.7729 1.34052e-10 1.62163e-09 99865.2 7.14448e+11
51.0634 112.054 98.1565 1.32898e-10 1.42103e+06 111.64 1.32407e-10 1.38326e-09 136527 8.43158e+11
53.9621 113.443 115.84 1.14007e-10 1.67997e+06 113.197 1.1376e-10 1.1797e-09 162353 9.95055e+11
57.0254 124.3 136.709 1.05849e-10 1.98018e+06 124.017 1.05608e-10 1.00592e-09 208367 1.17432e+12
60.2626 136.684 161.337 9.86264e-11 2.33957e+06 136.357 9.83904e-11 8.57591e-10 269060 1.38587e+12
63.6835 151.317 190.402 9.25182e-11 2.75676e+06 150.94 9.22872e-11 7.3101e-10 348902 1.63554e+12
67.2987 168.412 224.704 8.72515e-11 3.25638e+06 167.983 8.7029e-11 6.23009e-10 456051 1.93019e+12
71.1191 188.669 265.185 8.28254e-11 3.84387e+06 188.177 8.26093e-11 5.30879e-10 599704 2.27792e+12
75.1563 212.404 312.958 7.90107e-11 4.53277e+06 211.825 7.87952e-11 4.52303e-10 791807 2.68829e+12
79.4227 240.133 369.339 7.56897e-11 5.35083e+06 239.476 7.54826e-11 3.85299e-10 1.05114e+06 3.17259e+12
83.9313 272.955 435.876 7.29018e-11 6.32174e+06 272.186 7.26963e-11 3.28173e-10 1.40434e+06 3.74415e+12
88.6959 312.145 514.4 7.06425e-11 7.44986e+06 311.256 7.04411e-11 2.79476e-10 1.88308e+06 4.41866e+12
93.7309 357.983 607.071 6.86488e-11 8.79764e+06 356.929 6.84466e-11 2.37972e-10 2.53789e+06 5.2147e+12
99.0518 412.637 716.436 6.70504e-11 1.03827e+07 411.4 6.68493e-11 2.02605e-10 3.43606e+06 6.15414e+12
104.675 477.193 845.504 6.57036e-11 1.22515e+07 475.729 6.55019e-11 1.72471e-10 4.66727e+06 7.26283e+12
110.617 554.071 997.824 6.4643e-11 1.44573e+07 552.356 6.44429e-11 1.468e-10 6.36624e+06 8.57124e+12
116.896 644.306 1177.58 6.36957e-11 1.70664e+07 642.304 6.34978e-11 1.24935e-10 8.70099e+06 1.01154e+13
123.532 751.532 1389.73 6.29546e-11 2.0139e+07 749.152 6.27552e-11 1.06313e-10 1.19255e+07 1.19377e+13
130.545 879.528 1640.09 6.24297e-11 2.37643e+07 876.764 6.22335e-11 9.04567e-11 1.64012e+07 1.40883e+13
137.955 1028.55 1935.56 6.18625e-11 2.80503e+07 1025.23 6.16629e-11 7.69563e-11 2.25487e+07 1.66263e+13
145.787 1205.79 2284.26 6.14522e-11 3.30981e+07 1201.88 6.12531e-11 6.54636e-11 3.10699e+07 1.96216e+13
154.063 1416.24 2695.77 6.11593e-11 3.90634e+07 1411.63 6.09604e-11 5.56812e-11 4.29067e+07 2.31565e+13
162.808 1665.38 3181.42 6.09398e-11 4.61057e+07 1659.9 6.07394e-11 4.73556e-11 5.93313e+07 2.73282e+13
172.051 1959.3 3754.56 6.07508e-11 5.44046e+07 1952.83 6.05502e-11 4.02708e-11 8.20724e+07 3.22515e+13
181.818 2308.44 4430.96 6.065e-11 6.42064e+07 2300.76 6.04482e-11 3.42426e-11 1.13721e+08 3.80616e+13
192.139 2722.52 5229.21 6.06102e-11 7.57748e+07 2713.47 6.04086e-11 2.91139e-11 1.5775e+08 4.49186e+13
203.046 3215.39 6171.26 6.06554e-11 8.94213e+07 3204.63 6.04524e-11 2.4751e-11 2.19138e+08 5.30108e+13
214.572 3798.99 7283.03 6.07248e-11 1.05538e+08 3786.2 6.05203e-11 2.10401e-11 3.04599e+08 6.25608e+13
226.753 4495.68 8595.09 6.08912e-11 1.24552e+08 4480.52 6.06859e-11 1.78839e-11 4.24074e+08 7.38313e+13
239.625 5327.3 10143.5 6.11404e-11 1.46987e+08 5309.14 6.0932e-11 1.51999e-11 5.91244e+08 8.71322e+13
253.228 6324.77 11970.9 6.15075e-11 1.7347e+08 6303.1 6.12967e-11 1.29176e-11 8.2598e+08 1.02829e+14
267.603 7526.3 14127.5 6.20192e-11 2.04703e+08 7500.14 6.18037e-11 1.09771e-11 1.15654e+09 1.21354e+14
282.795 8984.14 16672.6 6.27311e-11 2.4161e+08 8952.46 6.251e-11 9.3274e-12 1.62494e+09 1.43217e+14
298.848 10766.1 19676.2 6.36984e-11 2.85122e+08 10727.5 6.34697e-11 7.925e-12 2.29172e+09 1.69017e+14
315.813 12978.2 23220.9 6.50647e-11 3.36491e+08 12930.5 6.48255e-11 6.73295e-12 3.25173e+09 1.99466e+14
333.741 15769.7 27404.3 6.69908e-11 3.97115e+08 15709.7 6.6736e-11 5.71979e-12 4.65105e+09 2.35401e+14
352.686 19362.6 32341.2 6.96976e-11 4.68637e+08 19285.6 6.94202e-11 4.85874e-12 6.7225e+09 2.77809e+14
372.707 24138.2 38167.6 7.36243e-11 5.53074e+08 24036.6 7.33144e-11 4.12703e-12 9.86659e+09 3.27857e+14
393.865 30727.3 45043.5 7.94149e-11 6.52716e+08 30587.5 7.90536e-11 3.50528e-12 1.47878e+10 3.86921e+14
416.224 36276.2 53158.3 7.94441e-11 2.2184e+08 38377 8.40446e-11 2.97701e-12 5.91999e+09 4.56626e+14
439.852 0 62734.9 0 0 0 0 2.52819e-12 0 5.38888e+14
464.821 0 74036.7 0 0 0 0 2.1469e-12 0 6.35971e+14
491.207 0 87374.6 0 0 0 0 1.82301e-12 0 7.50542e+14
519.092 0 103115 0 0 0 0 1.54789e-12 0 8.85755e+14
548.56 0 121692 0 0 0 0 1.31422e-12 0 1.04533e+15
579.7 0 143615 0 0 0 0 1.11576e-12 0 1.23364e+15
612.608 0 169488 0 0 0 0 9.47223e-13 0 1.45589e+15
647.384 0 200021 0 0 0 0 8.041e-13 0 1.71817e+15
684.134 0 236056 0 0 0 0 6.82568e-13 0 2.0277e+15
722.971 0 278582 0 0 0 0 5.79376e-13 0 2.393e+15
764.012 0 328769 0 0 0 0 4.91762e-13 0 2.8241e+15
0.308306
200
1.0655e+09
8589934592
0.0129181 0.000302392 1.58924e-09 2.21509e-05 6 0.000299624 2.19481e-05 0.00677225 0.019625 13.6515
0.0136515 0 1.87554e-09 0 0 0 0 0.00688819 0 16.1108
0.0144264 0 2.21343e-09 0 0 0 0 0.00699249 0 19.0132
0.0152454 0 2.61218e-09 0 0 0 0 0.00708412 0 22.4385
0.0161108 0 3.08278e-09 0 0 0 0 0.00716212 0 26.4808
0.0170254 0 3.63815e-09 0 0 0 0 0.00722559 0 31.2514
0.0179919 0.000672642 4.29357e-09 1.8238e-05 12 0.000671776 1.82145e-05 0.00727371 0.0300886 36.8815
0.0190132 0 5.06707e-09 0 0 0 0 0.00730578 0 43.5258
0.0200925 0 5.97991e-09 0 0 0 0 0.00732122 0 51.367
0.0212331 0.000636655 7.05721e-09 1.05022e-05 8 0.000636101 1.04931e-05 0.00731958 0.0114785 60.621
0.0224385 0 8.32858e-09 0 0 0 0 0.00730056 0 71.542
0.0237123 0 9.829e-09 0 0 0 0 0.00726401 0 84.4305
0.0250583 0.00407229 1.15997e-08 4.08697e-05 6 0.00407038 4.08505e-05 0.00720995 0.0340111 99.6408
0.0264808 0 1.36894e-08 0 0 0 0 0.00713857 0 117.591
0.0279841 0.0025261 1.61556e-08 1.82027e-05 24 0.0025235 1.8184e-05 0.00705021 0.0619649 138.776
0.0295727 0 1.90661e-08 0 0 0 0 0.00694538 0 163.777
0.0312514 0.00451146 2.25009e-08 2.33414e-05 24 0.00453437 2.34599e-05 0.00682475 0.0820827 193.281
0.0330255 0 2.65545e-08 0 0 0 0 0.00668915 0 228.102
0.0349003 0.00647419 3.13384e-08 2.40502e-05 12 0.00642235 2.38576e-05 0.00653951 0.0441321 269.195
0.0368815 0.00547471 3.69841e-08 1.72328e-05 30 0.00541641 1.70493e-05 0.00637693 0.0810711 317.691
0.0389751 0.00643463 4.36469e-08 1.71625e-05 24 0.00636843 1.69859e-05 0.00620256 0.0664081 374.924
0.0411876 0.00408715 5.151e-08 9.23718e-06 24 0.00405939 9.17444e-06 0.00601767 0.0368402 442.467
0.0435258 0.00920561 6.07896e-08 1.76292e-05 8 0.0092049 1.76279e-05 0.00582358 0.0242177 522.179
0.0459966 0.0116252 7.1741e-08 1.88643e-05 72 0.0115333 1.87153e-05 0.00562166 0.241607 616.251
0.0486077 0 8.46654e-08 0 0 0 0 0.0054133 0 727.27
0.051367 0.0169588 9.99181e-08 1.97588e-05 54 0.0169043 1.96953e-05 0.00519989 0.205192 858.29
0.054283 0.0133353 1.17919e-07 1.31653e-05 60 0.0133923 1.32216e-05 0.0049828 0.158528 1012.91
0.0573645 0.0130197 1.39162e-07 1.08916e-05 96 0.0129863 1.08636e-05 0.00476339 0.219506 1195.39
0.060621 0.0151517 1.64232e-07 1.07402e-05 24 0.0149464 1.05947e-05 0.00454293 0.0567399 1410.75
0.0640622 0.026607 1.93819e-07 1.59812e-05 134 0.0266214 1.59898e-05 0.00432265 0.495409 1664.89
0.0676989 0.0256415 2.28736e-07 1.30502e-05 120 0.0255222 1.29895e-05 0.00410371 0.381613 1964.83
0.071542 0.0236314 2.69944e-07 1.01912e-05 108 0.0233746 1.00805e-05 0.00388717 0.283149 2318.8
0.0756032 0.0345544 3.18575e-07 1.2627e-05 174 0.0343704 1.25598e-05 0.00367401 0.598013 2736.54
0.079895 0.0366862 3.75967e-07 1.13596e-05 168 0.0363411 1.12527e-05 0.0034651 0.550753 3229.53
0.0844305 0.0311444 4.43698e-07 8.1715e-06 168 0.0313002 8.21239e-06 0.00326121 0.420952 3811.34
0.0892234 0.0354429 5.23632e-07 7.87976e-06 290 0.0352907 7.84593e-06 0.00306301 0.74604 4497.96
0.0942883 0.0454059 6.17966e-07 8.55379e-06 288 0.0452951 8.53291e-06 0.00287109 0.858033 5308.28
0.0996408 0.0408076 7.29294e-07 6.51401e-06 366 0.0404714 6.46035e-06 0.00268591 0.887643 6264.59
0.105297 0.0453023 8.60678e-07 6.12759e-06 420 0.0449877 6.08504e-06 0.00250785 1.02621 7393.17
0.111275 0.0482618 1.01573e-06 5.53139e-06 398 0.0481206 5.51521e-06 0.00233721 0.941932 8725.07
0.117591 0.0574792 1.19872e-06 5.58217e-06 624 0.0576029 5.59419e-06 0.00217419 1.6021 10296.9
0.124267 0.0645643 1.41467e-06 5.31309e-06 642 0.0644634 5.30479e-06 0.00201893 1.68952 12151.9
0.131321 0.0809618 1.66953e-06 5.64543e-06 800 0.0809907 5.64744e-06 0.00187147 2.41326 14341.1
0.138776 0.0727566 1.9703e-06 4.29883e-06 858 0.0730991 4.31907e-06 0.00173182 2.12979 16924.7
0.146654 0.0802239 2.32525e-06 4.01646e-06 1080 0.0808977 4.0502e-06 0.00159991 2.71127 19973.8
0.154979 0.0951993 2.74415e-06 4.03864e-06 1286 0.0958429 4.06595e-06 0.00147563 3.51964 23572.1
0.163777 0.0899012 3.23852e-06 3.23169e-06 1650 0.0900856 3.23832e-06 0.00135884 3.92415 27818.7
0.173074 0.105191 3.82195e-06 3.20409e-06 1778 0.105211 3.20471e-06 0.00124933 4.55994 32830.3
0.182899 0.103417 4.51048e-06 2.66919e-06 2112 0.103678 2.67593e-06 0.00114689 4.91532 38744.7
0.193281 0.119992 5.32305e-06 2.62423e-06 2570 0.120149 2.62766e-06 0.00105127 6.41534 45724.7
0.204254 0.136797 6.28202e-06 2.53505e-06 3030 0.13672 2.53362e-06 0.000962209 7.98289 53962.1
0.215848 0.136968 7.41374e-06 2.15076e-06 3434 0.136917 2.14996e-06 0.000879423 8.39834 63683.5
0.228102 0.143249 8.74934e-06 1.90602e-06 4218 0.143282 1.90645e-06 0.000802624 10.0166 75156.3
0.24105 0.160964 1.03256e-05 1.81478e-06 4766 0.161112 1.81645e-06 0.000731515 11.8237 88695.9
0.254734 0.17456 1.21857e-05 1.66764e-06 6026 0.17452 1.66726e-06 0.000665798 15.0935 104675
0.269195 0.185987 1.4381e-05 1.50558e-06 6480 0.185851 1.50448e-06 0.000605173 16.1212 123532
0.284476 0.203591 1.69718e-05 1.3965e-06 8162 0.204048 1.39963e-06 0.000549345 20.7487 145787
0.300625 0.208005 2.00293e-05 1.20898e-06 9578 0.20824 1.21034e-06 0.000498021 23.2512 172051
0.317691 0.23196 2.36377e-05 1.1424e-06 11234 0.231735 1.14129e-06 0.000450916 28.4614 203046
0.335725 0.244926 2.78961e-05 1.02212e-06 13344 0.244699 1.02117e-06 0.000407755 33.4494 239625
0.354784 0.259479 3.29216e-05 9.17554e-07 15464 0.259295 9.16904e-07 0.000368269 38.5291 282795
0.374924 0.278374 3.88525e-05 8.34103e-07 18458 0.278359 8.34056e-07 0.000332202 46.3449 333741
0.396207 0.299471 4.58519e-05 7.60339e-07 22232 0.299074 7.59331e-07 0.000299307 56.4767 393865
0.418699 0.323257 5.41123e-05 6.95443e-07 25628 0.322468 6.93746e-07 0.00026935 66.1698 464821
0.442467 0.348398 6.38607e-05 6.35114e-07 30320 0.347651 6.33752e-07 0.000242108 79.5375 548560
0.467585 0.366079 7.53654e-05 5.65474e-07 35452 0.365584 5.6471e-07 0.00021737 92.226 647384
0.494129 0.394954 8.89427e-05 5.16947e-07 41792 0.394786 5.16727e-07 0.000194938 110.826 764012
0.522179 0.427557 0.000104966 4.74193e-07 49988 0.427426 4.74048e-07 0.000174625 135.742 901651
0.551822 0.454866 0.000123876 4.27471e-07 59110 0.454469 4.27099e-07 0.000156255 161.709 1.06409e+06
0.583147 0.491697 0.000146192 3.91546e-07 69716 0.490908 3.90917e-07 0.000139664 195.448 1.25578e+06
0.616251 0.528202 0.000172529 3.56407e-07 82210 0.527215 3.55741e-07 0.0001247 234.966 1.48202e+06
0.651234 0.568218 0.000203611 3.24881e-07 96722 0.567103 3.24243e-07 0.00011122 282.53 1.74901e+06
0.688203 0.611947 0.000240292 2.96473e-07 113098 0.611086 2.96055e-07 9.90935e-05 338.372 2.06409e+06
0.72727 0.661301 0.000283581 2.71476e-07 135190 0.66052 2.71156e-07 8.81969e-05 416.124 2.43595e+06
0.768555 0.713319 0.000334669 2.48129e-07 158170 0.712519 2.47851e-07 7.84179e-05 500.48 2.87479e+06
0.812184 0.770171 0.000394961 2.27009e-07 188560 0.769138 2.26705e-07 6.96525e-05 614.548 3.39269e+06
0.85829 0.832437 0.000466114 2.07907e-07 220444 0.83128 2.07618e-07 6.1805e-05 741.556 4.00389e+06
0.907013 0.895078 0.000550086 1.89426e-07 261388 0.893932 1.89184e-07 5.47875e-05 903.743 4.7252e+06
0.958501 0.976666 0.000649185 1.75141e-07 308244 0.975359 1.74906e-07 4.85194e-05 1112.67 5.57646e+06
1.01291 1.05888 0.000766138 1.60897e-07 364396 1.05724 1.60649e-07 4.29272e-05 1365.81 6.58107e+06
1.07041 1.14598 0.00090416 1.47551e-07 429162 1.14423 1.47326e-07 3.79435e-05 1668.89 7.76667e+06
1.13118 1.24659 0.00106705 1.36003e-07 506358 1.24463 1.3579e-07 3.3507e-05 2055.28 9.16586e+06
1.19539 1.35756 0.00125928 1.25501e-07 598590 1.35523 1.25286e-07 2.9562e-05 2541.23 1.08171e+07
1.26325 1.48016 0.00148614 1.15947e-07 704844 1.47796 1.15775e-07 2.60578e-05 3136.27 1.27658e+07
1.33496 1.61477 0.00175387 1.07183e-07 834620 1.61206 1.07003e-07 2.29484e-05 3898.16 1.50656e+07
1.41075 1.76141 0.00206984 9.90682e-08 981444 1.75825 9.88907e-08 2.01923e-05 4815.2 1.77798e+07
1.49083 1.92682 0.00244272 9.18285e-08 1.15998e+06 1.92352 9.16711e-08 1.77518e-05 6000.47 2.09828e+07
1.57546 2.10878 0.00288279 8.51585e-08 1.36931e+06 2.10502 8.50066e-08 1.55929e-05 7478.32 2.4763e+07
1.66489 2.30731 0.00340213 7.89524e-08 1.61652e+06 2.30307 7.88075e-08 1.3685e-05 9326.1 2.92241e+07
1.75941 2.53932 0.00401503 7.36273e-08 1.90601e+06 2.53452 7.34882e-08 1.20007e-05 11693.9 3.44889e+07
1.85928 2.78396 0.00473835 6.83984e-08 2.24913e+06 2.77869 6.8269e-08 1.05151e-05 14630.1 4.07021e+07
1.96483 3.0618 0.00559198 6.37414e-08 2.65744e+06 3.05591 6.36189e-08 9.20606e-06 18399.7 4.80347e+07
2.07637 3.36582 0.00659939 5.93741e-08 3.13125e+06 3.35954 5.92634e-08 8.05366e-06 23084.6 5.66883e+07
2.19424 3.70706 0.00778828 5.54112e-08 3.69915e+06 3.69997 5.53052e-08 7.04008e-06 29115.4 6.69008e+07
2.3188 4.08008 0.00919136 5.16772e-08 4.36472e+06 4.0723 5.15786e-08 6.1494e-06 36679.4 7.89532e+07
2.45043 4.49853 0.0108472 4.82795e-08 5.14913e+06 4.48991 4.81869e-08 5.36741e-06 46316.1 9.31768e+07
2.58954 4.95755 0.0128014 4.50839e-08 6.07894e+06 4.9479 4.49961e-08 4.68145e-06 58542.1 1.09963e+08
2.73654 5.47132 0.0151076 4.21607e-08 7.17304e+06 5.46053 4.20775e-08 4.08023e-06 74118.4 1.29773e+08
2.89188 6.02916 0.0178292 3.93672e-08 8.46557e+06 6.01759 3.92917e-08 3.55373e-06 93779 1.53152e+08
3.05605 6.64676 0.0210412 3.67747e-08 9.98773e+06 6.63386 3.67033e-08 3.09304e-06 118749 1.80743e+08
3.22953 7.33079 0.0248319 3.43678e-08 1.1797e+07 7.31653 3.4301e-08 2.69025e-06 150706 2.13304e+08
3.41286 8.07382 0.0293054 3.20732e-08 1.39144e+07 8.05792 3.201e-08 2.33837e-06 190850 2.51731e+08
3.6066 8.88871 0.0345848 2.99201e-08 1.64163e+07 8.87129 2.98615e-08 2.0312e-06 241816 2.97081e+08
3.81134 9.7808 0.0408154 2.78972e-08 1.93821e+07 9.76164 2.78426e-08 1.76327e-06 306651 3.50601e+08
4.0277 10.7429 0.0481684 2.59638e-08 2.28754e+07 10.7216 2.59123e-08 1.52972e-06 388262 4.13763e+08
4.25634 11.7824 0.056846 2.41292e-08 2.69929e+07 11.7591 2.40814e-08 1.32631e-06 491075 4.88304e+08
4.49796 12.9188 0.067087 2.24179e-08 3.18542e+07 12.8932 2.23734e-08 1.14926e-06 621361 5.76273e+08
4.7533 14.1411 0.0791729 2.0793e-08 3.75892e+07 14.1133 2.07521e-08 9.95263e-07 785312 6.8009e+08
5.02313 15.4459 0.0934361 1.92446e-08 4.43706e+07 15.4161 1.92074e-08 8.61414e-07 991272 8.0261e+08
5.30828 16.8328 0.110269 1.77711e-08 5.23593e+07 16.8001 1.77365e-08 7.45152e-07 1.24871e+06 9.47202e+08
5.60962 18.3089 0.130134 1.63787e-08 6.1787e+07 18.2739 1.63475e-08 6.44232e-07 1.57085e+06 1.11784e+09
5.92807 19.8808 0.153578 1.50701e-08 7.29346e+07 19.8429 1.50414e-08 5.56685e-07 1.97442e+06 1.31923e+09
6.26459 21.5446 0.181246 1.38383e-08 8.60651e+07 21.5037 1.3812e-08 4.80786e-07 2.47718e+06 1.55689e+09
6.62021 23.2876 0.213898 1.26744e-08 1.01558e+08 23.2439 1.26507e-08 4.15026e-07 3.10148e+06 1.83737e+09
6.99602 25.1233 0.252432 1.15863e-08 1.1986e+08 25.0771 1.15649e-08 3.58083e-07 3.87823e+06 2.16837e+09
7.39317 27.0482 0.297908 1.05698e-08 1.41457e+08 26.9986 1.05504e-08 3.08803e-07 4.8418e+06 2.55901e+09
7.81286 29.0743 0.351577 9.62719e-09 1.66936e+08 29.0214 9.60966e-09 2.66181e-07 6.03771e+06 3.02002e+09
8.25637 31.1964 0.414914 8.75297e-09 1.97025e+08 31.14 8.73715e-09 2.29336e-07 7.51977e+06 3.56409e+09
8.72507 33.4494 0.489662 7.95246e-09 2.32497e+08 33.3883 7.93793e-09 1.97503e-07 9.36148e+06 4.20617e+09
9.22037 35.8659 0.577876 7.22532e-09 2.74404e+08 35.8003 7.21211e-09 1.70014e-07 1.16617e+07 4.96392e+09
9.74378 38.4871 0.681982 6.56981e-09 3.2382e+08 38.416 6.55766e-09 1.46289e-07 1.45427e+07 5.85818e+09
10.2969 41.4329 0.804843 5.99299e-09 3.82165e+08 41.3531 5.98146e-09 1.25822e-07 1.82027e+07 6.91355e+09
10.8814 44.9157 0.949838 5.50501e-09 4.51027e+08 44.8237 5.49374e-09 1.08175e-07 2.29526e+07 8.15905e+09
11.4992 49.314 1.12095 5.12145e-09 5.32251e+08 49.2023 5.10985e-09 9.29669e-08 2.93212e+07 9.62892e+09
12.1519 55.3852 1.3229 4.87392e-09 6.28157e+08 55.2395 4.86109e-09 7.98658e-08 3.83342e+07 1.13636e+10
12.8418 62.0885 1.56122 4.62975e-09 3.82727e+08 64.2613 4.79176e-09 6.85852e-08 2.58354e+07 1.34108e+10
13.5708 0 1.84248 0 0 0 0 5.88765e-08 0 1.58268e+10
14.3411 0 2.17441 0 0 0 0 5.05241e-08 0 1.8678e+10
15.1552 0 2.56613 0 0 0 0 4.33417e-08 0 2.20429e+10
16.0156 0 3.02843 0 0 0 0 3.71677e-08 0 2.6014e+10
16.9247 0 3.574 0 0 0 0 3.18628e-08 0 3.07005e+10
17.8855 0 4.21787 0 0 0 0 2.73063e-08 0 3.62312e+10
18.9008 0 4.97773 0 0 0 0 2.33941e-08 0 4.27584e+10
19.9738 0 5.87448 0 0 0 0 2.00364e-08 0 5.04614e+10
21.1076 0 6.93279 0 0 0 0 1.71555e-08 0 5.95522e+10
22.3058 0 8.18175 0 0 0 0 1.46847e-08 0 7.02807e+10
23.5721 0 9.65571 0 0 0 0 1.25662e-08 0 8.29419e+10
24.9102 0 11.3952 0 0 0 0 1.07504e-08 0 9.78842e+10
26.3243 0 13.4481 0 0 0 0 9.19452e-09 0 1.15518e+11
27.8187 0 15.8708 0 0 0 0 7.86182e-09 0 1.36329e+11
29.3979 0 18.73 0 0 0 0 6.72061e-09 0 1.60889e+11
31.0667 0 22.1042 0 0 0 0 5.74366e-09 0 1.89874e+11
32.8303 0 26.0864 0 0 0 0 4.90756e-09 0 2.2408e+11
34.694 0 30.7859 0 0 0 0 4.19221e-09 0 2.64449e+11
36.6634 0 36.3321 0 0 0 0 3.58032e-09 0 3.1209e+11
38.7447 0 42.8774 0 0 0 0 3.05709e-09 0 3.68314e+11
40.9442 0 50.6018 0 0 0 0 2.60976e-09 0 4.34667e+11
43.2685 0 59.7179 0 0 0 0 2.22743e-09 0 5.12973e+11
45.7247 0 70.4762 0 0 0 0 1.90073e-09 0 6.05386e+11
48.3204 0 83.1727 0 0 0 0 1.62163e-09 0 7.14448e+11
51.0634 0 98.1565 0 0 0 0 1.38326e-09 0 8.43158e+11
53.9621 0 115.84 0 0 0 0 1.1797e-09 0 9.95055e+11
57.0254 0 136.709 0 0 0 0 1.00592e-09 0 1.17432e+12
60.2626 0 161.337 0 0 0 0 8.57591e-10 0 1.38587e+12
63.6835 0 190.402 0 0 0 0 7.3101e-10 0 1.63554e+12
67.2987 0 224.704 0 0 0 0 6.23009e-10 0 1.93019e+12
71.1191 0 265.185 0 0 0 0 5.30879e-10 0 2.27792e+12
75.1563 0 312.958 0 0 0 0 4.52303e-10 0 2.68829e+12
79.4227 0 369.339 0 0 0 0 3.85299e-10 0 3.17259e+12
83.9313 0 435.876 0 0 0 0 3.28173e-10 0 3.74415e+12
88.6959 0 514.4 0 0 0 0 2.79476e-10 0 4.41866e+12
93.7309 0 607.071 0 0 0 0 2.37972e-10 0 5.2147e+12
99.0518 0 716.436 0 0 0 0 2.02605e-10 0 6.15414e+12
104.675 0 845.504 0 0 0 0 1.72471e-10 0 7.26283e+12
110.617 0 997.824 0 0 0 0 1.468e-10 0 8.57124e+12
116.896 0 1177.58 0 0 0 0 1.24935e-10 0 1.01154e+13
123.532 0 1389.73 0 0 0 0 1.06313e-10 0 1.19377e+13
130.545 0 1640.09 0 0 0 0 9.04567e-11 0 1.40883e+13
137.955 0 1935.56 0 0 0 0 7.69563e-11 0 1.66263e+13
145.787 0 2284.26 0 0 0 0 6.54636e-11 0 1.96216e+13
154.063 0 2695.77 0 0 0 0 5.56812e-11 0 2.31565e+13
162.808 0 3181.42 0 0 0 0 4.73556e-11 0 2.73282e+13
172.051 0 3754.56 0 0 0 0 4.02708e-11 0 3.22515e+13
181.818 0 4430.96 0 0 0 0 3.42426e-11 0 3.80616e+13
192.139 0 5229.21 0 0 0 0 2.91139e-11 0 4.49186e+13
203.046 0 6171.26 0 0 0 0 2.4751e-11 0 5.30108e+13
214.572 0 7283.03 0 0 0 0 2.10401e-11 0 6.25608e+13
226.753 0 8595.09 0 0 0 0 1.78839e-11 0 7.38313e+13
239.625 0 10143.5 0 0 0 0 1.51999e-11 0 8.71322e+13
253.228 0 11970.9 0 0 0 0 1.29176e-11 0 1.02829e+14
267.603 0 14127.5 0 0 0 0 1.09771e-11 0 1.21354e+14
282.795 0 16672.6 0 0 0 0 9.3274e-12 0 1.43217e+14
298.848 0 19676.2 0 0 0 0 7.925e-12 0 1.69017e+14
315.813 0 23220.9 0 0 0 0 6.73295e-12 0 1.99466e+14
333.741 0 27404.3 0 0 0 0 5.71979e-12 0 2.35401e+14
352.686 0 32341.2 0 0 0 0 4.85874e-12 0 2.77809e+14
372.707 0 38167.6 0 0 0 0 4.12703e-12 0 3.27857e+14
393.865 0 45043.5 0 0 0 0 3.50528e-12 0 3.86921e+14
416.224 0 53158.3 0 0 0 0 2.97701e-12 0 4.56626e+14
439.852 0 62734.9 0 0 0 0 2.52819e-12 0 5.38888e+14
464.821 0 74036.7 0 0 0 0 2.1469e-12 0 6.35971e+14
491.207 0 87374.6 0 0 0 0 1.82301e-12 0 7.50542e+14
519.092 0 103115 0 0 0 0 1.54789e-12 0 8.85755e+14
548.56 0 121692 0 0 0 0 1.31422e-12 0 1.04533e+15
579.7 0 143615 0 0 0 0 1.11576e-12 0 1.23364e+15
612.608 0 169488 0 0 0 0 9.47223e-13 0 1.45589e+15
647.384 0 200021 0 0 0 0 8.041e-13 0 1.71817e+15
684.134 0 236056 0 0 0 0 6.82568e-13 0 2.0277e+15
722.971 0 278582 0 0 0 0 5.79376e-13 0 2.393e+15
764.012 0 328769 0 0 0 0 4.91762e-13 0 2.8241e+15
