0.955191
200
1.0655e+09
8589934592
0.0129181 0 1.58924e-09 0 0 0 0 0.00677225 0 13.6515
0.0136515 0 1.87554e-09 0 0 0 0 0.00688819 0 16.1108
0.0144264 0 2.21343e-09 0 0 0 0 0.00699249 0 19.0132
0.0152454 0 2.61218e-09 0 0 0 0 0.00708412 0 22.4385
0.0161108 0 3.08278e-09 0 0 0 0 0.00716212 0 26.4808
0.0170254 0 3.63815e-09 0 0 0 0 0.00722559 0 31.2514
0.0179919 0 4.29357e-09 0 0 0 0 0.00727371 0 36.8815
0.0190132 0 5.06707e-09 0 0 0 0 0.00730578 0 43.5258
0.0200925 0 5.97991e-09 0 0 0 0 0.00732122 0 51.367
0.0212331 0 7.05721e-09 0 0 0 0 0.00731958 0 60.621
0.0224385 0 8.32858e-09 0 0 0 0 0.00730056 0 71.542
0.0237123 0 9.829e-09 0 0 0 0 0.00726401 0 84.4305
0.0250583 0 1.15997e-08 0 0 0 0 0.00720995 0 99.6408
0.0264808 0 1.36894e-08 0 0 0 0 0.00713857 0 117.591
0.0279841 0 1.61556e-08 0 0 0 0 0.00705021 0 138.776
0.0295727 0 1.90661e-08 0 0 0 0 0.00694538 0 163.777
0.0312514 0 2.25009e-08 0 0 0 0 0.00682475 0 193.281
0.0330255 0 2.65545e-08 0 0 0 0 0.00668915 0 228.102
0.0349003 0 3.13384e-08 0 0 0 0 0.00653951 0 269.195
0.0368815 0 3.69841e-08 0 0 0 0 0.00637693 0 317.691
0.0389751 0 4.36469e-08 0 0 0 0 0.00620256 0 374.924
0.0411876 0 5.151e-08 0 0 0 0 0.00601767 0 442.467
0.0435258 0 6.07896e-08 0 0 0 0 0.00582358 0 522.179
0.0459966 0 7.1741e-08 0 0 0 0 0.00562166 0 616.251
0.0486077 0 8.46654e-08 0 0 0 0 0.0054133 0 727.27
0.051367 0 9.99181e-08 0 0 0 0 0.00519989 0 858.29
0.054283 0 1.17919e-07 0 0 0 0 0.0049828 0 1012.91
0.0573645 0 1.39162e-07 0 0 0 0 0.00476339 0 1195.39
0.060621 0 1.64232e-07 0 0 0 0 0.00454293 0 1410.75
0.0640622 0 1.93819e-07 0 0 0 0 0.00432265 0 1664.89
0.0676989 0 2.28736e-07 0 0 0 0 0.00410371 0 1964.83
0.071542 0 2.69944e-07 0 0 0 0 0.00388717 0 2318.8
0.0756032 0 3.18575e-07 0 0 0 0 0.00367401 0 2736.54
0.079895 0 3.75967e-07 0 0 0 0 0.0034651 0 3229.53
0.0844305 0 4.43698e-07 0 0 0 0 0.00326121 0 3811.34
0.0892234 0 5.23632e-07 0 0 0 0 0.00306301 0 4497.96
0.0942883 0 6.17966e-07 0 0 0 0 0.00287109 0 5308.28
0.0996408 0 7.29294e-07 0 0 0 0 0.00268591 0 6264.59
0.105297 0 8.60678e-07 0 0 0 0 0.00250785 0 7393.17
0.111275 0 1.01573e-06 0 0 0 0 0.00233721 0 8725.07
0.117591 0 1.19872e-06 0 0 0 0 0.00217419 0 10296.9
0.124267 0 1.41467e-06 0 0 0 0 0.00201893 0 12151.9
0.131321 0 1.66953e-06 0 0 0 0 0.00187147 0 14341.1
0.138776 0 1.9703e-06 0 0 0 0 0.00173182 0 16924.7
0.146654 0 2.32525e-06 0 0 0 0 0.00159991 0 19973.8
0.154979 0 2.74415e-06 0 0 0 0 0.00147563 0 23572.1
0.163777 0 3.23852e-06 0 0 0 0 0.00135884 0 27818.7
0.173074 0 3.82195e-06 0 0 0 0 0.00124933 0 32830.3
0.182899 0 4.51048e-06 0 0 0 0 0.00114689 0 38744.7
0.193281 0 5.32305e-06 0 0 0 0 0.00105127 0 45724.7
0.204254 0 6.28202e-06 0 0 0 0 0.000962209 0 53962.1
0.215848 0 7.41374e-06 0 0 0 0 0.000879423 0 63683.5
0.228102 0 8.74934e-06 0 0 0 0 0.000802624 0 75156.3
0.24105 0 1.03256e-05 0 0 0 0 0.000731515 0 88695.9
0.254734 0 1.21857e-05 0 0 0 0 0.000665798 0 104675
0.269195 0 1.4381e-05 0 0 0 0 0.000605173 0 123532
0.284476 0 1.69718e-05 0 0 0 0 0.000549345 0 145787
0.300625 0 2.00293e-05 0 0 0 0 0.000498021 0 172051
0.317691 0 2.36377e-05 0 0 0 0 0.000450916 0 203046
0.335725 0 2.78961e-05 0 0 0 0 0.000407755 0 239625
0.354784 0 3.29216e-05 0 0 0 0 0.000368269 0 282795
0.374924 0 3.88525e-05 0 0 0 0 0.000332202 0 333741
0.396207 1.65232 4.58519e-05 4.19515e-06 6 1.60639 4.07852e-06 0.000299307 0.0840973 393865
0.418699 0 5.41123e-05 0 0 0 0 0.00026935 0 464821
0.442467 0 6.38607e-05 0 0 0 0 0.000242108 0 548560
0.467585 0 7.53654e-05 0 0 0 0 0.00021737 0 647384
0.494129 0 8.89427e-05 0 0 0 0 0.000194938 0 764012
0.522179 0 0.000104966 0 0 0 0 0.000174625 0 901651
0.551822 0 0.000123876 0 0 0 0 0.000156255 0 1.06409e+06
0.583147 6.55698 0.000146192 5.22142e-06 12 6.90125 5.49557e-06 0.000139664 0.448627 1.25578e+06
0.616251 0 0.000172529 0 0 0 0 0.0001247 0 1.48202e+06
0.651234 0 0.000203611 0 0 0 0 0.00011122 0 1.74901e+06
0.688203 14.6923 0.000240292 7.11802e-06 8 14.3267 6.94093e-06 9.90935e-05 0.574651 2.06409e+06
0.72727 0 0.000283581 0 0 0 0 8.81969e-05 0 2.43595e+06
0.768555 0 0.000334669 0 0 0 0 7.84179e-05 0 2.87479e+06
0.812184 10.6577 0.000394961 3.14138e-06 6 10.8856 3.20854e-06 6.96525e-05 0.270604 3.39269e+06
0.85829 0 0.000466114 0 0 0 0 6.1805e-05 0 4.00389e+06
0.907013 1.42288 0.000550086 3.01126e-07 24 1.45018 3.06904e-07 5.47875e-05 0.13191 4.7252e+06
0.958501 4.68726 0.000649185 8.40544e-07 24 4.41271 7.9131e-07 4.85194e-05 0.415773 5.57646e+06
1.01291 0 0.000766138 0 0 0 0 4.29272e-05 0 6.58107e+06
1.07041 0 0.00090416 0 0 0 0 3.79435e-05 0 7.76667e+06
1.13118 10.4911 0.00106705 1.14459e-06 12 10.3623 1.13053e-06 3.3507e-05 0.409916 9.16586e+06
1.19539 3.71875 0.00125928 3.43784e-07 30 3.64209 3.36697e-07 2.9562e-05 0.348878 1.08171e+07
1.26325 9.8432 0.00148614 7.71058e-07 24 9.69509 7.59455e-07 2.60578e-05 0.710166 1.27658e+07
1.33496 20.8673 0.00175387 1.38509e-06 24 20.9132 1.38814e-06 2.29484e-05 1.44856 1.50656e+07
1.41075 18.9073 0.00206984 1.06342e-06 32 19.2219 1.08111e-06 2.01923e-05 1.68526 1.77798e+07
1.49083 4.37932 0.00244272 2.0871e-07 48 4.28596 2.0426e-07 1.77518e-05 0.564342 2.09828e+07
1.57546 31.3997 0.00288279 1.26801e-06 6 29.8996 1.20743e-06 1.55929e-05 0.48792 2.4763e+07
1.66489 8.16488 0.00340213 2.79389e-07 84 7.88819 2.69921e-07 1.3685e-05 1.71492 2.92241e+07
1.75941 10.6269 0.00401503 3.08126e-07 48 10.4362 3.02595e-07 1.20007e-05 1.23244 3.44889e+07
1.85928 7.4258 0.00473835 1.82443e-07 72 7.44916 1.83017e-07 1.05151e-05 1.24924 4.07021e+07
1.96483 16.8826 0.00559198 3.51467e-07 54 16.5074 3.43655e-07 9.20606e-06 2.0616 4.80347e+07
2.07637 15.0548 0.00659939 2.65571e-07 104 15.203 2.68186e-07 8.05366e-06 3.42942 5.66883e+07
2.19424 11.4402 0.00778828 1.71002e-07 120 11.6308 1.73851e-07 7.04008e-06 2.91478 6.69008e+07
2.3188 10.7781 0.00919136 1.36512e-07 156 10.4969 1.32951e-07 6.1494e-06 3.46308 7.89532e+07
2.45043 14.9992 0.0108472 1.60976e-07 126 15.0077 1.61067e-07 5.36741e-06 3.77891 9.31768e+07
2.58954 12.8891 0.0128014 1.17213e-07 192 12.9513 1.17779e-07 4.68145e-06 4.80726 1.09963e+08
2.73654 37.4676 0.0151076 2.88716e-07 152 37.8395 2.91582e-07 4.08023e-06 10.7555 1.29773e+08
2.89188 19.035 0.0178292 1.24288e-07 378 19.1263 1.24884e-07 3.55373e-06 13.2202 1.53152e+08
3.05605 19.6139 0.0210412 1.08518e-07 264 19.3154 1.06867e-07 3.09304e-06 9.26235 1.80743e+08
3.22953 20.4877 0.0248319 9.60492e-08 366 20.5071 9.614e-08 2.69025e-06 13.0672 2.13304e+08
3.41286 16.332 0.0293054 6.48786e-08 428 16.1604 6.4197e-08 2.33837e-06 11.8749 2.51731e+08
3.6066 23.4244 0.0345848 7.88485e-08 486 23.017 7.74771e-08 2.0312e-06 18.8658 2.97081e+08
3.81134 19.8279 0.0408154 5.6554e-08 600 19.8723 5.66806e-08 1.76327e-06 19.2441 3.50601e+08
4.0277 27.0292 0.0481684 6.53254e-08 738 27.0753 6.54367e-08 1.52972e-06 31.5156 4.13763e+08
4.25634 27.0102 0.056846 5.53143e-08 824 26.8979 5.50844e-08 1.32631e-06 34.3654 4.88304e+08
4.49796 27.7898 0.067087 4.82233e-08 954 27.5696 4.78413e-08 1.14926e-06 40.0302 5.76273e+08
4.7533 31.7441 0.0791729 4.66763e-08 1094 31.5097 4.63317e-08 9.95263e-07 51.3069 6.8009e+08
5.02313 30.5187 0.0934361 3.80244e-08 1332 30.7043 3.82555e-08 8.61414e-07 58.7969 8.0261e+08
5.30828 38.4264 0.110269 4.05683e-08 1614 38.4801 4.0625e-08 7.45152e-07 87.871 9.47202e+08
5.60962 43.4076 0.130134 3.88315e-08 1850 43.5939 3.89982e-08 6.44232e-07 111.51 1.11784e+09
5.92807 38.6982 0.153578 2.9334e-08 2238 38.7092 2.93423e-08 5.56685e-07 117.929 1.31923e+09
6.26459 41.727 0.181246 2.68016e-08 2546 41.8367 2.6872e-08 4.80786e-07 141.927 1.55689e+09
6.62021 43.7679 0.213898 2.3821e-08 3264 43.8023 2.38397e-08 4.15026e-07 187.342 1.83737e+09
6.99602 47.4423 0.252432 2.18792e-08 3506 47.4954 2.19037e-08 3.58083e-07 214.22 2.16837e+09
7.39317 53.1767 0.297908 2.07802e-08 4506 53.1559 2.07721e-08 3.08803e-07 303.22 2.55901e+09
7.81286 56.7639 0.351577 1.87959e-08 5018 56.5433 1.87228e-08 2.66181e-07 354.336 3.02002e+09
8.25637 60.515 0.414914 1.69791e-08 5852 60.5023 1.69755e-08 2.29336e-07 433.258 3.56409e+09
8.72507 62.9885 0.489662 1.49753e-08 7362 62.9126 1.49572e-08 1.97503e-07 558.209 4.20617e+09
9.22037 66.7839 0.577876 1.34539e-08 8306 66.5038 1.33974e-08 1.70014e-07 657.285 4.96392e+09
9.74378 73.0811 0.681982 1.2475e-08 9698 73.0408 1.24682e-08 1.46289e-07 827.013 5.85818e+09
10.2969 77.5461 0.804843 1.12165e-08 11816 77.3914 1.11942e-08 1.25822e-07 1053.35 6.91355e+09
10.8814 89.5977 0.949838 1.09814e-08 13682 89.2759 1.09419e-08 1.08175e-07 1388.92 8.15905e+09
11.4992 89.1507 1.12095 9.25864e-09 16152 89.0425 9.2474e-09 9.29669e-08 1608.59 9.62892e+09
12.1519 92.4168 1.3229 8.1327e-09 19472 92.2443 8.11753e-09 7.98658e-08 1982.83 1.13636e+10
12.8418 97.3316 1.56122 7.25771e-09 22670 97.0601 7.23747e-09 6.85852e-08 2398.95 1.34108e+10
13.5708 104.29 1.84248 6.58949e-09 26224 104.114 6.57837e-09 5.88765e-08 2935.01 1.58268e+10
14.3411 111.197 2.17441 5.95339e-09 31640 111.155 5.95114e-09 5.05241e-08 3728.22 1.8678e+10
15.1552 117.306 2.56613 5.32171e-09 37484 117.087 5.31179e-09 4.33417e-08 4602.47 2.20429e+10
16.0156 126.441 3.02843 4.86049e-09 43856 126.196 4.85107e-09 3.71677e-08 5735.13 2.6014e+10
16.9247 133.484 3.574 4.34796e-09 51362 133.324 4.34273e-09 3.18628e-08 7008.8 3.07005e+10
17.8855 139.265 4.21787 3.84377e-09 61636 139.043 3.83765e-09 2.73063e-08 8676.19 3.62312e+10
18.9008 148.941 4.97773 3.48331e-09 72218 148.638 3.47623e-09 2.33941e-08 10753 4.27584e+10
19.9738 157.742 5.87448 3.12598e-09 84586 157.468 3.12056e-09 2.00364e-08 13196.7 5.04614e+10
21.1076 170.657 6.93279 2.86567e-09 100708 170.387 2.86113e-09 1.71555e-08 16822.3 5.95522e+10
22.3058 180.212 8.18175 2.56418e-09 118712 179.839 2.55887e-09 1.46847e-08 20729 7.02807e+10
23.5721 189.318 9.65571 2.28254e-09 140410 188.884 2.2773e-09 1.25662e-08 25504.3 8.29419e+10
24.9102 196.002 11.3952 2.00239e-09 164374 195.614 1.99843e-09 1.07504e-08 30616.7 9.78842e+10
26.3243 207.331 13.4481 1.79479e-09 194680 206.987 1.79181e-09 9.19452e-09 38002 1.15518e+11
27.8187 220.023 15.8708 1.61391e-09 230196 219.66 1.61125e-09 7.86182e-09 47255.6 1.36329e+11
29.3979 232.52 18.73 1.44522e-09 271156 232.137 1.44284e-09 6.72061e-09 58310.1 1.60889e+11
31.0667 245.546 22.1042 1.29321e-09 321076 245.082 1.29076e-09 5.74366e-09 72291.5 1.89874e+11
32.8303 259.208 26.0864 1.15677e-09 377436 258.746 1.1547e-09 4.90756e-09 88965.9 2.2408e+11
34.694 271.92 30.7859 1.02825e-09 447594 271.389 1.02624e-09 4.19221e-09 109785 2.64449e+11
36.6634 286.206 36.3321 9.17062e-10 525078 285.644 9.15262e-10 3.58032e-09 134493 3.1209e+11
38.7447 302.309 42.8774 8.20792e-10 621924 301.729 8.19218e-10 3.05709e-09 166979 3.68314e+11
40.9442 316.971 50.6018 7.29229e-10 732630 316.339 7.27774e-10 2.60976e-09 204714 4.34667e+11
43.2685 334.086 59.7179 6.51274e-10 865596 333.548 6.50226e-10 2.22743e-09 253090 5.12973e+11
45.7247 351.878 70.4762 5.81246e-10 1.02168e+06 351.357 5.80385e-10 1.90073e-09 312430 6.05386e+11
48.3204 367.861 83.1727 5.14889e-10 1.20544e+06 367.143 5.13883e-10 1.62163e-09 382741 7.14448e+11
51.0634 386.397 98.1565 4.58273e-10 1.42103e+06 385.746 4.57501e-10 1.38326e-09 470788 8.43158e+11
53.9621 405.483 115.84 4.07498e-10 1.67997e+06 404.826 4.06838e-10 1.1797e-09 580302 9.95055e+11
57.0254 426.074 136.709 3.62827e-10 1.98018e+06 425.314 3.6218e-10 1.00592e-09 714235 1.17432e+12
60.2626 446.789 161.337 3.22388e-10 2.33957e+06 445.99 3.21811e-10 8.57591e-10 879498 1.38587e+12
63.6835 469.725 190.402 2.87198e-10 2.75676e+06 468.896 2.86691e-10 7.3101e-10 1.08307e+06 1.63554e+12
67.2987 493.994 224.704 2.5593e-10 3.25638e+06 493.191 2.55514e-10 6.23009e-10 1.33771e+06 1.93019e+12
71.1191 519.714 265.185 2.28153e-10 3.84387e+06 518.833 2.27766e-10 5.30879e-10 1.65196e+06 2.27792e+12
75.1563 547.433 312.958 2.03636e-10 4.53277e+06 546.451 2.03271e-10 4.52303e-10 2.04074e+06 2.68829e+12
79.4227 577.832 369.339 1.82132e-10 5.35083e+06 576.835 1.81818e-10 3.85299e-10 2.52935e+06 3.17259e+12
83.9313 611.265 435.876 1.63259e-10 6.32174e+06 610.119 1.62953e-10 3.28173e-10 3.14493e+06 3.74415e+12
88.6959 646.704 514.4 1.46357e-10 7.44986e+06 645.451 1.46074e-10 2.79476e-10 3.90138e+06 4.41866e+12
93.7309 686.981 607.071 1.31739e-10 8.79764e+06 685.669 1.31488e-10 2.37972e-10 4.87029e+06 5.2147e+12
99.0518 732.084 716.436 1.18958e-10 1.03827e+07 730.661 1.18727e-10 2.02605e-10 6.09612e+06 6.15414e+12
104.675 783.421 845.504 1.07867e-10 1.22515e+07 781.841 1.0765e-10 1.72471e-10 7.66238e+06 7.26283e+12
110.617 843.144 997.824 9.83689e-11 1.44573e+07 841.394 9.81648e-11 1.468e-10 9.68767e+06 8.57124e+12
116.896 912.881 1177.58 9.02469e-11 1.70664e+07 910.898 9.00508e-11 1.24935e-10 1.2328e+07 1.01154e+13
123.532 993.746 1389.73 8.32444e-11 2.0139e+07 991.493 8.30557e-11 1.06313e-10 1.57691e+07 1.19377e+13
130.545 1088.87 1640.09 7.72891e-11 2.37643e+07 1086.3 7.71065e-11 9.04567e-11 2.0305e+07 1.40883e+13
137.955 1201.15 1935.56 7.22437e-11 2.80503e+07 1198.19 7.20657e-11 7.69563e-11 2.63326e+07 1.66263e+13
145.787 1333.42 2284.26 6.79568e-11 3.30981e+07 1330.03 6.7784e-11 6.54636e-11 3.43587e+07 1.96216e+13
154.063 1491.54 2695.77 6.44114e-11 3.90634e+07 1487.58 6.42402e-11 5.56812e-11 4.51882e+07 2.31565e+13
162.808 1679.52 3181.42 6.14572e-11 4.61057e+07 1674.9 6.12884e-11 4.73556e-11 5.9835e+07 2.73282e+13
172.051 1902.76 3754.56 5.89976e-11 5.44046e+07 1897.38 5.88308e-11 4.02708e-11 7.97038e+07 3.22515e+13
181.818 2169.35 4430.96 5.69956e-11 6.42064e+07 2163.04 5.68299e-11 3.42426e-11 1.06869e+08 3.80616e+13
192.139 2488.11 5229.21 5.53915e-11 7.57748e+07 2480.67 5.5226e-11 2.91139e-11 1.44168e+08 4.49186e+13
203.046 2868.75 6171.26 5.41163e-11 8.94213e+07 2859.98 5.39509e-11 2.4751e-11 1.95513e+08 5.30108e+13
214.572 3325.01 7283.03 5.31484e-11 1.05538e+08 3314.65 5.29829e-11 2.10401e-11 2.66596e+08 6.25608e+13
226.753 3872.85 8595.09 5.24554e-11 1.24552e+08 3860.47 5.22877e-11 1.78839e-11 3.65324e+08 7.38313e+13
239.625 4531.64 10143.5 5.20088e-11 1.46987e+08 4516.88 5.18394e-11 1.51999e-11 5.02939e+08 8.71322e+13
253.228 5324.1 11970.9 5.17761e-11 1.7347e+08 5306.46 5.16046e-11 1.29176e-11 6.95299e+08 1.02829e+14
267.603 6285.2 14127.5 5.17922e-11 2.04703e+08 6263.92 5.16168e-11 1.09771e-11 9.65826e+08 1.21354e+14
282.795 7456.04 16672.6 5.20613e-11 2.4161e+08 7430.37 5.18821e-11 9.3274e-12 1.34856e+09 1.43217e+14
298.848 8894.94 19676.2 5.26273e-11 2.85122e+08 8863.55 5.24416e-11 7.925e-12 1.8934e+09 1.69017e+14
315.813 10685.3 23220.9 5.35696e-11 3.36491e+08 10646.5 5.33748e-11 6.73295e-12 2.67724e+09 1.99466e+14
333.741 12947.2 27404.3 5.50005e-11 3.97115e+08 12898.1 5.47922e-11 5.71979e-12 3.81859e+09 2.35401e+14
352.686 15872.7 32341.2 5.71353e-11 4.68637e+08 15809.7 5.69087e-11 4.85874e-12 5.51084e+09 2.77809e+14
372.707 19773.8 38167.6 6.03124e-11 5.53074e+08 19690.6 6.00586e-11 4.12703e-12 8.08262e+09 3.27857e+14
393.865 25170 45043.5 6.50521e-11 6.52716e+08 25055.7 6.47567e-11 3.50528e-12 1.21133e+10 3.86921e+14
416.224 29709.8 53158.3 6.50638e-11 2.2184e+08 31430.1 6.88312e-11 2.97701e-12 4.8484e+09 4.56626e+14
439.852 0 62734.9 0 0 0 0 2.52819e-12 0 5.38888e+14
464.821 0 74036.7 0 0 0 0 2.1469e-12 0 6.35971e+14
491.207 0 87374.6 0 0 0 0 1.82301e-12 0 7.50542e+14
519.092 0 103115 0 0 0 0 1.54789e-12 0 8.85755e+14
548.56 0 121692 0 0 0 0 1.31422e-12 0 1.04533e+15
579.7 0 143615 0 0 0 0 1.11576e-12 0 1.23364e+15
612.608 0 169488 0 0 0 0 9.47223e-13 0 1.45589e+15
647.384 0 200021 0 0 0 0 8.041e-13 0 1.71817e+15
684.134 0 236056 0 0 0 0 6.82568e-13 0 2.0277e+15
722.971 0 278582 0 0 0 0 5.79376e-13 0 2.393e+15
764.012 0 328769 0 0 0 0 4.91762e-13 0 2.8241e+15
0.955191
200
1.0655e+09
8589934592
0.0129181 0.0019152 1.58924e-09 0.000140293 6 0.00189767 0.000139008 0.00677225 0.124295 13.6515
0.0136515 0 1.87554e-09 0 0 0 0 0.00688819 0 16.1108
0.0144264 0 2.21343e-09 0 0 0 0 0.00699249 0 19.0132
0.0152454 0 2.61218e-09 0 0 0 0 0.00708412 0 22.4385
0.0161108 0 3.08278e-09 0 0 0 0 0.00716212 0 26.4808
0.0170254 0 3.63815e-09 0 0 0 0 0.00722559 0 31.2514
0.0179919 0.00427172 4.29357e-09 0.000115823 12 0.00426622 0.000115674 0.00727371 0.191082 36.8815
0.0190132 0 5.06707e-09 0 0 0 0 0.00730578 0 43.5258
0.0200925 0 5.97991e-09 0 0 0 0 0.00732122 0 51.367
0.0212331 0.00404836 7.05721e-09 6.67816e-05 8 0.00404484 6.67235e-05 0.00731958 0.0729895 60.621
0.0224385 0 8.32858e-09 0 0 0 0 0.00730056 0 71.542
0.0237123 0 9.829e-09 0 0 0 0 0.00726401 0 84.4305
0.0250583 0.0254888 1.15997e-08 0.000255807 6 0.0254768 0.000255686 0.00720995 0.212878 99.6408
0.0264808 0 1.36894e-08 0 0 0 0 0.00713857 0 117.591
0.0279841 0.0156897 1.61556e-08 0.000113058 24 0.0156736 0.000112942 0.00705021 0.384866 138.776
0.0295727 0 1.90661e-08 0 0 0 0 0.00694538 0 163.777
0.0312514 0.0278326 2.25009e-08 0.000144 24 0.0279739 0.000144731 0.00682475 0.506393 193.281
0.0330255 0 2.65545e-08 0 0 0 0 0.00668915 0 228.102
0.0349003 0.0424989 3.13384e-08 0.000157874 12 0.0421586 0.00015661 0.00653951 0.289699 269.195
0.0368815 0.033838 3.69841e-08 0.000106512 30 0.0334777 0.000105378 0.00637693 0.501083 317.691
0.0389751 0.0381595 4.36469e-08 0.000101779 24 0.037767 0.000100732 0.00620256 0.393822 374.924
0.0411876 0.0245365 5.151e-08 5.54539e-05 24 0.0243699 5.50773e-05 0.00601767 0.221164 442.467
0.0435258 0.0614081 6.07896e-08 0.0001176 8 0.0614034 0.000117591 0.00582358 0.16155 522.179
0.0459966 0.0750287 7.1741e-08 0.00012175 72 0.0744371 0.00012079 0.00562166 1.55933 616.251
0.0486077 0 8.46654e-08 0 0 0 0 0.0054133 0 727.27
0.051367 0.102326 9.99181e-08 0.000119221 54 0.101986 0.000118824 0.00519989 1.23809 858.29
0.054283 0.0828959 1.17919e-07 8.18391e-05 60 0.0832747 8.22131e-05 0.0049828 0.985458 1012.91
0.0573645 0.077164 1.39162e-07 6.45512e-05 96 0.0769663 6.43858e-05 0.00476339 1.30095 1195.39
0.060621 0.0919474 1.64232e-07 6.51765e-05 24 0.0907017 6.42935e-05 0.00454293 0.344323 1410.75
0.0640622 0.157424 1.93819e-07 9.45548e-05 134 0.157492 9.45959e-05 0.00432265 2.93115 1664.89
0.0676989 0.15443 2.28736e-07 7.85971e-05 120 0.153671 7.82107e-05 0.00410371 2.29832 1964.83
0.071542 0.145926 2.69944e-07 6.29317e-05 108 0.144308 6.22341e-05 0.00388717 1.74848 2318.8
0.0756032 0.216229 3.18575e-07 7.90154e-05 174 0.215024 7.85751e-05 0.00367401 3.74214 2736.54
0.079895 0.225986 3.75967e-07 6.99749e-05 168 0.223861 6.9317e-05 0.0034651 3.39263 3229.53
0.0844305 0.188034 4.43698e-07 4.93354e-05 168 0.188964 4.95793e-05 0.00326121 2.5415 3811.34
0.0892234 0.226665 5.23632e-07 5.03927e-05 290 0.225587 5.01532e-05 0.00306301 4.77108 4497.96
0.0942883 0.271479 6.17966e-07 5.11425e-05 288 0.270906 5.10346e-05 0.00287109 5.13012 5308.28
0.0996408 0.243707 7.29294e-07 3.89023e-05 366 0.241853 3.86064e-05 0.00268591 5.30109 6264.59
0.105297 0.287977 8.60678e-07 3.89518e-05 420 0.285914 3.86727e-05 0.00250785 6.52341 7393.17
0.111275 0.307918 1.01573e-06 3.52912e-05 398 0.307074 3.51945e-05 0.00233721 6.00969 8725.07
0.117591 0.365622 1.19872e-06 3.5508e-05 624 0.366671 3.56098e-05 0.00217419 10.1909 10296.9
0.124267 0.426473 1.41467e-06 3.50951e-05 642 0.425486 3.50138e-05 0.00201893 11.1599 12151.9
0.131321 0.499352 1.66953e-06 3.48196e-05 800 0.499458 3.48269e-05 0.00187147 14.8844 14341.1
0.138776 0.463965 1.9703e-06 2.74135e-05 858 0.465915 2.75287e-05 0.00173182 13.5815 16924.7
0.146654 0.5427 2.32525e-06 2.71706e-05 1080 0.547197 2.73958e-05 0.00159991 18.3412 19973.8
0.154979 0.631237 2.74415e-06 2.6779e-05 1286 0.63519 2.69467e-05 0.00147563 23.3376 23572.1
0.163777 0.620651 3.23852e-06 2.23106e-05 1650 0.622449 2.23752e-05 0.00135884 27.0911 27818.7
0.173074 0.689888 3.82195e-06 2.10138e-05 1778 0.690444 2.10307e-05 0.00124933 29.906 32830.3
0.182899 0.75006 4.51048e-06 1.9359e-05 2112 0.751755 1.94028e-05 0.00114689 35.6496 38744.7
0.193281 0.827524 5.32305e-06 1.8098e-05 2570 0.82811 1.81108e-05 0.00105127 44.2433 45724.7
0.204254 0.969832 6.28202e-06 1.79725e-05 3030 0.969175 1.79603e-05 0.000962209 56.5953 53962.1
0.215848 1.01278 7.41374e-06 1.59033e-05 3434 1.01237 1.58969e-05 0.000879423 62.0998 63683.5
0.228102 1.07785 8.74934e-06 1.43415e-05 4218 1.07712 1.43318e-05 0.000802624 75.3684 75156.3
0.24105 1.20152 1.03256e-05 1.35465e-05 4766 1.20225 1.35547e-05 0.000731515 88.2587 88695.9
0.254734 1.31024 1.21857e-05 1.25172e-05 6026 1.31019 1.25167e-05 0.000665798 113.291 104675
0.269195 1.4995 1.4381e-05 1.21385e-05 6480 1.49815 1.21276e-05 0.000605173 129.975 123532
0.284476 1.61661 1.69718e-05 1.10888e-05 8162 1.61936 1.11077e-05 0.000549345 164.755 145787
0.300625 1.79198 2.00293e-05 1.04154e-05 9578 1.79251 1.04185e-05 0.000498021 200.31 172051
0.317691 1.99371 2.36377e-05 9.819e-06 11234 1.99213 9.81123e-06 0.000450916 244.628 203046
0.335725 2.14361 2.78961e-05 8.94566e-06 13344 2.13972 8.92943e-06 0.000407755 292.751 239625
0.354784 2.42466 3.29216e-05 8.57394e-06 15464 2.42314 8.56854e-06 0.000368269 360.028 282795
0.374924 2.6296 3.88525e-05 7.87917e-06 18458 2.62689 7.87105e-06 0.000332202 437.788 333741
0.396207 3.048 4.58519e-05 7.73869e-06 22232 3.04289 7.72571e-06 0.000299307 574.817 393865
0.418699 3.27984 5.41123e-05 7.05613e-06 25628 3.2718 7.03885e-06 0.00026935 671.374 464821
0.442467 3.59969 6.38607e-05 6.56208e-06 30320 3.59349 6.55078e-06 0.000242108 821.791 548560
0.467585 4.07631 7.53654e-05 6.29658e-06 35452 4.06877 6.28494e-06 0.00021737 1026.94 647384
0.494129 4.52318 8.89427e-05 5.9203e-06 41792 4.51796 5.91347e-06 0.000194938 1269.23 764012
0.522179 5.09573 0.000104966 5.65156e-06 49988 5.09497 5.65071e-06 0.000174625 1617.81 901651
0.551822 5.70865 0.000123876 5.36484e-06 59110 5.70099 5.35764e-06 0.000156255 2029.48 1.06409e+06
0.583147 6.36585 0.000146192 5.06923e-06 69716 6.35571 5.06115e-06 0.000139664 2530.4 1.25578e+06
0.616251 7.12648 0.000172529 4.80864e-06 82210 7.11235 4.7991e-06 0.0001247 3170.15 1.48202e+06
0.651234 7.85961 0.000203611 4.49376e-06 96722 7.84229 4.48386e-06 0.00011122 3907.96 1.74901e+06
0.688203 8.9316 0.000240292 4.32713e-06 113098 8.91695 4.32003e-06 9.90935e-05 4938.67 2.06409e+06
0.72727 10.0244 0.000283581 4.11518e-06 135190 10.0094 4.10903e-06 8.81969e-05 6307.84 2.43595e+06
0.768555 11.195 0.000334669 3.89421e-06 158170 11.1766 3.88782e-06 7.84179e-05 7854.67 2.87479e+06
0.812184 12.566 0.000394961 3.70383e-06 188560 12.5457 3.69785e-06 6.96525e-05 10026.8 3.39269e+06
0.85829 14.0625 0.000466114 3.5122e-06 220444 14.0392 3.50639e-06 6.1805e-05 12527.2 4.00389e+06
0.907013 15.7107 0.000550086 3.32487e-06 261388 15.6841 3.31925e-06 5.47875e-05 15862.8 4.7252e+06
0.958501 17.6071 0.000649185 3.1574e-06 308244 17.5797 3.15249e-06 4.85194e-05 20059 5.57646e+06
1.01291 19.7546 0.000766138 3.00173e-06 364396 19.7207 2.99658e-06 4.29272e-05 25480.8 6.58107e+06
1.07041 21.9894 0.00090416 2.83125e-06 429162 21.949 2.82605e-06 3.79435e-05 32023 7.76667e+06
1.13118 24.5367 0.00106705 2.67697e-06 506358 24.4945 2.67236e-06 3.3507e-05 40454.3 9.16586e+06
1.19539 27.4237 0.00125928 2.53522e-06 598590 27.3724 2.53048e-06 2.9562e-05 51334.7 1.08171e+07
1.26325 30.4621 0.00148614 2.38622e-06 704844 30.4086 2.38203e-06 2.60578e-05 64545.4 1.27658e+07
1.33496 33.8366 0.00175387 2.24595e-06 834620 33.7706 2.24156e-06 2.29484e-05 81683.6 1.50656e+07
1.41075 37.5387 0.00206984 2.11132e-06 981444 37.4681 2.10735e-06 2.01923e-05 102620 1.77798e+07
1.49083 41.4353 0.00244272 1.97472e-06 1.15998e+06 41.3599 1.97113e-06 1.77518e-05 129037 2.09828e+07
1.57546 45.7367 0.00288279 1.84698e-06 1.36931e+06 45.6537 1.84363e-06 1.55929e-05 162195 2.4763e+07
1.66489 50.3676 0.00340213 1.7235e-06 1.61652e+06 50.2752 1.72034e-06 1.3685e-05 203585 2.92241e+07
1.75941 55.418 0.00401503 1.60684e-06 1.90601e+06 55.3144 1.60383e-06 1.20007e-05 255206 3.44889e+07
1.85928 60.7861 0.00473835 1.49344e-06 2.24913e+06 60.673 1.49066e-06 1.05151e-05 319439 4.07021e+07
1.96483 66.3478 0.00559198 1.38125e-06 2.65744e+06 66.2271 1.37873e-06 9.20606e-06 398713 4.80347e+07
2.07637 72.3167 0.00659939 1.27569e-06 3.13125e+06 72.1894 1.27345e-06 8.05366e-06 495987 5.66883e+07
2.19424 78.9603 0.00778828 1.18026e-06 3.69915e+06 78.8172 1.17812e-06 7.04008e-06 620157 6.69008e+07
2.3188 85.7107 0.00919136 1.08559e-06 4.36472e+06 85.5619 1.0837e-06 6.1494e-06 770529 7.89532e+07
2.45043 93.1628 0.0108472 9.99849e-07 5.14913e+06 92.9965 9.98064e-07 5.36741e-06 959187 9.31768e+07
2.58954 100.822 0.0128014 9.16877e-07 6.07894e+06 100.654 9.15347e-07 4.68145e-06 1.19058e+06 1.09963e+08
2.73654 109.197 0.0151076 8.41446e-07 7.17304e+06 109.009 8.39996e-07 4.08023e-06 1.47926e+06 1.29773e+08
2.89188 117.853 0.0178292 7.69515e-07 8.46557e+06 117.656 7.68228e-07 3.55373e-06 1.83311e+06 1.53152e+08
3.05605 127.048 0.0210412 7.02924e-07 9.98773e+06 126.835 7.01741e-07 3.09304e-06 2.26981e+06 1.80743e+08
3.22953 136.719 0.0248319 6.40956e-07 1.1797e+07 136.49 6.39883e-07 2.69025e-06 2.81066e+06 2.13304e+08
3.41286 146.959 0.0293054 5.83795e-07 1.39144e+07 146.708 5.82798e-07 2.33837e-06 3.47384e+06 2.51731e+08
3.6066 157.759 0.0345848 5.31029e-07 1.64163e+07 157.489 5.30121e-07 2.0312e-06 4.2918e+06 2.97081e+08
3.81134 169.357 0.0408154 4.83047e-07 1.93821e+07 169.079 4.82253e-07 1.76327e-06 5.30974e+06 3.50601e+08
4.0277 181.501 0.0481684 4.38659e-07 2.28754e+07 181.196 4.37922e-07 1.52972e-06 6.55969e+06 4.13763e+08
4.25634 194.075 0.056846 3.97447e-07 2.69929e+07 193.747 3.96775e-07 1.32631e-06 8.0888e+06 4.88304e+08
4.49796 207.356 0.067087 3.59823e-07 3.18542e+07 207.01 3.59223e-07 1.14926e-06 9.97329e+06 5.76273e+08
4.7533 221.657 0.0791729 3.25923e-07 3.75892e+07 221.286 3.25377e-07 9.95263e-07 1.23095e+07 6.8009e+08
5.02313 236.379 0.0934361 2.94513e-07 4.43706e+07 235.984 2.9402e-07 8.61414e-07 1.51701e+07 8.0261e+08
5.30828 252.013 0.110269 2.6606e-07 5.23593e+07 251.589 2.65613e-07 7.45152e-07 1.86951e+07 9.47202e+08
5.60962 268.375 0.130134 2.40083e-07 6.1787e+07 267.933 2.39687e-07 6.44232e-07 2.30259e+07 1.11784e+09
5.92807 285.663 0.153578 2.16539e-07 7.29346e+07 285.186 2.16177e-07 5.56685e-07 2.837e+07 1.31923e+09
6.26459 303.54 0.181246 1.94966e-07 8.60651e+07 303.029 1.94638e-07 4.80786e-07 3.49006e+07 1.55689e+09
6.62021 322.6 0.213898 1.75578e-07 1.01558e+08 322.063 1.75285e-07 4.15026e-07 4.29644e+07 1.83737e+09
6.99602 342.374 0.252432 1.57894e-07 1.1986e+08 341.805 1.57632e-07 3.58083e-07 5.28515e+07 2.16837e+09
7.39317 363.352 0.297908 1.41989e-07 1.41457e+08 362.745 1.41752e-07 3.08803e-07 6.50424e+07 2.55901e+09
7.81286 385.141 0.351577 1.27529e-07 1.66936e+08 384.509 1.2732e-07 2.66181e-07 7.99802e+07 3.02002e+09
8.25637 408.094 0.414914 1.14502e-07 1.97025e+08 407.414 1.14311e-07 2.29336e-07 9.83695e+07 3.56409e+09
8.72507 432.278 0.489662 1.02772e-07 2.32497e+08 431.556 1.02601e-07 1.97503e-07 1.20982e+08 4.20617e+09
9.22037 458.102 0.577876 9.22864e-08 2.74404e+08 457.326 9.21301e-08 1.70014e-07 1.48951e+08 4.96392e+09
9.74378 486.34 0.681982 8.30189e-08 3.2382e+08 485.495 8.28747e-08 1.46289e-07 1.83768e+08 5.85818e+09
10.2969 518.138 0.804843 7.49452e-08 3.82165e+08 517.217 7.4812e-08 1.25822e-07 2.27634e+08 6.91355e+09
10.8814 555.607 0.949838 6.8097e-08 4.51027e+08 554.543 6.79667e-08 1.08175e-07 2.83924e+08 8.15905e+09
11.4992 603.464 1.12095 6.2672e-08 5.32251e+08 602.176 6.25382e-08 9.29669e-08 3.58808e+08 9.62892e+09
12.1519 670.989 1.3229 5.90472e-08 6.28157e+08 669.303 5.88989e-08 7.98658e-08 4.64416e+08 1.13636e+10
12.8418 746.537 1.56122 5.56669e-08 3.82727e+08 772.689 5.7617e-08 6.85852e-08 3.10639e+08 1.34108e+10
13.5708 0 1.84248 0 0 0 0 5.88765e-08 0 1.58268e+10
14.3411 0 2.17441 0 0 0 0 5.05241e-08 0 1.8678e+10
15.1552 0 2.56613 0 0 0 0 4.33417e-08 0 2.20429e+10
16.0156 0 3.02843 0 0 0 0 3.71677e-08 0 2.6014e+10
16.9247 0 3.574 0 0 0 0 3.18628e-08 0 3.07005e+10
17.8855 0 4.21787 0 0 0 0 2.73063e-08 0 3.62312e+10
18.9008 0 4.97773 0 0 0 0 2.33941e-08 0 4.27584e+10
19.9738 0 5.87448 0 0 0 0 2.00364e-08 0 5.04614e+10
21.1076 0 6.93279 0 0 0 0 1.71555e-08 0 5.95522e+10
22.3058 0 8.18175 0 0 0 0 1.46847e-08 0 7.02807e+10
23.5721 0 9.65571 0 0 0 0 1.25662e-08 0 8.29419e+10
24.9102 0 11.3952 0 0 0 0 1.07504e-08 0 9.78842e+10
26.3243 0 13.4481 0 0 0 0 9.19452e-09 0 1.15518e+11
27.8187 0 15.8708 0 0 0 0 7.86182e-09 0 1.36329e+11
29.3979 0 18.73 0 0 0 0 6.72061e-09 0 1.60889e+11
31.0667 0 22.1042 0 0 0 0 5.74366e-09 0 1.89874e+11
32.8303 0 26.0864 0 0 0 0 4.90756e-09 0 2.2408e+11
34.694 0 30.7859 0 0 0 0 4.19221e-09 0 2.64449e+11
36.6634 0 36.3321 0 0 0 0 3.58032e-09 0 3.1209e+11
38.7447 0 42.8774 0 0 0 0 3.05709e-09 0 3.68314e+11
40.9442 0 50.6018 0 0 0 0 2.60976e-09 0 4.34667e+11
43.2685 0 59.7179 0 0 0 0 2.22743e-09 0 5.12973e+11
45.7247 0 70.4762 0 0 0 0 1.90073e-09 0 6.05386e+11
48.3204 0 83.1727 0 0 0 0 1.62163e-09 0 7.14448e+11
51.0634 0 98.1565 0 0 0 0 1.38326e-09 0 8.43158e+11
53.9621 0 115.84 0 0 0 0 1.1797e-09 0 9.95055e+11
57.0254 0 136.709 0 0 0 0 1.00592e-09 0 1.17432e+12
60.2626 0 161.337 0 0 0 0 8.57591e-10 0 1.38587e+12
63.6835 0 190.402 0 0 0 0 7.3101e-10 0 1.63554e+12
67.2987 0 224.704 0 0 0 0 6.23009e-10 0 1.93019e+12
71.1191 0 265.185 0 0 0 0 5.30879e-10 0 2.27792e+12
75.1563 0 312.958 0 0 0 0 4.52303e-10 0 2.68829e+12
79.4227 0 369.339 0 0 0 0 3.85299e-10 0 3.17259e+12
83.9313 0 435.876 0 0 0 0 3.28173e-10 0 3.74415e+12
88.6959 0 514.4 0 0 0 0 2.79476e-10 0 4.41866e+12
93.7309 0 607.071 0 0 0 0 2.37972e-10 0 5.2147e+12
99.0518 0 716.436 0 0 0 0 2.02605e-10 0 6.15414e+12
104.675 0 845.504 0 0 0 0 1.72471e-10 0 7.26283e+12
110.617 0 997.824 0 0 0 0 1.468e-10 0 8.57124e+12
116.896 0 1177.58 0 0 0 0 1.24935e-10 0 1.01154e+13
123.532 0 1389.73 0 0 0 0 1.06313e-10 0 1.19377e+13
130.545 0 1640.09 0 0 0 0 9.04567e-11 0 1.40883e+13
137.955 0 1935.56 0 0 0 0 7.69563e-11 0 1.66263e+13
145.787 0 2284.26 0 0 0 0 6.54636e-11 0 1.96216e+13
154.063 0 2695.77 0 0 0 0 5.56812e-11 0 2.31565e+13
162.808 0 3181.42 0 0 0 0 4.73556e-11 0 2.73282e+13
172.051 0 3754.56 0 0 0 0 4.02708e-11 0 3.22515e+13
181.818 0 4430.96 0 0 0 0 3.42426e-11 0 3.80616e+13
192.139 0 5229.21 0 0 0 0 2.91139e-11 0 4.49186e+13
203.046 0 6171.26 0 0 0 0 2.4751e-11 0 5.30108e+13
214.572 0 7283.03 0 0 0 0 2.10401e-11 0 6.25608e+13
226.753 0 8595.09 0 0 0 0 1.78839e-11 0 7.38313e+13
239.625 0 10143.5 0 0 0 0 1.51999e-11 0 8.71322e+13
253.228 0 11970.9 0 0 0 0 1.29176e-11 0 1.02829e+14
267.603 0 14127.5 0 0 0 0 1.09771e-11 0 1.21354e+14
282.795 0 16672.6 0 0 0 0 9.3274e-12 0 1.43217e+14
298.848 0 19676.2 0 0 0 0 7.925e-12 0 1.69017e+14
315.813 0 23220.9 0 0 0 0 6.73295e-12 0 1.99466e+14
333.741 0 27404.3 0 0 0 0 5.71979e-12 0 2.35401e+14
352.686 0 32341.2 0 0 0 0 4.85874e-12 0 2.77809e+14
372.707 0 38167.6 0 0 0 0 4.12703e-12 0 3.27857e+14
393.865 0 45043.5 0 0 0 0 3.50528e-12 0 3.86921e+14
416.224 0 53158.3 0 0 0 0 2.97701e-12 0 4.56626e+14
439.852 0 62734.9 0 0 0 0 2.52819e-12 0 5.38888e+14
464.821 0 74036.7 0 0 0 0 2.1469e-12 0 6.35971e+14
491.207 0 87374.6 0 0 0 0 1.82301e-12 0 7.50542e+14
519.092 0 103115 0 0 0 0 1.54789e-12 0 8.85755e+14
548.56 0 121692 0 0 0 0 1.31422e-12 0 1.04533e+15
579.7 0 143615 0 0 0 0 1.11576e-12 0 1.23364e+15
612.608 0 169488 0 0 0 0 9.47223e-13 0 1.45589e+15
647.384 0 200021 0 0 0 0 8.041e-13 0 1.71817e+15
684.134 0 236056 0 0 0 0 6.82568e-13 0 2.0277e+15
722.971 0 278582 0 0 0 0 5.79376e-13 0 2.393e+15
764.012 0 328769 0 0 0 0 4.91762e-13 0 2.8241e+15
