0.0907932
200
1.0655e+09
8589934592
0.0129181 0 1.58924e-09 0 0 0 0 0.00677225 0 13.6515
0.0136515 0 1.87554e-09 0 0 0 0 0.00688819 0 16.1108
0.0144264 0 2.21343e-09 0 0 0 0 0.00699249 0 19.0132
0.0152454 0 2.61218e-09 0 0 0 0 0.00708412 0 22.4385
0.0161108 0 3.08278e-09 0 0 0 0 0.00716212 0 26.4808
0.0170254 0 3.63815e-09 0 0 0 0 0.00722559 0 31.2514
0.0179919 0 4.29357e-09 0 0 0 0 0.00727371 0 36.8815
0.0190132 0 5.06707e-09 0 0 0 0 0.00730578 0 43.5258
0.0200925 0 5.97991e-09 0 0 0 0 0.00732122 0 51.367
0.0212331 0 7.05721e-09 0 0 0 0 0.00731958 0 60.621
0.0224385 0 8.32858e-09 0 0 0 0 0.00730056 0 71.542
0.0237123 0 9.829e-09 0 0 0 0 0.00726401 0 84.4305
0.0250583 0 1.15997e-08 0 0 0 0 0.00720995 0 99.6408
0.0264808 0 1.36894e-08 0 0 0 0 0.00713857 0 117.591
0.0279841 0 1.61556e-08 0 0 0 0 0.00705021 0 138.776
0.0295727 0 1.90661e-08 0 0 0 0 0.00694538 0 163.777
0.0312514 0 2.25009e-08 0 0 0 0 0.00682475 0 193.281
0.0330255 0 2.65545e-08 0 0 0 0 0.00668915 0 228.102
0.0349003 0 3.13384e-08 0 0 0 0 0.00653951 0 269.195
0.0368815 0 3.69841e-08 0 0 0 0 0.00637693 0 317.691
0.0389751 0 4.36469e-08 0 0 0 0 0.00620256 0 374.924
0.0411876 0 5.151e-08 0 0 0 0 0.00601767 0 442.467
0.0435258 0 6.07896e-08 0 0 0 0 0.00582358 0 522.179
0.0459966 0 7.1741e-08 0 0 0 0 0.00562166 0 616.251
0.0486077 0 8.46654e-08 0 0 0 0 0.0054133 0 727.27
0.051367 0 9.99181e-08 0 0 0 0 0.00519989 0 858.29
0.054283 0 1.17919e-07 0 0 0 0 0.0049828 0 1012.91
0.0573645 0 1.39162e-07 0 0 0 0 0.00476339 0 1195.39
0.060621 0 1.64232e-07 0 0 0 0 0.00454293 0 1410.75
0.0640622 0 1.93819e-07 0 0 0 0 0.00432265 0 1664.89
0.0676989 0 2.28736e-07 0 0 0 0 0.00410371 0 1964.83
0.071542 0 2.69944e-07 0 0 0 0 0.00388717 0 2318.8
0.0756032 0 3.18575e-07 0 0 0 0 0.00367401 0 2736.54
0.079895 0 3.75967e-07 0 0 0 0 0.0034651 0 3229.53
0.0844305 0 4.43698e-07 0 0 0 0 0.00326121 0 3811.34
0.0892234 0 5.23632e-07 0 0 0 0 0.00306301 0 4497.96
0.0942883 0 6.17966e-07 0 0 0 0 0.00287109 0 5308.28
0.0996408 0 7.29294e-07 0 0 0 0 0.00268591 0 6264.59
0.105297 0 8.60678e-07 0 0 0 0 0.00250785 0 7393.17
0.111275 0 1.01573e-06 0 0 0 0 0.00233721 0 8725.07
0.117591 0 1.19872e-06 0 0 0 0 0.00217419 0 10296.9
0.124267 0 1.41467e-06 0 0 0 0 0.00201893 0 12151.9
0.131321 0 1.66953e-06 0 0 0 0 0.00187147 0 14341.1
0.138776 0 1.9703e-06 0 0 0 0 0.00173182 0 16924.7
0.146654 0 2.32525e-06 0 0 0 0 0.00159991 0 19973.8
0.154979 0 2.74415e-06 0 0 0 0 0.00147563 0 23572.1
0.163777 0 3.23852e-06 0 0 0 0 0.00135884 0 27818.7
0.173074 0 3.82195e-06 0 0 0 0 0.00124933 0 32830.3
0.182899 0 4.51048e-06 0 0 0 0 0.00114689 0 38744.7
0.193281 0 5.32305e-06 0 0 0 0 0.00105127 0 45724.7
0.204254 0 6.28202e-06 0 0 0 0 0.000962209 0 53962.1
0.215848 0 7.41374e-06 0 0 0 0 0.000879423 0 63683.5
0.228102 0 8.74934e-06 0 0 0 0 0.000802624 0 75156.3
0.24105 0 1.03256e-05 0 0 0 0 0.000731515 0 88695.9
0.254734 0 1.21857e-05 0 0 0 0 0.000665798 0 104675
0.269195 0 1.4381e-05 0 0 0 0 0.000605173 0 123532
0.284476 0 1.69718e-05 0 0 0 0 0.000549345 0 145787
0.300625 0 2.00293e-05 0 0 0 0 0.000498021 0 172051
0.317691 0 2.36377e-05 0 0 0 0 0.000450916 0 203046
0.335725 0 2.78961e-05 0 0 0 0 0.000407755 0 239625
0.354784 0 3.29216e-05 0 0 0 0 0.000368269 0 282795
0.374924 0 3.88525e-05 0 0 0 0 0.000332202 0 333741
0.396207 0.387482 4.58519e-05 9.83794e-07 6 0.376709 9.56443e-07 0.000299307 0.0197215 393865
0.418699 0 5.41123e-05 0 0 0 0 0.00026935 0 464821
0.442467 0 6.38607e-05 0 0 0 0 0.000242108 0 548560
0.467585 0 7.53654e-05 0 0 0 0 0.00021737 0 647384
0.494129 0 8.89427e-05 0 0 0 0 0.000194938 0 764012
0.522179 0 0.000104966 0 0 0 0 0.000174625 0 901651
0.551822 0 0.000123876 0 0 0 0 0.000156255 0 1.06409e+06
0.583147 4.40199 0.000146192 3.50537e-06 12 4.63312 3.68942e-06 0.000139664 0.301183 1.25578e+06
0.616251 0 0.000172529 0 0 0 0 0.0001247 0 1.48202e+06
0.651234 0 0.000203611 0 0 0 0 0.00011122 0 1.74901e+06
0.688203 22.8062 0.000240292 1.1049e-05 8 22.2388 1.07741e-05 9.90935e-05 0.892006 2.06409e+06
0.72727 0 0.000283581 0 0 0 0 8.81969e-05 0 2.43595e+06
0.768555 0 0.000334669 0 0 0 0 7.84179e-05 0 2.87479e+06
0.812184 0.0544716 0.000394961 1.60556e-08 6 0.0556362 1.63989e-08 6.96525e-05 0.00138306 3.39269e+06
0.85829 0 0.000466114 0 0 0 0 6.1805e-05 0 4.00389e+06
0.907013 0.212031 0.000550086 4.48724e-08 24 0.2161 4.57334e-08 5.47875e-05 0.0196566 4.7252e+06
0.958501 0.726764 0.000649185 1.30327e-07 24 0.684195 1.22693e-07 4.85194e-05 0.064466 5.57646e+06
1.01291 0 0.000766138 0 0 0 0 4.29272e-05 0 6.58107e+06
1.07041 0 0.00090416 0 0 0 0 3.79435e-05 0 7.76667e+06
1.13118 1.07226 0.00106705 1.16984e-07 12 1.05909 1.15547e-07 3.3507e-05 0.0418959 9.16586e+06
1.19539 0.575868 0.00125928 5.32368e-08 30 0.563997 5.21393e-08 2.9562e-05 0.0540255 1.08171e+07
1.26325 5.2976 0.00148614 4.14982e-07 24 5.21789 4.08738e-07 2.60578e-05 0.382211 1.27658e+07
1.33496 18.7188 0.00175387 1.24249e-06 24 18.76 1.24522e-06 2.29484e-05 1.29942 1.50656e+07
1.41075 5.56753 0.00206984 3.13138e-07 32 5.72601 3.22052e-07 2.01923e-05 0.49625 1.77798e+07
1.49083 0.322339 0.00244272 1.53621e-08 48 0.315468 1.50346e-08 1.77518e-05 0.0415384 2.09828e+07
1.57546 0.00619981 0.00288279 2.50366e-10 6 0.00590361 2.38405e-10 1.55929e-05 9.63388e-05 2.4763e+07
1.66489 0.325901 0.00340213 1.11518e-08 84 0.315138 1.07835e-08 1.3685e-05 0.068451 2.92241e+07
1.75941 2.37584 0.00401503 6.88872e-08 48 2.39538 6.94538e-08 1.20007e-05 0.275533 3.44889e+07
1.85928 0.193105 0.00473835 4.74434e-09 72 0.194559 4.78007e-09 1.05151e-05 0.0324859 4.07021e+07
1.96483 0.651961 0.00559198 1.35727e-08 54 0.63896 1.3302e-08 9.20606e-06 0.0796134 4.80347e+07
2.07637 7.79454 0.00659939 1.37498e-07 104 7.76768 1.37024e-07 8.05366e-06 1.77557 5.66883e+07
2.19424 0.201369 0.00778828 3.00996e-09 120 0.203318 3.03909e-09 7.04008e-06 0.0513056 6.69008e+07
2.3188 1.59095 0.00919136 2.01505e-08 156 1.5102 1.91277e-08 6.1494e-06 0.511185 7.89532e+07
2.45043 0.460133 0.0108472 4.93827e-09 126 0.458123 4.9167e-09 5.36741e-06 0.115926 9.31768e+07
2.58954 0.462935 0.0128014 4.20992e-09 192 0.469717 4.27159e-09 4.68145e-06 0.172661 1.09963e+08
2.73654 3.75539 0.0151076 2.89381e-08 152 3.90175 3.0066e-08 4.08023e-06 1.07802 1.29773e+08
2.89188 3.23778 0.0178292 2.1141e-08 378 3.31055 2.16161e-08 3.55373e-06 2.2487 1.53152e+08
3.05605 1.17149 0.0210412 6.48154e-09 264 1.14976 6.3613e-09 3.09304e-06 0.553218 1.80743e+08
3.22953 0.161121 0.0248319 7.55358e-10 366 0.158905 7.44968e-10 2.69025e-06 0.102764 2.13304e+08
3.41286 0.647854 0.0293054 2.57359e-09 428 0.616108 2.44748e-09 2.33837e-06 0.471053 2.51731e+08
3.6066 2.94643 0.0345848 9.91791e-09 486 2.84499 9.57647e-09 2.0312e-06 2.37303 2.97081e+08
3.81134 0.638939 0.0408154 1.82241e-09 600 0.633769 1.80766e-09 1.76327e-06 0.620125 3.50601e+08
4.0277 0.417897 0.0481684 1.00999e-09 738 0.411148 9.93679e-10 1.52972e-06 0.487261 4.13763e+08
4.25634 1.02161 0.056846 2.09215e-09 824 1.06393 2.17882e-09 1.32631e-06 1.2998 4.88304e+08
4.49796 2.42371 0.067087 4.20583e-09 954 2.44049 4.23496e-09 1.14926e-06 3.49127 5.76273e+08
4.7533 0.45556 0.0791729 6.69853e-10 1094 0.446351 6.56312e-10 9.95263e-07 0.736307 6.8009e+08
5.02313 0.258226 0.0934361 3.21732e-10 1332 0.257786 3.21185e-10 8.61414e-07 0.497493 8.0261e+08
5.30828 1.86181 0.110269 1.96559e-09 1614 1.88404 1.98906e-09 7.45152e-07 4.25747 9.47202e+08
5.60962 0.862716 0.130134 7.71768e-10 1850 0.832016 7.44304e-10 6.44232e-07 2.21623 1.11784e+09
5.92807 1.18711 0.153578 8.99853e-10 2238 1.1341 8.59667e-10 5.56685e-07 3.61761 1.31923e+09
6.26459 0.529083 0.181246 3.39834e-10 2546 0.538171 3.45671e-10 4.80786e-07 1.79959 1.55689e+09
6.62021 0.168955 0.213898 9.19548e-11 3264 0.168528 9.17229e-11 4.15026e-07 0.723186 1.83737e+09
6.99602 1.17464 0.252432 5.41713e-10 3506 1.21614 5.60856e-10 3.58083e-07 5.30394 2.16837e+09
7.39317 0.483441 0.297908 1.88917e-10 4506 0.490515 1.91681e-10 3.08803e-07 2.75664 2.55901e+09
7.81286 0.970683 0.351577 3.21416e-10 5018 1.00411 3.32486e-10 2.66181e-07 6.05928 3.02002e+09
8.25637 0.86225 0.414914 2.41927e-10 5852 0.827 2.32037e-10 2.29336e-07 6.17329 3.56409e+09
8.72507 0.549915 0.489662 1.3074e-10 7362 0.543186 1.2914e-10 1.97503e-07 4.87339 4.20617e+09
9.22037 0.777732 0.577876 1.56677e-10 8306 0.767789 1.54674e-10 1.70014e-07 7.65441 4.96392e+09
9.74378 0.258715 0.681982 4.4163e-11 9698 0.259735 4.43372e-11 1.46289e-07 2.92772 5.85818e+09
10.2969 0.770561 0.804843 1.11457e-10 11816 0.784918 1.13533e-10 1.25822e-07 10.4669 6.91355e+09
10.8814 0.647019 0.949838 7.93008e-11 13682 0.64787 7.94052e-11 1.08175e-07 10.0299 8.15905e+09
11.4992 0.635495 1.12095 6.59986e-11 16152 0.623253 6.47271e-11 9.29669e-08 11.4666 9.62892e+09
12.1519 0.635843 1.3229 5.59543e-11 19472 0.61979 5.45418e-11 7.98658e-08 13.6422 1.13636e+10
12.8418 0.322468 1.56122 2.40454e-11 22670 0.32624 2.43267e-11 6.85852e-08 7.94792 1.34108e+10
13.5708 0.617052 1.84248 3.89879e-11 26224 0.62684 3.96063e-11 5.88765e-08 17.3655 1.58268e+10
14.3411 0.533814 2.17441 2.85798e-11 31640 0.541271 2.8979e-11 5.05241e-08 17.8977 1.8678e+10
15.1552 0.610063 2.56613 2.76762e-11 37484 0.614812 2.78916e-11 4.33417e-08 23.9357 2.20429e+10
16.0156 0.57445 3.02843 2.20823e-11 43856 0.58283 2.24045e-11 3.71677e-08 26.056 2.6014e+10
16.9247 0.904655 3.574 2.94672e-11 51362 0.903823 2.94401e-11 3.18628e-08 47.5003 3.07005e+10
17.8855 0.926831 4.21787 2.5581e-11 61636 0.918044 2.53385e-11 2.73063e-08 57.7416 3.62312e+10
18.9008 1.35006 4.97773 3.1574e-11 72218 1.34159 3.13761e-11 2.33941e-08 97.4695 4.27584e+10
19.9738 1.97757 5.87448 3.91897e-11 84586 1.96051 3.88517e-11 2.00364e-08 165.444 5.04614e+10
21.1076 2.82658 6.93279 4.74639e-11 100708 2.82014 4.73558e-11 1.71555e-08 278.627 5.95522e+10
22.3058 4.14283 8.18175 5.89469e-11 118712 4.1407 5.89166e-11 1.46847e-08 476.532 7.02807e+10
23.5721 5.62028 9.65571 6.77616e-11 140410 5.60269 6.75496e-11 1.25662e-08 757.146 8.29419e+10
24.9102 6.5598 11.3952 6.70159e-11 164374 6.53626 6.67754e-11 1.07504e-08 1024.68 9.78842e+10
26.3243 7.76075 13.4481 6.7182e-11 194680 7.72549 6.68768e-11 9.19452e-09 1422.48 1.15518e+11
27.8187 8.85147 15.8708 6.49272e-11 230196 8.81673 6.46723e-11 7.86182e-09 1901.08 1.36329e+11
29.3979 10.5531 18.73 6.55924e-11 271156 10.5153 6.53576e-11 6.72061e-09 2646.45 1.60889e+11
31.0667 12.631 22.1042 6.65233e-11 321076 12.585 6.62806e-11 5.74366e-09 3718.72 1.89874e+11
32.8303 14.7356 26.0864 6.57603e-11 377436 14.6863 6.55406e-11 4.90756e-09 5057.56 2.2408e+11
34.694 17.2023 30.7859 6.50496e-11 447594 17.1477 6.48431e-11 4.19221e-09 6945.23 2.64449e+11
36.6634 19.7226 36.3321 6.31952e-11 525078 19.6586 6.29902e-11 3.58032e-09 9267.99 3.1209e+11
38.7447 22.4725 42.8774 6.10145e-11 621924 22.4048 6.08308e-11 3.05709e-09 12412.6 3.68314e+11
40.9442 25.9335 50.6018 5.96629e-11 732630 25.8587 5.94909e-11 2.60976e-09 16749 4.34667e+11
43.2685 30.3586 59.7179 5.91816e-11 865596 30.2624 5.89942e-11 2.22743e-09 22998.4 5.12973e+11
45.7247 36.1063 70.4762 5.96418e-11 1.02168e+06 35.9791 5.94317e-11 1.90073e-09 32058.5 6.05386e+11
48.3204 43.0956 83.1727 6.03201e-11 1.20544e+06 42.942 6.01051e-11 1.62163e-09 44838.8 7.14448e+11
51.0634 51.2686 98.1565 6.08054e-11 1.42103e+06 51.0963 6.06011e-11 1.38326e-09 62465.9 8.43158e+11
53.9621 60.2899 115.84 6.05895e-11 1.67997e+06 60.0947 6.03933e-11 1.1797e-09 86283.1 9.95055e+11
57.0254 71.3529 136.709 6.07612e-11 1.98018e+06 71.1185 6.05615e-11 1.00592e-09 119610 1.17432e+12
60.2626 83.6863 161.337 6.03852e-11 2.33957e+06 83.4144 6.0189e-11 8.57591e-10 164735 1.38587e+12
63.6835 98.9736 190.402 6.05143e-11 2.75676e+06 98.6506 6.03168e-11 7.3101e-10 228210 1.63554e+12
67.2987 116.573 224.704 6.03946e-11 3.25638e+06 116.196 6.01994e-11 6.23009e-10 315674 1.93019e+12
71.1191 137.643 265.185 6.04248e-11 3.84387e+06 137.196 6.02288e-11 5.30879e-10 437511 2.27792e+12
75.1563 162.385 312.958 6.04046e-11 4.53277e+06 161.851 6.02059e-11 4.52303e-10 605346 2.68829e+12
79.4227 191.478 369.339 6.03536e-11 5.35083e+06 190.866 6.01607e-11 3.85299e-10 838158 3.17259e+12
83.9313 225.956 435.876 6.0349e-11 6.32174e+06 225.206 6.01489e-11 3.28173e-10 1.16253e+06 3.74415e+12
88.6959 266.771 514.4 6.03737e-11 7.44986e+06 265.89 6.01744e-11 2.79476e-10 1.60935e+06 4.41866e+12
93.7309 314.565 607.071 6.03228e-11 8.79764e+06 313.544 6.0127e-11 2.37972e-10 2.23008e+06 5.2147e+12
99.0518 371.511 716.436 6.03677e-11 1.03827e+07 370.272 6.01663e-11 2.02605e-10 3.0936e+06 6.15414e+12
104.675 438.269 845.504 6.03442e-11 1.22515e+07 436.824 6.01452e-11 1.72471e-10 4.28656e+06 7.26283e+12
110.617 517.53 997.824 6.03798e-11 1.44573e+07 515.829 6.01814e-11 1.468e-10 5.94639e+06 8.57124e+12
116.896 610.747 1177.58 6.03781e-11 1.70664e+07 608.726 6.01783e-11 1.24935e-10 8.2478e+06 1.01154e+13
123.532 721.234 1389.73 6.04165e-11 2.0139e+07 718.82 6.02143e-11 1.06313e-10 1.14448e+07 1.19377e+13
130.545 851.081 1640.09 6.04105e-11 2.37643e+07 848.238 6.02087e-11 9.04567e-11 1.58707e+07 1.40883e+13
137.955 1005.16 1935.56 6.04558e-11 2.80503e+07 1001.84 6.02562e-11 7.69563e-11 2.20359e+07 1.66263e+13
145.787 1187.16 2284.26 6.05028e-11 3.30981e+07 1183.18 6.02999e-11 6.54636e-11 3.059e+07 1.96216e+13
154.063 1401.91 2695.77 6.05408e-11 3.90634e+07 1397.23 6.03385e-11 5.56812e-11 4.24727e+07 2.31565e+13
162.808 1657.31 3181.42 6.06446e-11 4.61057e+07 1651.77 6.0442e-11 4.73556e-11 5.90439e+07 2.73282e+13
172.051 1957.33 3754.56 6.06898e-11 5.44046e+07 1950.75 6.04856e-11 4.02708e-11 8.199e+07 3.22515e+13
181.818 2319.36 4430.96 6.09369e-11 6.42064e+07 2311.71 6.07359e-11 3.42426e-11 1.14259e+08 3.80616e+13
192.139 2735.71 5229.21 6.09039e-11 7.57748e+07 2726.55 6.06999e-11 2.91139e-11 1.58515e+08 4.49186e+13
203.046 3235.88 6171.26 6.10419e-11 8.94213e+07 3224.99 6.08365e-11 2.4751e-11 2.20534e+08 5.30108e+13
214.572 3831.73 7283.03 6.12481e-11 1.05538e+08 3818.82 6.10418e-11 2.10401e-11 3.07224e+08 6.25608e+13
226.753 4544.95 8595.09 6.15586e-11 1.24552e+08 4529.14 6.13445e-11 1.78839e-11 4.28722e+08 7.38313e+13
239.625 5386.52 10143.5 6.18201e-11 1.46987e+08 5368.1 6.16087e-11 1.51999e-11 5.97817e+08 8.71322e+13
253.228 6407.42 11970.9 6.23112e-11 1.7347e+08 6385.01 6.20933e-11 1.29176e-11 8.36774e+08 1.02829e+14
267.603 7617.99 14127.5 6.27748e-11 2.04703e+08 7591.48 6.25563e-11 1.09771e-11 1.17063e+09 1.21354e+14
282.795 9098.85 16672.6 6.35321e-11 2.4161e+08 9066.84 6.33086e-11 9.3274e-12 1.64569e+09 1.43217e+14
298.848 10901.6 19676.2 6.44996e-11 2.85122e+08 10862.4 6.42679e-11 7.925e-12 2.32054e+09 1.69017e+14
315.813 13139.6 23220.9 6.58737e-11 3.36491e+08 13091.2 6.56312e-11 6.73295e-12 3.29216e+09 1.99466e+14
333.741 15955.8 27404.3 6.77816e-11 3.97115e+08 15895.2 6.75239e-11 5.71979e-12 4.70595e+09 2.35401e+14
352.686 19581.6 32341.2 7.04858e-11 4.68637e+08 19503.9 7.02063e-11 4.85874e-12 6.79852e+09 2.77809e+14
372.707 24394.2 38167.6 7.4405e-11 5.53074e+08 24291.6 7.40922e-11 4.12703e-12 9.97121e+09 3.27857e+14
393.865 31053.2 45043.5 8.02573e-11 6.52716e+08 30913.3 7.98956e-11 3.50528e-12 1.49447e+10 3.86921e+14
416.224 36626.6 53158.3 8.02114e-11 2.2184e+08 38747.6 8.48562e-11 2.97701e-12 5.97717e+09 4.56626e+14
439.852 0 62734.9 0 0 0 0 2.52819e-12 0 5.38888e+14
464.821 0 74036.7 0 0 0 0 2.1469e-12 0 6.35971e+14
491.207 0 87374.6 0 0 0 0 1.82301e-12 0 7.50542e+14
519.092 0 103115 0 0 0 0 1.54789e-12 0 8.85755e+14
548.56 0 121692 0 0 0 0 1.31422e-12 0 1.04533e+15
579.7 0 143615 0 0 0 0 1.11576e-12 0 1.23364e+15
612.608 0 169488 0 0 0 0 9.47223e-13 0 1.45589e+15
647.384 0 200021 0 0 0 0 8.041e-13 0 1.71817e+15
684.134 0 236056 0 0 0 0 6.82568e-13 0 2.0277e+15
722.971 0 278582 0 0 0 0 5.79376e-13 0 2.393e+15
764.012 0 328769 0 0 0 0 4.91762e-13 0 2.8241e+15
0.0907932
200
1.0655e+09
8589934592
0.0129181 2.67258e-05 1.58924e-09 1.95772e-06 6 2.64811e-05 1.9398e-06 0.00677225 0.00173448 13.6515
0.0136515 0 1.87554e-09 0 0 0 0 0.00688819 0 16.1108
0.0144264 0 2.21343e-09 0 0 0 0 0.00699249 0 19.0132
0.0152454 0 2.61218e-09 0 0 0 0 0.00708412 0 22.4385
0.0161108 0 3.08278e-09 0 0 0 0 0.00716212 0 26.4808
0.0170254 0 3.63815e-09 0 0 0 0 0.00722559 0 31.2514
0.0179919 5.93281e-05 4.29357e-09 1.60861e-06 12 5.92516e-05 1.60654e-06 0.00727371 0.00265386 36.8815
0.0190132 0 5.06707e-09 0 0 0 0 0.00730578 0 43.5258
0.0200925 0 5.97991e-09 0 0 0 0 0.00732122 0 51.367
0.0212331 5.60982e-05 7.05721e-09 9.25393e-07 8 5.60494e-05 9.24587e-07 0.00731958 0.00101142 60.621
0.0224385 0 8.32858e-09 0 0 0 0 0.00730056 0 71.542
0.0237123 0 9.829e-09 0 0 0 0 0.00726401 0 84.4305
0.0250583 0.000361057 1.15997e-08 3.62358e-06 6 0.000360887 3.62187e-06 0.00720995 0.00301548 99.6408
0.0264808 0 1.36894e-08 0 0 0 0 0.00713857 0 117.591
0.0279841 0.000225087 1.61556e-08 1.62195e-06 24 0.000224856 1.62028e-06 0.00705021 0.00552136 138.776
0.0295727 0 1.90661e-08 0 0 0 0 0.00694538 0 163.777
0.0312514 0.000402562 2.25009e-08 2.08278e-06 24 0.000404606 2.09335e-06 0.00682475 0.00732432 193.281
0.0330255 0 2.65545e-08 0 0 0 0 0.00668915 0 228.102
0.0349003 0.000560051 3.13384e-08 2.08047e-06 12 0.000555566 2.06381e-06 0.00653951 0.00381765 269.195
0.0368815 0.000487893 3.69841e-08 1.53575e-06 30 0.000482698 1.51939e-06 0.00637693 0.00722486 317.691
0.0389751 0.000583585 4.36469e-08 1.55654e-06 24 0.000577582 1.54053e-06 0.00620256 0.00602285 374.924
0.0411876 0.000369694 5.151e-08 8.35527e-07 24 0.000367183 8.29853e-07 0.00601767 0.0033323 442.467
0.0435258 0.000788487 6.07896e-08 1.50999e-06 8 0.000788426 1.50988e-06 0.00582358 0.00207432 522.179
0.0459966 0.00101197 7.1741e-08 1.64214e-06 72 0.00100396 1.62914e-06 0.00562166 0.0210318 616.251
0.0486077 0 8.46654e-08 0 0 0 0 0.0054133 0 727.27
0.051367 0.00152463 9.99181e-08 1.77636e-06 54 0.00151982 1.77075e-06 0.00519989 0.0184472 858.29
0.054283 0.0011811 1.17919e-07 1.16604e-06 60 0.00118599 1.17087e-06 0.0049828 0.0140408 1012.91
0.0573645 0.00118178 1.39162e-07 9.88617e-07 96 0.00117875 9.86081e-07 0.00476339 0.0199243 1195.39
0.060621 0.00136183 1.64232e-07 9.65327e-07 24 0.00134338 9.52249e-07 0.00454293 0.00509976 1410.75
0.0640622 0.00240107 1.93819e-07 1.44218e-06 134 0.00240237 1.44296e-06 0.00432265 0.0447067 1664.89
0.0676989 0.00230042 2.28736e-07 1.1708e-06 120 0.00228993 1.16546e-06 0.00410371 0.0342363 1964.83
0.071542 0.00209657 2.69944e-07 9.04162e-07 108 0.0020739 8.94387e-07 0.00388717 0.025121 2318.8
0.0756032 0.00304244 3.18575e-07 1.11178e-06 174 0.00302669 1.10603e-06 0.00367401 0.0526538 2736.54
0.079895 0.00326003 3.75967e-07 1.00944e-06 168 0.00322924 9.99911e-07 0.0034651 0.0489414 3229.53
0.0844305 0.00279332 4.43698e-07 7.32898e-07 168 0.00280727 7.36557e-07 0.00326121 0.037755 3811.34
0.0892234 0.0031372 5.23632e-07 6.97471e-07 290 0.0031241 6.94559e-07 0.00306301 0.0660351 4497.96
0.0942883 0.00408507 6.17966e-07 7.69565e-07 288 0.00407464 7.676e-07 0.00287109 0.0771954 5308.28
0.0996408 0.00373716 7.29294e-07 5.96553e-07 366 0.00370539 5.91481e-07 0.00268591 0.0812903 6264.59
0.105297 0.00402371 8.60678e-07 5.44247e-07 420 0.00399592 5.40488e-07 0.00250785 0.0911471 7393.17
0.111275 0.00424729 1.01573e-06 4.86792e-07 398 0.00423594 4.85491e-07 0.00233721 0.082895 8725.07
0.117591 0.00505519 1.19872e-06 4.90942e-07 624 0.00506543 4.91937e-07 0.00217419 0.140902 10296.9
0.124267 0.00556829 1.41467e-06 4.58223e-07 642 0.00556168 4.57679e-07 0.00201893 0.145711 12151.9
0.131321 0.00708423 1.66953e-06 4.9398e-07 800 0.00708672 4.94153e-07 0.00187147 0.211162 14341.1
0.138776 0.00646353 1.9703e-06 3.81899e-07 858 0.00649482 3.83747e-07 0.00173182 0.189205 16924.7
0.146654 0.00694179 2.32525e-06 3.47546e-07 1080 0.00699971 3.50445e-07 0.00159991 0.234607 19973.8
0.154979 0.00819386 2.74415e-06 3.47609e-07 1286 0.00825087 3.50027e-07 0.00147563 0.302937 23572.1
0.163777 0.00778064 3.23852e-06 2.79691e-07 1650 0.00779419 2.80178e-07 0.00135884 0.339621 27818.7
0.173074 0.00916705 3.82195e-06 2.79226e-07 1778 0.00916808 2.79257e-07 0.00124933 0.397383 32830.3
0.182899 0.00898445 4.51048e-06 2.31888e-07 2112 0.00900531 2.32427e-07 0.00114689 0.427022 38744.7
0.193281 0.0105877 5.32305e-06 2.31553e-07 2570 0.0106036 2.31901e-07 0.00105127 0.566068 45724.7
0.204254 0.0116771 6.28202e-06 2.16395e-07 3030 0.0116731 2.1632e-07 0.000962209 0.681429 53962.1
0.215848 0.0116197 7.41374e-06 1.8246e-07 3434 0.0116186 1.82443e-07 0.000879423 0.712477 63683.5
0.228102 0.0121549 8.74934e-06 1.61728e-07 4218 0.0121573 1.6176e-07 0.000802624 0.849922 75156.3
0.24105 0.0137433 1.03256e-05 1.54948e-07 4766 0.0137558 1.5509e-07 0.000731515 1.00952 88695.9
0.254734 0.0146366 1.21857e-05 1.3983e-07 6026 0.014632 1.39785e-07 0.000665798 1.26557 104675
0.269195 0.0152872 1.4381e-05 1.23751e-07 6480 0.0152808 1.23699e-07 0.000605173 1.32508 123532
0.284476 0.0165242 1.69718e-05 1.13345e-07 8162 0.0165624 1.13607e-07 0.000549345 1.68404 145787
0.300625 0.0166538 2.00293e-05 9.67959e-08 9578 0.0166752 9.69203e-08 0.000498021 1.86159 172051
0.317691 0.0184638 2.36377e-05 9.09339e-08 11234 0.0184512 9.08718e-08 0.000450916 2.2655 203046
0.335725 0.0193279 2.78961e-05 8.06589e-08 13344 0.0193208 8.06292e-08 0.000407755 2.63961 239625
0.354784 0.0199922 3.29216e-05 7.06952e-08 15464 0.0199806 7.06542e-08 0.000368269 2.96856 282795
0.374924 0.0214879 3.88525e-05 6.4385e-08 18458 0.0214835 6.43719e-08 0.000332202 3.5774 333741
0.396207 0.0225037 4.58519e-05 5.71355e-08 22232 0.0224711 5.70529e-08 0.000299307 4.24393 393865
0.418699 0.0243237 5.41123e-05 5.23291e-08 25628 0.0242767 5.22281e-08 0.00026935 4.97899 464821
0.442467 0.0251989 6.38607e-05 4.59365e-08 30320 0.0251574 4.58608e-08 0.000242108 5.75279 548560
0.467585 0.0264206 7.53654e-05 4.08114e-08 35452 0.0263827 4.07528e-08 0.00021737 6.65613 647384
0.494129 0.0273029 8.89427e-05 3.57362e-08 41792 0.0272945 3.57252e-08 0.000194938 7.66134 764012
0.522179 0.0295169 0.000104966 3.27365e-08 49988 0.0295097 3.27285e-08 0.000174625 9.37113 901651
0.551822 0.0307851 0.000123876 2.8931e-08 59110 0.0307674 2.89144e-08 0.000156255 10.9444 1.06409e+06
0.583147 0.032333 0.000146192 2.57473e-08 69716 0.0322959 2.57177e-08 0.000139664 12.8523 1.25578e+06
0.616251 0.0341222 0.000172529 2.30242e-08 82210 0.0340697 2.29887e-08 0.0001247 15.179 1.48202e+06
0.651234 0.0359545 0.000203611 2.05571e-08 96722 0.0358916 2.05212e-08 0.00011122 17.8773 1.74901e+06
0.688203 0.0376505 0.000240292 1.82407e-08 113098 0.0376187 1.82253e-08 9.90935e-05 20.8186 2.06409e+06
0.72727 0.0389284 0.000283581 1.59808e-08 135190 0.0388892 1.59647e-08 8.81969e-05 24.4957 2.43595e+06
0.768555 0.0412784 0.000334669 1.43588e-08 158170 0.0412446 1.4347e-08 7.84179e-05 28.9619 2.87479e+06
0.812184 0.0430005 0.000394961 1.26745e-08 188560 0.0429603 1.26626e-08 6.96525e-05 34.3117 3.39269e+06
0.85829 0.0447484 0.000466114 1.11762e-08 220444 0.0447002 1.11642e-08 6.1805e-05 39.863 4.00389e+06
0.907013 0.0470475 0.000550086 9.95672e-09 261388 0.0470045 9.94763e-09 5.47875e-05 47.503 4.7252e+06
0.958501 0.0489144 0.000649185 8.77159e-09 308244 0.0488625 8.76227e-09 4.85194e-05 55.7259 5.57646e+06
1.01291 0.0513562 0.000766138 7.80362e-09 364396 0.0512983 7.79482e-09 4.29272e-05 66.2426 6.58107e+06
1.07041 0.0534611 0.00090416 6.88339e-09 429162 0.0534001 6.87554e-09 3.79435e-05 77.855 7.76667e+06
1.13118 0.0560358 0.00106705 6.11354e-09 506358 0.0559682 6.10616e-09 3.3507e-05 92.3878 9.16586e+06
1.19539 0.0581986 0.00125928 5.38024e-09 598590 0.0581283 5.37374e-09 2.9562e-05 108.942 1.08171e+07
1.26325 0.0608424 0.00148614 4.76603e-09 704844 0.0607699 4.76035e-09 2.60578e-05 128.917 1.27658e+07
1.33496 0.0633425 0.00175387 4.20443e-09 834620 0.063265 4.19929e-09 2.29484e-05 152.912 1.50656e+07
1.41075 0.0659018 0.00206984 3.70656e-09 981444 0.0658264 3.70232e-09 2.01923e-05 180.157 1.77798e+07
1.49083 0.0686179 0.00244272 3.27019e-09 1.15998e+06 0.0685333 3.26616e-09 1.77518e-05 213.688 2.09828e+07
1.57546 0.0716342 0.00288279 2.8928e-09 1.36931e+06 0.0715462 2.88924e-09 1.55929e-05 254.035 2.4763e+07
1.66489 0.0745907 0.00340213 2.55237e-09 1.61652e+06 0.0744904 2.54894e-09 1.3685e-05 301.494 2.92241e+07
1.75941 0.0775711 0.00401503 2.24916e-09 1.90601e+06 0.0774716 2.24628e-09 1.20007e-05 357.223 3.44889e+07
1.85928 0.0807657 0.00473835 1.98431e-09 2.24913e+06 0.080666 1.98186e-09 1.05151e-05 424.434 4.07021e+07
1.96483 0.0839752 0.00559198 1.74822e-09 2.65744e+06 0.0838668 1.74596e-09 9.20606e-06 504.645 4.80347e+07
2.07637 0.0873529 0.00659939 1.54093e-09 3.13125e+06 0.0872429 1.53899e-09 8.05366e-06 599.113 5.66883e+07
2.19424 0.0909813 0.00778828 1.35994e-09 3.69915e+06 0.0908657 1.35821e-09 7.04008e-06 714.57 6.69008e+07
2.3188 0.0945667 0.00919136 1.19776e-09 4.36472e+06 0.0944409 1.19616e-09 6.1494e-06 850.144 7.89532e+07
2.45043 0.0985054 0.0108472 1.05719e-09 5.14913e+06 0.0983798 1.05584e-09 5.36741e-06 1014.19 9.31768e+07
2.58954 0.102578 0.0128014 9.32845e-10 6.07894e+06 0.102446 9.31642e-10 4.68145e-06 1211.31 1.09963e+08
2.73654 0.10676 0.0151076 8.22671e-10 7.17304e+06 0.106623 8.2161e-10 4.08023e-06 1446.25 1.29773e+08
2.89188 0.111003 0.0178292 7.24792e-10 8.46557e+06 0.110858 7.23841e-10 3.55373e-06 1726.57 1.53152e+08
3.05605 0.115559 0.0210412 6.39354e-10 9.98773e+06 0.115413 6.3855e-10 3.09304e-06 2064.54 1.80743e+08
3.22953 0.120414 0.0248319 5.6452e-10 1.1797e+07 0.120257 5.63783e-10 2.69025e-06 2475.48 2.13304e+08
3.41286 0.12537 0.0293054 4.9803e-10 1.39144e+07 0.1252 4.97355e-10 2.33837e-06 2963.5 2.51731e+08
3.6066 0.130664 0.0345848 4.39824e-10 1.64163e+07 0.130491 4.39245e-10 2.0312e-06 3554.69 2.97081e+08
3.81134 0.136071 0.0408154 3.88106e-10 1.93821e+07 0.13589 3.8759e-10 1.76327e-06 4266.14 3.50601e+08
4.0277 0.141958 0.0481684 3.43089e-10 2.28754e+07 0.141765 3.42623e-10 1.52972e-06 5130.54 4.13763e+08
4.25634 0.148139 0.056846 3.03375e-10 2.69929e+07 0.147935 3.02957e-10 1.32631e-06 6174.26 4.88304e+08
4.49796 0.1547 0.067087 2.6845e-10 3.18542e+07 0.15448 2.68068e-10 1.14926e-06 7440.69 5.76273e+08
4.7533 0.161687 0.0791729 2.37744e-10 3.75892e+07 0.161459 2.37409e-10 9.95263e-07 8979.13 6.8009e+08
5.02313 0.169009 0.0934361 2.10574e-10 4.43706e+07 0.168766 2.10271e-10 8.61414e-07 10846.5 8.0261e+08
5.30828 0.176829 0.110269 1.86685e-10 5.23593e+07 0.176571 1.86414e-10 7.45152e-07 13117.7 9.47202e+08
5.60962 0.185317 0.130134 1.65781e-10 6.1787e+07 0.185047 1.65539e-10 6.44232e-07 15899.7 1.11784e+09
5.92807 0.194302 0.153578 1.47285e-10 7.29346e+07 0.194011 1.47064e-10 5.56685e-07 19296.6 1.31923e+09
6.26459 0.203814 0.181246 1.30911e-10 8.60651e+07 0.203505 1.30712e-10 4.80786e-07 23434.3 1.55689e+09
6.62021 0.214063 0.213898 1.16505e-10 1.01558e+08 0.213731 1.16325e-10 4.15026e-07 28509.2 1.83737e+09
6.99602 0.225034 0.252432 1.0378e-10 1.1986e+08 0.224686 1.0362e-10 3.58083e-07 34738.1 2.16837e+09
7.39317 0.23666 0.297908 9.24811e-11 1.41457e+08 0.236288 9.23358e-11 3.08803e-07 42363.8 2.55901e+09
7.81286 0.249046 0.351577 8.24648e-11 1.66936e+08 0.248652 8.23344e-11 2.66181e-07 51717.9 3.02002e+09
8.25637 0.262267 0.414914 7.35859e-11 1.97025e+08 0.261848 7.34685e-11 2.29336e-07 63218.5 3.56409e+09
8.72507 0.276471 0.489662 6.573e-11 2.32497e+08 0.276026 6.56242e-11 1.97503e-07 77376.1 4.20617e+09
9.22037 0.292016 0.577876 5.88277e-11 2.74404e+08 0.291535 5.87307e-11 1.70014e-07 94948.5 4.96392e+09
9.74378 0.30937 0.681982 5.28099e-11 3.2382e+08 0.308841 5.27196e-11 1.46289e-07 116898 5.85818e+09
10.2969 0.3296 0.804843 4.76745e-11 3.82165e+08 0.329005 4.75885e-11 1.25822e-07 144803 6.91355e+09
10.8814 0.354535 0.949838 4.3453e-11 4.51027e+08 0.353836 4.33673e-11 1.08175e-07 181173 8.15905e+09
11.4992 0.38758 1.12095 4.02517e-11 5.32251e+08 0.386714 4.01617e-11 9.29669e-08 230447 9.62892e+09
12.1519 0.43545 1.3229 3.83197e-11 6.28157e+08 0.434288 3.82175e-11 7.98658e-08 301391 1.13636e+10
12.8418 0.489774 1.56122 3.65209e-11 3.82727e+08 0.506902 3.77981e-11 6.85852e-08 203798 1.34108e+10
13.5708 0 1.84248 0 0 0 0 5.88765e-08 0 1.58268e+10
14.3411 0 2.17441 0 0 0 0 5.05241e-08 0 1.8678e+10
15.1552 0 2.56613 0 0 0 0 4.33417e-08 0 2.20429e+10
16.0156 0 3.02843 0 0 0 0 3.71677e-08 0 2.6014e+10
16.9247 0 3.574 0 0 0 0 3.18628e-08 0 3.07005e+10
17.8855 0 4.21787 0 0 0 0 2.73063e-08 0 3.62312e+10
18.9008 0 4.97773 0 0 0 0 2.33941e-08 0 4.27584e+10
19.9738 0 5.87448 0 0 0 0 2.00364e-08 0 5.04614e+10
21.1076 0 6.93279 0 0 0 0 1.71555e-08 0 5.95522e+10
22.3058 0 8.18175 0 0 0 0 1.46847e-08 0 7.02807e+10
23.5721 0 9.65571 0 0 0 0 1.25662e-08 0 8.29419e+10
24.9102 0 11.3952 0 0 0 0 1.07504e-08 0 9.78842e+10
26.3243 0 13.4481 0 0 0 0 9.19452e-09 0 1.15518e+11
27.8187 0 15.8708 0 0 0 0 7.86182e-09 0 1.36329e+11
29.3979 0 18.73 0 0 0 0 6.72061e-09 0 1.60889e+11
31.0667 0 22.1042 0 0 0 0 5.74366e-09 0 1.89874e+11
32.8303 0 26.0864 0 0 0 0 4.90756e-09 0 2.2408e+11
34.694 0 30.7859 0 0 0 0 4.19221e-09 0 2.64449e+11
36.6634 0 36.3321 0 0 0 0 3.58032e-09 0 3.1209e+11
38.7447 0 42.8774 0 0 0 0 3.05709e-09 0 3.68314e+11
40.9442 0 50.6018 0 0 0 0 2.60976e-09 0 4.34667e+11
43.2685 0 59.7179 0 0 0 0 2.22743e-09 0 5.12973e+11
45.7247 0 70.4762 0 0 0 0 1.90073e-09 0 6.05386e+11
48.3204 0 83.1727 0 0 0 0 1.62163e-09 0 7.14448e+11
51.0634 0 98.1565 0 0 0 0 1.38326e-09 0 8.43158e+11
53.9621 0 115.84 0 0 0 0 1.1797e-09 0 9.95055e+11
57.0254 0 136.709 0 0 0 0 1.00592e-09 0 1.17432e+12
60.2626 0 161.337 0 0 0 0 8.57591e-10 0 1.38587e+12
63.6835 0 190.402 0 0 0 0 7.3101e-10 0 1.63554e+12
67.2987 0 224.704 0 0 0 0 6.23009e-10 0 1.93019e+12
71.1191 0 265.185 0 0 0 0 5.30879e-10 0 2.27792e+12
75.1563 0 312.958 0 0 0 0 4.52303e-10 0 2.68829e+12
79.4227 0 369.339 0 0 0 0 3.85299e-10 0 3.17259e+12
83.9313 0 435.876 0 0 0 0 3.28173e-10 0 3.74415e+12
88.6959 0 514.4 0 0 0 0 2.79476e-10 0 4.41866e+12
93.7309 0 607.071 0 0 0 0 2.37972e-10 0 5.2147e+12
99.0518 0 716.436 0 0 0 0 2.02605e-10 0 6.15414e+12
104.675 0 845.504 0 0 0 0 1.72471e-10 0 7.26283e+12
110.617 0 997.824 0 0 0 0 1.468e-10 0 8.57124e+12
116.896 0 1177.58 0 0 0 0 1.24935e-10 0 1.01154e+13
123.532 0 1389.73 0 0 0 0 1.06313e-10 0 1.19377e+13
130.545 0 1640.09 0 0 0 0 9.04567e-11 0 1.40883e+13
137.955 0 1935.56 0 0 0 0 7.69563e-11 0 1.66263e+13
145.787 0 2284.26 0 0 0 0 6.54636e-11 0 1.96216e+13
154.063 0 2695.77 0 0 0 0 5.56812e-11 0 2.31565e+13
162.808 0 3181.42 0 0 0 0 4.73556e-11 0 2.73282e+13
172.051 0 3754.56 0 0 0 0 4.02708e-11 0 3.22515e+13
181.818 0 4430.96 0 0 0 0 3.42426e-11 0 3.80616e+13
192.139 0 5229.21 0 0 0 0 2.91139e-11 0 4.49186e+13
203.046 0 6171.26 0 0 0 0 2.4751e-11 0 5.30108e+13
214.572 0 7283.03 0 0 0 0 2.10401e-11 0 6.25608e+13
226.753 0 8595.09 0 0 0 0 1.78839e-11 0 7.38313e+13
239.625 0 10143.5 0 0 0 0 1.51999e-11 0 8.71322e+13
253.228 0 11970.9 0 0 0 0 1.29176e-11 0 1.02829e+14
267.603 0 14127.5 0 0 0 0 1.09771e-11 0 1.21354e+14
282.795 0 16672.6 0 0 0 0 9.3274e-12 0 1.43217e+14
298.848 0 19676.2 0 0 0 0 7.925e-12 0 1.69017e+14
315.813 0 23220.9 0 0 0 0 6.73295e-12 0 1.99466e+14
333.741 0 27404.3 0 0 0 0 5.71979e-12 0 2.35401e+14
352.686 0 32341.2 0 0 0 0 4.85874e-12 0 2.77809e+14
372.707 0 38167.6 0 0 0 0 4.12703e-12 0 3.27857e+14
393.865 0 45043.5 0 0 0 0 3.50528e-12 0 3.86921e+14
416.224 0 53158.3 0 0 0 0 2.97701e-12 0 4.56626e+14
439.852 0 62734.9 0 0 0 0 2.52819e-12 0 5.38888e+14
464.821 0 74036.7 0 0 0 0 2.1469e-12 0 6.35971e+14
491.207 0 87374.6 0 0 0 0 1.82301e-12 0 7.50542e+14
519.092 0 103115 0 0 0 0 1.54789e-12 0 8.85755e+14
548.56 0 121692 0 0 0 0 1.31422e-12 0 1.04533e+15
579.7 0 143615 0 0 0 0 1.11576e-12 0 1.23364e+15
612.608 0 169488 0 0 0 0 9.47223e-13 0 1.45589e+15
647.384 0 200021 0 0 0 0 8.041e-13 0 1.71817e+15
684.134 0 236056 0 0 0 0 6.82568e-13 0 2.0277e+15
722.971 0 278582 0 0 0 0 5.79376e-13 0 2.393e+15
764.012 0 328769 0 0 0 0 4.91762e-13 0 2.8241e+15
