0.129031
200
1.0655e+09
8589934592
0.0129181 0 1.58924e-09 0 0 0 0 0.00677225 0 13.6515
0.0136515 0 1.87554e-09 0 0 0 0 0.00688819 0 16.1108
0.0144264 0 2.21343e-09 0 0 0 0 0.00699249 0 19.0132
0.0152454 0 2.61218e-09 0 0 0 0 0.00708412 0 22.4385
0.0161108 0 3.08278e-09 0 0 0 0 0.00716212 0 26.4808
0.0170254 0 3.63815e-09 0 0 0 0 0.00722559 0 31.2514
0.0179919 0 4.29357e-09 0 0 0 0 0.00727371 0 36.8815
0.0190132 0 5.06707e-09 0 0 0 0 0.00730578 0 43.5258
0.0200925 0 5.97991e-09 0 0 0 0 0.00732122 0 51.367
0.0212331 0 7.05721e-09 0 0 0 0 0.00731958 0 60.621
0.0224385 0 8.32858e-09 0 0 0 0 0.00730056 0 71.542
0.0237123 0 9.829e-09 0 0 0 0 0.00726401 0 84.4305
0.0250583 0 1.15997e-08 0 0 0 0 0.00720995 0 99.6408
0.0264808 0 1.36894e-08 0 0 0 0 0.00713857 0 117.591
0.0279841 0 1.61556e-08 0 0 0 0 0.00705021 0 138.776
0.0295727 0 1.90661e-08 0 0 0 0 0.00694538 0 163.777
0.0312514 0 2.25009e-08 0 0 0 0 0.00682475 0 193.281
0.0330255 0 2.65545e-08 0 0 0 0 0.00668915 0 228.102
0.0349003 0 3.13384e-08 0 0 0 0 0.00653951 0 269.195
0.0368815 0 3.69841e-08 0 0 0 0 0.00637693 0 317.691
0.0389751 0 4.36469e-08 0 0 0 0 0.00620256 0 374.924
0.0411876 0 5.151e-08 0 0 0 0 0.00601767 0 442.467
0.0435258 0 6.07896e-08 0 0 0 0 0.00582358 0 522.179
0.0459966 0 7.1741e-08 0 0 0 0 0.00562166 0 616.251
0.0486077 0 8.46654e-08 0 0 0 0 0.0054133 0 727.27
0.051367 0 9.99181e-08 0 0 0 0 0.00519989 0 858.29
0.054283 0 1.17919e-07 0 0 0 0 0.0049828 0 1012.91
0.0573645 0 1.39162e-07 0 0 0 0 0.00476339 0 1195.39
0.060621 0 1.64232e-07 0 0 0 0 0.00454293 0 1410.75
0.0640622 0 1.93819e-07 0 0 0 0 0.00432265 0 1664.89
0.0676989 0 2.28736e-07 0 0 0 0 0.00410371 0 1964.83
0.071542 0 2.69944e-07 0 0 0 0 0.00388717 0 2318.8
0.0756032 0 3.18575e-07 0 0 0 0 0.00367401 0 2736.54
0.079895 0 3.75967e-07 0 0 0 0 0.0034651 0 3229.53
0.0844305 0 4.43698e-07 0 0 0 0 0.00326121 0 3811.34
0.0892234 0 5.23632e-07 0 0 0 0 0.00306301 0 4497.96
0.0942883 0 6.17966e-07 0 0 0 0 0.00287109 0 5308.28
0.0996408 0 7.29294e-07 0 0 0 0 0.00268591 0 6264.59
0.105297 0 8.60678e-07 0 0 0 0 0.00250785 0 7393.17
0.111275 0 1.01573e-06 0 0 0 0 0.00233721 0 8725.07
0.117591 0 1.19872e-06 0 0 0 0 0.00217419 0 10296.9
0.124267 0 1.41467e-06 0 0 0 0 0.00201893 0 12151.9
0.131321 0 1.66953e-06 0 0 0 0 0.00187147 0 14341.1
0.138776 0 1.9703e-06 0 0 0 0 0.00173182 0 16924.7
0.146654 0 2.32525e-06 0 0 0 0 0.00159991 0 19973.8
0.154979 0 2.74415e-06 0 0 0 0 0.00147563 0 23572.1
0.163777 0 3.23852e-06 0 0 0 0 0.00135884 0 27818.7
0.173074 0 3.82195e-06 0 0 0 0 0.00124933 0 32830.3
0.182899 0 4.51048e-06 0 0 0 0 0.00114689 0 38744.7
0.193281 0 5.32305e-06 0 0 0 0 0.00105127 0 45724.7
0.204254 0 6.28202e-06 0 0 0 0 0.000962209 0 53962.1
0.215848 0 7.41374e-06 0 0 0 0 0.000879423 0 63683.5
0.228102 0 8.74934e-06 0 0 0 0 0.000802624 0 75156.3
0.24105 0 1.03256e-05 0 0 0 0 0.000731515 0 88695.9
0.254734 0 1.21857e-05 0 0 0 0 0.000665798 0 104675
0.269195 0 1.4381e-05 0 0 0 0 0.000605173 0 123532
0.284476 0 1.69718e-05 0 0 0 0 0.000549345 0 145787
0.300625 0 2.00293e-05 0 0 0 0 0.000498021 0 172051
0.317691 0 2.36377e-05 0 0 0 0 0.000450916 0 203046
0.335725 0 2.78961e-05 0 0 0 0 0.000407755 0 239625
0.354784 0 3.29216e-05 0 0 0 0 0.000368269 0 282795
0.374924 0 3.88525e-05 0 0 0 0 0.000332202 0 333741
0.396207 0.525289 4.58519e-05 1.33368e-06 6 0.510685 1.2966e-06 0.000299307 0.0267353 393865
0.418699 0 5.41123e-05 0 0 0 0 0.00026935 0 464821
0.442467 0 6.38607e-05 0 0 0 0 0.000242108 0 548560
0.467585 0 7.53654e-05 0 0 0 0 0.00021737 0 647384
0.494129 0 8.89427e-05 0 0 0 0 0.000194938 0 764012
0.522179 0 0.000104966 0 0 0 0 0.000174625 0 901651
0.551822 0 0.000123876 0 0 0 0 0.000156255 0 1.06409e+06
0.583147 5.3989 0.000146192 4.29923e-06 12 5.68237 4.52496e-06 0.000139664 0.369391 1.25578e+06
0.616251 0 0.000172529 0 0 0 0 0.0001247 0 1.48202e+06
0.651234 0 0.000203611 0 0 0 0 0.00011122 0 1.74901e+06
0.688203 22.6989 0.000240292 1.0997e-05 8 22.1342 1.07234e-05 9.90935e-05 0.887811 2.06409e+06
0.72727 0 0.000283581 0 0 0 0 8.81969e-05 0 2.43595e+06
0.768555 0 0.000334669 0 0 0 0 7.84179e-05 0 2.87479e+06
0.812184 0.176158 0.000394961 5.19228e-08 6 0.179924 5.30329e-08 6.96525e-05 0.00447273 3.39269e+06
0.85829 0 0.000466114 0 0 0 0 6.1805e-05 0 4.00389e+06
0.907013 0.209007 0.000550086 4.42324e-08 24 0.213017 4.50811e-08 5.47875e-05 0.0193763 4.7252e+06
0.958501 0.750342 0.000649185 1.34555e-07 24 0.706391 1.26674e-07 4.85194e-05 0.0665574 5.57646e+06
1.01291 0 0.000766138 0 0 0 0 4.29272e-05 0 6.58107e+06
1.07041 0 0.00090416 0 0 0 0 3.79435e-05 0 7.76667e+06
1.13118 1.44961 0.00106705 1.58153e-07 12 1.4318 1.56211e-07 3.3507e-05 0.05664 9.16586e+06
1.19539 0.795204 0.00125928 7.35135e-08 30 0.778811 7.1998e-08 2.9562e-05 0.0746026 1.08171e+07
1.26325 6.92597 0.00148614 5.42539e-07 24 6.82175 5.34375e-07 2.60578e-05 0.499694 1.27658e+07
1.33496 18.0831 0.00175387 1.20029e-06 24 18.1228 1.20292e-06 2.29484e-05 1.25529 1.50656e+07
1.41075 5.86587 0.00206984 3.29918e-07 32 6.0293 3.3911e-07 2.01923e-05 0.522842 1.77798e+07
1.49083 0.373485 0.00244272 1.77995e-08 48 0.365522 1.74201e-08 1.77518e-05 0.0481292 2.09828e+07
1.57546 0.0830573 0.00288279 3.3541e-09 6 0.0790893 3.19385e-09 1.55929e-05 0.00129063 2.4763e+07
1.66489 0.476837 0.00340213 1.63166e-08 84 0.461128 1.57791e-08 1.3685e-05 0.100153 2.92241e+07
1.75941 2.35947 0.00401503 6.84126e-08 48 2.37468 6.88536e-08 1.20007e-05 0.273635 3.44889e+07
1.85928 0.283701 0.00473835 6.97019e-09 72 0.284883 6.99922e-09 1.05151e-05 0.0477269 4.07021e+07
1.96483 0.741407 0.00559198 1.54348e-08 54 0.723383 1.50596e-08 9.20606e-06 0.090536 4.80347e+07
2.07637 8.40703 0.00659939 1.48303e-07 104 8.39134 1.48026e-07 8.05366e-06 1.91509 5.66883e+07
2.19424 0.300131 0.00778828 4.48621e-09 120 0.303145 4.53126e-09 7.04008e-06 0.0764686 6.69008e+07
2.3188 1.75576 0.00919136 2.2238e-08 156 1.67021 2.11544e-08 6.1494e-06 0.564142 7.89532e+07
2.45043 0.606379 0.0108472 6.50783e-09 126 0.602368 6.46478e-09 5.36741e-06 0.152771 9.31768e+07
2.58954 0.584418 0.0128014 5.31468e-09 192 0.592458 5.3878e-09 4.68145e-06 0.217971 1.09963e+08
2.73654 3.82661 0.0151076 2.9487e-08 152 3.97432 3.06251e-08 4.08023e-06 1.09847 1.29773e+08
2.89188 3.49035 0.0178292 2.27901e-08 378 3.57102 2.33169e-08 3.55373e-06 2.42412 1.53152e+08
3.05605 1.25504 0.0210412 6.94378e-09 264 1.23415 6.82822e-09 3.09304e-06 0.592672 1.80743e+08
3.22953 0.253241 0.0248319 1.18723e-09 366 0.249791 1.17106e-09 2.69025e-06 0.161518 2.13304e+08
3.41286 0.807826 0.0293054 3.20908e-09 428 0.773924 3.07441e-09 2.33837e-06 0.587369 2.51731e+08
3.6066 3.10425 0.0345848 1.04492e-08 486 3.0026 1.0107e-08 2.0312e-06 2.50014 2.97081e+08
3.81134 0.782918 0.0408154 2.23307e-09 600 0.778882 2.22156e-09 1.76327e-06 0.759864 3.50601e+08
4.0277 0.5733 0.0481684 1.38557e-09 738 0.564392 1.36405e-09 1.52972e-06 0.668457 4.13763e+08
4.25634 1.16188 0.056846 2.37943e-09 824 1.20191 2.4614e-09 1.32631e-06 1.47828 4.88304e+08
4.49796 2.66815 0.067087 4.63001e-09 954 2.68899 4.66617e-09 1.14926e-06 3.84338 5.76273e+08
4.7533 0.610092 0.0791729 8.97075e-10 1094 0.601334 8.84198e-10 9.95263e-07 0.986072 6.8009e+08
5.02313 0.393598 0.0934361 4.90397e-10 1332 0.394248 4.91207e-10 8.61414e-07 0.758298 8.0261e+08
5.30828 2.13116 0.110269 2.24996e-09 1614 2.15743 2.27769e-09 7.45152e-07 4.87341 9.47202e+08
5.60962 1.10497 0.130134 9.88488e-10 1850 1.07337 9.60214e-10 6.44232e-07 2.83858 1.11784e+09
5.92807 1.5031 0.153578 1.13938e-09 2238 1.44611 1.09618e-09 5.56685e-07 4.58058 1.31923e+09
6.26459 0.74548 0.181246 4.78827e-10 2546 0.753834 4.84193e-10 4.80786e-07 2.53562 1.55689e+09
6.62021 0.417824 0.213898 2.27404e-10 3264 0.41739 2.27168e-10 4.15026e-07 1.78843 1.83737e+09
6.99602 1.51192 0.252432 6.97258e-10 3506 1.55674 7.17931e-10 3.58083e-07 6.82688 2.16837e+09
7.39317 0.778239 0.297908 3.04117e-10 4506 0.786084 3.07183e-10 3.08803e-07 4.43762 2.55901e+09
7.81286 1.32329 0.351577 4.38173e-10 5018 1.35866 4.49885e-10 2.66181e-07 8.26037 3.02002e+09
8.25637 1.19311 0.414914 3.34759e-10 5852 1.15807 3.24927e-10 2.29336e-07 8.54208 3.56409e+09
8.72507 0.894424 0.489662 2.12646e-10 7362 0.886477 2.10756e-10 1.97503e-07 7.92645 4.20617e+09
9.22037 1.18802 0.577876 2.39332e-10 8306 1.1767 2.37051e-10 1.70014e-07 11.6925 4.96392e+09
9.74378 0.677659 0.681982 1.15677e-10 9698 0.677425 1.15637e-10 1.46289e-07 7.66865 5.85818e+09
10.2969 1.27881 0.804843 1.84972e-10 11816 1.2929 1.87009e-10 1.25822e-07 17.3707 6.91355e+09
10.8814 1.1615 0.949838 1.42358e-10 13682 1.16195 1.42413e-10 1.08175e-07 18.0054 8.15905e+09
11.4992 1.18977 1.12095 1.23562e-10 16152 1.17638 1.22172e-10 9.29669e-08 21.4676 9.62892e+09
12.1519 1.21801 1.3229 1.07185e-10 19472 1.20081 1.05672e-10 7.98658e-08 26.1327 1.13636e+10
12.8418 0.93906 1.56122 7.00227e-11 22670 0.941049 7.01711e-11 6.85852e-08 23.1452 1.34108e+10
13.5708 1.309 1.84248 8.27078e-11 26224 1.31786 8.32675e-11 5.88765e-08 36.8386 1.58268e+10
14.3411 1.34455 2.17441 7.19856e-11 31640 1.35169 7.23678e-11 5.05241e-08 45.0799 1.8678e+10
15.1552 1.53102 2.56613 6.94564e-11 37484 1.53301 6.95466e-11 4.33417e-08 60.0692 2.20429e+10
16.0156 1.61582 3.02843 6.21135e-11 43856 1.62061 6.22977e-11 3.71677e-08 73.2907 2.6014e+10
16.9247 2.17625 3.574 7.08866e-11 51362 2.1713 7.07255e-11 3.18628e-08 114.267 3.07005e+10
17.8855 2.31894 4.21787 6.40039e-11 61636 2.30612 6.365e-11 2.73063e-08 144.47 3.62312e+10
18.9008 2.95997 4.97773 6.92255e-11 72218 2.94891 6.89669e-11 2.33941e-08 213.7 4.27584e+10
19.9738 3.70905 5.87448 7.35027e-11 84586 3.69257 7.31761e-11 2.00364e-08 310.301 5.04614e+10
21.1076 4.43457 6.93279 7.44653e-11 100708 4.42245 7.42617e-11 1.71555e-08 437.133 5.95522e+10
22.3058 5.4369 8.18175 7.73597e-11 118712 5.42643 7.72108e-11 1.46847e-08 625.383 7.02807e+10
23.5721 6.52302 9.65571 7.86456e-11 140410 6.50307 7.84051e-11 1.25662e-08 878.76 8.29419e+10
24.9102 7.66183 11.3952 7.82745e-11 164374 7.63597 7.80103e-11 1.07504e-08 1196.82 9.78842e+10
26.3243 8.95466 13.4481 7.75172e-11 194680 8.92621 7.7271e-11 9.19452e-09 1641.31 1.15518e+11
27.8187 10.3887 15.8708 7.62032e-11 230196 10.3553 7.5958e-11 7.86182e-09 2231.25 1.36329e+11
29.3979 12.0697 18.73 7.50185e-11 271156 12.0306 7.47754e-11 6.72061e-09 3026.77 1.60889e+11
31.0667 13.8832 22.1042 7.31181e-11 321076 13.8407 7.28942e-11 5.74366e-09 4087.37 1.89874e+11
32.8303 16.0164 26.0864 7.14761e-11 377436 15.9667 7.12542e-11 4.90756e-09 5497.16 2.2408e+11
34.694 18.4861 30.7859 6.99044e-11 447594 18.4302 6.9693e-11 4.19221e-09 7463.56 2.64449e+11
36.6634 21.4179 36.3321 6.86273e-11 525078 21.3517 6.84151e-11 3.58032e-09 10064.6 3.1209e+11
38.7447 24.8605 42.8774 6.74982e-11 621924 24.7853 6.7294e-11 3.05709e-09 13731.6 3.68314e+11
40.9442 28.996 50.6018 6.67086e-11 732630 28.9055 6.65005e-11 2.60976e-09 18726.9 4.34667e+11
43.2685 33.9212 59.7179 6.61266e-11 865596 33.8187 6.59269e-11 2.22743e-09 25697.3 5.12973e+11
45.7247 39.6644 70.4762 6.55192e-11 1.02168e+06 39.5331 6.53022e-11 1.90073e-09 35217.7 6.05386e+11
48.3204 46.4172 83.1727 6.49693e-11 1.20544e+06 46.2717 6.47656e-11 1.62163e-09 48294.8 7.14448e+11
51.0634 54.1711 98.1565 6.42479e-11 1.42103e+06 54.0021 6.40474e-11 1.38326e-09 66002.4 8.43158e+11
53.9621 63.4812 115.84 6.37967e-11 1.67997e+06 63.28 6.35944e-11 1.1797e-09 90850.3 9.95055e+11
57.0254 74.3972 136.709 6.33536e-11 1.98018e+06 74.1663 6.31569e-11 1.00592e-09 124713 1.17432e+12
60.2626 87.1966 161.337 6.29182e-11 2.33957e+06 86.9173 6.27166e-11 8.57591e-10 171645 1.38587e+12
63.6835 102.423 190.402 6.26236e-11 2.75676e+06 102.092 6.2421e-11 7.3101e-10 236164 1.63554e+12
67.2987 119.933 224.704 6.21354e-11 3.25638e+06 119.56 6.19419e-11 6.23009e-10 324773 1.93019e+12
71.1191 141.053 265.185 6.19218e-11 3.84387e+06 140.601 6.17233e-11 5.30879e-10 448350 2.27792e+12
75.1563 165.695 312.958 6.16359e-11 4.53277e+06 165.16 6.14367e-11 4.52303e-10 617685 2.68829e+12
79.4227 194.76 369.339 6.13882e-11 5.35083e+06 194.134 6.1191e-11 3.85299e-10 852525 3.17259e+12
83.9313 229.423 435.876 6.12751e-11 6.32174e+06 228.685 6.10779e-11 3.28173e-10 1.18037e+06 3.74415e+12
88.6959 270.221 514.4 6.11545e-11 7.44986e+06 269.339 6.09549e-11 2.79476e-10 1.63016e+06 4.41866e+12
93.7309 317.84 607.071 6.09508e-11 8.79764e+06 316.802 6.07517e-11 2.37972e-10 2.2533e+06 5.2147e+12
99.0518 374.593 716.436 6.08684e-11 1.03827e+07 373.363 6.06686e-11 2.02605e-10 3.11926e+06 6.15414e+12
104.675 442.059 845.504 6.0866e-11 1.22515e+07 440.586 6.06632e-11 1.72471e-10 4.32363e+06 7.26283e+12
110.617 520.88 997.824 6.07707e-11 1.44573e+07 519.165 6.05706e-11 1.468e-10 5.98488e+06 8.57124e+12
116.896 614.088 1177.58 6.07083e-11 1.70664e+07 612.076 6.05095e-11 1.24935e-10 8.29291e+06 1.01154e+13
123.532 724.528 1389.73 6.06925e-11 2.0139e+07 722.147 6.04931e-11 1.06313e-10 1.1497e+07 1.19377e+13
130.545 871.136 1640.09 6.1834e-11 2.37643e+07 869.005 6.16828e-11 9.04567e-11 1.62447e+07 1.40883e+13
137.955 1008.45 1935.56 6.06539e-11 2.80503e+07 1005.11 6.04526e-11 7.69563e-11 2.21081e+07 1.66263e+13
145.787 1190.62 2284.26 6.06787e-11 3.30981e+07 1186.67 6.04776e-11 6.54636e-11 3.06789e+07 1.96216e+13
154.063 1406.86 2695.77 6.07546e-11 3.90634e+07 1402.19 6.05526e-11 5.56812e-11 4.26227e+07 2.31565e+13
162.808 1658.73 3181.42 6.06968e-11 4.61057e+07 1653.19 6.04939e-11 4.73556e-11 5.90947e+07 2.73282e+13
172.051 1960.27 3754.56 6.07808e-11 5.44046e+07 1953.68 6.05766e-11 4.02708e-11 8.21129e+07 3.22515e+13
181.818 2322.01 4430.96 6.10066e-11 6.42064e+07 2314.37 6.08058e-11 3.42426e-11 1.1439e+08 3.80616e+13
192.139 2737.04 5229.21 6.09334e-11 7.57748e+07 2727.89 6.07297e-11 2.91139e-11 1.58591e+08 4.49186e+13
203.046 3244.24 6171.26 6.11997e-11 8.94213e+07 3233.15 6.09904e-11 2.4751e-11 2.21104e+08 5.30108e+13
214.572 3832.55 7283.03 6.12613e-11 1.05538e+08 3819.57 6.10538e-11 2.10401e-11 3.0729e+08 6.25608e+13
226.753 4541.48 8595.09 6.15116e-11 1.24552e+08 4525.99 6.13017e-11 1.78839e-11 4.28395e+08 7.38313e+13
239.625 5386.98 10143.5 6.18253e-11 1.46987e+08 5368.56 6.1614e-11 1.51999e-11 5.97868e+08 8.71322e+13
253.228 6399.43 11970.9 6.22335e-11 1.7347e+08 6377.37 6.2019e-11 1.29176e-11 8.3573e+08 1.02829e+14
267.603 7619.64 14127.5 6.27884e-11 2.04703e+08 7593.11 6.25698e-11 1.09771e-11 1.17088e+09 1.21354e+14
282.795 9096.12 16672.6 6.35131e-11 2.4161e+08 9064.05 6.32891e-11 9.3274e-12 1.64519e+09 1.43217e+14
298.848 10904.2 19676.2 6.45153e-11 2.85122e+08 10865 6.42836e-11 7.925e-12 2.3211e+09 1.69017e+14
315.813 13146 23220.9 6.59057e-11 3.36491e+08 13097.9 6.56648e-11 6.73295e-12 3.29376e+09 1.99466e+14
333.741 15959.6 27404.3 6.77977e-11 3.97115e+08 15899 6.75399e-11 5.71979e-12 4.70707e+09 2.35401e+14
352.686 19583.6 32341.2 7.04932e-11 4.68637e+08 19505.8 7.02132e-11 4.85874e-12 6.79924e+09 2.77809e+14
372.707 24402.1 38167.6 7.44291e-11 5.53074e+08 24299.5 7.41162e-11 4.12703e-12 9.97444e+09 3.27857e+14
393.865 31043.3 45043.5 8.02316e-11 6.52716e+08 30902.5 7.98677e-11 3.50528e-12 1.49399e+10 3.86921e+14
416.224 36639.1 53158.3 8.02388e-11 2.2184e+08 38760.8 8.48852e-11 2.97701e-12 5.97921e+09 4.56626e+14
439.852 0 62734.9 0 0 0 0 2.52819e-12 0 5.38888e+14
464.821 0 74036.7 0 0 0 0 2.1469e-12 0 6.35971e+14
491.207 0 87374.6 0 0 0 0 1.82301e-12 0 7.50542e+14
519.092 0 103115 0 0 0 0 1.54789e-12 0 8.85755e+14
548.56 0 121692 0 0 0 0 1.31422e-12 0 1.04533e+15
579.7 0 143615 0 0 0 0 1.11576e-12 0 1.23364e+15
612.608 0 169488 0 0 0 0 9.47223e-13 0 1.45589e+15
647.384 0 200021 0 0 0 0 8.041e-13 0 1.71817e+15
684.134 0 236056 0 0 0 0 6.82568e-13 0 2.0277e+15
722.971 0 278582 0 0 0 0 5.79376e-13 0 2.393e+15
764.012 0 328769 0 0 0 0 4.91762e-13 0 2.8241e+15
0.129031
200
1.0655e+09
8589934592
0.0129181 5.39545e-05 1.58924e-09 3.95229e-06 6 5.34606e-05 3.91611e-06 0.00677225 0.0035016 13.6515
0.0136515 0 1.87554e-09 0 0 0 0 0.00688819 0 16.1108
0.0144264 0 2.21343e-09 0 0 0 0 0.00699249 0 19.0132
0.0152454 0 2.61218e-09 0 0 0 0 0.00708412 0 22.4385
0.0161108 0 3.08278e-09 0 0 0 0 0.00716212 0 26.4808
0.0170254 0 3.63815e-09 0 0 0 0 0.00722559 0 31.2514
0.0179919 0.00011982 4.29357e-09 3.24879e-06 12 0.000119666 3.24461e-06 0.00727371 0.00535979 36.8815
0.0190132 0 5.06707e-09 0 0 0 0 0.00730578 0 43.5258
0.0200925 0 5.97991e-09 0 0 0 0 0.00732122 0 51.367
0.0212331 0.000113319 7.05721e-09 1.86931e-06 8 0.000113221 1.86768e-06 0.00731958 0.00204308 60.621
0.0224385 0 8.32858e-09 0 0 0 0 0.00730056 0 71.542
0.0237123 0 9.829e-09 0 0 0 0 0.00726401 0 84.4305
0.0250583 0.000728576 1.15997e-08 7.31202e-06 6 0.000728233 7.30858e-06 0.00720995 0.00608494 99.6408
0.0264808 0 1.36894e-08 0 0 0 0 0.00713857 0 117.591
0.0279841 0.000453775 1.61556e-08 3.26984e-06 24 0.000453309 3.26648e-06 0.00705021 0.011131 138.776
0.0295727 0 1.90661e-08 0 0 0 0 0.00694538 0 163.777
0.0312514 0.00081142 2.25009e-08 4.19812e-06 24 0.000815539 4.21944e-06 0.00682475 0.0147632 193.281
0.0330255 0 2.65545e-08 0 0 0 0 0.00668915 0 228.102
0.0349003 0.00113522 3.13384e-08 4.21711e-06 12 0.00112613 4.18334e-06 0.00653951 0.00773839 269.195
0.0368815 0.000983644 3.69841e-08 3.09623e-06 30 0.00097317 3.06326e-06 0.00637693 0.0145661 317.691
0.0389751 0.00117301 4.36469e-08 3.12866e-06 24 0.00116094 3.09647e-06 0.00620256 0.0121059 374.924
0.0411876 0.000743333 5.151e-08 1.67997e-06 24 0.000738284 1.66856e-06 0.00601767 0.00670016 442.467
0.0435258 0.0016012 6.07896e-08 3.06638e-06 8 0.00160108 3.06615e-06 0.00582358 0.00421237 522.179
0.0459966 0.00204909 7.1741e-08 3.32509e-06 72 0.00203288 3.29879e-06 0.00562166 0.0425865 616.251
0.0486077 0 8.46654e-08 0 0 0 0 0.0054133 0 727.27
0.051367 0.00306946 9.99181e-08 3.57625e-06 54 0.00305974 3.56493e-06 0.00519989 0.0371388 858.29
0.054283 0.00238423 1.17919e-07 2.35383e-06 60 0.00239415 2.36363e-06 0.0049828 0.0283435 1012.91
0.0573645 0.00237502 1.39162e-07 1.98681e-06 96 0.00236893 1.98172e-06 0.00476339 0.0400417 1195.39
0.060621 0.00274147 1.64232e-07 1.94328e-06 24 0.00270433 1.91695e-06 0.00454293 0.0102662 1410.75
0.0640622 0.00483188 1.93819e-07 2.90221e-06 134 0.00483451 2.90379e-06 0.00432265 0.0899672 1664.89
0.0676989 0.0046335 2.28736e-07 2.35822e-06 120 0.0046123 2.34743e-06 0.00410371 0.0689587 1964.83
0.071542 0.00423164 2.69944e-07 1.82493e-06 108 0.00418586 1.80518e-06 0.00388717 0.0507032 2318.8
0.0756032 0.00614857 3.18575e-07 2.24684e-06 174 0.00611658 2.23515e-06 0.00367401 0.10641 2736.54
0.079895 0.00657721 3.75967e-07 2.03658e-06 168 0.00651516 2.01737e-06 0.0034651 0.0987407 3229.53
0.0844305 0.0056266 4.43698e-07 1.47628e-06 168 0.00565471 1.48365e-06 0.00326121 0.07605 3811.34
0.0892234 0.00632865 5.23632e-07 1.407e-06 290 0.00630213 1.40111e-06 0.00306301 0.133212 4497.96
0.0942883 0.00822416 6.17966e-07 1.54931e-06 288 0.00820331 1.54538e-06 0.00287109 0.155412 5308.28
0.0996408 0.00749434 7.29294e-07 1.1963e-06 366 0.00743096 1.18619e-06 0.00268591 0.163016 6264.59
0.105297 0.0081116 8.60678e-07 1.09718e-06 420 0.00805556 1.08959e-06 0.00250785 0.183748 7393.17
0.111275 0.00857827 1.01573e-06 9.83175e-07 398 0.00855486 9.80493e-07 0.00233721 0.167423 8725.07
0.117591 0.010211 1.19872e-06 9.91655e-07 624 0.0102318 9.93675e-07 0.00217419 0.284608 10296.9
0.124267 0.0112874 1.41467e-06 9.28857e-07 642 0.0112733 9.27696e-07 0.00201893 0.295368 12151.9
0.131321 0.0143382 1.66953e-06 9.99799e-07 800 0.0143433 1.00015e-06 0.00187147 0.427386 14341.1
0.138776 0.0130242 1.9703e-06 7.69534e-07 858 0.013087 7.73248e-07 0.00173182 0.381253 16924.7
0.146654 0.0140485 2.32525e-06 7.03349e-07 1080 0.0141659 7.09225e-07 0.00159991 0.474787 19973.8
0.154979 0.0166175 2.74415e-06 7.04965e-07 1286 0.0167326 7.09848e-07 0.00147563 0.61437 23572.1
0.163777 0.0157374 3.23852e-06 5.65712e-07 1650 0.0157653 5.66718e-07 0.00135884 0.686928 27818.7
0.173074 0.0185413 3.82195e-06 5.64763e-07 1778 0.0185434 5.64825e-07 0.00124933 0.803748 32830.3
0.182899 0.0181349 4.51048e-06 4.68061e-07 2112 0.0181778 4.69168e-07 0.00114689 0.861934 38744.7
0.193281 0.0213389 5.32305e-06 4.66683e-07 2570 0.0213705 4.67372e-07 0.00105127 1.14088 45724.7
0.204254 0.0236793 6.28202e-06 4.38813e-07 3030 0.0236697 4.38635e-07 0.000962209 1.38182 53962.1
0.215848 0.0235486 7.41374e-06 3.69776e-07 3434 0.0235449 3.69717e-07 0.000879423 1.44391 63683.5
0.228102 0.0246187 8.74934e-06 3.27567e-07 4218 0.0246247 3.27646e-07 0.000802624 1.72145 75156.3
0.24105 0.0278151 1.03256e-05 3.13601e-07 4766 0.0278415 3.13899e-07 0.000731515 2.04319 88695.9
0.254734 0.0297209 1.21857e-05 2.83936e-07 6026 0.0297116 2.83847e-07 0.000665798 2.56984 104675
0.269195 0.0310995 1.4381e-05 2.51752e-07 6480 0.031085 2.51635e-07 0.000605173 2.69568 123532
0.284476 0.0337211 1.69718e-05 2.31304e-07 8162 0.0337991 2.31839e-07 0.000549345 3.43665 145787
0.300625 0.033966 2.00293e-05 1.97419e-07 9578 0.0340093 1.9767e-07 0.000498021 3.79678 172051
0.317691 0.0377699 2.36377e-05 1.86016e-07 11234 0.0377424 1.85881e-07 0.000450916 4.63436 203046
0.335725 0.0395378 2.78961e-05 1.64998e-07 13344 0.0395203 1.64925e-07 0.000407755 5.39966 239625
0.354784 0.0410124 3.29216e-05 1.45025e-07 15464 0.040988 1.44939e-07 0.000368269 6.08976 282795
0.374924 0.0440688 3.88525e-05 1.32045e-07 18458 0.044062 1.32025e-07 0.000332202 7.33677 333741
0.396207 0.0462218 4.58519e-05 1.17354e-07 22232 0.0461553 1.17186e-07 0.000299307 8.71689 393865
0.418699 0.0500356 5.41123e-05 1.07645e-07 25628 0.0499331 1.07424e-07 0.00026935 10.2422 464821
0.442467 0.0521203 6.38607e-05 9.5013e-08 30320 0.0520305 9.48494e-08 0.000242108 11.8988 548560
0.467585 0.0546417 7.53654e-05 8.44039e-08 35452 0.0545627 8.42818e-08 0.00021737 13.7658 647384
0.494129 0.0566755 8.89427e-05 7.41815e-08 41792 0.0566547 7.41542e-08 0.000194938 15.9035 764012
0.522179 0.0613099 0.000104966 6.79974e-08 49988 0.0612925 6.79781e-08 0.000174625 19.4649 901651
0.551822 0.0641143 0.000123876 6.0253e-08 59110 0.0640736 6.02147e-08 0.000156255 22.7933 1.06409e+06
0.583147 0.0676747 0.000146192 5.38904e-08 69716 0.0675937 5.38259e-08 0.000139664 26.9004 1.25578e+06
0.616251 0.0714473 0.000172529 4.82095e-08 82210 0.0713348 4.81336e-08 0.0001247 31.7827 1.48202e+06
0.651234 0.0755706 0.000203611 4.32077e-08 96722 0.0754332 4.31292e-08 0.00011122 37.5753 1.74901e+06
0.688203 0.0794694 0.000240292 3.85009e-08 113098 0.0793978 3.84662e-08 9.90935e-05 43.9421 2.06409e+06
0.72727 0.0826001 0.000283581 3.39089e-08 135190 0.0825152 3.3874e-08 8.81969e-05 51.9762 2.43595e+06
0.768555 0.0877613 0.000334669 3.05279e-08 158170 0.0876838 3.0501e-08 7.84179e-05 61.5752 2.87479e+06
0.812184 0.0918353 0.000394961 2.70686e-08 188560 0.0917456 2.70422e-08 6.96525e-05 73.2788 3.39269e+06
0.85829 0.0960871 0.000466114 2.39984e-08 220444 0.0959779 2.39712e-08 6.1805e-05 85.5968 4.00389e+06
0.907013 0.101187 0.000550086 2.14143e-08 261388 0.101086 2.13929e-08 5.47875e-05 102.166 4.7252e+06
0.958501 0.105998 0.000649185 1.90081e-08 308244 0.105885 1.89878e-08 4.85194e-05 120.759 5.57646e+06
1.01291 0.111954 0.000766138 1.70114e-08 364396 0.111829 1.69926e-08 4.29272e-05 144.405 6.58107e+06
1.07041 0.117008 0.00090416 1.50654e-08 429162 0.116865 1.5047e-08 3.79435e-05 170.398 7.76667e+06
1.13118 0.123442 0.00106705 1.34676e-08 506358 0.123295 1.34515e-08 3.3507e-05 203.522 9.16586e+06
1.19539 0.129031 0.00125928 1.19285e-08 598590 0.128868 1.19133e-08 2.9562e-05 241.535 1.08171e+07
1.26325 0.135621 0.00148614 1.06237e-08 704844 0.135448 1.06102e-08 2.60578e-05 287.363 1.27658e+07
1.33496 0.141995 0.00175387 9.42509e-09 834620 0.141811 9.4129e-09 2.29484e-05 342.785 1.50656e+07
1.41075 0.148836 0.00206984 8.3711e-09 981444 0.148657 8.36104e-09 2.01923e-05 406.876 1.77798e+07
1.49083 0.156211 0.00244272 7.4447e-09 1.15998e+06 0.156008 7.43502e-09 1.77518e-05 486.469 2.09828e+07
1.57546 0.164458 0.00288279 6.64129e-09 1.36931e+06 0.164242 6.63257e-09 1.55929e-05 583.215 2.4763e+07
1.66489 0.172457 0.00340213 5.90119e-09 1.61652e+06 0.172209 5.89271e-09 1.3685e-05 697.067 2.92241e+07
1.75941 0.18088 0.00401503 5.24461e-09 1.90601e+06 0.180629 5.23732e-09 1.20007e-05 832.973 3.44889e+07
1.85928 0.190166 0.00473835 4.67214e-09 2.24913e+06 0.189917 4.66602e-09 1.05151e-05 999.348 4.07021e+07
1.96483 0.199279 0.00559198 4.14865e-09 2.65744e+06 0.198995 4.14274e-09 9.20606e-06 1197.56 4.80347e+07
2.07637 0.209571 0.00659939 3.69689e-09 3.13125e+06 0.209281 3.69178e-09 8.05366e-06 1437.35 5.66883e+07
2.19424 0.220303 0.00778828 3.29298e-09 3.69915e+06 0.220002 3.28847e-09 7.04008e-06 1730.27 6.69008e+07
2.3188 0.231476 0.00919136 2.93181e-09 4.36472e+06 0.231142 2.92758e-09 6.1494e-06 2080.94 7.89532e+07
2.45043 0.243692 0.0108472 2.61537e-09 5.14913e+06 0.243344 2.61164e-09 5.36741e-06 2509.01 9.31768e+07
2.58954 0.256788 0.0128014 2.33522e-09 6.07894e+06 0.256411 2.3318e-09 4.68145e-06 3032.32 1.09963e+08
2.73654 0.27028 0.0151076 2.08271e-09 7.17304e+06 0.269888 2.07969e-09 4.08023e-06 3661.4 1.29773e+08
2.89188 0.284708 0.0178292 1.85899e-09 8.46557e+06 0.284293 1.85628e-09 3.55373e-06 4428.42 1.53152e+08
3.05605 0.300296 0.0210412 1.66146e-09 9.98773e+06 0.299878 1.65914e-09 3.09304e-06 5365.01 1.80743e+08
3.22953 0.316891 0.0248319 1.48563e-09 1.1797e+07 0.316428 1.48346e-09 2.69025e-06 6514.63 2.13304e+08
3.41286 0.33491 0.0293054 1.33043e-09 1.39144e+07 0.334395 1.32838e-09 2.33837e-06 7916.65 2.51731e+08
3.6066 0.353732 0.0345848 1.19069e-09 1.64163e+07 0.353204 1.18891e-09 2.0312e-06 9623.23 2.97081e+08
3.81134 0.37423 0.0408154 1.06739e-09 1.93821e+07 0.373661 1.06577e-09 1.76327e-06 11733 3.50601e+08
4.0277 0.396279 0.0481684 9.57744e-10 2.28754e+07 0.395666 9.56262e-10 1.52972e-06 14322.1 4.13763e+08
4.25634 0.419832 0.056846 8.59777e-10 2.69929e+07 0.419168 8.58418e-10 1.32631e-06 17498.1 4.88304e+08
4.49796 0.445583 0.067087 7.73215e-10 3.18542e+07 0.444868 7.71974e-10 1.14926e-06 21431.4 5.76273e+08
4.7533 0.473276 0.0791729 6.95902e-10 3.75892e+07 0.472512 6.94779e-10 9.95263e-07 26282.9 6.8009e+08
5.02313 0.503002 0.0934361 6.26708e-10 4.43706e+07 0.502183 6.25688e-10 8.61414e-07 32281.1 8.0261e+08
5.30828 0.53529 0.110269 5.65127e-10 5.23593e+07 0.534388 5.64175e-10 7.45152e-07 39709.5 9.47202e+08
5.60962 0.570507 0.130134 5.10364e-10 6.1787e+07 0.569555 5.09512e-10 6.44232e-07 48948 1.11784e+09
5.92807 0.609059 0.153578 4.61679e-10 7.29346e+07 0.608007 4.60882e-10 5.56685e-07 60487.3 1.31923e+09
6.26459 0.650746 0.181246 4.17978e-10 8.60651e+07 0.649603 4.17244e-10 4.80786e-07 74821.9 1.55689e+09
6.62021 0.696902 0.213898 3.79294e-10 1.01558e+08 0.695664 3.7862e-10 4.15026e-07 92814.5 1.83737e+09
6.99602 0.747618 0.252432 3.44783e-10 1.1986e+08 0.746274 3.44163e-10 3.58083e-07 115408 2.16837e+09
7.39317 0.803703 0.297908 3.14068e-10 1.41457e+08 0.802233 3.13493e-10 3.08803e-07 143868 2.55901e+09
7.81286 0.865572 0.351577 2.86611e-10 1.66936e+08 0.863951 2.86074e-10 2.66181e-07 179749 3.02002e+09
8.25637 0.934263 0.414914 2.62132e-10 1.97025e+08 0.932487 2.61634e-10 2.29336e-07 225201 3.56409e+09
8.72507 1.01073 0.489662 2.40298e-10 2.32497e+08 1.00877 2.39831e-10 1.97503e-07 282874 4.20617e+09
9.22037 1.09697 0.577876 2.20988e-10 2.74404e+08 1.09477 2.20546e-10 1.70014e-07 356677 4.96392e+09
9.74378 1.1949 0.681982 2.03971e-10 3.2382e+08 1.19244 2.03551e-10 1.46289e-07 451503 5.85818e+09
10.2969 1.30926 0.804843 1.89376e-10 3.82165e+08 1.30643 1.88967e-10 1.25822e-07 575198 6.91355e+09
10.8814 1.44798 0.949838 1.7747e-10 4.51027e+08 1.44463 1.77059e-10 1.08175e-07 739942 8.15905e+09
11.4992 1.62671 1.12095 1.6894e-10 5.32251e+08 1.62252 1.68505e-10 9.29669e-08 967208 9.62892e+09
12.1519 1.87436 1.3229 1.64945e-10 6.28157e+08 1.86878 1.64453e-10 7.98658e-08 1.29732e+06 1.13636e+10
12.8418 2.1441 1.56122 1.59879e-10 3.82727e+08 2.21891 1.65457e-10 6.85852e-08 892173 1.34108e+10
13.5708 0 1.84248 0 0 0 0 5.88765e-08 0 1.58268e+10
14.3411 0 2.17441 0 0 0 0 5.05241e-08 0 1.8678e+10
15.1552 0 2.56613 0 0 0 0 4.33417e-08 0 2.20429e+10
16.0156 0 3.02843 0 0 0 0 3.71677e-08 0 2.6014e+10
16.9247 0 3.574 0 0 0 0 3.18628e-08 0 3.07005e+10
17.8855 0 4.21787 0 0 0 0 2.73063e-08 0 3.62312e+10
18.9008 0 4.97773 0 0 0 0 2.33941e-08 0 4.27584e+10
19.9738 0 5.87448 0 0 0 0 2.00364e-08 0 5.04614e+10
21.1076 0 6.93279 0 0 0 0 1.71555e-08 0 5.95522e+10
22.3058 0 8.18175 0 0 0 0 1.46847e-08 0 7.02807e+10
23.5721 0 9.65571 0 0 0 0 1.25662e-08 0 8.29419e+10
24.9102 0 11.3952 0 0 0 0 1.07504e-08 0 9.78842e+10
26.3243 0 13.4481 0 0 0 0 9.19452e-09 0 1.15518e+11
27.8187 0 15.8708 0 0 0 0 7.86182e-09 0 1.36329e+11
29.3979 0 18.73 0 0 0 0 6.72061e-09 0 1.60889e+11
31.0667 0 22.1042 0 0 0 0 5.74366e-09 0 1.89874e+11
32.8303 0 26.0864 0 0 0 0 4.90756e-09 0 2.2408e+11
34.694 0 30.7859 0 0 0 0 4.19221e-09 0 2.64449e+11
36.6634 0 36.3321 0 0 0 0 3.58032e-09 0 3.1209e+11
38.7447 0 42.8774 0 0 0 0 3.05709e-09 0 3.68314e+11
40.9442 0 50.6018 0 0 0 0 2.60976e-09 0 4.34667e+11
43.2685 0 59.7179 0 0 0 0 2.22743e-09 0 5.12973e+11
45.7247 0 70.4762 0 0 0 0 1.90073e-09 0 6.05386e+11
48.3204 0 83.1727 0 0 0 0 1.62163e-09 0 7.14448e+11
51.0634 0 98.1565 0 0 0 0 1.38326e-09 0 8.43158e+11
53.9621 0 115.84 0 0 0 0 1.1797e-09 0 9.95055e+11
57.0254 0 136.709 0 0 0 0 1.00592e-09 0 1.17432e+12
60.2626 0 161.337 0 0 0 0 8.57591e-10 0 1.38587e+12
63.6835 0 190.402 0 0 0 0 7.3101e-10 0 1.63554e+12
67.2987 0 224.704 0 0 0 0 6.23009e-10 0 1.93019e+12
71.1191 0 265.185 0 0 0 0 5.30879e-10 0 2.27792e+12
75.1563 0 312.958 0 0 0 0 4.52303e-10 0 2.68829e+12
79.4227 0 369.339 0 0 0 0 3.85299e-10 0 3.17259e+12
83.9313 0 435.876 0 0 0 0 3.28173e-10 0 3.74415e+12
88.6959 0 514.4 0 0 0 0 2.79476e-10 0 4.41866e+12
93.7309 0 607.071 0 0 0 0 2.37972e-10 0 5.2147e+12
99.0518 0 716.436 0 0 0 0 2.02605e-10 0 6.15414e+12
104.675 0 845.504 0 0 0 0 1.72471e-10 0 7.26283e+12
110.617 0 997.824 0 0 0 0 1.468e-10 0 8.57124e+12
116.896 0 1177.58 0 0 0 0 1.24935e-10 0 1.01154e+13
123.532 0 1389.73 0 0 0 0 1.06313e-10 0 1.19377e+13
130.545 0 1640.09 0 0 0 0 9.04567e-11 0 1.40883e+13
137.955 0 1935.56 0 0 0 0 7.69563e-11 0 1.66263e+13
145.787 0 2284.26 0 0 0 0 6.54636e-11 0 1.96216e+13
154.063 0 2695.77 0 0 0 0 5.56812e-11 0 2.31565e+13
162.808 0 3181.42 0 0 0 0 4.73556e-11 0 2.73282e+13
172.051 0 3754.56 0 0 0 0 4.02708e-11 0 3.22515e+13
181.818 0 4430.96 0 0 0 0 3.42426e-11 0 3.80616e+13
192.139 0 5229.21 0 0 0 0 2.91139e-11 0 4.49186e+13
203.046 0 6171.26 0 0 0 0 2.4751e-11 0 5.30108e+13
214.572 0 7283.03 0 0 0 0 2.10401e-11 0 6.25608e+13
226.753 0 8595.09 0 0 0 0 1.78839e-11 0 7.38313e+13
239.625 0 10143.5 0 0 0 0 1.51999e-11 0 8.71322e+13
253.228 0 11970.9 0 0 0 0 1.29176e-11 0 1.02829e+14
267.603 0 14127.5 0 0 0 0 1.09771e-11 0 1.21354e+14
282.795 0 16672.6 0 0 0 0 9.3274e-12 0 1.43217e+14
298.848 0 19676.2 0 0 0 0 7.925e-12 0 1.69017e+14
315.813 0 23220.9 0 0 0 0 6.73295e-12 0 1.99466e+14
333.741 0 27404.3 0 0 0 0 5.71979e-12 0 2.35401e+14
352.686 0 32341.2 0 0 0 0 4.85874e-12 0 2.77809e+14
372.707 0 38167.6 0 0 0 0 4.12703e-12 0 3.27857e+14
393.865 0 45043.5 0 0 0 0 3.50528e-12 0 3.86921e+14
416.224 0 53158.3 0 0 0 0 2.97701e-12 0 4.56626e+14
439.852 0 62734.9 0 0 0 0 2.52819e-12 0 5.38888e+14
464.821 0 74036.7 0 0 0 0 2.1469e-12 0 6.35971e+14
491.207 0 87374.6 0 0 0 0 1.82301e-12 0 7.50542e+14
519.092 0 103115 0 0 0 0 1.54789e-12 0 8.85755e+14
548.56 0 121692 0 0 0 0 1.31422e-12 0 1.04533e+15
579.7 0 143615 0 0 0 0 1.11576e-12 0 1.23364e+15
612.608 0 169488 0 0 0 0 9.47223e-13 0 1.45589e+15
647.384 0 200021 0 0 0 0 8.041e-13 0 1.71817e+15
684.134 0 236056 0 0 0 0 6.82568e-13 0 2.0277e+15
722.971 0 278582 0 0 0 0 5.79376e-13 0 2.393e+15
764.012 0 328769 0 0 0 0 4.91762e-13 0 2.8241e+15
