0.204077
200
1.0655e+09
8589934592
0.0129181 0 1.58924e-09 0 0 0 0 0.00677225 0 13.6515
0.0136515 0 1.87554e-09 0 0 0 0 0.00688819 0 16.1108
0.0144264 0 2.21343e-09 0 0 0 0 0.00699249 0 19.0132
0.0152454 0 2.61218e-09 0 0 0 0 0.00708412 0 22.4385
0.0161108 0 3.08278e-09 0 0 0 0 0.00716212 0 26.4808
0.0170254 0 3.63815e-09 0 0 0 0 0.00722559 0 31.2514
0.0179919 0 4.29357e-09 0 0 0 0 0.00727371 0 36.8815
0.0190132 0 5.06707e-09 0 0 0 0 0.00730578 0 43.5258
0.0200925 0 5.97991e-09 0 0 0 0 0.00732122 0 51.367
0.0212331 0 7.05721e-09 0 0 0 0 0.00731958 0 60.621
0.0224385 0 8.32858e-09 0 0 0 0 0.00730056 0 71.542
0.0237123 0 9.829e-09 0 0 0 0 0.00726401 0 84.4305
0.0250583 0 1.15997e-08 0 0 0 0 0.00720995 0 99.6408
0.0264808 0 1.36894e-08 0 0 0 0 0.00713857 0 117.591
0.0279841 0 1.61556e-08 0 0 0 0 0.00705021 0 138.776
0.0295727 0 1.90661e-08 0 0 0 0 0.00694538 0 163.777
0.0312514 0 2.25009e-08 0 0 0 0 0.00682475 0 193.281
0.0330255 0 2.65545e-08 0 0 0 0 0.00668915 0 228.102
0.0349003 0 3.13384e-08 0 0 0 0 0.00653951 0 269.195
0.0368815 0 3.69841e-08 0 0 0 0 0.00637693 0 317.691
0.0389751 0 4.36469e-08 0 0 0 0 0.00620256 0 374.924
0.0411876 0 5.151e-08 0 0 0 0 0.00601767 0 442.467
0.0435258 0 6.07896e-08 0 0 0 0 0.00582358 0 522.179
0.0459966 0 7.1741e-08 0 0 0 0 0.00562166 0 616.251
0.0486077 0 8.46654e-08 0 0 0 0 0.0054133 0 727.27
0.051367 0 9.99181e-08 0 0 0 0 0.00519989 0 858.29
0.054283 0 1.17919e-07 0 0 0 0 0.0049828 0 1012.91
0.0573645 0 1.39162e-07 0 0 0 0 0.00476339 0 1195.39
0.060621 0 1.64232e-07 0 0 0 0 0.00454293 0 1410.75
0.0640622 0 1.93819e-07 0 0 0 0 0.00432265 0 1664.89
0.0676989 0 2.28736e-07 0 0 0 0 0.00410371 0 1964.83
0.071542 0 2.69944e-07 0 0 0 0 0.00388717 0 2318.8
0.0756032 0 3.18575e-07 0 0 0 0 0.00367401 0 2736.54
0.079895 0 3.75967e-07 0 0 0 0 0.0034651 0 3229.53
0.0844305 0 4.43698e-07 0 0 0 0 0.00326121 0 3811.34
0.0892234 0 5.23632e-07 0 0 0 0 0.00306301 0 4497.96
0.0942883 0 6.17966e-07 0 0 0 0 0.00287109 0 5308.28
0.0996408 0 7.29294e-07 0 0 0 0 0.00268591 0 6264.59
0.105297 0 8.60678e-07 0 0 0 0 0.00250785 0 7393.17
0.111275 0 1.01573e-06 0 0 0 0 0.00233721 0 8725.07
0.117591 0 1.19872e-06 0 0 0 0 0.00217419 0 10296.9
0.124267 0 1.41467e-06 0 0 0 0 0.00201893 0 12151.9
0.131321 0 1.66953e-06 0 0 0 0 0.00187147 0 14341.1
0.138776 0 1.9703e-06 0 0 0 0 0.00173182 0 16924.7
0.146654 0 2.32525e-06 0 0 0 0 0.00159991 0 19973.8
0.154979 0 2.74415e-06 0 0 0 0 0.00147563 0 23572.1
0.163777 0 3.23852e-06 0 0 0 0 0.00135884 0 27818.7
0.173074 0 3.82195e-06 0 0 0 0 0.00124933 0 32830.3
0.182899 0 4.51048e-06 0 0 0 0 0.00114689 0 38744.7
0.193281 0 5.32305e-06 0 0 0 0 0.00105127 0 45724.7
0.204254 0 6.28202e-06 0 0 0 0 0.000962209 0 53962.1
0.215848 0 7.41374e-06 0 0 0 0 0.000879423 0 63683.5
0.228102 0 8.74934e-06 0 0 0 0 0.000802624 0 75156.3
0.24105 0 1.03256e-05 0 0 0 0 0.000731515 0 88695.9
0.254734 0 1.21857e-05 0 0 0 0 0.000665798 0 104675
0.269195 0 1.4381e-05 0 0 0 0 0.000605173 0 123532
0.284476 0 1.69718e-05 0 0 0 0 0.000549345 0 145787
0.300625 0 2.00293e-05 0 0 0 0 0.000498021 0 172051
0.317691 0 2.36377e-05 0 0 0 0 0.000450916 0 203046
0.335725 0 2.78961e-05 0 0 0 0 0.000407755 0 239625
0.354784 0 3.29216e-05 0 0 0 0 0.000368269 0 282795
0.374924 0 3.88525e-05 0 0 0 0 0.000332202 0 333741
0.396207 0.718752 4.58519e-05 1.82487e-06 6 0.698769 1.77413e-06 0.000299307 0.0365819 393865
0.418699 0 5.41123e-05 0 0 0 0 0.00026935 0 464821
0.442467 0 6.38607e-05 0 0 0 0 0.000242108 0 548560
0.467585 0 7.53654e-05 0 0 0 0 0.00021737 0 647384
0.494129 0 8.89427e-05 0 0 0 0 0.000194938 0 764012
0.522179 0 0.000104966 0 0 0 0 0.000174625 0 901651
0.551822 0 0.000123876 0 0 0 0 0.000156255 0 1.06409e+06
0.583147 6.77526 0.000146192 5.39525e-06 12 7.131 5.67853e-06 0.000139664 0.463562 1.25578e+06
0.616251 0 0.000172529 0 0 0 0 0.0001247 0 1.48202e+06
0.651234 0 0.000203611 0 0 0 0 0.00011122 0 1.74901e+06
0.688203 26.1194 0.000240292 1.26542e-05 8 25.4696 1.23394e-05 9.90935e-05 1.0216 2.06409e+06
0.72727 0 0.000283581 0 0 0 0 8.81969e-05 0 2.43595e+06
0.768555 0 0.000334669 0 0 0 0 7.84179e-05 0 2.87479e+06
0.812184 0.287027 0.000394961 8.46015e-08 6 0.293163 8.64103e-08 6.96525e-05 0.00728773 3.39269e+06
0.85829 0 0.000466114 0 0 0 0 6.1805e-05 0 4.00389e+06
0.907013 0.304673 0.000550086 6.44783e-08 24 0.310519 6.57155e-08 5.47875e-05 0.0282451 4.7252e+06
0.958501 1.46889 0.000649185 2.63409e-07 24 1.38285 2.4798e-07 4.85194e-05 0.130295 5.57646e+06
1.01291 0 0.000766138 0 0 0 0 4.29272e-05 0 6.58107e+06
1.07041 0 0.00090416 0 0 0 0 3.79435e-05 0 7.76667e+06
1.13118 1.31209 0.00106705 1.4315e-07 12 1.29598 1.41392e-07 3.3507e-05 0.0512669 9.16586e+06
1.19539 1.2127 0.00125928 1.12109e-07 30 1.1877 1.09798e-07 2.9562e-05 0.11377 1.08171e+07
1.26325 8.90142 0.00148614 6.97284e-07 24 8.76748 6.86792e-07 2.60578e-05 0.642219 1.27658e+07
1.33496 19.8965 0.00175387 1.32066e-06 24 19.9403 1.32356e-06 2.29484e-05 1.38117 1.50656e+07
1.41075 8.11249 0.00206984 4.56277e-07 32 8.33763 4.68939e-07 2.01923e-05 0.72309 1.77798e+07
1.49083 0.778155 0.00244272 3.70853e-08 48 0.761566 3.62947e-08 1.77518e-05 0.100277 2.09828e+07
1.57546 0.305628 0.00288279 1.23421e-08 6 0.291026 1.17525e-08 1.55929e-05 0.00474915 2.4763e+07
1.66489 0.908499 0.00340213 3.10874e-08 84 0.882149 3.01857e-08 1.3685e-05 0.190817 2.92241e+07
1.75941 2.95257 0.00401503 8.56094e-08 48 2.96605 8.60004e-08 1.20007e-05 0.342418 3.44889e+07
1.85928 0.687254 0.00473835 1.6885e-08 72 0.691044 1.69781e-08 1.05151e-05 0.115616 4.07021e+07
1.96483 0.887063 0.00559198 1.84671e-08 54 0.866659 1.80423e-08 9.20606e-06 0.108323 4.80347e+07
2.07637 10.1017 0.00659939 1.78198e-07 104 10.0946 1.78072e-07 8.05366e-06 2.30114 5.66883e+07
2.19424 0.749357 0.00778828 1.1201e-08 120 0.755909 1.12989e-08 7.04008e-06 0.190924 6.69008e+07
2.3188 2.4871 0.00919136 3.15009e-08 156 2.3801 3.01457e-08 6.1494e-06 0.799125 7.89532e+07
2.45043 1.40342 0.0108472 1.50619e-08 126 1.38566 1.48713e-08 5.36741e-06 0.353578 9.31768e+07
2.58954 1.33365 0.0128014 1.21282e-08 192 1.34651 1.22451e-08 4.68145e-06 0.497412 1.09963e+08
2.73654 5.79756 0.0151076 4.46747e-08 152 5.99563 4.62009e-08 4.08023e-06 1.66425 1.29773e+08
2.89188 4.66251 0.0178292 3.04437e-08 378 4.7548 3.10463e-08 3.55373e-06 3.2382 1.53152e+08
3.05605 2.10435 0.0210412 1.16428e-08 264 2.07406 1.14752e-08 3.09304e-06 0.993746 1.80743e+08
3.22953 1.05402 0.0248319 4.94139e-09 366 1.04546 4.90125e-09 2.69025e-06 0.672259 2.13304e+08
3.41286 1.5045 0.0293054 5.9766e-09 428 1.4543 5.77718e-09 2.33837e-06 1.09392 2.51731e+08
3.6066 4.17572 0.0345848 1.40558e-08 486 4.05823 1.36603e-08 2.0312e-06 3.36309 2.97081e+08
3.81134 1.64639 0.0408154 4.6959e-09 600 1.64477 4.69129e-09 1.76327e-06 1.59791 3.50601e+08
4.0277 1.6919 0.0481684 4.08906e-09 738 1.66257 4.01818e-09 1.52972e-06 1.97273 4.13763e+08
4.25634 2.18672 0.056846 4.4782e-09 824 2.22699 4.56067e-09 1.32631e-06 2.78219 4.88304e+08
4.49796 4.03503 0.067087 7.00194e-09 954 4.04918 7.0265e-09 1.14926e-06 5.81232 5.76273e+08
4.7533 1.79741 0.0791729 2.64291e-09 1094 1.78341 2.62231e-09 9.95263e-07 2.9051 6.8009e+08
5.02313 1.77271 0.0934361 2.20868e-09 1332 1.77909 2.21663e-09 8.61414e-07 3.41528 8.0261e+08
5.30828 3.8707 0.110269 4.08645e-09 1614 3.89847 4.11578e-09 7.45152e-07 8.85125 9.47202e+08
5.60962 2.89954 0.130134 2.59387e-09 1850 2.85744 2.55621e-09 6.44232e-07 7.44865 1.11784e+09
5.92807 3.22832 0.153578 2.44713e-09 2238 3.1686 2.40187e-09 5.56685e-07 9.83802 1.31923e+09
6.26459 2.6187 0.181246 1.68201e-09 2546 2.6354 1.69273e-09 4.80786e-07 8.90705 1.55689e+09
6.62021 2.35651 0.213898 1.28255e-09 3264 2.35609 1.28232e-09 4.15026e-07 10.0867 1.83737e+09
6.99602 3.69085 0.252432 1.70213e-09 3506 3.73948 1.72456e-09 3.58083e-07 16.6656 2.16837e+09
7.39317 3.26559 0.297908 1.27611e-09 4506 3.27576 1.28009e-09 3.08803e-07 18.6208 2.55901e+09
7.81286 4.13934 0.351577 1.37063e-09 5018 4.17165 1.38133e-09 2.66181e-07 25.839 3.02002e+09
8.25637 4.1905 0.414914 1.17576e-09 5852 4.15059 1.16456e-09 2.29336e-07 30.002 3.56409e+09
8.72507 4.11576 0.489662 9.78506e-10 7362 4.10107 9.75012e-10 1.97503e-07 36.4742 4.20617e+09
9.22037 4.74526 0.577876 9.55951e-10 8306 4.71962 9.50785e-10 1.70014e-07 46.7027 4.96392e+09
9.74378 4.40775 0.681982 7.52409e-10 9698 4.40311 7.51617e-10 1.46289e-07 49.8798 5.85818e+09
10.2969 5.41003 0.804843 7.82526e-10 11816 5.41808 7.83689e-10 1.25822e-07 73.4871 6.91355e+09
10.8814 5.63575 0.949838 6.90737e-10 13682 5.62382 6.89274e-10 1.08175e-07 87.3642 8.15905e+09
11.4992 6.00751 1.12095 6.23902e-10 16152 5.99045 6.22131e-10 9.29669e-08 108.396 9.62892e+09
12.1519 6.60578 1.3229 5.81311e-10 19472 6.58182 5.79203e-10 7.98658e-08 141.729 1.13636e+10
12.8418 6.57572 1.56122 4.90331e-10 22670 6.56378 4.89441e-10 6.85852e-08 162.073 1.34108e+10
13.5708 7.59613 1.84248 4.79954e-10 26224 7.59459 4.79857e-10 5.88765e-08 213.775 1.58268e+10
14.3411 8.15529 2.17441 4.36625e-10 31640 8.15538 4.3663e-10 5.05241e-08 273.43 1.8678e+10
15.1552 8.91263 2.56613 4.04331e-10 37484 8.90625 4.04042e-10 4.33417e-08 349.686 2.20429e+10
16.0156 9.43489 3.02843 3.62685e-10 43856 9.42396 3.62265e-10 3.71677e-08 427.95 2.6014e+10
16.9247 10.6998 3.574 3.48523e-10 51362 10.6806 3.47898e-10 3.18628e-08 561.809 3.07005e+10
17.8855 11.3036 4.21787 3.11985e-10 61636 11.2764 3.11233e-10 2.73063e-08 704.215 3.62312e+10
18.9008 12.2726 4.97773 2.87022e-10 72218 12.244 2.86354e-10 2.33941e-08 886.041 4.27584e+10
19.9738 13.6295 5.87448 2.70097e-10 84586 13.5953 2.6942e-10 2.00364e-08 1140.25 5.04614e+10
21.1076 14.5844 6.93279 2.44901e-10 100708 14.552 2.44357e-10 1.71555e-08 1437.64 5.95522e+10
22.3058 16.0067 8.18175 2.27754e-10 118712 15.9728 2.27271e-10 1.46847e-08 1841.19 7.02807e+10
23.5721 17.4296 9.65571 2.10143e-10 140410 17.3868 2.09626e-10 1.25662e-08 2348.06 8.29419e+10
24.9102 19.0294 11.3952 1.94407e-10 164374 18.9842 1.93946e-10 1.07504e-08 2972.5 9.78842e+10
26.3243 20.5228 13.4481 1.77658e-10 194680 20.4731 1.77228e-10 9.19452e-09 3761.64 1.15518e+11
27.8187 22.5805 15.8708 1.65633e-10 230196 22.5315 1.65273e-10 7.86182e-09 4849.76 1.36329e+11
29.3979 24.6473 18.73 1.53194e-10 271156 24.5912 1.52846e-10 6.72061e-09 6180.92 1.60889e+11
31.0667 26.9449 22.1042 1.41909e-10 321076 26.8829 1.41583e-10 5.74366e-09 7932.86 1.89874e+11
32.8303 29.2653 26.0864 1.30602e-10 377436 29.2012 1.30316e-10 4.90756e-09 10044.5 2.2408e+11
34.694 32.3176 30.7859 1.22208e-10 447594 32.2381 1.21907e-10 4.19221e-09 13047.9 2.64449e+11
36.6634 35.8552 36.3321 1.14887e-10 525078 35.7618 1.14588e-10 3.58032e-09 16849 3.1209e+11
38.7447 39.5082 42.8774 1.07268e-10 621924 39.4059 1.0699e-10 3.05709e-09 21822.2 3.68314e+11
40.9442 44.1153 50.6018 1.01492e-10 732630 44.0049 1.01238e-10 2.60976e-09 28491.6 4.34667e+11
43.2685 49.0014 59.7179 9.55243e-11 865596 48.8769 9.52817e-11 2.22743e-09 37121.4 5.12973e+11
45.7247 55.017 70.4762 9.08792e-11 1.02168e+06 54.8715 9.06388e-11 1.90073e-09 48849.1 6.05386e+11
48.3204 61.6736 83.1727 8.63234e-11 1.20544e+06 61.5044 8.60866e-11 1.62163e-09 64168.3 7.14448e+11
51.0634 69.6854 98.1565 8.26481e-11 1.42103e+06 69.5023 8.2431e-11 1.38326e-09 84905 8.43158e+11
53.9621 78.7991 115.84 7.91906e-11 1.67997e+06 78.5813 7.89718e-11 1.1797e-09 112772 9.95055e+11
57.0254 89.6798 136.709 7.63677e-11 1.98018e+06 89.422 7.61481e-11 1.00592e-09 150332 1.17432e+12
60.2626 102.528 161.337 7.3981e-11 2.33957e+06 102.228 7.37644e-11 8.57591e-10 201825 1.38587e+12
63.6835 117.226 190.402 7.16743e-11 2.75676e+06 116.879 7.14622e-11 7.3101e-10 270296 1.63554e+12
67.2987 134.683 224.704 6.97772e-11 3.25638e+06 134.295 6.9576e-11 6.23009e-10 364716 1.93019e+12
71.1191 155.433 265.185 6.82346e-11 3.84387e+06 154.967 6.80303e-11 5.30879e-10 494058 2.27792e+12
75.1563 188.599 312.958 7.01557e-11 4.53277e+06 187.381 6.97027e-11 4.52303e-10 703066 2.68829e+12
79.4227 208.698 369.339 6.57815e-11 5.35083e+06 208.077 6.55858e-11 3.85299e-10 913537 3.17259e+12
83.9313 242.684 435.876 6.48169e-11 6.32174e+06 241.925 6.46142e-11 3.28173e-10 1.2486e+06 3.74415e+12
88.6959 282.866 514.4 6.40163e-11 7.44986e+06 281.973 6.38142e-11 2.79476e-10 1.70645e+06 4.41866e+12
93.7309 330.336 607.071 6.33472e-11 8.79764e+06 329.292 6.3147e-11 2.37972e-10 2.34189e+06 5.2147e+12
99.0518 386.564 716.436 6.28136e-11 1.03827e+07 385.336 6.26141e-11 2.02605e-10 3.21895e+06 6.15414e+12
104.675 457.847 845.504 6.30397e-11 1.22515e+07 456.633 6.28726e-11 1.72471e-10 4.47805e+06 7.26283e+12
110.617 531.755 997.824 6.20394e-11 1.44573e+07 530.047 6.18401e-11 1.468e-10 6.10983e+06 8.57124e+12
116.896 624.862 1177.58 6.17735e-11 1.70664e+07 622.821 6.15717e-11 1.24935e-10 8.43842e+06 1.01154e+13
123.532 734.6 1389.73 6.15362e-11 2.0139e+07 732.211 6.1336e-11 1.06313e-10 1.16568e+07 1.19377e+13
130.545 864.6 1640.09 6.13701e-11 2.37643e+07 861.78 6.11699e-11 9.04567e-11 1.61228e+07 1.40883e+13
137.955 1017.7 1935.56 6.12099e-11 2.80503e+07 1014.34 6.10079e-11 7.69563e-11 2.23108e+07 1.66263e+13
145.787 1197.9 2284.26 6.10502e-11 3.30981e+07 1193.97 6.08499e-11 6.54636e-11 3.08667e+07 1.96216e+13
154.063 1412.93 2695.77 6.10166e-11 3.90634e+07 1408.26 6.08151e-11 5.56812e-11 4.28065e+07 2.31565e+13
162.808 1664.52 3181.42 6.09085e-11 4.61057e+07 1658.99 6.07061e-11 4.73556e-11 5.93008e+07 2.73282e+13
172.051 1964.33 3754.56 6.09066e-11 5.44046e+07 1957.76 6.07031e-11 4.02708e-11 8.22829e+07 3.22515e+13
181.818 2322.29 4430.96 6.10138e-11 6.42064e+07 2314.6 6.08118e-11 3.42426e-11 1.14404e+08 3.80616e+13
192.139 2740.14 5229.21 6.10023e-11 7.57748e+07 2731 6.07988e-11 2.91139e-11 1.58771e+08 4.49186e+13
203.046 3240.11 6171.26 6.11217e-11 8.94213e+07 3229.16 6.09153e-11 2.4751e-11 2.20822e+08 5.30108e+13
214.572 3832.53 7283.03 6.12609e-11 1.05538e+08 3819.62 6.10545e-11 2.10401e-11 3.07288e+08 6.25608e+13
226.753 4539.72 8595.09 6.14878e-11 1.24552e+08 4524.32 6.12792e-11 1.78839e-11 4.28229e+08 7.38313e+13
239.625 5382.63 10143.5 6.17754e-11 1.46987e+08 5364.23 6.15643e-11 1.51999e-11 5.97385e+08 8.71322e+13
253.228 6394.79 11970.9 6.21884e-11 1.7347e+08 6372.78 6.19744e-11 1.29176e-11 8.35124e+08 1.02829e+14
267.603 7610.31 14127.5 6.27116e-11 2.04703e+08 7583.85 6.24935e-11 1.09771e-11 1.16945e+09 1.21354e+14
282.795 9088.62 16672.6 6.34607e-11 2.4161e+08 9056.64 6.32374e-11 9.3274e-12 1.64384e+09 1.43217e+14
298.848 10892.5 19676.2 6.44459e-11 2.85122e+08 10853.4 6.42149e-11 7.925e-12 2.31861e+09 1.69017e+14
315.813 13130.3 23220.9 6.58273e-11 3.36491e+08 13082.1 6.55855e-11 6.73295e-12 3.28984e+09 1.99466e+14
333.741 15946.1 27404.3 6.774e-11 3.97115e+08 15885.4 6.74823e-11 5.71979e-12 4.70307e+09 2.35401e+14
352.686 19576 32341.2 7.04657e-11 4.68637e+08 19498.3 7.01861e-11 4.85874e-12 6.79659e+09 2.77809e+14
372.707 24398.3 38167.6 7.44177e-11 5.53074e+08 24295.6 7.41044e-11 4.12703e-12 9.97291e+09 3.27857e+14
393.865 31044.8 45043.5 8.02354e-11 6.52716e+08 30903.8 7.98711e-11 3.50528e-12 1.49406e+10 3.86921e+14
416.224 36638.2 53158.3 8.02368e-11 2.2184e+08 38759.9 8.48833e-11 2.97701e-12 5.97906e+09 4.56626e+14
439.852 0 62734.9 0 0 0 0 2.52819e-12 0 5.38888e+14
464.821 0 74036.7 0 0 0 0 2.1469e-12 0 6.35971e+14
491.207 0 87374.6 0 0 0 0 1.82301e-12 0 7.50542e+14
519.092 0 103115 0 0 0 0 1.54789e-12 0 8.85755e+14
548.56 0 121692 0 0 0 0 1.31422e-12 0 1.04533e+15
579.7 0 143615 0 0 0 0 1.11576e-12 0 1.23364e+15
612.608 0 169488 0 0 0 0 9.47223e-13 0 1.45589e+15
647.384 0 200021 0 0 0 0 8.041e-13 0 1.71817e+15
684.134 0 236056 0 0 0 0 6.82568e-13 0 2.0277e+15
722.971 0 278582 0 0 0 0 5.79376e-13 0 2.393e+15
764.012 0 328769 0 0 0 0 4.91762e-13 0 2.8241e+15
0.204077
200
1.0655e+09
8589934592
0.0129181 0.000134457 1.58924e-09 9.84925e-06 6 0.000133226 9.75909e-06 0.00677225 0.00872612 13.6515
0.0136515 0 1.87554e-09 0 0 0 0 0.00688819 0 16.1108
0.0144264 0 2.21343e-09 0 0 0 0 0.00699249 0 19.0132
0.0152454 0 2.61218e-09 0 0 0 0 0.00708412 0 22.4385
0.0161108 0 3.08278e-09 0 0 0 0 0.00716212 0 26.4808
0.0170254 0 3.63815e-09 0 0 0 0 0.00722559 0 31.2514
0.0179919 0.000298816 4.29357e-09 8.10206e-06 12 0.000298431 8.09162e-06 0.00727371 0.0133666 36.8815
0.0190132 0 5.06707e-09 0 0 0 0 0.00730578 0 43.5258
0.0200925 0 5.97991e-09 0 0 0 0 0.00732122 0 51.367
0.0212331 0.000282704 7.05721e-09 4.66347e-06 8 0.000282458 4.65941e-06 0.00731958 0.00509698 60.621
0.0224385 0 8.32858e-09 0 0 0 0 0.00730056 0 71.542
0.0237123 0 9.829e-09 0 0 0 0 0.00726401 0 84.4305
0.0250583 0.00181378 1.15997e-08 1.82032e-05 6 0.00181293 1.81946e-05 0.00720995 0.0151484 99.6408
0.0264808 0 1.36894e-08 0 0 0 0 0.00713857 0 117.591
0.0279841 0.00112766 1.61556e-08 8.1258e-06 24 0.00112651 8.11745e-06 0.00705021 0.0276615 138.776
0.0295727 0 1.90661e-08 0 0 0 0 0.00694538 0 163.777
0.0312514 0.00201555 2.25009e-08 1.04281e-05 24 0.00202579 1.0481e-05 0.00682475 0.0366715 193.281
0.0330255 0 2.65545e-08 0 0 0 0 0.00668915 0 228.102
0.0349003 0.00285068 3.13384e-08 1.05897e-05 12 0.00282785 1.05049e-05 0.00653951 0.019432 269.195
0.0368815 0.00244446 3.69841e-08 7.69445e-06 30 0.00241843 7.61252e-06 0.00637693 0.0361983 317.691
0.0389751 0.0028975 4.36469e-08 7.72825e-06 24 0.0028677 7.64875e-06 0.00620256 0.0299035 374.924
0.0411876 0.00183767 5.151e-08 4.15323e-06 24 0.00182519 4.12502e-06 0.00601767 0.0165641 442.467
0.0435258 0.00403492 6.07896e-08 7.72709e-06 8 0.00403461 7.72649e-06 0.00582358 0.0106149 522.179
0.0459966 0.00513455 7.1741e-08 8.33191e-06 72 0.00509395 8.26603e-06 0.00562166 0.106712 616.251
0.0486077 0 8.46654e-08 0 0 0 0 0.0054133 0 727.27
0.051367 0.00760551 9.99181e-08 8.86124e-06 54 0.00758128 8.83301e-06 0.00519989 0.0920225 858.29
0.054283 0.00593852 1.17919e-07 5.86281e-06 60 0.00596352 5.88749e-06 0.0049828 0.0705965 1012.91
0.0573645 0.00586501 1.39162e-07 4.90634e-06 96 0.00584995 4.89375e-06 0.00476339 0.0988812 1195.39
0.060621 0.00679286 1.64232e-07 4.81509e-06 24 0.00670083 4.74985e-06 0.00454293 0.0254378 1410.75
0.0640622 0.0119589 1.93819e-07 7.18298e-06 134 0.0119654 7.18689e-06 0.00432265 0.222669 1664.89
0.0676989 0.0114903 2.28736e-07 5.84796e-06 120 0.0114373 5.82102e-06 0.00410371 0.171005 1964.83
0.071542 0.0105349 2.69944e-07 4.54327e-06 108 0.0104208 4.49405e-06 0.00388717 0.126229 2318.8
0.0756032 0.0153473 3.18575e-07 5.6083e-06 174 0.0152667 5.57882e-06 0.00367401 0.265607 2736.54
0.079895 0.0163641 3.75967e-07 5.06703e-06 168 0.01621 5.01929e-06 0.0034651 0.245667 3229.53
0.0844305 0.0139544 4.43698e-07 3.66127e-06 168 0.0140242 3.67959e-06 0.00326121 0.188609 3811.34
0.0892234 0.0157588 5.23632e-07 3.50354e-06 290 0.0156922 3.48872e-06 0.00306301 0.331708 4497.96
0.0942883 0.0203752 6.17966e-07 3.83837e-06 288 0.0203243 3.82879e-06 0.00287109 0.385028 5308.28
0.0996408 0.0184427 7.29294e-07 2.94396e-06 366 0.0182884 2.91933e-06 0.00268591 0.401163 6264.59
0.105297 0.0201738 8.60678e-07 2.72871e-06 420 0.0200342 2.70983e-06 0.00250785 0.456988 7393.17
0.111275 0.0214074 1.01573e-06 2.45356e-06 398 0.021347 2.44662e-06 0.00233721 0.417812 8725.07
0.117591 0.0254877 1.19872e-06 2.47528e-06 624 0.0255405 2.48041e-06 0.00217419 0.710412 10296.9
0.124267 0.0283698 1.41467e-06 2.33459e-06 642 0.0283307 2.33138e-06 0.00201893 0.74238 12151.9
0.131321 0.0358819 1.66953e-06 2.50203e-06 800 0.0358947 2.50292e-06 0.00187147 1.06955 14341.1
0.138776 0.0323833 1.9703e-06 1.91338e-06 858 0.0325383 1.92253e-06 0.00173182 0.94795 16924.7
0.146654 0.0352453 2.32525e-06 1.76458e-06 1080 0.0355405 1.77936e-06 0.00159991 1.19116 19973.8
0.154979 0.0418004 2.74415e-06 1.7733e-06 1286 0.0420871 1.78547e-06 0.00147563 1.54541 23572.1
0.163777 0.0394645 3.23852e-06 1.41863e-06 1650 0.0395384 1.42129e-06 0.00135884 1.72261 27818.7
0.173074 0.0464258 3.82195e-06 1.41412e-06 1778 0.0464317 1.4143e-06 0.00124933 2.01252 32830.3
0.182899 0.0453699 4.51048e-06 1.171e-06 2112 0.0454808 1.17386e-06 0.00114689 2.15639 38744.7
0.193281 0.0531439 5.32305e-06 1.16226e-06 2570 0.053219 1.1639e-06 0.00105127 2.84133 45724.7
0.204254 0.0596838 6.28202e-06 1.10603e-06 3030 0.0596543 1.10548e-06 0.000962209 3.4829 53962.1
0.215848 0.0594199 7.41374e-06 9.3305e-07 3434 0.059404 9.328e-07 0.000879423 3.6434 63683.5
0.228102 0.0620937 8.74934e-06 8.26194e-07 4218 0.0621109 8.26423e-07 0.000802624 4.34187 75156.3
0.24105 0.0700139 1.03256e-05 7.8937e-07 4766 0.0700818 7.90135e-07 0.000731515 5.14294 88695.9
0.254734 0.0753168 1.21857e-05 7.19532e-07 6026 0.0752951 7.19325e-07 0.000665798 6.51234 104675
0.269195 0.0792673 1.4381e-05 6.41674e-07 6480 0.0792214 6.41302e-07 0.000605173 6.87084 123532
0.284476 0.0864161 1.69718e-05 5.92757e-07 8162 0.0866144 5.94117e-07 0.000549345 8.80701 145787
0.300625 0.0872691 2.00293e-05 5.07229e-07 9578 0.0873767 5.07854e-07 0.000498021 9.7551 172051
0.317691 0.0974049 2.36377e-05 4.79718e-07 11234 0.0973243 4.79321e-07 0.000450916 11.9516 203046
0.335725 0.102138 2.78961e-05 4.26239e-07 13344 0.102074 4.25974e-07 0.000407755 13.9489 239625
0.354784 0.106792 3.29216e-05 3.77629e-07 15464 0.106724 3.7739e-07 0.000368269 15.857 282795
0.374924 0.114721 3.88525e-05 3.43742e-07 18458 0.114712 3.43716e-07 0.000332202 19.0992 333741
0.396207 0.12115 4.58519e-05 3.07593e-07 22232 0.12098 3.07162e-07 0.000299307 22.8475 393865
0.418699 0.131308 5.41123e-05 2.82491e-07 25628 0.131011 2.81853e-07 0.00026935 26.8784 464821
0.442467 0.138713 6.38607e-05 2.52867e-07 30320 0.138446 2.5238e-07 0.000242108 31.6674 548560
0.467585 0.145256 7.53654e-05 2.24373e-07 35452 0.14505 2.24055e-07 0.00021737 36.5941 647384
0.494129 0.152949 8.89427e-05 2.00193e-07 41792 0.152883 2.00106e-07 0.000194938 42.9184 764012
0.522179 0.165303 0.000104966 1.83333e-07 49988 0.165249 1.83274e-07 0.000174625 52.4809 901651
0.551822 0.174025 0.000123876 1.63544e-07 59110 0.173901 1.63428e-07 0.000156255 61.8674 1.06409e+06
0.583147 0.185804 0.000146192 1.47958e-07 69716 0.18555 1.47757e-07 0.000139664 73.8562 1.25578e+06
0.616251 0.197071 0.000172529 1.32975e-07 82210 0.196742 1.32753e-07 0.0001247 87.6653 1.48202e+06
0.651234 0.210136 0.000203611 1.20146e-07 96722 0.209728 1.19913e-07 0.00011122 104.484 1.74901e+06
0.688203 0.22302 0.000240292 1.08047e-07 113098 0.222778 1.0793e-07 9.90935e-05 123.317 2.06409e+06
0.72727 0.23566 0.000283581 9.67427e-08 135190 0.235406 9.66383e-08 8.81969e-05 148.289 2.43595e+06
0.768555 0.251572 0.000334669 8.75097e-08 158170 0.251324 8.74234e-08 7.84179e-05 176.508 2.87479e+06
0.812184 0.266114 0.000394961 7.84376e-08 188560 0.265826 7.83525e-08 6.96525e-05 212.342 3.39269e+06
0.85829 0.282791 0.000466114 7.06291e-08 220444 0.282438 7.05409e-08 6.1805e-05 251.917 4.00389e+06
0.907013 0.299352 0.000550086 6.33521e-08 261388 0.299022 6.32823e-08 5.47875e-05 302.25 4.7252e+06
0.958501 0.319976 0.000649185 5.73798e-08 308244 0.319606 5.73135e-08 4.85194e-05 364.534 5.57646e+06
1.01291 0.341327 0.000766138 5.18649e-08 364396 0.340897 5.17997e-08 4.29272e-05 440.265 6.58107e+06
1.07041 0.361965 0.00090416 4.66048e-08 429162 0.361457 4.65395e-08 3.79435e-05 527.127 7.76667e+06
1.13118 0.386885 0.00106705 4.22094e-08 506358 0.386377 4.21539e-08 3.3507e-05 637.868 9.16586e+06
1.19539 0.412333 0.00125928 3.81186e-08 598590 0.411728 3.80627e-08 2.9562e-05 771.849 1.08171e+07
1.26325 0.439449 0.00148614 3.44238e-08 704844 0.438843 3.43764e-08 2.60578e-05 931.138 1.27658e+07
1.33496 0.467572 0.00175387 3.10357e-08 834620 0.466865 3.09887e-08 2.29484e-05 1128.75 1.50656e+07
1.41075 0.500031 0.00206984 2.81236e-08 981444 0.499295 2.80822e-08 2.01923e-05 1366.94 1.77798e+07
1.49083 0.534041 0.00244272 2.54513e-08 1.15998e+06 0.533279 2.5415e-08 1.77518e-05 1663.1 2.09828e+07
1.57546 0.571635 0.00288279 2.30843e-08 1.36931e+06 0.570753 2.30487e-08 1.55929e-05 2027.18 2.4763e+07
1.66489 0.612563 0.00340213 2.09609e-08 1.61652e+06 0.611586 2.09275e-08 1.3685e-05 2475.97 2.92241e+07
1.75941 0.656215 0.00401503 1.90269e-08 1.90601e+06 0.655166 1.89965e-08 1.20007e-05 3021.94 3.44889e+07
1.85928 0.704202 0.00473835 1.73014e-08 2.24913e+06 0.703093 1.72741e-08 1.05151e-05 3700.67 4.07021e+07
1.96483 0.755504 0.00559198 1.57283e-08 2.65744e+06 0.754213 1.57014e-08 9.20606e-06 4540.16 4.80347e+07
2.07637 0.812376 0.00659939 1.43306e-08 3.13125e+06 0.811057 1.43073e-08 8.05366e-06 5571.71 5.66883e+07
2.19424 0.874694 0.00778828 1.30745e-08 3.69915e+06 0.873312 1.30538e-08 7.04008e-06 6869.87 6.69008e+07
2.3188 0.941855 0.00919136 1.19293e-08 4.36472e+06 0.940282 1.19094e-08 6.1494e-06 8467.17 7.89532e+07
2.45043 1.01535 0.0108472 1.0897e-08 5.14913e+06 1.01362 1.08784e-08 5.36741e-06 10453.8 9.31768e+07
2.58954 1.09871 0.0128014 9.99168e-09 6.07894e+06 1.09682 9.97445e-09 4.68145e-06 12974.4 1.09963e+08
2.73654 1.18727 0.0151076 9.14883e-09 7.17304e+06 1.18522 9.13302e-09 4.08023e-06 16083.6 1.29773e+08
2.89188 1.28595 0.0178292 8.39658e-09 8.46557e+06 1.28367 8.38169e-09 3.55373e-06 20002 1.53152e+08
3.05605 1.39549 0.0210412 7.72084e-09 9.98773e+06 1.39309 7.70757e-09 3.09304e-06 24931.4 1.80743e+08
3.22953 1.51348 0.0248319 7.09541e-09 1.1797e+07 1.51072 7.08248e-09 2.69025e-06 31114 2.13304e+08
3.41286 1.64374 0.0293054 6.52975e-09 1.39144e+07 1.6407 6.51765e-09 2.33837e-06 38855 2.51731e+08
3.6066 1.78849 0.0345848 6.02021e-09 1.64163e+07 1.78515 6.00896e-09 2.0312e-06 48655.6 2.97081e+08
3.81134 1.94865 0.0408154 5.55803e-09 1.93821e+07 1.94508 5.54783e-09 1.76327e-06 61094.9 3.50601e+08
4.0277 2.12487 0.0481684 5.13548e-09 2.28754e+07 2.12084 5.12574e-09 1.52972e-06 76795.8 4.13763e+08
4.25634 2.31917 0.056846 4.74943e-09 2.69929e+07 2.31469 4.74026e-09 1.32631e-06 96660.1 4.88304e+08
4.49796 2.53148 0.067087 4.39286e-09 3.18542e+07 2.52654 4.38427e-09 1.14926e-06 121758 5.76273e+08
4.7533 2.76868 0.0791729 4.07105e-09 3.75892e+07 2.76327 4.06309e-09 9.95263e-07 153756 6.8009e+08
5.02313 3.02803 0.0934361 3.77273e-09 4.43706e+07 3.02206 3.76529e-09 8.61414e-07 194330 8.0261e+08
5.30828 3.31484 0.110269 3.49961e-09 5.23593e+07 3.30816 3.49256e-09 7.45152e-07 245906 9.47202e+08
5.60962 3.62761 0.130134 3.24519e-09 6.1787e+07 3.62034 3.23868e-09 6.44232e-07 311239 1.11784e+09
5.92807 3.97141 0.153578 3.01041e-09 7.29346e+07 3.96341 3.00434e-09 5.56685e-07 394411 1.31923e+09
6.26459 4.35024 0.181246 2.79419e-09 8.60651e+07 4.34136 2.78849e-09 4.80786e-07 500186 1.55689e+09
6.62021 4.76438 0.213898 2.59305e-09 1.01558e+08 4.75462 2.58774e-09 4.15026e-07 634527 1.83737e+09
6.99602 5.2184 0.252432 2.4066e-09 1.1986e+08 5.20774 2.40168e-09 3.58083e-07 805553 2.16837e+09
7.39317 5.71548 0.297908 2.23347e-09 1.41457e+08 5.70367 2.22886e-09 3.08803e-07 1.02311e+06 2.55901e+09
7.81286 6.25934 0.351577 2.07261e-09 1.66936e+08 6.24647 2.06835e-09 2.66181e-07 1.29984e+06 3.02002e+09
8.25637 6.8573 0.414914 1.924e-09 1.97025e+08 6.84309 1.92001e-09 2.29336e-07 1.65293e+06 3.56409e+09
8.72507 7.51712 0.489662 1.78717e-09 2.32497e+08 7.50129 1.7834e-09 1.97503e-07 2.10382e+06 4.20617e+09
9.22037 8.25118 0.577876 1.66223e-09 2.74404e+08 8.23365 1.6587e-09 1.70014e-07 2.68285e+06 4.96392e+09
9.74378 9.07818 0.681982 1.54966e-09 3.2382e+08 9.05843 1.54629e-09 1.46289e-07 3.43026e+06 5.85818e+09
10.2969 10.0323 0.804843 1.45111e-09 3.82165e+08 10.0097 1.44784e-09 1.25822e-07 4.40752e+06 6.91355e+09
10.8814 11.1756 0.949838 1.36972e-09 4.51027e+08 11.1488 1.36643e-09 1.08175e-07 5.71089e+06 8.15905e+09
11.4992 12.6193 1.12095 1.31057e-09 5.32251e+08 12.5863 1.30713e-09 9.29669e-08 7.50321e+06 9.62892e+09
12.1519 14.5743 1.3229 1.28254e-09 6.28157e+08 14.5309 1.27872e-09 7.98658e-08 1.00874e+07 1.13636e+10
12.8418 16.6556 1.56122 1.24195e-09 3.82727e+08 17.237 1.28531e-09 6.85852e-08 6.93048e+06 1.34108e+10
13.5708 0 1.84248 0 0 0 0 5.88765e-08 0 1.58268e+10
14.3411 0 2.17441 0 0 0 0 5.05241e-08 0 1.8678e+10
15.1552 0 2.56613 0 0 0 0 4.33417e-08 0 2.20429e+10
16.0156 0 3.02843 0 0 0 0 3.71677e-08 0 2.6014e+10
16.9247 0 3.574 0 0 0 0 3.18628e-08 0 3.07005e+10
17.8855 0 4.21787 0 0 0 0 2.73063e-08 0 3.62312e+10
18.9008 0 4.97773 0 0 0 0 2.33941e-08 0 4.27584e+10
19.9738 0 5.87448 0 0 0 0 2.00364e-08 0 5.04614e+10
21.1076 0 6.93279 0 0 0 0 1.71555e-08 0 5.95522e+10
22.3058 0 8.18175 0 0 0 0 1.46847e-08 0 7.02807e+10
23.5721 0 9.65571 0 0 0 0 1.25662e-08 0 8.29419e+10
24.9102 0 11.3952 0 0 0 0 1.07504e-08 0 9.78842e+10
26.3243 0 13.4481 0 0 0 0 9.19452e-09 0 1.15518e+11
27.8187 0 15.8708 0 0 0 0 7.86182e-09 0 1.36329e+11
29.3979 0 18.73 0 0 0 0 6.72061e-09 0 1.60889e+11
31.0667 0 22.1042 0 0 0 0 5.74366e-09 0 1.89874e+11
32.8303 0 26.0864 0 0 0 0 4.90756e-09 0 2.2408e+11
34.694 0 30.7859 0 0 0 0 4.19221e-09 0 2.64449e+11
36.6634 0 36.3321 0 0 0 0 3.58032e-09 0 3.1209e+11
38.7447 0 42.8774 0 0 0 0 3.05709e-09 0 3.68314e+11
40.9442 0 50.6018 0 0 0 0 2.60976e-09 0 4.34667e+11
43.2685 0 59.7179 0 0 0 0 2.22743e-09 0 5.12973e+11
45.7247 0 70.4762 0 0 0 0 1.90073e-09 0 6.05386e+11
48.3204 0 83.1727 0 0 0 0 1.62163e-09 0 7.14448e+11
51.0634 0 98.1565 0 0 0 0 1.38326e-09 0 8.43158e+11
53.9621 0 115.84 0 0 0 0 1.1797e-09 0 9.95055e+11
57.0254 0 136.709 0 0 0 0 1.00592e-09 0 1.17432e+12
60.2626 0 161.337 0 0 0 0 8.57591e-10 0 1.38587e+12
63.6835 0 190.402 0 0 0 0 7.3101e-10 0 1.63554e+12
67.2987 0 224.704 0 0 0 0 6.23009e-10 0 1.93019e+12
71.1191 0 265.185 0 0 0 0 5.30879e-10 0 2.27792e+12
75.1563 0 312.958 0 0 0 0 4.52303e-10 0 2.68829e+12
79.4227 0 369.339 0 0 0 0 3.85299e-10 0 3.17259e+12
83.9313 0 435.876 0 0 0 0 3.28173e-10 0 3.74415e+12
88.6959 0 514.4 0 0 0 0 2.79476e-10 0 4.41866e+12
93.7309 0 607.071 0 0 0 0 2.37972e-10 0 5.2147e+12
99.0518 0 716.436 0 0 0 0 2.02605e-10 0 6.15414e+12
104.675 0 845.504 0 0 0 0 1.72471e-10 0 7.26283e+12
110.617 0 997.824 0 0 0 0 1.468e-10 0 8.57124e+12
116.896 0 1177.58 0 0 0 0 1.24935e-10 0 1.01154e+13
123.532 0 1389.73 0 0 0 0 1.06313e-10 0 1.19377e+13
130.545 0 1640.09 0 0 0 0 9.04567e-11 0 1.40883e+13
137.955 0 1935.56 0 0 0 0 7.69563e-11 0 1.66263e+13
145.787 0 2284.26 0 0 0 0 6.54636e-11 0 1.96216e+13
154.063 0 2695.77 0 0 0 0 5.56812e-11 0 2.31565e+13
162.808 0 3181.42 0 0 0 0 4.73556e-11 0 2.73282e+13
172.051 0 3754.56 0 0 0 0 4.02708e-11 0 3.22515e+13
181.818 0 4430.96 0 0 0 0 3.42426e-11 0 3.80616e+13
192.139 0 5229.21 0 0 0 0 2.91139e-11 0 4.49186e+13
203.046 0 6171.26 0 0 0 0 2.4751e-11 0 5.30108e+13
214.572 0 7283.03 0 0 0 0 2.10401e-11 0 6.25608e+13
226.753 0 8595.09 0 0 0 0 1.78839e-11 0 7.38313e+13
239.625 0 10143.5 0 0 0 0 1.51999e-11 0 8.71322e+13
253.228 0 11970.9 0 0 0 0 1.29176e-11 0 1.02829e+14
267.603 0 14127.5 0 0 0 0 1.09771e-11 0 1.21354e+14
282.795 0 16672.6 0 0 0 0 9.3274e-12 0 1.43217e+14
298.848 0 19676.2 0 0 0 0 7.925e-12 0 1.69017e+14
315.813 0 23220.9 0 0 0 0 6.73295e-12 0 1.99466e+14
333.741 0 27404.3 0 0 0 0 5.71979e-12 0 2.35401e+14
352.686 0 32341.2 0 0 0 0 4.85874e-12 0 2.77809e+14
372.707 0 38167.6 0 0 0 0 4.12703e-12 0 3.27857e+14
393.865 0 45043.5 0 0 0 0 3.50528e-12 0 3.86921e+14
416.224 0 53158.3 0 0 0 0 2.97701e-12 0 4.56626e+14
439.852 0 62734.9 0 0 0 0 2.52819e-12 0 5.38888e+14
464.821 0 74036.7 0 0 0 0 2.1469e-12 0 6.35971e+14
491.207 0 87374.6 0 0 0 0 1.82301e-12 0 7.50542e+14
519.092 0 103115 0 0 0 0 1.54789e-12 0 8.85755e+14
548.56 0 121692 0 0 0 0 1.31422e-12 0 1.04533e+15
579.7 0 143615 0 0 0 0 1.11576e-12 0 1.23364e+15
612.608 0 169488 0 0 0 0 9.47223e-13 0 1.45589e+15
647.384 0 200021 0 0 0 0 8.041e-13 0 1.71817e+15
684.134 0 236056 0 0 0 0 6.82568e-13 0 2.0277e+15
722.971 0 278582 0 0 0 0 5.79376e-13 0 2.393e+15
764.012 0 328769 0 0 0 0 4.91762e-13 0 2.8241e+15
