1
200
1.0655e+09
8589934592
0.0129181 0 1.58924e-09 0 0 0 0 0.00677225 0 13.6515
0.0136515 0 1.87554e-09 0 0 0 0 0.00688819 0 16.1108
0.0144264 0 2.21343e-09 0 0 0 0 0.00699249 0 19.0132
0.0152454 0 2.61218e-09 0 0 0 0 0.00708412 0 22.4385
0.0161108 0 3.08278e-09 0 0 0 0 0.00716212 0 26.4808
0.0170254 0 3.63815e-09 0 0 0 0 0.00722559 0 31.2514
0.0179919 0 4.29357e-09 0 0 0 0 0.00727371 0 36.8815
0.0190132 0 5.06707e-09 0 0 0 0 0.00730578 0 43.5258
0.0200925 0 5.97991e-09 0 0 0 0 0.00732122 0 51.367
0.0212331 0 7.05721e-09 0 0 0 0 0.00731958 0 60.621
0.0224385 0 8.32858e-09 0 0 0 0 0.00730056 0 71.542
0.0237123 0 9.829e-09 0 0 0 0 0.00726401 0 84.4305
0.0250583 0 1.15997e-08 0 0 0 0 0.00720995 0 99.6408
0.0264808 0 1.36894e-08 0 0 0 0 0.00713857 0 117.591
0.0279841 0 1.61556e-08 0 0 0 0 0.00705021 0 138.776
0.0295727 0 1.90661e-08 0 0 0 0 0.00694538 0 163.777
0.0312514 0 2.25009e-08 0 0 0 0 0.00682475 0 193.281
0.0330255 0 2.65545e-08 0 0 0 0 0.00668915 0 228.102
0.0349003 0 3.13384e-08 0 0 0 0 0.00653951 0 269.195
0.0368815 0 3.69841e-08 0 0 0 0 0.00637693 0 317.691
0.0389751 0 4.36469e-08 0 0 0 0 0.00620256 0 374.924
0.0411876 0 5.151e-08 0 0 0 0 0.00601767 0 442.467
0.0435258 0 6.07896e-08 0 0 0 0 0.00582358 0 522.179
0.0459966 0 7.1741e-08 0 0 0 0 0.00562166 0 616.251
0.0486077 0 8.46654e-08 0 0 0 0 0.0054133 0 727.27
0.051367 0 9.99181e-08 0 0 0 0 0.00519989 0 858.29
0.054283 0 1.17919e-07 0 0 0 0 0.0049828 0 1012.91
0.0573645 0 1.39162e-07 0 0 0 0 0.00476339 0 1195.39
0.060621 0 1.64232e-07 0 0 0 0 0.00454293 0 1410.75
0.0640622 0 1.93819e-07 0 0 0 0 0.00432265 0 1664.89
0.0676989 0 2.28736e-07 0 0 0 0 0.00410371 0 1964.83
0.071542 0 2.69944e-07 0 0 0 0 0.00388717 0 2318.8
0.0756032 0 3.18575e-07 0 0 0 0 0.00367401 0 2736.54
0.079895 0 3.75967e-07 0 0 0 0 0.0034651 0 3229.53
0.0844305 0 4.43698e-07 0 0 0 0 0.00326121 0 3811.34
0.0892234 0 5.23632e-07 0 0 0 0 0.00306301 0 4497.96
0.0942883 0 6.17966e-07 0 0 0 0 0.00287109 0 5308.28
0.0996408 0 7.29294e-07 0 0 0 0 0.00268591 0 6264.59
0.105297 0 8.60678e-07 0 0 0 0 0.00250785 0 7393.17
0.111275 0 1.01573e-06 0 0 0 0 0.00233721 0 8725.07
0.117591 0 1.19872e-06 0 0 0 0 0.00217419 0 10296.9
0.124267 0 1.41467e-06 0 0 0 0 0.00201893 0 12151.9
0.131321 0 1.66953e-06 0 0 0 0 0.00187147 0 14341.1
0.138776 0 1.9703e-06 0 0 0 0 0.00173182 0 16924.7
0.146654 0 2.32525e-06 0 0 0 0 0.00159991 0 19973.8
0.154979 0 2.74415e-06 0 0 0 0 0.00147563 0 23572.1
0.163777 0 3.23852e-06 0 0 0 0 0.00135884 0 27818.7
0.173074 0 3.82195e-06 0 0 0 0 0.00124933 0 32830.3
0.182899 0 4.51048e-06 0 0 0 0 0.00114689 0 38744.7
0.193281 0 5.32305e-06 0 0 0 0 0.00105127 0 45724.7
0.204254 0 6.28202e-06 0 0 0 0 0.000962209 0 53962.1
0.215848 0 7.41374e-06 0 0 0 0 0.000879423 0 63683.5
0.228102 0 8.74934e-06 0 0 0 0 0.000802624 0 75156.3
0.24105 0 1.03256e-05 0 0 0 0 0.000731515 0 88695.9
0.254734 0 1.21857e-05 0 0 0 0 0.000665798 0 104675
0.269195 0 1.4381e-05 0 0 0 0 0.000605173 0 123532
0.284476 0 1.69718e-05 0 0 0 0 0.000549345 0 145787
0.300625 0 2.00293e-05 0 0 0 0 0.000498021 0 172051
0.317691 0 2.36377e-05 0 0 0 0 0.000450916 0 203046
0.335725 0 2.78961e-05 0 0 0 0 0.000407755 0 239625
0.354784 0 3.29216e-05 0 0 0 0 0.000368269 0 282795
0.374924 0 3.88525e-05 0 0 0 0 0.000332202 0 333741
0.396207 2.4639 4.58519e-05 6.25571e-06 6 2.3954 6.08179e-06 0.000299307 0.125404 393865
0.418699 0 5.41123e-05 0 0 0 0 0.00026935 0 464821
0.442467 0 6.38607e-05 0 0 0 0 0.000242108 0 548560
0.467585 0 7.53654e-05 0 0 0 0 0.00021737 0 647384
0.494129 0 8.89427e-05 0 0 0 0 0.000194938 0 764012
0.522179 0 0.000104966 0 0 0 0 0.000174625 0 901651
0.551822 0 0.000123876 0 0 0 0 0.000156255 0 1.06409e+06
0.583147 2.18461 0.000146192 1.73964e-06 12 2.29932 1.83098e-06 0.000139664 0.149471 1.25578e+06
0.616251 0 0.000172529 0 0 0 0 0.0001247 0 1.48202e+06
0.651234 0 0.000203611 0 0 0 0 0.00011122 0 1.74901e+06
0.688203 17.5009 0.000240292 8.47874e-06 8 17.0655 8.2678e-06 9.90935e-05 0.684505 2.06409e+06
0.72727 0 0.000283581 0 0 0 0 8.81969e-05 0 2.43595e+06
0.768555 0 0.000334669 0 0 0 0 7.84179e-05 0 2.87479e+06
0.812184 13.075 0.000394961 3.85389e-06 6 13.3546 3.93629e-06 6.96525e-05 0.331981 3.39269e+06
0.85829 0 0.000466114 0 0 0 0 6.1805e-05 0 4.00389e+06
0.907013 1.76176 0.000550086 3.72843e-07 24 1.79556 3.79997e-07 5.47875e-05 0.163326 4.7252e+06
0.958501 4.92713 0.000649185 8.8356e-07 24 4.63853 8.31806e-07 4.85194e-05 0.43705 5.57646e+06
1.01291 0 0.000766138 0 0 0 0 4.29272e-05 0 6.58107e+06
1.07041 0 0.00090416 0 0 0 0 3.79435e-05 0 7.76667e+06
1.13118 2.8048 0.00106705 3.06005e-07 12 2.77035 3.02246e-07 3.3507e-05 0.109591 9.16586e+06
1.19539 3.87796 0.00125928 3.58502e-07 30 3.79802 3.51112e-07 2.9562e-05 0.363814 1.08171e+07
1.26325 7.58696 0.00148614 5.94317e-07 24 7.47279 5.85374e-07 2.60578e-05 0.547383 1.27658e+07
1.33496 12.9991 0.00175387 8.6283e-07 24 13.0277 8.64726e-07 2.29484e-05 0.902367 1.50656e+07
1.41075 26.3111 0.00206984 1.47983e-06 32 26.4722 1.4889e-06 2.01923e-05 2.34518 1.77798e+07
1.49083 7.24581 0.00244272 3.45321e-07 48 7.09134 3.37959e-07 1.77518e-05 0.933733 2.09828e+07
1.57546 38.3734 0.00288279 1.54963e-06 6 36.5401 1.4756e-06 1.55929e-05 0.596285 2.4763e+07
1.66489 7.16899 0.00340213 2.45311e-07 84 7.00042 2.39543e-07 1.3685e-05 1.50575 2.92241e+07
1.75941 9.3283 0.00401503 2.70473e-07 48 9.25154 2.68247e-07 1.20007e-05 1.08183 3.44889e+07
1.85928 9.44844 0.00473835 2.32136e-07 72 9.5996 2.3585e-07 1.05151e-05 1.58951 4.07021e+07
1.96483 10.7016 0.00559198 2.2279e-07 54 10.4531 2.17616e-07 9.20606e-06 1.30682 4.80347e+07
2.07637 13.1287 0.00659939 2.31594e-07 104 13.2838 2.3433e-07 8.05366e-06 2.99066 5.66883e+07
2.19424 11.9738 0.00778828 1.78978e-07 120 12.1094 1.81004e-07 7.04008e-06 3.05073 6.69008e+07
2.3188 10.8214 0.00919136 1.37061e-07 156 10.5983 1.34236e-07 6.1494e-06 3.47701 7.89532e+07
2.45043 15.4692 0.0108472 1.6602e-07 126 15.2773 1.6396e-07 5.36741e-06 3.89732 9.31768e+07
2.58954 13.0737 0.0128014 1.18892e-07 192 13.1383 1.1948e-07 4.68145e-06 4.8761 1.09963e+08
2.73654 33.9018 0.0151076 2.6124e-07 152 34.3502 2.64695e-07 4.08023e-06 9.73189 1.29773e+08
2.89188 16.8437 0.0178292 1.0998e-07 378 16.9389 1.10602e-07 3.55373e-06 11.6983 1.53152e+08
3.05605 15.7665 0.0210412 8.72315e-08 264 15.6104 8.63682e-08 3.09304e-06 7.44546 1.80743e+08
3.22953 19.7233 0.0248319 9.24659e-08 366 19.5545 9.16745e-08 2.69025e-06 12.5797 2.13304e+08
3.41286 21.7421 0.0293054 8.63701e-08 428 21.5547 8.56259e-08 2.33837e-06 15.8086 2.51731e+08
3.6066 23.6988 0.0345848 7.97722e-08 486 23.3538 7.86107e-08 2.0312e-06 19.0869 2.97081e+08
3.81134 22.4518 0.0408154 6.40379e-08 600 22.4554 6.40481e-08 1.76327e-06 21.7907 3.50601e+08
4.0277 30.2014 0.0481684 7.29919e-08 738 30.0262 7.25685e-08 1.52972e-06 35.2143 4.13763e+08
4.25634 28.127 0.056846 5.76015e-08 824 27.9918 5.73245e-08 1.32631e-06 35.7864 4.88304e+08
4.49796 28.7934 0.067087 4.99649e-08 954 28.5297 4.95073e-08 1.14926e-06 41.476 5.76273e+08
4.7533 29.0809 0.0791729 4.27604e-08 1094 28.9583 4.25801e-08 9.95263e-07 47.0025 6.8009e+08
5.02313 32.9904 0.0934361 4.11039e-08 1332 33.1791 4.1339e-08 8.61414e-07 63.5587 8.0261e+08
5.30828 37.7919 0.110269 3.98985e-08 1614 37.7086 3.98105e-08 7.45152e-07 86.4201 9.47202e+08
5.60962 43.8937 0.130134 3.92664e-08 1850 43.8093 3.91909e-08 6.44232e-07 112.759 1.11784e+09
5.92807 41.9203 0.153578 3.17764e-08 2238 41.8276 3.17062e-08 5.56685e-07 127.748 1.31923e+09
6.26459 43.8284 0.181246 2.81513e-08 2546 43.825 2.81491e-08 4.80786e-07 149.075 1.55689e+09
6.62021 46.0115 0.213898 2.50421e-08 3264 46.1649 2.51256e-08 4.15026e-07 196.946 1.83737e+09
6.99602 50.0744 0.252432 2.30931e-08 3506 50.1006 2.31052e-08 3.58083e-07 226.105 2.16837e+09
7.39317 55.9346 0.297908 2.18579e-08 4506 55.952 2.18647e-08 3.08803e-07 318.946 2.55901e+09
7.81286 61.6847 0.351577 2.04252e-08 5018 61.4279 2.03402e-08 2.66181e-07 385.053 3.02002e+09
8.25637 64.7915 0.414914 1.8179e-08 5852 64.8511 1.81957e-08 2.29336e-07 463.876 3.56409e+09
8.72507 68.0022 0.489662 1.61673e-08 7362 67.8514 1.61314e-08 1.97503e-07 602.641 4.20617e+09
9.22037 71.5872 0.577876 1.44215e-08 8306 71.4259 1.4389e-08 1.70014e-07 704.56 4.96392e+09
9.74378 77.3538 0.681982 1.32044e-08 9698 77.2245 1.31823e-08 1.46289e-07 875.365 5.85818e+09
10.2969 78.388 0.804843 1.13383e-08 11816 78.2648 1.13205e-08 1.25822e-07 1064.78 6.91355e+09
10.8814 92.7686 0.949838 1.137e-08 13682 92.5763 1.13465e-08 1.08175e-07 1438.08 8.15905e+09
11.4992 91.7212 1.12095 9.5256e-09 16152 91.5814 9.51108e-09 9.29669e-08 1654.97 9.62892e+09
12.1519 98.7457 1.3229 8.68965e-09 19472 98.5719 8.67436e-09 7.98658e-08 2118.62 1.13636e+10
12.8418 101.735 1.56122 7.58607e-09 22670 101.482 7.56718e-09 6.85852e-08 2507.48 1.34108e+10
13.5708 109.372 1.84248 6.91058e-09 26224 109.215 6.90063e-09 5.88765e-08 3078.02 1.58268e+10
14.3411 117.683 2.17441 6.30064e-09 31640 117.621 6.29731e-09 5.05241e-08 3945.68 1.8678e+10
15.1552 123.15 2.56613 5.58684e-09 37484 122.883 5.57471e-09 4.33417e-08 4831.77 2.20429e+10
16.0156 132.951 3.02843 5.11076e-09 43856 132.699 5.10107e-09 3.71677e-08 6030.43 2.6014e+10
16.9247 141.547 3.574 4.61057e-09 51362 141.403 4.60588e-09 3.18628e-08 7432.12 3.07005e+10
17.8855 146.875 4.21787 4.05382e-09 61636 146.61 4.04651e-09 2.73063e-08 9150.31 3.62312e+10
18.9008 157.927 4.97773 3.69347e-09 72218 157.606 3.68598e-09 2.33941e-08 11401.8 4.27584e+10
19.9738 167.717 5.87448 3.32367e-09 84586 167.422 3.31781e-09 2.00364e-08 14031.3 5.04614e+10
21.1076 178.814 6.93279 3.00264e-09 100708 178.464 2.99677e-09 1.71555e-08 17626.4 5.95522e+10
22.3058 188.398 8.18175 2.68066e-09 118712 188.091 2.67628e-09 1.46847e-08 21670.6 7.02807e+10
23.5721 197.736 9.65571 2.38403e-09 140410 197.325 2.37907e-09 1.25662e-08 26638.4 8.29419e+10
24.9102 208.469 11.3952 2.12976e-09 164374 208.109 2.12607e-09 1.07504e-08 32564.2 9.78842e+10
26.3243 219.748 13.4481 1.90228e-09 194680 219.382 1.89911e-09 9.19452e-09 40277.9 1.15518e+11
27.8187 231.356 15.8708 1.69704e-09 230196 230.982 1.69429e-09 7.86182e-09 49689.6 1.36329e+11
29.3979 245.102 18.73 1.52342e-09 271156 244.656 1.52065e-09 6.72061e-09 61465.3 1.60889e+11
31.0667 259.349 22.1042 1.3659e-09 321076 258.874 1.3634e-09 5.74366e-09 76355.2 1.89874e+11
32.8303 273.744 26.0864 1.22163e-09 377436 273.182 1.21913e-09 4.90756e-09 93954.7 2.2408e+11
34.694 287.309 30.7859 1.08645e-09 447594 286.761 1.08437e-09 4.19221e-09 115998 2.64449e+11
36.6634 302.604 36.3321 9.69606e-10 525078 302.041 9.67801e-10 3.58032e-09 142199 3.1209e+11
38.7447 319.77 42.8774 8.68201e-10 621924 319.191 8.66627e-10 3.05709e-09 176624 3.68314e+11
40.9442 335.712 50.6018 7.72343e-10 732630 335.163 7.71082e-10 2.60976e-09 216817 4.34667e+11
43.2685 352.713 59.7179 6.87585e-10 865596 352.136 6.86461e-10 2.22743e-09 267201 5.12973e+11
45.7247 371.505 70.4762 6.13665e-10 1.02168e+06 370.929 6.12714e-10 1.90073e-09 329856 6.05386e+11
48.3204 388.195 83.1727 5.4335e-10 1.20544e+06 387.492 5.42365e-10 1.62163e-09 403898 7.14448e+11
51.0634 406.848 98.1565 4.82529e-10 1.42103e+06 406.152 4.81704e-10 1.38326e-09 495705 8.43158e+11
53.9621 427.664 115.84 4.29789e-10 1.67997e+06 426.934 4.29055e-10 1.1797e-09 612045 9.95055e+11
57.0254 449.352 136.709 3.82649e-10 1.98018e+06 448.545 3.81962e-10 1.00592e-09 753255 1.17432e+12
60.2626 471.495 161.337 3.40215e-10 2.33957e+06 470.641 3.39599e-10 8.57591e-10 928131 1.38587e+12
63.6835 495.434 190.402 3.02917e-10 2.75676e+06 494.535 3.02367e-10 7.3101e-10 1.14235e+06 1.63554e+12
67.2987 520.863 224.704 2.69851e-10 3.25638e+06 519.986 2.69396e-10 6.23009e-10 1.41047e+06 1.93019e+12
71.1191 547.241 265.185 2.40237e-10 3.84387e+06 546.265 2.39809e-10 5.30879e-10 1.73946e+06 2.27792e+12
75.1563 575.916 312.958 2.14231e-10 4.53277e+06 574.892 2.1385e-10 4.52303e-10 2.14692e+06 2.68829e+12
79.4227 606.365 369.339 1.91126e-10 5.35083e+06 605.323 1.90797e-10 3.85299e-10 2.65425e+06 3.17259e+12
83.9313 640.535 435.876 1.71076e-10 6.32174e+06 639.363 1.70763e-10 3.28173e-10 3.29552e+06 3.74415e+12
88.6959 677.312 514.4 1.53284e-10 7.44986e+06 676.03 1.52994e-10 2.79476e-10 4.08602e+06 4.41866e+12
93.7309 717.474 607.071 1.37587e-10 8.79764e+06 716.17 1.37337e-10 2.37972e-10 5.08647e+06 5.2147e+12
99.0518 762.686 716.436 1.23931e-10 1.03827e+07 761.241 1.23696e-10 2.02605e-10 6.35095e+06 6.15414e+12
104.675 813.833 845.504 1.12055e-10 1.22515e+07 812.221 1.11833e-10 1.72471e-10 7.95983e+06 7.26283e+12
110.617 873.33 997.824 1.01891e-10 1.44573e+07 871.545 1.01682e-10 1.468e-10 1.00345e+07 8.57124e+12
116.896 941.664 1177.58 9.30923e-11 1.70664e+07 939.644 9.28926e-11 1.24935e-10 1.27166e+07 1.01154e+13
123.532 1021.91 1389.73 8.56038e-11 2.0139e+07 1019.66 8.54155e-11 1.06313e-10 1.6216e+07 1.19377e+13
130.545 1116.09 1640.09 7.92214e-11 2.37643e+07 1113.5 7.90373e-11 9.04567e-11 2.08126e+07 1.40883e+13
137.955 1225.95 1935.56 7.37356e-11 2.80503e+07 1222.99 7.35574e-11 7.69563e-11 2.68763e+07 1.66263e+13
145.787 1356.75 2284.26 6.91459e-11 3.30981e+07 1353.35 6.89722e-11 6.54636e-11 3.49599e+07 1.96216e+13
154.063 1511.53 2695.77 6.52745e-11 3.90634e+07 1507.64 6.51064e-11 5.56812e-11 4.57937e+07 2.31565e+13
162.808 1694.48 3181.42 6.20048e-11 4.61057e+07 1689.87 6.1836e-11 4.73556e-11 6.03682e+07 2.73282e+13
172.051 1915.09 3754.56 5.93798e-11 5.44046e+07 1909.76 5.92148e-11 4.02708e-11 8.02202e+07 3.22515e+13
181.818 2177.2 4430.96 5.72019e-11 6.42064e+07 2170.95 5.70378e-11 3.42426e-11 1.07256e+08 3.80616e+13
192.139 2488.79 5229.21 5.54068e-11 7.57748e+07 2481.47 5.52437e-11 2.91139e-11 1.44207e+08 4.49186e+13
203.046 2862.95 6171.26 5.40069e-11 8.94213e+07 2854.32 5.38442e-11 2.4751e-11 1.95118e+08 5.30108e+13
214.572 3310.79 7283.03 5.29212e-11 1.05538e+08 3300.54 5.27573e-11 2.10401e-11 2.65456e+08 6.25608e+13
226.753 3849.89 8595.09 5.21444e-11 1.24552e+08 3837.67 5.1979e-11 1.78839e-11 3.63158e+08 7.38313e+13
239.625 4497.45 10143.5 5.16164e-11 1.46987e+08 4482.9 5.14494e-11 1.51999e-11 4.99145e+08 8.71322e+13
253.228 5278.7 11970.9 5.13346e-11 1.7347e+08 5261.25 5.11649e-11 1.29176e-11 6.89369e+08 1.02829e+14
267.603 6225.68 14127.5 5.13017e-11 2.04703e+08 6204.71 5.11289e-11 1.09771e-11 9.56679e+08 1.21354e+14
282.795 7378.22 16672.6 5.15179e-11 2.4161e+08 7352.8 5.13404e-11 9.3274e-12 1.33448e+09 1.43217e+14
298.848 8797.01 19676.2 5.20479e-11 2.85122e+08 8766.03 5.18647e-11 7.925e-12 1.87256e+09 1.69017e+14
315.813 10561.5 23220.9 5.29488e-11 3.36491e+08 10523.1 5.27564e-11 6.73295e-12 2.64621e+09 1.99466e+14
333.741 12794.4 27404.3 5.43516e-11 3.97115e+08 12746.1 5.41462e-11 5.71979e-12 3.77354e+09 2.35401e+14
352.686 15682.2 32341.2 5.64497e-11 4.68637e+08 15620.1 5.62263e-11 4.85874e-12 5.44471e+09 2.77809e+14
372.707 19531.3 38167.6 5.95726e-11 5.53074e+08 19449.1 5.9322e-11 4.12703e-12 7.98348e+09 3.27857e+14
393.865 24853.6 45043.5 6.42343e-11 6.52716e+08 24740.6 6.39423e-11 3.50528e-12 1.1961e+10 3.86921e+14
416.224 29339.3 53158.3 6.42524e-11 2.2184e+08 31038.3 6.79731e-11 2.97701e-12 4.78794e+09 4.56626e+14
439.852 0 62734.9 0 0 0 0 2.52819e-12 0 5.38888e+14
464.821 0 74036.7 0 0 0 0 2.1469e-12 0 6.35971e+14
491.207 0 87374.6 0 0 0 0 1.82301e-12 0 7.50542e+14
519.092 0 103115 0 0 0 0 1.54789e-12 0 8.85755e+14
548.56 0 121692 0 0 0 0 1.31422e-12 0 1.04533e+15
579.7 0 143615 0 0 0 0 1.11576e-12 0 1.23364e+15
612.608 0 169488 0 0 0 0 9.47223e-13 0 1.45589e+15
647.384 0 200021 0 0 0 0 8.041e-13 0 1.71817e+15
684.134 0 236056 0 0 0 0 6.82568e-13 0 2.0277e+15
722.971 0 278582 0 0 0 0 5.79376e-13 0 2.393e+15
764.012 0 328769 0 0 0 0 4.91762e-13 0 2.8241e+15
1
200
1.0655e+09
8589934592
0.0129181 0.000797446 1.58924e-09 5.84147e-05 6 0.000790145 5.78799e-05 0.00677225 0.0517536 13.6515
0.0136515 0 1.87554e-09 0 0 0 0 0.00688819 0 16.1108
0.0144264 0 2.21343e-09 0 0 0 0 0.00699249 0 19.0132
0.0152454 0 2.61218e-09 0 0 0 0 0.00708412 0 22.4385
0.0161108 0 3.08278e-09 0 0 0 0 0.00716212 0 26.4808
0.0170254 0 3.63815e-09 0 0 0 0 0.00722559 0 31.2514
0.0179919 0.00517593 4.29357e-09 0.00014034 12 0.00516926 0.000140159 0.00727371 0.231529 36.8815
0.0190132 0 5.06707e-09 0 0 0 0 0.00730578 0 43.5258
0.0200925 0 5.97991e-09 0 0 0 0 0.00732122 0 51.367
0.0212331 0.00587625 7.05721e-09 9.69343e-05 8 0.00587114 9.685e-05 0.00731958 0.105945 60.621
0.0224385 0 8.32858e-09 0 0 0 0 0.00730056 0 71.542
0.0237123 0 9.829e-09 0 0 0 0 0.00726401 0 84.4305
0.0250583 0.0109615 1.15997e-08 0.000110011 6 0.0109564 0.000109959 0.00720995 0.0915489 99.6408
0.0264808 0 1.36894e-08 0 0 0 0 0.00713857 0 117.591
0.0279841 0.0304004 1.61556e-08 0.000219061 24 0.0303692 0.000218836 0.00705021 0.745718 138.776
0.0295727 0 1.90661e-08 0 0 0 0 0.00694538 0 163.777
0.0312514 0.0369228 2.25009e-08 0.000191031 24 0.0371103 0.000192001 0.00682475 0.671783 193.281
0.0330255 0 2.65545e-08 0 0 0 0 0.00668915 0 228.102
0.0349003 0.0160059 3.13384e-08 5.94585e-05 12 0.0158777 5.89824e-05 0.00653951 0.109106 269.195
0.0368815 0.0391671 3.69841e-08 0.000123287 30 0.03875 0.000121974 0.00637693 0.579998 317.691
0.0389751 0.0520684 4.36469e-08 0.000138877 24 0.0515328 0.000137449 0.00620256 0.537368 374.924
0.0411876 0.0674406 5.151e-08 0.000152419 24 0.0669825 0.000151384 0.00601767 0.607887 442.467
0.0435258 0.0540918 6.07896e-08 0.000103589 8 0.0540876 0.000103581 0.00582358 0.142302 522.179
0.0459966 0.072021 7.1741e-08 0.00011687 72 0.0714505 0.000115944 0.00562166 1.49682 616.251
0.0486077 0 8.46654e-08 0 0 0 0 0.0054133 0 727.27
0.051367 0.107695 9.99181e-08 0.000125476 54 0.10765 0.000125424 0.00519989 1.30305 858.29
0.054283 0.0765091 1.17919e-07 7.55338e-05 60 0.0767792 7.58004e-05 0.0049828 0.909533 1012.91
0.0573645 0.110378 1.39162e-07 9.23366e-05 96 0.109851 9.18953e-05 0.00476339 1.86093 1195.39
0.060621 0.166619 1.64232e-07 0.000118107 24 0.164361 0.000116507 0.00454293 0.623952 1410.75
0.0640622 0.142818 1.93819e-07 8.57822e-05 134 0.142732 8.57301e-05 0.00432265 2.65921 1664.89
0.0676989 0.132667 2.28736e-07 6.75209e-05 120 0.131949 6.71557e-05 0.00410371 1.97444 1964.83
0.071542 0.171829 2.69944e-07 7.41024e-05 108 0.169244 7.2988e-05 0.00388717 2.05884 2318.8
0.0756032 0.181066 3.18575e-07 6.61659e-05 174 0.17936 6.55425e-05 0.00367401 3.1336 2736.54
0.079895 0.196002 3.75967e-07 6.06905e-05 168 0.19394 6.0052e-05 0.0034651 2.94249 3229.53
0.0844305 0.199713 4.43698e-07 5.23996e-05 168 0.200666 5.26497e-05 0.00326121 2.69935 3811.34
0.0892234 0.241382 5.23632e-07 5.36648e-05 290 0.240172 5.33958e-05 0.00306301 5.08088 4497.96
0.0942883 0.260657 6.17966e-07 4.91038e-05 288 0.260317 4.90397e-05 0.00287109 4.92562 5308.28
0.0996408 0.276713 7.29294e-07 4.4171e-05 366 0.274799 4.38654e-05 0.00268591 6.01904 6264.59
0.105297 0.327243 8.60678e-07 4.42629e-05 420 0.325256 4.39941e-05 0.00250785 7.41288 7393.17
0.111275 0.385971 1.01573e-06 4.4237e-05 398 0.386476 4.42949e-05 0.00233721 7.53305 8725.07
0.117591 0.401361 1.19872e-06 3.89788e-05 624 0.401382 3.89808e-05 0.00217419 11.187 10296.9
0.124267 0.450211 1.41467e-06 3.70485e-05 642 0.448923 3.69426e-05 0.00201893 11.7811 12151.9
0.131321 0.459794 1.66953e-06 3.20612e-05 800 0.459551 3.20442e-05 0.00187147 13.7053 14341.1
0.138776 0.511681 1.9703e-06 3.02328e-05 858 0.51307 3.03148e-05 0.00173182 14.9783 16924.7
0.146654 0.551039 2.32525e-06 2.75881e-05 1080 0.554846 2.77788e-05 0.00159991 18.6231 19973.8
0.154979 0.625604 2.74415e-06 2.654e-05 1286 0.629581 2.67087e-05 0.00147563 23.1293 23572.1
0.163777 0.671545 3.23852e-06 2.41401e-05 1650 0.674398 2.42426e-05 0.00135884 29.3126 27818.7
0.173074 0.703966 3.82195e-06 2.14426e-05 1778 0.704177 2.1449e-05 0.00124933 30.5162 32830.3
0.182899 0.803972 4.51048e-06 2.07505e-05 2112 0.804963 2.07761e-05 0.00114689 38.212 38744.7
0.193281 0.901423 5.32305e-06 1.97141e-05 2570 0.902142 1.97299e-05 0.00105127 48.1943 45724.7
0.204254 0.961962 6.28202e-06 1.78266e-05 3030 0.963706 1.78589e-05 0.000962209 56.1361 53962.1
0.215848 1.11097 7.41374e-06 1.74452e-05 3434 1.11147 1.7453e-05 0.000879423 68.1206 63683.5
0.228102 1.17528 8.74934e-06 1.56378e-05 4218 1.17471 1.56302e-05 0.000802624 82.1807 75156.3
0.24105 1.30851 1.03256e-05 1.47528e-05 4766 1.30863 1.47541e-05 0.000731515 96.1182 88695.9
0.254734 1.41853 1.21857e-05 1.35518e-05 6026 1.41654 1.35328e-05 0.000665798 122.654 104675
0.269195 1.5983 1.4381e-05 1.29384e-05 6480 1.59868 1.29414e-05 0.000605173 138.54 123532
0.284476 1.70763 1.69718e-05 1.17132e-05 8162 1.7086 1.17198e-05 0.000549345 174.031 145787
0.300625 1.92712 2.00293e-05 1.12009e-05 9578 1.92772 1.12044e-05 0.000498021 215.417 172051
0.317691 2.10982 2.36377e-05 1.03908e-05 11234 2.10906 1.03871e-05 0.000450916 258.874 203046
0.335725 2.32618 2.78961e-05 9.70755e-06 13344 2.32373 9.69734e-06 0.000407755 317.685 239625
0.354784 2.5917 3.29216e-05 9.16462e-06 15464 2.58897 9.15496e-06 0.000368269 384.832 282795
0.374924 2.87605 3.88525e-05 8.61762e-06 18458 2.87424 8.61219e-06 0.000332202 478.818 333741
0.396207 3.20617 4.58519e-05 8.14028e-06 22232 3.20024 8.12522e-06 0.000299307 604.646 393865
0.418699 3.5456 5.41123e-05 7.62788e-06 25628 3.5354 7.60594e-06 0.00026935 725.775 464821
0.442467 3.92072 6.38607e-05 7.14731e-06 30320 3.91297 7.13318e-06 0.000242108 895.082 548560
0.467585 4.36729 7.53654e-05 6.74607e-06 35452 4.35894 6.73316e-06 0.00021737 1100.25 647384
0.494129 4.94906 8.89427e-05 6.47773e-06 41792 4.945 6.47242e-06 0.000194938 1388.73 764012
0.522179 5.49106 0.000104966 6.09e-06 49988 5.48738 6.08593e-06 0.000174625 1743.32 901651
0.551822 6.13381 0.000123876 5.7644e-06 59110 6.12887 5.75975e-06 0.000156255 2180.63 1.06409e+06
0.583147 6.89987 0.000146192 5.49447e-06 69716 6.8895 5.48622e-06 0.000139664 2742.67 1.25578e+06
0.616251 7.70202 0.000172529 5.19699e-06 82210 7.68587 5.18609e-06 0.0001247 3426.18 1.48202e+06
0.651234 8.70212 0.000203611 4.97547e-06 96722 8.68249 4.96424e-06 0.00011122 4326.87 1.74901e+06
0.688203 9.6762 0.000240292 4.68787e-06 113098 9.66006 4.68005e-06 9.90935e-05 5350.39 2.06409e+06
0.72727 10.822 0.000283581 4.44263e-06 135190 10.8072 4.43655e-06 8.81969e-05 6809.75 2.43595e+06
0.768555 12.2379 0.000334669 4.25699e-06 158170 12.2219 4.2514e-06 7.84179e-05 8586.4 2.87479e+06
0.812184 13.7379 0.000394961 4.04925e-06 188560 13.7173 4.0432e-06 6.96525e-05 10961.9 3.39269e+06
0.85829 15.334 0.000466114 3.82978e-06 220444 15.3065 3.8229e-06 6.1805e-05 13659.9 4.00389e+06
0.907013 17.2904 0.000550086 3.65918e-06 261388 17.2617 3.65312e-06 5.47875e-05 17457.7 4.7252e+06
0.958501 19.3596 0.000649185 3.47167e-06 308244 19.3283 3.46605e-06 4.85194e-05 22055.5 5.57646e+06
1.01291 21.6193 0.000766138 3.28507e-06 364396 21.5811 3.27927e-06 4.29272e-05 27886 6.58107e+06
1.07041 24.1791 0.00090416 3.11318e-06 429162 24.136 3.10763e-06 3.79435e-05 35211.9 7.76667e+06
1.13118 26.9452 0.00106705 2.93974e-06 506358 26.8954 2.9343e-06 3.3507e-05 44425.3 9.16586e+06
1.19539 29.9918 0.00125928 2.77262e-06 598590 29.9385 2.7677e-06 2.9562e-05 56141.7 1.08171e+07
1.26325 33.3015 0.00148614 2.60864e-06 704844 33.2408 2.60388e-06 2.60578e-05 70561.6 1.27658e+07
1.33496 37.107 0.00175387 2.46302e-06 834620 37.0344 2.4582e-06 2.29484e-05 89578.5 1.50656e+07
1.41075 41.0126 0.00206984 2.3067e-06 981444 40.9357 2.30238e-06 2.01923e-05 112117 1.77798e+07
1.49083 45.3373 0.00244272 2.16068e-06 1.15998e+06 45.2537 2.1567e-06 1.77518e-05 141188 2.09828e+07
1.57546 50.1517 0.00288279 2.02527e-06 1.36931e+06 50.058 2.02149e-06 1.55929e-05 177852 2.4763e+07
1.66489 55.1814 0.00340213 1.88822e-06 1.61652e+06 55.075 1.88458e-06 1.3685e-05 223042 2.92241e+07
1.75941 60.7662 0.00401503 1.76191e-06 1.90601e+06 60.6544 1.75867e-06 1.20007e-05 279835 3.44889e+07
1.85928 66.4613 0.00473835 1.63287e-06 2.24913e+06 66.3426 1.62995e-06 1.05151e-05 349263 4.07021e+07
1.96483 72.6569 0.00559198 1.51259e-06 2.65744e+06 72.5249 1.50984e-06 9.20606e-06 436628 4.80347e+07
2.07637 79.2531 0.00659939 1.39805e-06 3.13125e+06 79.111 1.39554e-06 8.05366e-06 543560 5.66883e+07
2.19424 86.5076 0.00778828 1.29307e-06 3.69915e+06 86.3515 1.29074e-06 7.04008e-06 679433 6.69008e+07
2.3188 93.9934 0.00919136 1.1905e-06 4.36472e+06 93.8251 1.18836e-06 6.1494e-06 844990 7.89532e+07
2.45043 101.861 0.0108472 1.0932e-06 5.14913e+06 101.682 1.09128e-06 5.36741e-06 1.04874e+06 9.31768e+07
2.58954 110.372 0.0128014 1.00372e-06 6.07894e+06 110.179 1.00197e-06 4.68145e-06 1.30334e+06 1.09963e+08
2.73654 119.418 0.0151076 9.20204e-07 7.17304e+06 119.21 9.18601e-07 4.08023e-06 1.61772e+06 1.29773e+08
2.89188 128.886 0.0178292 8.41556e-07 8.46557e+06 128.665 8.40113e-07 3.55373e-06 2.00472e+06 1.53152e+08
3.05605 139.172 0.0210412 7.69999e-07 9.98773e+06 138.938 7.68704e-07 3.09304e-06 2.4864e+06 1.80743e+08
3.22953 149.721 0.0248319 7.01916e-07 1.1797e+07 149.472 7.00745e-07 2.69025e-06 3.07797e+06 2.13304e+08
3.41286 160.886 0.0293054 6.3912e-07 1.39144e+07 160.613 6.38035e-07 2.33837e-06 3.80305e+06 2.51731e+08
3.6066 172.748 0.0345848 5.81485e-07 1.64163e+07 172.462 5.8052e-07 2.0312e-06 4.69959e+06 2.97081e+08
3.81134 185.511 0.0408154 5.29121e-07 1.93821e+07 185.201 5.28239e-07 1.76327e-06 5.8162e+06 3.50601e+08
4.0277 198.709 0.0481684 4.80248e-07 2.28754e+07 198.369 4.79427e-07 1.52972e-06 7.18161e+06 4.13763e+08
4.25634 212.68 0.056846 4.35548e-07 2.69929e+07 212.317 4.34804e-07 1.32631e-06 8.86424e+06 4.88304e+08
4.49796 227.547 0.067087 3.9486e-07 3.18542e+07 227.164 3.94195e-07 1.14926e-06 1.09444e+07 5.76273e+08
4.7533 243.097 0.0791729 3.57448e-07 3.75892e+07 242.691 3.56851e-07 9.95263e-07 1.35001e+07 6.8009e+08
5.02313 259.436 0.0934361 3.23241e-07 4.43706e+07 259.005 3.22704e-07 8.61414e-07 1.66498e+07 8.0261e+08
5.30828 276.629 0.110269 2.92048e-07 5.23593e+07 276.171 2.91565e-07 7.45152e-07 2.05212e+07 9.47202e+08
5.60962 294.673 0.130134 2.63608e-07 6.1787e+07 294.181 2.63168e-07 6.44232e-07 2.52821e+07 1.11784e+09
5.92807 313.712 0.153578 2.378e-07 7.29346e+07 313.187 2.37402e-07 5.56685e-07 3.11556e+07 1.31923e+09
6.26459 333.445 0.181246 2.14174e-07 8.60651e+07 332.889 2.13817e-07 4.80786e-07 3.8339e+07 1.55689e+09
6.62021 354.234 0.213898 1.92794e-07 1.01558e+08 353.643 1.92473e-07 4.15026e-07 4.71774e+07 1.83737e+09
6.99602 375.884 0.252432 1.73349e-07 1.1986e+08 375.259 1.7306e-07 3.58083e-07 5.80244e+07 2.16837e+09
7.39317 398.57 0.297908 1.55751e-07 1.41457e+08 397.912 1.55494e-07 3.08803e-07 7.13466e+07 2.55901e+09
7.81286 422.195 0.351577 1.39799e-07 1.66936e+08 421.494 1.39566e-07 2.66181e-07 8.76749e+07 3.02002e+09
8.25637 447.41 0.414914 1.25533e-07 1.97025e+08 446.666 1.25324e-07 2.29336e-07 1.07847e+08 3.56409e+09
8.72507 474.198 0.489662 1.12739e-07 2.32497e+08 473.407 1.12551e-07 1.97503e-07 1.32714e+08 4.20617e+09
9.22037 502.49 0.577876 1.01228e-07 2.74404e+08 501.643 1.01058e-07 1.70014e-07 1.63383e+08 4.96392e+09
9.74378 533.348 0.681982 9.10432e-08 3.2382e+08 532.431 9.08867e-08 1.46289e-07 2.0153e+08 5.85818e+09
10.2969 568.135 0.804843 8.2177e-08 3.82165e+08 567.117 8.20298e-08 1.25822e-07 2.49599e+08 6.91355e+09
10.8814 609.234 0.949838 7.46697e-08 4.51027e+08 608.07 7.45271e-08 1.08175e-07 3.11328e+08 8.15905e+09
11.4992 661.825 1.12095 6.8733e-08 5.32251e+08 660.415 6.85866e-08 9.29669e-08 3.93508e+08 9.62892e+09
12.1519 735.951 1.3229 6.47639e-08 6.28157e+08 734.099 6.46009e-08 7.98658e-08 5.09379e+08 1.13636e+10
12.8418 819.088 1.56122 6.10768e-08 3.82727e+08 847.779 6.32163e-08 6.85852e-08 3.40828e+08 1.34108e+10
13.5708 0 1.84248 0 0 0 0 5.88765e-08 0 1.58268e+10
14.3411 0 2.17441 0 0 0 0 5.05241e-08 0 1.8678e+10
15.1552 0 2.56613 0 0 0 0 4.33417e-08 0 2.20429e+10
16.0156 0 3.02843 0 0 0 0 3.71677e-08 0 2.6014e+10
16.9247 0 3.574 0 0 0 0 3.18628e-08 0 3.07005e+10
17.8855 0 4.21787 0 0 0 0 2.73063e-08 0 3.62312e+10
18.9008 0 4.97773 0 0 0 0 2.33941e-08 0 4.27584e+10
19.9738 0 5.87448 0 0 0 0 2.00364e-08 0 5.04614e+10
21.1076 0 6.93279 0 0 0 0 1.71555e-08 0 5.95522e+10
22.3058 0 8.18175 0 0 0 0 1.46847e-08 0 7.02807e+10
23.5721 0 9.65571 0 0 0 0 1.25662e-08 0 8.29419e+10
24.9102 0 11.3952 0 0 0 0 1.07504e-08 0 9.78842e+10
26.3243 0 13.4481 0 0 0 0 9.19452e-09 0 1.15518e+11
27.8187 0 15.8708 0 0 0 0 7.86182e-09 0 1.36329e+11
29.3979 0 18.73 0 0 0 0 6.72061e-09 0 1.60889e+11
31.0667 0 22.1042 0 0 0 0 5.74366e-09 0 1.89874e+11
32.8303 0 26.0864 0 0 0 0 4.90756e-09 0 2.2408e+11
34.694 0 30.7859 0 0 0 0 4.19221e-09 0 2.64449e+11
36.6634 0 36.3321 0 0 0 0 3.58032e-09 0 3.1209e+11
38.7447 0 42.8774 0 0 0 0 3.05709e-09 0 3.68314e+11
40.9442 0 50.6018 0 0 0 0 2.60976e-09 0 4.34667e+11
43.2685 0 59.7179 0 0 0 0 2.22743e-09 0 5.12973e+11
45.7247 0 70.4762 0 0 0 0 1.90073e-09 0 6.05386e+11
48.3204 0 83.1727 0 0 0 0 1.62163e-09 0 7.14448e+11
51.0634 0 98.1565 0 0 0 0 1.38326e-09 0 8.43158e+11
53.9621 0 115.84 0 0 0 0 1.1797e-09 0 9.95055e+11
57.0254 0 136.709 0 0 0 0 1.00592e-09 0 1.17432e+12
60.2626 0 161.337 0 0 0 0 8.57591e-10 0 1.38587e+12
63.6835 0 190.402 0 0 0 0 7.3101e-10 0 1.63554e+12
67.2987 0 224.704 0 0 0 0 6.23009e-10 0 1.93019e+12
71.1191 0 265.185 0 0 0 0 5.30879e-10 0 2.27792e+12
75.1563 0 312.958 0 0 0 0 4.52303e-10 0 2.68829e+12
79.4227 0 369.339 0 0 0 0 3.85299e-10 0 3.17259e+12
83.9313 0 435.876 0 0 0 0 3.28173e-10 0 3.74415e+12
88.6959 0 514.4 0 0 0 0 2.79476e-10 0 4.41866e+12
93.7309 0 607.071 0 0 0 0 2.37972e-10 0 5.2147e+12
99.0518 0 716.436 0 0 0 0 2.02605e-10 0 6.15414e+12
104.675 0 845.504 0 0 0 0 1.72471e-10 0 7.26283e+12
110.617 0 997.824 0 0 0 0 1.468e-10 0 8.57124e+12
116.896 0 1177.58 0 0 0 0 1.24935e-10 0 1.01154e+13
123.532 0 1389.73 0 0 0 0 1.06313e-10 0 1.19377e+13
130.545 0 1640.09 0 0 0 0 9.04567e-11 0 1.40883e+13
137.955 0 1935.56 0 0 0 0 7.69563e-11 0 1.66263e+13
145.787 0 2284.26 0 0 0 0 6.54636e-11 0 1.96216e+13
154.063 0 2695.77 0 0 0 0 5.56812e-11 0 2.31565e+13
162.808 0 3181.42 0 0 0 0 4.73556e-11 0 2.73282e+13
172.051 0 3754.56 0 0 0 0 4.02708e-11 0 3.22515e+13
181.818 0 4430.96 0 0 0 0 3.42426e-11 0 3.80616e+13
192.139 0 5229.21 0 0 0 0 2.91139e-11 0 4.49186e+13
203.046 0 6171.26 0 0 0 0 2.4751e-11 0 5.30108e+13
214.572 0 7283.03 0 0 0 0 2.10401e-11 0 6.25608e+13
226.753 0 8595.09 0 0 0 0 1.78839e-11 0 7.38313e+13
239.625 0 10143.5 0 0 0 0 1.51999e-11 0 8.71322e+13
253.228 0 11970.9 0 0 0 0 1.29176e-11 0 1.02829e+14
267.603 0 14127.5 0 0 0 0 1.09771e-11 0 1.21354e+14
282.795 0 16672.6 0 0 0 0 9.3274e-12 0 1.43217e+14
298.848 0 19676.2 0 0 0 0 7.925e-12 0 1.69017e+14
315.813 0 23220.9 0 0 0 0 6.73295e-12 0 1.99466e+14
333.741 0 27404.3 0 0 0 0 5.71979e-12 0 2.35401e+14
352.686 0 32341.2 0 0 0 0 4.85874e-12 0 2.77809e+14
372.707 0 38167.6 0 0 0 0 4.12703e-12 0 3.27857e+14
393.865 0 45043.5 0 0 0 0 3.50528e-12 0 3.86921e+14
416.224 0 53158.3 0 0 0 0 2.97701e-12 0 4.56626e+14
439.852 0 62734.9 0 0 0 0 2.52819e-12 0 5.38888e+14
464.821 0 74036.7 0 0 0 0 2.1469e-12 0 6.35971e+14
491.207 0 87374.6 0 0 0 0 1.82301e-12 0 7.50542e+14
519.092 0 103115 0 0 0 0 1.54789e-12 0 8.85755e+14
548.56 0 121692 0 0 0 0 1.31422e-12 0 1.04533e+15
579.7 0 143615 0 0 0 0 1.11576e-12 0 1.23364e+15
612.608 0 169488 0 0 0 0 9.47223e-13 0 1.45589e+15
647.384 0 200021 0 0 0 0 8.041e-13 0 1.71817e+15
684.134 0 236056 0 0 0 0 6.82568e-13 0 2.0277e+15
722.971 0 278582 0 0 0 0 5.79376e-13 0 2.393e+15
764.012 0 328769 0 0 0 0 4.91762e-13 0 2.8241e+15
