0.327739
200
1.0655e+09
8589934592
0.0129181 0 1.58924e-09 0 0 0 0 0.00677225 0 13.6515
0.0136515 0 1.87554e-09 0 0 0 0 0.00688819 0 16.1108
0.0144264 0 2.21343e-09 0 0 0 0 0.00699249 0 19.0132
0.0152454 0 2.61218e-09 0 0 0 0 0.00708412 0 22.4385
0.0161108 0 3.08278e-09 0 0 0 0 0.00716212 0 26.4808
0.0170254 0 3.63815e-09 0 0 0 0 0.00722559 0 31.2514
0.0179919 0 4.29357e-09 0 0 0 0 0.00727371 0 36.8815
0.0190132 0 5.06707e-09 0 0 0 0 0.00730578 0 43.5258
0.0200925 0 5.97991e-09 0 0 0 0 0.00732122 0 51.367
0.0212331 0 7.05721e-09 0 0 0 0 0.00731958 0 60.621
0.0224385 0 8.32858e-09 0 0 0 0 0.00730056 0 71.542
0.0237123 0 9.829e-09 0 0 0 0 0.00726401 0 84.4305
0.0250583 0 1.15997e-08 0 0 0 0 0.00720995 0 99.6408
0.0264808 0 1.36894e-08 0 0 0 0 0.00713857 0 117.591
0.0279841 0 1.61556e-08 0 0 0 0 0.00705021 0 138.776
0.0295727 0 1.90661e-08 0 0 0 0 0.00694538 0 163.777
0.0312514 0 2.25009e-08 0 0 0 0 0.00682475 0 193.281
0.0330255 0 2.65545e-08 0 0 0 0 0.00668915 0 228.102
0.0349003 0 3.13384e-08 0 0 0 0 0.00653951 0 269.195
0.0368815 0 3.69841e-08 0 0 0 0 0.00637693 0 317.691
0.0389751 0 4.36469e-08 0 0 0 0 0.00620256 0 374.924
0.0411876 0 5.151e-08 0 0 0 0 0.00601767 0 442.467
0.0435258 0 6.07896e-08 0 0 0 0 0.00582358 0 522.179
0.0459966 0 7.1741e-08 0 0 0 0 0.00562166 0 616.251
0.0486077 0 8.46654e-08 0 0 0 0 0.0054133 0 727.27
0.051367 0 9.99181e-08 0 0 0 0 0.00519989 0 858.29
0.054283 0 1.17919e-07 0 0 0 0 0.0049828 0 1012.91
0.0573645 0 1.39162e-07 0 0 0 0 0.00476339 0 1195.39
0.060621 0 1.64232e-07 0 0 0 0 0.00454293 0 1410.75
0.0640622 0 1.93819e-07 0 0 0 0 0.00432265 0 1664.89
0.0676989 0 2.28736e-07 0 0 0 0 0.00410371 0 1964.83
0.071542 0 2.69944e-07 0 0 0 0 0.00388717 0 2318.8
0.0756032 0 3.18575e-07 0 0 0 0 0.00367401 0 2736.54
0.079895 0 3.75967e-07 0 0 0 0 0.0034651 0 3229.53
0.0844305 0 4.43698e-07 0 0 0 0 0.00326121 0 3811.34
0.0892234 0 5.23632e-07 0 0 0 0 0.00306301 0 4497.96
0.0942883 0 6.17966e-07 0 0 0 0 0.00287109 0 5308.28
0.0996408 0 7.29294e-07 0 0 0 0 0.00268591 0 6264.59
0.105297 0 8.60678e-07 0 0 0 0 0.00250785 0 7393.17
0.111275 0 1.01573e-06 0 0 0 0 0.00233721 0 8725.07
0.117591 0 1.19872e-06 0 0 0 0 0.00217419 0 10296.9
0.124267 0 1.41467e-06 0 0 0 0 0.00201893 0 12151.9
0.131321 0 1.66953e-06 0 0 0 0 0.00187147 0 14341.1
0.138776 0 1.9703e-06 0 0 0 0 0.00173182 0 16924.7
0.146654 0 2.32525e-06 0 0 0 0 0.00159991 0 19973.8
0.154979 0 2.74415e-06 0 0 0 0 0.00147563 0 23572.1
0.163777 0 3.23852e-06 0 0 0 0 0.00135884 0 27818.7
0.173074 0 3.82195e-06 0 0 0 0 0.00124933 0 32830.3
0.182899 0 4.51048e-06 0 0 0 0 0.00114689 0 38744.7
0.193281 0 5.32305e-06 0 0 0 0 0.00105127 0 45724.7
0.204254 0 6.28202e-06 0 0 0 0 0.000962209 0 53962.1
0.215848 0 7.41374e-06 0 0 0 0 0.000879423 0 63683.5
0.228102 0 8.74934e-06 0 0 0 0 0.000802624 0 75156.3
0.24105 0 1.03256e-05 0 0 0 0 0.000731515 0 88695.9
0.254734 0 1.21857e-05 0 0 0 0 0.000665798 0 104675
0.269195 0 1.4381e-05 0 0 0 0 0.000605173 0 123532
0.284476 0 1.69718e-05 0 0 0 0 0.000549345 0 145787
0.300625 0 2.00293e-05 0 0 0 0 0.000498021 0 172051
0.317691 0 2.36377e-05 0 0 0 0 0.000450916 0 203046
0.335725 0 2.78961e-05 0 0 0 0 0.000407755 0 239625
0.354784 0 3.29216e-05 0 0 0 0 0.000368269 0 282795
0.374924 0 3.88525e-05 0 0 0 0 0.000332202 0 333741
0.396207 1.30338 4.58519e-05 3.30921e-06 6 1.26715 3.21721e-06 0.000299307 0.0663375 393865
0.418699 0 5.41123e-05 0 0 0 0 0.00026935 0 464821
0.442467 0 6.38607e-05 0 0 0 0 0.000242108 0 548560
0.467585 0 7.53654e-05 0 0 0 0 0.00021737 0 647384
0.494129 0 8.89427e-05 0 0 0 0 0.000194938 0 764012
0.522179 0 0.000104966 0 0 0 0 0.000174625 0 901651
0.551822 0 0.000123876 0 0 0 0 0.000156255 0 1.06409e+06
0.583147 8.00416 0.000146192 6.37384e-06 12 8.42442 6.7085e-06 0.000139664 0.547643 1.25578e+06
0.616251 0 0.000172529 0 0 0 0 0.0001247 0 1.48202e+06
0.651234 0 0.000203611 0 0 0 0 0.00011122 0 1.74901e+06
0.688203 23.9624 0.000240292 1.16092e-05 8 23.3662 1.13203e-05 9.90935e-05 0.93723 2.06409e+06
0.72727 0 0.000283581 0 0 0 0 8.81969e-05 0 2.43595e+06
0.768555 0 0.000334669 0 0 0 0 7.84179e-05 0 2.87479e+06
0.812184 0.874697 0.000394961 2.57818e-07 6 0.893398 2.6333e-07 6.96525e-05 0.0222089 3.39269e+06
0.85829 0 0.000466114 0 0 0 0 6.1805e-05 0 4.00389e+06
0.907013 0.704224 0.000550086 1.49036e-07 24 0.717737 1.51895e-07 5.47875e-05 0.0652861 4.7252e+06
0.958501 4.0638 0.000649185 7.28743e-07 24 3.82577 6.86057e-07 4.85194e-05 0.360471 5.57646e+06
1.01291 0 0.000766138 0 0 0 0 4.29272e-05 0 6.58107e+06
1.07041 0 0.00090416 0 0 0 0 3.79435e-05 0 7.76667e+06
1.13118 2.23854 0.00106705 2.44226e-07 12 2.21104 2.41226e-07 3.3507e-05 0.0874656 9.16586e+06
1.19539 2.56235 0.00125928 2.36879e-07 30 2.50953 2.31996e-07 2.9562e-05 0.240389 1.08171e+07
1.26325 10.8805 0.00148614 8.52311e-07 24 10.7168 8.39486e-07 2.60578e-05 0.785003 1.27658e+07
1.33496 19.1801 0.00175387 1.2731e-06 24 19.2223 1.2759e-06 2.29484e-05 1.33144 1.50656e+07
1.41075 9.94406 0.00206984 5.59291e-07 32 10.1945 5.73374e-07 2.01923e-05 0.886344 1.77798e+07
1.49083 2.25503 0.00244272 1.0747e-07 48 2.20695 1.05179e-07 1.77518e-05 0.290595 2.09828e+07
1.57546 2.22352 0.00288279 8.97924e-08 6 2.1173 8.55026e-08 1.55929e-05 0.0345513 2.4763e+07
1.66489 1.42267 0.00340213 4.86814e-08 84 1.3732 4.69887e-08 1.3685e-05 0.298811 2.92241e+07
1.75941 3.62966 0.00401503 1.05241e-07 48 3.61729 1.04883e-07 1.20007e-05 0.420942 3.44889e+07
1.85928 1.31727 0.00473835 3.23638e-08 72 1.33058 3.26906e-08 1.05151e-05 0.221604 4.07021e+07
1.96483 3.62135 0.00559198 7.53903e-08 54 3.5425 7.37488e-08 9.20606e-06 0.442217 4.80347e+07
2.07637 9.9649 0.00659939 1.75784e-07 104 10.0212 1.76778e-07 8.05366e-06 2.26997 5.66883e+07
2.19424 1.98726 0.00778828 2.97046e-08 120 2.00306 2.99408e-08 7.04008e-06 0.506323 6.69008e+07
2.3188 3.79601 0.00919136 4.80792e-08 156 3.68244 4.66408e-08 6.1494e-06 1.21969 7.89532e+07
2.45043 4.17041 0.0108472 4.4758e-08 126 4.1228 4.42471e-08 5.36741e-06 1.05069 9.31768e+07
2.58954 3.29616 0.0128014 2.99752e-08 192 3.324 3.02283e-08 4.68145e-06 1.22937 1.09963e+08
2.73654 12.7432 0.0151076 9.8196e-08 152 13.0316 1.00418e-07 4.08023e-06 3.65807 1.29773e+08
2.89188 6.1913 0.0178292 4.04259e-08 378 6.25242 4.0825e-08 3.55373e-06 4.29998 1.53152e+08
3.05605 3.91547 0.0210412 2.16633e-08 264 3.85051 2.13038e-08 3.09304e-06 1.84902 1.80743e+08
3.22953 3.51297 0.0248319 1.64693e-08 366 3.48622 1.63439e-08 2.69025e-06 2.2406 2.13304e+08
3.41286 4.54597 0.0293054 1.80588e-08 428 4.47204 1.77651e-08 2.33837e-06 3.30536 2.51731e+08
3.6066 8.12 0.0345848 2.73326e-08 486 7.93326 2.6704e-08 2.0312e-06 6.53979 2.97081e+08
3.81134 4.91293 0.0408154 1.40129e-08 600 4.92671 1.40522e-08 1.76327e-06 4.76826 3.50601e+08
4.0277 6.12991 0.0481684 1.4815e-08 738 6.06995 1.46701e-08 1.52972e-06 7.14737 4.13763e+08
4.25634 7.43665 0.056846 1.52296e-08 824 7.45063 1.52582e-08 1.32631e-06 9.46174 4.88304e+08
4.49796 7.84476 0.067087 1.36129e-08 954 7.80536 1.35446e-08 1.14926e-06 11.3001 5.76273e+08
4.7533 7.22028 0.0791729 1.06167e-08 1094 7.17081 1.05439e-08 9.95263e-07 11.6699 6.8009e+08
5.02313 7.56642 0.0934361 9.42727e-09 1332 7.5835 9.44854e-09 8.61414e-07 14.5773 8.0261e+08
5.30828 10.4009 0.110269 1.09806e-08 1614 10.4156 1.09961e-08 7.45152e-07 23.784 9.47202e+08
5.60962 10.5453 0.130134 9.43363e-09 1850 10.4691 9.36548e-09 6.44232e-07 27.0899 1.11784e+09
5.92807 10.9566 0.153578 8.30531e-09 2238 10.9151 8.27389e-09 5.56685e-07 33.3892 1.31923e+09
6.26459 10.3888 0.181246 6.67278e-09 2546 10.4219 6.69406e-09 4.80786e-07 35.3356 1.55689e+09
6.62021 11.3913 0.213898 6.1998e-09 3264 11.4053 6.20741e-09 4.15026e-07 48.7588 1.83737e+09
6.99602 13.3375 0.252432 6.15093e-09 3506 13.379 6.17007e-09 3.58083e-07 60.224 2.16837e+09
7.39317 13.4996 0.297908 5.27531e-09 4506 13.5026 5.2765e-09 3.08803e-07 76.9763 2.55901e+09
7.81286 15.185 0.351577 5.02812e-09 5018 15.1979 5.03237e-09 2.66181e-07 94.7892 3.02002e+09
8.25637 16.3482 0.414914 4.58692e-09 5852 16.3082 4.57571e-09 2.29336e-07 117.045 3.56409e+09
8.72507 16.9888 0.489662 4.03902e-09 7362 16.9662 4.03364e-09 1.97503e-07 150.556 4.20617e+09
9.22037 18.3869 0.577876 3.70411e-09 8306 18.3391 3.69447e-09 1.70014e-07 180.963 4.96392e+09
9.74378 19.2547 0.681982 3.2868e-09 9698 19.2287 3.28236e-09 1.46289e-07 217.893 5.85818e+09
10.2969 21.0025 0.804843 3.03787e-09 11816 20.9984 3.03729e-09 1.25822e-07 285.287 6.91355e+09
10.8814 21.4428 0.949838 2.6281e-09 13682 21.4073 2.62375e-09 1.08175e-07 332.401 8.15905e+09
11.4992 22.8852 1.12095 2.37672e-09 16152 22.8764 2.3758e-09 9.29669e-08 412.929 9.62892e+09
12.1519 24.0353 1.3229 2.11512e-09 19472 23.9772 2.11e-09 7.98658e-08 515.685 1.13636e+10
12.8418 25.8637 1.56122 1.92858e-09 22670 25.7939 1.92337e-09 6.85852e-08 637.468 1.34108e+10
13.5708 27.4781 1.84248 1.73618e-09 26224 27.4421 1.7339e-09 5.88765e-08 773.307 1.58268e+10
14.3411 28.8796 2.17441 1.54618e-09 31640 28.856 1.54492e-09 5.05241e-08 968.275 1.8678e+10
15.1552 30.6279 2.56613 1.38947e-09 37484 30.6034 1.38836e-09 4.33417e-08 1201.68 2.20429e+10
16.0156 32.3327 3.02843 1.2429e-09 43856 32.2766 1.24074e-09 3.71677e-08 1466.56 2.6014e+10
16.9247 34.4735 3.574 1.1229e-09 51362 34.4277 1.12141e-09 3.18628e-08 1810.08 3.07005e+10
17.8855 36.2104 4.21787 9.99424e-10 61636 36.1515 9.97799e-10 2.73063e-08 2255.91 3.62312e+10
18.9008 37.9078 4.97773 8.86557e-10 72218 37.8306 8.84751e-10 2.33941e-08 2736.81 4.27584e+10
19.9738 40.4418 5.87448 8.01441e-10 84586 40.378 8.00175e-10 2.00364e-08 3383.38 5.04614e+10
21.1076 42.6982 6.93279 7.16987e-10 100708 42.6367 7.15955e-10 1.71555e-08 4208.93 5.95522e+10
22.3058 44.8573 8.18175 6.38259e-10 118712 44.7902 6.37304e-10 1.46847e-08 5159.74 7.02807e+10
23.5721 47.5362 9.65571 5.73127e-10 140410 47.438 5.71942e-10 1.25662e-08 6403.92 8.29419e+10
24.9102 49.7027 11.3952 5.0777e-10 164374 49.5858 5.06576e-10 1.07504e-08 7763.85 9.78842e+10
26.3243 52.7648 13.4481 4.56766e-10 194680 52.6671 4.5592e-10 9.19452e-09 9671.33 1.15518e+11
27.8187 55.4741 15.8708 4.06913e-10 230196 55.3815 4.06234e-10 7.86182e-09 11914.5 1.36329e+11
29.3979 58.9431 18.73 3.66358e-10 271156 58.8426 3.65734e-10 6.72061e-09 14781.4 1.60889e+11
31.0667 62.2725 22.1042 3.27968e-10 321076 62.1398 3.27269e-10 5.74366e-09 18333.7 1.89874e+11
32.8303 65.6647 26.0864 2.93041e-10 377436 65.5407 2.92488e-10 4.90756e-09 22537.5 2.2408e+11
34.694 69.6265 30.7859 2.63289e-10 447594 69.4927 2.62783e-10 4.19221e-09 28110.9 2.64449e+11
36.6634 74.061 36.3321 2.37307e-10 525078 73.9175 2.36847e-10 3.58032e-09 34802.6 3.1209e+11
38.7447 78.5178 42.8774 2.13182e-10 621924 78.3617 2.12758e-10 3.05709e-09 43369 3.68314e+11
40.9442 84.1266 50.6018 1.93543e-10 732630 83.9589 1.93157e-10 2.60976e-09 54332.7 4.34667e+11
43.2685 89.7683 59.7179 1.74996e-10 865596 89.5999 1.74668e-10 2.22743e-09 68004.8 5.12973e+11
45.7247 96.3291 70.4762 1.5912e-10 1.02168e+06 96.1446 1.58815e-10 1.90073e-09 85529.8 6.05386e+11
48.3204 103.362 83.1727 1.44674e-10 1.20544e+06 103.138 1.4436e-10 1.62163e-09 107543 7.14448e+11
51.0634 116.645 98.1565 1.38343e-10 1.42103e+06 116.297 1.3793e-10 1.38326e-09 142121 8.43158e+11
53.9621 121.311 115.84 1.21914e-10 1.67997e+06 121.044 1.21645e-10 1.1797e-09 173613 9.95055e+11
57.0254 131.788 136.709 1.12225e-10 1.98018e+06 131.49 1.11972e-10 1.00592e-09 220918 1.17432e+12
60.2626 144.65 161.337 1.04375e-10 2.33957e+06 144.319 1.04136e-10 8.57591e-10 284742 1.38587e+12
63.6835 159.136 190.402 9.72986e-11 2.75676e+06 158.758 9.70673e-11 7.3101e-10 366930 1.63554e+12
67.2987 176.26 224.704 9.13175e-11 3.25638e+06 175.843 9.11014e-11 6.23009e-10 477304 1.93019e+12
71.1191 196.292 265.185 8.61715e-11 3.84387e+06 195.792 8.59523e-11 5.30879e-10 623932 2.27792e+12
75.1563 219.585 312.958 8.16822e-11 4.53277e+06 219.02 8.14717e-11 4.52303e-10 818579 2.68829e+12
79.4227 247.303 369.339 7.79498e-11 5.35083e+06 246.65 7.77439e-11 3.85299e-10 1.08252e+06 3.17259e+12
83.9313 280.24 435.876 7.48474e-11 6.32174e+06 279.456 7.4638e-11 3.28173e-10 1.44182e+06 3.74415e+12
88.6959 318.833 514.4 7.2156e-11 7.44986e+06 317.933 7.19523e-11 2.79476e-10 1.92343e+06 4.41866e+12
93.7309 364.568 607.071 6.99115e-11 8.79764e+06 363.518 6.97102e-11 2.37972e-10 2.58457e+06 5.2147e+12
99.0518 418.707 716.436 6.80366e-11 1.03827e+07 417.465 6.78348e-11 2.02605e-10 3.4866e+06 6.15414e+12
104.675 483.104 845.504 6.65174e-11 1.22515e+07 481.657 6.63181e-11 1.72471e-10 4.72508e+06 7.26283e+12
110.617 558.957 997.824 6.5213e-11 1.44573e+07 557.264 6.50155e-11 1.468e-10 6.42238e+06 8.57124e+12
116.896 648.87 1177.58 6.41469e-11 1.70664e+07 646.873 6.39495e-11 1.24935e-10 8.76262e+06 1.01154e+13
123.532 755.271 1389.73 6.32678e-11 2.0139e+07 752.892 6.30685e-11 1.06313e-10 1.19849e+07 1.19377e+13
130.545 882.048 1640.09 6.26086e-11 2.37643e+07 879.264 6.2411e-11 9.04567e-11 1.64482e+07 1.40883e+13
137.955 1030.13 1935.56 6.19576e-11 2.80503e+07 1026.83 6.17592e-11 7.69563e-11 2.25833e+07 1.66263e+13
145.787 1207.6 2284.26 6.15446e-11 3.30981e+07 1203.69 6.13453e-11 6.54636e-11 3.11167e+07 1.96216e+13
154.063 1416.94 2695.77 6.11896e-11 3.90634e+07 1412.34 6.09909e-11 5.56812e-11 4.29279e+07 2.31565e+13
162.808 1663.68 3181.42 6.08777e-11 4.61057e+07 1658.2 6.06773e-11 4.73556e-11 5.92708e+07 2.73282e+13
172.051 1957.39 3754.56 6.06914e-11 5.44046e+07 1950.95 6.04918e-11 4.02708e-11 8.19922e+07 3.22515e+13
181.818 2305.08 4430.96 6.05616e-11 6.42064e+07 2297.43 6.03607e-11 3.42426e-11 1.13556e+08 3.80616e+13
192.139 2717.17 5229.21 6.04911e-11 7.57748e+07 2708.15 6.02903e-11 2.91139e-11 1.5744e+08 4.49186e+13
203.046 3208.4 6171.26 6.05236e-11 8.94213e+07 3197.69 6.03216e-11 2.4751e-11 2.18661e+08 5.30108e+13
214.572 3790.2 7283.03 6.05843e-11 1.05538e+08 3777.44 6.03803e-11 2.10401e-11 3.03895e+08 6.25608e+13
226.753 4482.85 8595.09 6.07175e-11 1.24552e+08 4467.72 6.05125e-11 1.78839e-11 4.22865e+08 7.38313e+13
239.625 5312.41 10143.5 6.09696e-11 1.46987e+08 5294.33 6.0762e-11 1.51999e-11 5.89592e+08 8.71322e+13
253.228 6305.77 11970.9 6.13227e-11 1.7347e+08 6284.07 6.11116e-11 1.29176e-11 8.23499e+08 1.02829e+14
267.603 7504.6 14127.5 6.18404e-11 2.04703e+08 7478.58 6.1626e-11 1.09771e-11 1.15321e+09 1.21354e+14
282.795 8956.29 16672.6 6.25367e-11 2.4161e+08 8924.83 6.2317e-11 9.3274e-12 1.6199e+09 1.43217e+14
298.848 10734.7 19676.2 6.35121e-11 2.85122e+08 10696 6.32836e-11 7.925e-12 2.28501e+09 1.69017e+14
315.813 12939.2 23220.9 6.48689e-11 3.36491e+08 12891.5 6.46302e-11 6.73295e-12 3.24194e+09 1.99466e+14
333.741 15719.6 27404.3 6.67779e-11 3.97115e+08 15659.6 6.65232e-11 5.71979e-12 4.63627e+09 2.35401e+14
352.686 19301.9 32341.2 6.94789e-11 4.68637e+08 19225.1 6.92025e-11 4.85874e-12 6.70141e+09 2.77809e+14
372.707 24064.8 38167.6 7.34002e-11 5.53074e+08 23963.4 7.3091e-11 4.12703e-12 9.83656e+09 3.27857e+14
393.865 30636 45043.5 7.9179e-11 6.52716e+08 30496.7 7.88189e-11 3.50528e-12 1.47439e+10 3.86921e+14
416.224 36170.6 53158.3 7.92127e-11 2.2184e+08 38265.1 8.37996e-11 2.97701e-12 5.90274e+09 4.56626e+14
439.852 0 62734.9 0 0 0 0 2.52819e-12 0 5.38888e+14
464.821 0 74036.7 0 0 0 0 2.1469e-12 0 6.35971e+14
491.207 0 87374.6 0 0 0 0 1.82301e-12 0 7.50542e+14
519.092 0 103115 0 0 0 0 1.54789e-12 0 8.85755e+14
548.56 0 121692 0 0 0 0 1.31422e-12 0 1.04533e+15
579.7 0 143615 0 0 0 0 1.11576e-12 0 1.23364e+15
612.608 0 169488 0 0 0 0 9.47223e-13 0 1.45589e+15
647.384 0 200021 0 0 0 0 8.041e-13 0 1.71817e+15
684.134 0 236056 0 0 0 0 6.82568e-13 0 2.0277e+15
722.971 0 278582 0 0 0 0 5.79376e-13 0 2.393e+15
764.012 0 328769 0 0 0 0 4.91762e-13 0 2.8241e+15
0.327739
200
1.0655e+09
8589934592
0.0129181 0.000136615 1.58924e-09 1.00074e-05 6 0.000135364 9.91575e-06 0.00677225 0.00886621 13.6515
0.0136515 0 1.87554e-09 0 0 0 0 0.00688819 0 16.1108
0.0144264 0 2.21343e-09 0 0 0 0 0.00699249 0 19.0132
0.0152454 0 2.61218e-09 0 0 0 0 0.00708412 0 22.4385
0.0161108 0 3.08278e-09 0 0 0 0 0.00716212 0 26.4808
0.0170254 0 3.63815e-09 0 0 0 0 0.00722559 0 31.2514
0.0179919 0.000887181 4.29357e-09 2.40549e-05 12 0.000886038 2.40239e-05 0.00727371 0.0396853 36.8815
0.0190132 0 5.06707e-09 0 0 0 0 0.00730578 0 43.5258
0.0200925 0 5.97991e-09 0 0 0 0 0.00732122 0 51.367
0.0212331 0.00100382 7.05721e-09 1.6559e-05 8 0.00100295 1.65446e-05 0.00731958 0.0180983 60.621
0.0224385 0 8.32858e-09 0 0 0 0 0.00730056 0 71.542
0.0237123 0 9.829e-09 0 0 0 0 0.00726401 0 84.4305
0.0250583 0.00191943 1.15997e-08 1.92635e-05 6 0.00191853 1.92544e-05 0.00720995 0.0160308 99.6408
0.0264808 0 1.36894e-08 0 0 0 0 0.00713857 0 117.591
0.0279841 0.00517835 1.61556e-08 3.73145e-05 24 0.00517304 3.72762e-05 0.00705021 0.127024 138.776
0.0295727 0 1.90661e-08 0 0 0 0 0.00694538 0 163.777
0.0312514 0.00637634 2.25009e-08 3.29899e-05 24 0.00640872 3.31574e-05 0.00682475 0.116013 193.281
0.0330255 0 2.65545e-08 0 0 0 0 0.00668915 0 228.102
0.0349003 0.00242356 3.13384e-08 9.00299e-06 12 0.00240415 8.9309e-06 0.00653951 0.0165205 269.195
0.0368815 0.00690738 3.69841e-08 2.17424e-05 30 0.00683382 2.15109e-05 0.00637693 0.102286 317.691
0.0389751 0.00907122 4.36469e-08 2.41948e-05 24 0.0089779 2.39459e-05 0.00620256 0.0936188 374.924
0.0411876 0.0116282 5.151e-08 2.62804e-05 24 0.0115493 2.61019e-05 0.00601767 0.104813 442.467
0.0435258 0.0092256 6.07896e-08 1.76675e-05 8 0.00922489 1.76661e-05 0.00582358 0.0242703 522.179
0.0459966 0.0121939 7.1741e-08 1.97873e-05 72 0.0120974 1.96307e-05 0.00562166 0.253428 616.251
0.0486077 0 8.46654e-08 0 0 0 0 0.0054133 0 727.27
0.051367 0.0177289 9.99181e-08 2.0656e-05 54 0.0177183 2.06437e-05 0.00519989 0.21451 858.29
0.054283 0.013748 1.17919e-07 1.35727e-05 60 0.0137898 1.3614e-05 0.0049828 0.163435 1012.91
0.0573645 0.0197749 1.39162e-07 1.65426e-05 96 0.0196942 1.64751e-05 0.00476339 0.333395 1195.39
0.060621 0.0252667 1.64232e-07 1.79102e-05 24 0.0249244 1.76675e-05 0.00454293 0.0946185 1410.75
0.0640622 0.0231966 1.93819e-07 1.39328e-05 134 0.0231859 1.39263e-05 0.00432265 0.43191 1664.89
0.0676989 0.0240469 2.28736e-07 1.22386e-05 120 0.0239184 1.21732e-05 0.00410371 0.35788 1964.83
0.071542 0.0293726 2.69944e-07 1.26672e-05 108 0.028938 1.24797e-05 0.00388717 0.351941 2318.8
0.0756032 0.0334703 3.18575e-07 1.22309e-05 174 0.0331407 1.21104e-05 0.00367401 0.579252 2736.54
0.079895 0.0349309 3.75967e-07 1.08161e-05 168 0.0345611 1.07016e-05 0.0034651 0.524401 3229.53
0.0844305 0.0363787 4.43698e-07 9.54486e-06 168 0.0365365 9.58627e-06 0.00326121 0.4917 3811.34
0.0892234 0.0419065 5.23632e-07 9.31678e-06 290 0.0417088 9.27281e-06 0.00306301 0.882094 4497.96
0.0942883 0.046212 6.17966e-07 8.70563e-06 288 0.046145 8.69302e-06 0.00287109 0.873265 5308.28
0.0996408 0.0489961 7.29294e-07 7.82113e-06 366 0.0486413 7.76449e-06 0.00268591 1.06576 6264.59
0.105297 0.0530385 8.60678e-07 7.17399e-06 420 0.0526368 7.11965e-06 0.00250785 1.20146 7393.17
0.111275 0.0615535 1.01573e-06 7.05479e-06 398 0.0616307 7.06363e-06 0.00233721 1.20135 8725.07
0.117591 0.0671294 1.19872e-06 6.51937e-06 624 0.0671648 6.52281e-06 0.00217419 1.87108 10296.9
0.124267 0.080299 1.41467e-06 6.60792e-06 642 0.0800644 6.58862e-06 0.00201893 2.10126 12151.9
0.131321 0.0772219 1.66953e-06 5.38464e-06 800 0.0772427 5.38609e-06 0.00187147 2.30178 14341.1
0.138776 0.0858611 1.9703e-06 5.07312e-06 858 0.0860905 5.08667e-06 0.00173182 2.51339 16924.7
0.146654 0.0917966 2.32525e-06 4.59586e-06 1080 0.0925242 4.63229e-06 0.00159991 3.10238 19973.8
0.154979 0.105296 2.74415e-06 4.46696e-06 1286 0.106004 4.49702e-06 0.00147563 3.89291 23572.1
0.163777 0.105054 3.23852e-06 3.77639e-06 1650 0.105454 3.79075e-06 0.00135884 4.58557 27818.7
0.173074 0.111137 3.82195e-06 3.38521e-06 1778 0.111202 3.38717e-06 0.00124933 4.8177 32830.3
0.182899 0.121716 4.51048e-06 3.14149e-06 2112 0.121915 3.14663e-06 0.00114689 5.78505 38744.7
0.193281 0.148236 5.32305e-06 3.24193e-06 2570 0.148285 3.24299e-06 0.00105127 7.92542 45724.7
0.204254 0.151927 6.28202e-06 2.81545e-06 3030 0.152078 2.81823e-06 0.000962209 8.86585 53962.1
0.215848 0.165821 7.41374e-06 2.60382e-06 3434 0.165973 2.60621e-06 0.000879423 10.1675 63683.5
0.228102 0.167393 8.74934e-06 2.22727e-06 4218 0.1673 2.22603e-06 0.000802624 11.7049 75156.3
0.24105 0.183923 1.03256e-05 2.07364e-06 4766 0.183931 2.07372e-06 0.000731515 13.5103 88695.9
0.254734 0.19675 1.21857e-05 1.87963e-06 6026 0.196512 1.87736e-06 0.000665798 17.0122 104675
0.269195 0.212106 1.4381e-05 1.71701e-06 6480 0.212133 1.71723e-06 0.000605173 18.3852 123532
0.284476 0.223823 1.69718e-05 1.53528e-06 8162 0.224066 1.53694e-06 0.000549345 22.8107 145787
0.300625 0.246856 2.00293e-05 1.43479e-06 9578 0.246966 1.43543e-06 0.000498021 27.594 172051
0.317691 0.260328 2.36377e-05 1.28211e-06 11234 0.260139 1.28118e-06 0.000450916 31.9422 203046
0.335725 0.281374 2.78961e-05 1.17422e-06 13344 0.281185 1.17344e-06 0.000407755 38.4271 239625
0.354784 0.292349 3.29216e-05 1.03379e-06 15464 0.292252 1.03344e-06 0.000368269 43.4098 282795
0.374924 0.319376 3.88525e-05 9.56959e-07 18458 0.319246 9.56568e-07 0.000332202 53.1711 333741
0.396207 0.350459 4.58519e-05 8.89795e-07 22232 0.34991 8.88401e-07 0.000299307 66.0924 393865
0.418699 0.367797 5.41123e-05 7.91266e-07 25628 0.366917 7.89373e-07 0.00026935 75.2871 464821
0.442467 0.399608 6.38607e-05 7.28468e-07 30320 0.398794 7.26983e-07 0.000242108 91.2285 548560
0.467585 0.424526 7.53654e-05 6.55756e-07 35452 0.423797 6.5463e-07 0.00021737 106.951 647384
0.494129 0.457705 8.89427e-05 5.99081e-07 41792 0.457709 5.99087e-07 0.000194938 128.434 764012
0.522179 0.496086 0.000104966 5.50198e-07 49988 0.496021 5.50126e-07 0.000174625 157.499 901651
0.551822 0.536375 0.000123876 5.04071e-07 59110 0.535801 5.03532e-07 0.000156255 190.686 1.06409e+06
0.583147 0.576221 0.000146192 4.58854e-07 69716 0.575827 4.5854e-07 0.000139664 229.046 1.25578e+06
0.616251 0.617174 0.000172529 4.16442e-07 82210 0.616095 4.15714e-07 0.0001247 274.545 1.48202e+06
0.651234 0.665348 0.000203611 3.80415e-07 96722 0.664079 3.7969e-07 0.00011122 330.825 1.74901e+06
0.688203 0.722825 0.000240292 3.5019e-07 113098 0.721847 3.49716e-07 9.90935e-05 399.681 2.06409e+06
0.72727 0.778957 0.000283581 3.19776e-07 135190 0.778034 3.19397e-07 8.81969e-05 490.159 2.43595e+06
0.768555 0.83917 0.000334669 2.91907e-07 158170 0.838398 2.91638e-07 7.84179e-05 588.78 2.87479e+06
0.812184 0.911023 0.000394961 2.68525e-07 188560 0.909646 2.6812e-07 6.96525e-05 726.939 3.39269e+06
0.85829 0.991949 0.000466114 2.47746e-07 220444 0.990583 2.47405e-07 6.1805e-05 883.653 4.00389e+06
0.907013 1.07193 0.000550086 2.26855e-07 261388 1.07057 2.26566e-07 5.47875e-05 1082.31 4.7252e+06
0.958501 1.16737 0.000649185 2.09339e-07 308244 1.16593 2.09081e-07 4.85194e-05 1329.93 5.57646e+06
1.01291 1.26305 0.000766138 1.91922e-07 364396 1.26125 1.91648e-07 4.29272e-05 1629.17 6.58107e+06
1.07041 1.37633 0.00090416 1.7721e-07 429162 1.37418 1.76933e-07 3.79435e-05 2004.34 7.76667e+06
1.13118 1.50417 0.00106705 1.64106e-07 506358 1.50199 1.63868e-07 3.3507e-05 2479.97 9.16586e+06
1.19539 1.6403 0.00125928 1.5164e-07 598590 1.63772 1.51401e-07 2.9562e-05 3070.49 1.08171e+07
1.26325 1.7963 0.00148614 1.40712e-07 704844 1.79341 1.40485e-07 2.60578e-05 3806.14 1.27658e+07
1.33496 1.96197 0.00175387 1.30228e-07 834620 1.95852 1.29999e-07 2.29484e-05 4736.3 1.50656e+07
1.41075 2.1523 0.00206984 1.21053e-07 981444 2.14844 1.20836e-07 2.01923e-05 5883.78 1.77798e+07
1.49083 2.35766 0.00244272 1.12361e-07 1.15998e+06 2.35359 1.12168e-07 1.77518e-05 7342.17 2.09828e+07
1.57546 2.59064 0.00288279 1.04618e-07 1.36931e+06 2.58604 1.04432e-07 1.55929e-05 9187.16 2.4763e+07
1.66489 2.83762 0.00340213 9.70987e-08 1.61652e+06 2.83222 9.69138e-08 1.3685e-05 11469.6 2.92241e+07
1.75941 3.12992 0.00401503 9.07518e-08 1.90601e+06 3.12402 9.05805e-08 1.20007e-05 14413.6 3.44889e+07
1.85928 3.43569 0.00473835 8.44107e-08 2.24913e+06 3.42943 8.42568e-08 1.05151e-05 18055 4.07021e+07
1.96483 3.78917 0.00559198 7.88841e-08 2.65744e+06 3.78166 7.87277e-08 9.20606e-06 22770.8 4.80347e+07
2.07637 4.17567 0.00659939 7.36602e-08 3.13125e+06 4.16771 7.35198e-08 8.05366e-06 28639 5.66883e+07
2.19424 4.60506 0.00778828 6.88342e-08 3.69915e+06 4.59601 6.86989e-08 7.04008e-06 36168.3 6.69008e+07
2.3188 5.0765 0.00919136 6.42975e-08 4.36472e+06 5.0666 6.41722e-08 6.1494e-06 45637.1 7.89532e+07
2.45043 5.59671 0.0108472 6.00654e-08 5.14913e+06 5.58577 5.9948e-08 5.36741e-06 57622.7 9.31768e+07
2.58954 6.18114 0.0128014 5.62112e-08 6.07894e+06 6.16932 5.61036e-08 4.68145e-06 72991.1 1.09963e+08
2.73654 6.82159 0.0151076 5.25655e-08 7.17304e+06 6.80832 5.24633e-08 4.08023e-06 92410.1 1.29773e+08
2.89188 7.52996 0.0178292 4.91666e-08 8.46557e+06 7.51536 4.90713e-08 3.55373e-06 117123 1.53152e+08
3.05605 8.29915 0.0210412 4.59169e-08 9.98773e+06 8.28323 4.58288e-08 3.09304e-06 148270 1.80743e+08
3.22953 9.13967 0.0248319 4.28481e-08 1.1797e+07 9.12179 4.27643e-08 2.69025e-06 187893 2.13304e+08
3.41286 10.0644 0.0293054 3.99806e-08 1.39144e+07 10.0442 3.99005e-08 2.33837e-06 237903 2.51731e+08
3.6066 11.0731 0.0345848 3.72728e-08 1.64163e+07 11.0514 3.71998e-08 2.0312e-06 301241 2.97081e+08
3.81134 12.1566 0.0408154 3.46737e-08 1.93821e+07 12.1332 3.46068e-08 1.76327e-06 381139 3.50601e+08
4.0277 13.3502 0.0481684 3.22654e-08 2.28754e+07 13.3241 3.22023e-08 1.52972e-06 482495 4.13763e+08
4.25634 14.6221 0.056846 2.99448e-08 2.69929e+07 14.5937 2.98866e-08 1.32631e-06 609434 4.88304e+08
4.49796 15.9858 0.067087 2.774e-08 3.18542e+07 15.9546 2.76858e-08 1.14926e-06 768876 5.76273e+08
4.7533 17.4419 0.0791729 2.56464e-08 3.75892e+07 17.4086 2.55975e-08 9.95263e-07 968618 6.8009e+08
5.02313 18.9886 0.0934361 2.36586e-08 4.43706e+07 18.9523 2.36133e-08 8.61414e-07 1.21863e+06 8.0261e+08
5.30828 20.6266 0.110269 2.17764e-08 5.23593e+07 20.5874 2.1735e-08 7.45152e-07 1.53015e+06 9.47202e+08
5.60962 22.3592 0.130134 2.00021e-08 6.1787e+07 22.3174 1.99647e-08 6.44232e-07 1.91836e+06 1.11784e+09
5.92807 24.2153 0.153578 1.83557e-08 7.29346e+07 24.1698 1.83212e-08 5.56685e-07 2.40489e+06 1.31923e+09
6.26459 26.1342 0.181246 1.67862e-08 8.60651e+07 26.0857 1.6755e-08 4.80786e-07 3.00487e+06 1.55689e+09
6.62021 28.1703 0.213898 1.53319e-08 1.01558e+08 28.1186 1.53038e-08 4.15026e-07 3.75176e+06 1.83737e+09
6.99602 30.2858 0.252432 1.3967e-08 1.1986e+08 30.231 1.39418e-08 3.58083e-07 4.67515e+06 2.16837e+09
7.39317 32.4948 0.297908 1.26982e-08 1.41457e+08 32.4362 1.26753e-08 3.08803e-07 5.81679e+06 2.55901e+09
7.81286 34.8215 0.351577 1.15302e-08 1.66936e+08 34.7597 1.15098e-08 2.66181e-07 7.23119e+06 3.02002e+09
8.25637 37.2596 0.414914 1.04542e-08 1.97025e+08 37.1932 1.04355e-08 2.29336e-07 8.98129e+06 3.56409e+09
8.72507 39.8203 0.489662 9.46712e-09 2.32497e+08 39.7498 9.45035e-09 1.97503e-07 1.11445e+07 4.20617e+09
9.22037 42.5773 0.577876 8.57736e-09 2.74404e+08 42.5009 8.56196e-09 1.70014e-07 1.38439e+07 4.96392e+09
9.74378 45.5735 0.681982 7.77945e-09 3.2382e+08 45.4899 7.76519e-09 1.46289e-07 1.72203e+07 5.85818e+09
10.2969 48.9425 0.804843 7.07922e-09 3.82165e+08 48.8502 7.06586e-09 1.25822e-07 2.15019e+07 6.91355e+09
10.8814 52.9154 0.949838 6.48549e-09 4.51027e+08 52.8087 6.47241e-09 1.08175e-07 2.70406e+07 8.15905e+09
11.4992 57.9553 1.12095 6.01888e-09 5.32251e+08 57.8258 6.00543e-09 9.29669e-08 3.44591e+07 9.62892e+09
12.1519 64.9567 1.3229 5.71621e-09 6.28157e+08 64.7866 5.70124e-09 7.98658e-08 4.49589e+07 1.13636e+10
12.8418 72.7067 1.56122 5.42151e-09 3.82727e+08 75.2518 5.6113e-09 6.85852e-08 3.02537e+07 1.34108e+10
13.5708 0 1.84248 0 0 0 0 5.88765e-08 0 1.58268e+10
14.3411 0 2.17441 0 0 0 0 5.05241e-08 0 1.8678e+10
15.1552 0 2.56613 0 0 0 0 4.33417e-08 0 2.20429e+10
16.0156 0 3.02843 0 0 0 0 3.71677e-08 0 2.6014e+10
16.9247 0 3.574 0 0 0 0 3.18628e-08 0 3.07005e+10
17.8855 0 4.21787 0 0 0 0 2.73063e-08 0 3.62312e+10
18.9008 0 4.97773 0 0 0 0 2.33941e-08 0 4.27584e+10
19.9738 0 5.87448 0 0 0 0 2.00364e-08 0 5.04614e+10
21.1076 0 6.93279 0 0 0 0 1.71555e-08 0 5.95522e+10
22.3058 0 8.18175 0 0 0 0 1.46847e-08 0 7.02807e+10
23.5721 0 9.65571 0 0 0 0 1.25662e-08 0 8.29419e+10
24.9102 0 11.3952 0 0 0 0 1.07504e-08 0 9.78842e+10
26.3243 0 13.4481 0 0 0 0 9.19452e-09 0 1.15518e+11
27.8187 0 15.8708 0 0 0 0 7.86182e-09 0 1.36329e+11
29.3979 0 18.73 0 0 0 0 6.72061e-09 0 1.60889e+11
31.0667 0 22.1042 0 0 0 0 5.74366e-09 0 1.89874e+11
32.8303 0 26.0864 0 0 0 0 4.90756e-09 0 2.2408e+11
34.694 0 30.7859 0 0 0 0 4.19221e-09 0 2.64449e+11
36.6634 0 36.3321 0 0 0 0 3.58032e-09 0 3.1209e+11
38.7447 0 42.8774 0 0 0 0 3.05709e-09 0 3.68314e+11
40.9442 0 50.6018 0 0 0 0 2.60976e-09 0 4.34667e+11
43.2685 0 59.7179 0 0 0 0 2.22743e-09 0 5.12973e+11
45.7247 0 70.4762 0 0 0 0 1.90073e-09 0 6.05386e+11
48.3204 0 83.1727 0 0 0 0 1.62163e-09 0 7.14448e+11
51.0634 0 98.1565 0 0 0 0 1.38326e-09 0 8.43158e+11
53.9621 0 115.84 0 0 0 0 1.1797e-09 0 9.95055e+11
57.0254 0 136.709 0 0 0 0 1.00592e-09 0 1.17432e+12
60.2626 0 161.337 0 0 0 0 8.57591e-10 0 1.38587e+12
63.6835 0 190.402 0 0 0 0 7.3101e-10 0 1.63554e+12
67.2987 0 224.704 0 0 0 0 6.23009e-10 0 1.93019e+12
71.1191 0 265.185 0 0 0 0 5.30879e-10 0 2.27792e+12
75.1563 0 312.958 0 0 0 0 4.52303e-10 0 2.68829e+12
79.4227 0 369.339 0 0 0 0 3.85299e-10 0 3.17259e+12
83.9313 0 435.876 0 0 0 0 3.28173e-10 0 3.74415e+12
88.6959 0 514.4 0 0 0 0 2.79476e-10 0 4.41866e+12
93.7309 0 607.071 0 0 0 0 2.37972e-10 0 5.2147e+12
99.0518 0 716.436 0 0 0 0 2.02605e-10 0 6.15414e+12
104.675 0 845.504 0 0 0 0 1.72471e-10 0 7.26283e+12
110.617 0 997.824 0 0 0 0 1.468e-10 0 8.57124e+12
116.896 0 1177.58 0 0 0 0 1.24935e-10 0 1.01154e+13
123.532 0 1389.73 0 0 0 0 1.06313e-10 0 1.19377e+13
130.545 0 1640.09 0 0 0 0 9.04567e-11 0 1.40883e+13
137.955 0 1935.56 0 0 0 0 7.69563e-11 0 1.66263e+13
145.787 0 2284.26 0 0 0 0 6.54636e-11 0 1.96216e+13
154.063 0 2695.77 0 0 0 0 5.56812e-11 0 2.31565e+13
162.808 0 3181.42 0 0 0 0 4.73556e-11 0 2.73282e+13
172.051 0 3754.56 0 0 0 0 4.02708e-11 0 3.22515e+13
181.818 0 4430.96 0 0 0 0 3.42426e-11 0 3.80616e+13
192.139 0 5229.21 0 0 0 0 2.91139e-11 0 4.49186e+13
203.046 0 6171.26 0 0 0 0 2.4751e-11 0 5.30108e+13
214.572 0 7283.03 0 0 0 0 2.10401e-11 0 6.25608e+13
226.753 0 8595.09 0 0 0 0 1.78839e-11 0 7.38313e+13
239.625 0 10143.5 0 0 0 0 1.51999e-11 0 8.71322e+13
253.228 0 11970.9 0 0 0 0 1.29176e-11 0 1.02829e+14
267.603 0 14127.5 0 0 0 0 1.09771e-11 0 1.21354e+14
282.795 0 16672.6 0 0 0 0 9.3274e-12 0 1.43217e+14
298.848 0 19676.2 0 0 0 0 7.925e-12 0 1.69017e+14
315.813 0 23220.9 0 0 0 0 6.73295e-12 0 1.99466e+14
333.741 0 27404.3 0 0 0 0 5.71979e-12 0 2.35401e+14
352.686 0 32341.2 0 0 0 0 4.85874e-12 0 2.77809e+14
372.707 0 38167.6 0 0 0 0 4.12703e-12 0 3.27857e+14
393.865 0 45043.5 0 0 0 0 3.50528e-12 0 3.86921e+14
416.224 0 53158.3 0 0 0 0 2.97701e-12 0 4.56626e+14
439.852 0 62734.9 0 0 0 0 2.52819e-12 0 5.38888e+14
464.821 0 74036.7 0 0 0 0 2.1469e-12 0 6.35971e+14
491.207 0 87374.6 0 0 0 0 1.82301e-12 0 7.50542e+14
519.092 0 103115 0 0 0 0 1.54789e-12 0 8.85755e+14
548.56 0 121692 0 0 0 0 1.31422e-12 0 1.04533e+15
579.7 0 143615 0 0 0 0 1.11576e-12 0 1.23364e+15
612.608 0 169488 0 0 0 0 9.47223e-13 0 1.45589e+15
647.384 0 200021 0 0 0 0 8.041e-13 0 1.71817e+15
684.134 0 236056 0 0 0 0 6.82568e-13 0 2.0277e+15
722.971 0 278582 0 0 0 0 5.79376e-13 0 2.393e+15
764.012 0 328769 0 0 0 0 4.91762e-13 0 2.8241e+15
