0.438151
200
1.0655e+09
8589934592
0.0129181 0 1.58924e-09 0 0 0 0 0.00677225 0 13.6515
0.0136515 0 1.87554e-09 0 0 0 0 0.00688819 0 16.1108
0.0144264 0 2.21343e-09 0 0 0 0 0.00699249 0 19.0132
0.0152454 0 2.61218e-09 0 0 0 0 0.00708412 0 22.4385
0.0161108 0 3.08278e-09 0 0 0 0 0.00716212 0 26.4808
0.0170254 0 3.63815e-09 0 0 0 0 0.00722559 0 31.2514
0.0179919 0 4.29357e-09 0 0 0 0 0.00727371 0 36.8815
0.0190132 0 5.06707e-09 0 0 0 0 0.00730578 0 43.5258
0.0200925 0 5.97991e-09 0 0 0 0 0.00732122 0 51.367
0.0212331 0 7.05721e-09 0 0 0 0 0.00731958 0 60.621
0.0224385 0 8.32858e-09 0 0 0 0 0.00730056 0 71.542
0.0237123 0 9.829e-09 0 0 0 0 0.00726401 0 84.4305
0.0250583 0 1.15997e-08 0 0 0 0 0.00720995 0 99.6408
0.0264808 0 1.36894e-08 0 0 0 0 0.00713857 0 117.591
0.0279841 0 1.61556e-08 0 0 0 0 0.00705021 0 138.776
0.0295727 0 1.90661e-08 0 0 0 0 0.00694538 0 163.777
0.0312514 0 2.25009e-08 0 0 0 0 0.00682475 0 193.281
0.0330255 0 2.65545e-08 0 0 0 0 0.00668915 0 228.102
0.0349003 0 3.13384e-08 0 0 0 0 0.00653951 0 269.195
0.0368815 0 3.69841e-08 0 0 0 0 0.00637693 0 317.691
0.0389751 0 4.36469e-08 0 0 0 0 0.00620256 0 374.924
0.0411876 0 5.151e-08 0 0 0 0 0.00601767 0 442.467
0.0435258 0 6.07896e-08 0 0 0 0 0.00582358 0 522.179
0.0459966 0 7.1741e-08 0 0 0 0 0.00562166 0 616.251
0.0486077 0 8.46654e-08 0 0 0 0 0.0054133 0 727.27
0.051367 0 9.99181e-08 0 0 0 0 0.00519989 0 858.29
0.054283 0 1.17919e-07 0 0 0 0 0.0049828 0 1012.91
0.0573645 0 1.39162e-07 0 0 0 0 0.00476339 0 1195.39
0.060621 0 1.64232e-07 0 0 0 0 0.00454293 0 1410.75
0.0640622 0 1.93819e-07 0 0 0 0 0.00432265 0 1664.89
0.0676989 0 2.28736e-07 0 0 0 0 0.00410371 0 1964.83
0.071542 0 2.69944e-07 0 0 0 0 0.00388717 0 2318.8
0.0756032 0 3.18575e-07 0 0 0 0 0.00367401 0 2736.54
0.079895 0 3.75967e-07 0 0 0 0 0.0034651 0 3229.53
0.0844305 0 4.43698e-07 0 0 0 0 0.00326121 0 3811.34
0.0892234 0 5.23632e-07 0 0 0 0 0.00306301 0 4497.96
0.0942883 0 6.17966e-07 0 0 0 0 0.00287109 0 5308.28
0.0996408 0 7.29294e-07 0 0 0 0 0.00268591 0 6264.59
0.105297 0 8.60678e-07 0 0 0 0 0.00250785 0 7393.17
0.111275 0 1.01573e-06 0 0 0 0 0.00233721 0 8725.07
0.117591 0 1.19872e-06 0 0 0 0 0.00217419 0 10296.9
0.124267 0 1.41467e-06 0 0 0 0 0.00201893 0 12151.9
0.131321 0 1.66953e-06 0 0 0 0 0.00187147 0 14341.1
0.138776 0 1.9703e-06 0 0 0 0 0.00173182 0 16924.7
0.146654 0 2.32525e-06 0 0 0 0 0.00159991 0 19973.8
0.154979 0 2.74415e-06 0 0 0 0 0.00147563 0 23572.1
0.163777 0 3.23852e-06 0 0 0 0 0.00135884 0 27818.7
0.173074 0 3.82195e-06 0 0 0 0 0.00124933 0 32830.3
0.182899 0 4.51048e-06 0 0 0 0 0.00114689 0 38744.7
0.193281 0 5.32305e-06 0 0 0 0 0.00105127 0 45724.7
0.204254 0 6.28202e-06 0 0 0 0 0.000962209 0 53962.1
0.215848 0 7.41374e-06 0 0 0 0 0.000879423 0 63683.5
0.228102 0 8.74934e-06 0 0 0 0 0.000802624 0 75156.3
0.24105 0 1.03256e-05 0 0 0 0 0.000731515 0 88695.9
0.254734 0 1.21857e-05 0 0 0 0 0.000665798 0 104675
0.269195 0 1.4381e-05 0 0 0 0 0.000605173 0 123532
0.284476 0 1.69718e-05 0 0 0 0 0.000549345 0 145787
0.300625 0 2.00293e-05 0 0 0 0 0.000498021 0 172051
0.317691 0 2.36377e-05 0 0 0 0 0.000450916 0 203046
0.335725 0 2.78961e-05 0 0 0 0 0.000407755 0 239625
0.354784 0 3.29216e-05 0 0 0 0 0.000368269 0 282795
0.374924 0 3.88525e-05 0 0 0 0 0.000332202 0 333741
0.396207 1.85769 4.58519e-05 4.71656e-06 6 1.80604 4.58543e-06 0.000299307 0.0945496 393865
0.418699 0 5.41123e-05 0 0 0 0 0.00026935 0 464821
0.442467 0 6.38607e-05 0 0 0 0 0.000242108 0 548560
0.467585 0 7.53654e-05 0 0 0 0 0.00021737 0 647384
0.494129 0 8.89427e-05 0 0 0 0 0.000194938 0 764012
0.522179 0 0.000104966 0 0 0 0 0.000174625 0 901651
0.551822 0 0.000123876 0 0 0 0 0.000156255 0 1.06409e+06
0.583147 6.67844 0.000146192 5.31815e-06 12 7.0291 5.59738e-06 0.000139664 0.456938 1.25578e+06
0.616251 0 0.000172529 0 0 0 0 0.0001247 0 1.48202e+06
0.651234 0 0.000203611 0 0 0 0 0.00011122 0 1.74901e+06
0.688203 22.0676 0.000240292 1.06912e-05 8 21.5186 1.04252e-05 9.90935e-05 0.863119 2.06409e+06
0.72727 0 0.000283581 0 0 0 0 8.81969e-05 0 2.43595e+06
0.768555 0 0.000334669 0 0 0 0 7.84179e-05 0 2.87479e+06
0.812184 2.41956 0.000394961 7.13168e-07 6 2.47129 7.28416e-07 6.96525e-05 0.0614336 3.39269e+06
0.85829 0 0.000466114 0 0 0 0 6.1805e-05 0 4.00389e+06
0.907013 0.936309 0.000550086 1.98152e-07 24 0.954275 2.01954e-07 5.47875e-05 0.0868018 4.7252e+06
0.958501 5.9938 0.000649185 1.07484e-06 24 5.64271 1.01188e-06 4.85194e-05 0.531666 5.57646e+06
1.01291 0 0.000766138 0 0 0 0 4.29272e-05 0 6.58107e+06
1.07041 0 0.00090416 0 0 0 0 3.79435e-05 0 7.76667e+06
1.13118 4.78487 0.00106705 5.22032e-07 12 4.7261 5.1562e-07 3.3507e-05 0.186957 9.16586e+06
1.19539 1.86728 0.00125928 1.72623e-07 30 1.82879 1.69065e-07 2.9562e-05 0.175181 1.08171e+07
1.26325 11.5971 0.00148614 9.08449e-07 24 11.4226 8.94779e-07 2.60578e-05 0.836707 1.27658e+07
1.33496 19.9983 0.00175387 1.32741e-06 24 20.0423 1.33033e-06 2.29484e-05 1.38824 1.50656e+07
1.41075 13.575 0.00206984 7.63506e-07 32 13.828 7.77741e-07 2.01923e-05 1.20998 1.77798e+07
1.49083 2.75877 0.00244272 1.31477e-07 48 2.69995 1.28674e-07 1.77518e-05 0.355509 2.09828e+07
1.57546 2.94579 0.00288279 1.1896e-07 6 2.80506 1.13276e-07 1.55929e-05 0.0457747 2.4763e+07
1.66489 2.13245 0.00340213 7.2969e-08 84 2.0665 7.07121e-08 1.3685e-05 0.447891 2.92241e+07
1.75941 4.14958 0.00401503 1.20317e-07 48 4.10347 1.1898e-07 1.20007e-05 0.481239 3.44889e+07
1.85928 3.46409 0.00473835 8.51084e-08 72 3.48249 8.55604e-08 1.05151e-05 0.582762 4.07021e+07
1.96483 6.89985 0.00559198 1.43643e-07 54 6.75079 1.4054e-07 9.20606e-06 0.842567 4.80347e+07
2.07637 12.3728 0.00659939 2.1826e-07 104 12.4328 2.19319e-07 8.05366e-06 2.81847 5.66883e+07
2.19424 4.14532 0.00778828 6.19622e-08 120 4.19489 6.27031e-08 7.04008e-06 1.05616 6.69008e+07
2.3188 5.53047 0.00919136 7.00474e-08 156 5.38488 6.82034e-08 6.1494e-06 1.77699 7.89532e+07
2.45043 6.41125 0.0108472 6.88074e-08 126 6.34087 6.8052e-08 5.36741e-06 1.61525 9.31768e+07
2.58954 4.96605 0.0128014 4.51612e-08 192 5.00864 4.55484e-08 4.68145e-06 1.85219 1.09963e+08
2.73654 17.0589 0.0151076 1.31452e-07 152 17.4825 1.34716e-07 4.08023e-06 4.89695 1.29773e+08
2.89188 9.44178 0.0178292 6.16498e-08 378 9.57144 6.24963e-08 3.55373e-06 6.5575 1.53152e+08
3.05605 8.01719 0.0210412 4.43569e-08 264 7.8442 4.33998e-08 3.09304e-06 3.78599 1.80743e+08
3.22953 7.45535 0.0248319 3.49518e-08 366 7.37422 3.45714e-08 2.69025e-06 4.75507 2.13304e+08
3.41286 8.28847 0.0293054 3.29259e-08 428 8.16144 3.24212e-08 2.33837e-06 6.02653 2.51731e+08
3.6066 10.9457 0.0345848 3.68443e-08 486 10.782 3.62931e-08 2.0312e-06 8.81561 2.97081e+08
3.81134 10.0121 0.0408154 2.8557e-08 600 10.0328 2.8616e-08 1.76327e-06 9.71732 3.50601e+08
4.0277 11.1156 0.0481684 2.68646e-08 738 11.0102 2.661e-08 1.52972e-06 12.9606 4.13763e+08
4.25634 13.9233 0.056846 2.85136e-08 824 13.9491 2.85665e-08 1.32631e-06 17.7148 4.88304e+08
4.49796 13.6479 0.067087 2.3683e-08 954 13.6011 2.36018e-08 1.14926e-06 19.6593 5.76273e+08
4.7533 13.1458 0.0791729 1.93295e-08 1094 13.0932 1.92522e-08 9.95263e-07 21.2471 6.8009e+08
5.02313 13.9645 0.0934361 1.73989e-08 1332 14.0163 1.74634e-08 8.61414e-07 26.9038 8.0261e+08
5.30828 18.8903 0.110269 1.99433e-08 1614 18.9082 1.99622e-08 7.45152e-07 43.1971 9.47202e+08
5.60962 18.6521 0.130134 1.66858e-08 1850 18.6054 1.6644e-08 6.44232e-07 47.9155 1.11784e+09
5.92807 19.0087 0.153578 1.4409e-08 2238 18.9859 1.43917e-08 5.56685e-07 57.9274 1.31923e+09
6.26459 20.0289 0.181246 1.28647e-08 2546 20.0769 1.28955e-08 4.80786e-07 68.125 1.55689e+09
6.62021 19.0296 0.213898 1.0357e-08 3264 19.0135 1.03482e-08 4.15026e-07 81.4534 1.83737e+09
6.99602 21.2675 0.252432 9.80805e-09 3506 21.316 9.8304e-09 3.58083e-07 96.031 2.16837e+09
7.39317 24.3709 0.297908 9.52358e-09 4506 24.3554 9.51749e-09 3.08803e-07 138.966 2.55901e+09
7.81286 26.9515 0.351577 8.92427e-09 5018 26.881 8.90093e-09 2.66181e-07 168.239 3.02002e+09
8.25637 26.4315 0.414914 7.41605e-09 5852 26.3942 7.40559e-09 2.29336e-07 189.236 3.56409e+09
8.72507 28.3122 0.489662 6.73112e-09 7362 28.2324 6.71214e-09 1.97503e-07 250.905 4.20617e+09
9.22037 30.2742 0.577876 6.09885e-09 8306 30.1677 6.07739e-09 1.70014e-07 297.958 4.96392e+09
9.74378 31.4679 0.681982 5.37161e-09 9698 31.4447 5.36765e-09 1.46289e-07 356.103 5.85818e+09
10.2969 33.7845 0.804843 4.8867e-09 11816 33.7656 4.88397e-09 1.25822e-07 458.911 6.91355e+09
10.8814 36.8784 0.949838 4.51994e-09 13682 36.8114 4.51172e-09 1.08175e-07 571.68 8.15905e+09
11.4992 38.2631 1.12095 3.97377e-09 16152 38.2488 3.97228e-09 9.29669e-08 690.4 9.62892e+09
12.1519 40.1978 1.3229 3.53742e-09 19472 40.1061 3.52935e-09 7.98658e-08 862.455 1.13636e+10
12.8418 42.0233 1.56122 3.13355e-09 22670 41.9225 3.12603e-09 6.85852e-08 1035.76 1.34108e+10
13.5708 45.3131 1.84248 2.86307e-09 26224 45.2299 2.85781e-09 5.88765e-08 1275.23 1.58268e+10
14.3411 48.0064 2.17441 2.57021e-09 31640 47.9449 2.56692e-09 5.05241e-08 1609.56 1.8678e+10
15.1552 50.7084 2.56613 2.30044e-09 37484 50.6408 2.29737e-09 4.33417e-08 1989.53 2.20429e+10
16.0156 53.1574 3.02843 2.04342e-09 43856 53.0896 2.04081e-09 3.71677e-08 2411.13 2.6014e+10
16.9247 56.629 3.574 1.84456e-09 51362 56.5661 1.84251e-09 3.18628e-08 2973.39 3.07005e+10
17.8855 58.3286 4.21787 1.6099e-09 61636 58.2254 1.60705e-09 2.73063e-08 3633.87 3.62312e+10
18.9008 61.9359 4.97773 1.44851e-09 72218 61.803 1.4454e-09 2.33941e-08 4471.56 4.27584e+10
19.9738 65.2907 5.87448 1.29387e-09 84586 65.1665 1.29141e-09 2.00364e-08 5462.24 5.04614e+10
21.1076 68.5208 6.93279 1.1506e-09 100708 68.449 1.1494e-09 1.71555e-08 6754.37 5.95522e+10
22.3058 72.5745 8.18175 1.03264e-09 118712 72.4407 1.03073e-09 1.46847e-08 8347.94 7.02807e+10
23.5721 75.7975 9.65571 9.13862e-10 140410 75.6652 9.12267e-10 1.25662e-08 10211.2 8.29419e+10
24.9102 79.6814 11.3952 8.14038e-10 164374 79.5423 8.12617e-10 1.07504e-08 12446.7 9.78842e+10
26.3243 83.2893 13.4481 7.21006e-10 194680 83.1541 7.19835e-10 9.19452e-09 15266.2 1.15518e+11
27.8187 87.6516 15.8708 6.42941e-10 230196 87.5164 6.41949e-10 7.86182e-09 18825.5 1.36329e+11
29.3979 92.7566 18.73 5.76525e-10 271156 92.5961 5.75527e-10 6.72061e-09 23261 1.60889e+11
31.0667 97.6528 22.1042 5.14303e-10 321076 97.4865 5.13428e-10 5.74366e-09 28750 1.89874e+11
32.8303 102.23 26.0864 4.56222e-10 377436 102.05 4.55416e-10 4.90756e-09 35087.6 2.2408e+11
34.694 107.679 30.7859 4.07181e-10 447594 107.485 4.06449e-10 4.19221e-09 43473.9 2.64449e+11
36.6634 113.076 36.3321 3.62318e-10 525078 112.879 3.61688e-10 3.58032e-09 53136.3 3.1209e+11
38.7447 118.909 42.8774 3.22848e-10 621924 118.698 3.22274e-10 3.05709e-09 65679.1 3.68314e+11
40.9442 125.315 50.6018 2.88301e-10 732630 125.099 2.87806e-10 2.60976e-09 80933.8 4.34667e+11
43.2685 132.282 59.7179 2.57874e-10 865596 132.047 2.57414e-10 2.22743e-09 100212 5.12973e+11
45.7247 139.973 70.4762 2.31213e-10 1.02168e+06 139.713 2.30784e-10 1.90073e-09 124281 6.05386e+11
48.3204 148.108 83.1727 2.07304e-10 1.20544e+06 147.843 2.06933e-10 1.62163e-09 154099 7.14448e+11
51.0634 157.062 98.1565 1.86278e-10 1.42103e+06 156.759 1.85918e-10 1.38326e-09 191365 8.43158e+11
53.9621 167.058 115.84 1.67888e-10 1.67997e+06 166.744 1.67573e-10 1.1797e-09 239083 9.95055e+11
57.0254 178.467 136.709 1.51975e-10 1.98018e+06 178.106 1.51667e-10 1.00592e-09 299167 1.17432e+12
60.2626 191.695 161.337 1.38321e-10 2.33957e+06 191.295 1.38032e-10 8.57591e-10 377348 1.38587e+12
63.6835 205.72 190.402 1.25781e-10 2.75676e+06 205.287 1.25516e-10 7.3101e-10 474341 1.63554e+12
67.2987 223.131 224.704 1.156e-10 3.25638e+06 222.663 1.15358e-10 6.23009e-10 604228 1.93019e+12
71.1191 242.227 265.185 1.06337e-10 3.84387e+06 241.693 1.06103e-10 5.30879e-10 769941 2.27792e+12
75.1563 265.766 312.958 9.88605e-11 4.53277e+06 265.13 9.86241e-11 4.52303e-10 990732 2.68829e+12
79.4227 291.969 369.339 9.20283e-11 5.35083e+06 291.286 9.1813e-11 3.85299e-10 1.27804e+06 3.17259e+12
83.9313 323.067 435.876 8.62859e-11 6.32174e+06 322.257 8.60695e-11 3.28173e-10 1.66216e+06 3.74415e+12
88.6959 359.691 514.4 8.14026e-11 7.44986e+06 358.763 8.11926e-11 2.79476e-10 2.16991e+06 4.41866e+12
93.7309 403.344 607.071 7.73475e-11 8.79764e+06 402.284 7.71443e-11 2.37972e-10 2.85947e+06 5.2147e+12
99.0518 454.077 716.436 7.3784e-11 1.03827e+07 452.838 7.35826e-11 2.02605e-10 3.78114e+06 6.15414e+12
104.675 514.946 845.504 7.09016e-11 1.22515e+07 513.512 7.07042e-11 1.72471e-10 5.03652e+06 7.26283e+12
110.617 586.655 997.824 6.84446e-11 1.44573e+07 584.994 6.82508e-11 1.468e-10 6.74063e+06 8.57124e+12
116.896 671.974 1177.58 6.6431e-11 1.70664e+07 670.005 6.62363e-11 1.24935e-10 9.07464e+06 1.01154e+13
123.532 772.728 1389.73 6.47301e-11 2.0139e+07 770.394 6.45346e-11 1.06313e-10 1.22619e+07 1.19377e+13
130.545 893.262 1640.09 6.34045e-11 2.37643e+07 890.529 6.32106e-11 9.04567e-11 1.66573e+07 1.40883e+13
137.955 1035.26 1935.56 6.22665e-11 2.80503e+07 1032.05 6.20731e-11 7.69563e-11 2.26959e+07 1.66263e+13
145.787 1203.48 2284.26 6.13343e-11 3.30981e+07 1199.69 6.11413e-11 6.54636e-11 3.10103e+07 1.96216e+13
154.063 1403.58 2695.77 6.06126e-11 3.90634e+07 1399.12 6.042e-11 5.56812e-11 4.25231e+07 2.31565e+13
162.808 1640.88 3181.42 6.00436e-11 4.61057e+07 1635.6 5.98501e-11 4.73556e-11 5.84588e+07 2.73282e+13
172.051 1921.49 3754.56 5.95783e-11 5.44046e+07 1915.25 5.93848e-11 4.02708e-11 8.04883e+07 3.22515e+13
181.818 2256.01 4430.96 5.92726e-11 6.42064e+07 2248.65 5.90793e-11 3.42426e-11 1.11139e+08 3.80616e+13
192.139 2652.47 5229.21 5.90508e-11 7.57748e+07 2643.77 5.8857e-11 2.91139e-11 1.53692e+08 4.49186e+13
203.046 3123.67 6171.26 5.89252e-11 8.94213e+07 3113.32 5.873e-11 2.4751e-11 2.12887e+08 5.30108e+13
214.572 3684.14 7283.03 5.88889e-11 1.05538e+08 3671.84 5.86924e-11 2.10401e-11 2.9539e+08 6.25608e+13
226.753 4351.72 8595.09 5.89415e-11 1.24552e+08 4337.06 5.87429e-11 1.78839e-11 4.10495e+08 7.38313e+13
239.625 5150.27 10143.5 5.91087e-11 1.46987e+08 5132.84 5.89086e-11 1.51999e-11 5.71597e+08 8.71322e+13
253.228 6108.88 11970.9 5.94079e-11 1.7347e+08 6087.99 5.92048e-11 1.29176e-11 7.97786e+08 1.02829e+14
267.603 7263.52 14127.5 5.98539e-11 2.04703e+08 7238.34 5.96464e-11 1.09771e-11 1.11616e+09 1.21354e+14
282.795 8664.69 16672.6 6.05006e-11 2.4161e+08 8634.23 6.02879e-11 9.3274e-12 1.56716e+09 1.43217e+14
298.848 10384 19676.2 6.14372e-11 2.85122e+08 10346.6 6.12164e-11 7.925e-12 2.21036e+09 1.69017e+14
315.813 12513.1 23220.9 6.27328e-11 3.36491e+08 12467 6.25018e-11 6.73295e-12 3.13518e+09 1.99466e+14
333.741 15200.4 27404.3 6.45726e-11 3.97115e+08 15142.6 6.43267e-11 5.71979e-12 4.48316e+09 2.35401e+14
352.686 18668 32341.2 6.71974e-11 4.68637e+08 18593.7 6.693e-11 4.85874e-12 6.48135e+09 2.77809e+14
372.707 23275.5 38167.6 7.09929e-11 5.53074e+08 23177.4 7.06936e-11 4.12703e-12 9.51394e+09 3.27857e+14
393.865 29636.3 45043.5 7.65952e-11 6.52716e+08 29501.5 7.62469e-11 3.50528e-12 1.42627e+10 3.86921e+14
416.224 34994.6 53158.3 7.66374e-11 2.2184e+08 37021.1 8.10753e-11 2.97701e-12 5.71084e+09 4.56626e+14
439.852 0 62734.9 0 0 0 0 2.52819e-12 0 5.38888e+14
464.821 0 74036.7 0 0 0 0 2.1469e-12 0 6.35971e+14
491.207 0 87374.6 0 0 0 0 1.82301e-12 0 7.50542e+14
519.092 0 103115 0 0 0 0 1.54789e-12 0 8.85755e+14
548.56 0 121692 0 0 0 0 1.31422e-12 0 1.04533e+15
579.7 0 143615 0 0 0 0 1.11576e-12 0 1.23364e+15
612.608 0 169488 0 0 0 0 9.47223e-13 0 1.45589e+15
647.384 0 200021 0 0 0 0 8.041e-13 0 1.71817e+15
684.134 0 236056 0 0 0 0 6.82568e-13 0 2.0277e+15
722.971 0 278582 0 0 0 0 5.79376e-13 0 2.393e+15
764.012 0 328769 0 0 0 0 4.91762e-13 0 2.8241e+15
0.438151
200
1.0655e+09
8589934592
0.0129181 0.000235176 1.58924e-09 1.72271e-05 6 0.000233023 1.70694e-05 0.00677225 0.0152627 13.6515
0.0136515 0 1.87554e-09 0 0 0 0 0.00688819 0 16.1108
0.0144264 0 2.21343e-09 0 0 0 0 0.00699249 0 19.0132
0.0152454 0 2.61218e-09 0 0 0 0 0.00708412 0 22.4385
0.0161108 0 3.08278e-09 0 0 0 0 0.00716212 0 26.4808
0.0170254 0 3.63815e-09 0 0 0 0 0.00722559 0 31.2514
0.0179919 0.0015274 4.29357e-09 4.14138e-05 12 0.00152543 4.13604e-05 0.00727371 0.0683235 36.8815
0.0190132 0 5.06707e-09 0 0 0 0 0.00730578 0 43.5258
0.0200925 0 5.97991e-09 0 0 0 0 0.00732122 0 51.367
0.0212331 0.00172969 7.05721e-09 2.85328e-05 8 0.00172818 2.8508e-05 0.00731958 0.0311852 60.621
0.0224385 0 8.32858e-09 0 0 0 0 0.00730056 0 71.542
0.0237123 0 9.829e-09 0 0 0 0 0.00726401 0 84.4305
0.0250583 0.0032913 1.15997e-08 3.30316e-05 6 0.00328975 3.3016e-05 0.00720995 0.0274883 99.6408
0.0264808 0 1.36894e-08 0 0 0 0 0.00713857 0 117.591
0.0279841 0.00893138 1.61556e-08 6.43583e-05 24 0.00892221 6.42922e-05 0.00705021 0.219086 138.776
0.0295727 0 1.90661e-08 0 0 0 0 0.00694538 0 163.777
0.0312514 0.0109645 2.25009e-08 5.67281e-05 24 0.0110202 5.70161e-05 0.00682475 0.199491 193.281
0.0330255 0 2.65545e-08 0 0 0 0 0.00668915 0 228.102
0.0349003 0.00428804 3.13384e-08 1.59292e-05 12 0.00425371 1.58016e-05 0.00653951 0.02923 269.195
0.0368815 0.0118277 3.69841e-08 3.72301e-05 30 0.0117017 3.68337e-05 0.00637693 0.175148 317.691
0.0389751 0.0155754 4.36469e-08 4.15429e-05 24 0.0154152 4.11156e-05 0.00620256 0.160745 374.924
0.0411876 0.0200074 5.151e-08 4.52178e-05 24 0.0198715 4.49108e-05 0.00601767 0.18034 442.467
0.0435258 0.0159136 6.07896e-08 3.04754e-05 8 0.0159124 3.0473e-05 0.00582358 0.0418648 522.179
0.0459966 0.0210582 7.1741e-08 3.41715e-05 72 0.0208914 3.39009e-05 0.00562166 0.437655 616.251
0.0486077 0 8.46654e-08 0 0 0 0 0.0054133 0 727.27
0.051367 0.0308371 9.99181e-08 3.59285e-05 54 0.0308201 3.59087e-05 0.00519989 0.373111 858.29
0.054283 0.0234328 1.17919e-07 2.31341e-05 60 0.0235061 2.32064e-05 0.0049828 0.278567 1012.91
0.0573645 0.0337532 1.39162e-07 2.82361e-05 96 0.0336103 2.81165e-05 0.00476339 0.569062 1195.39
0.060621 0.044867 1.64232e-07 3.18037e-05 24 0.0442591 3.13728e-05 0.00454293 0.168017 1410.75
0.0640622 0.0404932 1.93819e-07 2.43218e-05 134 0.0404732 2.43098e-05 0.00432265 0.753964 1664.89
0.0676989 0.0409638 2.28736e-07 2.08485e-05 120 0.0407445 2.07369e-05 0.00410371 0.609649 1964.83
0.071542 0.0506552 2.69944e-07 2.18454e-05 108 0.0499036 2.15213e-05 0.00388717 0.606947 2318.8
0.0756032 0.0566919 3.18575e-07 2.07167e-05 174 0.0561375 2.05141e-05 0.00367401 0.981134 2736.54
0.079895 0.059706 3.75967e-07 1.84875e-05 168 0.0590746 1.8292e-05 0.0034651 0.896339 3229.53
0.0844305 0.0617878 4.43698e-07 1.62116e-05 168 0.0620616 1.62834e-05 0.00326121 0.835134 3811.34
0.0892234 0.0719057 5.23632e-07 1.59863e-05 290 0.0715614 1.59097e-05 0.00306301 1.51355 4497.96
0.0942883 0.0790013 6.17966e-07 1.48826e-05 288 0.0788852 1.48608e-05 0.00287109 1.49288 5308.28
0.0996408 0.0836076 7.29294e-07 1.33461e-05 366 0.083008 1.32504e-05 0.00268591 1.81862 6264.59
0.105297 0.0922015 8.60678e-07 1.24712e-05 420 0.0915291 1.23802e-05 0.00250785 2.0886 7393.17
0.111275 0.10772 1.01573e-06 1.2346e-05 398 0.107863 1.23624e-05 0.00233721 2.10238 8725.07
0.117591 0.116315 1.19872e-06 1.12961e-05 624 0.116366 1.13011e-05 0.00217419 3.24203 10296.9
0.124267 0.136925 1.41467e-06 1.12677e-05 642 0.136521 1.12345e-05 0.00201893 3.58303 12151.9
0.131321 0.133815 1.66953e-06 9.33083e-06 800 0.13383 9.3319e-06 0.00187147 3.98867 14341.1
0.138776 0.148715 1.9703e-06 8.78686e-06 858 0.149111 8.81022e-06 0.00173182 4.35331 16924.7
0.146654 0.158226 2.32525e-06 7.9217e-06 1080 0.159448 7.98285e-06 0.00159991 5.34745 19973.8
0.154979 0.1815 2.74415e-06 7.69979e-06 1286 0.182716 7.75136e-06 0.00147563 6.71028 23572.1
0.163777 0.183997 3.23852e-06 6.61415e-06 1650 0.184712 6.63986e-06 0.00135884 8.03138 27818.7
0.173074 0.194585 3.82195e-06 5.92699e-06 1778 0.194672 5.92965e-06 0.00124933 8.43506 32830.3
0.182899 0.214814 4.51048e-06 5.54434e-06 2112 0.215142 5.5528e-06 0.00114689 10.2099 38744.7
0.193281 0.257404 5.32305e-06 5.62943e-06 2570 0.257529 5.63218e-06 0.00105127 13.762 45724.7
0.204254 0.267007 6.28202e-06 4.94805e-06 3030 0.267327 4.95397e-06 0.000962209 15.5814 53962.1
0.215848 0.294452 7.41374e-06 4.62368e-06 3434 0.2947 4.62757e-06 0.000879423 18.0547 63683.5
0.228102 0.300063 8.74934e-06 3.99252e-06 4218 0.299882 3.99011e-06 0.000802624 20.9817 75156.3
0.24105 0.330346 1.03256e-05 3.72448e-06 4766 0.330357 3.7246e-06 0.000731515 24.2659 88695.9
0.254734 0.354368 1.21857e-05 3.38542e-06 6026 0.353936 3.3813e-06 0.000665798 30.6407 104675
0.269195 0.385622 1.4381e-05 3.12164e-06 6480 0.385718 3.12241e-06 0.000605173 33.4255 123532
0.284476 0.408426 1.69718e-05 2.80153e-06 8162 0.408852 2.80445e-06 0.000549345 41.6243 145787
0.300625 0.454725 2.00293e-05 2.64297e-06 9578 0.454942 2.64423e-06 0.000498021 50.8299 172051
0.317691 0.478374 2.36377e-05 2.35599e-06 11234 0.478065 2.35447e-06 0.000450916 58.6964 203046
0.335725 0.525903 2.78961e-05 2.19469e-06 13344 0.525486 2.19295e-06 0.000407755 71.8224 239625
0.354784 0.552744 3.29216e-05 1.95458e-06 15464 0.552507 1.95374e-06 0.000368269 82.0748 282795
0.374924 0.606361 3.88525e-05 1.81686e-06 18458 0.606145 1.81621e-06 0.000332202 100.95 333741
0.396207 0.671655 4.58519e-05 1.70529e-06 22232 0.670497 1.70235e-06 0.000299307 126.666 393865
0.418699 0.705484 5.41123e-05 1.51775e-06 25628 0.703595 1.51369e-06 0.00026935 144.411 464821
0.442467 0.776746 6.38607e-05 1.41597e-06 30320 0.775229 1.41321e-06 0.000242108 177.327 548560
0.467585 0.837471 7.53654e-05 1.29362e-06 35452 0.835928 1.29124e-06 0.00021737 210.983 647384
0.494129 0.915478 8.89427e-05 1.19825e-06 41792 0.915283 1.198e-06 0.000194938 256.888 764012
0.522179 0.992749 0.000104966 1.10103e-06 49988 0.992523 1.10078e-06 0.000174625 315.181 901651
0.551822 1.08753 0.000123876 1.02203e-06 59110 1.08634 1.02091e-06 0.000156255 386.627 1.06409e+06
0.583147 1.18451 0.000146192 9.4324e-07 69716 1.18352 9.42455e-07 0.000139664 470.837 1.25578e+06
0.616251 1.28535 0.000172529 8.67298e-07 82210 1.28315 8.65811e-07 0.0001247 571.777 1.48202e+06
0.651234 1.40668 0.000203611 8.04275e-07 96722 1.40362 8.02525e-07 0.00011122 699.431 1.74901e+06
0.688203 1.54293 0.000240292 7.47509e-07 113098 1.54059 7.46375e-07 9.90935e-05 853.152 2.06409e+06
0.72727 1.68082 0.000283581 6.90009e-07 135190 1.67863 6.8911e-07 8.81969e-05 1057.66 2.43595e+06
0.768555 1.84795 0.000334669 6.42812e-07 158170 1.84609 6.42165e-07 7.84179e-05 1296.56 2.87479e+06
0.812184 2.0317 0.000394961 5.98846e-07 188560 2.02857 5.97925e-07 6.96525e-05 1621.17 3.39269e+06
0.85829 2.23777 0.000466114 5.589e-07 220444 2.23439 5.58055e-07 6.1805e-05 1993.46 4.00389e+06
0.907013 2.46059 0.000550086 5.20738e-07 261388 2.45727 5.20036e-07 5.47875e-05 2484.41 4.7252e+06
0.958501 2.71213 0.000649185 4.86353e-07 308244 2.70822 4.85653e-07 4.85194e-05 3089.8 5.57646e+06
1.01291 2.98446 0.000766138 4.53492e-07 364396 2.97973 4.52773e-07 4.29272e-05 3849.56 6.58107e+06
1.07041 3.28171 0.00090416 4.22537e-07 429162 3.27593 4.21793e-07 3.79435e-05 4779.13 7.76667e+06
1.13118 3.62477 0.00106705 3.95465e-07 506358 3.61879 3.94812e-07 3.3507e-05 5976.26 9.16586e+06
1.19539 4.0254 0.00125928 3.72133e-07 598590 4.0181 3.71457e-07 2.9562e-05 7535.17 1.08171e+07
1.26325 4.45731 0.00148614 3.49159e-07 704844 4.4493 3.48531e-07 2.60578e-05 9444.48 1.27658e+07
1.33496 4.92894 0.00175387 3.27164e-07 834620 4.91948 3.26536e-07 2.29484e-05 11898.8 1.50656e+07
1.41075 5.45482 0.00206984 3.06799e-07 981444 5.44451 3.0622e-07 2.01923e-05 14911.9 1.77798e+07
1.49083 6.03832 0.00244272 2.87774e-07 1.15998e+06 6.02726 2.87247e-07 1.77518e-05 18804.4 2.09828e+07
1.57546 6.70796 0.00288279 2.70887e-07 1.36931e+06 6.69542 2.70381e-07 1.55929e-05 23788.3 2.4763e+07
1.66489 7.41763 0.00340213 2.53819e-07 1.61652e+06 7.40292 2.53316e-07 1.3685e-05 29981.9 2.92241e+07
1.75941 8.2268 0.00401503 2.38535e-07 1.90601e+06 8.21052 2.38063e-07 1.20007e-05 37885.3 3.44889e+07
1.85928 9.11073 0.00473835 2.23839e-07 2.24913e+06 9.09407 2.2343e-07 1.05151e-05 47878.1 4.07021e+07
1.96483 10.093 0.00559198 2.10119e-07 2.65744e+06 10.0726 2.09694e-07 9.20606e-06 60653.5 4.80347e+07
2.07637 11.1708 0.00659939 1.97056e-07 3.13125e+06 11.1485 1.96663e-07 8.05366e-06 76615.2 5.66883e+07
2.19424 12.3325 0.00778828 1.8434e-07 3.69915e+06 12.3089 1.83987e-07 7.04008e-06 96859.8 6.69008e+07
2.3188 13.6241 0.00919136 1.72559e-07 4.36472e+06 13.597 1.72215e-07 6.1494e-06 122479 7.89532e+07
2.45043 15.0275 0.0108472 1.61279e-07 5.14913e+06 14.9986 1.6097e-07 5.36741e-06 154721 9.31768e+07
2.58954 16.5501 0.0128014 1.50506e-07 6.07894e+06 16.5186 1.5022e-07 4.68145e-06 195435 1.09963e+08
2.73654 18.2143 0.0151076 1.40355e-07 7.17304e+06 18.1788 1.40081e-07 4.08023e-06 246744 1.29773e+08
2.89188 19.9837 0.0178292 1.30483e-07 8.46557e+06 19.9461 1.30237e-07 3.55373e-06 310832 1.53152e+08
3.05605 21.8524 0.0210412 1.20904e-07 9.98773e+06 21.8126 1.20683e-07 3.09304e-06 390409 1.80743e+08
3.22953 23.8959 0.0248319 1.12028e-07 1.1797e+07 23.8509 1.11817e-07 2.69025e-06 491252 2.13304e+08
3.41286 26.0463 0.0293054 1.03469e-07 1.39144e+07 25.9975 1.03275e-07 2.33837e-06 615686 2.51731e+08
3.6066 28.3374 0.0345848 9.5386e-08 1.64163e+07 28.286 9.52131e-08 2.0312e-06 770915 2.97081e+08
3.81134 30.7562 0.0408154 8.77241e-08 1.93821e+07 30.7012 8.75673e-08 1.76327e-06 964280 3.50601e+08
4.0277 33.3274 0.0481684 8.05472e-08 2.28754e+07 33.2678 8.04031e-08 1.52972e-06 1.2045e+06 4.13763e+08
4.25634 35.991 0.056846 7.37062e-08 2.69929e+07 35.9278 7.35767e-08 1.32631e-06 1.50006e+06 4.88304e+08
4.49796 38.7982 0.067087 6.73262e-08 3.18542e+07 38.729 6.7206e-08 1.14926e-06 1.86609e+06 5.76273e+08
4.7533 41.7642 0.0791729 6.14097e-08 3.75892e+07 41.6912 6.13025e-08 9.95263e-07 2.31933e+06 6.8009e+08
5.02313 44.819 0.0934361 5.58416e-08 4.43706e+07 44.7412 5.57447e-08 8.61414e-07 2.87635e+06 8.0261e+08
5.30828 48.0498 0.110269 5.07281e-08 5.23593e+07 47.9669 5.06406e-08 7.45152e-07 3.56449e+06 9.47202e+08
5.60962 51.3492 0.130134 4.59359e-08 6.1787e+07 51.262 4.5858e-08 6.44232e-07 4.40562e+06 1.11784e+09
5.92807 54.8015 0.153578 4.15406e-08 7.29346e+07 54.7082 4.14699e-08 5.56685e-07 5.44248e+06 1.31923e+09
6.26459 58.4237 0.181246 3.7526e-08 8.60651e+07 58.3247 3.74624e-08 4.80786e-07 6.71749e+06 1.55689e+09
6.62021 62.1553 0.213898 3.38285e-08 1.01558e+08 62.0503 3.37713e-08 4.15026e-07 8.27794e+06 1.83737e+09
6.99602 66.0572 0.252432 3.0464e-08 1.1986e+08 65.9472 3.04132e-08 3.58083e-07 1.01971e+07 2.16837e+09
7.39317 70.1045 0.297908 2.73951e-08 1.41457e+08 69.9881 2.73497e-08 3.08803e-07 1.25492e+07 2.55901e+09
7.81286 74.3478 0.351577 2.46183e-08 1.66936e+08 74.2246 2.45775e-08 2.66181e-07 1.54394e+07 3.02002e+09
8.25637 78.7748 0.414914 2.21024e-08 1.97025e+08 78.6438 2.20656e-08 2.29336e-07 1.89884e+07 3.56409e+09
8.72507 83.4807 0.489662 1.98472e-08 2.32497e+08 83.3409 1.9814e-08 1.97503e-07 2.33638e+07 4.20617e+09
9.22037 88.5171 0.577876 1.78321e-08 2.74404e+08 88.3672 1.78019e-08 1.70014e-07 2.87812e+07 4.96392e+09
9.74378 94.0319 0.681982 1.60514e-08 3.2382e+08 93.8698 1.60237e-08 1.46289e-07 3.55308e+07 5.85818e+09
10.2969 100.223 0.804843 1.44965e-08 3.82165e+08 100.042 1.44704e-08 1.25822e-07 4.40308e+07 6.91355e+09
10.8814 107.623 0.949838 1.31906e-08 4.51027e+08 107.416 1.31653e-08 1.08175e-07 5.49969e+07 8.15905e+09
11.4992 117.057 1.12095 1.21568e-08 5.32251e+08 116.806 1.21307e-08 9.29669e-08 6.95999e+07 9.62892e+09
12.1519 130.341 1.3229 1.147e-08 6.28157e+08 130.011 1.1441e-08 7.98658e-08 9.02138e+07 1.13636e+10
12.8418 145.208 1.56122 1.08277e-08 3.82727e+08 150.295 1.1207e-08 6.85852e-08 6.04219e+07 1.34108e+10
13.5708 0 1.84248 0 0 0 0 5.88765e-08 0 1.58268e+10
14.3411 0 2.17441 0 0 0 0 5.05241e-08 0 1.8678e+10
15.1552 0 2.56613 0 0 0 0 4.33417e-08 0 2.20429e+10
16.0156 0 3.02843 0 0 0 0 3.71677e-08 0 2.6014e+10
16.9247 0 3.574 0 0 0 0 3.18628e-08 0 3.07005e+10
17.8855 0 4.21787 0 0 0 0 2.73063e-08 0 3.62312e+10
18.9008 0 4.97773 0 0 0 0 2.33941e-08 0 4.27584e+10
19.9738 0 5.87448 0 0 0 0 2.00364e-08 0 5.04614e+10
21.1076 0 6.93279 0 0 0 0 1.71555e-08 0 5.95522e+10
22.3058 0 8.18175 0 0 0 0 1.46847e-08 0 7.02807e+10
23.5721 0 9.65571 0 0 0 0 1.25662e-08 0 8.29419e+10
24.9102 0 11.3952 0 0 0 0 1.07504e-08 0 9.78842e+10
26.3243 0 13.4481 0 0 0 0 9.19452e-09 0 1.15518e+11
27.8187 0 15.8708 0 0 0 0 7.86182e-09 0 1.36329e+11
29.3979 0 18.73 0 0 0 0 6.72061e-09 0 1.60889e+11
31.0667 0 22.1042 0 0 0 0 5.74366e-09 0 1.89874e+11
32.8303 0 26.0864 0 0 0 0 4.90756e-09 0 2.2408e+11
34.694 0 30.7859 0 0 0 0 4.19221e-09 0 2.64449e+11
36.6634 0 36.3321 0 0 0 0 3.58032e-09 0 3.1209e+11
38.7447 0 42.8774 0 0 0 0 3.05709e-09 0 3.68314e+11
40.9442 0 50.6018 0 0 0 0 2.60976e-09 0 4.34667e+11
43.2685 0 59.7179 0 0 0 0 2.22743e-09 0 5.12973e+11
45.7247 0 70.4762 0 0 0 0 1.90073e-09 0 6.05386e+11
48.3204 0 83.1727 0 0 0 0 1.62163e-09 0 7.14448e+11
51.0634 0 98.1565 0 0 0 0 1.38326e-09 0 8.43158e+11
53.9621 0 115.84 0 0 0 0 1.1797e-09 0 9.95055e+11
57.0254 0 136.709 0 0 0 0 1.00592e-09 0 1.17432e+12
60.2626 0 161.337 0 0 0 0 8.57591e-10 0 1.38587e+12
63.6835 0 190.402 0 0 0 0 7.3101e-10 0 1.63554e+12
67.2987 0 224.704 0 0 0 0 6.23009e-10 0 1.93019e+12
71.1191 0 265.185 0 0 0 0 5.30879e-10 0 2.27792e+12
75.1563 0 312.958 0 0 0 0 4.52303e-10 0 2.68829e+12
79.4227 0 369.339 0 0 0 0 3.85299e-10 0 3.17259e+12
83.9313 0 435.876 0 0 0 0 3.28173e-10 0 3.74415e+12
88.6959 0 514.4 0 0 0 0 2.79476e-10 0 4.41866e+12
93.7309 0 607.071 0 0 0 0 2.37972e-10 0 5.2147e+12
99.0518 0 716.436 0 0 0 0 2.02605e-10 0 6.15414e+12
104.675 0 845.504 0 0 0 0 1.72471e-10 0 7.26283e+12
110.617 0 997.824 0 0 0 0 1.468e-10 0 8.57124e+12
116.896 0 1177.58 0 0 0 0 1.24935e-10 0 1.01154e+13
123.532 0 1389.73 0 0 0 0 1.06313e-10 0 1.19377e+13
130.545 0 1640.09 0 0 0 0 9.04567e-11 0 1.40883e+13
137.955 0 1935.56 0 0 0 0 7.69563e-11 0 1.66263e+13
145.787 0 2284.26 0 0 0 0 6.54636e-11 0 1.96216e+13
154.063 0 2695.77 0 0 0 0 5.56812e-11 0 2.31565e+13
162.808 0 3181.42 0 0 0 0 4.73556e-11 0 2.73282e+13
172.051 0 3754.56 0 0 0 0 4.02708e-11 0 3.22515e+13
181.818 0 4430.96 0 0 0 0 3.42426e-11 0 3.80616e+13
192.139 0 5229.21 0 0 0 0 2.91139e-11 0 4.49186e+13
203.046 0 6171.26 0 0 0 0 2.4751e-11 0 5.30108e+13
214.572 0 7283.03 0 0 0 0 2.10401e-11 0 6.25608e+13
226.753 0 8595.09 0 0 0 0 1.78839e-11 0 7.38313e+13
239.625 0 10143.5 0 0 0 0 1.51999e-11 0 8.71322e+13
253.228 0 11970.9 0 0 0 0 1.29176e-11 0 1.02829e+14
267.603 0 14127.5 0 0 0 0 1.09771e-11 0 1.21354e+14
282.795 0 16672.6 0 0 0 0 9.3274e-12 0 1.43217e+14
298.848 0 19676.2 0 0 0 0 7.925e-12 0 1.69017e+14
315.813 0 23220.9 0 0 0 0 6.73295e-12 0 1.99466e+14
333.741 0 27404.3 0 0 0 0 5.71979e-12 0 2.35401e+14
352.686 0 32341.2 0 0 0 0 4.85874e-12 0 2.77809e+14
372.707 0 38167.6 0 0 0 0 4.12703e-12 0 3.27857e+14
393.865 0 45043.5 0 0 0 0 3.50528e-12 0 3.86921e+14
416.224 0 53158.3 0 0 0 0 2.97701e-12 0 4.56626e+14
439.852 0 62734.9 0 0 0 0 2.52819e-12 0 5.38888e+14
464.821 0 74036.7 0 0 0 0 2.1469e-12 0 6.35971e+14
491.207 0 87374.6 0 0 0 0 1.82301e-12 0 7.50542e+14
519.092 0 103115 0 0 0 0 1.54789e-12 0 8.85755e+14
548.56 0 121692 0 0 0 0 1.31422e-12 0 1.04533e+15
579.7 0 143615 0 0 0 0 1.11576e-12 0 1.23364e+15
612.608 0 169488 0 0 0 0 9.47223e-13 0 1.45589e+15
647.384 0 200021 0 0 0 0 8.041e-13 0 1.71817e+15
684.134 0 236056 0 0 0 0 6.82568e-13 0 2.0277e+15
722.971 0 278582 0 0 0 0 5.79376e-13 0 2.393e+15
764.012 0 328769 0 0 0 0 4.91762e-13 0 2.8241e+15
