0.923127
200
1.0655e+09
8589934592
0.0129181 0 1.58924e-09 0 0 0 0 0.00677225 0 13.6515
0.0136515 0 1.87554e-09 0 0 0 0 0.00688819 0 16.1108
0.0144264 0 2.21343e-09 0 0 0 0 0.00699249 0 19.0132
0.0152454 0 2.61218e-09 0 0 0 0 0.00708412 0 22.4385
0.0161108 0 3.08278e-09 0 0 0 0 0.00716212 0 26.4808
0.0170254 0 3.63815e-09 0 0 0 0 0.00722559 0 31.2514
0.0179919 0 4.29357e-09 0 0 0 0 0.00727371 0 36.8815
0.0190132 0 5.06707e-09 0 0 0 0 0.00730578 0 43.5258
0.0200925 0 5.97991e-09 0 0 0 0 0.00732122 0 51.367
0.0212331 0 7.05721e-09 0 0 0 0 0.00731958 0 60.621
0.0224385 0 8.32858e-09 0 0 0 0 0.00730056 0 71.542
0.0237123 0 9.829e-09 0 0 0 0 0.00726401 0 84.4305
0.0250583 0 1.15997e-08 0 0 0 0 0.00720995 0 99.6408
0.0264808 0 1.36894e-08 0 0 0 0 0.00713857 0 117.591
0.0279841 0 1.61556e-08 0 0 0 0 0.00705021 0 138.776
0.0295727 0 1.90661e-08 0 0 0 0 0.00694538 0 163.777
0.0312514 0 2.25009e-08 0 0 0 0 0.00682475 0 193.281
0.0330255 0 2.65545e-08 0 0 0 0 0.00668915 0 228.102
0.0349003 0 3.13384e-08 0 0 0 0 0.00653951 0 269.195
0.0368815 0 3.69841e-08 0 0 0 0 0.00637693 0 317.691
0.0389751 0 4.36469e-08 0 0 0 0 0.00620256 0 374.924
0.0411876 0 5.151e-08 0 0 0 0 0.00601767 0 442.467
0.0435258 0 6.07896e-08 0 0 0 0 0.00582358 0 522.179
0.0459966 0 7.1741e-08 0 0 0 0 0.00562166 0 616.251
0.0486077 0 8.46654e-08 0 0 0 0 0.0054133 0 727.27
0.051367 0 9.99181e-08 0 0 0 0 0.00519989 0 858.29
0.054283 0 1.17919e-07 0 0 0 0 0.0049828 0 1012.91
0.0573645 0 1.39162e-07 0 0 0 0 0.00476339 0 1195.39
0.060621 0 1.64232e-07 0 0 0 0 0.00454293 0 1410.75
0.0640622 0 1.93819e-07 0 0 0 0 0.00432265 0 1664.89
0.0676989 0 2.28736e-07 0 0 0 0 0.00410371 0 1964.83
0.071542 0 2.69944e-07 0 0 0 0 0.00388717 0 2318.8
0.0756032 0 3.18575e-07 0 0 0 0 0.00367401 0 2736.54
0.079895 0 3.75967e-07 0 0 0 0 0.0034651 0 3229.53
0.0844305 0 4.43698e-07 0 0 0 0 0.00326121 0 3811.34
0.0892234 0 5.23632e-07 0 0 0 0 0.00306301 0 4497.96
0.0942883 0 6.17966e-07 0 0 0 0 0.00287109 0 5308.28
0.0996408 0 7.29294e-07 0 0 0 0 0.00268591 0 6264.59
0.105297 0 8.60678e-07 0 0 0 0 0.00250785 0 7393.17
0.111275 0 1.01573e-06 0 0 0 0 0.00233721 0 8725.07
0.117591 0 1.19872e-06 0 0 0 0 0.00217419 0 10296.9
0.124267 0 1.41467e-06 0 0 0 0 0.00201893 0 12151.9
0.131321 0 1.66953e-06 0 0 0 0 0.00187147 0 14341.1
0.138776 0 1.9703e-06 0 0 0 0 0.00173182 0 16924.7
0.146654 0 2.32525e-06 0 0 0 0 0.00159991 0 19973.8
0.154979 0 2.74415e-06 0 0 0 0 0.00147563 0 23572.1
0.163777 0 3.23852e-06 0 0 0 0 0.00135884 0 27818.7
0.173074 0 3.82195e-06 0 0 0 0 0.00124933 0 32830.3
0.182899 0 4.51048e-06 0 0 0 0 0.00114689 0 38744.7
0.193281 0 5.32305e-06 0 0 0 0 0.00105127 0 45724.7
0.204254 0 6.28202e-06 0 0 0 0 0.000962209 0 53962.1
0.215848 0 7.41374e-06 0 0 0 0 0.000879423 0 63683.5
0.228102 0 8.74934e-06 0 0 0 0 0.000802624 0 75156.3
0.24105 0 1.03256e-05 0 0 0 0 0.000731515 0 88695.9
0.254734 0 1.21857e-05 0 0 0 0 0.000665798 0 104675
0.269195 0 1.4381e-05 0 0 0 0 0.000605173 0 123532
0.284476 0 1.69718e-05 0 0 0 0 0.000549345 0 145787
0.300625 0 2.00293e-05 0 0 0 0 0.000498021 0 172051
0.317691 0 2.36377e-05 0 0 0 0 0.000450916 0 203046
0.335725 0 2.78961e-05 0 0 0 0 0.000407755 0 239625
0.354784 0 3.29216e-05 0 0 0 0 0.000368269 0 282795
0.374924 0 3.88525e-05 0 0 0 0 0.000332202 0 333741
0.396207 1.94825 4.58519e-05 4.94648e-06 6 1.89408 4.80896e-06 0.000299307 0.0991588 393865
0.418699 0 5.41123e-05 0 0 0 0 0.00026935 0 464821
0.442467 0 6.38607e-05 0 0 0 0 0.000242108 0 548560
0.467585 0 7.53654e-05 0 0 0 0 0.00021737 0 647384
0.494129 0 8.89427e-05 0 0 0 0 0.000194938 0 764012
0.522179 0 0.000104966 0 0 0 0 0.000174625 0 901651
0.551822 0 0.000123876 0 0 0 0 0.000156255 0 1.06409e+06
0.583147 5.1788 0.000146192 4.12396e-06 12 5.45071 4.34048e-06 0.000139664 0.354332 1.25578e+06
0.616251 0 0.000172529 0 0 0 0 0.0001247 0 1.48202e+06
0.651234 0 0.000203611 0 0 0 0 0.00011122 0 1.74901e+06
0.688203 9.58145 0.000240292 4.64197e-06 8 9.34308 4.52648e-06 9.90935e-05 0.374755 2.06409e+06
0.72727 0 0.000283581 0 0 0 0 8.81969e-05 0 2.43595e+06
0.768555 0 0.000334669 0 0 0 0 7.84179e-05 0 2.87479e+06
0.812184 10.2364 0.000394961 3.0172e-06 6 10.4553 3.0817e-06 6.96525e-05 0.259907 3.39269e+06
0.85829 0 0.000466114 0 0 0 0 6.1805e-05 0 4.00389e+06
0.907013 1.53062 0.000550086 3.23927e-07 24 1.55999 3.30142e-07 5.47875e-05 0.141898 4.7252e+06
0.958501 5.272 0.000649185 9.45402e-07 24 4.9632 8.90027e-07 4.85194e-05 0.467641 5.57646e+06
1.01291 0 0.000766138 0 0 0 0 4.29272e-05 0 6.58107e+06
1.07041 0 0.00090416 0 0 0 0 3.79435e-05 0 7.76667e+06
1.13118 8.89654 0.00106705 9.70617e-07 12 8.78726 9.58694e-07 3.3507e-05 0.347611 9.16586e+06
1.19539 4.44156 0.00125928 4.10604e-07 30 4.34999 4.0214e-07 2.9562e-05 0.416688 1.08171e+07
1.26325 10.7959 0.00148614 8.45686e-07 24 10.6334 8.32961e-07 2.60578e-05 0.778901 1.27658e+07
1.33496 11.925 0.00175387 7.91538e-07 24 11.9513 7.93278e-07 2.29484e-05 0.827808 1.50656e+07
1.41075 19.9975 0.00206984 1.12474e-06 32 20.2854 1.14093e-06 2.01923e-05 1.78244 1.77798e+07
1.49083 5.46842 0.00244272 2.60614e-07 48 5.35184 2.55058e-07 1.77518e-05 0.704689 2.09828e+07
1.57546 44.1097 0.00288279 1.78128e-06 6 42.0023 1.69618e-06 1.55929e-05 0.68542 2.4763e+07
1.66489 6.25516 0.00340213 2.14041e-07 84 6.11479 2.09238e-07 1.3685e-05 1.31381 2.92241e+07
1.75941 5.91617 0.00401503 1.71538e-07 48 5.78357 1.67694e-07 1.20007e-05 0.686115 3.44889e+07
1.85928 5.27834 0.00473835 1.29682e-07 72 5.2854 1.29856e-07 1.05151e-05 0.887972 4.07021e+07
1.96483 15.1529 0.00559198 3.15456e-07 54 14.7825 3.07745e-07 9.20606e-06 1.85037 4.80347e+07
2.07637 12.7021 0.00659939 2.24068e-07 104 12.8796 2.272e-07 8.05366e-06 2.89348 5.66883e+07
2.19424 10.8883 0.00778828 1.62753e-07 120 11.06 1.65319e-07 7.04008e-06 2.77416 6.69008e+07
2.3188 14.005 0.00919136 1.77384e-07 156 13.6554 1.72956e-07 6.1494e-06 4.49992 7.89532e+07
2.45043 10.0127 0.0108472 1.07459e-07 126 9.90328 1.06285e-07 5.36741e-06 2.52259 9.31768e+07
2.58954 14.2386 0.0128014 1.29486e-07 192 14.2816 1.29876e-07 4.68145e-06 5.31059 1.09963e+08
2.73654 38.3596 0.0151076 2.9559e-07 152 38.9482 3.00126e-07 4.08023e-06 11.0116 1.29773e+08
2.89188 15.3339 0.0178292 1.00122e-07 378 15.2981 9.98883e-08 3.55373e-06 10.6497 1.53152e+08
3.05605 16.798 0.0210412 9.29385e-08 264 16.5484 9.15576e-08 3.09304e-06 7.93258 1.80743e+08
3.22953 20.0408 0.0248319 9.39543e-08 366 19.8625 9.31182e-08 2.69025e-06 12.7822 2.13304e+08
3.41286 17.5405 0.0293054 6.96796e-08 428 17.3231 6.88159e-08 2.33837e-06 12.7537 2.51731e+08
3.6066 20.3986 0.0345848 6.86632e-08 486 20.1285 6.77542e-08 2.0312e-06 16.4288 2.97081e+08
3.81134 20.5694 0.0408154 5.86688e-08 600 20.6572 5.89194e-08 1.76327e-06 19.9637 3.50601e+08
4.0277 25.5542 0.0481684 6.17606e-08 738 25.5546 6.17615e-08 1.52972e-06 29.7958 4.13763e+08
4.25634 27.3685 0.056846 5.60481e-08 824 27.2241 5.57524e-08 1.32631e-06 34.8212 4.88304e+08
4.49796 28.1428 0.067087 4.88358e-08 954 27.8955 4.84067e-08 1.14926e-06 40.5387 5.76273e+08
4.7533 31.9435 0.0791729 4.69695e-08 1094 31.7002 4.66118e-08 9.95263e-07 51.6292 6.8009e+08
5.02313 32.0238 0.0934361 3.98996e-08 1332 32.1775 4.00911e-08 8.61414e-07 61.6966 8.0261e+08
5.30828 39.833 0.110269 4.20533e-08 1614 39.7323 4.1947e-08 7.45152e-07 91.0874 9.47202e+08
5.60962 44.124 0.130134 3.94724e-08 1850 44.2481 3.95834e-08 6.44232e-07 113.35 1.11784e+09
5.92807 38.0816 0.153578 2.88666e-08 2238 38.0552 2.88466e-08 5.56685e-07 116.05 1.31923e+09
6.26459 42.3627 0.181246 2.72099e-08 2546 42.4483 2.72648e-08 4.80786e-07 144.09 1.55689e+09
6.62021 44.0619 0.213898 2.3981e-08 3264 44.0982 2.40008e-08 4.15026e-07 188.601 1.83737e+09
6.99602 47.6979 0.252432 2.19971e-08 3506 47.7388 2.2016e-08 3.58083e-07 215.375 2.16837e+09
7.39317 49.8963 0.297908 1.94983e-08 4506 49.8286 1.94718e-08 3.08803e-07 284.515 2.55901e+09
7.81286 58.1727 0.351577 1.92623e-08 5018 57.8975 1.91712e-08 2.66181e-07 363.13 3.02002e+09
8.25637 60.2574 0.414914 1.69068e-08 5852 60.1582 1.6879e-08 2.29336e-07 431.413 3.56409e+09
8.72507 62.7171 0.489662 1.49108e-08 7362 62.6093 1.48851e-08 1.97503e-07 555.804 4.20617e+09
9.22037 65.6864 0.577876 1.32328e-08 8306 65.5142 1.31981e-08 1.70014e-07 646.484 4.96392e+09
9.74378 73.197 0.681982 1.24948e-08 9698 73.1622 1.24889e-08 1.46289e-07 828.325 5.85818e+09
10.2969 78.6757 0.804843 1.13799e-08 11816 78.5674 1.13643e-08 1.25822e-07 1068.69 6.91355e+09
10.8814 87.7142 0.949838 1.07505e-08 13682 87.4002 1.07121e-08 1.08175e-07 1359.73 8.15905e+09
11.4992 90.0011 1.12095 9.34696e-09 16152 89.8872 9.33513e-09 9.29669e-08 1623.93 9.62892e+09
12.1519 93.2429 1.3229 8.20541e-09 19472 93.0101 8.18492e-09 7.98658e-08 2000.55 1.13636e+10
12.8418 98.4524 1.56122 7.34129e-09 22670 98.1947 7.32208e-09 6.85852e-08 2426.57 1.34108e+10
13.5708 104.35 1.84248 6.59327e-09 26224 104.201 6.58388e-09 5.88765e-08 2936.69 1.58268e+10
14.3411 111.972 2.17441 5.99486e-09 31640 111.869 5.98934e-09 5.05241e-08 3754.19 1.8678e+10
15.1552 119.01 2.56613 5.39901e-09 37484 118.782 5.38866e-09 4.33417e-08 4669.33 2.20429e+10
16.0156 127.618 3.02843 4.90575e-09 43856 127.432 4.89861e-09 3.71677e-08 5788.53 2.6014e+10
16.9247 134.535 3.574 4.38218e-09 51362 134.367 4.3767e-09 3.18628e-08 7063.96 3.07005e+10
17.8855 140.146 4.21787 3.86811e-09 61636 139.943 3.8625e-09 2.73063e-08 8731.12 3.62312e+10
18.9008 151.257 4.97773 3.53748e-09 72218 150.934 3.52993e-09 2.33941e-08 10920.2 4.27584e+10
19.9738 159.699 5.87448 3.16478e-09 84586 159.418 3.15921e-09 2.00364e-08 13360.5 5.04614e+10
21.1076 171.13 6.93279 2.87361e-09 100708 170.818 2.86837e-09 1.71555e-08 16869 5.95522e+10
22.3058 180.114 8.18175 2.56278e-09 118712 179.795 2.55825e-09 1.46847e-08 20717.7 7.02807e+10
23.5721 187.68 9.65571 2.26278e-09 140410 187.289 2.25808e-09 1.25662e-08 25283.6 8.29419e+10
24.9102 198.504 11.3952 2.02795e-09 164374 198.131 2.02413e-09 1.07504e-08 31007.5 9.78842e+10
26.3243 208.29 13.4481 1.8031e-09 194680 207.999 1.80057e-09 9.19452e-09 38177.8 1.15518e+11
27.8187 221.414 15.8708 1.62411e-09 230196 221.085 1.6217e-09 7.86182e-09 47554.3 1.36329e+11
29.3979 234.301 18.73 1.45629e-09 271156 233.914 1.45388e-09 6.72061e-09 58756.7 1.60889e+11
31.0667 246.877 22.1042 1.30022e-09 321076 246.393 1.29767e-09 5.74366e-09 72683.3 1.89874e+11
32.8303 260.163 26.0864 1.16103e-09 377436 259.673 1.15884e-09 4.90756e-09 89293.4 2.2408e+11
34.694 273.752 30.7859 1.03518e-09 447594 273.191 1.03306e-09 4.19221e-09 110524 2.64449e+11
36.6634 288.169 36.3321 9.23353e-10 525078 287.64 9.21658e-10 3.58032e-09 135416 3.1209e+11
38.7447 304.949 42.8774 8.27959e-10 621924 304.405 8.26484e-10 3.05709e-09 168437 3.68314e+11
40.9442 319.373 50.6018 7.34755e-10 732630 318.751 7.33323e-10 2.60976e-09 206265 4.34667e+11
43.2685 337.255 59.7179 6.57452e-10 865596 336.717 6.56403e-10 2.22743e-09 255491 5.12973e+11
45.7247 353.517 70.4762 5.83953e-10 1.02168e+06 352.93 5.82983e-10 1.90073e-09 313885 6.05386e+11
48.3204 370.977 83.1727 5.1925e-10 1.20544e+06 370.332 5.18346e-10 1.62163e-09 385983 7.14448e+11
51.0634 389.406 98.1565 4.61843e-10 1.42103e+06 388.719 4.61027e-10 1.38326e-09 474455 8.43158e+11
53.9621 407.785 115.84 4.09811e-10 1.67997e+06 407.081 4.09104e-10 1.1797e-09 583595 9.95055e+11
57.0254 430.086 136.709 3.66244e-10 1.98018e+06 429.354 3.6562e-10 1.00592e-09 720961 1.17432e+12
60.2626 450.581 161.337 3.25124e-10 2.33957e+06 449.753 3.24527e-10 8.57591e-10 886962 1.38587e+12
63.6835 474.453 190.402 2.90089e-10 2.75676e+06 473.603 2.8957e-10 7.3101e-10 1.09398e+06 1.63554e+12
67.2987 498.446 224.704 2.58237e-10 3.25638e+06 497.598 2.57797e-10 6.23009e-10 1.34977e+06 1.93019e+12
71.1191 524.418 265.185 2.30218e-10 3.84387e+06 523.482 2.29807e-10 5.30879e-10 1.66691e+06 2.27792e+12
75.1563 552.879 312.958 2.05662e-10 4.53277e+06 551.908 2.05301e-10 4.52303e-10 2.06104e+06 2.68829e+12
79.4227 584.065 369.339 1.84097e-10 5.35083e+06 583.068 1.83783e-10 3.85299e-10 2.55664e+06 3.17259e+12
83.9313 617.117 435.876 1.64822e-10 6.32174e+06 615.944 1.64508e-10 3.28173e-10 3.17503e+06 3.74415e+12
88.6959 653.708 514.4 1.47943e-10 7.44986e+06 652.469 1.47662e-10 2.79476e-10 3.94363e+06 4.41866e+12
93.7309 693.533 607.071 1.32996e-10 8.79764e+06 692.259 1.32752e-10 2.37972e-10 4.91674e+06 5.2147e+12
99.0518 739.048 716.436 1.2009e-10 1.03827e+07 737.632 1.19859e-10 2.02605e-10 6.15411e+06 6.15414e+12
104.675 790.643 845.504 1.08862e-10 1.22515e+07 789.019 1.08638e-10 1.72471e-10 7.73302e+06 7.26283e+12
110.617 849.878 997.824 9.91546e-11 1.44573e+07 848.148 9.89528e-11 1.468e-10 9.76505e+06 8.57124e+12
116.896 919.239 1177.58 9.08754e-11 1.70664e+07 917.269 9.06807e-11 1.24935e-10 1.24138e+07 1.01154e+13
123.532 999.095 1389.73 8.36925e-11 2.0139e+07 996.829 8.35027e-11 1.06313e-10 1.58539e+07 1.19377e+13
130.545 1093.88 1640.09 7.76447e-11 2.37643e+07 1091.33 7.74634e-11 9.04567e-11 2.03984e+07 1.40883e+13
137.955 1205.27 1935.56 7.24919e-11 2.80503e+07 1202.34 7.23155e-11 7.69563e-11 2.6423e+07 1.66263e+13
145.787 1337.27 2284.26 6.81531e-11 3.30981e+07 1333.86 6.79791e-11 6.54636e-11 3.44579e+07 1.96216e+13
154.063 1493.25 2695.77 6.4485e-11 3.90634e+07 1489.31 6.43151e-11 5.56812e-11 4.52398e+07 2.31565e+13
162.808 1679.96 3181.42 6.14735e-11 4.61057e+07 1675.34 6.13045e-11 4.73556e-11 5.98509e+07 2.73282e+13
172.051 1901.55 3754.56 5.89602e-11 5.44046e+07 1896.23 5.87951e-11 4.02708e-11 7.96533e+07 3.22515e+13
181.818 2166.91 4430.96 5.69317e-11 6.42064e+07 2160.64 5.67669e-11 3.42426e-11 1.06749e+08 3.80616e+13
192.139 2482.14 5229.21 5.52586e-11 7.57748e+07 2474.77 5.50946e-11 2.91139e-11 1.43822e+08 4.49186e+13
203.046 2860.49 6171.26 5.39606e-11 8.94213e+07 2851.83 5.37972e-11 2.4751e-11 1.94951e+08 5.30108e+13
214.572 3312.57 7283.03 5.29497e-11 1.05538e+08 3302.28 5.27852e-11 2.10401e-11 2.65599e+08 6.25608e+13
226.753 3855.2 8595.09 5.22163e-11 1.24552e+08 3842.89 5.20496e-11 1.78839e-11 3.63658e+08 7.38313e+13
239.625 4509.59 10143.5 5.17558e-11 1.46987e+08 4494.92 5.15873e-11 1.51999e-11 5.00492e+08 8.71322e+13
253.228 5296.46 11970.9 5.15073e-11 1.7347e+08 5278.9 5.13366e-11 1.29176e-11 6.91688e+08 1.02829e+14
267.603 6249.88 14127.5 5.15011e-11 2.04703e+08 6228.83 5.13276e-11 1.09771e-11 9.60398e+08 1.21354e+14
282.795 7413.12 16672.6 5.17616e-11 2.4161e+08 7387.57 5.15832e-11 9.3274e-12 1.34079e+09 1.43217e+14
298.848 8841.08 19676.2 5.23087e-11 2.85122e+08 8809.9 5.21242e-11 7.925e-12 1.88194e+09 1.69017e+14
315.813 10616.5 23220.9 5.32244e-11 3.36491e+08 10577.8 5.30307e-11 6.73295e-12 2.65998e+09 1.99466e+14
333.741 12864.2 27404.3 5.46481e-11 3.97115e+08 12815.7 5.4442e-11 5.71979e-12 3.79412e+09 2.35401e+14
352.686 15771.1 32341.2 5.67696e-11 4.68637e+08 15708.6 5.65448e-11 4.85874e-12 5.47557e+09 2.77809e+14
372.707 19642 38167.6 5.99102e-11 5.53074e+08 19559.4 5.96582e-11 4.12703e-12 8.02873e+09 3.27857e+14
393.865 25001.3 45043.5 6.46161e-11 6.52716e+08 24887.6 6.43223e-11 3.50528e-12 1.20321e+10 3.86921e+14
416.224 29508.3 53158.3 6.46224e-11 2.2184e+08 31217 6.83645e-11 2.97701e-12 4.81551e+09 4.56626e+14
439.852 0 62734.9 0 0 0 0 2.52819e-12 0 5.38888e+14
464.821 0 74036.7 0 0 0 0 2.1469e-12 0 6.35971e+14
491.207 0 87374.6 0 0 0 0 1.82301e-12 0 7.50542e+14
519.092 0 103115 0 0 0 0 1.54789e-12 0 8.85755e+14
548.56 0 121692 0 0 0 0 1.31422e-12 0 1.04533e+15
579.7 0 143615 0 0 0 0 1.11576e-12 0 1.23364e+15
612.608 0 169488 0 0 0 0 9.47223e-13 0 1.45589e+15
647.384 0 200021 0 0 0 0 8.041e-13 0 1.71817e+15
684.134 0 236056 0 0 0 0 6.82568e-13 0 2.0277e+15
722.971 0 278582 0 0 0 0 5.79376e-13 0 2.393e+15
764.012 0 328769 0 0 0 0 4.91762e-13 0 2.8241e+15
0.923127
200
1.0655e+09
8589934592
0.0129181 0.0018527 1.58924e-09 0.000135714 6 0.00183574 0.000134472 0.00677225 0.120239 13.6515
0.0136515 0 1.87554e-09 0 0 0 0 0.00688819 0 16.1108
0.0144264 0 2.21343e-09 0 0 0 0 0.00699249 0 19.0132
0.0152454 0 2.61218e-09 0 0 0 0 0.00708412 0 22.4385
0.0161108 0 3.08278e-09 0 0 0 0 0.00716212 0 26.4808
0.0170254 0 3.63815e-09 0 0 0 0 0.00722559 0 31.2514
0.0179919 0.00415335 4.29357e-09 0.000112614 12 0.004148 0.000112468 0.00727371 0.185787 36.8815
0.0190132 0 5.06707e-09 0 0 0 0 0.00730578 0 43.5258
0.0200925 0 5.97991e-09 0 0 0 0 0.00732122 0 51.367
0.0212331 0.00394998 7.05721e-09 6.51587e-05 8 0.00394654 6.5102e-05 0.00731958 0.0712158 60.621
0.0224385 0 8.32858e-09 0 0 0 0 0.00730056 0 71.542
0.0237123 0 9.829e-09 0 0 0 0 0.00726401 0 84.4305
0.0250583 0.0249799 1.15997e-08 0.000250699 6 0.0249681 0.000250581 0.00720995 0.208628 99.6408
0.0264808 0 1.36894e-08 0 0 0 0 0.00713857 0 117.591
0.0279841 0.015435 1.61556e-08 0.000111223 24 0.0154192 0.000111109 0.00705021 0.37862 138.776
0.0295727 0 1.90661e-08 0 0 0 0 0.00694538 0 163.777
0.0312514 0.0274607 2.25009e-08 0.000142076 24 0.0276002 0.000142798 0.00682475 0.499627 193.281
0.0330255 0 2.65545e-08 0 0 0 0 0.00668915 0 228.102
0.0349003 0.0421082 3.13384e-08 0.000156423 12 0.041771 0.00015517 0.00653951 0.287036 269.195
0.0368815 0.0336481 3.69841e-08 0.000105914 30 0.0332898 0.000104787 0.00637693 0.49827 317.691
0.0389751 0.0380918 4.36469e-08 0.000101599 24 0.0376999 0.000100554 0.00620256 0.393123 374.924
0.0411876 0.0245087 5.151e-08 5.53909e-05 24 0.0243422 5.50148e-05 0.00601767 0.220913 442.467
0.0435258 0.0612872 6.07896e-08 0.000117368 8 0.0612825 0.000117359 0.00582358 0.161232 522.179
0.0459966 0.0752435 7.1741e-08 0.000122099 72 0.0746497 0.000121135 0.00562166 1.56379 616.251
0.0486077 0 8.46654e-08 0 0 0 0 0.0054133 0 727.27
0.051367 0.103094 9.99181e-08 0.000120116 54 0.102751 0.000119716 0.00519989 1.24738 858.29
0.054283 0.0835728 1.17919e-07 8.25074e-05 60 0.0839542 8.28839e-05 0.0049828 0.993506 1012.91
0.0573645 0.0778265 1.39162e-07 6.51054e-05 96 0.0776266 6.49382e-05 0.00476339 1.31212 1195.39
0.060621 0.0927073 1.64232e-07 6.57151e-05 24 0.0914513 6.48248e-05 0.00454293 0.347169 1410.75
0.0640622 0.15864 1.93819e-07 9.52855e-05 134 0.15871 9.53274e-05 0.00432265 2.9538 1664.89
0.0676989 0.15546 2.28736e-07 7.91215e-05 120 0.154697 7.87331e-05 0.00410371 2.31366 1964.83
0.071542 0.146669 2.69944e-07 6.32522e-05 108 0.145043 6.25511e-05 0.00388717 1.75738 2318.8
0.0756032 0.217114 3.18575e-07 7.93389e-05 174 0.215905 7.88972e-05 0.00367401 3.75747 2736.54
0.079895 0.227033 3.75967e-07 7.02989e-05 168 0.224897 6.96377e-05 0.0034651 3.40834 3229.53
0.0844305 0.189047 4.43698e-07 4.96013e-05 168 0.189982 4.98466e-05 0.00326121 2.55519 3811.34
0.0892234 0.228461 5.23632e-07 5.0792e-05 290 0.227373 5.05503e-05 0.00306301 4.80889 4497.96
0.0942883 0.274549 6.17966e-07 5.17208e-05 288 0.273961 5.16101e-05 0.00287109 5.18813 5308.28
0.0996408 0.247363 7.29294e-07 3.94859e-05 366 0.245473 3.91843e-05 0.00268591 5.38061 6264.59
0.105297 0.293218 8.60678e-07 3.96606e-05 420 0.29111 3.93755e-05 0.00250785 6.64212 7393.17
0.111275 0.314222 1.01573e-06 3.60137e-05 398 0.313353 3.59141e-05 0.00233721 6.13272 8725.07
0.117591 0.373367 1.19872e-06 3.62601e-05 624 0.374436 3.63639e-05 0.00217419 10.4068 10296.9
0.124267 0.434715 1.41467e-06 3.57734e-05 642 0.43372 3.56915e-05 0.00201893 11.3756 12151.9
0.131321 0.50793 1.66953e-06 3.54177e-05 800 0.508037 3.54252e-05 0.00187147 15.1401 14341.1
0.138776 0.470888 1.9703e-06 2.78225e-05 858 0.472873 2.79398e-05 0.00173182 13.7842 16924.7
0.146654 0.55059 2.32525e-06 2.75657e-05 1080 0.555147 2.77938e-05 0.00159991 18.6079 19973.8
0.154979 0.642102 2.74415e-06 2.72399e-05 1286 0.646106 2.74098e-05 0.00147563 23.7393 23572.1
0.163777 0.633255 3.23852e-06 2.27637e-05 1650 0.635074 2.28291e-05 0.00135884 27.6413 27818.7
0.173074 0.706262 3.82195e-06 2.15125e-05 1778 0.706819 2.15295e-05 0.00124933 30.6158 32830.3
0.182899 0.768059 4.51048e-06 1.98236e-05 2112 0.7698 1.98685e-05 0.00114689 36.5051 38744.7
0.193281 0.845733 5.32305e-06 1.84962e-05 2570 0.846353 1.85098e-05 0.00105127 45.2169 45724.7
0.204254 0.990387 6.28202e-06 1.83534e-05 3030 0.989721 1.8341e-05 0.000962209 57.7948 53962.1
0.215848 1.03561 7.41374e-06 1.62619e-05 3434 1.03518 1.62551e-05 0.000879423 63.5 63683.5
0.228102 1.10439 8.74934e-06 1.46945e-05 4218 1.10362 1.46844e-05 0.000802624 77.2236 75156.3
0.24105 1.23187 1.03256e-05 1.38887e-05 4766 1.23262 1.38971e-05 0.000731515 90.488 88695.9
0.254734 1.34419 1.21857e-05 1.28416e-05 6026 1.34414 1.28411e-05 0.000665798 116.226 104675
0.269195 1.53881 1.4381e-05 1.24568e-05 6480 1.53742 1.24455e-05 0.000605173 133.383 123532
0.284476 1.65952 1.69718e-05 1.13832e-05 8162 1.66233 1.14024e-05 0.000549345 169.128 145787
0.300625 1.84056 2.00293e-05 1.06978e-05 9578 1.84113 1.07011e-05 0.000498021 205.742 172051
0.317691 2.05065 2.36377e-05 1.00994e-05 11234 2.049 1.00913e-05 0.000450916 251.614 203046
0.335725 2.20401 2.78961e-05 9.19774e-06 13344 2.19997 9.18087e-06 0.000407755 301.001 239625
0.354784 2.49659 3.29216e-05 8.82829e-06 15464 2.49497 8.82257e-06 0.000368269 370.709 282795
0.374924 2.70941 3.88525e-05 8.11831e-06 18458 2.7066 8.10988e-06 0.000332202 451.074 333741
0.396207 3.14237 4.58519e-05 7.9783e-06 22232 3.13709 7.96488e-06 0.000299307 592.614 393865
0.418699 3.38242 5.41123e-05 7.27683e-06 25628 3.37412 7.25896e-06 0.00026935 692.373 464821
0.442467 3.7152 6.38607e-05 6.77265e-06 30320 3.70879 6.76095e-06 0.000242108 848.162 548560
0.467585 4.21108 7.53654e-05 6.50476e-06 35452 4.20326 6.49268e-06 0.00021737 1060.89 647384
0.494129 4.67479 8.89427e-05 6.11874e-06 41792 4.66935 6.11162e-06 0.000194938 1311.77 764012
0.522179 5.26734 0.000104966 5.84189e-06 49988 5.26648 5.84093e-06 0.000174625 1672.3 901651
0.551822 5.90814 0.000123876 5.55231e-06 59110 5.90015 5.54481e-06 0.000156255 2100.4 1.06409e+06
0.583147 6.58939 0.000146192 5.24723e-06 69716 6.57886 5.23885e-06 0.000139664 2619.26 1.25578e+06
0.616251 7.38253 0.000172529 4.98141e-06 82210 7.36794 4.97157e-06 0.0001247 3284.06 1.48202e+06
0.651234 8.14399 0.000203611 4.65635e-06 96722 8.12605 4.6461e-06 0.00011122 4049.36 1.74901e+06
0.688203 9.25981 0.000240292 4.48614e-06 113098 9.24466 4.4788e-06 9.90935e-05 5120.15 2.06409e+06
0.72727 10.3948 0.000283581 4.26724e-06 135190 10.3793 4.26087e-06 8.81969e-05 6540.91 2.43595e+06
0.768555 11.6128 0.000334669 4.03953e-06 158170 11.5936 4.03286e-06 7.84179e-05 8147.79 2.87479e+06
0.812184 13.0393 0.000394961 3.84336e-06 188560 13.0182 3.83713e-06 6.96525e-05 10404.6 3.39269e+06
0.85829 14.5924 0.000466114 3.64456e-06 220444 14.5682 3.6385e-06 6.1805e-05 12999.3 4.00389e+06
0.907013 16.3023 0.000550086 3.45007e-06 261388 16.2747 3.44424e-06 5.47875e-05 16460.1 4.7252e+06
0.958501 18.2752 0.000649185 3.27721e-06 308244 18.2467 3.27209e-06 4.85194e-05 20820.1 5.57646e+06
1.01291 20.4978 0.000766138 3.11465e-06 364396 20.4625 3.10929e-06 4.29272e-05 26439.4 6.58107e+06
1.07041 22.8219 0.00090416 2.93845e-06 429162 22.7801 2.93306e-06 3.79435e-05 33235.5 7.76667e+06
1.13118 25.4584 0.00106705 2.77753e-06 506358 25.4144 2.77273e-06 3.3507e-05 41974 9.16586e+06
1.19539 28.4483 0.00125928 2.62994e-06 598590 28.3953 2.62503e-06 2.9562e-05 53252.6 1.08171e+07
1.26325 31.586 0.00148614 2.47426e-06 704844 31.5305 2.46991e-06 2.60578e-05 66926.9 1.27658e+07
1.33496 35.0803 0.00175387 2.32849e-06 834620 35.0121 2.32397e-06 2.29484e-05 84685.8 1.50656e+07
1.41075 38.8962 0.00206984 2.18767e-06 981444 38.8232 2.18356e-06 2.01923e-05 106331 1.77798e+07
1.49083 42.9182 0.00244272 2.04539e-06 1.15998e+06 42.8404 2.04169e-06 1.77518e-05 133655 2.09828e+07
1.57546 47.3459 0.00288279 1.91197e-06 1.36931e+06 47.2605 1.90852e-06 1.55929e-05 167902 2.4763e+07
1.66489 52.1134 0.00340213 1.78324e-06 1.61652e+06 52.0182 1.77998e-06 1.3685e-05 210641 2.92241e+07
1.75941 57.2926 0.00401503 1.66119e-06 1.90601e+06 57.1862 1.65811e-06 1.20007e-05 263838 3.44889e+07
1.85928 62.8164 0.00473835 1.54332e-06 2.24913e+06 62.7001 1.54046e-06 1.05151e-05 330108 4.07021e+07
1.96483 68.5264 0.00559198 1.4266e-06 2.65744e+06 68.4027 1.42403e-06 9.20606e-06 411806 4.80347e+07
2.07637 74.6122 0.00659939 1.31618e-06 3.13125e+06 74.4819 1.31389e-06 8.05366e-06 511731 5.66883e+07
2.19424 81.4209 0.00778828 1.21704e-06 3.69915e+06 81.2745 1.21485e-06 7.04008e-06 639483 6.69008e+07
2.3188 88.3038 0.00919136 1.11843e-06 4.36472e+06 88.1514 1.1165e-06 6.1494e-06 793841 7.89532e+07
2.45043 95.87 0.0108472 1.0289e-06 5.14913e+06 95.7009 1.02709e-06 5.36741e-06 987061 9.31768e+07
2.58954 103.673 0.0128014 9.428e-07 6.07894e+06 103.502 9.41243e-07 4.68145e-06 1.22424e+06 1.09963e+08
2.73654 112.177 0.0151076 8.64406e-07 7.17304e+06 111.984 8.62919e-07 4.08023e-06 1.51962e+06 1.29773e+08
2.89188 120.996 0.0178292 7.90041e-07 8.46557e+06 120.795 7.88726e-07 3.55373e-06 1.88201e+06 1.53152e+08
3.05605 130.317 0.0210412 7.2101e-07 9.98773e+06 130.099 7.19803e-07 3.09304e-06 2.32821e+06 1.80743e+08
3.22953 140.154 0.0248319 6.57062e-07 1.1797e+07 139.92 6.55966e-07 2.69025e-06 2.88128e+06 2.13304e+08
3.41286 150.565 0.0293054 5.98116e-07 1.39144e+07 150.307 5.97093e-07 2.33837e-06 3.55906e+06 2.51731e+08
3.6066 161.574 0.0345848 5.4387e-07 1.64163e+07 161.299 5.42945e-07 2.0312e-06 4.39559e+06 2.97081e+08
3.81134 173.285 0.0408154 4.9425e-07 1.93821e+07 173.002 4.93442e-07 1.76327e-06 5.43289e+06 3.50601e+08
4.0277 185.557 0.0481684 4.48462e-07 2.28754e+07 185.247 4.47712e-07 1.52972e-06 6.70628e+06 4.13763e+08
4.25634 198.331 0.056846 4.06164e-07 2.69929e+07 197.998 4.05481e-07 1.32631e-06 8.26621e+06 4.88304e+08
4.49796 211.842 0.067087 3.67607e-07 3.18542e+07 211.489 3.66995e-07 1.14926e-06 1.0189e+07 5.76273e+08
4.7533 226.31 0.0791729 3.32764e-07 3.75892e+07 225.931 3.32208e-07 9.95263e-07 1.25679e+07 6.8009e+08
5.02313 241.227 0.0934361 3.00553e-07 4.43706e+07 240.825 3.00053e-07 8.61414e-07 1.54812e+07 8.0261e+08
5.30828 257.077 0.110269 2.71407e-07 5.23593e+07 256.644 2.7095e-07 7.45152e-07 1.90708e+07 9.47202e+08
5.60962 273.844 0.130134 2.44975e-07 6.1787e+07 273.392 2.44571e-07 6.44232e-07 2.34951e+07 1.11784e+09
5.92807 291.445 0.153578 2.20922e-07 7.29346e+07 290.96 2.20553e-07 5.56685e-07 2.89442e+07 1.31923e+09
6.26459 309.573 0.181246 1.98841e-07 8.60651e+07 309.055 1.98508e-07 4.80786e-07 3.55943e+07 1.55689e+09
6.62021 328.769 0.213898 1.78935e-07 1.01558e+08 328.224 1.78638e-07 4.15026e-07 4.37859e+07 1.83737e+09
6.99602 348.728 0.252432 1.60825e-07 1.1986e+08 348.153 1.6056e-07 3.58083e-07 5.38324e+07 2.16837e+09
7.39317 369.733 0.297908 1.44483e-07 1.41457e+08 369.118 1.44242e-07 3.08803e-07 6.61848e+07 2.55901e+09
7.81286 391.873 0.351577 1.29758e-07 1.66936e+08 391.23 1.29546e-07 2.66181e-07 8.13782e+07 3.02002e+09
8.25637 415.19 0.414914 1.16493e-07 1.97025e+08 414.499 1.16299e-07 2.29336e-07 1.0008e+08 3.56409e+09
8.72507 439.767 0.489662 1.04553e-07 2.32497e+08 439.032 1.04378e-07 1.97503e-07 1.23078e+08 4.20617e+09
9.22037 465.967 0.577876 9.38708e-08 2.74404e+08 465.176 9.37115e-08 1.70014e-07 1.51508e+08 4.96392e+09
9.74378 494.513 0.681982 8.4414e-08 3.2382e+08 493.657 8.42679e-08 1.46289e-07 1.86856e+08 5.85818e+09
10.2969 526.816 0.804843 7.62005e-08 3.82165e+08 525.879 7.6065e-08 1.25822e-07 2.31446e+08 6.91355e+09
10.8814 564.805 0.949838 6.92245e-08 4.51027e+08 563.727 6.90922e-08 1.08175e-07 2.88624e+08 8.15905e+09
11.4992 613.238 1.12095 6.36871e-08 5.32251e+08 611.932 6.35515e-08 9.29669e-08 3.6462e+08 9.62892e+09
12.1519 681.629 1.3229 5.99835e-08 6.28157e+08 679.917 5.98329e-08 7.98658e-08 4.7178e+08 1.13636e+10
12.8418 758.322 1.56122 5.65457e-08 3.82727e+08 784.887 5.85265e-08 6.85852e-08 3.15543e+08 1.34108e+10
13.5708 0 1.84248 0 0 0 0 5.88765e-08 0 1.58268e+10
14.3411 0 2.17441 0 0 0 0 5.05241e-08 0 1.8678e+10
15.1552 0 2.56613 0 0 0 0 4.33417e-08 0 2.20429e+10
16.0156 0 3.02843 0 0 0 0 3.71677e-08 0 2.6014e+10
16.9247 0 3.574 0 0 0 0 3.18628e-08 0 3.07005e+10
17.8855 0 4.21787 0 0 0 0 2.73063e-08 0 3.62312e+10
18.9008 0 4.97773 0 0 0 0 2.33941e-08 0 4.27584e+10
19.9738 0 5.87448 0 0 0 0 2.00364e-08 0 5.04614e+10
21.1076 0 6.93279 0 0 0 0 1.71555e-08 0 5.95522e+10
22.3058 0 8.18175 0 0 0 0 1.46847e-08 0 7.02807e+10
23.5721 0 9.65571 0 0 0 0 1.25662e-08 0 8.29419e+10
24.9102 0 11.3952 0 0 0 0 1.07504e-08 0 9.78842e+10
26.3243 0 13.4481 0 0 0 0 9.19452e-09 0 1.15518e+11
27.8187 0 15.8708 0 0 0 0 7.86182e-09 0 1.36329e+11
29.3979 0 18.73 0 0 0 0 6.72061e-09 0 1.60889e+11
31.0667 0 22.1042 0 0 0 0 5.74366e-09 0 1.89874e+11
32.8303 0 26.0864 0 0 0 0 4.90756e-09 0 2.2408e+11
34.694 0 30.7859 0 0 0 0 4.19221e-09 0 2.64449e+11
36.6634 0 36.3321 0 0 0 0 3.58032e-09 0 3.1209e+11
38.7447 0 42.8774 0 0 0 0 3.05709e-09 0 3.68314e+11
40.9442 0 50.6018 0 0 0 0 2.60976e-09 0 4.34667e+11
43.2685 0 59.7179 0 0 0 0 2.22743e-09 0 5.12973e+11
45.7247 0 70.4762 0 0 0 0 1.90073e-09 0 6.05386e+11
48.3204 0 83.1727 0 0 0 0 1.62163e-09 0 7.14448e+11
51.0634 0 98.1565 0 0 0 0 1.38326e-09 0 8.43158e+11
53.9621 0 115.84 0 0 0 0 1.1797e-09 0 9.95055e+11
57.0254 0 136.709 0 0 0 0 1.00592e-09 0 1.17432e+12
60.2626 0 161.337 0 0 0 0 8.57591e-10 0 1.38587e+12
63.6835 0 190.402 0 0 0 0 7.3101e-10 0 1.63554e+12
67.2987 0 224.704 0 0 0 0 6.23009e-10 0 1.93019e+12
71.1191 0 265.185 0 0 0 0 5.30879e-10 0 2.27792e+12
75.1563 0 312.958 0 0 0 0 4.52303e-10 0 2.68829e+12
79.4227 0 369.339 0 0 0 0 3.85299e-10 0 3.17259e+12
83.9313 0 435.876 0 0 0 0 3.28173e-10 0 3.74415e+12
88.6959 0 514.4 0 0 0 0 2.79476e-10 0 4.41866e+12
93.7309 0 607.071 0 0 0 0 2.37972e-10 0 5.2147e+12
99.0518 0 716.436 0 0 0 0 2.02605e-10 0 6.15414e+12
104.675 0 845.504 0 0 0 0 1.72471e-10 0 7.26283e+12
110.617 0 997.824 0 0 0 0 1.468e-10 0 8.57124e+12
116.896 0 1177.58 0 0 0 0 1.24935e-10 0 1.01154e+13
123.532 0 1389.73 0 0 0 0 1.06313e-10 0 1.19377e+13
130.545 0 1640.09 0 0 0 0 9.04567e-11 0 1.40883e+13
137.955 0 1935.56 0 0 0 0 7.69563e-11 0 1.66263e+13
145.787 0 2284.26 0 0 0 0 6.54636e-11 0 1.96216e+13
154.063 0 2695.77 0 0 0 0 5.56812e-11 0 2.31565e+13
162.808 0 3181.42 0 0 0 0 4.73556e-11 0 2.73282e+13
172.051 0 3754.56 0 0 0 0 4.02708e-11 0 3.22515e+13
181.818 0 4430.96 0 0 0 0 3.42426e-11 0 3.80616e+13
192.139 0 5229.21 0 0 0 0 2.91139e-11 0 4.49186e+13
203.046 0 6171.26 0 0 0 0 2.4751e-11 0 5.30108e+13
214.572 0 7283.03 0 0 0 0 2.10401e-11 0 6.25608e+13
226.753 0 8595.09 0 0 0 0 1.78839e-11 0 7.38313e+13
239.625 0 10143.5 0 0 0 0 1.51999e-11 0 8.71322e+13
253.228 0 11970.9 0 0 0 0 1.29176e-11 0 1.02829e+14
267.603 0 14127.5 0 0 0 0 1.09771e-11 0 1.21354e+14
282.795 0 16672.6 0 0 0 0 9.3274e-12 0 1.43217e+14
298.848 0 19676.2 0 0 0 0 7.925e-12 0 1.69017e+14
315.813 0 23220.9 0 0 0 0 6.73295e-12 0 1.99466e+14
333.741 0 27404.3 0 0 0 0 5.71979e-12 0 2.35401e+14
352.686 0 32341.2 0 0 0 0 4.85874e-12 0 2.77809e+14
372.707 0 38167.6 0 0 0 0 4.12703e-12 0 3.27857e+14
393.865 0 45043.5 0 0 0 0 3.50528e-12 0 3.86921e+14
416.224 0 53158.3 0 0 0 0 2.97701e-12 0 4.56626e+14
439.852 0 62734.9 0 0 0 0 2.52819e-12 0 5.38888e+14
464.821 0 74036.7 0 0 0 0 2.1469e-12 0 6.35971e+14
491.207 0 87374.6 0 0 0 0 1.82301e-12 0 7.50542e+14
519.092 0 103115 0 0 0 0 1.54789e-12 0 8.85755e+14
548.56 0 121692 0 0 0 0 1.31422e-12 0 1.04533e+15
579.7 0 143615 0 0 0 0 1.11576e-12 0 1.23364e+15
612.608 0 169488 0 0 0 0 9.47223e-13 0 1.45589e+15
647.384 0 200021 0 0 0 0 8.041e-13 0 1.71817e+15
684.134 0 236056 0 0 0 0 6.82568e-13 0 2.0277e+15
722.971 0 278582 0 0 0 0 5.79376e-13 0 2.393e+15
764.012 0 328769 0 0 0 0 4.91762e-13 0 2.8241e+15
