0.0610242
200
1.0655e+09
8589934592
0.0129181 0 1.58924e-09 0 0 0 0 0.00677225 0 13.6515
0.0136515 0 1.87554e-09 0 0 0 0 0.00688819 0 16.1108
0.0144264 0 2.21343e-09 0 0 0 0 0.00699249 0 19.0132
0.0152454 0 2.61218e-09 0 0 0 0 0.00708412 0 22.4385
0.0161108 0 3.08278e-09 0 0 0 0 0.00716212 0 26.4808
0.0170254 0 3.63815e-09 0 0 0 0 0.00722559 0 31.2514
0.0179919 0 4.29357e-09 0 0 0 0 0.00727371 0 36.8815
0.0190132 0 5.06707e-09 0 0 0 0 0.00730578 0 43.5258
0.0200925 0 5.97991e-09 0 0 0 0 0.00732122 0 51.367
0.0212331 0 7.05721e-09 0 0 0 0 0.00731958 0 60.621
0.0224385 0 8.32858e-09 0 0 0 0 0.00730056 0 71.542
0.0237123 0 9.829e-09 0 0 0 0 0.00726401 0 84.4305
0.0250583 0 1.15997e-08 0 0 0 0 0.00720995 0 99.6408
0.0264808 0 1.36894e-08 0 0 0 0 0.00713857 0 117.591
0.0279841 0 1.61556e-08 0 0 0 0 0.00705021 0 138.776
0.0295727 0 1.90661e-08 0 0 0 0 0.00694538 0 163.777
0.0312514 0 2.25009e-08 0 0 0 0 0.00682475 0 193.281
0.0330255 0 2.65545e-08 0 0 0 0 0.00668915 0 228.102
0.0349003 0 3.13384e-08 0 0 0 0 0.00653951 0 269.195
0.0368815 0 3.69841e-08 0 0 0 0 0.00637693 0 317.691
0.0389751 0 4.36469e-08 0 0 0 0 0.00620256 0 374.924
0.0411876 0 5.151e-08 0 0 0 0 0.00601767 0 442.467
0.0435258 0 6.07896e-08 0 0 0 0 0.00582358 0 522.179
0.0459966 0 7.1741e-08 0 0 0 0 0.00562166 0 616.251
0.0486077 0 8.46654e-08 0 0 0 0 0.0054133 0 727.27
0.051367 0 9.99181e-08 0 0 0 0 0.00519989 0 858.29
0.054283 0 1.17919e-07 0 0 0 0 0.0049828 0 1012.91
0.0573645 0 1.39162e-07 0 0 0 0 0.00476339 0 1195.39
0.060621 0 1.64232e-07 0 0 0 0 0.00454293 0 1410.75
0.0640622 0 1.93819e-07 0 0 0 0 0.00432265 0 1664.89
0.0676989 0 2.28736e-07 0 0 0 0 0.00410371 0 1964.83
0.071542 0 2.69944e-07 0 0 0 0 0.00388717 0 2318.8
0.0756032 0 3.18575e-07 0 0 0 0 0.00367401 0 2736.54
0.079895 0 3.75967e-07 0 0 0 0 0.0034651 0 3229.53
0.0844305 0 4.43698e-07 0 0 0 0 0.00326121 0 3811.34
0.0892234 0 5.23632e-07 0 0 0 0 0.00306301 0 4497.96
0.0942883 0 6.17966e-07 0 0 0 0 0.00287109 0 5308.28
0.0996408 0 7.29294e-07 0 0 0 0 0.00268591 0 6264.59
0.105297 0 8.60678e-07 0 0 0 0 0.00250785 0 7393.17
0.111275 0 1.01573e-06 0 0 0 0 0.00233721 0 8725.07
0.117591 0 1.19872e-06 0 0 0 0 0.00217419 0 10296.9
0.124267 0 1.41467e-06 0 0 0 0 0.00201893 0 12151.9
0.131321 0 1.66953e-06 0 0 0 0 0.00187147 0 14341.1
0.138776 0 1.9703e-06 0 0 0 0 0.00173182 0 16924.7
0.146654 0 2.32525e-06 0 0 0 0 0.00159991 0 19973.8
0.154979 0 2.74415e-06 0 0 0 0 0.00147563 0 23572.1
0.163777 0 3.23852e-06 0 0 0 0 0.00135884 0 27818.7
0.173074 0 3.82195e-06 0 0 0 0 0.00124933 0 32830.3
0.182899 0 4.51048e-06 0 0 0 0 0.00114689 0 38744.7
0.193281 0 5.32305e-06 0 0 0 0 0.00105127 0 45724.7
0.204254 0 6.28202e-06 0 0 0 0 0.000962209 0 53962.1
0.215848 0 7.41374e-06 0 0 0 0 0.000879423 0 63683.5
0.228102 0 8.74934e-06 0 0 0 0 0.000802624 0 75156.3
0.24105 0 1.03256e-05 0 0 0 0 0.000731515 0 88695.9
0.254734 0 1.21857e-05 0 0 0 0 0.000665798 0 104675
0.269195 0 1.4381e-05 0 0 0 0 0.000605173 0 123532
0.284476 0 1.69718e-05 0 0 0 0 0.000549345 0 145787
0.300625 0 2.00293e-05 0 0 0 0 0.000498021 0 172051
0.317691 0 2.36377e-05 0 0 0 0 0.000450916 0 203046
0.335725 0 2.78961e-05 0 0 0 0 0.000407755 0 239625
0.354784 0 3.29216e-05 0 0 0 0 0.000368269 0 282795
0.374924 0 3.88525e-05 0 0 0 0 0.000332202 0 333741
0.396207 0.259427 4.58519e-05 6.58671e-07 6 0.252215 6.40359e-07 0.000299307 0.0132039 393865
0.418699 0 5.41123e-05 0 0 0 0 0.00026935 0 464821
0.442467 0 6.38607e-05 0 0 0 0 0.000242108 0 548560
0.467585 0 7.53654e-05 0 0 0 0 0.00021737 0 647384
0.494129 0 8.89427e-05 0 0 0 0 0.000194938 0 764012
0.522179 0 0.000104966 0 0 0 0 0.000174625 0 901651
0.551822 0 0.000123876 0 0 0 0 0.000156255 0 1.06409e+06
0.583147 4.57027 0.000146192 3.63938e-06 12 4.81023 3.83046e-06 0.000139664 0.312697 1.25578e+06
0.616251 0 0.000172529 0 0 0 0 0.0001247 0 1.48202e+06
0.651234 0 0.000203611 0 0 0 0 0.00011122 0 1.74901e+06
0.688203 26.3877 0.000240292 1.27842e-05 8 25.7313 1.24661e-05 9.90935e-05 1.03209 2.06409e+06
0.72727 0 0.000283581 0 0 0 0 8.81969e-05 0 2.43595e+06
0.768555 0 0.000334669 0 0 0 0 7.84179e-05 0 2.87479e+06
0.812184 0.0937819 0.000394961 2.76424e-08 6 0.095787 2.82333e-08 6.96525e-05 0.00238116 3.39269e+06
0.85829 0 0.000466114 0 0 0 0 6.1805e-05 0 4.00389e+06
0.907013 0.156654 0.000550086 3.31529e-08 24 0.15966 3.3789e-08 5.47875e-05 0.0145228 4.7252e+06
0.958501 0.67562 0.000649185 1.21156e-07 24 0.636047 1.14059e-07 4.85194e-05 0.0599294 5.57646e+06
1.01291 0 0.000766138 0 0 0 0 4.29272e-05 0 6.58107e+06
1.07041 0 0.00090416 0 0 0 0 3.79435e-05 0 7.76667e+06
1.13118 1.2159 0.00106705 1.32655e-07 12 1.20096 1.31026e-07 3.3507e-05 0.0475083 9.16586e+06
1.19539 0.55207 0.00125928 5.10367e-08 30 0.540689 4.99846e-08 2.9562e-05 0.0517929 1.08171e+07
1.26325 5.51208 0.00148614 4.31783e-07 24 5.42914 4.25286e-07 2.60578e-05 0.397685 1.27658e+07
1.33496 20.0357 0.00175387 1.3299e-06 24 20.0798 1.33282e-06 2.29484e-05 1.39083 1.50656e+07
1.41075 5.38469 0.00206984 3.02855e-07 32 5.54085 3.11638e-07 2.01923e-05 0.479953 1.77798e+07
1.49083 0.284056 0.00244272 1.35375e-08 48 0.278 1.32489e-08 1.77518e-05 0.0366049 2.09828e+07
1.57546 0.0281747 0.00288279 1.13778e-09 6 0.0268287 1.08342e-09 1.55929e-05 0.000437807 2.4763e+07
1.66489 0.386012 0.00340213 1.32087e-08 84 0.373881 1.27936e-08 1.3685e-05 0.0810763 2.92241e+07
1.75941 2.40124 0.00401503 6.96235e-08 48 2.42119 7.02021e-08 1.20007e-05 0.278478 3.44889e+07
1.85928 0.167585 0.00473835 4.11735e-09 72 0.168737 4.14567e-09 1.05151e-05 0.0281927 4.07021e+07
1.96483 0.645123 0.00559198 1.34304e-08 54 0.634895 1.32174e-08 9.20606e-06 0.0787785 4.80347e+07
2.07637 8.3511 0.00659939 1.47316e-07 104 8.31474 1.46675e-07 8.05366e-06 1.90235 5.66883e+07
2.19424 0.195297 0.00778828 2.9192e-09 120 0.196468 2.9367e-09 7.04008e-06 0.0497586 6.69008e+07
2.3188 1.67939 0.00919136 2.12707e-08 156 1.5928 2.01739e-08 6.1494e-06 0.539603 7.89532e+07
2.45043 0.472663 0.0108472 5.07275e-09 126 0.472011 5.06575e-09 5.36741e-06 0.119083 9.31768e+07
2.58954 0.471107 0.0128014 4.28424e-09 192 0.479496 4.36052e-09 4.68145e-06 0.175709 1.09963e+08
2.73654 3.82545 0.0151076 2.9478e-08 152 3.9674 3.05719e-08 4.08023e-06 1.09814 1.29773e+08
2.89188 3.50334 0.0178292 2.28749e-08 378 3.58158 2.33858e-08 3.55373e-06 2.43314 1.53152e+08
3.05605 1.21713 0.0210412 6.73403e-09 264 1.19454 6.60906e-09 3.09304e-06 0.574769 1.80743e+08
3.22953 0.149186 0.0248319 6.99407e-10 366 0.145797 6.83519e-10 2.69025e-06 0.0951519 2.13304e+08
3.41286 0.63922 0.0293054 2.5393e-09 428 0.606887 2.41085e-09 2.33837e-06 0.464775 2.51731e+08
3.6066 3.22131 0.0345848 1.08432e-08 486 3.10698 1.04584e-08 2.0312e-06 2.59441 2.97081e+08
3.81134 0.664281 0.0408154 1.89469e-09 600 0.65928 1.88043e-09 1.76327e-06 0.644721 3.50601e+08
4.0277 0.438001 0.0481684 1.05858e-09 738 0.431817 1.04363e-09 1.52972e-06 0.510701 4.13763e+08
4.25634 0.981352 0.056846 2.00972e-09 824 1.02363 2.09629e-09 1.32631e-06 1.24859 4.88304e+08
4.49796 2.53222 0.067087 4.39413e-09 954 2.55056 4.42595e-09 1.14926e-06 3.64758 5.76273e+08
4.7533 0.443689 0.0791729 6.52398e-10 1094 0.434054 6.3823e-10 9.95263e-07 0.71712 6.8009e+08
5.02313 0.241632 0.0934361 3.01058e-10 1332 0.240791 3.0001e-10 8.61414e-07 0.465524 8.0261e+08
5.30828 2.00078 0.110269 2.1123e-09 1614 2.02509 2.13797e-09 7.45152e-07 4.57524 9.47202e+08
5.60962 0.879477 0.130134 7.86762e-10 1850 0.848019 7.5862e-10 6.44232e-07 2.25929 1.11784e+09
5.92807 1.24706 0.153578 9.45293e-10 2238 1.18878 9.01116e-10 5.56685e-07 3.80029 1.31923e+09
6.26459 0.509366 0.181246 3.27169e-10 2546 0.518306 3.32912e-10 4.80786e-07 1.73252 1.55689e+09
6.62021 0.129004 0.213898 7.02112e-11 3264 0.129021 7.02205e-11 4.15026e-07 0.552181 1.83737e+09
6.99602 1.21045 0.252432 5.58228e-10 3506 1.25532 5.78923e-10 3.58083e-07 5.46564 2.16837e+09
7.39317 0.440214 0.297908 1.72025e-10 4506 0.447338 1.74809e-10 3.08803e-07 2.51016 2.55901e+09
7.81286 0.986052 0.351577 3.26505e-10 5018 1.02249 3.38569e-10 2.66181e-07 6.15522 3.02002e+09
8.25637 0.856714 0.414914 2.40374e-10 5852 0.818605 2.29681e-10 2.29336e-07 6.13365 3.56409e+09
8.72507 0.484202 0.489662 1.15117e-10 7362 0.478084 1.13662e-10 1.97503e-07 4.29104 4.20617e+09
9.22037 0.763887 0.577876 1.53888e-10 8306 0.753091 1.51713e-10 1.70014e-07 7.51815 4.96392e+09
9.74378 0.190241 0.681982 3.24744e-11 9698 0.19098 3.26006e-11 1.46289e-07 2.15284 5.85818e+09
10.2969 0.73669 0.804843 1.06557e-10 11816 0.752907 1.08903e-10 1.25822e-07 10.0068 6.91355e+09
10.8814 0.60047 0.949838 7.35956e-11 13682 0.601713 7.3748e-11 1.08175e-07 9.30835 8.15905e+09
11.4992 0.581074 1.12095 6.03467e-11 16152 0.56777 5.89651e-11 9.29669e-08 10.4846 9.62892e+09
12.1519 0.557825 1.3229 4.90888e-11 19472 0.541076 4.76149e-11 7.98658e-08 11.9683 1.13636e+10
12.8418 0.216056 1.56122 1.61107e-11 22670 0.220327 1.64291e-11 6.85852e-08 5.32518 1.34108e+10
13.5708 0.534728 1.84248 3.37863e-11 26224 0.545944 3.4495e-11 5.88765e-08 15.0487 1.58268e+10
14.3411 0.437459 2.17441 2.34211e-11 31640 0.446231 2.38907e-11 5.05241e-08 14.6671 1.8678e+10
15.1552 0.486413 2.56613 2.20667e-11 37484 0.493158 2.23727e-11 4.33417e-08 19.0843 2.20429e+10
16.0156 0.399131 3.02843 1.5343e-11 43856 0.40878 1.57139e-11 3.71677e-08 18.1039 2.6014e+10
16.9247 0.691705 3.574 2.25308e-11 51362 0.692921 2.25704e-11 3.18628e-08 36.319 3.07005e+10
17.8855 0.553157 4.21787 1.52674e-11 61636 0.546827 1.50927e-11 2.73063e-08 34.4617 3.62312e+10
18.9008 0.778021 4.97773 1.81958e-11 72218 0.775279 1.81316e-11 2.33941e-08 56.1705 4.27584e+10
19.9738 1.18247 5.87448 2.34331e-11 84586 1.17132 2.32122e-11 2.00364e-08 98.9256 5.04614e+10
21.1076 1.89683 6.93279 3.18516e-11 100708 1.88995 3.1736e-11 1.71555e-08 186.978 5.95522e+10
22.3058 3.58592 8.18175 5.10229e-11 118712 3.58063 5.09475e-11 1.46847e-08 412.473 7.02807e+10
23.5721 6.67389 9.65571 8.04646e-11 140410 6.63324 7.99745e-11 1.25662e-08 899.084 8.29419e+10
24.9102 7.87986 11.3952 8.05019e-11 164374 7.82648 7.99566e-11 1.07504e-08 1230.88 9.78842e+10
26.3243 9.43633 13.4481 8.1687e-11 194680 9.39207 8.13038e-11 9.19452e-09 1729.6 1.15518e+11
27.8187 8.96893 15.8708 6.57888e-11 230196 8.94239 6.55941e-11 7.86182e-09 1926.31 1.36329e+11
29.3979 9.99929 18.73 6.21502e-11 271156 9.97894 6.20237e-11 6.72061e-09 2507.57 1.60889e+11
31.0667 12.0494 22.1042 6.346e-11 321076 11.9847 6.31194e-11 5.74366e-09 3547.48 1.89874e+11
32.8303 14.8904 26.0864 6.6451e-11 377436 14.823 6.61505e-11 4.90756e-09 5110.69 2.2408e+11
34.694 18.7569 30.7859 7.09284e-11 447594 18.6775 7.06282e-11 4.19221e-09 7572.9 2.64449e+11
36.6634 21.5 36.3321 6.88905e-11 525078 21.4284 6.86608e-11 3.58032e-09 10103.2 3.1209e+11
38.7447 23.5074 42.8774 6.38244e-11 621924 23.4459 6.36575e-11 3.05709e-09 12984.2 3.68314e+11
40.9442 25.8488 50.6018 5.94682e-11 732630 25.7986 5.93527e-11 2.60976e-09 16694.3 4.34667e+11
43.2685 28.6977 59.7179 5.59439e-11 865596 28.6198 5.57921e-11 2.22743e-09 21740.2 5.12973e+11
45.7247 33.1976 70.4762 5.48371e-11 1.02168e+06 33.0819 5.46459e-11 1.90073e-09 29475.9 6.05386e+11
48.3204 40.4963 83.1727 5.66819e-11 1.20544e+06 40.3345 5.64555e-11 1.62163e-09 42134.3 7.14448e+11
51.0634 50.1414 98.1565 5.94686e-11 1.42103e+06 49.9463 5.92372e-11 1.38326e-09 61092.5 8.43158e+11
53.9621 61.2624 115.84 6.15668e-11 1.67997e+06 61.0454 6.13487e-11 1.1797e-09 87674.8 9.95055e+11
57.0254 73.0758 136.709 6.22283e-11 1.98018e+06 72.844 6.2031e-11 1.00592e-09 122498 1.17432e+12
60.2626 84.9894 161.337 6.13255e-11 2.33957e+06 84.7391 6.11449e-11 8.57591e-10 167300 1.38587e+12
63.6835 98.4889 190.402 6.02179e-11 2.75676e+06 98.1788 6.00283e-11 7.3101e-10 227092 1.63554e+12
67.2987 115.401 224.704 5.97874e-11 3.25638e+06 115.03 5.95951e-11 6.23009e-10 312501 1.93019e+12
71.1191 136.667 265.185 5.99965e-11 3.84387e+06 136.209 5.97953e-11 5.30879e-10 434410 2.27792e+12
75.1563 162.01 312.958 6.02652e-11 4.53277e+06 161.465 6.00622e-11 4.52303e-10 603948 2.68829e+12
79.4227 191.826 369.339 6.04635e-11 5.35083e+06 191.203 6.0267e-11 3.85299e-10 839683 3.17259e+12
83.9313 225.995 435.876 6.03596e-11 6.32174e+06 225.253 6.01613e-11 3.28173e-10 1.16273e+06 3.74415e+12
88.6959 266.687 514.4 6.03547e-11 7.44986e+06 265.802 6.01543e-11 2.79476e-10 1.60884e+06 4.41866e+12
93.7309 314.418 607.071 6.02946e-11 8.79764e+06 313.371 6.00938e-11 2.37972e-10 2.22904e+06 5.2147e+12
99.0518 371.25 716.436 6.03252e-11 1.03827e+07 370.018 6.01251e-11 2.02605e-10 3.09142e+06 6.15414e+12
104.675 438.288 845.504 6.03468e-11 1.22515e+07 436.84 6.01474e-11 1.72471e-10 4.28675e+06 7.26283e+12
110.617 517.358 997.824 6.03598e-11 1.44573e+07 515.647 6.01601e-11 1.468e-10 5.94441e+06 8.57124e+12
116.896 611.032 1177.58 6.04062e-11 1.70664e+07 609.021 6.02074e-11 1.24935e-10 8.25164e+06 1.01154e+13
123.532 721.25 1389.73 6.04179e-11 2.0139e+07 718.841 6.02161e-11 1.06313e-10 1.1445e+07 1.19377e+13
130.545 851.347 1640.09 6.04294e-11 2.37643e+07 848.53 6.02294e-11 9.04567e-11 1.58757e+07 1.40883e+13
137.955 1005.42 1935.56 6.04716e-11 2.80503e+07 1002.06 6.02696e-11 7.69563e-11 2.20417e+07 1.66263e+13
145.787 1187.46 2284.26 6.05182e-11 3.30981e+07 1183.51 6.03166e-11 6.54636e-11 3.05977e+07 1.96216e+13
154.063 1402.63 2695.77 6.05717e-11 3.90634e+07 1397.96 6.037e-11 5.56812e-11 4.24944e+07 2.31565e+13
162.808 1657.66 3181.42 6.06576e-11 4.61057e+07 1652.11 6.04542e-11 4.73556e-11 5.90565e+07 2.73282e+13
172.051 1959.78 3754.56 6.07655e-11 5.44046e+07 1953.2 6.05617e-11 4.02708e-11 8.20923e+07 3.22515e+13
181.818 2315.84 4430.96 6.08445e-11 6.42064e+07 2308.06 6.06399e-11 3.42426e-11 1.14086e+08 3.80616e+13
192.139 2738.22 5229.21 6.09596e-11 7.57748e+07 2729.02 6.07548e-11 2.91139e-11 1.5866e+08 4.49186e+13
203.046 3239.73 6171.26 6.11145e-11 8.94213e+07 3228.82 6.09088e-11 2.4751e-11 2.20796e+08 5.30108e+13
214.572 3836.61 7283.03 6.13261e-11 1.05538e+08 3823.64 6.11188e-11 2.10401e-11 3.07616e+08 6.25608e+13
226.753 4545.39 8595.09 6.15645e-11 1.24552e+08 4529.95 6.13555e-11 1.78839e-11 4.28763e+08 7.38313e+13
239.625 5394 10143.5 6.1906e-11 1.46987e+08 5375.52 6.16939e-11 1.51999e-11 5.98648e+08 8.71322e+13
253.228 6406.91 11970.9 6.23063e-11 1.7347e+08 6384.83 6.20916e-11 1.29176e-11 8.36708e+08 1.02829e+14
267.603 7630.86 14127.5 6.28809e-11 2.04703e+08 7604.33 6.26623e-11 1.09771e-11 1.17261e+09 1.21354e+14
282.795 9110.11 16672.6 6.36107e-11 2.4161e+08 9078.07 6.3387e-11 9.3274e-12 1.64772e+09 1.43217e+14
298.848 10921.1 19676.2 6.46153e-11 2.85122e+08 10881.9 6.43832e-11 7.925e-12 2.3247e+09 1.69017e+14
315.813 13166 23220.9 6.6006e-11 3.36491e+08 13117.7 6.57641e-11 6.73295e-12 3.29877e+09 1.99466e+14
333.741 15990.8 27404.3 6.793e-11 3.97115e+08 15929.8 6.76711e-11 5.71979e-12 4.71626e+09 2.35401e+14
352.686 19624.8 32341.2 7.06415e-11 4.68637e+08 19546.6 7.036e-11 4.85874e-12 6.81354e+09 2.77809e+14
372.707 24446.5 38167.6 7.45646e-11 5.53074e+08 24343.7 7.42509e-11 4.12703e-12 9.9926e+09 3.27857e+14
393.865 31108.5 45043.5 8.04e-11 6.52716e+08 30967.5 8.00356e-11 3.50528e-12 1.49712e+10 3.86921e+14
416.224 36707.8 53158.3 8.03893e-11 2.2184e+08 38833.5 8.50445e-11 2.97701e-12 5.99042e+09 4.56626e+14
439.852 0 62734.9 0 0 0 0 2.52819e-12 0 5.38888e+14
464.821 0 74036.7 0 0 0 0 2.1469e-12 0 6.35971e+14
491.207 0 87374.6 0 0 0 0 1.82301e-12 0 7.50542e+14
519.092 0 103115 0 0 0 0 1.54789e-12 0 8.85755e+14
548.56 0 121692 0 0 0 0 1.31422e-12 0 1.04533e+15
579.7 0 143615 0 0 0 0 1.11576e-12 0 1.23364e+15
612.608 0 169488 0 0 0 0 9.47223e-13 0 1.45589e+15
647.384 0 200021 0 0 0 0 8.041e-13 0 1.71817e+15
684.134 0 236056 0 0 0 0 6.82568e-13 0 2.0277e+15
722.971 0 278582 0 0 0 0 5.79376e-13 0 2.393e+15
764.012 0 328769 0 0 0 0 4.91762e-13 0 2.8241e+15
0.0610242
200
1.0655e+09
8589934592
0.0129181 1.22378e-05 1.58924e-09 8.96448e-07 6 1.21258e-05 8.88241e-07 0.00677225 0.000794224 13.6515
0.0136515 0 1.87554e-09 0 0 0 0 0.00688819 0 16.1108
0.0144264 0 2.21343e-09 0 0 0 0 0.00699249 0 19.0132
0.0152454 0 2.61218e-09 0 0 0 0 0.00708412 0 22.4385
0.0161108 0 3.08278e-09 0 0 0 0 0.00716212 0 26.4808
0.0170254 0 3.63815e-09 0 0 0 0 0.00722559 0 31.2514
0.0179919 2.7298e-05 4.29357e-09 7.40154e-07 12 2.72628e-05 7.392e-07 0.00727371 0.00122109 36.8815
0.0190132 0 5.06707e-09 0 0 0 0 0.00730578 0 43.5258
0.0200925 0 5.97991e-09 0 0 0 0 0.00732122 0 51.367
0.0212331 2.59101e-05 7.05721e-09 4.27412e-07 8 2.58876e-05 4.2704e-07 0.00731958 0.000467144 60.621
0.0224385 0 8.32858e-09 0 0 0 0 0.00730056 0 71.542
0.0237123 0 9.829e-09 0 0 0 0 0.00726401 0 84.4305
0.0250583 0.000167536 1.15997e-08 1.6814e-06 6 0.000167457 1.68061e-06 0.00720995 0.00139923 99.6408
0.0264808 0 1.36894e-08 0 0 0 0 0.00713857 0 117.591
0.0279841 0.000104856 1.61556e-08 7.55576e-07 24 0.000104748 7.548e-07 0.00705021 0.0025721 138.776
0.0295727 0 1.90661e-08 0 0 0 0 0.00694538 0 163.777
0.0312514 0.000188167 2.25009e-08 9.73541e-07 24 0.000189123 9.78484e-07 0.00682475 0.00342357 193.281
0.0330255 0 2.65545e-08 0 0 0 0 0.00668915 0 228.102
0.0349003 0.000262202 3.13384e-08 9.74024e-07 12 0.000260103 9.66224e-07 0.00653951 0.00178733 269.195
0.0368815 0.000229969 3.69841e-08 7.23876e-07 30 0.00022752 7.16168e-07 0.00637693 0.00340545 317.691
0.0389751 0.000276393 4.36469e-08 7.37199e-07 24 0.00027355 7.29615e-07 0.00620256 0.0028525 374.924
0.0411876 0.00017544 5.151e-08 3.96504e-07 24 0.000174249 3.93812e-07 0.00601767 0.00158136 442.467
0.0435258 0.000372048 6.07896e-08 7.1249e-07 8 0.000372019 7.12436e-07 0.00582358 0.000978766 522.179
0.0459966 0.000480021 7.1741e-08 7.78937e-07 72 0.000476218 7.72766e-07 0.00562166 0.00997631 616.251
0.0486077 0 8.46654e-08 0 0 0 0 0.0054133 0 727.27
0.051367 0.000728865 9.99181e-08 8.49206e-07 54 0.000726569 8.46531e-07 0.00519989 0.00881886 858.29
0.054283 0.000564029 1.17919e-07 5.56838e-07 60 0.000566351 5.59131e-07 0.0049828 0.00670512 1012.91
0.0573645 0.000566686 1.39162e-07 4.74059e-07 96 0.000565232 4.72843e-07 0.00476339 0.00955405 1195.39
0.060621 0.000652075 1.64232e-07 4.6222e-07 24 0.00064324 4.55958e-07 0.00454293 0.00244188 1410.75
0.0640622 0.00114926 1.93819e-07 6.90292e-07 134 0.00114989 6.90668e-07 0.00432265 0.0213987 1664.89
0.0676989 0.00109927 2.28736e-07 5.59474e-07 120 0.00109427 5.5693e-07 0.00410371 0.01636 1964.83
0.071542 0.000998916 2.69944e-07 4.3079e-07 108 0.000988124 4.26136e-07 0.00388717 0.0119689 2318.8
0.0756032 0.00144738 3.18575e-07 5.2891e-07 174 0.00143992 5.26184e-07 0.00367401 0.025049 2736.54
0.079895 0.0015528 3.75967e-07 4.80813e-07 168 0.00153813 4.76269e-07 0.0034651 0.0233115 3229.53
0.0844305 0.0013331 4.43698e-07 3.49773e-07 168 0.00133975 3.51517e-07 0.00326121 0.0180184 3811.34
0.0892234 0.00150013 5.23632e-07 3.33513e-07 290 0.00149386 3.32119e-07 0.00306301 0.0315763 4497.96
0.0942883 0.00196325 6.17966e-07 3.69846e-07 288 0.00195815 3.68886e-07 0.00287109 0.0370994 5308.28
0.0996408 0.00181161 7.29294e-07 2.89183e-07 366 0.0017961 2.86707e-07 0.00268591 0.0394061 6264.59
0.105297 0.00195184 8.60678e-07 2.64006e-07 420 0.00193831 2.62176e-07 0.00250785 0.0442142 7393.17
0.111275 0.00206347 1.01573e-06 2.36499e-07 398 0.00205803 2.35875e-07 0.00233721 0.0402731 8725.07
0.117591 0.00245711 1.19872e-06 2.38626e-07 624 0.00246209 2.39109e-07 0.00217419 0.0684862 10296.9
0.124267 0.00269293 1.41467e-06 2.21605e-07 642 0.00268991 2.21357e-07 0.00201893 0.0704685 12151.9
0.131321 0.00341543 1.66953e-06 2.38156e-07 800 0.00341671 2.38245e-07 0.00187147 0.101805 14341.1
0.138776 0.00311736 1.9703e-06 1.8419e-07 858 0.00313252 1.85085e-07 0.00173182 0.0912537 16924.7
0.146654 0.00333533 2.32525e-06 1.66986e-07 1080 0.00336311 1.68376e-07 0.00159991 0.112722 19973.8
0.154979 0.00394404 2.74415e-06 1.67318e-07 1286 0.00397143 1.6848e-07 0.00147563 0.145816 23572.1
0.163777 0.00378177 3.23852e-06 1.35944e-07 1650 0.00378805 1.3617e-07 0.00135884 0.165072 27818.7
0.173074 0.00447951 3.82195e-06 1.36445e-07 1778 0.00447993 1.36457e-07 0.00124933 0.194183 32830.3
0.182899 0.00440037 4.51048e-06 1.13574e-07 2112 0.00441054 1.13836e-07 0.00114689 0.209146 38744.7
0.193281 0.00516418 5.32305e-06 1.12941e-07 2570 0.00517227 1.13118e-07 0.00105127 0.276101 45724.7
0.204254 0.00564461 6.28202e-06 1.04603e-07 3030 0.00564301 1.04573e-07 0.000962209 0.329396 53962.1
0.215848 0.00562992 7.41374e-06 8.84047e-08 3434 0.00562947 8.83976e-08 0.000879423 0.345206 63683.5
0.228102 0.00593242 8.74934e-06 7.89344e-08 4218 0.00593305 7.89428e-08 0.000802624 0.414821 75156.3
0.24105 0.00673992 1.03256e-05 7.59891e-08 4766 0.00674582 7.60556e-08 0.000731515 0.495088 88695.9
0.254734 0.00714168 1.21857e-05 6.82273e-08 6026 0.00713971 6.82085e-08 0.000665798 0.617512 104675
0.269195 0.00742203 1.4381e-05 6.00818e-08 6480 0.00741929 6.00596e-08 0.000605173 0.643336 123532
0.284476 0.00802047 1.69718e-05 5.50151e-08 8162 0.00803863 5.51396e-08 0.000549345 0.817398 145787
0.300625 0.00813449 2.00293e-05 4.72796e-08 9578 0.00814477 4.73393e-08 0.000498021 0.909288 172051
0.317691 0.00899257 2.36377e-05 4.42883e-08 11234 0.00898697 4.42607e-08 0.000450916 1.10339 203046
0.335725 0.00939092 2.78961e-05 3.919e-08 13344 0.00938793 3.91775e-08 0.000407755 1.28251 239625
0.354784 0.00972342 3.29216e-05 3.43833e-08 15464 0.00971751 3.43625e-08 0.000368269 1.44379 282795
0.374924 0.0104774 3.88525e-05 3.13939e-08 18458 0.0104749 3.13864e-08 0.000332202 1.74433 333741
0.396207 0.0109512 4.58519e-05 2.78044e-08 22232 0.0109355 2.77646e-08 0.000299307 2.06527 393865
0.418699 0.0118357 5.41123e-05 2.5463e-08 25628 0.0118136 2.54154e-08 0.00026935 2.42274 464821
0.442467 0.0122417 6.38607e-05 2.23161e-08 30320 0.012222 2.22801e-08 0.000242108 2.79472 548560
0.467585 0.0128249 7.53654e-05 1.98103e-08 35452 0.0128067 1.97822e-08 0.00021737 3.23096 647384
0.494129 0.0132606 8.89427e-05 1.73565e-08 41792 0.013257 1.73519e-08 0.000194938 3.721 764012
0.522179 0.0143226 0.000104966 1.58848e-08 49988 0.0143196 1.58815e-08 0.000174625 4.54718 901651
0.551822 0.0149244 0.000123876 1.40256e-08 59110 0.0149166 1.40182e-08 0.000156255 5.30578 1.06409e+06
0.583147 0.0156397 0.000146192 1.24542e-08 69716 0.0156221 1.24401e-08 0.000139664 6.21674 1.25578e+06
0.616251 0.0165231 0.000172529 1.11491e-08 82210 0.0164979 1.11321e-08 0.0001247 7.35017 1.48202e+06
0.651234 0.0173784 0.000203611 9.93617e-09 96722 0.0173487 9.91916e-09 0.00011122 8.64091 1.74901e+06
0.688203 0.018155 0.000240292 8.79561e-09 113098 0.01814 8.78837e-09 9.90935e-05 10.0387 2.06409e+06
0.72727 0.0187424 0.000283581 7.6941e-09 135190 0.0187237 7.68642e-09 8.81969e-05 11.7937 2.43595e+06
0.768555 0.0198527 0.000334669 6.90579e-09 158170 0.0198371 6.90037e-09 7.84179e-05 13.9291 2.87479e+06
0.812184 0.0206402 0.000394961 6.08373e-09 188560 0.0206213 6.07815e-09 6.96525e-05 16.4696 3.39269e+06
0.85829 0.0214394 0.000466114 5.35463e-09 220444 0.021417 5.34906e-09 6.1805e-05 19.0987 4.00389e+06
0.907013 0.0225252 0.000550086 4.76703e-09 261388 0.0225064 4.76305e-09 5.47875e-05 22.7432 4.7252e+06
0.958501 0.0233493 0.000649185 4.18712e-09 308244 0.0233247 4.1827e-09 4.85194e-05 26.6008 5.57646e+06
1.01291 0.0244395 0.000766138 3.7136e-09 364396 0.0244113 3.70932e-09 4.29272e-05 31.5236 6.58107e+06
1.07041 0.0254021 0.00090416 3.27065e-09 429162 0.0253739 3.26703e-09 3.79435e-05 36.9929 7.76667e+06
1.13118 0.0265296 0.00106705 2.89439e-09 506358 0.0264968 2.89081e-09 3.3507e-05 43.7401 9.16586e+06
1.19539 0.0275054 0.00125928 2.54276e-09 598590 0.027473 2.53977e-09 2.9562e-05 51.4874 1.08171e+07
1.26325 0.0286884 0.00148614 2.24728e-09 704844 0.0286555 2.2447e-09 2.60578e-05 60.7871 1.27658e+07
1.33496 0.0297806 0.00175387 1.97672e-09 834620 0.0297451 1.97436e-09 2.29484e-05 71.8921 1.50656e+07
1.41075 0.0309001 0.00206984 1.73794e-09 981444 0.0308653 1.73598e-09 2.01923e-05 84.4723 1.77798e+07
1.49083 0.0320262 0.00244272 1.52631e-09 1.15998e+06 0.0319888 1.52452e-09 1.77518e-05 99.7354 2.09828e+07
1.57546 0.03332 0.00288279 1.34556e-09 1.36931e+06 0.0332807 1.34397e-09 1.55929e-05 118.162 2.4763e+07
1.66489 0.0345735 0.00340213 1.18305e-09 1.61652e+06 0.034529 1.18153e-09 1.3685e-05 139.745 2.92241e+07
1.75941 0.035832 0.00401503 1.03894e-09 1.90601e+06 0.0357878 1.03766e-09 1.20007e-05 165.01 3.44889e+07
1.85928 0.0371319 0.00473835 9.12285e-10 2.24913e+06 0.0370877 9.11199e-10 1.05151e-05 195.133 4.07021e+07
1.96483 0.0384984 0.00559198 8.01471e-10 2.65744e+06 0.0384512 8.00487e-10 9.20606e-06 231.354 4.80347e+07
2.07637 0.0398408 0.00659939 7.02804e-10 3.13125e+06 0.0397935 7.01971e-10 8.05366e-06 273.249 5.66883e+07
2.19424 0.0413041 0.00778828 6.17393e-10 3.69915e+06 0.0412534 6.16634e-10 7.04008e-06 324.404 6.69008e+07
2.3188 0.0427653 0.00919136 5.41654e-10 4.36472e+06 0.0427123 5.40982e-10 6.1494e-06 384.455 7.89532e+07
2.45043 0.0443301 0.0108472 4.75763e-10 5.14913e+06 0.0442757 4.75179e-10 5.36741e-06 456.414 9.31768e+07
2.58954 0.045898 0.0128014 4.17396e-10 6.07894e+06 0.0458427 4.16893e-10 4.68145e-06 541.995 1.09963e+08
2.73654 0.0475557 0.0151076 3.66453e-10 7.17304e+06 0.0474976 3.66005e-10 4.08023e-06 644.224 1.29773e+08
2.89188 0.0491728 0.0178292 3.21072e-10 8.46557e+06 0.0491112 3.20669e-10 3.55373e-06 764.845 1.53152e+08
3.05605 0.0509226 0.0210412 2.81741e-10 9.98773e+06 0.0508615 2.81403e-10 3.09304e-06 909.77 1.80743e+08
3.22953 0.0527486 0.0248319 2.47293e-10 1.1797e+07 0.052683 2.46986e-10 2.69025e-06 1084.4 2.13304e+08
3.41286 0.0546095 0.0293054 2.16936e-10 1.39144e+07 0.0545394 2.16657e-10 2.33837e-06 1290.87 2.51731e+08
3.6066 0.0565691 0.0345848 1.90416e-10 1.64163e+07 0.0564974 1.90175e-10 2.0312e-06 1538.96 2.97081e+08
3.81134 0.0585981 0.0408154 1.67136e-10 1.93821e+07 0.0585245 1.66926e-10 1.76327e-06 1837.19 3.50601e+08
4.0277 0.0607352 0.0481684 1.46787e-10 2.28754e+07 0.060656 1.46596e-10 1.52972e-06 2195.05 4.13763e+08
4.25634 0.0629765 0.056846 1.2897e-10 2.69929e+07 0.062894 1.28801e-10 1.32631e-06 2624.79 4.88304e+08
4.49796 0.0653132 0.067087 1.13337e-10 3.18542e+07 0.065227 1.13188e-10 1.14926e-06 3141.4 5.76273e+08
4.7533 0.0677968 0.0791729 9.9688e-11 3.75892e+07 0.0677061 9.95546e-11 9.95263e-07 3765.02 6.8009e+08
5.02313 0.0703457 0.0934361 8.76462e-11 4.43706e+07 0.0702509 8.75281e-11 8.61414e-07 4514.57 8.0261e+08
5.30828 0.0730376 0.110269 7.71087e-11 5.23593e+07 0.0729383 7.70039e-11 7.45152e-07 5418.16 9.47202e+08
5.60962 0.0758923 0.130134 6.78917e-11 6.1787e+07 0.0757891 6.77994e-11 6.44232e-07 6511.36 1.11784e+09
5.92807 0.0788439 0.153578 5.97653e-11 7.29346e+07 0.0787345 5.96823e-11 5.56685e-07 7830.21 1.31923e+09
6.26459 0.0819541 0.181246 5.26397e-11 8.60651e+07 0.0818394 5.2566e-11 4.80786e-07 9422.98 1.55689e+09
6.62021 0.0852375 0.213898 4.63912e-11 1.01558e+08 0.0851155 4.63247e-11 4.15026e-07 11352.1 1.83737e+09
6.99602 0.0886871 0.252432 4.09003e-11 1.1986e+08 0.0885611 4.08422e-11 3.58083e-07 13690.4 2.16837e+09
7.39317 0.0923483 0.297908 3.60875e-11 1.41457e+08 0.0922152 3.60355e-11 3.08803e-07 16531 2.55901e+09
7.81286 0.0961972 0.351577 3.18531e-11 1.66936e+08 0.0960573 3.18068e-11 2.66181e-07 19976.7 3.02002e+09
8.25637 0.100341 0.414914 2.81534e-11 1.97025e+08 0.100193 2.81119e-11 2.29336e-07 24186.9 3.56409e+09
8.72507 0.104788 0.489662 2.4913e-11 2.32497e+08 0.10463 2.48754e-11 1.97503e-07 29327.1 4.20617e+09
9.22037 0.109653 0.577876 2.20899e-11 2.74404e+08 0.109484 2.20559e-11 1.70014e-07 35653.3 4.96392e+09
9.74378 0.115176 0.681982 1.96607e-11 3.2382e+08 0.114992 1.96292e-11 1.46289e-07 43520.2 5.85818e+09
10.2969 0.121588 0.804843 1.75868e-11 3.82165e+08 0.121381 1.7557e-11 1.25822e-07 53417.1 6.91355e+09
10.8814 0.129497 0.949838 1.58716e-11 4.51027e+08 0.12926 1.58425e-11 1.08175e-07 66175.2 8.15905e+09
11.4992 0.139891 1.12095 1.45282e-11 5.32251e+08 0.139603 1.44983e-11 9.29669e-08 83176.5 9.62892e+09
12.1519 0.154745 1.3229 1.36176e-11 6.28157e+08 0.154366 1.35842e-11 7.98658e-08 107105 1.13636e+10
12.8418 0.17172 1.56122 1.28046e-11 3.82727e+08 0.177737 1.32533e-11 6.85852e-08 71453.7 1.34108e+10
13.5708 0 1.84248 0 0 0 0 5.88765e-08 0 1.58268e+10
14.3411 0 2.17441 0 0 0 0 5.05241e-08 0 1.8678e+10
15.1552 0 2.56613 0 0 0 0 4.33417e-08 0 2.20429e+10
16.0156 0 3.02843 0 0 0 0 3.71677e-08 0 2.6014e+10
16.9247 0 3.574 0 0 0 0 3.18628e-08 0 3.07005e+10
17.8855 0 4.21787 0 0 0 0 2.73063e-08 0 3.62312e+10
18.9008 0 4.97773 0 0 0 0 2.33941e-08 0 4.27584e+10
19.9738 0 5.87448 0 0 0 0 2.00364e-08 0 5.04614e+10
21.1076 0 6.93279 0 0 0 0 1.71555e-08 0 5.95522e+10
22.3058 0 8.18175 0 0 0 0 1.46847e-08 0 7.02807e+10
23.5721 0 9.65571 0 0 0 0 1.25662e-08 0 8.29419e+10
24.9102 0 11.3952 0 0 0 0 1.07504e-08 0 9.78842e+10
26.3243 0 13.4481 0 0 0 0 9.19452e-09 0 1.15518e+11
27.8187 0 15.8708 0 0 0 0 7.86182e-09 0 1.36329e+11
29.3979 0 18.73 0 0 0 0 6.72061e-09 0 1.60889e+11
31.0667 0 22.1042 0 0 0 0 5.74366e-09 0 1.89874e+11
32.8303 0 26.0864 0 0 0 0 4.90756e-09 0 2.2408e+11
34.694 0 30.7859 0 0 0 0 4.19221e-09 0 2.64449e+11
36.6634 0 36.3321 0 0 0 0 3.58032e-09 0 3.1209e+11
38.7447 0 42.8774 0 0 0 0 3.05709e-09 0 3.68314e+11
40.9442 0 50.6018 0 0 0 0 2.60976e-09 0 4.34667e+11
43.2685 0 59.7179 0 0 0 0 2.22743e-09 0 5.12973e+11
45.7247 0 70.4762 0 0 0 0 1.90073e-09 0 6.05386e+11
48.3204 0 83.1727 0 0 0 0 1.62163e-09 0 7.14448e+11
51.0634 0 98.1565 0 0 0 0 1.38326e-09 0 8.43158e+11
53.9621 0 115.84 0 0 0 0 1.1797e-09 0 9.95055e+11
57.0254 0 136.709 0 0 0 0 1.00592e-09 0 1.17432e+12
60.2626 0 161.337 0 0 0 0 8.57591e-10 0 1.38587e+12
63.6835 0 190.402 0 0 0 0 7.3101e-10 0 1.63554e+12
67.2987 0 224.704 0 0 0 0 6.23009e-10 0 1.93019e+12
71.1191 0 265.185 0 0 0 0 5.30879e-10 0 2.27792e+12
75.1563 0 312.958 0 0 0 0 4.52303e-10 0 2.68829e+12
79.4227 0 369.339 0 0 0 0 3.85299e-10 0 3.17259e+12
83.9313 0 435.876 0 0 0 0 3.28173e-10 0 3.74415e+12
88.6959 0 514.4 0 0 0 0 2.79476e-10 0 4.41866e+12
93.7309 0 607.071 0 0 0 0 2.37972e-10 0 5.2147e+12
99.0518 0 716.436 0 0 0 0 2.02605e-10 0 6.15414e+12
104.675 0 845.504 0 0 0 0 1.72471e-10 0 7.26283e+12
110.617 0 997.824 0 0 0 0 1.468e-10 0 8.57124e+12
116.896 0 1177.58 0 0 0 0 1.24935e-10 0 1.01154e+13
123.532 0 1389.73 0 0 0 0 1.06313e-10 0 1.19377e+13
130.545 0 1640.09 0 0 0 0 9.04567e-11 0 1.40883e+13
137.955 0 1935.56 0 0 0 0 7.69563e-11 0 1.66263e+13
145.787 0 2284.26 0 0 0 0 6.54636e-11 0 1.96216e+13
154.063 0 2695.77 0 0 0 0 5.56812e-11 0 2.31565e+13
162.808 0 3181.42 0 0 0 0 4.73556e-11 0 2.73282e+13
172.051 0 3754.56 0 0 0 0 4.02708e-11 0 3.22515e+13
181.818 0 4430.96 0 0 0 0 3.42426e-11 0 3.80616e+13
192.139 0 5229.21 0 0 0 0 2.91139e-11 0 4.49186e+13
203.046 0 6171.26 0 0 0 0 2.4751e-11 0 5.30108e+13
214.572 0 7283.03 0 0 0 0 2.10401e-11 0 6.25608e+13
226.753 0 8595.09 0 0 0 0 1.78839e-11 0 7.38313e+13
239.625 0 10143.5 0 0 0 0 1.51999e-11 0 8.71322e+13
253.228 0 11970.9 0 0 0 0 1.29176e-11 0 1.02829e+14
267.603 0 14127.5 0 0 0 0 1.09771e-11 0 1.21354e+14
282.795 0 16672.6 0 0 0 0 9.3274e-12 0 1.43217e+14
298.848 0 19676.2 0 0 0 0 7.925e-12 0 1.69017e+14
315.813 0 23220.9 0 0 0 0 6.73295e-12 0 1.99466e+14
333.741 0 27404.3 0 0 0 0 5.71979e-12 0 2.35401e+14
352.686 0 32341.2 0 0 0 0 4.85874e-12 0 2.77809e+14
372.707 0 38167.6 0 0 0 0 4.12703e-12 0 3.27857e+14
393.865 0 45043.5 0 0 0 0 3.50528e-12 0 3.86921e+14
416.224 0 53158.3 0 0 0 0 2.97701e-12 0 4.56626e+14
439.852 0 62734.9 0 0 0 0 2.52819e-12 0 5.38888e+14
464.821 0 74036.7 0 0 0 0 2.1469e-12 0 6.35971e+14
491.207 0 87374.6 0 0 0 0 1.82301e-12 0 7.50542e+14
519.092 0 103115 0 0 0 0 1.54789e-12 0 8.85755e+14
548.56 0 121692 0 0 0 0 1.31422e-12 0 1.04533e+15
579.7 0 143615 0 0 0 0 1.11576e-12 0 1.23364e+15
612.608 0 169488 0 0 0 0 9.47223e-13 0 1.45589e+15
647.384 0 200021 0 0 0 0 8.041e-13 0 1.71817e+15
684.134 0 236056 0 0 0 0 6.82568e-13 0 2.0277e+15
722.971 0 278582 0 0 0 0 5.79376e-13 0 2.393e+15
764.012 0 328769 0 0 0 0 4.91762e-13 0 2.8241e+15
