0.479078
200
1.0655e+09
8589934592
0.0129181 0 1.58924e-09 0 0 0 0 0.00677225 0 13.6515
0.0136515 0 1.87554e-09 0 0 0 0 0.00688819 0 16.1108
0.0144264 0 2.21343e-09 0 0 0 0 0.00699249 0 19.0132
0.0152454 0 2.61218e-09 0 0 0 0 0.00708412 0 22.4385
0.0161108 0 3.08278e-09 0 0 0 0 0.00716212 0 26.4808
0.0170254 0 3.63815e-09 0 0 0 0 0.00722559 0 31.2514
0.0179919 0 4.29357e-09 0 0 0 0 0.00727371 0 36.8815
0.0190132 0 5.06707e-09 0 0 0 0 0.00730578 0 43.5258
0.0200925 0 5.97991e-09 0 0 0 0 0.00732122 0 51.367
0.0212331 0 7.05721e-09 0 0 0 0 0.00731958 0 60.621
0.0224385 0 8.32858e-09 0 0 0 0 0.00730056 0 71.542
0.0237123 0 9.829e-09 0 0 0 0 0.00726401 0 84.4305
0.0250583 0 1.15997e-08 0 0 0 0 0.00720995 0 99.6408
0.0264808 0 1.36894e-08 0 0 0 0 0.00713857 0 117.591
0.0279841 0 1.61556e-08 0 0 0 0 0.00705021 0 138.776
0.0295727 0 1.90661e-08 0 0 0 0 0.00694538 0 163.777
0.0312514 0 2.25009e-08 0 0 0 0 0.00682475 0 193.281
0.0330255 0 2.65545e-08 0 0 0 0 0.00668915 0 228.102
0.0349003 0 3.13384e-08 0 0 0 0 0.00653951 0 269.195
0.0368815 0 3.69841e-08 0 0 0 0 0.00637693 0 317.691
0.0389751 0 4.36469e-08 0 0 0 0 0.00620256 0 374.924
0.0411876 0 5.151e-08 0 0 0 0 0.00601767 0 442.467
0.0435258 0 6.07896e-08 0 0 0 0 0.00582358 0 522.179
0.0459966 0 7.1741e-08 0 0 0 0 0.00562166 0 616.251
0.0486077 0 8.46654e-08 0 0 0 0 0.0054133 0 727.27
0.051367 0 9.99181e-08 0 0 0 0 0.00519989 0 858.29
0.054283 0 1.17919e-07 0 0 0 0 0.0049828 0 1012.91
0.0573645 0 1.39162e-07 0 0 0 0 0.00476339 0 1195.39
0.060621 0 1.64232e-07 0 0 0 0 0.00454293 0 1410.75
0.0640622 0 1.93819e-07 0 0 0 0 0.00432265 0 1664.89
0.0676989 0 2.28736e-07 0 0 0 0 0.00410371 0 1964.83
0.071542 0 2.69944e-07 0 0 0 0 0.00388717 0 2318.8
0.0756032 0 3.18575e-07 0 0 0 0 0.00367401 0 2736.54
0.079895 0 3.75967e-07 0 0 0 0 0.0034651 0 3229.53
0.0844305 0 4.43698e-07 0 0 0 0 0.00326121 0 3811.34
0.0892234 0 5.23632e-07 0 0 0 0 0.00306301 0 4497.96
0.0942883 0 6.17966e-07 0 0 0 0 0.00287109 0 5308.28
0.0996408 0 7.29294e-07 0 0 0 0 0.00268591 0 6264.59
0.105297 0 8.60678e-07 0 0 0 0 0.00250785 0 7393.17
0.111275 0 1.01573e-06 0 0 0 0 0.00233721 0 8725.07
0.117591 0 1.19872e-06 0 0 0 0 0.00217419 0 10296.9
0.124267 0 1.41467e-06 0 0 0 0 0.00201893 0 12151.9
0.131321 0 1.66953e-06 0 0 0 0 0.00187147 0 14341.1
0.138776 0 1.9703e-06 0 0 0 0 0.00173182 0 16924.7
0.146654 0 2.32525e-06 0 0 0 0 0.00159991 0 19973.8
0.154979 0 2.74415e-06 0 0 0 0 0.00147563 0 23572.1
0.163777 0 3.23852e-06 0 0 0 0 0.00135884 0 27818.7
0.173074 0 3.82195e-06 0 0 0 0 0.00124933 0 32830.3
0.182899 0 4.51048e-06 0 0 0 0 0.00114689 0 38744.7
0.193281 0 5.32305e-06 0 0 0 0 0.00105127 0 45724.7
0.204254 0 6.28202e-06 0 0 0 0 0.000962209 0 53962.1
0.215848 0 7.41374e-06 0 0 0 0 0.000879423 0 63683.5
0.228102 0 8.74934e-06 0 0 0 0 0.000802624 0 75156.3
0.24105 0 1.03256e-05 0 0 0 0 0.000731515 0 88695.9
0.254734 0 1.21857e-05 0 0 0 0 0.000665798 0 104675
0.269195 0 1.4381e-05 0 0 0 0 0.000605173 0 123532
0.284476 0 1.69718e-05 0 0 0 0 0.000549345 0 145787
0.300625 0 2.00293e-05 0 0 0 0 0.000498021 0 172051
0.317691 0 2.36377e-05 0 0 0 0 0.000450916 0 203046
0.335725 0 2.78961e-05 0 0 0 0 0.000407755 0 239625
0.354784 0 3.29216e-05 0 0 0 0 0.000368269 0 282795
0.374924 0 3.88525e-05 0 0 0 0 0.000332202 0 333741
0.396207 2.01369 4.58519e-05 5.11263e-06 6 1.9577 4.97049e-06 0.000299307 0.102489 393865
0.418699 0 5.41123e-05 0 0 0 0 0.00026935 0 464821
0.442467 0 6.38607e-05 0 0 0 0 0.000242108 0 548560
0.467585 0 7.53654e-05 0 0 0 0 0.00021737 0 647384
0.494129 0 8.89427e-05 0 0 0 0 0.000194938 0 764012
0.522179 0 0.000104966 0 0 0 0 0.000174625 0 901651
0.551822 0 0.000123876 0 0 0 0 0.000156255 0 1.06409e+06
0.583147 7.10527 0.000146192 5.65803e-06 12 7.47833 5.95511e-06 0.000139664 0.486141 1.25578e+06
0.616251 0 0.000172529 0 0 0 0 0.0001247 0 1.48202e+06
0.651234 0 0.000203611 0 0 0 0 0.00011122 0 1.74901e+06
0.688203 20.2443 0.000240292 9.80783e-06 8 19.7406 9.56382e-06 9.90935e-05 0.791804 2.06409e+06
0.72727 0 0.000283581 0 0 0 0 8.81969e-05 0 2.43595e+06
0.768555 0 0.000334669 0 0 0 0 7.84179e-05 0 2.87479e+06
0.812184 4.61784 0.000394961 1.36111e-06 6 4.71656 1.39021e-06 6.96525e-05 0.117249 3.39269e+06
0.85829 0 0.000466114 0 0 0 0 6.1805e-05 0 4.00389e+06
0.907013 1.52302 0.000550086 3.22319e-07 24 1.55224 3.28503e-07 5.47875e-05 0.141194 4.7252e+06
0.958501 3.10351 0.000649185 5.56537e-07 24 2.92172 5.23938e-07 4.85194e-05 0.275289 5.57646e+06
1.01291 0 0.000766138 0 0 0 0 4.29272e-05 0 6.58107e+06
1.07041 0 0.00090416 0 0 0 0 3.79435e-05 0 7.76667e+06
1.13118 4.66813 0.00106705 5.09296e-07 12 4.61079 5.0304e-07 3.3507e-05 0.182396 9.16586e+06
1.19539 3.26931 0.00125928 3.02235e-07 30 3.20191 2.96004e-07 2.9562e-05 0.306713 1.08171e+07
1.26325 13.3924 0.00148614 1.04908e-06 24 13.1909 1.03329e-06 2.60578e-05 0.966231 1.27658e+07
1.33496 22.4108 0.00175387 1.48754e-06 24 22.46 1.49081e-06 2.29484e-05 1.5557 1.50656e+07
1.41075 11.994 0.00206984 6.74587e-07 32 12.2081 6.86629e-07 2.01923e-05 1.06906 1.77798e+07
1.49083 3.02693 0.00244272 1.44257e-07 48 2.9624 1.41182e-07 1.77518e-05 0.390066 2.09828e+07
1.57546 10.7146 0.00288279 4.32687e-07 6 10.2027 4.12015e-07 1.55929e-05 0.166494 2.4763e+07
1.66489 3.90206 0.00340213 1.33522e-07 84 3.78666 1.29573e-07 1.3685e-05 0.819572 2.92241e+07
1.75941 5.10506 0.00401503 1.48021e-07 48 5.08083 1.47318e-07 1.20007e-05 0.592049 3.44889e+07
1.85928 3.71873 0.00473835 9.13646e-08 72 3.77081 9.26442e-08 1.05151e-05 0.6256 4.07021e+07
1.96483 8.19478 0.00559198 1.70601e-07 54 8.02175 1.66999e-07 9.20606e-06 1.0007 4.80347e+07
2.07637 16.2222 0.00659939 2.86165e-07 104 16.2957 2.87461e-07 8.05366e-06 3.69536 5.66883e+07
2.19424 4.63311 0.00778828 6.92534e-08 120 4.68402 7.00143e-08 7.04008e-06 1.18044 6.69008e+07
2.3188 6.94156 0.00919136 8.79199e-08 156 6.73362 8.52862e-08 6.1494e-06 2.23038 7.89532e+07
2.45043 7.04329 0.0108472 7.55905e-08 126 7.01712 7.53097e-08 5.36741e-06 1.77449 9.31768e+07
2.58954 6.47756 0.0128014 5.89068e-08 192 6.51709 5.92663e-08 4.68145e-06 2.41594 1.09963e+08
2.73654 21.6607 0.0151076 1.66912e-07 152 22.1638 1.70789e-07 4.08023e-06 6.21795 1.29773e+08
2.89188 10.1065 0.0178292 6.59903e-08 378 10.1638 6.63643e-08 3.55373e-06 7.0192 1.53152e+08
3.05605 8.87602 0.0210412 4.91086e-08 264 8.68688 4.80622e-08 3.09304e-06 4.19156 1.80743e+08
3.22953 9.55309 0.0248319 4.47863e-08 366 9.51247 4.45958e-08 2.69025e-06 6.09302 2.13304e+08
3.41286 9.30963 0.0293054 3.69824e-08 428 9.2083 3.65799e-08 2.33837e-06 6.76901 2.51731e+08
3.6066 14.1172 0.0345848 4.75195e-08 486 13.9016 4.67939e-08 2.0312e-06 11.3699 2.97081e+08
3.81134 12.1901 0.0408154 3.47691e-08 600 12.1613 3.4687e-08 1.76327e-06 11.8312 3.50601e+08
4.0277 14.4621 0.0481684 3.49527e-08 738 14.3672 3.47233e-08 1.52972e-06 16.8626 4.13763e+08
4.25634 15.9275 0.056846 3.2618e-08 824 15.9339 3.2631e-08 1.32631e-06 20.2647 4.88304e+08
4.49796 17.4838 0.067087 3.03395e-08 954 17.3415 3.00926e-08 1.14926e-06 25.1849 5.76273e+08
4.7533 15.4652 0.0791729 2.27399e-08 1094 15.3916 2.26317e-08 9.95263e-07 24.9959 6.8009e+08
5.02313 16.5574 0.0934361 2.06295e-08 1332 16.5922 2.06728e-08 8.61414e-07 31.8992 8.0261e+08
5.30828 22.6857 0.110269 2.39502e-08 1614 22.6837 2.39481e-08 7.45152e-07 51.8762 9.47202e+08
5.60962 22.9421 0.130134 2.05235e-08 1850 22.8525 2.04434e-08 6.44232e-07 58.9361 1.11784e+09
5.92807 21.3866 0.153578 1.62115e-08 2238 21.3531 1.61861e-08 5.56685e-07 65.1737 1.31923e+09
6.26459 22.6526 0.181246 1.45499e-08 2546 22.7787 1.46309e-08 4.80786e-07 77.0489 1.55689e+09
6.62021 23.8568 0.213898 1.29842e-08 3264 23.8546 1.2983e-08 4.15026e-07 102.115 1.83737e+09
6.99602 25.7132 0.252432 1.18583e-08 3506 25.8114 1.19036e-08 3.58083e-07 116.105 2.16837e+09
7.39317 28.5329 0.297908 1.115e-08 4506 28.5057 1.11394e-08 3.08803e-07 162.698 2.55901e+09
7.81286 31.6133 0.351577 1.04679e-08 5018 31.5303 1.04404e-08 2.66181e-07 197.339 3.02002e+09
8.25637 31.7851 0.414914 8.91814e-09 5852 31.735 8.9041e-09 2.29336e-07 227.565 3.56409e+09
8.72507 34.3016 0.489662 8.15508e-09 7362 34.1979 8.13041e-09 1.97503e-07 303.984 4.20617e+09
9.22037 35.3518 0.577876 7.12175e-09 8306 35.2861 7.10852e-09 1.70014e-07 347.932 4.96392e+09
9.74378 37.2638 0.681982 6.36099e-09 9698 37.1855 6.34761e-09 1.46289e-07 421.692 5.85818e+09
10.2969 41.1 0.804843 5.94484e-09 11816 41.0656 5.93987e-09 1.25822e-07 558.281 6.91355e+09
10.8814 44.1758 0.949838 5.41433e-09 13682 44.1011 5.40518e-09 1.08175e-07 684.803 8.15905e+09
11.4992 45.1329 1.12095 4.68722e-09 16152 45.1234 4.68624e-09 9.29669e-08 814.355 9.62892e+09
12.1519 47.8181 1.3229 4.20801e-09 19472 47.7731 4.20405e-09 7.98658e-08 1025.95 1.13636e+10
12.8418 50.6911 1.56122 3.77988e-09 22670 50.5806 3.77164e-09 6.85852e-08 1249.39 1.34108e+10
13.5708 54.4062 1.84248 3.43761e-09 26224 54.349 3.43399e-09 5.88765e-08 1531.13 1.58268e+10
14.3411 57.4007 2.17441 3.07317e-09 31640 57.3468 3.07028e-09 5.05241e-08 1924.53 1.8678e+10
15.1552 59.2163 2.56613 2.68641e-09 37484 59.128 2.68241e-09 4.33417e-08 2323.34 2.20429e+10
16.0156 64.4308 3.02843 2.47678e-09 43856 64.3534 2.4738e-09 3.71677e-08 2922.47 2.6014e+10
16.9247 67.9236 3.574 2.21246e-09 51362 67.8571 2.2103e-09 3.18628e-08 3566.43 3.07005e+10
17.8855 70.7559 4.21787 1.9529e-09 61636 70.669 1.9505e-09 2.73063e-08 4408.1 3.62312e+10
18.9008 75.2256 4.97773 1.75932e-09 72218 75.0696 1.75567e-09 2.33941e-08 5431.04 4.27584e+10
19.9738 78.5528 5.87448 1.55669e-09 84586 78.4139 1.55394e-09 2.00364e-08 6571.75 5.04614e+10
21.1076 82.9066 6.93279 1.39217e-09 100708 82.7596 1.3897e-09 1.71555e-08 8172.43 5.95522e+10
22.3058 88.2409 8.18175 1.25555e-09 118712 88.0858 1.25334e-09 1.46847e-08 10150 7.02807e+10
23.5721 92.429 9.65571 1.11438e-09 140410 92.191 1.11151e-09 1.25662e-08 12451.7 8.29419e+10
24.9102 96.7763 11.3952 9.88682e-10 164374 96.602 9.86901e-10 1.07504e-08 15117 9.78842e+10
26.3243 101.712 13.4481 8.80485e-10 194680 101.554 8.79114e-10 9.19452e-09 18642.9 1.15518e+11
27.8187 107.542 15.8708 7.88839e-10 230196 107.368 7.87565e-10 7.86182e-09 23097.4 1.36329e+11
29.3979 112.049 18.73 6.96433e-10 271156 111.864 6.95286e-10 6.72061e-09 28098.9 1.60889e+11
31.0667 117.779 22.1042 6.20299e-10 321076 117.545 6.19071e-10 5.74366e-09 34675.3 1.89874e+11
32.8303 123.922 26.0864 5.53027e-10 377436 123.7 5.52032e-10 4.90756e-09 42532.8 2.2408e+11
34.694 129.498 30.7859 4.89691e-10 447594 129.242 4.88721e-10 4.19221e-09 52283.4 2.64449e+11
36.6634 136.737 36.3321 4.38132e-10 525078 136.492 4.37349e-10 3.58032e-09 64255 3.1209e+11
38.7447 143.63 42.8774 3.89966e-10 621924 143.379 3.89285e-10 3.05709e-09 79333.4 3.68314e+11
40.9442 151.431 50.6018 3.48384e-10 732630 151.17 3.47784e-10 2.60976e-09 97800.8 4.34667e+11
43.2685 159.227 59.7179 3.104e-10 865596 158.96 3.09881e-10 2.22743e-09 120624 5.12973e+11
45.7247 168.089 70.4762 2.77656e-10 1.02168e+06 167.801 2.7718e-10 1.90073e-09 149245 6.05386e+11
48.3204 176.557 83.1727 2.47124e-10 1.20544e+06 176.223 2.46657e-10 1.62163e-09 183699 7.14448e+11
51.0634 186.472 98.1565 2.21159e-10 1.42103e+06 186.113 2.20734e-10 1.38326e-09 227198 8.43158e+11
53.9621 197.33 115.84 1.9831e-10 1.67997e+06 196.963 1.97942e-10 1.1797e-09 282406 9.95055e+11
57.0254 209.215 136.709 1.78159e-10 1.98018e+06 208.834 1.77835e-10 1.00592e-09 350710 1.17432e+12
60.2626 222.939 161.337 1.60865e-10 2.33957e+06 222.515 1.60559e-10 8.57591e-10 438852 1.38587e+12
63.6835 238.152 190.402 1.45611e-10 2.75676e+06 237.67 1.45316e-10 7.3101e-10 549123 1.63554e+12
67.2987 255.204 224.704 1.32217e-10 3.25638e+06 254.692 1.31952e-10 6.23009e-10 691080 1.93019e+12
71.1191 275.169 265.185 1.20799e-10 3.84387e+06 274.595 1.20547e-10 5.30879e-10 874652 2.27792e+12
75.1563 297.923 312.958 1.10823e-10 4.53277e+06 297.27 1.10579e-10 4.52303e-10 1.11061e+06 2.68829e+12
79.4227 323.944 369.339 1.02107e-10 5.35083e+06 323.233 1.01883e-10 3.85299e-10 1.41801e+06 3.17259e+12
83.9313 354.63 435.876 9.47159e-11 6.32174e+06 353.799 9.44938e-11 3.28173e-10 1.82455e+06 3.74415e+12
88.6959 390.826 514.4 8.84489e-11 7.44986e+06 389.873 8.82333e-11 2.79476e-10 2.35774e+06 4.41866e+12
93.7309 432.696 607.071 8.29762e-11 8.79764e+06 431.607 8.27673e-11 2.37972e-10 3.06756e+06 5.2147e+12
99.0518 482.242 716.436 7.83606e-11 1.03827e+07 480.998 7.81584e-11 2.02605e-10 4.01567e+06 6.15414e+12
104.675 541.066 845.504 7.4498e-11 1.22515e+07 539.635 7.4301e-11 1.72471e-10 5.29199e+06 7.26283e+12
110.617 611.177 997.824 7.13056e-11 1.44573e+07 609.487 7.11084e-11 1.468e-10 7.02239e+06 8.57124e+12
116.896 694.267 1177.58 6.86349e-11 1.70664e+07 692.297 6.84401e-11 1.24935e-10 9.37569e+06 1.01154e+13
123.532 791.678 1389.73 6.63176e-11 2.0139e+07 789.381 6.61251e-11 1.06313e-10 1.25626e+07 1.19377e+13
130.545 908.008 1640.09 6.44512e-11 2.37643e+07 905.307 6.42595e-11 9.04567e-11 1.69323e+07 1.40883e+13
137.955 1045.74 1935.56 6.28967e-11 2.80503e+07 1042.57 6.27058e-11 7.69563e-11 2.29256e+07 1.66263e+13
145.787 1210.02 2284.26 6.16676e-11 3.30981e+07 1206.27 6.14767e-11 6.54636e-11 3.11789e+07 1.96216e+13
154.063 1405.13 2695.77 6.06799e-11 3.90634e+07 1400.75 6.04904e-11 5.56812e-11 4.25703e+07 2.31565e+13
162.808 1635.91 3181.42 5.98617e-11 4.61057e+07 1630.72 5.96718e-11 4.73556e-11 5.82817e+07 2.73282e+13
172.051 1909.74 3754.56 5.92142e-11 5.44046e+07 1903.63 5.90245e-11 4.02708e-11 7.99965e+07 3.22515e+13
181.818 2235.86 4430.96 5.8743e-11 6.42064e+07 2228.62 5.85529e-11 3.42426e-11 1.10146e+08 3.80616e+13
192.139 2623.55 5229.21 5.84068e-11 7.57748e+07 2614.98 5.82161e-11 2.91139e-11 1.52015e+08 4.49186e+13
203.046 3083.02 6171.26 5.81584e-11 8.94213e+07 3072.86 5.79668e-11 2.4751e-11 2.10116e+08 5.30108e+13
214.572 3630.78 7283.03 5.8036e-11 1.05538e+08 3618.76 5.78439e-11 2.10401e-11 2.91112e+08 6.25608e+13
226.753 4284.87 8595.09 5.8036e-11 1.24552e+08 4270.53 5.78418e-11 1.78839e-11 4.04189e+08 7.38313e+13
239.625 5066.67 10143.5 5.81493e-11 1.46987e+08 5049.54 5.79526e-11 1.51999e-11 5.62319e+08 8.71322e+13
253.228 6004.99 11970.9 5.83976e-11 1.7347e+08 5984.45 5.81979e-11 1.29176e-11 7.84218e+08 1.02829e+14
267.603 7138.46 14127.5 5.88233e-11 2.04703e+08 7113.76 5.86198e-11 1.09771e-11 1.09694e+09 1.21354e+14
282.795 8511.05 16672.6 5.94278e-11 2.4161e+08 8481.24 5.92197e-11 9.3274e-12 1.53937e+09 1.43217e+14
298.848 10194.9 19676.2 6.03187e-11 2.85122e+08 10158.4 6.01025e-11 7.925e-12 2.17012e+09 1.69017e+14
315.813 12286.3 23220.9 6.15957e-11 3.36491e+08 12241.1 6.13691e-11 6.73295e-12 3.07836e+09 1.99466e+14
333.741 14920 27404.3 6.33811e-11 3.97115e+08 14863.2 6.314e-11 5.71979e-12 4.40044e+09 2.35401e+14
352.686 18321.3 32341.2 6.59495e-11 4.68637e+08 18248.5 6.56873e-11 4.85874e-12 6.36099e+09 2.77809e+14
372.707 22845.8 38167.6 6.96823e-11 5.53074e+08 22749.5 6.93887e-11 4.12703e-12 9.3383e+09 3.27857e+14
393.865 29093.1 45043.5 7.51913e-11 6.52716e+08 28960.8 7.48493e-11 3.50528e-12 1.40013e+10 3.86921e+14
416.224 34356.9 53158.3 7.52407e-11 2.2184e+08 36346.3 7.95974e-11 2.97701e-12 5.60676e+09 4.56626e+14
439.852 0 62734.9 0 0 0 0 2.52819e-12 0 5.38888e+14
464.821 0 74036.7 0 0 0 0 2.1469e-12 0 6.35971e+14
491.207 0 87374.6 0 0 0 0 1.82301e-12 0 7.50542e+14
519.092 0 103115 0 0 0 0 1.54789e-12 0 8.85755e+14
548.56 0 121692 0 0 0 0 1.31422e-12 0 1.04533e+15
579.7 0 143615 0 0 0 0 1.11576e-12 0 1.23364e+15
612.608 0 169488 0 0 0 0 9.47223e-13 0 1.45589e+15
647.384 0 200021 0 0 0 0 8.041e-13 0 1.71817e+15
684.134 0 236056 0 0 0 0 6.82568e-13 0 2.0277e+15
722.971 0 278582 0 0 0 0 5.79376e-13 0 2.393e+15
764.012 0 328769 0 0 0 0 4.91762e-13 0 2.8241e+15
0.479078
200
1.0655e+09
8589934592
0.0129181 0.000693376 1.58924e-09 5.07914e-05 6 0.000687028 5.03264e-05 0.00677225 0.0449995 13.6515
0.0136515 0 1.87554e-09 0 0 0 0 0.00688819 0 16.1108
0.0144264 0 2.21343e-09 0 0 0 0 0.00699249 0 19.0132
0.0152454 0 2.61218e-09 0 0 0 0 0.00708412 0 22.4385
0.0161108 0 3.08278e-09 0 0 0 0 0.00716212 0 26.4808
0.0170254 0 3.63815e-09 0 0 0 0 0.00722559 0 31.2514
0.0179919 0.00155212 4.29357e-09 4.20839e-05 12 0.00155012 4.20297e-05 0.00727371 0.0694291 36.8815
0.0190132 0 5.06707e-09 0 0 0 0 0.00730578 0 43.5258
0.0200925 0 5.97991e-09 0 0 0 0 0.00732122 0 51.367
0.0212331 0.00147536 7.05721e-09 2.43375e-05 8 0.00147408 2.43163e-05 0.00731958 0.0265999 60.621
0.0224385 0 8.32858e-09 0 0 0 0 0.00730056 0 71.542
0.0237123 0 9.829e-09 0 0 0 0 0.00726401 0 84.4305
0.0250583 0.00942701 1.15997e-08 9.46099e-05 6 0.00942258 9.45654e-05 0.00720995 0.0787328 99.6408
0.0264808 0 1.36894e-08 0 0 0 0 0.00713857 0 117.591
0.0279841 0.00584946 1.61556e-08 4.21504e-05 24 0.00584346 4.21072e-05 0.00705021 0.143487 138.776
0.0295727 0 1.90661e-08 0 0 0 0 0.00694538 0 163.777
0.0312514 0.01046 2.25009e-08 5.41178e-05 24 0.0105131 5.43926e-05 0.00682475 0.190311 193.281
0.0330255 0 2.65545e-08 0 0 0 0 0.00668915 0 228.102
0.0349003 0.0154327 3.13384e-08 5.73293e-05 12 0.0153092 5.68703e-05 0.00653951 0.105199 269.195
0.0368815 0.0128084 3.69841e-08 4.03173e-05 30 0.0126721 3.9888e-05 0.00637693 0.189671 317.691
0.0389751 0.0148902 4.36469e-08 3.97154e-05 24 0.0147371 3.93068e-05 0.00620256 0.153673 374.924
0.0411876 0.00950242 5.151e-08 2.1476e-05 24 0.00943789 2.13301e-05 0.00601767 0.0856517 442.467
0.0435258 0.0222693 6.07896e-08 4.26469e-05 8 0.0222676 4.26436e-05 0.00582358 0.0585851 522.179
0.0459966 0.0278993 7.1741e-08 4.52726e-05 72 0.0276788 4.49149e-05 0.00562166 0.579834 616.251
0.0486077 0 8.46654e-08 0 0 0 0 0.0054133 0 727.27
0.051367 0.0398819 9.99181e-08 4.64667e-05 54 0.0397521 4.63154e-05 0.00519989 0.482549 858.29
0.054283 0.0317368 1.17919e-07 3.13322e-05 60 0.0318757 3.14693e-05 0.0049828 0.377284 1012.91
0.0573645 0.0304534 1.39162e-07 2.54756e-05 96 0.0303751 2.54101e-05 0.00476339 0.513429 1195.39
0.060621 0.035721 1.64232e-07 2.53206e-05 24 0.035237 2.49776e-05 0.00454293 0.133767 1410.75
0.0640622 0.0622733 1.93819e-07 3.74037e-05 134 0.0623057 3.74232e-05 0.00432265 1.1595 1664.89
0.0676989 0.0602956 2.28736e-07 3.06874e-05 120 0.0600102 3.05422e-05 0.00410371 0.897357 1964.83
0.071542 0.0559454 2.69944e-07 2.41269e-05 108 0.0553343 2.38633e-05 0.00388717 0.670334 2318.8
0.0756032 0.0822221 3.18575e-07 3.0046e-05 174 0.0817764 2.98831e-05 0.00367401 1.42297 2736.54
0.079895 0.086757 3.75967e-07 2.68636e-05 168 0.0859417 2.66112e-05 0.0034651 1.30244 3229.53
0.0844305 0.0731618 4.43698e-07 1.91958e-05 168 0.0735272 1.92917e-05 0.00326121 0.988866 3811.34
0.0892234 0.0849238 5.23632e-07 1.88805e-05 290 0.0845467 1.87967e-05 0.00306301 1.78757 4497.96
0.0942883 0.107029 6.17966e-07 2.01626e-05 288 0.106775 2.01148e-05 0.00287109 2.02252 5308.28
0.0996408 0.0960477 7.29294e-07 1.53319e-05 366 0.0952744 1.52084e-05 0.00268591 2.08922 6264.59
0.105297 0.109624 8.60678e-07 1.48277e-05 420 0.108852 1.47234e-05 0.00250785 2.48325 7393.17
0.111275 0.117537 1.01573e-06 1.34712e-05 398 0.117184 1.34307e-05 0.00233721 2.29398 8725.07
0.117591 0.140118 1.19872e-06 1.36078e-05 624 0.140448 1.36398e-05 0.00217419 3.90547 10296.9
0.124267 0.159234 1.41467e-06 1.31036e-05 642 0.158941 1.30795e-05 0.00201893 4.16681 12151.9
0.131321 0.195134 1.66953e-06 1.36066e-05 800 0.195203 1.36114e-05 0.00187147 5.81642 14341.1
0.138776 0.17542 1.9703e-06 1.03647e-05 858 0.176221 1.04121e-05 0.00173182 5.13504 16924.7
0.146654 0.197618 2.32525e-06 9.89387e-06 1080 0.199277 9.97692e-06 0.00159991 6.67874 19973.8
0.154979 0.234084 2.74415e-06 9.93056e-06 1286 0.235619 9.99567e-06 0.00147563 8.65438 23572.1
0.163777 0.224376 3.23852e-06 8.06567e-06 1650 0.224903 8.08463e-06 0.00135884 9.79392 27818.7
0.173074 0.259559 3.82195e-06 7.9061e-06 1778 0.259654 7.909e-06 0.00124933 11.2517 32830.3
0.182899 0.262022 4.51048e-06 6.76277e-06 2112 0.262692 6.78007e-06 0.00114689 12.4536 38744.7
0.193281 0.296762 5.32305e-06 6.49019e-06 2570 0.297104 6.49767e-06 0.00105127 15.8663 45724.7
0.204254 0.343507 6.28202e-06 6.36571e-06 3030 0.343311 6.36207e-06 0.000962209 20.0456 53962.1
0.215848 0.349657 7.41374e-06 5.49053e-06 3434 0.349499 5.48805e-06 0.000879423 21.4396 63683.5
0.228102 0.368683 8.74934e-06 4.90555e-06 4218 0.368658 4.90522e-06 0.000802624 25.78 75156.3
0.24105 0.413065 1.03256e-05 4.6571e-06 4766 0.413374 4.66058e-06 0.000731515 30.3421 88695.9
0.254734 0.450595 1.21857e-05 4.30472e-06 6026 0.45056 4.30438e-06 0.000665798 38.9611 104675
0.269195 0.49281 1.4381e-05 3.98932e-06 6480 0.492375 3.98581e-06 0.000605173 42.7164 123532
0.284476 0.538512 1.69718e-05 3.69383e-06 8162 0.539647 3.70162e-06 0.000549345 54.8819 145787
0.300625 0.56978 2.00293e-05 3.3117e-06 9578 0.57029 3.31466e-06 0.000498021 63.691 172051
0.317691 0.629289 2.36377e-05 3.09924e-06 11234 0.628563 3.09567e-06 0.000450916 77.2136 203046
0.335725 0.675452 2.78961e-05 2.81878e-06 13344 0.674439 2.81455e-06 0.000407755 92.2461 239625
0.354784 0.732965 3.29216e-05 2.59186e-06 15464 0.732378 2.58979e-06 0.000368269 108.835 282795
0.374924 0.783761 3.88525e-05 2.34841e-06 18458 0.78351 2.34766e-06 0.000332202 130.484 333741
0.396207 0.877078 4.58519e-05 2.22685e-06 22232 0.875963 2.22402e-06 0.000299307 165.407 393865
0.418699 0.939338 5.41123e-05 2.02086e-06 25628 0.936965 2.01575e-06 0.00026935 192.28 464821
0.442467 1.02698 6.38607e-05 1.87214e-06 30320 1.02483 1.86822e-06 0.000242108 234.454 548560
0.467585 1.11474 7.53654e-05 1.72192e-06 35452 1.11304 1.71929e-06 0.00021737 280.836 647384
0.494129 1.22324 8.89427e-05 1.60107e-06 41792 1.22257 1.6002e-06 0.000194938 343.247 764012
0.522179 1.3525 0.000104966 1.50002e-06 49988 1.35228 1.49978e-06 0.000174625 429.396 901651
0.551822 1.46828 0.000123876 1.37985e-06 59110 1.46643 1.37812e-06 0.000156255 521.986 1.06409e+06
0.583147 1.60622 0.000146192 1.27906e-06 69716 1.6034 1.27681e-06 0.000139664 638.467 1.25578e+06
0.616251 1.76266 0.000172529 1.18937e-06 82210 1.75897 1.18688e-06 0.0001247 784.105 1.48202e+06
0.651234 1.92463 0.000203611 1.10041e-06 96722 1.92068 1.09815e-06 0.00011122 956.967 1.74901e+06
0.688203 2.12742 0.000240292 1.03068e-06 113098 2.12389 1.02897e-06 9.90935e-05 1176.34 2.06409e+06
0.72727 2.32974 0.000283581 9.56399e-07 135190 2.32649 9.55066e-07 8.81969e-05 1465.99 2.43595e+06
0.768555 2.56102 0.000334669 8.90856e-07 158170 2.55767 8.89689e-07 7.84179e-05 1796.87 2.87479e+06
0.812184 2.85555 0.000394961 8.41676e-07 188560 2.85093 8.40315e-07 6.96525e-05 2278.55 3.39269e+06
0.85829 3.13984 0.000466114 7.84197e-07 220444 3.13497 7.82981e-07 6.1805e-05 2797.05 4.00389e+06
0.907013 3.4738 0.000550086 7.35164e-07 261388 3.46877 7.341e-07 5.47875e-05 3507.43 4.7252e+06
0.958501 3.84658 0.000649185 6.8979e-07 308244 3.84072 6.88737e-07 4.85194e-05 4382.24 5.57646e+06
1.01291 4.27933 0.000766138 6.50247e-07 364396 4.27235 6.49187e-07 4.29272e-05 5519.76 6.58107e+06
1.07041 4.73897 0.00090416 6.10167e-07 429162 4.73079 6.09114e-07 3.79435e-05 6901.34 7.76667e+06
1.13118 5.26243 0.00106705 5.74134e-07 506358 5.25352 5.73162e-07 3.3507e-05 8676.31 9.16586e+06
1.19539 5.83495 0.00125928 5.39419e-07 598590 5.82466 5.38467e-07 2.9562e-05 10922.5 1.08171e+07
1.26325 6.48976 0.00148614 5.08369e-07 704844 6.4785 5.07487e-07 2.60578e-05 13751 1.27658e+07
1.33496 7.22074 0.00175387 4.79285e-07 834620 7.2067 4.78353e-07 2.29484e-05 17431.3 1.50656e+07
1.41075 7.99227 0.00206984 4.49515e-07 981444 7.97593 4.48596e-07 2.01923e-05 21848.6 1.77798e+07
1.49083 8.89233 0.00244272 4.2379e-07 1.15998e+06 8.87617 4.2302e-07 1.77518e-05 27692.3 2.09828e+07
1.57546 9.84988 0.00288279 3.97767e-07 1.36931e+06 9.83059 3.96988e-07 1.55929e-05 34930.5 2.4763e+07
1.66489 10.9482 0.00340213 3.74629e-07 1.61652e+06 10.9264 3.73883e-07 1.3685e-05 44252.3 2.92241e+07
1.75941 12.1388 0.00401503 3.51963e-07 1.90601e+06 12.1157 3.51295e-07 1.20007e-05 55900.4 3.44889e+07
1.85928 13.4587 0.00473835 3.30663e-07 2.24913e+06 13.4334 3.30041e-07 1.05151e-05 70727.1 4.07021e+07
1.96483 14.9109 0.00559198 3.1042e-07 2.65744e+06 14.8812 3.098e-07 9.20606e-06 89606.4 4.80347e+07
2.07637 16.4467 0.00659939 2.90125e-07 3.13125e+06 16.4159 2.89581e-07 8.05366e-06 112800 5.66883e+07
2.19424 18.1385 0.00778828 2.71125e-07 3.69915e+06 18.1041 2.70611e-07 7.04008e-06 142460 6.69008e+07
2.3188 19.9923 0.00919136 2.53217e-07 4.36472e+06 19.9543 2.52736e-07 6.1494e-06 179728 7.89532e+07
2.45043 21.9923 0.0108472 2.36028e-07 5.14913e+06 21.9497 2.3557e-07 5.36741e-06 226429 9.31768e+07
2.58954 24.1219 0.0128014 2.19364e-07 6.07894e+06 24.0765 2.18951e-07 4.68145e-06 284847 1.09963e+08
2.73654 26.3973 0.0151076 2.03412e-07 7.17304e+06 26.3483 2.03033e-07 4.08023e-06 357597 1.29773e+08
2.89188 28.8615 0.0178292 1.8845e-07 8.46557e+06 28.8078 1.881e-07 3.55373e-06 448918 1.53152e+08
3.05605 31.4692 0.0210412 1.7411e-07 9.98773e+06 31.4114 1.73791e-07 3.09304e-06 562220 1.80743e+08
3.22953 34.2428 0.0248319 1.60535e-07 1.1797e+07 34.1815 1.60248e-07 2.69025e-06 703961 2.13304e+08
3.41286 37.1912 0.0293054 1.47742e-07 1.39144e+07 37.1244 1.47476e-07 2.33837e-06 879132 2.51731e+08
3.6066 40.2385 0.0345848 1.35446e-07 1.64163e+07 40.1682 1.35209e-07 2.0312e-06 1.09468e+06 2.97081e+08
3.81134 43.4803 0.0408154 1.24016e-07 1.93821e+07 43.4051 1.23802e-07 1.76327e-06 1.36321e+06 3.50601e+08
4.0277 46.8325 0.0481684 1.13187e-07 2.28754e+07 46.7496 1.12986e-07 1.52972e-06 1.69259e+06 4.13763e+08
4.25634 50.3495 0.056846 1.03111e-07 2.69929e+07 50.2622 1.02932e-07 1.32631e-06 2.09851e+06 4.88304e+08
4.49796 54.0162 0.067087 9.37337e-08 3.18542e+07 53.9229 9.35718e-08 1.14926e-06 2.59804e+06 5.76273e+08
4.7533 57.8593 0.0791729 8.5076e-08 3.75892e+07 57.7607 8.49309e-08 9.95263e-07 3.21316e+06 6.8009e+08
5.02313 61.8599 0.0934361 7.70734e-08 4.43706e+07 61.7556 7.69435e-08 8.61414e-07 3.96998e+06 8.0261e+08
5.30828 66.0141 0.110269 6.96937e-08 5.23593e+07 65.9038 6.95773e-08 7.45152e-07 4.89714e+06 9.47202e+08
5.60962 70.4057 0.130134 6.29835e-08 6.1787e+07 70.2883 6.28785e-08 6.44232e-07 6.04062e+06 1.11784e+09
5.92807 74.9533 0.153578 5.68161e-08 7.29346e+07 74.828 5.67211e-08 5.56685e-07 7.44381e+06 1.31923e+09
6.26459 79.7009 0.181246 5.11924e-08 8.60651e+07 79.5673 5.11066e-08 4.80786e-07 9.16391e+06 1.55689e+09
6.62021 84.6118 0.213898 4.60506e-08 1.01558e+08 84.472 4.59745e-08 4.15026e-07 1.12687e+07 1.83737e+09
6.99602 89.7092 0.252432 4.13717e-08 1.1986e+08 89.5611 4.13034e-08 3.58083e-07 1.38482e+07 2.16837e+09
7.39317 95.0892 0.297908 3.71586e-08 1.41457e+08 94.9327 3.70974e-08 3.08803e-07 1.70216e+07 2.55901e+09
7.81286 100.713 0.351577 3.33485e-08 1.66936e+08 100.547 3.32936e-08 2.66181e-07 2.09146e+07 3.02002e+09
8.25637 106.626 0.414914 2.99168e-08 1.97025e+08 106.45 2.98673e-08 2.29336e-07 2.57019e+07 3.56409e+09
8.72507 112.875 0.489662 2.68356e-08 2.32497e+08 112.687 2.67909e-08 1.97503e-07 3.15903e+07 4.20617e+09
9.22037 119.623 0.577876 2.40984e-08 2.74404e+08 119.422 2.40579e-08 1.70014e-07 3.8895e+07 4.96392e+09
9.74378 126.969 0.681982 2.16738e-08 3.2382e+08 126.751 2.16365e-08 1.46289e-07 4.79764e+07 5.85818e+09
10.2969 135.284 0.804843 1.95679e-08 3.82165e+08 135.041 1.95328e-08 1.25822e-07 5.94342e+07 6.91355e+09
10.8814 145.185 0.949838 1.77944e-08 4.51027e+08 144.906 1.77602e-08 1.08175e-07 7.41918e+07 8.15905e+09
11.4992 157.843 1.12095 1.63926e-08 5.32251e+08 157.505 1.63575e-08 9.29669e-08 9.38503e+07 9.62892e+09
12.1519 175.579 1.3229 1.5451e-08 6.28157e+08 175.136 1.5412e-08 7.98658e-08 1.21525e+08 1.13636e+10
12.8418 195.473 1.56122 1.45758e-08 3.82727e+08 202.32 1.50864e-08 6.85852e-08 8.13377e+07 1.34108e+10
13.5708 0 1.84248 0 0 0 0 5.88765e-08 0 1.58268e+10
14.3411 0 2.17441 0 0 0 0 5.05241e-08 0 1.8678e+10
15.1552 0 2.56613 0 0 0 0 4.33417e-08 0 2.20429e+10
16.0156 0 3.02843 0 0 0 0 3.71677e-08 0 2.6014e+10
16.9247 0 3.574 0 0 0 0 3.18628e-08 0 3.07005e+10
17.8855 0 4.21787 0 0 0 0 2.73063e-08 0 3.62312e+10
18.9008 0 4.97773 0 0 0 0 2.33941e-08 0 4.27584e+10
19.9738 0 5.87448 0 0 0 0 2.00364e-08 0 5.04614e+10
21.1076 0 6.93279 0 0 0 0 1.71555e-08 0 5.95522e+10
22.3058 0 8.18175 0 0 0 0 1.46847e-08 0 7.02807e+10
23.5721 0 9.65571 0 0 0 0 1.25662e-08 0 8.29419e+10
24.9102 0 11.3952 0 0 0 0 1.07504e-08 0 9.78842e+10
26.3243 0 13.4481 0 0 0 0 9.19452e-09 0 1.15518e+11
27.8187 0 15.8708 0 0 0 0 7.86182e-09 0 1.36329e+11
29.3979 0 18.73 0 0 0 0 6.72061e-09 0 1.60889e+11
31.0667 0 22.1042 0 0 0 0 5.74366e-09 0 1.89874e+11
32.8303 0 26.0864 0 0 0 0 4.90756e-09 0 2.2408e+11
34.694 0 30.7859 0 0 0 0 4.19221e-09 0 2.64449e+11
36.6634 0 36.3321 0 0 0 0 3.58032e-09 0 3.1209e+11
38.7447 0 42.8774 0 0 0 0 3.05709e-09 0 3.68314e+11
40.9442 0 50.6018 0 0 0 0 2.60976e-09 0 4.34667e+11
43.2685 0 59.7179 0 0 0 0 2.22743e-09 0 5.12973e+11
45.7247 0 70.4762 0 0 0 0 1.90073e-09 0 6.05386e+11
48.3204 0 83.1727 0 0 0 0 1.62163e-09 0 7.14448e+11
51.0634 0 98.1565 0 0 0 0 1.38326e-09 0 8.43158e+11
53.9621 0 115.84 0 0 0 0 1.1797e-09 0 9.95055e+11
57.0254 0 136.709 0 0 0 0 1.00592e-09 0 1.17432e+12
60.2626 0 161.337 0 0 0 0 8.57591e-10 0 1.38587e+12
63.6835 0 190.402 0 0 0 0 7.3101e-10 0 1.63554e+12
67.2987 0 224.704 0 0 0 0 6.23009e-10 0 1.93019e+12
71.1191 0 265.185 0 0 0 0 5.30879e-10 0 2.27792e+12
75.1563 0 312.958 0 0 0 0 4.52303e-10 0 2.68829e+12
79.4227 0 369.339 0 0 0 0 3.85299e-10 0 3.17259e+12
83.9313 0 435.876 0 0 0 0 3.28173e-10 0 3.74415e+12
88.6959 0 514.4 0 0 0 0 2.79476e-10 0 4.41866e+12
93.7309 0 607.071 0 0 0 0 2.37972e-10 0 5.2147e+12
99.0518 0 716.436 0 0 0 0 2.02605e-10 0 6.15414e+12
104.675 0 845.504 0 0 0 0 1.72471e-10 0 7.26283e+12
110.617 0 997.824 0 0 0 0 1.468e-10 0 8.57124e+12
116.896 0 1177.58 0 0 0 0 1.24935e-10 0 1.01154e+13
123.532 0 1389.73 0 0 0 0 1.06313e-10 0 1.19377e+13
130.545 0 1640.09 0 0 0 0 9.04567e-11 0 1.40883e+13
137.955 0 1935.56 0 0 0 0 7.69563e-11 0 1.66263e+13
145.787 0 2284.26 0 0 0 0 6.54636e-11 0 1.96216e+13
154.063 0 2695.77 0 0 0 0 5.56812e-11 0 2.31565e+13
162.808 0 3181.42 0 0 0 0 4.73556e-11 0 2.73282e+13
172.051 0 3754.56 0 0 0 0 4.02708e-11 0 3.22515e+13
181.818 0 4430.96 0 0 0 0 3.42426e-11 0 3.80616e+13
192.139 0 5229.21 0 0 0 0 2.91139e-11 0 4.49186e+13
203.046 0 6171.26 0 0 0 0 2.4751e-11 0 5.30108e+13
214.572 0 7283.03 0 0 0 0 2.10401e-11 0 6.25608e+13
226.753 0 8595.09 0 0 0 0 1.78839e-11 0 7.38313e+13
239.625 0 10143.5 0 0 0 0 1.51999e-11 0 8.71322e+13
253.228 0 11970.9 0 0 0 0 1.29176e-11 0 1.02829e+14
267.603 0 14127.5 0 0 0 0 1.09771e-11 0 1.21354e+14
282.795 0 16672.6 0 0 0 0 9.3274e-12 0 1.43217e+14
298.848 0 19676.2 0 0 0 0 7.925e-12 0 1.69017e+14
315.813 0 23220.9 0 0 0 0 6.73295e-12 0 1.99466e+14
333.741 0 27404.3 0 0 0 0 5.71979e-12 0 2.35401e+14
352.686 0 32341.2 0 0 0 0 4.85874e-12 0 2.77809e+14
372.707 0 38167.6 0 0 0 0 4.12703e-12 0 3.27857e+14
393.865 0 45043.5 0 0 0 0 3.50528e-12 0 3.86921e+14
416.224 0 53158.3 0 0 0 0 2.97701e-12 0 4.56626e+14
439.852 0 62734.9 0 0 0 0 2.52819e-12 0 5.38888e+14
464.821 0 74036.7 0 0 0 0 2.1469e-12 0 6.35971e+14
491.207 0 87374.6 0 0 0 0 1.82301e-12 0 7.50542e+14
519.092 0 103115 0 0 0 0 1.54789e-12 0 8.85755e+14
548.56 0 121692 0 0 0 0 1.31422e-12 0 1.04533e+15
579.7 0 143615 0 0 0 0 1.11576e-12 0 1.23364e+15
612.608 0 169488 0 0 0 0 9.47223e-13 0 1.45589e+15
647.384 0 200021 0 0 0 0 8.041e-13 0 1.71817e+15
684.134 0 236056 0 0 0 0 6.82568e-13 0 2.0277e+15
722.971 0 278582 0 0 0 0 5.79376e-13 0 2.393e+15
764.012 0 328769 0 0 0 0 4.91762e-13 0 2.8241e+15
