0.824149
200
1.0655e+09
8589934592
0.0129181 0 1.58924e-09 0 0 0 0 0.00677225 0 13.6515
0.0136515 0 1.87554e-09 0 0 0 0 0.00688819 0 16.1108
0.0144264 0 2.21343e-09 0 0 0 0 0.00699249 0 19.0132
0.0152454 0 2.61218e-09 0 0 0 0 0.00708412 0 22.4385
0.0161108 0 3.08278e-09 0 0 0 0 0.00716212 0 26.4808
0.0170254 0 3.63815e-09 0 0 0 0 0.00722559 0 31.2514
0.0179919 0 4.29357e-09 0 0 0 0 0.00727371 0 36.8815
0.0190132 0 5.06707e-09 0 0 0 0 0.00730578 0 43.5258
0.0200925 0 5.97991e-09 0 0 0 0 0.00732122 0 51.367
0.0212331 0 7.05721e-09 0 0 0 0 0.00731958 0 60.621
0.0224385 0 8.32858e-09 0 0 0 0 0.00730056 0 71.542
0.0237123 0 9.829e-09 0 0 0 0 0.00726401 0 84.4305
0.0250583 0 1.15997e-08 0 0 0 0 0.00720995 0 99.6408
0.0264808 0 1.36894e-08 0 0 0 0 0.00713857 0 117.591
0.0279841 0 1.61556e-08 0 0 0 0 0.00705021 0 138.776
0.0295727 0 1.90661e-08 0 0 0 0 0.00694538 0 163.777
0.0312514 0 2.25009e-08 0 0 0 0 0.00682475 0 193.281
0.0330255 0 2.65545e-08 0 0 0 0 0.00668915 0 228.102
0.0349003 0 3.13384e-08 0 0 0 0 0.00653951 0 269.195
0.0368815 0 3.69841e-08 0 0 0 0 0.00637693 0 317.691
0.0389751 0 4.36469e-08 0 0 0 0 0.00620256 0 374.924
0.0411876 0 5.151e-08 0 0 0 0 0.00601767 0 442.467
0.0435258 0 6.07896e-08 0 0 0 0 0.00582358 0 522.179
0.0459966 0 7.1741e-08 0 0 0 0 0.00562166 0 616.251
0.0486077 0 8.46654e-08 0 0 0 0 0.0054133 0 727.27
0.051367 0 9.99181e-08 0 0 0 0 0.00519989 0 858.29
0.054283 0 1.17919e-07 0 0 0 0 0.0049828 0 1012.91
0.0573645 0 1.39162e-07 0 0 0 0 0.00476339 0 1195.39
0.060621 0 1.64232e-07 0 0 0 0 0.00454293 0 1410.75
0.0640622 0 1.93819e-07 0 0 0 0 0.00432265 0 1664.89
0.0676989 0 2.28736e-07 0 0 0 0 0.00410371 0 1964.83
0.071542 0 2.69944e-07 0 0 0 0 0.00388717 0 2318.8
0.0756032 0 3.18575e-07 0 0 0 0 0.00367401 0 2736.54
0.079895 0 3.75967e-07 0 0 0 0 0.0034651 0 3229.53
0.0844305 0 4.43698e-07 0 0 0 0 0.00326121 0 3811.34
0.0892234 0 5.23632e-07 0 0 0 0 0.00306301 0 4497.96
0.0942883 0 6.17966e-07 0 0 0 0 0.00287109 0 5308.28
0.0996408 0 7.29294e-07 0 0 0 0 0.00268591 0 6264.59
0.105297 0 8.60678e-07 0 0 0 0 0.00250785 0 7393.17
0.111275 0 1.01573e-06 0 0 0 0 0.00233721 0 8725.07
0.117591 0 1.19872e-06 0 0 0 0 0.00217419 0 10296.9
0.124267 0 1.41467e-06 0 0 0 0 0.00201893 0 12151.9
0.131321 0 1.66953e-06 0 0 0 0 0.00187147 0 14341.1
0.138776 0 1.9703e-06 0 0 0 0 0.00173182 0 16924.7
0.146654 0 2.32525e-06 0 0 0 0 0.00159991 0 19973.8
0.154979 0 2.74415e-06 0 0 0 0 0.00147563 0 23572.1
0.163777 0 3.23852e-06 0 0 0 0 0.00135884 0 27818.7
0.173074 0 3.82195e-06 0 0 0 0 0.00124933 0 32830.3
0.182899 0 4.51048e-06 0 0 0 0 0.00114689 0 38744.7
0.193281 0 5.32305e-06 0 0 0 0 0.00105127 0 45724.7
0.204254 0 6.28202e-06 0 0 0 0 0.000962209 0 53962.1
0.215848 0 7.41374e-06 0 0 0 0 0.000879423 0 63683.5
0.228102 0 8.74934e-06 0 0 0 0 0.000802624 0 75156.3
0.24105 0 1.03256e-05 0 0 0 0 0.000731515 0 88695.9
0.254734 0 1.21857e-05 0 0 0 0 0.000665798 0 104675
0.269195 0 1.4381e-05 0 0 0 0 0.000605173 0 123532
0.284476 0 1.69718e-05 0 0 0 0 0.000549345 0 145787
0.300625 0 2.00293e-05 0 0 0 0 0.000498021 0 172051
0.317691 0 2.36377e-05 0 0 0 0 0.000450916 0 203046
0.335725 0 2.78961e-05 0 0 0 0 0.000407755 0 239625
0.354784 0 3.29216e-05 0 0 0 0 0.000368269 0 282795
0.374924 0 3.88525e-05 0 0 0 0 0.000332202 0 333741
0.396207 2.23699 4.58519e-05 5.67958e-06 6 2.1748 5.52168e-06 0.000299307 0.113855 393865
0.418699 0 5.41123e-05 0 0 0 0 0.00026935 0 464821
0.442467 0 6.38607e-05 0 0 0 0 0.000242108 0 548560
0.467585 0 7.53654e-05 0 0 0 0 0.00021737 0 647384
0.494129 0 8.89427e-05 0 0 0 0 0.000194938 0 764012
0.522179 0 0.000104966 0 0 0 0 0.000174625 0 901651
0.551822 0 0.000123876 0 0 0 0 0.000156255 0 1.06409e+06
0.583147 5.16118 0.000146192 4.10993e-06 12 5.43217 4.32572e-06 0.000139664 0.353127 1.25578e+06
0.616251 0 0.000172529 0 0 0 0 0.0001247 0 1.48202e+06
0.651234 0 0.000203611 0 0 0 0 0.00011122 0 1.74901e+06
0.688203 14.942 0.000240292 7.23901e-06 8 14.5703 7.05891e-06 9.90935e-05 0.584419 2.06409e+06
0.72727 0 0.000283581 0 0 0 0 8.81969e-05 0 2.43595e+06
0.768555 0 0.000334669 0 0 0 0 7.84179e-05 0 2.87479e+06
0.812184 9.23577 0.000394961 2.72226e-06 6 9.43323 2.78046e-06 6.96525e-05 0.2345 3.39269e+06
0.85829 0 0.000466114 0 0 0 0 6.1805e-05 0 4.00389e+06
0.907013 2.30721 0.000550086 4.88278e-07 24 2.35148 4.97646e-07 5.47875e-05 0.213893 4.7252e+06
0.958501 5.24106 0.000649185 9.39854e-07 24 4.93407 8.84803e-07 4.85194e-05 0.464896 5.57646e+06
1.01291 0 0.000766138 0 0 0 0 4.29272e-05 0 6.58107e+06
1.07041 0 0.00090416 0 0 0 0 3.79435e-05 0 7.76667e+06
1.13118 6.76388 0.00106705 7.37942e-07 12 6.68079 7.28878e-07 3.3507e-05 0.264282 9.16586e+06
1.19539 3.14742 0.00125928 2.90967e-07 30 3.08254 2.84968e-07 2.9562e-05 0.295277 1.08171e+07
1.26325 10.8247 0.00148614 8.4794e-07 24 10.6618 8.35181e-07 2.60578e-05 0.780977 1.27658e+07
1.33496 15.9827 0.00175387 1.06087e-06 24 16.0178 1.0632e-06 2.29484e-05 1.10948 1.50656e+07
1.41075 14.1952 0.00206984 7.9839e-07 32 14.4091 8.10424e-07 2.01923e-05 1.26526 1.77798e+07
1.49083 5.61283 0.00244272 2.67496e-07 48 5.49317 2.61793e-07 1.77518e-05 0.723298 2.09828e+07
1.57546 34.9671 0.00288279 1.41208e-06 6 33.2966 1.34461e-06 1.55929e-05 0.543354 2.4763e+07
1.66489 6.25265 0.00340213 2.13956e-07 84 6.12923 2.09732e-07 1.3685e-05 1.31328 2.92241e+07
1.75941 8.02679 0.00401503 2.32736e-07 48 7.93751 2.30147e-07 1.20007e-05 0.930891 3.44889e+07
1.85928 5.99307 0.00473835 1.47242e-07 72 6.05528 1.48771e-07 1.05151e-05 1.00821 4.07021e+07
1.96483 16.017 0.00559198 3.33447e-07 54 15.6329 3.2545e-07 9.20606e-06 1.9559 4.80347e+07
2.07637 16.2932 0.00659939 2.87417e-07 104 16.4396 2.89999e-07 8.05366e-06 3.71153 5.66883e+07
2.19424 8.41493 0.00778828 1.25782e-07 120 8.56894 1.28084e-07 7.04008e-06 2.14399 6.69008e+07
2.3188 9.3625 0.00919136 1.18583e-07 156 9.17121 1.1616e-07 6.1494e-06 3.00825 7.89532e+07
2.45043 10.5995 0.0108472 1.13757e-07 126 10.5231 1.12937e-07 5.36741e-06 2.67045 9.31768e+07
2.58954 13.0108 0.0128014 1.1832e-07 192 13.1172 1.19288e-07 4.68145e-06 4.85265 1.09963e+08
2.73654 33.4778 0.0151076 2.57972e-07 152 34.0503 2.62384e-07 4.08023e-06 9.61016 1.29773e+08
2.89188 15.2897 0.0178292 9.98337e-08 378 15.5047 1.01237e-07 3.55373e-06 10.619 1.53152e+08
3.05605 16.3933 0.0210412 9.06997e-08 264 16.221 8.97463e-08 3.09304e-06 7.74148 1.80743e+08
3.22953 18.311 0.0248319 8.58448e-08 366 18.1966 8.53084e-08 2.69025e-06 11.6789 2.13304e+08
3.41286 17.5405 0.0293054 6.96796e-08 428 17.3556 6.89451e-08 2.33837e-06 12.7537 2.51731e+08
3.6066 23.1526 0.0345848 7.79335e-08 486 22.8928 7.70592e-08 2.0312e-06 18.6469 2.97081e+08
3.81134 18.7795 0.0408154 5.35637e-08 600 18.7742 5.35485e-08 1.76327e-06 18.2265 3.50601e+08
4.0277 23.8984 0.0481684 5.77588e-08 738 23.8001 5.7521e-08 1.52972e-06 27.8652 4.13763e+08
4.25634 24.9068 0.056846 5.10068e-08 824 24.8458 5.08819e-08 1.32631e-06 31.6892 4.88304e+08
4.49796 26.7804 0.067087 4.64718e-08 954 26.6487 4.62432e-08 1.14926e-06 38.5763 5.76273e+08
4.7533 27.9035 0.0791729 4.10291e-08 1094 27.6547 4.06634e-08 9.95263e-07 45.0995 6.8009e+08
5.02313 29.2356 0.0934361 3.64257e-08 1332 29.4428 3.66838e-08 8.61414e-07 56.3248 8.0261e+08
5.30828 35.6357 0.110269 3.7622e-08 1614 35.6083 3.75931e-08 7.45152e-07 81.4893 9.47202e+08
5.60962 41.9433 0.130134 3.75217e-08 1850 41.9077 3.74898e-08 6.44232e-07 107.748 1.11784e+09
5.92807 35.8206 0.153578 2.71528e-08 2238 35.7576 2.7105e-08 5.56685e-07 109.16 1.31923e+09
6.26459 36.9289 0.181246 2.37197e-08 2546 37.0974 2.38279e-08 4.80786e-07 125.608 1.55689e+09
6.62021 38.3627 0.213898 2.08792e-08 3264 38.4286 2.0915e-08 4.15026e-07 164.206 1.83737e+09
6.99602 44.6114 0.252432 2.05737e-08 3506 44.6443 2.05889e-08 3.58083e-07 201.438 2.16837e+09
7.39317 48.5181 0.297908 1.89597e-08 4506 48.5059 1.8955e-08 3.08803e-07 276.656 2.55901e+09
7.81286 52.7311 0.351577 1.74605e-08 5018 52.5054 1.73858e-08 2.66181e-07 329.162 3.02002e+09
8.25637 53.9495 0.414914 1.5137e-08 5852 53.9922 1.5149e-08 2.29336e-07 386.252 3.56409e+09
8.72507 57.3575 0.489662 1.36365e-08 7362 57.2624 1.36139e-08 1.97503e-07 508.307 4.20617e+09
9.22037 60.5664 0.577876 1.22013e-08 8306 60.3322 1.21542e-08 1.70014e-07 596.092 4.96392e+09
9.74378 65.529 0.681982 1.11859e-08 9698 65.463 1.11746e-08 1.46289e-07 741.551 5.85818e+09
10.2969 68.3987 0.804843 9.89343e-09 11816 68.3162 9.8815e-09 1.25822e-07 929.093 6.91355e+09
10.8814 78.2636 0.949838 9.59225e-09 13682 78.0961 9.57172e-09 1.08175e-07 1213.23 8.15905e+09
11.4992 79.8466 1.12095 8.29237e-09 16152 79.745 8.28182e-09 9.29669e-08 1440.71 9.62892e+09
12.1519 83.2823 1.3229 7.32887e-09 19472 83.1417 7.31649e-09 7.98658e-08 1786.84 1.13636e+10
12.8418 86.353 1.56122 6.43907e-09 22670 86.1457 6.42362e-09 6.85852e-08 2128.36 1.34108e+10
13.5708 93.1104 1.84248 5.8831e-09 26224 92.9971 5.87594e-09 5.88765e-08 2620.37 1.58268e+10
14.3411 99.888 2.17441 5.3479e-09 31640 99.7567 5.34087e-09 5.05241e-08 3349.04 1.8678e+10
15.1552 103.949 2.56613 4.71578e-09 37484 103.815 4.70967e-09 4.33417e-08 4078.43 2.20429e+10
16.0156 114.531 3.02843 4.40269e-09 43856 114.322 4.39464e-09 3.71677e-08 5194.94 2.6014e+10
16.9247 118.838 3.574 3.87089e-09 51362 118.71 3.86673e-09 3.18628e-08 6239.77 3.07005e+10
17.8855 125.812 4.21787 3.47246e-09 61636 125.606 3.46679e-09 2.73063e-08 7838.07 3.62312e+10
18.9008 132.635 4.97773 3.10197e-09 72218 132.324 3.09468e-09 2.33941e-08 9575.83 4.27584e+10
19.9738 139.902 5.87448 2.77245e-09 84586 139.675 2.76795e-09 2.00364e-08 11704.2 5.04614e+10
21.1076 150.065 6.93279 2.51989e-09 100708 149.885 2.51686e-09 1.71555e-08 14792.5 5.95522e+10
22.3058 159.391 8.18175 2.26793e-09 118712 159.073 2.26339e-09 1.46847e-08 18334.1 7.02807e+10
23.5721 165.75 9.65571 1.99839e-09 140410 165.414 1.99434e-09 1.25662e-08 22329.3 8.29419e+10
24.9102 174.517 11.3952 1.78289e-09 164374 174.16 1.77925e-09 1.07504e-08 27260.6 9.78842e+10
26.3243 184.107 13.4481 1.59375e-09 194680 183.827 1.59133e-09 9.19452e-09 33745.2 1.15518e+11
27.8187 194.699 15.8708 1.42815e-09 230196 194.405 1.426e-09 7.86182e-09 41816.6 1.36329e+11
29.3979 205.061 18.73 1.27455e-09 271156 204.745 1.27258e-09 6.72061e-09 51424 1.60889e+11
31.0667 216.181 22.1042 1.13855e-09 321076 215.781 1.13644e-09 5.74366e-09 63646.1 1.89874e+11
32.8303 228.428 26.0864 1.0194e-09 377436 227.996 1.01747e-09 4.90756e-09 78401.5 2.2408e+11
34.694 239.856 30.7859 9.07004e-10 447594 239.395 9.0526e-10 4.19221e-09 96839.1 2.64449e+11
36.6634 252.675 36.3321 8.09621e-10 525078 252.181 8.0804e-10 3.58032e-09 118736 3.1209e+11
38.7447 266.328 42.8774 7.231e-10 621924 265.821 7.21723e-10 3.05709e-09 147105 3.68314e+11
40.9442 280.054 50.6018 6.44295e-10 732630 279.545 6.43124e-10 2.60976e-09 180871 4.34667e+11
43.2685 293.807 59.7179 5.72754e-10 865596 293.327 5.71819e-10 2.22743e-09 222577 5.12973e+11
45.7247 309.75 70.4762 5.11656e-10 1.02168e+06 309.242 5.10817e-10 1.90073e-09 275024 6.05386e+11
48.3204 322.961 83.1727 4.52043e-10 1.20544e+06 322.392 4.51246e-10 1.62163e-09 336025 7.14448e+11
51.0634 339.231 98.1565 4.02333e-10 1.42103e+06 338.67 4.01669e-10 1.38326e-09 413320 8.43158e+11
53.9621 355.995 115.84 3.57764e-10 1.67997e+06 355.39 3.57156e-10 1.1797e-09 509477 9.95055e+11
57.0254 374.383 136.709 3.18809e-10 1.98018e+06 373.717 3.18242e-10 1.00592e-09 627585 1.17432e+12
60.2626 393.464 161.337 2.83911e-10 2.33957e+06 392.773 2.83412e-10 8.57591e-10 774528 1.38587e+12
63.6835 413.535 190.402 2.52843e-10 2.75676e+06 412.799 2.52392e-10 7.3101e-10 953515 1.63554e+12
67.2987 436.506 224.704 2.26147e-10 3.25638e+06 435.73 2.25745e-10 6.23009e-10 1.18204e+06 1.93019e+12
71.1191 459.498 265.185 2.01718e-10 3.84387e+06 458.683 2.01361e-10 5.30879e-10 1.46056e+06 2.27792e+12
75.1563 485.582 312.958 1.80628e-10 4.53277e+06 484.719 1.80307e-10 4.52303e-10 1.81017e+06 2.68829e+12
79.4227 514.321 369.339 1.62114e-10 5.35083e+06 513.401 1.61824e-10 3.85299e-10 2.25135e+06 3.17259e+12
83.9313 545.904 435.876 1.45802e-10 6.32174e+06 544.869 1.45526e-10 3.28173e-10 2.80865e+06 3.74415e+12
88.6959 580.954 514.4 1.31477e-10 7.44986e+06 579.811 1.31219e-10 2.79476e-10 3.50472e+06 4.41866e+12
93.7309 620.079 607.071 1.1891e-10 8.79764e+06 618.86 1.18676e-10 2.37972e-10 4.396e+06 5.2147e+12
99.0518 665.938 716.436 1.0821e-10 1.03827e+07 664.599 1.07992e-10 2.02605e-10 5.54532e+06 6.15414e+12
104.675 717.633 845.504 9.88091e-11 1.22515e+07 716.093 9.8597e-11 1.72471e-10 7.01893e+06 7.26283e+12
110.617 778.232 997.824 9.07958e-11 1.44573e+07 776.52 9.05959e-11 1.468e-10 8.94184e+06 8.57124e+12
116.896 849.469 1177.58 8.3978e-11 1.70664e+07 847.542 8.37875e-11 1.24935e-10 1.14716e+07 1.01154e+13
123.532 933.181 1389.73 7.8171e-11 2.0139e+07 930.929 7.79823e-11 1.06313e-10 1.4808e+07 1.19377e+13
130.545 1032.32 1640.09 7.32753e-11 2.37643e+07 1029.75 7.30928e-11 9.04567e-11 1.92505e+07 1.40883e+13
137.955 1148.65 1935.56 6.90863e-11 2.80503e+07 1145.68 6.89077e-11 7.69563e-11 2.51817e+07 1.66263e+13
145.787 1287.15 2284.26 6.55988e-11 3.30981e+07 1283.7 6.54228e-11 6.54636e-11 3.31665e+07 1.96216e+13
154.063 1452.69 2695.77 6.27335e-11 3.90634e+07 1448.68 6.25605e-11 5.56812e-11 4.4011e+07 2.31565e+13
162.808 1648.78 3181.42 6.03326e-11 4.61057e+07 1644.09 6.01607e-11 4.73556e-11 5.87401e+07 2.73282e+13
172.051 1881.83 3754.56 5.83487e-11 5.44046e+07 1876.31 5.81775e-11 4.02708e-11 7.88272e+07 3.22515e+13
181.818 2161.17 4430.96 5.67807e-11 6.42064e+07 2154.71 5.66111e-11 3.42426e-11 1.06466e+08 3.80616e+13
192.139 2494.44 5229.21 5.55324e-11 7.57748e+07 2486.8 5.53625e-11 2.91139e-11 1.44534e+08 4.49186e+13
203.046 2891.89 6171.26 5.45529e-11 8.94213e+07 2882.88 5.43829e-11 2.4751e-11 1.9709e+08 5.30108e+13
214.572 3366.39 7283.03 5.38099e-11 1.05538e+08 3355.64 5.36381e-11 2.10401e-11 2.69914e+08 6.25608e+13
226.753 3937.04 8595.09 5.33248e-11 1.24552e+08 3924.3 5.31522e-11 1.78839e-11 3.71378e+08 7.38313e+13
239.625 4620.79 10143.5 5.3032e-11 1.46987e+08 4605.54 5.28569e-11 1.51999e-11 5.12833e+08 8.71322e+13
253.228 5444.21 11970.9 5.29441e-11 1.7347e+08 5425.97 5.27668e-11 1.29176e-11 7.10984e+08 1.02829e+14
267.603 6438.12 14127.5 5.30523e-11 2.04703e+08 6416.18 5.28715e-11 1.09771e-11 9.89324e+08 1.21354e+14
282.795 7651.09 16672.6 5.34232e-11 2.4161e+08 7624.58 5.32381e-11 9.3274e-12 1.38383e+09 1.43217e+14
298.848 9139.42 19676.2 5.40738e-11 2.85122e+08 9106.96 5.38818e-11 7.925e-12 1.94545e+09 1.69017e+14
315.813 10989.8 23220.9 5.5096e-11 3.36491e+08 10949.7 5.48948e-11 6.73295e-12 2.75352e+09 1.99466e+14
333.741 13327.1 27404.3 5.66145e-11 3.97115e+08 13276.7 5.64004e-11 5.71979e-12 3.93064e+09 2.35401e+14
352.686 16350.1 32341.2 5.88538e-11 4.68637e+08 16285.2 5.862e-11 4.85874e-12 5.67659e+09 2.77809e+14
372.707 20372.3 38167.6 6.21379e-11 5.53074e+08 20286.6 6.18763e-11 4.12703e-12 8.32726e+09 3.27857e+14
393.865 25939.8 45043.5 6.70416e-11 6.52716e+08 25821.9 6.67368e-11 3.50528e-12 1.24838e+10 3.86921e+14
416.224 30619.6 53158.3 6.70561e-11 2.2184e+08 32392.6 7.09391e-11 2.97701e-12 4.99687e+09 4.56626e+14
439.852 0 62734.9 0 0 0 0 2.52819e-12 0 5.38888e+14
464.821 0 74036.7 0 0 0 0 2.1469e-12 0 6.35971e+14
491.207 0 87374.6 0 0 0 0 1.82301e-12 0 7.50542e+14
519.092 0 103115 0 0 0 0 1.54789e-12 0 8.85755e+14
548.56 0 121692 0 0 0 0 1.31422e-12 0 1.04533e+15
579.7 0 143615 0 0 0 0 1.11576e-12 0 1.23364e+15
612.608 0 169488 0 0 0 0 9.47223e-13 0 1.45589e+15
647.384 0 200021 0 0 0 0 8.041e-13 0 1.71817e+15
684.134 0 236056 0 0 0 0 6.82568e-13 0 2.0277e+15
722.971 0 278582 0 0 0 0 5.79376e-13 0 2.393e+15
764.012 0 328769 0 0 0 0 4.91762e-13 0 2.8241e+15
0.824149
200
1.0655e+09
8589934592
0.0129181 0.00163161 1.58924e-09 0.000119519 6 0.00161667 0.000118425 0.00677225 0.10589 13.6515
0.0136515 0 1.87554e-09 0 0 0 0 0.00688819 0 16.1108
0.0144264 0 2.21343e-09 0 0 0 0 0.00699249 0 19.0132
0.0152454 0 2.61218e-09 0 0 0 0 0.00708412 0 22.4385
0.0161108 0 3.08278e-09 0 0 0 0 0.00716212 0 26.4808
0.0170254 0 3.63815e-09 0 0 0 0 0.00722559 0 31.2514
0.0179919 0.00361816 4.29357e-09 9.81025e-05 12 0.0036135 9.79761e-05 0.00727371 0.161847 36.8815
0.0190132 0 5.06707e-09 0 0 0 0 0.00730578 0 43.5258
0.0200925 0 5.97991e-09 0 0 0 0 0.00732122 0 51.367
0.0212331 0.00341968 7.05721e-09 5.64109e-05 8 0.00341671 5.63618e-05 0.00731958 0.0616548 60.621
0.0224385 0 8.32858e-09 0 0 0 0 0.00730056 0 71.542
0.0237123 0 9.829e-09 0 0 0 0 0.00726401 0 84.4305
0.0250583 0.0215403 1.15997e-08 0.000216179 6 0.0215301 0.000216077 0.00720995 0.179901 99.6408
0.0264808 0 1.36894e-08 0 0 0 0 0.00713857 0 117.591
0.0279841 0.0132521 1.61556e-08 9.5493e-05 24 0.0132385 9.5395e-05 0.00705021 0.325073 138.776
0.0295727 0 1.90661e-08 0 0 0 0 0.00694538 0 163.777
0.0312514 0.0235212 2.25009e-08 0.000121694 24 0.0236406 0.000122312 0.00682475 0.42795 193.281
0.0330255 0 2.65545e-08 0 0 0 0 0.00668915 0 228.102
0.0349003 0.035597 3.13384e-08 0.000132235 12 0.0353119 0.000131176 0.00653951 0.242651 269.195
0.0368815 0.0285543 3.69841e-08 8.98807e-05 30 0.0282502 8.89236e-05 0.00637693 0.42284 317.691
0.0389751 0.0323661 4.36469e-08 8.63272e-05 24 0.0320332 8.54391e-05 0.00620256 0.334032 374.924
0.0411876 0.0207651 5.151e-08 4.69303e-05 24 0.0206241 4.66116e-05 0.00601767 0.18717 442.467
0.0435258 0.0512979 6.07896e-08 9.82381e-05 8 0.0512939 9.82306e-05 0.00582358 0.134952 522.179
0.0459966 0.0629046 7.1741e-08 0.000102076 72 0.0624085 0.000101271 0.00562166 1.30735 616.251
0.0486077 0 8.46654e-08 0 0 0 0 0.0054133 0 727.27
0.051367 0.0864954 9.99181e-08 0.000100776 54 0.0862089 0.000100443 0.00519989 1.04655 858.29
0.054283 0.0697918 1.17919e-07 6.89021e-05 60 0.0701082 6.92144e-05 0.0049828 0.829679 1012.91
0.0573645 0.065356 1.39162e-07 5.46732e-05 96 0.0651886 5.45332e-05 0.00476339 1.10187 1195.39
0.060621 0.0775891 1.64232e-07 5.49986e-05 24 0.0765379 5.42535e-05 0.00454293 0.290554 1410.75
0.0640622 0.133459 1.93819e-07 8.01607e-05 134 0.13352 8.01973e-05 0.00432265 2.48494 1664.89
0.0676989 0.130571 2.28736e-07 6.64539e-05 120 0.129934 6.61297e-05 0.00410371 1.94323 1964.83
0.071542 0.122896 2.69944e-07 5.29999e-05 108 0.121539 5.24145e-05 0.00388717 1.47253 2318.8
0.0756032 0.181947 3.18575e-07 6.64881e-05 174 0.180938 6.61194e-05 0.00367401 3.14885 2736.54
0.079895 0.190392 3.75967e-07 5.89534e-05 168 0.188603 5.83993e-05 0.0034651 2.85827 3229.53
0.0844305 0.158855 4.43698e-07 4.16795e-05 168 0.159642 4.18861e-05 0.00326121 2.1471 3811.34
0.0892234 0.189685 5.23632e-07 4.21713e-05 290 0.188798 4.19742e-05 0.00306301 3.9927 4497.96
0.0942883 0.229708 6.17966e-07 4.32734e-05 288 0.229211 4.31798e-05 0.00287109 4.34077 5308.28
0.0996408 0.205691 7.29294e-07 3.28339e-05 366 0.204107 3.25811e-05 0.00268591 4.47416 6264.59
0.105297 0.241256 8.60678e-07 3.26323e-05 420 0.239536 3.23997e-05 0.00250785 5.46506 7393.17
0.111275 0.258144 1.01573e-06 2.95865e-05 398 0.257414 2.95028e-05 0.00233721 5.03823 8725.07
0.117591 0.307 1.19872e-06 2.98147e-05 624 0.307842 2.98965e-05 0.00217419 8.55692 10296.9
0.124267 0.356191 1.41467e-06 2.93115e-05 642 0.355395 2.9246e-05 0.00201893 9.32079 12151.9
0.131321 0.421963 1.66953e-06 2.94233e-05 800 0.422071 2.94308e-05 0.00187147 12.5776 14341.1
0.138776 0.388909 1.9703e-06 2.29787e-05 858 0.390571 2.3077e-05 0.00173182 11.3844 16924.7
0.146654 0.451637 2.32525e-06 2.26115e-05 1080 0.455397 2.27998e-05 0.00159991 15.2636 19973.8
0.154979 0.526865 2.74415e-06 2.23512e-05 1286 0.530198 2.24926e-05 0.00147563 19.4789 23572.1
0.163777 0.514699 3.23852e-06 1.85019e-05 1650 0.516152 1.85542e-05 0.00135884 22.4664 27818.7
0.173074 0.576079 3.82195e-06 1.75472e-05 1778 0.576503 1.75601e-05 0.00124933 24.9725 32830.3
0.182899 0.616336 4.51048e-06 1.59076e-05 2112 0.617777 1.59448e-05 0.00114689 29.2938 38744.7
0.193281 0.68262 5.32305e-06 1.49289e-05 2570 0.683164 1.49408e-05 0.00105127 36.4961 45724.7
0.204254 0.800231 6.28202e-06 1.48295e-05 3030 0.799713 1.48199e-05 0.000962209 46.6981 53962.1
0.215848 0.831215 7.41374e-06 1.30523e-05 3434 0.830882 1.3047e-05 0.000879423 50.967 63683.5
0.228102 0.882122 8.74934e-06 1.17372e-05 4218 0.881634 1.17307e-05 0.000802624 61.6819 75156.3
0.24105 0.982888 1.03256e-05 1.10815e-05 4766 0.983478 1.10882e-05 0.000731515 72.199 88695.9
0.254734 1.07215 1.21857e-05 1.02427e-05 6026 1.07213 1.02425e-05 0.000665798 92.7046 104675
0.269195 1.21902 1.4381e-05 9.86804e-06 6480 1.21793 9.85918e-06 0.000605173 105.664 123532
0.284476 1.31646 1.69718e-05 9.03002e-06 8162 1.31886 9.04647e-06 0.000549345 134.165 145787
0.300625 1.45024 2.00293e-05 8.42916e-06 9578 1.45089 8.43295e-06 0.000498021 162.111 172051
0.317691 1.60432 2.36377e-05 7.90128e-06 11234 1.60283 7.89391e-06 0.000450916 196.85 203046
0.335725 1.72982 2.78961e-05 7.21885e-06 13344 1.72661 7.20544e-06 0.000407755 236.241 239625
0.354784 1.94216 3.29216e-05 6.86776e-06 15464 1.94089 6.86326e-06 0.000368269 288.384 282795
0.374924 2.09199 3.88525e-05 6.26832e-06 18458 2.09008 6.26259e-06 0.000332202 348.284 333741
0.396207 2.41814 4.58519e-05 6.1395e-06 22232 2.41443 6.13009e-06 0.000299307 456.032 393865
0.418699 2.59654 5.41123e-05 5.58612e-06 25628 2.59026 5.57261e-06 0.00026935 531.506 464821
0.442467 2.83235 6.38607e-05 5.16325e-06 30320 2.8275 5.15442e-06 0.000242108 646.612 548560
0.467585 3.20634 7.53654e-05 4.95277e-06 35452 3.20056 4.94383e-06 0.00021737 807.771 647384
0.494129 3.54176 8.89427e-05 4.63574e-06 41792 3.5378 4.63055e-06 0.000194938 993.836 764012
0.522179 3.98535 0.000104966 4.42006e-06 49988 3.9849 4.41956e-06 0.000174625 1265.28 901651
0.551822 4.43382 0.000123876 4.16679e-06 59110 4.42781 4.16114e-06 0.000156255 1576.27 1.06409e+06
0.583147 4.92434 0.000146192 3.92133e-06 69716 4.91621 3.91485e-06 0.000139664 1957.41 1.25578e+06
0.616251 5.48669 0.000172529 3.70218e-06 82210 5.47587 3.69488e-06 0.0001247 2440.71 1.48202e+06
0.651234 6.06673 0.000203611 3.46868e-06 96722 6.05295 3.46079e-06 0.00011122 3016.51 1.74901e+06
0.688203 6.87701 0.000240292 3.33173e-06 113098 6.86597 3.32639e-06 9.90935e-05 3802.6 2.06409e+06
0.72727 7.66846 0.000283581 3.14804e-06 135190 7.65731 3.14347e-06 8.81969e-05 4825.39 2.43595e+06
0.768555 8.56905 0.000334669 2.98076e-06 158170 8.55642 2.97636e-06 7.84179e-05 6012.23 2.87479e+06
0.812184 9.58357 0.000394961 2.82477e-06 188560 9.56719 2.81994e-06 6.96525e-05 7647.08 3.39269e+06
0.85829 10.7037 0.000466114 2.67333e-06 220444 10.6861 2.66894e-06 6.1805e-05 9535.13 4.00389e+06
0.907013 11.9671 0.000550086 2.53261e-06 261388 11.9466 2.52827e-06 5.47875e-05 12082.9 4.7252e+06
0.958501 13.3814 0.000649185 2.39963e-06 308244 13.3615 2.39606e-06 4.85194e-05 15244.8 5.57646e+06
1.01291 15.0171 0.000766138 2.28186e-06 364396 14.9918 2.27802e-06 4.29272e-05 19370 6.58107e+06
1.07041 16.6756 0.00090416 2.14707e-06 429162 16.6447 2.1431e-06 3.79435e-05 24284.6 7.76667e+06
1.13118 18.5972 0.00106705 2.02897e-06 506358 18.5658 2.02554e-06 3.3507e-05 30661.8 9.16586e+06
1.19539 20.7969 0.00125928 1.92259e-06 598590 20.7584 1.91903e-06 2.9562e-05 38929.8 1.08171e+07
1.26325 23.1121 0.00148614 1.81047e-06 704844 23.0694 1.80712e-06 2.60578e-05 48971.7 1.27658e+07
1.33496 25.6821 0.00175387 1.70468e-06 834620 25.631 1.70129e-06 2.29484e-05 61998.1 1.50656e+07
1.41075 28.461 0.00206984 1.60075e-06 981444 28.4064 1.59768e-06 2.01923e-05 77804.4 1.77798e+07
1.49083 31.4717 0.00244272 1.49988e-06 1.15998e+06 31.4148 1.49716e-06 1.77518e-05 98008.4 2.09828e+07
1.57546 34.8218 0.00288279 1.4062e-06 1.36931e+06 34.7583 1.40364e-06 1.55929e-05 123488 2.4763e+07
1.66489 38.4725 0.00340213 1.31647e-06 1.61652e+06 38.4008 1.31401e-06 1.3685e-05 155505 2.92241e+07
1.75941 42.4124 0.00401503 1.22974e-06 1.90601e+06 42.3349 1.2275e-06 1.20007e-05 195314 3.44889e+07
1.85928 46.5318 0.00473835 1.14323e-06 2.24913e+06 46.4441 1.14107e-06 1.05151e-05 244531 4.07021e+07
1.96483 50.9405 0.00559198 1.06049e-06 2.65744e+06 50.8426 1.05846e-06 9.20606e-06 306125 4.80347e+07
2.07637 55.6922 0.00659939 9.82429e-07 3.13125e+06 55.589 9.80608e-07 8.05366e-06 381967 5.66883e+07
2.19424 60.7381 0.00778828 9.07882e-07 3.69915e+06 60.6271 9.06223e-07 7.04008e-06 477039 6.69008e+07
2.3188 65.9859 0.00919136 8.3576e-07 4.36472e+06 65.8705 8.34298e-07 6.1494e-06 593206 7.89532e+07
2.45043 71.8406 0.0108472 7.71013e-07 5.14913e+06 71.7177 7.69695e-07 5.36741e-06 739658 9.31768e+07
2.58954 77.7771 0.0128014 7.07303e-07 6.07894e+06 77.6397 7.06054e-07 4.68145e-06 918445 1.09963e+08
2.73654 84.2465 0.0151076 6.49183e-07 7.17304e+06 84.1004 6.48057e-07 4.08023e-06 1.14126e+06 1.29773e+08
2.89188 91.1378 0.0178292 5.95081e-07 8.46557e+06 90.9834 5.94073e-07 3.55373e-06 1.41758e+06 1.53152e+08
3.05605 98.2243 0.0210412 5.43448e-07 9.98773e+06 98.0602 5.4254e-07 3.09304e-06 1.75485e+06 1.80743e+08
3.22953 105.86 0.0248319 4.96287e-07 1.1797e+07 105.684 4.95461e-07 2.69025e-06 2.17626e+06 2.13304e+08
3.41286 113.698 0.0293054 4.51666e-07 1.39144e+07 113.504 4.50893e-07 2.33837e-06 2.68762e+06 2.51731e+08
3.6066 122.033 0.0345848 4.10773e-07 1.64163e+07 121.829 4.10087e-07 2.0312e-06 3.31989e+06 2.97081e+08
3.81134 130.913 0.0408154 3.73395e-07 1.93821e+07 130.695 3.72773e-07 1.76327e-06 4.10443e+06 3.50601e+08
4.0277 140.201 0.0481684 3.38845e-07 2.28754e+07 139.968 3.38281e-07 1.52972e-06 5.06707e+06 4.13763e+08
4.25634 150.02 0.056846 3.07228e-07 2.69929e+07 149.768 3.06711e-07 1.32631e-06 6.25268e+06 4.88304e+08
4.49796 160.279 0.067087 2.7813e-07 3.18542e+07 160.01 2.77663e-07 1.14926e-06 7.70899e+06 5.76273e+08
4.7533 171.013 0.0791729 2.51457e-07 3.75892e+07 170.73 2.5104e-07 9.95263e-07 9.49705e+06 6.8009e+08
5.02313 182.337 0.0934361 2.2718e-07 4.43706e+07 182.037 2.26806e-07 8.61414e-07 1.17018e+07 8.0261e+08
5.30828 194.29 0.110269 2.05119e-07 5.23593e+07 193.969 2.04781e-07 7.45152e-07 1.4413e+07 9.47202e+08
5.60962 206.716 0.130134 1.84924e-07 6.1787e+07 206.372 1.84616e-07 6.44232e-07 1.77357e+07 1.11784e+09
5.92807 219.912 0.153578 1.66697e-07 7.29346e+07 219.547 1.66421e-07 5.56685e-07 2.184e+07 1.31923e+09
6.26459 233.564 0.181246 1.5002e-07 8.60651e+07 233.173 1.49769e-07 4.80786e-07 2.68549e+07 1.55689e+09
6.62021 247.863 0.213898 1.34901e-07 1.01558e+08 247.451 1.34677e-07 4.15026e-07 3.30108e+07 1.83737e+09
6.99602 263 0.252432 1.21289e-07 1.1986e+08 262.564 1.21088e-07 3.58083e-07 4.05988e+07 2.16837e+09
7.39317 278.806 0.297908 1.08951e-07 1.41457e+08 278.348 1.08772e-07 3.08803e-07 4.99081e+07 2.55901e+09
7.81286 295.27 0.351577 9.77708e-08 1.66936e+08 294.782 9.76092e-08 2.66181e-07 6.13171e+07 3.02002e+09
8.25637 312.687 0.414914 8.77328e-08 1.97025e+08 312.172 8.75882e-08 2.29336e-07 7.53722e+07 3.56409e+09
8.72507 331.054 0.489662 7.87069e-08 2.32497e+08 330.505 7.85762e-08 1.97503e-07 9.26523e+07 4.20617e+09
9.22037 350.593 0.577876 7.06282e-08 2.74404e+08 350.003 7.05095e-08 1.70014e-07 1.13995e+08 4.96392e+09
9.74378 372.13 0.681982 6.3523e-08 3.2382e+08 371.491 6.34139e-08 1.46289e-07 1.40612e+08 5.85818e+09
10.2969 395.976 0.804843 5.72754e-08 3.82165e+08 395.271 5.71734e-08 1.25822e-07 1.73965e+08 6.91355e+09
10.8814 424.46 0.949838 5.20232e-08 4.51027e+08 423.648 5.19237e-08 1.08175e-07 2.16906e+08 8.15905e+09
11.4992 460.962 1.12095 4.78726e-08 5.32251e+08 459.985 4.77711e-08 9.29669e-08 2.74079e+08 9.62892e+09
12.1519 512.022 1.3229 4.50581e-08 6.28157e+08 510.74 4.49453e-08 7.98658e-08 3.54389e+08 1.13636e+10
12.8418 569.495 1.56122 4.24655e-08 3.82727e+08 589.448 4.39533e-08 6.85852e-08 2.3697e+08 1.34108e+10
13.5708 0 1.84248 0 0 0 0 5.88765e-08 0 1.58268e+10
14.3411 0 2.17441 0 0 0 0 5.05241e-08 0 1.8678e+10
15.1552 0 2.56613 0 0 0 0 4.33417e-08 0 2.20429e+10
16.0156 0 3.02843 0 0 0 0 3.71677e-08 0 2.6014e+10
16.9247 0 3.574 0 0 0 0 3.18628e-08 0 3.07005e+10
17.8855 0 4.21787 0 0 0 0 2.73063e-08 0 3.62312e+10
18.9008 0 4.97773 0 0 0 0 2.33941e-08 0 4.27584e+10
19.9738 0 5.87448 0 0 0 0 2.00364e-08 0 5.04614e+10
21.1076 0 6.93279 0 0 0 0 1.71555e-08 0 5.95522e+10
22.3058 0 8.18175 0 0 0 0 1.46847e-08 0 7.02807e+10
23.5721 0 9.65571 0 0 0 0 1.25662e-08 0 8.29419e+10
24.9102 0 11.3952 0 0 0 0 1.07504e-08 0 9.78842e+10
26.3243 0 13.4481 0 0 0 0 9.19452e-09 0 1.15518e+11
27.8187 0 15.8708 0 0 0 0 7.86182e-09 0 1.36329e+11
29.3979 0 18.73 0 0 0 0 6.72061e-09 0 1.60889e+11
31.0667 0 22.1042 0 0 0 0 5.74366e-09 0 1.89874e+11
32.8303 0 26.0864 0 0 0 0 4.90756e-09 0 2.2408e+11
34.694 0 30.7859 0 0 0 0 4.19221e-09 0 2.64449e+11
36.6634 0 36.3321 0 0 0 0 3.58032e-09 0 3.1209e+11
38.7447 0 42.8774 0 0 0 0 3.05709e-09 0 3.68314e+11
40.9442 0 50.6018 0 0 0 0 2.60976e-09 0 4.34667e+11
43.2685 0 59.7179 0 0 0 0 2.22743e-09 0 5.12973e+11
45.7247 0 70.4762 0 0 0 0 1.90073e-09 0 6.05386e+11
48.3204 0 83.1727 0 0 0 0 1.62163e-09 0 7.14448e+11
51.0634 0 98.1565 0 0 0 0 1.38326e-09 0 8.43158e+11
53.9621 0 115.84 0 0 0 0 1.1797e-09 0 9.95055e+11
57.0254 0 136.709 0 0 0 0 1.00592e-09 0 1.17432e+12
60.2626 0 161.337 0 0 0 0 8.57591e-10 0 1.38587e+12
63.6835 0 190.402 0 0 0 0 7.3101e-10 0 1.63554e+12
67.2987 0 224.704 0 0 0 0 6.23009e-10 0 1.93019e+12
71.1191 0 265.185 0 0 0 0 5.30879e-10 0 2.27792e+12
75.1563 0 312.958 0 0 0 0 4.52303e-10 0 2.68829e+12
79.4227 0 369.339 0 0 0 0 3.85299e-10 0 3.17259e+12
83.9313 0 435.876 0 0 0 0 3.28173e-10 0 3.74415e+12
88.6959 0 514.4 0 0 0 0 2.79476e-10 0 4.41866e+12
93.7309 0 607.071 0 0 0 0 2.37972e-10 0 5.2147e+12
99.0518 0 716.436 0 0 0 0 2.02605e-10 0 6.15414e+12
104.675 0 845.504 0 0 0 0 1.72471e-10 0 7.26283e+12
110.617 0 997.824 0 0 0 0 1.468e-10 0 8.57124e+12
116.896 0 1177.58 0 0 0 0 1.24935e-10 0 1.01154e+13
123.532 0 1389.73 0 0 0 0 1.06313e-10 0 1.19377e+13
130.545 0 1640.09 0 0 0 0 9.04567e-11 0 1.40883e+13
137.955 0 1935.56 0 0 0 0 7.69563e-11 0 1.66263e+13
145.787 0 2284.26 0 0 0 0 6.54636e-11 0 1.96216e+13
154.063 0 2695.77 0 0 0 0 5.56812e-11 0 2.31565e+13
162.808 0 3181.42 0 0 0 0 4.73556e-11 0 2.73282e+13
172.051 0 3754.56 0 0 0 0 4.02708e-11 0 3.22515e+13
181.818 0 4430.96 0 0 0 0 3.42426e-11 0 3.80616e+13
192.139 0 5229.21 0 0 0 0 2.91139e-11 0 4.49186e+13
203.046 0 6171.26 0 0 0 0 2.4751e-11 0 5.30108e+13
214.572 0 7283.03 0 0 0 0 2.10401e-11 0 6.25608e+13
226.753 0 8595.09 0 0 0 0 1.78839e-11 0 7.38313e+13
239.625 0 10143.5 0 0 0 0 1.51999e-11 0 8.71322e+13
253.228 0 11970.9 0 0 0 0 1.29176e-11 0 1.02829e+14
267.603 0 14127.5 0 0 0 0 1.09771e-11 0 1.21354e+14
282.795 0 16672.6 0 0 0 0 9.3274e-12 0 1.43217e+14
298.848 0 19676.2 0 0 0 0 7.925e-12 0 1.69017e+14
315.813 0 23220.9 0 0 0 0 6.73295e-12 0 1.99466e+14
333.741 0 27404.3 0 0 0 0 5.71979e-12 0 2.35401e+14
352.686 0 32341.2 0 0 0 0 4.85874e-12 0 2.77809e+14
372.707 0 38167.6 0 0 0 0 4.12703e-12 0 3.27857e+14
393.865 0 45043.5 0 0 0 0 3.50528e-12 0 3.86921e+14
416.224 0 53158.3 0 0 0 0 2.97701e-12 0 4.56626e+14
439.852 0 62734.9 0 0 0 0 2.52819e-12 0 5.38888e+14
464.821 0 74036.7 0 0 0 0 2.1469e-12 0 6.35971e+14
491.207 0 87374.6 0 0 0 0 1.82301e-12 0 7.50542e+14
519.092 0 103115 0 0 0 0 1.54789e-12 0 8.85755e+14
548.56 0 121692 0 0 0 0 1.31422e-12 0 1.04533e+15
579.7 0 143615 0 0 0 0 1.11576e-12 0 1.23364e+15
612.608 0 169488 0 0 0 0 9.47223e-13 0 1.45589e+15
647.384 0 200021 0 0 0 0 8.041e-13 0 1.71817e+15
684.134 0 236056 0 0 0 0 6.82568e-13 0 2.0277e+15
722.971 0 278582 0 0 0 0 5.79376e-13 0 2.393e+15
764.012 0 328769 0 0 0 0 4.91762e-13 0 2.8241e+15
