0.0841144
200
1.0655e+09
8589934592
0.0129181 0 1.58924e-09 0 0 0 0 0.00677225 0 13.6515
0.0136515 0 1.87554e-09 0 0 0 0 0.00688819 0 16.1108
0.0144264 0 2.21343e-09 0 0 0 0 0.00699249 0 19.0132
0.0152454 0 2.61218e-09 0 0 0 0 0.00708412 0 22.4385
0.0161108 0 3.08278e-09 0 0 0 0 0.00716212 0 26.4808
0.0170254 0 3.63815e-09 0 0 0 0 0.00722559 0 31.2514
0.0179919 0 4.29357e-09 0 0 0 0 0.00727371 0 36.8815
0.0190132 0 5.06707e-09 0 0 0 0 0.00730578 0 43.5258
0.0200925 0 5.97991e-09 0 0 0 0 0.00732122 0 51.367
0.0212331 0 7.05721e-09 0 0 0 0 0.00731958 0 60.621
0.0224385 0 8.32858e-09 0 0 0 0 0.00730056 0 71.542
0.0237123 0 9.829e-09 0 0 0 0 0.00726401 0 84.4305
0.0250583 0 1.15997e-08 0 0 0 0 0.00720995 0 99.6408
0.0264808 0 1.36894e-08 0 0 0 0 0.00713857 0 117.591
0.0279841 0 1.61556e-08 0 0 0 0 0.00705021 0 138.776
0.0295727 0 1.90661e-08 0 0 0 0 0.00694538 0 163.777
0.0312514 0 2.25009e-08 0 0 0 0 0.00682475 0 193.281
0.0330255 0 2.65545e-08 0 0 0 0 0.00668915 0 228.102
0.0349003 0 3.13384e-08 0 0 0 0 0.00653951 0 269.195
0.0368815 0 3.69841e-08 0 0 0 0 0.00637693 0 317.691
0.0389751 0 4.36469e-08 0 0 0 0 0.00620256 0 374.924
0.0411876 0 5.151e-08 0 0 0 0 0.00601767 0 442.467
0.0435258 0 6.07896e-08 0 0 0 0 0.00582358 0 522.179
0.0459966 0 7.1741e-08 0 0 0 0 0.00562166 0 616.251
0.0486077 0 8.46654e-08 0 0 0 0 0.0054133 0 727.27
0.051367 0 9.99181e-08 0 0 0 0 0.00519989 0 858.29
0.054283 0 1.17919e-07 0 0 0 0 0.0049828 0 1012.91
0.0573645 0 1.39162e-07 0 0 0 0 0.00476339 0 1195.39
0.060621 0 1.64232e-07 0 0 0 0 0.00454293 0 1410.75
0.0640622 0 1.93819e-07 0 0 0 0 0.00432265 0 1664.89
0.0676989 0 2.28736e-07 0 0 0 0 0.00410371 0 1964.83
0.071542 0 2.69944e-07 0 0 0 0 0.00388717 0 2318.8
0.0756032 0 3.18575e-07 0 0 0 0 0.00367401 0 2736.54
0.079895 0 3.75967e-07 0 0 0 0 0.0034651 0 3229.53
0.0844305 0 4.43698e-07 0 0 0 0 0.00326121 0 3811.34
0.0892234 0 5.23632e-07 0 0 0 0 0.00306301 0 4497.96
0.0942883 0 6.17966e-07 0 0 0 0 0.00287109 0 5308.28
0.0996408 0 7.29294e-07 0 0 0 0 0.00268591 0 6264.59
0.105297 0 8.60678e-07 0 0 0 0 0.00250785 0 7393.17
0.111275 0 1.01573e-06 0 0 0 0 0.00233721 0 8725.07
0.117591 0 1.19872e-06 0 0 0 0 0.00217419 0 10296.9
0.124267 0 1.41467e-06 0 0 0 0 0.00201893 0 12151.9
0.131321 0 1.66953e-06 0 0 0 0 0.00187147 0 14341.1
0.138776 0 1.9703e-06 0 0 0 0 0.00173182 0 16924.7
0.146654 0 2.32525e-06 0 0 0 0 0.00159991 0 19973.8
0.154979 0 2.74415e-06 0 0 0 0 0.00147563 0 23572.1
0.163777 0 3.23852e-06 0 0 0 0 0.00135884 0 27818.7
0.173074 0 3.82195e-06 0 0 0 0 0.00124933 0 32830.3
0.182899 0 4.51048e-06 0 0 0 0 0.00114689 0 38744.7
0.193281 0 5.32305e-06 0 0 0 0 0.00105127 0 45724.7
0.204254 0 6.28202e-06 0 0 0 0 0.000962209 0 53962.1
0.215848 0 7.41374e-06 0 0 0 0 0.000879423 0 63683.5
0.228102 0 8.74934e-06 0 0 0 0 0.000802624 0 75156.3
0.24105 0 1.03256e-05 0 0 0 0 0.000731515 0 88695.9
0.254734 0 1.21857e-05 0 0 0 0 0.000665798 0 104675
0.269195 0 1.4381e-05 0 0 0 0 0.000605173 0 123532
0.284476 0 1.69718e-05 0 0 0 0 0.000549345 0 145787
0.300625 0 2.00293e-05 0 0 0 0 0.000498021 0 172051
0.317691 0 2.36377e-05 0 0 0 0 0.000450916 0 203046
0.335725 0 2.78961e-05 0 0 0 0 0.000407755 0 239625
0.354784 0 3.29216e-05 0 0 0 0 0.000368269 0 282795
0.374924 0 3.88525e-05 0 0 0 0 0.000332202 0 333741
0.396207 0.799434 4.58519e-05 2.02972e-06 6 0.777208 1.97329e-06 0.000299307 0.0406883 393865
0.418699 0 5.41123e-05 0 0 0 0 0.00026935 0 464821
0.442467 0 6.38607e-05 0 0 0 0 0.000242108 0 548560
0.467585 0 7.53654e-05 0 0 0 0 0.00021737 0 647384
0.494129 0 8.89427e-05 0 0 0 0 0.000194938 0 764012
0.522179 0 0.000104966 0 0 0 0 0.000174625 0 901651
0.551822 0 0.000123876 0 0 0 0 0.000156255 0 1.06409e+06
0.583147 4.89747 0.000146192 3.89993e-06 12 5.15461 4.1047e-06 0.000139664 0.335084 1.25578e+06
0.616251 0 0.000172529 0 0 0 0 0.0001247 0 1.48202e+06
0.651234 0 0.000203611 0 0 0 0 0.00011122 0 1.74901e+06
0.688203 22.3332 0.000240292 1.08198e-05 8 21.7776 1.05507e-05 9.90935e-05 0.873506 2.06409e+06
0.72727 0 0.000283581 0 0 0 0 8.81969e-05 0 2.43595e+06
0.768555 0 0.000334669 0 0 0 0 7.84179e-05 0 2.87479e+06
0.812184 0.224217 0.000394961 6.60883e-08 6 0.229011 6.75013e-08 6.96525e-05 0.00569297 3.39269e+06
0.85829 0 0.000466114 0 0 0 0 6.1805e-05 0 4.00389e+06
0.907013 0.167667 0.000550086 3.54835e-08 24 0.170884 3.61643e-08 5.47875e-05 0.0155438 4.7252e+06
0.958501 0.638097 0.000649185 1.14427e-07 24 0.600721 1.07724e-07 4.85194e-05 0.056601 5.57646e+06
1.01291 0 0.000766138 0 0 0 0 4.29272e-05 0 6.58107e+06
1.07041 0 0.00090416 0 0 0 0 3.79435e-05 0 7.76667e+06
1.13118 1.16659 0.00106705 1.27276e-07 12 1.15226 1.25712e-07 3.3507e-05 0.0455817 9.16586e+06
1.19539 1.03687 0.00125928 9.58548e-08 30 1.0155 9.38787e-08 2.9562e-05 0.0972749 1.08171e+07
1.26325 5.86594 0.00148614 4.59503e-07 24 5.77767 4.52588e-07 2.60578e-05 0.423215 1.27658e+07
1.33496 16.9076 0.00175387 1.12226e-06 24 16.9448 1.12473e-06 2.29484e-05 1.17369 1.50656e+07
1.41075 4.96579 0.00206984 2.79294e-07 32 5.10922 2.87362e-07 2.01923e-05 0.442615 1.77798e+07
1.49083 0.304055 0.00244272 1.44907e-08 48 0.297573 1.41817e-08 1.77518e-05 0.0391821 2.09828e+07
1.57546 0.0363936 0.00288279 1.46968e-09 6 0.0346549 1.39946e-09 1.55929e-05 0.00056552 2.4763e+07
1.66489 0.375607 0.00340213 1.28527e-08 84 0.36451 1.2473e-08 1.3685e-05 0.0788909 2.92241e+07
1.75941 2.02976 0.00401503 5.88526e-08 48 2.04494 5.92928e-08 1.20007e-05 0.235397 3.44889e+07
1.85928 0.18516 0.00473835 4.54916e-09 72 0.185524 4.55808e-09 1.05151e-05 0.0311494 4.07021e+07
1.96483 0.92255 0.00559198 1.92059e-08 54 0.897777 1.86902e-08 9.20606e-06 0.112656 4.80347e+07
2.07637 7.57142 0.00659939 1.33562e-07 104 7.5522 1.33223e-07 8.05366e-06 1.72474 5.66883e+07
2.19424 0.185276 0.00778828 2.76941e-09 120 0.186691 2.79056e-09 7.04008e-06 0.0472053 6.69008e+07
2.3188 1.44694 0.00919136 1.83265e-08 156 1.37467 1.74112e-08 6.1494e-06 0.464913 7.89532e+07
2.45043 0.475665 0.0108472 5.10497e-09 126 0.475194 5.09991e-09 5.36741e-06 0.119839 9.31768e+07
2.58954 0.468186 0.0128014 4.25768e-09 192 0.476031 4.32901e-09 4.68145e-06 0.17462 1.09963e+08
2.73654 3.37542 0.0151076 2.60102e-08 152 3.49781 2.69533e-08 4.08023e-06 0.96895 1.29773e+08
2.89188 3.28349 0.0178292 2.14395e-08 378 3.36282 2.19574e-08 3.55373e-06 2.28045 1.53152e+08
3.05605 1.07205 0.0210412 5.93138e-09 264 1.05366 5.82961e-09 3.09304e-06 0.50626 1.80743e+08
3.22953 0.154715 0.0248319 7.25328e-10 366 0.152775 7.16233e-10 2.69025e-06 0.0986785 2.13304e+08
3.41286 0.606466 0.0293054 2.40918e-09 428 0.577658 2.29474e-09 2.33837e-06 0.44096 2.51731e+08
3.6066 2.89973 0.0345848 9.76073e-09 486 2.8016 9.43042e-09 2.0312e-06 2.33542 2.97081e+08
3.81134 0.580381 0.0408154 1.65539e-09 600 0.576287 1.64371e-09 1.76327e-06 0.563291 3.50601e+08
4.0277 0.436773 0.0481684 1.05561e-09 738 0.428971 1.03675e-09 1.52972e-06 0.50927 4.13763e+08
4.25634 0.917874 0.056846 1.87972e-09 824 0.955005 1.95576e-09 1.32631e-06 1.16782 4.88304e+08
4.49796 2.33331 0.067087 4.04896e-09 954 2.35323 4.08353e-09 1.14926e-06 3.36105 5.76273e+08
4.7533 0.438255 0.0791729 6.44408e-10 1094 0.428987 6.30779e-10 9.95263e-07 0.708338 6.8009e+08
5.02313 0.232114 0.0934361 2.89199e-10 1332 0.231669 2.88645e-10 8.61414e-07 0.447186 8.0261e+08
5.30828 1.85209 0.110269 1.95532e-09 1614 1.87621 1.9808e-09 7.45152e-07 4.23523 9.47202e+08
5.60962 0.814532 0.130134 7.28664e-10 1850 0.786666 7.03735e-10 6.44232e-07 2.09246 1.11784e+09
5.92807 1.17058 0.153578 8.87325e-10 2238 1.11843 8.47791e-10 5.56685e-07 3.56725 1.31923e+09
6.26459 0.497831 0.181246 3.19761e-10 2546 0.505693 3.2481e-10 4.80786e-07 1.69329 1.55689e+09
6.62021 0.156093 0.213898 8.4955e-11 3264 0.156034 8.49229e-11 4.15026e-07 0.668135 1.83737e+09
6.99602 1.1617 0.252432 5.35746e-10 3506 1.20393 5.55223e-10 3.58083e-07 5.24551 2.16837e+09
7.39317 0.461937 0.297908 1.80514e-10 4506 0.468924 1.83244e-10 3.08803e-07 2.63402 2.55901e+09
7.81286 0.941271 0.351577 3.11677e-10 5018 0.974982 3.22839e-10 2.66181e-07 5.87568 3.02002e+09
8.25637 0.836653 0.414914 2.34745e-10 5852 0.802199 2.25078e-10 2.29336e-07 5.99003 3.56409e+09
8.72507 0.504961 0.489662 1.20052e-10 7362 0.498634 1.18548e-10 1.97503e-07 4.475 4.20617e+09
9.22037 0.751693 0.577876 1.51431e-10 8306 0.742214 1.49522e-10 1.70014e-07 7.39814 4.96392e+09
9.74378 0.236353 0.681982 4.03458e-11 9698 0.237083 4.04704e-11 1.46289e-07 2.67466 5.85818e+09
10.2969 0.745071 0.804843 1.0777e-10 11816 0.759929 1.09919e-10 1.25822e-07 10.1207 6.91355e+09
10.8814 0.613941 0.949838 7.52467e-11 13682 0.615001 7.53766e-11 1.08175e-07 9.51718 8.15905e+09
11.4992 0.601909 1.12095 6.25105e-11 16152 0.589893 6.12627e-11 9.29669e-08 10.8605 9.62892e+09
12.1519 0.591676 1.3229 5.20677e-11 19472 0.576649 5.07453e-11 7.98658e-08 12.6946 1.13636e+10
12.8418 0.294366 1.56122 2.195e-11 22670 0.29785 2.22097e-11 6.85852e-08 7.2553 1.34108e+10
13.5708 0.591621 1.84248 3.73811e-11 26224 0.601183 3.79852e-11 5.88765e-08 16.6498 1.58268e+10
14.3411 0.510788 2.17441 2.7347e-11 31640 0.518729 2.77722e-11 5.05241e-08 17.1257 1.8678e+10
15.1552 0.57665 2.56613 2.61603e-11 37484 0.581794 2.63937e-11 4.33417e-08 22.6247 2.20429e+10
16.0156 0.536694 3.02843 2.0631e-11 43856 0.544949 2.09483e-11 3.71677e-08 24.3435 2.6014e+10
16.9247 0.860993 3.574 2.80449e-11 51362 0.859021 2.79807e-11 3.18628e-08 45.2077 3.07005e+10
17.8855 0.858346 4.21787 2.36908e-11 61636 0.85039 2.34712e-11 2.73063e-08 53.475 3.62312e+10
18.9008 1.29405 4.97773 3.02643e-11 72218 1.28454 3.00418e-11 2.33941e-08 93.4264 4.27584e+10
19.9738 1.85315 5.87448 3.67242e-11 84586 1.83979 3.64593e-11 2.00364e-08 155.035 5.04614e+10
21.1076 2.70077 6.93279 4.53513e-11 100708 2.69471 4.52496e-11 1.71555e-08 266.226 5.95522e+10
22.3058 4.09547 8.18175 5.82731e-11 118712 4.0972 5.82977e-11 1.46847e-08 471.084 7.02807e+10
23.5721 5.69918 9.65571 6.87129e-11 140410 5.67679 6.84429e-11 1.25662e-08 767.775 8.29419e+10
24.9102 6.66988 11.3952 6.81405e-11 164374 6.64625 6.78991e-11 1.07504e-08 1041.87 9.78842e+10
26.3243 7.84708 13.4481 6.79293e-11 194680 7.81591 6.76595e-11 9.19452e-09 1438.3 1.15518e+11
27.8187 8.97885 15.8708 6.58615e-11 230196 8.94658 6.56248e-11 7.86182e-09 1928.44 1.36329e+11
29.3979 10.5337 18.73 6.54719e-11 271156 10.4971 6.52443e-11 6.72061e-09 2641.59 1.60889e+11
31.0667 12.6583 22.1042 6.66671e-11 321076 12.6128 6.6427e-11 5.74366e-09 3726.75 1.89874e+11
32.8303 14.9306 26.0864 6.66304e-11 377436 14.8822 6.64148e-11 4.90756e-09 5124.48 2.2408e+11
34.694 17.3583 30.7859 6.56396e-11 447594 17.2949 6.53997e-11 4.19221e-09 7008.22 2.64449e+11
36.6634 19.8121 36.3321 6.34819e-11 525078 19.7537 6.32949e-11 3.58032e-09 9310.04 3.1209e+11
38.7447 22.3914 42.8774 6.07945e-11 621924 22.3281 6.06226e-11 3.05709e-09 12367.8 3.68314e+11
40.9442 25.945 50.6018 5.96893e-11 732630 25.8722 5.9522e-11 2.60976e-09 16756.4 4.34667e+11
43.2685 30.2148 59.7179 5.89013e-11 865596 30.1183 5.87132e-11 2.22743e-09 22889.5 5.12973e+11
45.7247 35.8053 70.4762 5.91445e-11 1.02168e+06 35.6797 5.89371e-11 1.90073e-09 31791.2 6.05386e+11
48.3204 42.9031 83.1727 6.00507e-11 1.20544e+06 42.7535 5.98413e-11 1.62163e-09 44638.5 7.14448e+11
51.0634 51.0508 98.1565 6.05471e-11 1.42103e+06 50.8782 6.03425e-11 1.38326e-09 62200.5 8.43158e+11
53.9621 60.4436 115.84 6.0744e-11 1.67997e+06 60.2478 6.05472e-11 1.1797e-09 86503 9.95055e+11
57.0254 71.2977 136.709 6.07141e-11 1.98018e+06 71.0686 6.05191e-11 1.00592e-09 119517 1.17432e+12
60.2626 83.784 161.337 6.04558e-11 2.33957e+06 83.5129 6.02601e-11 8.57591e-10 164928 1.38587e+12
63.6835 98.7175 190.402 6.03576e-11 2.75676e+06 98.394 6.01598e-11 7.3101e-10 227619 1.63554e+12
67.2987 116.405 224.704 6.03077e-11 3.25638e+06 116.033 6.01148e-11 6.23009e-10 315220 1.93019e+12
71.1191 137.318 265.185 6.02824e-11 3.84387e+06 136.868 6.00848e-11 5.30879e-10 436479 2.27792e+12
75.1563 162.211 312.958 6.03398e-11 4.53277e+06 161.68 6.01422e-11 4.52303e-10 604696 2.68829e+12
79.4227 191.225 369.339 6.02741e-11 5.35083e+06 190.61 6.00803e-11 3.85299e-10 837053 3.17259e+12
83.9313 225.639 435.876 6.02644e-11 6.32174e+06 224.888 6.00638e-11 3.28173e-10 1.1609e+06 3.74415e+12
88.6959 266.632 514.4 6.03422e-11 7.44986e+06 265.745 6.01415e-11 2.79476e-10 1.60851e+06 4.41866e+12
93.7309 314.337 607.071 6.0279e-11 8.79764e+06 313.307 6.00815e-11 2.37972e-10 2.22847e+06 5.2147e+12
99.0518 371.421 716.436 6.0353e-11 1.03827e+07 370.202 6.01549e-11 2.02605e-10 3.09285e+06 6.15414e+12
104.675 438.181 845.504 6.03321e-11 1.22515e+07 436.742 6.01339e-11 1.72471e-10 4.2857e+06 7.26283e+12
110.617 517.155 997.824 6.0336e-11 1.44573e+07 515.439 6.01359e-11 1.468e-10 5.94208e+06 8.57124e+12
116.896 610.665 1177.58 6.03699e-11 1.70664e+07 608.654 6.01712e-11 1.24935e-10 8.24668e+06 1.01154e+13
123.532 720.856 1389.73 6.03849e-11 2.0139e+07 718.476 6.01855e-11 1.06313e-10 1.14388e+07 1.19377e+13
130.545 851.031 1640.09 6.04069e-11 2.37643e+07 848.183 6.02048e-11 9.04567e-11 1.58698e+07 1.40883e+13
137.955 1005.23 1935.56 6.04599e-11 2.80503e+07 1001.89 6.0259e-11 7.69563e-11 2.20374e+07 1.66263e+13
145.787 1187.04 2284.26 6.04966e-11 3.30981e+07 1183.09 6.0295e-11 6.54636e-11 3.05868e+07 1.96216e+13
154.063 1402.02 2695.77 6.05452e-11 3.90634e+07 1397.33 6.0343e-11 5.56812e-11 4.24758e+07 2.31565e+13
162.808 1656.22 3181.42 6.06049e-11 4.61057e+07 1650.69 6.04025e-11 4.73556e-11 5.90052e+07 2.73282e+13
172.051 1957.69 3754.56 6.07008e-11 5.44046e+07 1951.12 6.04971e-11 4.02708e-11 8.20048e+07 3.22515e+13
181.818 2320.35 4430.96 6.09629e-11 6.42064e+07 2312.74 6.0763e-11 3.42426e-11 1.14308e+08 3.80616e+13
192.139 2737.19 5229.21 6.09368e-11 7.57748e+07 2727.99 6.0732e-11 2.91139e-11 1.586e+08 4.49186e+13
203.046 3236.3 6171.26 6.10498e-11 8.94213e+07 3225.42 6.08445e-11 2.4751e-11 2.20563e+08 5.30108e+13
214.572 3831.4 7283.03 6.12428e-11 1.05538e+08 3818.48 6.10363e-11 2.10401e-11 3.07197e+08 6.25608e+13
226.753 4542.16 8595.09 6.15208e-11 1.24552e+08 4526.65 6.13107e-11 1.78839e-11 4.28459e+08 7.38313e+13
239.625 5385.88 10143.5 6.18128e-11 1.46987e+08 5367.44 6.16012e-11 1.51999e-11 5.97746e+08 8.71322e+13
253.228 6409.5 11970.9 6.23315e-11 1.7347e+08 6386.93 6.2112e-11 1.29176e-11 8.37046e+08 1.02829e+14
267.603 7618.44 14127.5 6.27785e-11 2.04703e+08 7591.92 6.256e-11 1.09771e-11 1.1707e+09 1.21354e+14
282.795 9101.09 16672.6 6.35478e-11 2.4161e+08 9069.08 6.33242e-11 9.3274e-12 1.64609e+09 1.43217e+14
298.848 10905 19676.2 6.45201e-11 2.85122e+08 10865.9 6.42887e-11 7.925e-12 2.32128e+09 1.69017e+14
315.813 13139.9 23220.9 6.58754e-11 3.36491e+08 13091.7 6.56335e-11 6.73295e-12 3.29224e+09 1.99466e+14
333.741 15955.7 27404.3 6.7781e-11 3.97115e+08 15895.1 6.75238e-11 5.71979e-12 4.70591e+09 2.35401e+14
352.686 19584.2 32341.2 7.04952e-11 4.68637e+08 19506.5 7.02155e-11 4.85874e-12 6.79943e+09 2.77809e+14
372.707 24396.1 38167.6 7.44109e-11 5.53074e+08 24293.6 7.40981e-11 4.12703e-12 9.972e+09 3.27857e+14
393.865 31049 45043.5 8.02464e-11 6.52716e+08 30908.7 7.98836e-11 3.50528e-12 1.49426e+10 3.86921e+14
416.224 36630.5 53158.3 8.022e-11 2.2184e+08 38751.7 8.48653e-11 2.97701e-12 5.97781e+09 4.56626e+14
439.852 0 62734.9 0 0 0 0 2.52819e-12 0 5.38888e+14
464.821 0 74036.7 0 0 0 0 2.1469e-12 0 6.35971e+14
491.207 0 87374.6 0 0 0 0 1.82301e-12 0 7.50542e+14
519.092 0 103115 0 0 0 0 1.54789e-12 0 8.85755e+14
548.56 0 121692 0 0 0 0 1.31422e-12 0 1.04533e+15
579.7 0 143615 0 0 0 0 1.11576e-12 0 1.23364e+15
612.608 0 169488 0 0 0 0 9.47223e-13 0 1.45589e+15
647.384 0 200021 0 0 0 0 8.041e-13 0 1.71817e+15
684.134 0 236056 0 0 0 0 6.82568e-13 0 2.0277e+15
722.971 0 278582 0 0 0 0 5.79376e-13 0 2.393e+15
764.012 0 328769 0 0 0 0 4.91762e-13 0 2.8241e+15
0.0841144
200
1.0655e+09
8589934592
0.0129181 2.33009e-05 1.58924e-09 1.70685e-06 6 2.30876e-05 1.69122e-06 0.00677225 0.00151221 13.6515
0.0136515 0 1.87554e-09 0 0 0 0 0.00688819 0 16.1108
0.0144264 0 2.21343e-09 0 0 0 0 0.00699249 0 19.0132
0.0152454 0 2.61218e-09 0 0 0 0 0.00708412 0 22.4385
0.0161108 0 3.08278e-09 0 0 0 0 0.00716212 0 26.4808
0.0170254 0 3.63815e-09 0 0 0 0 0.00722559 0 31.2514
0.0179919 5.14351e-05 4.29357e-09 1.39461e-06 12 5.13689e-05 1.39281e-06 0.00727371 0.00230079 36.8815
0.0190132 0 5.06707e-09 0 0 0 0 0.00730578 0 43.5258
0.0200925 0 5.97991e-09 0 0 0 0 0.00732122 0 51.367
0.0212331 4.85038e-05 7.05721e-09 8.00117e-07 8 4.84616e-05 7.99421e-07 0.00731958 0.000874495 60.621
0.0224385 0 8.32858e-09 0 0 0 0 0.00730056 0 71.542
0.0237123 0 9.829e-09 0 0 0 0 0.00726401 0 84.4305
0.0250583 0.000311712 1.15997e-08 3.12836e-06 6 0.000311565 3.12688e-06 0.00720995 0.00260337 99.6408
0.0264808 0 1.36894e-08 0 0 0 0 0.00713857 0 117.591
0.0279841 0.000194129 1.61556e-08 1.39887e-06 24 0.00019393 1.39743e-06 0.00705021 0.00476196 138.776
0.0295727 0 1.90661e-08 0 0 0 0 0.00694538 0 163.777
0.0312514 0.000346922 2.25009e-08 1.79491e-06 24 0.000348684 1.80402e-06 0.00682475 0.00631199 193.281
0.0330255 0 2.65545e-08 0 0 0 0 0.00668915 0 228.102
0.0349003 0.000481659 3.13384e-08 1.78926e-06 12 0.000477802 1.77493e-06 0.00653951 0.00328329 269.195
0.0368815 0.000419801 3.69841e-08 1.32141e-06 30 0.00041533 1.30734e-06 0.00637693 0.00621653 317.691
0.0389751 0.000502185 4.36469e-08 1.33943e-06 24 0.000497018 1.32565e-06 0.00620256 0.00518276 374.924
0.0411876 0.000318034 5.151e-08 7.18773e-07 24 0.000315874 7.13892e-07 0.00601767 0.00286665 442.467
0.0435258 0.000677054 6.07896e-08 1.29659e-06 8 0.000677002 1.29649e-06 0.00582358 0.00178116 522.179
0.0459966 0.000869054 7.1741e-08 1.41023e-06 72 0.000862177 1.39907e-06 0.00562166 0.0180616 616.251
0.0486077 0 8.46654e-08 0 0 0 0 0.0054133 0 727.27
0.051367 0.00131001 9.99181e-08 1.52631e-06 54 0.00130588 1.52149e-06 0.00519989 0.0158505 858.29
0.054283 0.00101418 1.17919e-07 1.00125e-06 60 0.00101838 1.00539e-06 0.0049828 0.0120565 1012.91
0.0573645 0.00101543 1.39162e-07 8.49452e-07 96 0.00101282 8.47273e-07 0.00476339 0.0171196 1195.39
0.060621 0.00116961 1.64232e-07 8.29069e-07 24 0.00115376 8.17837e-07 0.00454293 0.00437992 1410.75
0.0640622 0.00206211 1.93819e-07 1.23858e-06 134 0.00206323 1.23926e-06 0.00432265 0.0383955 1664.89
0.0676989 0.00197532 2.28736e-07 1.00534e-06 120 0.00196632 1.00076e-06 0.00410371 0.029398 1964.83
0.071542 0.00179953 2.69944e-07 7.76063e-07 108 0.00178008 7.67674e-07 0.00388717 0.0215619 2318.8
0.0756032 0.00261089 3.18575e-07 9.54084e-07 174 0.00259738 9.49148e-07 0.00367401 0.0451851 2736.54
0.079895 0.0027984 3.75967e-07 8.66503e-07 168 0.00277197 8.58319e-07 0.0034651 0.0420111 3229.53
0.0844305 0.00239861 4.43698e-07 6.29334e-07 168 0.00241058 6.32475e-07 0.00326121 0.0324199 3811.34
0.0892234 0.0026935 5.23632e-07 5.98827e-07 290 0.00268226 5.96328e-07 0.00306301 0.0566958 4497.96
0.0942883 0.00350885 6.17966e-07 6.61014e-07 288 0.00349987 6.59323e-07 0.00287109 0.0663065 5308.28
0.0996408 0.00321287 7.29294e-07 5.12863e-07 366 0.00318553 5.08498e-07 0.00268591 0.0698861 6264.59
0.105297 0.00345673 8.60678e-07 4.67558e-07 420 0.00343286 4.64328e-07 0.00250785 0.0783037 7393.17
0.111275 0.00364832 1.01573e-06 4.18143e-07 398 0.0036386 4.17029e-07 0.00233721 0.0712048 8725.07
0.117591 0.00434327 1.19872e-06 4.21803e-07 624 0.00435206 4.22657e-07 0.00217419 0.121059 10296.9
0.124267 0.00478233 1.41467e-06 3.93545e-07 642 0.00477669 3.93081e-07 0.00201893 0.125144 12151.9
0.131321 0.00608762 1.66953e-06 4.24487e-07 800 0.00608974 4.24634e-07 0.00187147 0.181456 14341.1
0.138776 0.00556073 1.9703e-06 3.28557e-07 858 0.00558765 3.30147e-07 0.00173182 0.162778 16924.7
0.146654 0.00596964 2.32525e-06 2.98874e-07 1080 0.00601943 3.01367e-07 0.00159991 0.201752 19973.8
0.154979 0.00704636 2.74415e-06 2.98928e-07 1286 0.00709541 3.01009e-07 0.00147563 0.260513 23572.1
0.163777 0.00669759 3.23852e-06 2.40759e-07 1650 0.00670919 2.41176e-07 0.00135884 0.292347 27818.7
0.173074 0.00789429 3.82195e-06 2.40458e-07 1778 0.00789516 2.40484e-07 0.00124933 0.34221 32830.3
0.182899 0.00774422 4.51048e-06 1.99878e-07 2112 0.00776211 2.0034e-07 0.00114689 0.368075 38744.7
0.193281 0.0091326 5.32305e-06 1.9973e-07 2570 0.00914633 2.00031e-07 0.00105127 0.488272 45724.7
0.204254 0.0100672 6.28202e-06 1.8656e-07 3030 0.0100637 1.86496e-07 0.000962209 0.587479 53962.1
0.215848 0.0100257 7.41374e-06 1.5743e-07 3434 0.0100248 1.57416e-07 0.000879423 0.614737 63683.5
0.228102 0.0104951 8.74934e-06 1.39643e-07 4218 0.010497 1.3967e-07 0.000802624 0.733863 75156.3
0.24105 0.0118748 1.03256e-05 1.33882e-07 4766 0.0118855 1.34003e-07 0.000731515 0.872271 88695.9
0.254734 0.0126487 1.21857e-05 1.20838e-07 6026 0.0126446 1.20799e-07 0.000665798 1.09368 104675
0.269195 0.0132169 1.4381e-05 1.06991e-07 6480 0.0132114 1.06947e-07 0.000605173 1.14563 123532
0.284476 0.0142878 1.69718e-05 9.80047e-08 8162 0.0143208 9.82309e-08 0.000549345 1.45612 145787
0.300625 0.0144144 2.00293e-05 8.37798e-08 9578 0.0144328 8.38871e-08 0.000498021 1.61126 172051
0.317691 0.0159841 2.36377e-05 7.87218e-08 11234 0.0159732 7.86681e-08 0.000450916 1.96125 203046
0.335725 0.0167466 2.78961e-05 6.98867e-08 13344 0.0167405 6.98612e-08 0.000407755 2.28708 239625
0.354784 0.0173301 3.29216e-05 6.12814e-08 15464 0.0173199 6.12455e-08 0.000368269 2.57327 282795
0.374924 0.0186437 3.88525e-05 5.5863e-08 18458 0.0186396 5.58507e-08 0.000332202 3.10389 333741
0.396207 0.0195401 4.58519e-05 4.9611e-08 22232 0.0195116 4.95389e-08 0.000299307 3.68502 393865
0.418699 0.0211338 5.41123e-05 4.54666e-08 25628 0.0210933 4.53794e-08 0.00026935 4.32604 464821
0.442467 0.021898 6.38607e-05 3.99191e-08 30320 0.021862 3.98534e-08 0.000242108 4.99921 548560
0.467585 0.0229812 7.53654e-05 3.54986e-08 35452 0.0229481 3.54475e-08 0.00021737 5.78964 647384
0.494129 0.0237651 8.89427e-05 3.11057e-08 41792 0.0237578 3.10962e-08 0.000194938 6.66862 764012
0.522179 0.0257134 0.000104966 2.85181e-08 49988 0.0257071 2.85111e-08 0.000174625 8.16357 901651
0.551822 0.0268373 0.000123876 2.5221e-08 59110 0.0268219 2.52065e-08 0.000156255 9.54091 1.06409e+06
0.583147 0.028197 0.000146192 2.24537e-08 69716 0.0281644 2.24278e-08 0.000139664 11.2082 1.25578e+06
0.616251 0.0297939 0.000172529 2.01036e-08 82210 0.0297478 2.00725e-08 0.0001247 13.2536 1.48202e+06
0.651234 0.0314115 0.000203611 1.79596e-08 96722 0.0313566 1.79282e-08 0.00011122 15.6185 1.74901e+06
0.688203 0.03291 0.000240292 1.5944e-08 113098 0.0328821 1.59305e-08 9.90935e-05 18.1973 2.06409e+06
0.72727 0.0340471 0.000283581 1.3977e-08 135190 0.0340125 1.39628e-08 8.81969e-05 21.4242 2.43595e+06
0.768555 0.0361362 0.000334669 1.257e-08 158170 0.0361065 1.25597e-08 7.84179e-05 25.354 2.87479e+06
0.812184 0.0376663 0.000394961 1.11022e-08 188560 0.0376308 1.10917e-08 6.96525e-05 30.0554 3.39269e+06
0.85829 0.039225 0.000466114 9.79672e-09 220444 0.0391826 9.78614e-09 6.1805e-05 34.9426 4.00389e+06
0.907013 0.0412839 0.000550086 8.73695e-09 261388 0.0412463 8.72901e-09 5.47875e-05 41.6835 4.7252e+06
0.958501 0.0429399 0.000649185 7.7002e-09 308244 0.0428937 7.69193e-09 4.85194e-05 48.9194 5.57646e+06
1.01291 0.0451056 0.000766138 6.85383e-09 364396 0.0450538 6.84597e-09 4.29272e-05 58.1802 6.58107e+06
1.07041 0.0469993 0.00090416 6.05141e-09 429162 0.0469455 6.04448e-09 3.79435e-05 68.4448 7.76667e+06
1.13118 0.0492853 0.00106705 5.37705e-09 506358 0.0492248 5.37045e-09 3.3507e-05 81.258 9.16586e+06
1.19539 0.0512286 0.00125928 4.73589e-09 598590 0.0511664 4.73013e-09 2.9562e-05 95.8951 1.08171e+07
1.26325 0.0536001 0.00148614 4.19872e-09 704844 0.0535361 4.1937e-09 2.60578e-05 113.572 1.27658e+07
1.33496 0.0558449 0.00175387 3.70677e-09 834620 0.0557762 3.70221e-09 2.29484e-05 134.813 1.50656e+07
1.41075 0.0581424 0.00206984 3.27014e-09 981444 0.0580753 3.26637e-09 2.01923e-05 158.945 1.77798e+07
1.49083 0.0605634 0.00244272 2.88633e-09 1.15998e+06 0.0604886 2.88277e-09 1.77518e-05 188.605 2.09828e+07
1.57546 0.0632632 0.00288279 2.55475e-09 1.36931e+06 0.0631851 2.5516e-09 1.55929e-05 224.349 2.4763e+07
1.66489 0.0659217 0.00340213 2.25573e-09 1.61652e+06 0.0658328 2.25269e-09 1.3685e-05 266.454 2.92241e+07
1.75941 0.0686032 0.00401503 1.98914e-09 1.90601e+06 0.0685149 1.98658e-09 1.20007e-05 315.925 3.44889e+07
1.85928 0.0714601 0.00473835 1.75569e-09 2.24913e+06 0.0713713 1.7535e-09 1.05151e-05 375.532 4.07021e+07
1.96483 0.0743654 0.00559198 1.54816e-09 2.65744e+06 0.0742693 1.54616e-09 9.20606e-06 446.895 4.80347e+07
2.07637 0.0773849 0.00659939 1.36509e-09 3.13125e+06 0.0772873 1.36337e-09 8.05366e-06 530.747 5.66883e+07
2.19424 0.0806485 0.00778828 1.20549e-09 3.69915e+06 0.0805453 1.20395e-09 7.04008e-06 633.416 6.69008e+07
2.3188 0.0838811 0.00919136 1.06242e-09 4.36472e+06 0.0837695 1.061e-09 6.1494e-06 754.082 7.89532e+07
2.45043 0.0874212 0.0108472 9.38228e-10 5.14913e+06 0.0873093 9.37028e-10 5.36741e-06 900.073 9.31768e+07
2.58954 0.091072 0.0128014 8.28206e-10 6.07894e+06 0.0909547 8.2714e-10 4.68145e-06 1075.44 1.09963e+08
2.73654 0.0948472 0.0151076 7.3087e-10 7.17304e+06 0.0947246 7.29925e-10 4.08023e-06 1284.87 1.29773e+08
2.89188 0.0986576 0.0178292 6.44181e-10 8.46557e+06 0.0985277 6.43333e-10 3.55373e-06 1534.54 1.53152e+08
3.05605 0.102758 0.0210412 5.68529e-10 9.98773e+06 0.102627 5.67809e-10 3.09304e-06 1835.84 1.80743e+08
3.22953 0.10711 0.0248319 5.02149e-10 1.1797e+07 0.10697 5.0149e-10 2.69025e-06 2201.97 2.13304e+08
3.41286 0.111561 0.0293054 4.43176e-10 1.39144e+07 0.11141 4.42574e-10 2.33837e-06 2637.1 2.51731e+08
3.6066 0.116327 0.0345848 3.91567e-10 1.64163e+07 0.116173 3.91049e-10 2.0312e-06 3164.66 2.97081e+08
3.81134 0.121198 0.0408154 3.45686e-10 1.93821e+07 0.121036 3.45225e-10 1.76327e-06 3799.85 3.50601e+08
4.0277 0.126481 0.0481684 3.05684e-10 2.28754e+07 0.126308 3.05266e-10 1.52972e-06 4571.18 4.13763e+08
4.25634 0.132048 0.056846 2.70421e-10 2.69929e+07 0.131865 2.70048e-10 1.32631e-06 5503.59 4.88304e+08
4.49796 0.137937 0.067087 2.39361e-10 3.18542e+07 0.137742 2.39021e-10 1.14926e-06 6634.43 5.76273e+08
4.7533 0.144208 0.0791729 2.12042e-10 3.75892e+07 0.144004 2.11742e-10 9.95263e-07 8008.42 6.8009e+08
5.02313 0.150781 0.0934361 1.87863e-10 4.43706e+07 0.150563 1.87592e-10 8.61414e-07 9676.66 8.0261e+08
5.30828 0.157785 0.110269 1.6658e-10 5.23593e+07 0.157555 1.66337e-10 7.45152e-07 11705 9.47202e+08
5.60962 0.16538 0.130134 1.47946e-10 6.1787e+07 0.165138 1.4773e-10 6.44232e-07 14189.2 1.11784e+09
5.92807 0.173369 0.153578 1.31417e-10 7.29346e+07 0.173108 1.3122e-10 5.56685e-07 17217.7 1.31923e+09
6.26459 0.181862 0.181246 1.16811e-10 8.60651e+07 0.181586 1.16634e-10 4.80786e-07 20910.3 1.55689e+09
6.62021 0.190957 0.213898 1.0393e-10 1.01558e+08 0.190661 1.03769e-10 4.15026e-07 25431.9 1.83737e+09
6.99602 0.200686 0.252432 9.25515e-11 1.1986e+08 0.200377 9.24089e-11 3.58083e-07 30979.5 2.16837e+09
7.39317 0.210955 0.297908 8.24362e-11 1.41457e+08 0.210624 8.23069e-11 3.08803e-07 37762.4 2.55901e+09
7.81286 0.221929 0.351577 7.3486e-11 1.66936e+08 0.221579 7.337e-11 2.66181e-07 46086.8 3.02002e+09
8.25637 0.233613 0.414914 6.55464e-11 1.97025e+08 0.233241 6.5442e-11 2.29336e-07 56311.6 3.56409e+09
8.72507 0.246199 0.489662 5.85329e-11 2.32497e+08 0.245802 5.84384e-11 1.97503e-07 68903.8 4.20617e+09
9.22037 0.259953 0.577876 5.23685e-11 2.74404e+08 0.259525 5.22823e-11 1.70014e-07 84523.2 4.96392e+09
9.74378 0.275369 0.681982 4.70058e-11 3.2382e+08 0.274899 4.69257e-11 1.46289e-07 104050 5.85818e+09
10.2969 0.293353 0.804843 4.24317e-11 3.82165e+08 0.292823 4.23549e-11 1.25822e-07 128879 6.91355e+09
10.8814 0.315497 0.949838 3.86684e-11 4.51027e+08 0.314876 3.85922e-11 1.08175e-07 161224 8.15905e+09
11.4992 0.344724 1.12095 3.58009e-11 5.32251e+08 0.343957 3.57212e-11 9.29669e-08 204966 9.62892e+09
12.1519 0.386906 1.3229 3.40478e-11 6.28157e+08 0.385879 3.39574e-11 7.98658e-08 267792 1.13636e+10
12.8418 0.43473 1.56122 3.24165e-11 3.82727e+08 0.449935 3.35503e-11 6.85852e-08 180894 1.34108e+10
13.5708 0 1.84248 0 0 0 0 5.88765e-08 0 1.58268e+10
14.3411 0 2.17441 0 0 0 0 5.05241e-08 0 1.8678e+10
15.1552 0 2.56613 0 0 0 0 4.33417e-08 0 2.20429e+10
16.0156 0 3.02843 0 0 0 0 3.71677e-08 0 2.6014e+10
16.9247 0 3.574 0 0 0 0 3.18628e-08 0 3.07005e+10
17.8855 0 4.21787 0 0 0 0 2.73063e-08 0 3.62312e+10
18.9008 0 4.97773 0 0 0 0 2.33941e-08 0 4.27584e+10
19.9738 0 5.87448 0 0 0 0 2.00364e-08 0 5.04614e+10
21.1076 0 6.93279 0 0 0 0 1.71555e-08 0 5.95522e+10
22.3058 0 8.18175 0 0 0 0 1.46847e-08 0 7.02807e+10
23.5721 0 9.65571 0 0 0 0 1.25662e-08 0 8.29419e+10
24.9102 0 11.3952 0 0 0 0 1.07504e-08 0 9.78842e+10
26.3243 0 13.4481 0 0 0 0 9.19452e-09 0 1.15518e+11
27.8187 0 15.8708 0 0 0 0 7.86182e-09 0 1.36329e+11
29.3979 0 18.73 0 0 0 0 6.72061e-09 0 1.60889e+11
31.0667 0 22.1042 0 0 0 0 5.74366e-09 0 1.89874e+11
32.8303 0 26.0864 0 0 0 0 4.90756e-09 0 2.2408e+11
34.694 0 30.7859 0 0 0 0 4.19221e-09 0 2.64449e+11
36.6634 0 36.3321 0 0 0 0 3.58032e-09 0 3.1209e+11
38.7447 0 42.8774 0 0 0 0 3.05709e-09 0 3.68314e+11
40.9442 0 50.6018 0 0 0 0 2.60976e-09 0 4.34667e+11
43.2685 0 59.7179 0 0 0 0 2.22743e-09 0 5.12973e+11
45.7247 0 70.4762 0 0 0 0 1.90073e-09 0 6.05386e+11
48.3204 0 83.1727 0 0 0 0 1.62163e-09 0 7.14448e+11
51.0634 0 98.1565 0 0 0 0 1.38326e-09 0 8.43158e+11
53.9621 0 115.84 0 0 0 0 1.1797e-09 0 9.95055e+11
57.0254 0 136.709 0 0 0 0 1.00592e-09 0 1.17432e+12
60.2626 0 161.337 0 0 0 0 8.57591e-10 0 1.38587e+12
63.6835 0 190.402 0 0 0 0 7.3101e-10 0 1.63554e+12
67.2987 0 224.704 0 0 0 0 6.23009e-10 0 1.93019e+12
71.1191 0 265.185 0 0 0 0 5.30879e-10 0 2.27792e+12
75.1563 0 312.958 0 0 0 0 4.52303e-10 0 2.68829e+12
79.4227 0 369.339 0 0 0 0 3.85299e-10 0 3.17259e+12
83.9313 0 435.876 0 0 0 0 3.28173e-10 0 3.74415e+12
88.6959 0 514.4 0 0 0 0 2.79476e-10 0 4.41866e+12
93.7309 0 607.071 0 0 0 0 2.37972e-10 0 5.2147e+12
99.0518 0 716.436 0 0 0 0 2.02605e-10 0 6.15414e+12
104.675 0 845.504 0 0 0 0 1.72471e-10 0 7.26283e+12
110.617 0 997.824 0 0 0 0 1.468e-10 0 8.57124e+12
116.896 0 1177.58 0 0 0 0 1.24935e-10 0 1.01154e+13
123.532 0 1389.73 0 0 0 0 1.06313e-10 0 1.19377e+13
130.545 0 1640.09 0 0 0 0 9.04567e-11 0 1.40883e+13
137.955 0 1935.56 0 0 0 0 7.69563e-11 0 1.66263e+13
145.787 0 2284.26 0 0 0 0 6.54636e-11 0 1.96216e+13
154.063 0 2695.77 0 0 0 0 5.56812e-11 0 2.31565e+13
162.808 0 3181.42 0 0 0 0 4.73556e-11 0 2.73282e+13
172.051 0 3754.56 0 0 0 0 4.02708e-11 0 3.22515e+13
181.818 0 4430.96 0 0 0 0 3.42426e-11 0 3.80616e+13
192.139 0 5229.21 0 0 0 0 2.91139e-11 0 4.49186e+13
203.046 0 6171.26 0 0 0 0 2.4751e-11 0 5.30108e+13
214.572 0 7283.03 0 0 0 0 2.10401e-11 0 6.25608e+13
226.753 0 8595.09 0 0 0 0 1.78839e-11 0 7.38313e+13
239.625 0 10143.5 0 0 0 0 1.51999e-11 0 8.71322e+13
253.228 0 11970.9 0 0 0 0 1.29176e-11 0 1.02829e+14
267.603 0 14127.5 0 0 0 0 1.09771e-11 0 1.21354e+14
282.795 0 16672.6 0 0 0 0 9.3274e-12 0 1.43217e+14
298.848 0 19676.2 0 0 0 0 7.925e-12 0 1.69017e+14
315.813 0 23220.9 0 0 0 0 6.73295e-12 0 1.99466e+14
333.741 0 27404.3 0 0 0 0 5.71979e-12 0 2.35401e+14
352.686 0 32341.2 0 0 0 0 4.85874e-12 0 2.77809e+14
372.707 0 38167.6 0 0 0 0 4.12703e-12 0 3.27857e+14
393.865 0 45043.5 0 0 0 0 3.50528e-12 0 3.86921e+14
416.224 0 53158.3 0 0 0 0 2.97701e-12 0 4.56626e+14
439.852 0 62734.9 0 0 0 0 2.52819e-12 0 5.38888e+14
464.821 0 74036.7 0 0 0 0 2.1469e-12 0 6.35971e+14
491.207 0 87374.6 0 0 0 0 1.82301e-12 0 7.50542e+14
519.092 0 103115 0 0 0 0 1.54789e-12 0 8.85755e+14
548.56 0 121692 0 0 0 0 1.31422e-12 0 1.04533e+15
579.7 0 143615 0 0 0 0 1.11576e-12 0 1.23364e+15
612.608 0 169488 0 0 0 0 9.47223e-13 0 1.45589e+15
647.384 0 200021 0 0 0 0 8.041e-13 0 1.71817e+15
684.134 0 236056 0 0 0 0 6.82568e-13 0 2.0277e+15
722.971 0 278582 0 0 0 0 5.79376e-13 0 2.393e+15
764.012 0 328769 0 0 0 0 4.91762e-13 0 2.8241e+15
