0.568127
200
1.0655e+09
8589934592
0.0129181 0 1.58924e-09 0 0 0 0 0.00677225 0 13.6515
0.0136515 0 1.87554e-09 0 0 0 0 0.00688819 0 16.1108
0.0144264 0 2.21343e-09 0 0 0 0 0.00699249 0 19.0132
0.0152454 0 2.61218e-09 0 0 0 0 0.00708412 0 22.4385
0.0161108 0 3.08278e-09 0 0 0 0 0.00716212 0 26.4808
0.0170254 0 3.63815e-09 0 0 0 0 0.00722559 0 31.2514
0.0179919 0 4.29357e-09 0 0 0 0 0.00727371 0 36.8815
0.0190132 0 5.06707e-09 0 0 0 0 0.00730578 0 43.5258
0.0200925 0 5.97991e-09 0 0 0 0 0.00732122 0 51.367
0.0212331 0 7.05721e-09 0 0 0 0 0.00731958 0 60.621
0.0224385 0 8.32858e-09 0 0 0 0 0.00730056 0 71.542
0.0237123 0 9.829e-09 0 0 0 0 0.00726401 0 84.4305
0.0250583 0 1.15997e-08 0 0 0 0 0.00720995 0 99.6408
0.0264808 0 1.36894e-08 0 0 0 0 0.00713857 0 117.591
0.0279841 0 1.61556e-08 0 0 0 0 0.00705021 0 138.776
0.0295727 0 1.90661e-08 0 0 0 0 0.00694538 0 163.777
0.0312514 0 2.25009e-08 0 0 0 0 0.00682475 0 193.281
0.0330255 0 2.65545e-08 0 0 0 0 0.00668915 0 228.102
0.0349003 0 3.13384e-08 0 0 0 0 0.00653951 0 269.195
0.0368815 0 3.69841e-08 0 0 0 0 0.00637693 0 317.691
0.0389751 0 4.36469e-08 0 0 0 0 0.00620256 0 374.924
0.0411876 0 5.151e-08 0 0 0 0 0.00601767 0 442.467
0.0435258 0 6.07896e-08 0 0 0 0 0.00582358 0 522.179
0.0459966 0 7.1741e-08 0 0 0 0 0.00562166 0 616.251
0.0486077 0 8.46654e-08 0 0 0 0 0.0054133 0 727.27
0.051367 0 9.99181e-08 0 0 0 0 0.00519989 0 858.29
0.054283 0 1.17919e-07 0 0 0 0 0.0049828 0 1012.91
0.0573645 0 1.39162e-07 0 0 0 0 0.00476339 0 1195.39
0.060621 0 1.64232e-07 0 0 0 0 0.00454293 0 1410.75
0.0640622 0 1.93819e-07 0 0 0 0 0.00432265 0 1664.89
0.0676989 0 2.28736e-07 0 0 0 0 0.00410371 0 1964.83
0.071542 0 2.69944e-07 0 0 0 0 0.00388717 0 2318.8
0.0756032 0 3.18575e-07 0 0 0 0 0.00367401 0 2736.54
0.079895 0 3.75967e-07 0 0 0 0 0.0034651 0 3229.53
0.0844305 0 4.43698e-07 0 0 0 0 0.00326121 0 3811.34
0.0892234 0 5.23632e-07 0 0 0 0 0.00306301 0 4497.96
0.0942883 0 6.17966e-07 0 0 0 0 0.00287109 0 5308.28
0.0996408 0 7.29294e-07 0 0 0 0 0.00268591 0 6264.59
0.105297 0 8.60678e-07 0 0 0 0 0.00250785 0 7393.17
0.111275 0 1.01573e-06 0 0 0 0 0.00233721 0 8725.07
0.117591 0 1.19872e-06 0 0 0 0 0.00217419 0 10296.9
0.124267 0 1.41467e-06 0 0 0 0 0.00201893 0 12151.9
0.131321 0 1.66953e-06 0 0 0 0 0.00187147 0 14341.1
0.138776 0 1.9703e-06 0 0 0 0 0.00173182 0 16924.7
0.146654 0 2.32525e-06 0 0 0 0 0.00159991 0 19973.8
0.154979 0 2.74415e-06 0 0 0 0 0.00147563 0 23572.1
0.163777 0 3.23852e-06 0 0 0 0 0.00135884 0 27818.7
0.173074 0 3.82195e-06 0 0 0 0 0.00124933 0 32830.3
0.182899 0 4.51048e-06 0 0 0 0 0.00114689 0 38744.7
0.193281 0 5.32305e-06 0 0 0 0 0.00105127 0 45724.7
0.204254 0 6.28202e-06 0 0 0 0 0.000962209 0 53962.1
0.215848 0 7.41374e-06 0 0 0 0 0.000879423 0 63683.5
0.228102 0 8.74934e-06 0 0 0 0 0.000802624 0 75156.3
0.24105 0 1.03256e-05 0 0 0 0 0.000731515 0 88695.9
0.254734 0 1.21857e-05 0 0 0 0 0.000665798 0 104675
0.269195 0 1.4381e-05 0 0 0 0 0.000605173 0 123532
0.284476 0 1.69718e-05 0 0 0 0 0.000549345 0 145787
0.300625 0 2.00293e-05 0 0 0 0 0.000498021 0 172051
0.317691 0 2.36377e-05 0 0 0 0 0.000450916 0 203046
0.335725 0 2.78961e-05 0 0 0 0 0.000407755 0 239625
0.354784 0 3.29216e-05 0 0 0 0 0.000368269 0 282795
0.374924 0 3.88525e-05 0 0 0 0 0.000332202 0 333741
0.396207 1.90971 4.58519e-05 4.84865e-06 6 1.85662 4.71385e-06 0.000299307 0.0971975 393865
0.418699 0 5.41123e-05 0 0 0 0 0.00026935 0 464821
0.442467 0 6.38607e-05 0 0 0 0 0.000242108 0 548560
0.467585 0 7.53654e-05 0 0 0 0 0.00021737 0 647384
0.494129 0 8.89427e-05 0 0 0 0 0.000194938 0 764012
0.522179 0 0.000104966 0 0 0 0 0.000174625 0 901651
0.551822 0 0.000123876 0 0 0 0 0.000156255 0 1.06409e+06
0.583147 7.77877 0.000146192 6.19436e-06 12 8.1872 6.5196e-06 0.000139664 0.532222 1.25578e+06
0.616251 0 0.000172529 0 0 0 0 0.0001247 0 1.48202e+06
0.651234 0 0.000203611 0 0 0 0 0.00011122 0 1.74901e+06
0.688203 23.337 0.000240292 1.13062e-05 8 22.7564 1.10249e-05 9.90935e-05 0.912768 2.06409e+06
0.72727 0 0.000283581 0 0 0 0 8.81969e-05 0 2.43595e+06
0.768555 0 0.000334669 0 0 0 0 7.84179e-05 0 2.87479e+06
0.812184 4.93095 0.000394961 1.45341e-06 6 5.03638 1.48448e-06 6.96525e-05 0.125199 3.39269e+06
0.85829 0 0.000466114 0 0 0 0 6.1805e-05 0 4.00389e+06
0.907013 1.70136 0.000550086 3.60062e-07 24 1.73401 3.66971e-07 5.47875e-05 0.157727 4.7252e+06
0.958501 1.83291 0.000649185 3.28686e-07 24 1.72555 3.09434e-07 4.85194e-05 0.162584 5.57646e+06
1.01291 0 0.000766138 0 0 0 0 4.29272e-05 0 6.58107e+06
1.07041 0 0.00090416 0 0 0 0 3.79435e-05 0 7.76667e+06
1.13118 4.99271 0.00106705 5.44707e-07 12 4.93138 5.38016e-07 3.3507e-05 0.195078 9.16586e+06
1.19539 2.50835 0.00125928 2.31887e-07 30 2.45664 2.27106e-07 2.9562e-05 0.235322 1.08171e+07
1.26325 12.084 0.00148614 9.46588e-07 24 11.9022 9.32345e-07 2.60578e-05 0.871835 1.27658e+07
1.33496 18.5767 0.00175387 1.23305e-06 24 18.6175 1.23576e-06 2.29484e-05 1.28955 1.50656e+07
1.41075 16.2269 0.00206984 9.12661e-07 32 16.5696 9.31934e-07 2.01923e-05 1.44635 1.77798e+07
1.49083 3.40598 0.00244272 1.62322e-07 48 3.33337 1.58862e-07 1.77518e-05 0.438912 2.09828e+07
1.57546 7.74287 0.00288279 3.12679e-07 6 7.37295 2.97741e-07 1.55929e-05 0.120316 2.4763e+07
1.66489 4.74243 0.00340213 1.62278e-07 84 4.63134 1.58477e-07 1.3685e-05 0.99608 2.92241e+07
1.75941 5.41127 0.00401503 1.56899e-07 48 5.3375 1.5476e-07 1.20007e-05 0.627561 3.44889e+07
1.85928 4.36908 0.00473835 1.07343e-07 72 4.40839 1.08309e-07 1.05151e-05 0.735007 4.07021e+07
1.96483 10.4839 0.00559198 2.18257e-07 54 10.2578 2.1355e-07 9.20606e-06 1.28023 4.80347e+07
2.07637 12.8988 0.00659939 2.27538e-07 104 12.9851 2.29061e-07 8.05366e-06 2.93829 5.66883e+07
2.19424 5.31983 0.00778828 7.95182e-08 120 5.39567 8.06518e-08 7.04008e-06 1.35541 6.69008e+07
2.3188 6.75517 0.00919136 8.55592e-08 156 6.60557 8.36644e-08 6.1494e-06 2.17049 7.89532e+07
2.45043 8.8036 0.0108472 9.44827e-08 126 8.78172 9.42479e-08 5.36741e-06 2.21798 9.31768e+07
2.58954 8.20213 0.0128014 7.45899e-08 192 8.26159 7.51307e-08 4.68145e-06 3.05915 1.09963e+08
2.73654 24.9304 0.0151076 1.92108e-07 152 25.4146 1.95839e-07 4.08023e-06 7.15655 1.29773e+08
2.89188 11.3281 0.0178292 7.39662e-08 378 11.4268 7.46107e-08 3.55373e-06 7.86756 1.53152e+08
3.05605 9.63249 0.0210412 5.32939e-08 264 9.47472 5.2421e-08 3.09304e-06 4.54879 1.80743e+08
3.22953 11.6445 0.0248319 5.45912e-08 366 11.5864 5.43189e-08 2.69025e-06 7.42696 2.13304e+08
3.41286 11.3662 0.0293054 4.51522e-08 428 11.2433 4.46637e-08 2.33837e-06 8.26436 2.51731e+08
3.6066 17.0115 0.0345848 5.72621e-08 486 16.7065 5.62354e-08 2.0312e-06 13.7009 2.97081e+08
3.81134 14.2046 0.0408154 4.05149e-08 600 14.2229 4.05671e-08 1.76327e-06 13.7863 3.50601e+08
4.0277 18.1179 0.0481684 4.3788e-08 738 18.0348 4.35872e-08 1.52972e-06 21.1251 4.13763e+08
4.25634 16.3588 0.056846 3.35012e-08 824 16.3693 3.35227e-08 1.32631e-06 20.8135 4.88304e+08
4.49796 19.1096 0.067087 3.31606e-08 954 18.9766 3.29299e-08 1.14926e-06 27.5267 5.76273e+08
4.7533 20.2507 0.0791729 2.97765e-08 1094 20.1498 2.96282e-08 9.95263e-07 32.7306 6.8009e+08
5.02313 22.0866 0.0934361 2.75184e-08 1332 22.2008 2.76607e-08 8.61414e-07 42.5516 8.0261e+08
5.30828 26.2977 0.110269 2.77635e-08 1614 26.2807 2.77456e-08 7.45152e-07 60.1358 9.47202e+08
5.60962 27.002 0.130134 2.41555e-08 1850 26.9475 2.41067e-08 6.44232e-07 69.3657 1.11784e+09
5.92807 26.1723 0.153578 1.98391e-08 2238 26.1077 1.97902e-08 5.56685e-07 79.7577 1.31923e+09
6.26459 25.9877 0.181246 1.6692e-08 2546 26.1365 1.67876e-08 4.80786e-07 88.3926 1.55689e+09
6.62021 27.4198 0.213898 1.49234e-08 3264 27.5041 1.49693e-08 4.15026e-07 117.366 1.83737e+09
6.99602 31.7515 0.252432 1.4643e-08 3506 31.7688 1.4651e-08 3.58083e-07 143.37 2.16837e+09
7.39317 32.8602 0.297908 1.2841e-08 4506 32.8752 1.28468e-08 3.08803e-07 187.373 2.55901e+09
7.81286 35.8401 0.351577 1.18675e-08 5018 35.7255 1.18295e-08 2.66181e-07 223.724 3.02002e+09
8.25637 38.9947 0.414914 1.0941e-08 5852 38.9382 1.09252e-08 2.29336e-07 279.183 3.56409e+09
8.72507 40.8508 0.489662 9.71213e-09 7362 40.7886 9.69732e-09 1.97503e-07 362.023 4.20617e+09
9.22037 41.9032 0.577876 8.44155e-09 8306 41.8349 8.42779e-09 1.70014e-07 412.41 4.96392e+09
9.74378 44.7487 0.681982 7.63866e-09 9698 44.7045 7.63112e-09 1.46289e-07 506.393 5.85818e+09
10.2969 49.1208 0.804843 7.105e-09 11816 49.0289 7.09171e-09 1.25822e-07 667.232 6.91355e+09
10.8814 53.0997 0.949838 6.50808e-09 13682 52.9834 6.49382e-09 1.08175e-07 823.14 8.15905e+09
11.4992 53.6825 1.12095 5.57514e-09 16152 53.6119 5.5678e-09 9.29669e-08 968.62 9.62892e+09
12.1519 57.3888 1.3229 5.05023e-09 19472 57.2659 5.03942e-09 7.98658e-08 1231.29 1.13636e+10
12.8418 60.627 1.56122 4.52077e-09 22670 60.4743 4.50938e-09 6.85852e-08 1494.28 1.34108e+10
13.5708 63.218 1.84248 3.99437e-09 26224 63.1181 3.98806e-09 5.88765e-08 1779.12 1.58268e+10
14.3411 68.8973 2.17441 3.68869e-09 31640 68.8068 3.68384e-09 5.05241e-08 2309.99 1.8678e+10
15.1552 72.2295 2.56613 3.27677e-09 37484 72.1486 3.2731e-09 4.33417e-08 2833.91 2.20429e+10
16.0156 76.9917 3.02843 2.95963e-09 43856 76.8646 2.95474e-09 3.71677e-08 3492.21 2.6014e+10
16.9247 81.6701 3.574 2.66022e-09 51362 81.5547 2.65647e-09 3.18628e-08 4288.21 3.07005e+10
17.8855 84.7779 4.21787 2.33991e-09 61636 84.6611 2.33669e-09 2.73063e-08 5281.66 3.62312e+10
18.9008 89.5096 4.97773 2.09338e-09 72218 89.3087 2.08868e-09 2.33941e-08 6462.29 4.27584e+10
19.9738 94.3147 5.87448 1.86905e-09 84586 94.135 1.86548e-09 2.00364e-08 7890.4 5.04614e+10
21.1076 101.937 6.93279 1.71173e-09 100708 101.746 1.70851e-09 1.71555e-08 10048.3 5.95522e+10
22.3058 105.97 8.18175 1.50781e-09 118712 105.769 1.50495e-09 1.46847e-08 12189.3 7.02807e+10
23.5721 110.836 9.65571 1.3363e-09 140410 110.654 1.33412e-09 1.25662e-08 14931.4 8.29419e+10
24.9102 116.808 11.3952 1.19333e-09 164374 116.575 1.19094e-09 1.07504e-08 18246.2 9.78842e+10
26.3243 123.293 13.4481 1.0673e-09 194680 123.176 1.06629e-09 9.19452e-09 22598.5 1.15518e+11
27.8187 129.481 15.8708 9.49769e-10 230196 129.263 9.48168e-10 7.86182e-09 27809.5 1.36329e+11
29.3979 135.882 18.73 8.44569e-10 271156 135.666 8.43225e-10 6.72061e-09 34075.8 1.60889e+11
31.0667 142.472 22.1042 7.50351e-10 321076 142.213 7.48987e-10 5.74366e-09 41945.3 1.89874e+11
32.8303 149.476 26.0864 6.67066e-10 377436 149.198 6.65823e-10 4.90756e-09 51303.4 2.2408e+11
34.694 156.653 30.7859 5.92374e-10 447594 156.373 5.91315e-10 4.19221e-09 63246.7 2.64449e+11
36.6634 164.675 36.3321 5.27653e-10 525078 164.386 5.26726e-10 3.58032e-09 77383.7 3.1209e+11
38.7447 173.652 42.8774 4.71479e-10 621924 173.329 4.70601e-10 3.05709e-09 95916.3 3.68314e+11
40.9442 182.573 50.6018 4.2003e-10 732630 182.266 4.19324e-10 2.60976e-09 117914 4.34667e+11
43.2685 191.765 59.7179 3.7383e-10 865596 191.463 3.73242e-10 2.22743e-09 145273 5.12973e+11
45.7247 201.164 70.4762 3.3229e-10 1.02168e+06 200.844 3.31761e-10 1.90073e-09 178612 6.05386e+11
48.3204 211.197 83.1727 2.95608e-10 1.20544e+06 210.814 2.95072e-10 1.62163e-09 219739 7.14448e+11
51.0634 222.12 98.1565 2.63438e-10 1.42103e+06 221.729 2.62975e-10 1.38326e-09 270632 8.43158e+11
53.9621 234.28 115.84 2.35444e-10 1.67997e+06 233.875 2.35038e-10 1.1797e-09 335287 9.95055e+11
57.0254 247.839 136.709 2.11049e-10 1.98018e+06 247.401 2.10677e-10 1.00592e-09 415456 1.17432e+12
60.2626 262.386 161.337 1.89329e-10 2.33957e+06 261.876 1.88961e-10 8.57591e-10 516503 1.38587e+12
63.6835 278.196 190.402 1.70094e-10 2.75676e+06 277.667 1.69771e-10 7.3101e-10 641453 1.63554e+12
67.2987 296.202 224.704 1.53457e-10 3.25638e+06 295.62 1.53156e-10 6.23009e-10 802100 1.93019e+12
71.1191 316.419 265.185 1.38907e-10 3.84387e+06 315.796 1.38633e-10 5.30879e-10 1.00577e+06 2.27792e+12
75.1563 339.271 312.958 1.26203e-10 4.53277e+06 338.587 1.25949e-10 4.52303e-10 1.26475e+06 2.68829e+12
79.4227 365.98 369.339 1.15357e-10 5.35083e+06 365.239 1.15123e-10 3.85299e-10 1.60201e+06 3.17259e+12
83.9313 395.39 435.876 1.05602e-10 6.32174e+06 394.519 1.0537e-10 3.28173e-10 2.03426e+06 3.74415e+12
88.6959 430.666 514.4 9.74651e-11 7.44986e+06 429.676 9.72412e-11 2.79476e-10 2.59808e+06 4.41866e+12
93.7309 472.233 607.071 9.05581e-11 8.79764e+06 471.153 9.03509e-11 2.37972e-10 3.34786e+06 5.2147e+12
99.0518 519.789 716.436 8.44617e-11 1.03827e+07 518.521 8.42556e-11 2.02605e-10 4.32832e+06 6.15414e+12
104.675 575.94 845.504 7.92997e-11 1.22515e+07 574.509 7.91027e-11 1.72471e-10 5.63308e+06 7.26283e+12
110.617 642.616 997.824 7.49735e-11 1.44573e+07 640.959 7.47801e-11 1.468e-10 7.38362e+06 8.57124e+12
116.896 722.004 1177.58 7.13769e-11 1.70664e+07 720.076 7.11863e-11 1.24935e-10 9.75026e+06 1.01154e+13
123.532 815.735 1389.73 6.83327e-11 2.0139e+07 813.456 6.81419e-11 1.06313e-10 1.29443e+07 1.19377e+13
130.545 927.694 1640.09 6.58486e-11 2.37643e+07 925.059 6.56615e-11 9.04567e-11 1.72994e+07 1.40883e+13
137.955 1060.3 1935.56 6.37726e-11 2.80503e+07 1057.2 6.35856e-11 7.69563e-11 2.32449e+07 1.66263e+13
145.787 1217.16 2284.26 6.20314e-11 3.30981e+07 1213.52 6.1846e-11 6.54636e-11 3.13628e+07 1.96216e+13
154.063 1404.26 2695.77 6.06421e-11 3.90634e+07 1399.99 6.04576e-11 5.56812e-11 4.25438e+07 2.31565e+13
162.808 1627.05 3181.42 5.95375e-11 4.61057e+07 1621.98 5.93517e-11 4.73556e-11 5.79661e+07 2.73282e+13
172.051 1890.69 3754.56 5.86233e-11 5.44046e+07 1884.72 5.84382e-11 4.02708e-11 7.91982e+07 3.22515e+13
181.818 2204.67 4430.96 5.79236e-11 6.42064e+07 2197.63 5.77386e-11 3.42426e-11 1.08609e+08 3.80616e+13
192.139 2577.97 5229.21 5.73922e-11 7.57748e+07 2569.68 5.72075e-11 2.91139e-11 1.49375e+08 4.49186e+13
203.046 3021.43 6171.26 5.69965e-11 8.94213e+07 3011.6 5.68111e-11 2.4751e-11 2.05919e+08 5.30108e+13
214.572 3552.82 7283.03 5.67898e-11 1.05538e+08 3541.11 5.66027e-11 2.10401e-11 2.84861e+08 6.25608e+13
226.753 4183.84 8595.09 5.66676e-11 1.24552e+08 4169.91 5.64789e-11 1.78839e-11 3.94659e+08 7.38313e+13
239.625 4941.52 10143.5 5.6713e-11 1.46987e+08 4924.94 5.65226e-11 1.51999e-11 5.4843e+08 8.71322e+13
253.228 5850.28 11970.9 5.68931e-11 1.7347e+08 5830.36 5.66994e-11 1.29176e-11 7.64014e+08 1.02829e+14
267.603 6948.39 14127.5 5.7257e-11 2.04703e+08 6924.41 5.70595e-11 1.09771e-11 1.06774e+09 1.21354e+14
282.795 8280.53 16672.6 5.78182e-11 2.4161e+08 8251.5 5.76155e-11 9.3274e-12 1.49768e+09 1.43217e+14
298.848 9914.23 19676.2 5.86581e-11 2.85122e+08 9878.74 5.84481e-11 7.925e-12 2.11038e+09 1.69017e+14
315.813 11940.6 23220.9 5.98626e-11 3.36491e+08 11896.6 5.96421e-11 6.73295e-12 2.99174e+09 1.99466e+14
333.741 14500.2 27404.3 6.15978e-11 3.97115e+08 14445 6.13636e-11 5.71979e-12 4.27662e+09 2.35401e+14
352.686 17800.2 32341.2 6.40734e-11 4.68637e+08 17729.3 6.38182e-11 4.85874e-12 6.18003e+09 2.77809e+14
372.707 22198.6 38167.6 6.77083e-11 5.53074e+08 22104.9 6.74224e-11 4.12703e-12 9.07376e+09 3.27857e+14
393.865 28266.5 45043.5 7.30551e-11 6.52716e+08 28138 7.27228e-11 3.50528e-12 1.36035e+10 3.86921e+14
416.224 33379.4 53158.3 7.31001e-11 2.2184e+08 35312.2 7.73328e-11 2.97701e-12 5.44725e+09 4.56626e+14
439.852 0 62734.9 0 0 0 0 2.52819e-12 0 5.38888e+14
464.821 0 74036.7 0 0 0 0 2.1469e-12 0 6.35971e+14
491.207 0 87374.6 0 0 0 0 1.82301e-12 0 7.50542e+14
519.092 0 103115 0 0 0 0 1.54789e-12 0 8.85755e+14
548.56 0 121692 0 0 0 0 1.31422e-12 0 1.04533e+15
579.7 0 143615 0 0 0 0 1.11576e-12 0 1.23364e+15
612.608 0 169488 0 0 0 0 9.47223e-13 0 1.45589e+15
647.384 0 200021 0 0 0 0 8.041e-13 0 1.71817e+15
684.134 0 236056 0 0 0 0 6.82568e-13 0 2.0277e+15
722.971 0 278582 0 0 0 0 5.79376e-13 0 2.393e+15
764.012 0 328769 0 0 0 0 4.91762e-13 0 2.8241e+15
0.568127
200
1.0655e+09
8589934592
0.0129181 0.000940127 1.58924e-09 6.88664e-05 6 0.00093152 6.8236e-05 0.00677225 0.0610135 13.6515
0.0136515 0 1.87554e-09 0 0 0 0 0.00688819 0 16.1108
0.0144264 0 2.21343e-09 0 0 0 0 0.00699249 0 19.0132
0.0152454 0 2.61218e-09 0 0 0 0 0.00708412 0 22.4385
0.0161108 0 3.08278e-09 0 0 0 0 0.00716212 0 26.4808
0.0170254 0 3.63815e-09 0 0 0 0 0.00722559 0 31.2514
0.0179919 0.002083 4.29357e-09 5.64783e-05 12 0.00208032 5.64056e-05 0.00727371 0.0931767 36.8815
0.0190132 0 5.06707e-09 0 0 0 0 0.00730578 0 43.5258
0.0200925 0 5.97991e-09 0 0 0 0 0.00732122 0 51.367
0.0212331 0.0019679 7.05721e-09 3.24624e-05 8 0.00196619 3.24341e-05 0.00731958 0.03548 60.621
0.0224385 0 8.32858e-09 0 0 0 0 0.00730056 0 71.542
0.0237123 0 9.829e-09 0 0 0 0 0.00726401 0 84.4305
0.0250583 0.0124712 1.15997e-08 0.000125162 6 0.0124653 0.000125103 0.00720995 0.104157 99.6408
0.0264808 0 1.36894e-08 0 0 0 0 0.00713857 0 117.591
0.0279841 0.00769218 1.61556e-08 5.54288e-05 24 0.00768428 5.53719e-05 0.00705021 0.188688 138.776
0.0295727 0 1.90661e-08 0 0 0 0 0.00694538 0 163.777
0.0312514 0.0136909 2.25009e-08 7.08341e-05 24 0.0137604 7.11938e-05 0.00682475 0.249096 193.281
0.0330255 0 2.65545e-08 0 0 0 0 0.00668915 0 228.102
0.0349003 0.0202609 3.13384e-08 7.5265e-05 12 0.0200987 7.46623e-05 0.00653951 0.138111 269.195
0.0368815 0.01661 3.69841e-08 5.22835e-05 30 0.0164331 5.17268e-05 0.00637693 0.245966 317.691
0.0389751 0.0191226 4.36469e-08 5.1004e-05 24 0.0189259 5.04793e-05 0.00620256 0.197353 374.924
0.0411876 0.0122049 5.151e-08 2.75837e-05 24 0.012122 2.73964e-05 0.00601767 0.110011 442.467
0.0435258 0.0290383 6.07896e-08 5.56099e-05 8 0.0290361 5.56056e-05 0.00582358 0.0763927 522.179
0.0459966 0.0360379 7.1741e-08 5.84792e-05 72 0.0357534 5.80176e-05 0.00562166 0.748978 616.251
0.0486077 0 8.46654e-08 0 0 0 0 0.0054133 0 727.27
0.051367 0.05078 9.99181e-08 5.91642e-05 54 0.0506139 5.89706e-05 0.00519989 0.61441 858.29
0.054283 0.0405418 1.17919e-07 4.0025e-05 60 0.0407212 4.02021e-05 0.0049828 0.481957 1012.91
0.0573645 0.0386098 1.39162e-07 3.22989e-05 96 0.0385108 3.2216e-05 0.00476339 0.650943 1195.39
0.060621 0.0454333 1.64232e-07 3.22051e-05 24 0.0448177 3.17688e-05 0.00454293 0.170138 1410.75
0.0640622 0.0789965 1.93819e-07 4.74484e-05 134 0.0790363 4.74723e-05 0.00432265 1.47088 1664.89
0.0676989 0.0767507 2.28736e-07 3.90623e-05 120 0.0763842 3.88757e-05 0.00410371 1.14225 1964.83
0.071542 0.071558 2.69944e-07 3.08599e-05 108 0.0707741 3.05219e-05 0.00388717 0.857403 2318.8
0.0756032 0.10549 3.18575e-07 3.85486e-05 174 0.104914 3.83381e-05 0.00367401 1.82565 2736.54
0.079895 0.110982 3.75967e-07 3.43647e-05 168 0.109939 3.40419e-05 0.0034651 1.66612 3229.53
0.0844305 0.0932756 4.43698e-07 2.44732e-05 168 0.0937407 2.45952e-05 0.00326121 1.26073 3811.34
0.0892234 0.108825 5.23632e-07 2.41943e-05 290 0.108336 2.40856e-05 0.00306301 2.29067 4497.96
0.0942883 0.135417 6.17966e-07 2.55104e-05 288 0.135106 2.54519e-05 0.00287109 2.55896 5308.28
0.0996408 0.120878 7.29294e-07 1.92954e-05 366 0.119919 1.91423e-05 0.00268591 2.62932 6264.59
0.105297 0.138688 8.60678e-07 1.8759e-05 420 0.137712 1.8627e-05 0.00250785 3.14164 7393.17
0.111275 0.148439 1.01573e-06 1.70129e-05 398 0.147997 1.69623e-05 0.00233721 2.8971 8725.07
0.117591 0.17687 1.19872e-06 1.7177e-05 624 0.177303 1.72191e-05 0.00217419 4.92986 10296.9
0.124267 0.202455 1.41467e-06 1.66603e-05 642 0.202054 1.66273e-05 0.00201893 5.29782 12151.9
0.131321 0.246643 1.66953e-06 1.71983e-05 800 0.246723 1.72039e-05 0.00187147 7.35179 14341.1
0.138776 0.223408 1.9703e-06 1.32001e-05 858 0.224408 1.32592e-05 0.00173182 6.53978 16924.7
0.146654 0.253972 2.32525e-06 1.27153e-05 1080 0.256104 1.2822e-05 0.00159991 8.5833 19973.8
0.154979 0.29898 2.74415e-06 1.26836e-05 1286 0.300926 1.27662e-05 0.00147563 11.0537 23572.1
0.163777 0.286853 3.23852e-06 1.03115e-05 1650 0.287578 1.03376e-05 0.00135884 12.521 27818.7
0.173074 0.327877 3.82195e-06 9.98702e-06 1778 0.328036 9.99187e-06 0.00124933 14.2131 32830.3
0.182899 0.335859 4.51048e-06 8.66852e-06 2112 0.336701 8.69025e-06 0.00114689 15.9631 38744.7
0.193281 0.378492 5.32305e-06 8.27763e-06 2570 0.378882 8.28615e-06 0.00105127 20.236 45724.7
0.204254 0.44147 6.28202e-06 8.18111e-06 3030 0.441206 8.17621e-06 0.000962209 25.7623 53962.1
0.215848 0.451679 7.41374e-06 7.09256e-06 3434 0.451485 7.08951e-06 0.000879423 27.6952 63683.5
0.228102 0.475691 8.74934e-06 6.32936e-06 4218 0.475604 6.3282e-06 0.000802624 33.2625 75156.3
0.24105 0.530831 1.03256e-05 5.98484e-06 4766 0.531191 5.9889e-06 0.000731515 38.9927 88695.9
0.254734 0.580062 1.21857e-05 5.54157e-06 6026 0.580027 5.54124e-06 0.000665798 50.1556 104675
0.269195 0.642737 1.4381e-05 5.20299e-06 6480 0.642158 5.19831e-06 0.000605173 55.712 123532
0.284476 0.699656 1.69718e-05 4.79918e-06 8162 0.701102 4.80909e-06 0.000549345 71.3047 145787
0.300625 0.749372 2.00293e-05 4.35553e-06 9578 0.749961 4.35895e-06 0.000498021 83.7661 172051
0.317691 0.824757 2.36377e-05 4.06192e-06 11234 0.823801 4.05721e-06 0.000450916 101.198 203046
0.335725 0.889821 2.78961e-05 3.71339e-06 13344 0.888331 3.70716e-06 0.000407755 121.523 239625
0.354784 0.97351 3.29216e-05 3.44246e-06 15464 0.972765 3.43983e-06 0.000368269 144.553 282795
0.374924 1.04008 3.88525e-05 3.11642e-06 18458 1.03958 3.11493e-06 0.000332202 173.156 333741
0.396207 1.1787 4.58519e-05 2.99264e-06 22232 1.17717 2.98877e-06 0.000299307 222.288 393865
0.418699 1.26113 5.41123e-05 2.71314e-06 25628 1.25798 2.70637e-06 0.00026935 258.149 464821
0.442467 1.37608 6.38607e-05 2.50853e-06 30320 1.37336 2.50357e-06 0.000242108 314.152 548560
0.467585 1.51728 7.53654e-05 2.34371e-06 35452 1.51479 2.33986e-06 0.00021737 382.247 647384
0.494129 1.66465 8.89427e-05 2.17882e-06 41792 1.66347 2.17728e-06 0.000194938 467.109 764012
0.522179 1.8548 0.000104966 2.05712e-06 49988 1.85464 2.05694e-06 0.000174625 588.869 901651
0.551822 2.02673 0.000123876 1.90466e-06 59110 2.02403 1.90213e-06 0.000156255 720.52 1.06409e+06
0.583147 2.22825 0.000146192 1.77439e-06 69716 2.22426 1.77121e-06 0.000139664 885.723 1.25578e+06
0.616251 2.45703 0.000172529 1.65789e-06 82210 2.45191 1.65444e-06 0.0001247 1092.99 1.48202e+06
0.651234 2.69647 0.000203611 1.54172e-06 96722 2.69059 1.53835e-06 0.00011122 1340.74 1.74901e+06
0.688203 3.00518 0.000240292 1.45593e-06 113098 3.00037 1.4536e-06 9.90935e-05 1661.69 2.06409e+06
0.72727 3.29783 0.000283581 1.35382e-06 135190 3.2932 1.35192e-06 8.81969e-05 2075.16 2.43595e+06
0.768555 3.63784 0.000334669 1.26543e-06 158170 3.63325 1.26383e-06 7.84179e-05 2552.39 2.87479e+06
0.812184 4.06937 0.000394961 1.19945e-06 188560 4.0627 1.19749e-06 6.96525e-05 3247.1 3.39269e+06
0.85829 4.50107 0.000466114 1.12417e-06 220444 4.49391 1.12239e-06 6.1805e-05 4009.66 4.00389e+06
0.907013 4.99912 0.000550086 1.05797e-06 261388 4.99163 1.05638e-06 5.47875e-05 5047.52 4.7252e+06
0.958501 5.5552 0.000649185 9.96187e-07 308244 5.54717 9.94748e-07 4.85194e-05 6328.78 5.57646e+06
1.01291 6.21035 0.000766138 9.43669e-07 364396 6.20003 9.42101e-07 4.29272e-05 8010.52 6.58107e+06
1.07041 6.89401 0.00090416 8.8764e-07 429162 6.88206 8.86102e-07 3.79435e-05 10039.7 7.76667e+06
1.13118 7.69695 0.00106705 8.39742e-07 506358 7.68399 8.38328e-07 3.3507e-05 12690.2 9.16586e+06
1.19539 8.5641 0.00125928 7.91717e-07 598590 8.54853 7.90278e-07 2.9562e-05 16031.2 1.08171e+07
1.26325 9.5304 0.00148614 7.46555e-07 704844 9.51331 7.45215e-07 2.60578e-05 20193.7 1.27658e+07
1.33496 10.65 0.00175387 7.06905e-07 834620 10.6285 7.05476e-07 2.29484e-05 25709.7 1.50656e+07
1.41075 11.7961 0.00206984 6.63455e-07 981444 11.7718 6.62089e-07 2.01923e-05 32247.1 1.77798e+07
1.49083 13.1639 0.00244272 6.27363e-07 1.15998e+06 13.1392 6.2619e-07 1.77518e-05 40994.6 2.09828e+07
1.57546 14.6127 0.00288279 5.90104e-07 1.36931e+06 14.5846 5.88968e-07 1.55929e-05 51820.8 2.4763e+07
1.66489 16.1821 0.00340213 5.53724e-07 1.61652e+06 16.1511 5.52664e-07 1.3685e-05 65407.6 2.92241e+07
1.75941 17.9209 0.00401503 5.19615e-07 1.90601e+06 17.8868 5.18624e-07 1.20007e-05 82527.8 3.44889e+07
1.85928 19.8583 0.00473835 4.87894e-07 2.24913e+06 19.8205 4.86966e-07 1.05151e-05 104358 4.07021e+07
1.96483 21.952 0.00559198 4.57002e-07 2.65744e+06 21.9093 4.56113e-07 9.20606e-06 131919 4.80347e+07
2.07637 24.2155 0.00659939 4.27169e-07 3.13125e+06 24.1701 4.26369e-07 8.05366e-06 166083 5.66883e+07
2.19424 26.5747 0.00778828 3.97226e-07 3.69915e+06 26.5254 3.96488e-07 7.04008e-06 208719 6.69008e+07
2.3188 29.194 0.00919136 3.69763e-07 4.36472e+06 29.1396 3.69074e-07 6.1494e-06 262451 7.89532e+07
2.45043 31.9399 0.0108472 3.42788e-07 5.14913e+06 31.8814 3.4216e-07 5.36741e-06 328848 9.31768e+07
2.58954 34.9001 0.0128014 3.17381e-07 6.07894e+06 34.8372 3.16809e-07 4.68145e-06 412124 1.09963e+08
2.73654 38.0422 0.0151076 2.93145e-07 7.17304e+06 37.9739 2.92618e-07 4.08023e-06 515347 1.29773e+08
2.89188 41.3169 0.0178292 2.69777e-07 8.46557e+06 41.2423 2.6929e-07 3.55373e-06 642653 1.53152e+08
3.05605 44.7749 0.0210412 2.47728e-07 9.98773e+06 44.697 2.47296e-07 3.09304e-06 799937 1.80743e+08
3.22953 48.4468 0.0248319 2.27126e-07 1.1797e+07 48.3618 2.26727e-07 2.69025e-06 995968 2.13304e+08
3.41286 52.353 0.0293054 2.07972e-07 1.39144e+07 52.2608 2.07605e-07 2.33837e-06 1.23753e+06 2.51731e+08
3.6066 56.4108 0.0345848 1.89883e-07 1.64163e+07 56.314 1.89557e-07 2.0312e-06 1.53465e+06 2.97081e+08
3.81134 60.6523 0.0408154 1.72995e-07 1.93821e+07 60.5501 1.72704e-07 1.76327e-06 1.90159e+06 3.50601e+08
4.0277 65.0233 0.0481684 1.57151e-07 2.28754e+07 64.9135 1.56886e-07 1.52972e-06 2.35003e+06 4.13763e+08
4.25634 69.6392 0.056846 1.42614e-07 2.69929e+07 69.5197 1.4237e-07 1.32631e-06 2.90248e+06 4.88304e+08
4.49796 74.531 0.067087 1.29333e-07 3.18542e+07 74.4057 1.29115e-07 1.14926e-06 3.58475e+06 5.76273e+08
4.7533 79.5963 0.0791729 1.17038e-07 3.75892e+07 79.4631 1.16842e-07 9.95263e-07 4.4203e+06 6.8009e+08
5.02313 84.9302 0.0934361 1.05818e-07 4.43706e+07 84.7899 1.05643e-07 8.61414e-07 5.45056e+06 8.0261e+08
5.30828 90.4513 0.110269 9.54931e-08 5.23593e+07 90.3017 9.53351e-08 7.45152e-07 6.70997e+06 9.47202e+08
5.60962 96.257 0.130134 8.61095e-08 6.1787e+07 96.0989 8.59682e-08 6.44232e-07 8.2586e+06 1.11784e+09
5.92807 102.281 0.153578 7.75313e-08 7.29346e+07 102.113 7.74041e-08 5.56685e-07 1.01578e+07 1.31923e+09
6.26459 108.53 0.181246 6.97098e-08 8.60651e+07 108.35 6.95939e-08 4.80786e-07 1.24787e+07 1.55689e+09
6.62021 115.132 0.213898 6.26613e-08 1.01558e+08 114.942 6.2558e-08 4.15026e-07 1.53334e+07 1.83737e+09
6.99602 122.016 0.252432 5.62706e-08 1.1986e+08 121.814 5.61777e-08 3.58083e-07 1.88353e+07 2.16837e+09
7.39317 129.23 0.297908 5.05002e-08 1.41457e+08 129.019 5.04175e-08 3.08803e-07 2.31331e+07 2.55901e+09
7.81286 136.851 0.351577 4.53147e-08 1.66936e+08 136.626 4.52402e-08 2.66181e-07 2.84192e+07 3.02002e+09
8.25637 144.765 0.414914 4.06176e-08 1.97025e+08 144.527 4.05508e-08 2.29336e-07 3.4895e+07 3.56409e+09
8.72507 153.241 0.489662 3.64324e-08 2.32497e+08 152.986 3.63719e-08 1.97503e-07 4.28875e+07 4.20617e+09
9.22037 162.327 0.577876 3.27014e-08 2.74404e+08 162.054 3.26464e-08 1.70014e-07 5.27803e+07 4.96392e+09
9.74378 172.223 0.681982 2.93987e-08 3.2382e+08 171.928 2.93483e-08 1.46289e-07 6.50759e+07 5.85818e+09
10.2969 183.375 0.804843 2.6524e-08 3.82165e+08 183.047 2.64765e-08 1.25822e-07 8.05622e+07 6.91355e+09
10.8814 196.625 0.949838 2.4099e-08 4.51027e+08 196.249 2.40529e-08 1.08175e-07 1.00479e+08 8.15905e+09
11.4992 213.616 1.12095 2.21848e-08 5.32251e+08 213.161 2.21376e-08 9.29669e-08 1.27012e+08 9.62892e+09
12.1519 237.485 1.3229 2.08987e-08 6.28157e+08 236.888 2.08462e-08 7.98658e-08 1.64372e+08 1.13636e+10
12.8418 264.312 1.56122 1.97089e-08 3.82727e+08 273.571 2.03993e-08 6.85852e-08 1.09982e+08 1.34108e+10
13.5708 0 1.84248 0 0 0 0 5.88765e-08 0 1.58268e+10
14.3411 0 2.17441 0 0 0 0 5.05241e-08 0 1.8678e+10
15.1552 0 2.56613 0 0 0 0 4.33417e-08 0 2.20429e+10
16.0156 0 3.02843 0 0 0 0 3.71677e-08 0 2.6014e+10
16.9247 0 3.574 0 0 0 0 3.18628e-08 0 3.07005e+10
17.8855 0 4.21787 0 0 0 0 2.73063e-08 0 3.62312e+10
18.9008 0 4.97773 0 0 0 0 2.33941e-08 0 4.27584e+10
19.9738 0 5.87448 0 0 0 0 2.00364e-08 0 5.04614e+10
21.1076 0 6.93279 0 0 0 0 1.71555e-08 0 5.95522e+10
22.3058 0 8.18175 0 0 0 0 1.46847e-08 0 7.02807e+10
23.5721 0 9.65571 0 0 0 0 1.25662e-08 0 8.29419e+10
24.9102 0 11.3952 0 0 0 0 1.07504e-08 0 9.78842e+10
26.3243 0 13.4481 0 0 0 0 9.19452e-09 0 1.15518e+11
27.8187 0 15.8708 0 0 0 0 7.86182e-09 0 1.36329e+11
29.3979 0 18.73 0 0 0 0 6.72061e-09 0 1.60889e+11
31.0667 0 22.1042 0 0 0 0 5.74366e-09 0 1.89874e+11
32.8303 0 26.0864 0 0 0 0 4.90756e-09 0 2.2408e+11
34.694 0 30.7859 0 0 0 0 4.19221e-09 0 2.64449e+11
36.6634 0 36.3321 0 0 0 0 3.58032e-09 0 3.1209e+11
38.7447 0 42.8774 0 0 0 0 3.05709e-09 0 3.68314e+11
40.9442 0 50.6018 0 0 0 0 2.60976e-09 0 4.34667e+11
43.2685 0 59.7179 0 0 0 0 2.22743e-09 0 5.12973e+11
45.7247 0 70.4762 0 0 0 0 1.90073e-09 0 6.05386e+11
48.3204 0 83.1727 0 0 0 0 1.62163e-09 0 7.14448e+11
51.0634 0 98.1565 0 0 0 0 1.38326e-09 0 8.43158e+11
53.9621 0 115.84 0 0 0 0 1.1797e-09 0 9.95055e+11
57.0254 0 136.709 0 0 0 0 1.00592e-09 0 1.17432e+12
60.2626 0 161.337 0 0 0 0 8.57591e-10 0 1.38587e+12
63.6835 0 190.402 0 0 0 0 7.3101e-10 0 1.63554e+12
67.2987 0 224.704 0 0 0 0 6.23009e-10 0 1.93019e+12
71.1191 0 265.185 0 0 0 0 5.30879e-10 0 2.27792e+12
75.1563 0 312.958 0 0 0 0 4.52303e-10 0 2.68829e+12
79.4227 0 369.339 0 0 0 0 3.85299e-10 0 3.17259e+12
83.9313 0 435.876 0 0 0 0 3.28173e-10 0 3.74415e+12
88.6959 0 514.4 0 0 0 0 2.79476e-10 0 4.41866e+12
93.7309 0 607.071 0 0 0 0 2.37972e-10 0 5.2147e+12
99.0518 0 716.436 0 0 0 0 2.02605e-10 0 6.15414e+12
104.675 0 845.504 0 0 0 0 1.72471e-10 0 7.26283e+12
110.617 0 997.824 0 0 0 0 1.468e-10 0 8.57124e+12
116.896 0 1177.58 0 0 0 0 1.24935e-10 0 1.01154e+13
123.532 0 1389.73 0 0 0 0 1.06313e-10 0 1.19377e+13
130.545 0 1640.09 0 0 0 0 9.04567e-11 0 1.40883e+13
137.955 0 1935.56 0 0 0 0 7.69563e-11 0 1.66263e+13
145.787 0 2284.26 0 0 0 0 6.54636e-11 0 1.96216e+13
154.063 0 2695.77 0 0 0 0 5.56812e-11 0 2.31565e+13
162.808 0 3181.42 0 0 0 0 4.73556e-11 0 2.73282e+13
172.051 0 3754.56 0 0 0 0 4.02708e-11 0 3.22515e+13
181.818 0 4430.96 0 0 0 0 3.42426e-11 0 3.80616e+13
192.139 0 5229.21 0 0 0 0 2.91139e-11 0 4.49186e+13
203.046 0 6171.26 0 0 0 0 2.4751e-11 0 5.30108e+13
214.572 0 7283.03 0 0 0 0 2.10401e-11 0 6.25608e+13
226.753 0 8595.09 0 0 0 0 1.78839e-11 0 7.38313e+13
239.625 0 10143.5 0 0 0 0 1.51999e-11 0 8.71322e+13
253.228 0 11970.9 0 0 0 0 1.29176e-11 0 1.02829e+14
267.603 0 14127.5 0 0 0 0 1.09771e-11 0 1.21354e+14
282.795 0 16672.6 0 0 0 0 9.3274e-12 0 1.43217e+14
298.848 0 19676.2 0 0 0 0 7.925e-12 0 1.69017e+14
315.813 0 23220.9 0 0 0 0 6.73295e-12 0 1.99466e+14
333.741 0 27404.3 0 0 0 0 5.71979e-12 0 2.35401e+14
352.686 0 32341.2 0 0 0 0 4.85874e-12 0 2.77809e+14
372.707 0 38167.6 0 0 0 0 4.12703e-12 0 3.27857e+14
393.865 0 45043.5 0 0 0 0 3.50528e-12 0 3.86921e+14
416.224 0 53158.3 0 0 0 0 2.97701e-12 0 4.56626e+14
439.852 0 62734.9 0 0 0 0 2.52819e-12 0 5.38888e+14
464.821 0 74036.7 0 0 0 0 2.1469e-12 0 6.35971e+14
491.207 0 87374.6 0 0 0 0 1.82301e-12 0 7.50542e+14
519.092 0 103115 0 0 0 0 1.54789e-12 0 8.85755e+14
548.56 0 121692 0 0 0 0 1.31422e-12 0 1.04533e+15
579.7 0 143615 0 0 0 0 1.11576e-12 0 1.23364e+15
612.608 0 169488 0 0 0 0 9.47223e-13 0 1.45589e+15
647.384 0 200021 0 0 0 0 8.041e-13 0 1.71817e+15
684.134 0 236056 0 0 0 0 6.82568e-13 0 2.0277e+15
722.971 0 278582 0 0 0 0 5.79376e-13 0 2.393e+15
764.012 0 328769 0 0 0 0 4.91762e-13 0 2.8241e+15
