0.327739
200
1.0655e+09
8589934592
0.0129181 0 1.58924e-09 0 0 0 0 0.00677225 0 13.6515
0.0136515 0 1.87554e-09 0 0 0 0 0.00688819 0 16.1108
0.0144264 0 2.21343e-09 0 0 0 0 0.00699249 0 19.0132
0.0152454 0 2.61218e-09 0 0 0 0 0.00708412 0 22.4385
0.0161108 0 3.08278e-09 0 0 0 0 0.00716212 0 26.4808
0.0170254 0 3.63815e-09 0 0 0 0 0.00722559 0 31.2514
0.0179919 0 4.29357e-09 0 0 0 0 0.00727371 0 36.8815
0.0190132 0 5.06707e-09 0 0 0 0 0.00730578 0 43.5258
0.0200925 0 5.97991e-09 0 0 0 0 0.00732122 0 51.367
0.0212331 0 7.05721e-09 0 0 0 0 0.00731958 0 60.621
0.0224385 0 8.32858e-09 0 0 0 0 0.00730056 0 71.542
0.0237123 0 9.829e-09 0 0 0 0 0.00726401 0 84.4305
0.0250583 0 1.15997e-08 0 0 0 0 0.00720995 0 99.6408
0.0264808 0 1.36894e-08 0 0 0 0 0.00713857 0 117.591
0.0279841 0 1.61556e-08 0 0 0 0 0.00705021 0 138.776
0.0295727 0 1.90661e-08 0 0 0 0 0.00694538 0 163.777
0.0312514 0 2.25009e-08 0 0 0 0 0.00682475 0 193.281
0.0330255 0 2.65545e-08 0 0 0 0 0.00668915 0 228.102
0.0349003 0 3.13384e-08 0 0 0 0 0.00653951 0 269.195
0.0368815 0 3.69841e-08 0 0 0 0 0.00637693 0 317.691
0.0389751 0 4.36469e-08 0 0 0 0 0.00620256 0 374.924
0.0411876 0 5.151e-08 0 0 0 0 0.00601767 0 442.467
0.0435258 0 6.07896e-08 0 0 0 0 0.00582358 0 522.179
0.0459966 0 7.1741e-08 0 0 0 0 0.00562166 0 616.251
0.0486077 0 8.46654e-08 0 0 0 0 0.0054133 0 727.27
0.051367 0 9.99181e-08 0 0 0 0 0.00519989 0 858.29
0.054283 0 1.17919e-07 0 0 0 0 0.0049828 0 1012.91
0.0573645 0 1.39162e-07 0 0 0 0 0.00476339 0 1195.39
0.060621 0 1.64232e-07 0 0 0 0 0.00454293 0 1410.75
0.0640622 0 1.93819e-07 0 0 0 0 0.00432265 0 1664.89
0.0676989 0 2.28736e-07 0 0 0 0 0.00410371 0 1964.83
0.071542 0 2.69944e-07 0 0 0 0 0.00388717 0 2318.8
0.0756032 0 3.18575e-07 0 0 0 0 0.00367401 0 2736.54
0.079895 0 3.75967e-07 0 0 0 0 0.0034651 0 3229.53
0.0844305 0 4.43698e-07 0 0 0 0 0.00326121 0 3811.34
0.0892234 0 5.23632e-07 0 0 0 0 0.00306301 0 4497.96
0.0942883 0 6.17966e-07 0 0 0 0 0.00287109 0 5308.28
0.0996408 0 7.29294e-07 0 0 0 0 0.00268591 0 6264.59
0.105297 0 8.60678e-07 0 0 0 0 0.00250785 0 7393.17
0.111275 0 1.01573e-06 0 0 0 0 0.00233721 0 8725.07
0.117591 0 1.19872e-06 0 0 0 0 0.00217419 0 10296.9
0.124267 0 1.41467e-06 0 0 0 0 0.00201893 0 12151.9
0.131321 0 1.66953e-06 0 0 0 0 0.00187147 0 14341.1
0.138776 0 1.9703e-06 0 0 0 0 0.00173182 0 16924.7
0.146654 0 2.32525e-06 0 0 0 0 0.00159991 0 19973.8
0.154979 0 2.74415e-06 0 0 0 0 0.00147563 0 23572.1
0.163777 0 3.23852e-06 0 0 0 0 0.00135884 0 27818.7
0.173074 0 3.82195e-06 0 0 0 0 0.00124933 0 32830.3
0.182899 0 4.51048e-06 0 0 0 0 0.00114689 0 38744.7
0.193281 0 5.32305e-06 0 0 0 0 0.00105127 0 45724.7
0.204254 0 6.28202e-06 0 0 0 0 0.000962209 0 53962.1
0.215848 0 7.41374e-06 0 0 0 0 0.000879423 0 63683.5
0.228102 0 8.74934e-06 0 0 0 0 0.000802624 0 75156.3
0.24105 0 1.03256e-05 0 0 0 0 0.000731515 0 88695.9
0.254734 0 1.21857e-05 0 0 0 0 0.000665798 0 104675
0.269195 0 1.4381e-05 0 0 0 0 0.000605173 0 123532
0.284476 0 1.69718e-05 0 0 0 0 0.000549345 0 145787
0.300625 0 2.00293e-05 0 0 0 0 0.000498021 0 172051
0.317691 0 2.36377e-05 0 0 0 0 0.000450916 0 203046
0.335725 0 2.78961e-05 0 0 0 0 0.000407755 0 239625
0.354784 0 3.29216e-05 0 0 0 0 0.000368269 0 282795
0.374924 0 3.88525e-05 0 0 0 0 0.000332202 0 333741
0.396207 1.51932 4.58519e-05 3.85745e-06 6 1.47708 3.75021e-06 0.000299307 0.0773277 393865
0.418699 0 5.41123e-05 0 0 0 0 0.00026935 0 464821
0.442467 0 6.38607e-05 0 0 0 0 0.000242108 0 548560
0.467585 0 7.53654e-05 0 0 0 0 0.00021737 0 647384
0.494129 0 8.89427e-05 0 0 0 0 0.000194938 0 764012
0.522179 0 0.000104966 0 0 0 0 0.000174625 0 901651
0.551822 0 0.000123876 0 0 0 0 0.000156255 0 1.06409e+06
0.583147 6.60592 0.000146192 5.26039e-06 12 6.95276 5.53659e-06 0.000139664 0.451975 1.25578e+06
0.616251 0 0.000172529 0 0 0 0 0.0001247 0 1.48202e+06
0.651234 0 0.000203611 0 0 0 0 0.00011122 0 1.74901e+06
0.688203 27.008 0.000240292 1.30847e-05 8 26.3361 1.27591e-05 9.90935e-05 1.05635 2.06409e+06
0.72727 0 0.000283581 0 0 0 0 8.81969e-05 0 2.43595e+06
0.768555 0 0.000334669 0 0 0 0 7.84179e-05 0 2.87479e+06
0.812184 1.32014 0.000394961 3.89113e-07 6 1.34836 3.97432e-07 6.96525e-05 0.0335189 3.39269e+06
0.85829 0 0.000466114 0 0 0 0 6.1805e-05 0 4.00389e+06
0.907013 0.753025 0.000550086 1.59364e-07 24 0.767474 1.62421e-07 5.47875e-05 0.0698102 4.7252e+06
0.958501 2.11101 0.000649185 3.78557e-07 24 1.98736 3.56384e-07 4.85194e-05 0.187252 5.57646e+06
1.01291 0 0.000766138 0 0 0 0 4.29272e-05 0 6.58107e+06
1.07041 0 0.00090416 0 0 0 0 3.79435e-05 0 7.76667e+06
1.13118 3.22615 0.00106705 3.51975e-07 12 3.18652 3.47651e-07 3.3507e-05 0.126054 9.16586e+06
1.19539 1.52065 0.00125928 1.40578e-07 30 1.4893 1.3768e-07 2.9562e-05 0.142661 1.08171e+07
1.26325 9.31303 0.00148614 7.29527e-07 24 9.17289 7.18549e-07 2.60578e-05 0.671915 1.27658e+07
1.33496 24.6451 0.00175387 1.63585e-06 24 24.6993 1.63944e-06 2.29484e-05 1.71081 1.50656e+07
1.41075 10.9741 0.00206984 6.17224e-07 32 11.213 6.30658e-07 2.01923e-05 0.978154 1.77798e+07
1.49083 2.35511 0.00244272 1.1224e-07 48 2.3049 1.09847e-07 1.77518e-05 0.303492 2.09828e+07
1.57546 1.58961 0.00288279 6.41932e-08 6 1.51367 6.11263e-08 1.55929e-05 0.024701 2.4763e+07
1.66489 1.67159 0.00340213 5.71991e-08 84 1.63615 5.59865e-08 1.3685e-05 0.351094 2.92241e+07
1.75941 3.9268 0.00401503 1.13857e-07 48 3.91343 1.1347e-07 1.20007e-05 0.455402 3.44889e+07
1.85928 1.67957 0.00473835 4.1265e-08 72 1.68544 4.14092e-08 1.05151e-05 0.282554 4.07021e+07
1.96483 3.79255 0.00559198 7.89543e-08 54 3.69546 7.6933e-08 9.20606e-06 0.463123 4.80347e+07
2.07637 12.0018 0.00659939 2.11716e-07 104 12.0211 2.12056e-07 8.05366e-06 2.73397 5.66883e+07
2.19424 1.78269 0.00778828 2.66468e-08 120 1.80999 2.70548e-08 7.04008e-06 0.454202 6.69008e+07
2.3188 4.64444 0.00919136 5.88253e-08 156 4.45244 5.63933e-08 6.1494e-06 1.4923 7.89532e+07
2.45043 3.89545 0.0108472 4.1807e-08 126 3.86589 4.14898e-08 5.36741e-06 0.98142 9.31768e+07
2.58954 3.60496 0.0128014 3.27835e-08 192 3.62317 3.2949e-08 4.68145e-06 1.34455 1.09963e+08
2.73654 12.3132 0.0151076 9.48827e-08 152 12.697 9.78403e-08 4.08023e-06 3.53464 1.29773e+08
2.89188 7.37179 0.0178292 4.81338e-08 378 7.43753 4.85631e-08 3.55373e-06 5.11985 1.53152e+08
3.05605 4.99691 0.0210412 2.76466e-08 264 4.93013 2.72771e-08 3.09304e-06 2.35971 1.80743e+08
3.22953 3.12744 0.0248319 1.46619e-08 366 3.08045 1.44416e-08 2.69025e-06 1.9947 2.13304e+08
3.41286 5.04571 0.0293054 2.0044e-08 428 4.98072 1.97858e-08 2.33837e-06 3.66872 2.51731e+08
3.6066 8.29558 0.0345848 2.79236e-08 486 8.10762 2.72909e-08 2.0312e-06 6.6812 2.97081e+08
3.81134 5.5786 0.0408154 1.59115e-08 600 5.58304 1.59242e-08 1.76327e-06 5.41434 3.50601e+08
4.0277 5.90143 0.0481684 1.42628e-08 738 5.83487 1.41019e-08 1.52972e-06 6.88096 4.13763e+08
4.25634 7.68107 0.056846 1.57301e-08 824 7.70952 1.57884e-08 1.32631e-06 9.77272 4.88304e+08
4.49796 9.38055 0.067087 1.6278e-08 954 9.33325 1.61959e-08 1.14926e-06 13.5124 5.76273e+08
4.7533 7.56939 0.0791729 1.113e-08 1094 7.53314 1.10767e-08 9.95263e-07 12.2342 6.8009e+08
5.02313 8.09253 0.0934361 1.00828e-08 1332 8.09829 1.00899e-08 8.61414e-07 15.5909 8.0261e+08
5.30828 11.2355 0.110269 1.18618e-08 1614 11.2659 1.18938e-08 7.45152e-07 25.6927 9.47202e+08
5.60962 11.5473 0.130134 1.033e-08 1850 11.4909 1.02796e-08 6.44232e-07 29.6639 1.11784e+09
5.92807 11.453 0.153578 8.68162e-09 2238 11.3811 8.62708e-09 5.56685e-07 34.9021 1.31923e+09
6.26459 11.2988 0.181246 7.25728e-09 2546 11.3601 7.29669e-09 4.80786e-07 38.4309 1.55689e+09
6.62021 11.8176 0.213898 6.43184e-09 3264 11.8099 6.42763e-09 4.15026e-07 50.5837 1.83737e+09
6.99602 14.0656 0.252432 6.48673e-09 3506 14.1186 6.51115e-09 3.58083e-07 63.5118 2.16837e+09
7.39317 14.1886 0.297908 5.54459e-09 4506 14.1988 5.54856e-09 3.08803e-07 80.9055 2.55901e+09
7.81286 16.031 0.351577 5.30824e-09 5018 16.0237 5.30583e-09 2.66181e-07 100.07 3.02002e+09
8.25637 16.7246 0.414914 4.69253e-09 5852 16.6861 4.68172e-09 2.29336e-07 119.74 3.56409e+09
8.72507 17.5812 0.489662 4.17987e-09 7362 17.5628 4.17549e-09 1.97503e-07 155.806 4.20617e+09
9.22037 19.1324 0.577876 3.85428e-09 8306 19.0531 3.83832e-09 1.70014e-07 188.3 4.96392e+09
9.74378 19.7182 0.681982 3.36592e-09 9698 19.6846 3.36018e-09 1.46289e-07 223.138 5.85818e+09
10.2969 22.07 0.804843 3.19227e-09 11816 22.0539 3.18995e-09 1.25822e-07 299.787 6.91355e+09
10.8814 22.8211 0.949838 2.79703e-09 13682 22.7941 2.79372e-09 1.08175e-07 353.767 8.15905e+09
11.4992 24.2085 1.12095 2.51414e-09 16152 24.1886 2.51208e-09 9.29669e-08 436.806 9.62892e+09
12.1519 25.4104 1.3229 2.23613e-09 19472 25.3327 2.22929e-09 7.98658e-08 545.188 1.13636e+10
12.8418 27.0656 1.56122 2.0182e-09 22670 27.0048 2.01366e-09 6.85852e-08 667.091 1.34108e+10
13.5708 28.7087 1.84248 1.81394e-09 26224 28.6633 1.81107e-09 5.88765e-08 807.94 1.58268e+10
14.3411 29.9218 2.17441 1.60198e-09 31640 29.9105 1.60138e-09 5.05241e-08 1003.22 1.8678e+10
15.1552 32.1514 2.56613 1.45858e-09 37484 32.103 1.45639e-09 4.33417e-08 1261.45 2.20429e+10
16.0156 33.6606 3.02843 1.29394e-09 43856 33.6086 1.29194e-09 3.71677e-08 1526.78 2.6014e+10
16.9247 35.9258 3.574 1.1702e-09 51362 35.8575 1.16798e-09 3.18628e-08 1886.34 3.07005e+10
17.8855 38.0403 4.21787 1.04993e-09 61636 37.9597 1.04771e-09 2.73063e-08 2369.91 3.62312e+10
18.9008 40.2439 4.97773 9.41192e-10 72218 40.1526 9.39058e-10 2.33941e-08 2905.47 4.27584e+10
19.9738 42.438 5.87448 8.40998e-10 84586 42.3565 8.39383e-10 2.00364e-08 3550.37 5.04614e+10
21.1076 44.6909 6.93279 7.50449e-10 100708 44.62 7.49258e-10 1.71555e-08 4405.36 5.95522e+10
22.3058 47.6025 8.18175 6.7732e-10 118712 47.5137 6.76057e-10 1.46847e-08 5475.51 7.02807e+10
23.5721 49.5254 9.65571 5.9711e-10 140410 49.4107 5.95726e-10 1.25662e-08 6671.9 8.29419e+10
24.9102 52.3633 11.3952 5.34952e-10 164374 52.2467 5.3376e-10 1.07504e-08 8179.46 9.78842e+10
26.3243 55.0552 13.4481 4.76593e-10 194680 54.97 4.75856e-10 9.19452e-09 10091.1 1.15518e+11
27.8187 58.4379 15.8708 4.28653e-10 230196 58.3371 4.27914e-10 7.86182e-09 12551.1 1.36329e+11
29.3979 61.6113 18.73 3.82942e-10 271156 61.501 3.82257e-10 6.72061e-09 15450.5 1.60889e+11
31.0667 65.4186 22.1042 3.44537e-10 321076 65.2993 3.43909e-10 5.74366e-09 19260 1.89874e+11
32.8303 69.0983 26.0864 3.08364e-10 377436 68.9606 3.0775e-10 4.90756e-09 23716 2.2408e+11
34.694 73.4069 30.7859 2.77585e-10 447594 73.2557 2.77013e-10 4.19221e-09 29637.2 2.64449e+11
36.6634 77.9182 36.3321 2.49666e-10 525078 77.7635 2.4917e-10 3.58032e-09 36615.1 3.1209e+11
38.7447 82.593 42.8774 2.24246e-10 621924 82.4336 2.23813e-10 3.05709e-09 45619.9 3.68314e+11
40.9442 87.8561 50.6018 2.02123e-10 732630 87.6834 2.01726e-10 2.60976e-09 56741.4 4.34667e+11
43.2685 93.7475 59.7179 1.82753e-10 865596 93.565 1.82398e-10 2.22743e-09 71019.2 5.12973e+11
45.7247 100.592 70.4762 1.66162e-10 1.02168e+06 100.393 1.65833e-10 1.90073e-09 89315.1 6.05386e+11
48.3204 108.033 83.1727 1.51211e-10 1.20544e+06 107.812 1.50902e-10 1.62163e-09 112402 7.14448e+11
51.0634 120.951 98.1565 1.4345e-10 1.42103e+06 120.607 1.43042e-10 1.38326e-09 147367 8.43158e+11
53.9621 125.89 115.84 1.26516e-10 1.67997e+06 125.627 1.26251e-10 1.1797e-09 180166 9.95055e+11
57.0254 136.905 136.709 1.16583e-10 1.98018e+06 136.599 1.16322e-10 1.00592e-09 229496 1.17432e+12
60.2626 149.823 161.337 1.08107e-10 2.33957e+06 149.484 1.07863e-10 8.57591e-10 294925 1.38587e+12
63.6835 164.273 190.402 1.00439e-10 2.75676e+06 163.887 1.00203e-10 7.3101e-10 378774 1.63554e+12
67.2987 181.54 224.704 9.40529e-11 3.25638e+06 181.105 9.38275e-11 6.23009e-10 491601 1.93019e+12
71.1191 201.692 265.185 8.85422e-11 3.84387e+06 201.177 8.83163e-11 5.30879e-10 641097 2.27792e+12
75.1563 225.223 312.958 8.37794e-11 4.53277e+06 224.64 8.35623e-11 4.52303e-10 839596 2.68829e+12
79.4227 252.247 369.339 7.9508e-11 5.35083e+06 251.582 7.92985e-11 3.85299e-10 1.10416e+06 3.17259e+12
83.9313 285.597 435.876 7.62783e-11 6.32174e+06 284.821 7.6071e-11 3.28173e-10 1.46938e+06 3.74415e+12
88.6959 323.653 514.4 7.32467e-11 7.44986e+06 322.735 7.30391e-11 2.79476e-10 1.9525e+06 4.41866e+12
93.7309 369.91 607.071 7.09361e-11 8.79764e+06 368.846 7.0732e-11 2.37972e-10 2.62245e+06 5.2147e+12
99.0518 423.845 716.436 6.88715e-11 1.03827e+07 422.597 6.86687e-11 2.02605e-10 3.52939e+06 6.15414e+12
104.675 488.207 845.504 6.72199e-11 1.22515e+07 486.77 6.70221e-11 1.72471e-10 4.77499e+06 7.26283e+12
110.617 563.61 997.824 6.57559e-11 1.44573e+07 561.911 6.55577e-11 1.468e-10 6.47585e+06 8.57124e+12
116.896 653.69 1177.58 6.46234e-11 1.70664e+07 651.678 6.44245e-11 1.24935e-10 8.82772e+06 1.01154e+13
123.532 760.319 1389.73 6.36907e-11 2.0139e+07 757.926 6.34902e-11 1.06313e-10 1.2065e+07 1.19377e+13
130.545 886.418 1640.09 6.29188e-11 2.37643e+07 883.62 6.27202e-11 9.04567e-11 1.65297e+07 1.40883e+13
137.955 1035.38 1935.56 6.22736e-11 2.80503e+07 1032.08 6.20749e-11 7.69563e-11 2.26985e+07 1.66263e+13
145.787 1211.25 2284.26 6.17306e-11 3.30981e+07 1207.35 6.15319e-11 6.54636e-11 3.12107e+07 1.96216e+13
154.063 1420.11 2695.77 6.13268e-11 3.90634e+07 1415.5 6.11277e-11 5.56812e-11 4.30242e+07 2.31565e+13
162.808 1668.27 3181.42 6.10456e-11 4.61057e+07 1662.81 6.0846e-11 4.73556e-11 5.94343e+07 2.73282e+13
172.051 1961.39 3754.56 6.08155e-11 5.44046e+07 1954.93 6.06152e-11 4.02708e-11 8.21598e+07 3.22515e+13
181.818 2309.17 4430.96 6.06691e-11 6.42064e+07 2301.55 6.04689e-11 3.42426e-11 1.13757e+08 3.80616e+13
192.139 2720.5 5229.21 6.05652e-11 7.57748e+07 2711.47 6.03642e-11 2.91139e-11 1.57633e+08 4.49186e+13
203.046 3210.24 6171.26 6.05582e-11 8.94213e+07 3199.53 6.03563e-11 2.4751e-11 2.18787e+08 5.30108e+13
214.572 3793.55 7283.03 6.06377e-11 1.05538e+08 3780.8 6.0434e-11 2.10401e-11 3.04163e+08 6.25608e+13
226.753 4485.38 8595.09 6.07517e-11 1.24552e+08 4470.22 6.05464e-11 1.78839e-11 4.23103e+08 7.38313e+13
239.625 5316.64 10143.5 6.10181e-11 1.46987e+08 5298.56 6.08106e-11 1.51999e-11 5.90062e+08 8.71322e+13
253.228 6307.38 11970.9 6.13383e-11 1.7347e+08 6285.74 6.11279e-11 1.29176e-11 8.23709e+08 1.02829e+14
267.603 7504.96 14127.5 6.18434e-11 2.04703e+08 7478.95 6.1629e-11 1.09771e-11 1.15326e+09 1.21354e+14
282.795 8958.54 16672.6 6.25524e-11 2.4161e+08 8927.04 6.23325e-11 9.3274e-12 1.62031e+09 1.43217e+14
298.848 10735.3 19676.2 6.35158e-11 2.85122e+08 10696.7 6.32877e-11 7.925e-12 2.28514e+09 1.69017e+14
315.813 12940.6 23220.9 6.48762e-11 3.36491e+08 12893 6.46375e-11 6.73295e-12 3.24231e+09 1.99466e+14
333.741 15720.7 27404.3 6.67827e-11 3.97115e+08 15660.9 6.65286e-11 5.71979e-12 4.6366e+09 2.35401e+14
352.686 19303.7 32341.2 6.94855e-11 4.68637e+08 19227 6.92094e-11 4.85874e-12 6.70204e+09 2.77809e+14
372.707 24066.2 38167.6 7.34045e-11 5.53074e+08 23964.8 7.30953e-11 4.12703e-12 9.83713e+09 3.27857e+14
393.865 30636.4 45043.5 7.918e-11 6.52716e+08 30497.1 7.882e-11 3.50528e-12 1.47441e+10 3.86921e+14
416.224 36166.1 53158.3 7.92028e-11 2.2184e+08 38260.4 8.37893e-11 2.97701e-12 5.90201e+09 4.56626e+14
439.852 0 62734.9 0 0 0 0 2.52819e-12 0 5.38888e+14
464.821 0 74036.7 0 0 0 0 2.1469e-12 0 6.35971e+14
491.207 0 87374.6 0 0 0 0 1.82301e-12 0 7.50542e+14
519.092 0 103115 0 0 0 0 1.54789e-12 0 8.85755e+14
548.56 0 121692 0 0 0 0 1.31422e-12 0 1.04533e+15
579.7 0 143615 0 0 0 0 1.11576e-12 0 1.23364e+15
612.608 0 169488 0 0 0 0 9.47223e-13 0 1.45589e+15
647.384 0 200021 0 0 0 0 8.041e-13 0 1.71817e+15
684.134 0 236056 0 0 0 0 6.82568e-13 0 2.0277e+15
722.971 0 278582 0 0 0 0 5.79376e-13 0 2.393e+15
764.012 0 328769 0 0 0 0 4.91762e-13 0 2.8241e+15
0.327739
200
1.0655e+09
8589934592
0.0129181 0.00034564 1.58924e-09 2.53189e-05 6 0.000342476 2.50871e-05 0.00677225 0.0224317 13.6515
0.0136515 0 1.87554e-09 0 0 0 0 0.00688819 0 16.1108
0.0144264 0 2.21343e-09 0 0 0 0 0.00699249 0 19.0132
0.0152454 0 2.61218e-09 0 0 0 0 0.00708412 0 22.4385
0.0161108 0 3.08278e-09 0 0 0 0 0.00716212 0 26.4808
0.0170254 0 3.63815e-09 0 0 0 0 0.00722559 0 31.2514
0.0179919 0.000764708 4.29357e-09 2.07342e-05 12 0.000763723 2.07075e-05 0.00727371 0.0342068 36.8815
0.0190132 0 5.06707e-09 0 0 0 0 0.00730578 0 43.5258
0.0200925 0 5.97991e-09 0 0 0 0 0.00732122 0 51.367
0.0212331 0.000721943 7.05721e-09 1.19091e-05 8 0.000721314 1.18988e-05 0.00731958 0.0130162 60.621
0.0224385 0 8.32858e-09 0 0 0 0 0.00730056 0 71.542
0.0237123 0 9.829e-09 0 0 0 0 0.00726401 0 84.4305
0.0250583 0.004607 1.15997e-08 4.62361e-05 6 0.00460483 4.62143e-05 0.00720995 0.0384769 99.6408
0.0264808 0 1.36894e-08 0 0 0 0 0.00713857 0 117.591
0.0279841 0.0028531 1.61556e-08 2.05591e-05 24 0.00285017 2.05379e-05 0.00705021 0.0699862 138.776
0.0295727 0 1.90661e-08 0 0 0 0 0.00694538 0 163.777
0.0312514 0.00509069 2.25009e-08 2.63382e-05 24 0.00511654 2.6472e-05 0.00682475 0.0926213 193.281
0.0330255 0 2.65545e-08 0 0 0 0 0.00668915 0 228.102
0.0349003 0.00731821 3.13384e-08 2.71856e-05 12 0.00725961 2.69679e-05 0.00653951 0.0498855 269.195
0.0368815 0.00616931 3.69841e-08 1.94192e-05 30 0.00610361 1.92124e-05 0.00637693 0.091357 317.691
0.0389751 0.00723528 4.36469e-08 1.9298e-05 24 0.00716085 1.90995e-05 0.00620256 0.0746711 374.924
0.0411876 0.00459646 5.151e-08 1.03882e-05 24 0.00456524 1.03177e-05 0.00601767 0.0414309 442.467
0.0435258 0.0104026 6.07896e-08 1.99215e-05 8 0.0104018 1.992e-05 0.00582358 0.0273667 522.179
0.0459966 0.0131112 7.1741e-08 2.12758e-05 72 0.0130076 2.11077e-05 0.00562166 0.272492 616.251
0.0486077 0 8.46654e-08 0 0 0 0 0.0054133 0 727.27
0.051367 0.0190613 9.99181e-08 2.22085e-05 54 0.019 2.2137e-05 0.00519989 0.230631 858.29
0.054283 0.0150053 1.17919e-07 1.48141e-05 60 0.0150697 1.48776e-05 0.0049828 0.178382 1012.91
0.0573645 0.0146179 1.39162e-07 1.22286e-05 96 0.0145804 1.21972e-05 0.00476339 0.246451 1195.39
0.060621 0.0170238 1.64232e-07 1.20673e-05 24 0.0167932 1.19038e-05 0.00454293 0.0637506 1410.75
0.0640622 0.029875 1.93819e-07 1.79441e-05 134 0.0298911 1.79537e-05 0.00432265 0.556258 1664.89
0.0676989 0.0288076 2.28736e-07 1.46616e-05 120 0.0286733 1.45933e-05 0.00410371 0.428733 1964.83
0.071542 0.0265745 2.69944e-07 1.14605e-05 108 0.0262856 1.13359e-05 0.00388717 0.318414 2318.8
0.0756032 0.0388872 3.18575e-07 1.42104e-05 174 0.0386797 1.41346e-05 0.00367401 0.672999 2736.54
0.079895 0.0412486 3.75967e-07 1.27723e-05 168 0.0408607 1.26522e-05 0.0034651 0.619247 3229.53
0.0844305 0.0349921 4.43698e-07 9.18104e-06 168 0.0351671 9.22698e-06 0.00326121 0.472958 3811.34
0.0892234 0.0398888 5.23632e-07 8.86818e-06 290 0.0397169 8.82998e-06 0.00306301 0.839622 4497.96
0.0942883 0.0510065 6.17966e-07 9.60885e-06 288 0.0508826 9.5855e-06 0.00287109 0.963867 5308.28
0.0996408 0.045802 7.29294e-07 7.31126e-06 366 0.0454258 7.2512e-06 0.00268591 0.996282 6264.59
0.105297 0.0509959 8.60678e-07 6.8977e-06 420 0.0506413 6.84975e-06 0.00250785 1.15518 7393.17
0.111275 0.0543693 1.01573e-06 6.23139e-06 398 0.0542094 6.21307e-06 0.00233721 1.06113 8725.07
0.117591 0.0647707 1.19872e-06 6.29031e-06 624 0.0649113 6.30396e-06 0.00217419 1.80534 10296.9
0.124267 0.0728801 1.41467e-06 5.99741e-06 642 0.0727634 5.98781e-06 0.00201893 1.90712 12151.9
0.131321 0.0912477 1.66953e-06 6.36266e-06 800 0.0912801 6.36492e-06 0.00187147 2.71986 14341.1
0.138776 0.0820086 1.9703e-06 4.84549e-06 858 0.0823931 4.86821e-06 0.00173182 2.40062 16924.7
0.146654 0.0906676 2.32525e-06 4.53934e-06 1080 0.0914293 4.57747e-06 0.00159991 3.06423 19973.8
0.154979 0.107604 2.74415e-06 4.5649e-06 1286 0.108329 4.59566e-06 0.00147563 3.97826 23572.1
0.163777 0.101713 3.23852e-06 3.65628e-06 1650 0.101925 3.66391e-06 0.00135884 4.43972 27818.7
0.173074 0.11889 3.82195e-06 3.62137e-06 1778 0.118915 3.62212e-06 0.00124933 5.15379 32830.3
0.182899 0.11717 4.51048e-06 3.02416e-06 2112 0.117466 3.0318e-06 0.00114689 5.56899 38744.7
0.193281 0.135715 5.32305e-06 2.9681e-06 2570 0.135889 2.9719e-06 0.00105127 7.25598 45724.7
0.204254 0.155164 6.28202e-06 2.87542e-06 3030 0.155075 2.87377e-06 0.000962209 9.05472 53962.1
0.215848 0.155667 7.41374e-06 2.44438e-06 3434 0.155607 2.44344e-06 0.000879423 9.54489 63683.5
0.228102 0.162946 8.74934e-06 2.16809e-06 4218 0.162979 2.16853e-06 0.000802624 11.3939 75156.3
0.24105 0.183039 1.03256e-05 2.06367e-06 4766 0.183204 2.06552e-06 0.000731515 13.4453 88695.9
0.254734 0.198855 1.21857e-05 1.89974e-06 6026 0.198812 1.89934e-06 0.000665798 17.1942 104675
0.269195 0.212572 1.4381e-05 1.72078e-06 6480 0.21241 1.71947e-06 0.000605173 18.4256 123532
0.284476 0.232848 1.69718e-05 1.59718e-06 8162 0.233367 1.60074e-06 0.000549345 23.7304 145787
0.300625 0.23879 2.00293e-05 1.38791e-06 9578 0.239053 1.38944e-06 0.000498021 26.6924 172051
0.317691 0.266184 2.36377e-05 1.31095e-06 11234 0.265917 1.30964e-06 0.000450916 32.6607 203046
0.335725 0.281767 2.78961e-05 1.17587e-06 13344 0.281487 1.1747e-06 0.000407755 38.4808 239625
0.354784 0.299399 3.29216e-05 1.05872e-06 15464 0.299182 1.05795e-06 0.000368269 44.4566 282795
0.374924 0.32127 3.88525e-05 9.62635e-07 18458 0.321247 9.62566e-07 0.000332202 53.4865 333741
0.396207 0.347323 4.58519e-05 8.81832e-07 22232 0.346865 8.80669e-07 0.000299307 65.501 393865
0.418699 0.374689 5.41123e-05 8.06093e-07 25628 0.373765 8.04105e-07 0.00026935 76.6979 464821
0.442467 0.405327 6.38607e-05 7.38892e-07 30320 0.404447 7.37289e-07 0.000242108 92.534 548560
0.467585 0.427033 7.53654e-05 6.59628e-07 35452 0.426453 6.58733e-07 0.00021737 107.582 647384
0.494129 0.46262 8.89427e-05 6.05514e-07 41792 0.462422 6.05255e-07 0.000194938 129.814 764012
0.522179 0.501854 0.000104966 5.56594e-07 49988 0.501703 5.56428e-07 0.000174625 159.33 901651
0.551822 0.535424 0.000123876 5.03178e-07 59110 0.534932 5.02715e-07 0.000156255 190.348 1.06409e+06
0.583147 0.580023 0.000146192 4.61881e-07 69716 0.57907 4.61122e-07 0.000139664 230.557 1.25578e+06
0.616251 0.625263 0.000172529 4.219e-07 82210 0.624065 4.21092e-07 0.0001247 278.143 1.48202e+06
0.651234 0.674098 0.000203611 3.85418e-07 96722 0.672775 3.84662e-07 0.00011122 335.175 1.74901e+06
0.688203 0.728591 0.000240292 3.52983e-07 113098 0.727519 3.52464e-07 9.90935e-05 402.869 2.06409e+06
0.72727 0.790239 0.000283581 3.24407e-07 135190 0.789277 3.24013e-07 8.81969e-05 497.258 2.43595e+06
0.768555 0.854971 0.000334669 2.97403e-07 158170 0.853974 2.97056e-07 7.84179e-05 599.866 2.87479e+06
0.812184 0.927711 0.000394961 2.73444e-07 188560 0.926407 2.7306e-07 6.96525e-05 740.255 3.39269e+06
0.85829 1.00558 0.000466114 2.5115e-07 220444 1.00415 2.50794e-07 6.1805e-05 895.792 4.00389e+06
0.907013 1.08592 0.000550086 2.29815e-07 261388 1.08449 2.29511e-07 5.47875e-05 1096.43 4.7252e+06
0.958501 1.18838 0.000649185 2.13107e-07 308244 1.18677 2.12817e-07 4.85194e-05 1353.87 5.57646e+06
1.01291 1.29416 0.000766138 1.96648e-07 364396 1.29213 1.9634e-07 4.29272e-05 1669.29 6.58107e+06
1.07041 1.4061 0.00090416 1.81043e-07 429162 1.4039 1.80759e-07 3.79435e-05 2047.7 7.76667e+06
1.13118 1.53506 0.00106705 1.67476e-07 506358 1.53258 1.67206e-07 3.3507e-05 2530.9 9.16586e+06
1.19539 1.67769 0.00125928 1.55096e-07 598590 1.67475 1.54824e-07 2.9562e-05 3140.48 1.08171e+07
1.26325 1.83677 0.00148614 1.43882e-07 704844 1.83399 1.43664e-07 2.60578e-05 3891.89 1.27658e+07
1.33496 2.01378 0.00175387 1.33667e-07 834620 2.01029 1.33436e-07 2.29484e-05 4861.39 1.50656e+07
1.41075 2.20371 0.00206984 1.23945e-07 981444 2.19967 1.23718e-07 2.01923e-05 6024.32 1.77798e+07
1.49083 2.42009 0.00244272 1.15336e-07 1.15998e+06 2.41589 1.15137e-07 1.77518e-05 7536.58 2.09828e+07
1.57546 2.6586 0.00288279 1.07362e-07 1.36931e+06 2.65371 1.07165e-07 1.55929e-05 9428.16 2.4763e+07
1.66489 2.91993 0.00340213 9.99153e-08 1.61652e+06 2.91445 9.97278e-08 1.3685e-05 11802.3 2.92241e+07
1.75941 3.22408 0.00401503 9.34819e-08 1.90601e+06 3.21786 9.33015e-08 1.20007e-05 14847.3 3.44889e+07
1.85928 3.54724 0.00473835 8.71511e-08 2.24913e+06 3.54033 8.69815e-08 1.05151e-05 18641.2 4.07021e+07
1.96483 3.91565 0.00559198 8.15172e-08 2.65744e+06 3.90789 8.13555e-08 9.20606e-06 23530.9 4.80347e+07
2.07637 4.31614 0.00659939 7.61382e-08 3.13125e+06 4.30792 7.59932e-08 8.05366e-06 29602.4 5.66883e+07
2.19424 4.7688 0.00778828 7.12817e-08 3.69915e+06 4.75955 7.11434e-08 7.04008e-06 37454.3 6.69008e+07
2.3188 5.26069 0.00919136 6.66304e-08 4.36472e+06 5.25045 6.65008e-08 6.1494e-06 47293 7.89532e+07
2.45043 5.81601 0.0108472 6.2419e-08 5.14913e+06 5.80463 6.22969e-08 5.36741e-06 59880.6 9.31768e+07
2.58954 6.42131 0.0128014 5.83952e-08 6.07894e+06 6.40868 5.82803e-08 4.68145e-06 75827.1 1.09963e+08
2.73654 7.09506 0.0151076 5.46728e-08 7.17304e+06 7.08094 5.45641e-08 4.08023e-06 96114.7 1.29773e+08
2.89188 7.83125 0.0178292 5.11338e-08 8.46557e+06 7.81614 5.10352e-08 3.55373e-06 121809 1.53152e+08
3.05605 8.63736 0.0210412 4.77882e-08 9.98773e+06 8.62049 4.76948e-08 3.09304e-06 154313 1.80743e+08
3.22953 9.53267 0.0248319 4.46906e-08 1.1797e+07 9.51406 4.46033e-08 2.69025e-06 195972 2.13304e+08
3.41286 10.5017 0.0293054 4.17181e-08 1.39144e+07 10.481 4.16357e-08 2.33837e-06 248242 2.51731e+08
3.6066 11.5592 0.0345848 3.89091e-08 1.64163e+07 11.5365 3.88328e-08 2.0312e-06 314465 2.97081e+08
3.81134 12.7144 0.0408154 3.62647e-08 1.93821e+07 12.6897 3.6194e-08 1.76327e-06 398628 3.50601e+08
4.0277 13.9417 0.0481684 3.3695e-08 2.28754e+07 13.9144 3.36288e-08 1.52972e-06 503874 4.13763e+08
4.25634 15.2688 0.056846 3.12691e-08 2.69929e+07 15.2391 3.12082e-08 1.32631e-06 636386 4.88304e+08
4.49796 16.7033 0.067087 2.8985e-08 3.18542e+07 16.6707 2.89285e-08 1.14926e-06 803385 5.76273e+08
4.7533 18.2434 0.0791729 2.6825e-08 3.75892e+07 18.2081 2.67731e-08 9.95263e-07 1.01313e+06 6.8009e+08
5.02313 19.8795 0.0934361 2.47686e-08 4.43706e+07 19.8417 2.47215e-08 8.61414e-07 1.27581e+06 8.0261e+08
5.30828 21.6115 0.110269 2.28162e-08 5.23593e+07 21.5704 2.27727e-08 7.45152e-07 1.60321e+06 9.47202e+08
5.60962 23.4409 0.130134 2.09697e-08 6.1787e+07 23.3969 2.09304e-08 6.44232e-07 2.01117e+06 1.11784e+09
5.92807 25.3703 0.153578 1.92312e-08 7.29346e+07 25.323 1.91953e-08 5.56685e-07 2.51959e+06 1.31923e+09
6.26459 27.4244 0.181246 1.76149e-08 8.60651e+07 27.373 1.75819e-08 4.80786e-07 3.15322e+06 1.55689e+09
6.62021 29.5682 0.213898 1.60927e-08 1.01558e+08 29.5136 1.6063e-08 4.15026e-07 3.93794e+06 1.83737e+09
6.99602 31.7979 0.252432 1.46644e-08 1.1986e+08 31.7405 1.46379e-08 3.58083e-07 4.90858e+06 2.16837e+09
7.39317 34.1213 0.297908 1.33338e-08 1.41457e+08 34.0596 1.33097e-08 3.08803e-07 6.10795e+06 2.55901e+09
7.81286 36.5758 0.351577 1.21111e-08 1.66936e+08 36.5103 1.20894e-08 2.66181e-07 7.5955e+06 3.02002e+09
8.25637 39.1436 0.414914 1.09828e-08 1.97025e+08 39.074 1.09633e-08 2.29336e-07 9.43542e+06 3.56409e+09
8.72507 41.8452 0.489662 9.94853e-09 2.32497e+08 41.7704 9.93075e-09 1.97503e-07 1.17112e+07 4.20617e+09
9.22037 44.7429 0.577876 9.01363e-09 2.74404e+08 44.6625 8.99742e-09 1.70014e-07 1.45481e+07 4.96392e+09
9.74378 47.9038 0.681982 8.17725e-09 3.2382e+08 47.816 8.16226e-09 1.46289e-07 1.81009e+07 5.85818e+09
10.2969 51.4622 0.804843 7.44367e-09 3.82165e+08 51.3647 7.42956e-09 1.25822e-07 2.26089e+07 6.91355e+09
10.8814 55.6587 0.949838 6.82172e-09 4.51027e+08 55.5465 6.80797e-09 1.08175e-07 2.84425e+07 8.15905e+09
11.4992 60.9828 1.12095 6.33329e-09 5.32251e+08 60.8462 6.31911e-09 9.29669e-08 3.62592e+07 9.62892e+09
12.1519 68.3689 1.3229 6.01648e-09 6.28157e+08 68.1898 6.00073e-09 7.98658e-08 4.73206e+07 1.13636e+10
12.8418 76.5475 1.56122 5.70791e-09 3.82727e+08 79.2264 5.90767e-09 6.85852e-08 3.18519e+07 1.34108e+10
13.5708 0 1.84248 0 0 0 0 5.88765e-08 0 1.58268e+10
14.3411 0 2.17441 0 0 0 0 5.05241e-08 0 1.8678e+10
15.1552 0 2.56613 0 0 0 0 4.33417e-08 0 2.20429e+10
16.0156 0 3.02843 0 0 0 0 3.71677e-08 0 2.6014e+10
16.9247 0 3.574 0 0 0 0 3.18628e-08 0 3.07005e+10
17.8855 0 4.21787 0 0 0 0 2.73063e-08 0 3.62312e+10
18.9008 0 4.97773 0 0 0 0 2.33941e-08 0 4.27584e+10
19.9738 0 5.87448 0 0 0 0 2.00364e-08 0 5.04614e+10
21.1076 0 6.93279 0 0 0 0 1.71555e-08 0 5.95522e+10
22.3058 0 8.18175 0 0 0 0 1.46847e-08 0 7.02807e+10
23.5721 0 9.65571 0 0 0 0 1.25662e-08 0 8.29419e+10
24.9102 0 11.3952 0 0 0 0 1.07504e-08 0 9.78842e+10
26.3243 0 13.4481 0 0 0 0 9.19452e-09 0 1.15518e+11
27.8187 0 15.8708 0 0 0 0 7.86182e-09 0 1.36329e+11
29.3979 0 18.73 0 0 0 0 6.72061e-09 0 1.60889e+11
31.0667 0 22.1042 0 0 0 0 5.74366e-09 0 1.89874e+11
32.8303 0 26.0864 0 0 0 0 4.90756e-09 0 2.2408e+11
34.694 0 30.7859 0 0 0 0 4.19221e-09 0 2.64449e+11
36.6634 0 36.3321 0 0 0 0 3.58032e-09 0 3.1209e+11
38.7447 0 42.8774 0 0 0 0 3.05709e-09 0 3.68314e+11
40.9442 0 50.6018 0 0 0 0 2.60976e-09 0 4.34667e+11
43.2685 0 59.7179 0 0 0 0 2.22743e-09 0 5.12973e+11
45.7247 0 70.4762 0 0 0 0 1.90073e-09 0 6.05386e+11
48.3204 0 83.1727 0 0 0 0 1.62163e-09 0 7.14448e+11
51.0634 0 98.1565 0 0 0 0 1.38326e-09 0 8.43158e+11
53.9621 0 115.84 0 0 0 0 1.1797e-09 0 9.95055e+11
57.0254 0 136.709 0 0 0 0 1.00592e-09 0 1.17432e+12
60.2626 0 161.337 0 0 0 0 8.57591e-10 0 1.38587e+12
63.6835 0 190.402 0 0 0 0 7.3101e-10 0 1.63554e+12
67.2987 0 224.704 0 0 0 0 6.23009e-10 0 1.93019e+12
71.1191 0 265.185 0 0 0 0 5.30879e-10 0 2.27792e+12
75.1563 0 312.958 0 0 0 0 4.52303e-10 0 2.68829e+12
79.4227 0 369.339 0 0 0 0 3.85299e-10 0 3.17259e+12
83.9313 0 435.876 0 0 0 0 3.28173e-10 0 3.74415e+12
88.6959 0 514.4 0 0 0 0 2.79476e-10 0 4.41866e+12
93.7309 0 607.071 0 0 0 0 2.37972e-10 0 5.2147e+12
99.0518 0 716.436 0 0 0 0 2.02605e-10 0 6.15414e+12
104.675 0 845.504 0 0 0 0 1.72471e-10 0 7.26283e+12
110.617 0 997.824 0 0 0 0 1.468e-10 0 8.57124e+12
116.896 0 1177.58 0 0 0 0 1.24935e-10 0 1.01154e+13
123.532 0 1389.73 0 0 0 0 1.06313e-10 0 1.19377e+13
130.545 0 1640.09 0 0 0 0 9.04567e-11 0 1.40883e+13
137.955 0 1935.56 0 0 0 0 7.69563e-11 0 1.66263e+13
145.787 0 2284.26 0 0 0 0 6.54636e-11 0 1.96216e+13
154.063 0 2695.77 0 0 0 0 5.56812e-11 0 2.31565e+13
162.808 0 3181.42 0 0 0 0 4.73556e-11 0 2.73282e+13
172.051 0 3754.56 0 0 0 0 4.02708e-11 0 3.22515e+13
181.818 0 4430.96 0 0 0 0 3.42426e-11 0 3.80616e+13
192.139 0 5229.21 0 0 0 0 2.91139e-11 0 4.49186e+13
203.046 0 6171.26 0 0 0 0 2.4751e-11 0 5.30108e+13
214.572 0 7283.03 0 0 0 0 2.10401e-11 0 6.25608e+13
226.753 0 8595.09 0 0 0 0 1.78839e-11 0 7.38313e+13
239.625 0 10143.5 0 0 0 0 1.51999e-11 0 8.71322e+13
253.228 0 11970.9 0 0 0 0 1.29176e-11 0 1.02829e+14
267.603 0 14127.5 0 0 0 0 1.09771e-11 0 1.21354e+14
282.795 0 16672.6 0 0 0 0 9.3274e-12 0 1.43217e+14
298.848 0 19676.2 0 0 0 0 7.925e-12 0 1.69017e+14
315.813 0 23220.9 0 0 0 0 6.73295e-12 0 1.99466e+14
333.741 0 27404.3 0 0 0 0 5.71979e-12 0 2.35401e+14
352.686 0 32341.2 0 0 0 0 4.85874e-12 0 2.77809e+14
372.707 0 38167.6 0 0 0 0 4.12703e-12 0 3.27857e+14
393.865 0 45043.5 0 0 0 0 3.50528e-12 0 3.86921e+14
416.224 0 53158.3 0 0 0 0 2.97701e-12 0 4.56626e+14
439.852 0 62734.9 0 0 0 0 2.52819e-12 0 5.38888e+14
464.821 0 74036.7 0 0 0 0 2.1469e-12 0 6.35971e+14
491.207 0 87374.6 0 0 0 0 1.82301e-12 0 7.50542e+14
519.092 0 103115 0 0 0 0 1.54789e-12 0 8.85755e+14
548.56 0 121692 0 0 0 0 1.31422e-12 0 1.04533e+15
579.7 0 143615 0 0 0 0 1.11576e-12 0 1.23364e+15
612.608 0 169488 0 0 0 0 9.47223e-13 0 1.45589e+15
647.384 0 200021 0 0 0 0 8.041e-13 0 1.71817e+15
684.134 0 236056 0 0 0 0 6.82568e-13 0 2.0277e+15
722.971 0 278582 0 0 0 0 5.79376e-13 0 2.393e+15
764.012 0 328769 0 0 0 0 4.91762e-13 0 2.8241e+15
