0.958847
200
1.0655e+09
8589934592
0.0129181 0 1.58924e-09 0 0 0 0 0.00677225 0 13.6515
0.0136515 0 1.87554e-09 0 0 0 0 0.00688819 0 16.1108
0.0144264 0 2.21343e-09 0 0 0 0 0.00699249 0 19.0132
0.0152454 0 2.61218e-09 0 0 0 0 0.00708412 0 22.4385
0.0161108 0 3.08278e-09 0 0 0 0 0.00716212 0 26.4808
0.0170254 0 3.63815e-09 0 0 0 0 0.00722559 0 31.2514
0.0179919 0 4.29357e-09 0 0 0 0 0.00727371 0 36.8815
0.0190132 0 5.06707e-09 0 0 0 0 0.00730578 0 43.5258
0.0200925 0 5.97991e-09 0 0 0 0 0.00732122 0 51.367
0.0212331 0 7.05721e-09 0 0 0 0 0.00731958 0 60.621
0.0224385 0 8.32858e-09 0 0 0 0 0.00730056 0 71.542
0.0237123 0 9.829e-09 0 0 0 0 0.00726401 0 84.4305
0.0250583 0 1.15997e-08 0 0 0 0 0.00720995 0 99.6408
0.0264808 0 1.36894e-08 0 0 0 0 0.00713857 0 117.591
0.0279841 0 1.61556e-08 0 0 0 0 0.00705021 0 138.776
0.0295727 0 1.90661e-08 0 0 0 0 0.00694538 0 163.777
0.0312514 0 2.25009e-08 0 0 0 0 0.00682475 0 193.281
0.0330255 0 2.65545e-08 0 0 0 0 0.00668915 0 228.102
0.0349003 0 3.13384e-08 0 0 0 0 0.00653951 0 269.195
0.0368815 0 3.69841e-08 0 0 0 0 0.00637693 0 317.691
0.0389751 0 4.36469e-08 0 0 0 0 0.00620256 0 374.924
0.0411876 0 5.151e-08 0 0 0 0 0.00601767 0 442.467
0.0435258 0 6.07896e-08 0 0 0 0 0.00582358 0 522.179
0.0459966 0 7.1741e-08 0 0 0 0 0.00562166 0 616.251
0.0486077 0 8.46654e-08 0 0 0 0 0.0054133 0 727.27
0.051367 0 9.99181e-08 0 0 0 0 0.00519989 0 858.29
0.054283 0 1.17919e-07 0 0 0 0 0.0049828 0 1012.91
0.0573645 0 1.39162e-07 0 0 0 0 0.00476339 0 1195.39
0.060621 0 1.64232e-07 0 0 0 0 0.00454293 0 1410.75
0.0640622 0 1.93819e-07 0 0 0 0 0.00432265 0 1664.89
0.0676989 0 2.28736e-07 0 0 0 0 0.00410371 0 1964.83
0.071542 0 2.69944e-07 0 0 0 0 0.00388717 0 2318.8
0.0756032 0 3.18575e-07 0 0 0 0 0.00367401 0 2736.54
0.079895 0 3.75967e-07 0 0 0 0 0.0034651 0 3229.53
0.0844305 0 4.43698e-07 0 0 0 0 0.00326121 0 3811.34
0.0892234 0 5.23632e-07 0 0 0 0 0.00306301 0 4497.96
0.0942883 0 6.17966e-07 0 0 0 0 0.00287109 0 5308.28
0.0996408 0 7.29294e-07 0 0 0 0 0.00268591 0 6264.59
0.105297 0 8.60678e-07 0 0 0 0 0.00250785 0 7393.17
0.111275 0 1.01573e-06 0 0 0 0 0.00233721 0 8725.07
0.117591 0 1.19872e-06 0 0 0 0 0.00217419 0 10296.9
0.124267 0 1.41467e-06 0 0 0 0 0.00201893 0 12151.9
0.131321 0 1.66953e-06 0 0 0 0 0.00187147 0 14341.1
0.138776 0 1.9703e-06 0 0 0 0 0.00173182 0 16924.7
0.146654 0 2.32525e-06 0 0 0 0 0.00159991 0 19973.8
0.154979 0 2.74415e-06 0 0 0 0 0.00147563 0 23572.1
0.163777 0 3.23852e-06 0 0 0 0 0.00135884 0 27818.7
0.173074 0 3.82195e-06 0 0 0 0 0.00124933 0 32830.3
0.182899 0 4.51048e-06 0 0 0 0 0.00114689 0 38744.7
0.193281 0 5.32305e-06 0 0 0 0 0.00105127 0 45724.7
0.204254 0 6.28202e-06 0 0 0 0 0.000962209 0 53962.1
0.215848 0 7.41374e-06 0 0 0 0 0.000879423 0 63683.5
0.228102 0 8.74934e-06 0 0 0 0 0.000802624 0 75156.3
0.24105 0 1.03256e-05 0 0 0 0 0.000731515 0 88695.9
0.254734 0 1.21857e-05 0 0 0 0 0.000665798 0 104675
0.269195 0 1.4381e-05 0 0 0 0 0.000605173 0 123532
0.284476 0 1.69718e-05 0 0 0 0 0.000549345 0 145787
0.300625 0 2.00293e-05 0 0 0 0 0.000498021 0 172051
0.317691 0 2.36377e-05 0 0 0 0 0.000450916 0 203046
0.335725 0 2.78961e-05 0 0 0 0 0.000407755 0 239625
0.354784 0 3.29216e-05 0 0 0 0 0.000368269 0 282795
0.374924 0 3.88525e-05 0 0 0 0 0.000332202 0 333741
0.396207 1.36019 4.58519e-05 3.45344e-06 6 1.32237 3.35743e-06 0.000299307 0.0692288 393865
0.418699 0 5.41123e-05 0 0 0 0 0.00026935 0 464821
0.442467 0 6.38607e-05 0 0 0 0 0.000242108 0 548560
0.467585 0 7.53654e-05 0 0 0 0 0.00021737 0 647384
0.494129 0 8.89427e-05 0 0 0 0 0.000194938 0 764012
0.522179 0 0.000104966 0 0 0 0 0.000174625 0 901651
0.551822 0 0.000123876 0 0 0 0 0.000156255 0 1.06409e+06
0.583147 4.6449 0.000146192 3.69881e-06 12 4.88878 3.89301e-06 0.000139664 0.317803 1.25578e+06
0.616251 0 0.000172529 0 0 0 0 0.0001247 0 1.48202e+06
0.651234 0 0.000203611 0 0 0 0 0.00011122 0 1.74901e+06
0.688203 13.6213 0.000240292 6.59915e-06 8 13.2824 6.43497e-06 9.90935e-05 0.532762 2.06409e+06
0.72727 0 0.000283581 0 0 0 0 8.81969e-05 0 2.43595e+06
0.768555 0 0.000334669 0 0 0 0 7.84179e-05 0 2.87479e+06
0.812184 7.14248 0.000394961 2.10526e-06 6 7.29518 2.15027e-06 6.96525e-05 0.181351 3.39269e+06
0.85829 0 0.000466114 0 0 0 0 6.1805e-05 0 4.00389e+06
0.907013 2.09027 0.000550086 4.42365e-07 24 2.13037 4.50853e-07 5.47875e-05 0.193781 4.7252e+06
0.958501 4.89206 0.000649185 8.7727e-07 24 4.60551 8.25884e-07 4.85194e-05 0.433939 5.57646e+06
1.01291 0 0.000766138 0 0 0 0 4.29272e-05 0 6.58107e+06
1.07041 0 0.00090416 0 0 0 0 3.79435e-05 0 7.76667e+06
1.13118 4.64572 0.00106705 5.06851e-07 12 4.58866 5.00625e-07 3.3507e-05 0.18152 9.16586e+06
1.19539 2.79513 0.00125928 2.58398e-07 30 2.7375 2.53072e-07 2.9562e-05 0.262227 1.08171e+07
1.26325 9.33378 0.00148614 7.31153e-07 24 9.19333 7.20151e-07 2.60578e-05 0.673413 1.27658e+07
1.33496 19.1787 0.00175387 1.27301e-06 24 19.2209 1.27581e-06 2.29484e-05 1.33134 1.50656e+07
1.41075 15.1761 0.00206984 8.5356e-07 32 15.3318 8.62319e-07 2.01923e-05 1.35269 1.77798e+07
1.49083 4.64877 0.00244272 2.21551e-07 48 4.54967 2.16828e-07 1.77518e-05 0.599066 2.09828e+07
1.57546 42.1866 0.00288279 1.70362e-06 6 40.1711 1.62223e-06 1.55929e-05 0.655537 2.4763e+07
1.66489 7.48134 0.00340213 2.55999e-07 84 7.24091 2.47772e-07 1.3685e-05 1.57135 2.92241e+07
1.75941 6.46349 0.00401503 1.87408e-07 48 6.3352 1.83688e-07 1.20007e-05 0.749589 3.44889e+07
1.85928 6.3509 0.00473835 1.56034e-07 72 6.39271 1.57061e-07 1.05151e-05 1.06841 4.07021e+07
1.96483 17.2816 0.00559198 3.59773e-07 54 16.942 3.52703e-07 9.20606e-06 2.11032 4.80347e+07
2.07637 13.0913 0.00659939 2.30935e-07 104 13.282 2.34298e-07 8.05366e-06 2.98215 5.66883e+07
2.19424 10.1593 0.00778828 1.51857e-07 120 10.2683 1.53485e-07 7.04008e-06 2.58844 6.69008e+07
2.3188 12.8925 0.00919136 1.63293e-07 156 12.5506 1.58963e-07 6.1494e-06 4.14247 7.89532e+07
2.45043 18.5815 0.0108472 1.99422e-07 126 18.5263 1.9883e-07 5.36741e-06 4.68143 9.31768e+07
2.58954 11.2871 0.0128014 1.02645e-07 192 11.3652 1.03355e-07 4.68145e-06 4.20976 1.09963e+08
2.73654 34.5805 0.0151076 2.66469e-07 152 35.126 2.70673e-07 4.08023e-06 9.92672 1.29773e+08
2.89188 17.626 0.0178292 1.15088e-07 378 17.6914 1.15515e-07 3.55373e-06 12.2416 1.53152e+08
3.05605 15.1469 0.0210412 8.38034e-08 264 14.9823 8.28932e-08 3.09304e-06 7.15287 1.80743e+08
3.22953 18.8603 0.0248319 8.84198e-08 366 18.7849 8.80664e-08 2.69025e-06 12.0292 2.13304e+08
3.41286 17.9143 0.0293054 7.11646e-08 428 17.7735 7.06049e-08 2.33837e-06 13.0255 2.51731e+08
3.6066 21.5239 0.0345848 7.24511e-08 486 21.266 7.15832e-08 2.0312e-06 17.3352 2.97081e+08
3.81134 19.8001 0.0408154 5.64746e-08 600 19.7568 5.63512e-08 1.76327e-06 19.2171 3.50601e+08
4.0277 27.4804 0.0481684 6.64157e-08 738 27.4261 6.62846e-08 1.52972e-06 32.0416 4.13763e+08
4.25634 28.7577 0.056846 5.88932e-08 824 28.6178 5.86066e-08 1.32631e-06 36.5888 4.88304e+08
4.49796 26.9143 0.067087 4.6704e-08 954 26.8011 4.65077e-08 1.14926e-06 38.7691 5.76273e+08
4.7533 30.617 0.0791729 4.5019e-08 1094 30.3861 4.46796e-08 9.95263e-07 49.4852 6.8009e+08
5.02313 32.0865 0.0934361 3.99777e-08 1332 32.0073 3.9879e-08 8.61414e-07 61.8173 8.0261e+08
5.30828 39.4304 0.110269 4.16283e-08 1614 39.3632 4.15573e-08 7.45152e-07 90.1668 9.47202e+08
5.60962 45.8365 0.130134 4.10044e-08 1850 45.8853 4.1048e-08 6.44232e-07 117.75 1.11784e+09
5.92807 41.6026 0.153578 3.15356e-08 2238 41.4804 3.1443e-08 5.56685e-07 126.78 1.31923e+09
6.26459 42.5517 0.181246 2.73312e-08 2546 42.6609 2.74014e-08 4.80786e-07 144.732 1.55689e+09
6.62021 41.8435 0.213898 2.27736e-08 3264 41.7934 2.27464e-08 4.15026e-07 179.105 1.83737e+09
6.99602 49.7324 0.252432 2.29354e-08 3506 49.7701 2.29528e-08 3.58083e-07 224.561 2.16837e+09
7.39317 52.2324 0.297908 2.04112e-08 4506 52.1392 2.03748e-08 3.08803e-07 297.836 2.55901e+09
7.81286 61.1596 0.351577 2.02514e-08 5018 60.937 2.01777e-08 2.66181e-07 381.775 3.02002e+09
8.25637 60.4902 0.414914 1.69721e-08 5852 60.5425 1.69868e-08 2.29336e-07 433.08 3.56409e+09
8.72507 64.2337 0.489662 1.52713e-08 7362 64.0992 1.52393e-08 1.97503e-07 569.244 4.20617e+09
9.22037 67.9174 0.577876 1.36822e-08 8306 67.7499 1.36485e-08 1.70014e-07 668.441 4.96392e+09
9.74378 73.7203 0.681982 1.25842e-08 9698 73.6271 1.25683e-08 1.46289e-07 834.247 5.85818e+09
10.2969 79.0422 0.804843 1.14329e-08 11816 78.9 1.14124e-08 1.25822e-07 1073.67 6.91355e+09
10.8814 87.9892 0.949838 1.07843e-08 13682 87.8001 1.07611e-08 1.08175e-07 1363.99 8.15905e+09
11.4992 89.9323 1.12095 9.33981e-09 16152 89.8649 9.33281e-09 9.29669e-08 1622.69 9.62892e+09
12.1519 92.9372 1.3229 8.1785e-09 19472 92.7149 8.15894e-09 7.98658e-08 1993.99 1.13636e+10
12.8418 97.657 1.56122 7.28198e-09 22670 97.394 7.26237e-09 6.85852e-08 2406.97 1.34108e+10
13.5708 104.943 1.84248 6.63071e-09 26224 104.807 6.62211e-09 5.88765e-08 2953.37 1.58268e+10
14.3411 112.963 2.17441 6.04792e-09 31640 112.869 6.0429e-09 5.05241e-08 3787.42 1.8678e+10
15.1552 118.5 2.56613 5.37589e-09 37484 118.295 5.36657e-09 4.33417e-08 4649.33 2.20429e+10
16.0156 128.191 3.02843 4.92776e-09 43856 127.953 4.91861e-09 3.71677e-08 5814.5 2.6014e+10
16.9247 135.77 3.574 4.42241e-09 51362 135.586 4.4164e-09 3.18628e-08 7128.81 3.07005e+10
17.8855 143.27 4.21787 3.95432e-09 61636 143.07 3.9488e-09 2.73063e-08 8925.73 3.62312e+10
18.9008 151.209 4.97773 3.53637e-09 72218 150.901 3.52916e-09 2.33941e-08 10916.8 4.27584e+10
19.9738 160.583 5.87448 3.18229e-09 84586 160.303 3.17674e-09 2.00364e-08 13434.4 5.04614e+10
21.1076 171.277 6.93279 2.87609e-09 100708 171.026 2.87187e-09 1.71555e-08 16883.5 5.95522e+10
22.3058 180.518 8.18175 2.56854e-09 118712 180.161 2.56345e-09 1.46847e-08 20764.3 7.02807e+10
23.5721 191.479 9.65571 2.30859e-09 140410 191.104 2.30407e-09 1.25662e-08 25795.4 8.29419e+10
24.9102 198.814 11.3952 2.03112e-09 164374 198.434 2.02724e-09 1.07504e-08 31056 9.78842e+10
26.3243 211.028 13.4481 1.8268e-09 194680 210.74 1.8243e-09 9.19452e-09 38679.6 1.15518e+11
27.8187 221.995 15.8708 1.62838e-09 230196 221.62 1.62563e-09 7.86182e-09 47679.3 1.36329e+11
29.3979 232.697 18.73 1.44632e-09 271156 232.33 1.44404e-09 6.72061e-09 58354.4 1.60889e+11
31.0667 247.619 22.1042 1.30412e-09 321076 247.124 1.30152e-09 5.74366e-09 72901.7 1.89874e+11
32.8303 260.987 26.0864 1.1647e-09 377436 260.457 1.16234e-09 4.90756e-09 89576.3 2.2408e+11
34.694 273.127 30.7859 1.03282e-09 447594 272.581 1.03075e-09 4.19221e-09 110272 2.64449e+11
36.6634 288.721 36.3321 9.25122e-10 525078 288.182 9.23395e-10 3.58032e-09 135675 3.1209e+11
38.7447 302.622 42.8774 8.21643e-10 621924 302.059 8.20113e-10 3.05709e-09 167152 3.68314e+11
40.9442 319.204 50.6018 7.34366e-10 732630 318.596 7.32967e-10 2.60976e-09 206156 4.34667e+11
43.2685 335.959 59.7179 6.54925e-10 865596 335.432 6.53897e-10 2.22743e-09 254508 5.12973e+11
45.7247 353.516 70.4762 5.83951e-10 1.02168e+06 352.952 5.83019e-10 1.90073e-09 313884 6.05386e+11
48.3204 369.997 83.1727 5.17878e-10 1.20544e+06 369.311 5.16918e-10 1.62163e-09 384964 7.14448e+11
51.0634 388.076 98.1565 4.60265e-10 1.42103e+06 387.427 4.59495e-10 1.38326e-09 472834 8.43158e+11
53.9621 406.731 115.84 4.08752e-10 1.67997e+06 406.04 4.08057e-10 1.1797e-09 582088 9.95055e+11
57.0254 427.679 136.709 3.64194e-10 1.98018e+06 426.91 3.63539e-10 1.00592e-09 716926 1.17432e+12
60.2626 447.794 161.337 3.23113e-10 2.33957e+06 446.946 3.22501e-10 8.57591e-10 881476 1.38587e+12
63.6835 471.553 190.402 2.88316e-10 2.75676e+06 470.742 2.8782e-10 7.3101e-10 1.08729e+06 1.63554e+12
67.2987 495.413 224.704 2.56665e-10 3.25638e+06 494.594 2.56241e-10 6.23009e-10 1.34155e+06 1.93019e+12
71.1191 520.351 265.185 2.28433e-10 3.84387e+06 519.433 2.2803e-10 5.30879e-10 1.65399e+06 2.27792e+12
75.1563 548.643 312.958 2.04086e-10 4.53277e+06 547.659 2.0372e-10 4.52303e-10 2.04525e+06 2.68829e+12
79.4227 578.503 369.339 1.82344e-10 5.35083e+06 577.517 1.82033e-10 3.85299e-10 2.53229e+06 3.17259e+12
83.9313 611.96 435.876 1.63444e-10 6.32174e+06 610.863 1.63151e-10 3.28173e-10 3.1485e+06 3.74415e+12
88.6959 647.878 514.4 1.46623e-10 7.44986e+06 646.658 1.46347e-10 2.79476e-10 3.90846e+06 4.41866e+12
93.7309 686.939 607.071 1.31731e-10 8.79764e+06 685.648 1.31484e-10 2.37972e-10 4.86999e+06 5.2147e+12
99.0518 732.429 716.436 1.19014e-10 1.03827e+07 731.012 1.18784e-10 2.02605e-10 6.09899e+06 6.15414e+12
104.675 783.281 845.504 1.07848e-10 1.22515e+07 781.704 1.07631e-10 1.72471e-10 7.66101e+06 7.26283e+12
110.617 842.35 997.824 9.82763e-11 1.44573e+07 840.579 9.80697e-11 1.468e-10 9.67855e+06 8.57124e+12
116.896 911.706 1177.58 9.01307e-11 1.70664e+07 909.716 8.9934e-11 1.24935e-10 1.23121e+07 1.01154e+13
123.532 991.961 1389.73 8.30949e-11 2.0139e+07 989.687 8.29044e-11 1.06313e-10 1.57407e+07 1.19377e+13
130.545 1086.82 1640.09 7.71436e-11 2.37643e+07 1084.28 7.69631e-11 9.04567e-11 2.02667e+07 1.40883e+13
137.955 1198.24 1935.56 7.20688e-11 2.80503e+07 1195.3 7.1892e-11 7.69563e-11 2.62688e+07 1.66263e+13
145.787 1330.51 2284.26 6.78083e-11 3.30981e+07 1327.08 6.76334e-11 6.54636e-11 3.42836e+07 1.96216e+13
154.063 1487.37 2695.77 6.42311e-11 3.90634e+07 1483.45 6.4062e-11 5.56812e-11 4.50617e+07 2.31565e+13
162.808 1673.64 3181.42 6.12421e-11 4.61057e+07 1669.03 6.10736e-11 4.73556e-11 5.96256e+07 2.73282e+13
172.051 1895.99 3754.56 5.87877e-11 5.44046e+07 1890.66 5.86224e-11 4.02708e-11 7.94202e+07 3.22515e+13
181.818 2161.96 4430.96 5.68016e-11 6.42064e+07 2155.71 5.66374e-11 3.42426e-11 1.06506e+08 3.80616e+13
192.139 2479.28 5229.21 5.5195e-11 7.57748e+07 2471.89 5.50305e-11 2.91139e-11 1.43656e+08 4.49186e+13
203.046 2857.9 6171.26 5.39118e-11 8.94213e+07 2849.16 5.37469e-11 2.4751e-11 1.94774e+08 5.30108e+13
214.572 3311.8 7283.03 5.29373e-11 1.05538e+08 3301.48 5.27724e-11 2.10401e-11 2.65537e+08 6.25608e+13
226.753 3856.2 8595.09 5.223e-11 1.24552e+08 3843.88 5.20631e-11 1.78839e-11 3.63753e+08 7.38313e+13
239.625 4512.56 10143.5 5.17898e-11 1.46987e+08 4497.91 5.16217e-11 1.51999e-11 5.00821e+08 8.71322e+13
253.228 5302.11 11970.9 5.15623e-11 1.7347e+08 5284.51 5.13911e-11 1.29176e-11 6.92427e+08 1.02829e+14
267.603 6258.04 14127.5 5.15683e-11 2.04703e+08 6236.88 5.1394e-11 1.09771e-11 9.61652e+08 1.21354e+14
282.795 7423.28 16672.6 5.18325e-11 2.4161e+08 7397.69 5.16539e-11 9.3274e-12 1.34263e+09 1.43217e+14
298.848 8857.14 19676.2 5.24037e-11 2.85122e+08 8825.8 5.22183e-11 7.925e-12 1.88536e+09 1.69017e+14
315.813 10638.4 23220.9 5.33345e-11 3.36491e+08 10599.7 5.31404e-11 6.73295e-12 2.66549e+09 1.99466e+14
333.741 12888 27404.3 5.47492e-11 3.97115e+08 12839.3 5.45425e-11 5.71979e-12 3.80114e+09 2.35401e+14
352.686 15803.8 32341.2 5.68875e-11 4.68637e+08 15741.2 5.66618e-11 4.85874e-12 5.48693e+09 2.77809e+14
372.707 19684.3 38167.6 6.00393e-11 5.53074e+08 19601.6 5.97869e-11 4.12703e-12 8.04602e+09 3.27857e+14
393.865 25053.9 45043.5 6.4752e-11 6.52716e+08 24940 6.44575e-11 3.50528e-12 1.20574e+10 3.86921e+14
416.224 29575.9 53158.3 6.47706e-11 2.2184e+08 31288.6 6.85213e-11 2.97701e-12 4.82655e+09 4.56626e+14
439.852 0 62734.9 0 0 0 0 2.52819e-12 0 5.38888e+14
464.821 0 74036.7 0 0 0 0 2.1469e-12 0 6.35971e+14
491.207 0 87374.6 0 0 0 0 1.82301e-12 0 7.50542e+14
519.092 0 103115 0 0 0 0 1.54789e-12 0 8.85755e+14
548.56 0 121692 0 0 0 0 1.31422e-12 0 1.04533e+15
579.7 0 143615 0 0 0 0 1.11576e-12 0 1.23364e+15
612.608 0 169488 0 0 0 0 9.47223e-13 0 1.45589e+15
647.384 0 200021 0 0 0 0 8.041e-13 0 1.71817e+15
684.134 0 236056 0 0 0 0 6.82568e-13 0 2.0277e+15
722.971 0 278582 0 0 0 0 5.79376e-13 0 2.393e+15
764.012 0 328769 0 0 0 0 4.91762e-13 0 2.8241e+15
0.958847
200
1.0655e+09
8589934592
0.0129181 0.00185206 1.58924e-09 0.000135668 6 0.00183511 0.000134426 0.00677225 0.120197 13.6515
0.0136515 0 1.87554e-09 0 0 0 0 0.00688819 0 16.1108
0.0144264 0 2.21343e-09 0 0 0 0 0.00699249 0 19.0132
0.0152454 0 2.61218e-09 0 0 0 0 0.00708412 0 22.4385
0.0161108 0 3.08278e-09 0 0 0 0 0.00716212 0 26.4808
0.0170254 0 3.63815e-09 0 0 0 0 0.00722559 0 31.2514
0.0179919 0.00447833 4.29357e-09 0.000121425 12 0.00447256 0.000121268 0.00727371 0.200324 36.8815
0.0190132 0 5.06707e-09 0 0 0 0 0.00730578 0 43.5258
0.0200925 0 5.97991e-09 0 0 0 0 0.00732122 0 51.367
0.0212331 0.0207949 7.05721e-09 0.000343032 8 0.0207768 0.000342733 0.00731958 0.37492 60.621
0.0224385 0 8.32858e-09 0 0 0 0 0.00730056 0 71.542
0.0237123 0 9.829e-09 0 0 0 0 0.00726401 0 84.4305
0.0250583 0.0142502 1.15997e-08 0.000143016 6 0.0142435 0.000142949 0.00720995 0.119016 99.6408
0.0264808 0 1.36894e-08 0 0 0 0 0.00713857 0 117.591
0.0279841 0.0204929 1.61556e-08 0.000147669 24 0.0204719 0.000147518 0.00705021 0.502689 138.776
0.0295727 0 1.90661e-08 0 0 0 0 0.00694538 0 163.777
0.0312514 0.0208595 2.25009e-08 0.000107923 24 0.0209654 0.000108471 0.00682475 0.379523 193.281
0.0330255 0 2.65545e-08 0 0 0 0 0.00668915 0 228.102
0.0349003 0.03535 3.13384e-08 0.000131318 12 0.035067 0.000130266 0.00653951 0.240968 269.195
0.0368815 0.0338328 3.69841e-08 0.000106496 30 0.0334725 0.000105362 0.00637693 0.501006 317.691
0.0389751 0.0394306 4.36469e-08 0.00010517 24 0.039025 0.000104088 0.00620256 0.406941 374.924
0.0411876 0.0569062 5.151e-08 0.000128611 24 0.0565197 0.000127738 0.00601767 0.512934 442.467
0.0435258 0.0621057 6.07896e-08 0.000118936 8 0.0621009 0.000118926 0.00582358 0.163385 522.179
0.0459966 0.0431495 7.1741e-08 7.00194e-05 72 0.0430088 6.97911e-05 0.00562166 0.89678 616.251
0.0486077 0 8.46654e-08 0 0 0 0 0.0054133 0 727.27
0.051367 0.0921687 9.99181e-08 0.000107386 54 0.0918284 0.00010699 0.00519989 1.11519 858.29
0.054283 0.104331 1.17919e-07 0.000103001 60 0.105033 0.000103694 0.0049828 1.24027 1012.91
0.0573645 0.115048 1.39162e-07 9.62427e-05 96 0.1145 9.57842e-05 0.00476339 1.93965 1195.39
0.060621 0.12002 1.64232e-07 8.50754e-05 24 0.118394 8.39227e-05 0.00454293 0.449448 1410.75
0.0640622 0.166607 1.93819e-07 0.000100071 134 0.166496 0.000100004 0.00432265 3.10214 1664.89
0.0676989 0.156569 2.28736e-07 7.96859e-05 120 0.15545 7.91164e-05 0.00410371 2.33016 1964.83
0.071542 0.175897 2.69944e-07 7.5857e-05 108 0.173349 7.47581e-05 0.00388717 2.10759 2318.8
0.0756032 0.217877 3.18575e-07 7.96177e-05 174 0.216675 7.91784e-05 0.00367401 3.77067 2736.54
0.079895 0.222011 3.75967e-07 6.8744e-05 168 0.219703 6.80293e-05 0.0034651 3.33295 3229.53
0.0844305 0.232305 4.43698e-07 6.09509e-05 168 0.232949 6.11199e-05 0.00326121 3.13987 3811.34
0.0892234 0.236313 5.23632e-07 5.25377e-05 290 0.23504 5.22547e-05 0.00306301 4.97416 4497.96
0.0942883 0.255957 6.17966e-07 4.82184e-05 288 0.25652 4.83245e-05 0.00287109 4.83681 5308.28
0.0996408 0.290253 7.29294e-07 4.63324e-05 366 0.288669 4.60796e-05 0.00268591 6.31356 6264.59
0.105297 0.287042 8.60678e-07 3.88253e-05 420 0.285147 3.85689e-05 0.00250785 6.50222 7393.17
0.111275 0.331816 1.01573e-06 3.80302e-05 398 0.330773 3.79106e-05 0.00233721 6.4761 8725.07
0.117591 0.358734 1.19872e-06 3.4839e-05 624 0.358976 3.48625e-05 0.00217419 9.9989 10296.9
0.124267 0.406931 1.41467e-06 3.3487e-05 642 0.406755 3.34725e-05 0.00201893 10.6486 12151.9
0.131321 0.491191 1.66953e-06 3.42505e-05 800 0.49165 3.42825e-05 0.00187147 14.6411 14341.1
0.138776 0.508051 1.9703e-06 3.00183e-05 858 0.509792 3.01211e-05 0.00173182 14.8721 16924.7
0.146654 0.59913 2.32525e-06 2.99959e-05 1080 0.603019 3.01906e-05 0.00159991 20.2484 19973.8
0.154979 0.579467 2.74415e-06 2.45828e-05 1286 0.584057 2.47775e-05 0.00147563 21.4236 23572.1
0.163777 0.660112 3.23852e-06 2.37291e-05 1650 0.661716 2.37868e-05 0.00135884 28.8136 27818.7
0.173074 0.687436 3.82195e-06 2.09391e-05 1778 0.687176 2.09312e-05 0.00124933 29.7997 32830.3
0.182899 0.766236 4.51048e-06 1.97765e-05 2112 0.768361 1.98314e-05 0.00114689 36.4185 38744.7
0.193281 0.885921 5.32305e-06 1.93751e-05 2570 0.887301 1.94053e-05 0.00105127 47.3655 45724.7
0.204254 0.945789 6.28202e-06 1.75269e-05 3030 0.943444 1.74834e-05 0.000962209 55.1923 53962.1
0.215848 1.08085 7.41374e-06 1.69723e-05 3434 1.08105 1.69754e-05 0.000879423 66.2738 63683.5
0.228102 1.14054 8.74934e-06 1.51756e-05 4218 1.14116 1.51839e-05 0.000802624 79.7516 75156.3
0.24105 1.2043 1.03256e-05 1.35778e-05 4766 1.20496 1.35852e-05 0.000731515 88.4628 88695.9
0.254734 1.40383 1.21857e-05 1.34113e-05 6026 1.40245 1.33982e-05 0.000665798 121.383 104675
0.269195 1.55613 1.4381e-05 1.25969e-05 6480 1.55621 1.25976e-05 0.000605173 134.884 123532
0.284476 1.60934 1.69718e-05 1.1039e-05 8162 1.61109 1.1051e-05 0.000549345 164.014 145787
0.300625 1.83126 2.00293e-05 1.06437e-05 9578 1.82948 1.06334e-05 0.000498021 204.701 172051
0.317691 2.05717 2.36377e-05 1.01316e-05 11234 2.05553 1.01234e-05 0.000450916 252.415 203046
0.335725 2.24967 2.78961e-05 9.38828e-06 13344 2.2483 9.38255e-06 0.000407755 307.236 239625
0.354784 2.52644 3.29216e-05 8.93382e-06 15464 2.5233 8.92274e-06 0.000368269 375.14 282795
0.374924 2.68744 3.88525e-05 8.05249e-06 18458 2.68569 8.04724e-06 0.000332202 447.417 333741
0.396207 3.05816 4.58519e-05 7.76448e-06 22232 3.05115 7.74669e-06 0.000299307 576.732 393865
0.418699 3.43724 5.41123e-05 7.39477e-06 25628 3.42886 7.37672e-06 0.00026935 703.595 464821
0.442467 3.82112 6.38607e-05 6.96574e-06 30320 3.81067 6.94669e-06 0.000242108 872.344 548560
0.467585 4.23129 7.53654e-05 6.53598e-06 35452 4.22444 6.5254e-06 0.00021737 1065.99 647384
0.494129 4.6892 8.89427e-05 6.1376e-06 41792 4.68626 6.13375e-06 0.000194938 1315.81 764012
0.522179 5.28721 0.000104966 5.86392e-06 49988 5.28401 5.86037e-06 0.000174625 1678.6 901651
0.551822 5.94173 0.000123876 5.58388e-06 59110 5.93576 5.57827e-06 0.000156255 2112.34 1.06409e+06
0.583147 6.62515 0.000146192 5.27571e-06 69716 6.61266 5.26576e-06 0.000139664 2633.47 1.25578e+06
0.616251 7.4002 0.000172529 4.99334e-06 82210 7.38484 4.98297e-06 0.0001247 3291.92 1.48202e+06
0.651234 8.30942 0.000203611 4.75094e-06 96722 8.29049 4.74012e-06 0.00011122 4131.62 1.74901e+06
0.688203 9.26277 0.000240292 4.48757e-06 113098 9.2479 4.48037e-06 9.90935e-05 5121.79 2.06409e+06
0.72727 10.463 0.000283581 4.29525e-06 135190 10.4455 4.28808e-06 8.81969e-05 6583.84 2.43595e+06
0.768555 11.7888 0.000334669 4.10077e-06 158170 11.7692 4.09394e-06 7.84179e-05 8271.31 2.87479e+06
0.812184 13.1021 0.000394961 3.86186e-06 188560 13.0787 3.85496e-06 6.96525e-05 10454.7 3.39269e+06
0.85829 14.6634 0.000466114 3.66228e-06 220444 14.6369 3.65567e-06 6.1805e-05 13062.5 4.00389e+06
0.907013 16.3879 0.000550086 3.46819e-06 261388 16.3611 3.46252e-06 5.47875e-05 16546.5 4.7252e+06
0.958501 18.3822 0.000649185 3.29639e-06 308244 18.3518 3.29093e-06 4.85194e-05 20942 5.57646e+06
1.01291 20.5361 0.000766138 3.12048e-06 364396 20.5004 3.11506e-06 4.29272e-05 26488.8 6.58107e+06
1.07041 23.1128 0.00090416 2.9759e-06 429162 23.0667 2.96996e-06 3.79435e-05 33659.1 7.76667e+06
1.13118 25.6947 0.00106705 2.80331e-06 506358 25.6518 2.79862e-06 3.3507e-05 42363.6 9.16586e+06
1.19539 28.5935 0.00125928 2.64335e-06 598590 28.5403 2.63844e-06 2.9562e-05 53524.3 1.08171e+07
1.26325 31.9041 0.00148614 2.49918e-06 704844 31.8503 2.49496e-06 2.60578e-05 67600.9 1.27658e+07
1.33496 35.3229 0.00175387 2.3446e-06 834620 35.2579 2.34028e-06 2.29484e-05 85271.6 1.50656e+07
1.41075 39.048 0.00206984 2.1962e-06 981444 38.9728 2.19197e-06 2.01923e-05 106746 1.77798e+07
1.49083 43.2785 0.00244272 2.06257e-06 1.15998e+06 43.1976 2.05871e-06 1.77518e-05 134777 2.09828e+07
1.57546 47.8265 0.00288279 1.93137e-06 1.36931e+06 47.7367 1.92775e-06 1.55929e-05 169607 2.4763e+07
1.66489 52.5383 0.00340213 1.79778e-06 1.61652e+06 52.4418 1.79447e-06 1.3685e-05 212359 2.92241e+07
1.75941 57.7065 0.00401503 1.67319e-06 1.90601e+06 57.5996 1.67009e-06 1.20007e-05 265744 3.44889e+07
1.85928 63.1296 0.00473835 1.55101e-06 2.24913e+06 63.0163 1.54823e-06 1.05151e-05 331754 4.07021e+07
1.96483 68.8618 0.00559198 1.43358e-06 2.65744e+06 68.7337 1.43092e-06 9.20606e-06 413821 4.80347e+07
2.07637 75.1092 0.00659939 1.32495e-06 3.13125e+06 74.9782 1.32264e-06 8.05366e-06 515139 5.66883e+07
2.19424 81.7012 0.00778828 1.22123e-06 3.69915e+06 81.5618 1.21914e-06 7.04008e-06 641684 6.69008e+07
2.3188 88.7014 0.00919136 1.12347e-06 4.36472e+06 88.5439 1.12147e-06 6.1494e-06 797416 7.89532e+07
2.45043 96.3899 0.0108472 1.03448e-06 5.14913e+06 96.2232 1.03269e-06 5.36741e-06 992414 9.31768e+07
2.58954 104.269 0.0128014 9.48219e-07 6.07894e+06 104.091 9.46597e-07 4.68145e-06 1.23128e+06 1.09963e+08
2.73654 112.61 0.0151076 8.67744e-07 7.17304e+06 112.415 8.66242e-07 4.08023e-06 1.52549e+06 1.29773e+08
2.89188 121.339 0.0178292 7.92276e-07 8.46557e+06 121.133 7.90933e-07 3.55373e-06 1.88733e+06 1.53152e+08
3.05605 130.691 0.0210412 7.23076e-07 9.98773e+06 130.474 7.21877e-07 3.09304e-06 2.33488e+06 1.80743e+08
3.22953 140.513 0.0248319 6.58745e-07 1.1797e+07 140.278 6.57643e-07 2.69025e-06 2.88866e+06 2.13304e+08
3.41286 151.108 0.0293054 6.00276e-07 1.39144e+07 150.849 5.99247e-07 2.33837e-06 3.57192e+06 2.51731e+08
3.6066 162.084 0.0345848 5.45586e-07 1.64163e+07 161.817 5.4469e-07 2.0312e-06 4.40946e+06 2.97081e+08
3.81134 173.545 0.0408154 4.94992e-07 1.93821e+07 173.255 4.94164e-07 1.76327e-06 5.44105e+06 3.50601e+08
4.0277 185.958 0.0481684 4.4943e-07 2.28754e+07 185.645 4.48675e-07 1.52972e-06 6.72076e+06 4.13763e+08
4.25634 198.872 0.056846 4.07272e-07 2.69929e+07 198.537 4.06585e-07 1.32631e-06 8.28876e+06 4.88304e+08
4.49796 212.528 0.067087 3.68797e-07 3.18542e+07 212.172 3.6818e-07 1.14926e-06 1.0222e+07 5.76273e+08
4.7533 226.948 0.0791729 3.33703e-07 3.75892e+07 226.566 3.33142e-07 9.95263e-07 1.26033e+07 6.8009e+08
5.02313 242.001 0.0934361 3.01518e-07 4.43706e+07 241.602 3.01021e-07 8.61414e-07 1.55309e+07 8.0261e+08
5.30828 257.728 0.110269 2.72094e-07 5.23593e+07 257.3 2.71642e-07 7.45152e-07 1.91191e+07 9.47202e+08
5.60962 274.568 0.130134 2.45623e-07 6.1787e+07 274.112 2.45215e-07 6.44232e-07 2.35572e+07 1.11784e+09
5.92807 292.082 0.153578 2.21404e-07 7.29346e+07 291.594 2.21034e-07 5.56685e-07 2.90075e+07 1.31923e+09
6.26459 310.278 0.181246 1.99294e-07 8.60651e+07 309.763 1.98963e-07 4.80786e-07 3.56754e+07 1.55689e+09
6.62021 329.262 0.213898 1.79203e-07 1.01558e+08 328.713 1.78904e-07 4.15026e-07 4.38516e+07 1.83737e+09
6.99602 349.157 0.252432 1.61023e-07 1.1986e+08 348.583 1.60758e-07 3.58083e-07 5.38987e+07 2.16837e+09
7.39317 370.019 0.297908 1.44594e-07 1.41457e+08 369.41 1.44357e-07 3.08803e-07 6.62359e+07 2.55901e+09
7.81286 391.955 0.351577 1.29785e-07 1.66936e+08 391.307 1.29571e-07 2.66181e-07 8.13951e+07 3.02002e+09
8.25637 414.989 0.414914 1.16436e-07 1.97025e+08 414.304 1.16244e-07 2.29336e-07 1.00032e+08 3.56409e+09
8.72507 439.333 0.489662 1.0445e-07 2.32497e+08 438.601 1.04276e-07 1.97503e-07 1.22956e+08 4.20617e+09
9.22037 465.409 0.577876 9.37583e-08 2.74404e+08 464.627 9.36009e-08 1.70014e-07 1.51327e+08 4.96392e+09
9.74378 493.779 0.681982 8.42888e-08 3.2382e+08 492.931 8.4144e-08 1.46289e-07 1.86579e+08 5.85818e+09
10.2969 525.847 0.804843 7.60603e-08 3.82165e+08 524.904 7.59239e-08 1.25822e-07 2.31021e+08 6.91355e+09
10.8814 564.065 0.949838 6.91336e-08 4.51027e+08 562.985 6.90013e-08 1.08175e-07 2.88246e+08 8.15905e+09
11.4992 612.513 1.12095 6.36118e-08 5.32251e+08 611.204 6.34759e-08 9.29669e-08 3.64188e+08 9.62892e+09
12.1519 680.729 1.3229 5.99044e-08 6.28157e+08 679.025 5.97544e-08 7.98658e-08 4.71158e+08 1.13636e+10
12.8418 757.185 1.56122 5.64609e-08 3.82727e+08 783.711 5.84389e-08 6.85852e-08 3.15069e+08 1.34108e+10
13.5708 0 1.84248 0 0 0 0 5.88765e-08 0 1.58268e+10
14.3411 0 2.17441 0 0 0 0 5.05241e-08 0 1.8678e+10
15.1552 0 2.56613 0 0 0 0 4.33417e-08 0 2.20429e+10
16.0156 0 3.02843 0 0 0 0 3.71677e-08 0 2.6014e+10
16.9247 0 3.574 0 0 0 0 3.18628e-08 0 3.07005e+10
17.8855 0 4.21787 0 0 0 0 2.73063e-08 0 3.62312e+10
18.9008 0 4.97773 0 0 0 0 2.33941e-08 0 4.27584e+10
19.9738 0 5.87448 0 0 0 0 2.00364e-08 0 5.04614e+10
21.1076 0 6.93279 0 0 0 0 1.71555e-08 0 5.95522e+10
22.3058 0 8.18175 0 0 0 0 1.46847e-08 0 7.02807e+10
23.5721 0 9.65571 0 0 0 0 1.25662e-08 0 8.29419e+10
24.9102 0 11.3952 0 0 0 0 1.07504e-08 0 9.78842e+10
26.3243 0 13.4481 0 0 0 0 9.19452e-09 0 1.15518e+11
27.8187 0 15.8708 0 0 0 0 7.86182e-09 0 1.36329e+11
29.3979 0 18.73 0 0 0 0 6.72061e-09 0 1.60889e+11
31.0667 0 22.1042 0 0 0 0 5.74366e-09 0 1.89874e+11
32.8303 0 26.0864 0 0 0 0 4.90756e-09 0 2.2408e+11
34.694 0 30.7859 0 0 0 0 4.19221e-09 0 2.64449e+11
36.6634 0 36.3321 0 0 0 0 3.58032e-09 0 3.1209e+11
38.7447 0 42.8774 0 0 0 0 3.05709e-09 0 3.68314e+11
40.9442 0 50.6018 0 0 0 0 2.60976e-09 0 4.34667e+11
43.2685 0 59.7179 0 0 0 0 2.22743e-09 0 5.12973e+11
45.7247 0 70.4762 0 0 0 0 1.90073e-09 0 6.05386e+11
48.3204 0 83.1727 0 0 0 0 1.62163e-09 0 7.14448e+11
51.0634 0 98.1565 0 0 0 0 1.38326e-09 0 8.43158e+11
53.9621 0 115.84 0 0 0 0 1.1797e-09 0 9.95055e+11
57.0254 0 136.709 0 0 0 0 1.00592e-09 0 1.17432e+12
60.2626 0 161.337 0 0 0 0 8.57591e-10 0 1.38587e+12
63.6835 0 190.402 0 0 0 0 7.3101e-10 0 1.63554e+12
67.2987 0 224.704 0 0 0 0 6.23009e-10 0 1.93019e+12
71.1191 0 265.185 0 0 0 0 5.30879e-10 0 2.27792e+12
75.1563 0 312.958 0 0 0 0 4.52303e-10 0 2.68829e+12
79.4227 0 369.339 0 0 0 0 3.85299e-10 0 3.17259e+12
83.9313 0 435.876 0 0 0 0 3.28173e-10 0 3.74415e+12
88.6959 0 514.4 0 0 0 0 2.79476e-10 0 4.41866e+12
93.7309 0 607.071 0 0 0 0 2.37972e-10 0 5.2147e+12
99.0518 0 716.436 0 0 0 0 2.02605e-10 0 6.15414e+12
104.675 0 845.504 0 0 0 0 1.72471e-10 0 7.26283e+12
110.617 0 997.824 0 0 0 0 1.468e-10 0 8.57124e+12
116.896 0 1177.58 0 0 0 0 1.24935e-10 0 1.01154e+13
123.532 0 1389.73 0 0 0 0 1.06313e-10 0 1.19377e+13
130.545 0 1640.09 0 0 0 0 9.04567e-11 0 1.40883e+13
137.955 0 1935.56 0 0 0 0 7.69563e-11 0 1.66263e+13
145.787 0 2284.26 0 0 0 0 6.54636e-11 0 1.96216e+13
154.063 0 2695.77 0 0 0 0 5.56812e-11 0 2.31565e+13
162.808 0 3181.42 0 0 0 0 4.73556e-11 0 2.73282e+13
172.051 0 3754.56 0 0 0 0 4.02708e-11 0 3.22515e+13
181.818 0 4430.96 0 0 0 0 3.42426e-11 0 3.80616e+13
192.139 0 5229.21 0 0 0 0 2.91139e-11 0 4.49186e+13
203.046 0 6171.26 0 0 0 0 2.4751e-11 0 5.30108e+13
214.572 0 7283.03 0 0 0 0 2.10401e-11 0 6.25608e+13
226.753 0 8595.09 0 0 0 0 1.78839e-11 0 7.38313e+13
239.625 0 10143.5 0 0 0 0 1.51999e-11 0 8.71322e+13
253.228 0 11970.9 0 0 0 0 1.29176e-11 0 1.02829e+14
267.603 0 14127.5 0 0 0 0 1.09771e-11 0 1.21354e+14
282.795 0 16672.6 0 0 0 0 9.3274e-12 0 1.43217e+14
298.848 0 19676.2 0 0 0 0 7.925e-12 0 1.69017e+14
315.813 0 23220.9 0 0 0 0 6.73295e-12 0 1.99466e+14
333.741 0 27404.3 0 0 0 0 5.71979e-12 0 2.35401e+14
352.686 0 32341.2 0 0 0 0 4.85874e-12 0 2.77809e+14
372.707 0 38167.6 0 0 0 0 4.12703e-12 0 3.27857e+14
393.865 0 45043.5 0 0 0 0 3.50528e-12 0 3.86921e+14
416.224 0 53158.3 0 0 0 0 2.97701e-12 0 4.56626e+14
439.852 0 62734.9 0 0 0 0 2.52819e-12 0 5.38888e+14
464.821 0 74036.7 0 0 0 0 2.1469e-12 0 6.35971e+14
491.207 0 87374.6 0 0 0 0 1.82301e-12 0 7.50542e+14
519.092 0 103115 0 0 0 0 1.54789e-12 0 8.85755e+14
548.56 0 121692 0 0 0 0 1.31422e-12 0 1.04533e+15
579.7 0 143615 0 0 0 0 1.11576e-12 0 1.23364e+15
612.608 0 169488 0 0 0 0 9.47223e-13 0 1.45589e+15
647.384 0 200021 0 0 0 0 8.041e-13 0 1.71817e+15
684.134 0 236056 0 0 0 0 6.82568e-13 0 2.0277e+15
722.971 0 278582 0 0 0 0 5.79376e-13 0 2.393e+15
764.012 0 328769 0 0 0 0 4.91762e-13 0 2.8241e+15
