0.827698
200
1.0655e+09
8589934592
0.0129181 0 1.58924e-09 0 0 0 0 0.00677225 0 13.6515
0.0136515 0 1.87554e-09 0 0 0 0 0.00688819 0 16.1108
0.0144264 0 2.21343e-09 0 0 0 0 0.00699249 0 19.0132
0.0152454 0 2.61218e-09 0 0 0 0 0.00708412 0 22.4385
0.0161108 0 3.08278e-09 0 0 0 0 0.00716212 0 26.4808
0.0170254 0 3.63815e-09 0 0 0 0 0.00722559 0 31.2514
0.0179919 0 4.29357e-09 0 0 0 0 0.00727371 0 36.8815
0.0190132 0 5.06707e-09 0 0 0 0 0.00730578 0 43.5258
0.0200925 0 5.97991e-09 0 0 0 0 0.00732122 0 51.367
0.0212331 0 7.05721e-09 0 0 0 0 0.00731958 0 60.621
0.0224385 0 8.32858e-09 0 0 0 0 0.00730056 0 71.542
0.0237123 0 9.829e-09 0 0 0 0 0.00726401 0 84.4305
0.0250583 0 1.15997e-08 0 0 0 0 0.00720995 0 99.6408
0.0264808 0 1.36894e-08 0 0 0 0 0.00713857 0 117.591
0.0279841 0 1.61556e-08 0 0 0 0 0.00705021 0 138.776
0.0295727 0 1.90661e-08 0 0 0 0 0.00694538 0 163.777
0.0312514 0 2.25009e-08 0 0 0 0 0.00682475 0 193.281
0.0330255 0 2.65545e-08 0 0 0 0 0.00668915 0 228.102
0.0349003 0 3.13384e-08 0 0 0 0 0.00653951 0 269.195
0.0368815 0 3.69841e-08 0 0 0 0 0.00637693 0 317.691
0.0389751 0 4.36469e-08 0 0 0 0 0.00620256 0 374.924
0.0411876 0 5.151e-08 0 0 0 0 0.00601767 0 442.467
0.0435258 0 6.07896e-08 0 0 0 0 0.00582358 0 522.179
0.0459966 0 7.1741e-08 0 0 0 0 0.00562166 0 616.251
0.0486077 0 8.46654e-08 0 0 0 0 0.0054133 0 727.27
0.051367 0 9.99181e-08 0 0 0 0 0.00519989 0 858.29
0.054283 0 1.17919e-07 0 0 0 0 0.0049828 0 1012.91
0.0573645 0 1.39162e-07 0 0 0 0 0.00476339 0 1195.39
0.060621 0 1.64232e-07 0 0 0 0 0.00454293 0 1410.75
0.0640622 0 1.93819e-07 0 0 0 0 0.00432265 0 1664.89
0.0676989 0 2.28736e-07 0 0 0 0 0.00410371 0 1964.83
0.071542 0 2.69944e-07 0 0 0 0 0.00388717 0 2318.8
0.0756032 0 3.18575e-07 0 0 0 0 0.00367401 0 2736.54
0.079895 0 3.75967e-07 0 0 0 0 0.0034651 0 3229.53
0.0844305 0 4.43698e-07 0 0 0 0 0.00326121 0 3811.34
0.0892234 0 5.23632e-07 0 0 0 0 0.00306301 0 4497.96
0.0942883 0 6.17966e-07 0 0 0 0 0.00287109 0 5308.28
0.0996408 0 7.29294e-07 0 0 0 0 0.00268591 0 6264.59
0.105297 0 8.60678e-07 0 0 0 0 0.00250785 0 7393.17
0.111275 0 1.01573e-06 0 0 0 0 0.00233721 0 8725.07
0.117591 0 1.19872e-06 0 0 0 0 0.00217419 0 10296.9
0.124267 0 1.41467e-06 0 0 0 0 0.00201893 0 12151.9
0.131321 0 1.66953e-06 0 0 0 0 0.00187147 0 14341.1
0.138776 0 1.9703e-06 0 0 0 0 0.00173182 0 16924.7
0.146654 0 2.32525e-06 0 0 0 0 0.00159991 0 19973.8
0.154979 0 2.74415e-06 0 0 0 0 0.00147563 0 23572.1
0.163777 0 3.23852e-06 0 0 0 0 0.00135884 0 27818.7
0.173074 0 3.82195e-06 0 0 0 0 0.00124933 0 32830.3
0.182899 0 4.51048e-06 0 0 0 0 0.00114689 0 38744.7
0.193281 0 5.32305e-06 0 0 0 0 0.00105127 0 45724.7
0.204254 0 6.28202e-06 0 0 0 0 0.000962209 0 53962.1
0.215848 0 7.41374e-06 0 0 0 0 0.000879423 0 63683.5
0.228102 0 8.74934e-06 0 0 0 0 0.000802624 0 75156.3
0.24105 0 1.03256e-05 0 0 0 0 0.000731515 0 88695.9
0.254734 0 1.21857e-05 0 0 0 0 0.000665798 0 104675
0.269195 0 1.4381e-05 0 0 0 0 0.000605173 0 123532
0.284476 0 1.69718e-05 0 0 0 0 0.000549345 0 145787
0.300625 0 2.00293e-05 0 0 0 0 0.000498021 0 172051
0.317691 0 2.36377e-05 0 0 0 0 0.000450916 0 203046
0.335725 0 2.78961e-05 0 0 0 0 0.000407755 0 239625
0.354784 0 3.29216e-05 0 0 0 0 0.000368269 0 282795
0.374924 0 3.88525e-05 0 0 0 0 0.000332202 0 333741
0.396207 1.70558 4.58519e-05 4.33036e-06 6 1.65816 4.20996e-06 0.000299307 0.0868077 393865
0.418699 0 5.41123e-05 0 0 0 0 0.00026935 0 464821
0.442467 0 6.38607e-05 0 0 0 0 0.000242108 0 548560
0.467585 0 7.53654e-05 0 0 0 0 0.00021737 0 647384
0.494129 0 8.89427e-05 0 0 0 0 0.000194938 0 764012
0.522179 0 0.000104966 0 0 0 0 0.000174625 0 901651
0.551822 0 0.000123876 0 0 0 0 0.000156255 0 1.06409e+06
0.583147 2.7472 0.000146192 2.18764e-06 12 2.89144 2.3025e-06 0.000139664 0.187963 1.25578e+06
0.616251 0 0.000172529 0 0 0 0 0.0001247 0 1.48202e+06
0.651234 0 0.000203611 0 0 0 0 0.00011122 0 1.74901e+06
0.688203 19.6102 0.000240292 9.50062e-06 8 19.1223 9.26426e-06 9.90935e-05 0.767003 2.06409e+06
0.72727 0 0.000283581 0 0 0 0 8.81969e-05 0 2.43595e+06
0.768555 0 0.000334669 0 0 0 0 7.84179e-05 0 2.87479e+06
0.812184 10.6386 0.000394961 3.13574e-06 6 10.8661 3.20279e-06 6.96525e-05 0.270119 3.39269e+06
0.85829 0 0.000466114 0 0 0 0 6.1805e-05 0 4.00389e+06
0.907013 1.76909 0.000550086 3.74395e-07 24 1.80304 3.81579e-07 5.47875e-05 0.164006 4.7252e+06
0.958501 4.99999 0.000649185 8.96624e-07 24 4.70712 8.44105e-07 4.85194e-05 0.443513 5.57646e+06
1.01291 0 0.000766138 0 0 0 0 4.29272e-05 0 6.58107e+06
1.07041 0 0.00090416 0 0 0 0 3.79435e-05 0 7.76667e+06
1.13118 4.46441 0.00106705 4.8707e-07 12 4.40957 4.81087e-07 3.3507e-05 0.174436 9.16586e+06
1.19539 3.30838 0.00125928 3.05847e-07 30 3.24018 2.99542e-07 2.9562e-05 0.310378 1.08171e+07
1.26325 8.16615 0.00148614 6.39687e-07 24 8.04327 6.30062e-07 2.60578e-05 0.58917 1.27658e+07
1.33496 15.1854 0.00175387 1.00795e-06 24 15.2188 1.01017e-06 2.29484e-05 1.05414 1.50656e+07
1.41075 14.1577 0.00206984 7.96282e-07 32 14.3966 8.09716e-07 2.01923e-05 1.26192 1.77798e+07
1.49083 4.48771 0.00244272 2.13875e-07 48 4.39203 2.09316e-07 1.77518e-05 0.578309 2.09828e+07
1.57546 56.4482 0.00288279 2.27954e-06 6 53.7514 2.17064e-06 1.55929e-05 0.877149 2.4763e+07
1.66489 6.04345 0.00340213 2.06797e-07 84 5.9016 2.01943e-07 1.3685e-05 1.26934 2.92241e+07
1.75941 7.88741 0.00401503 2.28695e-07 48 7.7984 2.26113e-07 1.20007e-05 0.914726 3.44889e+07
1.85928 5.94152 0.00473835 1.45976e-07 72 5.98148 1.46957e-07 1.05151e-05 0.999539 4.07021e+07
1.96483 16.3774 0.00559198 3.4095e-07 54 16.0081 3.3326e-07 9.20606e-06 1.99991 4.80347e+07
2.07637 15.2404 0.00659939 2.68846e-07 104 15.321 2.70268e-07 8.05366e-06 3.47172 5.66883e+07
2.19424 9.17732 0.00778828 1.37178e-07 120 9.32523 1.39389e-07 7.04008e-06 2.33823 6.69008e+07
2.3188 10.9155 0.00919136 1.38253e-07 156 10.5853 1.34071e-07 6.1494e-06 3.50724 7.89532e+07
2.45043 11.7073 0.0108472 1.25646e-07 126 11.7079 1.25652e-07 5.36741e-06 2.94953 9.31768e+07
2.58954 10.0932 0.0128014 9.17875e-08 192 10.1556 9.2355e-08 4.68145e-06 3.76447 1.09963e+08
2.73654 30.7 0.0151076 2.36567e-07 152 30.888 2.38015e-07 4.08023e-06 8.81276 1.29773e+08
2.89188 13.086 0.0178292 8.54447e-08 378 13.1027 8.55537e-08 3.55373e-06 9.0885 1.53152e+08
3.05605 15.5505 0.0210412 8.60364e-08 264 15.3611 8.4989e-08 3.09304e-06 7.34346 1.80743e+08
3.22953 16.7279 0.0248319 7.84227e-08 366 16.5959 7.78042e-08 2.69025e-06 10.6691 2.13304e+08
3.41286 17.8582 0.0293054 7.09417e-08 428 17.75 7.05118e-08 2.33837e-06 12.9847 2.51731e+08
3.6066 21.6143 0.0345848 7.27554e-08 486 21.4089 7.20641e-08 2.0312e-06 17.408 2.97081e+08
3.81134 17.8519 0.0408154 5.0918e-08 600 17.8568 5.0932e-08 1.76327e-06 17.3263 3.50601e+08
4.0277 25.5048 0.0481684 6.16411e-08 738 25.5022 6.16349e-08 1.52972e-06 29.7382 4.13763e+08
4.25634 25.4033 0.056846 5.20236e-08 824 25.357 5.19289e-08 1.32631e-06 32.3209 4.88304e+08
4.49796 24.4786 0.067087 4.24774e-08 954 24.2617 4.21011e-08 1.14926e-06 35.2606 5.76273e+08
4.7533 25.9684 0.0791729 3.81838e-08 1094 25.871 3.80406e-08 9.95263e-07 41.9719 6.8009e+08
5.02313 28.937 0.0934361 3.60536e-08 1332 29.1239 3.62865e-08 8.61414e-07 55.7495 8.0261e+08
5.30828 33.3548 0.110269 3.5214e-08 1614 33.2928 3.51485e-08 7.45152e-07 76.2736 9.47202e+08
5.60962 38.6638 0.130134 3.45878e-08 1850 38.5583 3.44935e-08 6.44232e-07 99.3236 1.11784e+09
5.92807 33.5255 0.153578 2.5413e-08 2238 33.5222 2.54105e-08 5.56685e-07 102.166 1.31923e+09
6.26459 36.0936 0.181246 2.31832e-08 2546 36.1268 2.32045e-08 4.80786e-07 122.766 1.55689e+09
6.62021 38.6709 0.213898 2.10469e-08 3264 38.7287 2.10784e-08 4.15026e-07 165.525 1.83737e+09
6.99602 42.0265 0.252432 1.93816e-08 3506 42.1006 1.94157e-08 3.58083e-07 189.766 2.16837e+09
7.39317 48.4591 0.297908 1.89367e-08 4506 48.4536 1.89345e-08 3.08803e-07 276.32 2.55901e+09
7.81286 52.125 0.351577 1.72598e-08 5018 51.9449 1.72002e-08 2.66181e-07 325.379 3.02002e+09
8.25637 53.493 0.414914 1.50089e-08 5852 53.4558 1.49985e-08 2.29336e-07 382.984 3.56409e+09
8.72507 53.5208 0.489662 1.27244e-08 7362 53.4683 1.27119e-08 1.97503e-07 474.305 4.20617e+09
9.22037 58.6369 0.577876 1.18126e-08 8306 58.4011 1.17651e-08 1.70014e-07 577.103 4.96392e+09
9.74378 63.5894 0.681982 1.08548e-08 9698 63.4773 1.08357e-08 1.46289e-07 719.602 5.85818e+09
10.2969 67.2243 0.804843 9.72355e-09 11816 67.2348 9.72508e-09 1.25822e-07 913.14 6.91355e+09
10.8814 78.0857 0.949838 9.57044e-09 13682 77.8434 9.54075e-09 1.08175e-07 1210.47 8.15905e+09
11.4992 75.8276 1.12095 7.87498e-09 16152 75.8032 7.87245e-09 9.29669e-08 1368.19 9.62892e+09
12.1519 80.3224 1.3229 7.06839e-09 19472 80.1977 7.05742e-09 7.98658e-08 1723.34 1.13636e+10
12.8418 83.5061 1.56122 6.22679e-09 22670 83.2821 6.21009e-09 6.85852e-08 2058.19 1.34108e+10
13.5708 89.1856 1.84248 5.63511e-09 26224 88.9887 5.62267e-09 5.88765e-08 2509.92 1.58268e+10
14.3411 96.572 2.17441 5.17036e-09 31640 96.5316 5.16819e-09 5.05241e-08 3237.86 1.8678e+10
15.1552 100.975 2.56613 4.58084e-09 37484 100.822 4.57391e-09 4.33417e-08 3961.73 2.20429e+10
16.0156 109.783 3.02843 4.22014e-09 43856 109.634 4.21443e-09 3.71677e-08 4979.55 2.6014e+10
16.9247 116.659 3.574 3.79992e-09 51362 116.486 3.79429e-09 3.18628e-08 6125.38 3.07005e+10
17.8855 121.442 4.21787 3.35186e-09 61636 121.27 3.34712e-09 2.73063e-08 7565.85 3.62312e+10
18.9008 128.958 4.97773 3.01597e-09 72218 128.691 3.00974e-09 2.33941e-08 9310.32 4.27584e+10
19.9738 137.079 5.87448 2.71651e-09 84586 136.874 2.71245e-09 2.00364e-08 11468.1 5.04614e+10
21.1076 144.459 6.93279 2.42575e-09 100708 144.207 2.42153e-09 1.71555e-08 14239.9 5.95522e+10
22.3058 154.571 8.18175 2.19934e-09 118712 154.313 2.19566e-09 1.46847e-08 17779.6 7.02807e+10
23.5721 161.269 9.65571 1.94436e-09 140410 160.939 1.94038e-09 1.25662e-08 21725.6 8.29419e+10
24.9102 169.091 11.3952 1.72746e-09 164374 168.743 1.72391e-09 1.07504e-08 26413 9.78842e+10
26.3243 177.553 13.4481 1.53701e-09 194680 177.257 1.53445e-09 9.19452e-09 32543.9 1.15518e+11
27.8187 188.514 15.8708 1.38279e-09 230196 188.228 1.38069e-09 7.86182e-09 40488.3 1.36329e+11
29.3979 198.263 18.73 1.2323e-09 271156 197.961 1.23042e-09 6.72061e-09 49719.3 1.60889e+11
31.0667 208.818 22.1042 1.09977e-09 321076 208.463 1.0979e-09 5.74366e-09 61478.2 1.89874e+11
32.8303 220.004 26.0864 9.81809e-10 377436 219.582 9.79927e-10 4.90756e-09 75510.1 2.2408e+11
34.694 231.915 30.7859 8.76975e-10 447594 231.45 8.75217e-10 4.19221e-09 93633 2.64449e+11
36.6634 243.608 36.3321 7.80571e-10 525078 243.157 7.79124e-10 3.58032e-09 114476 3.1209e+11
38.7447 255.425 42.8774 6.93498e-10 621924 254.953 6.92218e-10 3.05709e-09 141083 3.68314e+11
40.9442 268.019 50.6018 6.16609e-10 732630 267.555 6.15542e-10 2.60976e-09 173099 4.34667e+11
43.2685 282.567 59.7179 5.50843e-10 865596 282.128 5.49986e-10 2.22743e-09 214061 5.12973e+11
45.7247 297.197 70.4762 4.90921e-10 1.02168e+06 296.703 4.90105e-10 1.90073e-09 263879 6.05386e+11
48.3204 310.312 83.1727 4.34338e-10 1.20544e+06 309.752 4.33555e-10 1.62163e-09 322864 7.14448e+11
51.0634 325.792 98.1565 3.86395e-10 1.42103e+06 325.218 3.85714e-10 1.38326e-09 396947 8.43158e+11
53.9621 341.452 115.84 3.43149e-10 1.67997e+06 340.881 3.42575e-10 1.1797e-09 488665 9.95055e+11
57.0254 359.334 136.709 3.05994e-10 1.98018e+06 358.703 3.05457e-10 1.00592e-09 602358 1.17432e+12
60.2626 377.149 161.337 2.72138e-10 2.33957e+06 376.461 2.71642e-10 8.57591e-10 742413 1.38587e+12
63.6835 396.842 190.402 2.42636e-10 2.75676e+06 396.121 2.42196e-10 7.3101e-10 915023 1.63554e+12
67.2987 418.14 224.704 2.16632e-10 3.25638e+06 417.442 2.1627e-10 6.23009e-10 1.1323e+06 1.93019e+12
71.1191 441.58 265.185 1.93853e-10 3.84387e+06 440.791 1.93506e-10 5.30879e-10 1.4036e+06 2.27792e+12
75.1563 466.806 312.958 1.73644e-10 4.53277e+06 465.969 1.73333e-10 4.52303e-10 1.74018e+06 2.68829e+12
79.4227 494.584 369.339 1.55893e-10 5.35083e+06 493.679 1.55607e-10 3.85299e-10 2.16495e+06 3.17259e+12
83.9313 525.555 435.876 1.40367e-10 6.32174e+06 524.527 1.40093e-10 3.28173e-10 2.70395e+06 3.74415e+12
88.6959 560.414 514.4 1.26829e-10 7.44986e+06 559.27 1.2657e-10 2.79476e-10 3.38081e+06 4.41866e+12
93.7309 599.568 607.071 1.14977e-10 8.79764e+06 598.359 1.14745e-10 2.37972e-10 4.25059e+06 5.2147e+12
99.0518 643.738 716.436 1.04602e-10 1.03827e+07 642.401 1.04385e-10 2.02605e-10 5.36046e+06 6.15414e+12
104.675 695.948 845.504 9.58233e-11 1.22515e+07 694.441 9.56158e-11 1.72471e-10 6.80684e+06 7.26283e+12
110.617 756.773 997.824 8.82921e-11 1.44573e+07 755.076 8.80941e-11 1.468e-10 8.69527e+06 8.57124e+12
116.896 828.078 1177.58 8.18633e-11 1.70664e+07 826.133 8.1671e-11 1.24935e-10 1.11827e+07 1.01154e+13
123.532 911.758 1389.73 7.63764e-11 2.0139e+07 909.541 7.61907e-11 1.06313e-10 1.44681e+07 1.19377e+13
130.545 1010.67 1640.09 7.17382e-11 2.37643e+07 1008.09 7.15554e-11 9.04567e-11 1.88467e+07 1.40883e+13
137.955 1128.19 1935.56 6.78554e-11 2.80503e+07 1125.21 6.76766e-11 7.69563e-11 2.4733e+07 1.66263e+13
145.787 1267.75 2284.26 6.46099e-11 3.30981e+07 1264.31 6.44348e-11 6.54636e-11 3.26665e+07 1.96216e+13
154.063 1432.92 2695.77 6.18796e-11 3.90634e+07 1428.91 6.17065e-11 5.56812e-11 4.3412e+07 2.31565e+13
162.808 1630.56 3181.42 5.96658e-11 4.61057e+07 1625.85 5.94935e-11 4.73556e-11 5.8091e+07 2.73282e+13
172.051 1866.2 3754.56 5.78641e-11 5.44046e+07 1860.71 5.76938e-11 4.02708e-11 7.81725e+07 3.22515e+13
181.818 2146.3 4430.96 5.63902e-11 6.42064e+07 2139.86 5.6221e-11 3.42426e-11 1.05734e+08 3.80616e+13
192.139 2480.5 5229.21 5.52222e-11 7.57748e+07 2472.84 5.50516e-11 2.91139e-11 1.43727e+08 4.49186e+13
203.046 2879.21 6171.26 5.43136e-11 8.94213e+07 2870.19 5.41434e-11 2.4751e-11 1.96226e+08 5.30108e+13
214.572 3355.27 7283.03 5.36322e-11 1.05538e+08 3344.57 5.34611e-11 2.10401e-11 2.69022e+08 6.25608e+13
226.753 3928.12 8595.09 5.3204e-11 1.24552e+08 3915.32 5.30307e-11 1.78839e-11 3.70537e+08 7.38313e+13
239.625 4613.86 10143.5 5.29525e-11 1.46987e+08 4598.56 5.27768e-11 1.51999e-11 5.12065e+08 8.71322e+13
253.228 5439.61 11970.9 5.28995e-11 1.7347e+08 5421.33 5.27216e-11 1.29176e-11 7.10384e+08 1.02829e+14
267.603 6438.7 14127.5 5.30571e-11 2.04703e+08 6416.77 5.28764e-11 1.09771e-11 9.89414e+08 1.21354e+14
282.795 7653.35 16672.6 5.3439e-11 2.4161e+08 7626.74 5.32532e-11 9.3274e-12 1.38424e+09 1.43217e+14
298.848 9144.61 19676.2 5.41046e-11 2.85122e+08 9112.1 5.39122e-11 7.925e-12 1.94655e+09 1.69017e+14
315.813 11000.1 23220.9 5.51477e-11 3.36491e+08 10959.8 5.49456e-11 6.73295e-12 2.75611e+09 1.99466e+14
333.741 13342.8 27404.3 5.66812e-11 3.97115e+08 13292.3 5.64665e-11 5.71979e-12 3.93528e+09 2.35401e+14
352.686 16368.1 32341.2 5.89185e-11 4.68637e+08 16303.2 5.86849e-11 4.85874e-12 5.68283e+09 2.77809e+14
372.707 20400.3 38167.6 6.22233e-11 5.53074e+08 20314.4 6.19612e-11 4.12703e-12 8.3387e+09 3.27857e+14
393.865 25970.9 45043.5 6.71221e-11 6.52716e+08 25852.8 6.68167e-11 3.50528e-12 1.24988e+10 3.86921e+14
416.224 30664.5 53158.3 6.71545e-11 2.2184e+08 32440.1 7.1043e-11 2.97701e-12 5.00419e+09 4.56626e+14
439.852 0 62734.9 0 0 0 0 2.52819e-12 0 5.38888e+14
464.821 0 74036.7 0 0 0 0 2.1469e-12 0 6.35971e+14
491.207 0 87374.6 0 0 0 0 1.82301e-12 0 7.50542e+14
519.092 0 103115 0 0 0 0 1.54789e-12 0 8.85755e+14
548.56 0 121692 0 0 0 0 1.31422e-12 0 1.04533e+15
579.7 0 143615 0 0 0 0 1.11576e-12 0 1.23364e+15
612.608 0 169488 0 0 0 0 9.47223e-13 0 1.45589e+15
647.384 0 200021 0 0 0 0 8.041e-13 0 1.71817e+15
684.134 0 236056 0 0 0 0 6.82568e-13 0 2.0277e+15
722.971 0 278582 0 0 0 0 5.79376e-13 0 2.393e+15
764.012 0 328769 0 0 0 0 4.91762e-13 0 2.8241e+15
0.827698
200
1.0655e+09
8589934592
0.0129181 0.00155605 1.58924e-09 0.000113984 6 0.0015418 0.00011294 0.00677225 0.100986 13.6515
0.0136515 0 1.87554e-09 0 0 0 0 0.00688819 0 16.1108
0.0144264 0 2.21343e-09 0 0 0 0 0.00699249 0 19.0132
0.0152454 0 2.61218e-09 0 0 0 0 0.00708412 0 22.4385
0.0161108 0 3.08278e-09 0 0 0 0 0.00716212 0 26.4808
0.0170254 0 3.63815e-09 0 0 0 0 0.00722559 0 31.2514
0.0179919 0.00377037 4.29357e-09 0.000102229 12 0.00376552 0.000102098 0.00727371 0.168656 36.8815
0.0190132 0 5.06707e-09 0 0 0 0 0.00730578 0 43.5258
0.0200925 0 5.97991e-09 0 0 0 0 0.00732122 0 51.367
0.0212331 0.0174989 7.05721e-09 0.000288662 8 0.0174837 0.00028841 0.00731958 0.315495 60.621
0.0224385 0 8.32858e-09 0 0 0 0 0.00730056 0 71.542
0.0237123 0 9.829e-09 0 0 0 0 0.00726401 0 84.4305
0.0250583 0.0120991 1.15997e-08 0.000121427 6 0.0120934 0.00012137 0.00720995 0.101049 99.6408
0.0264808 0 1.36894e-08 0 0 0 0 0.00713857 0 117.591
0.0279841 0.0172588 1.61556e-08 0.000124364 24 0.017241 0.000124237 0.00705021 0.423355 138.776
0.0295727 0 1.90661e-08 0 0 0 0 0.00694538 0 163.777
0.0312514 0.0176553 2.25009e-08 9.13449e-05 24 0.0177449 9.18087e-05 0.00682475 0.321224 193.281
0.0330255 0 2.65545e-08 0 0 0 0 0.00668915 0 228.102
0.0349003 0.0300576 3.13384e-08 0.000111657 12 0.0298169 0.000110763 0.00653951 0.204891 269.195
0.0368815 0.0284818 3.69841e-08 8.96526e-05 30 0.0281785 8.86979e-05 0.00637693 0.421767 317.691
0.0389751 0.0332501 4.36469e-08 8.86849e-05 24 0.032908 8.77725e-05 0.00620256 0.343155 374.924
0.0411876 0.0479388 5.151e-08 0.000108344 24 0.0476132 0.000107609 0.00601767 0.432105 442.467
0.0435258 0.0524325 6.07896e-08 0.000100411 8 0.0524285 0.000100403 0.00582358 0.137937 522.179
0.0459966 0.0363541 7.1741e-08 5.89923e-05 72 0.0362364 5.88014e-05 0.00562166 0.75555 616.251
0.0486077 0 8.46654e-08 0 0 0 0 0.0054133 0 727.27
0.051367 0.077082 9.99181e-08 8.98089e-05 54 0.0767958 8.94754e-05 0.00519989 0.93265 858.29
0.054283 0.0878303 1.17919e-07 8.67106e-05 60 0.0884195 8.72923e-05 0.0049828 1.04412 1012.91
0.0573645 0.0964201 1.39162e-07 8.06598e-05 96 0.0959627 8.02772e-05 0.00476339 1.6256 1195.39
0.060621 0.102118 1.64232e-07 7.23861e-05 24 0.100735 7.14054e-05 0.00454293 0.382411 1410.75
0.0640622 0.141346 1.93819e-07 8.48981e-05 134 0.141249 8.48393e-05 0.00432265 2.6318 1664.89
0.0676989 0.131716 2.28736e-07 6.70367e-05 120 0.130775 6.65577e-05 0.00410371 1.96027 1964.83
0.071542 0.147658 2.69944e-07 6.36788e-05 108 0.145521 6.27572e-05 0.00388717 1.76923 2318.8
0.0756032 0.183616 3.18575e-07 6.70978e-05 174 0.182604 6.67282e-05 0.00367401 3.17773 2736.54
0.079895 0.185834 3.75967e-07 5.75422e-05 168 0.183911 5.69466e-05 0.0034651 2.78985 3229.53
0.0844305 0.196843 4.43698e-07 5.16466e-05 168 0.197401 5.1793e-05 0.00326121 2.66056 3811.34
0.0892234 0.199995 5.23632e-07 4.44634e-05 290 0.198929 4.42264e-05 0.00306301 4.20971 4497.96
0.0942883 0.215409 6.17966e-07 4.05798e-05 288 0.215839 4.06608e-05 0.00287109 4.07057 5308.28
0.0996408 0.241559 7.29294e-07 3.85595e-05 366 0.240238 3.83486e-05 0.00268591 5.25437 6264.59
0.105297 0.238504 8.60678e-07 3.22601e-05 420 0.236938 3.20483e-05 0.00250785 5.40272 7393.17
0.111275 0.277231 1.01573e-06 3.17741e-05 398 0.276381 3.16766e-05 0.00233721 5.41076 8725.07
0.117591 0.297191 1.19872e-06 2.88621e-05 624 0.297367 2.88792e-05 0.00217419 8.28351 10296.9
0.124267 0.340972 1.41467e-06 2.80591e-05 642 0.340808 2.80456e-05 0.00201893 8.92252 12151.9
0.131321 0.412186 1.66953e-06 2.87415e-05 800 0.412567 2.87681e-05 0.00187147 12.2862 14341.1
0.138776 0.423395 1.9703e-06 2.50164e-05 858 0.424838 2.51016e-05 0.00173182 12.3939 16924.7
0.146654 0.499229 2.32525e-06 2.49942e-05 1080 0.50248 2.5157e-05 0.00159991 16.8721 19973.8
0.154979 0.486401 2.74415e-06 2.06346e-05 1286 0.490248 2.07978e-05 0.00147563 17.9829 23572.1
0.163777 0.54353 3.23852e-06 1.95383e-05 1650 0.544886 1.95871e-05 0.00135884 23.7248 27818.7
0.173074 0.567611 3.82195e-06 1.72893e-05 1778 0.56745 1.72844e-05 0.00124933 24.6054 32830.3
0.182899 0.635654 4.51048e-06 1.64062e-05 2112 0.637398 1.64512e-05 0.00114689 30.212 38744.7
0.193281 0.729508 5.32305e-06 1.59544e-05 2570 0.730604 1.59783e-05 0.00105127 39.003 45724.7
0.204254 0.776502 6.28202e-06 1.43898e-05 3030 0.774683 1.43561e-05 0.000962209 45.3134 53962.1
0.215848 0.883785 7.41374e-06 1.38778e-05 3434 0.883935 1.38801e-05 0.000879423 54.1904 63683.5
0.228102 0.930135 8.74934e-06 1.2376e-05 4218 0.930625 1.23825e-05 0.000802624 65.0392 75156.3
0.24105 0.982223 1.03256e-05 1.10741e-05 4766 0.982763 1.10801e-05 0.000731515 72.1502 88695.9
0.254734 1.1326 1.21857e-05 1.08202e-05 6026 1.13164 1.0811e-05 0.000665798 97.9317 104675
0.269195 1.25876 1.4381e-05 1.01897e-05 6480 1.25883 1.01903e-05 0.000605173 109.108 123532
0.284476 1.30268 1.69718e-05 8.93553e-06 8162 1.30404 8.94484e-06 0.000549345 132.761 145787
0.300625 1.46917 2.00293e-05 8.53916e-06 9578 1.46762 8.53016e-06 0.000498021 164.226 172051
0.317691 1.64446 2.36377e-05 8.09895e-06 11234 1.64335 8.09347e-06 0.000450916 201.775 203046
0.335725 1.80109 2.78961e-05 7.51627e-06 13344 1.80015 7.51235e-06 0.000407755 245.974 239625
0.354784 2.01391 3.29216e-05 7.12147e-06 15464 2.01157 7.11318e-06 0.000368269 299.038 282795
0.374924 2.1322 3.88525e-05 6.38878e-06 18458 2.13095 6.38503e-06 0.000332202 354.977 333741
0.396207 2.40786 4.58519e-05 6.11342e-06 22232 2.40232 6.09934e-06 0.000299307 454.094 393865
0.418699 2.70397 5.41123e-05 5.81724e-06 25628 2.69763 5.80358e-06 0.00026935 553.497 464821
0.442467 3.00955 6.38607e-05 5.48628e-06 30320 3.0014 5.47142e-06 0.000242108 687.066 548560
0.467585 3.29528 7.53654e-05 5.09014e-06 35452 3.29009 5.08213e-06 0.00021737 830.176 647384
0.494129 3.65666 8.89427e-05 4.78613e-06 41792 3.65442 4.7832e-06 0.000194938 1026.08 764012
0.522179 4.08898 0.000104966 4.53499e-06 49988 4.0866 4.53235e-06 0.000174625 1298.18 901651
0.551822 4.57569 0.000123876 4.30012e-06 59110 4.57114 4.29584e-06 0.000156255 1626.7 1.06409e+06
0.583147 5.09135 0.000146192 4.05432e-06 69716 5.08237 4.04717e-06 0.000139664 2023.79 1.25578e+06
0.616251 5.66569 0.000172529 3.82296e-06 82210 5.65425 3.81524e-06 0.0001247 2520.33 1.48202e+06
0.651234 6.32707 0.000203611 3.61752e-06 96722 6.31302 3.60949e-06 0.00011122 3145.95 1.74901e+06
0.688203 7.05129 0.000240292 3.41617e-06 113098 7.03971 3.41056e-06 9.90935e-05 3898.96 2.06409e+06
0.72727 7.91692 0.000283581 3.25004e-06 135190 7.90367 3.2446e-06 8.81969e-05 4981.73 2.43595e+06
0.768555 8.85844 0.000334669 3.08142e-06 158170 8.84349 3.07622e-06 7.84179e-05 6215.27 2.87479e+06
0.812184 9.84818 0.000394961 2.90277e-06 188560 9.83103 2.89771e-06 6.96525e-05 7858.23 3.39269e+06
0.85829 11.0194 0.000466114 2.75217e-06 220444 10.9989 2.74706e-06 6.1805e-05 9816.35 4.00389e+06
0.907013 12.3019 0.000550086 2.60346e-06 261388 12.2816 2.59917e-06 5.47875e-05 12421 4.7252e+06
0.958501 13.8548 0.000649185 2.48452e-06 308244 13.8323 2.48048e-06 4.85194e-05 15784.2 5.57646e+06
1.01291 15.3875 0.000766138 2.33815e-06 364396 15.3599 2.33394e-06 4.29272e-05 19847.9 6.58107e+06
1.07041 17.212 0.00090416 2.21614e-06 429162 17.1792 2.21191e-06 3.79435e-05 25065.8 7.76667e+06
1.13118 19.1579 0.00106705 2.09014e-06 506358 19.1268 2.08674e-06 3.3507e-05 31586.1 9.16586e+06
1.19539 21.3245 0.00125928 1.97136e-06 598590 21.2838 1.9676e-06 2.9562e-05 39917.4 1.08171e+07
1.26325 23.675 0.00148614 1.85456e-06 704844 23.6341 1.85135e-06 2.60578e-05 50164.3 1.27658e+07
1.33496 26.2609 0.00175387 1.7431e-06 834620 26.2125 1.73989e-06 2.29484e-05 63395.2 1.50656e+07
1.41075 28.9978 0.00206984 1.63095e-06 981444 28.942 1.62781e-06 2.01923e-05 79271.9 1.77798e+07
1.49083 32.1795 0.00244272 1.53361e-06 1.15998e+06 32.1191 1.53073e-06 1.77518e-05 100213 2.09828e+07
1.57546 35.6006 0.00288279 1.43766e-06 1.36931e+06 35.5346 1.43499e-06 1.55929e-05 126250 2.4763e+07
1.66489 39.1141 0.00340213 1.33842e-06 1.61652e+06 39.0395 1.33587e-06 1.3685e-05 158099 2.92241e+07
1.75941 42.9018 0.00401503 1.24393e-06 1.90601e+06 42.8214 1.2416e-06 1.20007e-05 197567 3.44889e+07
1.85928 46.9593 0.00473835 1.15373e-06 2.24913e+06 46.8739 1.15163e-06 1.05151e-05 246777 4.07021e+07
1.96483 51.3483 0.00559198 1.06898e-06 2.65744e+06 51.2528 1.06699e-06 9.20606e-06 308575 4.80347e+07
2.07637 56.1353 0.00659939 9.90246e-07 3.13125e+06 56.0342 9.88461e-07 8.05366e-06 385006 5.66883e+07
2.19424 61.1627 0.00778828 9.14229e-07 3.69915e+06 61.0566 9.12643e-07 7.04008e-06 480374 6.69008e+07
2.3188 66.4715 0.00919136 8.4191e-07 4.36472e+06 66.3565 8.40454e-07 6.1494e-06 597571 7.89532e+07
2.45043 72.066 0.0108472 7.73433e-07 5.14913e+06 71.9436 7.72119e-07 5.36741e-06 741979 9.31768e+07
2.58954 77.9685 0.0128014 7.09044e-07 6.07894e+06 77.8359 7.07838e-07 4.68145e-06 920704 1.09963e+08
2.73654 84.2815 0.0151076 6.49454e-07 7.17304e+06 84.1359 6.48331e-07 4.08023e-06 1.14174e+06 1.29773e+08
2.89188 90.9264 0.0178292 5.93701e-07 8.46557e+06 90.7714 5.92688e-07 3.55373e-06 1.41429e+06 1.53152e+08
3.05605 97.9276 0.0210412 5.41806e-07 9.98773e+06 97.7648 5.40906e-07 3.09304e-06 1.74955e+06 1.80743e+08
3.22953 105.31 0.0248319 4.93709e-07 1.1797e+07 105.133 4.9288e-07 2.69025e-06 2.16496e+06 2.13304e+08
3.41286 112.954 0.0293054 4.48711e-07 1.39144e+07 112.766 4.47962e-07 2.33837e-06 2.67003e+06 2.51731e+08
3.6066 121.093 0.0345848 4.07607e-07 1.64163e+07 120.893 4.06937e-07 2.0312e-06 3.29431e+06 2.97081e+08
3.81134 129.681 0.0408154 3.69881e-07 1.93821e+07 129.468 3.69273e-07 1.76327e-06 4.0658e+06 3.50601e+08
4.0277 138.609 0.0481684 3.34995e-07 2.28754e+07 138.379 3.34439e-07 1.52972e-06 5.0095e+06 4.13763e+08
4.25634 148.1 0.056846 3.03295e-07 2.69929e+07 147.855 3.02792e-07 1.32631e-06 6.17264e+06 4.88304e+08
4.49796 158.183 0.067087 2.74493e-07 3.18542e+07 157.918 2.74033e-07 1.14926e-06 7.60818e+06 5.76273e+08
4.7533 168.69 0.0791729 2.48041e-07 3.75892e+07 168.412 2.47632e-07 9.95263e-07 9.36805e+06 6.8009e+08
5.02313 179.812 0.0934361 2.24034e-07 4.43706e+07 179.513 2.23662e-07 8.61414e-07 1.15398e+07 8.0261e+08
5.30828 191.504 0.110269 2.02179e-07 5.23593e+07 191.186 2.01843e-07 7.45152e-07 1.42064e+07 9.47202e+08
5.60962 203.881 0.130134 1.82388e-07 6.1787e+07 203.544 1.82087e-07 6.44232e-07 1.74925e+07 1.11784e+09
5.92807 216.619 0.153578 1.64202e-07 7.29346e+07 216.261 1.63931e-07 5.56685e-07 2.1513e+07 1.31923e+09
6.26459 230.1 0.181246 1.47795e-07 8.60651e+07 229.718 1.4755e-07 4.80786e-07 2.64566e+07 1.55689e+09
6.62021 244.048 0.213898 1.32825e-07 1.01558e+08 243.646 1.32606e-07 4.15026e-07 3.25027e+07 1.83737e+09
6.99602 258.823 0.252432 1.19363e-07 1.1986e+08 258.395 1.19165e-07 3.58083e-07 3.9954e+07 2.16837e+09
7.39317 274.177 0.297908 1.07142e-07 1.41457e+08 273.725 1.06965e-07 3.08803e-07 4.90795e+07 2.55901e+09
7.81286 290.363 0.351577 9.61461e-08 1.66936e+08 289.886 9.5988e-08 2.66181e-07 6.02982e+07 3.02002e+09
8.25637 307.367 0.414914 8.62401e-08 1.97025e+08 306.857 8.6097e-08 2.29336e-07 7.40898e+07 3.56409e+09
8.72507 325.26 0.489662 7.73294e-08 2.32497e+08 324.723 7.72017e-08 1.97503e-07 9.10307e+07 4.20617e+09
9.22037 344.231 0.577876 6.93465e-08 2.74404e+08 343.655 6.92305e-08 1.70014e-07 1.11926e+08 4.96392e+09
9.74378 365.055 0.681982 6.23154e-08 3.2382e+08 364.429 6.22086e-08 1.46289e-07 1.37939e+08 5.85818e+09
10.2969 388.455 0.804843 5.61875e-08 3.82165e+08 387.764 5.60875e-08 1.25822e-07 1.7066e+08 6.91355e+09
10.8814 416.401 0.949838 5.10355e-08 4.51027e+08 415.608 5.09383e-08 1.08175e-07 2.12788e+08 8.15905e+09
11.4992 452 1.12095 4.69419e-08 5.32251e+08 451.041 4.68423e-08 9.29669e-08 2.6875e+08 9.62892e+09
12.1519 502.146 1.3229 4.4189e-08 6.28157e+08 500.889 4.40783e-08 7.98658e-08 3.47554e+08 1.13636e+10
12.8418 558.592 1.56122 4.16525e-08 3.82727e+08 578.161 4.31117e-08 6.85852e-08 2.32434e+08 1.34108e+10
13.5708 0 1.84248 0 0 0 0 5.88765e-08 0 1.58268e+10
14.3411 0 2.17441 0 0 0 0 5.05241e-08 0 1.8678e+10
15.1552 0 2.56613 0 0 0 0 4.33417e-08 0 2.20429e+10
16.0156 0 3.02843 0 0 0 0 3.71677e-08 0 2.6014e+10
16.9247 0 3.574 0 0 0 0 3.18628e-08 0 3.07005e+10
17.8855 0 4.21787 0 0 0 0 2.73063e-08 0 3.62312e+10
18.9008 0 4.97773 0 0 0 0 2.33941e-08 0 4.27584e+10
19.9738 0 5.87448 0 0 0 0 2.00364e-08 0 5.04614e+10
21.1076 0 6.93279 0 0 0 0 1.71555e-08 0 5.95522e+10
22.3058 0 8.18175 0 0 0 0 1.46847e-08 0 7.02807e+10
23.5721 0 9.65571 0 0 0 0 1.25662e-08 0 8.29419e+10
24.9102 0 11.3952 0 0 0 0 1.07504e-08 0 9.78842e+10
26.3243 0 13.4481 0 0 0 0 9.19452e-09 0 1.15518e+11
27.8187 0 15.8708 0 0 0 0 7.86182e-09 0 1.36329e+11
29.3979 0 18.73 0 0 0 0 6.72061e-09 0 1.60889e+11
31.0667 0 22.1042 0 0 0 0 5.74366e-09 0 1.89874e+11
32.8303 0 26.0864 0 0 0 0 4.90756e-09 0 2.2408e+11
34.694 0 30.7859 0 0 0 0 4.19221e-09 0 2.64449e+11
36.6634 0 36.3321 0 0 0 0 3.58032e-09 0 3.1209e+11
38.7447 0 42.8774 0 0 0 0 3.05709e-09 0 3.68314e+11
40.9442 0 50.6018 0 0 0 0 2.60976e-09 0 4.34667e+11
43.2685 0 59.7179 0 0 0 0 2.22743e-09 0 5.12973e+11
45.7247 0 70.4762 0 0 0 0 1.90073e-09 0 6.05386e+11
48.3204 0 83.1727 0 0 0 0 1.62163e-09 0 7.14448e+11
51.0634 0 98.1565 0 0 0 0 1.38326e-09 0 8.43158e+11
53.9621 0 115.84 0 0 0 0 1.1797e-09 0 9.95055e+11
57.0254 0 136.709 0 0 0 0 1.00592e-09 0 1.17432e+12
60.2626 0 161.337 0 0 0 0 8.57591e-10 0 1.38587e+12
63.6835 0 190.402 0 0 0 0 7.3101e-10 0 1.63554e+12
67.2987 0 224.704 0 0 0 0 6.23009e-10 0 1.93019e+12
71.1191 0 265.185 0 0 0 0 5.30879e-10 0 2.27792e+12
75.1563 0 312.958 0 0 0 0 4.52303e-10 0 2.68829e+12
79.4227 0 369.339 0 0 0 0 3.85299e-10 0 3.17259e+12
83.9313 0 435.876 0 0 0 0 3.28173e-10 0 3.74415e+12
88.6959 0 514.4 0 0 0 0 2.79476e-10 0 4.41866e+12
93.7309 0 607.071 0 0 0 0 2.37972e-10 0 5.2147e+12
99.0518 0 716.436 0 0 0 0 2.02605e-10 0 6.15414e+12
104.675 0 845.504 0 0 0 0 1.72471e-10 0 7.26283e+12
110.617 0 997.824 0 0 0 0 1.468e-10 0 8.57124e+12
116.896 0 1177.58 0 0 0 0 1.24935e-10 0 1.01154e+13
123.532 0 1389.73 0 0 0 0 1.06313e-10 0 1.19377e+13
130.545 0 1640.09 0 0 0 0 9.04567e-11 0 1.40883e+13
137.955 0 1935.56 0 0 0 0 7.69563e-11 0 1.66263e+13
145.787 0 2284.26 0 0 0 0 6.54636e-11 0 1.96216e+13
154.063 0 2695.77 0 0 0 0 5.56812e-11 0 2.31565e+13
162.808 0 3181.42 0 0 0 0 4.73556e-11 0 2.73282e+13
172.051 0 3754.56 0 0 0 0 4.02708e-11 0 3.22515e+13
181.818 0 4430.96 0 0 0 0 3.42426e-11 0 3.80616e+13
192.139 0 5229.21 0 0 0 0 2.91139e-11 0 4.49186e+13
203.046 0 6171.26 0 0 0 0 2.4751e-11 0 5.30108e+13
214.572 0 7283.03 0 0 0 0 2.10401e-11 0 6.25608e+13
226.753 0 8595.09 0 0 0 0 1.78839e-11 0 7.38313e+13
239.625 0 10143.5 0 0 0 0 1.51999e-11 0 8.71322e+13
253.228 0 11970.9 0 0 0 0 1.29176e-11 0 1.02829e+14
267.603 0 14127.5 0 0 0 0 1.09771e-11 0 1.21354e+14
282.795 0 16672.6 0 0 0 0 9.3274e-12 0 1.43217e+14
298.848 0 19676.2 0 0 0 0 7.925e-12 0 1.69017e+14
315.813 0 23220.9 0 0 0 0 6.73295e-12 0 1.99466e+14
333.741 0 27404.3 0 0 0 0 5.71979e-12 0 2.35401e+14
352.686 0 32341.2 0 0 0 0 4.85874e-12 0 2.77809e+14
372.707 0 38167.6 0 0 0 0 4.12703e-12 0 3.27857e+14
393.865 0 45043.5 0 0 0 0 3.50528e-12 0 3.86921e+14
416.224 0 53158.3 0 0 0 0 2.97701e-12 0 4.56626e+14
439.852 0 62734.9 0 0 0 0 2.52819e-12 0 5.38888e+14
464.821 0 74036.7 0 0 0 0 2.1469e-12 0 6.35971e+14
491.207 0 87374.6 0 0 0 0 1.82301e-12 0 7.50542e+14
519.092 0 103115 0 0 0 0 1.54789e-12 0 8.85755e+14
548.56 0 121692 0 0 0 0 1.31422e-12 0 1.04533e+15
579.7 0 143615 0 0 0 0 1.11576e-12 0 1.23364e+15
612.608 0 169488 0 0 0 0 9.47223e-13 0 1.45589e+15
647.384 0 200021 0 0 0 0 8.041e-13 0 1.71817e+15
684.134 0 236056 0 0 0 0 6.82568e-13 0 2.0277e+15
722.971 0 278582 0 0 0 0 5.79376e-13 0 2.393e+15
764.012 0 328769 0 0 0 0 4.91762e-13 0 2.8241e+15
