0.0565352
200
1.0655e+09
8589934592
0.0129181 0 1.58924e-09 0 0 0 0 0.00677225 0 13.6515
0.0136515 0 1.87554e-09 0 0 0 0 0.00688819 0 16.1108
0.0144264 0 2.21343e-09 0 0 0 0 0.00699249 0 19.0132
0.0152454 0 2.61218e-09 0 0 0 0 0.00708412 0 22.4385
0.0161108 0 3.08278e-09 0 0 0 0 0.00716212 0 26.4808
0.0170254 0 3.63815e-09 0 0 0 0 0.00722559 0 31.2514
0.0179919 0 4.29357e-09 0 0 0 0 0.00727371 0 36.8815
0.0190132 0 5.06707e-09 0 0 0 0 0.00730578 0 43.5258
0.0200925 0 5.97991e-09 0 0 0 0 0.00732122 0 51.367
0.0212331 0 7.05721e-09 0 0 0 0 0.00731958 0 60.621
0.0224385 0 8.32858e-09 0 0 0 0 0.00730056 0 71.542
0.0237123 0 9.829e-09 0 0 0 0 0.00726401 0 84.4305
0.0250583 0 1.15997e-08 0 0 0 0 0.00720995 0 99.6408
0.0264808 0 1.36894e-08 0 0 0 0 0.00713857 0 117.591
0.0279841 0 1.61556e-08 0 0 0 0 0.00705021 0 138.776
0.0295727 0 1.90661e-08 0 0 0 0 0.00694538 0 163.777
0.0312514 0 2.25009e-08 0 0 0 0 0.00682475 0 193.281
0.0330255 0 2.65545e-08 0 0 0 0 0.00668915 0 228.102
0.0349003 0 3.13384e-08 0 0 0 0 0.00653951 0 269.195
0.0368815 0 3.69841e-08 0 0 0 0 0.00637693 0 317.691
0.0389751 0 4.36469e-08 0 0 0 0 0.00620256 0 374.924
0.0411876 0 5.151e-08 0 0 0 0 0.00601767 0 442.467
0.0435258 0 6.07896e-08 0 0 0 0 0.00582358 0 522.179
0.0459966 0 7.1741e-08 0 0 0 0 0.00562166 0 616.251
0.0486077 0 8.46654e-08 0 0 0 0 0.0054133 0 727.27
0.051367 0 9.99181e-08 0 0 0 0 0.00519989 0 858.29
0.054283 0 1.17919e-07 0 0 0 0 0.0049828 0 1012.91
0.0573645 0 1.39162e-07 0 0 0 0 0.00476339 0 1195.39
0.060621 0 1.64232e-07 0 0 0 0 0.00454293 0 1410.75
0.0640622 0 1.93819e-07 0 0 0 0 0.00432265 0 1664.89
0.0676989 0 2.28736e-07 0 0 0 0 0.00410371 0 1964.83
0.071542 0 2.69944e-07 0 0 0 0 0.00388717 0 2318.8
0.0756032 0 3.18575e-07 0 0 0 0 0.00367401 0 2736.54
0.079895 0 3.75967e-07 0 0 0 0 0.0034651 0 3229.53
0.0844305 0 4.43698e-07 0 0 0 0 0.00326121 0 3811.34
0.0892234 0 5.23632e-07 0 0 0 0 0.00306301 0 4497.96
0.0942883 0 6.17966e-07 0 0 0 0 0.00287109 0 5308.28
0.0996408 0 7.29294e-07 0 0 0 0 0.00268591 0 6264.59
0.105297 0 8.60678e-07 0 0 0 0 0.00250785 0 7393.17
0.111275 0 1.01573e-06 0 0 0 0 0.00233721 0 8725.07
0.117591 0 1.19872e-06 0 0 0 0 0.00217419 0 10296.9
0.124267 0 1.41467e-06 0 0 0 0 0.00201893 0 12151.9
0.131321 0 1.66953e-06 0 0 0 0 0.00187147 0 14341.1
0.138776 0 1.9703e-06 0 0 0 0 0.00173182 0 16924.7
0.146654 0 2.32525e-06 0 0 0 0 0.00159991 0 19973.8
0.154979 0 2.74415e-06 0 0 0 0 0.00147563 0 23572.1
0.163777 0 3.23852e-06 0 0 0 0 0.00135884 0 27818.7
0.173074 0 3.82195e-06 0 0 0 0 0.00124933 0 32830.3
0.182899 0 4.51048e-06 0 0 0 0 0.00114689 0 38744.7
0.193281 0 5.32305e-06 0 0 0 0 0.00105127 0 45724.7
0.204254 0 6.28202e-06 0 0 0 0 0.000962209 0 53962.1
0.215848 0 7.41374e-06 0 0 0 0 0.000879423 0 63683.5
0.228102 0 8.74934e-06 0 0 0 0 0.000802624 0 75156.3
0.24105 0 1.03256e-05 0 0 0 0 0.000731515 0 88695.9
0.254734 0 1.21857e-05 0 0 0 0 0.000665798 0 104675
0.269195 0 1.4381e-05 0 0 0 0 0.000605173 0 123532
0.284476 0 1.69718e-05 0 0 0 0 0.000549345 0 145787
0.300625 0 2.00293e-05 0 0 0 0 0.000498021 0 172051
0.317691 0 2.36377e-05 0 0 0 0 0.000450916 0 203046
0.335725 0 2.78961e-05 0 0 0 0 0.000407755 0 239625
0.354784 0 3.29216e-05 0 0 0 0 0.000368269 0 282795
0.374924 0 3.88525e-05 0 0 0 0 0.000332202 0 333741
0.396207 0.229128 4.58519e-05 5.81741e-07 6 0.222757 5.65568e-07 0.000299307 0.0116618 393865
0.418699 0 5.41123e-05 0 0 0 0 0.00026935 0 464821
0.442467 0 6.38607e-05 0 0 0 0 0.000242108 0 548560
0.467585 0 7.53654e-05 0 0 0 0 0.00021737 0 647384
0.494129 0 8.89427e-05 0 0 0 0 0.000194938 0 764012
0.522179 0 0.000104966 0 0 0 0 0.000174625 0 901651
0.551822 0 0.000123876 0 0 0 0 0.000156255 0 1.06409e+06
0.583147 5.18463 0.000146192 4.1286e-06 12 5.45685 4.34538e-06 0.000139664 0.354731 1.25578e+06
0.616251 0 0.000172529 0 0 0 0 0.0001247 0 1.48202e+06
0.651234 0 0.000203611 0 0 0 0 0.00011122 0 1.74901e+06
0.688203 25.5527 0.000240292 1.23796e-05 8 24.9169 1.20716e-05 9.90935e-05 0.999428 2.06409e+06
0.72727 0 0.000283581 0 0 0 0 8.81969e-05 0 2.43595e+06
0.768555 0 0.000334669 0 0 0 0 7.84179e-05 0 2.87479e+06
0.812184 0.0146847 0.000394961 4.32833e-09 6 0.0149986 4.42087e-09 6.96525e-05 0.00037285 3.39269e+06
0.85829 0 0.000466114 0 0 0 0 6.1805e-05 0 4.00389e+06
0.907013 0.177121 0.000550086 3.74843e-08 24 0.180519 3.82035e-08 5.47875e-05 0.0164202 4.7252e+06
0.958501 0.778984 0.000649185 1.39691e-07 24 0.733355 1.31509e-07 4.85194e-05 0.069098 5.57646e+06
1.01291 0 0.000766138 0 0 0 0 4.29272e-05 0 6.58107e+06
1.07041 0 0.00090416 0 0 0 0 3.79435e-05 0 7.76667e+06
1.13118 1.14687 0.00106705 1.25124e-07 12 1.13278 1.23587e-07 3.3507e-05 0.0448111 9.16586e+06
1.19539 0.383395 0.00125928 3.54433e-08 30 0.375491 3.47127e-08 2.9562e-05 0.0359685 1.08171e+07
1.26325 6.52601 0.00148614 5.11209e-07 24 6.42781 5.03516e-07 2.60578e-05 0.470838 1.27658e+07
1.33496 20.0279 0.00175387 1.32938e-06 24 20.0719 1.3323e-06 2.29484e-05 1.39029 1.50656e+07
1.41075 6.10007 0.00206984 3.43091e-07 32 6.27667 3.53023e-07 2.01923e-05 0.543717 1.77798e+07
1.49083 0.355532 0.00244272 1.69439e-08 48 0.347953 1.65827e-08 1.77518e-05 0.0458157 2.09828e+07
1.57546 0.0363062 0.00288279 1.46615e-09 6 0.0345717 1.3961e-09 1.55929e-05 0.000564162 2.4763e+07
1.66489 0.386396 0.00340213 1.32218e-08 84 0.369579 1.26464e-08 1.3685e-05 0.0811569 2.92241e+07
1.75941 2.51243 0.00401503 7.28477e-08 48 2.53335 7.34541e-08 1.20007e-05 0.291374 3.44889e+07
1.85928 0.120099 0.00473835 2.95068e-09 72 0.121487 2.98478e-09 1.05151e-05 0.0202042 4.07021e+07
1.96483 0.736606 0.00559198 1.53349e-08 54 0.72466 1.50862e-08 9.20606e-06 0.0899498 4.80347e+07
2.07637 8.79017 0.00659939 1.55061e-07 104 8.76174 1.5456e-07 8.05366e-06 2.00237 5.66883e+07
2.19424 0.236841 0.00778828 3.54018e-09 120 0.239023 3.57279e-09 7.04008e-06 0.0603434 6.69008e+07
2.3188 1.68417 0.00919136 2.13313e-08 156 1.59686 2.02254e-08 6.1494e-06 0.541138 7.89532e+07
2.45043 0.546725 0.0108472 5.8676e-09 126 0.543866 5.83692e-09 5.36741e-06 0.137742 9.31768e+07
2.58954 0.35884 0.0128014 3.26328e-09 192 0.364338 3.31328e-09 4.68145e-06 0.133837 1.09963e+08
2.73654 4.30052 0.0151076 3.31388e-08 152 4.45448 3.43252e-08 4.08023e-06 1.23451 1.29773e+08
2.89188 3.59937 0.0178292 2.3502e-08 378 3.68156 2.40386e-08 3.55373e-06 2.49983 1.53152e+08
3.05605 1.2647 0.0210412 6.99726e-09 264 1.2403 6.86223e-09 3.09304e-06 0.597236 1.80743e+08
3.22953 0.131118 0.0248319 6.147e-10 366 0.128102 6.00561e-10 2.69025e-06 0.0836279 2.13304e+08
3.41286 0.693295 0.0293054 2.75411e-09 428 0.658023 2.61399e-09 2.33837e-06 0.504093 2.51731e+08
3.6066 3.22413 0.0345848 1.08527e-08 486 3.11134 1.0473e-08 2.0312e-06 2.59669 2.97081e+08
3.81134 0.640801 0.0408154 1.82772e-09 600 0.635871 1.81366e-09 1.76327e-06 0.621933 3.50601e+08
4.0277 0.451959 0.0481684 1.09231e-09 738 0.447341 1.08115e-09 1.52972e-06 0.526976 4.13763e+08
4.25634 1.09291 0.056846 2.23817e-09 824 1.14015 2.33492e-09 1.32631e-06 1.39052 4.88304e+08
4.49796 2.61857 0.067087 4.54398e-09 954 2.63868 4.57886e-09 1.14926e-06 3.77197 5.76273e+08
4.7533 0.472161 0.0791729 6.94263e-10 1094 0.461366 6.7839e-10 9.95263e-07 0.763139 6.8009e+08
5.02313 0.242071 0.0934361 3.01604e-10 1332 0.241523 3.00923e-10 8.61414e-07 0.466369 8.0261e+08
5.30828 2.11441 0.110269 2.23227e-09 1614 2.13987 2.25915e-09 7.45152e-07 4.8351 9.47202e+08
5.60962 0.930832 0.130134 8.32704e-10 1850 0.898209 8.03519e-10 6.44232e-07 2.39122 1.11784e+09
5.92807 1.29287 0.153578 9.80021e-10 2238 1.23186 9.33772e-10 5.56685e-07 3.9399 1.31923e+09
6.26459 0.524918 0.181246 3.37158e-10 2546 0.5345 3.43313e-10 4.80786e-07 1.78542 1.55689e+09
6.62021 0.122085 0.213898 6.64459e-11 3264 0.121912 6.63514e-11 4.15026e-07 0.522569 1.83737e+09
6.99602 1.25094 0.252432 5.76903e-10 3506 1.29717 5.98224e-10 3.58083e-07 5.64848 2.16837e+09
7.39317 0.459886 0.297908 1.79713e-10 4506 0.467688 1.82761e-10 3.08803e-07 2.62233 2.55901e+09
7.81286 1.00419 0.351577 3.3251e-10 5018 1.04181 3.44969e-10 2.66181e-07 6.26843 3.02002e+09
8.25637 0.894878 0.414914 2.51082e-10 5852 0.854751 2.39823e-10 2.29336e-07 6.40689 3.56409e+09
8.72507 0.492975 0.489662 1.17203e-10 7362 0.486439 1.15649e-10 1.97503e-07 4.36879 4.20617e+09
9.22037 0.772518 0.577876 1.55627e-10 8306 0.761774 1.53462e-10 1.70014e-07 7.6031 4.96392e+09
9.74378 0.184055 0.681982 3.14184e-11 9698 0.185067 3.15912e-11 1.46289e-07 2.08283 5.85818e+09
10.2969 0.764955 0.804843 1.10646e-10 11816 0.782009 1.13112e-10 1.25822e-07 10.3908 6.91355e+09
10.8814 0.629399 0.949838 7.71412e-11 13682 0.630817 7.7315e-11 1.08175e-07 9.7568 8.15905e+09
11.4992 0.586425 1.12095 6.09025e-11 16152 0.572753 5.94826e-11 9.29669e-08 10.5812 9.62892e+09
12.1519 0.577446 1.3229 5.08155e-11 19472 0.560164 4.92946e-11 7.98658e-08 12.3893 1.13636e+10
12.8418 0.205292 1.56122 1.5308e-11 22670 0.209789 1.56433e-11 6.85852e-08 5.05987 1.34108e+10
13.5708 0.542702 1.84248 3.42901e-11 26224 0.55414 3.50128e-11 5.88765e-08 15.2731 1.58268e+10
14.3411 0.444978 2.17441 2.38237e-11 31640 0.45454 2.43356e-11 5.05241e-08 14.9192 1.8678e+10
15.1552 0.487872 2.56613 2.21328e-11 37484 0.494587 2.24375e-11 4.33417e-08 19.1416 2.20429e+10
16.0156 0.399399 3.02843 1.53532e-11 43856 0.409906 1.57571e-11 3.71677e-08 18.116 2.6014e+10
16.9247 0.674468 3.574 2.19693e-11 51362 0.67582 2.20134e-11 3.18628e-08 35.4139 3.07005e+10
17.8855 0.49166 4.21787 1.35701e-11 61636 0.485932 1.3412e-11 2.73063e-08 30.6304 3.62312e+10
18.9008 0.700804 4.97773 1.63899e-11 72218 0.699157 1.63513e-11 2.33941e-08 50.5957 4.27584e+10
19.9738 1.08857 5.87448 2.15723e-11 84586 1.0766 2.13352e-11 2.00364e-08 91.0699 5.04614e+10
21.1076 1.67925 6.93279 2.81979e-11 100708 1.6729 2.80914e-11 1.71555e-08 165.53 5.95522e+10
22.3058 3.43783 8.18175 4.89157e-11 118712 3.42982 4.88017e-11 1.46847e-08 395.438 7.02807e+10
23.5721 6.75347 9.65571 8.14241e-11 140410 6.70148 8.07972e-11 1.25662e-08 909.805 8.29419e+10
24.9102 9.25902 11.3952 9.45917e-11 164374 9.20107 9.39996e-11 1.07504e-08 1446.31 9.78842e+10
26.3243 10.3948 13.4481 8.99844e-11 194680 10.35 8.95961e-11 9.19452e-09 1905.28 1.15518e+11
27.8187 9.39873 15.8708 6.89415e-11 230196 9.37082 6.87367e-11 7.86182e-09 2018.62 1.36329e+11
29.3979 9.60011 18.73 5.9669e-11 271156 9.58696 5.95874e-11 6.72061e-09 2407.46 1.60889e+11
31.0667 11.146 22.1042 5.8702e-11 321076 11.0851 5.83814e-11 5.74366e-09 3281.5 1.89874e+11
32.8303 14.9554 26.0864 6.67413e-11 377436 14.8633 6.63302e-11 4.90756e-09 5133.01 2.2408e+11
34.694 19.8691 30.7859 7.51341e-11 447594 19.7639 7.47362e-11 4.19221e-09 8021.92 2.64449e+11
36.6634 22.4154 36.3321 7.18235e-11 525078 22.3468 7.16036e-11 3.58032e-09 10533.4 3.1209e+11
38.7447 23.9074 42.8774 6.49103e-11 621924 23.8536 6.47643e-11 3.05709e-09 13205.2 3.68314e+11
40.9442 25.7479 50.6018 5.9236e-11 732630 25.6929 5.91095e-11 2.60976e-09 16629.1 4.34667e+11
43.2685 28.3492 59.7179 5.52645e-11 865596 28.2787 5.51271e-11 2.22743e-09 21476.2 5.12973e+11
45.7247 31.9555 70.4762 5.27853e-11 1.02168e+06 31.854 5.26176e-11 1.90073e-09 28373 6.05386e+11
48.3204 38.5729 83.1727 5.39898e-11 1.20544e+06 38.4247 5.37823e-11 1.62163e-09 40133.2 7.14448e+11
51.0634 48.9983 98.1565 5.81128e-11 1.42103e+06 48.7742 5.78471e-11 1.38326e-09 59699.7 8.43158e+11
53.9621 61.9836 115.84 6.22916e-11 1.67997e+06 61.7355 6.20423e-11 1.1797e-09 88706.9 9.95055e+11
57.0254 74.9019 136.709 6.37834e-11 1.98018e+06 74.6624 6.35794e-11 1.00592e-09 125559 1.17432e+12
60.2626 86.7952 161.337 6.26285e-11 2.33957e+06 86.5489 6.24508e-11 8.57591e-10 170855 1.38587e+12
63.6835 98.6543 190.402 6.0319e-11 2.75676e+06 98.3704 6.01454e-11 7.3101e-10 227474 1.63554e+12
67.2987 114.068 224.704 5.90966e-11 3.25638e+06 113.715 5.89138e-11 6.23009e-10 308890 1.93019e+12
71.1191 135.565 265.185 5.95127e-11 3.84387e+06 135.102 5.93095e-11 5.30879e-10 430906 2.27792e+12
75.1563 161.796 312.958 6.01853e-11 4.53277e+06 161.245 5.99805e-11 4.52303e-10 603148 2.68829e+12
79.4227 192.013 369.339 6.05223e-11 5.35083e+06 191.389 6.03257e-11 3.85299e-10 840501 3.17259e+12
83.9313 226.488 435.876 6.04912e-11 6.32174e+06 225.744 6.02925e-11 3.28173e-10 1.16527e+06 3.74415e+12
88.6959 266.43 514.4 6.02965e-11 7.44986e+06 265.549 6.00972e-11 2.79476e-10 1.60729e+06 4.41866e+12
93.7309 314.266 607.071 6.02654e-11 8.79764e+06 313.24 6.00688e-11 2.37972e-10 2.22796e+06 5.2147e+12
99.0518 371.061 716.436 6.02946e-11 1.03827e+07 369.832 6.00948e-11 2.02605e-10 3.08986e+06 6.15414e+12
104.675 438.219 845.504 6.03373e-11 1.22515e+07 436.77 6.01378e-11 1.72471e-10 4.28608e+06 7.26283e+12
110.617 517.42 997.824 6.0367e-11 1.44573e+07 515.727 6.01694e-11 1.468e-10 5.94513e+06 8.57124e+12
116.896 610.846 1177.58 6.03878e-11 1.70664e+07 608.824 6.01879e-11 1.24935e-10 8.24913e+06 1.01154e+13
123.532 721.506 1389.73 6.04394e-11 2.0139e+07 719.094 6.02373e-11 1.06313e-10 1.14491e+07 1.19377e+13
130.545 851.719 1640.09 6.04558e-11 2.37643e+07 848.868 6.02534e-11 9.04567e-11 1.58826e+07 1.40883e+13
137.955 1005.45 1935.56 6.04734e-11 2.80503e+07 1002.09 6.02714e-11 7.69563e-11 2.20423e+07 1.66263e+13
145.787 1187.29 2284.26 6.05091e-11 3.30981e+07 1183.34 6.03078e-11 6.54636e-11 3.05931e+07 1.96216e+13
154.063 1402.97 2695.77 6.05864e-11 3.90634e+07 1398.28 6.0384e-11 5.56812e-11 4.25047e+07 2.31565e+13
162.808 1656.97 3181.42 6.06323e-11 4.61057e+07 1651.4 6.04285e-11 4.73556e-11 5.90319e+07 2.73282e+13
172.051 1958.48 3754.56 6.07254e-11 5.44046e+07 1951.9 6.05214e-11 4.02708e-11 8.2038e+07 3.22515e+13
181.818 2315.88 4430.96 6.08455e-11 6.42064e+07 2308.12 6.06415e-11 3.42426e-11 1.14088e+08 3.80616e+13
192.139 2738.44 5229.21 6.09647e-11 7.57748e+07 2729.23 6.07595e-11 2.91139e-11 1.58673e+08 4.49186e+13
203.046 3239.76 6171.26 6.11152e-11 8.94213e+07 3228.85 6.09094e-11 2.4751e-11 2.20799e+08 5.30108e+13
214.572 3836.96 7283.03 6.13317e-11 1.05538e+08 3824.02 6.11249e-11 2.10401e-11 3.07643e+08 6.25608e+13
226.753 4545.32 8595.09 6.15636e-11 1.24552e+08 4529.86 6.13543e-11 1.78839e-11 4.28757e+08 7.38313e+13
239.625 5394.32 10143.5 6.19096e-11 1.46987e+08 5375.87 6.16979e-11 1.51999e-11 5.98683e+08 8.71322e+13
253.228 6409.37 11970.9 6.23302e-11 1.7347e+08 6387.25 6.21151e-11 1.29176e-11 8.37029e+08 1.02829e+14
267.603 7631.39 14127.5 6.28852e-11 2.04703e+08 7604.86 6.26666e-11 1.09771e-11 1.17269e+09 1.21354e+14
282.795 9112.34 16672.6 6.36263e-11 2.4161e+08 9080.26 6.34023e-11 9.3274e-12 1.64813e+09 1.43217e+14
298.848 10923.4 19676.2 6.46286e-11 2.85122e+08 10884.1 6.43964e-11 7.925e-12 2.32518e+09 1.69017e+14
315.813 13167.3 23220.9 6.60125e-11 3.36491e+08 13118.8 6.57696e-11 6.73295e-12 3.29909e+09 1.99466e+14
333.741 15991.4 27404.3 6.79325e-11 3.97115e+08 15930.5 6.76738e-11 5.71979e-12 4.71643e+09 2.35401e+14
352.686 19636.1 32341.2 7.06819e-11 4.68637e+08 19557.6 7.03996e-11 4.85874e-12 6.81744e+09 2.77809e+14
372.707 24461 38167.6 7.46089e-11 5.53074e+08 24358.2 7.42951e-11 4.12703e-12 9.99853e+09 3.27857e+14
393.865 31127.4 45043.5 8.04489e-11 6.52716e+08 30986.4 8.00846e-11 3.50528e-12 1.49803e+10 3.86921e+14
416.224 36742 53158.3 8.04642e-11 2.2184e+08 38869.7 8.51237e-11 2.97701e-12 5.996e+09 4.56626e+14
439.852 0 62734.9 0 0 0 0 2.52819e-12 0 5.38888e+14
464.821 0 74036.7 0 0 0 0 2.1469e-12 0 6.35971e+14
491.207 0 87374.6 0 0 0 0 1.82301e-12 0 7.50542e+14
519.092 0 103115 0 0 0 0 1.54789e-12 0 8.85755e+14
548.56 0 121692 0 0 0 0 1.31422e-12 0 1.04533e+15
579.7 0 143615 0 0 0 0 1.11576e-12 0 1.23364e+15
612.608 0 169488 0 0 0 0 9.47223e-13 0 1.45589e+15
647.384 0 200021 0 0 0 0 8.041e-13 0 1.71817e+15
684.134 0 236056 0 0 0 0 6.82568e-13 0 2.0277e+15
722.971 0 278582 0 0 0 0 5.79376e-13 0 2.393e+15
764.012 0 328769 0 0 0 0 4.91762e-13 0 2.8241e+15
0.0565352
200
1.0655e+09
8589934592
0.0129181 9.98554e-06 1.58924e-09 7.31463e-07 6 9.89412e-06 7.24767e-07 0.00677225 0.000648053 13.6515
0.0136515 0 1.87554e-09 0 0 0 0 0.00688819 0 16.1108
0.0144264 0 2.21343e-09 0 0 0 0 0.00699249 0 19.0132
0.0152454 0 2.61218e-09 0 0 0 0 0.00708412 0 22.4385
0.0161108 0 3.08278e-09 0 0 0 0 0.00716212 0 26.4808
0.0170254 0 3.63815e-09 0 0 0 0 0.00722559 0 31.2514
0.0179919 2.46682e-05 4.29357e-09 6.6885e-07 12 2.46364e-05 6.67988e-07 0.00727371 0.00110345 36.8815
0.0190132 0 5.06707e-09 0 0 0 0 0.00730578 0 43.5258
0.0200925 0 5.97991e-09 0 0 0 0 0.00732122 0 51.367
0.0212331 0.000113631 7.05721e-09 1.87445e-06 8 0.000113532 1.87282e-06 0.00731958 0.0020487 60.621
0.0224385 0 8.32858e-09 0 0 0 0 0.00730056 0 71.542
0.0237123 0 9.829e-09 0 0 0 0 0.00726401 0 84.4305
0.0250583 8.56567e-05 1.15997e-08 8.59655e-07 6 8.56164e-05 8.5925e-07 0.00720995 0.00071539 99.6408
0.0264808 0 1.36894e-08 0 0 0 0 0.00713857 0 117.591
0.0279841 0.000113064 1.61556e-08 8.14724e-07 24 0.000112948 8.13887e-07 0.00705021 0.00277345 138.776
0.0295727 0 1.90661e-08 0 0 0 0 0.00694538 0 163.777
0.0312514 0.000121472 2.25009e-08 6.28473e-07 24 0.000122089 6.31664e-07 0.00682475 0.0022101 193.281
0.0330255 0 2.65545e-08 0 0 0 0 0.00668915 0 228.102
0.0349003 0.000216094 3.13384e-08 8.02742e-07 12 0.000214364 7.96315e-07 0.00653951 0.00147303 269.195
0.0368815 0.000183944 3.69841e-08 5.79002e-07 30 0.000181985 5.72836e-07 0.00637693 0.00272389 317.691
0.0389751 0.000219284 4.36469e-08 5.84875e-07 24 0.000217028 5.78858e-07 0.00620256 0.0022631 374.924
0.0411876 0.000311976 5.151e-08 7.05082e-07 24 0.000309857 7.00293e-07 0.00601767 0.00281205 442.467
0.0435258 0.000348479 6.07896e-08 6.67356e-07 8 0.000348453 6.67305e-07 0.00582358 0.000916764 522.179
0.0459966 0.000240569 7.1741e-08 3.90374e-07 72 0.000239825 3.89168e-07 0.00562166 0.00499976 616.251
0.0486077 0 8.46654e-08 0 0 0 0 0.0054133 0 727.27
0.051367 0.000459785 9.99181e-08 5.35699e-07 54 0.000457988 5.33605e-07 0.00519989 0.00556314 858.29
0.054283 0.000566941 1.17919e-07 5.59713e-07 60 0.000570648 5.63373e-07 0.0049828 0.00673974 1012.91
0.0573645 0.000591383 1.39162e-07 4.94719e-07 96 0.000588721 4.92492e-07 0.00476339 0.00997043 1195.39
0.060621 0.000719349 1.64232e-07 5.09907e-07 24 0.000709603 5.02999e-07 0.00454293 0.00269381 1410.75
0.0640622 0.000955356 1.93819e-07 5.73823e-07 134 0.00095443 5.73267e-07 0.00432265 0.0177882 1664.89
0.0676989 0.000862725 2.28736e-07 4.39084e-07 120 0.000856539 4.35936e-07 0.00410371 0.0128396 1964.83
0.071542 0.000935246 2.69944e-07 4.03332e-07 108 0.000921726 3.97501e-07 0.00388717 0.0112061 2318.8
0.0756032 0.0011926 3.18575e-07 4.35808e-07 174 0.00118624 4.33484e-07 0.00367401 0.0206397 2736.54
0.079895 0.00112353 3.75967e-07 3.47893e-07 168 0.00111238 3.4444e-07 0.0034651 0.0168671 3229.53
0.0844305 0.00136149 4.43698e-07 3.57221e-07 168 0.00136581 3.58355e-07 0.00326121 0.0184021 3811.34
0.0892234 0.00139508 5.23632e-07 3.10158e-07 290 0.00138853 3.08701e-07 0.00306301 0.0293651 4497.96
0.0942883 0.00139717 6.17966e-07 2.63206e-07 288 0.00139773 2.6331e-07 0.00287109 0.0264023 5308.28
0.0996408 0.00142372 7.29294e-07 2.27265e-07 366 0.00141523 2.25909e-07 0.00268591 0.0309686 6264.59
0.105297 0.00143957 8.60678e-07 1.94716e-07 420 0.00142966 1.93376e-07 0.00250785 0.0326098 7393.17
0.111275 0.00181516 1.01573e-06 2.08039e-07 398 0.00181244 2.07728e-07 0.00233721 0.0354267 8725.07
0.117591 0.00177717 1.19872e-06 1.72593e-07 624 0.0017777 1.72644e-07 0.00217419 0.0495346 10296.9
0.124267 0.00216249 1.41467e-06 1.77954e-07 642 0.00215884 1.77654e-07 0.00201893 0.0565879 12151.9
0.131321 0.00264791 1.66953e-06 1.84638e-07 800 0.00264687 1.84565e-07 0.00187147 0.0789274 14341.1
0.138776 0.00267793 1.9703e-06 1.58226e-07 858 0.00268592 1.58698e-07 0.00173182 0.0783905 16924.7
0.146654 0.00298036 2.32525e-06 1.49214e-07 1080 0.00300317 1.50356e-07 0.00159991 0.100725 19973.8
0.154979 0.00307381 2.74415e-06 1.304e-07 1286 0.0030976 1.3141e-07 0.00147563 0.113643 23572.1
0.163777 0.00306665 3.23852e-06 1.10237e-07 1650 0.00307424 1.1051e-07 0.00135884 0.133858 27818.7
0.173074 0.00339708 3.82195e-06 1.03474e-07 1778 0.00340331 1.03664e-07 0.00124933 0.14726 32830.3
0.182899 0.00387571 4.51048e-06 1.00032e-07 2112 0.0038868 1.00318e-07 0.00114689 0.184209 38744.7
0.193281 0.00412524 5.32305e-06 9.0219e-08 2570 0.00412913 9.03041e-08 0.00105127 0.220555 45724.7
0.204254 0.00424949 6.28202e-06 7.87495e-08 3030 0.0042491 7.87423e-08 0.000962209 0.247982 53962.1
0.215848 0.00465341 7.41374e-06 7.30708e-08 3434 0.00465207 7.30499e-08 0.000879423 0.285329 63683.5
0.228102 0.00488158 8.74934e-06 6.49524e-08 4218 0.00488396 6.4984e-08 0.000802624 0.341342 75156.3
0.24105 0.00513875 1.03256e-05 5.79367e-08 4766 0.00513918 5.79416e-08 0.000731515 0.377472 88695.9
0.254734 0.00571411 1.21857e-05 5.45892e-08 6026 0.00571415 5.45896e-08 0.000665798 0.494075 104675
0.269195 0.00592073 1.4381e-05 4.79286e-08 6480 0.00592267 4.79444e-08 0.000605173 0.513204 123532
0.284476 0.00618369 1.69718e-05 4.2416e-08 8162 0.00619724 4.25089e-08 0.000549345 0.630204 145787
0.300625 0.00663519 2.00293e-05 3.85653e-08 9578 0.00663316 3.85535e-08 0.000498021 0.741693 172051
0.317691 0.00709466 2.36377e-05 3.49411e-08 11234 0.00709178 3.4927e-08 0.000450916 0.870513 203046
0.335725 0.00730776 2.78961e-05 3.04966e-08 13344 0.00729725 3.04527e-08 0.000407755 0.998018 239625
0.354784 0.00780363 3.29216e-05 2.75947e-08 15464 0.00780037 2.75832e-08 0.000368269 1.15873 282795
0.374924 0.00818873 3.88525e-05 2.45362e-08 18458 0.00819003 2.45401e-08 0.000332202 1.36329 333741
0.396207 0.00869795 4.58519e-05 2.20836e-08 22232 0.00868559 2.20522e-08 0.000299307 1.64033 393865
0.418699 0.00900597 5.41123e-05 1.93752e-08 25628 0.00898923 1.93391e-08 0.00026935 1.8435 464821
0.442467 0.00964109 6.38607e-05 1.75753e-08 30320 0.00962599 1.75478e-08 0.000242108 2.20101 548560
0.467585 0.0102306 7.53654e-05 1.5803e-08 35452 0.0102187 1.57846e-08 0.00021737 2.57739 647384
0.494129 0.0106218 8.89427e-05 1.39026e-08 41792 0.0106198 1.39001e-08 0.000194938 2.98052 764012
0.522179 0.0112362 0.000104966 1.24618e-08 49988 0.0112383 1.24641e-08 0.000174625 3.5673 901651
0.551822 0.0118223 0.000123876 1.11103e-08 59110 0.0118153 1.11037e-08 0.000156255 4.20294 1.06409e+06
0.583147 0.0123438 0.000146192 9.8296e-09 69716 0.0123323 9.82044e-09 0.000139664 4.90663 1.25578e+06
0.616251 0.0127802 0.000172529 8.6235e-09 82210 0.0127575 8.6082e-09 0.0001247 5.68515 1.48202e+06
0.651234 0.0135017 0.000203611 7.71963e-09 96722 0.0134805 7.70753e-09 0.00011122 6.71331 1.74901e+06
0.688203 0.0141209 0.000240292 6.8412e-09 113098 0.0141046 6.83333e-09 9.90935e-05 7.80804 2.06409e+06
0.72727 0.0148003 0.000283581 6.0758e-09 135190 0.0147849 6.06946e-09 8.81969e-05 9.31312 2.43595e+06
0.768555 0.0154141 0.000334669 5.36182e-09 158170 0.0154019 5.35756e-09 7.84179e-05 10.8149 2.87479e+06
0.812184 0.0161304 0.000394961 4.75447e-09 188560 0.0161134 4.74945e-09 6.96525e-05 12.8711 3.39269e+06
0.85829 0.0168314 0.000466114 4.20377e-09 220444 0.0168117 4.19884e-09 6.1805e-05 14.9939 4.00389e+06
0.907013 0.0174504 0.000550086 3.69304e-09 261388 0.0174313 3.689e-09 5.47875e-05 17.6193 4.7252e+06
0.958501 0.0181706 0.000649185 3.25844e-09 308244 0.0181542 3.2555e-09 4.85194e-05 20.7009 5.57646e+06
1.01291 0.018935 0.000766138 2.87718e-09 364396 0.018915 2.87414e-09 4.29272e-05 24.4236 6.58107e+06
1.07041 0.0197825 0.00090416 2.5471e-09 429162 0.0197619 2.54444e-09 3.79435e-05 28.8091 7.76667e+06
1.13118 0.0206218 0.00106705 2.24985e-09 506358 0.020599 2.24736e-09 3.3507e-05 33.9998 9.16586e+06
1.19539 0.021376 0.00125928 1.97613e-09 598590 0.0213494 1.97367e-09 2.9562e-05 40.0139 1.08171e+07
1.26325 0.0221717 0.00148614 1.7368e-09 704844 0.0221471 1.73487e-09 2.60578e-05 46.9791 1.27658e+07
1.33496 0.02301 0.00175387 1.52732e-09 834620 0.0229793 1.52528e-09 2.29484e-05 55.5475 1.50656e+07
1.41075 0.0238976 0.00206984 1.34409e-09 981444 0.0238682 1.34244e-09 2.01923e-05 65.3293 1.77798e+07
1.49083 0.0247768 0.00244272 1.18081e-09 1.15998e+06 0.0247495 1.17951e-09 1.77518e-05 77.1594 2.09828e+07
1.57546 0.0257272 0.00288279 1.03894e-09 1.36931e+06 0.025698 1.03776e-09 1.55929e-05 91.2359 2.4763e+07
1.66489 0.0266377 0.00340213 9.11499e-10 1.61652e+06 0.0266047 9.1037e-10 1.3685e-05 107.669 2.92241e+07
1.75941 0.0276025 0.00401503 8.0033e-10 1.90601e+06 0.0275679 7.99327e-10 1.20007e-05 127.112 3.44889e+07
1.85928 0.0285431 0.00473835 7.01269e-10 2.24913e+06 0.0285077 7.00398e-10 1.05151e-05 149.998 4.07021e+07
1.96483 0.0295987 0.00559198 6.16194e-10 2.65744e+06 0.0295617 6.15424e-10 9.20606e-06 177.872 4.80347e+07
2.07637 0.0306096 0.00659939 5.39963e-10 3.13125e+06 0.0305723 5.39305e-10 8.05366e-06 209.937 5.66883e+07
2.19424 0.0316583 0.00778828 4.73212e-10 3.69915e+06 0.0316204 4.72646e-10 7.04008e-06 248.645 6.69008e+07
2.3188 0.0328037 0.00919136 4.15483e-10 4.36472e+06 0.0327629 4.14966e-10 6.1494e-06 294.902 7.89532e+07
2.45043 0.033907 0.0108472 3.63899e-10 5.14913e+06 0.0338662 3.63462e-10 5.36741e-06 349.1 9.31768e+07
2.58954 0.0350638 0.0128014 3.1887e-10 6.07894e+06 0.0350217 3.18487e-10 4.68145e-06 414.057 1.09963e+08
2.73654 0.0362889 0.0151076 2.79634e-10 7.17304e+06 0.0362442 2.79289e-10 4.08023e-06 491.595 1.29773e+08
2.89188 0.03751 0.0178292 2.4492e-10 8.46557e+06 0.0374656 2.4463e-10 3.55373e-06 583.44 1.53152e+08
3.05605 0.0387717 0.0210412 2.14513e-10 9.98773e+06 0.0387258 2.14259e-10 3.09304e-06 692.684 1.80743e+08
3.22953 0.0401047 0.0248319 1.88017e-10 1.1797e+07 0.0400558 1.87788e-10 2.69025e-06 824.471 2.13304e+08
3.41286 0.0414981 0.0293054 1.64851e-10 1.39144e+07 0.0414463 1.64645e-10 2.33837e-06 980.937 2.51731e+08
3.6066 0.0429379 0.0345848 1.44532e-10 1.64163e+07 0.0428841 1.44351e-10 2.0312e-06 1168.12 2.97081e+08
3.81134 0.0444087 0.0408154 1.26665e-10 1.93821e+07 0.0443544 1.26509e-10 1.76327e-06 1392.32 3.50601e+08
4.0277 0.045975 0.0481684 1.11114e-10 2.28754e+07 0.0459163 1.10972e-10 1.52972e-06 1661.6 4.13763e+08
4.25634 0.0475907 0.056846 9.74612e-11 2.69929e+07 0.0475285 9.73339e-11 1.32631e-06 1983.52 4.88304e+08
4.49796 0.0492711 0.067087 8.54996e-11 3.18542e+07 0.0492066 8.53877e-11 1.14926e-06 2369.81 5.76273e+08
4.7533 0.0510494 0.0791729 7.50626e-11 3.75892e+07 0.0509824 7.49643e-11 9.95263e-07 2834.97 6.8009e+08
5.02313 0.0528626 0.0934361 6.58634e-11 4.43706e+07 0.0527928 6.57764e-11 8.61414e-07 3392.56 8.0261e+08
5.30828 0.0548167 0.110269 5.78723e-11 5.23593e+07 0.0547432 5.77946e-11 7.45152e-07 4066.48 9.47202e+08
5.60962 0.0568411 0.130134 5.08488e-11 6.1787e+07 0.0567646 5.07805e-11 6.44232e-07 4876.81 1.11784e+09
5.92807 0.0589302 0.153578 4.46703e-11 7.29346e+07 0.0588495 4.46091e-11 5.56685e-07 5852.52 1.31923e+09
6.26459 0.0611716 0.181246 3.92909e-11 8.60651e+07 0.0610878 3.92371e-11 4.80786e-07 7033.43 1.55689e+09
6.62021 0.0635052 0.213898 3.45632e-11 1.01558e+08 0.0634157 3.45145e-11 4.15026e-07 8457.72 1.83737e+09
6.99602 0.0659937 0.252432 3.04347e-11 1.1986e+08 0.0659009 3.03919e-11 3.58083e-07 10187.3 2.16837e+09
7.39317 0.0685818 0.297908 2.68001e-11 1.41457e+08 0.0684845 2.67621e-11 3.08803e-07 12276.6 2.55901e+09
7.81286 0.0713714 0.351577 2.36328e-11 1.66936e+08 0.0712689 2.35988e-11 2.66181e-07 14821.3 3.02002e+09
8.25637 0.0743102 0.414914 2.08497e-11 1.97025e+08 0.0742019 2.08193e-11 2.29336e-07 17912.2 3.56409e+09
8.72507 0.0774942 0.489662 1.8424e-11 2.32497e+08 0.077379 1.83965e-11 1.97503e-07 21688.3 4.20617e+09
9.22037 0.0809977 0.577876 1.63173e-11 2.74404e+08 0.0808741 1.62924e-11 1.70014e-07 26336.2 4.96392e+09
9.74378 0.0849178 0.681982 1.44956e-11 3.2382e+08 0.0847833 1.44726e-11 1.46289e-07 32086.9 5.85818e+09
10.2969 0.0895131 0.804843 1.29475e-11 3.82165e+08 0.0893639 1.29259e-11 1.25822e-07 39325.9 6.91355e+09
10.8814 0.0951015 0.949838 1.1656e-11 4.51027e+08 0.0949303 1.1635e-11 1.08175e-07 48598.4 8.15905e+09
11.4992 0.102372 1.12095 1.06317e-11 5.32251e+08 0.102166 1.06103e-11 9.29669e-08 60868.4 9.62892e+09
12.1519 0.112718 1.3229 9.91921e-12 6.28157e+08 0.112449 9.89557e-12 7.98658e-08 78016.2 1.13636e+10
12.8418 0.12449 1.56122 9.28282e-12 3.82727e+08 0.128855 9.60833e-12 6.85852e-08 51801 1.34108e+10
13.5708 0 1.84248 0 0 0 0 5.88765e-08 0 1.58268e+10
14.3411 0 2.17441 0 0 0 0 5.05241e-08 0 1.8678e+10
15.1552 0 2.56613 0 0 0 0 4.33417e-08 0 2.20429e+10
16.0156 0 3.02843 0 0 0 0 3.71677e-08 0 2.6014e+10
16.9247 0 3.574 0 0 0 0 3.18628e-08 0 3.07005e+10
17.8855 0 4.21787 0 0 0 0 2.73063e-08 0 3.62312e+10
18.9008 0 4.97773 0 0 0 0 2.33941e-08 0 4.27584e+10
19.9738 0 5.87448 0 0 0 0 2.00364e-08 0 5.04614e+10
21.1076 0 6.93279 0 0 0 0 1.71555e-08 0 5.95522e+10
22.3058 0 8.18175 0 0 0 0 1.46847e-08 0 7.02807e+10
23.5721 0 9.65571 0 0 0 0 1.25662e-08 0 8.29419e+10
24.9102 0 11.3952 0 0 0 0 1.07504e-08 0 9.78842e+10
26.3243 0 13.4481 0 0 0 0 9.19452e-09 0 1.15518e+11
27.8187 0 15.8708 0 0 0 0 7.86182e-09 0 1.36329e+11
29.3979 0 18.73 0 0 0 0 6.72061e-09 0 1.60889e+11
31.0667 0 22.1042 0 0 0 0 5.74366e-09 0 1.89874e+11
32.8303 0 26.0864 0 0 0 0 4.90756e-09 0 2.2408e+11
34.694 0 30.7859 0 0 0 0 4.19221e-09 0 2.64449e+11
36.6634 0 36.3321 0 0 0 0 3.58032e-09 0 3.1209e+11
38.7447 0 42.8774 0 0 0 0 3.05709e-09 0 3.68314e+11
40.9442 0 50.6018 0 0 0 0 2.60976e-09 0 4.34667e+11
43.2685 0 59.7179 0 0 0 0 2.22743e-09 0 5.12973e+11
45.7247 0 70.4762 0 0 0 0 1.90073e-09 0 6.05386e+11
48.3204 0 83.1727 0 0 0 0 1.62163e-09 0 7.14448e+11
51.0634 0 98.1565 0 0 0 0 1.38326e-09 0 8.43158e+11
53.9621 0 115.84 0 0 0 0 1.1797e-09 0 9.95055e+11
57.0254 0 136.709 0 0 0 0 1.00592e-09 0 1.17432e+12
60.2626 0 161.337 0 0 0 0 8.57591e-10 0 1.38587e+12
63.6835 0 190.402 0 0 0 0 7.3101e-10 0 1.63554e+12
67.2987 0 224.704 0 0 0 0 6.23009e-10 0 1.93019e+12
71.1191 0 265.185 0 0 0 0 5.30879e-10 0 2.27792e+12
75.1563 0 312.958 0 0 0 0 4.52303e-10 0 2.68829e+12
79.4227 0 369.339 0 0 0 0 3.85299e-10 0 3.17259e+12
83.9313 0 435.876 0 0 0 0 3.28173e-10 0 3.74415e+12
88.6959 0 514.4 0 0 0 0 2.79476e-10 0 4.41866e+12
93.7309 0 607.071 0 0 0 0 2.37972e-10 0 5.2147e+12
99.0518 0 716.436 0 0 0 0 2.02605e-10 0 6.15414e+12
104.675 0 845.504 0 0 0 0 1.72471e-10 0 7.26283e+12
110.617 0 997.824 0 0 0 0 1.468e-10 0 8.57124e+12
116.896 0 1177.58 0 0 0 0 1.24935e-10 0 1.01154e+13
123.532 0 1389.73 0 0 0 0 1.06313e-10 0 1.19377e+13
130.545 0 1640.09 0 0 0 0 9.04567e-11 0 1.40883e+13
137.955 0 1935.56 0 0 0 0 7.69563e-11 0 1.66263e+13
145.787 0 2284.26 0 0 0 0 6.54636e-11 0 1.96216e+13
154.063 0 2695.77 0 0 0 0 5.56812e-11 0 2.31565e+13
162.808 0 3181.42 0 0 0 0 4.73556e-11 0 2.73282e+13
172.051 0 3754.56 0 0 0 0 4.02708e-11 0 3.22515e+13
181.818 0 4430.96 0 0 0 0 3.42426e-11 0 3.80616e+13
192.139 0 5229.21 0 0 0 0 2.91139e-11 0 4.49186e+13
203.046 0 6171.26 0 0 0 0 2.4751e-11 0 5.30108e+13
214.572 0 7283.03 0 0 0 0 2.10401e-11 0 6.25608e+13
226.753 0 8595.09 0 0 0 0 1.78839e-11 0 7.38313e+13
239.625 0 10143.5 0 0 0 0 1.51999e-11 0 8.71322e+13
253.228 0 11970.9 0 0 0 0 1.29176e-11 0 1.02829e+14
267.603 0 14127.5 0 0 0 0 1.09771e-11 0 1.21354e+14
282.795 0 16672.6 0 0 0 0 9.3274e-12 0 1.43217e+14
298.848 0 19676.2 0 0 0 0 7.925e-12 0 1.69017e+14
315.813 0 23220.9 0 0 0 0 6.73295e-12 0 1.99466e+14
333.741 0 27404.3 0 0 0 0 5.71979e-12 0 2.35401e+14
352.686 0 32341.2 0 0 0 0 4.85874e-12 0 2.77809e+14
372.707 0 38167.6 0 0 0 0 4.12703e-12 0 3.27857e+14
393.865 0 45043.5 0 0 0 0 3.50528e-12 0 3.86921e+14
416.224 0 53158.3 0 0 0 0 2.97701e-12 0 4.56626e+14
439.852 0 62734.9 0 0 0 0 2.52819e-12 0 5.38888e+14
464.821 0 74036.7 0 0 0 0 2.1469e-12 0 6.35971e+14
491.207 0 87374.6 0 0 0 0 1.82301e-12 0 7.50542e+14
519.092 0 103115 0 0 0 0 1.54789e-12 0 8.85755e+14
548.56 0 121692 0 0 0 0 1.31422e-12 0 1.04533e+15
579.7 0 143615 0 0 0 0 1.11576e-12 0 1.23364e+15
612.608 0 169488 0 0 0 0 9.47223e-13 0 1.45589e+15
647.384 0 200021 0 0 0 0 8.041e-13 0 1.71817e+15
684.134 0 236056 0 0 0 0 6.82568e-13 0 2.0277e+15
722.971 0 278582 0 0 0 0 5.79376e-13 0 2.393e+15
764.012 0 328769 0 0 0 0 4.91762e-13 0 2.8241e+15
