0.594779
200
1.0655e+09
8589934592
0.0129181 0 1.58924e-09 0 0 0 0 0.00677225 0 13.6515
0.0136515 0 1.87554e-09 0 0 0 0 0.00688819 0 16.1108
0.0144264 0 2.21343e-09 0 0 0 0 0.00699249 0 19.0132
0.0152454 0 2.61218e-09 0 0 0 0 0.00708412 0 22.4385
0.0161108 0 3.08278e-09 0 0 0 0 0.00716212 0 26.4808
0.0170254 0 3.63815e-09 0 0 0 0 0.00722559 0 31.2514
0.0179919 0 4.29357e-09 0 0 0 0 0.00727371 0 36.8815
0.0190132 0 5.06707e-09 0 0 0 0 0.00730578 0 43.5258
0.0200925 0 5.97991e-09 0 0 0 0 0.00732122 0 51.367
0.0212331 0 7.05721e-09 0 0 0 0 0.00731958 0 60.621
0.0224385 0 8.32858e-09 0 0 0 0 0.00730056 0 71.542
0.0237123 0 9.829e-09 0 0 0 0 0.00726401 0 84.4305
0.0250583 0 1.15997e-08 0 0 0 0 0.00720995 0 99.6408
0.0264808 0 1.36894e-08 0 0 0 0 0.00713857 0 117.591
0.0279841 0 1.61556e-08 0 0 0 0 0.00705021 0 138.776
0.0295727 0 1.90661e-08 0 0 0 0 0.00694538 0 163.777
0.0312514 0 2.25009e-08 0 0 0 0 0.00682475 0 193.281
0.0330255 0 2.65545e-08 0 0 0 0 0.00668915 0 228.102
0.0349003 0 3.13384e-08 0 0 0 0 0.00653951 0 269.195
0.0368815 0 3.69841e-08 0 0 0 0 0.00637693 0 317.691
0.0389751 0 4.36469e-08 0 0 0 0 0.00620256 0 374.924
0.0411876 0 5.151e-08 0 0 0 0 0.00601767 0 442.467
0.0435258 0 6.07896e-08 0 0 0 0 0.00582358 0 522.179
0.0459966 0 7.1741e-08 0 0 0 0 0.00562166 0 616.251
0.0486077 0 8.46654e-08 0 0 0 0 0.0054133 0 727.27
0.051367 0 9.99181e-08 0 0 0 0 0.00519989 0 858.29
0.054283 0 1.17919e-07 0 0 0 0 0.0049828 0 1012.91
0.0573645 0 1.39162e-07 0 0 0 0 0.00476339 0 1195.39
0.060621 0 1.64232e-07 0 0 0 0 0.00454293 0 1410.75
0.0640622 0 1.93819e-07 0 0 0 0 0.00432265 0 1664.89
0.0676989 0 2.28736e-07 0 0 0 0 0.00410371 0 1964.83
0.071542 0 2.69944e-07 0 0 0 0 0.00388717 0 2318.8
0.0756032 0 3.18575e-07 0 0 0 0 0.00367401 0 2736.54
0.079895 0 3.75967e-07 0 0 0 0 0.0034651 0 3229.53
0.0844305 0 4.43698e-07 0 0 0 0 0.00326121 0 3811.34
0.0892234 0 5.23632e-07 0 0 0 0 0.00306301 0 4497.96
0.0942883 0 6.17966e-07 0 0 0 0 0.00287109 0 5308.28
0.0996408 0 7.29294e-07 0 0 0 0 0.00268591 0 6264.59
0.105297 0 8.60678e-07 0 0 0 0 0.00250785 0 7393.17
0.111275 0 1.01573e-06 0 0 0 0 0.00233721 0 8725.07
0.117591 0 1.19872e-06 0 0 0 0 0.00217419 0 10296.9
0.124267 0 1.41467e-06 0 0 0 0 0.00201893 0 12151.9
0.131321 0 1.66953e-06 0 0 0 0 0.00187147 0 14341.1
0.138776 0 1.9703e-06 0 0 0 0 0.00173182 0 16924.7
0.146654 0 2.32525e-06 0 0 0 0 0.00159991 0 19973.8
0.154979 0 2.74415e-06 0 0 0 0 0.00147563 0 23572.1
0.163777 0 3.23852e-06 0 0 0 0 0.00135884 0 27818.7
0.173074 0 3.82195e-06 0 0 0 0 0.00124933 0 32830.3
0.182899 0 4.51048e-06 0 0 0 0 0.00114689 0 38744.7
0.193281 0 5.32305e-06 0 0 0 0 0.00105127 0 45724.7
0.204254 0 6.28202e-06 0 0 0 0 0.000962209 0 53962.1
0.215848 0 7.41374e-06 0 0 0 0 0.000879423 0 63683.5
0.228102 0 8.74934e-06 0 0 0 0 0.000802624 0 75156.3
0.24105 0 1.03256e-05 0 0 0 0 0.000731515 0 88695.9
0.254734 0 1.21857e-05 0 0 0 0 0.000665798 0 104675
0.269195 0 1.4381e-05 0 0 0 0 0.000605173 0 123532
0.284476 0 1.69718e-05 0 0 0 0 0.000549345 0 145787
0.300625 0 2.00293e-05 0 0 0 0 0.000498021 0 172051
0.317691 0 2.36377e-05 0 0 0 0 0.000450916 0 203046
0.335725 0 2.78961e-05 0 0 0 0 0.000407755 0 239625
0.354784 0 3.29216e-05 0 0 0 0 0.000368269 0 282795
0.374924 0 3.88525e-05 0 0 0 0 0.000332202 0 333741
0.396207 2.66265 4.58519e-05 6.7603e-06 6 2.58862 6.57235e-06 0.000299307 0.135519 393865
0.418699 0 5.41123e-05 0 0 0 0 0.00026935 0 464821
0.442467 0 6.38607e-05 0 0 0 0 0.000242108 0 548560
0.467585 0 7.53654e-05 0 0 0 0 0.00021737 0 647384
0.494129 0 8.89427e-05 0 0 0 0 0.000194938 0 764012
0.522179 0 0.000104966 0 0 0 0 0.000174625 0 901651
0.551822 0 0.000123876 0 0 0 0 0.000156255 0 1.06409e+06
0.583147 5.32106 0.000146192 4.23724e-06 12 5.60044 4.45972e-06 0.000139664 0.364066 1.25578e+06
0.616251 0 0.000172529 0 0 0 0 0.0001247 0 1.48202e+06
0.651234 0 0.000203611 0 0 0 0 0.00011122 0 1.74901e+06
0.688203 22.8156 0.000240292 1.10536e-05 8 22.248 1.07786e-05 9.90935e-05 0.892376 2.06409e+06
0.72727 0 0.000283581 0 0 0 0 8.81969e-05 0 2.43595e+06
0.768555 0 0.000334669 0 0 0 0 7.84179e-05 0 2.87479e+06
0.812184 7.45932 0.000394961 2.19864e-06 6 7.6188 2.24565e-06 6.96525e-05 0.189395 3.39269e+06
0.85829 0 0.000466114 0 0 0 0 6.1805e-05 0 4.00389e+06
0.907013 0.818856 0.000550086 1.73295e-07 24 0.834568 1.76621e-07 5.47875e-05 0.0759132 4.7252e+06
0.958501 3.95066 0.000649185 7.08453e-07 24 3.71926 6.66956e-07 4.85194e-05 0.350435 5.57646e+06
1.01291 0 0.000766138 0 0 0 0 4.29272e-05 0 6.58107e+06
1.07041 0 0.00090416 0 0 0 0 3.79435e-05 0 7.76667e+06
1.13118 3.12182 0.00106705 3.40592e-07 12 3.08347 3.36408e-07 3.3507e-05 0.121977 9.16586e+06
1.19539 5.08822 0.00125928 4.70386e-07 30 4.98333 4.60689e-07 2.9562e-05 0.477355 1.08171e+07
1.26325 8.37887 0.00148614 6.5635e-07 24 8.25279 6.46474e-07 2.60578e-05 0.604517 1.27658e+07
1.33496 16.3082 0.00175387 1.08247e-06 24 16.344 1.08485e-06 2.29484e-05 1.13207 1.50656e+07
1.41075 15.689 0.00206984 8.82408e-07 32 16.048 9.026e-07 2.01923e-05 1.39841 1.77798e+07
1.49083 4.05975 0.00244272 1.93479e-07 48 3.9732 1.89355e-07 1.77518e-05 0.52316 2.09828e+07
1.57546 28.0504 0.00288279 1.13276e-06 6 26.7103 1.07864e-06 1.55929e-05 0.435875 2.4763e+07
1.66489 3.33049 0.00340213 1.13964e-07 84 3.28086 1.12266e-07 1.3685e-05 0.699522 2.92241e+07
1.75941 4.05261 0.00401503 1.17505e-07 48 4.00143 1.16021e-07 1.20007e-05 0.469993 3.44889e+07
1.85928 6.05186 0.00473835 1.48687e-07 72 6.08716 1.49554e-07 1.05151e-05 1.0181 4.07021e+07
1.96483 8.03104 0.00559198 1.67192e-07 54 7.76803 1.61717e-07 9.20606e-06 0.980701 4.80347e+07
2.07637 14.3495 0.00659939 2.5313e-07 104 14.496 2.55714e-07 8.05366e-06 3.26877 5.66883e+07
2.19424 5.76983 0.00778828 8.62445e-08 120 5.85335 8.7493e-08 7.04008e-06 1.47006 6.69008e+07
2.3188 7.86845 0.00919136 9.96597e-08 156 7.65331 9.69348e-08 6.1494e-06 2.5282 7.89532e+07
2.45043 9.67535 0.0108472 1.03839e-07 126 9.60632 1.03098e-07 5.36741e-06 2.43761 9.31768e+07
2.58954 7.53061 0.0128014 6.84831e-08 192 7.5913 6.90351e-08 4.68145e-06 2.80869 1.09963e+08
2.73654 25.7194 0.0151076 1.98188e-07 152 26.3326 2.02913e-07 4.08023e-06 7.38303 1.29773e+08
2.89188 13.0289 0.0178292 8.50716e-08 378 13.0915 8.54803e-08 3.55373e-06 9.04882 1.53152e+08
3.05605 11.4283 0.0210412 6.32298e-08 264 11.1962 6.19456e-08 3.09304e-06 5.39685 1.80743e+08
3.22953 12.1444 0.0248319 5.69349e-08 366 12.0259 5.63794e-08 2.69025e-06 7.7458 2.13304e+08
3.41286 13.3815 0.0293054 5.31577e-08 428 13.2687 5.27096e-08 2.33837e-06 9.72962 2.51731e+08
3.6066 15.1515 0.0345848 5.10011e-08 486 14.9662 5.03773e-08 2.0312e-06 12.2029 2.97081e+08
3.81134 14.3285 0.0408154 4.08683e-08 600 14.3462 4.09188e-08 1.76327e-06 13.9066 3.50601e+08
4.0277 16.9743 0.0481684 4.10243e-08 738 16.929 4.09146e-08 1.52972e-06 19.7918 4.13763e+08
4.25634 21.3674 0.056846 4.37583e-08 824 21.4172 4.38603e-08 1.32631e-06 27.1859 4.88304e+08
4.49796 20.6309 0.067087 3.58006e-08 954 20.4877 3.55521e-08 1.14926e-06 29.7181 5.76273e+08
4.7533 21.0388 0.0791729 3.09353e-08 1094 20.9775 3.08451e-08 9.95263e-07 34.0042 6.8009e+08
5.02313 19.8769 0.0934361 2.47653e-08 1332 19.9403 2.48443e-08 8.61414e-07 38.2944 8.0261e+08
5.30828 25.8979 0.110269 2.73415e-08 1614 25.9614 2.74085e-08 7.45152e-07 59.2217 9.47202e+08
5.60962 28.4778 0.130134 2.54757e-08 1850 28.4288 2.54318e-08 6.44232e-07 73.1569 1.11784e+09
5.92807 26.918 0.153578 2.04044e-08 2238 26.9147 2.04019e-08 5.56685e-07 82.0302 1.31923e+09
6.26459 25.7446 0.181246 1.65359e-08 2546 25.8209 1.6585e-08 4.80786e-07 87.566 1.55689e+09
6.62021 28.7705 0.213898 1.56586e-08 3264 28.8324 1.56923e-08 4.15026e-07 123.148 1.83737e+09
6.99602 32.6231 0.252432 1.5045e-08 3506 32.6213 1.50441e-08 3.58083e-07 147.306 2.16837e+09
7.39317 34.2403 0.297908 1.33803e-08 4506 34.2569 1.33868e-08 3.08803e-07 195.242 2.55901e+09
7.81286 37.7011 0.351577 1.24837e-08 5018 37.5839 1.24449e-08 2.66181e-07 235.341 3.02002e+09
8.25637 39.2517 0.414914 1.10131e-08 5852 39.2584 1.1015e-08 2.29336e-07 281.023 3.56409e+09
8.72507 41.5906 0.489662 9.88801e-09 7362 41.4561 9.85602e-09 1.97503e-07 368.579 4.20617e+09
9.22037 42.4381 0.577876 8.5493e-09 8306 42.3222 8.52595e-09 1.70014e-07 417.674 4.96392e+09
9.74378 45.6782 0.681982 7.79733e-09 9698 45.6423 7.7912e-09 1.46289e-07 516.912 5.85818e+09
10.2969 48.1492 0.804843 6.96447e-09 11816 48.0851 6.95519e-09 1.25822e-07 654.034 6.91355e+09
10.8814 55.4232 0.949838 6.79285e-09 13682 55.2975 6.77745e-09 1.08175e-07 859.158 8.15905e+09
11.4992 54.9394 1.12095 5.70567e-09 16152 54.8933 5.70088e-09 9.29669e-08 991.299 9.62892e+09
12.1519 58.95 1.3229 5.18762e-09 19472 58.8789 5.18136e-09 7.98658e-08 1264.79 1.13636e+10
12.8418 59.9025 1.56122 4.46674e-09 22670 59.7108 4.45245e-09 6.85852e-08 1476.43 1.34108e+10
13.5708 65.2151 1.84248 4.12056e-09 26224 65.1349 4.11549e-09 5.88765e-08 1835.33 1.58268e+10
14.3411 69.2983 2.17441 3.71015e-09 31640 69.3141 3.711e-09 5.05241e-08 2323.43 1.8678e+10
15.1552 74.2997 2.56613 3.37069e-09 37484 74.1619 3.36444e-09 4.33417e-08 2915.13 2.20429e+10
16.0156 77.6822 3.02843 2.98617e-09 43856 77.5212 2.97998e-09 3.71677e-08 3523.53 2.6014e+10
16.9247 82.0688 3.574 2.67321e-09 51362 81.9596 2.66965e-09 3.18628e-08 4309.14 3.07005e+10
17.8855 86.4732 4.21787 2.3867e-09 61636 86.4137 2.38506e-09 2.73063e-08 5387.29 3.62312e+10
18.9008 90.3349 4.97773 2.11268e-09 72218 90.1413 2.10815e-09 2.33941e-08 6521.88 4.27584e+10
19.9738 96.0508 5.87448 1.90345e-09 84586 95.8791 1.90005e-09 2.00364e-08 8035.64 5.04614e+10
21.1076 101.563 6.93279 1.70545e-09 100708 101.412 1.70291e-09 1.71555e-08 10011.5 5.95522e+10
22.3058 107.573 8.18175 1.53062e-09 118712 107.398 1.52813e-09 1.46847e-08 12373.7 7.02807e+10
23.5721 112.013 9.65571 1.35049e-09 140410 111.781 1.3477e-09 1.25662e-08 15090 8.29419e+10
24.9102 117.472 11.3952 1.20011e-09 164374 117.267 1.19801e-09 1.07504e-08 18349.8 9.78842e+10
26.3243 124.972 13.4481 1.08184e-09 194680 124.892 1.08115e-09 9.19452e-09 22906.3 1.15518e+11
27.8187 129.887 15.8708 9.52747e-10 230196 129.668 9.51139e-10 7.86182e-09 27896.7 1.36329e+11
29.3979 136.431 18.73 8.47979e-10 271156 136.208 8.46596e-10 6.72061e-09 34213.3 1.60889e+11
31.0667 143.605 22.1042 7.56317e-10 321076 143.366 7.5506e-10 5.74366e-09 42278.8 1.89874e+11
32.8303 150.947 26.0864 6.73628e-10 377436 150.682 6.72446e-10 4.90756e-09 51808.1 2.2408e+11
34.694 158.383 30.7859 5.98916e-10 447594 158.096 5.97832e-10 4.19221e-09 63945.2 2.64449e+11
36.6634 166.406 36.3321 5.33199e-10 525078 166.105 5.32233e-10 3.58032e-09 78197.2 3.1209e+11
38.7447 174.128 42.8774 4.72769e-10 621924 173.794 4.71865e-10 3.05709e-09 96178.8 3.68314e+11
40.9442 182.865 50.6018 4.20702e-10 732630 182.511 4.19888e-10 2.60976e-09 118102 4.34667e+11
43.2685 191.904 59.7179 3.74101e-10 865596 191.61 3.73528e-10 2.22743e-09 145378 5.12973e+11
45.7247 202.424 70.4762 3.34372e-10 1.02168e+06 202.078 3.338e-10 1.90073e-09 179731 6.05386e+11
48.3204 212.625 83.1727 2.97608e-10 1.20544e+06 212.24 2.97069e-10 1.62163e-09 221226 7.14448e+11
51.0634 222.828 98.1565 2.64277e-10 1.42103e+06 222.425 2.63799e-10 1.38326e-09 271494 8.43158e+11
53.9621 234.579 115.84 2.35745e-10 1.67997e+06 234.174 2.35338e-10 1.1797e-09 335715 9.95055e+11
57.0254 247.843 136.709 2.11053e-10 1.98018e+06 247.379 2.10658e-10 1.00592e-09 415464 1.17432e+12
60.2626 261.936 161.337 1.89004e-10 2.33957e+06 261.423 1.88634e-10 8.57591e-10 515617 1.38587e+12
63.6835 277.956 190.402 1.69948e-10 2.75676e+06 277.435 1.69629e-10 7.3101e-10 640902 1.63554e+12
67.2987 295.598 224.704 1.53144e-10 3.25638e+06 295.028 1.52849e-10 6.23009e-10 800464 1.93019e+12
71.1191 315.278 265.185 1.38406e-10 3.84387e+06 314.653 1.38132e-10 5.30879e-10 1.00214e+06 2.27792e+12
75.1563 338.08 312.958 1.2576e-10 4.53277e+06 337.39 1.25504e-10 4.52303e-10 1.26031e+06 2.68829e+12
79.4227 363.874 369.339 1.14693e-10 5.35083e+06 363.118 1.14455e-10 3.85299e-10 1.59279e+06 3.17259e+12
83.9313 394.421 435.876 1.05343e-10 6.32174e+06 393.562 1.05114e-10 3.28173e-10 2.02927e+06 3.74415e+12
88.6959 428.781 514.4 9.70385e-11 7.44986e+06 427.814 9.68197e-11 2.79476e-10 2.58671e+06 4.41866e+12
93.7309 469.296 607.071 8.99948e-11 8.79764e+06 468.216 8.97878e-11 2.37972e-10 3.32703e+06 5.2147e+12
99.0518 516.589 716.436 8.39417e-11 1.03827e+07 515.35 8.37403e-11 2.02605e-10 4.30167e+06 6.15414e+12
104.675 572.307 845.504 7.87995e-11 1.22515e+07 570.87 7.86016e-11 1.72471e-10 5.59754e+06 7.26283e+12
110.617 637.689 997.824 7.43986e-11 1.44573e+07 636.047 7.42071e-11 1.468e-10 7.327e+06 8.57124e+12
116.896 716.213 1177.58 7.08044e-11 1.70664e+07 714.306 7.06158e-11 1.24935e-10 9.67206e+06 1.01154e+13
123.532 808.91 1389.73 6.7761e-11 2.0139e+07 806.674 6.75737e-11 1.06313e-10 1.2836e+07 1.19377e+13
130.545 918.756 1640.09 6.52141e-11 2.37643e+07 916.152 6.50293e-11 9.04567e-11 1.71327e+07 1.40883e+13
137.955 1050.12 1935.56 6.31602e-11 2.80503e+07 1047.04 6.2975e-11 7.69563e-11 2.30217e+07 1.66263e+13
145.787 1204.54 2284.26 6.13884e-11 3.30981e+07 1200.96 6.12061e-11 6.54636e-11 3.10377e+07 1.96216e+13
154.063 1389.27 2695.77 5.99947e-11 3.90634e+07 1385.06 5.98128e-11 5.56812e-11 4.20896e+07 2.31565e+13
162.808 1608.98 3181.42 5.88763e-11 4.61057e+07 1603.99 5.86934e-11 4.73556e-11 5.73222e+07 2.73282e+13
172.051 1869.3 3754.56 5.79601e-11 5.44046e+07 1863.41 5.77776e-11 4.02708e-11 7.83023e+07 3.22515e+13
181.818 2179.47 4430.96 5.72616e-11 6.42064e+07 2172.52 5.70789e-11 3.42426e-11 1.07368e+08 3.80616e+13
192.139 2549.2 5229.21 5.67515e-11 7.57748e+07 2541 5.6569e-11 2.91139e-11 1.47707e+08 4.49186e+13
203.046 2987.53 6171.26 5.6357e-11 8.94213e+07 2977.79 5.61732e-11 2.4751e-11 2.03608e+08 5.30108e+13
214.572 3510.73 7283.03 5.61171e-11 1.05538e+08 3499.12 5.59316e-11 2.10401e-11 2.81487e+08 6.25608e+13
226.753 4135.7 8595.09 5.60156e-11 1.24552e+08 4121.93 5.58291e-11 1.78839e-11 3.90118e+08 7.38313e+13
239.625 4883.15 10143.5 5.6043e-11 1.46987e+08 4866.74 5.58547e-11 1.51999e-11 5.41951e+08 8.71322e+13
253.228 5781.08 11970.9 5.62202e-11 1.7347e+08 5761.38 5.60286e-11 1.29176e-11 7.54977e+08 1.02829e+14
267.603 6865.52 14127.5 5.65742e-11 2.04703e+08 6841.85 5.63791e-11 1.09771e-11 1.055e+09 1.21354e+14
282.795 8181.9 16672.6 5.71296e-11 2.4161e+08 8153.21 5.69292e-11 9.3274e-12 1.47984e+09 1.43217e+14
298.848 9795.77 19676.2 5.79572e-11 2.85122e+08 9760.7 5.77497e-11 7.925e-12 2.08516e+09 1.69017e+14
315.813 11800.1 23220.9 5.91584e-11 3.36491e+08 11756.8 5.89411e-11 6.73295e-12 2.95655e+09 1.99466e+14
333.741 14325.8 27404.3 6.0857e-11 3.97115e+08 14271.3 6.06255e-11 5.71979e-12 4.22519e+09 2.35401e+14
352.686 17591.6 32341.2 6.33226e-11 4.68637e+08 17521.6 6.30706e-11 4.85874e-12 6.10762e+09 2.77809e+14
372.707 21934.2 38167.6 6.69017e-11 5.53074e+08 21841.8 6.66198e-11 4.12703e-12 8.96568e+09 3.27857e+14
393.865 27933 45043.5 7.2193e-11 6.52716e+08 27805.9 7.18646e-11 3.50528e-12 1.3443e+10 3.86921e+14
416.224 32979.6 53158.3 7.22245e-11 2.2184e+08 34889.3 7.64067e-11 2.97701e-12 5.382e+09 4.56626e+14
439.852 0 62734.9 0 0 0 0 2.52819e-12 0 5.38888e+14
464.821 0 74036.7 0 0 0 0 2.1469e-12 0 6.35971e+14
491.207 0 87374.6 0 0 0 0 1.82301e-12 0 7.50542e+14
519.092 0 103115 0 0 0 0 1.54789e-12 0 8.85755e+14
548.56 0 121692 0 0 0 0 1.31422e-12 0 1.04533e+15
579.7 0 143615 0 0 0 0 1.11576e-12 0 1.23364e+15
612.608 0 169488 0 0 0 0 9.47223e-13 0 1.45589e+15
647.384 0 200021 0 0 0 0 8.041e-13 0 1.71817e+15
684.134 0 236056 0 0 0 0 6.82568e-13 0 2.0277e+15
722.971 0 278582 0 0 0 0 5.79376e-13 0 2.393e+15
764.012 0 328769 0 0 0 0 4.91762e-13 0 2.8241e+15
0.594779
200
1.0655e+09
8589934592
0.0129181 0.000961383 1.58924e-09 7.04234e-05 6 0.000952581 6.97787e-05 0.00677225 0.0623929 13.6515
0.0136515 0 1.87554e-09 0 0 0 0 0.00688819 0 16.1108
0.0144264 0 2.21343e-09 0 0 0 0 0.00699249 0 19.0132
0.0152454 0 2.61218e-09 0 0 0 0 0.00708412 0 22.4385
0.0161108 0 3.08278e-09 0 0 0 0 0.00716212 0 26.4808
0.0170254 0 3.63815e-09 0 0 0 0 0.00722559 0 31.2514
0.0179919 0.00234061 4.29357e-09 6.3463e-05 12 0.00233759 6.33813e-05 0.00727371 0.1047 36.8815
0.0190132 0 5.06707e-09 0 0 0 0 0.00730578 0 43.5258
0.0200925 0 5.97991e-09 0 0 0 0 0.00732122 0 51.367
0.0212331 0.0108489 7.05721e-09 0.000178963 8 0.0108395 0.000178807 0.00731958 0.195599 60.621
0.0224385 0 8.32858e-09 0 0 0 0 0.00730056 0 71.542
0.0237123 0 9.829e-09 0 0 0 0 0.00726401 0 84.4305
0.0250583 0.00765886 1.15997e-08 7.68646e-05 6 0.00765525 7.68285e-05 0.00720995 0.0639655 99.6408
0.0264808 0 1.36894e-08 0 0 0 0 0.00713857 0 117.591
0.0279841 0.010721 1.61556e-08 7.72543e-05 24 0.01071 7.7175e-05 0.00705021 0.262986 138.776
0.0295727 0 1.90661e-08 0 0 0 0 0.00694538 0 163.777
0.0312514 0.0110955 2.25009e-08 5.74057e-05 24 0.0111518 5.76972e-05 0.00682475 0.201874 193.281
0.0330255 0 2.65545e-08 0 0 0 0 0.00668915 0 228.102
0.0349003 0.0190938 3.13384e-08 7.09293e-05 12 0.0189409 7.03614e-05 0.00653951 0.130155 269.195
0.0368815 0.0176637 3.69841e-08 5.56002e-05 30 0.0174756 5.50082e-05 0.00637693 0.261569 317.691
0.0389751 0.0207112 4.36469e-08 5.52411e-05 24 0.0204982 5.46729e-05 0.00620256 0.213749 374.924
0.0411876 0.0297838 5.151e-08 6.73131e-05 24 0.0295816 6.68559e-05 0.00601767 0.268462 442.467
0.0435258 0.0327483 6.07896e-08 6.27146e-05 8 0.0327457 6.27098e-05 0.00582358 0.0861527 522.179
0.0459966 0.022616 7.1741e-08 3.66993e-05 72 0.0225439 3.65823e-05 0.00562166 0.47003 616.251
0.0486077 0 8.46654e-08 0 0 0 0 0.0054133 0 727.27
0.051367 0.0470356 9.99181e-08 5.48015e-05 54 0.0468586 5.45953e-05 0.00519989 0.569105 858.29
0.054283 0.0544714 1.17919e-07 5.3777e-05 60 0.0548345 5.41354e-05 0.0049828 0.647551 1012.91
0.0573645 0.0591485 1.39162e-07 4.94804e-05 96 0.0588709 4.92482e-05 0.00476339 0.997214 1195.39
0.060621 0.0648292 1.64232e-07 4.59538e-05 24 0.0639508 4.53313e-05 0.00454293 0.242771 1410.75
0.0640622 0.0890881 1.93819e-07 5.35098e-05 134 0.0890207 5.34693e-05 0.00432265 1.65878 1664.89
0.0676989 0.0816903 2.28736e-07 4.15763e-05 120 0.0811067 4.12793e-05 0.00410371 1.21577 1964.83
0.071542 0.0910646 2.69944e-07 3.92723e-05 108 0.0897488 3.87049e-05 0.00388717 1.09113 2318.8
0.0756032 0.114142 3.18575e-07 4.17102e-05 174 0.113516 4.14816e-05 0.00367401 1.97538 2736.54
0.079895 0.113677 3.75967e-07 3.51993e-05 168 0.112513 3.48388e-05 0.0034651 1.70658 3229.53
0.0844305 0.124115 4.43698e-07 3.25646e-05 168 0.124483 3.26612e-05 0.00326121 1.67755 3811.34
0.0892234 0.125944 5.23632e-07 2.80003e-05 290 0.12529 2.78549e-05 0.00306301 2.65101 4497.96
0.0942883 0.133686 6.17966e-07 2.51845e-05 288 0.133891 2.52229e-05 0.00287109 2.52626 5308.28
0.0996408 0.146006 7.29294e-07 2.33065e-05 366 0.145198 2.31776e-05 0.00268591 3.1759 6264.59
0.105297 0.144033 8.60678e-07 1.94819e-05 420 0.143092 1.93547e-05 0.00250785 3.26271 7393.17
0.111275 0.17014 1.01573e-06 1.95001e-05 398 0.169663 1.94454e-05 0.00233721 3.32064 8725.07
0.117591 0.178622 1.19872e-06 1.73472e-05 624 0.178698 1.73546e-05 0.00217419 4.97869 10296.9
0.124267 0.209915 1.41467e-06 1.72742e-05 642 0.209774 1.72626e-05 0.00201893 5.49305 12151.9
0.131321 0.254702 1.66953e-06 1.77602e-05 800 0.254905 1.77744e-05 0.00187147 7.592 14341.1
0.138776 0.258109 1.9703e-06 1.52504e-05 858 0.258966 1.53011e-05 0.00173182 7.55557 16924.7
0.146654 0.303174 2.32525e-06 1.51786e-05 1080 0.305188 1.52795e-05 0.00159991 10.2461 19973.8
0.154979 0.300019 2.74415e-06 1.27277e-05 1286 0.302395 1.28285e-05 0.00147563 11.0921 23572.1
0.163777 0.321763 3.23852e-06 1.15664e-05 1650 0.3226 1.15965e-05 0.00135884 14.0448 27818.7
0.173074 0.339986 3.82195e-06 1.03559e-05 1778 0.340007 1.03565e-05 0.00124933 14.7381 32830.3
0.182899 0.383091 4.51048e-06 9.88755e-06 2112 0.384124 9.91423e-06 0.00114689 18.2079 38744.7
0.193281 0.43242 5.32305e-06 9.45703e-06 2570 0.432985 9.46939e-06 0.00105127 23.1192 45724.7
0.204254 0.455865 6.28202e-06 8.44787e-06 3030 0.455016 8.43215e-06 0.000962209 26.6024 53962.1
0.215848 0.51417 7.41374e-06 8.07382e-06 3434 0.514219 8.0746e-06 0.000879423 31.5269 63683.5
0.228102 0.540368 8.74934e-06 7.18992e-06 4218 0.540583 7.19278e-06 0.000802624 37.7849 75156.3
0.24105 0.573246 1.03256e-05 6.46304e-06 4766 0.573538 6.46634e-06 0.000731515 42.1083 88695.9
0.254734 0.642559 1.21857e-05 6.13863e-06 6026 0.642267 6.13584e-06 0.000665798 55.5594 104675
0.269195 0.714958 1.4381e-05 5.78763e-06 6480 0.714863 5.78686e-06 0.000605173 61.972 123532
0.284476 0.744133 1.69718e-05 5.10425e-06 8162 0.744925 5.10969e-06 0.000549345 75.8375 145787
0.300625 0.822372 2.00293e-05 4.77982e-06 9578 0.821503 4.77477e-06 0.000498021 91.9262 172051
0.317691 0.908884 2.36377e-05 4.47624e-06 11234 0.908507 4.47439e-06 0.000450916 111.52 203046
0.335725 0.990877 2.78961e-05 4.13511e-06 13344 0.990355 4.13293e-06 0.000407755 135.324 239625
0.354784 1.10001 3.29216e-05 3.88978e-06 15464 1.09885 3.8857e-06 0.000368269 163.336 282795
0.374924 1.15032 3.88525e-05 3.44674e-06 18458 1.15002 3.44585e-06 0.000332202 191.51 333741
0.396207 1.27929 4.58519e-05 3.24805e-06 22232 1.27626 3.24034e-06 0.000299307 241.259 393865
0.418699 1.42442 5.41123e-05 3.06444e-06 25628 1.42132 3.05777e-06 0.00026935 291.575 464821
0.442467 1.5756 6.38607e-05 2.87224e-06 30320 1.57189 2.86549e-06 0.000242108 359.701 548560
0.467585 1.69233 7.53654e-05 2.61411e-06 35452 1.69002 2.61054e-06 0.00021737 426.348 647384
0.494129 1.86409 8.89427e-05 2.43987e-06 41792 1.8631 2.43858e-06 0.000194938 523.074 764012
0.522179 2.04627 0.000104966 2.26947e-06 49988 2.04521 2.26829e-06 0.000174625 649.657 901651
0.551822 2.25755 0.000123876 2.12159e-06 59110 2.25532 2.11949e-06 0.000156255 802.581 1.06409e+06
0.583147 2.49142 0.000146192 1.98396e-06 69716 2.48759 1.98091e-06 0.000139664 990.331 1.25578e+06
0.616251 2.75158 0.000172529 1.85664e-06 82210 2.74592 1.85283e-06 0.0001247 1224.02 1.48202e+06
0.651234 3.02671 0.000203611 1.73053e-06 96722 3.02057 1.72702e-06 0.00011122 1504.94 1.74901e+06
0.688203 3.3599 0.000240292 1.62778e-06 113098 3.354 1.62493e-06 9.90935e-05 1857.83 2.06409e+06
0.72727 3.7441 0.000283581 1.53702e-06 135190 3.7378 1.53443e-06 8.81969e-05 2355.98 2.43595e+06
0.768555 4.11263 0.000334669 1.43058e-06 158170 4.10672 1.42853e-06 7.84179e-05 2885.51 2.87479e+06
0.812184 4.57691 0.000394961 1.34905e-06 188560 4.56904 1.34673e-06 6.96525e-05 3652.09 3.39269e+06
0.85829 5.08618 0.000466114 1.27031e-06 220444 5.07655 1.2679e-06 6.1805e-05 4530.9 4.00389e+06
0.907013 5.64499 0.000550086 1.19466e-06 261388 5.63505 1.19255e-06 5.47875e-05 5699.63 4.7252e+06
0.958501 6.30385 0.000649185 1.13044e-06 308244 6.29362 1.1286e-06 4.85194e-05 7181.68 5.57646e+06
1.01291 6.99691 0.000766138 1.06319e-06 364396 6.98374 1.06118e-06 4.29272e-05 9025.08 6.58107e+06
1.07041 7.79801 0.00090416 1.00404e-06 429162 7.78405 1.00224e-06 3.79435e-05 11356.2 7.76667e+06
1.13118 8.68905 0.00106705 9.4798e-07 506358 8.67384 9.4632e-07 3.3507e-05 14325.9 9.16586e+06
1.19539 9.65314 0.00125928 8.92396e-07 598590 9.63574 8.90787e-07 2.9562e-05 18069.8 1.08171e+07
1.26325 10.7808 0.00148614 8.44502e-07 704844 10.7613 8.42975e-07 2.60578e-05 22843.1 1.27658e+07
1.33496 11.9556 0.00175387 7.93564e-07 834620 11.9319 7.91995e-07 2.29484e-05 28861.4 1.50656e+07
1.41075 13.2978 0.00206984 7.47917e-07 981444 13.2716 7.46442e-07 2.01923e-05 36352.4 1.77798e+07
1.49083 14.7777 0.00244272 7.04278e-07 1.15998e+06 14.7508 7.02994e-07 1.77518e-05 46020.5 2.09828e+07
1.57546 16.373 0.00288279 6.61191e-07 1.36931e+06 16.3426 6.59963e-07 1.55929e-05 58063.5 2.4763e+07
1.66489 18.2116 0.00340213 6.23173e-07 1.61652e+06 18.1763 6.21963e-07 1.3685e-05 73611.1 2.92241e+07
1.75941 20.0703 0.00401503 5.81935e-07 1.90601e+06 20.031 5.80797e-07 1.20007e-05 92425.8 3.44889e+07
1.85928 22.1084 0.00473835 5.43175e-07 2.24913e+06 22.068 5.42183e-07 1.05151e-05 116182 4.07021e+07
1.96483 24.389 0.00559198 5.07737e-07 2.65744e+06 24.3421 5.0676e-07 9.20606e-06 146564 4.80347e+07
2.07637 26.8498 0.00659939 4.73639e-07 3.13125e+06 26.7984 4.72732e-07 8.05366e-06 184150 5.66883e+07
2.19424 29.4085 0.00778828 4.39583e-07 3.69915e+06 29.355 4.38783e-07 7.04008e-06 230975 6.69008e+07
2.3188 32.1912 0.00919136 4.07725e-07 4.36472e+06 32.1297 4.06947e-07 6.1494e-06 289395 7.89532e+07
2.45043 35.148 0.0108472 3.77218e-07 5.14913e+06 35.0823 3.76513e-07 5.36741e-06 361877 9.31768e+07
2.58954 38.2739 0.0128014 3.48062e-07 6.07894e+06 38.2038 3.47424e-07 4.68145e-06 451963 1.09963e+08
2.73654 41.662 0.0151076 3.21038e-07 7.17304e+06 41.5892 3.20477e-07 4.08023e-06 564384 1.29773e+08
2.89188 45.1807 0.0178292 2.95006e-07 8.46557e+06 45.1018 2.9449e-07 3.55373e-06 702751 1.53152e+08
3.05605 48.8978 0.0210412 2.70538e-07 9.98773e+06 48.8144 2.70077e-07 3.09304e-06 873594 1.80743e+08
3.22953 52.86 0.0248319 2.47815e-07 1.1797e+07 52.7682 2.47385e-07 2.69025e-06 1.08669e+06 2.13304e+08
3.41286 56.936 0.0293054 2.26178e-07 1.39144e+07 56.8361 2.25781e-07 2.33837e-06 1.34586e+06 2.51731e+08
3.6066 61.3242 0.0345848 2.06422e-07 1.64163e+07 61.2196 2.0607e-07 2.0312e-06 1.66832e+06 2.97081e+08
3.81134 65.8543 0.0408154 1.87832e-07 1.93821e+07 65.746 1.87524e-07 1.76327e-06 2.06469e+06 3.50601e+08
4.0277 70.5509 0.0481684 1.7051e-07 2.28754e+07 70.4321 1.70223e-07 1.52972e-06 2.54981e+06 4.13763e+08
4.25634 75.512 0.056846 1.54641e-07 2.69929e+07 75.3853 1.54382e-07 1.32631e-06 3.14725e+06 4.88304e+08
4.49796 80.7271 0.067087 1.40085e-07 3.18542e+07 80.5912 1.39849e-07 1.14926e-06 3.88276e+06 5.76273e+08
4.7533 86.207 0.0791729 1.26758e-07 3.75892e+07 86.0632 1.26547e-07 9.95263e-07 4.78742e+06 6.8009e+08
5.02313 91.8649 0.0934361 1.14458e-07 4.43706e+07 91.7123 1.14268e-07 8.61414e-07 5.89561e+06 8.0261e+08
5.30828 97.7628 0.110269 1.03212e-07 5.23593e+07 97.6017 1.03042e-07 7.45152e-07 7.25236e+06 9.47202e+08
5.60962 103.945 0.130134 9.29874e-08 6.1787e+07 103.774 9.2834e-08 6.44232e-07 8.91824e+06 1.11784e+09
5.92807 110.445 0.153578 8.37195e-08 7.29346e+07 110.262 8.3581e-08 5.56685e-07 1.09686e+07 1.31923e+09
6.26459 117.253 0.181246 7.53123e-08 8.60651e+07 117.059 7.5188e-08 4.80786e-07 1.34816e+07 1.55689e+09
6.62021 124.292 0.213898 6.76466e-08 1.01558e+08 124.087 6.75354e-08 4.15026e-07 1.65533e+07 1.83737e+09
6.99602 131.624 0.252432 6.07018e-08 1.1986e+08 131.41 6.06029e-08 3.58083e-07 2.03185e+07 2.16837e+09
7.39317 139.347 0.297908 5.44534e-08 1.41457e+08 139.119 5.43644e-08 3.08803e-07 2.4944e+07 2.55901e+09
7.81286 147.402 0.351577 4.88083e-08 1.66936e+08 147.162 4.87288e-08 2.66181e-07 3.06102e+07 3.02002e+09
8.25637 155.908 0.414914 4.37442e-08 1.97025e+08 155.652 4.36723e-08 2.29336e-07 3.75811e+07 3.56409e+09
8.72507 164.862 0.489662 3.91954e-08 2.32497e+08 164.59 3.91307e-08 1.97503e-07 4.61401e+07 4.20617e+09
9.22037 174.426 0.577876 3.51388e-08 2.74404e+08 174.135 3.50802e-08 1.70014e-07 5.67142e+07 4.96392e+09
9.74378 184.969 0.681982 3.15745e-08 3.2382e+08 184.654 3.15206e-08 1.46289e-07 6.98922e+07 5.85818e+09
10.2969 196.788 0.804843 2.84641e-08 3.82165e+08 196.441 2.84139e-08 1.25822e-07 8.6455e+07 6.91355e+09
10.8814 210.807 0.949838 2.58372e-08 4.51027e+08 210.406 2.57881e-08 1.08175e-07 1.07726e+08 8.15905e+09
11.4992 228.84 1.12095 2.37659e-08 5.32251e+08 228.355 2.37155e-08 9.29669e-08 1.36064e+08 9.62892e+09
12.1519 254.211 1.3229 2.23707e-08 6.28157e+08 253.574 2.23146e-08 7.98658e-08 1.75949e+08 1.13636e+10
12.8418 282.739 1.56122 2.10829e-08 3.82727e+08 292.644 2.18216e-08 6.85852e-08 1.17649e+08 1.34108e+10
13.5708 0 1.84248 0 0 0 0 5.88765e-08 0 1.58268e+10
14.3411 0 2.17441 0 0 0 0 5.05241e-08 0 1.8678e+10
15.1552 0 2.56613 0 0 0 0 4.33417e-08 0 2.20429e+10
16.0156 0 3.02843 0 0 0 0 3.71677e-08 0 2.6014e+10
16.9247 0 3.574 0 0 0 0 3.18628e-08 0 3.07005e+10
17.8855 0 4.21787 0 0 0 0 2.73063e-08 0 3.62312e+10
18.9008 0 4.97773 0 0 0 0 2.33941e-08 0 4.27584e+10
19.9738 0 5.87448 0 0 0 0 2.00364e-08 0 5.04614e+10
21.1076 0 6.93279 0 0 0 0 1.71555e-08 0 5.95522e+10
22.3058 0 8.18175 0 0 0 0 1.46847e-08 0 7.02807e+10
23.5721 0 9.65571 0 0 0 0 1.25662e-08 0 8.29419e+10
24.9102 0 11.3952 0 0 0 0 1.07504e-08 0 9.78842e+10
26.3243 0 13.4481 0 0 0 0 9.19452e-09 0 1.15518e+11
27.8187 0 15.8708 0 0 0 0 7.86182e-09 0 1.36329e+11
29.3979 0 18.73 0 0 0 0 6.72061e-09 0 1.60889e+11
31.0667 0 22.1042 0 0 0 0 5.74366e-09 0 1.89874e+11
32.8303 0 26.0864 0 0 0 0 4.90756e-09 0 2.2408e+11
34.694 0 30.7859 0 0 0 0 4.19221e-09 0 2.64449e+11
36.6634 0 36.3321 0 0 0 0 3.58032e-09 0 3.1209e+11
38.7447 0 42.8774 0 0 0 0 3.05709e-09 0 3.68314e+11
40.9442 0 50.6018 0 0 0 0 2.60976e-09 0 4.34667e+11
43.2685 0 59.7179 0 0 0 0 2.22743e-09 0 5.12973e+11
45.7247 0 70.4762 0 0 0 0 1.90073e-09 0 6.05386e+11
48.3204 0 83.1727 0 0 0 0 1.62163e-09 0 7.14448e+11
51.0634 0 98.1565 0 0 0 0 1.38326e-09 0 8.43158e+11
53.9621 0 115.84 0 0 0 0 1.1797e-09 0 9.95055e+11
57.0254 0 136.709 0 0 0 0 1.00592e-09 0 1.17432e+12
60.2626 0 161.337 0 0 0 0 8.57591e-10 0 1.38587e+12
63.6835 0 190.402 0 0 0 0 7.3101e-10 0 1.63554e+12
67.2987 0 224.704 0 0 0 0 6.23009e-10 0 1.93019e+12
71.1191 0 265.185 0 0 0 0 5.30879e-10 0 2.27792e+12
75.1563 0 312.958 0 0 0 0 4.52303e-10 0 2.68829e+12
79.4227 0 369.339 0 0 0 0 3.85299e-10 0 3.17259e+12
83.9313 0 435.876 0 0 0 0 3.28173e-10 0 3.74415e+12
88.6959 0 514.4 0 0 0 0 2.79476e-10 0 4.41866e+12
93.7309 0 607.071 0 0 0 0 2.37972e-10 0 5.2147e+12
99.0518 0 716.436 0 0 0 0 2.02605e-10 0 6.15414e+12
104.675 0 845.504 0 0 0 0 1.72471e-10 0 7.26283e+12
110.617 0 997.824 0 0 0 0 1.468e-10 0 8.57124e+12
116.896 0 1177.58 0 0 0 0 1.24935e-10 0 1.01154e+13
123.532 0 1389.73 0 0 0 0 1.06313e-10 0 1.19377e+13
130.545 0 1640.09 0 0 0 0 9.04567e-11 0 1.40883e+13
137.955 0 1935.56 0 0 0 0 7.69563e-11 0 1.66263e+13
145.787 0 2284.26 0 0 0 0 6.54636e-11 0 1.96216e+13
154.063 0 2695.77 0 0 0 0 5.56812e-11 0 2.31565e+13
162.808 0 3181.42 0 0 0 0 4.73556e-11 0 2.73282e+13
172.051 0 3754.56 0 0 0 0 4.02708e-11 0 3.22515e+13
181.818 0 4430.96 0 0 0 0 3.42426e-11 0 3.80616e+13
192.139 0 5229.21 0 0 0 0 2.91139e-11 0 4.49186e+13
203.046 0 6171.26 0 0 0 0 2.4751e-11 0 5.30108e+13
214.572 0 7283.03 0 0 0 0 2.10401e-11 0 6.25608e+13
226.753 0 8595.09 0 0 0 0 1.78839e-11 0 7.38313e+13
239.625 0 10143.5 0 0 0 0 1.51999e-11 0 8.71322e+13
253.228 0 11970.9 0 0 0 0 1.29176e-11 0 1.02829e+14
267.603 0 14127.5 0 0 0 0 1.09771e-11 0 1.21354e+14
282.795 0 16672.6 0 0 0 0 9.3274e-12 0 1.43217e+14
298.848 0 19676.2 0 0 0 0 7.925e-12 0 1.69017e+14
315.813 0 23220.9 0 0 0 0 6.73295e-12 0 1.99466e+14
333.741 0 27404.3 0 0 0 0 5.71979e-12 0 2.35401e+14
352.686 0 32341.2 0 0 0 0 4.85874e-12 0 2.77809e+14
372.707 0 38167.6 0 0 0 0 4.12703e-12 0 3.27857e+14
393.865 0 45043.5 0 0 0 0 3.50528e-12 0 3.86921e+14
416.224 0 53158.3 0 0 0 0 2.97701e-12 0 4.56626e+14
439.852 0 62734.9 0 0 0 0 2.52819e-12 0 5.38888e+14
464.821 0 74036.7 0 0 0 0 2.1469e-12 0 6.35971e+14
491.207 0 87374.6 0 0 0 0 1.82301e-12 0 7.50542e+14
519.092 0 103115 0 0 0 0 1.54789e-12 0 8.85755e+14
548.56 0 121692 0 0 0 0 1.31422e-12 0 1.04533e+15
579.7 0 143615 0 0 0 0 1.11576e-12 0 1.23364e+15
612.608 0 169488 0 0 0 0 9.47223e-13 0 1.45589e+15
647.384 0 200021 0 0 0 0 8.041e-13 0 1.71817e+15
684.134 0 236056 0 0 0 0 6.82568e-13 0 2.0277e+15
722.971 0 278582 0 0 0 0 5.79376e-13 0 2.393e+15
764.012 0 328769 0 0 0 0 4.91762e-13 0 2.8241e+15
