0.66193
200
1.0655e+09
8589934592
0.0129181 0 1.58924e-09 0 0 0 0 0.00677225 0 13.6515
0.0136515 0 1.87554e-09 0 0 0 0 0.00688819 0 16.1108
0.0144264 0 2.21343e-09 0 0 0 0 0.00699249 0 19.0132
0.0152454 0 2.61218e-09 0 0 0 0 0.00708412 0 22.4385
0.0161108 0 3.08278e-09 0 0 0 0 0.00716212 0 26.4808
0.0170254 0 3.63815e-09 0 0 0 0 0.00722559 0 31.2514
0.0179919 0 4.29357e-09 0 0 0 0 0.00727371 0 36.8815
0.0190132 0 5.06707e-09 0 0 0 0 0.00730578 0 43.5258
0.0200925 0 5.97991e-09 0 0 0 0 0.00732122 0 51.367
0.0212331 0 7.05721e-09 0 0 0 0 0.00731958 0 60.621
0.0224385 0 8.32858e-09 0 0 0 0 0.00730056 0 71.542
0.0237123 0 9.829e-09 0 0 0 0 0.00726401 0 84.4305
0.0250583 0 1.15997e-08 0 0 0 0 0.00720995 0 99.6408
0.0264808 0 1.36894e-08 0 0 0 0 0.00713857 0 117.591
0.0279841 0 1.61556e-08 0 0 0 0 0.00705021 0 138.776
0.0295727 0 1.90661e-08 0 0 0 0 0.00694538 0 163.777
0.0312514 0 2.25009e-08 0 0 0 0 0.00682475 0 193.281
0.0330255 0 2.65545e-08 0 0 0 0 0.00668915 0 228.102
0.0349003 0 3.13384e-08 0 0 0 0 0.00653951 0 269.195
0.0368815 0 3.69841e-08 0 0 0 0 0.00637693 0 317.691
0.0389751 0 4.36469e-08 0 0 0 0 0.00620256 0 374.924
0.0411876 0 5.151e-08 0 0 0 0 0.00601767 0 442.467
0.0435258 0 6.07896e-08 0 0 0 0 0.00582358 0 522.179
0.0459966 0 7.1741e-08 0 0 0 0 0.00562166 0 616.251
0.0486077 0 8.46654e-08 0 0 0 0 0.0054133 0 727.27
0.051367 0 9.99181e-08 0 0 0 0 0.00519989 0 858.29
0.054283 0 1.17919e-07 0 0 0 0 0.0049828 0 1012.91
0.0573645 0 1.39162e-07 0 0 0 0 0.00476339 0 1195.39
0.060621 0 1.64232e-07 0 0 0 0 0.00454293 0 1410.75
0.0640622 0 1.93819e-07 0 0 0 0 0.00432265 0 1664.89
0.0676989 0 2.28736e-07 0 0 0 0 0.00410371 0 1964.83
0.071542 0 2.69944e-07 0 0 0 0 0.00388717 0 2318.8
0.0756032 0 3.18575e-07 0 0 0 0 0.00367401 0 2736.54
0.079895 0 3.75967e-07 0 0 0 0 0.0034651 0 3229.53
0.0844305 0 4.43698e-07 0 0 0 0 0.00326121 0 3811.34
0.0892234 0 5.23632e-07 0 0 0 0 0.00306301 0 4497.96
0.0942883 0 6.17966e-07 0 0 0 0 0.00287109 0 5308.28
0.0996408 0 7.29294e-07 0 0 0 0 0.00268591 0 6264.59
0.105297 0 8.60678e-07 0 0 0 0 0.00250785 0 7393.17
0.111275 0 1.01573e-06 0 0 0 0 0.00233721 0 8725.07
0.117591 0 1.19872e-06 0 0 0 0 0.00217419 0 10296.9
0.124267 0 1.41467e-06 0 0 0 0 0.00201893 0 12151.9
0.131321 0 1.66953e-06 0 0 0 0 0.00187147 0 14341.1
0.138776 0 1.9703e-06 0 0 0 0 0.00173182 0 16924.7
0.146654 0 2.32525e-06 0 0 0 0 0.00159991 0 19973.8
0.154979 0 2.74415e-06 0 0 0 0 0.00147563 0 23572.1
0.163777 0 3.23852e-06 0 0 0 0 0.00135884 0 27818.7
0.173074 0 3.82195e-06 0 0 0 0 0.00124933 0 32830.3
0.182899 0 4.51048e-06 0 0 0 0 0.00114689 0 38744.7
0.193281 0 5.32305e-06 0 0 0 0 0.00105127 0 45724.7
0.204254 0 6.28202e-06 0 0 0 0 0.000962209 0 53962.1
0.215848 0 7.41374e-06 0 0 0 0 0.000879423 0 63683.5
0.228102 0 8.74934e-06 0 0 0 0 0.000802624 0 75156.3
0.24105 0 1.03256e-05 0 0 0 0 0.000731515 0 88695.9
0.254734 0 1.21857e-05 0 0 0 0 0.000665798 0 104675
0.269195 0 1.4381e-05 0 0 0 0 0.000605173 0 123532
0.284476 0 1.69718e-05 0 0 0 0 0.000549345 0 145787
0.300625 0 2.00293e-05 0 0 0 0 0.000498021 0 172051
0.317691 0 2.36377e-05 0 0 0 0 0.000450916 0 203046
0.335725 0 2.78961e-05 0 0 0 0 0.000407755 0 239625
0.354784 0 3.29216e-05 0 0 0 0 0.000368269 0 282795
0.374924 0 3.88525e-05 0 0 0 0 0.000332202 0 333741
0.396207 2.52256 4.58519e-05 6.40462e-06 6 2.45243 6.22656e-06 0.000299307 0.128389 393865
0.418699 0 5.41123e-05 0 0 0 0 0.00026935 0 464821
0.442467 0 6.38607e-05 0 0 0 0 0.000242108 0 548560
0.467585 0 7.53654e-05 0 0 0 0 0.00021737 0 647384
0.494129 0 8.89427e-05 0 0 0 0 0.000194938 0 764012
0.522179 0 0.000104966 0 0 0 0 0.000174625 0 901651
0.551822 0 0.000123876 0 0 0 0 0.000156255 0 1.06409e+06
0.583147 4.22112 0.000146192 3.36134e-06 12 4.44275 3.53783e-06 0.000139664 0.288808 1.25578e+06
0.616251 0 0.000172529 0 0 0 0 0.0001247 0 1.48202e+06
0.651234 0 0.000203611 0 0 0 0 0.00011122 0 1.74901e+06
0.688203 20.9594 0.000240292 1.01543e-05 8 20.438 9.90166e-06 9.90935e-05 0.819775 2.06409e+06
0.72727 0 0.000283581 0 0 0 0 8.81969e-05 0 2.43595e+06
0.768555 0 0.000334669 0 0 0 0 7.84179e-05 0 2.87479e+06
0.812184 8.1834 0.000394961 2.41207e-06 6 8.35836 2.46364e-06 6.96525e-05 0.20778 3.39269e+06
0.85829 0 0.000466114 0 0 0 0 6.1805e-05 0 4.00389e+06
0.907013 0.800613 0.000550086 1.69435e-07 24 0.815975 1.72686e-07 5.47875e-05 0.074222 4.7252e+06
0.958501 4.01712 0.000649185 7.2037e-07 24 3.78182 6.78175e-07 4.85194e-05 0.356329 5.57646e+06
1.01291 0 0.000766138 0 0 0 0 4.29272e-05 0 6.58107e+06
1.07041 0 0.00090416 0 0 0 0 3.79435e-05 0 7.76667e+06
1.13118 5.83368 0.00106705 6.36457e-07 12 5.76202 6.28639e-07 3.3507e-05 0.227937 9.16586e+06
1.19539 4.53001 0.00125928 4.18781e-07 30 4.43662 4.10148e-07 2.9562e-05 0.424986 1.08171e+07
1.26325 7.74576 0.00148614 6.06757e-07 24 7.62921 5.97627e-07 2.60578e-05 0.55884 1.27658e+07
1.33496 18.9952 0.00175387 1.26083e-06 24 19.0369 1.2636e-06 2.29484e-05 1.3186 1.50656e+07
1.41075 18.2434 0.00206984 1.02608e-06 32 18.6408 1.04843e-06 2.01923e-05 1.62609 1.77798e+07
1.49083 3.70594 0.00244272 1.76618e-07 48 3.62694 1.72853e-07 1.77518e-05 0.477567 2.09828e+07
1.57546 21.9554 0.00288279 8.86624e-07 6 20.9065 8.44266e-07 1.55929e-05 0.341165 2.4763e+07
1.66489 3.20943 0.00340213 1.09821e-07 84 3.13741 1.07357e-07 1.3685e-05 0.674095 2.92241e+07
1.75941 7.77208 0.00401503 2.25351e-07 48 7.72701 2.24044e-07 1.20007e-05 0.901351 3.44889e+07
1.85928 6.47527 0.00473835 1.59089e-07 72 6.48608 1.59355e-07 1.05151e-05 1.08933 4.07021e+07
1.96483 12.2362 0.00559198 2.54736e-07 54 11.897 2.47675e-07 9.20606e-06 1.49421 4.80347e+07
2.07637 17.0584 0.00659939 3.00916e-07 104 17.1517 3.02561e-07 8.05366e-06 3.88585 5.66883e+07
2.19424 5.54083 0.00778828 8.28215e-08 120 5.6342 8.42172e-08 7.04008e-06 1.41172 6.69008e+07
2.3188 7.25514 0.00919136 9.18917e-08 156 7.06856 8.95284e-08 6.1494e-06 2.33114 7.89532e+07
2.45043 10.1404 0.0108472 1.0883e-07 126 10.0497 1.07856e-07 5.36741e-06 2.55479 9.31768e+07
2.58954 10.4161 0.0128014 9.47235e-08 192 10.4776 9.52829e-08 4.68145e-06 3.88489 1.09963e+08
2.73654 31.4601 0.0151076 2.42424e-07 152 31.7661 2.44782e-07 4.08023e-06 9.03097 1.29773e+08
2.89188 13.5917 0.0178292 8.87463e-08 378 13.7261 8.96239e-08 3.55373e-06 9.43968 1.53152e+08
3.05605 14.8883 0.0210412 8.2373e-08 264 14.6699 8.11648e-08 3.09304e-06 7.03077 1.80743e+08
3.22953 14.5558 0.0248319 6.82398e-08 366 14.4482 6.77354e-08 2.69025e-06 9.28379 2.13304e+08
3.41286 16.9529 0.0293054 6.73452e-08 428 16.7476 6.65295e-08 2.33837e-06 12.3264 2.51731e+08
3.6066 17.0504 0.0345848 5.73929e-08 486 16.8794 5.68175e-08 2.0312e-06 13.7322 2.97081e+08
3.81134 14.2699 0.0408154 4.07011e-08 600 14.2497 4.06437e-08 1.76327e-06 13.8497 3.50601e+08
4.0277 21.7024 0.0481684 5.24512e-08 738 21.6521 5.23297e-08 1.52972e-06 25.3046 4.13763e+08
4.25634 20.6174 0.056846 4.22226e-08 824 20.5429 4.207e-08 1.32631e-06 26.2318 4.88304e+08
4.49796 22.3944 0.067087 3.88608e-08 954 22.2557 3.86201e-08 1.14926e-06 32.2584 5.76273e+08
4.7533 21.037 0.0791729 3.09327e-08 1094 20.9986 3.08762e-08 9.95263e-07 34.0015 6.8009e+08
5.02313 23.7725 0.0934361 2.9619e-08 1332 23.8641 2.97331e-08 8.61414e-07 45.7997 8.0261e+08
5.30828 30.6463 0.110269 3.23546e-08 1614 30.6408 3.23487e-08 7.45152e-07 70.08 9.47202e+08
5.60962 32.0009 0.130134 2.86274e-08 1850 31.9479 2.858e-08 6.44232e-07 82.2074 1.11784e+09
5.92807 29.3284 0.153578 2.22316e-08 2238 29.3876 2.22764e-08 5.56685e-07 89.3758 1.31923e+09
6.26459 30.4009 0.181246 1.95267e-08 2546 30.514 1.95994e-08 4.80786e-07 103.404 1.55689e+09
6.62021 32.6979 0.213898 1.77961e-08 3264 32.7547 1.7827e-08 4.15026e-07 139.959 1.83737e+09
6.99602 36.0082 0.252432 1.66061e-08 3506 36.0666 1.66331e-08 3.58083e-07 162.591 2.16837e+09
7.39317 37.6713 0.297908 1.47211e-08 4506 37.6586 1.47161e-08 3.08803e-07 214.807 2.55901e+09
7.81286 43.845 0.351577 1.45181e-08 5018 43.7081 1.44728e-08 2.66181e-07 273.693 3.02002e+09
8.25637 44.7247 0.414914 1.25487e-08 5852 44.6779 1.25356e-08 2.29336e-07 320.207 3.56409e+09
8.72507 46.9394 0.489662 1.11597e-08 7362 46.8146 1.113e-08 1.97503e-07 415.981 4.20617e+09
9.22037 47.3257 0.577876 9.53394e-09 8306 47.1714 9.50285e-09 1.70014e-07 465.778 4.96392e+09
9.74378 51.8642 0.681982 8.85329e-09 9698 51.8082 8.84373e-09 1.46289e-07 586.915 5.85818e+09
10.2969 55.058 0.804843 7.96377e-09 11816 54.9474 7.94778e-09 1.25822e-07 747.879 6.91355e+09
10.8814 61.7938 0.949838 7.57366e-09 13682 61.6898 7.56091e-09 1.08175e-07 957.914 8.15905e+09
11.4992 62.3634 1.12095 6.47667e-09 16152 62.2979 6.46988e-09 9.29669e-08 1125.25 9.62892e+09
12.1519 66.2386 1.3229 5.82902e-09 19472 66.1411 5.82044e-09 7.98658e-08 1421.17 1.13636e+10
12.8418 68.9549 1.56122 5.14175e-09 22670 68.7761 5.12842e-09 6.85852e-08 1699.54 1.34108e+10
13.5708 73.6016 1.84248 4.65045e-09 26224 73.5352 4.64625e-09 5.88765e-08 2071.34 1.58268e+10
14.3411 79.2059 2.17441 4.2406e-09 31640 79.1342 4.23676e-09 5.05241e-08 2655.61 1.8678e+10
15.1552 83.069 2.56613 3.76852e-09 37484 82.944 3.76284e-09 4.33417e-08 3259.2 2.20429e+10
16.0156 87.9924 3.02843 3.38251e-09 43856 87.8299 3.37626e-09 3.71677e-08 3991.18 2.6014e+10
16.9247 93.5184 3.574 3.04615e-09 51362 93.4413 3.04364e-09 3.18628e-08 4910.32 3.07005e+10
17.8855 98.2575 4.21787 2.71195e-09 61636 98.1171 2.70808e-09 2.73063e-08 6121.44 3.62312e+10
18.9008 102.132 4.97773 2.38858e-09 72218 101.951 2.38434e-09 2.33941e-08 7373.56 4.27584e+10
19.9738 108.536 5.87448 2.15086e-09 84586 108.357 2.14732e-09 2.00364e-08 9080.12 5.04614e+10
21.1076 115.699 6.93279 1.94281e-09 100708 115.509 1.93963e-09 1.71555e-08 11404.9 5.95522e+10
22.3058 122.131 8.18175 1.73775e-09 118712 121.901 1.73449e-09 1.46847e-08 14048.2 7.02807e+10
23.5721 126.62 9.65571 1.52661e-09 140410 126.353 1.52339e-09 1.25662e-08 17057.8 8.29419e+10
24.9102 134.423 11.3952 1.37328e-09 164374 134.215 1.37116e-09 1.07504e-08 20997.6 9.78842e+10
26.3243 141.802 13.4481 1.22753e-09 194680 141.63 1.22604e-09 9.19452e-09 25991.1 1.15518e+11
27.8187 147.923 15.8708 1.08504e-09 230196 147.694 1.08336e-09 7.86182e-09 31770.3 1.36329e+11
29.3979 155.403 18.73 9.65901e-10 271156 155.166 9.64425e-10 6.72061e-09 38971.1 1.60889e+11
31.0667 163.094 22.1042 8.58959e-10 321076 162.815 8.57491e-10 5.74366e-09 48016.6 1.89874e+11
32.8303 171.859 26.0864 7.66953e-10 377436 171.569 7.65657e-10 4.90756e-09 58985.7 2.2408e+11
34.694 180.939 30.7859 6.84213e-10 447594 180.576 6.8284e-10 4.19221e-09 73052.2 2.64449e+11
36.6634 189.661 36.3321 6.07713e-10 525078 189.311 6.06591e-10 3.58032e-09 89125.1 3.1209e+11
38.7447 198.8 42.8774 5.39756e-10 621924 198.431 5.38755e-10 3.05709e-09 109806 3.68314e+11
40.9442 208.635 50.6018 4.79989e-10 732630 208.26 4.79126e-10 2.60976e-09 134746 4.34667e+11
43.2685 219.759 59.7179 4.28402e-10 865596 219.402 4.27706e-10 2.22743e-09 166480 5.12973e+11
45.7247 230.141 70.4762 3.80156e-10 1.02168e+06 229.778 3.79556e-10 1.90073e-09 204340 6.05386e+11
48.3204 241.736 83.1727 3.38353e-10 1.20544e+06 241.296 3.37737e-10 1.62163e-09 251514 7.14448e+11
51.0634 252.985 98.1565 3.00044e-10 1.42103e+06 252.556 2.99536e-10 1.38326e-09 308238 8.43158e+11
53.9621 265.699 115.84 2.67019e-10 1.67997e+06 265.21 2.66528e-10 1.1797e-09 380251 9.95055e+11
57.0254 280.31 136.709 2.38701e-10 1.98018e+06 279.788 2.38256e-10 1.00592e-09 469888 1.17432e+12
60.2626 295.799 161.337 2.13438e-10 2.33957e+06 295.246 2.13039e-10 8.57591e-10 582275 1.38587e+12
63.6835 312.498 190.402 1.91067e-10 2.75676e+06 311.9 1.90701e-10 7.3101e-10 720546 1.63554e+12
67.2987 330.377 224.704 1.71163e-10 3.25638e+06 329.773 1.7085e-10 6.23009e-10 894644 1.93019e+12
71.1191 351.108 265.185 1.54135e-10 3.84387e+06 350.443 1.53843e-10 5.30879e-10 1.11603e+06 2.27792e+12
75.1563 374.479 312.958 1.393e-10 4.53277e+06 373.73 1.39021e-10 4.52303e-10 1.396e+06 2.68829e+12
79.4227 400.319 369.339 1.2618e-10 5.35083e+06 399.561 1.25942e-10 3.85299e-10 1.75232e+06 3.17259e+12
83.9313 430.836 435.876 1.15069e-10 6.32174e+06 429.937 1.14829e-10 3.28173e-10 2.21663e+06 3.74415e+12
88.6959 464.71 514.4 1.0517e-10 7.44986e+06 463.698 1.04941e-10 2.79476e-10 2.80346e+06 4.41866e+12
93.7309 504.832 607.071 9.68095e-11 8.79764e+06 503.72 9.65961e-11 2.37972e-10 3.57896e+06 5.2147e+12
99.0518 550.889 716.436 8.95151e-11 1.03827e+07 549.635 8.93114e-11 2.02605e-10 4.58729e+06 6.15414e+12
104.675 604.568 845.504 8.32415e-11 1.22515e+07 603.131 8.30435e-11 1.72471e-10 5.91308e+06 7.26283e+12
110.617 668.481 997.824 7.79912e-11 1.44573e+07 666.829 7.77984e-11 1.468e-10 7.68081e+06 8.57124e+12
116.896 744.635 1177.58 7.36142e-11 1.70664e+07 742.704 7.34233e-11 1.24935e-10 1.00559e+07 1.01154e+13
123.532 834.084 1389.73 6.98698e-11 2.0139e+07 831.857 6.96832e-11 1.06313e-10 1.32355e+07 1.19377e+13
130.545 941.294 1640.09 6.68139e-11 2.37643e+07 938.732 6.66321e-11 9.04567e-11 1.7553e+07 1.40883e+13
137.955 1067.74 1935.56 6.42198e-11 2.80503e+07 1064.72 6.40381e-11 7.69563e-11 2.34079e+07 1.66263e+13
145.787 1217.52 2284.26 6.20502e-11 3.30981e+07 1213.99 6.187e-11 6.54636e-11 3.13723e+07 1.96216e+13
154.063 1396.72 2695.77 6.03164e-11 3.90634e+07 1392.59 6.0138e-11 5.56812e-11 4.23153e+07 2.31565e+13
162.808 1609.15 3181.42 5.88822e-11 4.61057e+07 1604.24 5.87028e-11 4.73556e-11 5.7328e+07 2.73282e+13
172.051 1862.93 3754.56 5.77625e-11 5.44046e+07 1857.16 5.75837e-11 4.02708e-11 7.80353e+07 3.22515e+13
181.818 2164.28 4430.96 5.68626e-11 6.42064e+07 2157.49 5.66842e-11 3.42426e-11 1.0662e+08 3.80616e+13
192.139 2522.03 5229.21 5.61466e-11 7.57748e+07 2513.97 5.59674e-11 2.91139e-11 1.46133e+08 4.49186e+13
203.046 2949.11 6171.26 5.56322e-11 8.94213e+07 2939.58 5.54526e-11 2.4751e-11 2.0099e+08 5.30108e+13
214.572 3459.28 7283.03 5.52947e-11 1.05538e+08 3448 5.51144e-11 2.10401e-11 2.77362e+08 6.25608e+13
226.753 4069.22 8595.09 5.51151e-11 1.24552e+08 4055.72 5.49322e-11 1.78839e-11 3.83847e+08 7.38313e+13
239.625 4797.83 10143.5 5.50639e-11 1.46987e+08 4781.78 5.48796e-11 1.51999e-11 5.32482e+08 8.71322e+13
253.228 5675.05 11970.9 5.5189e-11 1.7347e+08 5655.81 5.50019e-11 1.29176e-11 7.4113e+08 1.02829e+14
267.603 6733.81 14127.5 5.54888e-11 2.04703e+08 6710.65 5.5298e-11 1.09771e-11 1.03476e+09 1.21354e+14
282.795 8019.78 16672.6 5.59976e-11 2.4161e+08 7991.8 5.58022e-11 9.3274e-12 1.45052e+09 1.43217e+14
298.848 9597.94 19676.2 5.67867e-11 2.85122e+08 9563.63 5.65837e-11 7.925e-12 2.04305e+09 1.69017e+14
315.813 11558.7 23220.9 5.7948e-11 3.36491e+08 11516.3 5.77354e-11 6.73295e-12 2.89606e+09 1.99466e+14
333.741 14029.4 27404.3 5.95978e-11 3.97115e+08 13976 5.93712e-11 5.71979e-12 4.13777e+09 2.35401e+14
352.686 17223.3 32341.2 6.19969e-11 4.68637e+08 17154.8 6.17505e-11 4.85874e-12 5.97975e+09 2.77809e+14
372.707 21471.1 38167.6 6.54892e-11 5.53074e+08 21380.5 6.52129e-11 4.12703e-12 8.77637e+09 3.27857e+14
393.865 27345.3 45043.5 7.0674e-11 6.52716e+08 27220.9 7.03526e-11 3.50528e-12 1.31602e+10 3.86921e+14
416.224 32288.4 53158.3 7.07108e-11 2.2184e+08 34158.1 7.48053e-11 2.97701e-12 5.26921e+09 4.56626e+14
439.852 0 62734.9 0 0 0 0 2.52819e-12 0 5.38888e+14
464.821 0 74036.7 0 0 0 0 2.1469e-12 0 6.35971e+14
491.207 0 87374.6 0 0 0 0 1.82301e-12 0 7.50542e+14
519.092 0 103115 0 0 0 0 1.54789e-12 0 8.85755e+14
548.56 0 121692 0 0 0 0 1.31422e-12 0 1.04533e+15
579.7 0 143615 0 0 0 0 1.11576e-12 0 1.23364e+15
612.608 0 169488 0 0 0 0 9.47223e-13 0 1.45589e+15
647.384 0 200021 0 0 0 0 8.041e-13 0 1.71817e+15
684.134 0 236056 0 0 0 0 6.82568e-13 0 2.0277e+15
722.971 0 278582 0 0 0 0 5.79376e-13 0 2.393e+15
764.012 0 328769 0 0 0 0 4.91762e-13 0 2.8241e+15
0.66193
200
1.0655e+09
8589934592
0.0129181 0.00113769 1.58924e-09 8.33383e-05 6 0.00112727 8.25754e-05 0.00677225 0.0738351 13.6515
0.0136515 0 1.87554e-09 0 0 0 0 0.00688819 0 16.1108
0.0144264 0 2.21343e-09 0 0 0 0 0.00699249 0 19.0132
0.0152454 0 2.61218e-09 0 0 0 0 0.00708412 0 22.4385
0.0161108 0 3.08278e-09 0 0 0 0 0.00716212 0 26.4808
0.0170254 0 3.63815e-09 0 0 0 0 0.00722559 0 31.2514
0.0179919 0.00276563 4.29357e-09 7.4987e-05 12 0.00276207 7.48904e-05 0.00727371 0.123712 36.8815
0.0190132 0 5.06707e-09 0 0 0 0 0.00730578 0 43.5258
0.0200925 0 5.97991e-09 0 0 0 0 0.00732122 0 51.367
0.0212331 0.0128248 7.05721e-09 0.000211557 8 0.0128136 0.000211372 0.00731958 0.231223 60.621
0.0224385 0 8.32858e-09 0 0 0 0 0.00730056 0 71.542
0.0237123 0 9.829e-09 0 0 0 0 0.00726401 0 84.4305
0.0250583 0.00899346 1.15997e-08 9.02588e-05 6 0.00898923 9.02163e-05 0.00720995 0.0751118 99.6408
0.0264808 0 1.36894e-08 0 0 0 0 0.00713857 0 117.591
0.0279841 0.0126655 1.61556e-08 9.12658e-05 24 0.0126525 9.11721e-05 0.00705021 0.310683 138.776
0.0295727 0 1.90661e-08 0 0 0 0 0.00694538 0 163.777
0.0312514 0.0130589 2.25009e-08 6.75639e-05 24 0.0131252 6.7907e-05 0.00682475 0.237596 193.281
0.0330255 0 2.65545e-08 0 0 0 0 0.00668915 0 228.102
0.0349003 0.022395 3.13384e-08 8.31927e-05 12 0.0222157 8.25266e-05 0.00653951 0.152658 269.195
0.0368815 0.0208806 3.69841e-08 6.57262e-05 30 0.0206583 6.50263e-05 0.00637693 0.309206 317.691
0.0389751 0.0244473 4.36469e-08 6.52061e-05 24 0.0241958 6.45353e-05 0.00620256 0.252307 374.924
0.0411876 0.0351872 5.151e-08 7.9525e-05 24 0.0349483 7.89849e-05 0.00601767 0.317166 442.467
0.0435258 0.0386232 6.07896e-08 7.39655e-05 8 0.0386203 7.39599e-05 0.00582358 0.101608 522.179
0.0459966 0.0267032 7.1741e-08 4.33317e-05 72 0.0266177 4.31929e-05 0.00562166 0.554975 616.251
0.0486077 0 8.46654e-08 0 0 0 0 0.0054133 0 727.27
0.051367 0.0559013 9.99181e-08 6.51311e-05 54 0.0556919 6.4887e-05 0.00519989 0.676375 858.29
0.054283 0.0643915 1.17919e-07 6.35706e-05 60 0.0648216 6.39952e-05 0.0049828 0.76548 1012.91
0.0573645 0.0701721 1.39162e-07 5.87022e-05 96 0.0698417 5.84257e-05 0.00476339 1.18307 1195.39
0.060621 0.076078 1.64232e-07 5.39275e-05 24 0.0750473 5.31969e-05 0.00454293 0.284896 1410.75
0.0640622 0.1048 1.93819e-07 6.29469e-05 134 0.104723 6.29006e-05 0.00432265 1.95132 1664.89
0.0676989 0.0965426 2.28736e-07 4.91353e-05 120 0.0958529 4.87843e-05 0.00410371 1.43681 1964.83
0.071542 0.107829 2.69944e-07 4.6502e-05 108 0.10627 4.58298e-05 0.00388717 1.292 2318.8
0.0756032 0.134835 3.18575e-07 4.92722e-05 174 0.134095 4.90017e-05 0.00367401 2.33352 2736.54
0.079895 0.134987 3.75967e-07 4.17977e-05 168 0.1336 4.13682e-05 0.0034651 2.0265 3229.53
0.0844305 0.145923 4.43698e-07 3.82865e-05 168 0.14635 3.83985e-05 0.00326121 1.97231 3811.34
0.0892234 0.148092 5.23632e-07 3.29242e-05 290 0.147316 3.27518e-05 0.00306301 3.1172 4497.96
0.0942883 0.157972 6.17966e-07 2.97596e-05 288 0.158237 2.98095e-05 0.00287109 2.98519 5308.28
0.0996408 0.173996 7.29294e-07 2.77745e-05 366 0.173038 2.76216e-05 0.00268591 3.78474 6264.59
0.105297 0.171622 8.60678e-07 2.32136e-05 420 0.170501 2.3062e-05 0.00250785 3.88768 7393.17
0.111275 0.201589 1.01573e-06 2.31046e-05 398 0.201004 2.30376e-05 0.00233721 3.93444 8725.07
0.117591 0.213097 1.19872e-06 2.06952e-05 624 0.213198 2.0705e-05 0.00217419 5.93958 10296.9
0.124267 0.248633 1.41467e-06 2.04604e-05 642 0.248484 2.04482e-05 0.00201893 6.50622 12151.9
0.131321 0.301323 1.66953e-06 2.10111e-05 800 0.30158 2.1029e-05 0.00187147 8.98165 14341.1
0.138776 0.306519 1.9703e-06 1.81107e-05 858 0.307548 1.81715e-05 0.00173182 8.97266 16924.7
0.146654 0.360697 2.32525e-06 1.80586e-05 1080 0.363074 1.81775e-05 0.00159991 12.1902 19973.8
0.154979 0.35528 2.74415e-06 1.50721e-05 1286 0.358092 1.51913e-05 0.00147563 13.1352 23572.1
0.163777 0.385795 3.23852e-06 1.38682e-05 1650 0.386789 1.39039e-05 0.00135884 16.8398 27818.7
0.173074 0.405823 3.82195e-06 1.23613e-05 1778 0.405796 1.23604e-05 0.00124933 17.5921 32830.3
0.182899 0.456695 4.51048e-06 1.17873e-05 2112 0.457933 1.18192e-05 0.00114689 21.7063 38744.7
0.193281 0.51822 5.32305e-06 1.13335e-05 2570 0.518934 1.13491e-05 0.00105127 27.7065 45724.7
0.204254 0.548222 6.28202e-06 1.01594e-05 3030 0.547105 1.01387e-05 0.000962209 31.9919 53962.1
0.215848 0.620019 7.41374e-06 9.73594e-06 3434 0.620098 9.73718e-06 0.000879423 38.0172 63683.5
0.228102 0.651605 8.74934e-06 8.67e-06 4218 0.651896 8.67388e-06 0.000802624 45.5631 75156.3
0.24105 0.689964 1.03256e-05 7.77898e-06 4766 0.690331 7.78312e-06 0.000731515 50.682 88695.9
0.254734 0.780478 1.21857e-05 7.45622e-06 6026 0.780018 7.45182e-06 0.000665798 67.4847 104675
0.269195 0.869263 1.4381e-05 7.03673e-06 6480 0.869219 7.03638e-06 0.000605173 75.3471 123532
0.284476 0.902664 1.69718e-05 6.19167e-06 8162 0.903595 6.19806e-06 0.000549345 91.994 145787
0.300625 1.00375 2.00293e-05 5.83402e-06 9578 1.00266 5.8277e-06 0.000498021 112.201 172051
0.317691 1.11441 2.36377e-05 5.48846e-06 11234 1.11387 5.48579e-06 0.000450916 136.738 203046
0.335725 1.2181 2.78961e-05 5.08334e-06 13344 1.2175 5.08085e-06 0.000407755 166.355 239625
0.354784 1.35478 3.29216e-05 4.79068e-06 15464 1.35332 4.78552e-06 0.000368269 201.166 282795
0.374924 1.423 3.88525e-05 4.26378e-06 18458 1.42246 4.26217e-06 0.000332202 236.907 333741
0.396207 1.59016 4.58519e-05 4.03733e-06 22232 1.58639 4.02775e-06 0.000299307 299.886 393865
0.418699 1.77765 5.41123e-05 3.82438e-06 25628 1.77371 3.81589e-06 0.00026935 363.881 464821
0.442467 1.97338 6.38607e-05 3.59738e-06 30320 1.96842 3.58834e-06 0.000242108 450.512 548560
0.467585 2.1281 7.53654e-05 3.28722e-06 35452 2.12501 3.28245e-06 0.00021737 536.13 647384
0.494129 2.35538 8.89427e-05 3.08291e-06 41792 2.35406 3.08118e-06 0.000194938 660.932 764012
0.522179 2.59938 0.000104966 2.88291e-06 49988 2.59795 2.88132e-06 0.000174625 825.26 901651
0.551822 2.88268 0.000123876 2.70906e-06 59110 2.87975 2.70631e-06 0.000156255 1024.82 1.06409e+06
0.583147 3.18988 0.000146192 2.54015e-06 69716 3.18482 2.53612e-06 0.000139664 1267.96 1.25578e+06
0.616251 3.53031 0.000172529 2.3821e-06 82210 3.52313 2.37725e-06 0.0001247 1570.43 1.48202e+06
0.651234 3.90046 0.000203611 2.2301e-06 96722 3.89248 2.22554e-06 0.00011122 1939.39 1.74901e+06
0.688203 4.34101 0.000240292 2.10311e-06 113098 4.3335 2.09947e-06 9.90935e-05 2400.33 2.06409e+06
0.72727 4.8425 0.000283581 1.98793e-06 135190 4.83426 1.98455e-06 8.81969e-05 3047.14 2.43595e+06
0.768555 5.36547 0.000334669 1.86639e-06 158170 5.35701 1.86344e-06 7.84179e-05 3764.53 2.87479e+06
0.812184 5.96522 0.000394961 1.75826e-06 188560 5.95495 1.75523e-06 6.96525e-05 4759.87 3.39269e+06
0.85829 6.64226 0.000466114 1.65895e-06 220444 6.62978 1.65583e-06 6.1805e-05 5917.09 4.00389e+06
0.907013 7.38719 0.000550086 1.56336e-06 261388 7.37458 1.56069e-06 5.47875e-05 7458.7 4.7252e+06
0.958501 8.28795 0.000649185 1.48624e-06 308244 8.27439 1.48381e-06 4.85194e-05 9442.07 5.57646e+06
1.01291 9.17335 0.000766138 1.3939e-06 364396 9.15612 1.39128e-06 4.29272e-05 11832.4 6.58107e+06
1.07041 10.2572 0.00090416 1.32067e-06 429162 10.2383 1.31823e-06 3.79435e-05 14937.5 7.76667e+06
1.13118 11.4335 0.00106705 1.2474e-06 506358 11.4141 1.24528e-06 3.3507e-05 18850.7 9.16586e+06
1.19539 12.7078 0.00125928 1.17479e-06 598590 12.6844 1.17263e-06 2.9562e-05 23787.8 1.08171e+07
1.26325 14.1715 0.00148614 1.11011e-06 704844 14.1457 1.10809e-06 2.60578e-05 30027.7 1.27658e+07
1.33496 15.7702 0.00175387 1.04676e-06 834620 15.7394 1.04472e-06 2.29484e-05 38070.1 1.50656e+07
1.41075 17.4937 0.00206984 9.83912e-07 981444 17.4594 9.8198e-07 2.01923e-05 47822.9 1.77798e+07
1.49083 19.4677 0.00244272 9.27792e-07 1.15998e+06 19.4325 9.26113e-07 1.77518e-05 60625.9 2.09828e+07
1.57546 21.5195 0.00288279 8.69021e-07 1.36931e+06 21.4797 8.67412e-07 1.55929e-05 76314.3 2.4763e+07
1.66489 23.8657 0.00340213 8.16646e-07 1.61652e+06 23.8194 8.1506e-07 1.3685e-05 96464.7 2.92241e+07
1.75941 26.3326 0.00401503 7.63509e-07 1.90601e+06 26.2819 7.6204e-07 1.20007e-05 121264 3.44889e+07
1.85928 28.9459 0.00473835 7.11165e-07 2.24913e+06 28.8939 7.09887e-07 1.05151e-05 152115 4.07021e+07
1.96483 31.8936 0.00559198 6.63969e-07 2.65744e+06 31.8332 6.62713e-07 9.20606e-06 191663 4.80347e+07
2.07637 35.0018 0.00659939 6.17443e-07 3.13125e+06 34.9358 6.16278e-07 8.05366e-06 240061 5.66883e+07
2.19424 38.3058 0.00778828 5.72575e-07 3.69915e+06 38.2384 5.71568e-07 7.04008e-06 300855 6.69008e+07
2.3188 41.6889 0.00919136 5.28021e-07 4.36472e+06 41.6118 5.27044e-07 6.1494e-06 374779 7.89532e+07
2.45043 45.4594 0.0108472 4.87883e-07 5.14913e+06 45.3767 4.86996e-07 5.36741e-06 468042 9.31768e+07
2.58954 49.3166 0.0128014 4.48484e-07 6.07894e+06 49.2296 4.47693e-07 4.68145e-06 582364 1.09963e+08
2.73654 53.5025 0.0151076 4.12277e-07 7.17304e+06 53.4104 4.11568e-07 4.08023e-06 724783 1.29773e+08
2.89188 57.8768 0.0178292 3.77904e-07 8.46557e+06 57.7788 3.77264e-07 3.55373e-06 900230 1.53152e+08
3.05605 62.4728 0.0210412 3.45645e-07 9.98773e+06 62.3659 3.45053e-07 3.09304e-06 1.11612e+06 1.80743e+08
3.22953 67.3172 0.0248319 3.15593e-07 1.1797e+07 67.2018 3.15052e-07 2.69025e-06 1.38391e+06 2.13304e+08
3.41286 72.3523 0.0293054 2.87419e-07 1.39144e+07 72.2281 2.86925e-07 2.33837e-06 1.71027e+06 2.51731e+08
3.6066 77.7021 0.0345848 2.61552e-07 1.64163e+07 77.5708 2.6111e-07 2.0312e-06 2.11388e+06 2.97081e+08
3.81134 83.3754 0.0408154 2.37807e-07 1.93821e+07 83.2383 2.37416e-07 1.76327e-06 2.61402e+06 3.50601e+08
4.0277 89.3329 0.0481684 2.15903e-07 2.28754e+07 89.1845 2.15545e-07 1.52972e-06 3.22861e+06 4.13763e+08
4.25634 95.4894 0.056846 1.95553e-07 2.69929e+07 95.3319 1.95231e-07 1.32631e-06 3.97989e+06 4.88304e+08
4.49796 101.982 0.067087 1.76968e-07 3.18542e+07 101.812 1.76673e-07 1.14926e-06 4.90505e+06 5.76273e+08
4.7533 108.71 0.0791729 1.59847e-07 3.75892e+07 108.532 1.59584e-07 9.95263e-07 6.03711e+06 6.8009e+08
5.02313 115.715 0.0934361 1.44173e-07 4.43706e+07 115.525 1.43937e-07 8.61414e-07 7.42621e+06 8.0261e+08
5.30828 123.112 0.110269 1.29974e-07 5.23593e+07 122.91 1.29761e-07 7.45152e-07 9.13284e+06 9.47202e+08
5.60962 130.799 0.130134 1.1701e-07 6.1787e+07 130.586 1.1682e-07 6.44232e-07 1.12222e+07 1.11784e+09
5.92807 138.879 0.153578 1.05273e-07 7.29346e+07 138.65 1.05099e-07 5.56685e-07 1.37924e+07 1.31923e+09
6.26459 147.293 0.181246 9.46073e-08 8.60651e+07 147.052 9.44522e-08 4.80786e-07 1.69356e+07 1.55689e+09
6.62021 156.157 0.213898 8.49894e-08 1.01558e+08 155.9 8.48495e-08 4.15026e-07 2.07972e+07 1.83737e+09
6.99602 165.346 0.252432 7.62535e-08 1.1986e+08 165.075 7.61285e-08 3.58083e-07 2.55241e+07 2.16837e+09
7.39317 175.022 0.297908 6.83946e-08 1.41457e+08 174.738 6.82834e-08 3.08803e-07 3.13302e+07 2.55901e+09
7.81286 185.093 0.351577 6.12885e-08 1.66936e+08 184.789 6.11878e-08 2.66181e-07 3.84372e+07 3.02002e+09
8.25637 195.758 0.414914 5.49251e-08 1.97025e+08 195.437 5.4835e-08 2.29336e-07 4.71868e+07 3.56409e+09
8.72507 207.03 0.489662 4.92207e-08 2.32497e+08 206.69 4.91396e-08 1.97503e-07 5.79416e+07 4.20617e+09
9.22037 219.043 0.577876 4.4127e-08 2.74404e+08 218.678 4.40534e-08 1.70014e-07 7.12213e+07 4.96392e+09
9.74378 232.091 0.681982 3.96182e-08 3.2382e+08 231.694 3.95505e-08 1.46289e-07 8.76973e+07 5.85818e+09
10.2969 246.881 0.804843 3.57098e-08 3.82165e+08 246.446 3.56468e-08 1.25822e-07 1.08462e+08 6.91355e+09
10.8814 264.366 0.949838 3.24016e-08 4.51027e+08 263.866 3.23402e-08 1.08175e-07 1.35095e+08 8.15905e+09
11.4992 286.753 1.12095 2.97804e-08 5.32251e+08 286.149 2.97176e-08 9.29669e-08 1.70498e+08 9.62892e+09
12.1519 318.39 1.3229 2.80184e-08 6.28157e+08 317.595 2.79484e-08 7.98658e-08 2.20369e+08 1.13636e+10
12.8418 353.906 1.56122 2.63896e-08 3.82727e+08 366.306 2.73143e-08 6.85852e-08 1.47262e+08 1.34108e+10
13.5708 0 1.84248 0 0 0 0 5.88765e-08 0 1.58268e+10
14.3411 0 2.17441 0 0 0 0 5.05241e-08 0 1.8678e+10
15.1552 0 2.56613 0 0 0 0 4.33417e-08 0 2.20429e+10
16.0156 0 3.02843 0 0 0 0 3.71677e-08 0 2.6014e+10
16.9247 0 3.574 0 0 0 0 3.18628e-08 0 3.07005e+10
17.8855 0 4.21787 0 0 0 0 2.73063e-08 0 3.62312e+10
18.9008 0 4.97773 0 0 0 0 2.33941e-08 0 4.27584e+10
19.9738 0 5.87448 0 0 0 0 2.00364e-08 0 5.04614e+10
21.1076 0 6.93279 0 0 0 0 1.71555e-08 0 5.95522e+10
22.3058 0 8.18175 0 0 0 0 1.46847e-08 0 7.02807e+10
23.5721 0 9.65571 0 0 0 0 1.25662e-08 0 8.29419e+10
24.9102 0 11.3952 0 0 0 0 1.07504e-08 0 9.78842e+10
26.3243 0 13.4481 0 0 0 0 9.19452e-09 0 1.15518e+11
27.8187 0 15.8708 0 0 0 0 7.86182e-09 0 1.36329e+11
29.3979 0 18.73 0 0 0 0 6.72061e-09 0 1.60889e+11
31.0667 0 22.1042 0 0 0 0 5.74366e-09 0 1.89874e+11
32.8303 0 26.0864 0 0 0 0 4.90756e-09 0 2.2408e+11
34.694 0 30.7859 0 0 0 0 4.19221e-09 0 2.64449e+11
36.6634 0 36.3321 0 0 0 0 3.58032e-09 0 3.1209e+11
38.7447 0 42.8774 0 0 0 0 3.05709e-09 0 3.68314e+11
40.9442 0 50.6018 0 0 0 0 2.60976e-09 0 4.34667e+11
43.2685 0 59.7179 0 0 0 0 2.22743e-09 0 5.12973e+11
45.7247 0 70.4762 0 0 0 0 1.90073e-09 0 6.05386e+11
48.3204 0 83.1727 0 0 0 0 1.62163e-09 0 7.14448e+11
51.0634 0 98.1565 0 0 0 0 1.38326e-09 0 8.43158e+11
53.9621 0 115.84 0 0 0 0 1.1797e-09 0 9.95055e+11
57.0254 0 136.709 0 0 0 0 1.00592e-09 0 1.17432e+12
60.2626 0 161.337 0 0 0 0 8.57591e-10 0 1.38587e+12
63.6835 0 190.402 0 0 0 0 7.3101e-10 0 1.63554e+12
67.2987 0 224.704 0 0 0 0 6.23009e-10 0 1.93019e+12
71.1191 0 265.185 0 0 0 0 5.30879e-10 0 2.27792e+12
75.1563 0 312.958 0 0 0 0 4.52303e-10 0 2.68829e+12
79.4227 0 369.339 0 0 0 0 3.85299e-10 0 3.17259e+12
83.9313 0 435.876 0 0 0 0 3.28173e-10 0 3.74415e+12
88.6959 0 514.4 0 0 0 0 2.79476e-10 0 4.41866e+12
93.7309 0 607.071 0 0 0 0 2.37972e-10 0 5.2147e+12
99.0518 0 716.436 0 0 0 0 2.02605e-10 0 6.15414e+12
104.675 0 845.504 0 0 0 0 1.72471e-10 0 7.26283e+12
110.617 0 997.824 0 0 0 0 1.468e-10 0 8.57124e+12
116.896 0 1177.58 0 0 0 0 1.24935e-10 0 1.01154e+13
123.532 0 1389.73 0 0 0 0 1.06313e-10 0 1.19377e+13
130.545 0 1640.09 0 0 0 0 9.04567e-11 0 1.40883e+13
137.955 0 1935.56 0 0 0 0 7.69563e-11 0 1.66263e+13
145.787 0 2284.26 0 0 0 0 6.54636e-11 0 1.96216e+13
154.063 0 2695.77 0 0 0 0 5.56812e-11 0 2.31565e+13
162.808 0 3181.42 0 0 0 0 4.73556e-11 0 2.73282e+13
172.051 0 3754.56 0 0 0 0 4.02708e-11 0 3.22515e+13
181.818 0 4430.96 0 0 0 0 3.42426e-11 0 3.80616e+13
192.139 0 5229.21 0 0 0 0 2.91139e-11 0 4.49186e+13
203.046 0 6171.26 0 0 0 0 2.4751e-11 0 5.30108e+13
214.572 0 7283.03 0 0 0 0 2.10401e-11 0 6.25608e+13
226.753 0 8595.09 0 0 0 0 1.78839e-11 0 7.38313e+13
239.625 0 10143.5 0 0 0 0 1.51999e-11 0 8.71322e+13
253.228 0 11970.9 0 0 0 0 1.29176e-11 0 1.02829e+14
267.603 0 14127.5 0 0 0 0 1.09771e-11 0 1.21354e+14
282.795 0 16672.6 0 0 0 0 9.3274e-12 0 1.43217e+14
298.848 0 19676.2 0 0 0 0 7.925e-12 0 1.69017e+14
315.813 0 23220.9 0 0 0 0 6.73295e-12 0 1.99466e+14
333.741 0 27404.3 0 0 0 0 5.71979e-12 0 2.35401e+14
352.686 0 32341.2 0 0 0 0 4.85874e-12 0 2.77809e+14
372.707 0 38167.6 0 0 0 0 4.12703e-12 0 3.27857e+14
393.865 0 45043.5 0 0 0 0 3.50528e-12 0 3.86921e+14
416.224 0 53158.3 0 0 0 0 2.97701e-12 0 4.56626e+14
439.852 0 62734.9 0 0 0 0 2.52819e-12 0 5.38888e+14
464.821 0 74036.7 0 0 0 0 2.1469e-12 0 6.35971e+14
491.207 0 87374.6 0 0 0 0 1.82301e-12 0 7.50542e+14
519.092 0 103115 0 0 0 0 1.54789e-12 0 8.85755e+14
548.56 0 121692 0 0 0 0 1.31422e-12 0 1.04533e+15
579.7 0 143615 0 0 0 0 1.11576e-12 0 1.23364e+15
612.608 0 169488 0 0 0 0 9.47223e-13 0 1.45589e+15
647.384 0 200021 0 0 0 0 8.041e-13 0 1.71817e+15
684.134 0 236056 0 0 0 0 6.82568e-13 0 2.0277e+15
722.971 0 278582 0 0 0 0 5.79376e-13 0 2.393e+15
764.012 0 328769 0 0 0 0 4.91762e-13 0 2.8241e+15
