0.0779269
200
1.0655e+09
8589934592
0.0129181 0 1.58924e-09 0 0 0 0 0.00677225 0 13.6515
0.0136515 0 1.87554e-09 0 0 0 0 0.00688819 0 16.1108
0.0144264 0 2.21343e-09 0 0 0 0 0.00699249 0 19.0132
0.0152454 0 2.61218e-09 0 0 0 0 0.00708412 0 22.4385
0.0161108 0 3.08278e-09 0 0 0 0 0.00716212 0 26.4808
0.0170254 0 3.63815e-09 0 0 0 0 0.00722559 0 31.2514
0.0179919 0 4.29357e-09 0 0 0 0 0.00727371 0 36.8815
0.0190132 0 5.06707e-09 0 0 0 0 0.00730578 0 43.5258
0.0200925 0 5.97991e-09 0 0 0 0 0.00732122 0 51.367
0.0212331 0 7.05721e-09 0 0 0 0 0.00731958 0 60.621
0.0224385 0 8.32858e-09 0 0 0 0 0.00730056 0 71.542
0.0237123 0 9.829e-09 0 0 0 0 0.00726401 0 84.4305
0.0250583 0 1.15997e-08 0 0 0 0 0.00720995 0 99.6408
0.0264808 0 1.36894e-08 0 0 0 0 0.00713857 0 117.591
0.0279841 0 1.61556e-08 0 0 0 0 0.00705021 0 138.776
0.0295727 0 1.90661e-08 0 0 0 0 0.00694538 0 163.777
0.0312514 0 2.25009e-08 0 0 0 0 0.00682475 0 193.281
0.0330255 0 2.65545e-08 0 0 0 0 0.00668915 0 228.102
0.0349003 0 3.13384e-08 0 0 0 0 0.00653951 0 269.195
0.0368815 0 3.69841e-08 0 0 0 0 0.00637693 0 317.691
0.0389751 0 4.36469e-08 0 0 0 0 0.00620256 0 374.924
0.0411876 0 5.151e-08 0 0 0 0 0.00601767 0 442.467
0.0435258 0 6.07896e-08 0 0 0 0 0.00582358 0 522.179
0.0459966 0 7.1741e-08 0 0 0 0 0.00562166 0 616.251
0.0486077 0 8.46654e-08 0 0 0 0 0.0054133 0 727.27
0.051367 0 9.99181e-08 0 0 0 0 0.00519989 0 858.29
0.054283 0 1.17919e-07 0 0 0 0 0.0049828 0 1012.91
0.0573645 0 1.39162e-07 0 0 0 0 0.00476339 0 1195.39
0.060621 0 1.64232e-07 0 0 0 0 0.00454293 0 1410.75
0.0640622 0 1.93819e-07 0 0 0 0 0.00432265 0 1664.89
0.0676989 0 2.28736e-07 0 0 0 0 0.00410371 0 1964.83
0.071542 0 2.69944e-07 0 0 0 0 0.00388717 0 2318.8
0.0756032 0 3.18575e-07 0 0 0 0 0.00367401 0 2736.54
0.079895 0 3.75967e-07 0 0 0 0 0.0034651 0 3229.53
0.0844305 0 4.43698e-07 0 0 0 0 0.00326121 0 3811.34
0.0892234 0 5.23632e-07 0 0 0 0 0.00306301 0 4497.96
0.0942883 0 6.17966e-07 0 0 0 0 0.00287109 0 5308.28
0.0996408 0 7.29294e-07 0 0 0 0 0.00268591 0 6264.59
0.105297 0 8.60678e-07 0 0 0 0 0.00250785 0 7393.17
0.111275 0 1.01573e-06 0 0 0 0 0.00233721 0 8725.07
0.117591 0 1.19872e-06 0 0 0 0 0.00217419 0 10296.9
0.124267 0 1.41467e-06 0 0 0 0 0.00201893 0 12151.9
0.131321 0 1.66953e-06 0 0 0 0 0.00187147 0 14341.1
0.138776 0 1.9703e-06 0 0 0 0 0.00173182 0 16924.7
0.146654 0 2.32525e-06 0 0 0 0 0.00159991 0 19973.8
0.154979 0 2.74415e-06 0 0 0 0 0.00147563 0 23572.1
0.163777 0 3.23852e-06 0 0 0 0 0.00135884 0 27818.7
0.173074 0 3.82195e-06 0 0 0 0 0.00124933 0 32830.3
0.182899 0 4.51048e-06 0 0 0 0 0.00114689 0 38744.7
0.193281 0 5.32305e-06 0 0 0 0 0.00105127 0 45724.7
0.204254 0 6.28202e-06 0 0 0 0 0.000962209 0 53962.1
0.215848 0 7.41374e-06 0 0 0 0 0.000879423 0 63683.5
0.228102 0 8.74934e-06 0 0 0 0 0.000802624 0 75156.3
0.24105 0 1.03256e-05 0 0 0 0 0.000731515 0 88695.9
0.254734 0 1.21857e-05 0 0 0 0 0.000665798 0 104675
0.269195 0 1.4381e-05 0 0 0 0 0.000605173 0 123532
0.284476 0 1.69718e-05 0 0 0 0 0.000549345 0 145787
0.300625 0 2.00293e-05 0 0 0 0 0.000498021 0 172051
0.317691 0 2.36377e-05 0 0 0 0 0.000450916 0 203046
0.335725 0 2.78961e-05 0 0 0 0 0.000407755 0 239625
0.354784 0 3.29216e-05 0 0 0 0 0.000368269 0 282795
0.374924 0 3.88525e-05 0 0 0 0 0.000332202 0 333741
0.396207 0.627596 4.58519e-05 1.59343e-06 6 0.610148 1.54913e-06 0.000299307 0.0319424 393865
0.418699 0 5.41123e-05 0 0 0 0 0.00026935 0 464821
0.442467 0 6.38607e-05 0 0 0 0 0.000242108 0 548560
0.467585 0 7.53654e-05 0 0 0 0 0.00021737 0 647384
0.494129 0 8.89427e-05 0 0 0 0 0.000194938 0 764012
0.522179 0 0.000104966 0 0 0 0 0.000174625 0 901651
0.551822 0 0.000123876 0 0 0 0 0.000156255 0 1.06409e+06
0.583147 3.82733 0.000146192 3.04776e-06 12 4.02828 3.20778e-06 0.000139664 0.261865 1.25578e+06
0.616251 0 0.000172529 0 0 0 0 0.0001247 0 1.48202e+06
0.651234 0 0.000203611 0 0 0 0 0.00011122 0 1.74901e+06
0.688203 21.0896 0.000240292 1.02174e-05 8 20.565 9.96319e-06 9.90935e-05 0.824868 2.06409e+06
0.72727 0 0.000283581 0 0 0 0 8.81969e-05 0 2.43595e+06
0.768555 0 0.000334669 0 0 0 0 7.84179e-05 0 2.87479e+06
0.812184 0.0519753 0.000394961 1.53198e-08 6 0.0530865 1.56473e-08 6.96525e-05 0.00131967 3.39269e+06
0.85829 0 0.000466114 0 0 0 0 6.1805e-05 0 4.00389e+06
0.907013 0.142212 0.000550086 3.00966e-08 24 0.144941 3.0674e-08 5.47875e-05 0.013184 4.7252e+06
0.958501 0.722861 0.000649185 1.29627e-07 24 0.68052 1.22034e-07 4.85194e-05 0.0641198 5.57646e+06
1.01291 0 0.000766138 0 0 0 0 4.29272e-05 0 6.58107e+06
1.07041 0 0.00090416 0 0 0 0 3.79435e-05 0 7.76667e+06
1.13118 1.11082 0.00106705 1.21191e-07 12 1.09718 1.19703e-07 3.3507e-05 0.0434028 9.16586e+06
1.19539 0.607163 0.00125928 5.61298e-08 30 0.594646 5.49727e-08 2.9562e-05 0.0569614 1.08171e+07
1.26325 4.79026 0.00148614 3.75241e-07 24 4.71818 3.69594e-07 2.60578e-05 0.345607 1.27658e+07
1.33496 16.6359 0.00175387 1.10423e-06 24 16.6725 1.10665e-06 2.29484e-05 1.15482 1.50656e+07
1.41075 5.58985 0.00206984 3.14394e-07 32 5.74974 3.23387e-07 2.01923e-05 0.49824 1.77798e+07
1.49083 0.35501 0.00244272 1.69191e-08 48 0.347441 1.65584e-08 1.77518e-05 0.0457484 2.09828e+07
1.57546 0.0139926 0.00288279 5.65063e-10 6 0.0133241 5.38068e-10 1.55929e-05 0.000217432 2.4763e+07
1.66489 0.287379 0.00340213 9.83365e-09 84 0.276969 9.47742e-09 1.3685e-05 0.0603599 2.92241e+07
1.75941 2.32679 0.00401503 6.74651e-08 48 2.34547 6.80065e-08 1.20007e-05 0.269845 3.44889e+07
1.85928 0.121661 0.00473835 2.98906e-09 72 0.123144 3.02548e-09 1.05151e-05 0.020467 4.07021e+07
1.96483 0.775806 0.00559198 1.6151e-08 54 0.756373 1.57464e-08 9.20606e-06 0.0947367 4.80347e+07
2.07637 7.09975 0.00659939 1.25242e-07 104 7.07042 1.24725e-07 8.05366e-06 1.6173 5.66883e+07
2.19424 0.248187 0.00778828 3.70978e-09 120 0.250219 3.74015e-09 7.04008e-06 0.0632342 6.69008e+07
2.3188 1.40445 0.00919136 1.77884e-08 156 1.33259 1.68782e-08 6.1494e-06 0.451261 7.89532e+07
2.45043 0.550037 0.0108472 5.90315e-09 126 0.546228 5.86227e-09 5.36741e-06 0.138576 9.31768e+07
2.58954 0.417542 0.0128014 3.79711e-09 192 0.424419 3.85966e-09 4.68145e-06 0.155731 1.09963e+08
2.73654 3.74711 0.0151076 2.88743e-08 152 3.88744 2.99557e-08 4.08023e-06 1.07565 1.29773e+08
2.89188 3.00841 0.0178292 1.96433e-08 378 3.07588 2.00838e-08 3.55373e-06 2.0894 1.53152e+08
3.05605 1.07352 0.0210412 5.93949e-09 264 1.05249 5.82314e-09 3.09304e-06 0.506953 1.80743e+08
3.22953 0.139512 0.0248319 6.54052e-10 366 0.137016 6.42349e-10 2.69025e-06 0.0889816 2.13304e+08
3.41286 0.622694 0.0293054 2.47365e-09 428 0.591778 2.35083e-09 2.33837e-06 0.452759 2.51731e+08
3.6066 2.66543 0.0345848 8.97204e-09 486 2.57309 8.66123e-09 2.0312e-06 2.14671 2.97081e+08
3.81134 0.558834 0.0408154 1.59393e-09 600 0.555354 1.584e-09 1.76327e-06 0.542379 3.50601e+08
4.0277 0.424357 0.0481684 1.0256e-09 738 0.417122 1.00812e-09 1.52972e-06 0.494793 4.13763e+08
4.25634 0.946429 0.056846 1.9382e-09 824 0.986667 2.0206e-09 1.32631e-06 1.20415 4.88304e+08
4.49796 2.12331 0.067087 3.68455e-09 954 2.13691 3.70816e-09 1.14926e-06 3.05855 5.76273e+08
4.7533 0.436601 0.0791729 6.41976e-10 1094 0.427943 6.29245e-10 9.95263e-07 0.705664 6.8009e+08
5.02313 0.227331 0.0934361 2.8324e-10 1332 0.226585 2.8231e-10 8.61414e-07 0.437972 8.0261e+08
5.30828 1.75809 0.110269 1.85608e-09 1614 1.77876 1.87791e-09 7.45152e-07 4.02028 9.47202e+08
5.60962 0.840563 0.130134 7.51951e-10 1850 0.810222 7.24808e-10 6.44232e-07 2.15933 1.11784e+09
5.92807 1.09212 0.153578 8.27846e-10 2238 1.04213 7.89959e-10 5.56685e-07 3.32813 1.31923e+09
6.26459 0.475204 0.181246 3.05227e-10 2546 0.483516 3.10565e-10 4.80786e-07 1.61633 1.55689e+09
6.62021 0.139619 0.213898 7.59887e-11 3264 0.139429 7.58851e-11 4.15026e-07 0.597619 1.83737e+09
6.99602 1.04033 0.252432 4.79774e-10 3506 1.07788 4.97093e-10 3.58083e-07 4.69749 2.16837e+09
7.39317 0.444964 0.297908 1.73881e-10 4506 0.452352 1.76768e-10 3.08803e-07 2.53724 2.55901e+09
7.81286 0.879357 0.351577 2.91175e-10 5018 0.910618 3.01527e-10 2.66181e-07 5.48919 3.02002e+09
8.25637 0.782138 0.414914 2.1945e-10 5852 0.74933 2.10245e-10 2.29336e-07 5.59973 3.56409e+09
8.72507 0.475929 0.489662 1.1315e-10 7362 0.469809 1.11695e-10 1.97503e-07 4.21772 4.20617e+09
9.22037 0.681103 0.577876 1.37211e-10 8306 0.672154 1.35408e-10 1.70014e-07 6.7034 4.96392e+09
9.74378 0.201284 0.681982 3.43595e-11 9698 0.202114 3.45011e-11 1.46289e-07 2.27781 5.85818e+09
10.2969 0.688405 0.804843 9.95733e-11 11816 0.70084 1.01372e-10 1.25822e-07 9.35094 6.91355e+09
10.8814 0.557293 0.949838 6.83037e-11 13682 0.558241 6.84199e-11 1.08175e-07 8.63903 8.15905e+09
11.4992 0.538961 1.12095 5.59731e-11 16152 0.527815 5.48155e-11 9.29669e-08 9.72473 9.62892e+09
12.1519 0.541278 1.3229 4.76326e-11 19472 0.526999 4.63761e-11 7.98658e-08 11.6133 1.13636e+10
12.8418 0.241548 1.56122 1.80115e-11 22670 0.244889 1.82606e-11 6.85852e-08 5.95348 1.34108e+10
13.5708 0.518054 1.84248 3.27327e-11 26224 0.526512 3.32672e-11 5.88765e-08 14.5794 1.58268e+10
14.3411 0.439478 2.17441 2.35292e-11 31640 0.446994 2.39316e-11 5.05241e-08 14.7348 1.8678e+10
15.1552 0.490433 2.56613 2.2249e-11 37484 0.494656 2.24406e-11 4.33417e-08 19.242 2.20429e+10
16.0156 0.43354 3.02843 1.66657e-11 43856 0.44102 1.69532e-11 3.71677e-08 19.6646 2.6014e+10
16.9247 0.722744 3.574 2.35418e-11 51362 0.722068 2.35198e-11 3.18628e-08 37.9488 3.07005e+10
17.8855 0.678491 4.21787 1.87267e-11 61636 0.671726 1.854e-11 2.73063e-08 42.27 3.62312e+10
18.9008 1.0216 4.97773 2.38924e-11 72218 1.01562 2.37525e-11 2.33941e-08 73.7562 4.27584e+10
19.9738 1.56659 5.87448 3.10453e-11 84586 1.55303 3.07766e-11 2.00364e-08 131.061 5.04614e+10
21.1076 2.43134 6.93279 4.08271e-11 100708 2.42685 4.07516e-11 1.71555e-08 239.667 5.95522e+10
22.3058 3.94454 8.18175 5.61255e-11 118712 3.94633 5.61509e-11 1.46847e-08 453.724 7.02807e+10
23.5721 5.80973 9.65571 7.00457e-11 140410 5.79138 6.98245e-11 1.25662e-08 782.667 8.29419e+10
24.9102 6.98088 11.3952 7.13177e-11 164374 6.94796 7.09815e-11 1.07504e-08 1090.45 9.78842e+10
26.3243 8.05512 13.4481 6.97303e-11 194680 8.02292 6.94516e-11 9.19452e-09 1476.43 1.15518e+11
27.8187 8.90189 15.8708 6.5297e-11 230196 8.86928 6.50579e-11 7.86182e-09 1911.91 1.36329e+11
29.3979 10.4367 18.73 6.48686e-11 271156 10.4009 6.46464e-11 6.72061e-09 2617.25 1.60889e+11
31.0667 12.4873 22.1042 6.57664e-11 321076 12.434 6.54853e-11 5.74366e-09 3676.4 1.89874e+11
32.8303 15.0159 26.0864 6.70114e-11 377436 14.9524 6.67281e-11 4.90756e-09 5153.79 2.2408e+11
34.694 17.7022 30.7859 6.694e-11 447594 17.6438 6.67193e-11 4.19221e-09 7147.06 2.64449e+11
36.6634 20.1115 36.3321 6.44412e-11 525078 20.0481 6.42383e-11 3.58032e-09 9450.73 3.1209e+11
38.7447 22.6198 42.8774 6.14146e-11 621924 22.5626 6.12591e-11 3.05709e-09 12494 3.68314e+11
40.9442 25.6594 50.6018 5.90325e-11 732630 25.5946 5.88832e-11 2.60976e-09 16572 4.34667e+11
43.2685 29.6203 59.7179 5.77425e-11 865596 29.5327 5.75717e-11 2.22743e-09 22439.2 5.12973e+11
45.7247 35.0426 70.4762 5.78847e-11 1.02168e+06 34.9152 5.76742e-11 1.90073e-09 31114 6.05386e+11
48.3204 42.056 83.1727 5.88651e-11 1.20544e+06 41.9002 5.86469e-11 1.62163e-09 43757.2 7.14448e+11
51.0634 50.8195 98.1565 6.02728e-11 1.42103e+06 50.644 6.00647e-11 1.38326e-09 61918.7 8.43158e+11
53.9621 60.6316 115.84 6.09329e-11 1.67997e+06 60.426 6.07262e-11 1.1797e-09 86772.1 9.95055e+11
57.0254 71.4129 136.709 6.08123e-11 1.98018e+06 71.192 6.06241e-11 1.00592e-09 119711 1.17432e+12
60.2626 83.8394 161.337 6.04957e-11 2.33957e+06 83.5665 6.02988e-11 8.57591e-10 165037 1.38587e+12
63.6835 98.3265 190.402 6.01186e-11 2.75676e+06 98.0153 5.99283e-11 7.3101e-10 226718 1.63554e+12
67.2987 116.033 224.704 6.01148e-11 3.25638e+06 115.657 5.99201e-11 6.23009e-10 314212 1.93019e+12
71.1191 137.087 265.185 6.01806e-11 3.84387e+06 136.633 5.99814e-11 5.30879e-10 435742 2.27792e+12
75.1563 161.747 312.958 6.01673e-11 4.53277e+06 161.224 5.99726e-11 4.52303e-10 602968 2.68829e+12
79.4227 190.895 369.339 6.01701e-11 5.35083e+06 190.283 5.99772e-11 3.85299e-10 835609 3.17259e+12
83.9313 225.541 435.876 6.02383e-11 6.32174e+06 224.797 6.00395e-11 3.28173e-10 1.1604e+06 3.74415e+12
88.6959 266.061 514.4 6.02129e-11 7.44986e+06 265.188 6.00154e-11 2.79476e-10 1.60507e+06 4.41866e+12
93.7309 314.412 607.071 6.02934e-11 8.79764e+06 313.373 6.00942e-11 2.37972e-10 2.229e+06 5.2147e+12
99.0518 370.813 716.436 6.02542e-11 1.03827e+07 369.576 6.00533e-11 2.02605e-10 3.08779e+06 6.15414e+12
104.675 437.543 845.504 6.02442e-11 1.22515e+07 436.091 6.00442e-11 1.72471e-10 4.27946e+06 7.26283e+12
110.617 516.925 997.824 6.03093e-11 1.44573e+07 515.218 6.01101e-11 1.468e-10 5.93944e+06 8.57124e+12
116.896 609.916 1177.58 6.02959e-11 1.70664e+07 607.916 6.00983e-11 1.24935e-10 8.23657e+06 1.01154e+13
123.532 720.228 1389.73 6.03323e-11 2.0139e+07 717.835 6.01318e-11 1.06313e-10 1.14288e+07 1.19377e+13
130.545 850.682 1640.09 6.03822e-11 2.37643e+07 847.835 6.01801e-11 9.04567e-11 1.58633e+07 1.40883e+13
137.955 1004.07 1935.56 6.03904e-11 2.80503e+07 1000.74 6.019e-11 7.69563e-11 2.20121e+07 1.66263e+13
145.787 1186.23 2284.26 6.04551e-11 3.30981e+07 1182.28 6.02542e-11 6.54636e-11 3.05658e+07 1.96216e+13
154.063 1400.73 2695.77 6.04898e-11 3.90634e+07 1396.05 6.02875e-11 5.56812e-11 4.24369e+07 2.31565e+13
162.808 1655.58 3181.42 6.05813e-11 4.61057e+07 1650.05 6.03792e-11 4.73556e-11 5.89823e+07 2.73282e+13
172.051 1955.66 3754.56 6.06378e-11 5.44046e+07 1949.06 6.04332e-11 4.02708e-11 8.19197e+07 3.22515e+13
181.818 2327.73 4430.96 6.11567e-11 6.42064e+07 2320.39 6.0964e-11 3.42426e-11 1.14672e+08 3.80616e+13
192.139 2733.97 5229.21 6.08651e-11 7.57748e+07 2724.77 6.06602e-11 2.91139e-11 1.58414e+08 4.49186e+13
203.046 3235.39 6171.26 6.10327e-11 8.94213e+07 3224.5 6.08273e-11 2.4751e-11 2.20501e+08 5.30108e+13
214.572 3830.22 7283.03 6.1224e-11 1.05538e+08 3817.28 6.10171e-11 2.10401e-11 3.07103e+08 6.25608e+13
226.753 4538.52 8595.09 6.14715e-11 1.24552e+08 4523.05 6.1262e-11 1.78839e-11 4.28116e+08 7.38313e+13
239.625 5384.01 10143.5 6.17913e-11 1.46987e+08 5365.62 6.15802e-11 1.51999e-11 5.97538e+08 8.71322e+13
253.228 6413.82 11970.9 6.23734e-11 1.7347e+08 6390.96 6.21512e-11 1.29176e-11 8.37609e+08 1.02829e+14
267.603 7618.89 14127.5 6.27823e-11 2.04703e+08 7592.38 6.25637e-11 1.09771e-11 1.17077e+09 1.21354e+14
282.795 9104.43 16672.6 6.35711e-11 2.4161e+08 9072.29 6.33467e-11 9.3274e-12 1.6467e+09 1.43217e+14
298.848 10904.2 19676.2 6.45151e-11 2.85122e+08 10865 6.42833e-11 7.925e-12 2.3211e+09 1.69017e+14
315.813 13144.5 23220.9 6.58981e-11 3.36491e+08 13096.2 6.56564e-11 6.73295e-12 3.29338e+09 1.99466e+14
333.741 15964.8 27404.3 6.78198e-11 3.97115e+08 15904.1 6.7562e-11 5.71979e-12 4.70861e+09 2.35401e+14
352.686 19593.6 32341.2 7.05289e-11 4.68637e+08 19515.7 7.02487e-11 4.85874e-12 6.80268e+09 2.77809e+14
372.707 24413.3 38167.6 7.44633e-11 5.53074e+08 24310.5 7.41498e-11 4.12703e-12 9.97902e+09 3.27857e+14
393.865 31070.4 45043.5 8.03017e-11 6.52716e+08 30929.7 7.99381e-11 3.50528e-12 1.49529e+10 3.86921e+14
416.224 36658.1 53158.3 8.02804e-11 2.2184e+08 38780.8 8.4929e-11 2.97701e-12 5.98231e+09 4.56626e+14
439.852 0 62734.9 0 0 0 0 2.52819e-12 0 5.38888e+14
464.821 0 74036.7 0 0 0 0 2.1469e-12 0 6.35971e+14
491.207 0 87374.6 0 0 0 0 1.82301e-12 0 7.50542e+14
519.092 0 103115 0 0 0 0 1.54789e-12 0 8.85755e+14
548.56 0 121692 0 0 0 0 1.31422e-12 0 1.04533e+15
579.7 0 143615 0 0 0 0 1.11576e-12 0 1.23364e+15
612.608 0 169488 0 0 0 0 9.47223e-13 0 1.45589e+15
647.384 0 200021 0 0 0 0 8.041e-13 0 1.71817e+15
684.134 0 236056 0 0 0 0 6.82568e-13 0 2.0277e+15
722.971 0 278582 0 0 0 0 5.79376e-13 0 2.393e+15
764.012 0 328769 0 0 0 0 4.91762e-13 0 2.8241e+15
0.0779269
200
1.0655e+09
8589934592
0.0129181 1.89747e-05 1.58924e-09 1.38994e-06 6 1.8801e-05 1.37721e-06 0.00677225 0.00123144 13.6515
0.0136515 0 1.87554e-09 0 0 0 0 0.00688819 0 16.1108
0.0144264 0 2.21343e-09 0 0 0 0 0.00699249 0 19.0132
0.0152454 0 2.61218e-09 0 0 0 0 0.00708412 0 22.4385
0.0161108 0 3.08278e-09 0 0 0 0 0.00716212 0 26.4808
0.0170254 0 3.63815e-09 0 0 0 0 0.00722559 0 31.2514
0.0179919 4.68473e-05 4.29357e-09 1.27021e-06 12 4.67869e-05 1.26858e-06 0.00727371 0.00209557 36.8815
0.0190132 0 5.06707e-09 0 0 0 0 0.00730578 0 43.5258
0.0200925 0 5.97991e-09 0 0 0 0 0.00732122 0 51.367
0.0212331 0.000215866 7.05721e-09 3.56092e-06 8 0.000215679 3.55782e-06 0.00731958 0.00389194 60.621
0.0224385 0 8.32858e-09 0 0 0 0 0.00730056 0 71.542
0.0237123 0 9.829e-09 0 0 0 0 0.00726401 0 84.4305
0.0250583 0.000162283 1.15997e-08 1.62867e-06 6 0.000162206 1.62791e-06 0.00720995 0.00135536 99.6408
0.0264808 0 1.36894e-08 0 0 0 0 0.00713857 0 117.591
0.0279841 0.000214723 1.61556e-08 1.54726e-06 24 0.000214502 1.54567e-06 0.00705021 0.00526713 138.776
0.0295727 0 1.90661e-08 0 0 0 0 0.00694538 0 163.777
0.0312514 0.000230328 2.25009e-08 1.19167e-06 24 0.000231497 1.19772e-06 0.00682475 0.00419064 193.281
0.0330255 0 2.65545e-08 0 0 0 0 0.00668915 0 228.102
0.0349003 0.000409202 3.13384e-08 1.5201e-06 12 0.000405925 1.50792e-06 0.00653951 0.00278937 269.195
0.0368815 0.000349603 3.69841e-08 1.10045e-06 30 0.00034588 1.08873e-06 0.00637693 0.00517702 317.691
0.0389751 0.000416451 4.36469e-08 1.11076e-06 24 0.000412167 1.09933e-06 0.00620256 0.00429795 374.924
0.0411876 0.000592796 5.151e-08 1.33975e-06 24 0.00058877 1.33065e-06 0.00601767 0.00534327 442.467
0.0435258 0.000661784 6.07896e-08 1.26735e-06 8 0.000661733 1.26725e-06 0.00582358 0.00174099 522.179
0.0459966 0.000456651 7.1741e-08 7.41015e-07 72 0.000455239 7.38723e-07 0.00562166 0.00949062 616.251
0.0486077 0 8.46654e-08 0 0 0 0 0.0054133 0 727.27
0.051367 0.000876497 9.99181e-08 1.02121e-06 54 0.000873077 1.01723e-06 0.00519989 0.0106051 858.29
0.054283 0.00107752 1.17919e-07 1.06378e-06 60 0.00108457 1.07074e-06 0.0049828 0.0128094 1012.91
0.0573645 0.00112603 1.39162e-07 9.41977e-07 96 0.00112095 9.37728e-07 0.00476339 0.0189843 1195.39
0.060621 0.00136397 1.64232e-07 9.66842e-07 24 0.00134549 9.53743e-07 0.00454293 0.00510777 1410.75
0.0640622 0.00181479 1.93819e-07 1.09003e-06 134 0.00181305 1.08898e-06 0.00432265 0.0337905 1664.89
0.0676989 0.00163805 2.28736e-07 8.33684e-07 120 0.00162631 8.27708e-07 0.00410371 0.0243785 1964.83
0.071542 0.00177842 2.69944e-07 7.66958e-07 108 0.00175272 7.55872e-07 0.00388717 0.0213089 2318.8
0.0756032 0.00226655 3.18575e-07 8.28254e-07 174 0.00225445 8.23832e-07 0.00367401 0.0392259 2736.54
0.079895 0.0021405 3.75967e-07 6.62789e-07 168 0.00211922 6.56201e-07 0.0034651 0.0321343 3229.53
0.0844305 0.00258257 4.43698e-07 6.776e-07 168 0.00259076 6.79752e-07 0.00326121 0.0349064 3811.34
0.0892234 0.00264434 5.23632e-07 5.87897e-07 290 0.00263186 5.85123e-07 0.00306301 0.0556609 4497.96
0.0942883 0.0026555 6.17966e-07 5.00255e-07 288 0.00265663 5.00469e-07 0.00287109 0.0501808 5308.28
0.0996408 0.00271105 7.29294e-07 4.32758e-07 366 0.00269494 4.30186e-07 0.00268591 0.0589704 6264.59
0.105297 0.00273578 8.60678e-07 3.70042e-07 420 0.00271702 3.67504e-07 0.00250785 0.0619724 7393.17
0.111275 0.00344135 1.01573e-06 3.94421e-07 398 0.00343601 3.93809e-07 0.00233721 0.0671653 8725.07
0.117591 0.00337802 1.19872e-06 3.28061e-07 624 0.00337899 3.28156e-07 0.00217419 0.0941545 10296.9
0.124267 0.00410965 1.41467e-06 3.38189e-07 642 0.00410291 3.37634e-07 0.00201893 0.107541 12151.9
0.131321 0.00503154 1.66953e-06 3.50847e-07 800 0.00502986 3.5073e-07 0.00187147 0.149977 14341.1
0.138776 0.00508189 1.9703e-06 3.00264e-07 858 0.00509708 3.01162e-07 0.00173182 0.148761 16924.7
0.146654 0.00567484 2.32525e-06 2.84115e-07 1080 0.00571801 2.86276e-07 0.00159991 0.191788 19973.8
0.154979 0.00584212 2.74415e-06 2.47841e-07 1286 0.00588749 2.49765e-07 0.00147563 0.215991 23572.1
0.163777 0.00583263 3.23852e-06 2.09666e-07 1650 0.00584717 2.10189e-07 0.00135884 0.254592 27818.7
0.173074 0.00645259 3.82195e-06 1.96544e-07 1778 0.00646395 1.9689e-07 0.00124933 0.279714 32830.3
0.182899 0.00735264 4.51048e-06 1.89771e-07 2112 0.00737361 1.90313e-07 0.00114689 0.349464 38744.7
0.193281 0.00784676 5.32305e-06 1.71609e-07 2570 0.00785401 1.71767e-07 0.00105127 0.419525 45724.7
0.204254 0.00808136 6.28202e-06 1.4976e-07 3030 0.00808035 1.49741e-07 0.000962209 0.471594 53962.1
0.215848 0.00886495 7.41374e-06 1.39203e-07 3434 0.00886237 1.39163e-07 0.000879423 0.543565 63683.5
0.228102 0.00930181 8.74934e-06 1.23766e-07 4218 0.00930609 1.23823e-07 0.000802624 0.650424 75156.3
0.24105 0.00979084 1.03256e-05 1.10387e-07 4766 0.0097916 1.10395e-07 0.000731515 0.719196 88695.9
0.254734 0.0108668 1.21857e-05 1.03815e-07 6026 0.0108673 1.03819e-07 0.000665798 0.939609 104675
0.269195 0.0112788 1.4381e-05 9.13029e-08 6480 0.0112818 9.13267e-08 0.000605173 0.977641 123532
0.284476 0.0118071 1.69718e-05 8.09888e-08 8162 0.0118326 8.11638e-08 0.000549345 1.20331 145787
0.300625 0.0126548 2.00293e-05 7.35525e-08 9578 0.0126508 7.35294e-08 0.000498021 1.41457 172051
0.317691 0.0135503 2.36377e-05 6.67349e-08 11234 0.0135445 6.67066e-08 0.000450916 1.66261 203046
0.335725 0.0139788 2.78961e-05 5.83361e-08 13344 0.0139589 5.82528e-08 0.000407755 1.90908 239625
0.354784 0.0149144 3.29216e-05 5.27393e-08 15464 0.0149079 5.27163e-08 0.000368269 2.21458 282795
0.374924 0.015634 3.88525e-05 4.68447e-08 18458 0.0156359 4.68505e-08 0.000332202 2.60281 333741
0.396207 0.0166176 4.58519e-05 4.21912e-08 22232 0.0165934 4.21298e-08 0.000299307 3.13389 393865
0.418699 0.0172453 5.41123e-05 3.7101e-08 25628 0.0172129 3.70312e-08 0.00026935 3.53008 464821
0.442467 0.0184694 6.38607e-05 3.36689e-08 30320 0.0184405 3.36163e-08 0.000242108 4.21647 548560
0.467585 0.019606 7.53654e-05 3.0285e-08 35452 0.0195838 3.02507e-08 0.00021737 4.93934 647384
0.494129 0.0203431 8.89427e-05 2.66267e-08 41792 0.0203397 2.66223e-08 0.000194938 5.70838 764012
0.522179 0.0215564 0.000104966 2.39077e-08 49988 0.0215593 2.39109e-08 0.000174625 6.84379 901651
0.551822 0.02275 0.000123876 2.13799e-08 59110 0.0227362 2.13669e-08 0.000156255 8.08784 1.06409e+06
0.583147 0.0237147 0.000146192 1.88844e-08 69716 0.0236919 1.88663e-08 0.000139664 9.42651 1.25578e+06
0.616251 0.0246256 0.000172529 1.66163e-08 82210 0.0245824 1.65872e-08 0.0001247 10.9545 1.48202e+06
0.651234 0.0260122 0.000203611 1.48725e-08 96722 0.0259704 1.48487e-08 0.00011122 12.9338 1.74901e+06
0.688203 0.0272756 0.000240292 1.32143e-08 113098 0.0272438 1.31989e-08 9.90935e-05 15.0818 2.06409e+06
0.72727 0.0286139 0.000283581 1.17465e-08 135190 0.028584 1.17342e-08 8.81969e-05 18.0053 2.43595e+06
0.768555 0.0298249 0.000334669 1.03746e-08 158170 0.0298011 1.03664e-08 7.84179e-05 20.9258 2.87479e+06
0.812184 0.0312543 0.000394961 9.21224e-09 188560 0.0312203 9.20222e-09 6.96525e-05 24.9389 3.39269e+06
0.85829 0.032674 0.000466114 8.16056e-09 220444 0.0326349 8.15079e-09 6.1805e-05 29.1068 4.00389e+06
0.907013 0.0339268 0.000550086 7.17996e-09 261388 0.0338889 7.17194e-09 5.47875e-05 34.2552 4.7252e+06
0.958501 0.0353703 0.000649185 6.34279e-09 308244 0.0353383 6.33705e-09 4.85194e-05 40.2958 5.57646e+06
1.01291 0.0368921 0.000766138 5.60579e-09 364396 0.036852 5.59969e-09 4.29272e-05 47.5859 6.58107e+06
1.07041 0.0386551 0.00090416 4.97704e-09 429162 0.038614 4.97175e-09 3.79435e-05 56.2932 7.76667e+06
1.13118 0.0403298 0.00106705 4.4e-09 506358 0.0402836 4.39496e-09 3.3507e-05 66.4928 9.16586e+06
1.19539 0.0419265 0.00125928 3.87594e-09 598590 0.0418743 3.87111e-09 2.9562e-05 78.4824 1.08171e+07
1.26325 0.0436002 0.00148614 3.41538e-09 704844 0.0435515 3.41157e-09 2.60578e-05 92.3833 1.27658e+07
1.33496 0.0453402 0.00175387 3.00951e-09 834620 0.0452785 3.00541e-09 2.29484e-05 109.454 1.50656e+07
1.41075 0.0471895 0.00206984 2.65411e-09 981444 0.0471312 2.65083e-09 2.01923e-05 129.003 1.77798e+07
1.49083 0.0490474 0.00244272 2.3375e-09 1.15998e+06 0.0489921 2.33487e-09 1.77518e-05 152.743 2.09828e+07
1.57546 0.0510525 0.00288279 2.06165e-09 1.36931e+06 0.0509924 2.05922e-09 1.55929e-05 181.047 2.4763e+07
1.66489 0.0529863 0.00340213 1.8131e-09 1.61652e+06 0.0529192 1.81081e-09 1.3685e-05 214.169 2.92241e+07
1.75941 0.0550446 0.00401503 1.59601e-09 1.90601e+06 0.0549747 1.59398e-09 1.20007e-05 253.486 3.44889e+07
1.85928 0.0570932 0.00473835 1.40271e-09 2.24913e+06 0.05702 1.40091e-09 1.05151e-05 300.032 4.07021e+07
1.96483 0.0593654 0.00559198 1.23588e-09 2.65744e+06 0.0592888 1.23429e-09 9.20606e-06 356.753 4.80347e+07
2.07637 0.0615608 0.00659939 1.08595e-09 3.13125e+06 0.0614841 1.0846e-09 8.05366e-06 422.217 5.66883e+07
2.19424 0.063876 0.00778828 9.54786e-10 3.69915e+06 0.0637975 9.53613e-10 7.04008e-06 501.684 6.69008e+07
2.3188 0.0663865 0.00919136 8.40833e-10 4.36472e+06 0.0663017 8.39759e-10 6.1494e-06 596.807 7.89532e+07
2.45043 0.068895 0.0108472 7.39401e-10 5.14913e+06 0.0688099 7.38487e-10 5.36741e-06 709.331 9.31768e+07
2.58954 0.0714571 0.0128014 6.49829e-10 6.07894e+06 0.0713671 6.49011e-10 4.68145e-06 843.813 1.09963e+08
2.73654 0.0741716 0.0151076 5.71548e-10 7.17304e+06 0.0740766 5.70817e-10 4.08023e-06 1004.78 1.29773e+08
2.89188 0.0769131 0.0178292 5.02201e-10 8.46557e+06 0.076818 5.0158e-10 3.55373e-06 1196.33 1.53152e+08
3.05605 0.0797639 0.0210412 4.41312e-10 9.98773e+06 0.0796668 4.40775e-10 3.09304e-06 1425.04 1.80743e+08
3.22953 0.0828352 0.0248319 3.88344e-10 1.1797e+07 0.0827288 3.87845e-10 2.69025e-06 1702.92 2.13304e+08
3.41286 0.0860203 0.0293054 3.41715e-10 1.39144e+07 0.0859073 3.41266e-10 2.33837e-06 2033.36 2.51731e+08
3.6066 0.0893606 0.0345848 3.00795e-10 1.64163e+07 0.0892449 3.00405e-10 2.0312e-06 2431.04 2.97081e+08
3.81134 0.0927591 0.0408154 2.64572e-10 1.93821e+07 0.0926401 2.64232e-10 1.76327e-06 2908.22 3.50601e+08
4.0277 0.0964222 0.0481684 2.33037e-10 2.28754e+07 0.0962948 2.32729e-10 1.52972e-06 3484.83 4.13763e+08
4.25634 0.100222 0.056846 2.05245e-10 2.69929e+07 0.100085 2.04965e-10 1.32631e-06 4177.13 4.88304e+08
4.49796 0.104239 0.067087 1.80885e-10 3.18542e+07 0.104096 1.80637e-10 1.14926e-06 5013.64 5.76273e+08
4.7533 0.108504 0.0791729 1.59544e-10 3.75892e+07 0.108355 1.59324e-10 9.95263e-07 6025.66 6.8009e+08
5.02313 0.112949 0.0934361 1.40727e-10 4.43706e+07 0.112794 1.40534e-10 8.61414e-07 7248.72 8.0261e+08
5.30828 0.117765 0.110269 1.24329e-10 5.23593e+07 0.117599 1.24154e-10 7.45152e-07 8736.2 9.47202e+08
5.60962 0.122787 0.130134 1.09843e-10 6.1787e+07 0.122613 1.09687e-10 6.44232e-07 10534.8 1.11784e+09
5.92807 0.12808 0.153578 9.70872e-11 7.29346e+07 0.127895 9.69471e-11 5.56685e-07 12720 1.31923e+09
6.26459 0.133687 0.181246 8.58682e-11 8.60651e+07 0.133492 8.57427e-11 4.80786e-07 15371.2 1.55689e+09
6.62021 0.139611 0.213898 7.59844e-11 1.01558e+08 0.139406 7.58726e-11 4.15026e-07 18593.6 1.83737e+09
6.99602 0.145903 0.252432 6.72869e-11 1.1986e+08 0.145688 6.71878e-11 3.58083e-07 22522.7 2.16837e+09
7.39317 0.152463 0.297908 5.95791e-11 1.41457e+08 0.152237 5.94906e-11 3.08803e-07 27292 2.55901e+09
7.81286 0.15948 0.351577 5.28077e-11 1.66936e+08 0.159239 5.27279e-11 2.66181e-07 33118.4 3.02002e+09
8.25637 0.166847 0.414914 4.68132e-11 1.97025e+08 0.166594 4.67423e-11 2.29336e-07 40217.8 3.56409e+09
8.72507 0.174779 0.489662 4.1553e-11 2.32497e+08 0.174511 4.14893e-11 1.97503e-07 48915.5 4.20617e+09
9.22037 0.18341 0.577876 3.69487e-11 2.74404e+08 0.183121 3.68905e-11 1.70014e-07 59635.5 4.96392e+09
9.74378 0.193117 0.681982 3.29653e-11 3.2382e+08 0.192801 3.29114e-11 1.46289e-07 72970.8 5.85818e+09
10.2969 0.204498 0.804843 2.95792e-11 3.82165e+08 0.204144 2.95281e-11 1.25822e-07 89842.1 6.91355e+09
10.8814 0.218608 0.949838 2.67933e-11 4.51027e+08 0.218195 2.67427e-11 1.08175e-07 111712 8.15905e+09
11.4992 0.237382 1.12095 2.4653e-11 5.32251e+08 0.236873 2.46002e-11 9.29669e-08 141142 9.62892e+09
12.1519 0.264633 1.3229 2.32878e-11 6.28157e+08 0.263952 2.32279e-11 7.98658e-08 183162 1.13636e+10
12.8418 0.295822 1.56122 2.20586e-11 3.82727e+08 0.306176 2.28306e-11 6.85852e-08 123094 1.34108e+10
13.5708 0 1.84248 0 0 0 0 5.88765e-08 0 1.58268e+10
14.3411 0 2.17441 0 0 0 0 5.05241e-08 0 1.8678e+10
15.1552 0 2.56613 0 0 0 0 4.33417e-08 0 2.20429e+10
16.0156 0 3.02843 0 0 0 0 3.71677e-08 0 2.6014e+10
16.9247 0 3.574 0 0 0 0 3.18628e-08 0 3.07005e+10
17.8855 0 4.21787 0 0 0 0 2.73063e-08 0 3.62312e+10
18.9008 0 4.97773 0 0 0 0 2.33941e-08 0 4.27584e+10
19.9738 0 5.87448 0 0 0 0 2.00364e-08 0 5.04614e+10
21.1076 0 6.93279 0 0 0 0 1.71555e-08 0 5.95522e+10
22.3058 0 8.18175 0 0 0 0 1.46847e-08 0 7.02807e+10
23.5721 0 9.65571 0 0 0 0 1.25662e-08 0 8.29419e+10
24.9102 0 11.3952 0 0 0 0 1.07504e-08 0 9.78842e+10
26.3243 0 13.4481 0 0 0 0 9.19452e-09 0 1.15518e+11
27.8187 0 15.8708 0 0 0 0 7.86182e-09 0 1.36329e+11
29.3979 0 18.73 0 0 0 0 6.72061e-09 0 1.60889e+11
31.0667 0 22.1042 0 0 0 0 5.74366e-09 0 1.89874e+11
32.8303 0 26.0864 0 0 0 0 4.90756e-09 0 2.2408e+11
34.694 0 30.7859 0 0 0 0 4.19221e-09 0 2.64449e+11
36.6634 0 36.3321 0 0 0 0 3.58032e-09 0 3.1209e+11
38.7447 0 42.8774 0 0 0 0 3.05709e-09 0 3.68314e+11
40.9442 0 50.6018 0 0 0 0 2.60976e-09 0 4.34667e+11
43.2685 0 59.7179 0 0 0 0 2.22743e-09 0 5.12973e+11
45.7247 0 70.4762 0 0 0 0 1.90073e-09 0 6.05386e+11
48.3204 0 83.1727 0 0 0 0 1.62163e-09 0 7.14448e+11
51.0634 0 98.1565 0 0 0 0 1.38326e-09 0 8.43158e+11
53.9621 0 115.84 0 0 0 0 1.1797e-09 0 9.95055e+11
57.0254 0 136.709 0 0 0 0 1.00592e-09 0 1.17432e+12
60.2626 0 161.337 0 0 0 0 8.57591e-10 0 1.38587e+12
63.6835 0 190.402 0 0 0 0 7.3101e-10 0 1.63554e+12
67.2987 0 224.704 0 0 0 0 6.23009e-10 0 1.93019e+12
71.1191 0 265.185 0 0 0 0 5.30879e-10 0 2.27792e+12
75.1563 0 312.958 0 0 0 0 4.52303e-10 0 2.68829e+12
79.4227 0 369.339 0 0 0 0 3.85299e-10 0 3.17259e+12
83.9313 0 435.876 0 0 0 0 3.28173e-10 0 3.74415e+12
88.6959 0 514.4 0 0 0 0 2.79476e-10 0 4.41866e+12
93.7309 0 607.071 0 0 0 0 2.37972e-10 0 5.2147e+12
99.0518 0 716.436 0 0 0 0 2.02605e-10 0 6.15414e+12
104.675 0 845.504 0 0 0 0 1.72471e-10 0 7.26283e+12
110.617 0 997.824 0 0 0 0 1.468e-10 0 8.57124e+12
116.896 0 1177.58 0 0 0 0 1.24935e-10 0 1.01154e+13
123.532 0 1389.73 0 0 0 0 1.06313e-10 0 1.19377e+13
130.545 0 1640.09 0 0 0 0 9.04567e-11 0 1.40883e+13
137.955 0 1935.56 0 0 0 0 7.69563e-11 0 1.66263e+13
145.787 0 2284.26 0 0 0 0 6.54636e-11 0 1.96216e+13
154.063 0 2695.77 0 0 0 0 5.56812e-11 0 2.31565e+13
162.808 0 3181.42 0 0 0 0 4.73556e-11 0 2.73282e+13
172.051 0 3754.56 0 0 0 0 4.02708e-11 0 3.22515e+13
181.818 0 4430.96 0 0 0 0 3.42426e-11 0 3.80616e+13
192.139 0 5229.21 0 0 0 0 2.91139e-11 0 4.49186e+13
203.046 0 6171.26 0 0 0 0 2.4751e-11 0 5.30108e+13
214.572 0 7283.03 0 0 0 0 2.10401e-11 0 6.25608e+13
226.753 0 8595.09 0 0 0 0 1.78839e-11 0 7.38313e+13
239.625 0 10143.5 0 0 0 0 1.51999e-11 0 8.71322e+13
253.228 0 11970.9 0 0 0 0 1.29176e-11 0 1.02829e+14
267.603 0 14127.5 0 0 0 0 1.09771e-11 0 1.21354e+14
282.795 0 16672.6 0 0 0 0 9.3274e-12 0 1.43217e+14
298.848 0 19676.2 0 0 0 0 7.925e-12 0 1.69017e+14
315.813 0 23220.9 0 0 0 0 6.73295e-12 0 1.99466e+14
333.741 0 27404.3 0 0 0 0 5.71979e-12 0 2.35401e+14
352.686 0 32341.2 0 0 0 0 4.85874e-12 0 2.77809e+14
372.707 0 38167.6 0 0 0 0 4.12703e-12 0 3.27857e+14
393.865 0 45043.5 0 0 0 0 3.50528e-12 0 3.86921e+14
416.224 0 53158.3 0 0 0 0 2.97701e-12 0 4.56626e+14
439.852 0 62734.9 0 0 0 0 2.52819e-12 0 5.38888e+14
464.821 0 74036.7 0 0 0 0 2.1469e-12 0 6.35971e+14
491.207 0 87374.6 0 0 0 0 1.82301e-12 0 7.50542e+14
519.092 0 103115 0 0 0 0 1.54789e-12 0 8.85755e+14
548.56 0 121692 0 0 0 0 1.31422e-12 0 1.04533e+15
579.7 0 143615 0 0 0 0 1.11576e-12 0 1.23364e+15
612.608 0 169488 0 0 0 0 9.47223e-13 0 1.45589e+15
647.384 0 200021 0 0 0 0 8.041e-13 0 1.71817e+15
684.134 0 236056 0 0 0 0 6.82568e-13 0 2.0277e+15
722.971 0 278582 0 0 0 0 5.79376e-13 0 2.393e+15
764.012 0 328769 0 0 0 0 4.91762e-13 0 2.8241e+15
