0.204077
200
1.0655e+09
8589934592
0.0129181 0 1.58924e-09 0 0 0 0 0.00677225 0 13.6515
0.0136515 0 1.87554e-09 0 0 0 0 0.00688819 0 16.1108
0.0144264 0 2.21343e-09 0 0 0 0 0.00699249 0 19.0132
0.0152454 0 2.61218e-09 0 0 0 0 0.00708412 0 22.4385
0.0161108 0 3.08278e-09 0 0 0 0 0.00716212 0 26.4808
0.0170254 0 3.63815e-09 0 0 0 0 0.00722559 0 31.2514
0.0179919 0 4.29357e-09 0 0 0 0 0.00727371 0 36.8815
0.0190132 0 5.06707e-09 0 0 0 0 0.00730578 0 43.5258
0.0200925 0 5.97991e-09 0 0 0 0 0.00732122 0 51.367
0.0212331 0 7.05721e-09 0 0 0 0 0.00731958 0 60.621
0.0224385 0 8.32858e-09 0 0 0 0 0.00730056 0 71.542
0.0237123 0 9.829e-09 0 0 0 0 0.00726401 0 84.4305
0.0250583 0 1.15997e-08 0 0 0 0 0.00720995 0 99.6408
0.0264808 0 1.36894e-08 0 0 0 0 0.00713857 0 117.591
0.0279841 0 1.61556e-08 0 0 0 0 0.00705021 0 138.776
0.0295727 0 1.90661e-08 0 0 0 0 0.00694538 0 163.777
0.0312514 0 2.25009e-08 0 0 0 0 0.00682475 0 193.281
0.0330255 0 2.65545e-08 0 0 0 0 0.00668915 0 228.102
0.0349003 0 3.13384e-08 0 0 0 0 0.00653951 0 269.195
0.0368815 0 3.69841e-08 0 0 0 0 0.00637693 0 317.691
0.0389751 0 4.36469e-08 0 0 0 0 0.00620256 0 374.924
0.0411876 0 5.151e-08 0 0 0 0 0.00601767 0 442.467
0.0435258 0 6.07896e-08 0 0 0 0 0.00582358 0 522.179
0.0459966 0 7.1741e-08 0 0 0 0 0.00562166 0 616.251
0.0486077 0 8.46654e-08 0 0 0 0 0.0054133 0 727.27
0.051367 0 9.99181e-08 0 0 0 0 0.00519989 0 858.29
0.054283 0 1.17919e-07 0 0 0 0 0.0049828 0 1012.91
0.0573645 0 1.39162e-07 0 0 0 0 0.00476339 0 1195.39
0.060621 0 1.64232e-07 0 0 0 0 0.00454293 0 1410.75
0.0640622 0 1.93819e-07 0 0 0 0 0.00432265 0 1664.89
0.0676989 0 2.28736e-07 0 0 0 0 0.00410371 0 1964.83
0.071542 0 2.69944e-07 0 0 0 0 0.00388717 0 2318.8
0.0756032 0 3.18575e-07 0 0 0 0 0.00367401 0 2736.54
0.079895 0 3.75967e-07 0 0 0 0 0.0034651 0 3229.53
0.0844305 0 4.43698e-07 0 0 0 0 0.00326121 0 3811.34
0.0892234 0 5.23632e-07 0 0 0 0 0.00306301 0 4497.96
0.0942883 0 6.17966e-07 0 0 0 0 0.00287109 0 5308.28
0.0996408 0 7.29294e-07 0 0 0 0 0.00268591 0 6264.59
0.105297 0 8.60678e-07 0 0 0 0 0.00250785 0 7393.17
0.111275 0 1.01573e-06 0 0 0 0 0.00233721 0 8725.07
0.117591 0 1.19872e-06 0 0 0 0 0.00217419 0 10296.9
0.124267 0 1.41467e-06 0 0 0 0 0.00201893 0 12151.9
0.131321 0 1.66953e-06 0 0 0 0 0.00187147 0 14341.1
0.138776 0 1.9703e-06 0 0 0 0 0.00173182 0 16924.7
0.146654 0 2.32525e-06 0 0 0 0 0.00159991 0 19973.8
0.154979 0 2.74415e-06 0 0 0 0 0.00147563 0 23572.1
0.163777 0 3.23852e-06 0 0 0 0 0.00135884 0 27818.7
0.173074 0 3.82195e-06 0 0 0 0 0.00124933 0 32830.3
0.182899 0 4.51048e-06 0 0 0 0 0.00114689 0 38744.7
0.193281 0 5.32305e-06 0 0 0 0 0.00105127 0 45724.7
0.204254 0 6.28202e-06 0 0 0 0 0.000962209 0 53962.1
0.215848 0 7.41374e-06 0 0 0 0 0.000879423 0 63683.5
0.228102 0 8.74934e-06 0 0 0 0 0.000802624 0 75156.3
0.24105 0 1.03256e-05 0 0 0 0 0.000731515 0 88695.9
0.254734 0 1.21857e-05 0 0 0 0 0.000665798 0 104675
0.269195 0 1.4381e-05 0 0 0 0 0.000605173 0 123532
0.284476 0 1.69718e-05 0 0 0 0 0.000549345 0 145787
0.300625 0 2.00293e-05 0 0 0 0 0.000498021 0 172051
0.317691 0 2.36377e-05 0 0 0 0 0.000450916 0 203046
0.335725 0 2.78961e-05 0 0 0 0 0.000407755 0 239625
0.354784 0 3.29216e-05 0 0 0 0 0.000368269 0 282795
0.374924 0 3.88525e-05 0 0 0 0 0.000332202 0 333741
0.396207 0.998141 4.58519e-05 2.53422e-06 6 0.970391 2.46377e-06 0.000299307 0.0508018 393865
0.418699 0 5.41123e-05 0 0 0 0 0.00026935 0 464821
0.442467 0 6.38607e-05 0 0 0 0 0.000242108 0 548560
0.467585 0 7.53654e-05 0 0 0 0 0.00021737 0 647384
0.494129 0 8.89427e-05 0 0 0 0 0.000194938 0 764012
0.522179 0 0.000104966 0 0 0 0 0.000174625 0 901651
0.551822 0 0.000123876 0 0 0 0 0.000156255 0 1.06409e+06
0.583147 4.57523 0.000146192 3.64333e-06 12 4.81546 3.83463e-06 0.000139664 0.313037 1.25578e+06
0.616251 0 0.000172529 0 0 0 0 0.0001247 0 1.48202e+06
0.651234 0 0.000203611 0 0 0 0 0.00011122 0 1.74901e+06
0.688203 21.9593 0.000240292 1.06387e-05 8 21.413 1.0374e-05 9.90935e-05 0.858882 2.06409e+06
0.72727 0 0.000283581 0 0 0 0 8.81969e-05 0 2.43595e+06
0.768555 0 0.000334669 0 0 0 0 7.84179e-05 0 2.87479e+06
0.812184 0.559986 0.000394961 1.65057e-07 6 0.571959 1.68586e-07 6.96525e-05 0.0142183 3.39269e+06
0.85829 0 0.000466114 0 0 0 0 6.1805e-05 0 4.00389e+06
0.907013 0.250337 0.000550086 5.29791e-08 24 0.25514 5.39956e-08 5.47875e-05 0.0232078 4.7252e+06
0.958501 1.70066 0.000649185 3.04972e-07 24 1.60105 2.87109e-07 4.85194e-05 0.150854 5.57646e+06
1.01291 0 0.000766138 0 0 0 0 4.29272e-05 0 6.58107e+06
1.07041 0 0.00090416 0 0 0 0 3.79435e-05 0 7.76667e+06
1.13118 2.44513 0.00106705 2.66765e-07 12 2.4151 2.63488e-07 3.3507e-05 0.0955377 9.16586e+06
1.19539 1.44125 0.00125928 1.33238e-07 30 1.41154 1.30491e-07 2.9562e-05 0.135212 1.08171e+07
1.26325 6.70138 0.00148614 5.24946e-07 24 6.60055 5.17047e-07 2.60578e-05 0.483491 1.27658e+07
1.33496 18.2418 0.00175387 1.21082e-06 24 18.2819 1.21348e-06 2.29484e-05 1.26631 1.50656e+07
1.41075 7.41184 0.00206984 4.16869e-07 32 7.61595 4.28349e-07 2.01923e-05 0.660639 1.77798e+07
1.49083 0.862202 0.00244272 4.10908e-08 48 0.843821 4.02148e-08 1.77518e-05 0.111108 2.09828e+07
1.57546 0.460556 0.00288279 1.85986e-08 6 0.438553 1.77101e-08 1.55929e-05 0.00715658 2.4763e+07
1.66489 0.825266 0.00340213 2.82393e-08 84 0.801788 2.74359e-08 1.3685e-05 0.173335 2.92241e+07
1.75941 2.90712 0.00401503 8.42914e-08 48 2.91947 8.46497e-08 1.20007e-05 0.337147 3.44889e+07
1.85928 0.576516 0.00473835 1.41643e-08 72 0.579225 1.42308e-08 1.05151e-05 0.096987 4.07021e+07
1.96483 1.41147 0.00559198 2.93845e-08 54 1.38207 2.87722e-08 9.20606e-06 0.17236 4.80347e+07
2.07637 8.23792 0.00659939 1.4532e-07 104 8.22397 1.45074e-07 8.05366e-06 1.87657 5.66883e+07
2.19424 0.80867 0.00778828 1.20876e-08 120 0.816174 1.21998e-08 7.04008e-06 0.206036 6.69008e+07
2.3188 1.95483 0.00919136 2.47594e-08 156 1.87019 2.36873e-08 6.1494e-06 0.628105 7.89532e+07
2.45043 1.4305 0.0108472 1.53525e-08 126 1.42231 1.52647e-08 5.36741e-06 0.3604 9.31768e+07
2.58954 1.0534 0.0128014 9.57956e-09 192 1.0596 9.636e-09 4.68145e-06 0.392886 1.09963e+08
2.73654 4.88221 0.0151076 3.76212e-08 152 5.01868 3.86728e-08 4.08023e-06 1.40149 1.29773e+08
2.89188 3.75503 0.0178292 2.45184e-08 378 3.82429 2.49706e-08 3.55373e-06 2.60795 1.53152e+08
3.05605 1.79712 0.0210412 9.94295e-09 264 1.7652 9.76639e-09 3.09304e-06 0.84866 1.80743e+08
3.22953 0.856739 0.0248319 4.01652e-09 366 0.849242 3.98137e-09 2.69025e-06 0.546433 2.13304e+08
3.41286 1.42808 0.0293054 5.67302e-09 428 1.39355 5.53585e-09 2.33837e-06 1.03835 2.51731e+08
3.6066 3.67997 0.0345848 1.23871e-08 486 3.57719 1.20411e-08 2.0312e-06 2.96382 2.97081e+08
3.81134 1.82157 0.0408154 5.19555e-09 600 1.81518 5.17733e-09 1.76327e-06 1.76793 3.50601e+08
4.0277 1.68694 0.0481684 4.07707e-09 738 1.66232 4.01755e-09 1.52972e-06 1.96694 4.13763e+08
4.25634 2.40625 0.056846 4.92778e-09 824 2.45422 5.026e-09 1.32631e-06 3.0615 4.88304e+08
4.49796 3.59473 0.067087 6.2379e-09 954 3.59209 6.23331e-09 1.14926e-06 5.17809 5.76273e+08
4.7533 1.71948 0.0791729 2.52831e-09 1094 1.70743 2.5106e-09 9.95263e-07 2.77914 6.8009e+08
5.02313 1.79802 0.0934361 2.24022e-09 1332 1.80148 2.24452e-09 8.61414e-07 3.46404 8.0261e+08
5.30828 3.68044 0.110269 3.88559e-09 1614 3.70256 3.90894e-09 7.45152e-07 8.41619 9.47202e+08
5.60962 2.81342 0.130134 2.51682e-09 1850 2.76964 2.47766e-09 6.44232e-07 7.2274 1.11784e+09
5.92807 3.05171 0.153578 2.31326e-09 2238 3.00318 2.27647e-09 5.56685e-07 9.29981 1.31923e+09
6.26459 2.51682 0.181246 1.61657e-09 2546 2.53698 1.62952e-09 4.80786e-07 8.56055 1.55689e+09
6.62021 2.4093 0.213898 1.31128e-09 3264 2.40723 1.31015e-09 4.15026e-07 10.3126 1.83737e+09
6.99602 3.681 0.252432 1.69759e-09 3506 3.72156 1.71629e-09 3.58083e-07 16.6211 2.16837e+09
7.39317 3.07813 0.297908 1.20286e-09 4506 3.08368 1.20503e-09 3.08803e-07 17.5519 2.55901e+09
7.81286 3.84821 0.351577 1.27423e-09 5018 3.87573 1.28334e-09 2.66181e-07 24.0216 3.02002e+09
8.25637 4.00535 0.414914 1.12381e-09 5852 3.96743 1.11317e-09 2.29336e-07 28.6763 3.56409e+09
8.72507 4.09972 0.489662 9.74692e-10 7362 4.08735 9.71751e-10 1.97503e-07 36.332 4.20617e+09
9.22037 4.65287 0.577876 9.37338e-10 8306 4.62608 9.31942e-10 1.70014e-07 45.7934 4.96392e+09
9.74378 4.35219 0.681982 7.42926e-10 9698 4.34996 7.42543e-10 1.46289e-07 49.2511 5.85818e+09
10.2969 5.3255 0.804843 7.70298e-10 11816 5.33238 7.71294e-10 1.25822e-07 72.3388 6.91355e+09
10.8814 5.6025 0.949838 6.86662e-10 13682 5.59726 6.86019e-10 1.08175e-07 86.8488 8.15905e+09
11.4992 5.98285 1.12095 6.21342e-10 16152 5.96054 6.19025e-10 9.29669e-08 107.952 9.62892e+09
12.1519 6.40898 1.3229 5.63992e-10 19472 6.38234 5.61648e-10 7.98658e-08 137.506 1.13636e+10
12.8418 6.68478 1.56122 4.98463e-10 22670 6.6676 4.97182e-10 6.85852e-08 164.761 1.34108e+10
13.5708 7.48712 1.84248 4.73067e-10 26224 7.47953 4.72587e-10 5.88765e-08 210.707 1.58268e+10
14.3411 7.95641 2.17441 4.25978e-10 31640 7.95364 4.25829e-10 5.05241e-08 266.762 1.8678e+10
15.1552 8.72867 2.56613 3.95986e-10 37484 8.71856 3.95527e-10 4.33417e-08 342.468 2.20429e+10
16.0156 9.46014 3.02843 3.63656e-10 43856 9.44115 3.62926e-10 3.71677e-08 429.095 2.6014e+10
16.9247 10.6246 3.574 3.46074e-10 51362 10.6035 3.45386e-10 3.18628e-08 557.863 3.07005e+10
17.8855 11.2206 4.21787 3.09693e-10 61636 11.1975 3.09057e-10 2.73063e-08 699.042 3.62312e+10
18.9008 12.3328 4.97773 2.8843e-10 72218 12.3042 2.87762e-10 2.33941e-08 890.387 4.27584e+10
19.9738 13.5524 5.87448 2.68569e-10 84586 13.5202 2.67931e-10 2.00364e-08 1133.8 5.04614e+10
21.1076 14.5042 6.93279 2.43554e-10 100708 14.4783 2.43119e-10 1.71555e-08 1429.73 5.95522e+10
22.3058 15.9344 8.18175 2.26725e-10 118712 15.9041 2.26294e-10 1.46847e-08 1832.86 7.02807e+10
23.5721 17.3138 9.65571 2.08746e-10 140410 17.2729 2.08252e-10 1.25662e-08 2332.46 8.29419e+10
24.9102 18.8313 11.3952 1.92384e-10 164374 18.7938 1.92e-10 1.07504e-08 2941.56 9.78842e+10
26.3243 20.5649 13.4481 1.78023e-10 194680 20.5188 1.77623e-10 9.19452e-09 3769.36 1.15518e+11
27.8187 22.4318 15.8708 1.64541e-10 230196 22.379 1.64154e-10 7.86182e-09 4817.81 1.36329e+11
29.3979 24.5502 18.73 1.52591e-10 271156 24.4922 1.5223e-10 6.72061e-09 6156.56 1.60889e+11
31.0667 26.7116 22.1042 1.40681e-10 321076 26.6473 1.40342e-10 5.74366e-09 7864.19 1.89874e+11
32.8303 29.1708 26.0864 1.3018e-10 377436 29.0978 1.29855e-10 4.90756e-09 10012 2.2408e+11
34.694 32.1995 30.7859 1.21761e-10 447594 32.1195 1.21458e-10 4.19221e-09 13000.2 2.64449e+11
36.6634 35.5417 36.3321 1.13883e-10 525078 35.452 1.13595e-10 3.58032e-09 16701.7 3.1209e+11
38.7447 39.4426 42.8774 1.0709e-10 621924 39.3465 1.06829e-10 3.05709e-09 21786 3.68314e+11
40.9442 43.9927 50.6018 1.0121e-10 732630 43.8821 1.00956e-10 2.60976e-09 28412.4 4.34667e+11
43.2685 48.8213 59.7179 9.51732e-11 865596 48.7013 9.49393e-11 2.22743e-09 36985 5.12973e+11
45.7247 54.7763 70.4762 9.04816e-11 1.02168e+06 54.6346 9.02475e-11 1.90073e-09 48635.4 6.05386e+11
48.3204 61.5441 83.1727 8.61421e-11 1.20544e+06 61.3767 8.59078e-11 1.62163e-09 64033.5 7.14448e+11
51.0634 69.3822 98.1565 8.22885e-11 1.42103e+06 69.19 8.20605e-11 1.38326e-09 84535.6 8.43158e+11
53.9621 78.6187 115.84 7.90094e-11 1.67997e+06 78.3905 7.878e-11 1.1797e-09 112514 9.95055e+11
57.0254 89.5958 136.709 7.62961e-11 1.98018e+06 89.3387 7.60771e-11 1.00592e-09 150191 1.17432e+12
60.2626 102.105 161.337 7.36753e-11 2.33957e+06 101.804 7.34586e-11 8.57591e-10 200991 1.38587e+12
63.6835 116.913 190.402 7.14825e-11 2.75676e+06 116.575 7.12763e-11 7.3101e-10 269573 1.63554e+12
67.2987 134.223 224.704 6.95387e-11 3.25638e+06 133.846 6.93437e-11 6.23009e-10 363469 1.93019e+12
71.1191 155.015 265.185 6.8051e-11 3.84387e+06 154.555 6.78491e-11 5.30879e-10 492728 2.27792e+12
75.1563 188.64 312.958 7.01711e-11 4.53277e+06 187.407 6.97124e-11 4.52303e-10 703221 2.68829e+12
79.4227 208.261 369.339 6.56437e-11 5.35083e+06 207.641 6.54484e-11 3.85299e-10 911623 3.17259e+12
83.9313 242.067 435.876 6.46522e-11 6.32174e+06 241.311 6.44502e-11 3.28173e-10 1.24542e+06 3.74415e+12
88.6959 282.432 514.4 6.39179e-11 7.44986e+06 281.538 6.37157e-11 2.79476e-10 1.70383e+06 4.41866e+12
93.7309 329.679 607.071 6.32211e-11 8.79764e+06 328.629 6.30197e-11 2.37972e-10 2.33723e+06 5.2147e+12
99.0518 386.05 716.436 6.27301e-11 1.03827e+07 384.823 6.25308e-11 2.02605e-10 3.21467e+06 6.15414e+12
104.675 457.332 845.504 6.29689e-11 1.22515e+07 456.093 6.27983e-11 1.72471e-10 4.47301e+06 7.26283e+12
110.617 531.101 997.824 6.19631e-11 1.44573e+07 529.395 6.17641e-11 1.468e-10 6.10232e+06 8.57124e+12
116.896 623.758 1177.58 6.16644e-11 1.70664e+07 621.732 6.1464e-11 1.24935e-10 8.42351e+06 1.01154e+13
123.532 733.014 1389.73 6.14034e-11 2.0139e+07 730.611 6.12021e-11 1.06313e-10 1.16317e+07 1.19377e+13
130.545 862.836 1640.09 6.12449e-11 2.37643e+07 860.002 6.10437e-11 9.04567e-11 1.60899e+07 1.40883e+13
137.955 1015.98 1935.56 6.11064e-11 2.80503e+07 1012.64 6.09057e-11 7.69563e-11 2.22731e+07 1.66263e+13
145.787 1196.4 2284.26 6.09734e-11 3.30981e+07 1192.44 6.07718e-11 6.54636e-11 3.08279e+07 1.96216e+13
154.063 1412.14 2695.77 6.09823e-11 3.90634e+07 1407.45 6.07801e-11 5.56812e-11 4.27825e+07 2.31565e+13
162.808 1662.65 3181.42 6.08401e-11 4.61057e+07 1657.12 6.06375e-11 4.73556e-11 5.92343e+07 2.73282e+13
172.051 1961.52 3754.56 6.08194e-11 5.44046e+07 1954.99 6.0617e-11 4.02708e-11 8.21651e+07 3.22515e+13
181.818 2318.91 4430.96 6.0925e-11 6.42064e+07 2311.27 6.07245e-11 3.42426e-11 1.14237e+08 3.80616e+13
192.139 2734.8 5229.21 6.08834e-11 7.57748e+07 2725.66 6.068e-11 2.91139e-11 1.58461e+08 4.49186e+13
203.046 3233.57 6171.26 6.09983e-11 8.94213e+07 3222.67 6.07927e-11 2.4751e-11 2.20377e+08 5.30108e+13
214.572 3827.38 7283.03 6.11785e-11 1.05538e+08 3814.45 6.09719e-11 2.10401e-11 3.06875e+08 6.25608e+13
226.753 4531.87 8595.09 6.13814e-11 1.24552e+08 4516.45 6.11726e-11 1.78839e-11 4.27488e+08 7.38313e+13
239.625 5374.29 10143.5 6.16797e-11 1.46987e+08 5355.93 6.1469e-11 1.51999e-11 5.9646e+08 8.71322e+13
253.228 6383 11970.9 6.20738e-11 1.7347e+08 6361.01 6.18599e-11 1.29176e-11 8.33585e+08 1.02829e+14
267.603 7597.65 14127.5 6.26072e-11 2.04703e+08 7571.28 6.23899e-11 1.09771e-11 1.16751e+09 1.21354e+14
282.795 9074.23 16672.6 6.33602e-11 2.4161e+08 9042.29 6.31372e-11 9.3274e-12 1.64123e+09 1.43217e+14
298.848 10875.7 19676.2 6.43469e-11 2.85122e+08 10836.7 6.41158e-11 7.925e-12 2.31505e+09 1.69017e+14
315.813 13109.5 23220.9 6.57227e-11 3.36491e+08 13061.3 6.54812e-11 6.73295e-12 3.28461e+09 1.99466e+14
333.741 15920.4 27404.3 6.76309e-11 3.97115e+08 15859.8 6.73735e-11 5.71979e-12 4.69549e+09 2.35401e+14
352.686 19544.6 32341.2 7.03528e-11 4.68637e+08 19466.9 7.00731e-11 4.85874e-12 6.7857e+09 2.77809e+14
372.707 24356.7 38167.6 7.42906e-11 5.53074e+08 24254.1 7.39777e-11 4.12703e-12 9.95587e+09 3.27857e+14
393.865 30996.4 45043.5 8.01105e-11 6.52716e+08 30855.6 7.97466e-11 3.50528e-12 1.49173e+10 3.86921e+14
416.224 36579.7 53158.3 8.01087e-11 2.2184e+08 38697.9 8.47474e-11 2.97701e-12 5.96951e+09 4.56626e+14
439.852 0 62734.9 0 0 0 0 2.52819e-12 0 5.38888e+14
464.821 0 74036.7 0 0 0 0 2.1469e-12 0 6.35971e+14
491.207 0 87374.6 0 0 0 0 1.82301e-12 0 7.50542e+14
519.092 0 103115 0 0 0 0 1.54789e-12 0 8.85755e+14
548.56 0 121692 0 0 0 0 1.31422e-12 0 1.04533e+15
579.7 0 143615 0 0 0 0 1.11576e-12 0 1.23364e+15
612.608 0 169488 0 0 0 0 9.47223e-13 0 1.45589e+15
647.384 0 200021 0 0 0 0 8.041e-13 0 1.71817e+15
684.134 0 236056 0 0 0 0 6.82568e-13 0 2.0277e+15
722.971 0 278582 0 0 0 0 5.79376e-13 0 2.393e+15
764.012 0 328769 0 0 0 0 4.91762e-13 0 2.8241e+15
0.204077
200
1.0655e+09
8589934592
0.0129181 0.000129579 1.58924e-09 9.49197e-06 6 0.000128393 9.40507e-06 0.00677225 0.00840958 13.6515
0.0136515 0 1.87554e-09 0 0 0 0 0.00688819 0 16.1108
0.0144264 0 2.21343e-09 0 0 0 0 0.00699249 0 19.0132
0.0152454 0 2.61218e-09 0 0 0 0 0.00708412 0 22.4385
0.0161108 0 3.08278e-09 0 0 0 0 0.00716212 0 26.4808
0.0170254 0 3.63815e-09 0 0 0 0 0.00722559 0 31.2514
0.0179919 0.000318799 4.29357e-09 8.64387e-06 12 0.000318388 8.63273e-06 0.00727371 0.0142605 36.8815
0.0190132 0 5.06707e-09 0 0 0 0 0.00730578 0 43.5258
0.0200925 0 5.97991e-09 0 0 0 0 0.00732122 0 51.367
0.0212331 0.00147165 7.05721e-09 2.42762e-05 8 0.00147037 2.42551e-05 0.00731958 0.0265329 60.621
0.0224385 0 8.32858e-09 0 0 0 0 0.00730056 0 71.542
0.0237123 0 9.829e-09 0 0 0 0 0.00726401 0 84.4305
0.0250583 0.00108865 1.15997e-08 1.09258e-05 6 0.00108814 1.09206e-05 0.00720995 0.00909225 99.6408
0.0264808 0 1.36894e-08 0 0 0 0 0.00713857 0 117.591
0.0279841 0.00146123 1.61556e-08 1.05295e-05 24 0.00145973 1.05186e-05 0.00705021 0.0358439 138.776
0.0295727 0 1.90661e-08 0 0 0 0 0.00694538 0 163.777
0.0312514 0.00155292 2.25009e-08 8.0345e-06 24 0.0015608 8.07529e-06 0.00682475 0.0282542 193.281
0.0330255 0 2.65545e-08 0 0 0 0 0.00668915 0 228.102
0.0349003 0.002737 3.13384e-08 1.01674e-05 12 0.00271509 1.0086e-05 0.00653951 0.0186571 269.195
0.0368815 0.00238904 3.69841e-08 7.52001e-06 30 0.0023636 7.43993e-06 0.00637693 0.0353776 317.691
0.0389751 0.00283334 4.36469e-08 7.55711e-06 24 0.00280419 7.47937e-06 0.00620256 0.0292413 374.924
0.0411876 0.00404504 5.151e-08 9.14201e-06 24 0.00401757 9.07992e-06 0.00601767 0.0364607 442.467
0.0435258 0.00449987 6.07896e-08 8.6175e-06 8 0.00449953 8.61683e-06 0.00582358 0.0118381 522.179
0.0459966 0.00309965 7.1741e-08 5.02985e-06 72 0.00309001 5.01421e-06 0.00562166 0.0644203 616.251
0.0486077 0 8.46654e-08 0 0 0 0 0.0054133 0 727.27
0.051367 0.00609351 9.99181e-08 7.0996e-06 54 0.00606995 7.07214e-06 0.00519989 0.0737282 858.29
0.054283 0.00736407 1.17919e-07 7.27019e-06 60 0.00741248 7.31798e-06 0.0049828 0.0875434 1012.91
0.0573645 0.00777791 1.39162e-07 6.50658e-06 96 0.00774244 6.4769e-06 0.00476339 0.131132 1195.39
0.060621 0.0091872 1.64232e-07 6.5123e-06 24 0.00906273 6.42407e-06 0.00454293 0.0344041 1410.75
0.0640622 0.0123484 1.93819e-07 7.41692e-06 134 0.0123372 7.41018e-06 0.00432265 0.229921 1664.89
0.0676989 0.0111366 2.28736e-07 5.66797e-06 120 0.0110569 5.6274e-06 0.00410371 0.165742 1964.83
0.071542 0.0121917 2.69944e-07 5.25776e-06 108 0.0120156 5.18182e-06 0.00388717 0.14608 2318.8
0.0756032 0.0154842 3.18575e-07 5.65831e-06 174 0.0154009 5.62786e-06 0.00367401 0.267976 2736.54
0.079895 0.0148343 3.75967e-07 4.59333e-06 168 0.0146858 4.54734e-06 0.0034651 0.2227 3229.53
0.0844305 0.0174371 4.43698e-07 4.57505e-06 168 0.0174921 4.58948e-06 0.00326121 0.235682 3811.34
0.0892234 0.0177859 5.23632e-07 3.95422e-06 290 0.0176998 3.93506e-06 0.00306301 0.374378 4497.96
0.0942883 0.0181431 6.17966e-07 3.41788e-06 288 0.0181547 3.42007e-06 0.00287109 0.342849 5308.28
0.0996408 0.0187756 7.29294e-07 2.99711e-06 366 0.0186666 2.9797e-06 0.00268591 0.408406 6264.59
0.105297 0.0187607 8.60678e-07 2.53757e-06 420 0.0186342 2.52047e-06 0.00250785 0.424976 7393.17
0.111275 0.0232331 1.01573e-06 2.66279e-06 398 0.0231891 2.65776e-06 0.00233721 0.453443 8725.07
0.117591 0.0231872 1.19872e-06 2.25186e-06 624 0.0231932 2.25244e-06 0.00217419 0.64629 10296.9
0.124267 0.0281205 1.41467e-06 2.31407e-06 642 0.0280819 2.3109e-06 0.00201893 0.735855 12151.9
0.131321 0.0343793 1.66953e-06 2.39725e-06 800 0.03438 2.3973e-06 0.00187147 1.02476 14341.1
0.138776 0.0345374 1.9703e-06 2.04065e-06 858 0.0346425 2.04686e-06 0.00173182 1.011 16924.7
0.146654 0.0392878 2.32525e-06 1.96697e-06 1080 0.0395758 1.98139e-06 0.00159991 1.32778 19973.8
0.154979 0.0400306 2.74415e-06 1.69822e-06 1286 0.0403461 1.7116e-06 0.00147563 1.47998 23572.1
0.163777 0.0403268 3.23852e-06 1.44963e-06 1650 0.0404308 1.45337e-06 0.00135884 1.76025 27818.7
0.173074 0.044201 3.82195e-06 1.34635e-06 1778 0.0442585 1.3481e-06 0.00124933 1.91607 32830.3
0.182899 0.0500777 4.51048e-06 1.2925e-06 2112 0.050217 1.2961e-06 0.00114689 2.38015 38744.7
0.193281 0.0542971 5.32305e-06 1.18748e-06 2570 0.0543453 1.18853e-06 0.00105127 2.90298 45724.7
0.204254 0.0559899 6.28202e-06 1.03758e-06 3030 0.0559651 1.03712e-06 0.000962209 3.26733 53962.1
0.215848 0.0620165 7.41374e-06 9.73824e-07 3434 0.0620004 9.73571e-07 0.000879423 3.80262 63683.5
0.228102 0.0651995 8.74934e-06 8.67518e-07 4218 0.0652206 8.67799e-07 0.000802624 4.55904 75156.3
0.24105 0.0688547 1.03256e-05 7.76301e-07 4766 0.0688642 7.76408e-07 0.000731515 5.05779 88695.9
0.254734 0.0755955 1.21857e-05 7.22195e-07 6026 0.075605 7.22286e-07 0.000665798 6.53644 104675
0.269195 0.0799026 1.4381e-05 6.46816e-07 6480 0.0798935 6.46743e-07 0.000605173 6.9259 123532
0.284476 0.0843017 1.69718e-05 5.78253e-07 8162 0.0844604 5.79342e-07 0.000549345 8.59151 145787
0.300625 0.0904171 2.00293e-05 5.25526e-07 9578 0.0903751 5.25282e-07 0.000498021 10.107 172051
0.317691 0.0975325 2.36377e-05 4.80346e-07 11234 0.097489 4.80132e-07 0.000450916 11.9672 203046
0.335725 0.102043 2.78961e-05 4.25844e-07 13344 0.101911 4.25292e-07 0.000407755 13.936 239625
0.354784 0.109413 3.29216e-05 3.869e-07 15464 0.109342 3.86649e-07 0.000368269 16.2463 282795
0.374924 0.113472 3.88525e-05 3.39999e-07 18458 0.113473 3.40004e-07 0.000332202 18.8912 333741
0.396207 0.121829 4.58519e-05 3.09316e-07 22232 0.121626 3.088e-07 0.000299307 22.9755 393865
0.418699 0.129208 5.41123e-05 2.77973e-07 25628 0.128936 2.77388e-07 0.00026935 26.4485 464821
0.442467 0.138422 6.38607e-05 2.52338e-07 30320 0.13821 2.51952e-07 0.000242108 31.6012 548560
0.467585 0.148174 7.53654e-05 2.2888e-07 35452 0.148003 2.28618e-07 0.00021737 37.3292 647384
0.494129 0.15364 8.89427e-05 2.01096e-07 41792 0.15362 2.0107e-07 0.000194938 43.1122 764012
0.522179 0.164927 0.000104966 1.82917e-07 49988 0.16489 1.82876e-07 0.000174625 52.3617 901651
0.551822 0.177417 0.000123876 1.66732e-07 59110 0.177293 1.66615e-07 0.000156255 63.0736 1.06409e+06
0.583147 0.186781 0.000146192 1.48737e-07 69716 0.186559 1.4856e-07 0.000139664 74.2448 1.25578e+06
0.616251 0.197342 0.000172529 1.33158e-07 82210 0.197009 1.32933e-07 0.0001247 87.7859 1.48202e+06
0.651234 0.209874 0.000203611 1.19996e-07 96722 0.20944 1.19748e-07 0.00011122 104.354 1.74901e+06
0.688203 0.223657 0.000240292 1.08356e-07 113098 0.223363 1.08214e-07 9.90935e-05 123.67 2.06409e+06
0.72727 0.23811 0.000283581 9.77484e-08 135190 0.237878 9.76531e-08 8.81969e-05 149.831 2.43595e+06
0.768555 0.252145 0.000334669 8.7709e-08 158170 0.251883 8.76179e-08 7.84179e-05 176.91 2.87479e+06
0.812184 0.268302 0.000394961 7.90824e-08 188560 0.267973 7.89854e-08 6.96525e-05 214.088 3.39269e+06
0.85829 0.285191 0.000466114 7.12284e-08 220444 0.284818 7.11352e-08 6.1805e-05 254.055 4.00389e+06
0.907013 0.301817 0.000550086 6.38739e-08 261388 0.301461 6.37986e-08 5.47875e-05 304.739 4.7252e+06
0.958501 0.321087 0.000649185 5.7579e-08 308244 0.320766 5.75214e-08 4.85194e-05 365.8 5.57646e+06
1.01291 0.341133 0.000766138 5.18355e-08 364396 0.340703 5.17701e-08 4.29272e-05 440.016 6.58107e+06
1.07041 0.364075 0.00090416 4.68766e-08 429162 0.36361 4.68166e-08 3.79435e-05 530.201 7.76667e+06
1.13118 0.3866 0.00106705 4.21782e-08 506358 0.386054 4.21187e-08 3.3507e-05 637.397 9.16586e+06
1.19539 0.413026 0.00125928 3.81827e-08 598590 0.412479 3.81321e-08 2.9562e-05 773.147 1.08171e+07
1.26325 0.441035 0.00148614 3.4548e-08 704844 0.440414 3.44994e-08 2.60578e-05 934.497 1.27658e+07
1.33496 0.470677 0.00175387 3.12418e-08 834620 0.470032 3.11989e-08 2.29484e-05 1136.24 1.50656e+07
1.41075 0.501968 0.00206984 2.82325e-08 981444 0.501189 2.81888e-08 2.01923e-05 1372.24 1.77798e+07
1.49083 0.536406 0.00244272 2.5564e-08 1.15998e+06 0.53561 2.55261e-08 1.77518e-05 1670.46 2.09828e+07
1.57546 0.574577 0.00288279 2.32031e-08 1.36931e+06 0.573754 2.31699e-08 1.55929e-05 2037.61 2.4763e+07
1.66489 0.614695 0.00340213 2.10339e-08 1.61652e+06 0.613776 2.10024e-08 1.3685e-05 2484.58 2.92241e+07
1.75941 0.659219 0.00401503 1.9114e-08 1.90601e+06 0.658164 1.90834e-08 1.20007e-05 3035.77 3.44889e+07
1.85928 0.707495 0.00473835 1.73823e-08 2.24913e+06 0.706351 1.73542e-08 1.05151e-05 3717.98 4.07021e+07
1.96483 0.760001 0.00559198 1.58219e-08 2.65744e+06 0.758786 1.57966e-08 9.20606e-06 4567.18 4.80347e+07
2.07637 0.816323 0.00659939 1.44002e-08 3.13125e+06 0.81494 1.43758e-08 8.05366e-06 5598.78 5.66883e+07
2.19424 0.879932 0.00778828 1.31528e-08 3.69915e+06 0.878418 1.31302e-08 7.04008e-06 6911.01 6.69008e+07
2.3188 0.948308 0.00919136 1.2011e-08 4.36472e+06 0.946682 1.19904e-08 6.1494e-06 8525.18 7.89532e+07
2.45043 1.02252 0.0108472 1.0974e-08 5.14913e+06 1.02078 1.09553e-08 5.36741e-06 10527.7 9.31768e+07
2.58954 1.10576 0.0128014 1.00558e-08 6.07894e+06 1.10387 1.00386e-08 4.68145e-06 13057.6 1.09963e+08
2.73654 1.19596 0.0151076 9.21578e-09 7.17304e+06 1.19388 9.19975e-09 4.08023e-06 16201.3 1.29773e+08
2.89188 1.29483 0.0178292 8.45452e-09 8.46557e+06 1.29258 8.43984e-09 3.55373e-06 20140.1 1.53152e+08
3.05605 1.40326 0.0210412 7.76384e-09 9.98773e+06 1.40083 7.75042e-09 3.09304e-06 25070.2 1.80743e+08
3.22953 1.52496 0.0248319 7.14924e-09 1.1797e+07 1.52222 7.13639e-09 2.69025e-06 31350.1 2.13304e+08
3.41286 1.65757 0.0293054 6.58468e-09 1.39144e+07 1.65449 6.57245e-09 2.33837e-06 39181.8 2.51731e+08
3.6066 1.80263 0.0345848 6.06781e-09 1.64163e+07 1.79928 6.05651e-09 2.0312e-06 49040.4 2.97081e+08
3.81134 1.96325 0.0408154 5.59966e-09 1.93821e+07 1.95959 5.58923e-09 1.76327e-06 61552.6 3.50601e+08
4.0277 2.14208 0.0481684 5.17707e-09 2.28754e+07 2.13803 5.16728e-09 1.52972e-06 77417.6 4.13763e+08
4.25634 2.33783 0.056846 4.78766e-09 2.69929e+07 2.33325 4.77827e-09 1.32631e-06 97438 4.88304e+08
4.49796 2.553 0.067087 4.43019e-09 3.18542e+07 2.54803 4.42156e-09 1.14926e-06 122793 5.76273e+08
4.7533 2.78906 0.0791729 4.10102e-09 3.75892e+07 2.7836 4.09299e-09 9.95263e-07 154888 6.8009e+08
5.02313 3.05059 0.0934361 3.80084e-09 4.43706e+07 3.04458 3.79335e-09 8.61414e-07 195778 8.0261e+08
5.30828 3.33827 0.110269 3.52435e-09 5.23593e+07 3.33159 3.51729e-09 7.45152e-07 247644 9.47202e+08
5.60962 3.65481 0.130134 3.26952e-09 6.1787e+07 3.64747 3.26295e-09 6.44232e-07 313573 1.11784e+09
5.92807 4.00334 0.153578 3.03461e-09 7.29346e+07 3.99526 3.02849e-09 5.56685e-07 397582 1.31923e+09
6.26459 4.38244 0.181246 2.81487e-09 8.60651e+07 4.37348 2.80912e-09 4.80786e-07 503888 1.55689e+09
6.62021 4.7981 0.213898 2.6114e-09 1.01558e+08 4.78835 2.60609e-09 4.15026e-07 639018 1.83737e+09
6.99602 5.25409 0.252432 2.42306e-09 1.1986e+08 5.24334 2.4181e-09 3.58083e-07 811062 2.16837e+09
7.39317 5.75501 0.297908 2.24892e-09 1.41457e+08 5.74317 2.24429e-09 3.08803e-07 1.03019e+06 2.55901e+09
7.81286 6.30235 0.351577 2.08685e-09 1.66936e+08 6.28931 2.08254e-09 2.66181e-07 1.30877e+06 3.02002e+09
8.25637 6.90011 0.414914 1.93601e-09 1.97025e+08 6.88578 1.93199e-09 2.29336e-07 1.66325e+06 3.56409e+09
8.72507 7.56248 0.489662 1.79795e-09 2.32497e+08 7.54662 1.79418e-09 1.97503e-07 2.11651e+06 4.20617e+09
9.22037 8.29792 0.577876 1.67165e-09 2.74404e+08 8.28019 1.66807e-09 1.70014e-07 2.69805e+06 4.96392e+09
9.74378 9.12838 0.681982 1.55823e-09 3.2382e+08 9.10851 1.55483e-09 1.46289e-07 3.44923e+06 5.85818e+09
10.2969 10.0878 0.804843 1.45913e-09 3.82165e+08 10.065 1.45583e-09 1.25822e-07 4.43186e+06 6.91355e+09
10.8814 11.2368 0.949838 1.37721e-09 4.51027e+08 11.2099 1.37392e-09 1.08175e-07 5.74216e+06 8.15905e+09
11.4992 12.6841 1.12095 1.31729e-09 5.32251e+08 12.6509 1.31384e-09 9.29669e-08 7.5417e+06 9.62892e+09
12.1519 14.648 1.3229 1.28903e-09 6.28157e+08 14.6043 1.28519e-09 7.98658e-08 1.01385e+07 1.13636e+10
12.8418 16.7373 1.56122 1.24805e-09 3.82727e+08 17.3216 1.29161e-09 6.85852e-08 6.9645e+06 1.34108e+10
13.5708 0 1.84248 0 0 0 0 5.88765e-08 0 1.58268e+10
14.3411 0 2.17441 0 0 0 0 5.05241e-08 0 1.8678e+10
15.1552 0 2.56613 0 0 0 0 4.33417e-08 0 2.20429e+10
16.0156 0 3.02843 0 0 0 0 3.71677e-08 0 2.6014e+10
16.9247 0 3.574 0 0 0 0 3.18628e-08 0 3.07005e+10
17.8855 0 4.21787 0 0 0 0 2.73063e-08 0 3.62312e+10
18.9008 0 4.97773 0 0 0 0 2.33941e-08 0 4.27584e+10
19.9738 0 5.87448 0 0 0 0 2.00364e-08 0 5.04614e+10
21.1076 0 6.93279 0 0 0 0 1.71555e-08 0 5.95522e+10
22.3058 0 8.18175 0 0 0 0 1.46847e-08 0 7.02807e+10
23.5721 0 9.65571 0 0 0 0 1.25662e-08 0 8.29419e+10
24.9102 0 11.3952 0 0 0 0 1.07504e-08 0 9.78842e+10
26.3243 0 13.4481 0 0 0 0 9.19452e-09 0 1.15518e+11
27.8187 0 15.8708 0 0 0 0 7.86182e-09 0 1.36329e+11
29.3979 0 18.73 0 0 0 0 6.72061e-09 0 1.60889e+11
31.0667 0 22.1042 0 0 0 0 5.74366e-09 0 1.89874e+11
32.8303 0 26.0864 0 0 0 0 4.90756e-09 0 2.2408e+11
34.694 0 30.7859 0 0 0 0 4.19221e-09 0 2.64449e+11
36.6634 0 36.3321 0 0 0 0 3.58032e-09 0 3.1209e+11
38.7447 0 42.8774 0 0 0 0 3.05709e-09 0 3.68314e+11
40.9442 0 50.6018 0 0 0 0 2.60976e-09 0 4.34667e+11
43.2685 0 59.7179 0 0 0 0 2.22743e-09 0 5.12973e+11
45.7247 0 70.4762 0 0 0 0 1.90073e-09 0 6.05386e+11
48.3204 0 83.1727 0 0 0 0 1.62163e-09 0 7.14448e+11
51.0634 0 98.1565 0 0 0 0 1.38326e-09 0 8.43158e+11
53.9621 0 115.84 0 0 0 0 1.1797e-09 0 9.95055e+11
57.0254 0 136.709 0 0 0 0 1.00592e-09 0 1.17432e+12
60.2626 0 161.337 0 0 0 0 8.57591e-10 0 1.38587e+12
63.6835 0 190.402 0 0 0 0 7.3101e-10 0 1.63554e+12
67.2987 0 224.704 0 0 0 0 6.23009e-10 0 1.93019e+12
71.1191 0 265.185 0 0 0 0 5.30879e-10 0 2.27792e+12
75.1563 0 312.958 0 0 0 0 4.52303e-10 0 2.68829e+12
79.4227 0 369.339 0 0 0 0 3.85299e-10 0 3.17259e+12
83.9313 0 435.876 0 0 0 0 3.28173e-10 0 3.74415e+12
88.6959 0 514.4 0 0 0 0 2.79476e-10 0 4.41866e+12
93.7309 0 607.071 0 0 0 0 2.37972e-10 0 5.2147e+12
99.0518 0 716.436 0 0 0 0 2.02605e-10 0 6.15414e+12
104.675 0 845.504 0 0 0 0 1.72471e-10 0 7.26283e+12
110.617 0 997.824 0 0 0 0 1.468e-10 0 8.57124e+12
116.896 0 1177.58 0 0 0 0 1.24935e-10 0 1.01154e+13
123.532 0 1389.73 0 0 0 0 1.06313e-10 0 1.19377e+13
130.545 0 1640.09 0 0 0 0 9.04567e-11 0 1.40883e+13
137.955 0 1935.56 0 0 0 0 7.69563e-11 0 1.66263e+13
145.787 0 2284.26 0 0 0 0 6.54636e-11 0 1.96216e+13
154.063 0 2695.77 0 0 0 0 5.56812e-11 0 2.31565e+13
162.808 0 3181.42 0 0 0 0 4.73556e-11 0 2.73282e+13
172.051 0 3754.56 0 0 0 0 4.02708e-11 0 3.22515e+13
181.818 0 4430.96 0 0 0 0 3.42426e-11 0 3.80616e+13
192.139 0 5229.21 0 0 0 0 2.91139e-11 0 4.49186e+13
203.046 0 6171.26 0 0 0 0 2.4751e-11 0 5.30108e+13
214.572 0 7283.03 0 0 0 0 2.10401e-11 0 6.25608e+13
226.753 0 8595.09 0 0 0 0 1.78839e-11 0 7.38313e+13
239.625 0 10143.5 0 0 0 0 1.51999e-11 0 8.71322e+13
253.228 0 11970.9 0 0 0 0 1.29176e-11 0 1.02829e+14
267.603 0 14127.5 0 0 0 0 1.09771e-11 0 1.21354e+14
282.795 0 16672.6 0 0 0 0 9.3274e-12 0 1.43217e+14
298.848 0 19676.2 0 0 0 0 7.925e-12 0 1.69017e+14
315.813 0 23220.9 0 0 0 0 6.73295e-12 0 1.99466e+14
333.741 0 27404.3 0 0 0 0 5.71979e-12 0 2.35401e+14
352.686 0 32341.2 0 0 0 0 4.85874e-12 0 2.77809e+14
372.707 0 38167.6 0 0 0 0 4.12703e-12 0 3.27857e+14
393.865 0 45043.5 0 0 0 0 3.50528e-12 0 3.86921e+14
416.224 0 53158.3 0 0 0 0 2.97701e-12 0 4.56626e+14
439.852 0 62734.9 0 0 0 0 2.52819e-12 0 5.38888e+14
464.821 0 74036.7 0 0 0 0 2.1469e-12 0 6.35971e+14
491.207 0 87374.6 0 0 0 0 1.82301e-12 0 7.50542e+14
519.092 0 103115 0 0 0 0 1.54789e-12 0 8.85755e+14
548.56 0 121692 0 0 0 0 1.31422e-12 0 1.04533e+15
579.7 0 143615 0 0 0 0 1.11576e-12 0 1.23364e+15
612.608 0 169488 0 0 0 0 9.47223e-13 0 1.45589e+15
647.384 0 200021 0 0 0 0 8.041e-13 0 1.71817e+15
684.134 0 236056 0 0 0 0 6.82568e-13 0 2.0277e+15
722.971 0 278582 0 0 0 0 5.79376e-13 0 2.393e+15
764.012 0 328769 0 0 0 0 4.91762e-13 0 2.8241e+15
