0.418518
200
1.0655e+09
8589934592
0.0129181 0 1.58924e-09 0 0 0 0 0.00677225 0 13.6515
0.0136515 0 1.87554e-09 0 0 0 0 0.00688819 0 16.1108
0.0144264 0 2.21343e-09 0 0 0 0 0.00699249 0 19.0132
0.0152454 0 2.61218e-09 0 0 0 0 0.00708412 0 22.4385
0.0161108 0 3.08278e-09 0 0 0 0 0.00716212 0 26.4808
0.0170254 0 3.63815e-09 0 0 0 0 0.00722559 0 31.2514
0.0179919 0 4.29357e-09 0 0 0 0 0.00727371 0 36.8815
0.0190132 0 5.06707e-09 0 0 0 0 0.00730578 0 43.5258
0.0200925 0 5.97991e-09 0 0 0 0 0.00732122 0 51.367
0.0212331 0 7.05721e-09 0 0 0 0 0.00731958 0 60.621
0.0224385 0 8.32858e-09 0 0 0 0 0.00730056 0 71.542
0.0237123 0 9.829e-09 0 0 0 0 0.00726401 0 84.4305
0.0250583 0 1.15997e-08 0 0 0 0 0.00720995 0 99.6408
0.0264808 0 1.36894e-08 0 0 0 0 0.00713857 0 117.591
0.0279841 0 1.61556e-08 0 0 0 0 0.00705021 0 138.776
0.0295727 0 1.90661e-08 0 0 0 0 0.00694538 0 163.777
0.0312514 0 2.25009e-08 0 0 0 0 0.00682475 0 193.281
0.0330255 0 2.65545e-08 0 0 0 0 0.00668915 0 228.102
0.0349003 0 3.13384e-08 0 0 0 0 0.00653951 0 269.195
0.0368815 0 3.69841e-08 0 0 0 0 0.00637693 0 317.691
0.0389751 0 4.36469e-08 0 0 0 0 0.00620256 0 374.924
0.0411876 0 5.151e-08 0 0 0 0 0.00601767 0 442.467
0.0435258 0 6.07896e-08 0 0 0 0 0.00582358 0 522.179
0.0459966 0 7.1741e-08 0 0 0 0 0.00562166 0 616.251
0.0486077 0 8.46654e-08 0 0 0 0 0.0054133 0 727.27
0.051367 0 9.99181e-08 0 0 0 0 0.00519989 0 858.29
0.054283 0 1.17919e-07 0 0 0 0 0.0049828 0 1012.91
0.0573645 0 1.39162e-07 0 0 0 0 0.00476339 0 1195.39
0.060621 0 1.64232e-07 0 0 0 0 0.00454293 0 1410.75
0.0640622 0 1.93819e-07 0 0 0 0 0.00432265 0 1664.89
0.0676989 0 2.28736e-07 0 0 0 0 0.00410371 0 1964.83
0.071542 0 2.69944e-07 0 0 0 0 0.00388717 0 2318.8
0.0756032 0 3.18575e-07 0 0 0 0 0.00367401 0 2736.54
0.079895 0 3.75967e-07 0 0 0 0 0.0034651 0 3229.53
0.0844305 0 4.43698e-07 0 0 0 0 0.00326121 0 3811.34
0.0892234 0 5.23632e-07 0 0 0 0 0.00306301 0 4497.96
0.0942883 0 6.17966e-07 0 0 0 0 0.00287109 0 5308.28
0.0996408 0 7.29294e-07 0 0 0 0 0.00268591 0 6264.59
0.105297 0 8.60678e-07 0 0 0 0 0.00250785 0 7393.17
0.111275 0 1.01573e-06 0 0 0 0 0.00233721 0 8725.07
0.117591 0 1.19872e-06 0 0 0 0 0.00217419 0 10296.9
0.124267 0 1.41467e-06 0 0 0 0 0.00201893 0 12151.9
0.131321 0 1.66953e-06 0 0 0 0 0.00187147 0 14341.1
0.138776 0 1.9703e-06 0 0 0 0 0.00173182 0 16924.7
0.146654 0 2.32525e-06 0 0 0 0 0.00159991 0 19973.8
0.154979 0 2.74415e-06 0 0 0 0 0.00147563 0 23572.1
0.163777 0 3.23852e-06 0 0 0 0 0.00135884 0 27818.7
0.173074 0 3.82195e-06 0 0 0 0 0.00124933 0 32830.3
0.182899 0 4.51048e-06 0 0 0 0 0.00114689 0 38744.7
0.193281 0 5.32305e-06 0 0 0 0 0.00105127 0 45724.7
0.204254 0 6.28202e-06 0 0 0 0 0.000962209 0 53962.1
0.215848 0 7.41374e-06 0 0 0 0 0.000879423 0 63683.5
0.228102 0 8.74934e-06 0 0 0 0 0.000802624 0 75156.3
0.24105 0 1.03256e-05 0 0 0 0 0.000731515 0 88695.9
0.254734 0 1.21857e-05 0 0 0 0 0.000665798 0 104675
0.269195 0 1.4381e-05 0 0 0 0 0.000605173 0 123532
0.284476 0 1.69718e-05 0 0 0 0 0.000549345 0 145787
0.300625 0 2.00293e-05 0 0 0 0 0.000498021 0 172051
0.317691 0 2.36377e-05 0 0 0 0 0.000450916 0 203046
0.335725 0 2.78961e-05 0 0 0 0 0.000407755 0 239625
0.354784 0 3.29216e-05 0 0 0 0 0.000368269 0 282795
0.374924 0 3.88525e-05 0 0 0 0 0.000332202 0 333741
0.396207 2.17699 4.58519e-05 5.52725e-06 6 2.11647 5.37358e-06 0.000299307 0.110801 393865
0.418699 0 5.41123e-05 0 0 0 0 0.00026935 0 464821
0.442467 0 6.38607e-05 0 0 0 0 0.000242108 0 548560
0.467585 0 7.53654e-05 0 0 0 0 0.00021737 0 647384
0.494129 0 8.89427e-05 0 0 0 0 0.000194938 0 764012
0.522179 0 0.000104966 0 0 0 0 0.000174625 0 901651
0.551822 0 0.000123876 0 0 0 0 0.000156255 0 1.06409e+06
0.583147 5.5464 0.000146192 4.41668e-06 12 5.83761 4.64858e-06 0.000139664 0.379484 1.25578e+06
0.616251 0 0.000172529 0 0 0 0 0.0001247 0 1.48202e+06
0.651234 0 0.000203611 0 0 0 0 0.00011122 0 1.74901e+06
0.688203 23.3187 0.000240292 1.12973e-05 8 22.7385 1.10162e-05 9.90935e-05 0.912051 2.06409e+06
0.72727 0 0.000283581 0 0 0 0 8.81969e-05 0 2.43595e+06
0.768555 0 0.000334669 0 0 0 0 7.84179e-05 0 2.87479e+06
0.812184 3.06215 0.000394961 9.02572e-07 6 3.12761 9.21869e-07 6.96525e-05 0.0777492 3.39269e+06
0.85829 0 0.000466114 0 0 0 0 6.1805e-05 0 4.00389e+06
0.907013 0.701132 0.000550086 1.48381e-07 24 0.714585 1.51228e-07 5.47875e-05 0.0649994 4.7252e+06
0.958501 3.12956 0.000649185 5.61209e-07 24 2.94625 5.28337e-07 4.85194e-05 0.277601 5.57646e+06
1.01291 0 0.000766138 0 0 0 0 4.29272e-05 0 6.58107e+06
1.07041 0 0.00090416 0 0 0 0 3.79435e-05 0 7.76667e+06
1.13118 1.76019 0.00106705 1.92038e-07 12 1.73857 1.89679e-07 3.3507e-05 0.0687752 9.16586e+06
1.19539 2.19634 0.00125928 2.03043e-07 30 2.15106 1.98857e-07 2.9562e-05 0.206051 1.08171e+07
1.26325 8.18516 0.00148614 6.41176e-07 24 8.062 6.31528e-07 2.60578e-05 0.590542 1.27658e+07
1.33496 19.4614 0.00175387 1.29178e-06 24 19.5042 1.29462e-06 2.29484e-05 1.35097 1.50656e+07
1.41075 10.8677 0.00206984 6.11241e-07 32 11.0914 6.2382e-07 2.01923e-05 0.968673 1.77798e+07
1.49083 1.96903 0.00244272 9.38401e-08 48 1.92705 9.18396e-08 1.77518e-05 0.25374 2.09828e+07
1.57546 6.1124 0.00288279 2.46837e-07 6 5.82038 2.35044e-07 1.55929e-05 0.0949806 2.4763e+07
1.66489 2.39699 0.00340213 8.2021e-08 84 2.355 8.05843e-08 1.3685e-05 0.503453 2.92241e+07
1.75941 2.76599 0.00401503 8.01996e-08 48 2.75848 7.99819e-08 1.20007e-05 0.32078 3.44889e+07
1.85928 3.14413 0.00473835 7.72474e-08 72 3.1669 7.78067e-08 1.05151e-05 0.528936 4.07021e+07
1.96483 5.37072 0.00559198 1.11809e-07 54 5.25402 1.0938e-07 9.20606e-06 0.65584 4.80347e+07
2.07637 10.449 0.00659939 1.84324e-07 104 10.519 1.85559e-07 8.05366e-06 2.38024 5.66883e+07
2.19424 3.48153 0.00778828 5.20402e-08 120 3.5344 5.28305e-08 7.04008e-06 0.887038 6.69008e+07
2.3188 5.2726 0.00919136 6.67813e-08 156 5.11446 6.47783e-08 6.1494e-06 1.69413 7.89532e+07
2.45043 6.2035 0.0108472 6.65777e-08 126 6.17691 6.62924e-08 5.36741e-06 1.56291 9.31768e+07
2.58954 4.88146 0.0128014 4.43919e-08 192 4.87549 4.43376e-08 4.68145e-06 1.82064 1.09963e+08
2.73654 14.2694 0.0151076 1.09956e-07 152 14.6075 1.12562e-07 4.08023e-06 4.09618 1.29773e+08
2.89188 8.97186 0.0178292 5.85814e-08 378 9.06557 5.91933e-08 3.55373e-06 6.23113 1.53152e+08
3.05605 6.08288 0.0210412 3.36549e-08 264 5.97878 3.30789e-08 3.09304e-06 2.87255 1.80743e+08
3.22953 6.79548 0.0248319 3.18582e-08 366 6.70942 3.14547e-08 2.69025e-06 4.3342 2.13304e+08
3.41286 7.96792 0.0293054 3.16525e-08 428 7.88631 3.13283e-08 2.33837e-06 5.79346 2.51731e+08
3.6066 11.0767 0.0345848 3.72851e-08 486 10.8605 3.65572e-08 2.0312e-06 8.9211 2.97081e+08
3.81134 7.71071 0.0408154 2.19928e-08 600 7.72365 2.20297e-08 1.76327e-06 7.48367 3.50601e+08
4.0277 9.86469 0.0481684 2.38414e-08 738 9.78066 2.36383e-08 1.52972e-06 11.5021 4.13763e+08
4.25634 11.6532 0.056846 2.38646e-08 824 11.6285 2.38141e-08 1.32631e-06 14.8265 4.88304e+08
4.49796 13.0277 0.067087 2.26068e-08 954 12.9413 2.2457e-08 1.14926e-06 18.7659 5.76273e+08
4.7533 12.1172 0.0791729 1.78171e-08 1094 12.0656 1.77412e-08 9.95263e-07 19.5847 6.8009e+08
5.02313 13.0197 0.0934361 1.62218e-08 1332 13.0412 1.62485e-08 8.61414e-07 25.0836 8.0261e+08
5.30828 16.2967 0.110269 1.72051e-08 1614 16.2772 1.71844e-08 7.45152e-07 37.2661 9.47202e+08
5.60962 16.9212 0.130134 1.51374e-08 1850 16.8733 1.50945e-08 6.44232e-07 43.469 1.11784e+09
5.92807 16.8376 0.153578 1.27632e-08 2238 16.7868 1.27247e-08 5.56685e-07 51.3111 1.31923e+09
6.26459 17.9097 0.181246 1.15035e-08 2546 17.9694 1.15418e-08 4.80786e-07 60.9168 1.55689e+09
6.62021 18.315 0.213898 9.96807e-09 3264 18.3447 9.98422e-09 4.15026e-07 78.3947 1.83737e+09
6.99602 20.7931 0.252432 9.58925e-09 3506 20.8062 9.59531e-09 3.58083e-07 93.8887 2.16837e+09
7.39317 21.9152 0.297908 8.56395e-09 4506 21.9248 8.56768e-09 3.08803e-07 124.963 2.55901e+09
7.81286 24.5756 0.351577 8.13755e-09 5018 24.5368 8.1247e-09 2.66181e-07 153.408 3.02002e+09
8.25637 25.9029 0.414914 7.26774e-09 5852 25.8789 7.261e-09 2.29336e-07 185.452 3.56409e+09
8.72507 26.3489 0.489662 6.26435e-09 7362 26.3304 6.25994e-09 1.97503e-07 233.506 4.20617e+09
9.22037 28.2551 0.577876 5.69209e-09 8306 28.1819 5.67735e-09 1.70014e-07 278.086 4.96392e+09
9.74378 29.3003 0.681982 5.0016e-09 9698 29.2783 4.99785e-09 1.46289e-07 331.573 5.85818e+09
10.2969 32.3223 0.804843 4.6752e-09 11816 32.3087 4.67324e-09 1.25822e-07 439.049 6.91355e+09
10.8814 33.9511 0.949838 4.16116e-09 13682 33.8796 4.15239e-09 1.08175e-07 526.302 8.15905e+09
11.4992 35.5621 1.12095 3.69326e-09 16152 35.5249 3.6894e-09 9.29669e-08 641.665 9.62892e+09
12.1519 36.6952 1.3229 3.22919e-09 19472 36.6146 3.2221e-09 7.98658e-08 787.307 1.13636e+10
12.8418 38.7197 1.56122 2.88721e-09 22670 38.6247 2.88013e-09 6.85852e-08 954.332 1.34108e+10
13.5708 41.4491 1.84248 2.61892e-09 26224 41.4322 2.61786e-09 5.88765e-08 1166.49 1.58268e+10
14.3411 44.0559 2.17441 2.3587e-09 31640 44.0391 2.35781e-09 5.05241e-08 1477.1 1.8678e+10
15.1552 46.6478 2.56613 2.11623e-09 37484 46.5783 2.11307e-09 4.33417e-08 1830.22 2.20429e+10
16.0156 49.0142 3.02843 1.88415e-09 43856 48.9419 1.88137e-09 3.71677e-08 2223.2 2.6014e+10
16.9247 52.2917 3.574 1.70329e-09 51362 52.2532 1.70203e-09 3.18628e-08 2745.65 3.07005e+10
17.8855 54.3637 4.21787 1.50046e-09 61636 54.2987 1.49867e-09 2.73063e-08 3386.86 3.62312e+10
18.9008 57.4312 4.97773 1.34316e-09 72218 57.3121 1.34037e-09 2.33941e-08 4146.34 4.27584e+10
19.9738 61.1274 5.87448 1.21137e-09 84586 61.0456 1.20975e-09 2.00364e-08 5113.94 5.04614e+10
21.1076 64.0475 6.93279 1.07548e-09 100708 63.951 1.07387e-09 1.71555e-08 6313.41 5.95522e+10
22.3058 67.6869 8.18175 9.63093e-10 118712 67.578 9.61545e-10 1.46847e-08 7785.73 7.02807e+10
23.5721 70.8655 9.65571 8.54399e-10 140410 70.713 8.52561e-10 1.25662e-08 9546.77 8.29419e+10
24.9102 74.395 11.3952 7.60031e-10 164374 74.2488 7.58537e-10 1.07504e-08 11620.9 9.78842e+10
26.3243 78.2087 13.4481 6.77025e-10 194680 78.0992 6.76077e-10 9.19452e-09 14335 1.15518e+11
27.8187 82.169 15.8708 6.02725e-10 230196 82.0387 6.01769e-10 7.86182e-09 17647.9 1.36329e+11
29.3979 86.8181 18.73 5.39614e-10 271156 86.6683 5.38683e-10 6.72061e-09 21771.8 1.60889e+11
31.0667 90.7169 22.1042 4.77774e-10 321076 90.5457 4.76873e-10 5.74366e-09 26708 1.89874e+11
32.8303 95.2174 26.0864 4.24926e-10 377436 95.0475 4.24168e-10 4.90756e-09 32680.7 2.2408e+11
34.694 100.482 30.7859 3.79967e-10 447594 100.291 3.79245e-10 4.19221e-09 40568.3 2.64449e+11
36.6634 106.167 36.3321 3.40182e-10 525078 105.972 3.39556e-10 3.58032e-09 49889.9 3.1209e+11
38.7447 111.684 42.8774 3.0323e-10 621924 111.491 3.02708e-10 3.05709e-09 61688.2 3.68314e+11
40.9442 117.548 50.6018 2.70433e-10 732630 117.335 2.69943e-10 2.60976e-09 75917.7 4.34667e+11
43.2685 124.261 59.7179 2.42236e-10 865596 124.044 2.41813e-10 2.22743e-09 94134.8 5.12973e+11
45.7247 131.766 70.4762 2.17656e-10 1.02168e+06 131.532 2.1727e-10 1.90073e-09 116994 6.05386e+11
48.3204 139.602 83.1727 1.95398e-10 1.20544e+06 139.332 1.9502e-10 1.62163e-09 145249 7.14448e+11
51.0634 148.733 98.1565 1.764e-10 1.42103e+06 148.432 1.76043e-10 1.38326e-09 181217 8.43158e+11
53.9621 157.897 115.84 1.58682e-10 1.67997e+06 157.579 1.58363e-10 1.1797e-09 225973 9.95055e+11
57.0254 169.127 136.709 1.44021e-10 1.98018e+06 168.763 1.43711e-10 1.00592e-09 283510 1.17432e+12
60.2626 182.229 161.337 1.3149e-10 2.33957e+06 181.851 1.31218e-10 8.57591e-10 358714 1.38587e+12
63.6835 196.722 190.402 1.20279e-10 2.75676e+06 196.3 1.20022e-10 7.3101e-10 453594 1.63554e+12
67.2987 213.863 224.704 1.10799e-10 3.25638e+06 213.396 1.10557e-10 6.23009e-10 579131 1.93019e+12
71.1191 233.052 265.185 1.02309e-10 3.84387e+06 232.524 1.02077e-10 5.30879e-10 740779 2.27792e+12
75.1563 256.441 312.958 9.53919e-11 4.53277e+06 255.794 9.51511e-11 4.52303e-10 955971 2.68829e+12
79.4227 282.863 369.339 8.91581e-11 5.35083e+06 282.18 8.89428e-11 3.85299e-10 1.23818e+06 3.17259e+12
83.9313 314.236 435.876 8.39273e-11 6.32174e+06 313.438 8.37142e-11 3.28173e-10 1.61673e+06 3.74415e+12
88.6959 351.016 514.4 7.94394e-11 7.44986e+06 350.097 7.92313e-11 2.79476e-10 2.11758e+06 4.41866e+12
93.7309 394.842 607.071 7.5717e-11 8.79764e+06 393.797 7.55167e-11 2.37972e-10 2.79919e+06 5.2147e+12
99.0518 446.454 716.436 7.25453e-11 1.03827e+07 445.221 7.23449e-11 2.02605e-10 3.71766e+06 6.15414e+12
104.675 507.276 845.504 6.98455e-11 1.22515e+07 505.836 6.96473e-11 1.72471e-10 4.96149e+06 7.26283e+12
110.617 580.38 997.824 6.77124e-11 1.44573e+07 578.68 6.75142e-11 1.468e-10 6.66853e+06 8.57124e+12
116.896 665.809 1177.58 6.58215e-11 1.70664e+07 663.835 6.56263e-11 1.24935e-10 8.99138e+06 1.01154e+13
123.532 767.652 1389.73 6.43049e-11 2.0139e+07 765.308 6.41086e-11 1.06313e-10 1.21813e+07 1.19377e+13
130.545 889.815 1640.09 6.31599e-11 2.37643e+07 887.1 6.29671e-11 9.04567e-11 1.6593e+07 1.40883e+13
137.955 1032.6 1935.56 6.21064e-11 2.80503e+07 1029.36 6.19114e-11 7.69563e-11 2.26376e+07 1.66263e+13
145.787 1202.31 2284.26 6.12745e-11 3.30981e+07 1198.49 6.108e-11 6.54636e-11 3.09801e+07 1.96216e+13
154.063 1403.87 2695.77 6.06254e-11 3.90634e+07 1399.4 6.04321e-11 5.56812e-11 4.25321e+07 2.31565e+13
162.808 1641.7 3181.42 6.00734e-11 4.61057e+07 1636.4 5.98795e-11 4.73556e-11 5.84878e+07 2.73282e+13
172.051 1925.94 3754.56 5.97164e-11 5.44046e+07 1919.65 5.95213e-11 4.02708e-11 8.0675e+07 3.22515e+13
181.818 2261.95 4430.96 5.94286e-11 6.42064e+07 2254.56 5.92345e-11 3.42426e-11 1.11431e+08 3.80616e+13
192.139 2660 5229.21 5.92184e-11 7.57748e+07 2651.2 5.90223e-11 2.91139e-11 1.54128e+08 4.49186e+13
203.046 3133.53 6171.26 5.91113e-11 8.94213e+07 3123.16 5.89156e-11 2.4751e-11 2.13559e+08 5.30108e+13
214.572 3697.23 7283.03 5.90982e-11 1.05538e+08 3684.9 5.8901e-11 2.10401e-11 2.9644e+08 6.25608e+13
226.753 4370.17 8595.09 5.91913e-11 1.24552e+08 4355.41 5.89914e-11 1.78839e-11 4.12235e+08 7.38313e+13
239.625 5172.69 10143.5 5.9366e-11 1.46987e+08 5155.11 5.91643e-11 1.51999e-11 5.74085e+08 8.71322e+13
253.228 6136.85 11970.9 5.968e-11 1.7347e+08 6115.82 5.94755e-11 1.29176e-11 8.01439e+08 1.02829e+14
267.603 7297 14127.5 6.01298e-11 2.04703e+08 7271.67 5.9921e-11 1.09771e-11 1.12131e+09 1.21354e+14
282.795 8707.69 16672.6 6.08009e-11 2.4161e+08 8677.01 6.05867e-11 9.3274e-12 1.57494e+09 1.43217e+14
298.848 10433.3 19676.2 6.1729e-11 2.85122e+08 10395.8 6.15074e-11 7.925e-12 2.22086e+09 1.69017e+14
315.813 12576 23220.9 6.30482e-11 3.36491e+08 12529.7 6.28161e-11 6.73295e-12 3.15095e+09 1.99466e+14
333.741 15274.6 27404.3 6.48875e-11 3.97115e+08 15216.4 6.46404e-11 5.71979e-12 4.50503e+09 2.35401e+14
352.686 18758.5 32341.2 6.75231e-11 4.68637e+08 18683.8 6.72542e-11 4.85874e-12 6.51276e+09 2.77809e+14
372.707 23389.6 38167.6 7.13408e-11 5.53074e+08 23290.9 7.10398e-11 4.12703e-12 9.56056e+09 3.27857e+14
393.865 29781.4 45043.5 7.69703e-11 6.52716e+08 29646 7.66204e-11 3.50528e-12 1.43326e+10 3.86921e+14
416.224 35158.4 53158.3 7.69961e-11 2.2184e+08 37194.3 8.14547e-11 2.97701e-12 5.73757e+09 4.56626e+14
439.852 0 62734.9 0 0 0 0 2.52819e-12 0 5.38888e+14
464.821 0 74036.7 0 0 0 0 2.1469e-12 0 6.35971e+14
491.207 0 87374.6 0 0 0 0 1.82301e-12 0 7.50542e+14
519.092 0 103115 0 0 0 0 1.54789e-12 0 8.85755e+14
548.56 0 121692 0 0 0 0 1.31422e-12 0 1.04533e+15
579.7 0 143615 0 0 0 0 1.11576e-12 0 1.23364e+15
612.608 0 169488 0 0 0 0 9.47223e-13 0 1.45589e+15
647.384 0 200021 0 0 0 0 8.041e-13 0 1.71817e+15
684.134 0 236056 0 0 0 0 6.82568e-13 0 2.0277e+15
722.971 0 278582 0 0 0 0 5.79376e-13 0 2.393e+15
764.012 0 328769 0 0 0 0 4.91762e-13 0 2.8241e+15
0.418518
200
1.0655e+09
8589934592
0.0129181 0.000520298 1.58924e-09 3.8113e-05 6 0.000515534 3.77641e-05 0.00677225 0.0337669 13.6515
0.0136515 0 1.87554e-09 0 0 0 0 0.00688819 0 16.1108
0.0144264 0 2.21343e-09 0 0 0 0 0.00699249 0 19.0132
0.0152454 0 2.61218e-09 0 0 0 0 0.00708412 0 22.4385
0.0161108 0 3.08278e-09 0 0 0 0 0.00716212 0 26.4808
0.0170254 0 3.63815e-09 0 0 0 0 0.00722559 0 31.2514
0.0179919 0.00127243 4.29357e-09 3.45006e-05 12 0.00127079 3.44561e-05 0.00727371 0.0569183 36.8815
0.0190132 0 5.06707e-09 0 0 0 0 0.00730578 0 43.5258
0.0200925 0 5.97991e-09 0 0 0 0 0.00732122 0 51.367
0.0212331 0.00588878 7.05721e-09 9.7141e-05 8 0.00588366 9.70565e-05 0.00731958 0.106171 60.621
0.0224385 0 8.32858e-09 0 0 0 0 0.00730056 0 71.542
0.0237123 0 9.829e-09 0 0 0 0 0.00726401 0 84.4305
0.0250583 0.00424056 1.15997e-08 4.25585e-05 6 0.00423857 4.25385e-05 0.00720995 0.0354165 99.6408
0.0264808 0 1.36894e-08 0 0 0 0 0.00713857 0 117.591
0.0279841 0.00583078 1.61556e-08 4.20158e-05 24 0.0058248 4.19727e-05 0.00705021 0.143028 138.776
0.0295727 0 1.90661e-08 0 0 0 0 0.00694538 0 163.777
0.0312514 0.00610226 2.25009e-08 3.15719e-05 24 0.00613325 3.17322e-05 0.00682475 0.111026 193.281
0.0330255 0 2.65545e-08 0 0 0 0 0.00668915 0 228.102
0.0349003 0.0106093 3.13384e-08 3.94113e-05 12 0.0105244 3.90957e-05 0.00653951 0.0723196 269.195
0.0368815 0.00958265 3.69841e-08 3.01635e-05 30 0.00948061 2.98423e-05 0.00637693 0.141903 317.691
0.0389751 0.0112877 4.36469e-08 3.01066e-05 24 0.0111716 2.97969e-05 0.00620256 0.116494 374.924
0.0411876 0.0161859 5.151e-08 3.65811e-05 24 0.016076 3.63327e-05 0.00601767 0.145895 442.467
0.0435258 0.0178882 6.07896e-08 3.42569e-05 8 0.0178869 3.42543e-05 0.00582358 0.0470596 522.179
0.0459966 0.012325 7.1741e-08 1.99999e-05 72 0.0122862 1.9937e-05 0.00562166 0.256151 616.251
0.0486077 0 8.46654e-08 0 0 0 0 0.0054133 0 727.27
0.051367 0.0250849 9.99181e-08 2.92266e-05 54 0.0249894 2.91153e-05 0.00519989 0.303513 858.29
0.054283 0.0295479 1.17919e-07 2.91712e-05 60 0.0297436 2.93644e-05 0.0049828 0.351262 1012.91
0.0573645 0.0317279 1.39162e-07 2.65418e-05 96 0.0315807 2.64187e-05 0.00476339 0.534916 1195.39
0.060621 0.0359049 1.64232e-07 2.5451e-05 24 0.0354185 2.51062e-05 0.00454293 0.134456 1410.75
0.0640622 0.0489412 1.93819e-07 2.9396e-05 134 0.0489011 2.93719e-05 0.00432265 0.911261 1664.89
0.0676989 0.0444109 2.28736e-07 2.26029e-05 120 0.0440935 2.24414e-05 0.00410371 0.660951 1964.83
0.071542 0.0491791 2.69944e-07 2.12089e-05 108 0.0484689 2.09026e-05 0.00388717 0.58926 2318.8
0.0756032 0.0620291 3.18575e-07 2.2667e-05 174 0.0616914 2.25436e-05 0.00367401 1.0735 2736.54
0.079895 0.060803 3.75967e-07 1.88272e-05 168 0.0601865 1.86363e-05 0.0034651 0.912808 3229.53
0.0844305 0.0684445 4.43698e-07 1.79581e-05 168 0.0686545 1.80132e-05 0.00326121 0.925107 3811.34
0.0892234 0.0695255 5.23632e-07 1.54571e-05 290 0.0691744 1.5379e-05 0.00306301 1.46345 4497.96
0.0942883 0.0726464 6.17966e-07 1.36855e-05 288 0.0727273 1.37007e-05 0.00287109 1.37279 5308.28
0.0996408 0.0774165 7.29294e-07 1.23578e-05 366 0.0769808 1.22883e-05 0.00268591 1.68396 6264.59
0.105297 0.0765869 8.60678e-07 1.03591e-05 420 0.0760828 1.0291e-05 0.00250785 1.73489 7393.17
0.111275 0.0922031 1.01573e-06 1.05676e-05 398 0.0919767 1.05417e-05 0.00233721 1.79954 8725.07
0.117591 0.0947802 1.19872e-06 9.20472e-06 624 0.0948099 9.20761e-06 0.00217419 2.64178 10296.9
0.124267 0.113355 1.41467e-06 9.32812e-06 642 0.113248 9.31933e-06 0.00201893 2.96626 12151.9
0.131321 0.138024 1.66953e-06 9.62434e-06 800 0.138098 9.62954e-06 0.00187147 4.11413 14341.1
0.138776 0.13877 1.9703e-06 8.19923e-06 858 0.139214 8.22547e-06 0.00173182 4.06218 16924.7
0.146654 0.161482 2.32525e-06 8.08471e-06 1080 0.162594 8.14039e-06 0.00159991 5.45749 19973.8
0.154979 0.161856 2.74415e-06 6.86644e-06 1286 0.163141 6.92096e-06 0.00147563 5.98403 23572.1
0.163777 0.168103 3.23852e-06 6.04281e-06 1650 0.168546 6.05875e-06 0.00135884 7.33761 27818.7
0.173074 0.180458 3.82195e-06 5.49669e-06 1778 0.180555 5.49964e-06 0.00124933 7.82267 32830.3
0.182899 0.203652 4.51048e-06 5.25624e-06 2112 0.2042 5.27039e-06 0.00114689 9.67937 38744.7
0.193281 0.22625 5.32305e-06 4.94809e-06 2570 0.226494 4.95343e-06 0.00105127 12.0964 45724.7
0.204254 0.235894 6.28202e-06 4.37147e-06 3030 0.235597 4.36597e-06 0.000962209 13.7658 53962.1
0.215848 0.264196 7.41374e-06 4.14858e-06 3434 0.264183 4.14837e-06 0.000879423 16.1995 63683.5
0.228102 0.277983 8.74934e-06 3.69873e-06 4218 0.27806 3.69975e-06 0.000802624 19.4378 75156.3
0.24105 0.295689 1.03256e-05 3.33374e-06 4766 0.295803 3.33502e-06 0.000731515 21.7201 88695.9
0.254734 0.324699 1.21857e-05 3.10198e-06 6026 0.324668 3.10169e-06 0.000665798 28.0753 104675
0.269195 0.356377 1.4381e-05 2.8849e-06 6480 0.356259 2.88394e-06 0.000605173 30.8905 123532
0.284476 0.373808 1.69718e-05 2.56407e-06 8162 0.374302 2.56746e-06 0.000549345 38.0963 145787
0.300625 0.407072 2.00293e-05 2.366e-06 9578 0.40672 2.36395e-06 0.000498021 45.5032 172051
0.317691 0.444168 2.36377e-05 2.18752e-06 11234 0.444023 2.18681e-06 0.000450916 54.4993 203046
0.335725 0.478053 2.78961e-05 1.995e-06 13344 0.47766 1.99336e-06 0.000407755 65.2875 239625
0.354784 0.52591 3.29216e-05 1.85969e-06 15464 0.525408 1.85791e-06 0.000368269 78.0902 282795
0.374924 0.542768 3.88525e-05 1.62632e-06 18458 0.54277 1.62632e-06 0.000332202 90.3625 333741
0.396207 0.594829 4.58519e-05 1.51024e-06 22232 0.593551 1.50699e-06 0.000299307 112.178 393865
0.418699 0.652018 5.41123e-05 1.40273e-06 25628 0.650584 1.39964e-06 0.00026935 133.466 464821
0.442467 0.709086 6.38607e-05 1.29263e-06 30320 0.707796 1.29028e-06 0.000242108 161.881 548560
0.467585 0.762759 7.53654e-05 1.17822e-06 35452 0.761861 1.17683e-06 0.00021737 192.161 647384
0.494129 0.815923 8.89427e-05 1.06795e-06 41792 0.815647 1.06758e-06 0.000194938 228.952 764012
0.522179 0.886751 0.000104966 9.83475e-07 49988 0.886406 9.83093e-07 0.000174625 281.529 901651
0.551822 0.96714 0.000123876 9.08893e-07 59110 0.966385 9.08184e-07 0.000156255 343.828 1.06409e+06
0.583147 1.06095 0.000146192 8.44854e-07 69716 1.05935 8.43578e-07 0.000139664 421.725 1.25578e+06
0.616251 1.15587 0.000172529 7.7993e-07 82210 1.15354 7.78361e-07 0.0001247 514.178 1.48202e+06
0.651234 1.25155 0.000203611 7.1558e-07 96722 1.24871 7.13954e-07 0.00011122 622.299 1.74901e+06
0.688203 1.37098 0.000240292 6.64204e-07 113098 1.36868 6.63088e-07 9.90935e-05 758.074 2.06409e+06
0.72727 1.50545 0.000283581 6.18014e-07 135190 1.50334 6.17146e-07 8.81969e-05 947.305 2.43595e+06
0.768555 1.63347 0.000334669 5.68206e-07 158170 1.63148 5.67514e-07 7.84179e-05 1146.08 2.87479e+06
0.812184 1.80851 0.000394961 5.33062e-07 188560 1.80586 5.32279e-07 6.96525e-05 1443.08 3.39269e+06
0.85829 1.97328 0.000466114 4.9284e-07 220444 1.96997 4.92014e-07 6.1805e-05 1757.85 4.00389e+06
0.907013 2.16516 0.000550086 4.58216e-07 261388 2.1615 4.57442e-07 5.47875e-05 2186.12 4.7252e+06
0.958501 2.39235 0.000649185 4.29009e-07 308244 2.38928 4.28458e-07 4.85194e-05 2725.49 5.57646e+06
1.01291 2.64083 0.000766138 4.01277e-07 364396 2.63658 4.0063e-07 4.29272e-05 3406.32 6.58107e+06
1.07041 2.89019 0.00090416 3.72127e-07 429162 2.88545 3.71517e-07 3.79435e-05 4208.97 7.76667e+06
1.13118 3.19728 0.00106705 3.48825e-07 506358 3.19166 3.48212e-07 3.3507e-05 5271.44 9.16586e+06
1.19539 3.51777 0.00125928 3.25204e-07 598590 3.51162 3.24636e-07 2.9562e-05 6584.93 1.08171e+07
1.26325 3.89891 0.00148614 3.05417e-07 704844 3.89221 3.04892e-07 2.60578e-05 8261.29 1.27658e+07
1.33496 4.32275 0.00175387 2.86927e-07 834620 4.31452 2.86382e-07 2.29484e-05 10435.4 1.50656e+07
1.41075 4.77823 0.00206984 2.68745e-07 981444 4.76887 2.68219e-07 2.01923e-05 13062.3 1.77798e+07
1.49083 5.27262 0.00244272 2.51283e-07 1.15998e+06 5.2633 2.50838e-07 1.77518e-05 16419.9 2.09828e+07
1.57546 5.83841 0.00288279 2.35772e-07 1.36931e+06 5.82733 2.35325e-07 1.55929e-05 20704.7 2.4763e+07
1.66489 6.47218 0.00340213 2.21467e-07 1.61652e+06 6.45918 2.21022e-07 1.3685e-05 26160.4 2.92241e+07
1.75941 7.18055 0.00401503 2.08199e-07 1.90601e+06 7.1663 2.07786e-07 1.20007e-05 33067.2 3.44889e+07
1.85928 7.9434 0.00473835 1.95159e-07 2.24913e+06 7.92796 1.9478e-07 1.05151e-05 41743.6 4.07021e+07
1.96483 8.79233 0.00559198 1.83041e-07 2.65744e+06 8.77495 1.82679e-07 9.20606e-06 52837.1 4.80347e+07
2.07637 9.71986 0.00659939 1.71461e-07 3.13125e+06 9.70055 1.71121e-07 8.05366e-06 66664 5.66883e+07
2.19424 10.7723 0.00778828 1.61019e-07 3.69915e+06 10.7505 1.60693e-07 7.04008e-06 84606 6.69008e+07
2.3188 11.8837 0.00919136 1.50516e-07 4.36472e+06 11.8605 1.50222e-07 6.1494e-06 106833 7.89532e+07
2.45043 13.1008 0.0108472 1.40601e-07 5.14913e+06 13.075 1.40324e-07 5.36741e-06 134883 9.31768e+07
2.58954 14.468 0.0128014 1.31572e-07 6.07894e+06 14.44 1.31317e-07 4.68145e-06 170848 1.09963e+08
2.73654 15.9138 0.0151076 1.22628e-07 7.17304e+06 15.8835 1.22394e-07 4.08023e-06 215579 1.29773e+08
2.89188 17.4837 0.0178292 1.14159e-07 8.46557e+06 17.4502 1.13941e-07 3.55373e-06 271946 1.53152e+08
3.05605 19.1694 0.0210412 1.06059e-07 9.98773e+06 19.1337 1.05862e-07 3.09304e-06 342476 1.80743e+08
3.22953 20.9801 0.0248319 9.83575e-08 1.1797e+07 20.9399 9.81694e-08 2.69025e-06 431307 2.13304e+08
3.41286 22.9292 0.0293054 9.10862e-08 1.39144e+07 22.8859 9.0914e-08 2.33837e-06 542004 2.51731e+08
3.6066 24.9815 0.0345848 8.40899e-08 1.64163e+07 24.9356 8.39354e-08 2.0312e-06 679619 2.97081e+08
3.81134 27.1463 0.0408154 7.74277e-08 1.93821e+07 27.0973 7.72879e-08 1.76327e-06 851100 3.50601e+08
4.0277 29.4738 0.0481684 7.12335e-08 2.28754e+07 29.4203 7.11042e-08 1.52972e-06 1.06522e+06 4.13763e+08
4.25634 31.9112 0.056846 6.53512e-08 2.69929e+07 31.8527 6.52313e-08 1.32631e-06 1.33002e+06 4.88304e+08
4.49796 34.4452 0.067087 5.97724e-08 3.18542e+07 34.3836 5.96655e-08 1.14926e-06 1.65673e+06 5.76273e+08
4.7533 37.1519 0.0791729 5.46279e-08 3.75892e+07 37.0861 5.45311e-08 9.95263e-07 2.06319e+06 6.8009e+08
5.02313 39.9235 0.0934361 4.97421e-08 4.43706e+07 39.8538 4.96552e-08 8.61414e-07 2.56217e+06 8.0261e+08
5.30828 42.8408 0.110269 4.52288e-08 5.23593e+07 42.7662 4.515e-08 7.45152e-07 3.17807e+06 9.47202e+08
5.60962 45.8998 0.130134 4.1061e-08 6.1787e+07 45.8207 4.09903e-08 6.44232e-07 3.93808e+06 1.11784e+09
5.92807 49.0327 0.153578 3.71678e-08 7.29346e+07 48.9484 3.71039e-08 5.56685e-07 4.86957e+06 1.31923e+09
6.26459 52.307 0.181246 3.35972e-08 8.60651e+07 52.2168 3.35392e-08 4.80786e-07 6.01419e+06 1.55689e+09
6.62021 55.7165 0.213898 3.03241e-08 1.01558e+08 55.6216 3.02725e-08 4.15026e-07 7.42041e+06 1.83737e+09
6.99602 59.2542 0.252432 2.73266e-08 1.1986e+08 59.1544 2.72806e-08 3.58083e-07 9.14694e+06 2.16837e+09
7.39317 62.9312 0.297908 2.4592e-08 1.41457e+08 62.8263 2.4551e-08 3.08803e-07 1.12651e+07 2.55901e+09
7.81286 66.7818 0.351577 2.2113e-08 1.66936e+08 66.6702 2.20761e-08 2.66181e-07 1.38682e+07 3.02002e+09
8.25637 70.7981 0.414914 1.98643e-08 1.97025e+08 70.6791 1.98309e-08 2.29336e-07 1.70656e+07 3.56409e+09
8.72507 75.0645 0.489662 1.78463e-08 2.32497e+08 74.9387 1.78164e-08 1.97503e-07 2.10083e+07 4.20617e+09
9.22037 79.6143 0.577876 1.60386e-08 2.74404e+08 79.479 1.60113e-08 1.70014e-07 2.58864e+07 4.96392e+09
9.74378 84.584 0.681982 1.44386e-08 3.2382e+08 84.438 1.44137e-08 1.46289e-07 3.19608e+07 5.85818e+09
10.2969 90.1826 0.804843 1.30443e-08 3.82165e+08 90.0202 1.30208e-08 1.25822e-07 3.962e+07 6.91355e+09
10.8814 96.8338 0.949838 1.18683e-08 4.51027e+08 96.6466 1.18453e-08 1.08175e-07 4.94836e+07 8.15905e+09
11.4992 105.379 1.12095 1.0944e-08 5.32251e+08 105.152 1.09204e-08 9.29669e-08 6.26565e+07 9.62892e+09
12.1519 117.382 1.3229 1.03296e-08 6.28157e+08 117.084 1.03034e-08 7.98658e-08 8.12443e+07 1.13636e+10
12.8418 130.78 1.56122 9.75188e-09 3.82727e+08 135.361 1.00934e-08 6.85852e-08 5.44185e+07 1.34108e+10
13.5708 0 1.84248 0 0 0 0 5.88765e-08 0 1.58268e+10
14.3411 0 2.17441 0 0 0 0 5.05241e-08 0 1.8678e+10
15.1552 0 2.56613 0 0 0 0 4.33417e-08 0 2.20429e+10
16.0156 0 3.02843 0 0 0 0 3.71677e-08 0 2.6014e+10
16.9247 0 3.574 0 0 0 0 3.18628e-08 0 3.07005e+10
17.8855 0 4.21787 0 0 0 0 2.73063e-08 0 3.62312e+10
18.9008 0 4.97773 0 0 0 0 2.33941e-08 0 4.27584e+10
19.9738 0 5.87448 0 0 0 0 2.00364e-08 0 5.04614e+10
21.1076 0 6.93279 0 0 0 0 1.71555e-08 0 5.95522e+10
22.3058 0 8.18175 0 0 0 0 1.46847e-08 0 7.02807e+10
23.5721 0 9.65571 0 0 0 0 1.25662e-08 0 8.29419e+10
24.9102 0 11.3952 0 0 0 0 1.07504e-08 0 9.78842e+10
26.3243 0 13.4481 0 0 0 0 9.19452e-09 0 1.15518e+11
27.8187 0 15.8708 0 0 0 0 7.86182e-09 0 1.36329e+11
29.3979 0 18.73 0 0 0 0 6.72061e-09 0 1.60889e+11
31.0667 0 22.1042 0 0 0 0 5.74366e-09 0 1.89874e+11
32.8303 0 26.0864 0 0 0 0 4.90756e-09 0 2.2408e+11
34.694 0 30.7859 0 0 0 0 4.19221e-09 0 2.64449e+11
36.6634 0 36.3321 0 0 0 0 3.58032e-09 0 3.1209e+11
38.7447 0 42.8774 0 0 0 0 3.05709e-09 0 3.68314e+11
40.9442 0 50.6018 0 0 0 0 2.60976e-09 0 4.34667e+11
43.2685 0 59.7179 0 0 0 0 2.22743e-09 0 5.12973e+11
45.7247 0 70.4762 0 0 0 0 1.90073e-09 0 6.05386e+11
48.3204 0 83.1727 0 0 0 0 1.62163e-09 0 7.14448e+11
51.0634 0 98.1565 0 0 0 0 1.38326e-09 0 8.43158e+11
53.9621 0 115.84 0 0 0 0 1.1797e-09 0 9.95055e+11
57.0254 0 136.709 0 0 0 0 1.00592e-09 0 1.17432e+12
60.2626 0 161.337 0 0 0 0 8.57591e-10 0 1.38587e+12
63.6835 0 190.402 0 0 0 0 7.3101e-10 0 1.63554e+12
67.2987 0 224.704 0 0 0 0 6.23009e-10 0 1.93019e+12
71.1191 0 265.185 0 0 0 0 5.30879e-10 0 2.27792e+12
75.1563 0 312.958 0 0 0 0 4.52303e-10 0 2.68829e+12
79.4227 0 369.339 0 0 0 0 3.85299e-10 0 3.17259e+12
83.9313 0 435.876 0 0 0 0 3.28173e-10 0 3.74415e+12
88.6959 0 514.4 0 0 0 0 2.79476e-10 0 4.41866e+12
93.7309 0 607.071 0 0 0 0 2.37972e-10 0 5.2147e+12
99.0518 0 716.436 0 0 0 0 2.02605e-10 0 6.15414e+12
104.675 0 845.504 0 0 0 0 1.72471e-10 0 7.26283e+12
110.617 0 997.824 0 0 0 0 1.468e-10 0 8.57124e+12
116.896 0 1177.58 0 0 0 0 1.24935e-10 0 1.01154e+13
123.532 0 1389.73 0 0 0 0 1.06313e-10 0 1.19377e+13
130.545 0 1640.09 0 0 0 0 9.04567e-11 0 1.40883e+13
137.955 0 1935.56 0 0 0 0 7.69563e-11 0 1.66263e+13
145.787 0 2284.26 0 0 0 0 6.54636e-11 0 1.96216e+13
154.063 0 2695.77 0 0 0 0 5.56812e-11 0 2.31565e+13
162.808 0 3181.42 0 0 0 0 4.73556e-11 0 2.73282e+13
172.051 0 3754.56 0 0 0 0 4.02708e-11 0 3.22515e+13
181.818 0 4430.96 0 0 0 0 3.42426e-11 0 3.80616e+13
192.139 0 5229.21 0 0 0 0 2.91139e-11 0 4.49186e+13
203.046 0 6171.26 0 0 0 0 2.4751e-11 0 5.30108e+13
214.572 0 7283.03 0 0 0 0 2.10401e-11 0 6.25608e+13
226.753 0 8595.09 0 0 0 0 1.78839e-11 0 7.38313e+13
239.625 0 10143.5 0 0 0 0 1.51999e-11 0 8.71322e+13
253.228 0 11970.9 0 0 0 0 1.29176e-11 0 1.02829e+14
267.603 0 14127.5 0 0 0 0 1.09771e-11 0 1.21354e+14
282.795 0 16672.6 0 0 0 0 9.3274e-12 0 1.43217e+14
298.848 0 19676.2 0 0 0 0 7.925e-12 0 1.69017e+14
315.813 0 23220.9 0 0 0 0 6.73295e-12 0 1.99466e+14
333.741 0 27404.3 0 0 0 0 5.71979e-12 0 2.35401e+14
352.686 0 32341.2 0 0 0 0 4.85874e-12 0 2.77809e+14
372.707 0 38167.6 0 0 0 0 4.12703e-12 0 3.27857e+14
393.865 0 45043.5 0 0 0 0 3.50528e-12 0 3.86921e+14
416.224 0 53158.3 0 0 0 0 2.97701e-12 0 4.56626e+14
439.852 0 62734.9 0 0 0 0 2.52819e-12 0 5.38888e+14
464.821 0 74036.7 0 0 0 0 2.1469e-12 0 6.35971e+14
491.207 0 87374.6 0 0 0 0 1.82301e-12 0 7.50542e+14
519.092 0 103115 0 0 0 0 1.54789e-12 0 8.85755e+14
548.56 0 121692 0 0 0 0 1.31422e-12 0 1.04533e+15
579.7 0 143615 0 0 0 0 1.11576e-12 0 1.23364e+15
612.608 0 169488 0 0 0 0 9.47223e-13 0 1.45589e+15
647.384 0 200021 0 0 0 0 8.041e-13 0 1.71817e+15
684.134 0 236056 0 0 0 0 6.82568e-13 0 2.0277e+15
722.971 0 278582 0 0 0 0 5.79376e-13 0 2.393e+15
764.012 0 328769 0 0 0 0 4.91762e-13 0 2.8241e+15
