0.0477877
200
1.0655e+09
8589934592
0.0129181 0 1.58924e-09 0 0 0 0 0.00677225 0 13.6515
0.0136515 0 1.87554e-09 0 0 0 0 0.00688819 0 16.1108
0.0144264 0 2.21343e-09 0 0 0 0 0.00699249 0 19.0132
0.0152454 0 2.61218e-09 0 0 0 0 0.00708412 0 22.4385
0.0161108 0 3.08278e-09 0 0 0 0 0.00716212 0 26.4808
0.0170254 0 3.63815e-09 0 0 0 0 0.00722559 0 31.2514
0.0179919 0 4.29357e-09 0 0 0 0 0.00727371 0 36.8815
0.0190132 0 5.06707e-09 0 0 0 0 0.00730578 0 43.5258
0.0200925 0 5.97991e-09 0 0 0 0 0.00732122 0 51.367
0.0212331 0 7.05721e-09 0 0 0 0 0.00731958 0 60.621
0.0224385 0 8.32858e-09 0 0 0 0 0.00730056 0 71.542
0.0237123 0 9.829e-09 0 0 0 0 0.00726401 0 84.4305
0.0250583 0 1.15997e-08 0 0 0 0 0.00720995 0 99.6408
0.0264808 0 1.36894e-08 0 0 0 0 0.00713857 0 117.591
0.0279841 0 1.61556e-08 0 0 0 0 0.00705021 0 138.776
0.0295727 0 1.90661e-08 0 0 0 0 0.00694538 0 163.777
0.0312514 0 2.25009e-08 0 0 0 0 0.00682475 0 193.281
0.0330255 0 2.65545e-08 0 0 0 0 0.00668915 0 228.102
0.0349003 0 3.13384e-08 0 0 0 0 0.00653951 0 269.195
0.0368815 0 3.69841e-08 0 0 0 0 0.00637693 0 317.691
0.0389751 0 4.36469e-08 0 0 0 0 0.00620256 0 374.924
0.0411876 0 5.151e-08 0 0 0 0 0.00601767 0 442.467
0.0435258 0 6.07896e-08 0 0 0 0 0.00582358 0 522.179
0.0459966 0 7.1741e-08 0 0 0 0 0.00562166 0 616.251
0.0486077 0 8.46654e-08 0 0 0 0 0.0054133 0 727.27
0.051367 0 9.99181e-08 0 0 0 0 0.00519989 0 858.29
0.054283 0 1.17919e-07 0 0 0 0 0.0049828 0 1012.91
0.0573645 0 1.39162e-07 0 0 0 0 0.00476339 0 1195.39
0.060621 0 1.64232e-07 0 0 0 0 0.00454293 0 1410.75
0.0640622 0 1.93819e-07 0 0 0 0 0.00432265 0 1664.89
0.0676989 0 2.28736e-07 0 0 0 0 0.00410371 0 1964.83
0.071542 0 2.69944e-07 0 0 0 0 0.00388717 0 2318.8
0.0756032 0 3.18575e-07 0 0 0 0 0.00367401 0 2736.54
0.079895 0 3.75967e-07 0 0 0 0 0.0034651 0 3229.53
0.0844305 0 4.43698e-07 0 0 0 0 0.00326121 0 3811.34
0.0892234 0 5.23632e-07 0 0 0 0 0.00306301 0 4497.96
0.0942883 0 6.17966e-07 0 0 0 0 0.00287109 0 5308.28
0.0996408 0 7.29294e-07 0 0 0 0 0.00268591 0 6264.59
0.105297 0 8.60678e-07 0 0 0 0 0.00250785 0 7393.17
0.111275 0 1.01573e-06 0 0 0 0 0.00233721 0 8725.07
0.117591 0 1.19872e-06 0 0 0 0 0.00217419 0 10296.9
0.124267 0 1.41467e-06 0 0 0 0 0.00201893 0 12151.9
0.131321 0 1.66953e-06 0 0 0 0 0.00187147 0 14341.1
0.138776 0 1.9703e-06 0 0 0 0 0.00173182 0 16924.7
0.146654 0 2.32525e-06 0 0 0 0 0.00159991 0 19973.8
0.154979 0 2.74415e-06 0 0 0 0 0.00147563 0 23572.1
0.163777 0 3.23852e-06 0 0 0 0 0.00135884 0 27818.7
0.173074 0 3.82195e-06 0 0 0 0 0.00124933 0 32830.3
0.182899 0 4.51048e-06 0 0 0 0 0.00114689 0 38744.7
0.193281 0 5.32305e-06 0 0 0 0 0.00105127 0 45724.7
0.204254 0 6.28202e-06 0 0 0 0 0.000962209 0 53962.1
0.215848 0 7.41374e-06 0 0 0 0 0.000879423 0 63683.5
0.228102 0 8.74934e-06 0 0 0 0 0.000802624 0 75156.3
0.24105 0 1.03256e-05 0 0 0 0 0.000731515 0 88695.9
0.254734 0 1.21857e-05 0 0 0 0 0.000665798 0 104675
0.269195 0 1.4381e-05 0 0 0 0 0.000605173 0 123532
0.284476 0 1.69718e-05 0 0 0 0 0.000549345 0 145787
0.300625 0 2.00293e-05 0 0 0 0 0.000498021 0 172051
0.317691 0 2.36377e-05 0 0 0 0 0.000450916 0 203046
0.335725 0 2.78961e-05 0 0 0 0 0.000407755 0 239625
0.354784 0 3.29216e-05 0 0 0 0 0.000368269 0 282795
0.374924 0 3.88525e-05 0 0 0 0 0.000332202 0 333741
0.396207 0.271783 4.58519e-05 6.9004e-07 6 0.264227 6.70856e-07 0.000299307 0.0138328 393865
0.418699 0 5.41123e-05 0 0 0 0 0.00026935 0 464821
0.442467 0 6.38607e-05 0 0 0 0 0.000242108 0 548560
0.467585 0 7.53654e-05 0 0 0 0 0.00021737 0 647384
0.494129 0 8.89427e-05 0 0 0 0 0.000194938 0 764012
0.522179 0 0.000104966 0 0 0 0 0.000174625 0 901651
0.551822 0 0.000123876 0 0 0 0 0.000156255 0 1.06409e+06
0.583147 4.86898 0.000146192 3.87724e-06 12 5.12462 4.08082e-06 0.000139664 0.333134 1.25578e+06
0.616251 0 0.000172529 0 0 0 0 0.0001247 0 1.48202e+06
0.651234 0 0.000203611 0 0 0 0 0.00011122 0 1.74901e+06
0.688203 25.9591 0.000240292 1.25765e-05 8 25.3133 1.22636e-05 9.90935e-05 1.01532 2.06409e+06
0.72727 0 0.000283581 0 0 0 0 8.81969e-05 0 2.43595e+06
0.768555 0 0.000334669 0 0 0 0 7.84179e-05 0 2.87479e+06
0.812184 0.0830909 0.000394961 2.44912e-08 6 0.0848674 2.50148e-08 6.96525e-05 0.00210971 3.39269e+06
0.85829 0 0.000466114 0 0 0 0 6.1805e-05 0 4.00389e+06
0.907013 0.135815 0.000550086 2.87427e-08 24 0.138421 2.92942e-08 5.47875e-05 0.0125909 4.7252e+06
0.958501 0.685983 0.000649185 1.23014e-07 24 0.645803 1.15809e-07 4.85194e-05 0.0608486 5.57646e+06
1.01291 0 0.000766138 0 0 0 0 4.29272e-05 0 6.58107e+06
1.07041 0 0.00090416 0 0 0 0 3.79435e-05 0 7.76667e+06
1.13118 1.25717 0.00106705 1.37158e-07 12 1.24172 1.35473e-07 3.3507e-05 0.0491208 9.16586e+06
1.19539 0.340712 0.00125928 3.14975e-08 30 0.333688 3.08482e-08 2.9562e-05 0.0319642 1.08171e+07
1.26325 5.67897 0.00148614 4.44856e-07 24 5.59351 4.38162e-07 2.60578e-05 0.409725 1.27658e+07
1.33496 20.5572 0.00175387 1.36451e-06 24 20.6024 1.36751e-06 2.29484e-05 1.42703 1.50656e+07
1.41075 6.79401 0.00206984 3.82121e-07 32 6.99265 3.93293e-07 2.01923e-05 0.605571 1.77798e+07
1.49083 0.252457 0.00244272 1.20316e-08 48 0.247075 1.17751e-08 1.77518e-05 0.0325329 2.09828e+07
1.57546 0.0670154 0.00288279 2.70628e-09 6 0.0638138 2.57699e-09 1.55929e-05 0.00104135 2.4763e+07
1.66489 0.347042 0.00340213 1.18752e-08 84 0.333126 1.1399e-08 1.3685e-05 0.0728911 2.92241e+07
1.75941 2.57508 0.00401503 7.46642e-08 48 2.59628 7.52787e-08 1.20007e-05 0.29864 3.44889e+07
1.85928 0.17311 0.00473835 4.2531e-09 72 0.175669 4.31597e-09 1.05151e-05 0.0291222 4.07021e+07
1.96483 0.914247 0.00559198 1.9033e-08 54 0.901935 1.87767e-08 9.20606e-06 0.111642 4.80347e+07
2.07637 8.73894 0.00659939 1.54158e-07 104 8.70032 1.53477e-07 8.05366e-06 1.9907 5.66883e+07
2.19424 0.224278 0.00778828 3.35239e-09 120 0.226711 3.38877e-09 7.04008e-06 0.0571425 6.69008e+07
2.3188 1.79128 0.00919136 2.26879e-08 156 1.69805 2.1507e-08 6.1494e-06 0.575554 7.89532e+07
2.45043 0.567776 0.0108472 6.09353e-09 126 0.567818 6.09398e-09 5.36741e-06 0.143046 9.31768e+07
2.58954 0.40571 0.0128014 3.68951e-09 192 0.413586 3.76114e-09 4.68145e-06 0.151318 1.09963e+08
2.73654 4.91213 0.0151076 3.78517e-08 152 5.08348 3.91721e-08 4.08023e-06 1.41008 1.29773e+08
2.89188 3.58275 0.0178292 2.33934e-08 378 3.66373 2.39222e-08 3.55373e-06 2.48829 1.53152e+08
3.05605 1.31281 0.0210412 7.2634e-09 264 1.28946 7.1342e-09 3.09304e-06 0.619952 1.80743e+08
3.22953 0.159784 0.0248319 7.49093e-10 366 0.155893 7.30847e-10 2.69025e-06 0.101912 2.13304e+08
3.41286 0.734759 0.0293054 2.91882e-09 428 0.697033 2.76896e-09 2.33837e-06 0.534242 2.51731e+08
3.6066 3.35108 0.0345848 1.128e-08 486 3.23259 1.08812e-08 2.0312e-06 2.69893 2.97081e+08
3.81134 0.675686 0.0408154 1.92722e-09 600 0.669925 1.91079e-09 1.76327e-06 0.65579 3.50601e+08
4.0277 0.463814 0.0481684 1.12096e-09 738 0.462253 1.11719e-09 1.52972e-06 0.540799 4.13763e+08
4.25634 1.18726 0.056846 2.43139e-09 824 1.23956 2.53851e-09 1.32631e-06 1.51056 4.88304e+08
4.49796 2.66056 0.067087 4.61685e-09 954 2.67971 4.65007e-09 1.14926e-06 3.83245 5.76273e+08
4.7533 0.48982 0.0791729 7.20228e-10 1094 0.479195 7.04605e-10 9.95263e-07 0.79168 6.8009e+08
5.02313 0.277981 0.0934361 3.46346e-10 1332 0.277474 3.45715e-10 8.61414e-07 0.535553 8.0261e+08
5.30828 2.1571 0.110269 2.27734e-09 1614 2.18045 2.30199e-09 7.45152e-07 4.93272 9.47202e+08
5.60962 1.05263 0.130134 9.41662e-10 1850 1.0156 9.08534e-10 6.44232e-07 2.70411 1.11784e+09
5.92807 1.29967 0.153578 9.85173e-10 2238 1.23805 9.38464e-10 5.56685e-07 3.96062 1.31923e+09
6.26459 0.531925 0.181246 3.41659e-10 2546 0.54187 3.48047e-10 4.80786e-07 1.80925 1.55689e+09
6.62021 0.115141 0.213898 6.26661e-11 3264 0.115186 6.2691e-11 4.15026e-07 0.492842 1.83737e+09
6.99602 1.25628 0.252432 5.79367e-10 3506 1.30268 6.00765e-10 3.58083e-07 5.6726 2.16837e+09
7.39317 0.487712 0.297908 1.90586e-10 4506 0.496444 1.93998e-10 3.08803e-07 2.781 2.55901e+09
7.81286 1.03646 0.351577 3.43197e-10 5018 1.07468 3.55851e-10 2.66181e-07 6.46989 3.02002e+09
8.25637 0.940344 0.414914 2.63839e-10 5852 0.899156 2.52282e-10 2.29336e-07 6.73241 3.56409e+09
8.72507 0.522223 0.489662 1.24157e-10 7362 0.514242 1.22259e-10 1.97503e-07 4.62799 4.20617e+09
9.22037 0.783454 0.577876 1.5783e-10 8306 0.772653 1.55654e-10 1.70014e-07 7.71073 4.96392e+09
9.74378 0.198011 0.681982 3.38007e-11 9698 0.19888 3.3949e-11 1.46289e-07 2.24076 5.85818e+09
10.2969 0.77094 0.804843 1.11511e-10 11816 0.786978 1.13831e-10 1.25822e-07 10.4721 6.91355e+09
10.8814 0.650693 0.949838 7.97511e-11 13682 0.652399 7.99602e-11 1.08175e-07 10.0869 8.15905e+09
11.4992 0.604179 1.12095 6.27462e-11 16152 0.590734 6.135e-11 9.29669e-08 10.9015 9.62892e+09
12.1519 0.578807 1.3229 5.09352e-11 19472 0.561719 4.94315e-11 7.98658e-08 12.4185 1.13636e+10
12.8418 0.200548 1.56122 1.49543e-11 22670 0.205176 1.52993e-11 6.85852e-08 4.94295 1.34108e+10
13.5708 0.548761 1.84248 3.4673e-11 26224 0.559888 3.53761e-11 5.88765e-08 15.4436 1.58268e+10
14.3411 0.451304 2.17441 2.41624e-11 31640 0.460096 2.46331e-11 5.05241e-08 15.1313 1.8678e+10
15.1552 0.482414 2.56613 2.18852e-11 37484 0.488894 2.21792e-11 4.33417e-08 18.9274 2.20429e+10
16.0156 0.377769 3.02843 1.45218e-11 43856 0.388103 1.4919e-11 3.71677e-08 17.1349 2.6014e+10
16.9247 0.652869 3.574 2.12658e-11 51362 0.654653 2.13239e-11 3.18628e-08 34.2799 3.07005e+10
17.8855 0.472126 4.21787 1.30309e-11 61636 0.466526 1.28763e-11 2.73063e-08 29.4135 3.62312e+10
18.9008 0.594513 4.97773 1.3904e-11 72218 0.594786 1.39104e-11 2.33941e-08 42.9218 4.27584e+10
19.9738 0.884377 5.87448 1.75258e-11 84586 0.874423 1.73285e-11 2.00364e-08 73.9873 5.04614e+10
21.1076 1.29601 6.93279 2.17625e-11 100708 1.29045 2.16691e-11 1.71555e-08 127.752 5.95522e+10
22.3058 2.71155 8.18175 3.85817e-11 118712 2.69486 3.83443e-11 1.46847e-08 311.897 7.02807e+10
23.5721 6.98934 9.65571 8.42679e-11 140410 6.90828 8.32905e-11 1.25662e-08 941.581 8.29419e+10
24.9102 10.0581 11.3952 1.02755e-10 164374 9.98884 1.02048e-10 1.07504e-08 1571.13 9.78842e+10
26.3243 12.7956 13.4481 1.10767e-10 194680 12.7633 1.10487e-10 9.19452e-09 2345.32 1.15518e+11
27.8187 9.87522 15.8708 7.24366e-11 230196 9.8606 7.23293e-11 7.86182e-09 2120.96 1.36329e+11
29.3979 8.48994 18.73 5.27688e-11 271156 8.48257 5.2723e-11 6.72061e-09 2129.06 1.60889e+11
31.0667 9.4172 22.1042 4.95971e-11 321076 9.352 4.92537e-11 5.74366e-09 2772.53 1.89874e+11
32.8303 13.7958 26.0864 6.15663e-11 377436 13.6822 6.10593e-11 4.90756e-09 4735.01 2.2408e+11
34.694 21.4969 30.7859 8.12896e-11 447594 21.3699 8.08091e-11 4.19221e-09 8679.14 2.64449e+11
36.6634 24.8365 36.3321 7.95811e-11 525078 24.745 7.92882e-11 3.58032e-09 11671.1 3.1209e+11
38.7447 24.7893 42.8774 6.73047e-11 621924 24.7673 6.72451e-11 3.05709e-09 13692.3 3.68314e+11
40.9442 25.5642 50.6018 5.88134e-11 732630 25.5296 5.87337e-11 2.60976e-09 16510.5 4.34667e+11
43.2685 27.3074 59.7179 5.32336e-11 865596 27.2374 5.30971e-11 2.22743e-09 20687 5.12973e+11
45.7247 30.1602 70.4762 4.98197e-11 1.02168e+06 30.0731 4.96759e-11 1.90073e-09 26779 6.05386e+11
48.3204 35.8497 83.1727 5.01782e-11 1.20544e+06 35.7071 4.99786e-11 1.62163e-09 37299.9 7.14448e+11
51.0634 46.3598 98.1565 5.49835e-11 1.42103e+06 46.127 5.47074e-11 1.38326e-09 56485 8.43158e+11
53.9621 62.1734 115.84 6.24824e-11 1.67997e+06 61.8763 6.21838e-11 1.1797e-09 88978.6 9.95055e+11
57.0254 78.6769 136.709 6.6998e-11 1.98018e+06 78.4123 6.67727e-11 1.00592e-09 131887 1.17432e+12
60.2626 91.4678 161.337 6.60001e-11 2.33957e+06 91.2474 6.58411e-11 8.57591e-10 180053 1.38587e+12
63.6835 99.4772 190.402 6.08221e-11 2.75676e+06 99.2476 6.06818e-11 7.3101e-10 229371 1.63554e+12
67.2987 111.52 224.704 5.77769e-11 3.25638e+06 111.196 5.76091e-11 6.23009e-10 301992 1.93019e+12
71.1191 132.551 265.185 5.81893e-11 3.84387e+06 132.072 5.79792e-11 5.30879e-10 421324 2.27792e+12
75.1563 160.875 312.958 5.98428e-11 4.53277e+06 160.292 5.96261e-11 4.52303e-10 599716 2.68829e+12
79.4227 193.266 369.339 6.09172e-11 5.35083e+06 192.627 6.0716e-11 3.85299e-10 845985 3.17259e+12
83.9313 227.84 435.876 6.08524e-11 6.32174e+06 227.118 6.06594e-11 3.28173e-10 1.17223e+06 3.74415e+12
88.6959 266.539 514.4 6.03212e-11 7.44986e+06 265.674 6.01255e-11 2.79476e-10 1.60795e+06 4.41866e+12
93.7309 313.059 607.071 6.0034e-11 8.79764e+06 312.032 5.9837e-11 2.37972e-10 2.2194e+06 5.2147e+12
99.0518 370.84 716.436 6.02586e-11 1.03827e+07 369.599 6.0057e-11 2.02605e-10 3.08801e+06 6.15414e+12
104.675 438.581 845.504 6.03871e-11 1.22515e+07 437.122 6.01863e-11 1.72471e-10 4.28961e+06 7.26283e+12
110.617 517.635 997.824 6.0392e-11 1.44573e+07 515.935 6.01937e-11 1.468e-10 5.94759e+06 8.57124e+12
116.896 610.544 1177.58 6.0358e-11 1.70664e+07 608.521 6.0158e-11 1.24935e-10 8.24505e+06 1.01154e+13
123.532 721.227 1389.73 6.0416e-11 2.0139e+07 718.824 6.02147e-11 1.06313e-10 1.14447e+07 1.19377e+13
130.545 851.8 1640.09 6.04615e-11 2.37643e+07 848.953 6.02595e-11 9.04567e-11 1.58841e+07 1.40883e+13
137.955 1005.21 1935.56 6.04589e-11 2.80503e+07 1001.85 6.02571e-11 7.69563e-11 2.2037e+07 1.66263e+13
145.787 1187.77 2284.26 6.05336e-11 3.30981e+07 1183.82 6.03323e-11 6.54636e-11 3.06055e+07 1.96216e+13
154.063 1403.32 2695.77 6.06014e-11 3.90634e+07 1398.64 6.03994e-11 5.56812e-11 4.25152e+07 2.31565e+13
162.808 1657.6 3181.42 6.06552e-11 4.61057e+07 1652.07 6.0453e-11 4.73556e-11 5.90542e+07 2.73282e+13
172.051 1959.31 3754.56 6.07511e-11 5.44046e+07 1952.75 6.05476e-11 4.02708e-11 8.20728e+07 3.22515e+13
181.818 2315.98 4430.96 6.0848e-11 6.42064e+07 2308.2 6.06436e-11 3.42426e-11 1.14093e+08 3.80616e+13
192.139 2739.09 5229.21 6.0979e-11 7.57748e+07 2729.87 6.07737e-11 2.91139e-11 1.5871e+08 4.49186e+13
203.046 3240.84 6171.26 6.11355e-11 8.94213e+07 3229.92 6.09295e-11 2.4751e-11 2.20872e+08 5.30108e+13
214.572 3837.58 7283.03 6.13416e-11 1.05538e+08 3824.61 6.11343e-11 2.10401e-11 3.07693e+08 6.25608e+13
226.753 4548.06 8595.09 6.16007e-11 1.24552e+08 4532.56 6.13907e-11 1.78839e-11 4.29015e+08 7.38313e+13
239.625 5395.26 10143.5 6.19204e-11 1.46987e+08 5376.73 6.17077e-11 1.51999e-11 5.98787e+08 8.71322e+13
253.228 6413.49 11970.9 6.23703e-11 1.7347e+08 6391.38 6.21552e-11 1.29176e-11 8.37567e+08 1.02829e+14
267.603 7636.52 14127.5 6.29275e-11 2.04703e+08 7609.96 6.27087e-11 1.09771e-11 1.17348e+09 1.21354e+14
282.795 9121.56 16672.6 6.36907e-11 2.4161e+08 9089.4 6.34661e-11 9.3274e-12 1.64979e+09 1.43217e+14
298.848 10935.3 19676.2 6.4699e-11 2.85122e+08 10896 6.44667e-11 7.925e-12 2.32772e+09 1.69017e+14
315.813 13181.8 23220.9 6.60854e-11 3.36491e+08 13133.3 6.5842e-11 6.73295e-12 3.30274e+09 1.99466e+14
333.741 16014.5 27404.3 6.80307e-11 3.97115e+08 15953.5 6.77718e-11 5.71979e-12 4.72325e+09 2.35401e+14
352.686 19661.4 32341.2 7.07732e-11 4.68637e+08 19583.2 7.04917e-11 4.85874e-12 6.82624e+09 2.77809e+14
372.707 24505.1 38167.6 7.47434e-11 5.53074e+08 24401.7 7.44281e-11 4.12703e-12 1.00166e+10 3.27857e+14
393.865 31185.4 45043.5 8.05988e-11 6.52716e+08 31043.8 8.02329e-11 3.50528e-12 1.50082e+10 3.86921e+14
416.224 36806.8 53158.3 8.06061e-11 2.2184e+08 38938.3 8.52738e-11 2.97701e-12 6.00658e+09 4.56626e+14
439.852 0 62734.9 0 0 0 0 2.52819e-12 0 5.38888e+14
464.821 0 74036.7 0 0 0 0 2.1469e-12 0 6.35971e+14
491.207 0 87374.6 0 0 0 0 1.82301e-12 0 7.50542e+14
519.092 0 103115 0 0 0 0 1.54789e-12 0 8.85755e+14
548.56 0 121692 0 0 0 0 1.31422e-12 0 1.04533e+15
579.7 0 143615 0 0 0 0 1.11576e-12 0 1.23364e+15
612.608 0 169488 0 0 0 0 9.47223e-13 0 1.45589e+15
647.384 0 200021 0 0 0 0 8.041e-13 0 1.71817e+15
684.134 0 236056 0 0 0 0 6.82568e-13 0 2.0277e+15
722.971 0 278582 0 0 0 0 5.79376e-13 0 2.393e+15
764.012 0 328769 0 0 0 0 4.91762e-13 0 2.8241e+15
0.0477877
200
1.0655e+09
8589934592
0.0129181 7.4153e-06 1.58924e-09 5.43187e-07 6 7.34741e-06 5.38215e-07 0.00677225 0.000481247 13.6515
0.0136515 0 1.87554e-09 0 0 0 0 0.00688819 0 16.1108
0.0144264 0 2.21343e-09 0 0 0 0 0.00699249 0 19.0132
0.0152454 0 2.61218e-09 0 0 0 0 0.00708412 0 22.4385
0.0161108 0 3.08278e-09 0 0 0 0 0.00716212 0 26.4808
0.0170254 0 3.63815e-09 0 0 0 0 0.00722559 0 31.2514
0.0179919 1.64466e-05 4.29357e-09 4.45933e-07 12 1.64255e-05 4.45358e-07 0.00727371 0.00073569 36.8815
0.0190132 0 5.06707e-09 0 0 0 0 0.00730578 0 43.5258
0.0200925 0 5.97991e-09 0 0 0 0 0.00732122 0 51.367
0.0212331 1.5533e-05 7.05721e-09 2.56231e-07 8 1.55195e-05 2.56008e-07 0.00731958 0.00028005 60.621
0.0224385 0 8.32858e-09 0 0 0 0 0.00730056 0 71.542
0.0237123 0 9.829e-09 0 0 0 0 0.00726401 0 84.4305
0.0250583 9.99617e-05 1.15997e-08 1.00322e-06 6 9.99147e-05 1.00275e-06 0.00720995 0.000834863 99.6408
0.0264808 0 1.36894e-08 0 0 0 0 0.00713857 0 117.591
0.0279841 6.22978e-05 1.61556e-08 4.4891e-07 24 6.22339e-05 4.48449e-07 0.00705021 0.00152816 138.776
0.0295727 0 1.90661e-08 0 0 0 0 0.00694538 0 163.777
0.0312514 0.000111282 2.25009e-08 5.75749e-07 24 0.000111847 5.78673e-07 0.00682475 0.00202469 193.281
0.0330255 0 2.65545e-08 0 0 0 0 0.00668915 0 228.102
0.0349003 0.000153389 3.13384e-08 5.69808e-07 12 0.000152161 5.65245e-07 0.00653951 0.0010456 269.195
0.0368815 0.000134259 3.69841e-08 4.2261e-07 30 0.00013283 4.1811e-07 0.00637693 0.00198815 317.691
0.0389751 0.00016093 4.36469e-08 4.29233e-07 24 0.000159274 4.24818e-07 0.00620256 0.00166086 374.924
0.0411876 0.000101811 5.151e-08 2.30099e-07 24 0.00010112 2.28536e-07 0.00601767 0.000917693 442.467
0.0435258 0.00021448 6.07896e-08 4.10739e-07 8 0.000214463 4.10708e-07 0.00582358 0.000564243 522.179
0.0459966 0.000275817 7.1741e-08 4.47572e-07 72 0.000273634 4.44031e-07 0.00562166 0.00573232 616.251
0.0486077 0 8.46654e-08 0 0 0 0 0.0054133 0 727.27
0.051367 0.000417705 9.99181e-08 4.86672e-07 54 0.000416393 4.85142e-07 0.00519989 0.005054 858.29
0.054283 0.000322518 1.17919e-07 3.18406e-07 60 0.000323843 3.19715e-07 0.0049828 0.00383406 1012.91
0.0573645 0.000324422 1.39162e-07 2.71394e-07 96 0.000323589 2.70697e-07 0.00476339 0.00546959 1195.39
0.060621 0.000373397 1.64232e-07 2.64681e-07 24 0.000368338 2.61095e-07 0.00454293 0.00139829 1410.75
0.0640622 0.000658918 1.93819e-07 3.95772e-07 134 0.000659273 3.95985e-07 0.00432265 0.0122687 1664.89
0.0676989 0.000631417 2.28736e-07 3.2136e-07 120 0.000628547 3.19899e-07 0.00410371 0.00939714 1964.83
0.071542 0.000574726 2.69944e-07 2.47855e-07 108 0.000568515 2.45176e-07 0.00388717 0.00688632 2318.8
0.0756032 0.000833414 3.18575e-07 3.04551e-07 174 0.000829122 3.02982e-07 0.00367401 0.0144234 2736.54
0.079895 0.000894951 3.75967e-07 2.77115e-07 168 0.000886491 2.74495e-07 0.0034651 0.0134355 3229.53
0.0844305 0.00076795 4.43698e-07 2.01491e-07 168 0.000771781 2.02496e-07 0.00326121 0.0103797 3811.34
0.0892234 0.000860093 5.23632e-07 1.91218e-07 290 0.000856522 1.90424e-07 0.00306301 0.0181042 4497.96
0.0942883 0.00111953 6.17966e-07 2.10903e-07 288 0.00111667 2.10363e-07 0.00287109 0.0211557 5308.28
0.0996408 0.00102613 7.29294e-07 1.63798e-07 366 0.00101737 1.624e-07 0.00268591 0.0223202 6264.59
0.105297 0.00109585 8.60678e-07 1.48225e-07 420 0.0010883 1.47203e-07 0.00250785 0.0248237 7393.17
0.111275 0.00115288 1.01573e-06 1.32134e-07 398 0.00114988 1.31791e-07 0.00233721 0.022501 8725.07
0.117591 0.00137249 1.19872e-06 1.33292e-07 624 0.00137526 1.3356e-07 0.00217419 0.0382551 10296.9
0.124267 0.00150884 1.41467e-06 1.24164e-07 642 0.00150712 1.24023e-07 0.00201893 0.0394832 12151.9
0.131321 0.00192712 1.66953e-06 1.34377e-07 800 0.00192776 1.34422e-07 0.00187147 0.0574425 14341.1
0.138776 0.00177249 1.9703e-06 1.04728e-07 858 0.00178107 1.05235e-07 0.00173182 0.0518856 16924.7
0.146654 0.00189548 2.32525e-06 9.48987e-08 1080 0.00191129 9.56898e-08 0.00159991 0.0640603 19973.8
0.154979 0.00222595 2.74415e-06 9.44316e-08 1286 0.00224155 9.50936e-08 0.00147563 0.0822962 23572.1
0.163777 0.00211337 3.23852e-06 7.59694e-08 1650 0.00211705 7.61017e-08 0.00135884 0.0922475 27818.7
0.173074 0.00248197 3.82195e-06 7.56002e-08 1778 0.00248229 7.56099e-08 0.00124933 0.107591 32830.3
0.182899 0.0024426 4.51048e-06 6.30433e-08 2112 0.0024481 6.31855e-08 0.00114689 0.116094 38744.7
0.193281 0.00289107 5.32305e-06 6.32277e-08 2570 0.00289541 6.33228e-08 0.00105127 0.15457 45724.7
0.204254 0.003176 6.28202e-06 5.8856e-08 3030 0.00317509 5.88392e-08 0.000962209 0.185338 53962.1
0.215848 0.00316238 7.41374e-06 4.96577e-08 3434 0.00316238 4.96577e-08 0.000879423 0.193905 63683.5
0.228102 0.00329899 8.74934e-06 4.38951e-08 4218 0.00329955 4.39025e-08 0.000802624 0.23068 75156.3
0.24105 0.00372495 1.03256e-05 4.19969e-08 4766 0.00372815 4.2033e-08 0.000731515 0.27362 88695.9
0.254734 0.00396296 1.21857e-05 3.78598e-08 6026 0.00396157 3.78465e-08 0.000665798 0.342661 104675
0.269195 0.00414432 1.4381e-05 3.35485e-08 6480 0.00414278 3.35361e-08 0.000605173 0.359226 123532
0.284476 0.00445817 1.69718e-05 3.05801e-08 8162 0.00446857 3.06514e-08 0.000549345 0.45435 145787
0.300625 0.00449029 2.00293e-05 2.60986e-08 9578 0.00449613 2.61326e-08 0.000498021 0.501932 172051
0.317691 0.00496323 2.36377e-05 2.44439e-08 11234 0.00495997 2.44278e-08 0.000450916 0.608987 203046
0.335725 0.00520689 2.78961e-05 2.17293e-08 13344 0.00520529 2.17226e-08 0.000407755 0.711102 239625
0.354784 0.00536868 3.29216e-05 1.89844e-08 15464 0.00536571 1.89739e-08 0.000368269 0.797173 282795
0.374924 0.00576887 3.88525e-05 1.72855e-08 18458 0.00576733 1.72809e-08 0.000332202 0.960428 333741
0.396207 0.00604495 4.58519e-05 1.53478e-08 22232 0.00603619 1.53255e-08 0.000299307 1.14001 393865
0.418699 0.00652012 5.41123e-05 1.40272e-08 25628 0.00650844 1.4002e-08 0.00026935 1.33465 464821
0.442467 0.00672238 6.38607e-05 1.22546e-08 30320 0.00671158 1.22349e-08 0.000242108 1.53469 548560
0.467585 0.00704704 7.53654e-05 1.08854e-08 35452 0.00703715 1.08701e-08 0.00021737 1.77535 647384
0.494129 0.00727798 8.89427e-05 9.526e-09 41792 0.00727634 9.52386e-09 0.000194938 2.04224 764012
0.522179 0.00785107 0.000104966 8.70744e-09 49988 0.00784959 8.7058e-09 0.000174625 2.49259 901651
0.551822 0.00817291 0.000123876 7.68069e-09 59110 0.00816904 7.67705e-09 0.000156255 2.90555 1.06409e+06
0.583147 0.00854788 0.000146192 6.80681e-09 69716 0.00853826 6.79915e-09 0.000139664 3.39775 1.25578e+06
0.616251 0.00903299 0.000172529 6.09507e-09 82210 0.00901935 6.08586e-09 0.0001247 4.01825 1.48202e+06
0.651234 0.0094832 0.000203611 5.42205e-09 96722 0.00946719 5.4129e-09 0.00011122 4.71525 1.74901e+06
0.688203 0.0098896 0.000240292 4.79125e-09 113098 0.00988158 4.78737e-09 9.90935e-05 5.46839 2.06409e+06
0.72727 0.0101983 0.000283581 4.18661e-09 135190 0.0101883 4.18247e-09 8.81969e-05 6.41732 2.43595e+06
0.768555 0.0107872 0.000334669 3.75235e-09 158170 0.010779 3.7495e-09 7.84179e-05 7.56855 2.87479e+06
0.812184 0.0112018 0.000394961 3.30175e-09 188560 0.0111917 3.29877e-09 6.96525e-05 8.93833 3.39269e+06
0.85829 0.0116198 0.000466114 2.90214e-09 220444 0.011608 2.89918e-09 6.1805e-05 10.3512 4.00389e+06
0.907013 0.012195 0.000550086 2.58085e-09 261388 0.0121855 2.57883e-09 5.47875e-05 12.3131 4.7252e+06
0.958501 0.012622 0.000649185 2.26344e-09 308244 0.0126089 2.26109e-09 4.85194e-05 14.3797 5.57646e+06
1.01291 0.0131866 0.000766138 2.00371e-09 364396 0.0131714 2.0014e-09 4.29272e-05 17.0089 6.58107e+06
1.07041 0.0136874 0.00090416 1.76232e-09 429162 0.0136724 1.7604e-09 3.79435e-05 19.9328 7.76667e+06
1.13118 0.0142637 0.00106705 1.55617e-09 506358 0.014246 1.55424e-09 3.3507e-05 23.5169 9.16586e+06
1.19539 0.0147785 0.00125928 1.36621e-09 598590 0.0147614 1.36463e-09 2.9562e-05 27.6639 1.08171e+07
1.26325 0.0153905 0.00148614 1.2056e-09 704844 0.0153732 1.20425e-09 2.60578e-05 32.6106 1.27658e+07
1.33496 0.0159452 0.00175387 1.05838e-09 834620 0.0159265 1.05714e-09 2.29484e-05 38.4927 1.50656e+07
1.41075 0.0165245 0.00206984 9.29397e-10 981444 0.016506 9.28358e-10 2.01923e-05 45.1732 1.77798e+07
1.49083 0.0170829 0.00244272 8.14138e-10 1.15998e+06 0.0170636 8.13219e-10 1.77518e-05 53.1993 2.09828e+07
1.57546 0.0177434 0.00288279 7.16528e-10 1.36931e+06 0.017723 7.15706e-10 1.55929e-05 62.923 2.4763e+07
1.66489 0.0183748 0.00340213 6.28755e-10 1.61652e+06 0.0183516 6.27961e-10 1.3685e-05 74.2705 2.92241e+07
1.75941 0.0190147 0.00401503 5.51328e-10 1.90601e+06 0.0189914 5.50654e-10 1.20007e-05 87.5646 3.44889e+07
1.85928 0.0196614 0.00473835 4.83057e-10 2.24913e+06 0.0196385 4.82493e-10 1.05151e-05 103.323 4.07021e+07
1.96483 0.0203593 0.00559198 4.23845e-10 2.65744e+06 0.0203347 4.23333e-10 9.20606e-06 122.348 4.80347e+07
2.07637 0.0210207 0.00659939 3.70812e-10 3.13125e+06 0.0209966 3.70386e-10 8.05366e-06 144.171 5.66883e+07
2.19424 0.0217492 0.00778828 3.25096e-10 3.69915e+06 0.0217228 3.24701e-10 7.04008e-06 170.819 6.69008e+07
2.3188 0.0224871 0.00919136 2.84816e-10 4.36472e+06 0.0224602 2.84474e-10 6.1494e-06 202.157 7.89532e+07
2.45043 0.0232586 0.0108472 2.49618e-10 5.14913e+06 0.0232305 2.49316e-10 5.36741e-06 239.467 9.31768e+07
2.58954 0.0240249 0.0128014 2.18482e-10 6.07894e+06 0.0239965 2.18224e-10 4.68145e-06 283.702 1.09963e+08
2.73654 0.0248502 0.0151076 1.9149e-10 7.17304e+06 0.0248203 1.91259e-10 4.08023e-06 336.639 1.29773e+08
2.89188 0.0256479 0.0178292 1.67467e-10 8.46557e+06 0.0256163 1.6726e-10 3.55373e-06 398.934 1.53152e+08
3.05605 0.0265031 0.0210412 1.46634e-10 9.98773e+06 0.026472 1.46462e-10 3.09304e-06 473.497 1.80743e+08
3.22953 0.0273903 0.0248319 1.2841e-10 1.1797e+07 0.027357 1.28254e-10 2.69025e-06 563.089 2.13304e+08
3.41286 0.0282942 0.0293054 1.12399e-10 1.39144e+07 0.0282584 1.12256e-10 2.33837e-06 668.823 2.51731e+08
3.6066 0.02923 0.0345848 9.83905e-11 1.64163e+07 0.0291933 9.82671e-11 2.0312e-06 795.198 2.97081e+08
3.81134 0.0302136 0.0408154 8.61764e-11 1.93821e+07 0.0301766 8.6071e-11 1.76327e-06 947.267 3.50601e+08
4.0277 0.0312225 0.0481684 7.54598e-11 2.28754e+07 0.0311828 7.53638e-11 1.52972e-06 1128.42 4.13763e+08
4.25634 0.0322761 0.056846 6.60984e-11 2.69929e+07 0.032235 6.60142e-11 1.32631e-06 1345.23 4.88304e+08
4.49796 0.0333796 0.067087 5.79232e-11 3.18542e+07 0.033337 5.78494e-11 1.14926e-06 1605.47 5.76273e+08
4.7533 0.0345363 0.0791729 5.07819e-11 3.75892e+07 0.0344913 5.07157e-11 9.95263e-07 1917.94 6.8009e+08
5.02313 0.0357206 0.0934361 4.45055e-11 4.43706e+07 0.0356738 4.44473e-11 8.61414e-07 2292.44 8.0261e+08
5.30828 0.0369647 0.110269 3.90252e-11 5.23593e+07 0.0369159 3.89736e-11 7.45152e-07 2742.16 9.47202e+08
5.60962 0.0382719 0.130134 3.42372e-11 6.1787e+07 0.0382211 3.41918e-11 6.44232e-07 3283.63 1.11784e+09
5.92807 0.0396512 0.153578 3.00564e-11 7.29346e+07 0.0395973 3.00156e-11 5.56685e-07 3937.87 1.31923e+09
6.26459 0.04109 0.181246 2.63924e-11 8.60651e+07 0.0410337 2.63562e-11 4.80786e-07 4724.48 1.55689e+09
6.62021 0.042612 0.213898 2.31919e-11 1.01558e+08 0.0425528 2.31597e-11 4.15026e-07 5675.13 1.83737e+09
6.99602 0.0442076 0.252432 2.03875e-11 1.1986e+08 0.044146 2.03591e-11 3.58083e-07 6824.23 2.16837e+09
7.39317 0.0459198 0.297908 1.79444e-11 1.41457e+08 0.0458551 1.79191e-11 3.08803e-07 8219.95 2.55901e+09
7.81286 0.0477307 0.351577 1.58048e-11 1.66936e+08 0.0476629 1.57823e-11 2.66181e-07 9911.97 3.02002e+09
8.25637 0.04967 0.414914 1.39362e-11 1.97025e+08 0.0495981 1.39161e-11 2.29336e-07 11972.8 3.56409e+09
8.72507 0.0517495 0.489662 1.23032e-11 2.32497e+08 0.0516728 1.2285e-11 1.97503e-07 14483.1 4.20617e+09
9.22037 0.0540351 0.577876 1.08856e-11 2.74404e+08 0.0539533 1.08691e-11 1.70014e-07 17569.4 4.96392e+09
9.74378 0.0566141 0.681982 9.66411e-12 3.2382e+08 0.0565254 9.64896e-12 1.46289e-07 21392.1 5.85818e+09
10.2969 0.0595806 0.804843 8.61794e-12 3.82165e+08 0.0594823 8.60372e-12 1.25822e-07 26175.6 6.91355e+09
10.8814 0.0631855 0.949838 7.74422e-12 4.51027e+08 0.0630739 7.73055e-12 1.08175e-07 32288.8 8.15905e+09
11.4992 0.0677918 1.12095 7.04044e-12 5.32251e+08 0.0676589 7.02664e-12 9.29669e-08 40307.7 9.62892e+09
12.1519 0.0741901 1.3229 6.52876e-12 6.28157e+08 0.0740203 6.51381e-12 7.98658e-08 51349.7 1.13636e+10
12.8418 0.081416 1.56122 6.07094e-12 3.82727e+08 0.0842736 6.28402e-12 6.85852e-08 33877.7 1.34108e+10
13.5708 0 1.84248 0 0 0 0 5.88765e-08 0 1.58268e+10
14.3411 0 2.17441 0 0 0 0 5.05241e-08 0 1.8678e+10
15.1552 0 2.56613 0 0 0 0 4.33417e-08 0 2.20429e+10
16.0156 0 3.02843 0 0 0 0 3.71677e-08 0 2.6014e+10
16.9247 0 3.574 0 0 0 0 3.18628e-08 0 3.07005e+10
17.8855 0 4.21787 0 0 0 0 2.73063e-08 0 3.62312e+10
18.9008 0 4.97773 0 0 0 0 2.33941e-08 0 4.27584e+10
19.9738 0 5.87448 0 0 0 0 2.00364e-08 0 5.04614e+10
21.1076 0 6.93279 0 0 0 0 1.71555e-08 0 5.95522e+10
22.3058 0 8.18175 0 0 0 0 1.46847e-08 0 7.02807e+10
23.5721 0 9.65571 0 0 0 0 1.25662e-08 0 8.29419e+10
24.9102 0 11.3952 0 0 0 0 1.07504e-08 0 9.78842e+10
26.3243 0 13.4481 0 0 0 0 9.19452e-09 0 1.15518e+11
27.8187 0 15.8708 0 0 0 0 7.86182e-09 0 1.36329e+11
29.3979 0 18.73 0 0 0 0 6.72061e-09 0 1.60889e+11
31.0667 0 22.1042 0 0 0 0 5.74366e-09 0 1.89874e+11
32.8303 0 26.0864 0 0 0 0 4.90756e-09 0 2.2408e+11
34.694 0 30.7859 0 0 0 0 4.19221e-09 0 2.64449e+11
36.6634 0 36.3321 0 0 0 0 3.58032e-09 0 3.1209e+11
38.7447 0 42.8774 0 0 0 0 3.05709e-09 0 3.68314e+11
40.9442 0 50.6018 0 0 0 0 2.60976e-09 0 4.34667e+11
43.2685 0 59.7179 0 0 0 0 2.22743e-09 0 5.12973e+11
45.7247 0 70.4762 0 0 0 0 1.90073e-09 0 6.05386e+11
48.3204 0 83.1727 0 0 0 0 1.62163e-09 0 7.14448e+11
51.0634 0 98.1565 0 0 0 0 1.38326e-09 0 8.43158e+11
53.9621 0 115.84 0 0 0 0 1.1797e-09 0 9.95055e+11
57.0254 0 136.709 0 0 0 0 1.00592e-09 0 1.17432e+12
60.2626 0 161.337 0 0 0 0 8.57591e-10 0 1.38587e+12
63.6835 0 190.402 0 0 0 0 7.3101e-10 0 1.63554e+12
67.2987 0 224.704 0 0 0 0 6.23009e-10 0 1.93019e+12
71.1191 0 265.185 0 0 0 0 5.30879e-10 0 2.27792e+12
75.1563 0 312.958 0 0 0 0 4.52303e-10 0 2.68829e+12
79.4227 0 369.339 0 0 0 0 3.85299e-10 0 3.17259e+12
83.9313 0 435.876 0 0 0 0 3.28173e-10 0 3.74415e+12
88.6959 0 514.4 0 0 0 0 2.79476e-10 0 4.41866e+12
93.7309 0 607.071 0 0 0 0 2.37972e-10 0 5.2147e+12
99.0518 0 716.436 0 0 0 0 2.02605e-10 0 6.15414e+12
104.675 0 845.504 0 0 0 0 1.72471e-10 0 7.26283e+12
110.617 0 997.824 0 0 0 0 1.468e-10 0 8.57124e+12
116.896 0 1177.58 0 0 0 0 1.24935e-10 0 1.01154e+13
123.532 0 1389.73 0 0 0 0 1.06313e-10 0 1.19377e+13
130.545 0 1640.09 0 0 0 0 9.04567e-11 0 1.40883e+13
137.955 0 1935.56 0 0 0 0 7.69563e-11 0 1.66263e+13
145.787 0 2284.26 0 0 0 0 6.54636e-11 0 1.96216e+13
154.063 0 2695.77 0 0 0 0 5.56812e-11 0 2.31565e+13
162.808 0 3181.42 0 0 0 0 4.73556e-11 0 2.73282e+13
172.051 0 3754.56 0 0 0 0 4.02708e-11 0 3.22515e+13
181.818 0 4430.96 0 0 0 0 3.42426e-11 0 3.80616e+13
192.139 0 5229.21 0 0 0 0 2.91139e-11 0 4.49186e+13
203.046 0 6171.26 0 0 0 0 2.4751e-11 0 5.30108e+13
214.572 0 7283.03 0 0 0 0 2.10401e-11 0 6.25608e+13
226.753 0 8595.09 0 0 0 0 1.78839e-11 0 7.38313e+13
239.625 0 10143.5 0 0 0 0 1.51999e-11 0 8.71322e+13
253.228 0 11970.9 0 0 0 0 1.29176e-11 0 1.02829e+14
267.603 0 14127.5 0 0 0 0 1.09771e-11 0 1.21354e+14
282.795 0 16672.6 0 0 0 0 9.3274e-12 0 1.43217e+14
298.848 0 19676.2 0 0 0 0 7.925e-12 0 1.69017e+14
315.813 0 23220.9 0 0 0 0 6.73295e-12 0 1.99466e+14
333.741 0 27404.3 0 0 0 0 5.71979e-12 0 2.35401e+14
352.686 0 32341.2 0 0 0 0 4.85874e-12 0 2.77809e+14
372.707 0 38167.6 0 0 0 0 4.12703e-12 0 3.27857e+14
393.865 0 45043.5 0 0 0 0 3.50528e-12 0 3.86921e+14
416.224 0 53158.3 0 0 0 0 2.97701e-12 0 4.56626e+14
439.852 0 62734.9 0 0 0 0 2.52819e-12 0 5.38888e+14
464.821 0 74036.7 0 0 0 0 2.1469e-12 0 6.35971e+14
491.207 0 87374.6 0 0 0 0 1.82301e-12 0 7.50542e+14
519.092 0 103115 0 0 0 0 1.54789e-12 0 8.85755e+14
548.56 0 121692 0 0 0 0 1.31422e-12 0 1.04533e+15
579.7 0 143615 0 0 0 0 1.11576e-12 0 1.23364e+15
612.608 0 169488 0 0 0 0 9.47223e-13 0 1.45589e+15
647.384 0 200021 0 0 0 0 8.041e-13 0 1.71817e+15
684.134 0 236056 0 0 0 0 6.82568e-13 0 2.0277e+15
722.971 0 278582 0 0 0 0 5.79376e-13 0 2.393e+15
764.012 0 328769 0 0 0 0 4.91762e-13 0 2.8241e+15
