0.204077
200
1.0655e+09
8589934592
0.0129181 0 1.58924e-09 0 0 0 0 0.00677225 0 13.6515
0.0136515 0 1.87554e-09 0 0 0 0 0.00688819 0 16.1108
0.0144264 0 2.21343e-09 0 0 0 0 0.00699249 0 19.0132
0.0152454 0 2.61218e-09 0 0 0 0 0.00708412 0 22.4385
0.0161108 0 3.08278e-09 0 0 0 0 0.00716212 0 26.4808
0.0170254 0 3.63815e-09 0 0 0 0 0.00722559 0 31.2514
0.0179919 0 4.29357e-09 0 0 0 0 0.00727371 0 36.8815
0.0190132 0 5.06707e-09 0 0 0 0 0.00730578 0 43.5258
0.0200925 0 5.97991e-09 0 0 0 0 0.00732122 0 51.367
0.0212331 0 7.05721e-09 0 0 0 0 0.00731958 0 60.621
0.0224385 0 8.32858e-09 0 0 0 0 0.00730056 0 71.542
0.0237123 0 9.829e-09 0 0 0 0 0.00726401 0 84.4305
0.0250583 0 1.15997e-08 0 0 0 0 0.00720995 0 99.6408
0.0264808 0 1.36894e-08 0 0 0 0 0.00713857 0 117.591
0.0279841 0 1.61556e-08 0 0 0 0 0.00705021 0 138.776
0.0295727 0 1.90661e-08 0 0 0 0 0.00694538 0 163.777
0.0312514 0 2.25009e-08 0 0 0 0 0.00682475 0 193.281
0.0330255 0 2.65545e-08 0 0 0 0 0.00668915 0 228.102
0.0349003 0 3.13384e-08 0 0 0 0 0.00653951 0 269.195
0.0368815 0 3.69841e-08 0 0 0 0 0.00637693 0 317.691
0.0389751 0 4.36469e-08 0 0 0 0 0.00620256 0 374.924
0.0411876 0 5.151e-08 0 0 0 0 0.00601767 0 442.467
0.0435258 0 6.07896e-08 0 0 0 0 0.00582358 0 522.179
0.0459966 0 7.1741e-08 0 0 0 0 0.00562166 0 616.251
0.0486077 0 8.46654e-08 0 0 0 0 0.0054133 0 727.27
0.051367 0 9.99181e-08 0 0 0 0 0.00519989 0 858.29
0.054283 0 1.17919e-07 0 0 0 0 0.0049828 0 1012.91
0.0573645 0 1.39162e-07 0 0 0 0 0.00476339 0 1195.39
0.060621 0 1.64232e-07 0 0 0 0 0.00454293 0 1410.75
0.0640622 0 1.93819e-07 0 0 0 0 0.00432265 0 1664.89
0.0676989 0 2.28736e-07 0 0 0 0 0.00410371 0 1964.83
0.071542 0 2.69944e-07 0 0 0 0 0.00388717 0 2318.8
0.0756032 0 3.18575e-07 0 0 0 0 0.00367401 0 2736.54
0.079895 0 3.75967e-07 0 0 0 0 0.0034651 0 3229.53
0.0844305 0 4.43698e-07 0 0 0 0 0.00326121 0 3811.34
0.0892234 0 5.23632e-07 0 0 0 0 0.00306301 0 4497.96
0.0942883 0 6.17966e-07 0 0 0 0 0.00287109 0 5308.28
0.0996408 0 7.29294e-07 0 0 0 0 0.00268591 0 6264.59
0.105297 0 8.60678e-07 0 0 0 0 0.00250785 0 7393.17
0.111275 0 1.01573e-06 0 0 0 0 0.00233721 0 8725.07
0.117591 0 1.19872e-06 0 0 0 0 0.00217419 0 10296.9
0.124267 0 1.41467e-06 0 0 0 0 0.00201893 0 12151.9
0.131321 0 1.66953e-06 0 0 0 0 0.00187147 0 14341.1
0.138776 0 1.9703e-06 0 0 0 0 0.00173182 0 16924.7
0.146654 0 2.32525e-06 0 0 0 0 0.00159991 0 19973.8
0.154979 0 2.74415e-06 0 0 0 0 0.00147563 0 23572.1
0.163777 0 3.23852e-06 0 0 0 0 0.00135884 0 27818.7
0.173074 0 3.82195e-06 0 0 0 0 0.00124933 0 32830.3
0.182899 0 4.51048e-06 0 0 0 0 0.00114689 0 38744.7
0.193281 0 5.32305e-06 0 0 0 0 0.00105127 0 45724.7
0.204254 0 6.28202e-06 0 0 0 0 0.000962209 0 53962.1
0.215848 0 7.41374e-06 0 0 0 0 0.000879423 0 63683.5
0.228102 0 8.74934e-06 0 0 0 0 0.000802624 0 75156.3
0.24105 0 1.03256e-05 0 0 0 0 0.000731515 0 88695.9
0.254734 0 1.21857e-05 0 0 0 0 0.000665798 0 104675
0.269195 0 1.4381e-05 0 0 0 0 0.000605173 0 123532
0.284476 0 1.69718e-05 0 0 0 0 0.000549345 0 145787
0.300625 0 2.00293e-05 0 0 0 0 0.000498021 0 172051
0.317691 0 2.36377e-05 0 0 0 0 0.000450916 0 203046
0.335725 0 2.78961e-05 0 0 0 0 0.000407755 0 239625
0.354784 0 3.29216e-05 0 0 0 0 0.000368269 0 282795
0.374924 0 3.88525e-05 0 0 0 0 0.000332202 0 333741
0.396207 0.755336 4.58519e-05 1.91775e-06 6 0.734337 1.86444e-06 0.000299307 0.0384439 393865
0.418699 0 5.41123e-05 0 0 0 0 0.00026935 0 464821
0.442467 0 6.38607e-05 0 0 0 0 0.000242108 0 548560
0.467585 0 7.53654e-05 0 0 0 0 0.00021737 0 647384
0.494129 0 8.89427e-05 0 0 0 0 0.000194938 0 764012
0.522179 0 0.000104966 0 0 0 0 0.000174625 0 901651
0.551822 0 0.000123876 0 0 0 0 0.000156255 0 1.06409e+06
0.583147 6.02206 0.000146192 4.79546e-06 12 6.33825 5.04725e-06 0.000139664 0.412028 1.25578e+06
0.616251 0 0.000172529 0 0 0 0 0.0001247 0 1.48202e+06
0.651234 0 0.000203611 0 0 0 0 0.00011122 0 1.74901e+06
0.688203 23.8026 0.000240292 1.15317e-05 8 23.2104 1.12448e-05 9.90935e-05 0.930978 2.06409e+06
0.72727 0 0.000283581 0 0 0 0 8.81969e-05 0 2.43595e+06
0.768555 0 0.000334669 0 0 0 0 7.84179e-05 0 2.87479e+06
0.812184 0.560052 0.000394961 1.65076e-07 6 0.572025 1.68605e-07 6.96525e-05 0.01422 3.39269e+06
0.85829 0 0.000466114 0 0 0 0 6.1805e-05 0 4.00389e+06
0.907013 0.246888 0.000550086 5.22491e-08 24 0.251625 5.32516e-08 5.47875e-05 0.0228881 4.7252e+06
0.958501 1.43186 0.000649185 2.56768e-07 24 1.34799 2.41728e-07 4.85194e-05 0.12701 5.57646e+06
1.01291 0 0.000766138 0 0 0 0 4.29272e-05 0 6.58107e+06
1.07041 0 0.00090416 0 0 0 0 3.79435e-05 0 7.76667e+06
1.13118 1.03092 0.00106705 1.12474e-07 12 1.01826 1.11092e-07 3.3507e-05 0.0402808 9.16586e+06
1.19539 1.24852 0.00125928 1.15421e-07 30 1.22278 1.13041e-07 2.9562e-05 0.117131 1.08171e+07
1.26325 7.58259 0.00148614 5.93975e-07 24 7.4685 5.85037e-07 2.60578e-05 0.547068 1.27658e+07
1.33496 17.7707 0.00175387 1.17955e-06 24 17.8098 1.18214e-06 2.29484e-05 1.2336 1.50656e+07
1.41075 7.21612 0.00206984 4.05861e-07 32 7.41333 4.16953e-07 2.01923e-05 0.643194 1.77798e+07
1.49083 0.819639 0.00244272 3.90623e-08 48 0.802165 3.82296e-08 1.77518e-05 0.105623 2.09828e+07
1.57546 0.108882 0.00288279 4.39695e-09 6 0.10368 4.18689e-09 1.55929e-05 0.00169191 2.4763e+07
1.66489 0.679607 0.00340213 2.3255e-08 84 0.65766 2.2504e-08 1.3685e-05 0.142742 2.92241e+07
1.75941 2.339 0.00401503 6.78191e-08 48 2.34751 6.80657e-08 1.20007e-05 0.271261 3.44889e+07
1.85928 0.587699 0.00473835 1.4439e-08 72 0.592473 1.45563e-08 1.05151e-05 0.0988683 4.07021e+07
1.96483 1.11037 0.00559198 2.31159e-08 54 1.08329 2.25523e-08 9.20606e-06 0.135591 4.80347e+07
2.07637 8.70329 0.00659939 1.53529e-07 104 8.71245 1.5369e-07 8.05366e-06 1.98258 5.66883e+07
2.19424 0.774484 0.00778828 1.15766e-08 120 0.783026 1.17043e-08 7.04008e-06 0.197326 6.69008e+07
2.3188 2.1994 0.00919136 2.7857e-08 156 2.10252 2.66299e-08 6.1494e-06 0.706685 7.89532e+07
2.45043 1.17447 0.0108472 1.26048e-08 126 1.1615 1.24656e-08 5.36741e-06 0.295897 9.31768e+07
2.58954 1.2222 0.0128014 1.11147e-08 192 1.23543 1.1235e-08 4.68145e-06 0.455846 1.09963e+08
2.73654 5.08126 0.0151076 3.9155e-08 152 5.26019 4.05338e-08 4.08023e-06 1.45863 1.29773e+08
2.89188 4.29008 0.0178292 2.80119e-08 378 4.37514 2.85673e-08 3.55373e-06 2.97954 1.53152e+08
3.05605 1.81681 0.0210412 1.00519e-08 264 1.78797 9.89234e-09 3.09304e-06 0.857958 1.80743e+08
3.22953 0.954127 0.0248319 4.47309e-09 366 0.941377 4.41331e-09 2.69025e-06 0.608549 2.13304e+08
3.41286 1.26377 0.0293054 5.02032e-09 428 1.23258 4.8964e-09 2.33837e-06 0.918886 2.51731e+08
3.6066 3.7183 0.0345848 1.25161e-08 486 3.6126 1.21603e-08 2.0312e-06 2.99469 2.97081e+08
3.81134 1.59251 0.0408154 4.54224e-09 600 1.59282 4.5431e-09 1.76327e-06 1.54562 3.50601e+08
4.0277 1.51955 0.0481684 3.67251e-09 738 1.49304 3.60844e-09 1.52972e-06 1.77177 4.13763e+08
4.25634 2.10941 0.056846 4.31987e-09 824 2.14648 4.39578e-09 1.32631e-06 2.68382 4.88304e+08
4.49796 3.72852 0.067087 6.47006e-09 954 3.74513 6.49889e-09 1.14926e-06 5.37081 5.76273e+08
4.7533 1.64764 0.0791729 2.42268e-09 1094 1.63663 2.40649e-09 9.95263e-07 2.66302 6.8009e+08
5.02313 1.50475 0.0934361 1.87482e-09 1332 1.50303 1.87268e-09 8.61414e-07 2.89902 8.0261e+08
5.30828 3.46726 0.110269 3.66053e-09 1614 3.4862 3.68053e-09 7.45152e-07 7.9287 9.47202e+08
5.60962 2.7532 0.130134 2.46295e-09 1850 2.70786 2.4224e-09 6.44232e-07 7.0727 1.11784e+09
5.92807 2.92529 0.153578 2.21743e-09 2238 2.87403 2.17857e-09 5.56685e-07 8.91456 1.31923e+09
6.26459 2.46408 0.181246 1.58269e-09 2546 2.48171 1.59402e-09 4.80786e-07 8.38114 1.55689e+09
6.62021 2.21449 0.213898 1.20525e-09 3264 2.21212 1.20396e-09 4.15026e-07 9.4788 1.83737e+09
6.99602 3.50429 0.252432 1.61609e-09 3506 3.54547 1.63508e-09 3.58083e-07 15.8232 2.16837e+09
7.39317 3.06299 0.297908 1.19695e-09 4506 3.07205 1.20049e-09 3.08803e-07 17.4656 2.55901e+09
7.81286 3.75299 0.351577 1.2427e-09 5018 3.78063 1.25186e-09 2.66181e-07 23.4272 3.02002e+09
8.25637 3.6998 0.414914 1.03808e-09 5852 3.66023 1.02698e-09 2.29336e-07 26.4887 3.56409e+09
8.72507 3.8314 0.489662 9.10899e-10 7362 3.81547 9.07113e-10 1.97503e-07 33.9541 4.20617e+09
9.22037 4.23907 0.577876 8.53977e-10 8306 4.2215 8.50437e-10 1.70014e-07 41.7208 4.96392e+09
9.74378 4.20252 0.681982 7.17377e-10 9698 4.19483 7.16062e-10 1.46289e-07 47.5574 5.85818e+09
10.2969 5.1265 0.804843 7.41515e-10 11816 5.13294 7.42447e-10 1.25822e-07 69.6358 6.91355e+09
10.8814 5.26583 0.949838 6.45398e-10 13682 5.25888 6.44546e-10 1.08175e-07 81.6297 8.15905e+09
11.4992 5.73791 1.12095 5.95904e-10 16152 5.72046 5.94092e-10 9.29669e-08 103.532 9.62892e+09
12.1519 6.15526 1.3229 5.41665e-10 19472 6.12776 5.39244e-10 7.98658e-08 132.063 1.13636e+10
12.8418 6.38203 1.56122 4.75888e-10 22670 6.37106 4.7507e-10 6.85852e-08 157.299 1.34108e+10
13.5708 7.26185 1.84248 4.58833e-10 26224 7.26057 4.58752e-10 5.88765e-08 204.368 1.58268e+10
14.3411 7.8044 2.17441 4.17839e-10 31640 7.80279 4.17753e-10 5.05241e-08 261.666 1.8678e+10
15.1552 8.37367 2.56613 3.79881e-10 37484 8.36336 3.79413e-10 4.33417e-08 328.54 2.20429e+10
16.0156 9.10554 3.02843 3.50025e-10 43856 9.09156 3.49487e-10 3.71677e-08 413.011 2.6014e+10
16.9247 10.209 3.574 3.32536e-10 51362 10.1922 3.31988e-10 3.18628e-08 536.039 3.07005e+10
17.8855 10.9422 4.21787 3.02011e-10 61636 10.9154 3.01271e-10 2.73063e-08 681.701 3.62312e+10
18.9008 11.8651 4.97773 2.77492e-10 72218 11.8376 2.76849e-10 2.33941e-08 856.621 4.27584e+10
19.9738 13.0949 5.87448 2.59503e-10 84586 13.0583 2.58777e-10 2.00364e-08 1095.52 5.04614e+10
21.1076 14.0668 6.93279 2.3621e-10 100708 14.0373 2.35714e-10 1.71555e-08 1386.62 5.95522e+10
22.3058 15.5266 8.18175 2.20922e-10 118712 15.491 2.20416e-10 1.46847e-08 1785.95 7.02807e+10
23.5721 16.8274 9.65571 2.02882e-10 140410 16.7859 2.02381e-10 1.25662e-08 2266.93 8.29419e+10
24.9102 18.3259 11.3952 1.8722e-10 164374 18.2795 1.86747e-10 1.07504e-08 2862.61 9.78842e+10
26.3243 20.0011 13.4481 1.73143e-10 194680 19.9597 1.72784e-10 9.19452e-09 3666.03 1.15518e+11
27.8187 21.859 15.8708 1.6034e-10 230196 21.807 1.59959e-10 7.86182e-09 4694.78 1.36329e+11
29.3979 23.9921 18.73 1.49122e-10 271156 23.9387 1.4879e-10 6.72061e-09 6016.61 1.60889e+11
31.0667 26.1182 22.1042 1.37555e-10 321076 26.0531 1.37212e-10 5.74366e-09 7689.48 1.89874e+11
32.8303 28.7082 26.0864 1.28116e-10 377436 28.6377 1.27801e-10 4.90756e-09 9853.26 2.2408e+11
34.694 31.6486 30.7859 1.19678e-10 447594 31.5702 1.19381e-10 4.19221e-09 12777.8 2.64449e+11
36.6634 35.0034 36.3321 1.12158e-10 525078 34.9082 1.11853e-10 3.58032e-09 16448.7 3.1209e+11
38.7447 38.9516 42.8774 1.05757e-10 621924 38.854 1.05492e-10 3.05709e-09 21514.8 3.68314e+11
40.9442 43.248 50.6018 9.9497e-11 732630 43.1367 9.9241e-11 2.60976e-09 27931.5 4.34667e+11
43.2685 48.4092 59.7179 9.43699e-11 865596 48.2863 9.41304e-11 2.22743e-09 36672.8 5.12973e+11
45.7247 54.3437 70.4762 8.97669e-11 1.02168e+06 54.2015 8.95321e-11 1.90073e-09 48251.3 6.05386e+11
48.3204 60.9408 83.1727 8.52977e-11 1.20544e+06 60.7768 8.50682e-11 1.62163e-09 63405.9 7.14448e+11
51.0634 68.9346 98.1565 8.17577e-11 1.42103e+06 68.7449 8.15326e-11 1.38326e-09 83990.3 8.43158e+11
53.9621 78.0781 115.84 7.84661e-11 1.67997e+06 77.8623 7.82492e-11 1.1797e-09 111740 9.95055e+11
57.0254 88.9129 136.709 7.57145e-11 1.98018e+06 88.658 7.54975e-11 1.00592e-09 149046 1.17432e+12
60.2626 101.642 161.337 7.33414e-11 2.33957e+06 101.35 7.31304e-11 8.57591e-10 200081 1.38587e+12
63.6835 116.337 190.402 7.11305e-11 2.75676e+06 115.994 7.09205e-11 7.3101e-10 268246 1.63554e+12
67.2987 134.081 224.704 6.94652e-11 3.25638e+06 133.691 6.92629e-11 6.23009e-10 363085 1.93019e+12
71.1191 154.491 265.185 6.78209e-11 3.84387e+06 154.036 6.76214e-11 5.30879e-10 491063 2.27792e+12
75.1563 187.967 312.958 6.99205e-11 4.53277e+06 186.738 6.94635e-11 4.52303e-10 700710 2.68829e+12
79.4227 207.67 369.339 6.54575e-11 5.35083e+06 207.05 6.52619e-11 3.85299e-10 909038 3.17259e+12
83.9313 241.786 435.876 6.45771e-11 6.32174e+06 241.03 6.43752e-11 3.28173e-10 1.24398e+06 3.74415e+12
88.6959 282.096 514.4 6.3842e-11 7.44986e+06 281.204 6.364e-11 2.79476e-10 1.7018e+06 4.41866e+12
93.7309 329.389 607.071 6.31655e-11 8.79764e+06 328.354 6.29669e-11 2.37972e-10 2.33518e+06 5.2147e+12
99.0518 385.641 716.436 6.26637e-11 1.03827e+07 384.408 6.24632e-11 2.02605e-10 3.21127e+06 6.15414e+12
104.675 457.46 845.504 6.29865e-11 1.22515e+07 456.282 6.28244e-11 1.72471e-10 4.47427e+06 7.26283e+12
110.617 530.985 997.824 6.19496e-11 1.44573e+07 529.283 6.1751e-11 1.468e-10 6.10099e+06 8.57124e+12
116.896 624.064 1177.58 6.16946e-11 1.70664e+07 622.043 6.14948e-11 1.24935e-10 8.42764e+06 1.01154e+13
123.532 733.343 1389.73 6.14309e-11 2.0139e+07 730.935 6.12292e-11 1.06313e-10 1.16369e+07 1.19377e+13
130.545 863.222 1640.09 6.12723e-11 2.37643e+07 860.402 6.10721e-11 9.04567e-11 1.60971e+07 1.40883e+13
137.955 1015.97 1935.56 6.11061e-11 2.80503e+07 1012.65 6.09063e-11 7.69563e-11 2.22729e+07 1.66263e+13
145.787 1196.97 2284.26 6.10025e-11 3.30981e+07 1193 6.08005e-11 6.54636e-11 3.08426e+07 1.96216e+13
154.063 1411.23 2695.77 6.09431e-11 3.90634e+07 1406.56 6.07416e-11 5.56812e-11 4.2755e+07 2.31565e+13
162.808 1663.17 3181.42 6.08592e-11 4.61057e+07 1657.64 6.06567e-11 4.73556e-11 5.92528e+07 2.73282e+13
172.051 1962.6 3754.56 6.08531e-11 5.44046e+07 1956.04 6.06498e-11 4.02708e-11 8.22105e+07 3.22515e+13
181.818 2318.6 4430.96 6.09169e-11 6.42064e+07 2310.91 6.07149e-11 3.42426e-11 1.14222e+08 3.80616e+13
192.139 2736.35 5229.21 6.0918e-11 7.57748e+07 2727.17 6.07137e-11 2.91139e-11 1.58552e+08 4.49186e+13
203.046 3237.61 6171.26 6.10747e-11 8.94213e+07 3226.66 6.0868e-11 2.4751e-11 2.20652e+08 5.30108e+13
214.572 3829.05 7283.03 6.12053e-11 1.05538e+08 3816.16 6.09992e-11 2.10401e-11 3.0701e+08 6.25608e+13
226.753 4535.12 8595.09 6.14255e-11 1.24552e+08 4519.71 6.12167e-11 1.78839e-11 4.27795e+08 7.38313e+13
239.625 5378.8 10143.5 6.17315e-11 1.46987e+08 5360.4 6.15204e-11 1.51999e-11 5.9696e+08 8.71322e+13
253.228 6388.08 11970.9 6.21232e-11 1.7347e+08 6366.06 6.1909e-11 1.29176e-11 8.34249e+08 1.02829e+14
267.603 7604.18 14127.5 6.2661e-11 2.04703e+08 7577.79 6.24436e-11 1.09771e-11 1.16851e+09 1.21354e+14
282.795 9081.18 16672.6 6.34088e-11 2.4161e+08 9049.13 6.31849e-11 9.3274e-12 1.64249e+09 1.43217e+14
298.848 10883.2 19676.2 6.43908e-11 2.85122e+08 10844.1 6.41594e-11 7.925e-12 2.31662e+09 1.69017e+14
315.813 13120.6 23220.9 6.57784e-11 3.36491e+08 13072.4 6.55368e-11 6.73295e-12 3.28739e+09 1.99466e+14
333.741 15935.7 27404.3 6.76959e-11 3.97115e+08 15875 6.74384e-11 5.71979e-12 4.7e+09 2.35401e+14
352.686 19559.4 32341.2 7.0406e-11 4.68637e+08 19481.8 7.01265e-11 4.85874e-12 6.79083e+09 2.77809e+14
372.707 24375.3 38167.6 7.43473e-11 5.53074e+08 24272.6 7.4034e-11 4.12703e-12 9.96348e+09 3.27857e+14
393.865 31020.8 45043.5 8.01735e-11 6.52716e+08 30879.9 7.98093e-11 3.50528e-12 1.4929e+10 3.86921e+14
416.224 36610 53158.3 8.01751e-11 2.2184e+08 38730 8.48178e-11 2.97701e-12 5.97446e+09 4.56626e+14
439.852 0 62734.9 0 0 0 0 2.52819e-12 0 5.38888e+14
464.821 0 74036.7 0 0 0 0 2.1469e-12 0 6.35971e+14
491.207 0 87374.6 0 0 0 0 1.82301e-12 0 7.50542e+14
519.092 0 103115 0 0 0 0 1.54789e-12 0 8.85755e+14
548.56 0 121692 0 0 0 0 1.31422e-12 0 1.04533e+15
579.7 0 143615 0 0 0 0 1.11576e-12 0 1.23364e+15
612.608 0 169488 0 0 0 0 9.47223e-13 0 1.45589e+15
647.384 0 200021 0 0 0 0 8.041e-13 0 1.71817e+15
684.134 0 236056 0 0 0 0 6.82568e-13 0 2.0277e+15
722.971 0 278582 0 0 0 0 5.79376e-13 0 2.393e+15
764.012 0 328769 0 0 0 0 4.91762e-13 0 2.8241e+15
0.204077
200
1.0655e+09
8589934592
0.0129181 0.000134703 1.58924e-09 9.86726e-06 6 0.000133469 9.77693e-06 0.00677225 0.00874208 13.6515
0.0136515 0 1.87554e-09 0 0 0 0 0.00688819 0 16.1108
0.0144264 0 2.21343e-09 0 0 0 0 0.00699249 0 19.0132
0.0152454 0 2.61218e-09 0 0 0 0 0.00708412 0 22.4385
0.0161108 0 3.08278e-09 0 0 0 0 0.00716212 0 26.4808
0.0170254 0 3.63815e-09 0 0 0 0 0.00722559 0 31.2514
0.0179919 0.000299236 4.29357e-09 8.11346e-06 12 0.000298851 8.10301e-06 0.00727371 0.0133854 36.8815
0.0190132 0 5.06707e-09 0 0 0 0 0.00730578 0 43.5258
0.0200925 0 5.97991e-09 0 0 0 0 0.00732122 0 51.367
0.0212331 0.000282844 7.05721e-09 4.66577e-06 8 0.000282597 4.66171e-06 0.00731958 0.0050995 60.621
0.0224385 0 8.32858e-09 0 0 0 0 0.00730056 0 71.542
0.0237123 0 9.829e-09 0 0 0 0 0.00726401 0 84.4305
0.0250583 0.00181234 1.15997e-08 1.81887e-05 6 0.00181148 1.81801e-05 0.00720995 0.0151363 99.6408
0.0264808 0 1.36894e-08 0 0 0 0 0.00713857 0 117.591
0.0279841 0.00112515 1.61556e-08 8.10768e-06 24 0.00112399 8.09935e-06 0.00705021 0.0275998 138.776
0.0295727 0 1.90661e-08 0 0 0 0 0.00694538 0 163.777
0.0312514 0.00200834 2.25009e-08 1.03907e-05 24 0.00201853 1.04435e-05 0.00682475 0.0365402 193.281
0.0330255 0 2.65545e-08 0 0 0 0 0.00668915 0 228.102
0.0349003 0.00283233 3.13384e-08 1.05215e-05 12 0.00280965 1.04373e-05 0.00653951 0.0193069 269.195
0.0368815 0.00242538 3.69841e-08 7.63441e-06 30 0.00239955 7.55311e-06 0.00637693 0.0359158 317.691
0.0389751 0.0028711 4.36469e-08 7.65783e-06 24 0.00284157 7.57906e-06 0.00620256 0.029631 374.924
0.0411876 0.00181925 5.151e-08 4.1116e-06 24 0.00180689 4.08367e-06 0.00601767 0.0163981 442.467
0.0435258 0.00399053 6.07896e-08 7.64208e-06 8 0.00399023 7.64149e-06 0.00582358 0.0104981 522.179
0.0459966 0.00507096 7.1741e-08 8.22872e-06 72 0.00503088 8.16368e-06 0.00562166 0.10539 616.251
0.0486077 0 8.46654e-08 0 0 0 0 0.0054133 0 727.27
0.051367 0.00750155 9.99181e-08 8.74012e-06 54 0.00747765 8.71227e-06 0.00519989 0.0907647 858.29
0.054283 0.00585553 1.17919e-07 5.78088e-06 60 0.00588018 5.80522e-06 0.0049828 0.06961 1012.91
0.0573645 0.00578479 1.39162e-07 4.83924e-06 96 0.00576993 4.82681e-06 0.00476339 0.0975288 1195.39
0.060621 0.00670393 1.64232e-07 4.75205e-06 24 0.0066131 4.68766e-06 0.00454293 0.0251048 1410.75
0.0640622 0.0118116 1.93819e-07 7.0945e-06 134 0.011818 7.09835e-06 0.00432265 0.219926 1664.89
0.0676989 0.0113609 2.28736e-07 5.78211e-06 120 0.0113085 5.75547e-06 0.00410371 0.169079 1964.83
0.071542 0.0104273 2.69944e-07 4.49685e-06 108 0.0103143 4.44811e-06 0.00388717 0.124939 2318.8
0.0756032 0.0152004 3.18575e-07 5.55462e-06 174 0.0151205 5.52542e-06 0.00367401 0.263065 2736.54
0.079895 0.016211 3.75967e-07 5.01962e-06 168 0.0160583 4.97233e-06 0.0034651 0.243369 3229.53
0.0844305 0.0138206 4.43698e-07 3.62617e-06 168 0.0138897 3.64431e-06 0.00326121 0.186801 3811.34
0.0892234 0.0155811 5.23632e-07 3.46402e-06 290 0.0155153 3.44941e-06 0.00306301 0.327967 4497.96
0.0942883 0.0201039 6.17966e-07 3.78727e-06 288 0.020054 3.77787e-06 0.00287109 0.379903 5308.28
0.0996408 0.018146 7.29294e-07 2.8966e-06 366 0.0179945 2.87241e-06 0.00268591 0.39471 6264.59
0.105297 0.019802 8.60678e-07 2.67841e-06 420 0.0196652 2.65992e-06 0.00250785 0.448564 7393.17
0.111275 0.0209881 1.01573e-06 2.40549e-06 398 0.0209288 2.3987e-06 0.00233721 0.409627 8725.07
0.117591 0.0249956 1.19872e-06 2.42748e-06 624 0.0250472 2.4325e-06 0.00217419 0.696695 10296.9
0.124267 0.0278746 1.41467e-06 2.29384e-06 642 0.0278357 2.29064e-06 0.00201893 0.72942 12151.9
0.131321 0.0353516 1.66953e-06 2.46505e-06 800 0.0353637 2.4659e-06 0.00187147 1.05374 14341.1
0.138776 0.031973 1.9703e-06 1.88913e-06 858 0.0321257 1.89815e-06 0.00173182 0.935938 16924.7
0.146654 0.0348036 2.32525e-06 1.74247e-06 1080 0.0350953 1.75707e-06 0.00159991 1.17623 19973.8
0.154979 0.041193 2.74415e-06 1.74753e-06 1286 0.0414764 1.75956e-06 0.00147563 1.52296 23572.1
0.163777 0.0387428 3.23852e-06 1.39269e-06 1650 0.0388165 1.39534e-06 0.00135884 1.6911 27818.7
0.173074 0.0454634 3.82195e-06 1.3848e-06 1778 0.0454695 1.38499e-06 0.00124933 1.97079 32830.3
0.182899 0.0444523 4.51048e-06 1.14731e-06 2112 0.0445602 1.1501e-06 0.00114689 2.11278 38744.7
0.193281 0.0522346 5.32305e-06 1.14237e-06 2570 0.052307 1.14396e-06 0.00105127 2.79271 45724.7
0.204254 0.0588006 6.28202e-06 1.08966e-06 3030 0.058771 1.08912e-06 0.000962209 3.43136 53962.1
0.215848 0.0584817 7.41374e-06 9.18317e-07 3434 0.0584672 9.18089e-07 0.000879423 3.58587 63683.5
0.228102 0.0609095 8.74934e-06 8.10438e-07 4218 0.0609279 8.10683e-07 0.000802624 4.25907 75156.3
0.24105 0.0685576 1.03256e-05 7.72951e-07 4766 0.068624 7.73699e-07 0.000731515 5.03596 88695.9
0.254734 0.0738919 1.21857e-05 7.05919e-07 6026 0.0738687 7.05698e-07 0.000665798 6.38913 104675
0.269195 0.0779211 1.4381e-05 6.30776e-07 6480 0.0778757 6.30408e-07 0.000605173 6.75414 123532
0.284476 0.0848435 1.69718e-05 5.8197e-07 8162 0.0850401 5.83319e-07 0.000549345 8.64673 145787
0.300625 0.0854838 2.00293e-05 4.96853e-07 9578 0.08559 4.9747e-07 0.000498021 9.55553 172051
0.317691 0.0954642 2.36377e-05 4.7016e-07 11234 0.0953839 4.69765e-07 0.000450916 11.7134 203046
0.335725 0.10023 2.78961e-05 4.18278e-07 13344 0.100168 4.18019e-07 0.000407755 13.6884 239625
0.354784 0.104662 3.29216e-05 3.70098e-07 15464 0.104597 3.69869e-07 0.000368269 15.5408 282795
0.374924 0.112353 3.88525e-05 3.36647e-07 18458 0.112344 3.36621e-07 0.000332202 18.705 333741
0.396207 0.118729 4.58519e-05 3.01446e-07 22232 0.118562 3.01022e-07 0.000299307 22.3909 393865
0.418699 0.12863 5.41123e-05 2.76731e-07 25628 0.128341 2.76109e-07 0.00026935 26.3303 464821
0.442467 0.135791 6.38607e-05 2.47542e-07 30320 0.13553 2.47065e-07 0.000242108 31.0005 548560
0.467585 0.142232 7.53654e-05 2.19703e-07 35452 0.14203 2.19391e-07 0.00021737 35.8324 647384
0.494129 0.149656 8.89427e-05 1.95882e-07 41792 0.149592 1.95798e-07 0.000194938 41.9944 764012
0.522179 0.161745 0.000104966 1.79388e-07 49988 0.161693 1.7933e-07 0.000174625 51.3515 901651
0.551822 0.170239 0.000123876 1.59986e-07 59110 0.170119 1.59873e-07 0.000156255 60.5214 1.06409e+06
0.583147 0.181691 0.000146192 1.44683e-07 69716 0.181444 1.44486e-07 0.000139664 72.2213 1.25578e+06
0.616251 0.192659 0.000172529 1.29998e-07 82210 0.192338 1.29781e-07 0.0001247 85.7027 1.48202e+06
0.651234 0.205373 0.000203611 1.17423e-07 96722 0.204975 1.17195e-07 0.00011122 102.116 1.74901e+06
0.688203 0.217906 0.000240292 1.0557e-07 113098 0.21767 1.05456e-07 9.90935e-05 120.489 2.06409e+06
0.72727 0.230138 0.000283581 9.44756e-08 135190 0.22989 9.4374e-08 8.81969e-05 144.814 2.43595e+06
0.768555 0.245611 0.000334669 8.54363e-08 158170 0.245369 8.53522e-08 7.84179e-05 172.326 2.87479e+06
0.812184 0.259716 0.000394961 7.65518e-08 188560 0.259436 7.6469e-08 6.96525e-05 207.237 3.39269e+06
0.85829 0.275877 0.000466114 6.89021e-08 220444 0.275533 6.88164e-08 6.1805e-05 245.758 4.00389e+06
0.907013 0.291934 0.000550086 6.17824e-08 261388 0.291614 6.17145e-08 5.47875e-05 294.761 4.7252e+06
0.958501 0.311883 0.000649185 5.59285e-08 308244 0.311524 5.5864e-08 4.85194e-05 355.314 5.57646e+06
1.01291 0.332588 0.000766138 5.05371e-08 364396 0.332172 5.04738e-08 4.29272e-05 428.994 6.58107e+06
1.07041 0.352526 0.00090416 4.53896e-08 429162 0.352033 4.53261e-08 3.79435e-05 513.381 7.76667e+06
1.13118 0.376642 0.00106705 4.10919e-08 506358 0.37615 4.10382e-08 3.3507e-05 620.98 9.16586e+06
1.19539 0.401204 0.00125928 3.70898e-08 598590 0.400618 3.70356e-08 2.9562e-05 751.016 1.08171e+07
1.26325 0.427374 0.00148614 3.34779e-08 704844 0.426787 3.34319e-08 2.60578e-05 905.552 1.27658e+07
1.33496 0.454504 0.00175387 3.01682e-08 834620 0.453819 3.01227e-08 2.29484e-05 1097.2 1.50656e+07
1.41075 0.485763 0.00206984 2.73211e-08 981444 0.485052 2.72811e-08 2.01923e-05 1327.94 1.77798e+07
1.49083 0.518527 0.00244272 2.4712e-08 1.15998e+06 0.51779 2.46768e-08 1.77518e-05 1614.79 2.09828e+07
1.57546 0.554769 0.00288279 2.24032e-08 1.36931e+06 0.553916 2.23687e-08 1.55929e-05 1967.37 2.4763e+07
1.66489 0.594129 0.00340213 2.03301e-08 1.61652e+06 0.593185 2.02978e-08 1.3685e-05 2401.46 2.92241e+07
1.75941 0.636076 0.00401503 1.84429e-08 1.90601e+06 0.635064 1.84136e-08 1.20007e-05 2929.2 3.44889e+07
1.85928 0.682213 0.00473835 1.67611e-08 2.24913e+06 0.681143 1.67348e-08 1.05151e-05 3585.12 4.07021e+07
1.96483 0.731412 0.00559198 1.52267e-08 2.65744e+06 0.730166 1.52008e-08 9.20606e-06 4395.38 4.80347e+07
2.07637 0.786003 0.00659939 1.38653e-08 3.13125e+06 0.784732 1.38429e-08 8.05366e-06 5390.83 5.66883e+07
2.19424 0.845723 0.00778828 1.26414e-08 3.69915e+06 0.844393 1.26216e-08 7.04008e-06 6642.34 6.69008e+07
2.3188 0.910098 0.00919136 1.1527e-08 4.36472e+06 0.908585 1.15079e-08 6.1494e-06 8181.68 7.89532e+07
2.45043 0.98047 0.0108472 1.05227e-08 5.14913e+06 0.978806 1.05048e-08 5.36741e-06 10094.7 9.31768e+07
2.58954 1.06032 0.0128014 9.64256e-09 6.07894e+06 1.0585 9.62599e-09 4.68145e-06 12521 1.09963e+08
2.73654 1.14496 0.0151076 8.8228e-09 7.17304e+06 1.14299 8.80762e-09 4.08023e-06 15510.5 1.29773e+08
2.89188 1.23936 0.0178292 8.09234e-09 8.46557e+06 1.23717 8.07805e-09 3.55373e-06 19277.3 1.53152e+08
3.05605 1.34394 0.0210412 7.43568e-09 9.98773e+06 1.34165 7.42296e-09 3.09304e-06 24010.5 1.80743e+08
3.22953 1.45664 0.0248319 6.82895e-09 1.1797e+07 1.454 6.81656e-09 2.69025e-06 29945.6 2.13304e+08
3.41286 1.58104 0.0293054 6.28065e-09 1.39144e+07 1.57812 6.26906e-09 2.33837e-06 37372.8 2.51731e+08
3.6066 1.71929 0.0345848 5.78726e-09 1.64163e+07 1.71609 5.77648e-09 2.0312e-06 46772.9 2.97081e+08
3.81134 1.87201 0.0408154 5.33944e-09 1.93821e+07 1.86859 5.32967e-09 1.76327e-06 58692.1 3.50601e+08
4.0277 2.04018 0.0481684 4.9308e-09 2.28754e+07 2.03633 4.92149e-09 1.52972e-06 73734.9 4.13763e+08
4.25634 2.22541 0.056846 4.55744e-09 2.69929e+07 2.22113 4.54867e-09 1.32631e-06 92752.7 4.88304e+08
4.49796 2.42804 0.067087 4.21335e-09 3.18542e+07 2.42331 4.20514e-09 1.14926e-06 116782 5.76273e+08
4.7533 2.65422 0.0791729 3.90274e-09 3.75892e+07 2.64904 3.89513e-09 9.95263e-07 147399 6.8009e+08
5.02313 2.90157 0.0934361 3.61516e-09 4.43706e+07 2.89586 3.60805e-09 8.61414e-07 186214 8.0261e+08
5.30828 3.1752 0.110269 3.35219e-09 5.23593e+07 3.16882 3.34545e-09 7.45152e-07 235547 9.47202e+08
5.60962 3.47336 0.130134 3.10719e-09 6.1787e+07 3.46641 3.10098e-09 6.44232e-07 298005 1.11784e+09
5.92807 3.80161 0.153578 2.8817e-09 7.29346e+07 3.79396 2.8759e-09 5.56685e-07 377548 1.31923e+09
6.26459 4.16308 0.181246 2.67397e-09 8.60651e+07 4.15459 2.66852e-09 4.80786e-07 478665 1.55689e+09
6.62021 4.55862 0.213898 2.48106e-09 1.01558e+08 4.54929 2.47598e-09 4.15026e-07 607123 1.83737e+09
6.99602 4.99259 0.252432 2.30246e-09 1.1986e+08 4.9824 2.29776e-09 3.58083e-07 770695 2.16837e+09
7.39317 5.46821 0.297908 2.13685e-09 1.41457e+08 5.45691 2.13243e-09 3.08803e-07 978846 2.55901e+09
7.81286 5.98864 0.351577 1.98298e-09 1.66936e+08 5.97631 1.9789e-09 2.66181e-07 1.24363e+06 3.02002e+09
8.25637 6.56177 0.414914 1.84108e-09 1.97025e+08 6.54816 1.83726e-09 2.29336e-07 1.58169e+06 3.56409e+09
8.72507 7.19462 0.489662 1.71049e-09 2.32497e+08 7.17945 1.70689e-09 1.97503e-07 2.01356e+06 4.20617e+09
9.22037 7.89933 0.577876 1.59135e-09 2.74404e+08 7.88251 1.58796e-09 1.70014e-07 2.56845e+06 4.96392e+09
9.74378 8.69382 0.681982 1.48405e-09 3.2382e+08 8.67487 1.48081e-09 1.46289e-07 3.28503e+06 5.85818e+09
10.2969 9.61184 0.804843 1.39029e-09 3.82165e+08 9.59009 1.38714e-09 1.25822e-07 4.22278e+06 6.91355e+09
10.8814 10.7129 0.949838 1.31301e-09 4.51027e+08 10.6871 1.30985e-09 1.08175e-07 5.47444e+06 8.15905e+09
11.4992 12.1035 1.12095 1.25699e-09 5.32251e+08 12.0717 1.25369e-09 9.29669e-08 7.19651e+06 9.62892e+09
12.1519 13.9867 1.3229 1.23084e-09 6.28157e+08 13.945 1.22716e-09 7.98658e-08 9.68074e+06 1.13636e+10
12.8418 15.989 1.56122 1.19225e-09 3.82727e+08 16.5472 1.23387e-09 6.85852e-08 6.65314e+06 1.34108e+10
13.5708 0 1.84248 0 0 0 0 5.88765e-08 0 1.58268e+10
14.3411 0 2.17441 0 0 0 0 5.05241e-08 0 1.8678e+10
15.1552 0 2.56613 0 0 0 0 4.33417e-08 0 2.20429e+10
16.0156 0 3.02843 0 0 0 0 3.71677e-08 0 2.6014e+10
16.9247 0 3.574 0 0 0 0 3.18628e-08 0 3.07005e+10
17.8855 0 4.21787 0 0 0 0 2.73063e-08 0 3.62312e+10
18.9008 0 4.97773 0 0 0 0 2.33941e-08 0 4.27584e+10
19.9738 0 5.87448 0 0 0 0 2.00364e-08 0 5.04614e+10
21.1076 0 6.93279 0 0 0 0 1.71555e-08 0 5.95522e+10
22.3058 0 8.18175 0 0 0 0 1.46847e-08 0 7.02807e+10
23.5721 0 9.65571 0 0 0 0 1.25662e-08 0 8.29419e+10
24.9102 0 11.3952 0 0 0 0 1.07504e-08 0 9.78842e+10
26.3243 0 13.4481 0 0 0 0 9.19452e-09 0 1.15518e+11
27.8187 0 15.8708 0 0 0 0 7.86182e-09 0 1.36329e+11
29.3979 0 18.73 0 0 0 0 6.72061e-09 0 1.60889e+11
31.0667 0 22.1042 0 0 0 0 5.74366e-09 0 1.89874e+11
32.8303 0 26.0864 0 0 0 0 4.90756e-09 0 2.2408e+11
34.694 0 30.7859 0 0 0 0 4.19221e-09 0 2.64449e+11
36.6634 0 36.3321 0 0 0 0 3.58032e-09 0 3.1209e+11
38.7447 0 42.8774 0 0 0 0 3.05709e-09 0 3.68314e+11
40.9442 0 50.6018 0 0 0 0 2.60976e-09 0 4.34667e+11
43.2685 0 59.7179 0 0 0 0 2.22743e-09 0 5.12973e+11
45.7247 0 70.4762 0 0 0 0 1.90073e-09 0 6.05386e+11
48.3204 0 83.1727 0 0 0 0 1.62163e-09 0 7.14448e+11
51.0634 0 98.1565 0 0 0 0 1.38326e-09 0 8.43158e+11
53.9621 0 115.84 0 0 0 0 1.1797e-09 0 9.95055e+11
57.0254 0 136.709 0 0 0 0 1.00592e-09 0 1.17432e+12
60.2626 0 161.337 0 0 0 0 8.57591e-10 0 1.38587e+12
63.6835 0 190.402 0 0 0 0 7.3101e-10 0 1.63554e+12
67.2987 0 224.704 0 0 0 0 6.23009e-10 0 1.93019e+12
71.1191 0 265.185 0 0 0 0 5.30879e-10 0 2.27792e+12
75.1563 0 312.958 0 0 0 0 4.52303e-10 0 2.68829e+12
79.4227 0 369.339 0 0 0 0 3.85299e-10 0 3.17259e+12
83.9313 0 435.876 0 0 0 0 3.28173e-10 0 3.74415e+12
88.6959 0 514.4 0 0 0 0 2.79476e-10 0 4.41866e+12
93.7309 0 607.071 0 0 0 0 2.37972e-10 0 5.2147e+12
99.0518 0 716.436 0 0 0 0 2.02605e-10 0 6.15414e+12
104.675 0 845.504 0 0 0 0 1.72471e-10 0 7.26283e+12
110.617 0 997.824 0 0 0 0 1.468e-10 0 8.57124e+12
116.896 0 1177.58 0 0 0 0 1.24935e-10 0 1.01154e+13
123.532 0 1389.73 0 0 0 0 1.06313e-10 0 1.19377e+13
130.545 0 1640.09 0 0 0 0 9.04567e-11 0 1.40883e+13
137.955 0 1935.56 0 0 0 0 7.69563e-11 0 1.66263e+13
145.787 0 2284.26 0 0 0 0 6.54636e-11 0 1.96216e+13
154.063 0 2695.77 0 0 0 0 5.56812e-11 0 2.31565e+13
162.808 0 3181.42 0 0 0 0 4.73556e-11 0 2.73282e+13
172.051 0 3754.56 0 0 0 0 4.02708e-11 0 3.22515e+13
181.818 0 4430.96 0 0 0 0 3.42426e-11 0 3.80616e+13
192.139 0 5229.21 0 0 0 0 2.91139e-11 0 4.49186e+13
203.046 0 6171.26 0 0 0 0 2.4751e-11 0 5.30108e+13
214.572 0 7283.03 0 0 0 0 2.10401e-11 0 6.25608e+13
226.753 0 8595.09 0 0 0 0 1.78839e-11 0 7.38313e+13
239.625 0 10143.5 0 0 0 0 1.51999e-11 0 8.71322e+13
253.228 0 11970.9 0 0 0 0 1.29176e-11 0 1.02829e+14
267.603 0 14127.5 0 0 0 0 1.09771e-11 0 1.21354e+14
282.795 0 16672.6 0 0 0 0 9.3274e-12 0 1.43217e+14
298.848 0 19676.2 0 0 0 0 7.925e-12 0 1.69017e+14
315.813 0 23220.9 0 0 0 0 6.73295e-12 0 1.99466e+14
333.741 0 27404.3 0 0 0 0 5.71979e-12 0 2.35401e+14
352.686 0 32341.2 0 0 0 0 4.85874e-12 0 2.77809e+14
372.707 0 38167.6 0 0 0 0 4.12703e-12 0 3.27857e+14
393.865 0 45043.5 0 0 0 0 3.50528e-12 0 3.86921e+14
416.224 0 53158.3 0 0 0 0 2.97701e-12 0 4.56626e+14
439.852 0 62734.9 0 0 0 0 2.52819e-12 0 5.38888e+14
464.821 0 74036.7 0 0 0 0 2.1469e-12 0 6.35971e+14
491.207 0 87374.6 0 0 0 0 1.82301e-12 0 7.50542e+14
519.092 0 103115 0 0 0 0 1.54789e-12 0 8.85755e+14
548.56 0 121692 0 0 0 0 1.31422e-12 0 1.04533e+15
579.7 0 143615 0 0 0 0 1.11576e-12 0 1.23364e+15
612.608 0 169488 0 0 0 0 9.47223e-13 0 1.45589e+15
647.384 0 200021 0 0 0 0 8.041e-13 0 1.71817e+15
684.134 0 236056 0 0 0 0 6.82568e-13 0 2.0277e+15
722.971 0 278582 0 0 0 0 5.79376e-13 0 2.393e+15
764.012 0 328769 0 0 0 0 4.91762e-13 0 2.8241e+15
