0.898124
200
1.0655e+09
8589934592
0.0129181 0 1.58924e-09 0 0 0 0 0.00677225 0 13.6515
0.0136515 0 1.87554e-09 0 0 0 0 0.00688819 0 16.1108
0.0144264 0 2.21343e-09 0 0 0 0 0.00699249 0 19.0132
0.0152454 0 2.61218e-09 0 0 0 0 0.00708412 0 22.4385
0.0161108 0 3.08278e-09 0 0 0 0 0.00716212 0 26.4808
0.0170254 0 3.63815e-09 0 0 0 0 0.00722559 0 31.2514
0.0179919 0 4.29357e-09 0 0 0 0 0.00727371 0 36.8815
0.0190132 0 5.06707e-09 0 0 0 0 0.00730578 0 43.5258
0.0200925 0 5.97991e-09 0 0 0 0 0.00732122 0 51.367
0.0212331 0 7.05721e-09 0 0 0 0 0.00731958 0 60.621
0.0224385 0 8.32858e-09 0 0 0 0 0.00730056 0 71.542
0.0237123 0 9.829e-09 0 0 0 0 0.00726401 0 84.4305
0.0250583 0 1.15997e-08 0 0 0 0 0.00720995 0 99.6408
0.0264808 0 1.36894e-08 0 0 0 0 0.00713857 0 117.591
0.0279841 0 1.61556e-08 0 0 0 0 0.00705021 0 138.776
0.0295727 0 1.90661e-08 0 0 0 0 0.00694538 0 163.777
0.0312514 0 2.25009e-08 0 0 0 0 0.00682475 0 193.281
0.0330255 0 2.65545e-08 0 0 0 0 0.00668915 0 228.102
0.0349003 0 3.13384e-08 0 0 0 0 0.00653951 0 269.195
0.0368815 0 3.69841e-08 0 0 0 0 0.00637693 0 317.691
0.0389751 0 4.36469e-08 0 0 0 0 0.00620256 0 374.924
0.0411876 0 5.151e-08 0 0 0 0 0.00601767 0 442.467
0.0435258 0 6.07896e-08 0 0 0 0 0.00582358 0 522.179
0.0459966 0 7.1741e-08 0 0 0 0 0.00562166 0 616.251
0.0486077 0 8.46654e-08 0 0 0 0 0.0054133 0 727.27
0.051367 0 9.99181e-08 0 0 0 0 0.00519989 0 858.29
0.054283 0 1.17919e-07 0 0 0 0 0.0049828 0 1012.91
0.0573645 0 1.39162e-07 0 0 0 0 0.00476339 0 1195.39
0.060621 0 1.64232e-07 0 0 0 0 0.00454293 0 1410.75
0.0640622 0 1.93819e-07 0 0 0 0 0.00432265 0 1664.89
0.0676989 0 2.28736e-07 0 0 0 0 0.00410371 0 1964.83
0.071542 0 2.69944e-07 0 0 0 0 0.00388717 0 2318.8
0.0756032 0 3.18575e-07 0 0 0 0 0.00367401 0 2736.54
0.079895 0 3.75967e-07 0 0 0 0 0.0034651 0 3229.53
0.0844305 0 4.43698e-07 0 0 0 0 0.00326121 0 3811.34
0.0892234 0 5.23632e-07 0 0 0 0 0.00306301 0 4497.96
0.0942883 0 6.17966e-07 0 0 0 0 0.00287109 0 5308.28
0.0996408 0 7.29294e-07 0 0 0 0 0.00268591 0 6264.59
0.105297 0 8.60678e-07 0 0 0 0 0.00250785 0 7393.17
0.111275 0 1.01573e-06 0 0 0 0 0.00233721 0 8725.07
0.117591 0 1.19872e-06 0 0 0 0 0.00217419 0 10296.9
0.124267 0 1.41467e-06 0 0 0 0 0.00201893 0 12151.9
0.131321 0 1.66953e-06 0 0 0 0 0.00187147 0 14341.1
0.138776 0 1.9703e-06 0 0 0 0 0.00173182 0 16924.7
0.146654 0 2.32525e-06 0 0 0 0 0.00159991 0 19973.8
0.154979 0 2.74415e-06 0 0 0 0 0.00147563 0 23572.1
0.163777 0 3.23852e-06 0 0 0 0 0.00135884 0 27818.7
0.173074 0 3.82195e-06 0 0 0 0 0.00124933 0 32830.3
0.182899 0 4.51048e-06 0 0 0 0 0.00114689 0 38744.7
0.193281 0 5.32305e-06 0 0 0 0 0.00105127 0 45724.7
0.204254 0 6.28202e-06 0 0 0 0 0.000962209 0 53962.1
0.215848 0 7.41374e-06 0 0 0 0 0.000879423 0 63683.5
0.228102 0 8.74934e-06 0 0 0 0 0.000802624 0 75156.3
0.24105 0 1.03256e-05 0 0 0 0 0.000731515 0 88695.9
0.254734 0 1.21857e-05 0 0 0 0 0.000665798 0 104675
0.269195 0 1.4381e-05 0 0 0 0 0.000605173 0 123532
0.284476 0 1.69718e-05 0 0 0 0 0.000549345 0 145787
0.300625 0 2.00293e-05 0 0 0 0 0.000498021 0 172051
0.317691 0 2.36377e-05 0 0 0 0 0.000450916 0 203046
0.335725 0 2.78961e-05 0 0 0 0 0.000407755 0 239625
0.354784 0 3.29216e-05 0 0 0 0 0.000368269 0 282795
0.374924 0 3.88525e-05 0 0 0 0 0.000332202 0 333741
0.396207 2.5172 4.58519e-05 6.39102e-06 6 2.44722 6.21334e-06 0.000299307 0.128116 393865
0.418699 0 5.41123e-05 0 0 0 0 0.00026935 0 464821
0.442467 0 6.38607e-05 0 0 0 0 0.000242108 0 548560
0.467585 0 7.53654e-05 0 0 0 0 0.00021737 0 647384
0.494129 0 8.89427e-05 0 0 0 0 0.000194938 0 764012
0.522179 0 0.000104966 0 0 0 0 0.000174625 0 901651
0.551822 0 0.000123876 0 0 0 0 0.000156255 0 1.06409e+06
0.583147 7.54164 0.000146192 6.00552e-06 12 7.93761 6.32084e-06 0.000139664 0.515997 1.25578e+06
0.616251 0 0.000172529 0 0 0 0 0.0001247 0 1.48202e+06
0.651234 0 0.000203611 0 0 0 0 0.00011122 0 1.74901e+06
0.688203 11.9251 0.000240292 5.77741e-06 8 11.6284 5.63367e-06 9.90935e-05 0.466421 2.06409e+06
0.72727 0 0.000283581 0 0 0 0 8.81969e-05 0 2.43595e+06
0.768555 0 0.000334669 0 0 0 0 7.84179e-05 0 2.87479e+06
0.812184 8.74797 0.000394961 2.57848e-06 6 8.935 2.6336e-06 6.96525e-05 0.222115 3.39269e+06
0.85829 0 0.000466114 0 0 0 0 6.1805e-05 0 4.00389e+06
0.907013 2.37057 0.000550086 5.01685e-07 24 2.41605 5.11312e-07 5.47875e-05 0.219766 4.7252e+06
0.958501 5.92386 0.000649185 1.0623e-06 24 5.57688 1.00007e-06 4.85194e-05 0.525463 5.57646e+06
1.01291 0 0.000766138 0 0 0 0 4.29272e-05 0 6.58107e+06
1.07041 0 0.00090416 0 0 0 0 3.79435e-05 0 7.76667e+06
1.13118 11.8177 0.00106705 1.28932e-06 12 11.6725 1.27348e-06 3.3507e-05 0.461749 9.16586e+06
1.19539 4.22645 0.00125928 3.90719e-07 30 4.13932 3.82664e-07 2.9562e-05 0.396507 1.08171e+07
1.26325 7.71296 0.00148614 6.04187e-07 24 7.5969 5.95096e-07 2.60578e-05 0.556474 1.27658e+07
1.33496 14.3061 0.00175387 9.49586e-07 24 14.3376 9.51673e-07 2.29484e-05 0.993098 1.50656e+07
1.41075 17.951 0.00206984 1.00963e-06 32 18.1885 1.02299e-06 2.01923e-05 1.60002 1.77798e+07
1.49083 4.26625 0.00244272 2.03321e-07 48 4.1753 1.98986e-07 1.77518e-05 0.549771 2.09828e+07
1.57546 35.4838 0.00288279 1.43294e-06 6 33.7886 1.36448e-06 1.55929e-05 0.551383 2.4763e+07
1.66489 6.11822 0.00340213 2.09356e-07 84 5.9714 2.04331e-07 1.3685e-05 1.28505 2.92241e+07
1.75941 8.38399 0.00401503 2.43093e-07 48 8.27331 2.39884e-07 1.20007e-05 0.972316 3.44889e+07
1.85928 6.2762 0.00473835 1.54198e-07 72 6.2807 1.54309e-07 1.05151e-05 1.05584 4.07021e+07
1.96483 14.1611 0.00559198 2.94809e-07 54 13.7842 2.86964e-07 9.20606e-06 1.72926 4.80347e+07
2.07637 11.8072 0.00659939 2.08282e-07 104 11.9349 2.10536e-07 8.05366e-06 2.68963 5.66883e+07
2.19424 7.82512 0.00778828 1.16966e-07 120 7.95618 1.18925e-07 7.04008e-06 1.99372 6.69008e+07
2.3188 11.5819 0.00919136 1.46694e-07 156 11.33 1.43502e-07 6.1494e-06 3.72137 7.89532e+07
2.45043 11.2727 0.0108472 1.20982e-07 126 11.1838 1.20028e-07 5.36741e-06 2.84005 9.31768e+07
2.58954 10.9603 0.0128014 9.96726e-08 192 11.041 1.00407e-07 4.68145e-06 4.08786 1.09963e+08
2.73654 37.4098 0.0151076 2.88271e-07 152 38.0914 2.93523e-07 4.08023e-06 10.7389 1.29773e+08
2.89188 14.002 0.0178292 9.14257e-08 378 14.0716 9.18798e-08 3.55373e-06 9.72468 1.53152e+08
3.05605 15.2057 0.0210412 8.4129e-08 264 15.06 8.33228e-08 3.09304e-06 7.18066 1.80743e+08
3.22953 18.4754 0.0248319 8.66153e-08 366 18.3924 8.62262e-08 2.69025e-06 11.7837 2.13304e+08
3.41286 16.0435 0.0293054 6.37325e-08 428 15.8369 6.29118e-08 2.33837e-06 11.6652 2.51731e+08
3.6066 19.6171 0.0345848 6.60328e-08 486 19.3389 6.50962e-08 2.0312e-06 15.7995 2.97081e+08
3.81134 21.6145 0.0408154 6.16499e-08 600 21.6499 6.17509e-08 1.76327e-06 20.9781 3.50601e+08
4.0277 25.8152 0.0481684 6.23912e-08 738 25.7647 6.22691e-08 1.52972e-06 30.1 4.13763e+08
4.25634 26.9337 0.056846 5.51577e-08 824 26.9172 5.51239e-08 1.32631e-06 34.2681 4.88304e+08
4.49796 25.9004 0.067087 4.49446e-08 954 25.7702 4.47187e-08 1.14926e-06 37.3086 5.76273e+08
4.7533 27.7569 0.0791729 4.08136e-08 1094 27.5042 4.0442e-08 9.95263e-07 44.8626 6.8009e+08
5.02313 28.2698 0.0934361 3.52224e-08 1332 28.3185 3.5283e-08 8.61414e-07 54.4641 8.0261e+08
5.30828 36.8962 0.110269 3.89529e-08 1614 36.9092 3.89665e-08 7.45152e-07 84.3719 9.47202e+08
5.60962 42.7183 0.130134 3.82149e-08 1850 42.8028 3.82905e-08 6.44232e-07 109.739 1.11784e+09
5.92807 37.3975 0.153578 2.83481e-08 2238 37.4015 2.83511e-08 5.56685e-07 113.966 1.31923e+09
6.26459 39.2132 0.181246 2.51869e-08 2546 39.2343 2.52005e-08 4.80786e-07 133.377 1.55689e+09
6.62021 40.857 0.213898 2.22367e-08 3264 40.8354 2.2225e-08 4.15026e-07 174.882 1.83737e+09
6.99602 45.3232 0.252432 2.0902e-08 3506 45.4348 2.09534e-08 3.58083e-07 204.652 2.16837e+09
7.39317 49.3288 0.297908 1.92765e-08 4506 49.3052 1.92673e-08 3.08803e-07 281.279 2.55901e+09
7.81286 54.0902 0.351577 1.79105e-08 5018 54.0052 1.78824e-08 2.66181e-07 337.647 3.02002e+09
8.25637 55.349 0.414914 1.55296e-08 5852 55.2666 1.55065e-08 2.29336e-07 396.272 3.56409e+09
8.72507 57.4162 0.489662 1.36505e-08 7362 57.3242 1.36286e-08 1.97503e-07 508.827 4.20617e+09
9.22037 61.2683 0.577876 1.23427e-08 8306 61.132 1.23153e-08 1.70014e-07 603.001 4.96392e+09
9.74378 67.0579 0.681982 1.14469e-08 9698 67.0329 1.14426e-08 1.46289e-07 758.853 5.85818e+09
10.2969 73.1088 0.804843 1.05747e-08 11816 73.013 1.05609e-08 1.25822e-07 993.073 6.91355e+09
10.8814 79.4942 0.949838 9.74308e-09 13682 79.2623 9.71466e-09 1.08175e-07 1232.3 8.15905e+09
11.4992 78.5556 1.12095 8.1583e-09 16152 78.55 8.15772e-09 9.29669e-08 1417.42 9.62892e+09
12.1519 84.0839 1.3229 7.39941e-09 19472 83.8948 7.38277e-09 7.98658e-08 1804.04 1.13636e+10
12.8418 88.8166 1.56122 6.62278e-09 22670 88.5858 6.60557e-09 6.85852e-08 2189.08 1.34108e+10
13.5708 95.4549 1.84248 6.03123e-09 26224 95.294 6.02107e-09 5.88765e-08 2686.35 1.58268e+10
14.3411 101.99 2.17441 5.46045e-09 31640 101.884 5.45474e-09 5.05241e-08 3419.53 1.8678e+10
15.1552 107.05 2.56613 4.85642e-09 37484 106.835 4.84668e-09 4.33417e-08 4200.07 2.20429e+10
16.0156 117.217 3.02843 4.50593e-09 43856 117.041 4.49917e-09 3.71677e-08 5316.77 2.6014e+10
16.9247 123.222 3.574 4.01368e-09 51362 123.138 4.01095e-09 3.18628e-08 6469.94 3.07005e+10
17.8855 128.723 4.21787 3.55283e-09 61636 128.528 3.54743e-09 2.73063e-08 8019.46 3.62312e+10
18.9008 136.614 4.97773 3.19502e-09 72218 136.275 3.1871e-09 2.33941e-08 9863.07 4.27584e+10
19.9738 145.576 5.87448 2.88489e-09 84586 145.312 2.87966e-09 2.00364e-08 12178.9 5.04614e+10
21.1076 154.947 6.93279 2.60186e-09 100708 154.679 2.59737e-09 1.71555e-08 15273.7 5.95522e+10
22.3058 163.426 8.18175 2.32534e-09 118712 163.141 2.32128e-09 1.46847e-08 18798.2 7.02807e+10
23.5721 171.883 9.65571 2.07233e-09 140410 171.561 2.06845e-09 1.25662e-08 23155.6 8.29419e+10
24.9102 179.961 11.3952 1.83851e-09 164374 179.624 1.83506e-09 1.07504e-08 28111 9.78842e+10
26.3243 190.81 13.4481 1.65177e-09 194680 190.531 1.64936e-09 9.19452e-09 34973.8 1.15518e+11
27.8187 200.89 15.8708 1.47357e-09 230196 200.559 1.47114e-09 7.86182e-09 43146.4 1.36329e+11
29.3979 212.391 18.73 1.32011e-09 271156 212.101 1.31831e-09 6.72061e-09 53262.4 1.60889e+11
31.0667 223.823 22.1042 1.1788e-09 321076 223.367 1.1764e-09 5.74366e-09 65896 1.89874e+11
32.8303 236.923 26.0864 1.05731e-09 377436 236.47 1.05529e-09 4.90756e-09 81316.9 2.2408e+11
34.694 248.775 30.7859 9.40731e-10 447594 248.309 9.38968e-10 4.19221e-09 100440 2.64449e+11
36.6634 261.623 36.3321 8.38295e-10 525078 261.195 8.36922e-10 3.58032e-09 122941 3.1209e+11
38.7447 275.494 42.8774 7.47986e-10 621924 274.966 7.46552e-10 3.05709e-09 152168 3.68314e+11
40.9442 289.859 50.6018 6.66854e-10 732630 289.334 6.65646e-10 2.60976e-09 187204 4.34667e+11
43.2685 303.849 59.7179 5.92329e-10 865596 303.337 5.91332e-10 2.22743e-09 230183 5.12973e+11
45.7247 320.102 70.4762 5.28756e-10 1.02168e+06 319.588 5.27908e-10 1.90073e-09 284216 6.05386e+11
48.3204 335.556 83.1727 4.69671e-10 1.20544e+06 334.914 4.68773e-10 1.62163e-09 349129 7.14448e+11
51.0634 350.977 98.1565 4.16264e-10 1.42103e+06 350.403 4.15584e-10 1.38326e-09 427632 8.43158e+11
53.9621 369.16 115.84 3.70994e-10 1.67997e+06 368.527 3.70359e-10 1.1797e-09 528318 9.95055e+11
57.0254 387.369 136.709 3.29867e-10 1.98018e+06 386.685 3.29285e-10 1.00592e-09 649353 1.17432e+12
60.2626 407.444 161.337 2.93998e-10 2.33957e+06 406.7 2.93461e-10 8.57591e-10 802048 1.38587e+12
63.6835 428.185 190.402 2.618e-10 2.75676e+06 427.448 2.61349e-10 7.3101e-10 987293 1.63554e+12
67.2987 450.505 224.704 2.33399e-10 3.25638e+06 449.767 2.33017e-10 6.23009e-10 1.21994e+06 1.93019e+12
71.1191 474.575 265.185 2.08337e-10 3.84387e+06 473.729 2.07966e-10 5.30879e-10 1.50848e+06 2.27792e+12
75.1563 500.333 312.958 1.86116e-10 4.53277e+06 499.427 1.85778e-10 4.52303e-10 1.86516e+06 2.68829e+12
79.4227 529.218 369.339 1.66809e-10 5.35083e+06 528.286 1.66516e-10 3.85299e-10 2.31656e+06 3.17259e+12
83.9313 562.161 435.876 1.50144e-10 6.32174e+06 561.087 1.49857e-10 3.28173e-10 2.89229e+06 3.74415e+12
88.6959 596.815 514.4 1.35067e-10 7.44986e+06 595.666 1.34807e-10 2.79476e-10 3.60041e+06 4.41866e+12
93.7309 636.088 607.071 1.2198e-10 8.79764e+06 634.856 1.21744e-10 2.37972e-10 4.50949e+06 5.2147e+12
99.0518 680.999 716.436 1.10657e-10 1.03827e+07 679.615 1.10432e-10 2.02605e-10 5.67073e+06 6.15414e+12
104.675 732.424 845.504 1.00846e-10 1.22515e+07 730.873 1.00632e-10 1.72471e-10 7.16359e+06 7.26283e+12
110.617 792.219 997.824 9.24275e-11 1.44573e+07 790.487 9.22255e-11 1.468e-10 9.10254e+06 8.57124e+12
116.896 862.087 1177.58 8.52254e-11 1.70664e+07 860.143 8.50332e-11 1.24935e-10 1.1642e+07 1.01154e+13
123.532 945.058 1389.73 7.91659e-11 2.0139e+07 942.81 7.89776e-11 1.06313e-10 1.49965e+07 1.19377e+13
130.545 1041.55 1640.09 7.39301e-11 2.37643e+07 1038.98 7.37475e-11 9.04567e-11 1.94225e+07 1.40883e+13
137.955 1155.89 1935.56 6.95219e-11 2.80503e+07 1152.95 6.93447e-11 7.69563e-11 2.53405e+07 1.66263e+13
145.787 1290.95 2284.26 6.57921e-11 3.30981e+07 1287.56 6.56195e-11 6.54636e-11 3.32642e+07 1.96216e+13
154.063 1452.96 2695.77 6.27452e-11 3.90634e+07 1449.03 6.25757e-11 5.56812e-11 4.40193e+07 2.31565e+13
162.808 1644.39 3181.42 6.01717e-11 4.61057e+07 1639.79 6.00035e-11 4.73556e-11 5.85835e+07 2.73282e+13
172.051 1873.81 3754.56 5.81e-11 5.44046e+07 1868.36 5.79311e-11 4.02708e-11 7.84912e+07 3.22515e+13
181.818 2147.72 4430.96 5.64274e-11 6.42064e+07 2141.36 5.62602e-11 3.42426e-11 1.05804e+08 3.80616e+13
192.139 2472.95 5229.21 5.5054e-11 7.57748e+07 2465.43 5.48866e-11 2.91139e-11 1.43289e+08 4.49186e+13
203.046 2862.02 6171.26 5.39895e-11 8.94213e+07 2853.15 5.38222e-11 2.4751e-11 1.95055e+08 5.30108e+13
214.572 3326.53 7283.03 5.31727e-11 1.05538e+08 3316.01 5.30047e-11 2.10401e-11 2.66718e+08 6.25608e+13
226.753 3884.89 8595.09 5.26185e-11 1.24552e+08 3872.38 5.2449e-11 1.78839e-11 3.66459e+08 7.38313e+13
239.625 4556.44 10143.5 5.22934e-11 1.46987e+08 4541.46 5.21215e-11 1.51999e-11 5.05692e+08 8.71322e+13
253.228 5364.06 11970.9 5.21647e-11 1.7347e+08 5346.15 5.19906e-11 1.29176e-11 7.00517e+08 1.02829e+14
267.603 6341.25 14127.5 5.2254e-11 2.04703e+08 6319.73 5.20767e-11 1.09771e-11 9.74439e+08 1.21354e+14
282.795 7531.96 16672.6 5.25914e-11 2.4161e+08 7505.91 5.24095e-11 9.3274e-12 1.36229e+09 1.43217e+14
298.848 8992.79 19676.2 5.32063e-11 2.85122e+08 8960.92 5.30178e-11 7.925e-12 1.91423e+09 1.69017e+14
315.813 10808.7 23220.9 5.4188e-11 3.36491e+08 10769.2 5.39903e-11 6.73295e-12 2.70815e+09 1.99466e+14
333.741 13106.9 27404.3 5.5679e-11 3.97115e+08 13057.2 5.54681e-11 5.71979e-12 3.8657e+09 2.35401e+14
352.686 16074.6 32341.2 5.78622e-11 4.68637e+08 16010.8 5.76324e-11 4.85874e-12 5.58094e+09 2.77809e+14
372.707 20027.5 38167.6 6.10862e-11 5.53074e+08 19943.2 6.0829e-11 4.12703e-12 8.18632e+09 3.27857e+14
393.865 25493.7 45043.5 6.58885e-11 6.52716e+08 25377.7 6.55889e-11 3.50528e-12 1.22691e+10 3.86921e+14
416.224 30098.5 53158.3 6.5915e-11 2.2184e+08 31841.5 6.97321e-11 2.97701e-12 4.91183e+09 4.56626e+14
439.852 0 62734.9 0 0 0 0 2.52819e-12 0 5.38888e+14
464.821 0 74036.7 0 0 0 0 2.1469e-12 0 6.35971e+14
491.207 0 87374.6 0 0 0 0 1.82301e-12 0 7.50542e+14
519.092 0 103115 0 0 0 0 1.54789e-12 0 8.85755e+14
548.56 0 121692 0 0 0 0 1.31422e-12 0 1.04533e+15
579.7 0 143615 0 0 0 0 1.11576e-12 0 1.23364e+15
612.608 0 169488 0 0 0 0 9.47223e-13 0 1.45589e+15
647.384 0 200021 0 0 0 0 8.041e-13 0 1.71817e+15
684.134 0 236056 0 0 0 0 6.82568e-13 0 2.0277e+15
722.971 0 278582 0 0 0 0 5.79376e-13 0 2.393e+15
764.012 0 328769 0 0 0 0 4.91762e-13 0 2.8241e+15
0.898124
200
1.0655e+09
8589934592
0.0129181 0.0017883 1.58924e-09 0.000130997 6 0.00177193 0.000129798 0.00677225 0.116059 13.6515
0.0136515 0 1.87554e-09 0 0 0 0 0.00688819 0 16.1108
0.0144264 0 2.21343e-09 0 0 0 0 0.00699249 0 19.0132
0.0152454 0 2.61218e-09 0 0 0 0 0.00708412 0 22.4385
0.0161108 0 3.08278e-09 0 0 0 0 0.00716212 0 26.4808
0.0170254 0 3.63815e-09 0 0 0 0 0.00722559 0 31.2514
0.0179919 0.00398657 4.29357e-09 0.000108091 12 0.00398144 0.000107952 0.00727371 0.178327 36.8815
0.0190132 0 5.06707e-09 0 0 0 0 0.00730578 0 43.5258
0.0200925 0 5.97991e-09 0 0 0 0 0.00732122 0 51.367
0.0212331 0.00377507 7.05721e-09 6.22733e-05 8 0.00377178 6.22191e-05 0.00731958 0.0680622 60.621
0.0224385 0 8.32858e-09 0 0 0 0 0.00730056 0 71.542
0.0237123 0 9.829e-09 0 0 0 0 0.00726401 0 84.4305
0.0250583 0.0237594 1.15997e-08 0.000238451 6 0.0237483 0.000238339 0.00720995 0.198435 99.6408
0.0264808 0 1.36894e-08 0 0 0 0 0.00713857 0 117.591
0.0279841 0.0146068 1.61556e-08 0.000105255 24 0.0145918 0.000105147 0.00705021 0.358303 138.776
0.0295727 0 1.90661e-08 0 0 0 0 0.00694538 0 163.777
0.0312514 0.0258946 2.25009e-08 0.000133973 24 0.0260261 0.000134654 0.00682475 0.471133 193.281
0.0330255 0 2.65545e-08 0 0 0 0 0.00668915 0 228.102
0.0349003 0.0392973 3.13384e-08 0.000145981 12 0.0389826 0.000144812 0.00653951 0.267875 269.195
0.0368815 0.0313519 3.69841e-08 9.86869e-05 30 0.0310181 9.7636e-05 0.00637693 0.464268 317.691
0.0389751 0.0353903 4.36469e-08 9.43934e-05 24 0.0350263 9.34224e-05 0.00620256 0.365243 374.924
0.0411876 0.0227232 5.151e-08 5.13556e-05 24 0.0225688 5.10068e-05 0.00601767 0.204819 442.467
0.0435258 0.0565157 6.07896e-08 0.000108231 8 0.0565114 0.000108222 0.00582358 0.148679 522.179
0.0459966 0.0690538 7.1741e-08 0.000112055 72 0.0685094 0.000111171 0.00562166 1.43515 616.251
0.0486077 0 8.46654e-08 0 0 0 0 0.0054133 0 727.27
0.051367 0.0944026 9.99181e-08 0.000109989 54 0.0940893 0.000109624 0.00519989 1.14222 858.29
0.054283 0.0763336 1.17919e-07 7.53605e-05 60 0.0766811 7.57035e-05 0.0049828 0.907446 1012.91
0.0573645 0.071266 1.39162e-07 5.96172e-05 96 0.0710834 5.94645e-05 0.00476339 1.20151 1195.39
0.060621 0.0848357 1.64232e-07 6.01354e-05 24 0.0836863 5.93207e-05 0.00454293 0.317692 1410.75
0.0640622 0.145698 1.93819e-07 8.75118e-05 134 0.145762 8.75505e-05 0.00432265 2.71282 1664.89
0.0676989 0.142896 2.28736e-07 7.27267e-05 120 0.142195 7.23702e-05 0.00410371 2.12666 1964.83
0.071542 0.134909 2.69944e-07 5.81805e-05 108 0.133416 5.75366e-05 0.00388717 1.61647 2318.8
0.0756032 0.199972 3.18575e-07 7.30747e-05 174 0.198859 7.26682e-05 0.00367401 3.4608 2736.54
0.079895 0.209148 3.75967e-07 6.4761e-05 168 0.207182 6.41522e-05 0.0034651 3.13984 3229.53
0.0844305 0.174192 4.43698e-07 4.57035e-05 168 0.175054 4.59298e-05 0.00326121 2.3544 3811.34
0.0892234 0.208713 5.23632e-07 4.64017e-05 290 0.20773 4.61831e-05 0.00306301 4.39322 4497.96
0.0942883 0.250818 6.17966e-07 4.72503e-05 288 0.250286 4.71501e-05 0.00287109 4.73969 5308.28
0.0996408 0.224356 7.29294e-07 3.58133e-05 366 0.222642 3.55399e-05 0.00268591 4.88016 6264.59
0.105297 0.263751 8.60678e-07 3.5675e-05 420 0.261869 3.54204e-05 0.00250785 5.97463 7393.17
0.111275 0.281861 1.01573e-06 3.23047e-05 398 0.281078 3.2215e-05 0.00233721 5.50111 8725.07
0.117591 0.334969 1.19872e-06 3.2531e-05 624 0.33591 3.26224e-05 0.00217419 9.3365 10296.9
0.124267 0.390351 1.41467e-06 3.21226e-05 642 0.389456 3.20489e-05 0.00201893 10.2147 12151.9
0.131321 0.460311 1.66953e-06 3.20972e-05 800 0.460416 3.21046e-05 0.00187147 13.7207 14341.1
0.138776 0.426542 1.9703e-06 2.52023e-05 858 0.428348 2.5309e-05 0.00173182 12.4861 16924.7
0.146654 0.497268 2.32525e-06 2.48961e-05 1080 0.501401 2.5103e-05 0.00159991 16.8058 19973.8
0.154979 0.578352 2.74415e-06 2.45354e-05 1286 0.581998 2.46901e-05 0.00147563 21.3824 23572.1
0.163777 0.565835 3.23852e-06 2.03401e-05 1650 0.567465 2.03987e-05 0.00135884 24.6984 27818.7
0.173074 0.629908 3.82195e-06 1.91868e-05 1778 0.630399 1.92018e-05 0.00124933 27.3059 32830.3
0.182899 0.679903 4.51048e-06 1.75483e-05 2112 0.681461 1.75885e-05 0.00114689 32.3152 38744.7
0.193281 0.752246 5.32305e-06 1.64516e-05 2570 0.752801 1.64638e-05 0.00105127 40.2186 45724.7
0.204254 0.882386 6.28202e-06 1.6352e-05 3030 0.881799 1.63411e-05 0.000962209 51.4924 53962.1
0.215848 0.918524 7.41374e-06 1.44233e-05 3434 0.918163 1.44176e-05 0.000879423 56.3204 63683.5
0.228102 0.97503 8.74934e-06 1.29734e-05 4218 0.97443 1.29654e-05 0.000802624 68.1785 75156.3
0.24105 1.0862 1.03256e-05 1.22463e-05 4766 1.08685 1.22537e-05 0.000731515 79.7877 88695.9
0.254734 1.18456 1.21857e-05 1.13166e-05 6026 1.18452 1.13162e-05 0.000665798 102.424 104675
0.269195 1.35179 1.4381e-05 1.09428e-05 6480 1.35058 1.0933e-05 0.000605173 117.172 123532
0.284476 1.45777 1.69718e-05 9.9993e-06 8162 1.46034 1.00169e-05 0.000549345 148.567 145787
0.300625 1.61121 2.00293e-05 9.36473e-06 9578 1.6118 9.36817e-06 0.000498021 180.104 172051
0.317691 1.78685 2.36377e-05 8.8002e-06 11234 1.78531 8.79266e-06 0.000450916 219.245 203046
0.335725 1.9237 2.78961e-05 8.02794e-06 13344 1.92017 8.01323e-06 0.000407755 262.719 239625
0.354784 2.16788 3.29216e-05 7.66592e-06 15464 2.16651 7.66108e-06 0.000368269 321.9 282795
0.374924 2.34259 3.88525e-05 7.0192e-06 18458 2.3403 7.01232e-06 0.000332202 390.005 333741
0.396207 2.71171 4.58519e-05 6.88487e-06 22232 2.70735 6.87381e-06 0.000299307 511.397 393865
0.418699 2.91449 5.41123e-05 6.27014e-06 25628 2.90741 6.25491e-06 0.00026935 596.589 464821
0.442467 3.18705 6.38607e-05 5.80985e-06 30320 3.18162 5.79995e-06 0.000242108 727.588 548560
0.467585 3.60971 7.53654e-05 5.57584e-06 35452 3.60313 5.56568e-06 0.00021737 909.392 647384
0.494129 3.99575 8.89427e-05 5.22996e-06 41792 3.99119 5.22398e-06 0.000194938 1121.23 764012
0.522179 4.49864 0.000104966 4.98934e-06 49988 4.49806 4.98869e-06 0.000174625 1428.25 901651
0.551822 5.02234 0.000123876 4.71987e-06 59110 5.01558 4.71351e-06 0.000156255 1785.49 1.06409e+06
0.583147 5.58817 0.000146192 4.44995e-06 69716 5.57917 4.44278e-06 0.000139664 2221.28 1.25578e+06
0.616251 6.23968 0.000172529 4.21026e-06 82210 6.22737 4.20196e-06 0.0001247 2775.67 1.48202e+06
0.651234 6.89031 0.000203611 3.93956e-06 96722 6.8749 3.93075e-06 0.00011122 3426.01 1.74901e+06
0.688203 7.82106 0.000240292 3.7891e-06 113098 7.80837 3.78295e-06 9.90935e-05 4324.6 2.06409e+06
0.72727 8.75187 0.000283581 3.5928e-06 135190 8.73898 3.58751e-06 8.81969e-05 5507.12 2.43595e+06
0.768555 9.78073 0.000334669 3.40224e-06 158170 9.76544 3.39693e-06 7.84179e-05 6862.37 2.87479e+06
0.812184 10.9549 0.000394961 3.22899e-06 188560 10.9368 3.22363e-06 6.96525e-05 8741.36 3.39269e+06
0.85829 12.2498 0.000466114 3.05948e-06 220444 12.2297 3.05445e-06 6.1805e-05 10912.4 4.00389e+06
0.907013 13.6962 0.000550086 2.89854e-06 261388 13.6727 2.89358e-06 5.47875e-05 13828.8 4.7252e+06
0.958501 15.3355 0.000649185 2.75004e-06 308244 15.3122 2.74586e-06 4.85194e-05 17471 5.57646e+06
1.01291 17.2203 0.000766138 2.61664e-06 364396 17.1911 2.6122e-06 4.29272e-05 22211.9 6.58107e+06
1.07041 19.1417 0.00090416 2.46459e-06 429162 19.1064 2.46005e-06 3.79435e-05 27875.9 7.76667e+06
1.13118 21.3549 0.00106705 2.32983e-06 506358 21.3187 2.32588e-06 3.3507e-05 35208.4 9.16586e+06
1.19539 23.8768 0.00125928 2.20732e-06 598590 23.8321 2.20319e-06 2.9562e-05 44695.1 1.08171e+07
1.26325 26.5213 0.00148614 2.07752e-06 704844 26.4737 2.07379e-06 2.60578e-05 56195.3 1.27658e+07
1.33496 29.4736 0.00175387 1.95634e-06 834620 29.4156 1.95249e-06 2.29484e-05 71151 1.50656e+07
1.41075 32.6979 0.00206984 1.83905e-06 981444 32.6357 1.83556e-06 2.01923e-05 89386.8 1.77798e+07
1.49083 36.1158 0.00244272 1.72121e-06 1.15998e+06 36.0501 1.71808e-06 1.77518e-05 112471 2.09828e+07
1.57546 39.9033 0.00288279 1.61141e-06 1.36931e+06 39.8304 1.60847e-06 1.55929e-05 141509 2.4763e+07
1.66489 43.9824 0.00340213 1.505e-06 1.61652e+06 43.9013 1.50223e-06 1.3685e-05 177776 2.92241e+07
1.75941 48.4805 0.00401503 1.40569e-06 1.90601e+06 48.3903 1.40307e-06 1.20007e-05 223258 3.44889e+07
1.85928 53.1445 0.00473835 1.30569e-06 2.24913e+06 53.0444 1.30323e-06 1.05151e-05 279281 4.07021e+07
1.96483 58.092 0.00559198 1.20938e-06 2.65744e+06 57.9827 1.2071e-06 9.20606e-06 349101 4.80347e+07
2.07637 63.4988 0.00659939 1.12014e-06 3.13125e+06 63.3828 1.11809e-06 8.05366e-06 435509 5.66883e+07
2.19424 69.3469 0.00778828 1.03656e-06 3.69915e+06 69.2201 1.03467e-06 7.04008e-06 544653 6.69008e+07
2.3188 75.298 0.00919136 9.53705e-07 4.36472e+06 75.1674 9.52049e-07 6.1494e-06 676921 7.89532e+07
2.45043 81.9214 0.0108472 8.79204e-07 5.14913e+06 81.7774 8.77658e-07 5.36741e-06 843448 9.31768e+07
2.58954 88.5924 0.0128014 8.05657e-07 6.07894e+06 88.4402 8.04273e-07 4.68145e-06 1.04616e+06 1.09963e+08
2.73654 95.845 0.0151076 7.38559e-07 7.17304e+06 95.6828 7.37309e-07 4.08023e-06 1.29839e+06 1.29773e+08
2.89188 103.505 0.0178292 6.75832e-07 8.46557e+06 103.329 6.74683e-07 3.55373e-06 1.60994e+06 1.53152e+08
3.05605 111.645 0.0210412 6.17701e-07 9.98773e+06 111.46 6.16678e-07 3.09304e-06 1.99462e+06 1.80743e+08
3.22953 120.174 0.0248319 5.63394e-07 1.1797e+07 119.973 5.62451e-07 2.69025e-06 2.47053e+06 2.13304e+08
3.41286 129.083 0.0293054 5.1278e-07 1.39144e+07 128.862 5.11905e-07 2.33837e-06 3.05128e+06 2.51731e+08
3.6066 138.642 0.0345848 4.66681e-07 1.64163e+07 138.409 4.65896e-07 2.0312e-06 3.77174e+06 2.97081e+08
3.81134 148.552 0.0408154 4.23707e-07 1.93821e+07 148.309 4.23014e-07 1.76327e-06 4.65747e+06 3.50601e+08
4.0277 158.986 0.0481684 3.84244e-07 2.28754e+07 158.724 3.83612e-07 1.52972e-06 5.74597e+06 4.13763e+08
4.25634 170.034 0.056846 3.48213e-07 2.69929e+07 169.75 3.47632e-07 1.32631e-06 7.08681e+06 4.88304e+08
4.49796 181.573 0.067087 3.15082e-07 3.18542e+07 181.27 3.14555e-07 1.14926e-06 8.7332e+06 5.76273e+08
4.7533 193.767 0.0791729 2.84914e-07 3.75892e+07 193.448 2.84444e-07 9.95263e-07 1.07606e+07 6.8009e+08
5.02313 206.52 0.0934361 2.5731e-07 4.43706e+07 206.179 2.56885e-07 8.61414e-07 1.32538e+07 8.0261e+08
5.30828 220.081 0.110269 2.32349e-07 5.23593e+07 219.715 2.31962e-07 7.45152e-07 1.63263e+07 9.47202e+08
5.60962 234.162 0.130134 2.09477e-07 6.1787e+07 233.777 2.09132e-07 6.44232e-07 2.00905e+07 1.11784e+09
5.92807 248.908 0.153578 1.88677e-07 7.29346e+07 248.495 1.88365e-07 5.56685e-07 2.47197e+07 1.31923e+09
6.26459 264.381 0.181246 1.69814e-07 8.60651e+07 263.943 1.69532e-07 4.80786e-07 3.03982e+07 1.55689e+09
6.62021 280.634 0.213898 1.52737e-07 1.01558e+08 280.17 1.52485e-07 4.15026e-07 3.73753e+07 1.83737e+09
6.99602 297.697 0.252432 1.37291e-07 1.1986e+08 297.205 1.37064e-07 3.58083e-07 4.59549e+07 2.16837e+09
7.39317 315.486 0.297908 1.23284e-07 1.41457e+08 314.969 1.23082e-07 3.08803e-07 5.64742e+07 2.55901e+09
7.81286 334.045 0.351577 1.1061e-07 1.66936e+08 333.493 1.10427e-07 2.66181e-07 6.93692e+07 3.02002e+09
8.25637 353.826 0.414914 9.92752e-08 1.97025e+08 353.245 9.91123e-08 2.29336e-07 8.52884e+07 3.56409e+09
8.72507 374.487 0.489662 8.90329e-08 2.32497e+08 373.865 8.88849e-08 1.97503e-07 1.04808e+08 4.20617e+09
9.22037 396.693 0.577876 7.99152e-08 2.74404e+08 396.024 7.97805e-08 1.70014e-07 1.28984e+08 4.96392e+09
9.74378 421.076 0.681982 7.18783e-08 3.2382e+08 420.353 7.17548e-08 1.46289e-07 1.59107e+08 5.85818e+09
10.2969 448.25 0.804843 6.48365e-08 3.82165e+08 447.454 6.47214e-08 1.25822e-07 1.9693e+08 6.91355e+09
10.8814 480.434 0.949838 5.88836e-08 4.51027e+08 479.516 5.87711e-08 1.08175e-07 2.45509e+08 8.15905e+09
11.4992 521.826 1.12095 5.41937e-08 5.32251e+08 520.712 5.40779e-08 9.29669e-08 3.10268e+08 9.62892e+09
12.1519 579.99 1.3229 5.10393e-08 6.28157e+08 578.532 5.0911e-08 7.98658e-08 4.01432e+08 1.13636e+10
12.8418 645.252 1.56122 4.81144e-08 3.82727e+08 667.859 4.98002e-08 6.85852e-08 2.68493e+08 1.34108e+10
13.5708 0 1.84248 0 0 0 0 5.88765e-08 0 1.58268e+10
14.3411 0 2.17441 0 0 0 0 5.05241e-08 0 1.8678e+10
15.1552 0 2.56613 0 0 0 0 4.33417e-08 0 2.20429e+10
16.0156 0 3.02843 0 0 0 0 3.71677e-08 0 2.6014e+10
16.9247 0 3.574 0 0 0 0 3.18628e-08 0 3.07005e+10
17.8855 0 4.21787 0 0 0 0 2.73063e-08 0 3.62312e+10
18.9008 0 4.97773 0 0 0 0 2.33941e-08 0 4.27584e+10
19.9738 0 5.87448 0 0 0 0 2.00364e-08 0 5.04614e+10
21.1076 0 6.93279 0 0 0 0 1.71555e-08 0 5.95522e+10
22.3058 0 8.18175 0 0 0 0 1.46847e-08 0 7.02807e+10
23.5721 0 9.65571 0 0 0 0 1.25662e-08 0 8.29419e+10
24.9102 0 11.3952 0 0 0 0 1.07504e-08 0 9.78842e+10
26.3243 0 13.4481 0 0 0 0 9.19452e-09 0 1.15518e+11
27.8187 0 15.8708 0 0 0 0 7.86182e-09 0 1.36329e+11
29.3979 0 18.73 0 0 0 0 6.72061e-09 0 1.60889e+11
31.0667 0 22.1042 0 0 0 0 5.74366e-09 0 1.89874e+11
32.8303 0 26.0864 0 0 0 0 4.90756e-09 0 2.2408e+11
34.694 0 30.7859 0 0 0 0 4.19221e-09 0 2.64449e+11
36.6634 0 36.3321 0 0 0 0 3.58032e-09 0 3.1209e+11
38.7447 0 42.8774 0 0 0 0 3.05709e-09 0 3.68314e+11
40.9442 0 50.6018 0 0 0 0 2.60976e-09 0 4.34667e+11
43.2685 0 59.7179 0 0 0 0 2.22743e-09 0 5.12973e+11
45.7247 0 70.4762 0 0 0 0 1.90073e-09 0 6.05386e+11
48.3204 0 83.1727 0 0 0 0 1.62163e-09 0 7.14448e+11
51.0634 0 98.1565 0 0 0 0 1.38326e-09 0 8.43158e+11
53.9621 0 115.84 0 0 0 0 1.1797e-09 0 9.95055e+11
57.0254 0 136.709 0 0 0 0 1.00592e-09 0 1.17432e+12
60.2626 0 161.337 0 0 0 0 8.57591e-10 0 1.38587e+12
63.6835 0 190.402 0 0 0 0 7.3101e-10 0 1.63554e+12
67.2987 0 224.704 0 0 0 0 6.23009e-10 0 1.93019e+12
71.1191 0 265.185 0 0 0 0 5.30879e-10 0 2.27792e+12
75.1563 0 312.958 0 0 0 0 4.52303e-10 0 2.68829e+12
79.4227 0 369.339 0 0 0 0 3.85299e-10 0 3.17259e+12
83.9313 0 435.876 0 0 0 0 3.28173e-10 0 3.74415e+12
88.6959 0 514.4 0 0 0 0 2.79476e-10 0 4.41866e+12
93.7309 0 607.071 0 0 0 0 2.37972e-10 0 5.2147e+12
99.0518 0 716.436 0 0 0 0 2.02605e-10 0 6.15414e+12
104.675 0 845.504 0 0 0 0 1.72471e-10 0 7.26283e+12
110.617 0 997.824 0 0 0 0 1.468e-10 0 8.57124e+12
116.896 0 1177.58 0 0 0 0 1.24935e-10 0 1.01154e+13
123.532 0 1389.73 0 0 0 0 1.06313e-10 0 1.19377e+13
130.545 0 1640.09 0 0 0 0 9.04567e-11 0 1.40883e+13
137.955 0 1935.56 0 0 0 0 7.69563e-11 0 1.66263e+13
145.787 0 2284.26 0 0 0 0 6.54636e-11 0 1.96216e+13
154.063 0 2695.77 0 0 0 0 5.56812e-11 0 2.31565e+13
162.808 0 3181.42 0 0 0 0 4.73556e-11 0 2.73282e+13
172.051 0 3754.56 0 0 0 0 4.02708e-11 0 3.22515e+13
181.818 0 4430.96 0 0 0 0 3.42426e-11 0 3.80616e+13
192.139 0 5229.21 0 0 0 0 2.91139e-11 0 4.49186e+13
203.046 0 6171.26 0 0 0 0 2.4751e-11 0 5.30108e+13
214.572 0 7283.03 0 0 0 0 2.10401e-11 0 6.25608e+13
226.753 0 8595.09 0 0 0 0 1.78839e-11 0 7.38313e+13
239.625 0 10143.5 0 0 0 0 1.51999e-11 0 8.71322e+13
253.228 0 11970.9 0 0 0 0 1.29176e-11 0 1.02829e+14
267.603 0 14127.5 0 0 0 0 1.09771e-11 0 1.21354e+14
282.795 0 16672.6 0 0 0 0 9.3274e-12 0 1.43217e+14
298.848 0 19676.2 0 0 0 0 7.925e-12 0 1.69017e+14
315.813 0 23220.9 0 0 0 0 6.73295e-12 0 1.99466e+14
333.741 0 27404.3 0 0 0 0 5.71979e-12 0 2.35401e+14
352.686 0 32341.2 0 0 0 0 4.85874e-12 0 2.77809e+14
372.707 0 38167.6 0 0 0 0 4.12703e-12 0 3.27857e+14
393.865 0 45043.5 0 0 0 0 3.50528e-12 0 3.86921e+14
416.224 0 53158.3 0 0 0 0 2.97701e-12 0 4.56626e+14
439.852 0 62734.9 0 0 0 0 2.52819e-12 0 5.38888e+14
464.821 0 74036.7 0 0 0 0 2.1469e-12 0 6.35971e+14
491.207 0 87374.6 0 0 0 0 1.82301e-12 0 7.50542e+14
519.092 0 103115 0 0 0 0 1.54789e-12 0 8.85755e+14
548.56 0 121692 0 0 0 0 1.31422e-12 0 1.04533e+15
579.7 0 143615 0 0 0 0 1.11576e-12 0 1.23364e+15
612.608 0 169488 0 0 0 0 9.47223e-13 0 1.45589e+15
647.384 0 200021 0 0 0 0 8.041e-13 0 1.71817e+15
684.134 0 236056 0 0 0 0 6.82568e-13 0 2.0277e+15
722.971 0 278582 0 0 0 0 5.79376e-13 0 2.393e+15
764.012 0 328769 0 0 0 0 4.91762e-13 0 2.8241e+15
