0.0980024
200
1.0655e+09
8589934592
0.0129181 0 1.58924e-09 0 0 0 0 0.00677225 0 13.6515
0.0136515 0 1.87554e-09 0 0 0 0 0.00688819 0 16.1108
0.0144264 0 2.21343e-09 0 0 0 0 0.00699249 0 19.0132
0.0152454 0 2.61218e-09 0 0 0 0 0.00708412 0 22.4385
0.0161108 0 3.08278e-09 0 0 0 0 0.00716212 0 26.4808
0.0170254 0 3.63815e-09 0 0 0 0 0.00722559 0 31.2514
0.0179919 0 4.29357e-09 0 0 0 0 0.00727371 0 36.8815
0.0190132 0 5.06707e-09 0 0 0 0 0.00730578 0 43.5258
0.0200925 0 5.97991e-09 0 0 0 0 0.00732122 0 51.367
0.0212331 0 7.05721e-09 0 0 0 0 0.00731958 0 60.621
0.0224385 0 8.32858e-09 0 0 0 0 0.00730056 0 71.542
0.0237123 0 9.829e-09 0 0 0 0 0.00726401 0 84.4305
0.0250583 0 1.15997e-08 0 0 0 0 0.00720995 0 99.6408
0.0264808 0 1.36894e-08 0 0 0 0 0.00713857 0 117.591
0.0279841 0 1.61556e-08 0 0 0 0 0.00705021 0 138.776
0.0295727 0 1.90661e-08 0 0 0 0 0.00694538 0 163.777
0.0312514 0 2.25009e-08 0 0 0 0 0.00682475 0 193.281
0.0330255 0 2.65545e-08 0 0 0 0 0.00668915 0 228.102
0.0349003 0 3.13384e-08 0 0 0 0 0.00653951 0 269.195
0.0368815 0 3.69841e-08 0 0 0 0 0.00637693 0 317.691
0.0389751 0 4.36469e-08 0 0 0 0 0.00620256 0 374.924
0.0411876 0 5.151e-08 0 0 0 0 0.00601767 0 442.467
0.0435258 0 6.07896e-08 0 0 0 0 0.00582358 0 522.179
0.0459966 0 7.1741e-08 0 0 0 0 0.00562166 0 616.251
0.0486077 0 8.46654e-08 0 0 0 0 0.0054133 0 727.27
0.051367 0 9.99181e-08 0 0 0 0 0.00519989 0 858.29
0.054283 0 1.17919e-07 0 0 0 0 0.0049828 0 1012.91
0.0573645 0 1.39162e-07 0 0 0 0 0.00476339 0 1195.39
0.060621 0 1.64232e-07 0 0 0 0 0.00454293 0 1410.75
0.0640622 0 1.93819e-07 0 0 0 0 0.00432265 0 1664.89
0.0676989 0 2.28736e-07 0 0 0 0 0.00410371 0 1964.83
0.071542 0 2.69944e-07 0 0 0 0 0.00388717 0 2318.8
0.0756032 0 3.18575e-07 0 0 0 0 0.00367401 0 2736.54
0.079895 0 3.75967e-07 0 0 0 0 0.0034651 0 3229.53
0.0844305 0 4.43698e-07 0 0 0 0 0.00326121 0 3811.34
0.0892234 0 5.23632e-07 0 0 0 0 0.00306301 0 4497.96
0.0942883 0 6.17966e-07 0 0 0 0 0.00287109 0 5308.28
0.0996408 0 7.29294e-07 0 0 0 0 0.00268591 0 6264.59
0.105297 0 8.60678e-07 0 0 0 0 0.00250785 0 7393.17
0.111275 0 1.01573e-06 0 0 0 0 0.00233721 0 8725.07
0.117591 0 1.19872e-06 0 0 0 0 0.00217419 0 10296.9
0.124267 0 1.41467e-06 0 0 0 0 0.00201893 0 12151.9
0.131321 0 1.66953e-06 0 0 0 0 0.00187147 0 14341.1
0.138776 0 1.9703e-06 0 0 0 0 0.00173182 0 16924.7
0.146654 0 2.32525e-06 0 0 0 0 0.00159991 0 19973.8
0.154979 0 2.74415e-06 0 0 0 0 0.00147563 0 23572.1
0.163777 0 3.23852e-06 0 0 0 0 0.00135884 0 27818.7
0.173074 0 3.82195e-06 0 0 0 0 0.00124933 0 32830.3
0.182899 0 4.51048e-06 0 0 0 0 0.00114689 0 38744.7
0.193281 0 5.32305e-06 0 0 0 0 0.00105127 0 45724.7
0.204254 0 6.28202e-06 0 0 0 0 0.000962209 0 53962.1
0.215848 0 7.41374e-06 0 0 0 0 0.000879423 0 63683.5
0.228102 0 8.74934e-06 0 0 0 0 0.000802624 0 75156.3
0.24105 0 1.03256e-05 0 0 0 0 0.000731515 0 88695.9
0.254734 0 1.21857e-05 0 0 0 0 0.000665798 0 104675
0.269195 0 1.4381e-05 0 0 0 0 0.000605173 0 123532
0.284476 0 1.69718e-05 0 0 0 0 0.000549345 0 145787
0.300625 0 2.00293e-05 0 0 0 0 0.000498021 0 172051
0.317691 0 2.36377e-05 0 0 0 0 0.000450916 0 203046
0.335725 0 2.78961e-05 0 0 0 0 0.000407755 0 239625
0.354784 0 3.29216e-05 0 0 0 0 0.000368269 0 282795
0.374924 0 3.88525e-05 0 0 0 0 0.000332202 0 333741
0.396207 0.271851 4.58519e-05 6.90214e-07 6 0.264293 6.71025e-07 0.000299307 0.0138363 393865
0.418699 0 5.41123e-05 0 0 0 0 0.00026935 0 464821
0.442467 0 6.38607e-05 0 0 0 0 0.000242108 0 548560
0.467585 0 7.53654e-05 0 0 0 0 0.00021737 0 647384
0.494129 0 8.89427e-05 0 0 0 0 0.000194938 0 764012
0.522179 0 0.000104966 0 0 0 0 0.000174625 0 901651
0.551822 0 0.000123876 0 0 0 0 0.000156255 0 1.06409e+06
0.583147 4.38751 0.000146192 3.49384e-06 12 4.61788 3.67729e-06 0.000139664 0.300193 1.25578e+06
0.616251 0 0.000172529 0 0 0 0 0.0001247 0 1.48202e+06
0.651234 0 0.000203611 0 0 0 0 0.00011122 0 1.74901e+06
0.688203 21.7517 0.000240292 1.05382e-05 8 21.2106 1.0276e-05 9.90935e-05 0.850765 2.06409e+06
0.72727 0 0.000283581 0 0 0 0 8.81969e-05 0 2.43595e+06
0.768555 0 0.000334669 0 0 0 0 7.84179e-05 0 2.87479e+06
0.812184 0.0290732 0.000394961 8.56938e-09 6 0.0296948 8.75259e-09 6.96525e-05 0.000738182 3.39269e+06
0.85829 0 0.000466114 0 0 0 0 6.1805e-05 0 4.00389e+06
0.907013 0.246459 0.000550086 5.21585e-08 24 0.251188 5.31593e-08 5.47875e-05 0.0228484 4.7252e+06
0.958501 0.949085 0.000649185 1.70195e-07 24 0.893493 1.60226e-07 4.85194e-05 0.0841864 5.57646e+06
1.01291 0 0.000766138 0 0 0 0 4.29272e-05 0 6.58107e+06
1.07041 0 0.00090416 0 0 0 0 3.79435e-05 0 7.76667e+06
1.13118 1.21044 0.00106705 1.3206e-07 12 1.19557 1.30438e-07 3.3507e-05 0.0472951 9.16586e+06
1.19539 0.528098 0.00125928 4.88206e-08 30 0.517211 4.78141e-08 2.9562e-05 0.0495439 1.08171e+07
1.26325 5.66965 0.00148614 4.44126e-07 24 5.58434 4.37443e-07 2.60578e-05 0.409053 1.27658e+07
1.33496 18.1198 0.00175387 1.20272e-06 24 18.1596 1.20537e-06 2.29484e-05 1.25783 1.50656e+07
1.41075 5.92895 0.00206984 3.33466e-07 32 6.09505 3.42808e-07 2.01923e-05 0.528465 1.77798e+07
1.49083 0.340199 0.00244272 1.62132e-08 48 0.332946 1.58675e-08 1.77518e-05 0.0438398 2.09828e+07
1.57546 0.0374943 0.00288279 1.51413e-09 6 0.035703 1.44179e-09 1.55929e-05 0.000582623 2.4763e+07
1.66489 0.369592 0.00340213 1.26468e-08 84 0.358151 1.22554e-08 1.3685e-05 0.0776275 2.92241e+07
1.75941 2.3288 0.00401503 6.75232e-08 48 2.34521 6.7999e-08 1.20007e-05 0.270078 3.44889e+07
1.85928 0.18679 0.00473835 4.58919e-09 72 0.188397 4.62867e-09 1.05151e-05 0.0314236 4.07021e+07
1.96483 0.65683 0.00559198 1.36741e-08 54 0.644718 1.34219e-08 9.20606e-06 0.080208 4.80347e+07
2.07637 7.13463 0.00659939 1.25857e-07 104 7.10696 1.25369e-07 8.05366e-06 1.62524 5.66883e+07
2.19424 0.25224 0.00778828 3.77036e-09 120 0.253906 3.79526e-09 7.04008e-06 0.0642669 6.69008e+07
2.3188 1.49477 0.00919136 1.89323e-08 156 1.41887 1.7971e-08 6.1494e-06 0.480282 7.89532e+07
2.45043 0.555077 0.0108472 5.95725e-09 126 0.553274 5.93789e-09 5.36741e-06 0.139846 9.31768e+07
2.58954 0.454314 0.0128014 4.13152e-09 192 0.461928 4.20076e-09 4.68145e-06 0.169446 1.09963e+08
2.73654 4.00651 0.0151076 3.08732e-08 152 4.16248 3.2075e-08 4.08023e-06 1.15011 1.29773e+08
2.89188 3.10503 0.0178292 2.02742e-08 378 3.17196 2.07112e-08 3.55373e-06 2.1565 1.53152e+08
3.05605 1.1735 0.0210412 6.49267e-09 264 1.15126 6.3696e-09 3.09304e-06 0.554169 1.80743e+08
3.22953 0.171212 0.0248319 8.02665e-10 366 0.168448 7.8971e-10 2.69025e-06 0.1092 2.13304e+08
3.41286 0.614615 0.0293054 2.44155e-09 428 0.586425 2.32957e-09 2.33837e-06 0.446885 2.51731e+08
3.6066 2.71364 0.0345848 9.13435e-09 486 2.6206 8.82115e-09 2.0312e-06 2.18555 2.97081e+08
3.81134 0.613737 0.0408154 1.75053e-09 600 0.61157 1.74435e-09 1.76327e-06 0.595665 3.50601e+08
4.0277 0.473632 0.0481684 1.14469e-09 738 0.466347 1.12709e-09 1.52972e-06 0.552247 4.13763e+08
4.25634 1.03813 0.056846 2.12599e-09 824 1.08029 2.21233e-09 1.32631e-06 1.32082 4.88304e+08
4.49796 2.2924 0.067087 3.97798e-09 954 2.30871 4.00627e-09 1.14926e-06 3.30213 5.76273e+08
4.7533 0.476676 0.0791729 7.00902e-10 1094 0.467703 6.87707e-10 9.95263e-07 0.770436 6.8009e+08
5.02313 0.266985 0.0934361 3.32646e-10 1332 0.266804 3.3242e-10 8.61414e-07 0.514369 8.0261e+08
5.30828 1.7966 0.110269 1.89674e-09 1614 1.81709 1.91837e-09 7.45152e-07 4.10834 9.47202e+08
5.60962 0.916183 0.130134 8.19598e-10 1850 0.883988 7.90798e-10 6.44232e-07 2.35359 1.11784e+09
5.92807 1.1985 0.153578 9.08484e-10 2238 1.14611 8.68773e-10 5.56685e-07 3.65231 1.31923e+09
6.26459 0.554769 0.181246 3.56332e-10 2546 0.563184 3.61737e-10 4.80786e-07 1.88695 1.55689e+09
6.62021 0.201796 0.213898 1.09829e-10 3264 0.201681 1.09766e-10 4.15026e-07 0.863756 1.83737e+09
6.99602 1.14356 0.252432 5.27381e-10 3506 1.18172 5.44979e-10 3.58083e-07 5.16361 2.16837e+09
7.39317 0.533559 0.297908 2.08502e-10 4506 0.541426 2.11576e-10 3.08803e-07 3.04242 2.55901e+09
7.81286 0.954479 0.351577 3.1605e-10 5018 0.98555 3.26339e-10 2.66181e-07 5.95813 3.02002e+09
8.25637 0.882022 0.414914 2.47475e-10 5852 0.847493 2.37787e-10 2.29336e-07 6.31485 3.56409e+09
8.72507 0.575987 0.489662 1.36939e-10 7362 0.569438 1.35382e-10 1.97503e-07 5.10444 4.20617e+09
9.22037 0.789043 0.577876 1.58956e-10 8306 0.779671 1.57068e-10 1.70014e-07 7.76574 4.96392e+09
9.74378 0.301527 0.681982 5.1471e-11 9698 0.302349 5.16114e-11 1.46289e-07 3.41219 5.85818e+09
10.2969 0.82391 0.804843 1.19173e-10 11816 0.836608 1.2101e-10 1.25822e-07 11.1916 6.91355e+09
10.8814 0.676823 0.949838 8.29537e-11 13682 0.67758 8.30465e-11 1.08175e-07 10.492 8.15905e+09
11.4992 0.674032 1.12095 7.00007e-11 16152 0.662109 6.87625e-11 9.29669e-08 12.1619 9.62892e+09
12.1519 0.678987 1.3229 5.97511e-11 19472 0.66462 5.84868e-11 7.98658e-08 14.5679 1.13636e+10
12.8418 0.3705 1.56122 2.76271e-11 22670 0.373806 2.78736e-11 6.85852e-08 9.13179 1.34108e+10
13.5708 0.669763 1.84248 4.23184e-11 26224 0.677804 4.28265e-11 5.88765e-08 18.8489 1.58268e+10
14.3411 0.612106 2.17441 3.27715e-11 31640 0.620157 3.32025e-11 5.05241e-08 20.5227 1.8678e+10
15.1552 0.713425 2.56613 3.23653e-11 37484 0.718011 3.25733e-11 4.33417e-08 27.9911 2.20429e+10
16.0156 0.667322 3.02843 2.56524e-11 43856 0.674458 2.59267e-11 3.71677e-08 30.2685 2.6014e+10
16.9247 1.01954 3.574 3.32094e-11 51362 1.01905 3.31934e-11 3.18628e-08 53.5327 3.07005e+10
17.8855 1.09879 4.21787 3.03273e-11 61636 1.08918 3.00618e-11 2.73063e-08 68.4549 3.62312e+10
18.9008 1.56573 4.97773 3.6618e-11 72218 1.55646 3.64013e-11 2.33941e-08 113.04 4.27584e+10
19.9738 2.19677 5.87448 4.35337e-11 84586 2.17876 4.31766e-11 2.00364e-08 183.783 5.04614e+10
21.1076 3.08612 6.93279 5.1822e-11 100708 3.07956 5.1712e-11 1.71555e-08 304.211 5.95522e+10
22.3058 4.16374 8.18175 5.92445e-11 118712 4.15907 5.9178e-11 1.46847e-08 478.937 7.02807e+10
23.5721 5.57359 9.65571 6.71987e-11 140410 5.56156 6.70537e-11 1.25662e-08 750.855 8.29419e+10
24.9102 6.52635 11.3952 6.66742e-11 164374 6.49833 6.6388e-11 1.07504e-08 1019.45 9.78842e+10
26.3243 7.65369 13.4481 6.62552e-11 194680 7.6272 6.60259e-11 9.19452e-09 1402.85 1.15518e+11
27.8187 8.95572 15.8708 6.56919e-11 230196 8.91993 6.54293e-11 7.86182e-09 1923.47 1.36329e+11
29.3979 10.6665 18.73 6.62972e-11 271156 10.6342 6.60965e-11 6.72061e-09 2674.89 1.60889e+11
31.0667 12.6246 22.1042 6.64894e-11 321076 12.5773 6.62404e-11 5.74366e-09 3716.82 1.89874e+11
32.8303 14.7399 26.0864 6.57798e-11 377436 14.6945 6.55769e-11 4.90756e-09 5059.06 2.2408e+11
34.694 17.1523 30.7859 6.48607e-11 447594 17.0969 6.4651e-11 4.19221e-09 6925.05 2.64449e+11
36.6634 19.5946 36.3321 6.27853e-11 525078 19.5314 6.25824e-11 3.58032e-09 9207.87 3.1209e+11
38.7447 22.5419 42.8774 6.12029e-11 621924 22.4745 6.10199e-11 3.05709e-09 12450.9 3.68314e+11
40.9442 26.2581 50.6018 6.04098e-11 732630 26.1812 6.02328e-11 2.60976e-09 16958.7 4.34667e+11
43.2685 30.8237 59.7179 6.00884e-11 865596 30.7226 5.98913e-11 2.22743e-09 23350.8 5.12973e+11
45.7247 36.526 70.4762 6.0335e-11 1.02168e+06 36.4026 6.01312e-11 1.90073e-09 32431.1 6.05386e+11
48.3204 43.4615 83.1727 6.08323e-11 1.20544e+06 43.3122 6.06233e-11 1.62163e-09 45219.5 7.14448e+11
51.0634 51.4337 98.1565 6.10013e-11 1.42103e+06 51.2695 6.08065e-11 1.38326e-09 62667.1 8.43158e+11
53.9621 60.6716 115.84 6.09731e-11 1.67997e+06 60.4778 6.07784e-11 1.1797e-09 86829.4 9.95055e+11
57.0254 71.4351 136.709 6.08312e-11 1.98018e+06 71.2078 6.06376e-11 1.00592e-09 119748 1.17432e+12
60.2626 84.0007 161.337 6.06121e-11 2.33957e+06 83.73 6.04168e-11 8.57591e-10 165354 1.38587e+12
63.6835 99.0604 190.402 6.05673e-11 2.75676e+06 98.7332 6.03673e-11 7.3101e-10 228410 1.63554e+12
67.2987 116.889 224.704 6.05584e-11 3.25638e+06 116.515 6.03647e-11 6.23009e-10 316530 1.93019e+12
71.1191 137.95 265.185 6.05595e-11 3.84387e+06 137.498 6.03613e-11 5.30879e-10 438486 2.27792e+12
75.1563 162.561 312.958 6.047e-11 4.53277e+06 162.033 6.02734e-11 4.52303e-10 606001 2.68829e+12
79.4227 191.604 369.339 6.03936e-11 5.35083e+06 190.995 6.02017e-11 3.85299e-10 838713 3.17259e+12
83.9313 226.433 435.876 6.04765e-11 6.32174e+06 225.694 6.02792e-11 3.28173e-10 1.16498e+06 3.74415e+12
88.6959 266.571 514.4 6.03285e-11 7.44986e+06 265.685 6.01278e-11 2.79476e-10 1.60815e+06 4.41866e+12
93.7309 315.053 607.071 6.04164e-11 8.79764e+06 314.024 6.02189e-11 2.37972e-10 2.23354e+06 5.2147e+12
99.0518 371.485 716.436 6.03635e-11 1.03827e+07 370.259 6.01643e-11 2.02605e-10 3.09339e+06 6.15414e+12
104.675 438.61 845.504 6.03911e-11 1.22515e+07 437.143 6.01891e-11 1.72471e-10 4.2899e+06 7.26283e+12
110.617 517.537 997.824 6.03806e-11 1.44573e+07 515.833 6.01818e-11 1.468e-10 5.94647e+06 8.57124e+12
116.896 610.853 1177.58 6.03886e-11 1.70664e+07 608.844 6.019e-11 1.24935e-10 8.24923e+06 1.01154e+13
123.532 720.902 1389.73 6.03888e-11 2.0139e+07 718.508 6.01882e-11 1.06313e-10 1.14395e+07 1.19377e+13
130.545 852.944 1640.09 6.05428e-11 2.37643e+07 850.216 6.03491e-11 9.04567e-11 1.59055e+07 1.40883e+13
137.955 1005.05 1935.56 6.0449e-11 2.80503e+07 1001.69 6.0247e-11 7.69563e-11 2.20334e+07 1.66263e+13
145.787 1186.2 2284.26 6.04539e-11 3.30981e+07 1182.25 6.02525e-11 6.54636e-11 3.05652e+07 1.96216e+13
154.063 1415.71 2695.77 6.11365e-11 3.90634e+07 1410.92 6.09298e-11 5.56812e-11 4.28906e+07 2.31565e+13
162.808 1655.18 3181.42 6.05666e-11 4.61057e+07 1649.65 6.03645e-11 4.73556e-11 5.89679e+07 2.73282e+13
172.051 1955.63 3754.56 6.0637e-11 5.44046e+07 1949.04 6.04327e-11 4.02708e-11 8.19186e+07 3.22515e+13
181.818 2313.21 4430.96 6.07755e-11 6.42064e+07 2305.52 6.05733e-11 3.42426e-11 1.13957e+08 3.80616e+13
192.139 2733.31 5229.21 6.08504e-11 7.57748e+07 2724.13 6.0646e-11 2.91139e-11 1.58376e+08 4.49186e+13
203.046 3249.2 6171.26 6.12932e-11 8.94213e+07 3237.67 6.10758e-11 2.4751e-11 2.21442e+08 5.30108e+13
214.572 3828.94 7283.03 6.12035e-11 1.05538e+08 3816.01 6.09969e-11 2.10401e-11 3.07001e+08 6.25608e+13
226.753 4544.03 8595.09 6.15462e-11 1.24552e+08 4528.06 6.13299e-11 1.78839e-11 4.28636e+08 7.38313e+13
239.625 5379.76 10143.5 6.17425e-11 1.46987e+08 5361.4 6.15318e-11 1.51999e-11 5.97067e+08 8.71322e+13
253.228 6393.73 11970.9 6.21781e-11 1.7347e+08 6371.58 6.19627e-11 1.29176e-11 8.34986e+08 1.02829e+14
267.603 7611.9 14127.5 6.27246e-11 2.04703e+08 7585.46 6.25067e-11 1.09771e-11 1.16969e+09 1.21354e+14
282.795 9086.87 16672.6 6.34485e-11 2.4161e+08 9054.94 6.32255e-11 9.3274e-12 1.64352e+09 1.43217e+14
298.848 10886.1 19676.2 6.44084e-11 2.85122e+08 10847.1 6.41773e-11 7.925e-12 2.31726e+09 1.69017e+14
315.813 13122 23220.9 6.57855e-11 3.36491e+08 13073.8 6.5544e-11 6.73295e-12 3.28775e+09 1.99466e+14
333.741 15934 27404.3 6.76889e-11 3.97115e+08 15873.5 6.74316e-11 5.71979e-12 4.69952e+09 2.35401e+14
352.686 19552.6 32341.2 7.03816e-11 4.68637e+08 19474.9 7.01018e-11 4.85874e-12 6.78847e+09 2.77809e+14
372.707 24356.4 38167.6 7.42897e-11 5.53074e+08 24254 7.39774e-11 4.12703e-12 9.95576e+09 3.27857e+14
393.865 30991.2 45043.5 8.00969e-11 6.52716e+08 30850.9 7.97344e-11 3.50528e-12 1.49148e+10 3.86921e+14
416.224 36566.7 53158.3 8.00802e-11 2.2184e+08 38684.2 8.47175e-11 2.97701e-12 5.96739e+09 4.56626e+14
439.852 0 62734.9 0 0 0 0 2.52819e-12 0 5.38888e+14
464.821 0 74036.7 0 0 0 0 2.1469e-12 0 6.35971e+14
491.207 0 87374.6 0 0 0 0 1.82301e-12 0 7.50542e+14
519.092 0 103115 0 0 0 0 1.54789e-12 0 8.85755e+14
548.56 0 121692 0 0 0 0 1.31422e-12 0 1.04533e+15
579.7 0 143615 0 0 0 0 1.11576e-12 0 1.23364e+15
612.608 0 169488 0 0 0 0 9.47223e-13 0 1.45589e+15
647.384 0 200021 0 0 0 0 8.041e-13 0 1.71817e+15
684.134 0 236056 0 0 0 0 6.82568e-13 0 2.0277e+15
722.971 0 278582 0 0 0 0 5.79376e-13 0 2.393e+15
764.012 0 328769 0 0 0 0 4.91762e-13 0 2.8241e+15
0.0980024
200
1.0655e+09
8589934592
0.0129181 3.38391e-05 1.58924e-09 2.47879e-06 6 3.35293e-05 2.4561e-06 0.00677225 0.00219613 13.6515
0.0136515 0 1.87554e-09 0 0 0 0 0.00688819 0 16.1108
0.0144264 0 2.21343e-09 0 0 0 0 0.00699249 0 19.0132
0.0152454 0 2.61218e-09 0 0 0 0 0.00708412 0 22.4385
0.0161108 0 3.08278e-09 0 0 0 0 0.00716212 0 26.4808
0.0170254 0 3.63815e-09 0 0 0 0 0.00722559 0 31.2514
0.0179919 0.000118337 4.29357e-09 3.20857e-06 12 0.000118184 3.20444e-06 0.00727371 0.00529343 36.8815
0.0190132 0 5.06707e-09 0 0 0 0 0.00730578 0 43.5258
0.0200925 0 5.97991e-09 0 0 0 0 0.00732122 0 51.367
0.0212331 0.000106356 7.05721e-09 1.75444e-06 8 0.000106263 1.75291e-06 0.00731958 0.00191753 60.621
0.0224385 0 8.32858e-09 0 0 0 0 0.00730056 0 71.542
0.0237123 0 9.829e-09 0 0 0 0 0.00726401 0 84.4305
0.0250583 0.000213632 1.15997e-08 2.14402e-06 6 0.000213531 2.14301e-06 0.00720995 0.00178422 99.6408
0.0264808 0 1.36894e-08 0 0 0 0 0.00713857 0 117.591
0.0279841 0.000403974 1.61556e-08 2.91098e-06 24 0.000403559 2.90799e-06 0.00705021 0.00990944 138.776
0.0295727 0 1.90661e-08 0 0 0 0 0.00694538 0 163.777
0.0312514 0.000216147 2.25009e-08 1.1183e-06 24 0.000217244 1.12398e-06 0.00682475 0.00393263 193.281
0.0330255 0 2.65545e-08 0 0 0 0 0.00668915 0 228.102
0.0349003 0.000372867 3.13384e-08 1.38512e-06 12 0.000369881 1.37403e-06 0.00653951 0.00254169 269.195
0.0368815 0.000822638 3.69841e-08 2.58943e-06 30 0.000813878 2.56186e-06 0.00637693 0.0121819 317.691
0.0389751 0.000928283 4.36469e-08 2.47593e-06 24 0.000918734 2.45046e-06 0.00620256 0.00958028 374.924
0.0411876 0.00116202 5.151e-08 2.62623e-06 24 0.00115413 2.60839e-06 0.00601767 0.0104741 442.467
0.0435258 0.000512735 6.07896e-08 9.81914e-07 8 0.000512695 9.81838e-07 0.00582358 0.00134888 522.179
0.0459966 0.00118885 7.1741e-08 1.92916e-06 72 0.00118589 1.92436e-06 0.00562166 0.0247079 616.251
0.0486077 0 8.46654e-08 0 0 0 0 0.0054133 0 727.27
0.051367 0.00163151 9.99181e-08 1.90089e-06 54 0.00162309 1.89108e-06 0.00519989 0.0197404 858.29
0.054283 0.00140913 1.17919e-07 1.39117e-06 60 0.00141447 1.39643e-06 0.0049828 0.0167516 1012.91
0.0573645 0.00184001 1.39162e-07 1.53926e-06 96 0.00183214 1.53267e-06 0.00476339 0.0310218 1195.39
0.060621 0.00200484 1.64232e-07 1.42112e-06 24 0.00197768 1.40187e-06 0.00454293 0.0075077 1410.75
0.0640622 0.00267314 1.93819e-07 1.60559e-06 134 0.00266659 1.60165e-06 0.00432265 0.0497726 1664.89
0.0676989 0.00250106 2.28736e-07 1.27291e-06 120 0.0024866 1.26556e-06 0.00410371 0.0372223 1964.83
0.071542 0.00236402 2.69944e-07 1.0195e-06 108 0.00233353 1.00635e-06 0.00388717 0.0283256 2318.8
0.0756032 0.00309658 3.18575e-07 1.13157e-06 174 0.00306869 1.12138e-06 0.00367401 0.0535907 2736.54
0.079895 0.00299095 3.75967e-07 9.26124e-07 168 0.00296149 9.17003e-07 0.0034651 0.0449017 3229.53
0.0844305 0.003712 4.43698e-07 9.73936e-07 168 0.00373051 9.78791e-07 0.00326121 0.050172 3811.34
0.0892234 0.00380473 5.23632e-07 8.45878e-07 290 0.00378996 8.42594e-07 0.00306301 0.080086 4497.96
0.0942883 0.00447636 6.17966e-07 8.43277e-07 288 0.00448729 8.45337e-07 0.00287109 0.0845894 5308.28
0.0996408 0.00376868 7.29294e-07 6.01584e-07 366 0.0037374 5.96592e-07 0.00268591 0.0819759 6264.59
0.105297 0.00474413 8.60678e-07 6.41692e-07 420 0.00471826 6.38191e-07 0.00250785 0.107467 7393.17
0.111275 0.00574426 1.01573e-06 6.58363e-07 398 0.00573368 6.5715e-07 0.00233721 0.112112 8725.07
0.117591 0.00656302 1.19872e-06 6.37378e-07 624 0.00659338 6.40326e-07 0.00217419 0.182929 10296.9
0.124267 0.00684408 1.41467e-06 5.63209e-07 642 0.00682699 5.61803e-07 0.00201893 0.179095 12151.9
0.131321 0.0073832 1.66953e-06 5.14827e-07 800 0.00738631 5.15044e-07 0.00187147 0.220074 14341.1
0.138776 0.00866349 1.9703e-06 5.11884e-07 858 0.00868308 5.13041e-07 0.00173182 0.253604 16924.7
0.146654 0.00868827 2.32525e-06 4.34984e-07 1080 0.00875271 4.38211e-07 0.00159991 0.293631 19973.8
0.154979 0.00921558 2.74415e-06 3.90953e-07 1286 0.00926972 3.9325e-07 0.00147563 0.340711 23572.1
0.163777 0.0103601 3.23852e-06 3.72417e-07 1650 0.010373 3.72879e-07 0.00135884 0.452215 27818.7
0.173074 0.00978451 3.82195e-06 2.98033e-07 1778 0.00979694 2.98412e-07 0.00124933 0.424149 32830.3
0.182899 0.0110531 4.51048e-06 2.85279e-07 2112 0.0110749 2.85842e-07 0.00114689 0.525341 38744.7
0.193281 0.0135992 5.32305e-06 2.97414e-07 2570 0.0136021 2.97479e-07 0.00105127 0.727075 45724.7
0.204254 0.0128333 6.28202e-06 2.37821e-07 3030 0.0128417 2.37976e-07 0.000962209 0.748898 53962.1
0.215848 0.0134996 7.41374e-06 2.1198e-07 3434 0.0134898 2.11825e-07 0.000879423 0.827745 63683.5
0.228102 0.0150763 8.74934e-06 2.00599e-07 4218 0.0150878 2.00753e-07 0.000802624 1.0542 75156.3
0.24105 0.0156151 1.03256e-05 1.76052e-07 4766 0.015619 1.76096e-07 0.000731515 1.14702 88695.9
0.254734 0.0170537 1.21857e-05 1.62921e-07 6026 0.0170415 1.62804e-07 0.000665798 1.47456 104675
0.269195 0.0180513 1.4381e-05 1.46127e-07 6480 0.0180639 1.46229e-07 0.000605173 1.56468 123532
0.284476 0.0186203 1.69718e-05 1.27723e-07 8162 0.0186475 1.27909e-07 0.000549345 1.89767 145787
0.300625 0.0202011 2.00293e-05 1.17414e-07 9578 0.0202053 1.17438e-07 0.000498021 2.25812 172051
0.317691 0.0215148 2.36377e-05 1.0596e-07 11234 0.0215188 1.0598e-07 0.000450916 2.63986 203046
0.335725 0.0226052 2.78961e-05 9.43356e-08 13344 0.022578 9.42219e-08 0.000407755 3.08718 239625
0.354784 0.0232521 3.29216e-05 8.22227e-08 15464 0.0232324 8.21529e-08 0.000368269 3.45262 282795
0.374924 0.0251819 3.88525e-05 7.54534e-08 18458 0.0251741 7.543e-08 0.000332202 4.19239 333741
0.396207 0.0265397 4.58519e-05 6.73828e-08 22232 0.0265064 6.72981e-08 0.000299307 5.00508 393865
0.418699 0.0277275 5.41123e-05 5.9652e-08 25628 0.0276537 5.94933e-08 0.00026935 5.67575 464821
0.442467 0.0291921 6.38607e-05 5.32159e-08 30320 0.029124 5.30919e-08 0.000242108 6.66441 548560
0.467585 0.0307689 7.53654e-05 4.75281e-08 35452 0.0307355 4.74764e-08 0.00021737 7.75159 647384
0.494129 0.0324931 8.89427e-05 4.25295e-08 41792 0.0324862 4.25206e-08 0.000194938 9.11773 764012
0.522179 0.0347151 0.000104966 3.85017e-08 49988 0.034716 3.85028e-08 0.000174625 11.0215 901651
0.551822 0.0364336 0.000123876 3.42394e-08 59110 0.0364107 3.42178e-08 0.000156255 12.9525 1.06409e+06
0.583147 0.0378976 0.000146192 3.01784e-08 69716 0.0378563 3.01456e-08 0.000139664 15.0641 1.25578e+06
0.616251 0.0402202 0.000172529 2.71388e-08 82210 0.0401639 2.71008e-08 0.0001247 17.8916 1.48202e+06
0.651234 0.0421209 0.000203611 2.40828e-08 96722 0.0420471 2.40406e-08 0.00011122 20.9434 1.74901e+06
0.688203 0.0440252 0.000240292 2.13291e-08 113098 0.0439758 2.13052e-08 9.90935e-05 24.3434 2.06409e+06
0.72727 0.0459896 0.000283581 1.88796e-08 135190 0.0459565 1.8866e-08 8.81969e-05 28.939 2.43595e+06
0.768555 0.0480611 0.000334669 1.67181e-08 158170 0.0480162 1.67025e-08 7.84179e-05 33.7207 2.87479e+06
0.812184 0.0507045 0.000394961 1.49452e-08 188560 0.050658 1.49315e-08 6.96525e-05 40.459 3.39269e+06
0.85829 0.0530372 0.000466114 1.32464e-08 220444 0.052979 1.32319e-08 6.1805e-05 47.2469 4.00389e+06
0.907013 0.0552694 0.000550086 1.16967e-08 261388 0.0552231 1.16869e-08 5.47875e-05 55.8045 4.7252e+06
0.958501 0.0579735 0.000649185 1.03961e-08 308244 0.0579218 1.03868e-08 4.85194e-05 66.0465 5.57646e+06
1.01291 0.0603211 0.000766138 9.16585e-09 364396 0.0602574 9.15616e-09 4.29272e-05 77.8061 6.58107e+06
1.07041 0.0631897 0.00090416 8.13601e-09 429162 0.0631203 8.12707e-09 3.79435e-05 92.0229 7.76667e+06
1.13118 0.0658803 0.00106705 7.18758e-09 506358 0.0658122 7.18015e-09 3.3507e-05 108.619 9.16586e+06
1.19539 0.0691752 0.00125928 6.39498e-09 598590 0.0690952 6.38758e-09 2.9562e-05 129.489 1.08171e+07
1.26325 0.0718602 0.00148614 5.6291e-09 704844 0.0717755 5.62246e-09 2.60578e-05 152.263 1.27658e+07
1.33496 0.0749725 0.00175387 4.97639e-09 834620 0.0748816 4.97035e-09 2.29484e-05 180.988 1.50656e+07
1.41075 0.078417 0.00206984 4.41046e-09 981444 0.0783109 4.40449e-09 2.01923e-05 214.37 1.77798e+07
1.49083 0.0817036 0.00244272 3.89383e-09 1.15998e+06 0.0816015 3.88897e-09 1.77518e-05 254.44 2.09828e+07
1.57546 0.0850238 0.00288279 3.43351e-09 1.36931e+06 0.0849218 3.42939e-09 1.55929e-05 301.519 2.4763e+07
1.66489 0.0887823 0.00340213 3.03798e-09 1.61652e+06 0.0886643 3.03395e-09 1.3685e-05 358.856 2.92241e+07
1.75941 0.0924875 0.00401503 2.68166e-09 1.90601e+06 0.0923608 2.67799e-09 1.20007e-05 425.915 3.44889e+07
1.85928 0.0965938 0.00473835 2.37319e-09 2.24913e+06 0.0964683 2.3701e-09 1.05151e-05 507.613 4.07021e+07
1.96483 0.100671 0.00559198 2.0958e-09 2.65744e+06 0.100545 2.09316e-09 9.20606e-06 604.978 4.80347e+07
2.07637 0.104673 0.00659939 1.84647e-09 3.13125e+06 0.10454 1.84412e-09 8.05366e-06 717.903 5.66883e+07
2.19424 0.109301 0.00778828 1.63377e-09 3.69915e+06 0.109161 1.63169e-09 7.04008e-06 858.45 6.69008e+07
2.3188 0.113892 0.00919136 1.44253e-09 4.36472e+06 0.113742 1.44063e-09 6.1494e-06 1023.88 7.89532e+07
2.45043 0.118692 0.0108472 1.27384e-09 5.14913e+06 0.118536 1.27216e-09 5.36741e-06 1222.04 9.31768e+07
2.58954 0.123735 0.0128014 1.12524e-09 6.07894e+06 0.123576 1.1238e-09 4.68145e-06 1461.15 1.09963e+08
2.73654 0.128997 0.0151076 9.94023e-10 7.17304e+06 0.128828 9.92719e-10 4.08023e-06 1747.49 1.29773e+08
2.89188 0.13455 0.0178292 8.78537e-10 8.46557e+06 0.134373 8.77383e-10 3.55373e-06 2092.82 1.53152e+08
3.05605 0.140414 0.0210412 7.76871e-10 9.98773e+06 0.140233 7.75871e-10 3.09304e-06 2508.59 1.80743e+08
3.22953 0.146433 0.0248319 6.86499e-10 1.1797e+07 0.146238 6.85586e-10 2.69025e-06 3010.36 2.13304e+08
3.41286 0.152869 0.0293054 6.07269e-10 1.39144e+07 0.152657 6.06429e-10 2.33837e-06 3613.53 2.51731e+08
3.6066 0.159803 0.0345848 5.37911e-10 1.64163e+07 0.159587 5.37183e-10 2.0312e-06 4347.42 2.97081e+08
3.81134 0.167043 0.0408154 4.76448e-10 1.93821e+07 0.166818 4.75805e-10 1.76327e-06 5237.2 3.50601e+08
4.0277 0.174416 0.0481684 4.21536e-10 2.28754e+07 0.174173 4.20949e-10 1.52972e-06 6303.63 4.13763e+08
4.25634 0.182372 0.056846 3.7348e-10 2.69929e+07 0.182112 3.72949e-10 1.32631e-06 7601.04 4.88304e+08
4.49796 0.190992 0.067087 3.31426e-10 3.18542e+07 0.190716 3.30947e-10 1.14926e-06 9186.22 5.76273e+08
4.7533 0.200126 0.0791729 2.94263e-10 3.75892e+07 0.199836 2.93838e-10 9.95263e-07 11113.8 6.8009e+08
5.02313 0.209816 0.0934361 2.61417e-10 4.43706e+07 0.209506 2.61031e-10 8.61414e-07 13465.3 8.0261e+08
5.30828 0.220171 0.110269 2.32443e-10 5.23593e+07 0.219842 2.32096e-10 7.45152e-07 16333 9.47202e+08
5.60962 0.231261 0.130134 2.06881e-10 6.1787e+07 0.230909 2.06567e-10 6.44232e-07 19841.6 1.11784e+09
5.92807 0.243222 0.153578 1.84367e-10 7.29346e+07 0.242848 1.84083e-10 5.56685e-07 24155.1 1.31923e+09
6.26459 0.256049 0.181246 1.64462e-10 8.60651e+07 0.255648 1.64205e-10 4.80786e-07 29440.1 1.55689e+09
6.62021 0.269912 0.213898 1.46902e-10 1.01558e+08 0.269483 1.46668e-10 4.15026e-07 35947.3 1.83737e+09
6.99602 0.284777 0.252432 1.31332e-10 1.1986e+08 0.284322 1.31123e-10 3.58083e-07 43960.4 2.16837e+09
7.39317 0.300767 0.297908 1.17532e-10 1.41457e+08 0.300281 1.17343e-10 3.08803e-07 53839.2 2.55901e+09
7.81286 0.317924 0.351577 1.05272e-10 1.66936e+08 0.317407 1.05101e-10 2.66181e-07 66021.5 3.02002e+09
8.25637 0.336372 0.414914 9.43782e-11 1.97025e+08 0.335818 9.42226e-11 2.29336e-07 81081.3 3.56409e+09
8.72507 0.356313 0.489662 8.47121e-11 2.32497e+08 0.355716 8.45701e-11 1.97503e-07 99721.5 4.20617e+09
9.22037 0.378098 0.577876 7.61692e-11 2.74404e+08 0.377449 7.60385e-11 1.70014e-07 122938 4.96392e+09
9.74378 0.402528 0.681982 6.87121e-11 3.2382e+08 0.401816 6.85906e-11 1.46289e-07 152099 5.85818e+09
10.2969 0.430893 0.804843 6.23259e-11 3.82165e+08 0.430092 6.221e-11 1.25822e-07 189305 6.91355e+09
10.8814 0.465725 0.949838 5.70809e-11 4.51027e+08 0.464784 5.69654e-11 1.08175e-07 237993 8.15905e+09
11.4992 0.511637 1.12095 5.31354e-11 5.32251e+08 0.510462 5.30135e-11 9.29669e-08 304209 9.62892e+09
12.1519 0.577678 1.3229 5.08358e-11 6.28157e+08 0.5761 5.0697e-11 7.98658e-08 399832 1.13636e+10
12.8418 0.65188 1.56122 4.86087e-11 3.82727e+08 0.674666 5.03078e-11 6.85852e-08 271251 1.34108e+10
13.5708 0 1.84248 0 0 0 0 5.88765e-08 0 1.58268e+10
14.3411 0 2.17441 0 0 0 0 5.05241e-08 0 1.8678e+10
15.1552 0 2.56613 0 0 0 0 4.33417e-08 0 2.20429e+10
16.0156 0 3.02843 0 0 0 0 3.71677e-08 0 2.6014e+10
16.9247 0 3.574 0 0 0 0 3.18628e-08 0 3.07005e+10
17.8855 0 4.21787 0 0 0 0 2.73063e-08 0 3.62312e+10
18.9008 0 4.97773 0 0 0 0 2.33941e-08 0 4.27584e+10
19.9738 0 5.87448 0 0 0 0 2.00364e-08 0 5.04614e+10
21.1076 0 6.93279 0 0 0 0 1.71555e-08 0 5.95522e+10
22.3058 0 8.18175 0 0 0 0 1.46847e-08 0 7.02807e+10
23.5721 0 9.65571 0 0 0 0 1.25662e-08 0 8.29419e+10
24.9102 0 11.3952 0 0 0 0 1.07504e-08 0 9.78842e+10
26.3243 0 13.4481 0 0 0 0 9.19452e-09 0 1.15518e+11
27.8187 0 15.8708 0 0 0 0 7.86182e-09 0 1.36329e+11
29.3979 0 18.73 0 0 0 0 6.72061e-09 0 1.60889e+11
31.0667 0 22.1042 0 0 0 0 5.74366e-09 0 1.89874e+11
32.8303 0 26.0864 0 0 0 0 4.90756e-09 0 2.2408e+11
34.694 0 30.7859 0 0 0 0 4.19221e-09 0 2.64449e+11
36.6634 0 36.3321 0 0 0 0 3.58032e-09 0 3.1209e+11
38.7447 0 42.8774 0 0 0 0 3.05709e-09 0 3.68314e+11
40.9442 0 50.6018 0 0 0 0 2.60976e-09 0 4.34667e+11
43.2685 0 59.7179 0 0 0 0 2.22743e-09 0 5.12973e+11
45.7247 0 70.4762 0 0 0 0 1.90073e-09 0 6.05386e+11
48.3204 0 83.1727 0 0 0 0 1.62163e-09 0 7.14448e+11
51.0634 0 98.1565 0 0 0 0 1.38326e-09 0 8.43158e+11
53.9621 0 115.84 0 0 0 0 1.1797e-09 0 9.95055e+11
57.0254 0 136.709 0 0 0 0 1.00592e-09 0 1.17432e+12
60.2626 0 161.337 0 0 0 0 8.57591e-10 0 1.38587e+12
63.6835 0 190.402 0 0 0 0 7.3101e-10 0 1.63554e+12
67.2987 0 224.704 0 0 0 0 6.23009e-10 0 1.93019e+12
71.1191 0 265.185 0 0 0 0 5.30879e-10 0 2.27792e+12
75.1563 0 312.958 0 0 0 0 4.52303e-10 0 2.68829e+12
79.4227 0 369.339 0 0 0 0 3.85299e-10 0 3.17259e+12
83.9313 0 435.876 0 0 0 0 3.28173e-10 0 3.74415e+12
88.6959 0 514.4 0 0 0 0 2.79476e-10 0 4.41866e+12
93.7309 0 607.071 0 0 0 0 2.37972e-10 0 5.2147e+12
99.0518 0 716.436 0 0 0 0 2.02605e-10 0 6.15414e+12
104.675 0 845.504 0 0 0 0 1.72471e-10 0 7.26283e+12
110.617 0 997.824 0 0 0 0 1.468e-10 0 8.57124e+12
116.896 0 1177.58 0 0 0 0 1.24935e-10 0 1.01154e+13
123.532 0 1389.73 0 0 0 0 1.06313e-10 0 1.19377e+13
130.545 0 1640.09 0 0 0 0 9.04567e-11 0 1.40883e+13
137.955 0 1935.56 0 0 0 0 7.69563e-11 0 1.66263e+13
145.787 0 2284.26 0 0 0 0 6.54636e-11 0 1.96216e+13
154.063 0 2695.77 0 0 0 0 5.56812e-11 0 2.31565e+13
162.808 0 3181.42 0 0 0 0 4.73556e-11 0 2.73282e+13
172.051 0 3754.56 0 0 0 0 4.02708e-11 0 3.22515e+13
181.818 0 4430.96 0 0 0 0 3.42426e-11 0 3.80616e+13
192.139 0 5229.21 0 0 0 0 2.91139e-11 0 4.49186e+13
203.046 0 6171.26 0 0 0 0 2.4751e-11 0 5.30108e+13
214.572 0 7283.03 0 0 0 0 2.10401e-11 0 6.25608e+13
226.753 0 8595.09 0 0 0 0 1.78839e-11 0 7.38313e+13
239.625 0 10143.5 0 0 0 0 1.51999e-11 0 8.71322e+13
253.228 0 11970.9 0 0 0 0 1.29176e-11 0 1.02829e+14
267.603 0 14127.5 0 0 0 0 1.09771e-11 0 1.21354e+14
282.795 0 16672.6 0 0 0 0 9.3274e-12 0 1.43217e+14
298.848 0 19676.2 0 0 0 0 7.925e-12 0 1.69017e+14
315.813 0 23220.9 0 0 0 0 6.73295e-12 0 1.99466e+14
333.741 0 27404.3 0 0 0 0 5.71979e-12 0 2.35401e+14
352.686 0 32341.2 0 0 0 0 4.85874e-12 0 2.77809e+14
372.707 0 38167.6 0 0 0 0 4.12703e-12 0 3.27857e+14
393.865 0 45043.5 0 0 0 0 3.50528e-12 0 3.86921e+14
416.224 0 53158.3 0 0 0 0 2.97701e-12 0 4.56626e+14
439.852 0 62734.9 0 0 0 0 2.52819e-12 0 5.38888e+14
464.821 0 74036.7 0 0 0 0 2.1469e-12 0 6.35971e+14
491.207 0 87374.6 0 0 0 0 1.82301e-12 0 7.50542e+14
519.092 0 103115 0 0 0 0 1.54789e-12 0 8.85755e+14
548.56 0 121692 0 0 0 0 1.31422e-12 0 1.04533e+15
579.7 0 143615 0 0 0 0 1.11576e-12 0 1.23364e+15
612.608 0 169488 0 0 0 0 9.47223e-13 0 1.45589e+15
647.384 0 200021 0 0 0 0 8.041e-13 0 1.71817e+15
684.134 0 236056 0 0 0 0 6.82568e-13 0 2.0277e+15
722.971 0 278582 0 0 0 0 5.79376e-13 0 2.393e+15
764.012 0 328769 0 0 0 0 4.91762e-13 0 2.8241e+15
