0.526336
200
1.0655e+09
8589934592
0.0129181 0 1.58924e-09 0 0 0 0 0.00677225 0 13.6515
0.0136515 0 1.87554e-09 0 0 0 0 0.00688819 0 16.1108
0.0144264 0 2.21343e-09 0 0 0 0 0.00699249 0 19.0132
0.0152454 0 2.61218e-09 0 0 0 0 0.00708412 0 22.4385
0.0161108 0 3.08278e-09 0 0 0 0 0.00716212 0 26.4808
0.0170254 0 3.63815e-09 0 0 0 0 0.00722559 0 31.2514
0.0179919 0 4.29357e-09 0 0 0 0 0.00727371 0 36.8815
0.0190132 0 5.06707e-09 0 0 0 0 0.00730578 0 43.5258
0.0200925 0 5.97991e-09 0 0 0 0 0.00732122 0 51.367
0.0212331 0 7.05721e-09 0 0 0 0 0.00731958 0 60.621
0.0224385 0 8.32858e-09 0 0 0 0 0.00730056 0 71.542
0.0237123 0 9.829e-09 0 0 0 0 0.00726401 0 84.4305
0.0250583 0 1.15997e-08 0 0 0 0 0.00720995 0 99.6408
0.0264808 0 1.36894e-08 0 0 0 0 0.00713857 0 117.591
0.0279841 0 1.61556e-08 0 0 0 0 0.00705021 0 138.776
0.0295727 0 1.90661e-08 0 0 0 0 0.00694538 0 163.777
0.0312514 0 2.25009e-08 0 0 0 0 0.00682475 0 193.281
0.0330255 0 2.65545e-08 0 0 0 0 0.00668915 0 228.102
0.0349003 0 3.13384e-08 0 0 0 0 0.00653951 0 269.195
0.0368815 0 3.69841e-08 0 0 0 0 0.00637693 0 317.691
0.0389751 0 4.36469e-08 0 0 0 0 0.00620256 0 374.924
0.0411876 0 5.151e-08 0 0 0 0 0.00601767 0 442.467
0.0435258 0 6.07896e-08 0 0 0 0 0.00582358 0 522.179
0.0459966 0 7.1741e-08 0 0 0 0 0.00562166 0 616.251
0.0486077 0 8.46654e-08 0 0 0 0 0.0054133 0 727.27
0.051367 0 9.99181e-08 0 0 0 0 0.00519989 0 858.29
0.054283 0 1.17919e-07 0 0 0 0 0.0049828 0 1012.91
0.0573645 0 1.39162e-07 0 0 0 0 0.00476339 0 1195.39
0.060621 0 1.64232e-07 0 0 0 0 0.00454293 0 1410.75
0.0640622 0 1.93819e-07 0 0 0 0 0.00432265 0 1664.89
0.0676989 0 2.28736e-07 0 0 0 0 0.00410371 0 1964.83
0.071542 0 2.69944e-07 0 0 0 0 0.00388717 0 2318.8
0.0756032 0 3.18575e-07 0 0 0 0 0.00367401 0 2736.54
0.079895 0 3.75967e-07 0 0 0 0 0.0034651 0 3229.53
0.0844305 0 4.43698e-07 0 0 0 0 0.00326121 0 3811.34
0.0892234 0 5.23632e-07 0 0 0 0 0.00306301 0 4497.96
0.0942883 0 6.17966e-07 0 0 0 0 0.00287109 0 5308.28
0.0996408 0 7.29294e-07 0 0 0 0 0.00268591 0 6264.59
0.105297 0 8.60678e-07 0 0 0 0 0.00250785 0 7393.17
0.111275 0 1.01573e-06 0 0 0 0 0.00233721 0 8725.07
0.117591 0 1.19872e-06 0 0 0 0 0.00217419 0 10296.9
0.124267 0 1.41467e-06 0 0 0 0 0.00201893 0 12151.9
0.131321 0 1.66953e-06 0 0 0 0 0.00187147 0 14341.1
0.138776 0 1.9703e-06 0 0 0 0 0.00173182 0 16924.7
0.146654 0 2.32525e-06 0 0 0 0 0.00159991 0 19973.8
0.154979 0 2.74415e-06 0 0 0 0 0.00147563 0 23572.1
0.163777 0 3.23852e-06 0 0 0 0 0.00135884 0 27818.7
0.173074 0 3.82195e-06 0 0 0 0 0.00124933 0 32830.3
0.182899 0 4.51048e-06 0 0 0 0 0.00114689 0 38744.7
0.193281 0 5.32305e-06 0 0 0 0 0.00105127 0 45724.7
0.204254 0 6.28202e-06 0 0 0 0 0.000962209 0 53962.1
0.215848 0 7.41374e-06 0 0 0 0 0.000879423 0 63683.5
0.228102 0 8.74934e-06 0 0 0 0 0.000802624 0 75156.3
0.24105 0 1.03256e-05 0 0 0 0 0.000731515 0 88695.9
0.254734 0 1.21857e-05 0 0 0 0 0.000665798 0 104675
0.269195 0 1.4381e-05 0 0 0 0 0.000605173 0 123532
0.284476 0 1.69718e-05 0 0 0 0 0.000549345 0 145787
0.300625 0 2.00293e-05 0 0 0 0 0.000498021 0 172051
0.317691 0 2.36377e-05 0 0 0 0 0.000450916 0 203046
0.335725 0 2.78961e-05 0 0 0 0 0.000407755 0 239625
0.354784 0 3.29216e-05 0 0 0 0 0.000368269 0 282795
0.374924 0 3.88525e-05 0 0 0 0 0.000332202 0 333741
0.396207 0.871491 4.58519e-05 2.21266e-06 6 0.847262 2.15115e-06 0.000299307 0.0443558 393865
0.418699 0 5.41123e-05 0 0 0 0 0.00026935 0 464821
0.442467 0 6.38607e-05 0 0 0 0 0.000242108 0 548560
0.467585 0 7.53654e-05 0 0 0 0 0.00021737 0 647384
0.494129 0 8.89427e-05 0 0 0 0 0.000194938 0 764012
0.522179 0 0.000104966 0 0 0 0 0.000174625 0 901651
0.551822 0 0.000123876 0 0 0 0 0.000156255 0 1.06409e+06
0.583147 9.70381 0.000146192 7.72729e-06 12 10.2133 8.13302e-06 0.000139664 0.663933 1.25578e+06
0.616251 0 0.000172529 0 0 0 0 0.0001247 0 1.48202e+06
0.651234 0 0.000203611 0 0 0 0 0.00011122 0 1.74901e+06
0.688203 13.5644 0.000240292 6.57159e-06 8 13.2269 6.4081e-06 9.90935e-05 0.530537 2.06409e+06
0.72727 0 0.000283581 0 0 0 0 8.81969e-05 0 2.43595e+06
0.768555 0 0.000334669 0 0 0 0 7.84179e-05 0 2.87479e+06
0.812184 3.78478 0.000394961 1.11557e-06 6 3.8657 1.13942e-06 6.96525e-05 0.0960972 3.39269e+06
0.85829 0 0.000466114 0 0 0 0 6.1805e-05 0 4.00389e+06
0.907013 1.00945 0.000550086 2.13631e-07 24 1.02882 2.1773e-07 5.47875e-05 0.0935824 4.7252e+06
0.958501 5.13883 0.000649185 9.21522e-07 24 4.83783 8.67545e-07 4.85194e-05 0.455828 5.57646e+06
1.01291 0 0.000766138 0 0 0 0 4.29272e-05 0 6.58107e+06
1.07041 0 0.00090416 0 0 0 0 3.79435e-05 0 7.76667e+06
1.13118 4.55458 0.00106705 4.96908e-07 12 4.49864 4.90804e-07 3.3507e-05 0.177959 9.16586e+06
1.19539 4.34725 0.00125928 4.01887e-07 30 4.25764 3.93602e-07 2.9562e-05 0.407841 1.08171e+07
1.26325 10.9764 0.00148614 8.59829e-07 24 10.8113 8.46891e-07 2.60578e-05 0.791928 1.27658e+07
1.33496 19.3204 0.00175387 1.28241e-06 24 19.3629 1.28523e-06 2.29484e-05 1.34118 1.50656e+07
1.41075 16.606 0.00206984 9.33985e-07 32 16.9862 9.55369e-07 2.01923e-05 1.48014 1.77798e+07
1.49083 4.72261 0.00244272 2.2507e-07 48 4.62193 2.20272e-07 1.77518e-05 0.60858 2.09828e+07
1.57546 22.4499 0.00288279 9.06594e-07 6 21.3774 8.63281e-07 1.55929e-05 0.348849 2.4763e+07
1.66489 3.71461 0.00340213 1.27108e-07 84 3.67055 1.256e-07 1.3685e-05 0.7802 2.92241e+07
1.75941 7.53791 0.00401503 2.18561e-07 48 7.53162 2.18378e-07 1.20007e-05 0.874194 3.44889e+07
1.85928 3.40054 0.00473835 8.3547e-08 72 3.40188 8.35798e-08 1.05151e-05 0.572071 4.07021e+07
1.96483 8.11096 0.00559198 1.68856e-07 54 7.89908 1.64445e-07 9.20606e-06 0.99046 4.80347e+07
2.07637 10.8232 0.00659939 1.90925e-07 104 10.9108 1.92471e-07 8.05366e-06 2.46548 5.66883e+07
2.19424 5.57813 0.00778828 8.33791e-08 120 5.64767 8.44185e-08 7.04008e-06 1.42122 6.69008e+07
2.3188 7.46183 0.00919136 9.45096e-08 156 7.26171 9.19749e-08 6.1494e-06 2.39755 7.89532e+07
2.45043 9.07885 0.0108472 9.74368e-08 126 8.97613 9.63344e-08 5.36741e-06 2.28733 9.31768e+07
2.58954 6.63551 0.0128014 6.03432e-08 192 6.68859 6.08258e-08 4.68145e-06 2.47485 1.09963e+08
2.73654 20.2187 0.0151076 1.55801e-07 152 20.5404 1.58279e-07 4.08023e-06 5.80401 1.29773e+08
2.89188 10.8562 0.0178292 7.08849e-08 378 10.9305 7.13702e-08 3.55373e-06 7.53981 1.53152e+08
3.05605 11.1297 0.0210412 6.15773e-08 264 10.9467 6.05652e-08 3.09304e-06 5.25581 1.80743e+08
3.22953 10.4504 0.0248319 4.89932e-08 366 10.3587 4.85629e-08 2.69025e-06 6.66536 2.13304e+08
3.41286 10.9534 0.0293054 4.35124e-08 428 10.7938 4.28783e-08 2.33837e-06 7.96421 2.51731e+08
3.6066 13.1305 0.0345848 4.41984e-08 486 12.9171 4.34801e-08 2.0312e-06 10.5752 2.97081e+08
3.81134 12.0761 0.0408154 3.44441e-08 600 12.0752 3.44415e-08 1.76327e-06 11.7206 3.50601e+08
4.0277 14.7821 0.0481684 3.5726e-08 738 14.6834 3.54876e-08 1.52972e-06 17.2357 4.13763e+08
4.25634 15.9854 0.056846 3.27365e-08 824 15.9699 3.27048e-08 1.32631e-06 20.3384 4.88304e+08
4.49796 17.9728 0.067087 3.1188e-08 954 17.8549 3.09834e-08 1.14926e-06 25.8892 5.76273e+08
4.7533 16.6149 0.0791729 2.44304e-08 1094 16.587 2.43894e-08 9.95263e-07 26.8541 6.8009e+08
5.02313 18.658 0.0934361 2.32466e-08 1332 18.7066 2.33072e-08 8.61414e-07 35.9461 8.0261e+08
5.30828 23.2766 0.110269 2.4574e-08 1614 23.3106 2.461e-08 7.45152e-07 53.2274 9.47202e+08
5.60962 23.244 0.130134 2.07936e-08 1850 23.1823 2.07384e-08 6.44232e-07 59.7117 1.11784e+09
5.92807 23.4637 0.153578 1.7786e-08 2238 23.4123 1.7747e-08 5.56685e-07 71.5036 1.31923e+09
6.26459 24.6046 0.181246 1.58037e-08 2546 24.6628 1.58411e-08 4.80786e-07 83.6885 1.55689e+09
6.62021 25.6503 0.213898 1.39604e-08 3264 25.6944 1.39844e-08 4.15026e-07 109.792 1.83737e+09
6.99602 27.7553 0.252432 1.28e-08 3506 27.7915 1.28168e-08 3.58083e-07 125.326 2.16837e+09
7.39317 28.9016 0.297908 1.1294e-08 4506 28.8992 1.12931e-08 3.08803e-07 164.8 2.55901e+09
7.81286 32.1793 0.351577 1.06553e-08 5018 32.0965 1.06279e-08 2.66181e-07 200.872 3.02002e+09
8.25637 33.5169 0.414914 9.40405e-09 5852 33.4413 9.38286e-09 2.29336e-07 239.964 3.56409e+09
8.72507 35.9396 0.489662 8.5445e-09 7362 35.8783 8.52992e-09 1.97503e-07 318.5 4.20617e+09
9.22037 37.5064 0.577876 7.55581e-09 8306 37.3885 7.53205e-09 1.70014e-07 369.137 4.96392e+09
9.74378 40.0987 0.681982 6.8449e-09 9698 40.0715 6.84026e-09 1.46289e-07 453.772 5.85818e+09
10.2969 43.1251 0.804843 6.23776e-09 11816 43.1106 6.23566e-09 1.25822e-07 585.789 6.91355e+09
10.8814 47.0804 0.949838 5.77034e-09 13682 46.9782 5.75781e-09 1.08175e-07 729.83 8.15905e+09
11.4992 48.2007 1.12095 5.00582e-09 16152 48.1789 5.00356e-09 9.29669e-08 869.709 9.62892e+09
12.1519 50.7471 1.3229 4.46576e-09 19472 50.6402 4.45635e-09 7.98658e-08 1088.79 1.13636e+10
12.8418 53.214 1.56122 3.968e-09 22670 53.0872 3.95855e-09 6.85852e-08 1311.57 1.34108e+10
13.5708 56.357 1.84248 3.56087e-09 26224 56.2919 3.55675e-09 5.88765e-08 1586.03 1.58268e+10
14.3411 61.005 2.17441 3.26614e-09 31640 60.952 3.2633e-09 5.05241e-08 2045.37 1.8678e+10
15.1552 63.1664 2.56613 2.86561e-09 37484 63.0281 2.85934e-09 4.33417e-08 2478.32 2.20429e+10
16.0156 67.9117 3.02843 2.61058e-09 43856 67.8342 2.6076e-09 3.71677e-08 3080.35 2.6014e+10
16.9247 70.7779 3.574 2.30543e-09 51362 70.6974 2.30281e-09 3.18628e-08 3716.3 3.07005e+10
17.8855 73.8737 4.21787 2.03895e-09 61636 73.8022 2.03698e-09 2.73063e-08 4602.33 3.62312e+10
18.9008 78.3893 4.97773 1.83331e-09 72218 78.1986 1.82885e-09 2.33941e-08 5659.45 4.27584e+10
19.9738 83.5627 5.87448 1.65597e-09 84586 83.3939 1.65263e-09 2.00364e-08 6990.88 5.04614e+10
21.1076 87.9157 6.93279 1.47628e-09 100708 87.7811 1.47402e-09 1.71555e-08 8666.2 5.95522e+10
22.3058 92.1774 8.18175 1.31156e-09 118712 92.0228 1.30936e-09 1.46847e-08 10602.8 7.02807e+10
23.5721 96.4477 9.65571 1.16283e-09 140410 96.2477 1.16042e-09 1.25662e-08 12993.1 8.29419e+10
24.9102 101.084 11.3952 1.03269e-09 164374 100.884 1.03065e-09 1.07504e-08 15790 9.78842e+10
26.3243 106.744 13.4481 9.2404e-10 194680 106.581 9.22634e-10 9.19452e-09 19565.2 1.15518e+11
27.8187 112.206 15.8708 8.2305e-10 230196 112.003 8.21562e-10 7.86182e-09 24099.1 1.36329e+11
29.3979 117.541 18.73 7.30574e-10 271156 117.37 7.29506e-10 6.72061e-09 29476.4 1.60889e+11
31.0667 123.796 22.1042 6.51991e-10 321076 123.555 6.50723e-10 5.74366e-09 36446.9 1.89874e+11
32.8303 129.77 26.0864 5.79123e-10 377436 129.517 5.77992e-10 4.90756e-09 44539.8 2.2408e+11
34.694 136.224 30.7859 5.15124e-10 447594 135.975 5.14181e-10 4.19221e-09 54998.8 2.64449e+11
36.6634 143.255 36.3321 4.59019e-10 525078 142.999 4.58196e-10 3.58032e-09 67318.2 3.1209e+11
38.7447 150.428 42.8774 4.08424e-10 621924 150.151 4.07672e-10 3.05709e-09 83088.6 3.68314e+11
40.9442 158.131 50.6018 3.63797e-10 732630 157.859 3.63173e-10 2.60976e-09 102128 4.34667e+11
43.2685 166.434 59.7179 3.24451e-10 865596 166.165 3.23926e-10 2.22743e-09 126084 5.12973e+11
45.7247 174.949 70.4762 2.88988e-10 1.02168e+06 174.666 2.8852e-10 1.90073e-09 155336 6.05386e+11
48.3204 183.856 83.1727 2.5734e-10 1.20544e+06 183.546 2.56906e-10 1.62163e-09 191293 7.14448e+11
51.0634 193.355 98.1565 2.29323e-10 1.42103e+06 193.004 2.28906e-10 1.38326e-09 235585 8.43158e+11
53.9621 204.704 115.84 2.05721e-10 1.67997e+06 204.342 2.05357e-10 1.1797e-09 292960 9.95055e+11
57.0254 216.85 136.709 1.84661e-10 1.98018e+06 216.445 1.84316e-10 1.00592e-09 363510 1.17432e+12
60.2626 230.674 161.337 1.66447e-10 2.33957e+06 230.242 1.66135e-10 8.57591e-10 454078 1.38587e+12
63.6835 245.7 190.402 1.50225e-10 2.75676e+06 245.229 1.49937e-10 7.3101e-10 566525 1.63554e+12
67.2987 262.57 224.704 1.36033e-10 3.25638e+06 262.065 1.35771e-10 6.23009e-10 711026 1.93019e+12
71.1191 282.328 265.185 1.23941e-10 3.84387e+06 281.739 1.23683e-10 5.30879e-10 897407 2.27792e+12
75.1563 304.924 312.958 1.13427e-10 4.53277e+06 304.274 1.13185e-10 4.52303e-10 1.13671e+06 2.68829e+12
79.4227 330.949 369.339 1.04315e-10 5.35083e+06 330.217 1.04084e-10 3.85299e-10 1.44867e+06 3.17259e+12
83.9313 361.451 435.876 9.65377e-11 6.32174e+06 360.615 9.63143e-11 3.28173e-10 1.85965e+06 3.74415e+12
88.6959 396.616 514.4 8.97592e-11 7.44986e+06 395.676 8.95466e-11 2.79476e-10 2.39267e+06 4.41866e+12
93.7309 438.247 607.071 8.40407e-11 8.79764e+06 437.17 8.38342e-11 2.37972e-10 3.10691e+06 5.2147e+12
99.0518 486.977 716.436 7.913e-11 1.03827e+07 485.734 7.8928e-11 2.02605e-10 4.0551e+06 6.15414e+12
104.675 544.456 845.504 7.49647e-11 1.22515e+07 543.021 7.47672e-11 1.72471e-10 5.32514e+06 7.26283e+12
110.617 612.511 997.824 7.14612e-11 1.44573e+07 610.834 7.12656e-11 1.468e-10 7.03771e+06 8.57124e+12
116.896 693.982 1177.58 6.86066e-11 1.70664e+07 692.055 6.84162e-11 1.24935e-10 9.37183e+06 1.01154e+13
123.532 789.138 1389.73 6.61047e-11 2.0139e+07 786.874 6.59151e-11 1.06313e-10 1.25223e+07 1.19377e+13
130.545 903.982 1640.09 6.41654e-11 2.37643e+07 901.308 6.39757e-11 9.04567e-11 1.68572e+07 1.40883e+13
137.955 1039.54 1935.56 6.25238e-11 2.80503e+07 1036.43 6.23365e-11 7.69563e-11 2.27897e+07 1.66263e+13
145.787 1200.85 2284.26 6.12001e-11 3.30981e+07 1197.21 6.10147e-11 6.54636e-11 3.09425e+07 1.96216e+13
154.063 1391.41 2695.77 6.00872e-11 3.90634e+07 1387.1 5.9901e-11 5.56812e-11 4.21545e+07 2.31565e+13
162.808 1618.79 3181.42 5.92351e-11 4.61057e+07 1613.68 5.90482e-11 4.73556e-11 5.76716e+07 2.73282e+13
172.051 1888.94 3754.56 5.85691e-11 5.44046e+07 1882.89 5.83816e-11 4.02708e-11 7.9125e+07 3.22515e+13
181.818 2208.81 4430.96 5.80325e-11 6.42064e+07 2201.69 5.78453e-11 3.42426e-11 1.08814e+08 3.80616e+13
192.139 2590.29 5229.21 5.76664e-11 7.57748e+07 2581.85 5.74785e-11 2.91139e-11 1.50089e+08 4.49186e+13
203.046 3042.56 6171.26 5.73951e-11 8.94213e+07 3032.59 5.7207e-11 2.4751e-11 2.07359e+08 5.30108e+13
214.572 3581.66 7283.03 5.72509e-11 1.05538e+08 3569.8 5.70613e-11 2.10401e-11 2.87174e+08 6.25608e+13
226.753 4225.22 8595.09 5.7228e-11 1.24552e+08 4211.04 5.7036e-11 1.78839e-11 3.98562e+08 7.38313e+13
239.625 4995 10143.5 5.73267e-11 1.46987e+08 4978.12 5.7133e-11 1.51999e-11 5.54365e+08 8.71322e+13
253.228 5919.93 11970.9 5.75705e-11 1.7347e+08 5899.7 5.73737e-11 1.29176e-11 7.7311e+08 1.02829e+14
267.603 7034.35 14127.5 5.79654e-11 2.04703e+08 7010.04 5.77651e-11 1.09771e-11 1.08095e+09 1.21354e+14
282.795 8387.49 16672.6 5.85651e-11 2.4161e+08 8358.1 5.83599e-11 9.3274e-12 1.51702e+09 1.43217e+14
298.848 10044.4 19676.2 5.94285e-11 2.85122e+08 10008.5 5.92156e-11 7.925e-12 2.13809e+09 1.69017e+14
315.813 12104.4 23220.9 6.06838e-11 3.36491e+08 12059.9 6.04609e-11 6.73295e-12 3.03278e+09 1.99466e+14
333.741 14699.5 27404.3 6.24446e-11 3.97115e+08 14643.5 6.22069e-11 5.71979e-12 4.33542e+09 2.35401e+14
352.686 18052.5 32341.2 6.49816e-11 4.68637e+08 17980.7 6.47231e-11 4.85874e-12 6.26763e+09 2.77809e+14
372.707 22506 38167.6 6.86457e-11 5.53074e+08 22411.1 6.83564e-11 4.12703e-12 9.19939e+09 3.27857e+14
393.865 28659.5 45043.5 7.40706e-11 6.52716e+08 28529.1 7.37336e-11 3.50528e-12 1.37926e+10 3.86921e+14
416.224 33843.7 53158.3 7.41169e-11 2.2184e+08 35803.3 7.84084e-11 2.97701e-12 5.52302e+09 4.56626e+14
439.852 0 62734.9 0 0 0 0 2.52819e-12 0 5.38888e+14
464.821 0 74036.7 0 0 0 0 2.1469e-12 0 6.35971e+14
491.207 0 87374.6 0 0 0 0 1.82301e-12 0 7.50542e+14
519.092 0 103115 0 0 0 0 1.54789e-12 0 8.85755e+14
548.56 0 121692 0 0 0 0 1.31422e-12 0 1.04533e+15
579.7 0 143615 0 0 0 0 1.11576e-12 0 1.23364e+15
612.608 0 169488 0 0 0 0 9.47223e-13 0 1.45589e+15
647.384 0 200021 0 0 0 0 8.041e-13 0 1.71817e+15
684.134 0 236056 0 0 0 0 6.82568e-13 0 2.0277e+15
722.971 0 278582 0 0 0 0 5.79376e-13 0 2.393e+15
764.012 0 328769 0 0 0 0 4.91762e-13 0 2.8241e+15
0.526336
200
1.0655e+09
8589934592
0.0129181 0.000873993 1.58924e-09 6.4022e-05 6 0.000865992 6.34359e-05 0.00677225 0.0567214 13.6515
0.0136515 0 1.87554e-09 0 0 0 0 0.00688819 0 16.1108
0.0144264 0 2.21343e-09 0 0 0 0 0.00699249 0 19.0132
0.0152454 0 2.61218e-09 0 0 0 0 0.00708412 0 22.4385
0.0161108 0 3.08278e-09 0 0 0 0 0.00716212 0 26.4808
0.0170254 0 3.63815e-09 0 0 0 0 0.00722559 0 31.2514
0.0179919 0.00305515 4.29357e-09 8.28371e-05 12 0.00305122 8.27304e-05 0.00727371 0.136663 36.8815
0.0190132 0 5.06707e-09 0 0 0 0 0.00730578 0 43.5258
0.0200925 0 5.97991e-09 0 0 0 0 0.00732122 0 51.367
0.0212331 0.0027253 7.05721e-09 4.49564e-05 8 0.00272293 4.49172e-05 0.00731958 0.0491355 60.621
0.0224385 0 8.32858e-09 0 0 0 0 0.00730056 0 71.542
0.0237123 0 9.829e-09 0 0 0 0 0.00726401 0 84.4305
0.0250583 0.00558998 1.15997e-08 5.61013e-05 6 0.00558735 5.60749e-05 0.00720995 0.0466866 99.6408
0.0264808 0 1.36894e-08 0 0 0 0 0.00713857 0 117.591
0.0279841 0.0105046 1.61556e-08 7.56949e-05 24 0.0104938 7.56172e-05 0.00705021 0.257677 138.776
0.0295727 0 1.90661e-08 0 0 0 0 0.00694538 0 163.777
0.0312514 0.00545989 2.25009e-08 2.82484e-05 24 0.00548761 2.83918e-05 0.00682475 0.0993385 193.281
0.0330255 0 2.65545e-08 0 0 0 0 0.00668915 0 228.102
0.0349003 0.0100456 3.13384e-08 3.7317e-05 12 0.00996511 3.70182e-05 0.00653951 0.0684767 269.195
0.0368815 0.0208554 3.69841e-08 6.5647e-05 30 0.0206334 6.49479e-05 0.00637693 0.308834 317.691
0.0389751 0.0241497 4.36469e-08 6.44122e-05 24 0.0239012 6.37496e-05 0.00620256 0.249235 374.924
0.0411876 0.0289209 5.151e-08 6.53628e-05 24 0.0287245 6.49189e-05 0.00601767 0.260683 442.467
0.0435258 0.013166 6.07896e-08 2.52136e-05 8 0.013165 2.52116e-05 0.00582358 0.0346365 522.179
0.0459966 0.0299737 7.1741e-08 4.86388e-05 72 0.0299 4.85192e-05 0.00562166 0.622946 616.251
0.0486077 0 8.46654e-08 0 0 0 0 0.0054133 0 727.27
0.051367 0.0412955 9.99181e-08 4.81137e-05 54 0.0410869 4.78706e-05 0.00519989 0.499652 858.29
0.054283 0.0357043 1.17919e-07 3.52491e-05 60 0.0358345 3.53777e-05 0.0049828 0.424449 1012.91
0.0573645 0.0465464 1.39162e-07 3.89382e-05 96 0.0463341 3.87606e-05 0.00476339 0.78475 1195.39
0.060621 0.0480372 1.64232e-07 3.4051e-05 24 0.0473864 3.35896e-05 0.00454293 0.179889 1410.75
0.0640622 0.0684191 1.93819e-07 4.10951e-05 134 0.0682815 4.10125e-05 0.00432265 1.27393 1664.89
0.0676989 0.0637796 2.28736e-07 3.24606e-05 120 0.063401 3.22679e-05 0.00410371 0.949208 1964.83
0.071542 0.0614867 2.69944e-07 2.65166e-05 108 0.0607038 2.6179e-05 0.00388717 0.736729 2318.8
0.0756032 0.078484 3.18575e-07 2.86801e-05 174 0.0778205 2.84376e-05 0.00367401 1.35828 2736.54
0.079895 0.0756111 3.75967e-07 2.34124e-05 168 0.0748939 2.31903e-05 0.0034651 1.13511 3229.53
0.0844305 0.0965611 4.43698e-07 2.53352e-05 168 0.0970574 2.54654e-05 0.00326121 1.30513 3811.34
0.0892234 0.0961216 5.23632e-07 2.137e-05 290 0.0957853 2.12952e-05 0.00306301 2.02327 4497.96
0.0942883 0.110867 6.17966e-07 2.08857e-05 288 0.111104 2.09302e-05 0.00287109 2.09505 5308.28
0.0996408 0.0994472 7.29294e-07 1.58745e-05 366 0.0985585 1.57326e-05 0.00268591 2.16317 6264.59
0.105297 0.122958 8.60678e-07 1.66313e-05 420 0.122256 1.65363e-05 0.00250785 2.7853 7393.17
0.111275 0.143079 1.01573e-06 1.63986e-05 398 0.142869 1.63745e-05 0.00233721 2.79249 8725.07
0.117591 0.174484 1.19872e-06 1.69453e-05 624 0.175268 1.70214e-05 0.00217419 4.86336 10296.9
0.124267 0.186458 1.41467e-06 1.53439e-05 642 0.18597 1.53037e-05 0.00201893 4.87923 12151.9
0.131321 0.199212 1.66953e-06 1.3891e-05 800 0.199357 1.39011e-05 0.00187147 5.938 14341.1
0.138776 0.217275 1.9703e-06 1.28378e-05 858 0.217684 1.28619e-05 0.00173182 6.36025 16924.7
0.146654 0.229022 2.32525e-06 1.14662e-05 1080 0.2307 1.15502e-05 0.00159991 7.74009 19973.8
0.154979 0.246675 2.74415e-06 1.04647e-05 1286 0.248177 1.05284e-05 0.00147563 9.11989 23572.1
0.163777 0.287043 3.23852e-06 1.03184e-05 1650 0.287459 1.03333e-05 0.00135884 12.5293 27818.7
0.173074 0.278452 3.82195e-06 8.48156e-06 1778 0.278794 8.49197e-06 0.00124933 12.0706 32830.3
0.182899 0.30396 4.51048e-06 7.84519e-06 2112 0.304209 7.85163e-06 0.00114689 14.4469 38744.7
0.193281 0.374804 5.32305e-06 8.19697e-06 2570 0.375364 8.20922e-06 0.00105127 20.0388 45724.7
0.204254 0.361289 6.28202e-06 6.69523e-06 3030 0.361329 6.69597e-06 0.000962209 21.0833 53962.1
0.215848 0.398758 7.41374e-06 6.26155e-06 3434 0.398463 6.25693e-06 0.000879423 24.4503 63683.5
0.228102 0.441948 8.74934e-06 5.88038e-06 4218 0.442468 5.88731e-06 0.000802624 30.9029 75156.3
0.24105 0.475165 1.03256e-05 5.35724e-06 4766 0.475366 5.35951e-06 0.000731515 34.9037 88695.9
0.254734 0.507262 1.21857e-05 4.84608e-06 6026 0.506722 4.84092e-06 0.000665798 43.8609 104675
0.269195 0.560872 1.4381e-05 4.54029e-06 6480 0.5608 4.53971e-06 0.000605173 48.616 123532
0.284476 0.597705 1.69718e-05 4.09986e-06 8162 0.598456 4.10501e-06 0.000549345 60.9145 145787
0.300625 0.676615 2.00293e-05 3.93265e-06 9578 0.676875 3.93416e-06 0.000498021 75.6332 172051
0.317691 0.726375 2.36377e-05 3.57739e-06 11234 0.725952 3.57531e-06 0.000450916 89.126 203046
0.335725 0.768173 2.78961e-05 3.20572e-06 13344 0.76761 3.20338e-06 0.000407755 104.909 239625
0.354784 0.826055 3.29216e-05 2.92104e-06 15464 0.82513 2.91777e-06 0.000368269 122.658 282795
0.374924 0.919747 3.88525e-05 2.75587e-06 18458 0.919183 2.75418e-06 0.000332202 153.124 333741
0.396207 1.01349 4.58519e-05 2.5732e-06 22232 1.0119 2.56916e-06 0.000299307 191.133 393865
0.418699 1.08705 5.41123e-05 2.33865e-06 25628 1.08447 2.33308e-06 0.00026935 222.517 464821
0.442467 1.19372 6.38607e-05 2.1761e-06 30320 1.19068 2.17055e-06 0.000242108 272.521 548560
0.467585 1.31738 7.53654e-05 2.03493e-06 35452 1.31538 2.03183e-06 0.00021737 331.887 647384
0.494129 1.42394 8.89427e-05 1.86377e-06 41792 1.42289 1.86239e-06 0.000194938 399.566 764012
0.522179 1.55975 0.000104966 1.72989e-06 49988 1.55921 1.72928e-06 0.000174625 495.197 901651
0.551822 1.70634 0.000123876 1.60357e-06 59110 1.70394 1.60132e-06 0.000156255 606.62 1.06409e+06
0.583147 1.85778 0.000146192 1.47938e-06 69716 1.85516 1.47729e-06 0.000139664 738.46 1.25578e+06
0.616251 2.05421 0.000172529 1.38609e-06 82210 2.0501 1.38332e-06 0.0001247 913.797 1.48202e+06
0.651234 2.27667 0.000203611 1.3017e-06 96722 2.27177 1.29889e-06 0.00011122 1132.01 1.74901e+06
0.688203 2.5052 0.000240292 1.21371e-06 113098 2.50122 1.21178e-06 9.90935e-05 1385.24 2.06409e+06
0.72727 2.7732 0.000283581 1.13845e-06 135190 2.76909 1.13676e-06 8.81969e-05 1745.04 2.43595e+06
0.768555 3.04348 0.000334669 1.05868e-06 158170 3.03936 1.05725e-06 7.84179e-05 2135.37 2.87479e+06
0.812184 3.36593 0.000394961 9.92114e-07 188560 3.36107 9.90681e-07 6.96525e-05 2685.8 3.39269e+06
0.85829 3.72344 0.000466114 9.29955e-07 220444 3.7169 9.28322e-07 6.1805e-05 3316.93 4.00389e+06
0.907013 4.12323 0.000550086 8.72604e-07 261388 4.11692 8.71268e-07 5.47875e-05 4163.15 4.7252e+06
0.958501 4.59631 0.000649185 8.24234e-07 308244 4.5889 8.22906e-07 4.85194e-05 5236.36 5.57646e+06
1.01291 5.09719 0.000766138 7.74523e-07 364396 5.08816 7.73151e-07 4.29272e-05 6574.69 6.58107e+06
1.07041 5.65022 0.00090416 7.27496e-07 429162 5.63995 7.26174e-07 3.79435e-05 8228.39 7.76667e+06
1.13118 6.26548 0.00106705 6.83567e-07 506358 6.25509 6.82434e-07 3.3507e-05 10330.1 9.16586e+06
1.19539 6.96473 0.00125928 6.43862e-07 598590 6.95127 6.42618e-07 2.9562e-05 13037.3 1.08171e+07
1.26325 7.74522 0.00148614 6.06714e-07 704844 7.73143 6.05634e-07 2.60578e-05 16411.1 1.27658e+07
1.33496 8.5744 0.00175387 5.69136e-07 834620 8.55802 5.68049e-07 2.29484e-05 20699.1 1.50656e+07
1.41075 9.55122 0.00206984 5.37196e-07 981444 9.53236 5.36135e-07 2.01923e-05 26110.4 1.77798e+07
1.49083 10.6125 0.00244272 5.05772e-07 1.15998e+06 10.5935 5.04865e-07 1.77518e-05 33049.3 2.09828e+07
1.57546 11.7469 0.00288279 4.74372e-07 1.36931e+06 11.7253 4.73502e-07 1.55929e-05 41657.7 2.4763e+07
1.66489 13.0694 0.00340213 4.47214e-07 1.61652e+06 13.0442 4.46351e-07 1.3685e-05 52826.2 2.92241e+07
1.75941 14.4623 0.00401503 4.19333e-07 1.90601e+06 14.4344 4.18524e-07 1.20007e-05 66600.4 3.44889e+07
1.85928 16.0153 0.00473835 3.93476e-07 2.24913e+06 15.9846 3.92721e-07 1.05151e-05 84162.5 4.07021e+07
1.96483 17.6744 0.00559198 3.67951e-07 2.65744e+06 17.6398 3.6723e-07 9.20606e-06 106213 4.80347e+07
2.07637 19.5393 0.00659939 3.4468e-07 3.13125e+06 19.502 3.44021e-07 8.05366e-06 134011 5.66883e+07
2.19424 21.4897 0.00778828 3.21217e-07 3.69915e+06 21.4494 3.20614e-07 7.04008e-06 168781 6.69008e+07
2.3188 23.6418 0.00919136 2.99441e-07 4.36472e+06 23.5965 2.98866e-07 6.1494e-06 212537 7.89532e+07
2.45043 25.9264 0.0108472 2.78249e-07 5.14913e+06 25.8784 2.77735e-07 5.36741e-06 266933 9.31768e+07
2.58954 28.3845 0.0128014 2.58128e-07 6.07894e+06 28.3329 2.57659e-07 4.68145e-06 335184 1.09963e+08
2.73654 30.9741 0.0151076 2.38679e-07 7.17304e+06 30.9185 2.38251e-07 4.08023e-06 419597 1.29773e+08
2.89188 33.7436 0.0178292 2.20328e-07 8.46557e+06 33.6832 2.19933e-07 3.55373e-06 524857 1.53152e+08
3.05605 36.6481 0.0210412 2.02764e-07 9.98773e+06 36.5842 2.0241e-07 3.09304e-06 654745 1.80743e+08
3.22953 39.7663 0.0248319 1.8643e-07 1.1797e+07 39.6973 1.86107e-07 2.69025e-06 817514 2.13304e+08
3.41286 42.9875 0.0293054 1.70768e-07 1.39144e+07 42.911 1.70464e-07 2.33837e-06 1.01614e+06 2.51731e+08
3.6066 46.3821 0.0345848 1.56126e-07 1.64163e+07 46.3015 1.55855e-07 2.0312e-06 1.26182e+06 2.97081e+08
3.81134 49.9936 0.0408154 1.42594e-07 1.93821e+07 49.9071 1.42347e-07 1.76327e-06 1.56742e+06 3.50601e+08
4.0277 53.7873 0.0481684 1.29995e-07 2.28754e+07 53.6941 1.2977e-07 1.52972e-06 1.94395e+06 4.13763e+08
4.25634 57.7235 0.056846 1.18212e-07 2.69929e+07 57.6252 1.18011e-07 1.32631e-06 2.40585e+06 4.88304e+08
4.49796 61.8136 0.067087 1.07264e-07 3.18542e+07 61.7091 1.07083e-07 1.14926e-06 2.97307e+06 5.76273e+08
4.7533 66.045 0.0791729 9.71122e-08 3.75892e+07 65.936 9.69519e-08 9.95263e-07 3.66774e+06 6.8009e+08
5.02313 70.4707 0.0934361 8.78019e-08 4.43706e+07 70.3539 8.76564e-08 8.61414e-07 4.52259e+06 8.0261e+08
5.30828 75.1218 0.110269 7.93091e-08 5.23593e+07 74.9959 7.91762e-08 7.45152e-07 5.57278e+06 9.47202e+08
5.60962 79.8626 0.130134 7.14435e-08 6.1787e+07 79.7319 7.13265e-08 6.44232e-07 6.852e+06 1.11784e+09
5.92807 84.8853 0.153578 6.43448e-08 7.29346e+07 84.7452 6.42386e-08 5.56685e-07 8.43019e+06 1.31923e+09
6.26459 90.089 0.181246 5.78648e-08 8.60651e+07 89.9399 5.7769e-08 4.80786e-07 1.03583e+07 1.55689e+09
6.62021 95.5053 0.213898 5.19795e-08 1.01558e+08 95.3491 5.18944e-08 4.15026e-07 1.27195e+07 1.83737e+09
6.99602 101.134 0.252432 4.66404e-08 1.1986e+08 100.969 4.65645e-08 3.58083e-07 1.56118e+07 2.16837e+09
7.39317 107.054 0.297908 4.18341e-08 1.41457e+08 106.879 4.17657e-08 3.08803e-07 1.91634e+07 2.55901e+09
7.81286 113.218 0.351577 3.7489e-08 1.66936e+08 113.034 3.74281e-08 2.66181e-07 2.35113e+07 3.02002e+09
8.25637 119.749 0.414914 3.35987e-08 1.97025e+08 119.553 3.35437e-08 2.29336e-07 2.8865e+07 3.56409e+09
8.72507 126.675 0.489662 3.01164e-08 2.32497e+08 126.465 3.00666e-08 1.97503e-07 3.54525e+07 4.20617e+09
9.22037 134.021 0.577876 2.69991e-08 2.74404e+08 133.798 2.69541e-08 1.70014e-07 4.35768e+07 4.96392e+09
9.74378 142.123 0.681982 2.42606e-08 3.2382e+08 141.88 2.42191e-08 1.46289e-07 5.37023e+07 5.85818e+09
10.2969 151.225 0.804843 2.18737e-08 3.82165e+08 150.956 2.18348e-08 1.25822e-07 6.64376e+07 6.91355e+09
10.8814 162.055 0.949838 1.98621e-08 4.51027e+08 161.747 1.98242e-08 1.08175e-07 8.28129e+07 8.15905e+09
11.4992 175.935 1.12095 1.82715e-08 5.32251e+08 175.561 1.82326e-08 9.29669e-08 1.04607e+08 9.62892e+09
12.1519 195.463 1.3229 1.72008e-08 6.28157e+08 194.972 1.71576e-08 7.98658e-08 1.35287e+08 1.13636e+10
12.8418 217.467 1.56122 1.62159e-08 3.82727e+08 225.086 1.67839e-08 6.85852e-08 9.04895e+07 1.34108e+10
13.5708 0 1.84248 0 0 0 0 5.88765e-08 0 1.58268e+10
14.3411 0 2.17441 0 0 0 0 5.05241e-08 0 1.8678e+10
15.1552 0 2.56613 0 0 0 0 4.33417e-08 0 2.20429e+10
16.0156 0 3.02843 0 0 0 0 3.71677e-08 0 2.6014e+10
16.9247 0 3.574 0 0 0 0 3.18628e-08 0 3.07005e+10
17.8855 0 4.21787 0 0 0 0 2.73063e-08 0 3.62312e+10
18.9008 0 4.97773 0 0 0 0 2.33941e-08 0 4.27584e+10
19.9738 0 5.87448 0 0 0 0 2.00364e-08 0 5.04614e+10
21.1076 0 6.93279 0 0 0 0 1.71555e-08 0 5.95522e+10
22.3058 0 8.18175 0 0 0 0 1.46847e-08 0 7.02807e+10
23.5721 0 9.65571 0 0 0 0 1.25662e-08 0 8.29419e+10
24.9102 0 11.3952 0 0 0 0 1.07504e-08 0 9.78842e+10
26.3243 0 13.4481 0 0 0 0 9.19452e-09 0 1.15518e+11
27.8187 0 15.8708 0 0 0 0 7.86182e-09 0 1.36329e+11
29.3979 0 18.73 0 0 0 0 6.72061e-09 0 1.60889e+11
31.0667 0 22.1042 0 0 0 0 5.74366e-09 0 1.89874e+11
32.8303 0 26.0864 0 0 0 0 4.90756e-09 0 2.2408e+11
34.694 0 30.7859 0 0 0 0 4.19221e-09 0 2.64449e+11
36.6634 0 36.3321 0 0 0 0 3.58032e-09 0 3.1209e+11
38.7447 0 42.8774 0 0 0 0 3.05709e-09 0 3.68314e+11
40.9442 0 50.6018 0 0 0 0 2.60976e-09 0 4.34667e+11
43.2685 0 59.7179 0 0 0 0 2.22743e-09 0 5.12973e+11
45.7247 0 70.4762 0 0 0 0 1.90073e-09 0 6.05386e+11
48.3204 0 83.1727 0 0 0 0 1.62163e-09 0 7.14448e+11
51.0634 0 98.1565 0 0 0 0 1.38326e-09 0 8.43158e+11
53.9621 0 115.84 0 0 0 0 1.1797e-09 0 9.95055e+11
57.0254 0 136.709 0 0 0 0 1.00592e-09 0 1.17432e+12
60.2626 0 161.337 0 0 0 0 8.57591e-10 0 1.38587e+12
63.6835 0 190.402 0 0 0 0 7.3101e-10 0 1.63554e+12
67.2987 0 224.704 0 0 0 0 6.23009e-10 0 1.93019e+12
71.1191 0 265.185 0 0 0 0 5.30879e-10 0 2.27792e+12
75.1563 0 312.958 0 0 0 0 4.52303e-10 0 2.68829e+12
79.4227 0 369.339 0 0 0 0 3.85299e-10 0 3.17259e+12
83.9313 0 435.876 0 0 0 0 3.28173e-10 0 3.74415e+12
88.6959 0 514.4 0 0 0 0 2.79476e-10 0 4.41866e+12
93.7309 0 607.071 0 0 0 0 2.37972e-10 0 5.2147e+12
99.0518 0 716.436 0 0 0 0 2.02605e-10 0 6.15414e+12
104.675 0 845.504 0 0 0 0 1.72471e-10 0 7.26283e+12
110.617 0 997.824 0 0 0 0 1.468e-10 0 8.57124e+12
116.896 0 1177.58 0 0 0 0 1.24935e-10 0 1.01154e+13
123.532 0 1389.73 0 0 0 0 1.06313e-10 0 1.19377e+13
130.545 0 1640.09 0 0 0 0 9.04567e-11 0 1.40883e+13
137.955 0 1935.56 0 0 0 0 7.69563e-11 0 1.66263e+13
145.787 0 2284.26 0 0 0 0 6.54636e-11 0 1.96216e+13
154.063 0 2695.77 0 0 0 0 5.56812e-11 0 2.31565e+13
162.808 0 3181.42 0 0 0 0 4.73556e-11 0 2.73282e+13
172.051 0 3754.56 0 0 0 0 4.02708e-11 0 3.22515e+13
181.818 0 4430.96 0 0 0 0 3.42426e-11 0 3.80616e+13
192.139 0 5229.21 0 0 0 0 2.91139e-11 0 4.49186e+13
203.046 0 6171.26 0 0 0 0 2.4751e-11 0 5.30108e+13
214.572 0 7283.03 0 0 0 0 2.10401e-11 0 6.25608e+13
226.753 0 8595.09 0 0 0 0 1.78839e-11 0 7.38313e+13
239.625 0 10143.5 0 0 0 0 1.51999e-11 0 8.71322e+13
253.228 0 11970.9 0 0 0 0 1.29176e-11 0 1.02829e+14
267.603 0 14127.5 0 0 0 0 1.09771e-11 0 1.21354e+14
282.795 0 16672.6 0 0 0 0 9.3274e-12 0 1.43217e+14
298.848 0 19676.2 0 0 0 0 7.925e-12 0 1.69017e+14
315.813 0 23220.9 0 0 0 0 6.73295e-12 0 1.99466e+14
333.741 0 27404.3 0 0 0 0 5.71979e-12 0 2.35401e+14
352.686 0 32341.2 0 0 0 0 4.85874e-12 0 2.77809e+14
372.707 0 38167.6 0 0 0 0 4.12703e-12 0 3.27857e+14
393.865 0 45043.5 0 0 0 0 3.50528e-12 0 3.86921e+14
416.224 0 53158.3 0 0 0 0 2.97701e-12 0 4.56626e+14
439.852 0 62734.9 0 0 0 0 2.52819e-12 0 5.38888e+14
464.821 0 74036.7 0 0 0 0 2.1469e-12 0 6.35971e+14
491.207 0 87374.6 0 0 0 0 1.82301e-12 0 7.50542e+14
519.092 0 103115 0 0 0 0 1.54789e-12 0 8.85755e+14
548.56 0 121692 0 0 0 0 1.31422e-12 0 1.04533e+15
579.7 0 143615 0 0 0 0 1.11576e-12 0 1.23364e+15
612.608 0 169488 0 0 0 0 9.47223e-13 0 1.45589e+15
647.384 0 200021 0 0 0 0 8.041e-13 0 1.71817e+15
684.134 0 236056 0 0 0 0 6.82568e-13 0 2.0277e+15
722.971 0 278582 0 0 0 0 5.79376e-13 0 2.393e+15
764.012 0 328769 0 0 0 0 4.91762e-13 0 2.8241e+15
