0.260603
200
1.0655e+09
8589934592
0.0129181 0 1.58924e-09 0 0 0 0 0.00677225 0 13.6515
0.0136515 0 1.87554e-09 0 0 0 0 0.00688819 0 16.1108
0.0144264 0 2.21343e-09 0 0 0 0 0.00699249 0 19.0132
0.0152454 0 2.61218e-09 0 0 0 0 0.00708412 0 22.4385
0.0161108 0 3.08278e-09 0 0 0 0 0.00716212 0 26.4808
0.0170254 0 3.63815e-09 0 0 0 0 0.00722559 0 31.2514
0.0179919 0 4.29357e-09 0 0 0 0 0.00727371 0 36.8815
0.0190132 0 5.06707e-09 0 0 0 0 0.00730578 0 43.5258
0.0200925 0 5.97991e-09 0 0 0 0 0.00732122 0 51.367
0.0212331 0 7.05721e-09 0 0 0 0 0.00731958 0 60.621
0.0224385 0 8.32858e-09 0 0 0 0 0.00730056 0 71.542
0.0237123 0 9.829e-09 0 0 0 0 0.00726401 0 84.4305
0.0250583 0 1.15997e-08 0 0 0 0 0.00720995 0 99.6408
0.0264808 0 1.36894e-08 0 0 0 0 0.00713857 0 117.591
0.0279841 0 1.61556e-08 0 0 0 0 0.00705021 0 138.776
0.0295727 0 1.90661e-08 0 0 0 0 0.00694538 0 163.777
0.0312514 0 2.25009e-08 0 0 0 0 0.00682475 0 193.281
0.0330255 0 2.65545e-08 0 0 0 0 0.00668915 0 228.102
0.0349003 0 3.13384e-08 0 0 0 0 0.00653951 0 269.195
0.0368815 0 3.69841e-08 0 0 0 0 0.00637693 0 317.691
0.0389751 0 4.36469e-08 0 0 0 0 0.00620256 0 374.924
0.0411876 0 5.151e-08 0 0 0 0 0.00601767 0 442.467
0.0435258 0 6.07896e-08 0 0 0 0 0.00582358 0 522.179
0.0459966 0 7.1741e-08 0 0 0 0 0.00562166 0 616.251
0.0486077 0 8.46654e-08 0 0 0 0 0.0054133 0 727.27
0.051367 0 9.99181e-08 0 0 0 0 0.00519989 0 858.29
0.054283 0 1.17919e-07 0 0 0 0 0.0049828 0 1012.91
0.0573645 0 1.39162e-07 0 0 0 0 0.00476339 0 1195.39
0.060621 0 1.64232e-07 0 0 0 0 0.00454293 0 1410.75
0.0640622 0 1.93819e-07 0 0 0 0 0.00432265 0 1664.89
0.0676989 0 2.28736e-07 0 0 0 0 0.00410371 0 1964.83
0.071542 0 2.69944e-07 0 0 0 0 0.00388717 0 2318.8
0.0756032 0 3.18575e-07 0 0 0 0 0.00367401 0 2736.54
0.079895 0 3.75967e-07 0 0 0 0 0.0034651 0 3229.53
0.0844305 0 4.43698e-07 0 0 0 0 0.00326121 0 3811.34
0.0892234 0 5.23632e-07 0 0 0 0 0.00306301 0 4497.96
0.0942883 0 6.17966e-07 0 0 0 0 0.00287109 0 5308.28
0.0996408 0 7.29294e-07 0 0 0 0 0.00268591 0 6264.59
0.105297 0 8.60678e-07 0 0 0 0 0.00250785 0 7393.17
0.111275 0 1.01573e-06 0 0 0 0 0.00233721 0 8725.07
0.117591 0 1.19872e-06 0 0 0 0 0.00217419 0 10296.9
0.124267 0 1.41467e-06 0 0 0 0 0.00201893 0 12151.9
0.131321 0 1.66953e-06 0 0 0 0 0.00187147 0 14341.1
0.138776 0 1.9703e-06 0 0 0 0 0.00173182 0 16924.7
0.146654 0 2.32525e-06 0 0 0 0 0.00159991 0 19973.8
0.154979 0 2.74415e-06 0 0 0 0 0.00147563 0 23572.1
0.163777 0 3.23852e-06 0 0 0 0 0.00135884 0 27818.7
0.173074 0 3.82195e-06 0 0 0 0 0.00124933 0 32830.3
0.182899 0 4.51048e-06 0 0 0 0 0.00114689 0 38744.7
0.193281 0 5.32305e-06 0 0 0 0 0.00105127 0 45724.7
0.204254 0 6.28202e-06 0 0 0 0 0.000962209 0 53962.1
0.215848 0 7.41374e-06 0 0 0 0 0.000879423 0 63683.5
0.228102 0 8.74934e-06 0 0 0 0 0.000802624 0 75156.3
0.24105 0 1.03256e-05 0 0 0 0 0.000731515 0 88695.9
0.254734 0 1.21857e-05 0 0 0 0 0.000665798 0 104675
0.269195 0 1.4381e-05 0 0 0 0 0.000605173 0 123532
0.284476 0 1.69718e-05 0 0 0 0 0.000549345 0 145787
0.300625 0 2.00293e-05 0 0 0 0 0.000498021 0 172051
0.317691 0 2.36377e-05 0 0 0 0 0.000450916 0 203046
0.335725 0 2.78961e-05 0 0 0 0 0.000407755 0 239625
0.354784 0 3.29216e-05 0 0 0 0 0.000368269 0 282795
0.374924 0 3.88525e-05 0 0 0 0 0.000332202 0 333741
0.396207 0.800405 4.58519e-05 2.03218e-06 6 0.778153 1.97568e-06 0.000299307 0.0407378 393865
0.418699 0 5.41123e-05 0 0 0 0 0.00026935 0 464821
0.442467 0 6.38607e-05 0 0 0 0 0.000242108 0 548560
0.467585 0 7.53654e-05 0 0 0 0 0.00021737 0 647384
0.494129 0 8.89427e-05 0 0 0 0 0.000194938 0 764012
0.522179 0 0.000104966 0 0 0 0 0.000174625 0 901651
0.551822 0 0.000123876 0 0 0 0 0.000156255 0 1.06409e+06
0.583147 7.05491 0.000146192 5.61794e-06 12 7.42533 5.91291e-06 0.000139664 0.482696 1.25578e+06
0.616251 0 0.000172529 0 0 0 0 0.0001247 0 1.48202e+06
0.651234 0 0.000203611 0 0 0 0 0.00011122 0 1.74901e+06
0.688203 19.0267 0.000240292 9.21797e-06 8 18.5534 8.98864e-06 9.90935e-05 0.744184 2.06409e+06
0.72727 0 0.000283581 0 0 0 0 8.81969e-05 0 2.43595e+06
0.768555 0 0.000334669 0 0 0 0 7.84179e-05 0 2.87479e+06
0.812184 0.378389 0.000394961 1.11531e-07 6 0.386479 1.13915e-07 6.96525e-05 0.00960747 3.39269e+06
0.85829 0 0.000466114 0 0 0 0 6.1805e-05 0 4.00389e+06
0.907013 0.677846 0.000550086 1.43453e-07 24 0.690853 1.46206e-07 5.47875e-05 0.0628407 4.7252e+06
0.958501 2.68539 0.000649185 4.81558e-07 24 2.5281 4.53352e-07 4.85194e-05 0.238202 5.57646e+06
1.01291 0 0.000766138 0 0 0 0 4.29272e-05 0 6.58107e+06
1.07041 0 0.00090416 0 0 0 0 3.79435e-05 0 7.76667e+06
1.13118 1.70751 0.00106705 1.86291e-07 12 1.68654 1.84002e-07 3.3507e-05 0.066717 9.16586e+06
1.19539 1.29295 0.00125928 1.19528e-07 30 1.26629 1.17064e-07 2.9562e-05 0.121299 1.08171e+07
1.26325 9.52194 0.00148614 7.45892e-07 24 9.37866 7.34668e-07 2.60578e-05 0.686988 1.27658e+07
1.33496 17.7634 0.00175387 1.17907e-06 24 17.8025 1.18166e-06 2.29484e-05 1.23309 1.50656e+07
1.41075 8.01222 0.00206984 4.50637e-07 32 8.23462 4.63145e-07 2.01923e-05 0.714152 1.77798e+07
1.49083 1.29183 0.00244272 6.15662e-08 48 1.26429 6.02537e-08 1.77518e-05 0.166472 2.09828e+07
1.57546 0.566763 0.00288279 2.28875e-08 6 0.539686 2.17941e-08 1.55929e-05 0.00880692 2.4763e+07
1.66489 1.14529 0.00340213 3.91901e-08 84 1.10806 3.79161e-08 1.3685e-05 0.240553 2.92241e+07
1.75941 2.71925 0.00401503 7.88442e-08 48 2.72643 7.90524e-08 1.20007e-05 0.315359 3.44889e+07
1.85928 1.01014 0.00473835 2.48179e-08 72 1.01441 2.49227e-08 1.05151e-05 0.169936 4.07021e+07
1.96483 1.99874 0.00559198 4.16103e-08 54 1.96113 4.08274e-08 9.20606e-06 0.244074 4.80347e+07
2.07637 8.35832 0.00659939 1.47444e-07 104 8.3694 1.47639e-07 8.05366e-06 1.904 5.66883e+07
2.19424 1.34798 0.00778828 2.01489e-08 120 1.36047 2.03356e-08 7.04008e-06 0.343444 6.69008e+07
2.3188 2.25247 0.00919136 2.85291e-08 156 2.1705 2.74909e-08 6.1494e-06 0.723737 7.89532e+07
2.45043 2.40956 0.0108472 2.58601e-08 126 2.38593 2.56065e-08 5.36741e-06 0.607065 9.31768e+07
2.58954 1.66022 0.0128014 1.5098e-08 192 1.67078 1.51941e-08 4.68145e-06 0.619213 1.09963e+08
2.73654 7.31999 0.0151076 5.64061e-08 152 7.57489 5.83703e-08 4.08023e-06 2.10128 1.29773e+08
2.89188 4.53155 0.0178292 2.95886e-08 378 4.6173 3.01485e-08 3.55373e-06 3.14725 1.53152e+08
3.05605 2.74815 0.0210412 1.52047e-08 264 2.70761 1.49804e-08 3.09304e-06 1.29777 1.80743e+08
3.22953 1.73293 0.0248319 8.12421e-09 366 1.7253 8.08844e-09 2.69025e-06 1.10527 2.13304e+08
3.41286 2.60163 0.0293054 1.03349e-08 428 2.55279 1.01409e-08 2.33837e-06 1.89164 2.51731e+08
3.6066 5.32905 0.0345848 1.7938e-08 486 5.20627 1.75247e-08 2.0312e-06 4.29198 2.97081e+08
3.81134 2.96251 0.0408154 8.4498e-09 600 2.9741 8.48284e-09 1.76327e-06 2.87528 3.50601e+08
4.0277 3.11084 0.0481684 7.5184e-09 738 3.074 7.42936e-09 1.52972e-06 3.62718 4.13763e+08
4.25634 4.09427 0.056846 8.38468e-09 824 4.1277 8.45314e-09 1.32631e-06 5.20918 4.88304e+08
4.49796 5.50176 0.067087 9.54714e-09 954 5.48772 9.52277e-09 1.14926e-06 7.9251 5.76273e+08
4.7533 3.95028 0.0791729 5.80846e-09 1094 3.92709 5.77436e-09 9.95263e-07 6.3847 6.8009e+08
5.02313 4.13173 0.0934361 5.14787e-09 1332 4.14763 5.16768e-09 8.61414e-07 7.96012 8.0261e+08
5.30828 5.99695 0.110269 6.33122e-09 1614 6.02366 6.35942e-09 7.45152e-07 13.7134 9.47202e+08
5.60962 5.88679 0.130134 5.26621e-09 1850 5.8316 5.21683e-09 6.44232e-07 15.1226 1.11784e+09
5.92807 6.07808 0.153578 4.60731e-09 2238 6.03481 4.57451e-09 5.56685e-07 18.5224 1.31923e+09
6.26459 5.68323 0.181246 3.65038e-09 2546 5.72266 3.6757e-09 4.80786e-07 19.3305 1.55689e+09
6.62021 5.85319 0.213898 3.18564e-09 3264 5.84624 3.18186e-09 4.15026e-07 25.0537 1.83737e+09
6.99602 7.44158 0.252432 3.43187e-09 3506 7.47922 3.44923e-09 3.58083e-07 33.6016 2.16837e+09
7.39317 7.0845 0.297908 2.76845e-09 4506 7.09674 2.77324e-09 3.08803e-07 40.3967 2.55901e+09
7.81286 8.53824 0.351577 2.82721e-09 5018 8.56411 2.83578e-09 2.66181e-07 53.2981 3.02002e+09
8.25637 8.9911 0.414914 2.52269e-09 5852 8.95201 2.51173e-09 2.29336e-07 64.3719 3.56409e+09
8.72507 9.25778 0.489662 2.201e-09 7362 9.21673 2.19124e-09 1.97503e-07 82.0432 4.20617e+09
9.22037 10.3236 0.577876 2.07973e-09 8306 10.2864 2.07224e-09 1.70014e-07 101.605 4.96392e+09
9.74378 10.2495 0.681982 1.7496e-09 9698 10.2354 1.74719e-09 1.46289e-07 115.987 5.85818e+09
10.2969 11.7093 0.804843 1.69367e-09 11816 11.7082 1.69351e-09 1.25822e-07 159.053 6.91355e+09
10.8814 12.6589 0.949838 1.55151e-09 13682 12.648 1.55019e-09 1.08175e-07 196.235 8.15905e+09
11.4992 13.3116 1.12095 1.38247e-09 16152 13.2829 1.37948e-09 9.29669e-08 240.189 9.62892e+09
12.1519 14.2365 1.3229 1.25282e-09 19472 14.2002 1.24962e-09 7.98658e-08 305.449 1.13636e+10
12.8418 14.3903 1.56122 1.07304e-09 22670 14.3593 1.07073e-09 6.85852e-08 354.68 1.34108e+10
13.5708 15.9143 1.84248 1.00553e-09 26224 15.8958 1.00436e-09 5.88765e-08 447.87 1.58268e+10
14.3411 16.9385 2.17441 9.06868e-10 31640 16.9282 9.06316e-10 5.05241e-08 567.913 1.8678e+10
15.1552 18.3592 2.56613 8.32885e-10 37484 18.3326 8.31678e-10 4.33417e-08 720.32 2.20429e+10
16.0156 19.1967 3.02843 7.37939e-10 43856 19.1715 7.36969e-10 3.71677e-08 870.729 2.6014e+10
16.9247 20.9221 3.574 6.81492e-10 51362 20.893 6.80545e-10 3.18628e-08 1098.55 3.07005e+10
17.8855 22.0322 4.21787 6.08101e-10 61636 22.0007 6.0723e-10 2.73063e-08 1372.61 3.62312e+10
18.9008 23.4573 4.97773 5.48602e-10 72218 23.4065 5.47412e-10 2.33941e-08 1693.54 4.27584e+10
19.9738 25.0771 5.87448 4.96955e-10 84586 25.0241 4.95905e-10 2.00364e-08 2097.96 5.04614e+10
21.1076 26.4374 6.93279 4.43936e-10 100708 26.4029 4.43357e-10 1.71555e-08 2606.04 5.95522e+10
22.3058 28.3695 8.18175 4.0366e-10 118712 28.3095 4.02806e-10 1.46847e-08 3263.22 7.02807e+10
23.5721 30.0965 9.65571 3.62862e-10 140410 30.0372 3.62147e-10 1.25662e-08 4054.5 8.29419e+10
24.9102 31.9715 11.3952 3.26626e-10 164374 31.9035 3.25931e-10 1.07504e-08 4994.14 9.78842e+10
26.3243 34.2879 13.4481 2.96818e-10 194680 34.2295 2.96312e-10 9.19452e-09 6284.67 1.15518e+11
27.8187 36.3451 15.8708 2.66598e-10 230196 36.2825 2.66139e-10 7.86182e-09 7806.05 1.36329e+11
29.3979 38.755 18.73 2.4088e-10 271156 38.6838 2.40437e-10 6.72061e-09 9718.76 1.60889e+11
31.0667 41.6686 22.1042 2.19454e-10 321076 41.5892 2.19036e-10 5.74366e-09 12267.7 1.89874e+11
32.8303 44.4761 26.0864 1.98483e-10 377436 44.38 1.98054e-10 4.90756e-09 15265.1 2.2408e+11
34.694 47.7462 30.7859 1.8055e-10 447594 47.6369 1.80136e-10 4.19221e-09 19277 2.64449e+11
36.6634 51.5632 36.3321 1.65219e-10 525078 51.4556 1.64874e-10 3.58032e-09 24230.4 3.1209e+11
38.7447 55.7725 42.8774 1.51427e-10 621924 55.6561 1.51111e-10 3.05709e-09 30805.8 3.68314e+11
40.9442 60.4762 50.6018 1.39132e-10 732630 60.3504 1.38843e-10 2.60976e-09 39058.2 4.34667e+11
43.2685 65.8514 59.7179 1.28372e-10 865596 65.703 1.28083e-10 2.22743e-09 49886.3 5.12973e+11
45.7247 71.902 70.4762 1.1877e-10 1.02168e+06 71.7362 1.18497e-10 1.90073e-09 63841.1 6.05386e+11
48.3204 78.7236 83.1727 1.10188e-10 1.20544e+06 78.5367 1.09926e-10 1.62163e-09 81908 7.14448e+11
51.0634 92.9469 98.1565 1.10237e-10 1.42103e+06 92.5978 1.09823e-10 1.38326e-09 113247 8.43158e+11
53.9621 95.9995 115.84 9.64765e-11 1.67997e+06 95.7633 9.62392e-11 1.1797e-09 137388 9.95055e+11
57.0254 106.842 136.709 9.09826e-11 1.98018e+06 106.572 9.07527e-11 1.00592e-09 179102 1.17432e+12
60.2626 119.545 161.337 8.62597e-11 2.33957e+06 119.239 8.60387e-11 8.57591e-10 235323 1.38587e+12
63.6835 134.036 190.402 8.1952e-11 2.75676e+06 133.678 8.17333e-11 7.3101e-10 309055 1.63554e+12
67.2987 151.351 224.704 7.84123e-11 3.25638e+06 150.944 7.82015e-11 6.23009e-10 409850 1.93019e+12
71.1191 171.549 265.185 7.53094e-11 3.84387e+06 171.066 7.50973e-11 5.30879e-10 545284 2.27792e+12
75.1563 196.308 312.958 7.30233e-11 4.53277e+06 195.684 7.27911e-11 4.52303e-10 731804 2.68829e+12
79.4227 224.261 369.339 7.06869e-11 5.35083e+06 223.625 7.04866e-11 3.85299e-10 981662 3.17259e+12
83.9313 257.481 435.876 6.87688e-11 6.32174e+06 256.706 6.85618e-11 3.28173e-10 1.32472e+06 3.74415e+12
88.6959 297.094 514.4 6.72362e-11 7.44986e+06 296.195 6.70328e-11 2.79476e-10 1.79228e+06 4.41866e+12
93.7309 343.981 607.071 6.59637e-11 8.79764e+06 342.93 6.57622e-11 2.37972e-10 2.43862e+06 5.2147e+12
99.0518 399.394 716.436 6.48984e-11 1.03827e+07 398.16 6.46979e-11 2.02605e-10 3.32578e+06 6.15414e+12
104.675 465.069 845.504 6.40341e-11 1.22515e+07 463.596 6.38314e-11 1.72471e-10 4.54868e+06 7.26283e+12
110.617 542.589 997.824 6.33035e-11 1.44573e+07 540.867 6.31025e-11 1.468e-10 6.23432e+06 8.57124e+12
116.896 634.593 1177.58 6.27355e-11 1.70664e+07 632.573 6.25358e-11 1.24935e-10 8.56983e+06 1.01154e+13
123.532 743.024 1389.73 6.22419e-11 2.0139e+07 740.626 6.2041e-11 1.06313e-10 1.17905e+07 1.19377e+13
130.545 873.538 1640.09 6.20045e-11 2.37643e+07 870.769 6.1808e-11 9.04567e-11 1.62895e+07 1.40883e+13
137.955 1023.75 1935.56 6.15738e-11 2.80503e+07 1020.39 6.1372e-11 7.69563e-11 2.24434e+07 1.66263e+13
145.787 1202.91 2284.26 6.13052e-11 3.30981e+07 1198.96 6.11042e-11 6.54636e-11 3.09956e+07 1.96216e+13
154.063 1417.09 2695.77 6.11963e-11 3.90634e+07 1412.43 6.09951e-11 5.56812e-11 4.29326e+07 2.31565e+13
162.808 1665.86 3181.42 6.09574e-11 4.61057e+07 1660.34 6.07554e-11 4.73556e-11 5.93484e+07 2.73282e+13
172.051 1962.54 3754.56 6.08512e-11 5.44046e+07 1956.05 6.065e-11 4.02708e-11 8.2208e+07 3.22515e+13
181.818 2315.8 4430.96 6.08433e-11 6.42064e+07 2308.08 6.06407e-11 3.42426e-11 1.14084e+08 3.80616e+13
192.139 2732.85 5229.21 6.08401e-11 7.57748e+07 2723.74 6.06373e-11 2.91139e-11 1.58349e+08 4.49186e+13
203.046 3229.78 6171.26 6.09269e-11 8.94213e+07 3218.96 6.07228e-11 2.4751e-11 2.20118e+08 5.30108e+13
214.572 3818.9 7283.03 6.10431e-11 1.05538e+08 3806.09 6.08383e-11 2.10401e-11 3.06196e+08 6.25608e+13
226.753 4521.07 8595.09 6.12352e-11 1.24552e+08 4505.73 6.10274e-11 1.78839e-11 4.2647e+08 7.38313e+13
239.625 5359.48 10143.5 6.15097e-11 1.46987e+08 5341.2 6.12999e-11 1.51999e-11 5.94815e+08 8.71322e+13
253.228 6364.15 11970.9 6.18904e-11 1.7347e+08 6342.21 6.16771e-11 1.29176e-11 8.31123e+08 1.02829e+14
267.603 7573.48 14127.5 6.2408e-11 2.04703e+08 7547.17 6.21912e-11 1.09771e-11 1.16379e+09 1.21354e+14
282.795 9044.09 16672.6 6.31497e-11 2.4161e+08 9012.22 6.29272e-11 9.3274e-12 1.63578e+09 1.43217e+14
298.848 10839.1 19676.2 6.413e-11 2.85122e+08 10800.2 6.38999e-11 7.925e-12 2.30724e+09 1.69017e+14
315.813 13064.9 23220.9 6.54991e-11 3.36491e+08 13016.9 6.52584e-11 6.73295e-12 3.27343e+09 1.99466e+14
333.741 15873.9 27404.3 6.74334e-11 3.97115e+08 15813.4 6.71765e-11 5.71979e-12 4.68178e+09 2.35401e+14
352.686 19488.3 32341.2 7.01501e-11 4.68637e+08 19410.9 6.98716e-11 4.85874e-12 6.76614e+09 2.77809e+14
372.707 24293.4 38167.6 7.40975e-11 5.53074e+08 24191 7.37853e-11 4.12703e-12 9.93e+09 3.27857e+14
393.865 30923.2 45043.5 7.99211e-11 6.52716e+08 30782.8 7.95584e-11 3.50528e-12 1.48821e+10 3.86921e+14
416.224 36489.7 53158.3 7.99116e-11 2.2184e+08 38602.8 8.45391e-11 2.97701e-12 5.95482e+09 4.56626e+14
439.852 0 62734.9 0 0 0 0 2.52819e-12 0 5.38888e+14
464.821 0 74036.7 0 0 0 0 2.1469e-12 0 6.35971e+14
491.207 0 87374.6 0 0 0 0 1.82301e-12 0 7.50542e+14
519.092 0 103115 0 0 0 0 1.54789e-12 0 8.85755e+14
548.56 0 121692 0 0 0 0 1.31422e-12 0 1.04533e+15
579.7 0 143615 0 0 0 0 1.11576e-12 0 1.23364e+15
612.608 0 169488 0 0 0 0 9.47223e-13 0 1.45589e+15
647.384 0 200021 0 0 0 0 8.041e-13 0 1.71817e+15
684.134 0 236056 0 0 0 0 6.82568e-13 0 2.0277e+15
722.971 0 278582 0 0 0 0 5.79376e-13 0 2.393e+15
764.012 0 328769 0 0 0 0 4.91762e-13 0 2.8241e+15
0.260603
200
1.0655e+09
8589934592
0.0129181 0.000235705 1.58924e-09 1.72659e-05 6 0.000233547 1.71078e-05 0.00677225 0.015297 13.6515
0.0136515 0 1.87554e-09 0 0 0 0 0.00688819 0 16.1108
0.0144264 0 2.21343e-09 0 0 0 0 0.00699249 0 19.0132
0.0152454 0 2.61218e-09 0 0 0 0 0.00708412 0 22.4385
0.0161108 0 3.08278e-09 0 0 0 0 0.00716212 0 26.4808
0.0170254 0 3.63815e-09 0 0 0 0 0.00722559 0 31.2514
0.0179919 0.000824231 4.29357e-09 2.23481e-05 12 0.000823169 2.23193e-05 0.00727371 0.0368694 36.8815
0.0190132 0 5.06707e-09 0 0 0 0 0.00730578 0 43.5258
0.0200925 0 5.97991e-09 0 0 0 0 0.00732122 0 51.367
0.0212331 0.000738562 7.05721e-09 1.21833e-05 8 0.000737919 1.21727e-05 0.00731958 0.0133158 60.621
0.0224385 0 8.32858e-09 0 0 0 0 0.00730056 0 71.542
0.0237123 0 9.829e-09 0 0 0 0 0.00726401 0 84.4305
0.0250583 0.00149682 1.15997e-08 1.50221e-05 6 0.00149611 1.50151e-05 0.00720995 0.0125012 99.6408
0.0264808 0 1.36894e-08 0 0 0 0 0.00713857 0 117.591
0.0279841 0.00282347 1.61556e-08 2.03456e-05 24 0.00282058 2.03247e-05 0.00705021 0.0692595 138.776
0.0295727 0 1.90661e-08 0 0 0 0 0.00694538 0 163.777
0.0312514 0.00149267 2.25009e-08 7.72277e-06 24 0.00150025 7.76198e-06 0.00682475 0.027158 193.281
0.0330255 0 2.65545e-08 0 0 0 0 0.00668915 0 228.102
0.0349003 0.00264308 3.13384e-08 9.81848e-06 12 0.00262192 9.73986e-06 0.00653951 0.0180169 269.195
0.0368815 0.00569464 3.69841e-08 1.79251e-05 30 0.005634 1.77342e-05 0.00637693 0.0843279 317.691
0.0389751 0.0064905 4.36469e-08 1.73115e-05 24 0.00642373 1.71334e-05 0.00620256 0.0669847 374.924
0.0411876 0.00798641 5.151e-08 1.80497e-05 24 0.00793217 1.79271e-05 0.00601767 0.0719869 442.467
0.0435258 0.00357195 6.07896e-08 6.84046e-06 8 0.00357167 6.83994e-06 0.00582358 0.00939692 522.179
0.0459966 0.00821153 7.1741e-08 1.3325e-05 72 0.00819124 1.32921e-05 0.00562166 0.170661 616.251
0.0486077 0 8.46654e-08 0 0 0 0 0.0054133 0 727.27
0.051367 0.0112761 9.99181e-08 1.31379e-05 54 0.0112184 1.30706e-05 0.00519989 0.136435 858.29
0.054283 0.00974815 1.17919e-07 9.62388e-06 60 0.00978447 9.65973e-06 0.0049828 0.115885 1012.91
0.0573645 0.0127368 1.39162e-07 1.06549e-05 96 0.0126807 1.0608e-05 0.00476339 0.214736 1195.39
0.060621 0.0135553 1.64232e-07 9.60863e-06 24 0.0133717 9.47845e-06 0.00454293 0.0507618 1410.75
0.0640622 0.0185813 1.93819e-07 1.11607e-05 134 0.018539 1.11352e-05 0.00432265 0.345975 1664.89
0.0676989 0.0173764 2.28736e-07 8.84371e-06 120 0.0172749 8.79205e-06 0.00410371 0.258606 1964.83
0.071542 0.0165115 2.69944e-07 7.12069e-06 108 0.0162998 7.02942e-06 0.00388717 0.197839 2318.8
0.0756032 0.0214471 3.18575e-07 7.83732e-06 174 0.0212586 7.76842e-06 0.00367401 0.371173 2736.54
0.079895 0.0206687 3.75967e-07 6.3999e-06 168 0.0204679 6.33774e-06 0.0034651 0.31029 3229.53
0.0844305 0.0260041 4.43698e-07 6.82283e-06 168 0.0261363 6.8575e-06 0.00326121 0.351476 3811.34
0.0892234 0.0263269 5.23632e-07 5.85307e-06 290 0.026229 5.8313e-06 0.00306301 0.554157 4497.96
0.0942883 0.0307483 6.17966e-07 5.79251e-06 288 0.0308226 5.80651e-06 0.00287109 0.581049 5308.28
0.0996408 0.0263723 7.29294e-07 4.20974e-06 366 0.0261459 4.17361e-06 0.00268591 0.573647 6264.59
0.105297 0.0331173 8.60678e-07 4.47944e-06 420 0.0329357 4.45488e-06 0.00250785 0.75019 7393.17
0.111275 0.0395507 1.01573e-06 4.533e-06 398 0.0394799 4.52488e-06 0.00233721 0.771916 8725.07
0.117591 0.0464208 1.19872e-06 4.50822e-06 624 0.0466343 4.52896e-06 0.00217419 1.29387 10296.9
0.124267 0.0488649 1.41467e-06 4.02116e-06 642 0.0487394 4.01084e-06 0.00201893 1.27869 12151.9
0.131321 0.0524877 1.66953e-06 3.65994e-06 800 0.0525161 3.66192e-06 0.00187147 1.56452 14341.1
0.138776 0.0593602 1.9703e-06 3.5073e-06 858 0.0594823 3.51452e-06 0.00173182 1.73764 16924.7
0.146654 0.060891 2.32525e-06 3.04855e-06 1080 0.0613306 3.07056e-06 0.00159991 2.05789 19973.8
0.154979 0.0648879 2.74415e-06 2.75274e-06 1286 0.0652761 2.76921e-06 0.00147563 2.39899 23572.1
0.163777 0.0743238 3.23852e-06 2.67173e-06 1650 0.0744154 2.67502e-06 0.00135884 3.2442 27818.7
0.173074 0.070357 3.82195e-06 2.14305e-06 1778 0.0704498 2.14588e-06 0.00124933 3.04991 32830.3
0.182899 0.0783119 4.51048e-06 2.02123e-06 2112 0.0784322 2.02433e-06 0.00114689 3.72209 38744.7
0.193281 0.0975083 5.32305e-06 2.13251e-06 2570 0.0975842 2.13417e-06 0.00105127 5.21325 45724.7
0.204254 0.0909541 6.28202e-06 1.68552e-06 3030 0.090986 1.68611e-06 0.000962209 5.3077 53962.1
0.215848 0.0976236 7.41374e-06 1.53295e-06 3434 0.0975557 1.53188e-06 0.000879423 5.98591 63683.5
0.228102 0.109134 8.74934e-06 1.45209e-06 4218 0.10924 1.45351e-06 0.000802624 7.6311 75156.3
0.24105 0.114788 1.03256e-05 1.29418e-06 4766 0.114808 1.2944e-06 0.000731515 8.43187 88695.9
0.254734 0.123439 1.21857e-05 1.17926e-06 6026 0.123328 1.1782e-06 0.000665798 10.6732 104675
0.269195 0.133584 1.4381e-05 1.08137e-06 6480 0.133649 1.0819e-06 0.000605173 11.579 123532
0.284476 0.140071 1.69718e-05 9.60792e-07 8162 0.140262 9.62106e-07 0.000549345 14.2752 145787
0.300625 0.152661 2.00293e-05 8.87301e-07 9578 0.152718 8.87634e-07 0.000498021 17.0647 172051
0.317691 0.162499 2.36377e-05 8.00306e-07 11234 0.162508 8.0035e-07 0.000450916 19.9386 203046
0.335725 0.171824 2.78961e-05 7.17051e-07 13344 0.171633 7.16256e-07 0.000407755 23.4659 239625
0.354784 0.179388 3.29216e-05 6.34341e-07 15464 0.179211 6.33714e-07 0.000368269 26.6366 282795
0.374924 0.195705 3.88525e-05 5.86399e-07 18458 0.195646 5.86223e-07 0.000332202 32.5819 333741
0.396207 0.211587 4.58519e-05 5.37208e-07 22232 0.211253 5.36359e-07 0.000299307 39.9029 393865
0.418699 0.221153 5.41123e-05 4.75781e-07 25628 0.220648 4.74696e-07 0.00026935 45.2694 464821
0.442467 0.236515 6.38607e-05 4.31156e-07 30320 0.235939 4.30107e-07 0.000242108 53.9952 548560
0.467585 0.251627 7.53654e-05 3.88683e-07 35452 0.251333 3.88228e-07 0.00021737 63.3922 647384
0.494129 0.266648 8.89427e-05 3.49011e-07 41792 0.266575 3.48915e-07 0.000194938 74.823 764012
0.522179 0.287354 0.000104966 3.18697e-07 49988 0.287412 3.18761e-07 0.000174625 91.2301 901651
0.551822 0.308894 0.000123876 2.90291e-07 59110 0.308592 2.90007e-07 0.000156255 109.815 1.06409e+06
0.583147 0.327099 0.000146192 2.60474e-07 69716 0.326666 2.60129e-07 0.000139664 130.021 1.25578e+06
0.616251 0.355386 0.000172529 2.39799e-07 82210 0.354838 2.39429e-07 0.0001247 158.09 1.48202e+06
0.651234 0.38075 0.000203611 2.17695e-07 96722 0.379986 2.17258e-07 0.00011122 189.317 1.74901e+06
0.688203 0.40691 0.000240292 1.97138e-07 113098 0.406424 1.96902e-07 9.90935e-05 224.998 2.06409e+06
0.72727 0.433993 0.000283581 1.78162e-07 135190 0.433517 1.77967e-07 8.81969e-05 273.09 2.43595e+06
0.768555 0.461974 0.000334669 1.60699e-07 158170 0.461364 1.60486e-07 7.84179e-05 324.131 2.87479e+06
0.812184 0.49506 0.000394961 1.4592e-07 188560 0.494472 1.45746e-07 6.96525e-05 395.027 3.39269e+06
0.85829 0.533849 0.000466114 1.33333e-07 220444 0.533002 1.33121e-07 6.1805e-05 475.567 4.00389e+06
0.907013 0.572041 0.000550086 1.21062e-07 261388 0.57132 1.20909e-07 5.47875e-05 577.578 4.7252e+06
0.958501 0.616049 0.000649185 1.10473e-07 308244 0.615265 1.10333e-07 4.85194e-05 701.836 5.57646e+06
1.01291 0.661293 0.000766138 1.00484e-07 364396 0.66027 1.00329e-07 4.29272e-05 852.979 6.58107e+06
1.07041 0.712348 0.00090416 9.17185e-08 429162 0.711195 9.15701e-08 3.79435e-05 1037.39 7.76667e+06
1.13118 0.766065 0.00106705 8.3578e-08 506358 0.764937 8.34551e-08 3.3507e-05 1263.03 9.16586e+06
1.19539 0.823894 0.00125928 7.61658e-08 598590 0.822647 7.60505e-08 2.9562e-05 1542.25 1.08171e+07
1.26325 0.892077 0.00148614 6.988e-08 704844 0.890743 6.97755e-08 2.60578e-05 1890.2 1.27658e+07
1.33496 0.962771 0.00175387 6.39051e-08 834620 0.961196 6.38005e-08 2.29484e-05 2324.19 1.50656e+07
1.41075 1.04016 0.00206984 5.85025e-08 981444 1.03847 5.84072e-08 2.01923e-05 2843.51 1.77798e+07
1.49083 1.13145 0.00244272 5.39229e-08 1.15998e+06 1.12976 5.38421e-08 1.77518e-05 3523.55 2.09828e+07
1.57546 1.2274 0.00288279 4.95659e-08 1.36931e+06 1.22539 4.94847e-08 1.55929e-05 4352.7 2.4763e+07
1.66489 1.33006 0.00340213 4.55126e-08 1.61652e+06 1.3277 4.54318e-08 1.3685e-05 5376.09 2.92241e+07
1.75941 1.44882 0.00401503 4.20084e-08 1.90601e+06 1.44623 4.19331e-08 1.20007e-05 6671.98 3.44889e+07
1.85928 1.57546 0.00473835 3.87071e-08 2.24913e+06 1.57271 3.86396e-08 1.05151e-05 8279.24 4.07021e+07
1.96483 1.71712 0.00559198 3.57475e-08 2.65744e+06 1.71401 3.56827e-08 9.20606e-06 10318.9 4.80347e+07
2.07637 1.86991 0.00659939 3.29858e-08 3.13125e+06 1.86649 3.29255e-08 8.05366e-06 12824.8 5.66883e+07
2.19424 2.04647 0.00778828 3.05896e-08 3.69915e+06 2.04282 3.05351e-08 7.04008e-06 16073.1 6.69008e+07
2.3188 2.23604 0.00919136 2.8321e-08 4.36472e+06 2.23192 2.82689e-08 6.1494e-06 20101.7 7.89532e+07
2.45043 2.45021 0.0108472 2.62963e-08 5.14913e+06 2.44568 2.62477e-08 5.36741e-06 25226.9 9.31768e+07
2.58954 2.68564 0.0128014 2.44232e-08 6.07894e+06 2.68059 2.43773e-08 4.68145e-06 31713.8 1.09963e+08
2.73654 2.94176 0.0151076 2.26685e-08 7.17304e+06 2.93624 2.2626e-08 4.08023e-06 39851.2 1.29773e+08
2.89188 3.22561 0.0178292 2.10615e-08 8.46557e+06 3.21949 2.10216e-08 3.55373e-06 50172 1.53152e+08
3.05605 3.54635 0.0210412 1.9621e-08 9.98773e+06 3.53952 1.95832e-08 3.09304e-06 63358 1.80743e+08
3.22953 3.89506 0.0248319 1.82606e-08 1.1797e+07 3.88757 1.82255e-08 2.69025e-06 80074.4 2.13304e+08
3.41286 4.28206 0.0293054 1.70105e-08 1.39144e+07 4.27355 1.69766e-08 2.33837e-06 101220 2.51731e+08
3.6066 4.70901 0.0345848 1.58509e-08 1.64163e+07 4.69973 1.58197e-08 2.0312e-06 128108 2.97081e+08
3.81134 5.17958 0.0408154 1.47734e-08 1.93821e+07 5.16954 1.47448e-08 1.76327e-06 162392 3.50601e+08
4.0277 5.69518 0.0481684 1.37643e-08 2.28754e+07 5.68402 1.37374e-08 1.52972e-06 205831 4.13763e+08
4.25634 6.25781 0.056846 1.28154e-08 2.69929e+07 6.24526 1.27897e-08 1.32631e-06 260818 4.88304e+08
4.49796 6.87453 0.067087 1.19293e-08 3.18542e+07 6.86065 1.19052e-08 1.14926e-06 330647 5.76273e+08
4.7533 7.5493 0.0791729 1.11004e-08 3.75892e+07 7.53438 1.10785e-08 9.95263e-07 419243 6.8009e+08
5.02313 8.27838 0.0934361 1.03143e-08 4.43706e+07 8.2618 1.02937e-08 8.61414e-07 531281 8.0261e+08
5.30828 9.07673 0.110269 9.58267e-09 5.23593e+07 9.05849 9.56341e-09 7.45152e-07 673341 9.47202e+08
5.60962 9.93812 0.130134 8.89044e-09 6.1787e+07 9.91827 8.87268e-09 6.44232e-07 852665 1.11784e+09
5.92807 10.8638 0.153578 8.23499e-09 7.29346e+07 10.8422 8.21858e-09 5.56685e-07 1.07891e+06 1.31923e+09
6.26459 11.8631 0.181246 7.61974e-09 8.60651e+07 11.8394 7.60453e-09 4.80786e-07 1.364e+06 1.55689e+09
6.62021 12.9312 0.213898 7.03788e-09 1.01558e+08 12.9055 7.02391e-09 4.15026e-07 1.72219e+06 1.83737e+09
6.99602 14.0792 0.252432 6.49297e-09 1.1986e+08 14.0514 6.48018e-09 3.58083e-07 2.17337e+06 2.16837e+09
7.39317 15.3009 0.297908 5.97921e-09 1.41457e+08 15.271 5.96754e-09 3.08803e-07 2.73896e+06 2.55901e+09
7.81286 16.6111 0.351577 5.50034e-09 1.66936e+08 16.579 5.4897e-09 2.66181e-07 3.44955e+06 3.02002e+09
8.25637 18.003 0.414914 5.05121e-09 1.97025e+08 17.968 5.0414e-09 2.29336e-07 4.33955e+06 3.56409e+09
8.72507 19.4909 0.489662 4.63388e-09 2.32497e+08 19.453 4.62487e-09 1.97503e-07 5.45491e+06 4.20617e+09
9.22037 21.1087 0.577876 4.25242e-09 2.74404e+08 21.0675 4.24412e-09 1.70014e-07 6.86344e+06 4.96392e+09
9.74378 22.887 0.681982 3.90684e-09 3.2382e+08 22.8415 3.89907e-09 1.46289e-07 8.64805e+06 5.85818e+09
10.2969 24.8932 0.804843 3.60064e-09 3.82165e+08 24.8422 3.59326e-09 1.25822e-07 1.09363e+07 6.91355e+09
10.8814 27.2591 0.949838 3.34096e-09 4.51027e+08 27.1997 3.33369e-09 1.08175e-07 1.39298e+07 8.15905e+09
11.4992 30.2366 1.12095 3.14019e-09 5.32251e+08 30.1642 3.13267e-09 9.29669e-08 1.79781e+07 9.62892e+09
12.1519 34.3141 1.3229 3.01965e-09 6.28157e+08 34.2194 3.01132e-09 7.98658e-08 2.375e+07 1.13636e+10
12.8418 38.7251 1.56122 2.88761e-09 3.82727e+08 40.079 2.98857e-09 6.85852e-08 1.61138e+07 1.34108e+10
13.5708 0 1.84248 0 0 0 0 5.88765e-08 0 1.58268e+10
14.3411 0 2.17441 0 0 0 0 5.05241e-08 0 1.8678e+10
15.1552 0 2.56613 0 0 0 0 4.33417e-08 0 2.20429e+10
16.0156 0 3.02843 0 0 0 0 3.71677e-08 0 2.6014e+10
16.9247 0 3.574 0 0 0 0 3.18628e-08 0 3.07005e+10
17.8855 0 4.21787 0 0 0 0 2.73063e-08 0 3.62312e+10
18.9008 0 4.97773 0 0 0 0 2.33941e-08 0 4.27584e+10
19.9738 0 5.87448 0 0 0 0 2.00364e-08 0 5.04614e+10
21.1076 0 6.93279 0 0 0 0 1.71555e-08 0 5.95522e+10
22.3058 0 8.18175 0 0 0 0 1.46847e-08 0 7.02807e+10
23.5721 0 9.65571 0 0 0 0 1.25662e-08 0 8.29419e+10
24.9102 0 11.3952 0 0 0 0 1.07504e-08 0 9.78842e+10
26.3243 0 13.4481 0 0 0 0 9.19452e-09 0 1.15518e+11
27.8187 0 15.8708 0 0 0 0 7.86182e-09 0 1.36329e+11
29.3979 0 18.73 0 0 0 0 6.72061e-09 0 1.60889e+11
31.0667 0 22.1042 0 0 0 0 5.74366e-09 0 1.89874e+11
32.8303 0 26.0864 0 0 0 0 4.90756e-09 0 2.2408e+11
34.694 0 30.7859 0 0 0 0 4.19221e-09 0 2.64449e+11
36.6634 0 36.3321 0 0 0 0 3.58032e-09 0 3.1209e+11
38.7447 0 42.8774 0 0 0 0 3.05709e-09 0 3.68314e+11
40.9442 0 50.6018 0 0 0 0 2.60976e-09 0 4.34667e+11
43.2685 0 59.7179 0 0 0 0 2.22743e-09 0 5.12973e+11
45.7247 0 70.4762 0 0 0 0 1.90073e-09 0 6.05386e+11
48.3204 0 83.1727 0 0 0 0 1.62163e-09 0 7.14448e+11
51.0634 0 98.1565 0 0 0 0 1.38326e-09 0 8.43158e+11
53.9621 0 115.84 0 0 0 0 1.1797e-09 0 9.95055e+11
57.0254 0 136.709 0 0 0 0 1.00592e-09 0 1.17432e+12
60.2626 0 161.337 0 0 0 0 8.57591e-10 0 1.38587e+12
63.6835 0 190.402 0 0 0 0 7.3101e-10 0 1.63554e+12
67.2987 0 224.704 0 0 0 0 6.23009e-10 0 1.93019e+12
71.1191 0 265.185 0 0 0 0 5.30879e-10 0 2.27792e+12
75.1563 0 312.958 0 0 0 0 4.52303e-10 0 2.68829e+12
79.4227 0 369.339 0 0 0 0 3.85299e-10 0 3.17259e+12
83.9313 0 435.876 0 0 0 0 3.28173e-10 0 3.74415e+12
88.6959 0 514.4 0 0 0 0 2.79476e-10 0 4.41866e+12
93.7309 0 607.071 0 0 0 0 2.37972e-10 0 5.2147e+12
99.0518 0 716.436 0 0 0 0 2.02605e-10 0 6.15414e+12
104.675 0 845.504 0 0 0 0 1.72471e-10 0 7.26283e+12
110.617 0 997.824 0 0 0 0 1.468e-10 0 8.57124e+12
116.896 0 1177.58 0 0 0 0 1.24935e-10 0 1.01154e+13
123.532 0 1389.73 0 0 0 0 1.06313e-10 0 1.19377e+13
130.545 0 1640.09 0 0 0 0 9.04567e-11 0 1.40883e+13
137.955 0 1935.56 0 0 0 0 7.69563e-11 0 1.66263e+13
145.787 0 2284.26 0 0 0 0 6.54636e-11 0 1.96216e+13
154.063 0 2695.77 0 0 0 0 5.56812e-11 0 2.31565e+13
162.808 0 3181.42 0 0 0 0 4.73556e-11 0 2.73282e+13
172.051 0 3754.56 0 0 0 0 4.02708e-11 0 3.22515e+13
181.818 0 4430.96 0 0 0 0 3.42426e-11 0 3.80616e+13
192.139 0 5229.21 0 0 0 0 2.91139e-11 0 4.49186e+13
203.046 0 6171.26 0 0 0 0 2.4751e-11 0 5.30108e+13
214.572 0 7283.03 0 0 0 0 2.10401e-11 0 6.25608e+13
226.753 0 8595.09 0 0 0 0 1.78839e-11 0 7.38313e+13
239.625 0 10143.5 0 0 0 0 1.51999e-11 0 8.71322e+13
253.228 0 11970.9 0 0 0 0 1.29176e-11 0 1.02829e+14
267.603 0 14127.5 0 0 0 0 1.09771e-11 0 1.21354e+14
282.795 0 16672.6 0 0 0 0 9.3274e-12 0 1.43217e+14
298.848 0 19676.2 0 0 0 0 7.925e-12 0 1.69017e+14
315.813 0 23220.9 0 0 0 0 6.73295e-12 0 1.99466e+14
333.741 0 27404.3 0 0 0 0 5.71979e-12 0 2.35401e+14
352.686 0 32341.2 0 0 0 0 4.85874e-12 0 2.77809e+14
372.707 0 38167.6 0 0 0 0 4.12703e-12 0 3.27857e+14
393.865 0 45043.5 0 0 0 0 3.50528e-12 0 3.86921e+14
416.224 0 53158.3 0 0 0 0 2.97701e-12 0 4.56626e+14
439.852 0 62734.9 0 0 0 0 2.52819e-12 0 5.38888e+14
464.821 0 74036.7 0 0 0 0 2.1469e-12 0 6.35971e+14
491.207 0 87374.6 0 0 0 0 1.82301e-12 0 7.50542e+14
519.092 0 103115 0 0 0 0 1.54789e-12 0 8.85755e+14
548.56 0 121692 0 0 0 0 1.31422e-12 0 1.04533e+15
579.7 0 143615 0 0 0 0 1.11576e-12 0 1.23364e+15
612.608 0 169488 0 0 0 0 9.47223e-13 0 1.45589e+15
647.384 0 200021 0 0 0 0 8.041e-13 0 1.71817e+15
684.134 0 236056 0 0 0 0 6.82568e-13 0 2.0277e+15
722.971 0 278582 0 0 0 0 5.79376e-13 0 2.393e+15
764.012 0 328769 0 0 0 0 4.91762e-13 0 2.8241e+15
