0.180593
200
1.0655e+09
8589934592
0.0129181 0 1.58924e-09 0 0 0 0 0.00677225 0 13.6515
0.0136515 0 1.87554e-09 0 0 0 0 0.00688819 0 16.1108
0.0144264 0 2.21343e-09 0 0 0 0 0.00699249 0 19.0132
0.0152454 0 2.61218e-09 0 0 0 0 0.00708412 0 22.4385
0.0161108 0 3.08278e-09 0 0 0 0 0.00716212 0 26.4808
0.0170254 0 3.63815e-09 0 0 0 0 0.00722559 0 31.2514
0.0179919 0 4.29357e-09 0 0 0 0 0.00727371 0 36.8815
0.0190132 0 5.06707e-09 0 0 0 0 0.00730578 0 43.5258
0.0200925 0 5.97991e-09 0 0 0 0 0.00732122 0 51.367
0.0212331 0 7.05721e-09 0 0 0 0 0.00731958 0 60.621
0.0224385 0 8.32858e-09 0 0 0 0 0.00730056 0 71.542
0.0237123 0 9.829e-09 0 0 0 0 0.00726401 0 84.4305
0.0250583 0 1.15997e-08 0 0 0 0 0.00720995 0 99.6408
0.0264808 0 1.36894e-08 0 0 0 0 0.00713857 0 117.591
0.0279841 0 1.61556e-08 0 0 0 0 0.00705021 0 138.776
0.0295727 0 1.90661e-08 0 0 0 0 0.00694538 0 163.777
0.0312514 0 2.25009e-08 0 0 0 0 0.00682475 0 193.281
0.0330255 0 2.65545e-08 0 0 0 0 0.00668915 0 228.102
0.0349003 0 3.13384e-08 0 0 0 0 0.00653951 0 269.195
0.0368815 0 3.69841e-08 0 0 0 0 0.00637693 0 317.691
0.0389751 0 4.36469e-08 0 0 0 0 0.00620256 0 374.924
0.0411876 0 5.151e-08 0 0 0 0 0.00601767 0 442.467
0.0435258 0 6.07896e-08 0 0 0 0 0.00582358 0 522.179
0.0459966 0 7.1741e-08 0 0 0 0 0.00562166 0 616.251
0.0486077 0 8.46654e-08 0 0 0 0 0.0054133 0 727.27
0.051367 0 9.99181e-08 0 0 0 0 0.00519989 0 858.29
0.054283 0 1.17919e-07 0 0 0 0 0.0049828 0 1012.91
0.0573645 0 1.39162e-07 0 0 0 0 0.00476339 0 1195.39
0.060621 0 1.64232e-07 0 0 0 0 0.00454293 0 1410.75
0.0640622 0 1.93819e-07 0 0 0 0 0.00432265 0 1664.89
0.0676989 0 2.28736e-07 0 0 0 0 0.00410371 0 1964.83
0.071542 0 2.69944e-07 0 0 0 0 0.00388717 0 2318.8
0.0756032 0 3.18575e-07 0 0 0 0 0.00367401 0 2736.54
0.079895 0 3.75967e-07 0 0 0 0 0.0034651 0 3229.53
0.0844305 0 4.43698e-07 0 0 0 0 0.00326121 0 3811.34
0.0892234 0 5.23632e-07 0 0 0 0 0.00306301 0 4497.96
0.0942883 0 6.17966e-07 0 0 0 0 0.00287109 0 5308.28
0.0996408 0 7.29294e-07 0 0 0 0 0.00268591 0 6264.59
0.105297 0 8.60678e-07 0 0 0 0 0.00250785 0 7393.17
0.111275 0 1.01573e-06 0 0 0 0 0.00233721 0 8725.07
0.117591 0 1.19872e-06 0 0 0 0 0.00217419 0 10296.9
0.124267 0 1.41467e-06 0 0 0 0 0.00201893 0 12151.9
0.131321 0 1.66953e-06 0 0 0 0 0.00187147 0 14341.1
0.138776 0 1.9703e-06 0 0 0 0 0.00173182 0 16924.7
0.146654 0 2.32525e-06 0 0 0 0 0.00159991 0 19973.8
0.154979 0 2.74415e-06 0 0 0 0 0.00147563 0 23572.1
0.163777 0 3.23852e-06 0 0 0 0 0.00135884 0 27818.7
0.173074 0 3.82195e-06 0 0 0 0 0.00124933 0 32830.3
0.182899 0 4.51048e-06 0 0 0 0 0.00114689 0 38744.7
0.193281 0 5.32305e-06 0 0 0 0 0.00105127 0 45724.7
0.204254 0 6.28202e-06 0 0 0 0 0.000962209 0 53962.1
0.215848 0 7.41374e-06 0 0 0 0 0.000879423 0 63683.5
0.228102 0 8.74934e-06 0 0 0 0 0.000802624 0 75156.3
0.24105 0 1.03256e-05 0 0 0 0 0.000731515 0 88695.9
0.254734 0 1.21857e-05 0 0 0 0 0.000665798 0 104675
0.269195 0 1.4381e-05 0 0 0 0 0.000605173 0 123532
0.284476 0 1.69718e-05 0 0 0 0 0.000549345 0 145787
0.300625 0 2.00293e-05 0 0 0 0 0.000498021 0 172051
0.317691 0 2.36377e-05 0 0 0 0 0.000450916 0 203046
0.335725 0 2.78961e-05 0 0 0 0 0.000407755 0 239625
0.354784 0 3.29216e-05 0 0 0 0 0.000368269 0 282795
0.374924 0 3.88525e-05 0 0 0 0 0.000332202 0 333741
0.396207 0.554952 4.58519e-05 1.40899e-06 6 0.539523 1.36982e-06 0.000299307 0.0282451 393865
0.418699 0 5.41123e-05 0 0 0 0 0.00026935 0 464821
0.442467 0 6.38607e-05 0 0 0 0 0.000242108 0 548560
0.467585 0 7.53654e-05 0 0 0 0 0.00021737 0 647384
0.494129 0 8.89427e-05 0 0 0 0 0.000194938 0 764012
0.522179 0 0.000104966 0 0 0 0 0.000174625 0 901651
0.551822 0 0.000123876 0 0 0 0 0.000156255 0 1.06409e+06
0.583147 5.08427 0.000146192 4.04868e-06 12 5.35122 4.26126e-06 0.000139664 0.347865 1.25578e+06
0.616251 0 0.000172529 0 0 0 0 0.0001247 0 1.48202e+06
0.651234 0 0.000203611 0 0 0 0 0.00011122 0 1.74901e+06
0.688203 21.4528 0.000240292 1.03933e-05 8 20.9191 1.01348e-05 9.90935e-05 0.839072 2.06409e+06
0.72727 0 0.000283581 0 0 0 0 8.81969e-05 0 2.43595e+06
0.768555 0 0.000334669 0 0 0 0 7.84179e-05 0 2.87479e+06
0.812184 0.15987 0.000394961 4.7122e-08 6 0.163288 4.81295e-08 6.96525e-05 0.00405918 3.39269e+06
0.85829 0 0.000466114 0 0 0 0 6.1805e-05 0 4.00389e+06
0.907013 0.429267 0.000550086 9.08462e-08 24 0.437503 9.25894e-08 5.47875e-05 0.0397958 4.7252e+06
0.958501 1.72844 0.000649185 3.09952e-07 24 1.62719 2.91797e-07 4.85194e-05 0.153317 5.57646e+06
1.01291 0 0.000766138 0 0 0 0 4.29272e-05 0 6.58107e+06
1.07041 0 0.00090416 0 0 0 0 3.79435e-05 0 7.76667e+06
1.13118 1.10291 0.00106705 1.20328e-07 12 1.08936 1.1885e-07 3.3507e-05 0.0430934 9.16586e+06
1.19539 1.48053 0.00125928 1.36869e-07 30 1.45 1.34047e-07 2.9562e-05 0.138897 1.08171e+07
1.26325 7.04526 0.00148614 5.51883e-07 24 6.93924 5.43579e-07 2.60578e-05 0.5083 1.27658e+07
1.33496 17.9054 0.00175387 1.18849e-06 24 17.9447 1.1911e-06 2.29484e-05 1.24295 1.50656e+07
1.41075 5.75484 0.00206984 3.23674e-07 32 5.9119 3.32507e-07 2.01923e-05 0.512946 1.77798e+07
1.49083 0.782956 0.00244272 3.73141e-08 48 0.766265 3.65186e-08 1.77518e-05 0.100896 2.09828e+07
1.57546 0.300288 0.00288279 1.21265e-08 6 0.285942 1.15472e-08 1.55929e-05 0.00466618 2.4763e+07
1.66489 0.641079 0.00340213 2.19367e-08 84 0.624357 2.13645e-08 1.3685e-05 0.13465 2.92241e+07
1.75941 2.20387 0.00401503 6.3901e-08 48 2.21687 6.42778e-08 1.20007e-05 0.255589 3.44889e+07
1.85928 0.449432 0.00473835 1.1042e-08 72 0.447725 1.1e-08 1.05151e-05 0.0756077 4.07021e+07
1.96483 1.09592 0.00559198 2.28152e-08 54 1.07093 2.2295e-08 9.20606e-06 0.133827 4.80347e+07
2.07637 8.662 0.00659939 1.528e-07 104 8.64425 1.52487e-07 8.05366e-06 1.97317 5.66883e+07
2.19424 0.579192 0.00778828 8.65747e-09 120 0.582514 8.70712e-09 7.04008e-06 0.147569 6.69008e+07
2.3188 1.95083 0.00919136 2.47087e-08 156 1.86153 2.35777e-08 6.1494e-06 0.626819 7.89532e+07
2.45043 1.13817 0.0108472 1.22152e-08 126 1.13233 1.21525e-08 5.36741e-06 0.286751 9.31768e+07
2.58954 1.06307 0.0128014 9.66756e-09 192 1.07431 9.76974e-09 4.68145e-06 0.396495 1.09963e+08
2.73654 4.37468 0.0151076 3.37103e-08 152 4.5297 3.49048e-08 4.08023e-06 1.2558 1.29773e+08
2.89188 3.83338 0.0178292 2.50299e-08 378 3.91552 2.55662e-08 3.55373e-06 2.66236 1.53152e+08
3.05605 1.5095 0.0210412 8.35166e-09 264 1.4843 8.21221e-09 3.09304e-06 0.712839 1.80743e+08
3.22953 0.652819 0.0248319 3.06051e-09 366 0.645989 3.02849e-09 2.69025e-06 0.416372 2.13304e+08
3.41286 1.20888 0.0293054 4.80226e-09 428 1.17128 4.6529e-09 2.33837e-06 0.878973 2.51731e+08
3.6066 3.48412 0.0345848 1.17278e-08 486 3.37682 1.13666e-08 2.0312e-06 2.80608 2.97081e+08
3.81134 1.23934 0.0408154 3.53489e-09 600 1.23596 3.52525e-09 1.76327e-06 1.20285 3.50601e+08
4.0277 1.24999 0.0481684 3.02104e-09 738 1.23066 2.97432e-09 1.52972e-06 1.45747 4.13763e+08
4.25634 1.721 0.056846 3.52444e-09 824 1.75558 3.59527e-09 1.32631e-06 2.18965 4.88304e+08
4.49796 3.04904 0.067087 5.29096e-09 954 3.06251 5.31434e-09 1.14926e-06 4.39204 5.76273e+08
4.7533 1.24036 0.0791729 1.82381e-09 1094 1.22949 1.80784e-09 9.95263e-07 2.00475 6.8009e+08
5.02313 1.08196 0.0934361 1.34805e-09 1332 1.08297 1.3493e-09 8.61414e-07 2.08449 8.0261e+08
5.30828 2.94017 0.110269 3.10406e-09 1614 2.96343 3.12861e-09 7.45152e-07 6.72338 9.47202e+08
5.60962 1.92604 0.130134 1.72299e-09 1850 1.89012 1.69086e-09 6.44232e-07 4.9478 1.11784e+09
5.92807 2.34234 0.153578 1.77554e-09 2238 2.28963 1.73558e-09 5.56685e-07 7.13808 1.31923e+09
6.26459 1.73167 0.181246 1.11227e-09 2546 1.74565 1.12125e-09 4.80786e-07 5.89 1.55689e+09
6.62021 1.47357 0.213898 8.02002e-10 3264 1.47574 8.03181e-10 4.15026e-07 6.30741 1.83737e+09
6.99602 2.65336 0.252432 1.22366e-09 3506 2.69574 1.24321e-09 3.58083e-07 11.9809 2.16837e+09
7.39317 2.12034 0.297908 8.28579e-10 4506 2.1266 8.31025e-10 3.08803e-07 12.0905 2.55901e+09
7.81286 2.7257 0.351577 9.02544e-10 5018 2.7551 9.12279e-10 2.66181e-07 17.0146 3.02002e+09
8.25637 2.85337 0.414914 8.0059e-10 5852 2.81463 7.89721e-10 2.29336e-07 20.4288 3.56409e+09
8.72507 2.6721 0.489662 6.35282e-10 7362 2.66276 6.33061e-10 1.97503e-07 23.6804 4.20617e+09
9.22037 3.00446 0.577876 6.05259e-10 8306 2.98904 6.02152e-10 1.70014e-07 29.5698 4.96392e+09
9.74378 2.69012 0.681982 4.59207e-10 9698 2.68787 4.58823e-10 1.46289e-07 30.4424 5.85818e+09
10.2969 3.42702 0.804843 4.95695e-10 11816 3.43589 4.9698e-10 1.25822e-07 46.5508 6.91355e+09
10.8814 3.62391 0.949838 4.44158e-10 13682 3.62298 4.44044e-10 1.08175e-07 56.177 8.15905e+09
11.4992 3.81456 1.12095 3.96157e-10 16152 3.79821 3.94458e-10 9.29669e-08 68.828 9.62892e+09
12.1519 4.09834 1.3229 3.60655e-10 19472 4.07753 3.58824e-10 7.98658e-08 87.931 1.13636e+10
12.8418 4.11042 1.56122 3.06501e-10 22670 4.10475 3.06079e-10 6.85852e-08 101.31 1.34108e+10
13.5708 4.88023 1.84248 3.08353e-10 26224 4.88078 3.08388e-10 5.88765e-08 137.343 1.58268e+10
14.3411 5.14868 2.17441 2.75655e-10 31640 5.15303 2.75888e-10 5.05241e-08 172.625 1.8678e+10
15.1552 5.699 2.56613 2.58541e-10 37484 5.69286 2.58263e-10 4.33417e-08 223.599 2.20429e+10
16.0156 6.1013 3.02843 2.34539e-10 43856 6.09559 2.3432e-10 3.71677e-08 276.744 2.6014e+10
16.9247 6.96037 3.574 2.26719e-10 51362 6.9436 2.26173e-10 3.18628e-08 365.465 3.07005e+10
17.8855 7.62454 4.21787 2.10441e-10 61636 7.6033 2.09855e-10 2.73063e-08 475.009 3.62312e+10
18.9008 8.5759 4.97773 2.00567e-10 72218 8.55355 2.00044e-10 2.33941e-08 619.151 4.27584e+10
19.9738 9.44227 5.87448 1.87119e-10 84586 9.41577 1.86593e-10 2.00364e-08 789.943 5.04614e+10
21.1076 10.4401 6.93279 1.7531e-10 100708 10.4199 1.74971e-10 1.71555e-08 1029.12 5.95522e+10
22.3058 11.7143 8.18175 1.66679e-10 118712 11.6906 1.66341e-10 1.46847e-08 1347.45 7.02807e+10
23.5721 12.9407 9.65571 1.56021e-10 140410 12.9063 1.55606e-10 1.25662e-08 1743.33 8.29419e+10
24.9102 14.3954 11.3952 1.47066e-10 164374 14.3565 1.46668e-10 1.07504e-08 2248.65 9.78842e+10
26.3243 15.8881 13.4481 1.37538e-10 194680 15.8526 1.3723e-10 9.19452e-09 2912.16 1.15518e+11
27.8187 17.6276 15.8708 1.29302e-10 230196 17.585 1.2899e-10 7.86182e-09 3785.99 1.36329e+11
29.3979 19.52 18.73 1.21326e-10 271156 19.4739 1.21039e-10 6.72061e-09 4895.11 1.60889e+11
31.0667 21.6877 22.1042 1.14222e-10 321076 21.629 1.13913e-10 5.74366e-09 6385.11 1.89874e+11
32.8303 24.1955 26.0864 1.07977e-10 377436 24.1278 1.07675e-10 4.90756e-09 8304.42 2.2408e+11
34.694 26.9355 30.7859 1.01855e-10 447594 26.8621 1.01578e-10 4.19221e-09 10874.9 2.64449e+11
36.6634 30.2318 36.3321 9.68688e-11 525078 30.1469 9.65969e-11 3.58032e-09 14206.4 3.1209e+11
38.7447 33.9963 42.8774 9.23024e-11 621924 33.8997 9.20403e-11 3.05709e-09 18777.7 3.68314e+11
40.9442 38.2131 50.6018 8.79136e-11 732630 38.1094 8.7675e-11 2.60976e-09 24679.7 4.34667e+11
43.2685 43.3601 59.7179 8.4527e-11 865596 43.2442 8.43011e-11 2.22743e-09 32847.8 5.12973e+11
45.7247 49.1615 70.4762 8.12069e-11 1.02168e+06 49.022 8.09764e-11 1.90073e-09 43650.1 6.05386e+11
48.3204 55.863 83.1727 7.81905e-11 1.20544e+06 55.7058 7.79704e-11 1.62163e-09 58122.7 7.14448e+11
51.0634 63.8961 98.1565 7.57818e-11 1.42103e+06 63.7096 7.55607e-11 1.38326e-09 77851.3 8.43158e+11
53.9621 73.0385 115.84 7.34014e-11 1.67997e+06 72.8314 7.31933e-11 1.1797e-09 104528 9.95055e+11
57.0254 83.9303 136.709 7.14715e-11 1.98018e+06 83.6848 7.12625e-11 1.00592e-09 140694 1.17432e+12
60.2626 96.5707 161.337 6.96822e-11 2.33957e+06 96.2879 6.94781e-11 8.57591e-10 190098 1.38587e+12
63.6835 111.541 190.402 6.81979e-11 2.75676e+06 111.204 6.79923e-11 7.3101e-10 257186 1.63554e+12
67.2987 129.266 224.704 6.69707e-11 3.25638e+06 128.872 6.67663e-11 6.23009e-10 350046 1.93019e+12
71.1191 149.769 265.185 6.57481e-11 3.84387e+06 149.302 6.5543e-11 5.30879e-10 476054 2.27792e+12
75.1563 183.669 312.958 6.83217e-11 4.53277e+06 182.433 6.78622e-11 4.52303e-10 684687 2.68829e+12
79.4227 203.368 369.339 6.41016e-11 5.35083e+06 202.747 6.39058e-11 3.85299e-10 890208 3.17259e+12
83.9313 237.4 435.876 6.34057e-11 6.32174e+06 236.655 6.32066e-11 3.28173e-10 1.22141e+06 3.74415e+12
88.6959 277.787 514.4 6.28666e-11 7.44986e+06 276.9 6.2666e-11 2.79476e-10 1.6758e+06 4.41866e+12
93.7309 325.74 607.071 6.24658e-11 8.79764e+06 324.703 6.22669e-11 2.37972e-10 2.30931e+06 5.2147e+12
99.0518 382.095 716.436 6.20874e-11 1.03827e+07 380.842 6.18839e-11 2.02605e-10 3.18173e+06 6.15414e+12
104.675 457.81 845.504 6.30346e-11 1.22515e+07 456.787 6.28938e-11 1.72471e-10 4.47768e+06 7.26283e+12
110.617 527.762 997.824 6.15735e-11 1.44573e+07 526.049 6.13738e-11 1.468e-10 6.06395e+06 8.57124e+12
116.896 621.129 1177.58 6.14045e-11 1.70664e+07 619.093 6.12032e-11 1.24935e-10 8.38801e+06 1.01154e+13
123.532 731.176 1389.73 6.12494e-11 2.0139e+07 728.788 6.10493e-11 1.06313e-10 1.16025e+07 1.19377e+13
130.545 862.093 1640.09 6.11921e-11 2.37643e+07 859.304 6.09942e-11 9.04567e-11 1.60761e+07 1.40883e+13
137.955 1013.79 1935.56 6.09748e-11 2.80503e+07 1010.44 6.07735e-11 7.69563e-11 2.22251e+07 1.66263e+13
145.787 1194.85 2284.26 6.08943e-11 3.30981e+07 1190.9 6.06933e-11 6.54636e-11 3.07879e+07 1.96216e+13
154.063 1410.28 2695.77 6.09021e-11 3.90634e+07 1405.62 6.07007e-11 5.56812e-11 4.27262e+07 2.31565e+13
162.808 1662.44 3181.42 6.08322e-11 4.61057e+07 1656.91 6.063e-11 4.73556e-11 5.92266e+07 2.73282e+13
172.051 1962.17 3754.56 6.08398e-11 5.44046e+07 1955.63 6.0637e-11 4.02708e-11 8.21926e+07 3.22515e+13
181.818 2318.08 4430.96 6.09034e-11 6.42064e+07 2310.33 6.06997e-11 3.42426e-11 1.14197e+08 3.80616e+13
192.139 2738.62 5229.21 6.09686e-11 7.57748e+07 2729.4 6.07632e-11 2.91139e-11 1.58683e+08 4.49186e+13
203.046 3241.05 6171.26 6.11394e-11 8.94213e+07 3230.11 6.0933e-11 2.4751e-11 2.20886e+08 5.30108e+13
214.572 3832.32 7283.03 6.12575e-11 1.05538e+08 3819.35 6.10502e-11 2.10401e-11 3.07271e+08 6.25608e+13
226.753 4539.04 8595.09 6.14785e-11 1.24552e+08 4523.63 6.12698e-11 1.78839e-11 4.28164e+08 7.38313e+13
239.625 5382.79 10143.5 6.17773e-11 1.46987e+08 5364.43 6.15666e-11 1.51999e-11 5.97403e+08 8.71322e+13
253.228 6394.41 11970.9 6.21847e-11 1.7347e+08 6372.35 6.19702e-11 1.29176e-11 8.35075e+08 1.02829e+14
267.603 7611.89 14127.5 6.27246e-11 2.04703e+08 7585.4 6.25062e-11 1.09771e-11 1.16969e+09 1.21354e+14
282.795 9088.77 16672.6 6.34618e-11 2.4161e+08 9056.68 6.32377e-11 9.3274e-12 1.64387e+09 1.43217e+14
298.848 10895.5 19676.2 6.44635e-11 2.85122e+08 10856.3 6.42318e-11 7.925e-12 2.31924e+09 1.69017e+14
315.813 13133.3 23220.9 6.58421e-11 3.36491e+08 13085.1 6.56005e-11 6.73295e-12 3.29058e+09 1.99466e+14
333.741 15951.8 27404.3 6.77645e-11 3.97115e+08 15891.1 6.75065e-11 5.71979e-12 4.70477e+09 2.35401e+14
352.686 19578.2 32341.2 7.04735e-11 4.68637e+08 19500.3 7.01934e-11 4.85874e-12 6.79734e+09 2.77809e+14
372.707 24392.9 38167.6 7.44011e-11 5.53074e+08 24290.3 7.40881e-11 4.12703e-12 9.97069e+09 3.27857e+14
393.865 31045.7 45043.5 8.02378e-11 6.52716e+08 30904.9 7.98738e-11 3.50528e-12 1.4941e+10 3.86921e+14
416.224 36634.7 53158.3 8.02291e-11 2.2184e+08 38756.2 8.48751e-11 2.97701e-12 5.97849e+09 4.56626e+14
439.852 0 62734.9 0 0 0 0 2.52819e-12 0 5.38888e+14
464.821 0 74036.7 0 0 0 0 2.1469e-12 0 6.35971e+14
491.207 0 87374.6 0 0 0 0 1.82301e-12 0 7.50542e+14
519.092 0 103115 0 0 0 0 1.54789e-12 0 8.85755e+14
548.56 0 121692 0 0 0 0 1.31422e-12 0 1.04533e+15
579.7 0 143615 0 0 0 0 1.11576e-12 0 1.23364e+15
612.608 0 169488 0 0 0 0 9.47223e-13 0 1.45589e+15
647.384 0 200021 0 0 0 0 8.041e-13 0 1.71817e+15
684.134 0 236056 0 0 0 0 6.82568e-13 0 2.0277e+15
722.971 0 278582 0 0 0 0 5.79376e-13 0 2.393e+15
764.012 0 328769 0 0 0 0 4.91762e-13 0 2.8241e+15
0.180593
200
1.0655e+09
8589934592
0.0129181 0.000114358 1.58924e-09 8.37701e-06 6 0.000113312 8.30032e-06 0.00677225 0.00742177 13.6515
0.0136515 0 1.87554e-09 0 0 0 0 0.00688819 0 16.1108
0.0144264 0 2.21343e-09 0 0 0 0 0.00699249 0 19.0132
0.0152454 0 2.61218e-09 0 0 0 0 0.00708412 0 22.4385
0.0161108 0 3.08278e-09 0 0 0 0 0.00716212 0 26.4808
0.0170254 0 3.63815e-09 0 0 0 0 0.00722559 0 31.2514
0.0179919 0.000399914 4.29357e-09 1.08432e-05 12 0.000399399 1.08293e-05 0.00727371 0.0178889 36.8815
0.0190132 0 5.06707e-09 0 0 0 0 0.00730578 0 43.5258
0.0200925 0 5.97991e-09 0 0 0 0 0.00732122 0 51.367
0.0212331 0.000358875 7.05721e-09 5.91999e-06 8 0.000358563 5.91483e-06 0.00731958 0.0064703 60.621
0.0224385 0 8.32858e-09 0 0 0 0 0.00730056 0 71.542
0.0237123 0 9.829e-09 0 0 0 0 0.00726401 0 84.4305
0.0250583 0.000724215 1.15997e-08 7.26825e-06 6 0.000723874 7.26483e-06 0.00720995 0.00604852 99.6408
0.0264808 0 1.36894e-08 0 0 0 0 0.00713857 0 117.591
0.0279841 0.00136775 1.61556e-08 9.85584e-06 24 0.00136635 9.84572e-06 0.00705021 0.0335508 138.776
0.0295727 0 1.90661e-08 0 0 0 0 0.00694538 0 163.777
0.0312514 0.000727296 2.25009e-08 3.76289e-06 24 0.000730989 3.78199e-06 0.00682475 0.0132326 193.281
0.0330255 0 2.65545e-08 0 0 0 0 0.00668915 0 228.102
0.0349003 0.00127155 3.13384e-08 4.72354e-06 12 0.00126137 4.68572e-06 0.00653951 0.00866769 269.195
0.0368815 0.00277185 3.69841e-08 8.72498e-06 30 0.00274233 8.63207e-06 0.00637693 0.0410463 317.691
0.0389751 0.00314367 4.36469e-08 8.38482e-06 24 0.00311133 8.29857e-06 0.00620256 0.032444 374.924
0.0411876 0.00390115 5.151e-08 8.81681e-06 24 0.00387466 8.75693e-06 0.00601767 0.0351637 442.467
0.0435258 0.0017336 6.07896e-08 3.31993e-06 8 0.00173346 3.31967e-06 0.00582358 0.00456067 522.179
0.0459966 0.00400123 7.1741e-08 6.49287e-06 72 0.00399132 6.47678e-06 0.00562166 0.083158 616.251
0.0486077 0 8.46654e-08 0 0 0 0 0.0054133 0 727.27
0.051367 0.00549204 9.99181e-08 6.39882e-06 54 0.00546381 6.36593e-06 0.00519989 0.0664507 858.29
0.054283 0.00474601 1.17919e-07 4.68551e-06 60 0.00476383 4.7031e-06 0.0049828 0.0564201 1012.91
0.0573645 0.00620051 1.39162e-07 5.18701e-06 96 0.00617357 5.16448e-06 0.00476339 0.104538 1195.39
0.060621 0.00667341 1.64232e-07 4.73042e-06 24 0.006583 4.66633e-06 0.00454293 0.0249905 1410.75
0.0640622 0.00902628 1.93819e-07 5.42153e-06 134 0.00900493 5.40871e-06 0.00432265 0.168065 1664.89
0.0676989 0.0084445 2.28736e-07 4.29783e-06 120 0.00839543 4.27285e-06 0.00410371 0.125676 1964.83
0.071542 0.0079993 2.69944e-07 3.44976e-06 108 0.00789647 3.40541e-06 0.00388717 0.0958471 2318.8
0.0756032 0.0104369 3.18575e-07 3.81389e-06 174 0.010344 3.77996e-06 0.00367401 0.180625 2736.54
0.079895 0.0100671 3.75967e-07 3.11721e-06 168 0.00996867 3.08672e-06 0.0034651 0.151133 3229.53
0.0844305 0.0125859 4.43698e-07 3.30222e-06 168 0.0126493 3.31887e-06 0.00326121 0.170113 3811.34
0.0892234 0.0128182 5.23632e-07 2.84977e-06 290 0.0127695 2.83895e-06 0.00306301 0.269811 4497.96
0.0942883 0.0150271 6.17966e-07 2.83088e-06 288 0.0150639 2.83781e-06 0.00287109 0.283966 5308.28
0.0996408 0.0127551 7.29294e-07 2.03607e-06 366 0.0126474 2.01887e-06 0.00268591 0.277449 6264.59
0.105297 0.0160494 8.60678e-07 2.17084e-06 420 0.0159618 2.15899e-06 0.00250785 0.363559 7393.17
0.111275 0.019307 1.01573e-06 2.21282e-06 398 0.0192716 2.20876e-06 0.00233721 0.376818 8725.07
0.117591 0.022361 1.19872e-06 2.17162e-06 624 0.0224643 2.18165e-06 0.00217419 0.623262 10296.9
0.124267 0.0234292 1.41467e-06 1.92802e-06 642 0.0233697 1.92313e-06 0.00201893 0.613094 12151.9
0.131321 0.0252159 1.66953e-06 1.75829e-06 800 0.0252281 1.75914e-06 0.00187147 0.751621 14341.1
0.138776 0.0290062 1.9703e-06 1.71384e-06 858 0.0290686 1.71752e-06 0.00173182 0.849092 16924.7
0.146654 0.0294278 2.32525e-06 1.47332e-06 1080 0.0296422 1.48406e-06 0.00159991 0.994549 19973.8
0.154979 0.0312832 2.74415e-06 1.32713e-06 1286 0.0314689 1.33501e-06 0.00147563 1.15658 23572.1
0.163777 0.0355281 3.23852e-06 1.27713e-06 1650 0.0355713 1.27869e-06 0.00135884 1.55078 27818.7
0.173074 0.0335377 3.82195e-06 1.02155e-06 1778 0.0335816 1.02289e-06 0.00124933 1.45383 32830.3
0.182899 0.0376143 4.51048e-06 9.70825e-07 2112 0.0376805 9.72532e-07 0.00114689 1.78777 38744.7
0.193281 0.0466284 5.32305e-06 1.01976e-06 2570 0.0466517 1.02027e-06 0.00105127 2.49298 45724.7
0.204254 0.0436017 6.28202e-06 8.08006e-07 3030 0.043623 8.08401e-07 0.000962209 2.54441 53962.1
0.215848 0.0463042 7.41374e-06 7.27099e-07 3434 0.0462711 7.26579e-07 0.000879423 2.8392 63683.5
0.228102 0.051787 8.74934e-06 6.89058e-07 4218 0.0518328 6.89666e-07 0.000802624 3.62118 75156.3
0.24105 0.0540396 1.03256e-05 6.09268e-07 4766 0.0540496 6.09381e-07 0.000731515 3.96953 88695.9
0.254734 0.0585129 1.21857e-05 5.58997e-07 6026 0.0584661 5.5855e-07 0.000665798 5.05937 104675
0.269195 0.0626454 1.4381e-05 5.07118e-07 6480 0.0626846 5.07436e-07 0.000605173 5.43006 123532
0.284476 0.0651665 1.69718e-05 4.46999e-07 8162 0.0652579 4.47626e-07 0.000549345 6.64137 145787
0.300625 0.0706445 2.00293e-05 4.10603e-07 9578 0.0706661 4.10728e-07 0.000498021 7.89677 172051
0.317691 0.0752675 2.36377e-05 3.70692e-07 11234 0.0752797 3.70752e-07 0.000450916 9.2353 203046
0.335725 0.0792941 2.78961e-05 3.30909e-07 13344 0.0791994 3.30513e-07 0.000407755 10.8292 239625
0.354784 0.0821517 3.29216e-05 2.905e-07 15464 0.082075 2.90228e-07 0.000368269 12.1984 282795
0.374924 0.0891531 3.88525e-05 2.67133e-07 18458 0.0891262 2.67052e-07 0.000332202 14.8426 333741
0.396207 0.0951298 4.58519e-05 2.41529e-07 22232 0.0949902 2.41174e-07 0.000299307 17.9403 393865
0.418699 0.0993382 5.41123e-05 2.13713e-07 25628 0.0990959 2.13192e-07 0.00026935 20.3343 464821
0.442467 0.105264 6.38607e-05 1.91893e-07 30320 0.105011 1.91431e-07 0.000242108 24.0314 548560
0.467585 0.111338 7.53654e-05 1.71981e-07 35452 0.11121 1.71784e-07 0.00021737 28.0493 647384
0.494129 0.11766 8.89427e-05 1.54003e-07 41792 0.117636 1.53972e-07 0.000194938 33.016 764012
0.522179 0.126247 0.000104966 1.40017e-07 49988 0.126261 1.40033e-07 0.000174625 40.0812 901651
0.551822 0.134222 0.000123876 1.26138e-07 59110 0.134116 1.26039e-07 0.000156255 47.717 1.06409e+06
0.583147 0.140642 0.000146192 1.11995e-07 69716 0.140471 1.11859e-07 0.000139664 55.9045 1.25578e+06
0.616251 0.150943 0.000172529 1.0185e-07 82210 0.150717 1.01697e-07 0.0001247 67.1456 1.48202e+06
0.651234 0.159725 0.000203611 9.13233e-08 96722 0.159426 9.11524e-08 0.00011122 79.4186 1.74901e+06
0.688203 0.168479 0.000240292 8.16236e-08 113098 0.16829 8.15322e-08 9.90935e-05 93.1592 2.06409e+06
0.72727 0.177422 0.000283581 7.28348e-08 135190 0.177258 7.27674e-08 8.81969e-05 111.643 2.43595e+06
0.768555 0.186941 0.000334669 6.50278e-08 158170 0.186728 6.49535e-08 7.84179e-05 131.162 2.87479e+06
0.812184 0.198662 0.000394961 5.85559e-08 188560 0.198449 5.84933e-08 6.96525e-05 158.52 3.39269e+06
0.85829 0.211276 0.000466114 5.27676e-08 220444 0.210982 5.26943e-08 6.1805e-05 188.21 4.00389e+06
0.907013 0.222449 0.000550086 4.70772e-08 261388 0.222214 4.70275e-08 5.47875e-05 224.603 4.7252e+06
0.958501 0.23638 0.000649185 4.23889e-08 308244 0.236118 4.2342e-08 4.85194e-05 269.297 5.57646e+06
1.01291 0.249719 0.000766138 3.7945e-08 364396 0.249389 3.78949e-08 4.29272e-05 322.104 6.58107e+06
1.07041 0.265112 0.00090416 3.41346e-08 429162 0.264746 3.40874e-08 3.79435e-05 386.082 7.76667e+06
1.13118 0.279724 0.00106705 3.0518e-08 506358 0.279367 3.04791e-08 3.3507e-05 461.188 9.16586e+06
1.19539 0.297353 0.00125928 2.74891e-08 598590 0.296963 2.74531e-08 2.9562e-05 556.617 1.08171e+07
1.26325 0.315622 0.00148614 2.47239e-08 704844 0.315218 2.46923e-08 2.60578e-05 668.763 1.27658e+07
1.33496 0.334778 0.00175387 2.22213e-08 834620 0.334308 2.21901e-08 2.29484e-05 808.173 1.50656e+07
1.41075 0.355418 0.00206984 1.999e-08 981444 0.354902 1.9961e-08 2.01923e-05 971.613 1.77798e+07
1.49083 0.378409 0.00244272 1.80342e-08 1.15998e+06 0.377891 1.80095e-08 1.77518e-05 1178.43 2.09828e+07
1.57546 0.401802 0.00288279 1.62259e-08 1.36931e+06 0.401253 1.62038e-08 1.55929e-05 1424.9 2.4763e+07
1.66489 0.427607 0.00340213 1.4632e-08 1.61652e+06 0.426923 1.46086e-08 1.3685e-05 1728.38 2.92241e+07
1.75941 0.455357 0.00401503 1.3203e-08 1.90601e+06 0.454665 1.31829e-08 1.20007e-05 2096.97 3.44889e+07
1.85928 0.485421 0.00473835 1.19262e-08 2.24913e+06 0.484678 1.19079e-08 1.05151e-05 2550.95 4.07021e+07
1.96483 0.51765 0.00559198 1.07766e-08 2.65744e+06 0.516836 1.07596e-08 9.20606e-06 3110.79 4.80347e+07
2.07637 0.552314 0.00659939 9.74299e-09 3.13125e+06 0.551431 9.72742e-09 8.05366e-06 3788.06 5.66883e+07
2.19424 0.589793 0.00778828 8.81592e-09 3.69915e+06 0.58889 8.80242e-09 7.04008e-06 4632.25 6.69008e+07
2.3188 0.631735 0.00919136 8.00138e-09 4.36472e+06 0.63071 7.98841e-09 6.1494e-06 5679.22 7.89532e+07
2.45043 0.675754 0.0108472 7.25238e-09 5.14913e+06 0.67466 7.24064e-09 5.36741e-06 6957.44 9.31768e+07
2.58954 0.724154 0.0128014 6.58544e-09 6.07894e+06 0.722986 6.57482e-09 4.68145e-06 8551.3 1.09963e+08
2.73654 0.777022 0.0151076 5.98754e-09 7.17304e+06 0.775735 5.97763e-09 4.08023e-06 10526.1 1.29773e+08
2.89188 0.834742 0.0178292 5.45041e-09 8.46557e+06 0.833354 5.44135e-09 3.55373e-06 12983.8 1.53152e+08
3.05605 0.898716 0.0210412 4.97235e-09 9.98773e+06 0.897233 4.96414e-09 3.09304e-06 16056.2 1.80743e+08
3.22953 0.967212 0.0248319 4.53443e-09 1.1797e+07 0.965582 4.52679e-09 2.69025e-06 19883.9 2.13304e+08
3.41286 1.04335 0.0293054 4.14471e-09 1.39144e+07 1.04151 4.13739e-09 2.33837e-06 24662.9 2.51731e+08
3.6066 1.12598 0.0345848 3.79013e-09 1.64163e+07 1.12402 3.78354e-09 2.0312e-06 30632.1 2.97081e+08
3.81134 1.21771 0.0408154 3.47319e-09 1.93821e+07 1.21557 3.46709e-09 1.76327e-06 38178 3.50601e+08
4.0277 1.31757 0.0481684 3.18436e-09 2.28754e+07 1.31515 3.17852e-09 1.52972e-06 47618.7 4.13763e+08
4.25634 1.42726 0.056846 2.92289e-09 2.69929e+07 1.42462 2.91749e-09 1.32631e-06 59486.5 4.88304e+08
4.49796 1.5483 0.067087 2.68674e-09 3.18542e+07 1.54542 2.68175e-09 1.14926e-06 74469 5.76273e+08
4.7533 1.68222 0.0791729 2.47353e-09 3.75892e+07 1.67906 2.46889e-09 9.95263e-07 93420.6 6.8009e+08
5.02313 1.82863 0.0934361 2.27835e-09 4.43706e+07 1.82514 2.274e-09 8.61414e-07 117356 8.0261e+08
5.30828 1.98981 0.110269 2.10073e-09 5.23593e+07 1.98598 2.09668e-09 7.45152e-07 147611 9.47202e+08
5.60962 2.16669 0.130134 1.93828e-09 6.1787e+07 2.16248 1.93451e-09 6.44232e-07 185896 1.11784e+09
5.92807 2.3627 0.153578 1.79098e-09 7.29346e+07 2.35805 1.78745e-09 5.56685e-07 234646 1.31923e+09
6.26459 2.57728 0.181246 1.65541e-09 8.60651e+07 2.57214 1.6521e-09 4.80786e-07 296333 1.55689e+09
6.62021 2.81398 0.213898 1.53153e-09 1.01558e+08 2.80833 1.52845e-09 4.15026e-07 374770 1.83737e+09
6.99602 3.07586 0.252432 1.41851e-09 1.1986e+08 3.0696 1.41563e-09 3.58083e-07 474814 2.16837e+09
7.39317 3.36479 0.297908 1.31488e-09 1.41457e+08 3.35797 1.31222e-09 3.08803e-07 602319 2.55901e+09
7.81286 3.68264 0.351577 1.21941e-09 1.66936e+08 3.67503 1.21689e-09 2.66181e-07 764752 3.02002e+09
8.25637 4.03727 0.414914 1.13276e-09 1.97025e+08 4.02882 1.13039e-09 2.29336e-07 973170 3.56409e+09
8.72507 4.43303 0.489662 1.05394e-09 2.32497e+08 4.42363 1.0517e-09 1.97503e-07 1.24067e+06 4.20617e+09
9.22037 4.87873 0.577876 9.82839e-10 2.74404e+08 4.86813 9.80702e-10 1.70014e-07 1.58631e+06 4.96392e+09
9.74378 5.38634 0.681982 9.19456e-10 3.2382e+08 5.37432 9.17403e-10 1.46289e-07 2.03527e+06 5.85818e+09
10.2969 5.97945 0.804843 8.64888e-10 3.82165e+08 5.9656 8.62885e-10 1.25822e-07 2.62696e+06 6.91355e+09
10.8814 6.69592 0.949838 8.20674e-10 4.51027e+08 6.67939 8.18649e-10 1.08175e-07 3.42172e+06 8.15905e+09
11.4992 7.6036 1.12095 7.89663e-10 5.32251e+08 7.58317 7.87541e-10 9.29669e-08 4.52095e+06 9.62892e+09
12.1519 8.83337 1.3229 7.7734e-10 6.28157e+08 8.80638 7.74964e-10 7.98658e-08 6.1139e+06 1.13636e+10
12.8418 10.1387 1.56122 7.56013e-10 3.82727e+08 10.4924 7.82386e-10 6.85852e-08 4.21879e+06 1.34108e+10
13.5708 0 1.84248 0 0 0 0 5.88765e-08 0 1.58268e+10
14.3411 0 2.17441 0 0 0 0 5.05241e-08 0 1.8678e+10
15.1552 0 2.56613 0 0 0 0 4.33417e-08 0 2.20429e+10
16.0156 0 3.02843 0 0 0 0 3.71677e-08 0 2.6014e+10
16.9247 0 3.574 0 0 0 0 3.18628e-08 0 3.07005e+10
17.8855 0 4.21787 0 0 0 0 2.73063e-08 0 3.62312e+10
18.9008 0 4.97773 0 0 0 0 2.33941e-08 0 4.27584e+10
19.9738 0 5.87448 0 0 0 0 2.00364e-08 0 5.04614e+10
21.1076 0 6.93279 0 0 0 0 1.71555e-08 0 5.95522e+10
22.3058 0 8.18175 0 0 0 0 1.46847e-08 0 7.02807e+10
23.5721 0 9.65571 0 0 0 0 1.25662e-08 0 8.29419e+10
24.9102 0 11.3952 0 0 0 0 1.07504e-08 0 9.78842e+10
26.3243 0 13.4481 0 0 0 0 9.19452e-09 0 1.15518e+11
27.8187 0 15.8708 0 0 0 0 7.86182e-09 0 1.36329e+11
29.3979 0 18.73 0 0 0 0 6.72061e-09 0 1.60889e+11
31.0667 0 22.1042 0 0 0 0 5.74366e-09 0 1.89874e+11
32.8303 0 26.0864 0 0 0 0 4.90756e-09 0 2.2408e+11
34.694 0 30.7859 0 0 0 0 4.19221e-09 0 2.64449e+11
36.6634 0 36.3321 0 0 0 0 3.58032e-09 0 3.1209e+11
38.7447 0 42.8774 0 0 0 0 3.05709e-09 0 3.68314e+11
40.9442 0 50.6018 0 0 0 0 2.60976e-09 0 4.34667e+11
43.2685 0 59.7179 0 0 0 0 2.22743e-09 0 5.12973e+11
45.7247 0 70.4762 0 0 0 0 1.90073e-09 0 6.05386e+11
48.3204 0 83.1727 0 0 0 0 1.62163e-09 0 7.14448e+11
51.0634 0 98.1565 0 0 0 0 1.38326e-09 0 8.43158e+11
53.9621 0 115.84 0 0 0 0 1.1797e-09 0 9.95055e+11
57.0254 0 136.709 0 0 0 0 1.00592e-09 0 1.17432e+12
60.2626 0 161.337 0 0 0 0 8.57591e-10 0 1.38587e+12
63.6835 0 190.402 0 0 0 0 7.3101e-10 0 1.63554e+12
67.2987 0 224.704 0 0 0 0 6.23009e-10 0 1.93019e+12
71.1191 0 265.185 0 0 0 0 5.30879e-10 0 2.27792e+12
75.1563 0 312.958 0 0 0 0 4.52303e-10 0 2.68829e+12
79.4227 0 369.339 0 0 0 0 3.85299e-10 0 3.17259e+12
83.9313 0 435.876 0 0 0 0 3.28173e-10 0 3.74415e+12
88.6959 0 514.4 0 0 0 0 2.79476e-10 0 4.41866e+12
93.7309 0 607.071 0 0 0 0 2.37972e-10 0 5.2147e+12
99.0518 0 716.436 0 0 0 0 2.02605e-10 0 6.15414e+12
104.675 0 845.504 0 0 0 0 1.72471e-10 0 7.26283e+12
110.617 0 997.824 0 0 0 0 1.468e-10 0 8.57124e+12
116.896 0 1177.58 0 0 0 0 1.24935e-10 0 1.01154e+13
123.532 0 1389.73 0 0 0 0 1.06313e-10 0 1.19377e+13
130.545 0 1640.09 0 0 0 0 9.04567e-11 0 1.40883e+13
137.955 0 1935.56 0 0 0 0 7.69563e-11 0 1.66263e+13
145.787 0 2284.26 0 0 0 0 6.54636e-11 0 1.96216e+13
154.063 0 2695.77 0 0 0 0 5.56812e-11 0 2.31565e+13
162.808 0 3181.42 0 0 0 0 4.73556e-11 0 2.73282e+13
172.051 0 3754.56 0 0 0 0 4.02708e-11 0 3.22515e+13
181.818 0 4430.96 0 0 0 0 3.42426e-11 0 3.80616e+13
192.139 0 5229.21 0 0 0 0 2.91139e-11 0 4.49186e+13
203.046 0 6171.26 0 0 0 0 2.4751e-11 0 5.30108e+13
214.572 0 7283.03 0 0 0 0 2.10401e-11 0 6.25608e+13
226.753 0 8595.09 0 0 0 0 1.78839e-11 0 7.38313e+13
239.625 0 10143.5 0 0 0 0 1.51999e-11 0 8.71322e+13
253.228 0 11970.9 0 0 0 0 1.29176e-11 0 1.02829e+14
267.603 0 14127.5 0 0 0 0 1.09771e-11 0 1.21354e+14
282.795 0 16672.6 0 0 0 0 9.3274e-12 0 1.43217e+14
298.848 0 19676.2 0 0 0 0 7.925e-12 0 1.69017e+14
315.813 0 23220.9 0 0 0 0 6.73295e-12 0 1.99466e+14
333.741 0 27404.3 0 0 0 0 5.71979e-12 0 2.35401e+14
352.686 0 32341.2 0 0 0 0 4.85874e-12 0 2.77809e+14
372.707 0 38167.6 0 0 0 0 4.12703e-12 0 3.27857e+14
393.865 0 45043.5 0 0 0 0 3.50528e-12 0 3.86921e+14
416.224 0 53158.3 0 0 0 0 2.97701e-12 0 4.56626e+14
439.852 0 62734.9 0 0 0 0 2.52819e-12 0 5.38888e+14
464.821 0 74036.7 0 0 0 0 2.1469e-12 0 6.35971e+14
491.207 0 87374.6 0 0 0 0 1.82301e-12 0 7.50542e+14
519.092 0 103115 0 0 0 0 1.54789e-12 0 8.85755e+14
548.56 0 121692 0 0 0 0 1.31422e-12 0 1.04533e+15
579.7 0 143615 0 0 0 0 1.11576e-12 0 1.23364e+15
612.608 0 169488 0 0 0 0 9.47223e-13 0 1.45589e+15
647.384 0 200021 0 0 0 0 8.041e-13 0 1.71817e+15
684.134 0 236056 0 0 0 0 6.82568e-13 0 2.0277e+15
722.971 0 278582 0 0 0 0 5.79376e-13 0 2.393e+15
764.012 0 328769 0 0 0 0 4.91762e-13 0 2.8241e+15
