0.148056
200
1.0655e+09
8589934592
0.0129181 0 1.58924e-09 0 0 0 0 0.00677225 0 13.6515
0.0136515 0 1.87554e-09 0 0 0 0 0.00688819 0 16.1108
0.0144264 0 2.21343e-09 0 0 0 0 0.00699249 0 19.0132
0.0152454 0 2.61218e-09 0 0 0 0 0.00708412 0 22.4385
0.0161108 0 3.08278e-09 0 0 0 0 0.00716212 0 26.4808
0.0170254 0 3.63815e-09 0 0 0 0 0.00722559 0 31.2514
0.0179919 0 4.29357e-09 0 0 0 0 0.00727371 0 36.8815
0.0190132 0 5.06707e-09 0 0 0 0 0.00730578 0 43.5258
0.0200925 0 5.97991e-09 0 0 0 0 0.00732122 0 51.367
0.0212331 0 7.05721e-09 0 0 0 0 0.00731958 0 60.621
0.0224385 0 8.32858e-09 0 0 0 0 0.00730056 0 71.542
0.0237123 0 9.829e-09 0 0 0 0 0.00726401 0 84.4305
0.0250583 0 1.15997e-08 0 0 0 0 0.00720995 0 99.6408
0.0264808 0 1.36894e-08 0 0 0 0 0.00713857 0 117.591
0.0279841 0 1.61556e-08 0 0 0 0 0.00705021 0 138.776
0.0295727 0 1.90661e-08 0 0 0 0 0.00694538 0 163.777
0.0312514 0 2.25009e-08 0 0 0 0 0.00682475 0 193.281
0.0330255 0 2.65545e-08 0 0 0 0 0.00668915 0 228.102
0.0349003 0 3.13384e-08 0 0 0 0 0.00653951 0 269.195
0.0368815 0 3.69841e-08 0 0 0 0 0.00637693 0 317.691
0.0389751 0 4.36469e-08 0 0 0 0 0.00620256 0 374.924
0.0411876 0 5.151e-08 0 0 0 0 0.00601767 0 442.467
0.0435258 0 6.07896e-08 0 0 0 0 0.00582358 0 522.179
0.0459966 0 7.1741e-08 0 0 0 0 0.00562166 0 616.251
0.0486077 0 8.46654e-08 0 0 0 0 0.0054133 0 727.27
0.051367 0 9.99181e-08 0 0 0 0 0.00519989 0 858.29
0.054283 0 1.17919e-07 0 0 0 0 0.0049828 0 1012.91
0.0573645 0 1.39162e-07 0 0 0 0 0.00476339 0 1195.39
0.060621 0 1.64232e-07 0 0 0 0 0.00454293 0 1410.75
0.0640622 0 1.93819e-07 0 0 0 0 0.00432265 0 1664.89
0.0676989 0 2.28736e-07 0 0 0 0 0.00410371 0 1964.83
0.071542 0 2.69944e-07 0 0 0 0 0.00388717 0 2318.8
0.0756032 0 3.18575e-07 0 0 0 0 0.00367401 0 2736.54
0.079895 0 3.75967e-07 0 0 0 0 0.0034651 0 3229.53
0.0844305 0 4.43698e-07 0 0 0 0 0.00326121 0 3811.34
0.0892234 0 5.23632e-07 0 0 0 0 0.00306301 0 4497.96
0.0942883 0 6.17966e-07 0 0 0 0 0.00287109 0 5308.28
0.0996408 0 7.29294e-07 0 0 0 0 0.00268591 0 6264.59
0.105297 0 8.60678e-07 0 0 0 0 0.00250785 0 7393.17
0.111275 0 1.01573e-06 0 0 0 0 0.00233721 0 8725.07
0.117591 0 1.19872e-06 0 0 0 0 0.00217419 0 10296.9
0.124267 0 1.41467e-06 0 0 0 0 0.00201893 0 12151.9
0.131321 0 1.66953e-06 0 0 0 0 0.00187147 0 14341.1
0.138776 0 1.9703e-06 0 0 0 0 0.00173182 0 16924.7
0.146654 0 2.32525e-06 0 0 0 0 0.00159991 0 19973.8
0.154979 0 2.74415e-06 0 0 0 0 0.00147563 0 23572.1
0.163777 0 3.23852e-06 0 0 0 0 0.00135884 0 27818.7
0.173074 0 3.82195e-06 0 0 0 0 0.00124933 0 32830.3
0.182899 0 4.51048e-06 0 0 0 0 0.00114689 0 38744.7
0.193281 0 5.32305e-06 0 0 0 0 0.00105127 0 45724.7
0.204254 0 6.28202e-06 0 0 0 0 0.000962209 0 53962.1
0.215848 0 7.41374e-06 0 0 0 0 0.000879423 0 63683.5
0.228102 0 8.74934e-06 0 0 0 0 0.000802624 0 75156.3
0.24105 0 1.03256e-05 0 0 0 0 0.000731515 0 88695.9
0.254734 0 1.21857e-05 0 0 0 0 0.000665798 0 104675
0.269195 0 1.4381e-05 0 0 0 0 0.000605173 0 123532
0.284476 0 1.69718e-05 0 0 0 0 0.000549345 0 145787
0.300625 0 2.00293e-05 0 0 0 0 0.000498021 0 172051
0.317691 0 2.36377e-05 0 0 0 0 0.000450916 0 203046
0.335725 0 2.78961e-05 0 0 0 0 0.000407755 0 239625
0.354784 0 3.29216e-05 0 0 0 0 0.000368269 0 282795
0.374924 0 3.88525e-05 0 0 0 0 0.000332202 0 333741
0.396207 0.65307 4.58519e-05 1.65811e-06 6 0.634913 1.61201e-06 0.000299307 0.0332389 393865
0.418699 0 5.41123e-05 0 0 0 0 0.00026935 0 464821
0.442467 0 6.38607e-05 0 0 0 0 0.000242108 0 548560
0.467585 0 7.53654e-05 0 0 0 0 0.00021737 0 647384
0.494129 0 8.89427e-05 0 0 0 0 0.000194938 0 764012
0.522179 0 0.000104966 0 0 0 0 0.000174625 0 901651
0.551822 0 0.000123876 0 0 0 0 0.000156255 0 1.06409e+06
0.583147 5.21917 0.000146192 4.15611e-06 12 5.49321 4.37433e-06 0.000139664 0.357095 1.25578e+06
0.616251 0 0.000172529 0 0 0 0 0.0001247 0 1.48202e+06
0.651234 0 0.000203611 0 0 0 0 0.00011122 0 1.74901e+06
0.688203 22.3034 0.000240292 1.08054e-05 8 21.7485 1.05366e-05 9.90935e-05 0.872342 2.06409e+06
0.72727 0 0.000283581 0 0 0 0 8.81969e-05 0 2.43595e+06
0.768555 0 0.000334669 0 0 0 0 7.84179e-05 0 2.87479e+06
0.812184 0.150695 0.000394961 4.44175e-08 6 0.153917 4.53671e-08 6.96525e-05 0.00382621 3.39269e+06
0.85829 0 0.000466114 0 0 0 0 6.1805e-05 0 4.00389e+06
0.907013 0.271551 0.000550086 5.74686e-08 24 0.276761 5.85713e-08 5.47875e-05 0.0251745 4.7252e+06
0.958501 1.1254 0.000649185 2.01812e-07 24 1.05948 1.89991e-07 4.85194e-05 0.099826 5.57646e+06
1.01291 0 0.000766138 0 0 0 0 4.29272e-05 0 6.58107e+06
1.07041 0 0.00090416 0 0 0 0 3.79435e-05 0 7.76667e+06
1.13118 1.05059 0.00106705 1.1462e-07 12 1.03768 1.13212e-07 3.3507e-05 0.0410492 9.16586e+06
1.19539 1.15965 0.00125928 1.07205e-07 30 1.13574 1.04995e-07 2.9562e-05 0.108793 1.08171e+07
1.26325 7.27137 0.00148614 5.69596e-07 24 7.16195 5.61025e-07 2.60578e-05 0.524614 1.27658e+07
1.33496 18.2959 0.00175387 1.21441e-06 24 18.3361 1.21708e-06 2.29484e-05 1.27006 1.50656e+07
1.41075 5.48997 0.00206984 3.08776e-07 32 5.64107 3.17275e-07 2.01923e-05 0.489337 1.77798e+07
1.49083 0.568097 0.00244272 2.70744e-08 48 0.555986 2.64972e-08 1.77518e-05 0.0732079 2.09828e+07
1.57546 0.0496464 0.00288279 2.00486e-09 6 0.0472745 1.90908e-09 1.55929e-05 0.000771455 2.4763e+07
1.66489 0.480784 0.00340213 1.64516e-08 84 0.468303 1.60246e-08 1.3685e-05 0.100982 2.92241e+07
1.75941 2.18696 0.00401503 6.34107e-08 48 2.19948 6.37738e-08 1.20007e-05 0.253628 3.44889e+07
1.85928 0.336942 0.00473835 8.27824e-09 72 0.338522 8.31705e-09 1.05151e-05 0.0566835 4.07021e+07
1.96483 0.98201 0.00559198 2.04438e-08 54 0.958508 1.99545e-08 9.20606e-06 0.119917 4.80347e+07
2.07637 7.71343 0.00659939 1.36067e-07 104 7.69595 1.35759e-07 8.05366e-06 1.75709 5.66883e+07
2.19424 0.420467 0.00778828 6.28493e-09 120 0.425244 6.35633e-09 7.04008e-06 0.107128 6.69008e+07
2.3188 1.79543 0.00919136 2.27405e-08 156 1.71337 2.17011e-08 6.1494e-06 0.576888 7.89532e+07
2.45043 0.647527 0.0108472 6.94944e-09 126 0.644761 6.91976e-09 5.36741e-06 0.163138 9.31768e+07
2.58954 0.736169 0.0128014 6.69471e-09 192 0.746024 6.78432e-09 4.68145e-06 0.27457 1.09963e+08
2.73654 4.01522 0.0151076 3.09403e-08 152 4.16584 3.2101e-08 4.08023e-06 1.15261 1.29773e+08
2.89188 3.35244 0.0178292 2.18896e-08 378 3.42864 2.23872e-08 3.55373e-06 2.32833 1.53152e+08
3.05605 1.34361 0.0210412 7.43381e-09 264 1.32162 7.31218e-09 3.09304e-06 0.634497 1.80743e+08
3.22953 0.372205 0.0248319 1.74495e-09 366 0.368794 1.72896e-09 2.69025e-06 0.237395 2.13304e+08
3.41286 0.901224 0.0293054 3.5801e-09 428 0.869905 3.45569e-09 2.33837e-06 0.655278 2.51731e+08
3.6066 3.19885 0.0345848 1.07676e-08 486 3.09749 1.04264e-08 2.0312e-06 2.57633 2.97081e+08
3.81134 0.924506 0.0408154 2.63691e-09 600 0.921026 2.62699e-09 1.76327e-06 0.897283 3.50601e+08
4.0277 0.831123 0.0481684 2.00869e-09 738 0.815804 1.97167e-09 1.52972e-06 0.969075 4.13763e+08
4.25634 1.2754 0.056846 2.61191e-09 824 1.31339 2.68971e-09 1.32631e-06 1.62271 4.88304e+08
4.49796 2.74819 0.067087 4.7689e-09 954 2.76388 4.79613e-09 1.14926e-06 3.95868 5.76273e+08
4.7533 0.779243 0.0791729 1.14579e-09 1094 0.767243 1.12815e-09 9.95263e-07 1.25946 6.8009e+08
5.02313 0.60983 0.0934361 7.59808e-10 1332 0.609984 7.6e-10 8.61414e-07 1.17489 8.0261e+08
5.30828 2.3144 0.110269 2.44341e-09 1614 2.33686 2.46711e-09 7.45152e-07 5.29243 9.47202e+08
5.60962 1.30021 0.130134 1.16314e-09 1850 1.26906 1.13528e-09 6.44232e-07 3.34011 1.11784e+09
5.92807 1.70842 0.153578 1.29501e-09 2238 1.65514 1.25463e-09 5.56685e-07 5.20625 1.31923e+09
6.26459 1.03196 0.181246 6.62835e-10 2546 1.04284 6.69826e-10 4.80786e-07 3.51004 1.55689e+09
6.62021 0.661914 0.213898 3.60251e-10 3264 0.66115 3.59836e-10 4.15026e-07 2.83323 1.83737e+09
6.99602 1.76 0.252432 8.11671e-10 3506 1.80353 8.31742e-10 3.58083e-07 7.9471 2.16837e+09
7.39317 1.10643 0.297908 4.32366e-10 4506 1.11416 4.35386e-10 3.08803e-07 6.309 2.55901e+09
7.81286 1.63675 0.351577 5.41966e-10 5018 1.66877 5.52568e-10 2.66181e-07 10.2171 3.02002e+09
8.25637 1.6055 0.414914 4.50467e-10 5852 1.56805 4.39959e-10 2.29336e-07 11.4946 3.56409e+09
8.72507 1.30327 0.489662 3.09847e-10 7362 1.29501 3.07884e-10 1.97503e-07 11.5497 4.20617e+09
9.22037 1.62146 0.577876 3.26648e-10 8306 1.60801 3.23939e-10 1.70014e-07 15.9583 4.96392e+09
9.74378 1.13542 0.681982 1.93817e-10 9698 1.13507 1.93758e-10 1.46289e-07 12.8488 5.85818e+09
10.2969 1.80629 0.804843 2.61268e-10 11816 1.81969 2.63207e-10 1.25822e-07 24.5357 6.91355e+09
10.8814 1.75555 0.949838 2.15167e-10 13682 1.75525 2.15129e-10 1.08175e-07 27.2142 8.15905e+09
11.4992 1.81544 1.12095 1.8854e-10 16152 1.80172 1.87116e-10 9.29669e-08 32.7568 9.62892e+09
12.1519 1.91099 1.3229 1.68167e-10 19472 1.89384 1.66659e-10 7.98658e-08 41.0008 1.13636e+10
12.8418 1.71751 1.56122 1.28069e-10 22670 1.71571 1.27935e-10 6.85852e-08 42.3317 1.34108e+10
13.5708 2.16611 1.84248 1.36864e-10 26224 2.17123 1.37187e-10 5.88765e-08 60.9601 1.58268e+10
14.3411 2.2662 2.17441 1.2133e-10 31640 2.26821 1.21437e-10 5.05241e-08 75.9811 1.8678e+10
15.1552 2.62176 2.56613 1.18939e-10 37484 2.62192 1.18946e-10 4.33417e-08 102.864 2.20429e+10
16.0156 2.80058 3.02843 1.07657e-10 43856 2.80341 1.07765e-10 3.71677e-08 127.029 2.6014e+10
16.9247 3.49396 3.574 1.13808e-10 51362 3.48776 1.13606e-10 3.18628e-08 183.455 3.07005e+10
17.8855 3.80482 4.21787 1.05015e-10 61636 3.79034 1.04615e-10 2.73063e-08 237.04 3.62312e+10
18.9008 4.52748 4.97773 1.05885e-10 72218 4.5118 1.05519e-10 2.33941e-08 326.869 4.27584e+10
19.9738 5.26533 5.87448 1.04344e-10 84586 5.24632 1.03967e-10 2.00364e-08 440.499 5.04614e+10
21.1076 6.09694 6.93279 1.0238e-10 100708 6.08133 1.02118e-10 1.71555e-08 600.999 5.95522e+10
22.3058 7.12937 8.18175 1.01441e-10 118712 7.11279 1.01205e-10 1.46847e-08 820.06 7.02807e+10
23.5721 8.23519 9.65571 9.92886e-11 140410 8.20577 9.89339e-11 1.25662e-08 1109.42 8.29419e+10
24.9102 9.43883 11.3952 9.64285e-11 164374 9.41049 9.61391e-11 1.07504e-08 1474.4 9.78842e+10
26.3243 10.7747 13.4481 9.32724e-11 194680 10.7422 9.29915e-11 9.19452e-09 1974.9 1.15518e+11
27.8187 12.3791 15.8708 9.0803e-11 230196 12.3414 9.05266e-11 7.86182e-09 2658.73 1.36329e+11
29.3979 14.1334 18.73 8.78453e-11 271156 14.0929 8.7594e-11 6.72061e-09 3544.29 1.60889e+11
31.0667 16.0889 22.1042 8.47347e-11 321076 16.0411 8.44831e-11 5.74366e-09 4736.75 1.89874e+11
32.8303 18.3339 26.0864 8.18186e-11 377436 18.2842 8.15969e-11 4.90756e-09 6292.59 2.2408e+11
34.694 20.8799 30.7859 7.89562e-11 447594 20.8174 7.872e-11 4.19221e-09 8430.01 2.64449e+11
36.6634 23.9593 36.3321 7.67706e-11 525078 23.884 7.65292e-11 3.58032e-09 11258.9 3.1209e+11
38.7447 27.5897 42.8774 7.49081e-11 621924 27.5078 7.46857e-11 3.05709e-09 15239.1 3.68314e+11
40.9442 31.7672 50.6018 7.3084e-11 732630 31.6715 7.2864e-11 2.60976e-09 20516.7 4.34667e+11
43.2685 36.8427 59.7179 7.18219e-11 865596 36.7379 7.16176e-11 2.22743e-09 27910.5 5.12973e+11
45.7247 42.5575 70.4762 7.02981e-11 1.02168e+06 42.433 7.00924e-11 1.90073e-09 37786.4 6.05386e+11
48.3204 49.3733 83.1727 6.91069e-11 1.20544e+06 49.2188 6.88906e-11 1.62163e-09 51370.4 7.14448e+11
51.0634 57.138 98.1565 6.77666e-11 1.42103e+06 56.9635 6.75597e-11 1.38326e-09 69617.2 8.43158e+11
53.9621 66.5251 115.84 6.68557e-11 1.67997e+06 66.3147 6.66442e-11 1.1797e-09 95206.5 9.95055e+11
57.0254 77.2375 136.709 6.57723e-11 1.98018e+06 76.9898 6.55613e-11 1.00592e-09 129474 1.17432e+12
60.2626 90.0259 161.337 6.49596e-11 2.33957e+06 89.7431 6.47556e-11 8.57591e-10 177215 1.38587e+12
63.6835 105.022 190.402 6.42121e-11 2.75676e+06 104.694 6.40118e-11 7.3101e-10 242155 1.63554e+12
67.2987 123.056 224.704 6.37531e-11 3.25638e+06 122.676 6.35564e-11 6.23009e-10 333229 1.93019e+12
71.1191 143.375 265.185 6.29411e-11 3.84387e+06 142.925 6.27439e-11 5.30879e-10 455730 2.27792e+12
75.1563 168.329 312.958 6.26155e-11 4.53277e+06 167.787 6.24139e-11 4.52303e-10 627502 2.68829e+12
79.4227 197.377 369.339 6.22133e-11 5.35083e+06 196.763 6.20196e-11 3.85299e-10 863984 3.17259e+12
83.9313 231.723 435.876 6.18895e-11 6.32174e+06 230.981 6.16912e-11 3.28173e-10 1.19221e+06 3.74415e+12
88.6959 272.328 514.4 6.16313e-11 7.44986e+06 271.445 6.14314e-11 2.79476e-10 1.64288e+06 4.41866e+12
93.7309 320.001 607.071 6.13653e-11 8.79764e+06 318.95 6.11636e-11 2.37972e-10 2.26862e+06 5.2147e+12
99.0518 376.817 716.436 6.12299e-11 1.03827e+07 375.59 6.10305e-11 2.02605e-10 3.13779e+06 6.15414e+12
104.675 467.018 845.504 6.43025e-11 1.22515e+07 466.755 6.42663e-11 1.72471e-10 4.56775e+06 7.26283e+12
110.617 522.555 997.824 6.09661e-11 1.44573e+07 520.846 6.07666e-11 1.468e-10 6.00412e+06 8.57124e+12
116.896 615.491 1177.58 6.08471e-11 1.70664e+07 613.475 6.06478e-11 1.24935e-10 8.31186e+06 1.01154e+13
123.532 725.901 1389.73 6.08075e-11 2.0139e+07 723.474 6.06042e-11 1.06313e-10 1.15188e+07 1.19377e+13
130.545 862.356 1640.09 6.12108e-11 2.37643e+07 859.815 6.10305e-11 9.04567e-11 1.6081e+07 1.40883e+13
137.955 1009.22 1935.56 6.06999e-11 2.80503e+07 1005.88 6.04992e-11 7.69563e-11 2.21249e+07 1.66263e+13
145.787 1190.87 2284.26 6.06916e-11 3.30981e+07 1186.93 6.0491e-11 6.54636e-11 3.06854e+07 1.96216e+13
154.063 1408.94 2695.77 6.08442e-11 3.90634e+07 1404.25 6.06415e-11 5.56812e-11 4.26856e+07 2.31565e+13
162.808 1658.68 3181.42 6.06946e-11 4.61057e+07 1653.15 6.04924e-11 4.73556e-11 5.90926e+07 2.73282e+13
172.051 1958.5 3754.56 6.07261e-11 5.44046e+07 1951.96 6.05231e-11 4.02708e-11 8.20389e+07 3.22515e+13
181.818 2316.38 4430.96 6.08586e-11 6.42064e+07 2308.69 6.06566e-11 3.42426e-11 1.14113e+08 3.80616e+13
192.139 2735.81 5229.21 6.09059e-11 7.57748e+07 2726.64 6.0702e-11 2.91139e-11 1.5852e+08 4.49186e+13
203.046 3236.15 6171.26 6.1047e-11 8.94213e+07 3225.25 6.08414e-11 2.4751e-11 2.20553e+08 5.30108e+13
214.572 3830.01 7283.03 6.12207e-11 1.05538e+08 3817.09 6.10141e-11 2.10401e-11 3.07087e+08 6.25608e+13
226.753 4537.56 8595.09 6.14584e-11 1.24552e+08 4522.12 6.12494e-11 1.78839e-11 4.28025e+08 7.38313e+13
239.625 5380.17 10143.5 6.17472e-11 1.46987e+08 5361.82 6.15366e-11 1.51999e-11 5.97112e+08 8.71322e+13
253.228 6394.46 11970.9 6.21852e-11 1.7347e+08 6372.37 6.19704e-11 1.29176e-11 8.35082e+08 1.02829e+14
267.603 7609.75 14127.5 6.27069e-11 2.04703e+08 7583.31 6.2489e-11 1.09771e-11 1.16936e+09 1.21354e+14
282.795 9087.88 16672.6 6.34555e-11 2.4161e+08 9055.91 6.32323e-11 9.3274e-12 1.6437e+09 1.43217e+14
298.848 10890.8 19676.2 6.44358e-11 2.85122e+08 10851.6 6.42042e-11 7.925e-12 2.31825e+09 1.69017e+14
315.813 13128.8 23220.9 6.58199e-11 3.36491e+08 13080.7 6.55787e-11 6.73295e-12 3.28947e+09 1.99466e+14
333.741 15939.7 27404.3 6.77129e-11 3.97115e+08 15879.1 6.74554e-11 5.71979e-12 4.70119e+09 2.35401e+14
352.686 19566.8 32341.2 7.04326e-11 4.68637e+08 19489.1 7.01528e-11 4.85874e-12 6.79339e+09 2.77809e+14
372.707 24374.8 38167.6 7.43457e-11 5.53074e+08 24272.1 7.40327e-11 4.12703e-12 9.96327e+09 3.27857e+14
393.865 31012.1 45043.5 8.01509e-11 6.52716e+08 30871.5 7.97875e-11 3.50528e-12 1.49248e+10 3.86921e+14
416.224 36599.7 53158.3 8.01525e-11 2.2184e+08 38719.1 8.47938e-11 2.97701e-12 5.97277e+09 4.56626e+14
439.852 0 62734.9 0 0 0 0 2.52819e-12 0 5.38888e+14
464.821 0 74036.7 0 0 0 0 2.1469e-12 0 6.35971e+14
491.207 0 87374.6 0 0 0 0 1.82301e-12 0 7.50542e+14
519.092 0 103115 0 0 0 0 1.54789e-12 0 8.85755e+14
548.56 0 121692 0 0 0 0 1.31422e-12 0 1.04533e+15
579.7 0 143615 0 0 0 0 1.11576e-12 0 1.23364e+15
612.608 0 169488 0 0 0 0 9.47223e-13 0 1.45589e+15
647.384 0 200021 0 0 0 0 8.041e-13 0 1.71817e+15
684.134 0 236056 0 0 0 0 6.82568e-13 0 2.0277e+15
722.971 0 278582 0 0 0 0 5.79376e-13 0 2.393e+15
764.012 0 328769 0 0 0 0 4.91762e-13 0 2.8241e+15
0.148056
200
1.0655e+09
8589934592
0.0129181 7.70516e-05 1.58924e-09 5.6442e-06 6 7.63462e-05 5.59253e-06 0.00677225 0.00500059 13.6515
0.0136515 0 1.87554e-09 0 0 0 0 0.00688819 0 16.1108
0.0144264 0 2.21343e-09 0 0 0 0 0.00699249 0 19.0132
0.0152454 0 2.61218e-09 0 0 0 0 0.00708412 0 22.4385
0.0161108 0 3.08278e-09 0 0 0 0 0.00716212 0 26.4808
0.0170254 0 3.63815e-09 0 0 0 0 0.00722559 0 31.2514
0.0179919 0.000269453 4.29357e-09 7.30592e-06 12 0.000269106 7.29651e-06 0.00727371 0.0120531 36.8815
0.0190132 0 5.06707e-09 0 0 0 0 0.00730578 0 43.5258
0.0200925 0 5.97991e-09 0 0 0 0 0.00732122 0 51.367
0.0212331 0.000241948 7.05721e-09 3.99116e-06 8 0.000241737 3.98768e-06 0.00731958 0.00436217 60.621
0.0224385 0 8.32858e-09 0 0 0 0 0.00730056 0 71.542
0.0237123 0 9.829e-09 0 0 0 0 0.00726401 0 84.4305
0.0250583 0.000487373 1.15997e-08 4.89129e-06 6 0.000487143 4.88899e-06 0.00720995 0.00407045 99.6408
0.0264808 0 1.36894e-08 0 0 0 0 0.00713857 0 117.591
0.0279841 0.000920908 1.61556e-08 6.63594e-06 24 0.000919963 6.62913e-06 0.00705021 0.0225898 138.776
0.0295727 0 1.90661e-08 0 0 0 0 0.00694538 0 163.777
0.0312514 0.000490876 2.25009e-08 2.53969e-06 24 0.000493368 2.55259e-06 0.00682475 0.00893112 193.281
0.0330255 0 2.65545e-08 0 0 0 0 0.00668915 0 228.102
0.0349003 0.000853715 3.13384e-08 3.17136e-06 12 0.000846879 3.14597e-06 0.00653951 0.00581945 269.195
0.0368815 0.00186986 3.69841e-08 5.8858e-06 30 0.00184995 5.82312e-06 0.00637693 0.0276895 317.691
0.0389751 0.00211646 4.36469e-08 5.64503e-06 24 0.00209468 5.58696e-06 0.00620256 0.0218427 374.924
0.0411876 0.00263547 5.151e-08 5.9563e-06 24 0.00261757 5.91585e-06 0.00601767 0.0237553 442.467
0.0435258 0.00116794 6.07896e-08 2.23668e-06 8 0.00116785 2.2365e-06 0.00582358 0.00307258 522.179
0.0459966 0.0027004 7.1741e-08 4.38197e-06 72 0.00269369 4.3711e-06 0.00562166 0.0561226 616.251
0.0486077 0 8.46654e-08 0 0 0 0 0.0054133 0 727.27
0.051367 0.00370614 9.99181e-08 4.31806e-06 54 0.00368706 4.29583e-06 0.00519989 0.0448423 858.29
0.054283 0.00320208 1.17919e-07 3.16126e-06 60 0.00321414 3.17316e-06 0.0049828 0.038066 1012.91
0.0573645 0.00418276 1.39162e-07 3.49907e-06 96 0.00416469 3.48395e-06 0.00476339 0.0705193 1195.39
0.060621 0.00452326 1.64232e-07 3.20629e-06 24 0.00446198 3.16285e-06 0.00454293 0.0169387 1410.75
0.0640622 0.00608395 1.93819e-07 3.65425e-06 134 0.00606935 3.64549e-06 0.00432265 0.11328 1664.89
0.0676989 0.00569225 2.28736e-07 2.89707e-06 120 0.00565924 2.88027e-06 0.00410371 0.0847155 1964.83
0.071542 0.00538679 2.69944e-07 2.32309e-06 108 0.00531744 2.29319e-06 0.00388717 0.0645441 2318.8
0.0756032 0.00703977 3.18575e-07 2.57251e-06 174 0.00697685 2.54952e-06 0.00367401 0.121833 2736.54
0.079895 0.00679367 3.75967e-07 2.10361e-06 168 0.00672704 2.08298e-06 0.0034651 0.10199 3229.53
0.0844305 0.00846972 4.43698e-07 2.22224e-06 168 0.00851224 2.2334e-06 0.00326121 0.114478 3811.34
0.0892234 0.00864754 5.23632e-07 1.92255e-06 290 0.00861441 1.91518e-06 0.00306301 0.182023 4497.96
0.0942883 0.0101525 6.17966e-07 1.91257e-06 288 0.0101774 1.91726e-06 0.00287109 0.191851 5308.28
0.0996408 0.00858697 7.29294e-07 1.37072e-06 366 0.00851491 1.35921e-06 0.00268591 0.186783 6264.59
0.105297 0.0108087 8.60678e-07 1.46199e-06 420 0.0107498 1.45402e-06 0.00250785 0.244845 7393.17
0.111275 0.0130378 1.01573e-06 1.49429e-06 398 0.0130138 1.49154e-06 0.00233721 0.254461 8725.07
0.117591 0.0150186 1.19872e-06 1.45856e-06 624 0.015088 1.4653e-06 0.00217419 0.41861 10296.9
0.124267 0.0157065 1.41467e-06 1.29251e-06 642 0.0156669 1.28925e-06 0.00201893 0.411007 12151.9
0.131321 0.0169192 1.66953e-06 1.17977e-06 800 0.0169269 1.18031e-06 0.00187147 0.504317 14341.1
0.138776 0.0196106 1.9703e-06 1.1587e-06 858 0.0196537 1.16124e-06 0.00173182 0.574058 16924.7
0.146654 0.0198046 2.32525e-06 9.91529e-07 1080 0.0199498 9.98799e-07 0.00159991 0.66932 19973.8
0.154979 0.0210341 2.74415e-06 8.92332e-07 1286 0.0211585 8.97607e-07 0.00147563 0.777658 23572.1
0.163777 0.0237958 3.23852e-06 8.55389e-07 1650 0.0238248 8.56434e-07 0.00135884 1.03867 27818.7
0.173074 0.0224574 3.82195e-06 6.84044e-07 1778 0.0224865 6.84932e-07 0.00124933 0.973505 32830.3
0.182899 0.025262 4.51048e-06 6.5201e-07 2112 0.0253086 6.53214e-07 0.00114689 1.20068 38744.7
0.193281 0.0312325 5.32305e-06 6.83056e-07 2570 0.0312446 6.83319e-07 0.00105127 1.66984 45724.7
0.204254 0.0292888 6.28202e-06 5.42766e-07 3030 0.029305 5.43066e-07 0.000962209 1.70917 53962.1
0.215848 0.0309798 7.41374e-06 4.86465e-07 3434 0.0309574 4.86113e-07 0.000879423 1.89956 63683.5
0.228102 0.0346359 8.74934e-06 4.60852e-07 4218 0.034665 4.61239e-07 0.000802624 2.4219 75156.3
0.24105 0.0360301 1.03256e-05 4.0622e-07 4766 0.0360374 4.06303e-07 0.000731515 2.64663 88695.9
0.254734 0.0391409 1.21857e-05 3.73929e-07 6026 0.0391111 3.73644e-07 0.000665798 3.38436 104675
0.269195 0.0417154 1.4381e-05 3.37689e-07 6480 0.0417432 3.37913e-07 0.000605173 3.61586 123532
0.284476 0.0432447 1.69718e-05 2.9663e-07 8162 0.0433062 2.97051e-07 0.000549345 4.40723 145787
0.300625 0.0468606 2.00293e-05 2.72365e-07 9578 0.0468732 2.72438e-07 0.000498021 5.23816 172051
0.317691 0.0499301 2.36377e-05 2.45905e-07 11234 0.0499392 2.4595e-07 0.000450916 6.12641 203046
0.335725 0.0525361 2.78961e-05 2.19243e-07 13344 0.0524726 2.18978e-07 0.000407755 7.17484 239625
0.354784 0.0542634 3.29216e-05 1.91883e-07 15464 0.0542143 1.91709e-07 0.000368269 8.05735 282795
0.374924 0.0588131 3.88525e-05 1.76224e-07 18458 0.058795 1.7617e-07 0.000332202 9.79146 333741
0.396207 0.0624274 4.58519e-05 1.585e-07 22232 0.0623405 1.58279e-07 0.000299307 11.7731 393865
0.418699 0.0651995 5.41123e-05 1.40268e-07 25628 0.0650349 1.39914e-07 0.00026935 13.3462 464821
0.442467 0.0688754 6.38607e-05 1.25557e-07 30320 0.0687111 1.25257e-07 0.000242108 15.7239 548560
0.467585 0.072734 7.53654e-05 1.12351e-07 35452 0.072652 1.12224e-07 0.00021737 18.3238 647384
0.494129 0.0768241 8.89427e-05 1.00554e-07 41792 0.0768092 1.00534e-07 0.000194938 21.5573 764012
0.522179 0.0822848 0.000104966 9.12602e-08 49988 0.0822904 9.12663e-08 0.000174625 26.1241 901651
0.551822 0.0870139 0.000123876 8.17734e-08 59110 0.0869515 8.17147e-08 0.000156255 30.9343 1.06409e+06
0.583147 0.0908629 0.000146192 7.23555e-08 69716 0.0907574 7.22715e-08 0.000139664 36.1177 1.25578e+06
0.616251 0.0970475 0.000172529 6.54834e-08 82210 0.0969052 6.53874e-08 0.0001247 43.1707 1.48202e+06
0.651234 0.102224 0.000203611 5.8447e-08 96722 0.102038 5.83407e-08 0.00011122 50.828 1.74901e+06
0.688203 0.107369 0.000240292 5.20175e-08 113098 0.107248 5.1959e-08 9.90935e-05 59.3689 2.06409e+06
0.72727 0.112611 0.000283581 4.62288e-08 135190 0.112516 4.61901e-08 8.81969e-05 70.8605 2.43595e+06
0.768555 0.11823 0.000334669 4.11264e-08 158170 0.118106 4.10835e-08 7.84179e-05 82.9524 2.87479e+06
0.812184 0.125276 0.000394961 3.69254e-08 188560 0.12515 3.68881e-08 6.96525e-05 99.9628 3.39269e+06
0.85829 0.132326 0.000466114 3.30493e-08 220444 0.132158 3.30074e-08 6.1805e-05 117.879 4.00389e+06
0.907013 0.138564 0.000550086 2.93245e-08 261388 0.138431 2.92962e-08 5.47875e-05 139.906 4.7252e+06
0.958501 0.146514 0.000649185 2.62736e-08 308244 0.146364 2.62468e-08 4.85194e-05 166.917 5.57646e+06
1.01291 0.153725 0.000766138 2.33586e-08 364396 0.153538 2.33302e-08 4.29272e-05 198.284 6.58107e+06
1.07041 0.162255 0.00090416 2.08912e-08 429162 0.16205 2.08648e-08 3.79435e-05 236.292 7.76667e+06
1.13118 0.170135 0.00106705 1.85618e-08 506358 0.169936 1.85401e-08 3.3507e-05 280.506 9.16586e+06
1.19539 0.180102 0.00125928 1.66497e-08 598590 0.179878 1.6629e-08 2.9562e-05 337.133 1.08171e+07
1.26325 0.189273 0.00148614 1.48265e-08 704844 0.18904 1.48083e-08 2.60578e-05 401.047 1.27658e+07
1.33496 0.199335 0.00175387 1.32311e-08 834620 0.199071 1.32136e-08 2.29484e-05 481.206 1.50656e+07
1.41075 0.2103 0.00206984 1.1828e-08 981444 0.210004 1.18114e-08 2.01923e-05 574.9 1.77798e+07
1.49083 0.221731 0.00244272 1.05673e-08 1.15998e+06 0.221433 1.05531e-08 1.77518e-05 690.51 2.09828e+07
1.57546 0.233358 0.00288279 9.42369e-09 1.36931e+06 0.233055 9.41145e-09 1.55929e-05 827.555 2.4763e+07
1.66489 0.246518 0.00340213 8.43545e-09 1.61652e+06 0.246148 8.42279e-09 1.3685e-05 996.422 2.92241e+07
1.75941 0.25978 0.00401503 7.5323e-09 1.90601e+06 0.259403 7.52135e-09 1.20007e-05 1196.32 3.44889e+07
1.85928 0.274552 0.00473835 6.74539e-09 2.24913e+06 0.274159 6.73575e-09 1.05151e-05 1442.8 4.07021e+07
1.96483 0.289965 0.00559198 6.03658e-09 2.65744e+06 0.289544 6.0278e-09 9.20606e-06 1742.53 4.80347e+07
2.07637 0.305979 0.00659939 5.39757e-09 3.13125e+06 0.305538 5.38979e-09 8.05366e-06 2098.57 5.66883e+07
2.19424 0.323667 0.00778828 4.83801e-09 3.69915e+06 0.323203 4.83108e-09 7.04008e-06 2542.09 6.69008e+07
2.3188 0.342673 0.00919136 4.3402e-09 4.36472e+06 0.342165 4.33377e-09 6.1494e-06 3080.59 7.89532e+07
2.45043 0.362489 0.0108472 3.89033e-09 5.14913e+06 0.361948 3.88452e-09 5.36741e-06 3732.12 9.31768e+07
2.58954 0.384236 0.0128014 3.49423e-09 6.07894e+06 0.383668 3.48907e-09 4.68145e-06 4537.31 1.09963e+08
2.73654 0.407467 0.0151076 3.13984e-09 7.17304e+06 0.406843 3.13504e-09 4.08023e-06 5519.84 1.29773e+08
2.89188 0.432238 0.0178292 2.82228e-09 8.46557e+06 0.431574 2.81795e-09 3.55373e-06 6723.14 1.53152e+08
3.05605 0.459803 0.0210412 2.54397e-09 9.98773e+06 0.459121 2.54019e-09 3.09304e-06 8214.72 1.80743e+08
3.22953 0.488493 0.0248319 2.29013e-09 1.1797e+07 0.487738 2.28659e-09 2.69025e-06 10042.4 2.13304e+08
3.41286 0.520059 0.0293054 2.06593e-09 1.39144e+07 0.519214 2.06257e-09 2.33837e-06 12293.2 2.51731e+08
3.6066 0.554273 0.0345848 1.86573e-09 1.64163e+07 0.553394 1.86277e-09 2.0312e-06 15078.9 2.97081e+08
3.81134 0.59167 0.0408154 1.68759e-09 1.93821e+07 0.590721 1.68488e-09 1.76327e-06 18550.3 3.50601e+08
4.0277 0.631543 0.0481684 1.52634e-09 2.28754e+07 0.63049 1.5238e-09 1.52972e-06 22824.8 4.13763e+08
4.25634 0.675089 0.056846 1.38252e-09 2.69929e+07 0.673955 1.3802e-09 1.32631e-06 28136.9 4.88304e+08
4.49796 0.722724 0.067087 1.25414e-09 3.18542e+07 0.721486 1.25199e-09 1.14926e-06 34761.2 5.76273e+08
4.7533 0.77455 0.0791729 1.13889e-09 3.75892e+07 0.773201 1.13691e-09 9.95263e-07 43013.8 6.8009e+08
5.02313 0.831143 0.0934361 1.03555e-09 4.43706e+07 0.829686 1.03373e-09 8.61414e-07 53340.2 8.0261e+08
5.30828 0.892676 0.110269 9.42435e-10 5.23593e+07 0.891084 9.40754e-10 7.45152e-07 66221.6 9.47202e+08
5.60962 0.960235 0.130134 8.59007e-10 6.1787e+07 0.958502 8.57456e-10 6.44232e-07 82385.7 1.11784e+09
5.92807 1.03431 0.153578 7.8403e-10 7.29346e+07 1.03242 7.82596e-10 5.56685e-07 102720 1.31923e+09
6.26459 1.11539 0.181246 7.16422e-10 8.60651e+07 1.11331 7.1509e-10 4.80786e-07 128246 1.55689e+09
6.62021 1.20492 0.213898 6.55784e-10 1.01558e+08 1.20263 6.54543e-10 4.15026e-07 160472 1.83737e+09
6.99602 1.30442 0.252432 6.01564e-10 1.1986e+08 1.30192 6.00412e-10 3.58083e-07 201360 2.16837e+09
7.39317 1.41386 0.297908 5.52503e-10 1.41457e+08 1.41112 5.51432e-10 3.08803e-07 253091 2.55901e+09
7.81286 1.53611 0.351577 5.08642e-10 1.66936e+08 1.53307 5.07634e-10 2.66181e-07 318996 3.02002e+09
8.25637 1.67253 0.414914 4.69274e-10 1.97025e+08 1.66916 4.68328e-10 2.29336e-07 403159 3.56409e+09
8.72507 1.82673 0.489662 4.34297e-10 2.32497e+08 1.82297 4.33403e-10 1.97503e-07 511246 4.20617e+09
9.22037 2.00075 0.577876 4.03058e-10 2.74404e+08 1.99652 4.02205e-10 1.70014e-07 650540 4.96392e+09
9.74378 2.20017 0.681982 3.75572e-10 3.2382e+08 2.19536 3.74751e-10 1.46289e-07 831353 5.85818e+09
10.2969 2.43488 0.804843 3.5219e-10 3.82165e+08 2.42934 3.51388e-10 1.25822e-07 1.06972e+06 6.91355e+09
10.8814 2.71893 0.949838 3.33241e-10 4.51027e+08 2.71232 3.32431e-10 1.08175e-07 1.38941e+06 8.15905e+09
11.4992 3.08175 1.12095 3.20051e-10 5.32251e+08 3.07351 3.19196e-10 9.29669e-08 1.83235e+06 9.62892e+09
12.1519 3.57714 1.3229 3.1479e-10 6.28157e+08 3.56623 3.13829e-10 7.98658e-08 2.47587e+06 1.13636e+10
12.8418 4.10799 1.56122 3.0632e-10 3.82727e+08 4.25127 3.17004e-10 6.85852e-08 1.70936e+06 1.34108e+10
13.5708 0 1.84248 0 0 0 0 5.88765e-08 0 1.58268e+10
14.3411 0 2.17441 0 0 0 0 5.05241e-08 0 1.8678e+10
15.1552 0 2.56613 0 0 0 0 4.33417e-08 0 2.20429e+10
16.0156 0 3.02843 0 0 0 0 3.71677e-08 0 2.6014e+10
16.9247 0 3.574 0 0 0 0 3.18628e-08 0 3.07005e+10
17.8855 0 4.21787 0 0 0 0 2.73063e-08 0 3.62312e+10
18.9008 0 4.97773 0 0 0 0 2.33941e-08 0 4.27584e+10
19.9738 0 5.87448 0 0 0 0 2.00364e-08 0 5.04614e+10
21.1076 0 6.93279 0 0 0 0 1.71555e-08 0 5.95522e+10
22.3058 0 8.18175 0 0 0 0 1.46847e-08 0 7.02807e+10
23.5721 0 9.65571 0 0 0 0 1.25662e-08 0 8.29419e+10
24.9102 0 11.3952 0 0 0 0 1.07504e-08 0 9.78842e+10
26.3243 0 13.4481 0 0 0 0 9.19452e-09 0 1.15518e+11
27.8187 0 15.8708 0 0 0 0 7.86182e-09 0 1.36329e+11
29.3979 0 18.73 0 0 0 0 6.72061e-09 0 1.60889e+11
31.0667 0 22.1042 0 0 0 0 5.74366e-09 0 1.89874e+11
32.8303 0 26.0864 0 0 0 0 4.90756e-09 0 2.2408e+11
34.694 0 30.7859 0 0 0 0 4.19221e-09 0 2.64449e+11
36.6634 0 36.3321 0 0 0 0 3.58032e-09 0 3.1209e+11
38.7447 0 42.8774 0 0 0 0 3.05709e-09 0 3.68314e+11
40.9442 0 50.6018 0 0 0 0 2.60976e-09 0 4.34667e+11
43.2685 0 59.7179 0 0 0 0 2.22743e-09 0 5.12973e+11
45.7247 0 70.4762 0 0 0 0 1.90073e-09 0 6.05386e+11
48.3204 0 83.1727 0 0 0 0 1.62163e-09 0 7.14448e+11
51.0634 0 98.1565 0 0 0 0 1.38326e-09 0 8.43158e+11
53.9621 0 115.84 0 0 0 0 1.1797e-09 0 9.95055e+11
57.0254 0 136.709 0 0 0 0 1.00592e-09 0 1.17432e+12
60.2626 0 161.337 0 0 0 0 8.57591e-10 0 1.38587e+12
63.6835 0 190.402 0 0 0 0 7.3101e-10 0 1.63554e+12
67.2987 0 224.704 0 0 0 0 6.23009e-10 0 1.93019e+12
71.1191 0 265.185 0 0 0 0 5.30879e-10 0 2.27792e+12
75.1563 0 312.958 0 0 0 0 4.52303e-10 0 2.68829e+12
79.4227 0 369.339 0 0 0 0 3.85299e-10 0 3.17259e+12
83.9313 0 435.876 0 0 0 0 3.28173e-10 0 3.74415e+12
88.6959 0 514.4 0 0 0 0 2.79476e-10 0 4.41866e+12
93.7309 0 607.071 0 0 0 0 2.37972e-10 0 5.2147e+12
99.0518 0 716.436 0 0 0 0 2.02605e-10 0 6.15414e+12
104.675 0 845.504 0 0 0 0 1.72471e-10 0 7.26283e+12
110.617 0 997.824 0 0 0 0 1.468e-10 0 8.57124e+12
116.896 0 1177.58 0 0 0 0 1.24935e-10 0 1.01154e+13
123.532 0 1389.73 0 0 0 0 1.06313e-10 0 1.19377e+13
130.545 0 1640.09 0 0 0 0 9.04567e-11 0 1.40883e+13
137.955 0 1935.56 0 0 0 0 7.69563e-11 0 1.66263e+13
145.787 0 2284.26 0 0 0 0 6.54636e-11 0 1.96216e+13
154.063 0 2695.77 0 0 0 0 5.56812e-11 0 2.31565e+13
162.808 0 3181.42 0 0 0 0 4.73556e-11 0 2.73282e+13
172.051 0 3754.56 0 0 0 0 4.02708e-11 0 3.22515e+13
181.818 0 4430.96 0 0 0 0 3.42426e-11 0 3.80616e+13
192.139 0 5229.21 0 0 0 0 2.91139e-11 0 4.49186e+13
203.046 0 6171.26 0 0 0 0 2.4751e-11 0 5.30108e+13
214.572 0 7283.03 0 0 0 0 2.10401e-11 0 6.25608e+13
226.753 0 8595.09 0 0 0 0 1.78839e-11 0 7.38313e+13
239.625 0 10143.5 0 0 0 0 1.51999e-11 0 8.71322e+13
253.228 0 11970.9 0 0 0 0 1.29176e-11 0 1.02829e+14
267.603 0 14127.5 0 0 0 0 1.09771e-11 0 1.21354e+14
282.795 0 16672.6 0 0 0 0 9.3274e-12 0 1.43217e+14
298.848 0 19676.2 0 0 0 0 7.925e-12 0 1.69017e+14
315.813 0 23220.9 0 0 0 0 6.73295e-12 0 1.99466e+14
333.741 0 27404.3 0 0 0 0 5.71979e-12 0 2.35401e+14
352.686 0 32341.2 0 0 0 0 4.85874e-12 0 2.77809e+14
372.707 0 38167.6 0 0 0 0 4.12703e-12 0 3.27857e+14
393.865 0 45043.5 0 0 0 0 3.50528e-12 0 3.86921e+14
416.224 0 53158.3 0 0 0 0 2.97701e-12 0 4.56626e+14
439.852 0 62734.9 0 0 0 0 2.52819e-12 0 5.38888e+14
464.821 0 74036.7 0 0 0 0 2.1469e-12 0 6.35971e+14
491.207 0 87374.6 0 0 0 0 1.82301e-12 0 7.50542e+14
519.092 0 103115 0 0 0 0 1.54789e-12 0 8.85755e+14
548.56 0 121692 0 0 0 0 1.31422e-12 0 1.04533e+15
579.7 0 143615 0 0 0 0 1.11576e-12 0 1.23364e+15
612.608 0 169488 0 0 0 0 9.47223e-13 0 1.45589e+15
647.384 0 200021 0 0 0 0 8.041e-13 0 1.71817e+15
684.134 0 236056 0 0 0 0 6.82568e-13 0 2.0277e+15
722.971 0 278582 0 0 0 0 5.79376e-13 0 2.393e+15
764.012 0 328769 0 0 0 0 4.91762e-13 0 2.8241e+15
