0.551027
200
1.0655e+09
8589934592
0.0129181 0 1.58924e-09 0 0 0 0 0.00677225 0 13.6515
0.0136515 0 1.87554e-09 0 0 0 0 0.00688819 0 16.1108
0.0144264 0 2.21343e-09 0 0 0 0 0.00699249 0 19.0132
0.0152454 0 2.61218e-09 0 0 0 0 0.00708412 0 22.4385
0.0161108 0 3.08278e-09 0 0 0 0 0.00716212 0 26.4808
0.0170254 0 3.63815e-09 0 0 0 0 0.00722559 0 31.2514
0.0179919 0 4.29357e-09 0 0 0 0 0.00727371 0 36.8815
0.0190132 0 5.06707e-09 0 0 0 0 0.00730578 0 43.5258
0.0200925 0 5.97991e-09 0 0 0 0 0.00732122 0 51.367
0.0212331 0 7.05721e-09 0 0 0 0 0.00731958 0 60.621
0.0224385 0 8.32858e-09 0 0 0 0 0.00730056 0 71.542
0.0237123 0 9.829e-09 0 0 0 0 0.00726401 0 84.4305
0.0250583 0 1.15997e-08 0 0 0 0 0.00720995 0 99.6408
0.0264808 0 1.36894e-08 0 0 0 0 0.00713857 0 117.591
0.0279841 0 1.61556e-08 0 0 0 0 0.00705021 0 138.776
0.0295727 0 1.90661e-08 0 0 0 0 0.00694538 0 163.777
0.0312514 0 2.25009e-08 0 0 0 0 0.00682475 0 193.281
0.0330255 0 2.65545e-08 0 0 0 0 0.00668915 0 228.102
0.0349003 0 3.13384e-08 0 0 0 0 0.00653951 0 269.195
0.0368815 0 3.69841e-08 0 0 0 0 0.00637693 0 317.691
0.0389751 0 4.36469e-08 0 0 0 0 0.00620256 0 374.924
0.0411876 0 5.151e-08 0 0 0 0 0.00601767 0 442.467
0.0435258 0 6.07896e-08 0 0 0 0 0.00582358 0 522.179
0.0459966 0 7.1741e-08 0 0 0 0 0.00562166 0 616.251
0.0486077 0 8.46654e-08 0 0 0 0 0.0054133 0 727.27
0.051367 0 9.99181e-08 0 0 0 0 0.00519989 0 858.29
0.054283 0 1.17919e-07 0 0 0 0 0.0049828 0 1012.91
0.0573645 0 1.39162e-07 0 0 0 0 0.00476339 0 1195.39
0.060621 0 1.64232e-07 0 0 0 0 0.00454293 0 1410.75
0.0640622 0 1.93819e-07 0 0 0 0 0.00432265 0 1664.89
0.0676989 0 2.28736e-07 0 0 0 0 0.00410371 0 1964.83
0.071542 0 2.69944e-07 0 0 0 0 0.00388717 0 2318.8
0.0756032 0 3.18575e-07 0 0 0 0 0.00367401 0 2736.54
0.079895 0 3.75967e-07 0 0 0 0 0.0034651 0 3229.53
0.0844305 0 4.43698e-07 0 0 0 0 0.00326121 0 3811.34
0.0892234 0 5.23632e-07 0 0 0 0 0.00306301 0 4497.96
0.0942883 0 6.17966e-07 0 0 0 0 0.00287109 0 5308.28
0.0996408 0 7.29294e-07 0 0 0 0 0.00268591 0 6264.59
0.105297 0 8.60678e-07 0 0 0 0 0.00250785 0 7393.17
0.111275 0 1.01573e-06 0 0 0 0 0.00233721 0 8725.07
0.117591 0 1.19872e-06 0 0 0 0 0.00217419 0 10296.9
0.124267 0 1.41467e-06 0 0 0 0 0.00201893 0 12151.9
0.131321 0 1.66953e-06 0 0 0 0 0.00187147 0 14341.1
0.138776 0 1.9703e-06 0 0 0 0 0.00173182 0 16924.7
0.146654 0 2.32525e-06 0 0 0 0 0.00159991 0 19973.8
0.154979 0 2.74415e-06 0 0 0 0 0.00147563 0 23572.1
0.163777 0 3.23852e-06 0 0 0 0 0.00135884 0 27818.7
0.173074 0 3.82195e-06 0 0 0 0 0.00124933 0 32830.3
0.182899 0 4.51048e-06 0 0 0 0 0.00114689 0 38744.7
0.193281 0 5.32305e-06 0 0 0 0 0.00105127 0 45724.7
0.204254 0 6.28202e-06 0 0 0 0 0.000962209 0 53962.1
0.215848 0 7.41374e-06 0 0 0 0 0.000879423 0 63683.5
0.228102 0 8.74934e-06 0 0 0 0 0.000802624 0 75156.3
0.24105 0 1.03256e-05 0 0 0 0 0.000731515 0 88695.9
0.254734 0 1.21857e-05 0 0 0 0 0.000665798 0 104675
0.269195 0 1.4381e-05 0 0 0 0 0.000605173 0 123532
0.284476 0 1.69718e-05 0 0 0 0 0.000549345 0 145787
0.300625 0 2.00293e-05 0 0 0 0 0.000498021 0 172051
0.317691 0 2.36377e-05 0 0 0 0 0.000450916 0 203046
0.335725 0 2.78961e-05 0 0 0 0 0.000407755 0 239625
0.354784 0 3.29216e-05 0 0 0 0 0.000368269 0 282795
0.374924 0 3.88525e-05 0 0 0 0 0.000332202 0 333741
0.396207 1.1799 4.58519e-05 2.99571e-06 6 1.1471 2.91242e-06 0.000299307 0.0600529 393865
0.418699 0 5.41123e-05 0 0 0 0 0.00026935 0 464821
0.442467 0 6.38607e-05 0 0 0 0 0.000242108 0 548560
0.467585 0 7.53654e-05 0 0 0 0 0.00021737 0 647384
0.494129 0 8.89427e-05 0 0 0 0 0.000194938 0 764012
0.522179 0 0.000104966 0 0 0 0 0.000174625 0 901651
0.551822 0 0.000123876 0 0 0 0 0.000156255 0 1.06409e+06
0.583147 5.31853 0.000146192 4.23522e-06 12 5.59778 4.4576e-06 0.000139664 0.363892 1.25578e+06
0.616251 0 0.000172529 0 0 0 0 0.0001247 0 1.48202e+06
0.651234 0 0.000203611 0 0 0 0 0.00011122 0 1.74901e+06
0.688203 13.8359 0.000240292 6.70315e-06 8 13.4917 6.53638e-06 9.90935e-05 0.541158 2.06409e+06
0.72727 0 0.000283581 0 0 0 0 8.81969e-05 0 2.43595e+06
0.768555 0 0.000334669 0 0 0 0 7.84179e-05 0 2.87479e+06
0.812184 3.92805 0.000394961 1.1578e-06 6 4.01203 1.18255e-06 6.96525e-05 0.0997349 3.39269e+06
0.85829 0 0.000466114 0 0 0 0 6.1805e-05 0 4.00389e+06
0.907013 1.19191 0.000550086 2.52246e-07 24 1.21478 2.57086e-07 5.47875e-05 0.110498 4.7252e+06
0.958501 3.17343 0.000649185 5.69075e-07 24 2.98755 5.35742e-07 4.85194e-05 0.281492 5.57646e+06
1.01291 0 0.000766138 0 0 0 0 4.29272e-05 0 6.58107e+06
1.07041 0 0.00090416 0 0 0 0 3.79435e-05 0 7.76667e+06
1.13118 5.99965 0.00106705 6.54564e-07 12 5.92595 6.46524e-07 3.3507e-05 0.234422 9.16586e+06
1.19539 3.31016 0.00125928 3.06012e-07 30 3.24193 2.99703e-07 2.9562e-05 0.310546 1.08171e+07
1.26325 10.1752 0.00148614 7.97063e-07 24 10.0221 7.8507e-07 2.60578e-05 0.734118 1.27658e+07
1.33496 19.015 0.00175387 1.26214e-06 24 19.0568 1.26492e-06 2.29484e-05 1.31998 1.50656e+07
1.41075 16.5826 0.00206984 9.32666e-07 32 16.9663 9.54246e-07 2.01923e-05 1.47806 1.77798e+07
1.49083 3.74767 0.00244272 1.78606e-07 48 3.66777 1.74799e-07 1.77518e-05 0.482944 2.09828e+07
1.57546 19.1143 0.00288279 7.71892e-07 6 18.2011 7.35015e-07 1.55929e-05 0.297018 2.4763e+07
1.66489 5.09684 0.00340213 1.74406e-07 84 5.01358 1.71557e-07 1.3685e-05 1.07052 2.92241e+07
1.75941 6.15223 0.00401503 1.78383e-07 48 6.11693 1.7736e-07 1.20007e-05 0.713492 3.44889e+07
1.85928 6.11778 0.00473835 1.50306e-07 72 6.12673 1.50526e-07 1.05151e-05 1.02919 4.07021e+07
1.96483 9.46024 0.00559198 1.96946e-07 54 9.18999 1.9132e-07 9.20606e-06 1.15523 4.80347e+07
2.07637 8.44741 0.00659939 1.49015e-07 104 8.52844 1.50444e-07 8.05366e-06 1.92429 5.66883e+07
2.19424 5.98204 0.00778828 8.94165e-08 120 6.06629 9.06759e-08 7.04008e-06 1.52413 6.69008e+07
2.3188 6.89808 0.00919136 8.73692e-08 156 6.68261 8.46401e-08 6.1494e-06 2.21641 7.89532e+07
2.45043 8.30139 0.0108472 8.90928e-08 126 8.23646 8.8396e-08 5.36741e-06 2.09145 9.31768e+07
2.58954 8.9244 0.0128014 8.11583e-08 192 9.00423 8.18843e-08 4.68145e-06 3.32854 1.09963e+08
2.73654 23.3933 0.0151076 1.80263e-07 152 23.9158 1.84289e-07 4.08023e-06 6.7153 1.29773e+08
2.89188 10.5156 0.0178292 6.86611e-08 378 10.5999 6.92116e-08 3.55373e-06 7.30328 1.53152e+08
3.05605 11.7509 0.0210412 6.50143e-08 264 11.6069 6.42177e-08 3.09304e-06 5.54917 1.80743e+08
3.22953 11.7147 0.0248319 5.49203e-08 366 11.5847 5.43109e-08 2.69025e-06 7.47172 2.13304e+08
3.41286 9.98988 0.0293054 3.96847e-08 428 9.89394 3.93036e-08 2.33837e-06 7.26361 2.51731e+08
3.6066 14.2187 0.0345848 4.78612e-08 486 14.013 4.7169e-08 2.0312e-06 11.4516 2.97081e+08
3.81134 12.2298 0.0408154 3.48823e-08 600 12.2437 3.49219e-08 1.76327e-06 11.8697 3.50601e+08
4.0277 16.7429 0.0481684 4.0465e-08 738 16.6931 4.03446e-08 1.52972e-06 19.522 4.13763e+08
4.25634 17.4721 0.056846 3.57812e-08 824 17.434 3.57032e-08 1.32631e-06 22.2299 4.88304e+08
4.49796 18.0506 0.067087 3.1323e-08 954 17.8874 3.10398e-08 1.14926e-06 26.0013 5.76273e+08
4.7533 17.8631 0.0791729 2.62659e-08 1094 17.8242 2.62086e-08 9.95263e-07 28.8716 6.8009e+08
5.02313 20.585 0.0934361 2.56476e-08 1332 20.6354 2.57104e-08 8.61414e-07 39.6587 8.0261e+08
5.30828 24.1955 0.110269 2.55441e-08 1614 24.1719 2.55193e-08 7.45152e-07 55.3286 9.47202e+08
5.60962 26.4447 0.130134 2.36569e-08 1850 26.4362 2.36493e-08 6.44232e-07 67.9338 1.11784e+09
5.92807 24.7373 0.153578 1.87514e-08 2238 24.7102 1.87308e-08 5.56685e-07 75.3847 1.31923e+09
6.26459 24.7709 0.181246 1.59105e-08 2546 24.8758 1.59779e-08 4.80786e-07 84.2542 1.55689e+09
6.62021 26.0329 0.213898 1.41686e-08 3264 26.005 1.41534e-08 4.15026e-07 111.43 1.83737e+09
6.99602 29.5835 0.252432 1.36432e-08 3506 29.6236 1.36617e-08 3.58083e-07 133.581 2.16837e+09
7.39317 30.4608 0.297908 1.19034e-08 4506 30.4633 1.19043e-08 3.08803e-07 173.692 2.55901e+09
7.81286 35.9409 0.351577 1.19009e-08 5018 35.828 1.18635e-08 2.66181e-07 224.353 3.02002e+09
8.25637 35.6256 0.414914 9.99572e-09 5852 35.5941 9.98689e-09 2.29336e-07 255.062 3.56409e+09
8.72507 38.2013 0.489662 9.08221e-09 7362 38.145 9.06884e-09 1.97503e-07 338.543 4.20617e+09
9.22037 38.4161 0.577876 7.73906e-09 8306 38.3418 7.7241e-09 1.70014e-07 378.09 4.96392e+09
9.74378 42.6439 0.681982 7.27938e-09 9698 42.57 7.26676e-09 1.46289e-07 482.575 5.85818e+09
10.2969 45.5457 0.804843 6.58789e-09 11816 45.4619 6.57577e-09 1.25822e-07 618.669 6.91355e+09
10.8814 49.7756 0.949838 6.10066e-09 13682 49.6727 6.08805e-09 1.08175e-07 771.61 8.15905e+09
11.4992 51.5183 1.12095 5.35037e-09 16152 51.4903 5.34746e-09 9.29669e-08 929.57 9.62892e+09
12.1519 53.6677 1.3229 4.72277e-09 19472 53.5626 4.71353e-09 7.98658e-08 1151.45 1.13636e+10
12.8418 56.1097 1.56122 4.18393e-09 22670 55.9511 4.1721e-09 6.85852e-08 1382.95 1.34108e+10
13.5708 59.7362 1.84248 3.77438e-09 26224 59.6367 3.76809e-09 5.88765e-08 1681.13 1.58268e+10
14.3411 63.5222 2.17441 3.40091e-09 31640 63.504 3.39993e-09 5.05241e-08 2129.77 1.8678e+10
15.1552 66.5284 2.56613 3.01813e-09 37484 66.3991 3.01227e-09 4.33417e-08 2610.23 2.20429e+10
16.0156 71.8201 3.02843 2.76083e-09 43856 71.7341 2.75752e-09 3.71677e-08 3257.63 2.6014e+10
16.9247 75.2325 3.574 2.45053e-09 51362 75.1715 2.44855e-09 3.18628e-08 3950.2 3.07005e+10
17.8855 78.7835 4.21787 2.17446e-09 61636 78.6725 2.1714e-09 2.73063e-08 4908.21 3.62312e+10
18.9008 83.1312 4.97773 1.94421e-09 72218 82.97 1.94044e-09 2.33941e-08 6001.79 4.27584e+10
19.9738 89.2875 5.87448 1.76942e-09 84586 89.1089 1.76588e-09 2.00364e-08 7469.82 5.04614e+10
21.1076 93.1345 6.93279 1.56391e-09 100708 92.9734 1.56121e-09 1.71555e-08 9180.64 5.95522e+10
22.3058 98.1111 8.18175 1.39599e-09 118712 97.9194 1.39326e-09 1.46847e-08 11285.3 7.02807e+10
23.5721 102.227 9.65571 1.23251e-09 140410 102.02 1.23002e-09 1.25662e-08 13771.7 8.29419e+10
24.9102 107.559 11.3952 1.09884e-09 164374 107.377 1.09698e-09 1.07504e-08 16801.4 9.78842e+10
26.3243 113.443 13.4481 9.82033e-10 194680 113.292 9.80727e-10 9.19452e-09 20793.1 1.15518e+11
27.8187 119.223 15.8708 8.74523e-10 230196 119.048 8.73242e-10 7.86182e-09 25606.2 1.36329e+11
29.3979 124.944 18.73 7.76581e-10 271156 124.749 7.75371e-10 6.72061e-09 31332.7 1.60889e+11
31.0667 131.096 22.1042 6.90439e-10 321076 130.854 6.8916e-10 5.74366e-09 38596.2 1.89874e+11
32.8303 138.388 26.0864 6.17582e-10 377436 138.145 6.16497e-10 4.90756e-09 47497.6 2.2408e+11
34.694 144.587 30.7859 5.46748e-10 447594 144.31 5.45699e-10 4.19221e-09 58375.3 2.64449e+11
36.6634 151.612 36.3321 4.85797e-10 525078 151.329 4.84888e-10 3.58032e-09 71245.2 3.1209e+11
38.7447 158.694 42.8774 4.30866e-10 621924 158.406 4.30084e-10 3.05709e-09 87654.1 3.68314e+11
40.9442 167.436 50.6018 3.85207e-10 732630 167.14 3.84525e-10 2.60976e-09 108138 4.34667e+11
43.2685 176.159 59.7179 3.43408e-10 865596 175.86 3.42826e-10 2.22743e-09 133451 5.12973e+11
45.7247 185.022 70.4762 3.05626e-10 1.02168e+06 184.706 3.05104e-10 1.90073e-09 164279 6.05386e+11
48.3204 194.583 83.1727 2.72354e-10 1.20544e+06 194.212 2.71835e-10 1.62163e-09 202454 7.14448e+11
51.0634 204.475 98.1565 2.42511e-10 1.42103e+06 204.112 2.42081e-10 1.38326e-09 249134 8.43158e+11
53.9621 215.901 115.84 2.16974e-10 1.67997e+06 215.516 2.16587e-10 1.1797e-09 308983 9.95055e+11
57.0254 228.749 136.709 1.94793e-10 1.98018e+06 228.318 1.94426e-10 1.00592e-09 383456 1.17432e+12
60.2626 242.538 161.337 1.75007e-10 2.33957e+06 242.077 1.74674e-10 8.57591e-10 477433 1.38587e+12
63.6835 257.388 190.402 1.57372e-10 2.75676e+06 256.885 1.57064e-10 7.3101e-10 593476 1.63554e+12
67.2987 274.944 224.704 1.42444e-10 3.25638e+06 274.426 1.42176e-10 6.23009e-10 744534 1.93019e+12
71.1191 295.215 265.185 1.29599e-10 3.84387e+06 294.623 1.29339e-10 5.30879e-10 938370 2.27792e+12
75.1563 317.619 312.958 1.18149e-10 4.53277e+06 316.954 1.17902e-10 4.52303e-10 1.18403e+06 2.68829e+12
79.4227 343.387 369.339 1.08235e-10 5.35083e+06 342.651 1.08003e-10 3.85299e-10 1.50311e+06 3.17259e+12
83.9313 373.405 435.876 9.97304e-11 6.32174e+06 372.567 9.95066e-11 3.28173e-10 1.92115e+06 3.74415e+12
88.6959 408.453 514.4 9.24381e-11 7.44986e+06 407.499 9.22222e-11 2.79476e-10 2.46408e+06 4.41866e+12
93.7309 449.616 607.071 8.62208e-11 8.79764e+06 448.544 8.60153e-11 2.37972e-10 3.18751e+06 5.2147e+12
99.0518 498.106 716.436 8.09383e-11 1.03827e+07 496.882 8.07395e-11 2.02605e-10 4.14777e+06 6.15414e+12
104.675 555.16 845.504 7.64385e-11 1.22515e+07 553.711 7.62391e-11 1.72471e-10 5.42983e+06 7.26283e+12
110.617 623.278 997.824 7.27174e-11 1.44573e+07 621.608 7.25225e-11 1.468e-10 7.16143e+06 8.57124e+12
116.896 703.551 1177.58 6.95526e-11 1.70664e+07 701.619 6.93617e-11 1.24935e-10 9.50106e+06 1.01154e+13
123.532 798.058 1389.73 6.6852e-11 2.0139e+07 795.805 6.66632e-11 1.06313e-10 1.26638e+07 1.19377e+13
130.545 910.905 1640.09 6.46569e-11 2.37643e+07 908.255 6.44687e-11 9.04567e-11 1.69863e+07 1.40883e+13
137.955 1045.2 1935.56 6.28642e-11 2.80503e+07 1042.08 6.26767e-11 7.69563e-11 2.29137e+07 1.66263e+13
145.787 1204.5 2284.26 6.13862e-11 3.30981e+07 1200.85 6.12005e-11 6.54636e-11 3.10366e+07 1.96216e+13
154.063 1393.19 2695.77 6.01643e-11 3.90634e+07 1388.88 5.99781e-11 5.56812e-11 4.22086e+07 2.31565e+13
162.808 1618.11 3181.42 5.92102e-11 4.61057e+07 1613.05 5.90251e-11 4.73556e-11 5.76473e+07 2.73282e+13
172.051 1885.33 3754.56 5.8457e-11 5.44046e+07 1879.32 5.82708e-11 4.02708e-11 7.89736e+07 3.22515e+13
181.818 2203.17 4430.96 5.78843e-11 6.42064e+07 2196.08 5.76981e-11 3.42426e-11 1.08536e+08 3.80616e+13
192.139 2580.2 5229.21 5.74416e-11 7.57748e+07 2571.78 5.72543e-11 2.91139e-11 1.49503e+08 4.49186e+13
203.046 3028.42 6171.26 5.71283e-11 8.94213e+07 3018.47 5.69407e-11 2.4751e-11 2.06395e+08 5.30108e+13
214.572 3563.82 7283.03 5.69658e-11 1.05538e+08 3552.03 5.67772e-11 2.10401e-11 2.85744e+08 6.25608e+13
226.753 4201.65 8595.09 5.69089e-11 1.24552e+08 4187.63 5.67189e-11 1.78839e-11 3.96339e+08 7.38313e+13
239.625 4964.92 10143.5 5.69815e-11 1.46987e+08 4948.2 5.67895e-11 1.51999e-11 5.51026e+08 8.71322e+13
253.228 5882.01 11970.9 5.72017e-11 1.7347e+08 5861.93 5.70064e-11 1.29176e-11 7.68159e+08 1.02829e+14
267.603 6987.98 14127.5 5.75833e-11 2.04703e+08 6963.86 5.73846e-11 1.09771e-11 1.07382e+09 1.21354e+14
282.795 8329.97 16672.6 5.81634e-11 2.4161e+08 8300.82 5.79599e-11 9.3274e-12 1.50662e+09 1.43217e+14
298.848 9976.32 19676.2 5.90254e-11 2.85122e+08 9940.55 5.88138e-11 7.925e-12 2.12359e+09 1.69017e+14
315.813 12018.6 23220.9 6.0254e-11 3.36491e+08 11974.5 6.00325e-11 6.73295e-12 3.0113e+09 1.99466e+14
333.741 14596.4 27404.3 6.20068e-11 3.97115e+08 14540.9 6.1771e-11 5.71979e-12 4.30502e+09 2.35401e+14
352.686 17924.2 32341.2 6.45199e-11 4.68637e+08 17852.8 6.4263e-11 4.85874e-12 6.2231e+09 2.77809e+14
372.707 22347.9 38167.6 6.81636e-11 5.53074e+08 22253.6 6.78761e-11 4.12703e-12 9.13478e+09 3.27857e+14
393.865 28463.9 45043.5 7.35651e-11 6.52716e+08 28334.4 7.32305e-11 3.50528e-12 1.36985e+10 3.86921e+14
416.224 33606.6 53158.3 7.35976e-11 2.2184e+08 35552.6 7.78593e-11 2.97701e-12 5.48432e+09 4.56626e+14
439.852 0 62734.9 0 0 0 0 2.52819e-12 0 5.38888e+14
464.821 0 74036.7 0 0 0 0 2.1469e-12 0 6.35971e+14
491.207 0 87374.6 0 0 0 0 1.82301e-12 0 7.50542e+14
519.092 0 103115 0 0 0 0 1.54789e-12 0 8.85755e+14
548.56 0 121692 0 0 0 0 1.31422e-12 0 1.04533e+15
579.7 0 143615 0 0 0 0 1.11576e-12 0 1.23364e+15
612.608 0 169488 0 0 0 0 9.47223e-13 0 1.45589e+15
647.384 0 200021 0 0 0 0 8.041e-13 0 1.71817e+15
684.134 0 236056 0 0 0 0 6.82568e-13 0 2.0277e+15
722.971 0 278582 0 0 0 0 5.79376e-13 0 2.393e+15
764.012 0 328769 0 0 0 0 4.91762e-13 0 2.8241e+15
0.551027
200
1.0655e+09
8589934592
0.0129181 0.000944374 1.58924e-09 6.91775e-05 6 0.000935729 6.85442e-05 0.00677225 0.0612891 13.6515
0.0136515 0 1.87554e-09 0 0 0 0 0.00688819 0 16.1108
0.0144264 0 2.21343e-09 0 0 0 0 0.00699249 0 19.0132
0.0152454 0 2.61218e-09 0 0 0 0 0.00708412 0 22.4385
0.0161108 0 3.08278e-09 0 0 0 0 0.00716212 0 26.4808
0.0170254 0 3.63815e-09 0 0 0 0 0.00722559 0 31.2514
0.0179919 0.00330104 4.29357e-09 8.9504e-05 12 0.00329679 8.93887e-05 0.00727371 0.147662 36.8815
0.0190132 0 5.06707e-09 0 0 0 0 0.00730578 0 43.5258
0.0200925 0 5.97991e-09 0 0 0 0 0.00732122 0 51.367
0.0212331 0.00294353 7.05721e-09 4.85564e-05 8 0.00294097 4.85141e-05 0.00731958 0.0530701 60.621
0.0224385 0 8.32858e-09 0 0 0 0 0.00730056 0 71.542
0.0237123 0 9.829e-09 0 0 0 0 0.00726401 0 84.4305
0.0250583 0.00604319 1.15997e-08 6.06497e-05 6 0.00604034 6.06211e-05 0.00720995 0.0504716 99.6408
0.0264808 0 1.36894e-08 0 0 0 0 0.00713857 0 117.591
0.0279841 0.0113526 1.61556e-08 8.18053e-05 24 0.0113409 8.17213e-05 0.00705021 0.278478 138.776
0.0295727 0 1.90661e-08 0 0 0 0 0.00694538 0 163.777
0.0312514 0.00589273 2.25009e-08 3.04878e-05 24 0.00592265 3.06426e-05 0.00682475 0.107214 193.281
0.0330255 0 2.65545e-08 0 0 0 0 0.00668915 0 228.102
0.0349003 0.0108757 3.13384e-08 4.0401e-05 12 0.0107887 4.00775e-05 0.00653951 0.0741358 269.195
0.0368815 0.0225082 3.69841e-08 7.08494e-05 30 0.0222685 7.00949e-05 0.00637693 0.333308 317.691
0.0389751 0.0260991 4.36469e-08 6.96118e-05 24 0.0258306 6.88957e-05 0.00620256 0.269354 374.924
0.0411876 0.0311828 5.151e-08 7.04748e-05 24 0.030971 6.99962e-05 0.00601767 0.281072 442.467
0.0435258 0.0142149 6.07896e-08 2.72222e-05 8 0.0142138 2.72201e-05 0.00582358 0.0373958 522.179
0.0459966 0.0323403 7.1741e-08 5.24791e-05 72 0.0322608 5.23501e-05 0.00562166 0.672131 616.251
0.0486077 0 8.46654e-08 0 0 0 0 0.0054133 0 727.27
0.051367 0.0445742 9.99181e-08 5.19337e-05 54 0.0443493 5.16717e-05 0.00519989 0.539323 858.29
0.054283 0.0385366 1.17919e-07 3.80453e-05 60 0.0386769 3.81838e-05 0.0049828 0.458119 1012.91
0.0573645 0.0502213 1.39162e-07 4.20124e-05 96 0.0499916 4.18202e-05 0.00476339 0.846707 1195.39
0.060621 0.051713 1.64232e-07 3.66565e-05 24 0.0510124 3.61599e-05 0.00454293 0.193654 1410.75
0.0640622 0.0738699 1.93819e-07 4.43691e-05 134 0.073723 4.42809e-05 0.00432265 1.37542 1664.89
0.0676989 0.0688342 2.28736e-07 3.50332e-05 120 0.0684251 3.4825e-05 0.00410371 1.02443 1964.83
0.071542 0.0664571 2.69944e-07 2.86601e-05 108 0.0656112 2.82953e-05 0.00388717 0.796284 2318.8
0.0756032 0.0846876 3.18575e-07 3.0947e-05 174 0.083974 3.06862e-05 0.00367401 1.46564 2736.54
0.079895 0.0815993 3.75967e-07 2.52666e-05 168 0.0808269 2.50274e-05 0.0034651 1.22501 3229.53
0.0844305 0.104305 4.43698e-07 2.73669e-05 168 0.104841 2.75076e-05 0.00326121 1.4098 3811.34
0.0892234 0.103698 5.23632e-07 2.30545e-05 290 0.103337 2.29742e-05 0.00306301 2.18275 4497.96
0.0942883 0.119481 6.17966e-07 2.25084e-05 288 0.119732 2.25556e-05 0.00287109 2.25783 5308.28
0.0996408 0.107645 7.29294e-07 1.7183e-05 366 0.10668 1.7029e-05 0.00268591 2.34148 6264.59
0.105297 0.132845 8.60678e-07 1.79686e-05 420 0.132082 1.78654e-05 0.00250785 3.00926 7393.17
0.111275 0.15424 1.01573e-06 1.76779e-05 398 0.15402 1.76525e-05 0.00233721 3.01033 8725.07
0.117591 0.188618 1.19872e-06 1.83179e-05 624 0.189464 1.84e-05 0.00217419 5.2573 10296.9
0.124267 0.20183 1.41467e-06 1.66089e-05 642 0.2013 1.65653e-05 0.00201893 5.28147 12151.9
0.131321 0.215543 1.66953e-06 1.50297e-05 800 0.215703 1.50409e-05 0.00187147 6.42477 14341.1
0.138776 0.234633 1.9703e-06 1.38633e-05 858 0.235073 1.38893e-05 0.00173182 6.86836 16924.7
0.146654 0.247706 2.32525e-06 1.24016e-05 1080 0.249527 1.24927e-05 0.00159991 8.37154 19973.8
0.154979 0.267131 2.74415e-06 1.13325e-05 1286 0.268759 1.14016e-05 0.00147563 9.87617 23572.1
0.163777 0.311029 3.23852e-06 1.11806e-05 1650 0.311487 1.1197e-05 0.00135884 13.5763 27818.7
0.173074 0.302555 3.82195e-06 9.21572e-06 1778 0.302923 9.22693e-06 0.00124933 13.1155 32830.3
0.182899 0.329965 4.51048e-06 8.51639e-06 2112 0.330218 8.5229e-06 0.00114689 15.6829 38744.7
0.193281 0.405886 5.32305e-06 8.87673e-06 2570 0.406508 8.89035e-06 0.00105127 21.7006 45724.7
0.204254 0.393214 6.28202e-06 7.28686e-06 3030 0.393255 7.28761e-06 0.000962209 22.9463 53962.1
0.215848 0.434594 7.41374e-06 6.82427e-06 3434 0.434266 6.81913e-06 0.000879423 26.6476 63683.5
0.228102 0.481272 8.74934e-06 6.40361e-06 4218 0.481843 6.41121e-06 0.000802624 33.6527 75156.3
0.24105 0.518323 1.03256e-05 5.84382e-06 4766 0.518559 5.84648e-06 0.000731515 38.0739 88695.9
0.254734 0.553475 1.21857e-05 5.28757e-06 6026 0.552887 5.28195e-06 0.000665798 47.8567 104675
0.269195 0.612256 1.4381e-05 4.95625e-06 6480 0.612147 4.95537e-06 0.000605173 53.0699 123532
0.284476 0.653495 1.69718e-05 4.48254e-06 8162 0.654309 4.48812e-06 0.000549345 66.6002 145787
0.300625 0.741791 2.00293e-05 4.31147e-06 9578 0.742067 4.31307e-06 0.000498021 82.9188 172051
0.317691 0.798197 2.36377e-05 3.93112e-06 11234 0.797695 3.92864e-06 0.000450916 97.9387 203046
0.335725 0.843174 2.78961e-05 3.51872e-06 13344 0.842579 3.51623e-06 0.000407755 115.152 239625
0.354784 0.909534 3.29216e-05 3.21624e-06 15464 0.908498 3.21257e-06 0.000368269 135.053 282795
0.374924 1.01367 3.88525e-05 3.0373e-06 18458 1.01302 3.03534e-06 0.000332202 168.761 333741
0.396207 1.11716 4.58519e-05 2.8364e-06 22232 1.11541 2.83195e-06 0.000299307 210.683 393865
0.418699 1.20173 5.41123e-05 2.58537e-06 25628 1.19884 2.57914e-06 0.00026935 245.992 464821
0.442467 1.32238 6.38607e-05 2.41064e-06 30320 1.319 2.40448e-06 0.000242108 301.893 548560
0.467585 1.46319 7.53654e-05 2.26016e-06 35452 1.4609 2.25662e-06 0.00021737 368.621 647384
0.494129 1.58505 8.89427e-05 2.07464e-06 41792 1.58382 2.07304e-06 0.000194938 444.772 764012
0.522179 1.7395 0.000104966 1.92924e-06 49988 1.73881 1.92848e-06 0.000174625 552.264 901651
0.551822 1.90592 0.000123876 1.79113e-06 59110 1.90323 1.78861e-06 0.000156255 677.572 1.06409e+06
0.583147 2.07937 0.000146192 1.65584e-06 69716 2.0764 1.65347e-06 0.000139664 826.543 1.25578e+06
0.616251 2.30149 0.000172529 1.55295e-06 82210 2.29687 1.54983e-06 0.0001247 1023.8 1.48202e+06
0.651234 2.5562 0.000203611 1.46151e-06 96722 2.55063 1.45833e-06 0.00011122 1270.99 1.74901e+06
0.688203 2.81744 0.000240292 1.36498e-06 113098 2.81296 1.36281e-06 9.90935e-05 1557.88 2.06409e+06
0.72727 3.12164 0.000283581 1.28149e-06 135190 3.11696 1.27957e-06 8.81969e-05 1964.3 2.43595e+06
0.768555 3.43389 0.000334669 1.19448e-06 158170 3.42907 1.19281e-06 7.84179e-05 2409.29 2.87479e+06
0.812184 3.8056 0.000394961 1.12171e-06 188560 3.80006 1.12007e-06 6.96525e-05 3036.63 3.39269e+06
0.85829 4.21315 0.000466114 1.05226e-06 220444 4.20561 1.05038e-06 6.1805e-05 3753.18 4.00389e+06
0.907013 4.67052 0.000550086 9.88428e-07 261388 4.66338 9.86916e-07 5.47875e-05 4715.73 4.7252e+06
0.958501 5.21528 0.000649185 9.35231e-07 308244 5.20678 9.33707e-07 4.85194e-05 5941.53 5.57646e+06
1.01291 5.7966 0.000766138 8.80798e-07 364396 5.78615 8.79211e-07 4.29272e-05 7476.83 6.58107e+06
1.07041 6.43352 0.00090416 8.2835e-07 429162 6.42163 8.26819e-07 3.79435e-05 9369.1 7.76667e+06
1.13118 7.14091 0.00106705 7.79077e-07 506358 7.12898 7.77776e-07 3.3507e-05 11773.4 9.16586e+06
1.19539 7.93794 0.00125928 7.33832e-07 598590 7.9225 7.32404e-07 2.9562e-05 14859.1 1.08171e+07
1.26325 8.83674 0.00148614 6.92217e-07 704844 8.82083 6.90971e-07 2.60578e-05 18723.9 1.27658e+07
1.33496 9.78272 0.00175387 6.4934e-07 834620 9.76401 6.48098e-07 2.29484e-05 23616.1 1.50656e+07
1.41075 10.8951 0.00206984 6.1278e-07 981444 10.8734 6.11562e-07 2.01923e-05 29784.1 1.77798e+07
1.49083 12.0993 0.00244272 5.76627e-07 1.15998e+06 12.0776 5.75592e-07 1.77518e-05 37679.3 2.09828e+07
1.57546 13.3999 0.00288279 5.41125e-07 1.36931e+06 13.3755 5.40141e-07 1.55929e-05 47519.7 2.4763e+07
1.66489 14.89 0.00340213 5.09513e-07 1.61652e+06 14.8611 5.08524e-07 1.3685e-05 60185.2 2.92241e+07
1.75941 16.4579 0.00401503 4.77193e-07 1.90601e+06 16.426 4.76269e-07 1.20007e-05 75790.2 3.44889e+07
1.85928 18.2131 0.00473835 4.47473e-07 2.24913e+06 18.1781 4.46614e-07 1.05151e-05 95712.1 4.07021e+07
1.96483 20.0754 0.00559198 4.17934e-07 2.65744e+06 20.0361 4.17118e-07 9.20606e-06 120642 4.80347e+07
2.07637 22.1776 0.00659939 3.9122e-07 3.13125e+06 22.1355 3.90478e-07 8.05366e-06 152106 5.66883e+07
2.19424 24.3565 0.00778828 3.64069e-07 3.69915e+06 24.3108 3.63385e-07 7.04008e-06 191297 6.69008e+07
2.3188 26.7585 0.00919136 3.38915e-07 4.36472e+06 26.7076 3.38271e-07 6.1494e-06 240556 7.89532e+07
2.45043 29.3126 0.0108472 3.14591e-07 5.14913e+06 29.2593 3.14019e-07 5.36741e-06 301798 9.31768e+07
2.58954 32.0694 0.0128014 2.91639e-07 6.07894e+06 32.0112 2.91109e-07 4.68145e-06 378697 1.09963e+08
2.73654 34.9335 0.0151076 2.69189e-07 7.17304e+06 34.871 2.68708e-07 4.08023e-06 473234 1.29773e+08
2.89188 37.9962 0.0178292 2.48095e-07 8.46557e+06 37.9289 2.47656e-07 3.55373e-06 591002 1.53152e+08
3.05605 41.1987 0.0210412 2.27941e-07 9.98773e+06 41.1279 2.2755e-07 3.09304e-06 736045 1.80743e+08
3.22953 44.6361 0.0248319 2.09261e-07 1.1797e+07 44.5586 2.08897e-07 2.69025e-06 917628 2.13304e+08
3.41286 48.192 0.0293054 1.91442e-07 1.39144e+07 48.108 1.91108e-07 2.33837e-06 1.13917e+06 2.51731e+08
3.6066 51.9341 0.0345848 1.74814e-07 1.64163e+07 51.8451 1.74515e-07 2.0312e-06 1.41286e+06 2.97081e+08
3.81134 55.8458 0.0408154 1.59286e-07 1.93821e+07 55.7507 1.59014e-07 1.76327e-06 1.7509e+06 3.50601e+08
4.0277 59.9342 0.0481684 1.44851e-07 2.28754e+07 59.8324 1.44606e-07 1.52972e-06 2.1661e+06 4.13763e+08
4.25634 64.251 0.056846 1.3158e-07 2.69929e+07 64.1421 1.31357e-07 1.32631e-06 2.67791e+06 4.88304e+08
4.49796 68.7614 0.067087 1.19321e-07 3.18542e+07 68.6464 1.19121e-07 1.14926e-06 3.30724e+06 5.76273e+08
4.7533 73.3942 0.0791729 1.07918e-07 3.75892e+07 73.2732 1.0774e-07 9.95263e-07 4.07587e+06 6.8009e+08
5.02313 78.2233 0.0934361 9.74611e-08 4.43706e+07 78.0943 9.73005e-08 8.61414e-07 5.02013e+06 8.0261e+08
5.30828 83.2803 0.110269 8.79224e-08 5.23593e+07 83.1414 8.77758e-08 7.45152e-07 6.178e+06 9.47202e+08
5.60962 88.5126 0.130134 7.91815e-08 6.1787e+07 88.3687 7.90529e-08 6.44232e-07 7.59414e+06 1.11784e+09
5.92807 93.9637 0.153578 7.12264e-08 7.29346e+07 93.8092 7.11093e-08 5.56685e-07 9.33179e+06 1.31923e+09
6.26459 99.6761 0.181246 6.40227e-08 8.60651e+07 99.511 6.39166e-08 4.80786e-07 1.14606e+07 1.55689e+09
6.62021 105.673 0.213898 5.75133e-08 1.01558e+08 105.5 5.74193e-08 4.15026e-07 1.40737e+07 1.83737e+09
6.99602 111.857 0.252432 5.15859e-08 1.1986e+08 111.675 5.15019e-08 3.58083e-07 1.72672e+07 2.16837e+09
7.39317 118.392 0.297908 4.62646e-08 1.41457e+08 118.198 4.61891e-08 3.08803e-07 2.11929e+07 2.55901e+09
7.81286 125.26 0.351577 4.14764e-08 1.66936e+08 125.056 4.1409e-08 2.66181e-07 2.6012e+07 3.02002e+09
8.25637 132.463 0.414914 3.7166e-08 1.97025e+08 132.245 3.71049e-08 2.29336e-07 3.19297e+07 3.56409e+09
8.72507 140.135 0.489662 3.33166e-08 2.32497e+08 139.904 3.32616e-08 1.97503e-07 3.92197e+07 4.20617e+09
9.22037 148.255 0.577876 2.98666e-08 2.74404e+08 148.007 2.98166e-08 1.70014e-07 4.82049e+07 4.96392e+09
9.74378 157.268 0.681982 2.68459e-08 3.2382e+08 156.999 2.67999e-08 1.46289e-07 5.9425e+07 5.85818e+09
10.2969 167.359 0.804843 2.42074e-08 3.82165e+08 167.062 2.41644e-08 1.25822e-07 7.3526e+07 6.91355e+09
10.8814 179.348 0.949838 2.19815e-08 4.51027e+08 179.007 2.19397e-08 1.08175e-07 9.16496e+07 8.15905e+09
11.4992 194.714 1.12095 2.02218e-08 5.32251e+08 194.3 2.01788e-08 9.29669e-08 1.15773e+08 9.62892e+09
12.1519 216.247 1.3229 1.90298e-08 6.28157e+08 215.707 1.89823e-08 7.98658e-08 1.49672e+08 1.13636e+10
12.8418 240.451 1.56122 1.79297e-08 3.82727e+08 248.875 1.85579e-08 6.85852e-08 1.00053e+08 1.34108e+10
13.5708 0 1.84248 0 0 0 0 5.88765e-08 0 1.58268e+10
14.3411 0 2.17441 0 0 0 0 5.05241e-08 0 1.8678e+10
15.1552 0 2.56613 0 0 0 0 4.33417e-08 0 2.20429e+10
16.0156 0 3.02843 0 0 0 0 3.71677e-08 0 2.6014e+10
16.9247 0 3.574 0 0 0 0 3.18628e-08 0 3.07005e+10
17.8855 0 4.21787 0 0 0 0 2.73063e-08 0 3.62312e+10
18.9008 0 4.97773 0 0 0 0 2.33941e-08 0 4.27584e+10
19.9738 0 5.87448 0 0 0 0 2.00364e-08 0 5.04614e+10
21.1076 0 6.93279 0 0 0 0 1.71555e-08 0 5.95522e+10
22.3058 0 8.18175 0 0 0 0 1.46847e-08 0 7.02807e+10
23.5721 0 9.65571 0 0 0 0 1.25662e-08 0 8.29419e+10
24.9102 0 11.3952 0 0 0 0 1.07504e-08 0 9.78842e+10
26.3243 0 13.4481 0 0 0 0 9.19452e-09 0 1.15518e+11
27.8187 0 15.8708 0 0 0 0 7.86182e-09 0 1.36329e+11
29.3979 0 18.73 0 0 0 0 6.72061e-09 0 1.60889e+11
31.0667 0 22.1042 0 0 0 0 5.74366e-09 0 1.89874e+11
32.8303 0 26.0864 0 0 0 0 4.90756e-09 0 2.2408e+11
34.694 0 30.7859 0 0 0 0 4.19221e-09 0 2.64449e+11
36.6634 0 36.3321 0 0 0 0 3.58032e-09 0 3.1209e+11
38.7447 0 42.8774 0 0 0 0 3.05709e-09 0 3.68314e+11
40.9442 0 50.6018 0 0 0 0 2.60976e-09 0 4.34667e+11
43.2685 0 59.7179 0 0 0 0 2.22743e-09 0 5.12973e+11
45.7247 0 70.4762 0 0 0 0 1.90073e-09 0 6.05386e+11
48.3204 0 83.1727 0 0 0 0 1.62163e-09 0 7.14448e+11
51.0634 0 98.1565 0 0 0 0 1.38326e-09 0 8.43158e+11
53.9621 0 115.84 0 0 0 0 1.1797e-09 0 9.95055e+11
57.0254 0 136.709 0 0 0 0 1.00592e-09 0 1.17432e+12
60.2626 0 161.337 0 0 0 0 8.57591e-10 0 1.38587e+12
63.6835 0 190.402 0 0 0 0 7.3101e-10 0 1.63554e+12
67.2987 0 224.704 0 0 0 0 6.23009e-10 0 1.93019e+12
71.1191 0 265.185 0 0 0 0 5.30879e-10 0 2.27792e+12
75.1563 0 312.958 0 0 0 0 4.52303e-10 0 2.68829e+12
79.4227 0 369.339 0 0 0 0 3.85299e-10 0 3.17259e+12
83.9313 0 435.876 0 0 0 0 3.28173e-10 0 3.74415e+12
88.6959 0 514.4 0 0 0 0 2.79476e-10 0 4.41866e+12
93.7309 0 607.071 0 0 0 0 2.37972e-10 0 5.2147e+12
99.0518 0 716.436 0 0 0 0 2.02605e-10 0 6.15414e+12
104.675 0 845.504 0 0 0 0 1.72471e-10 0 7.26283e+12
110.617 0 997.824 0 0 0 0 1.468e-10 0 8.57124e+12
116.896 0 1177.58 0 0 0 0 1.24935e-10 0 1.01154e+13
123.532 0 1389.73 0 0 0 0 1.06313e-10 0 1.19377e+13
130.545 0 1640.09 0 0 0 0 9.04567e-11 0 1.40883e+13
137.955 0 1935.56 0 0 0 0 7.69563e-11 0 1.66263e+13
145.787 0 2284.26 0 0 0 0 6.54636e-11 0 1.96216e+13
154.063 0 2695.77 0 0 0 0 5.56812e-11 0 2.31565e+13
162.808 0 3181.42 0 0 0 0 4.73556e-11 0 2.73282e+13
172.051 0 3754.56 0 0 0 0 4.02708e-11 0 3.22515e+13
181.818 0 4430.96 0 0 0 0 3.42426e-11 0 3.80616e+13
192.139 0 5229.21 0 0 0 0 2.91139e-11 0 4.49186e+13
203.046 0 6171.26 0 0 0 0 2.4751e-11 0 5.30108e+13
214.572 0 7283.03 0 0 0 0 2.10401e-11 0 6.25608e+13
226.753 0 8595.09 0 0 0 0 1.78839e-11 0 7.38313e+13
239.625 0 10143.5 0 0 0 0 1.51999e-11 0 8.71322e+13
253.228 0 11970.9 0 0 0 0 1.29176e-11 0 1.02829e+14
267.603 0 14127.5 0 0 0 0 1.09771e-11 0 1.21354e+14
282.795 0 16672.6 0 0 0 0 9.3274e-12 0 1.43217e+14
298.848 0 19676.2 0 0 0 0 7.925e-12 0 1.69017e+14
315.813 0 23220.9 0 0 0 0 6.73295e-12 0 1.99466e+14
333.741 0 27404.3 0 0 0 0 5.71979e-12 0 2.35401e+14
352.686 0 32341.2 0 0 0 0 4.85874e-12 0 2.77809e+14
372.707 0 38167.6 0 0 0 0 4.12703e-12 0 3.27857e+14
393.865 0 45043.5 0 0 0 0 3.50528e-12 0 3.86921e+14
416.224 0 53158.3 0 0 0 0 2.97701e-12 0 4.56626e+14
439.852 0 62734.9 0 0 0 0 2.52819e-12 0 5.38888e+14
464.821 0 74036.7 0 0 0 0 2.1469e-12 0 6.35971e+14
491.207 0 87374.6 0 0 0 0 1.82301e-12 0 7.50542e+14
519.092 0 103115 0 0 0 0 1.54789e-12 0 8.85755e+14
548.56 0 121692 0 0 0 0 1.31422e-12 0 1.04533e+15
579.7 0 143615 0 0 0 0 1.11576e-12 0 1.23364e+15
612.608 0 169488 0 0 0 0 9.47223e-13 0 1.45589e+15
647.384 0 200021 0 0 0 0 8.041e-13 0 1.71817e+15
684.134 0 236056 0 0 0 0 6.82568e-13 0 2.0277e+15
722.971 0 278582 0 0 0 0 5.79376e-13 0 2.393e+15
764.012 0 328769 0 0 0 0 4.91762e-13 0 2.8241e+15
