0.0841144
200
1.0655e+09
8589934592
0.0129181 0 1.58924e-09 0 0 0 0 0.00677225 0 13.6515
0.0136515 0 1.87554e-09 0 0 0 0 0.00688819 0 16.1108
0.0144264 0 2.21343e-09 0 0 0 0 0.00699249 0 19.0132
0.0152454 0 2.61218e-09 0 0 0 0 0.00708412 0 22.4385
0.0161108 0 3.08278e-09 0 0 0 0 0.00716212 0 26.4808
0.0170254 0 3.63815e-09 0 0 0 0 0.00722559 0 31.2514
0.0179919 0 4.29357e-09 0 0 0 0 0.00727371 0 36.8815
0.0190132 0 5.06707e-09 0 0 0 0 0.00730578 0 43.5258
0.0200925 0 5.97991e-09 0 0 0 0 0.00732122 0 51.367
0.0212331 0 7.05721e-09 0 0 0 0 0.00731958 0 60.621
0.0224385 0 8.32858e-09 0 0 0 0 0.00730056 0 71.542
0.0237123 0 9.829e-09 0 0 0 0 0.00726401 0 84.4305
0.0250583 0 1.15997e-08 0 0 0 0 0.00720995 0 99.6408
0.0264808 0 1.36894e-08 0 0 0 0 0.00713857 0 117.591
0.0279841 0 1.61556e-08 0 0 0 0 0.00705021 0 138.776
0.0295727 0 1.90661e-08 0 0 0 0 0.00694538 0 163.777
0.0312514 0 2.25009e-08 0 0 0 0 0.00682475 0 193.281
0.0330255 0 2.65545e-08 0 0 0 0 0.00668915 0 228.102
0.0349003 0 3.13384e-08 0 0 0 0 0.00653951 0 269.195
0.0368815 0 3.69841e-08 0 0 0 0 0.00637693 0 317.691
0.0389751 0 4.36469e-08 0 0 0 0 0.00620256 0 374.924
0.0411876 0 5.151e-08 0 0 0 0 0.00601767 0 442.467
0.0435258 0 6.07896e-08 0 0 0 0 0.00582358 0 522.179
0.0459966 0 7.1741e-08 0 0 0 0 0.00562166 0 616.251
0.0486077 0 8.46654e-08 0 0 0 0 0.0054133 0 727.27
0.051367 0 9.99181e-08 0 0 0 0 0.00519989 0 858.29
0.054283 0 1.17919e-07 0 0 0 0 0.0049828 0 1012.91
0.0573645 0 1.39162e-07 0 0 0 0 0.00476339 0 1195.39
0.060621 0 1.64232e-07 0 0 0 0 0.00454293 0 1410.75
0.0640622 0 1.93819e-07 0 0 0 0 0.00432265 0 1664.89
0.0676989 0 2.28736e-07 0 0 0 0 0.00410371 0 1964.83
0.071542 0 2.69944e-07 0 0 0 0 0.00388717 0 2318.8
0.0756032 0 3.18575e-07 0 0 0 0 0.00367401 0 2736.54
0.079895 0 3.75967e-07 0 0 0 0 0.0034651 0 3229.53
0.0844305 0 4.43698e-07 0 0 0 0 0.00326121 0 3811.34
0.0892234 0 5.23632e-07 0 0 0 0 0.00306301 0 4497.96
0.0942883 0 6.17966e-07 0 0 0 0 0.00287109 0 5308.28
0.0996408 0 7.29294e-07 0 0 0 0 0.00268591 0 6264.59
0.105297 0 8.60678e-07 0 0 0 0 0.00250785 0 7393.17
0.111275 0 1.01573e-06 0 0 0 0 0.00233721 0 8725.07
0.117591 0 1.19872e-06 0 0 0 0 0.00217419 0 10296.9
0.124267 0 1.41467e-06 0 0 0 0 0.00201893 0 12151.9
0.131321 0 1.66953e-06 0 0 0 0 0.00187147 0 14341.1
0.138776 0 1.9703e-06 0 0 0 0 0.00173182 0 16924.7
0.146654 0 2.32525e-06 0 0 0 0 0.00159991 0 19973.8
0.154979 0 2.74415e-06 0 0 0 0 0.00147563 0 23572.1
0.163777 0 3.23852e-06 0 0 0 0 0.00135884 0 27818.7
0.173074 0 3.82195e-06 0 0 0 0 0.00124933 0 32830.3
0.182899 0 4.51048e-06 0 0 0 0 0.00114689 0 38744.7
0.193281 0 5.32305e-06 0 0 0 0 0.00105127 0 45724.7
0.204254 0 6.28202e-06 0 0 0 0 0.000962209 0 53962.1
0.215848 0 7.41374e-06 0 0 0 0 0.000879423 0 63683.5
0.228102 0 8.74934e-06 0 0 0 0 0.000802624 0 75156.3
0.24105 0 1.03256e-05 0 0 0 0 0.000731515 0 88695.9
0.254734 0 1.21857e-05 0 0 0 0 0.000665798 0 104675
0.269195 0 1.4381e-05 0 0 0 0 0.000605173 0 123532
0.284476 0 1.69718e-05 0 0 0 0 0.000549345 0 145787
0.300625 0 2.00293e-05 0 0 0 0 0.000498021 0 172051
0.317691 0 2.36377e-05 0 0 0 0 0.000450916 0 203046
0.335725 0 2.78961e-05 0 0 0 0 0.000407755 0 239625
0.354784 0 3.29216e-05 0 0 0 0 0.000368269 0 282795
0.374924 0 3.88525e-05 0 0 0 0 0.000332202 0 333741
0.396207 0.264948 4.58519e-05 6.72688e-07 6 0.257582 6.53986e-07 0.000299307 0.0134849 393865
0.418699 0 5.41123e-05 0 0 0 0 0.00026935 0 464821
0.442467 0 6.38607e-05 0 0 0 0 0.000242108 0 548560
0.467585 0 7.53654e-05 0 0 0 0 0.00021737 0 647384
0.494129 0 8.89427e-05 0 0 0 0 0.000194938 0 764012
0.522179 0 0.000104966 0 0 0 0 0.000174625 0 901651
0.551822 0 0.000123876 0 0 0 0 0.000156255 0 1.06409e+06
0.583147 5.97479 0.000146192 4.75781e-06 12 6.28849 5.00763e-06 0.000139664 0.408794 1.25578e+06
0.616251 0 0.000172529 0 0 0 0 0.0001247 0 1.48202e+06
0.651234 0 0.000203611 0 0 0 0 0.00011122 0 1.74901e+06
0.688203 20.94 0.000240292 1.01449e-05 8 20.4191 9.89252e-06 9.90935e-05 0.819018 2.06409e+06
0.72727 0 0.000283581 0 0 0 0 8.81969e-05 0 2.43595e+06
0.768555 0 0.000334669 0 0 0 0 7.84179e-05 0 2.87479e+06
0.812184 0.031786 0.000394961 9.36897e-09 6 0.0324656 9.56928e-09 6.96525e-05 0.000807061 3.39269e+06
0.85829 0 0.000466114 0 0 0 0 6.1805e-05 0 4.00389e+06
0.907013 0.186708 0.000550086 3.95132e-08 24 0.19029 4.02714e-08 5.47875e-05 0.017309 4.7252e+06
0.958501 0.766052 0.000649185 1.37372e-07 24 0.721181 1.29326e-07 4.85194e-05 0.0679509 5.57646e+06
1.01291 0 0.000766138 0 0 0 0 4.29272e-05 0 6.58107e+06
1.07041 0 0.00090416 0 0 0 0 3.79435e-05 0 7.76667e+06
1.13118 1.15249 0.00106705 1.25738e-07 12 1.13834 1.24193e-07 3.3507e-05 0.0450309 9.16586e+06
1.19539 0.426048 0.00125928 3.93864e-08 30 0.417265 3.85745e-08 2.9562e-05 0.03997 1.08171e+07
1.26325 7.02202 0.00148614 5.50063e-07 24 6.91635 5.41786e-07 2.60578e-05 0.506624 1.27658e+07
1.33496 17.1749 0.00175387 1.14e-06 24 17.2126 1.14251e-06 2.29484e-05 1.19224 1.50656e+07
1.41075 5.39338 0.00206984 3.03344e-07 32 5.54456 3.11847e-07 2.01923e-05 0.480728 1.77798e+07
1.49083 0.3128 0.00244272 1.49074e-08 48 0.306131 1.45896e-08 1.77518e-05 0.040309 2.09828e+07
1.57546 0.0272423 0.00288279 1.10012e-09 6 0.0259408 1.04757e-09 1.55929e-05 0.000423318 2.4763e+07
1.66489 0.402697 0.00340213 1.37796e-08 84 0.387243 1.32508e-08 1.3685e-05 0.0845808 2.92241e+07
1.75941 2.22233 0.00401503 6.44362e-08 48 2.23826 6.48982e-08 1.20007e-05 0.25773 3.44889e+07
1.85928 0.183777 0.00473835 4.51517e-09 72 0.184574 4.53476e-09 1.05151e-05 0.0309167 4.07021e+07
1.96483 0.665981 0.00559198 1.38646e-08 54 0.654198 1.36193e-08 9.20606e-06 0.0813255 4.80347e+07
2.07637 7.74197 0.00659939 1.36571e-07 104 7.73499 1.36448e-07 8.05366e-06 1.76359 5.66883e+07
2.19424 0.247076 0.00778828 3.69317e-09 120 0.248632 3.71642e-09 7.04008e-06 0.062951 6.69008e+07
2.3188 1.52537 0.00919136 1.93199e-08 156 1.44923 1.83556e-08 6.1494e-06 0.490115 7.89532e+07
2.45043 0.443744 0.0108472 4.76239e-09 126 0.44162 4.73959e-09 5.36741e-06 0.111797 9.31768e+07
2.58954 0.447684 0.0128014 4.07123e-09 192 0.455767 4.14473e-09 4.68145e-06 0.166973 1.09963e+08
2.73654 3.80742 0.0151076 2.9339e-08 152 3.95357 3.04653e-08 4.08023e-06 1.09296 1.29773e+08
2.89188 3.23359 0.0178292 2.11136e-08 378 3.31226 2.16272e-08 3.55373e-06 2.24579 1.53152e+08
3.05605 1.12314 0.0210412 6.21403e-09 264 1.10285 6.10178e-09 3.09304e-06 0.530386 1.80743e+08
3.22953 0.161546 0.0248319 7.57353e-10 366 0.158459 7.42879e-10 2.69025e-06 0.103035 2.13304e+08
3.41286 0.610856 0.0293054 2.42662e-09 428 0.581035 2.30816e-09 2.33837e-06 0.444152 2.51731e+08
3.6066 2.87286 0.0345848 9.67029e-09 486 2.77562 9.34296e-09 2.0312e-06 2.31378 2.97081e+08
3.81134 0.620849 0.0408154 1.77081e-09 600 0.617006 1.75985e-09 1.76327e-06 0.602568 3.50601e+08
4.0277 0.425876 0.0481684 1.02928e-09 738 0.419322 1.01344e-09 1.52972e-06 0.496564 4.13763e+08
4.25634 0.979752 0.056846 2.00644e-09 824 1.0209 2.09071e-09 1.32631e-06 1.24655 4.88304e+08
4.49796 2.3427 0.067087 4.06527e-09 954 2.36202 4.09879e-09 1.14926e-06 3.37459 5.76273e+08
4.7533 0.456 0.0791729 6.705e-10 1094 0.446627 6.56718e-10 9.95263e-07 0.737018 6.8009e+08
5.02313 0.225399 0.0934361 2.80833e-10 1332 0.224919 2.80235e-10 8.61414e-07 0.43425 8.0261e+08
5.30828 1.90356 0.110269 2.00966e-09 1614 1.92787 2.03533e-09 7.45152e-07 4.35293 9.47202e+08
5.60962 0.863573 0.130134 7.72535e-10 1850 0.832103 7.44382e-10 6.44232e-07 2.21844 1.11784e+09
5.92807 1.17939 0.153578 8.94001e-10 2238 1.12543 8.53101e-10 5.56685e-07 3.59408 1.31923e+09
6.26459 0.512981 0.181246 3.29491e-10 2546 0.521427 3.34916e-10 4.80786e-07 1.74482 1.55689e+09
6.62021 0.151963 0.213898 8.27072e-11 3264 0.151831 8.26353e-11 4.15026e-07 0.650457 1.83737e+09
6.99602 1.16876 0.252432 5.39003e-10 3506 1.21082 5.584e-10 3.58083e-07 5.2774 2.16837e+09
7.39317 0.480562 0.297908 1.87792e-10 4506 0.488135 1.90751e-10 3.08803e-07 2.74022 2.55901e+09
7.81286 0.959782 0.351577 3.17806e-10 5018 0.993435 3.2895e-10 2.66181e-07 5.99123 3.02002e+09
8.25637 0.85541 0.414914 2.40008e-10 5852 0.819335 2.29886e-10 2.29336e-07 6.12432 3.56409e+09
8.72507 0.50784 0.489662 1.20737e-10 7362 0.501524 1.19235e-10 1.97503e-07 4.50052 4.20617e+09
9.22037 0.750076 0.577876 1.51105e-10 8306 0.740384 1.49153e-10 1.70014e-07 7.38222 4.96392e+09
9.74378 0.228535 0.681982 3.90112e-11 9698 0.229491 3.91744e-11 1.46289e-07 2.58619 5.85818e+09
10.2969 0.754228 0.804843 1.09094e-10 11816 0.769265 1.11269e-10 1.25822e-07 10.245 6.91355e+09
10.8814 0.628477 0.949838 7.70283e-11 13682 0.629416 7.71434e-11 1.08175e-07 9.74251 8.15905e+09
11.4992 0.6087 1.12095 6.32158e-11 16152 0.596073 6.19045e-11 9.29669e-08 10.9831 9.62892e+09
12.1519 0.602119 1.3229 5.29867e-11 19472 0.58604 5.15717e-11 7.98658e-08 12.9186 1.13636e+10
12.8418 0.28205 1.56122 2.10316e-11 22670 0.285884 2.13175e-11 6.85852e-08 6.95173 1.34108e+10
13.5708 0.576858 1.84248 3.64483e-11 26224 0.586364 3.70489e-11 5.88765e-08 16.2343 1.58268e+10
14.3411 0.496848 2.17441 2.66007e-11 31640 0.505234 2.70497e-11 5.05241e-08 16.6583 1.8678e+10
15.1552 0.568137 2.56613 2.57742e-11 37484 0.574037 2.60418e-11 4.33417e-08 22.2908 2.20429e+10
16.0156 0.507969 3.02843 1.95268e-11 43856 0.516557 1.98569e-11 3.71677e-08 23.0406 2.6014e+10
16.9247 0.809547 3.574 2.63692e-11 51362 0.808948 2.63497e-11 3.18628e-08 42.5065 3.07005e+10
17.8855 0.781072 4.21787 2.1558e-11 61636 0.772837 2.13307e-11 2.73063e-08 48.6608 3.62312e+10
18.9008 1.21595 4.97773 2.84377e-11 72218 1.2088 2.82706e-11 2.33941e-08 87.7876 4.27584e+10
19.9738 1.86539 5.87448 3.69666e-11 84586 1.8501 3.66637e-11 2.00364e-08 156.059 5.04614e+10
21.1076 2.64768 6.93279 4.44598e-11 100708 2.64364 4.43919e-11 1.71555e-08 260.992 5.95522e+10
22.3058 4.09529 8.18175 5.82704e-11 118712 4.09505 5.8267e-11 1.46847e-08 471.063 7.02807e+10
23.5721 5.7655 9.65571 6.95125e-11 140410 5.73815 6.91827e-11 1.25662e-08 776.709 8.29419e+10
24.9102 6.84099 11.3952 6.98887e-11 164374 6.81452 6.96182e-11 1.07504e-08 1068.6 9.78842e+10
26.3243 7.95655 13.4481 6.8877e-11 194680 7.92901 6.86386e-11 9.19452e-09 1458.37 1.15518e+11
27.8187 8.87008 15.8708 6.50637e-11 230196 8.83822 6.483e-11 7.86182e-09 1905.08 1.36329e+11
29.3979 10.5848 18.73 6.57891e-11 271156 10.5428 6.55283e-11 6.72061e-09 2654.39 1.60889e+11
31.0667 12.6078 22.1042 6.64009e-11 321076 12.5624 6.61618e-11 5.74366e-09 3711.87 1.89874e+11
32.8303 14.8161 26.0864 6.61194e-11 377436 14.7644 6.58889e-11 4.90756e-09 5085.19 2.2408e+11
34.694 17.4448 30.7859 6.59665e-11 447594 17.3912 6.57638e-11 4.19221e-09 7043.12 2.64449e+11
36.6634 19.8239 36.3321 6.35197e-11 525078 19.7573 6.33066e-11 3.58032e-09 9315.58 3.1209e+11
38.7447 22.409 42.8774 6.08421e-11 621924 22.3467 6.0673e-11 3.05709e-09 12377.5 3.68314e+11
40.9442 25.8591 50.6018 5.94919e-11 732630 25.7867 5.93252e-11 2.60976e-09 16701 4.34667e+11
43.2685 30.1067 59.7179 5.86907e-11 865596 30.0093 5.85007e-11 2.22743e-09 22807.6 5.12973e+11
45.7247 35.4976 70.4762 5.86363e-11 1.02168e+06 35.3726 5.84298e-11 1.90073e-09 31518 6.05386e+11
48.3204 42.6634 83.1727 5.97152e-11 1.20544e+06 42.5101 5.95006e-11 1.62163e-09 44389.1 7.14448e+11
51.0634 51.0766 98.1565 6.05777e-11 1.42103e+06 50.9074 6.03771e-11 1.38326e-09 62232 8.43158e+11
53.9621 60.5351 115.84 6.08359e-11 1.67997e+06 60.3367 6.06365e-11 1.1797e-09 86633.9 9.95055e+11
57.0254 71.1277 136.709 6.05694e-11 1.98018e+06 70.906 6.03806e-11 1.00592e-09 119233 1.17432e+12
60.2626 83.7203 161.337 6.04097e-11 2.33957e+06 83.4457 6.02116e-11 8.57591e-10 164802 1.38587e+12
63.6835 98.665 190.402 6.03256e-11 2.75676e+06 98.3369 6.01249e-11 7.3101e-10 227498 1.63554e+12
67.2987 116.229 224.704 6.02165e-11 3.25638e+06 115.851 6.00206e-11 6.23009e-10 314743 1.93019e+12
71.1191 137.156 265.185 6.0211e-11 3.84387e+06 136.704 6.00126e-11 5.30879e-10 435962 2.27792e+12
75.1563 161.903 312.958 6.02253e-11 4.53277e+06 161.373 6.00282e-11 4.52303e-10 603548 2.68829e+12
79.4227 191.443 369.339 6.03429e-11 5.35083e+06 190.822 6.01471e-11 3.85299e-10 838009 3.17259e+12
83.9313 225.762 435.876 6.02974e-11 6.32174e+06 225.014 6.00975e-11 3.28173e-10 1.16153e+06 3.74415e+12
88.6959 266.342 514.4 6.02766e-11 7.44986e+06 265.465 6.00782e-11 2.79476e-10 1.60676e+06 4.41866e+12
93.7309 314.349 607.071 6.02813e-11 8.79764e+06 313.33 6.00859e-11 2.37972e-10 2.22855e+06 5.2147e+12
99.0518 371.099 716.436 6.03007e-11 1.03827e+07 369.873 6.01015e-11 2.02605e-10 3.09017e+06 6.15414e+12
104.675 438.121 845.504 6.03238e-11 1.22515e+07 436.671 6.01242e-11 1.72471e-10 4.28512e+06 7.26283e+12
110.617 516.508 997.824 6.02605e-11 1.44573e+07 514.8 6.00613e-11 1.468e-10 5.93464e+06 8.57124e+12
116.896 610.451 1177.58 6.03489e-11 1.70664e+07 608.431 6.01491e-11 1.24935e-10 8.2438e+06 1.01154e+13
123.532 720.333 1389.73 6.03411e-11 2.0139e+07 717.928 6.01396e-11 1.06313e-10 1.14305e+07 1.19377e+13
130.545 850.97 1640.09 6.04026e-11 2.37643e+07 848.156 6.02029e-11 9.04567e-11 1.58686e+07 1.40883e+13
137.955 1005 1935.56 6.04463e-11 2.80503e+07 1001.66 6.02456e-11 7.69563e-11 2.20324e+07 1.66263e+13
145.787 1186.35 2284.26 6.04615e-11 3.30981e+07 1182.42 6.02611e-11 6.54636e-11 3.05691e+07 1.96216e+13
154.063 1404.07 2695.77 6.06339e-11 3.90634e+07 1399.39 6.04318e-11 5.56812e-11 4.25381e+07 2.31565e+13
162.808 1655.67 3181.42 6.05847e-11 4.61057e+07 1650.14 6.03824e-11 4.73556e-11 5.89855e+07 2.73282e+13
172.051 1956.19 3754.56 6.06543e-11 5.44046e+07 1949.66 6.04518e-11 4.02708e-11 8.19421e+07 3.22515e+13
181.818 2321.78 4430.96 6.10004e-11 6.42064e+07 2314.27 6.08031e-11 3.42426e-11 1.14378e+08 3.80616e+13
192.139 2735.41 5229.21 6.08971e-11 7.57748e+07 2726.2 6.06921e-11 2.91139e-11 1.58497e+08 4.49186e+13
203.046 3235.69 6171.26 6.10383e-11 8.94213e+07 3224.8 6.08328e-11 2.4751e-11 2.20521e+08 5.30108e+13
214.572 3830.97 7283.03 6.1236e-11 1.05538e+08 3818.04 6.10293e-11 2.10401e-11 3.07163e+08 6.25608e+13
226.753 4539.45 8595.09 6.14841e-11 1.24552e+08 4524 6.12748e-11 1.78839e-11 4.28203e+08 7.38313e+13
239.625 5384.89 10143.5 6.18014e-11 1.46987e+08 5366.49 6.15902e-11 1.51999e-11 5.97636e+08 8.71322e+13
253.228 6407.5 11970.9 6.2312e-11 1.7347e+08 6384.98 6.2093e-11 1.29176e-11 8.36784e+08 1.02829e+14
267.603 7617.24 14127.5 6.27686e-11 2.04703e+08 7590.74 6.25502e-11 1.09771e-11 1.17052e+09 1.21354e+14
282.795 9098.7 16672.6 6.35311e-11 2.4161e+08 9066.65 6.33073e-11 9.3274e-12 1.64566e+09 1.43217e+14
298.848 10901.1 19676.2 6.4497e-11 2.85122e+08 10862 6.42654e-11 7.925e-12 2.32044e+09 1.69017e+14
315.813 13139.1 23220.9 6.58711e-11 3.36491e+08 13090.9 6.56296e-11 6.73295e-12 3.29203e+09 1.99466e+14
333.741 15955.5 27404.3 6.77803e-11 3.97115e+08 15894.9 6.75227e-11 5.71979e-12 4.70586e+09 2.35401e+14
352.686 19583 32341.2 7.0491e-11 4.68637e+08 19505.2 7.02109e-11 4.85874e-12 6.79903e+09 2.77809e+14
372.707 24397.4 38167.6 7.44147e-11 5.53074e+08 24294.7 7.41016e-11 4.12703e-12 9.9725e+09 3.27857e+14
393.865 31049.3 45043.5 8.02471e-11 6.52716e+08 30909 7.98845e-11 3.50528e-12 1.49428e+10 3.86921e+14
416.224 36624.4 53158.3 8.02066e-11 2.2184e+08 38745.2 8.48511e-11 2.97701e-12 5.97681e+09 4.56626e+14
439.852 0 62734.9 0 0 0 0 2.52819e-12 0 5.38888e+14
464.821 0 74036.7 0 0 0 0 2.1469e-12 0 6.35971e+14
491.207 0 87374.6 0 0 0 0 1.82301e-12 0 7.50542e+14
519.092 0 103115 0 0 0 0 1.54789e-12 0 8.85755e+14
548.56 0 121692 0 0 0 0 1.31422e-12 0 1.04533e+15
579.7 0 143615 0 0 0 0 1.11576e-12 0 1.23364e+15
612.608 0 169488 0 0 0 0 9.47223e-13 0 1.45589e+15
647.384 0 200021 0 0 0 0 8.041e-13 0 1.71817e+15
684.134 0 236056 0 0 0 0 6.82568e-13 0 2.0277e+15
722.971 0 278582 0 0 0 0 5.79376e-13 0 2.393e+15
764.012 0 328769 0 0 0 0 4.91762e-13 0 2.8241e+15
0.0841144
200
1.0655e+09
8589934592
0.0129181 2.49381e-05 1.58924e-09 1.82677e-06 6 2.47098e-05 1.81005e-06 0.00677225 0.00161846 13.6515
0.0136515 0 1.87554e-09 0 0 0 0 0.00688819 0 16.1108
0.0144264 0 2.21343e-09 0 0 0 0 0.00699249 0 19.0132
0.0152454 0 2.61218e-09 0 0 0 0 0.00708412 0 22.4385
0.0161108 0 3.08278e-09 0 0 0 0 0.00716212 0 26.4808
0.0170254 0 3.63815e-09 0 0 0 0 0.00722559 0 31.2514
0.0179919 8.72095e-05 4.29357e-09 2.36459e-06 12 8.70972e-05 2.36154e-06 0.00727371 0.00390105 36.8815
0.0190132 0 5.06707e-09 0 0 0 0 0.00730578 0 43.5258
0.0200925 0 5.97991e-09 0 0 0 0 0.00732122 0 51.367
0.0212331 7.84002e-05 7.05721e-09 1.29329e-06 8 7.8332e-05 1.29216e-06 0.00731958 0.00141351 60.621
0.0224385 0 8.32858e-09 0 0 0 0 0.00730056 0 71.542
0.0237123 0 9.829e-09 0 0 0 0 0.00726401 0 84.4305
0.0250583 0.000157352 1.15997e-08 1.57919e-06 6 0.000157278 1.57845e-06 0.00720995 0.00131418 99.6408
0.0264808 0 1.36894e-08 0 0 0 0 0.00713857 0 117.591
0.0279841 0.000297614 1.61556e-08 2.14457e-06 24 0.000297308 2.14236e-06 0.00705021 0.00730044 138.776
0.0295727 0 1.90661e-08 0 0 0 0 0.00694538 0 163.777
0.0312514 0.000159407 2.25009e-08 8.24741e-07 24 0.000160217 8.28929e-07 0.00682475 0.00290029 193.281
0.0330255 0 2.65545e-08 0 0 0 0 0.00668915 0 228.102
0.0349003 0.000274365 3.13384e-08 1.01921e-06 12 0.000272168 1.01104e-06 0.00653951 0.00187024 269.195
0.0368815 0.000606533 3.69841e-08 1.90919e-06 30 0.000600075 1.88886e-06 0.00637693 0.00898172 317.691
0.0389751 0.000683849 4.36469e-08 1.82397e-06 24 0.000676814 1.80521e-06 0.00620256 0.00705761 374.924
0.0411876 0.000857283 5.151e-08 1.9375e-06 24 0.00085146 1.92435e-06 0.00601767 0.00772726 442.467
0.0435258 0.000377807 6.07896e-08 7.23519e-07 8 0.000377777 7.23464e-07 0.00582358 0.000993917 522.179
0.0459966 0.000876709 7.1741e-08 1.42265e-06 72 0.000874526 1.41911e-06 0.00562166 0.0182207 616.251
0.0486077 0 8.46654e-08 0 0 0 0 0.0054133 0 727.27
0.051367 0.00120315 9.99181e-08 1.4018e-06 54 0.00119694 1.39456e-06 0.00519989 0.0145575 858.29
0.054283 0.00103905 1.17919e-07 1.0258e-06 60 0.00104299 1.02969e-06 0.0049828 0.0123521 1012.91
0.0573645 0.00135659 1.39162e-07 1.13485e-06 96 0.0013508 1.13001e-06 0.00476339 0.0228715 1195.39
0.060621 0.00148126 1.64232e-07 1.04999e-06 24 0.0014612 1.03576e-06 0.00454293 0.00554702 1410.75
0.0640622 0.00197021 1.93819e-07 1.18338e-06 134 0.00196535 1.18046e-06 0.00432265 0.0366843 1664.89
0.0676989 0.00184334 2.28736e-07 9.38166e-07 120 0.00183269 9.32749e-07 0.00410371 0.0274337 1964.83
0.071542 0.0017419 2.69944e-07 7.51207e-07 108 0.00171941 7.41509e-07 0.00388717 0.0208713 2318.8
0.0756032 0.00228302 3.18575e-07 8.34273e-07 174 0.00226242 8.26746e-07 0.00367401 0.0395109 2736.54
0.079895 0.00220574 3.75967e-07 6.82991e-07 168 0.002184 6.76258e-07 0.0034651 0.0331138 3229.53
0.0844305 0.00273395 4.43698e-07 7.17319e-07 168 0.00274755 7.20887e-07 0.00326121 0.0369524 3811.34
0.0892234 0.0028053 5.23632e-07 6.23683e-07 290 0.00279438 6.21254e-07 0.00306301 0.0590491 4497.96
0.0942883 0.00330237 6.17966e-07 6.22115e-07 288 0.00331042 6.23632e-07 0.00287109 0.0624046 5308.28
0.0996408 0.00277726 7.29294e-07 4.43327e-07 366 0.00275429 4.3966e-07 0.00268591 0.0604107 6264.59
0.105297 0.00349581 8.60678e-07 4.72843e-07 420 0.00347673 4.70263e-07 0.00250785 0.0791889 7393.17
0.111275 0.00423688 1.01573e-06 4.85598e-07 398 0.00422908 4.84704e-07 0.00233721 0.0826917 8725.07
0.117591 0.00483001 1.19872e-06 4.69074e-07 624 0.00485235 4.71243e-07 0.00217419 0.134626 10296.9
0.124267 0.00503293 1.41467e-06 4.14168e-07 642 0.00502041 4.13137e-07 0.00201893 0.131702 12151.9
0.131321 0.00543169 1.66953e-06 3.78749e-07 800 0.00543392 3.78905e-07 0.00187147 0.161905 14341.1
0.138776 0.00639602 1.9703e-06 3.7791e-07 858 0.00641061 3.78772e-07 0.00173182 0.187229 16924.7
0.146654 0.00640217 2.32525e-06 3.20529e-07 1080 0.00644983 3.22915e-07 0.00159991 0.216369 19973.8
0.154979 0.00678838 2.74415e-06 2.87984e-07 1286 0.00682819 2.89673e-07 0.00147563 0.250975 23572.1
0.163777 0.00761781 3.23852e-06 2.73838e-07 1650 0.00762733 2.7418e-07 0.00135884 0.332514 27818.7
0.173074 0.00719771 3.82195e-06 2.1924e-07 1778 0.00720679 2.19517e-07 0.00124933 0.312014 32830.3
0.182899 0.00813962 4.51048e-06 2.10083e-07 2112 0.00815598 2.10506e-07 0.00114689 0.386868 38744.7
0.193281 0.00999983 5.32305e-06 2.18696e-07 2570 0.0100016 2.18734e-07 0.00105127 0.534638 45724.7
0.204254 0.00945664 6.28202e-06 1.75246e-07 3030 0.00946306 1.75365e-07 0.000962209 0.55185 53962.1
0.215848 0.0099341 7.41374e-06 1.55992e-07 3434 0.00992686 1.55878e-07 0.000879423 0.609121 63683.5
0.228102 0.0110899 8.74934e-06 1.47558e-07 4218 0.0110981 1.47667e-07 0.000802624 0.775454 75156.3
0.24105 0.011474 1.03256e-05 1.29363e-07 4766 0.011477 1.29397e-07 0.000731515 0.842833 88695.9
0.254734 0.0125496 1.21857e-05 1.19891e-07 6026 0.0125407 1.19807e-07 0.000665798 1.08511 104675
0.269195 0.0132596 1.4381e-05 1.07337e-07 6480 0.0132689 1.07413e-07 0.000605173 1.14933 123532
0.284476 0.0136609 1.69718e-05 9.37049e-08 8162 0.013681 9.38427e-08 0.000549345 1.39224 145787
0.300625 0.0148304 2.00293e-05 8.61979e-08 9578 0.0148332 8.62143e-08 0.000498021 1.65777 172051
0.317691 0.0157912 2.36377e-05 7.77714e-08 11234 0.0157941 7.77856e-08 0.000450916 1.93757 203046
0.335725 0.0165864 2.78961e-05 6.92181e-08 13344 0.0165666 6.91352e-08 0.000407755 2.2652 239625
0.354784 0.0170453 3.29216e-05 6.02747e-08 15464 0.0170312 6.02245e-08 0.000368269 2.531 282795
0.374924 0.0184605 3.88525e-05 5.5314e-08 18458 0.0184548 5.52969e-08 0.000332202 3.07339 333741
0.396207 0.0194232 4.58519e-05 4.93143e-08 22232 0.0193996 4.92543e-08 0.000299307 3.66298 393865
0.418699 0.0202938 5.41123e-05 4.36595e-08 25628 0.0202391 4.35418e-08 0.00026935 4.1541 464821
0.442467 0.0213533 6.38607e-05 3.89261e-08 30320 0.0213039 3.88361e-08 0.000242108 4.87485 548560
0.467585 0.0224974 7.53654e-05 3.47512e-08 35452 0.0224732 3.47139e-08 0.00021737 5.66775 647384
0.494129 0.023759 8.89427e-05 3.10977e-08 41792 0.0237538 3.10908e-08 0.000194938 6.66691 764012
0.522179 0.0253681 0.000104966 2.81351e-08 49988 0.0253686 2.81358e-08 0.000174625 8.05394 901651
0.551822 0.0265789 0.000123876 2.49781e-08 59110 0.0265626 2.49629e-08 0.000156255 9.44904 1.06409e+06
0.583147 0.0276252 0.000146192 2.19984e-08 69716 0.0275956 2.19748e-08 0.000139664 10.9809 1.25578e+06
0.616251 0.0292772 0.000172529 1.97549e-08 82210 0.0292367 1.97277e-08 0.0001247 13.0237 1.48202e+06
0.651234 0.0306226 0.000203611 1.75086e-08 96722 0.0305693 1.74781e-08 0.00011122 15.2262 1.74901e+06
0.688203 0.0319747 0.000240292 1.54909e-08 113098 0.0319391 1.54736e-08 9.90935e-05 17.6802 2.06409e+06
0.72727 0.0333842 0.000283581 1.37048e-08 135190 0.0333609 1.36952e-08 8.81969e-05 21.007 2.43595e+06
0.768555 0.0348481 0.000334669 1.2122e-08 158170 0.0348159 1.21108e-08 7.84179e-05 24.4501 2.87479e+06
0.812184 0.0367223 0.000394961 1.0824e-08 188560 0.0366895 1.08143e-08 6.96525e-05 29.3021 3.39269e+06
0.85829 0.038327 0.000466114 9.57243e-09 220444 0.0382863 9.56228e-09 6.1805e-05 34.1426 4.00389e+06
0.907013 0.0399191 0.000550086 8.44813e-09 261388 0.0398868 8.44129e-09 5.47875e-05 40.3055 4.7252e+06
0.958501 0.0417767 0.000649185 7.49161e-09 308244 0.0417408 7.48519e-09 4.85194e-05 47.5942 5.57646e+06
1.01291 0.0434033 0.000766138 6.59516e-09 364396 0.0433588 6.58841e-09 4.29272e-05 55.9844 6.58107e+06
1.07041 0.0453945 0.00090416 5.84478e-09 429162 0.0453461 5.83855e-09 3.79435e-05 66.1078 7.76667e+06
1.13118 0.0472808 0.00106705 5.15836e-09 506358 0.0472331 5.15315e-09 3.3507e-05 77.9531 9.16586e+06
1.19539 0.0495312 0.00125928 4.57897e-09 598590 0.049475 4.57377e-09 2.9562e-05 92.7178 1.08171e+07
1.26325 0.0513532 0.00148614 4.02271e-09 704844 0.0512935 4.01803e-09 2.60578e-05 108.811 1.27658e+07
1.33496 0.0534684 0.00175387 3.54903e-09 834620 0.0534049 3.54481e-09 2.29484e-05 129.076 1.50656e+07
1.41075 0.0558047 0.00206984 3.13866e-09 981444 0.05573 3.13446e-09 2.01923e-05 152.554 1.77798e+07
1.49083 0.0580157 0.00244272 2.76491e-09 1.15998e+06 0.0579451 2.76155e-09 1.77518e-05 180.671 2.09828e+07
1.57546 0.0602275 0.00288279 2.43216e-09 1.36931e+06 0.0601564 2.42929e-09 1.55929e-05 213.584 2.4763e+07
1.66489 0.0627282 0.00340213 2.14646e-09 1.61652e+06 0.0626474 2.14369e-09 1.3685e-05 253.546 2.92241e+07
1.75941 0.0651951 0.00401503 1.89032e-09 1.90601e+06 0.0651074 1.88778e-09 1.20007e-05 300.23 3.44889e+07
1.85928 0.0679154 0.00473835 1.6686e-09 2.24913e+06 0.0678296 1.66649e-09 1.05151e-05 356.905 4.07021e+07
1.96483 0.0705674 0.00559198 1.46909e-09 2.65744e+06 0.070482 1.46731e-09 9.20606e-06 424.071 4.80347e+07
2.07637 0.073174 0.00659939 1.29081e-09 3.13125e+06 0.0730835 1.28922e-09 8.05366e-06 501.866 5.66883e+07
2.19424 0.0761648 0.00778828 1.13847e-09 3.69915e+06 0.0760708 1.13707e-09 7.04008e-06 598.201 6.69008e+07
2.3188 0.0791303 0.00919136 1.00224e-09 4.36472e+06 0.0790285 1.00095e-09 6.1494e-06 711.372 7.89532e+07
2.45043 0.0821915 0.0108472 8.82103e-10 5.14913e+06 0.0820861 8.80971e-10 5.36741e-06 846.23 9.31768e+07
2.58954 0.0853716 0.0128014 7.76368e-10 6.07894e+06 0.0852643 7.75392e-10 4.68145e-06 1008.13 1.09963e+08
2.73654 0.0886888 0.0151076 6.83415e-10 7.17304e+06 0.0885758 6.82544e-10 4.08023e-06 1201.44 1.29773e+08
2.89188 0.0921572 0.0178292 6.01737e-10 8.46557e+06 0.0920416 6.00982e-10 3.55373e-06 1433.44 1.53152e+08
3.05605 0.0958243 0.0210412 5.3017e-10 9.98773e+06 0.0957053 5.29511e-10 3.09304e-06 1711.97 1.80743e+08
3.22953 0.0995273 0.0248319 4.66598e-10 1.1797e+07 0.0993995 4.65999e-10 2.69025e-06 2046.08 2.13304e+08
3.41286 0.1035 0.0293054 4.11153e-10 1.39144e+07 0.103362 4.10606e-10 2.33837e-06 2446.55 2.51731e+08
3.6066 0.107717 0.0345848 3.62583e-10 1.64163e+07 0.107575 3.62107e-10 2.0312e-06 2930.42 2.97081e+08
3.81134 0.112106 0.0408154 3.19753e-10 1.93821e+07 0.11196 3.19338e-10 1.76327e-06 3514.79 3.50601e+08
4.0277 0.116529 0.0481684 2.81631e-10 2.28754e+07 0.116373 2.81255e-10 1.52972e-06 4211.5 4.13763e+08
4.25634 0.121353 0.056846 2.48519e-10 2.69929e+07 0.121187 2.4818e-10 1.32631e-06 5057.84 4.88304e+08
4.49796 0.126509 0.067087 2.19529e-10 3.18542e+07 0.126332 2.19223e-10 1.14926e-06 6084.74 5.76273e+08
4.7533 0.131895 0.0791729 1.93937e-10 3.75892e+07 0.13171 1.93665e-10 9.95263e-07 7324.65 6.8009e+08
5.02313 0.137643 0.0934361 1.71494e-10 4.43706e+07 0.137449 1.71253e-10 8.61414e-07 8833.5 8.0261e+08
5.30828 0.143699 0.110269 1.51709e-10 5.23593e+07 0.143495 1.51493e-10 7.45152e-07 10660.1 9.47202e+08
5.60962 0.150124 0.130134 1.34298e-10 6.1787e+07 0.149906 1.34103e-10 6.44232e-07 12880.3 1.11784e+09
5.92807 0.157016 0.153578 1.19021e-10 7.29346e+07 0.156785 1.18846e-10 5.56685e-07 15593.7 1.31923e+09
6.26459 0.164288 0.181246 1.05523e-10 8.60651e+07 0.164044 1.05367e-10 4.80786e-07 18889.6 1.55689e+09
6.62021 0.172018 0.213898 9.36218e-11 1.01558e+08 0.171759 9.34809e-11 4.15026e-07 22909.6 1.83737e+09
6.99602 0.180227 0.252432 8.31163e-11 1.1986e+08 0.179954 8.29905e-11 3.58083e-07 27821.3 2.16837e+09
7.39317 0.188905 0.297908 7.38195e-11 1.41457e+08 0.188619 7.37079e-11 3.08803e-07 33815.2 2.55901e+09
7.81286 0.198102 0.351577 6.55963e-11 1.66936e+08 0.197801 6.54964e-11 2.66181e-07 41138.8 3.02002e+09
8.25637 0.207836 0.414914 5.83139e-11 1.97025e+08 0.207514 5.82237e-11 2.29336e-07 50098.1 3.56409e+09
8.72507 0.218347 0.489662 5.19113e-11 2.32497e+08 0.218003 5.18294e-11 1.97503e-07 61108.9 4.20617e+09
9.22037 0.229736 0.577876 4.62811e-11 2.74404e+08 0.229366 4.62067e-11 1.70014e-07 74698 4.96392e+09
9.74378 0.242532 0.681982 4.14006e-11 3.2382e+08 0.242128 4.13316e-11 1.46289e-07 91642.9 5.85818e+09
10.2969 0.257477 0.804843 3.72424e-11 3.82165e+08 0.257023 3.71768e-11 1.25822e-07 113118 6.91355e+09
10.8814 0.275929 0.949838 3.38187e-11 4.51027e+08 0.275399 3.37538e-11 1.08175e-07 141004 8.15905e+09
11.4992 0.30054 1.12095 3.12122e-11 5.32251e+08 0.299883 3.1144e-11 9.29669e-08 178695 9.62892e+09
12.1519 0.336197 1.3229 2.95854e-11 6.28157e+08 0.335318 2.95081e-11 7.98658e-08 232694 1.13636e+10
12.8418 0.376876 1.56122 2.81025e-11 3.82727e+08 0.390062 2.90857e-11 6.85852e-08 156821 1.34108e+10
13.5708 0 1.84248 0 0 0 0 5.88765e-08 0 1.58268e+10
14.3411 0 2.17441 0 0 0 0 5.05241e-08 0 1.8678e+10
15.1552 0 2.56613 0 0 0 0 4.33417e-08 0 2.20429e+10
16.0156 0 3.02843 0 0 0 0 3.71677e-08 0 2.6014e+10
16.9247 0 3.574 0 0 0 0 3.18628e-08 0 3.07005e+10
17.8855 0 4.21787 0 0 0 0 2.73063e-08 0 3.62312e+10
18.9008 0 4.97773 0 0 0 0 2.33941e-08 0 4.27584e+10
19.9738 0 5.87448 0 0 0 0 2.00364e-08 0 5.04614e+10
21.1076 0 6.93279 0 0 0 0 1.71555e-08 0 5.95522e+10
22.3058 0 8.18175 0 0 0 0 1.46847e-08 0 7.02807e+10
23.5721 0 9.65571 0 0 0 0 1.25662e-08 0 8.29419e+10
24.9102 0 11.3952 0 0 0 0 1.07504e-08 0 9.78842e+10
26.3243 0 13.4481 0 0 0 0 9.19452e-09 0 1.15518e+11
27.8187 0 15.8708 0 0 0 0 7.86182e-09 0 1.36329e+11
29.3979 0 18.73 0 0 0 0 6.72061e-09 0 1.60889e+11
31.0667 0 22.1042 0 0 0 0 5.74366e-09 0 1.89874e+11
32.8303 0 26.0864 0 0 0 0 4.90756e-09 0 2.2408e+11
34.694 0 30.7859 0 0 0 0 4.19221e-09 0 2.64449e+11
36.6634 0 36.3321 0 0 0 0 3.58032e-09 0 3.1209e+11
38.7447 0 42.8774 0 0 0 0 3.05709e-09 0 3.68314e+11
40.9442 0 50.6018 0 0 0 0 2.60976e-09 0 4.34667e+11
43.2685 0 59.7179 0 0 0 0 2.22743e-09 0 5.12973e+11
45.7247 0 70.4762 0 0 0 0 1.90073e-09 0 6.05386e+11
48.3204 0 83.1727 0 0 0 0 1.62163e-09 0 7.14448e+11
51.0634 0 98.1565 0 0 0 0 1.38326e-09 0 8.43158e+11
53.9621 0 115.84 0 0 0 0 1.1797e-09 0 9.95055e+11
57.0254 0 136.709 0 0 0 0 1.00592e-09 0 1.17432e+12
60.2626 0 161.337 0 0 0 0 8.57591e-10 0 1.38587e+12
63.6835 0 190.402 0 0 0 0 7.3101e-10 0 1.63554e+12
67.2987 0 224.704 0 0 0 0 6.23009e-10 0 1.93019e+12
71.1191 0 265.185 0 0 0 0 5.30879e-10 0 2.27792e+12
75.1563 0 312.958 0 0 0 0 4.52303e-10 0 2.68829e+12
79.4227 0 369.339 0 0 0 0 3.85299e-10 0 3.17259e+12
83.9313 0 435.876 0 0 0 0 3.28173e-10 0 3.74415e+12
88.6959 0 514.4 0 0 0 0 2.79476e-10 0 4.41866e+12
93.7309 0 607.071 0 0 0 0 2.37972e-10 0 5.2147e+12
99.0518 0 716.436 0 0 0 0 2.02605e-10 0 6.15414e+12
104.675 0 845.504 0 0 0 0 1.72471e-10 0 7.26283e+12
110.617 0 997.824 0 0 0 0 1.468e-10 0 8.57124e+12
116.896 0 1177.58 0 0 0 0 1.24935e-10 0 1.01154e+13
123.532 0 1389.73 0 0 0 0 1.06313e-10 0 1.19377e+13
130.545 0 1640.09 0 0 0 0 9.04567e-11 0 1.40883e+13
137.955 0 1935.56 0 0 0 0 7.69563e-11 0 1.66263e+13
145.787 0 2284.26 0 0 0 0 6.54636e-11 0 1.96216e+13
154.063 0 2695.77 0 0 0 0 5.56812e-11 0 2.31565e+13
162.808 0 3181.42 0 0 0 0 4.73556e-11 0 2.73282e+13
172.051 0 3754.56 0 0 0 0 4.02708e-11 0 3.22515e+13
181.818 0 4430.96 0 0 0 0 3.42426e-11 0 3.80616e+13
192.139 0 5229.21 0 0 0 0 2.91139e-11 0 4.49186e+13
203.046 0 6171.26 0 0 0 0 2.4751e-11 0 5.30108e+13
214.572 0 7283.03 0 0 0 0 2.10401e-11 0 6.25608e+13
226.753 0 8595.09 0 0 0 0 1.78839e-11 0 7.38313e+13
239.625 0 10143.5 0 0 0 0 1.51999e-11 0 8.71322e+13
253.228 0 11970.9 0 0 0 0 1.29176e-11 0 1.02829e+14
267.603 0 14127.5 0 0 0 0 1.09771e-11 0 1.21354e+14
282.795 0 16672.6 0 0 0 0 9.3274e-12 0 1.43217e+14
298.848 0 19676.2 0 0 0 0 7.925e-12 0 1.69017e+14
315.813 0 23220.9 0 0 0 0 6.73295e-12 0 1.99466e+14
333.741 0 27404.3 0 0 0 0 5.71979e-12 0 2.35401e+14
352.686 0 32341.2 0 0 0 0 4.85874e-12 0 2.77809e+14
372.707 0 38167.6 0 0 0 0 4.12703e-12 0 3.27857e+14
393.865 0 45043.5 0 0 0 0 3.50528e-12 0 3.86921e+14
416.224 0 53158.3 0 0 0 0 2.97701e-12 0 4.56626e+14
439.852 0 62734.9 0 0 0 0 2.52819e-12 0 5.38888e+14
464.821 0 74036.7 0 0 0 0 2.1469e-12 0 6.35971e+14
491.207 0 87374.6 0 0 0 0 1.82301e-12 0 7.50542e+14
519.092 0 103115 0 0 0 0 1.54789e-12 0 8.85755e+14
548.56 0 121692 0 0 0 0 1.31422e-12 0 1.04533e+15
579.7 0 143615 0 0 0 0 1.11576e-12 0 1.23364e+15
612.608 0 169488 0 0 0 0 9.47223e-13 0 1.45589e+15
647.384 0 200021 0 0 0 0 8.041e-13 0 1.71817e+15
684.134 0 236056 0 0 0 0 6.82568e-13 0 2.0277e+15
722.971 0 278582 0 0 0 0 5.79376e-13 0 2.393e+15
764.012 0 328769 0 0 0 0 4.91762e-13 0 2.8241e+15
