0.737365
200
1.23897e+09
8589934592
0.0129181 0 1.58924e-09 0 0 0 0 0.00677225 0 13.6515
0.0136515 0 1.87554e-09 0 0 0 0 0.00688819 0 16.1108
0.0144264 0 2.21343e-09 0 0 0 0 0.00699249 0 19.0132
0.0152454 0 2.61218e-09 0 0 0 0 0.00708412 0 22.4385
0.0161108 0 3.08278e-09 0 0 0 0 0.00716212 0 26.4808
0.0170254 0 3.63815e-09 0 0 0 0 0.00722559 0 31.2514
0.0179919 0 4.29357e-09 0 0 0 0 0.00727371 0 36.8815
0.0190132 0 5.06707e-09 0 0 0 0 0.00730578 0 43.5258
0.0200925 0 5.97991e-09 0 0 0 0 0.00732122 0 51.367
0.0212331 0 7.05721e-09 0 0 0 0 0.00731958 0 60.621
0.0224385 0 8.32858e-09 0 0 0 0 0.00730056 0 71.542
0.0237123 0 9.829e-09 0 0 0 0 0.00726401 0 84.4305
0.0250583 0 1.15997e-08 0 0 0 0 0.00720995 0 99.6408
0.0264808 0 1.36894e-08 0 0 0 0 0.00713857 0 117.591
0.0279841 0 1.61556e-08 0 0 0 0 0.00705021 0 138.776
0.0295727 0 1.90661e-08 0 0 0 0 0.00694538 0 163.777
0.0312514 0 2.25009e-08 0 0 0 0 0.00682475 0 193.281
0.0330255 0 2.65545e-08 0 0 0 0 0.00668915 0 228.102
0.0349003 0 3.13384e-08 0 0 0 0 0.00653951 0 269.195
0.0368815 0 3.69841e-08 0 0 0 0 0.00637693 0 317.691
0.0389751 0 4.36469e-08 0 0 0 0 0.00620256 0 374.924
0.0411876 0 5.151e-08 0 0 0 0 0.00601767 0 442.467
0.0435258 0 6.07896e-08 0 0 0 0 0.00582358 0 522.179
0.0459966 0 7.1741e-08 0 0 0 0 0.00562166 0 616.251
0.0486077 0 8.46654e-08 0 0 0 0 0.0054133 0 727.27
0.051367 0 9.99181e-08 0 0 0 0 0.00519989 0 858.29
0.054283 0 1.17919e-07 0 0 0 0 0.0049828 0 1012.91
0.0573645 0 1.39162e-07 0 0 0 0 0.00476339 0 1195.39
0.060621 0 1.64232e-07 0 0 0 0 0.00454293 0 1410.75
0.0640622 0 1.93819e-07 0 0 0 0 0.00432265 0 1664.89
0.0676989 0 2.28736e-07 0 0 0 0 0.00410371 0 1964.83
0.071542 0 2.69944e-07 0 0 0 0 0.00388717 0 2318.8
0.0756032 0 3.18575e-07 0 0 0 0 0.00367401 0 2736.54
0.079895 0 3.75967e-07 0 0 0 0 0.0034651 0 3229.53
0.0844305 0 4.43698e-07 0 0 0 0 0.00326121 0 3811.34
0.0892234 0 5.23632e-07 0 0 0 0 0.00306301 0 4497.96
0.0942883 0 6.17966e-07 0 0 0 0 0.00287109 0 5308.28
0.0996408 0 7.29294e-07 0 0 0 0 0.00268591 0 6264.59
0.105297 0 8.60678e-07 0 0 0 0 0.00250785 0 7393.17
0.111275 0 1.01573e-06 0 0 0 0 0.00233721 0 8725.07
0.117591 0 1.19872e-06 0 0 0 0 0.00217419 0 10296.9
0.124267 0 1.41467e-06 0 0 0 0 0.00201893 0 12151.9
0.131321 0 1.66953e-06 0 0 0 0 0.00187147 0 14341.1
0.138776 0 1.9703e-06 0 0 0 0 0.00173182 0 16924.7
0.146654 0 2.32525e-06 0 0 0 0 0.00159991 0 19973.8
0.154979 0 2.74415e-06 0 0 0 0 0.00147563 0 23572.1
0.163777 0 3.23852e-06 0 0 0 0 0.00135884 0 27818.7
0.173074 0 3.82195e-06 0 0 0 0 0.00124933 0 32830.3
0.182899 0 4.51048e-06 0 0 0 0 0.00114689 0 38744.7
0.193281 0 5.32305e-06 0 0 0 0 0.00105127 0 45724.7
0.204254 0 6.28202e-06 0 0 0 0 0.000962209 0 53962.1
0.215848 0 7.41374e-06 0 0 0 0 0.000879423 0 63683.5
0.228102 0 8.74934e-06 0 0 0 0 0.000802624 0 75156.3
0.24105 0 1.03256e-05 0 0 0 0 0.000731515 0 88695.9
0.254734 0 1.21857e-05 0 0 0 0 0.000665798 0 104675
0.269195 0 1.4381e-05 0 0 0 0 0.000605173 0 123532
0.284476 0 1.69718e-05 0 0 0 0 0.000549345 0 145787
0.300625 0 2.00293e-05 0 0 0 0 0.000498021 0 172051
0.317691 0 2.36377e-05 0 0 0 0 0.000450916 0 203046
0.335725 0 2.78961e-05 0 0 0 0 0.000407755 0 239625
0.354784 0 3.29216e-05 0 0 0 0 0.000368269 0 282795
0.374924 0 3.88525e-05 0 0 0 0 0.000332202 0 333741
0.396207 2.36906 4.58519e-05 6.01491e-06 6 2.3032 5.84768e-06 0.000299307 0.120577 393865
0.418699 0 5.41123e-05 0 0 0 0 0.00026935 0 464821
0.442467 0 6.38607e-05 0 0 0 0 0.000242108 0 548560
0.467585 0 7.53654e-05 0 0 0 0 0.00021737 0 647384
0.494129 0 8.89427e-05 0 0 0 0 0.000194938 0 764012
0.522179 0 0.000104966 0 0 0 0 0.000174625 0 901651
0.551822 0 0.000123876 0 0 0 0 0.000156255 0 1.06409e+06
0.583147 6.29616 0.000146192 5.01373e-06 12 6.62675 5.27698e-06 0.000139664 0.430782 1.25578e+06
0.616251 0 0.000172529 0 0 0 0 0.0001247 0 1.48202e+06
0.651234 0 0.000203611 0 0 0 0 0.00011122 0 1.74901e+06
0.688203 14.4797 0.000240292 7.01503e-06 8 14.1195 6.84051e-06 9.90935e-05 0.566337 2.06409e+06
0.72727 0 0.000283581 0 0 0 0 8.81969e-05 0 2.43595e+06
0.768555 0 0.000334669 0 0 0 0 7.84179e-05 0 2.87479e+06
0.812184 8.8317 0.000394961 2.60316e-06 6 9.02053 2.65881e-06 6.96525e-05 0.224241 3.39269e+06
0.85829 0 0.000466114 0 0 0 0 6.1805e-05 0 4.00389e+06
0.907013 1.38119 0.000550086 2.92302e-07 24 1.40769 2.97911e-07 5.47875e-05 0.128045 4.7252e+06
0.958501 4.20779 0.000649185 7.54563e-07 24 3.96132 7.10365e-07 4.85194e-05 0.373242 5.57646e+06
1.01291 0 0.000766138 0 0 0 0 4.29272e-05 0 6.58107e+06
1.07041 0 0.00090416 0 0 0 0 3.79435e-05 0 7.76667e+06
1.13118 5.58247 0.00106705 6.09051e-07 12 5.5139 6.01569e-07 3.3507e-05 0.218122 9.16586e+06
1.19539 3.55069 0.00125928 3.28248e-07 30 3.47749 3.21481e-07 2.9562e-05 0.333111 1.08171e+07
1.26325 8.33836 0.00148614 6.53177e-07 24 8.21289 6.43349e-07 2.60578e-05 0.601595 1.27658e+07
1.33496 14.2355 0.00175387 9.44899e-07 24 14.2668 9.46976e-07 2.29484e-05 0.988197 1.50656e+07
1.41075 17.1193 0.00206984 9.62852e-07 32 17.4928 9.83859e-07 2.01923e-05 1.52589 1.77798e+07
1.49083 4.23962 0.00244272 2.02052e-07 48 4.14923 1.97744e-07 1.77518e-05 0.546339 2.09828e+07
1.57546 26.6379 0.00288279 1.07571e-06 6 25.3652 1.02432e-06 1.55929e-05 0.413926 2.4763e+07
1.66489 3.59557 0.00340213 1.23034e-07 84 3.54162 1.21188e-07 1.3685e-05 0.755198 2.92241e+07
1.75941 6.05201 0.00401503 1.75477e-07 48 5.98815 1.73626e-07 1.20007e-05 0.701869 3.44889e+07
1.85928 6.84719 0.00473835 1.68227e-07 72 6.90637 1.69681e-07 1.05151e-05 1.1519 4.07021e+07
1.96483 9.89583 0.00559198 2.06014e-07 54 9.6829 2.01581e-07 9.20606e-06 1.20842 4.80347e+07
2.07637 10.4076 0.00659939 1.83594e-07 104 10.4909 1.85062e-07 8.05366e-06 2.37082 5.66883e+07
2.19424 9.63827 0.00778828 1.44068e-07 120 9.75774 1.45854e-07 7.04008e-06 2.45568 6.69008e+07
2.3188 9.61822 0.00919136 1.21822e-07 156 9.33661 1.18255e-07 6.1494e-06 3.09042 7.89532e+07
2.45043 9.6501 0.0108472 1.03568e-07 126 9.54656 1.02456e-07 5.36741e-06 2.43125 9.31768e+07
2.58954 9.94978 0.0128014 9.04831e-08 192 10.0026 9.09635e-08 4.68145e-06 3.71097 1.09963e+08
2.73654 31.4113 0.0151076 2.42048e-07 152 31.7218 2.44441e-07 4.08023e-06 9.01697 1.29773e+08
2.89188 12.6186 0.0178292 8.23924e-08 378 12.6969 8.29039e-08 3.55373e-06 8.76383 1.53152e+08
3.05605 14.0967 0.0210412 7.79933e-08 264 13.8131 7.6424e-08 3.09304e-06 6.65696 1.80743e+08
3.22953 13.8081 0.0248319 6.47344e-08 366 13.7489 6.44567e-08 2.69025e-06 8.80689 2.13304e+08
3.41286 14.1861 0.0293054 5.63542e-08 428 14.0387 5.57686e-08 2.33837e-06 10.3147 2.51731e+08
3.6066 16.4052 0.0345848 5.52211e-08 486 16.1784 5.44578e-08 2.0312e-06 13.2126 2.97081e+08
3.81134 16.8412 0.0408154 4.80351e-08 600 16.828 4.79977e-08 1.76327e-06 16.3453 3.50601e+08
4.0277 21.834 0.0481684 5.27694e-08 738 21.804 5.26969e-08 1.52972e-06 25.4581 4.13763e+08
4.25634 21.5099 0.056846 4.40502e-08 824 21.3774 4.3779e-08 1.32631e-06 27.3673 4.88304e+08
4.49796 26.2721 0.067087 4.55896e-08 954 26.1252 4.53348e-08 1.14926e-06 37.844 5.76273e+08
4.7533 23.0616 0.0791729 3.39096e-08 1094 22.8792 3.36414e-08 9.95263e-07 37.2737 6.8009e+08
5.02313 28.3096 0.0934361 3.5272e-08 1332 28.3195 3.52842e-08 8.61414e-07 54.5408 8.0261e+08
5.30828 30.9561 0.110269 3.26816e-08 1614 30.9637 3.26897e-08 7.45152e-07 70.7884 9.47202e+08
5.60962 32.6052 0.130134 2.91679e-08 1850 32.5344 2.91046e-08 6.44232e-07 83.7596 1.11784e+09
5.92807 32.3133 0.153578 2.44941e-08 2238 32.2656 2.4458e-08 5.56685e-07 98.4718 1.31923e+09
6.26459 32.7198 0.181246 2.10161e-08 2546 32.8253 2.10839e-08 4.80786e-07 111.291 1.55689e+09
6.62021 32.5869 0.213898 1.77357e-08 3264 32.5912 1.7738e-08 4.15026e-07 139.483 1.83737e+09
6.99602 36.6475 0.252432 1.69009e-08 3506 36.71 1.69297e-08 3.58083e-07 165.477 2.16837e+09
7.39317 41.9238 0.297908 1.63828e-08 4506 41.9206 1.63816e-08 3.08803e-07 239.055 2.55901e+09
7.81286 45.9559 0.351577 1.52171e-08 5018 45.7123 1.51364e-08 2.66181e-07 286.87 3.02002e+09
8.25637 47.7271 0.414914 1.33911e-08 5852 47.655 1.33709e-08 2.29336e-07 341.703 3.56409e+09
8.72507 48.8658 0.489662 1.16177e-08 7362 48.77 1.15949e-08 1.97503e-07 433.053 4.20617e+09
9.22037 50.9228 0.577876 1.02586e-08 8306 50.7394 1.02216e-08 1.70014e-07 501.181 4.96392e+09
9.74378 54.2859 0.681982 9.26667e-09 9698 54.2387 9.25862e-09 1.46289e-07 614.319 5.85818e+09
10.2969 57.9831 0.804843 8.38687e-09 11816 57.9133 8.37678e-09 1.25822e-07 787.612 6.91355e+09
10.8814 65.9113 0.949838 8.07831e-09 13682 65.764 8.06026e-09 1.08175e-07 1021.74 8.15905e+09
11.4992 66.4397 1.12095 6.90001e-09 16152 66.4159 6.89754e-09 9.29669e-08 1198.8 9.62892e+09
12.1519 69.5957 1.3229 6.12444e-09 19472 69.517 6.11752e-09 7.98658e-08 1493.2 1.13636e+10
12.8418 73.1385 1.56122 5.45371e-09 22670 72.932 5.43831e-09 6.85852e-08 1802.66 1.34108e+10
13.5708 78.025 1.84248 4.92994e-09 26224 77.8817 4.92089e-09 5.88765e-08 2195.83 1.58268e+10
14.3411 83.4397 2.17441 4.46727e-09 31640 83.3352 4.46167e-09 5.05241e-08 2797.56 1.8678e+10
15.1552 86.8223 2.56613 3.93879e-09 37484 86.6513 3.93103e-09 4.33417e-08 3406.46 2.20429e+10
16.0156 94.1138 3.02843 3.61781e-09 43856 93.9956 3.61327e-09 3.71677e-08 4268.83 2.6014e+10
16.9247 99.2265 3.574 3.23208e-09 51362 99.104 3.22809e-09 3.18628e-08 5210.04 3.07005e+10
17.8855 104.119 4.21787 2.87372e-09 61636 103.968 2.86956e-09 2.73063e-08 6486.59 3.62312e+10
18.9008 110.764 4.97773 2.59046e-09 72218 110.503 2.58435e-09 2.33941e-08 7996.79 4.27584e+10
19.9738 116.384 5.87448 2.30639e-09 84586 116.19 2.30255e-09 2.00364e-08 9736.72 5.04614e+10
21.1076 123.258 6.93279 2.06974e-09 100708 123.059 2.0664e-09 1.71555e-08 12150 5.95522e+10
22.3058 131.336 8.18175 1.86874e-09 118712 131.153 1.86613e-09 1.46847e-08 15107 7.02807e+10
23.5721 136.219 9.65571 1.64234e-09 140410 135.961 1.63923e-09 1.25662e-08 18351 8.29419e+10
24.9102 142.432 11.3952 1.45511e-09 164374 142.175 1.45248e-09 1.07504e-08 22248.8 9.78842e+10
26.3243 151.475 13.4481 1.31127e-09 194680 151.31 1.30984e-09 9.19452e-09 27764.1 1.15518e+11
27.8187 159.901 15.8708 1.17291e-09 230196 159.657 1.17111e-09 7.86182e-09 34342.9 1.36329e+11
29.3979 167.441 18.73 1.04072e-09 271156 167.186 1.03914e-09 6.72061e-09 41989.8 1.60889e+11
31.0667 176.469 22.1042 9.29404e-10 321076 176.135 9.27642e-10 5.74366e-09 51954.5 1.89874e+11
32.8303 185.678 26.0864 8.28625e-10 377436 185.336 8.27099e-10 4.90756e-09 63728.8 2.2408e+11
34.694 194.673 30.7859 7.36144e-10 447594 194.31 7.34773e-10 4.19221e-09 78596.8 2.64449e+11
36.6634 204.513 36.3321 6.553e-10 525078 204.14 6.54105e-10 3.58032e-09 96104 3.1209e+11
38.7447 215.398 42.8774 5.84822e-10 621924 215.03 5.83822e-10 3.05709e-09 118974 3.68314e+11
40.9442 226.233 50.6018 5.20475e-10 732630 225.832 5.19553e-10 2.60976e-09 146111 4.34667e+11
43.2685 237.087 59.7179 4.62183e-10 865596 236.705 4.61437e-10 2.22743e-09 179608 5.12973e+11
45.7247 249.091 70.4762 4.11457e-10 1.02168e+06 248.694 4.10802e-10 1.90073e-09 221165 6.05386e+11
48.3204 261.042 83.1727 3.65375e-10 1.20544e+06 260.57 3.64715e-10 1.62163e-09 271601 7.14448e+11
51.0634 274.068 98.1565 3.2505e-10 1.42103e+06 273.608 3.24504e-10 1.38326e-09 333926 8.43158e+11
53.9621 287.646 115.84 2.89075e-10 1.67997e+06 287.168 2.88595e-10 1.1797e-09 411660 9.95055e+11
57.0254 302.305 136.709 2.57431e-10 1.98018e+06 301.782 2.56985e-10 1.00592e-09 506759 1.17432e+12
60.2626 318.542 161.337 2.29849e-10 2.33957e+06 317.964 2.29432e-10 8.57591e-10 627046 1.38587e+12
63.6835 336.01 190.402 2.05443e-10 2.75676e+06 335.442 2.05096e-10 7.3101e-10 774760 1.63554e+12
67.2987 355.417 224.704 1.84136e-10 3.25638e+06 354.789 1.8381e-10 6.23009e-10 962453 1.93019e+12
71.1191 376.971 265.185 1.65489e-10 3.84387e+06 376.267 1.6518e-10 5.30879e-10 1.19824e+06 2.27792e+12
75.1563 400.56 312.958 1.49002e-10 4.53277e+06 399.794 1.48717e-10 4.52303e-10 1.49322e+06 2.68829e+12
79.4227 426.943 369.339 1.34572e-10 5.35083e+06 426.151 1.34323e-10 3.85299e-10 1.86887e+06 3.17259e+12
83.9313 457.365 435.876 1.22155e-10 6.32174e+06 456.432 1.21905e-10 3.28173e-10 2.35312e+06 3.74415e+12
88.6959 491.698 514.4 1.11278e-10 7.44986e+06 490.661 1.11043e-10 2.79476e-10 2.96627e+06 4.41866e+12
93.7309 531.127 607.071 1.01852e-10 8.79764e+06 530.019 1.01639e-10 2.37972e-10 3.76538e+06 5.2147e+12
99.0518 576.146 716.436 9.36192e-11 1.03827e+07 574.86 9.34104e-11 2.02605e-10 4.79761e+06 6.15414e+12
104.675 629.514 845.504 8.66762e-11 1.22515e+07 628.067 8.64769e-11 1.72471e-10 6.15707e+06 7.26283e+12
110.617 693.199 997.824 8.0875e-11 1.44573e+07 691.537 8.0681e-11 1.468e-10 7.96482e+06 8.57124e+12
116.896 767.396 1177.58 7.58643e-11 1.70664e+07 765.486 7.56755e-11 1.24935e-10 1.03633e+07 1.01154e+13
123.532 855.307 1389.73 7.16476e-11 2.0139e+07 853.09 7.14619e-11 1.06313e-10 1.35723e+07 1.19377e+13
130.545 959.164 1640.09 6.80823e-11 2.37643e+07 956.61 6.79011e-11 9.04567e-11 1.78862e+07 1.40883e+13
137.955 1083.29 1935.56 6.51551e-11 2.80503e+07 1080.28 6.49741e-11 7.69563e-11 2.37488e+07 1.66263e+13
145.787 1230.48 2284.26 6.27103e-11 3.30981e+07 1227.01 6.25334e-11 6.54636e-11 3.17061e+07 1.96216e+13
154.063 1405.48 2695.77 6.06948e-11 3.90634e+07 1401.37 6.05175e-11 5.56812e-11 4.25807e+07 2.31565e+13
162.808 1613.42 3181.42 5.90386e-11 4.61057e+07 1608.6 5.88621e-11 4.73556e-11 5.74803e+07 2.73282e+13
172.051 1861.11 3754.56 5.77062e-11 5.44046e+07 1855.42 5.75299e-11 4.02708e-11 7.79592e+07 3.22515e+13
181.818 2157.08 4430.96 5.66732e-11 6.42064e+07 2150.37 5.64971e-11 3.42426e-11 1.06265e+08 3.80616e+13
192.139 2508.03 5229.21 5.58352e-11 7.57748e+07 2500.11 5.56587e-11 2.91139e-11 1.45322e+08 4.49186e+13
203.046 2927.6 6171.26 5.52265e-11 8.94213e+07 2918.21 5.50493e-11 2.4751e-11 1.99524e+08 5.30108e+13
214.572 3428.85 7283.03 5.48083e-11 1.05538e+08 3417.7 5.46301e-11 2.10401e-11 2.74922e+08 6.25608e+13
226.753 4026.95 8595.09 5.45426e-11 1.24552e+08 4013.7 5.43632e-11 1.78839e-11 3.79859e+08 7.38313e+13
239.625 4744.46 10143.5 5.44513e-11 1.46987e+08 4728.62 5.42695e-11 1.51999e-11 5.26559e+08 8.71322e+13
253.228 5606.44 11970.9 5.45218e-11 1.7347e+08 5587.42 5.43369e-11 1.29176e-11 7.3217e+08 1.02829e+14
267.603 6649.44 14127.5 5.47936e-11 2.04703e+08 6626.6 5.46054e-11 1.09771e-11 1.0218e+09 1.21354e+14
282.795 7915.89 16672.6 5.52722e-11 2.4161e+08 7888.23 5.50791e-11 9.3274e-12 1.43173e+09 1.43217e+14
298.848 9468.9 19676.2 5.60232e-11 2.85122e+08 9435.13 5.58234e-11 7.925e-12 2.01558e+09 1.69017e+14
315.813 11397.4 23220.9 5.71393e-11 3.36491e+08 11355.5 5.69295e-11 6.73295e-12 2.85564e+09 1.99466e+14
333.741 13833.9 27404.3 5.87673e-11 3.97115e+08 13781.4 5.85445e-11 5.71979e-12 4.08011e+09 2.35401e+14
352.686 16981.1 32341.2 6.11251e-11 4.68637e+08 16913.5 6.0882e-11 4.85874e-12 5.89567e+09 2.77809e+14
372.707 21168.5 38167.6 6.45662e-11 5.53074e+08 21079.2 6.42939e-11 4.12703e-12 8.65269e+09 3.27857e+14
393.865 26954 45043.5 6.96627e-11 6.52716e+08 26831.3 6.93456e-11 3.50528e-12 1.29718e+10 3.86921e+14
416.224 31822.6 53158.3 6.96908e-11 2.2184e+08 33665.3 7.37263e-11 2.97701e-12 5.1932e+09 4.56626e+14
439.852 0 62734.9 0 0 0 0 2.52819e-12 0 5.38888e+14
464.821 0 74036.7 0 0 0 0 2.1469e-12 0 6.35971e+14
491.207 0 87374.6 0 0 0 0 1.82301e-12 0 7.50542e+14
519.092 0 103115 0 0 0 0 1.54789e-12 0 8.85755e+14
548.56 0 121692 0 0 0 0 1.31422e-12 0 1.04533e+15
579.7 0 143615 0 0 0 0 1.11576e-12 0 1.23364e+15
612.608 0 169488 0 0 0 0 9.47223e-13 0 1.45589e+15
647.384 0 200021 0 0 0 0 8.041e-13 0 1.71817e+15
684.134 0 236056 0 0 0 0 6.82568e-13 0 2.0277e+15
722.971 0 278582 0 0 0 0 5.79376e-13 0 2.393e+15
764.012 0 328769 0 0 0 0 4.91762e-13 0 2.8241e+15
0.737365
200
1.23897e+09
8589934592
0.0129181 0.00112687 1.58924e-09 8.25459e-05 6 0.00111656 8.17902e-05 0.00677225 0.073133 13.6515
0.0136515 0 1.87554e-09 0 0 0 0 0.00688819 0 16.1108
0.0144264 0 2.21343e-09 0 0 0 0 0.00699249 0 19.0132
0.0152454 0 2.61218e-09 0 0 0 0 0.00708412 0 22.4385
0.0161108 0 3.08278e-09 0 0 0 0 0.00716212 0 26.4808
0.0170254 0 3.63815e-09 0 0 0 0 0.00722559 0 31.2514
0.0179919 0.00257064 4.29357e-09 6.97001e-05 12 0.00256733 6.96103e-05 0.00727371 0.11499 36.8815
0.0190132 0 5.06707e-09 0 0 0 0 0.00730578 0 43.5258
0.0200925 0 5.97991e-09 0 0 0 0 0.00732122 0 51.367
0.0212331 0.00247942 7.05721e-09 4.09003e-05 8 0.00247726 4.08647e-05 0.00731958 0.0447024 60.621
0.0224385 0 8.32858e-09 0 0 0 0 0.00730056 0 71.542
0.0237123 0 9.829e-09 0 0 0 0 0.00726401 0 84.4305
0.0250583 0.015974 1.15997e-08 0.000160316 6 0.0159665 0.00016024 0.00720995 0.133412 99.6408
0.0264808 0 1.36894e-08 0 0 0 0 0.00713857 0 117.591
0.0279841 0.00996913 1.61556e-08 7.18362e-05 24 0.00995889 7.17624e-05 0.00705021 0.244542 138.776
0.0295727 0 1.90661e-08 0 0 0 0 0.00694538 0 163.777
0.0312514 0.0178929 2.25009e-08 9.25745e-05 24 0.0179838 9.30445e-05 0.00682475 0.325548 193.281
0.0330255 0 2.65545e-08 0 0 0 0 0.00668915 0 228.102
0.0349003 0.0270271 3.13384e-08 0.0001004 12 0.0268106 9.95957e-05 0.00653951 0.184233 269.195
0.0368815 0.0220254 3.69841e-08 6.93296e-05 30 0.0217909 6.85914e-05 0.00637693 0.326159 317.691
0.0389751 0.0252881 4.36469e-08 6.74486e-05 24 0.0250279 6.67547e-05 0.00620256 0.260984 374.924
0.0411876 0.0161526 5.151e-08 3.65057e-05 24 0.0160429 3.62578e-05 0.00601767 0.145594 442.467
0.0435258 0.0388997 6.07896e-08 7.44949e-05 8 0.0388967 7.44892e-05 0.00582358 0.102335 522.179
0.0459966 0.0479976 7.1741e-08 7.78864e-05 72 0.0476194 7.72728e-05 0.00562166 0.997539 616.251
0.0486077 0 8.46654e-08 0 0 0 0 0.0054133 0 727.27
0.051367 0.0663586 9.99181e-08 7.73149e-05 54 0.0661412 7.70617e-05 0.00519989 0.802903 858.29
0.054283 0.0530891 1.17919e-07 5.24123e-05 60 0.0533263 5.26465e-05 0.0049828 0.631118 1012.91
0.0573645 0.0498417 1.39162e-07 4.16948e-05 96 0.0497142 4.15882e-05 0.00476339 0.840307 1195.39
0.060621 0.0587935 1.64232e-07 4.16755e-05 24 0.057997 4.11109e-05 0.00454293 0.220169 1410.75
0.0640622 0.102035 1.93819e-07 6.12859e-05 134 0.102083 6.13152e-05 0.00432265 1.89983 1664.89
0.0676989 0.100183 2.28736e-07 5.09881e-05 120 0.0996993 5.07419e-05 0.00410371 1.49099 1964.83
0.071542 0.0949174 2.69944e-07 4.09339e-05 108 0.0938704 4.04823e-05 0.00388717 1.13729 2318.8
0.0756032 0.141918 3.18575e-07 5.18606e-05 174 0.141128 5.15717e-05 0.00367401 2.4561 2736.54
0.079895 0.152079 3.75967e-07 4.709e-05 168 0.150644 4.66459e-05 0.0034651 2.28309 3229.53
0.0844305 0.12903 4.43698e-07 3.38543e-05 168 0.129668 3.40216e-05 0.00326121 1.74399 3811.34
0.0892234 0.154038 5.23632e-07 3.42462e-05 290 0.15333 3.40888e-05 0.00306301 3.24236 4497.96
0.0942883 0.190564 6.17966e-07 3.58994e-05 288 0.190132 3.5818e-05 0.00287109 3.60109 5308.28
0.0996408 0.168987 7.29294e-07 2.6975e-05 366 0.167671 2.67649e-05 0.00268591 3.67579 6264.59
0.105297 0.192553 8.60678e-07 2.60448e-05 420 0.191218 2.58642e-05 0.00250785 4.36182 7393.17
0.111275 0.202275 1.01573e-06 2.31833e-05 398 0.2017 2.31173e-05 0.00233721 3.94784 8725.07
0.117591 0.237135 1.19872e-06 2.30297e-05 624 0.237765 2.30909e-05 0.00217419 6.60959 10296.9
0.124267 0.2722 1.41467e-06 2.23997e-05 642 0.271625 2.23524e-05 0.00201893 7.1229 12151.9
0.131321 0.331075 1.66953e-06 2.30857e-05 800 0.331122 2.3089e-05 0.00187147 9.86847 14341.1
0.138776 0.308003 1.9703e-06 1.81984e-05 858 0.309318 1.82761e-05 0.00173182 9.0161 16924.7
0.146654 0.362053 2.32525e-06 1.81264e-05 1080 0.365028 1.82754e-05 0.00159991 12.236 19973.8
0.154979 0.431354 2.74415e-06 1.82994e-05 1286 0.434122 1.84168e-05 0.00147563 15.9477 23572.1
0.163777 0.41424 3.23852e-06 1.48907e-05 1650 0.415392 1.49321e-05 0.00135884 18.0814 27818.7
0.173074 0.459369 3.82195e-06 1.39923e-05 1778 0.459718 1.40029e-05 0.00124933 19.9132 32830.3
0.182899 0.472459 4.51048e-06 1.21941e-05 2112 0.473643 1.22247e-05 0.00114689 22.4555 38744.7
0.193281 0.52808 5.32305e-06 1.15491e-05 2570 0.528539 1.15592e-05 0.00105127 28.2336 45724.7
0.204254 0.628381 6.28202e-06 1.16449e-05 3030 0.627913 1.16362e-05 0.000962209 36.6697 53962.1
0.215848 0.658711 7.41374e-06 1.03435e-05 3434 0.658404 1.03387e-05 0.000879423 40.3896 63683.5
0.228102 0.696552 8.74934e-06 9.26804e-06 4218 0.696353 9.26539e-06 0.000802624 48.706 75156.3
0.24105 0.767058 1.03256e-05 8.64818e-06 4766 0.767611 8.65441e-06 0.000731515 56.345 88695.9
0.254734 0.835268 1.21857e-05 7.97966e-06 6026 0.835253 7.97951e-06 0.000665798 72.2222 104675
0.269195 0.943687 1.4381e-05 7.6392e-06 6480 0.942777 7.63184e-06 0.000605173 81.7981 123532
0.284476 1.0284 1.69718e-05 7.05413e-06 8162 1.03037 7.06766e-06 0.000549345 104.808 145787
0.300625 1.11822 2.00293e-05 6.49934e-06 9578 1.11899 6.50383e-06 0.000498021 124.996 172051
0.317691 1.23145 2.36377e-05 6.06489e-06 11234 1.23005 6.05797e-06 0.000450916 151.099 203046
0.335725 1.33072 2.78961e-05 5.55334e-06 13344 1.32824 5.54297e-06 0.000407755 181.736 239625
0.354784 1.48004 3.29216e-05 5.23361e-06 15464 1.47894 5.22973e-06 0.000368269 219.765 282795
0.374924 1.58469 3.88525e-05 4.74826e-06 18458 1.58354 4.74483e-06 0.000332202 263.826 333741
0.396207 1.81917 4.58519e-05 4.61877e-06 22232 1.81668 4.61243e-06 0.000299307 343.075 393865
0.418699 1.95085 5.41123e-05 4.197e-06 25628 1.94604 4.18665e-06 0.00026935 399.335 464821
0.442467 2.12674 6.38607e-05 3.87696e-06 30320 2.12284 3.86984e-06 0.000242108 485.525 548560
0.467585 2.3908 7.53654e-05 3.69302e-06 35452 2.38661 3.68654e-06 0.00021737 602.313 647384
0.494129 2.63179 8.89427e-05 3.4447e-06 41792 2.62927 3.4414e-06 0.000194938 738.495 764012
0.522179 2.95179 0.000104966 3.27376e-06 49988 2.95153 3.27347e-06 0.000174625 937.144 901651
0.551822 3.26088 0.000123876 3.06449e-06 59110 3.25644 3.06032e-06 0.000156255 1159.27 1.06409e+06
0.583147 3.60684 0.000146192 2.87218e-06 69716 3.60036 2.86702e-06 0.000139664 1433.7 1.25578e+06
0.616251 4.00327 0.000172529 2.70123e-06 82210 3.99523 2.69581e-06 0.0001247 1780.82 1.48202e+06
0.651234 4.42556 0.000203611 2.53033e-06 96722 4.41533 2.52448e-06 0.00011122 2200.48 1.74901e+06
0.688203 4.98807 0.000240292 2.41659e-06 113098 4.98022 2.41279e-06 9.90935e-05 2758.12 2.06409e+06
0.72727 5.51538 0.000283581 2.26416e-06 135190 5.50745 2.26091e-06 8.81969e-05 3470.56 2.43595e+06
0.768555 6.13299 0.000334669 2.13337e-06 158170 6.12511 2.13063e-06 7.84179e-05 4303.04 2.87479e+06
0.812184 6.86107 0.000394961 2.02231e-06 188560 6.84924 2.01882e-06 6.96525e-05 5474.7 3.39269e+06
0.85829 7.6337 0.000466114 1.90657e-06 220444 7.62123 1.90346e-06 6.1805e-05 6800.29 4.00389e+06
0.907013 8.49849 0.000550086 1.79854e-06 261388 8.48466 1.79562e-06 5.47875e-05 8580.76 4.7252e+06
0.958501 9.4939 0.000649185 1.7025e-06 308244 9.48035 1.70007e-06 4.85194e-05 10816 5.57646e+06
1.01291 10.6194 0.000766138 1.61363e-06 364396 10.6015 1.6109e-06 4.29272e-05 13697.6 6.58107e+06
1.07041 11.7909 0.00090416 1.51814e-06 429162 11.7695 1.51538e-06 3.79435e-05 17171.1 7.76667e+06
1.13118 13.192 0.00106705 1.43925e-06 506358 13.1689 1.43673e-06 3.3507e-05 21750 9.16586e+06
1.19539 14.7203 0.00125928 1.36083e-06 598590 14.6932 1.35833e-06 2.9562e-05 27554.9 1.08171e+07
1.26325 16.375 0.00148614 1.28272e-06 704844 16.3441 1.2803e-06 2.60578e-05 34696.5 1.27658e+07
1.33496 18.215 0.00175387 1.20904e-06 834620 18.1776 1.20656e-06 2.29484e-05 43972.1 1.50656e+07
1.41075 20.1818 0.00206984 1.1351e-06 981444 20.1411 1.13281e-06 2.01923e-05 55171.5 1.77798e+07
1.49083 22.4507 0.00244272 1.06996e-06 1.15998e+06 22.4095 1.06799e-06 1.77518e-05 69915.6 2.09828e+07
1.57546 24.8871 0.00288279 1.00501e-06 1.36931e+06 24.84 1.00311e-06 1.55929e-05 88256.8 2.4763e+07
1.66489 27.5602 0.00340213 9.43067e-07 1.61652e+06 27.508 9.41278e-07 1.3685e-05 111398 2.92241e+07
1.75941 30.3508 0.00401503 8.80017e-07 1.90601e+06 30.2934 8.78352e-07 1.20007e-05 139769 3.44889e+07
1.85928 33.3659 0.00473835 8.19757e-07 2.24913e+06 33.3049 8.18259e-07 1.05151e-05 175342 4.07021e+07
1.96483 36.5927 0.00559198 7.61798e-07 2.65744e+06 36.5243 7.60373e-07 9.20606e-06 219902 4.80347e+07
2.07637 40.1841 0.00659939 7.08861e-07 3.13125e+06 40.1085 7.07527e-07 8.05366e-06 275604 5.66883e+07
2.19424 43.894 0.00778828 6.56105e-07 3.69915e+06 43.8141 6.5491e-07 7.04008e-06 344745 6.69008e+07
2.3188 47.9159 0.00919136 6.0689e-07 4.36472e+06 47.8282 6.05779e-07 6.1494e-06 430759 7.89532e+07
2.45043 52.1105 0.0108472 5.59265e-07 5.14913e+06 52.0191 5.58284e-07 5.36741e-06 536521 9.31768e+07
2.58954 56.6179 0.0128014 5.14882e-07 6.07894e+06 56.5183 5.13976e-07 4.68145e-06 668582 1.09963e+08
2.73654 61.2862 0.0151076 4.72257e-07 7.17304e+06 61.1822 4.71456e-07 4.08023e-06 830227 1.29773e+08
2.89188 66.2494 0.0178292 4.32573e-07 8.46557e+06 66.1358 4.31831e-07 3.55373e-06 1.03046e+06 1.53152e+08
3.05605 71.4139 0.0210412 3.95114e-07 9.98773e+06 71.2942 3.94451e-07 3.09304e-06 1.27586e+06 1.80743e+08
3.22953 76.7851 0.0248319 3.59979e-07 1.1797e+07 76.6535 3.59363e-07 2.69025e-06 1.57854e+06 2.13304e+08
3.41286 82.6743 0.0293054 3.28423e-07 1.39144e+07 82.5337 3.27864e-07 2.33837e-06 1.95427e+06 2.51731e+08
3.6066 88.7865 0.0345848 2.98863e-07 1.64163e+07 88.6392 2.98367e-07 2.0312e-06 2.41543e+06 2.97081e+08
3.81134 95.1591 0.0408154 2.71417e-07 1.93821e+07 95.0018 2.70968e-07 1.76327e-06 2.98346e+06 3.50601e+08
4.0277 101.828 0.0481684 2.46103e-07 2.28754e+07 101.659 2.45694e-07 1.52972e-06 3.68022e+06 4.13763e+08
4.25634 108.759 0.056846 2.22728e-07 2.69929e+07 108.576 2.22354e-07 1.32631e-06 4.53294e+06 4.88304e+08
4.49796 116.046 0.067087 2.01373e-07 3.18542e+07 115.853 2.01039e-07 1.14926e-06 5.58151e+06 5.76273e+08
4.7533 123.703 0.0791729 1.81892e-07 3.75892e+07 123.497 1.81589e-07 9.95263e-07 6.8697e+06 6.8009e+08
5.02313 131.768 0.0934361 1.64174e-07 4.43706e+07 131.552 1.63906e-07 8.61414e-07 8.45644e+06 8.0261e+08
5.30828 140.19 0.110269 1.48004e-07 5.23593e+07 139.96 1.47762e-07 7.45152e-07 1.03998e+07 9.47202e+08
5.60962 149.028 0.130134 1.33317e-07 6.1787e+07 148.784 1.33099e-07 6.44232e-07 1.27862e+07 1.11784e+09
5.92807 158.313 0.153578 1.20005e-07 7.29346e+07 158.05 1.19805e-07 5.56685e-07 1.57225e+07 1.31923e+09
6.26459 168.029 0.181246 1.07926e-07 8.60651e+07 167.751 1.07748e-07 4.80786e-07 1.93197e+07 1.55689e+09
6.62021 178.152 0.213898 9.69603e-08 1.01558e+08 177.858 9.68004e-08 4.15026e-07 2.37265e+07 1.83737e+09
6.99602 188.843 0.252432 8.70899e-08 1.1986e+08 188.532 8.69464e-08 3.58083e-07 2.91513e+07 2.16837e+09
7.39317 199.985 0.297908 7.81492e-08 1.41457e+08 199.659 7.80221e-08 3.08803e-07 3.57986e+07 2.55901e+09
7.81286 211.661 0.351577 7.0086e-08 1.66936e+08 211.314 6.99711e-08 2.66181e-07 4.39546e+07 3.02002e+09
8.25637 223.928 0.414914 6.28289e-08 1.97025e+08 223.559 6.27254e-08 2.29336e-07 5.3977e+07 3.56409e+09
8.72507 236.787 0.489662 5.62952e-08 2.32497e+08 236.397 5.62024e-08 1.97503e-07 6.62696e+07 4.20617e+09
9.22037 250.544 0.577876 5.04729e-08 2.74404e+08 250.127 5.0389e-08 1.70014e-07 8.14637e+07 4.96392e+09
9.74378 265.535 0.681982 4.53272e-08 3.2382e+08 265.082 4.52498e-08 1.46289e-07 1.00335e+08 5.85818e+09
10.2969 282.459 0.804843 4.08558e-08 3.82165e+08 281.958 4.07834e-08 1.25822e-07 1.24093e+08 6.91355e+09
10.8814 302.513 0.949838 3.7077e-08 4.51027e+08 301.944 3.70072e-08 1.08175e-07 1.54589e+08 8.15905e+09
11.4992 328.098 1.12095 3.40742e-08 5.32251e+08 327.405 3.40023e-08 9.29669e-08 1.9508e+08 9.62892e+09
12.1519 364.322 1.3229 3.20605e-08 6.28157e+08 363.413 3.19805e-08 7.98658e-08 2.52161e+08 1.13636e+10
12.8418 404.937 1.56122 3.01949e-08 3.82727e+08 419.125 3.12528e-08 6.85852e-08 1.68497e+08 1.34108e+10
13.5708 0 1.84248 0 0 0 0 5.88765e-08 0 1.58268e+10
14.3411 0 2.17441 0 0 0 0 5.05241e-08 0 1.8678e+10
15.1552 0 2.56613 0 0 0 0 4.33417e-08 0 2.20429e+10
16.0156 0 3.02843 0 0 0 0 3.71677e-08 0 2.6014e+10
16.9247 0 3.574 0 0 0 0 3.18628e-08 0 3.07005e+10
17.8855 0 4.21787 0 0 0 0 2.73063e-08 0 3.62312e+10
18.9008 0 4.97773 0 0 0 0 2.33941e-08 0 4.27584e+10
19.9738 0 5.87448 0 0 0 0 2.00364e-08 0 5.04614e+10
21.1076 0 6.93279 0 0 0 0 1.71555e-08 0 5.95522e+10
22.3058 0 8.18175 0 0 0 0 1.46847e-08 0 7.02807e+10
23.5721 0 9.65571 0 0 0 0 1.25662e-08 0 8.29419e+10
24.9102 0 11.3952 0 0 0 0 1.07504e-08 0 9.78842e+10
26.3243 0 13.4481 0 0 0 0 9.19452e-09 0 1.15518e+11
27.8187 0 15.8708 0 0 0 0 7.86182e-09 0 1.36329e+11
29.3979 0 18.73 0 0 0 0 6.72061e-09 0 1.60889e+11
31.0667 0 22.1042 0 0 0 0 5.74366e-09 0 1.89874e+11
32.8303 0 26.0864 0 0 0 0 4.90756e-09 0 2.2408e+11
34.694 0 30.7859 0 0 0 0 4.19221e-09 0 2.64449e+11
36.6634 0 36.3321 0 0 0 0 3.58032e-09 0 3.1209e+11
38.7447 0 42.8774 0 0 0 0 3.05709e-09 0 3.68314e+11
40.9442 0 50.6018 0 0 0 0 2.60976e-09 0 4.34667e+11
43.2685 0 59.7179 0 0 0 0 2.22743e-09 0 5.12973e+11
45.7247 0 70.4762 0 0 0 0 1.90073e-09 0 6.05386e+11
48.3204 0 83.1727 0 0 0 0 1.62163e-09 0 7.14448e+11
51.0634 0 98.1565 0 0 0 0 1.38326e-09 0 8.43158e+11
53.9621 0 115.84 0 0 0 0 1.1797e-09 0 9.95055e+11
57.0254 0 136.709 0 0 0 0 1.00592e-09 0 1.17432e+12
60.2626 0 161.337 0 0 0 0 8.57591e-10 0 1.38587e+12
63.6835 0 190.402 0 0 0 0 7.3101e-10 0 1.63554e+12
67.2987 0 224.704 0 0 0 0 6.23009e-10 0 1.93019e+12
71.1191 0 265.185 0 0 0 0 5.30879e-10 0 2.27792e+12
75.1563 0 312.958 0 0 0 0 4.52303e-10 0 2.68829e+12
79.4227 0 369.339 0 0 0 0 3.85299e-10 0 3.17259e+12
83.9313 0 435.876 0 0 0 0 3.28173e-10 0 3.74415e+12
88.6959 0 514.4 0 0 0 0 2.79476e-10 0 4.41866e+12
93.7309 0 607.071 0 0 0 0 2.37972e-10 0 5.2147e+12
99.0518 0 716.436 0 0 0 0 2.02605e-10 0 6.15414e+12
104.675 0 845.504 0 0 0 0 1.72471e-10 0 7.26283e+12
110.617 0 997.824 0 0 0 0 1.468e-10 0 8.57124e+12
116.896 0 1177.58 0 0 0 0 1.24935e-10 0 1.01154e+13
123.532 0 1389.73 0 0 0 0 1.06313e-10 0 1.19377e+13
130.545 0 1640.09 0 0 0 0 9.04567e-11 0 1.40883e+13
137.955 0 1935.56 0 0 0 0 7.69563e-11 0 1.66263e+13
145.787 0 2284.26 0 0 0 0 6.54636e-11 0 1.96216e+13
154.063 0 2695.77 0 0 0 0 5.56812e-11 0 2.31565e+13
162.808 0 3181.42 0 0 0 0 4.73556e-11 0 2.73282e+13
172.051 0 3754.56 0 0 0 0 4.02708e-11 0 3.22515e+13
181.818 0 4430.96 0 0 0 0 3.42426e-11 0 3.80616e+13
192.139 0 5229.21 0 0 0 0 2.91139e-11 0 4.49186e+13
203.046 0 6171.26 0 0 0 0 2.4751e-11 0 5.30108e+13
214.572 0 7283.03 0 0 0 0 2.10401e-11 0 6.25608e+13
226.753 0 8595.09 0 0 0 0 1.78839e-11 0 7.38313e+13
239.625 0 10143.5 0 0 0 0 1.51999e-11 0 8.71322e+13
253.228 0 11970.9 0 0 0 0 1.29176e-11 0 1.02829e+14
267.603 0 14127.5 0 0 0 0 1.09771e-11 0 1.21354e+14
282.795 0 16672.6 0 0 0 0 9.3274e-12 0 1.43217e+14
298.848 0 19676.2 0 0 0 0 7.925e-12 0 1.69017e+14
315.813 0 23220.9 0 0 0 0 6.73295e-12 0 1.99466e+14
333.741 0 27404.3 0 0 0 0 5.71979e-12 0 2.35401e+14
352.686 0 32341.2 0 0 0 0 4.85874e-12 0 2.77809e+14
372.707 0 38167.6 0 0 0 0 4.12703e-12 0 3.27857e+14
393.865 0 45043.5 0 0 0 0 3.50528e-12 0 3.86921e+14
416.224 0 53158.3 0 0 0 0 2.97701e-12 0 4.56626e+14
439.852 0 62734.9 0 0 0 0 2.52819e-12 0 5.38888e+14
464.821 0 74036.7 0 0 0 0 2.1469e-12 0 6.35971e+14
491.207 0 87374.6 0 0 0 0 1.82301e-12 0 7.50542e+14
519.092 0 103115 0 0 0 0 1.54789e-12 0 8.85755e+14
548.56 0 121692 0 0 0 0 1.31422e-12 0 1.04533e+15
579.7 0 143615 0 0 0 0 1.11576e-12 0 1.23364e+15
612.608 0 169488 0 0 0 0 9.47223e-13 0 1.45589e+15
647.384 0 200021 0 0 0 0 8.041e-13 0 1.71817e+15
684.134 0 236056 0 0 0 0 6.82568e-13 0 2.0277e+15
722.971 0 278582 0 0 0 0 5.79376e-13 0 2.393e+15
764.012 0 328769 0 0 0 0 4.91762e-13 0 2.8241e+15
