0.277029
200
1.23897e+09
8589934592
0.0129181 0 1.58924e-09 0 0 0 0 0.00677225 0 13.6515
0.0136515 0 1.87554e-09 0 0 0 0 0.00688819 0 16.1108
0.0144264 0 2.21343e-09 0 0 0 0 0.00699249 0 19.0132
0.0152454 0 2.61218e-09 0 0 0 0 0.00708412 0 22.4385
0.0161108 0 3.08278e-09 0 0 0 0 0.00716212 0 26.4808
0.0170254 0 3.63815e-09 0 0 0 0 0.00722559 0 31.2514
0.0179919 0 4.29357e-09 0 0 0 0 0.00727371 0 36.8815
0.0190132 0 5.06707e-09 0 0 0 0 0.00730578 0 43.5258
0.0200925 0 5.97991e-09 0 0 0 0 0.00732122 0 51.367
0.0212331 0 7.05721e-09 0 0 0 0 0.00731958 0 60.621
0.0224385 0 8.32858e-09 0 0 0 0 0.00730056 0 71.542
0.0237123 0 9.829e-09 0 0 0 0 0.00726401 0 84.4305
0.0250583 0 1.15997e-08 0 0 0 0 0.00720995 0 99.6408
0.0264808 0 1.36894e-08 0 0 0 0 0.00713857 0 117.591
0.0279841 0 1.61556e-08 0 0 0 0 0.00705021 0 138.776
0.0295727 0 1.90661e-08 0 0 0 0 0.00694538 0 163.777
0.0312514 0 2.25009e-08 0 0 0 0 0.00682475 0 193.281
0.0330255 0 2.65545e-08 0 0 0 0 0.00668915 0 228.102
0.0349003 0 3.13384e-08 0 0 0 0 0.00653951 0 269.195
0.0368815 0 3.69841e-08 0 0 0 0 0.00637693 0 317.691
0.0389751 0 4.36469e-08 0 0 0 0 0.00620256 0 374.924
0.0411876 0 5.151e-08 0 0 0 0 0.00601767 0 442.467
0.0435258 0 6.07896e-08 0 0 0 0 0.00582358 0 522.179
0.0459966 0 7.1741e-08 0 0 0 0 0.00562166 0 616.251
0.0486077 0 8.46654e-08 0 0 0 0 0.0054133 0 727.27
0.051367 0 9.99181e-08 0 0 0 0 0.00519989 0 858.29
0.054283 0 1.17919e-07 0 0 0 0 0.0049828 0 1012.91
0.0573645 0 1.39162e-07 0 0 0 0 0.00476339 0 1195.39
0.060621 0 1.64232e-07 0 0 0 0 0.00454293 0 1410.75
0.0640622 0 1.93819e-07 0 0 0 0 0.00432265 0 1664.89
0.0676989 0 2.28736e-07 0 0 0 0 0.00410371 0 1964.83
0.071542 0 2.69944e-07 0 0 0 0 0.00388717 0 2318.8
0.0756032 0 3.18575e-07 0 0 0 0 0.00367401 0 2736.54
0.079895 0 3.75967e-07 0 0 0 0 0.0034651 0 3229.53
0.0844305 0 4.43698e-07 0 0 0 0 0.00326121 0 3811.34
0.0892234 0 5.23632e-07 0 0 0 0 0.00306301 0 4497.96
0.0942883 0 6.17966e-07 0 0 0 0 0.00287109 0 5308.28
0.0996408 0 7.29294e-07 0 0 0 0 0.00268591 0 6264.59
0.105297 0 8.60678e-07 0 0 0 0 0.00250785 0 7393.17
0.111275 0 1.01573e-06 0 0 0 0 0.00233721 0 8725.07
0.117591 0 1.19872e-06 0 0 0 0 0.00217419 0 10296.9
0.124267 0 1.41467e-06 0 0 0 0 0.00201893 0 12151.9
0.131321 0 1.66953e-06 0 0 0 0 0.00187147 0 14341.1
0.138776 0 1.9703e-06 0 0 0 0 0.00173182 0 16924.7
0.146654 0 2.32525e-06 0 0 0 0 0.00159991 0 19973.8
0.154979 0 2.74415e-06 0 0 0 0 0.00147563 0 23572.1
0.163777 0 3.23852e-06 0 0 0 0 0.00135884 0 27818.7
0.173074 0 3.82195e-06 0 0 0 0 0.00124933 0 32830.3
0.182899 0 4.51048e-06 0 0 0 0 0.00114689 0 38744.7
0.193281 0 5.32305e-06 0 0 0 0 0.00105127 0 45724.7
0.204254 0 6.28202e-06 0 0 0 0 0.000962209 0 53962.1
0.215848 0 7.41374e-06 0 0 0 0 0.000879423 0 63683.5
0.228102 0 8.74934e-06 0 0 0 0 0.000802624 0 75156.3
0.24105 0 1.03256e-05 0 0 0 0 0.000731515 0 88695.9
0.254734 0 1.21857e-05 0 0 0 0 0.000665798 0 104675
0.269195 0 1.4381e-05 0 0 0 0 0.000605173 0 123532
0.284476 0 1.69718e-05 0 0 0 0 0.000549345 0 145787
0.300625 0 2.00293e-05 0 0 0 0 0.000498021 0 172051
0.317691 0 2.36377e-05 0 0 0 0 0.000450916 0 203046
0.335725 0 2.78961e-05 0 0 0 0 0.000407755 0 239625
0.354784 0 3.29216e-05 0 0 0 0 0.000368269 0 282795
0.374924 0 3.88525e-05 0 0 0 0 0.000332202 0 333741
0.396207 0.893957 4.58519e-05 2.2697e-06 6 0.869103 2.2066e-06 0.000299307 0.0454992 393865
0.418699 0 5.41123e-05 0 0 0 0 0.00026935 0 464821
0.442467 0 6.38607e-05 0 0 0 0 0.000242108 0 548560
0.467585 0 7.53654e-05 0 0 0 0 0.00021737 0 647384
0.494129 0 8.89427e-05 0 0 0 0 0.000194938 0 764012
0.522179 0 0.000104966 0 0 0 0 0.000174625 0 901651
0.551822 0 0.000123876 0 0 0 0 0.000156255 0 1.06409e+06
0.583147 7.22452 0.000146192 5.753e-06 12 7.60385 6.05506e-06 0.000139664 0.4943 1.25578e+06
0.616251 0 0.000172529 0 0 0 0 0.0001247 0 1.48202e+06
0.651234 0 0.000203611 0 0 0 0 0.00011122 0 1.74901e+06
0.688203 22.6012 0.000240292 1.09497e-05 8 22.0389 1.06773e-05 9.90935e-05 0.883991 2.06409e+06
0.72727 0 0.000283581 0 0 0 0 8.81969e-05 0 2.43595e+06
0.768555 0 0.000334669 0 0 0 0 7.84179e-05 0 2.87479e+06
0.812184 0.70274 0.000394961 2.07134e-07 6 0.717765 2.11562e-07 6.96525e-05 0.0178429 3.39269e+06
0.85829 0 0.000466114 0 0 0 0 6.1805e-05 0 4.00389e+06
0.907013 0.511002 0.000550086 1.08144e-07 24 0.520807 1.10219e-07 5.47875e-05 0.0473731 4.7252e+06
0.958501 2.30247 0.000649185 4.12891e-07 24 2.16761 3.88706e-07 4.85194e-05 0.204235 5.57646e+06
1.01291 0 0.000766138 0 0 0 0 4.29272e-05 0 6.58107e+06
1.07041 0 0.00090416 0 0 0 0 3.79435e-05 0 7.76667e+06
1.13118 1.83411 0.00106705 2.00102e-07 12 1.81158 1.97644e-07 3.3507e-05 0.0716634 9.16586e+06
1.19539 1.0824 0.00125928 1.00064e-07 30 1.06009 9.80007e-08 2.9562e-05 0.101546 1.08171e+07
1.26325 9.38988 0.00148614 7.35547e-07 24 9.24859 7.24479e-07 2.60578e-05 0.67746 1.27658e+07
1.33496 19.9685 0.00175387 1.32543e-06 24 20.0124 1.32835e-06 2.29484e-05 1.38617 1.50656e+07
1.41075 10.16 0.00206984 5.71436e-07 32 10.422 5.86172e-07 2.01923e-05 0.90559 1.77798e+07
1.49083 1.45436 0.00244272 6.93118e-08 48 1.42335 6.78341e-08 1.77518e-05 0.187416 2.09828e+07
1.57546 0.526969 0.00288279 2.12805e-08 6 0.501793 2.02639e-08 1.55929e-05 0.00818857 2.4763e+07
1.66489 1.2745 0.00340213 4.36112e-08 84 1.25048 4.27896e-08 1.3685e-05 0.26769 2.92241e+07
1.75941 3.20521 0.00401503 9.29347e-08 48 3.21869 9.33255e-08 1.20007e-05 0.371718 3.44889e+07
1.85928 1.08333 0.00473835 2.66161e-08 72 1.09529 2.69099e-08 1.05151e-05 0.182248 4.07021e+07
1.96483 1.83324 0.00559198 3.81649e-08 54 1.7899 3.72626e-08 9.20606e-06 0.223864 4.80347e+07
2.07637 10.7721 0.00659939 1.90023e-07 104 10.793 1.90392e-07 8.05366e-06 2.45385 5.66883e+07
2.19424 1.48804 0.00778828 2.22424e-08 120 1.50293 2.2465e-08 7.04008e-06 0.379128 6.69008e+07
2.3188 3.4689 0.00919136 4.39361e-08 156 3.33087 4.21879e-08 6.1494e-06 1.11459 7.89532e+07
2.45043 2.32604 0.0108472 2.49637e-08 126 2.30792 2.47693e-08 5.36741e-06 0.586022 9.31768e+07
2.58954 2.11166 0.0128014 1.92034e-08 192 2.12262 1.9303e-08 4.68145e-06 0.787588 1.09963e+08
2.73654 7.575 0.0151076 5.83712e-08 152 7.85442 6.05243e-08 4.08023e-06 2.17449 1.29773e+08
2.89188 5.93261 0.0178292 3.87368e-08 378 6.03666 3.94162e-08 3.55373e-06 4.12031 1.53152e+08
3.05605 3.13919 0.0210412 1.73683e-08 264 3.09661 1.71327e-08 3.09304e-06 1.48243 1.80743e+08
3.22953 1.92781 0.0248319 9.03784e-09 366 1.9164 8.98435e-09 2.69025e-06 1.22957 2.13304e+08
3.41286 3.1481 0.0293054 1.25058e-08 428 3.0812 1.224e-08 2.33837e-06 2.28897 2.51731e+08
3.6066 5.81723 0.0345848 1.95813e-08 486 5.68548 1.91378e-08 2.0312e-06 4.68515 2.97081e+08
3.81134 3.41484 0.0408154 9.73995e-09 600 3.42516 9.76937e-09 1.76327e-06 3.31429 3.50601e+08
4.0277 3.18333 0.0481684 7.69361e-09 738 3.14098 7.59126e-09 1.52972e-06 3.71171 4.13763e+08
4.25634 4.62683 0.056846 9.47532e-09 824 4.65447 9.53192e-09 1.32631e-06 5.88678 4.88304e+08
4.49796 6.09625 0.067087 1.05788e-08 954 6.08909 1.05663e-08 1.14926e-06 8.78145 5.76273e+08
4.7533 4.15265 0.0791729 6.10603e-09 1094 4.11666 6.05311e-09 9.95263e-07 6.71179 6.8009e+08
5.02313 4.48587 0.0934361 5.5891e-09 1332 4.49634 5.60214e-09 8.61414e-07 8.64239 8.0261e+08
5.30828 7.20341 0.110269 7.60494e-09 1614 7.23552 7.63883e-09 7.45152e-07 16.4723 9.47202e+08
5.60962 6.27329 0.130134 5.61196e-09 1850 6.21467 5.55952e-09 6.44232e-07 16.1155 1.11784e+09
5.92807 6.52168 0.153578 4.94357e-09 2238 6.48529 4.91598e-09 5.56685e-07 19.8742 1.31923e+09
6.26459 6.75876 0.181246 4.3412e-09 2546 6.80275 4.36945e-09 4.80786e-07 22.9888 1.55689e+09
6.62021 6.52657 0.213898 3.55214e-09 3264 6.53031 3.55417e-09 4.15026e-07 27.936 1.83737e+09
6.99602 8.35002 0.252432 3.85083e-09 3506 8.39769 3.87281e-09 3.58083e-07 37.7036 2.16837e+09
7.39317 8.43849 0.297908 3.29756e-09 4506 8.44377 3.29962e-09 3.08803e-07 48.1174 2.55901e+09
7.81286 9.28552 0.351577 3.07465e-09 5018 9.29059 3.07633e-09 2.66181e-07 57.9628 3.02002e+09
8.25637 9.69381 0.414914 2.71986e-09 5852 9.65701 2.70953e-09 2.29336e-07 69.403 3.56409e+09
8.72507 10.152 0.489662 2.41359e-09 7362 10.1343 2.40939e-09 1.97503e-07 89.9676 4.20617e+09
9.22037 11.4015 0.577876 2.29686e-09 8306 11.365 2.28952e-09 1.70014e-07 112.213 4.96392e+09
9.74378 11.573 0.681982 1.97553e-09 9698 11.5716 1.97528e-09 1.46289e-07 130.965 5.85818e+09
10.2969 12.9009 0.804843 1.86603e-09 11816 12.8916 1.86468e-09 1.25822e-07 175.239 6.91355e+09
10.8814 13.9078 0.949838 1.70458e-09 13682 13.8851 1.70181e-09 1.08175e-07 215.595 8.15905e+09
11.4992 14.5379 1.12095 1.50981e-09 16152 14.5194 1.50789e-09 9.29669e-08 262.314 9.62892e+09
12.1519 15.8817 1.3229 1.39759e-09 19472 15.8381 1.39376e-09 7.98658e-08 340.746 1.13636e+10
12.8418 16.1524 1.56122 1.20443e-09 22670 16.1196 1.20199e-09 6.85852e-08 398.111 1.34108e+10
13.5708 17.8387 1.84248 1.12712e-09 26224 17.8259 1.12632e-09 5.88765e-08 502.027 1.58268e+10
14.3411 18.7146 2.17441 1.00196e-09 31640 18.7114 1.00179e-09 5.05241e-08 627.463 1.8678e+10
15.1552 20.2064 2.56613 9.16687e-10 37484 20.1843 9.15685e-10 4.33417e-08 792.795 2.20429e+10
16.0156 21.2751 3.02843 8.17833e-10 43856 21.2321 8.1618e-10 3.71677e-08 965.001 2.6014e+10
16.9247 23.0617 3.574 7.51184e-10 51362 23.0305 7.50168e-10 3.18628e-08 1210.89 3.07005e+10
17.8855 24.0309 4.21787 6.63264e-10 61636 23.9884 6.62092e-10 2.73063e-08 1497.12 3.62312e+10
18.9008 25.3199 4.97773 5.92162e-10 72218 25.2662 5.90906e-10 2.33941e-08 1828.01 4.27584e+10
19.9738 27.4483 5.87448 5.43945e-10 84586 27.381 5.42613e-10 2.00364e-08 2296.33 5.04614e+10
21.1076 28.8993 6.93279 4.85277e-10 100708 28.856 4.8455e-10 1.71555e-08 2848.72 5.95522e+10
22.3058 30.883 8.18175 4.39423e-10 118712 30.8162 4.38474e-10 1.46847e-08 3552.33 7.02807e+10
23.5721 32.8672 9.65571 3.96267e-10 140410 32.7909 3.95347e-10 1.25662e-08 4427.76 8.29419e+10
24.9102 34.7965 11.3952 3.55487e-10 164374 34.7219 3.54724e-10 1.07504e-08 5435.43 9.78842e+10
26.3243 36.7981 13.4481 3.18548e-10 194680 36.7223 3.17891e-10 9.19452e-09 6744.78 1.15518e+11
27.8187 39.312 15.8708 2.88361e-10 230196 39.2415 2.87844e-10 7.86182e-09 8443.27 1.36329e+11
29.3979 41.7992 18.73 2.59801e-10 271156 41.7269 2.59352e-10 6.72061e-09 10482.2 1.60889e+11
31.0667 44.7664 22.1042 2.35769e-10 321076 44.672 2.35272e-10 5.74366e-09 13179.7 1.89874e+11
32.8303 47.6176 26.0864 2.12503e-10 377436 47.5241 2.12085e-10 4.90756e-09 16343.4 2.2408e+11
34.694 51.1483 30.7859 1.93415e-10 447594 51.0457 1.93027e-10 4.19221e-09 20650.5 2.64449e+11
36.6634 55.0105 36.3321 1.76265e-10 525078 54.8866 1.75868e-10 3.58032e-09 25850.4 3.1209e+11
38.7447 59.4901 42.8774 1.6152e-10 621924 59.3698 1.61193e-10 3.05709e-09 32859.1 3.68314e+11
40.9442 64.15 50.6018 1.47584e-10 732630 64.0156 1.47275e-10 2.60976e-09 41430.9 4.34667e+11
43.2685 69.6929 59.7179 1.35861e-10 865596 69.5435 1.3557e-10 2.22743e-09 52796.5 5.12973e+11
45.7247 75.8026 70.4762 1.25214e-10 1.02168e+06 75.6351 1.24937e-10 1.90073e-09 67304.4 6.05386e+11
48.3204 82.5211 83.1727 1.15503e-10 1.20544e+06 82.3288 1.15234e-10 1.62163e-09 85859.1 7.14448e+11
51.0634 99.6244 98.1565 1.18156e-10 1.42103e+06 99.2121 1.17667e-10 1.38326e-09 121383 8.43158e+11
53.9621 99.9746 115.84 1.00471e-10 1.67997e+06 99.7492 1.00245e-10 1.1797e-09 143077 9.95055e+11
57.0254 110.983 136.709 9.45083e-11 1.98018e+06 110.703 9.42704e-11 1.00592e-09 186042 1.17432e+12
60.2626 123.398 161.337 8.904e-11 2.33957e+06 123.078 8.88087e-11 8.57591e-10 242907 1.38587e+12
63.6835 138.314 190.402 8.45677e-11 2.75676e+06 137.946 8.43428e-11 7.3101e-10 318919 1.63554e+12
67.2987 155.527 224.704 8.05758e-11 3.25638e+06 155.122 8.03663e-11 6.23009e-10 421158 1.93019e+12
71.1191 175.813 265.185 7.71814e-11 3.84387e+06 175.336 7.69719e-11 5.30879e-10 558838 2.27792e+12
75.1563 200.766 312.958 7.46816e-11 4.53277e+06 200.152 7.44531e-11 4.52303e-10 748423 2.68829e+12
79.4227 228.297 369.339 7.1959e-11 5.35083e+06 227.653 7.17562e-11 3.85299e-10 999327 3.17259e+12
83.9313 261.79 435.876 6.99197e-11 6.32174e+06 261.016 6.97132e-11 3.28173e-10 1.34689e+06 3.74415e+12
88.6959 301.307 514.4 6.81896e-11 7.44986e+06 300.401 6.79845e-11 2.79476e-10 1.8177e+06 4.41866e+12
93.7309 348.15 607.071 6.67633e-11 8.79764e+06 347.106 6.6563e-11 2.37972e-10 2.46818e+06 5.2147e+12
99.0518 403.836 716.436 6.56202e-11 1.03827e+07 402.601 6.54195e-11 2.02605e-10 3.36277e+06 6.15414e+12
104.675 469.458 845.504 6.46385e-11 1.22515e+07 468.003 6.44382e-11 1.72471e-10 4.59161e+06 7.26283e+12
110.617 546.833 997.824 6.37986e-11 1.44573e+07 545.111 6.35976e-11 1.468e-10 6.28308e+06 8.57124e+12
116.896 639.053 1177.58 6.31764e-11 1.70664e+07 637.033 6.29767e-11 1.24935e-10 8.63005e+06 1.01154e+13
123.532 747.187 1389.73 6.25906e-11 2.0139e+07 744.78 6.2389e-11 1.06313e-10 1.18566e+07 1.19377e+13
130.545 877.723 1640.09 6.23016e-11 2.37643e+07 874.937 6.21038e-11 9.04567e-11 1.63675e+07 1.40883e+13
137.955 1027.79 1935.56 6.18172e-11 2.80503e+07 1024.46 6.16169e-11 7.69563e-11 2.25321e+07 1.66263e+13
145.787 1207.95 2284.26 6.15622e-11 3.30981e+07 1203.99 6.13604e-11 6.54636e-11 3.11256e+07 1.96216e+13
154.063 1421.94 2695.77 6.14057e-11 3.90634e+07 1417.29 6.12047e-11 5.56812e-11 4.30795e+07 2.31565e+13
162.808 1671.59 3181.42 6.11674e-11 4.61057e+07 1666.07 6.09652e-11 4.73556e-11 5.95529e+07 2.73282e+13
172.051 1969.34 3754.56 6.1062e-11 5.44046e+07 1962.81 6.08596e-11 4.02708e-11 8.24928e+07 3.22515e+13
181.818 2322.81 4430.96 6.10276e-11 6.42064e+07 2315.08 6.08245e-11 3.42426e-11 1.14429e+08 3.80616e+13
192.139 2741.17 5229.21 6.10254e-11 7.57748e+07 2732.03 6.08218e-11 2.91139e-11 1.58831e+08 4.49186e+13
203.046 3238.2 6171.26 6.10857e-11 8.94213e+07 3227.35 6.0881e-11 2.4751e-11 2.20692e+08 5.30108e+13
214.572 3830.19 7283.03 6.12235e-11 1.05538e+08 3817.27 6.10169e-11 2.10401e-11 3.07101e+08 6.25608e+13
226.753 4532.45 8595.09 6.13893e-11 1.24552e+08 4517.07 6.1181e-11 1.78839e-11 4.27543e+08 7.38313e+13
239.625 5370.64 10143.5 6.16379e-11 1.46987e+08 5352.32 6.14276e-11 1.51999e-11 5.96055e+08 8.71322e+13
253.228 6377.98 11970.9 6.20249e-11 1.7347e+08 6356 6.18112e-11 1.29176e-11 8.32929e+08 1.02829e+14
267.603 7591.65 14127.5 6.25578e-11 2.04703e+08 7565.22 6.234e-11 1.09771e-11 1.16658e+09 1.21354e+14
282.795 9063.24 16672.6 6.32835e-11 2.4161e+08 9031.36 6.30609e-11 9.3274e-12 1.63925e+09 1.43217e+14
298.848 10862.2 19676.2 6.42666e-11 2.85122e+08 10823.1 6.40355e-11 7.925e-12 2.31216e+09 1.69017e+14
315.813 13095.7 23220.9 6.56536e-11 3.36491e+08 13047.5 6.54122e-11 6.73295e-12 3.28116e+09 1.99466e+14
333.741 15904.9 27404.3 6.75652e-11 3.97115e+08 15844.4 6.7308e-11 5.71979e-12 4.69093e+09 2.35401e+14
352.686 19529.8 32341.2 7.02995e-11 4.68637e+08 19452.2 7.00201e-11 4.85874e-12 6.78056e+09 2.77809e+14
372.707 24345.2 38167.6 7.42555e-11 5.53074e+08 24242.6 7.39428e-11 4.12703e-12 9.95118e+09 3.27857e+14
393.865 30986.9 45043.5 8.00859e-11 6.52716e+08 30846 7.97217e-11 3.50528e-12 1.49127e+10 3.86921e+14
416.224 36579.4 53158.3 8.01081e-11 2.2184e+08 38697.6 8.47469e-11 2.97701e-12 5.96947e+09 4.56626e+14
439.852 0 62734.9 0 0 0 0 2.52819e-12 0 5.38888e+14
464.821 0 74036.7 0 0 0 0 2.1469e-12 0 6.35971e+14
491.207 0 87374.6 0 0 0 0 1.82301e-12 0 7.50542e+14
519.092 0 103115 0 0 0 0 1.54789e-12 0 8.85755e+14
548.56 0 121692 0 0 0 0 1.31422e-12 0 1.04533e+15
579.7 0 143615 0 0 0 0 1.11576e-12 0 1.23364e+15
612.608 0 169488 0 0 0 0 9.47223e-13 0 1.45589e+15
647.384 0 200021 0 0 0 0 8.041e-13 0 1.71817e+15
684.134 0 236056 0 0 0 0 6.82568e-13 0 2.0277e+15
722.971 0 278582 0 0 0 0 5.79376e-13 0 2.393e+15
764.012 0 328769 0 0 0 0 4.91762e-13 0 2.8241e+15
0.277029
200
1.23897e+09
8589934592
0.0129181 0.000192544 1.58924e-09 1.41043e-05 6 0.000190782 1.39752e-05 0.00677225 0.012496 13.6515
0.0136515 0 1.87554e-09 0 0 0 0 0.00688819 0 16.1108
0.0144264 0 2.21343e-09 0 0 0 0 0.00699249 0 19.0132
0.0152454 0 2.61218e-09 0 0 0 0 0.00708412 0 22.4385
0.0161108 0 3.08278e-09 0 0 0 0 0.00716212 0 26.4808
0.0170254 0 3.63815e-09 0 0 0 0 0.00722559 0 31.2514
0.0179919 0.000438161 4.29357e-09 1.18803e-05 12 0.000437597 1.1865e-05 0.00727371 0.0195998 36.8815
0.0190132 0 5.06707e-09 0 0 0 0 0.00730578 0 43.5258
0.0200925 0 5.97991e-09 0 0 0 0 0.00732122 0 51.367
0.0212331 0.000422205 7.05721e-09 6.96467e-06 8 0.000421838 6.95861e-06 0.00731958 0.00761211 60.621
0.0224385 0 8.32858e-09 0 0 0 0 0.00730056 0 71.542
0.0237123 0 9.829e-09 0 0 0 0 0.00726401 0 84.4305
0.0250583 0.002751 1.15997e-08 2.76092e-05 6 0.00274971 2.75962e-05 0.00720995 0.0229759 99.6408
0.0264808 0 1.36894e-08 0 0 0 0 0.00713857 0 117.591
0.0279841 0.00172733 1.61556e-08 1.24469e-05 24 0.00172556 1.24341e-05 0.00705021 0.0423713 138.776
0.0295727 0 1.90661e-08 0 0 0 0 0.00694538 0 163.777
0.0312514 0.00311529 2.25009e-08 1.61179e-05 24 0.00313111 1.61997e-05 0.00682475 0.0566803 193.281
0.0330255 0 2.65545e-08 0 0 0 0 0.00668915 0 228.102
0.0349003 0.00448747 3.13384e-08 1.667e-05 12 0.00445154 1.65365e-05 0.00653951 0.0305894 269.195
0.0368815 0.003833 3.69841e-08 1.20652e-05 30 0.00379218 1.19367e-05 0.00637693 0.0567602 317.691
0.0389751 0.00453499 4.36469e-08 1.20958e-05 24 0.00448833 1.19713e-05 0.00620256 0.046803 374.924
0.0411876 0.0028769 5.151e-08 6.50194e-06 24 0.00285736 6.45779e-06 0.00601767 0.0259314 442.467
0.0435258 0.00637828 6.07896e-08 1.22147e-05 8 0.00637779 1.22138e-05 0.00582358 0.0167797 522.179
0.0459966 0.00806725 7.1741e-08 1.30908e-05 72 0.00800357 1.29875e-05 0.00562166 0.167662 616.251
0.0486077 0 8.46654e-08 0 0 0 0 0.0054133 0 727.27
0.051367 0.0117563 9.99181e-08 1.36974e-05 54 0.0117188 1.36537e-05 0.00519989 0.142245 858.29
0.054283 0.00917671 1.17919e-07 9.05972e-06 60 0.00921569 9.0982e-06 0.0049828 0.109092 1012.91
0.0573645 0.00896682 1.39162e-07 7.50115e-06 96 0.00894389 7.48198e-06 0.00476339 0.151176 1195.39
0.060621 0.0103917 1.64232e-07 7.3661e-06 24 0.0102509 7.2663e-06 0.00454293 0.0389147 1410.75
0.0640622 0.0183138 1.93819e-07 1.1e-05 134 0.0183236 1.10059e-05 0.00432265 0.340994 1664.89
0.0676989 0.0177526 2.28736e-07 9.03519e-06 120 0.0176703 8.99329e-06 0.00410371 0.264205 1964.83
0.071542 0.0165262 2.69944e-07 7.12705e-06 108 0.0163464 7.04949e-06 0.00388717 0.198016 2318.8
0.0756032 0.0244517 3.18575e-07 8.93526e-06 174 0.0243203 8.88727e-06 0.00367401 0.423171 2736.54
0.079895 0.0265529 3.75967e-07 8.22191e-06 168 0.0263021 8.14424e-06 0.0034651 0.398627 3229.53
0.0844305 0.0229077 4.43698e-07 6.01039e-06 168 0.0230212 6.04018e-06 0.00326121 0.309623 3811.34
0.0892234 0.0263726 5.23632e-07 5.86322e-06 290 0.0262592 5.83802e-06 0.00306301 0.555118 4497.96
0.0942883 0.0341389 6.17966e-07 6.43125e-06 288 0.0340542 6.41529e-06 0.00287109 0.645121 5308.28
0.0996408 0.0305876 7.29294e-07 4.88262e-06 366 0.0303353 4.84234e-06 0.00268591 0.665338 6264.59
0.105297 0.0330967 8.60678e-07 4.47667e-06 420 0.0328724 4.44633e-06 0.00250785 0.749725 7393.17
0.111275 0.0344246 1.01573e-06 3.94549e-06 398 0.0343297 3.9346e-06 0.00233721 0.67187 8725.07
0.117591 0.0402148 1.19872e-06 3.90552e-06 624 0.040303 3.91409e-06 0.00217419 1.1209 10296.9
0.124267 0.0447076 1.41467e-06 3.67905e-06 642 0.0446412 3.67359e-06 0.00201893 1.16991 12151.9
0.131321 0.0570758 1.66953e-06 3.97986e-06 800 0.0570872 3.98066e-06 0.00187147 1.70128 14341.1
0.138776 0.0527539 1.9703e-06 3.11697e-06 858 0.0529953 3.13124e-06 0.00173182 1.54425 16924.7
0.146654 0.0597068 2.32525e-06 2.98926e-06 1080 0.0601963 3.01377e-06 0.00159991 2.01787 19973.8
0.154979 0.0724021 2.74415e-06 3.07152e-06 1286 0.0728926 3.09233e-06 0.00147563 2.6768 23572.1
0.163777 0.0678067 3.23852e-06 2.43745e-06 1650 0.0679517 2.44266e-06 0.00135884 2.95973 27818.7
0.173074 0.0770519 3.82195e-06 2.34698e-06 1778 0.0770828 2.34792e-06 0.00124933 3.34013 32830.3
0.182899 0.0732962 4.51048e-06 1.89177e-06 2112 0.073489 1.89675e-06 0.00114689 3.4837 38744.7
0.193281 0.085482 5.32305e-06 1.86949e-06 2570 0.0855867 1.87178e-06 0.00105127 4.57027 45724.7
0.204254 0.0999555 6.28202e-06 1.85233e-06 3030 0.0998729 1.8508e-06 0.000962209 5.83298 53962.1
0.215848 0.103061 7.41374e-06 1.61833e-06 3434 0.103014 1.61759e-06 0.000879423 6.31931 63683.5
0.228102 0.107827 8.74934e-06 1.4347e-06 4218 0.107871 1.4353e-06 0.000802624 7.53974 75156.3
0.24105 0.117988 1.03256e-05 1.33026e-06 4766 0.118128 1.33183e-06 0.000731515 8.66695 88695.9
0.254734 0.125431 1.21857e-05 1.19829e-06 6026 0.125398 1.19798e-06 0.000665798 10.8455 104675
0.269195 0.135243 1.4381e-05 1.0948e-06 6480 0.135124 1.09384e-06 0.000605173 11.7227 123532
0.284476 0.15117 1.69718e-05 1.03692e-06 8162 0.151497 1.03917e-06 0.000549345 15.4063 145787
0.300625 0.152565 2.00293e-05 8.86743e-07 9578 0.152769 8.87932e-07 0.000498021 17.054 172051
0.317691 0.167843 2.36377e-05 8.26624e-07 11234 0.167697 8.25909e-07 0.000450916 20.5943 203046
0.335725 0.177785 2.78961e-05 7.41927e-07 13344 0.177624 7.41255e-07 0.000407755 24.28 239625
0.354784 0.189491 3.29216e-05 6.70065e-07 15464 0.189357 6.69592e-07 0.000368269 28.1367 282795
0.374924 0.202403 3.88525e-05 6.06469e-07 18458 0.202409 6.06486e-07 0.000332202 33.697 333741
0.396207 0.215175 4.58519e-05 5.46317e-07 22232 0.214871 5.45545e-07 0.000299307 40.5795 393865
0.418699 0.23458 5.41123e-05 5.04668e-07 25628 0.234017 5.03456e-07 0.00026935 48.018 464821
0.442467 0.250549 6.38607e-05 4.5674e-07 30320 0.250041 4.55814e-07 0.000242108 57.1991 548560
0.467585 0.262532 7.53654e-05 4.05527e-07 35452 0.26216 4.04953e-07 0.00021737 66.1394 647384
0.494129 0.281264 8.89427e-05 3.6814e-07 41792 0.281138 3.67976e-07 0.000194938 78.9241 764012
0.522179 0.303927 0.000104966 3.37078e-07 49988 0.303827 3.36967e-07 0.000174625 96.4919 901651
0.551822 0.322404 0.000123876 3.02987e-07 59110 0.322146 3.02745e-07 0.000156255 114.618 1.06409e+06
0.583147 0.347445 0.000146192 2.76676e-07 69716 0.346919 2.76257e-07 0.000139664 138.108 1.25578e+06
0.616251 0.371367 0.000172529 2.50582e-07 82210 0.370704 2.50135e-07 0.0001247 165.199 1.48202e+06
0.651234 0.398703 0.000203611 2.2796e-07 96722 0.39791 2.27507e-07 0.00011122 198.243 1.74901e+06
0.688203 0.426894 0.000240292 2.06819e-07 113098 0.426352 2.06557e-07 9.90935e-05 236.048 2.06409e+06
0.72727 0.457828 0.000283581 1.87947e-07 135190 0.457304 1.87732e-07 8.81969e-05 288.089 2.43595e+06
0.768555 0.492186 0.000334669 1.71208e-07 158170 0.491668 1.71028e-07 7.84179e-05 345.328 2.87479e+06
0.812184 0.527036 0.000394961 1.55345e-07 188560 0.526392 1.55155e-07 6.96525e-05 420.542 3.39269e+06
0.85829 0.56662 0.000466114 1.41517e-07 220444 0.565861 1.41328e-07 6.1805e-05 504.76 4.00389e+06
0.907013 0.605517 0.000550086 1.28146e-07 261388 0.604786 1.27992e-07 5.47875e-05 611.378 4.7252e+06
0.958501 0.656999 0.000649185 1.17816e-07 308244 0.656158 1.17666e-07 4.85194e-05 748.488 5.57646e+06
1.01291 0.707218 0.000766138 1.07462e-07 364396 0.70618 1.07305e-07 4.29272e-05 912.216 6.58107e+06
1.07041 0.760457 0.00090416 9.79128e-08 429162 0.759313 9.77655e-08 3.79435e-05 1107.45 7.76667e+06
1.13118 0.822267 0.00106705 8.97097e-08 506358 0.821039 8.95758e-08 3.3507e-05 1355.69 9.16586e+06
1.19539 0.889426 0.00125928 8.2224e-08 598590 0.887973 8.20896e-08 2.9562e-05 1664.92 1.08171e+07
1.26325 0.96224 0.00148614 7.53761e-08 704844 0.960843 7.52667e-08 2.60578e-05 2038.87 1.27658e+07
1.33496 1.03933 0.00175387 6.89866e-08 834620 1.03764 6.88747e-08 2.29484e-05 2509 1.50656e+07
1.41075 1.12834 0.00206984 6.34619e-08 981444 1.12642 6.33541e-08 2.01923e-05 3084.56 1.77798e+07
1.49083 1.22454 0.00244272 5.8359e-08 1.15998e+06 1.22251 5.82623e-08 1.77518e-05 3813.43 2.09828e+07
1.57546 1.32882 0.00288279 5.36615e-08 1.36931e+06 1.32657 5.35707e-08 1.55929e-05 4712.36 2.4763e+07
1.66489 1.44573 0.00340213 4.94704e-08 1.61652e+06 1.4432 4.93839e-08 1.3685e-05 5843.59 2.92241e+07
1.75941 1.57745 0.00401503 4.5738e-08 1.90601e+06 1.57467 4.56572e-08 1.20007e-05 7264.33 3.44889e+07
1.85928 1.71717 0.00473835 4.21887e-08 2.24913e+06 1.71418 4.21153e-08 1.05151e-05 9023.96 4.07021e+07
1.96483 1.87502 0.00559198 3.90348e-08 2.65744e+06 1.87162 3.89639e-08 9.20606e-06 11267.9 4.80347e+07
2.07637 2.04852 0.00659939 3.61365e-08 3.13125e+06 2.04485 3.60718e-08 8.05366e-06 14049.8 5.66883e+07
2.19424 2.24208 0.00778828 3.35135e-08 3.69915e+06 2.23797 3.3452e-08 7.04008e-06 17609.4 6.69008e+07
2.3188 2.45192 0.00919136 3.10553e-08 4.36472e+06 2.44743 3.09985e-08 6.1494e-06 22042.5 7.89532e+07
2.45043 2.68942 0.0108472 2.88636e-08 5.14913e+06 2.68443 2.88101e-08 5.36741e-06 27689.8 9.31768e+07
2.58954 2.95045 0.0128014 2.68313e-08 6.07894e+06 2.94479 2.67799e-08 4.68145e-06 34840.8 1.09963e+08
2.73654 3.24128 0.0151076 2.49766e-08 7.17304e+06 3.23513 2.49291e-08 4.08023e-06 43908.7 1.29773e+08
2.89188 3.55806 0.0178292 2.32322e-08 8.46557e+06 3.5513 2.31881e-08 3.55373e-06 55343 1.53152e+08
3.05605 3.91644 0.0210412 2.16686e-08 9.98773e+06 3.90897 2.16272e-08 3.09304e-06 69970.1 1.80743e+08
3.22953 4.30857 0.0248319 2.01992e-08 1.1797e+07 4.30019 2.01599e-08 2.69025e-06 88575.5 2.13304e+08
3.41286 4.74011 0.0293054 1.883e-08 1.39144e+07 4.73069 1.87926e-08 2.33837e-06 112047 2.51731e+08
3.6066 5.21411 0.0345848 1.75511e-08 1.64163e+07 5.20402 1.75171e-08 2.0312e-06 141849 2.97081e+08
3.81134 5.74369 0.0408154 1.63824e-08 1.93821e+07 5.73233 1.635e-08 1.76327e-06 180078 3.50601e+08
4.0277 6.31885 0.0481684 1.52717e-08 2.28754e+07 6.30628 1.52413e-08 1.52972e-06 228372 4.13763e+08
4.25634 6.95251 0.056846 1.42381e-08 2.69929e+07 6.93847 1.42093e-08 1.32631e-06 289772 4.88304e+08
4.49796 7.6509 0.067087 1.32765e-08 3.18542e+07 7.63542 1.32497e-08 1.14926e-06 367988 5.76273e+08
4.7533 8.40507 0.0791729 1.23588e-08 3.75892e+07 8.38817 1.23339e-08 9.95263e-07 466767 6.8009e+08
5.02313 9.22075 0.0934361 1.14885e-08 4.43706e+07 9.2023 1.14655e-08 8.61414e-07 591759 8.0261e+08
5.30828 10.1118 0.110269 1.06754e-08 5.23593e+07 10.0914 1.06539e-08 7.45152e-07 750125 9.47202e+08
5.60962 11.0717 0.130134 9.90455e-09 6.1787e+07 11.0498 9.88492e-09 6.44232e-07 949925 1.11784e+09
5.92807 12.1086 0.153578 9.1786e-09 7.29346e+07 12.0846 9.16038e-09 5.56685e-07 1.20254e+06 1.31923e+09
6.26459 13.2161 0.181246 8.48882e-09 8.60651e+07 13.1898 8.4719e-09 4.80786e-07 1.51957e+06 1.55689e+09
6.62021 14.4049 0.213898 7.83997e-09 1.01558e+08 14.3764 7.82447e-09 4.15026e-07 1.91846e+06 1.83737e+09
6.99602 15.6773 0.252432 7.22998e-09 1.1986e+08 15.6467 7.21587e-09 3.58083e-07 2.42007e+06 2.16837e+09
7.39317 17.0298 0.297908 6.65485e-09 1.41457e+08 16.9964 6.6418e-09 3.08803e-07 3.04845e+06 2.55901e+09
7.81286 18.4747 0.351577 6.11742e-09 1.66936e+08 18.439 6.10558e-09 2.66181e-07 3.83655e+06 3.02002e+09
8.25637 20.0085 0.414914 5.61393e-09 1.97025e+08 19.9699 5.60309e-09 2.29336e-07 4.82299e+06 3.56409e+09
8.72507 21.6437 0.489662 5.14571e-09 2.32497e+08 21.602 5.13579e-09 1.97503e-07 6.05743e+06 4.20617e+09
9.22037 23.4103 0.577876 4.7161e-09 2.74404e+08 23.3649 4.70694e-09 1.70014e-07 7.61182e+06 4.96392e+09
9.74378 25.3526 0.681982 4.32773e-09 3.2382e+08 25.3028 4.31923e-09 1.46289e-07 9.5797e+06 5.85818e+09
10.2969 27.5377 0.804843 3.98315e-09 3.82165e+08 27.4816 3.97503e-09 1.25822e-07 1.20982e+07 6.91355e+09
10.8814 30.1246 0.949838 3.69218e-09 4.51027e+08 30.0598 3.68423e-09 1.08175e-07 1.53942e+07 8.15905e+09
11.4992 33.3721 1.12095 3.46582e-09 5.32251e+08 33.2927 3.45757e-09 9.29669e-08 1.98424e+07 9.62892e+09
12.1519 37.8199 1.3229 3.32817e-09 6.28157e+08 37.7162 3.31904e-09 7.98658e-08 2.61766e+07 1.13636e+10
12.8418 42.6507 1.56122 3.18033e-09 3.82727e+08 44.1421 3.29154e-09 6.85852e-08 1.77472e+07 1.34108e+10
13.5708 0 1.84248 0 0 0 0 5.88765e-08 0 1.58268e+10
14.3411 0 2.17441 0 0 0 0 5.05241e-08 0 1.8678e+10
15.1552 0 2.56613 0 0 0 0 4.33417e-08 0 2.20429e+10
16.0156 0 3.02843 0 0 0 0 3.71677e-08 0 2.6014e+10
16.9247 0 3.574 0 0 0 0 3.18628e-08 0 3.07005e+10
17.8855 0 4.21787 0 0 0 0 2.73063e-08 0 3.62312e+10
18.9008 0 4.97773 0 0 0 0 2.33941e-08 0 4.27584e+10
19.9738 0 5.87448 0 0 0 0 2.00364e-08 0 5.04614e+10
21.1076 0 6.93279 0 0 0 0 1.71555e-08 0 5.95522e+10
22.3058 0 8.18175 0 0 0 0 1.46847e-08 0 7.02807e+10
23.5721 0 9.65571 0 0 0 0 1.25662e-08 0 8.29419e+10
24.9102 0 11.3952 0 0 0 0 1.07504e-08 0 9.78842e+10
26.3243 0 13.4481 0 0 0 0 9.19452e-09 0 1.15518e+11
27.8187 0 15.8708 0 0 0 0 7.86182e-09 0 1.36329e+11
29.3979 0 18.73 0 0 0 0 6.72061e-09 0 1.60889e+11
31.0667 0 22.1042 0 0 0 0 5.74366e-09 0 1.89874e+11
32.8303 0 26.0864 0 0 0 0 4.90756e-09 0 2.2408e+11
34.694 0 30.7859 0 0 0 0 4.19221e-09 0 2.64449e+11
36.6634 0 36.3321 0 0 0 0 3.58032e-09 0 3.1209e+11
38.7447 0 42.8774 0 0 0 0 3.05709e-09 0 3.68314e+11
40.9442 0 50.6018 0 0 0 0 2.60976e-09 0 4.34667e+11
43.2685 0 59.7179 0 0 0 0 2.22743e-09 0 5.12973e+11
45.7247 0 70.4762 0 0 0 0 1.90073e-09 0 6.05386e+11
48.3204 0 83.1727 0 0 0 0 1.62163e-09 0 7.14448e+11
51.0634 0 98.1565 0 0 0 0 1.38326e-09 0 8.43158e+11
53.9621 0 115.84 0 0 0 0 1.1797e-09 0 9.95055e+11
57.0254 0 136.709 0 0 0 0 1.00592e-09 0 1.17432e+12
60.2626 0 161.337 0 0 0 0 8.57591e-10 0 1.38587e+12
63.6835 0 190.402 0 0 0 0 7.3101e-10 0 1.63554e+12
67.2987 0 224.704 0 0 0 0 6.23009e-10 0 1.93019e+12
71.1191 0 265.185 0 0 0 0 5.30879e-10 0 2.27792e+12
75.1563 0 312.958 0 0 0 0 4.52303e-10 0 2.68829e+12
79.4227 0 369.339 0 0 0 0 3.85299e-10 0 3.17259e+12
83.9313 0 435.876 0 0 0 0 3.28173e-10 0 3.74415e+12
88.6959 0 514.4 0 0 0 0 2.79476e-10 0 4.41866e+12
93.7309 0 607.071 0 0 0 0 2.37972e-10 0 5.2147e+12
99.0518 0 716.436 0 0 0 0 2.02605e-10 0 6.15414e+12
104.675 0 845.504 0 0 0 0 1.72471e-10 0 7.26283e+12
110.617 0 997.824 0 0 0 0 1.468e-10 0 8.57124e+12
116.896 0 1177.58 0 0 0 0 1.24935e-10 0 1.01154e+13
123.532 0 1389.73 0 0 0 0 1.06313e-10 0 1.19377e+13
130.545 0 1640.09 0 0 0 0 9.04567e-11 0 1.40883e+13
137.955 0 1935.56 0 0 0 0 7.69563e-11 0 1.66263e+13
145.787 0 2284.26 0 0 0 0 6.54636e-11 0 1.96216e+13
154.063 0 2695.77 0 0 0 0 5.56812e-11 0 2.31565e+13
162.808 0 3181.42 0 0 0 0 4.73556e-11 0 2.73282e+13
172.051 0 3754.56 0 0 0 0 4.02708e-11 0 3.22515e+13
181.818 0 4430.96 0 0 0 0 3.42426e-11 0 3.80616e+13
192.139 0 5229.21 0 0 0 0 2.91139e-11 0 4.49186e+13
203.046 0 6171.26 0 0 0 0 2.4751e-11 0 5.30108e+13
214.572 0 7283.03 0 0 0 0 2.10401e-11 0 6.25608e+13
226.753 0 8595.09 0 0 0 0 1.78839e-11 0 7.38313e+13
239.625 0 10143.5 0 0 0 0 1.51999e-11 0 8.71322e+13
253.228 0 11970.9 0 0 0 0 1.29176e-11 0 1.02829e+14
267.603 0 14127.5 0 0 0 0 1.09771e-11 0 1.21354e+14
282.795 0 16672.6 0 0 0 0 9.3274e-12 0 1.43217e+14
298.848 0 19676.2 0 0 0 0 7.925e-12 0 1.69017e+14
315.813 0 23220.9 0 0 0 0 6.73295e-12 0 1.99466e+14
333.741 0 27404.3 0 0 0 0 5.71979e-12 0 2.35401e+14
352.686 0 32341.2 0 0 0 0 4.85874e-12 0 2.77809e+14
372.707 0 38167.6 0 0 0 0 4.12703e-12 0 3.27857e+14
393.865 0 45043.5 0 0 0 0 3.50528e-12 0 3.86921e+14
416.224 0 53158.3 0 0 0 0 2.97701e-12 0 4.56626e+14
439.852 0 62734.9 0 0 0 0 2.52819e-12 0 5.38888e+14
464.821 0 74036.7 0 0 0 0 2.1469e-12 0 6.35971e+14
491.207 0 87374.6 0 0 0 0 1.82301e-12 0 7.50542e+14
519.092 0 103115 0 0 0 0 1.54789e-12 0 8.85755e+14
548.56 0 121692 0 0 0 0 1.31422e-12 0 1.04533e+15
579.7 0 143615 0 0 0 0 1.11576e-12 0 1.23364e+15
612.608 0 169488 0 0 0 0 9.47223e-13 0 1.45589e+15
647.384 0 200021 0 0 0 0 8.041e-13 0 1.71817e+15
684.134 0 236056 0 0 0 0 6.82568e-13 0 2.0277e+15
722.971 0 278582 0 0 0 0 5.79376e-13 0 2.393e+15
764.012 0 328769 0 0 0 0 4.91762e-13 0 2.8241e+15
