0.0477877
200
1.23897e+09
8589934592
0.0129181 0 1.58924e-09 0 0 0 0 0.00677225 0 13.6515
0.0136515 0 1.87554e-09 0 0 0 0 0.00688819 0 16.1108
0.0144264 0 2.21343e-09 0 0 0 0 0.00699249 0 19.0132
0.0152454 0 2.61218e-09 0 0 0 0 0.00708412 0 22.4385
0.0161108 0 3.08278e-09 0 0 0 0 0.00716212 0 26.4808
0.0170254 0 3.63815e-09 0 0 0 0 0.00722559 0 31.2514
0.0179919 0 4.29357e-09 0 0 0 0 0.00727371 0 36.8815
0.0190132 0 5.06707e-09 0 0 0 0 0.00730578 0 43.5258
0.0200925 0 5.97991e-09 0 0 0 0 0.00732122 0 51.367
0.0212331 0 7.05721e-09 0 0 0 0 0.00731958 0 60.621
0.0224385 0 8.32858e-09 0 0 0 0 0.00730056 0 71.542
0.0237123 0 9.829e-09 0 0 0 0 0.00726401 0 84.4305
0.0250583 0 1.15997e-08 0 0 0 0 0.00720995 0 99.6408
0.0264808 0 1.36894e-08 0 0 0 0 0.00713857 0 117.591
0.0279841 0 1.61556e-08 0 0 0 0 0.00705021 0 138.776
0.0295727 0 1.90661e-08 0 0 0 0 0.00694538 0 163.777
0.0312514 0 2.25009e-08 0 0 0 0 0.00682475 0 193.281
0.0330255 0 2.65545e-08 0 0 0 0 0.00668915 0 228.102
0.0349003 0 3.13384e-08 0 0 0 0 0.00653951 0 269.195
0.0368815 0 3.69841e-08 0 0 0 0 0.00637693 0 317.691
0.0389751 0 4.36469e-08 0 0 0 0 0.00620256 0 374.924
0.0411876 0 5.151e-08 0 0 0 0 0.00601767 0 442.467
0.0435258 0 6.07896e-08 0 0 0 0 0.00582358 0 522.179
0.0459966 0 7.1741e-08 0 0 0 0 0.00562166 0 616.251
0.0486077 0 8.46654e-08 0 0 0 0 0.0054133 0 727.27
0.051367 0 9.99181e-08 0 0 0 0 0.00519989 0 858.29
0.054283 0 1.17919e-07 0 0 0 0 0.0049828 0 1012.91
0.0573645 0 1.39162e-07 0 0 0 0 0.00476339 0 1195.39
0.060621 0 1.64232e-07 0 0 0 0 0.00454293 0 1410.75
0.0640622 0 1.93819e-07 0 0 0 0 0.00432265 0 1664.89
0.0676989 0 2.28736e-07 0 0 0 0 0.00410371 0 1964.83
0.071542 0 2.69944e-07 0 0 0 0 0.00388717 0 2318.8
0.0756032 0 3.18575e-07 0 0 0 0 0.00367401 0 2736.54
0.079895 0 3.75967e-07 0 0 0 0 0.0034651 0 3229.53
0.0844305 0 4.43698e-07 0 0 0 0 0.00326121 0 3811.34
0.0892234 0 5.23632e-07 0 0 0 0 0.00306301 0 4497.96
0.0942883 0 6.17966e-07 0 0 0 0 0.00287109 0 5308.28
0.0996408 0 7.29294e-07 0 0 0 0 0.00268591 0 6264.59
0.105297 0 8.60678e-07 0 0 0 0 0.00250785 0 7393.17
0.111275 0 1.01573e-06 0 0 0 0 0.00233721 0 8725.07
0.117591 0 1.19872e-06 0 0 0 0 0.00217419 0 10296.9
0.124267 0 1.41467e-06 0 0 0 0 0.00201893 0 12151.9
0.131321 0 1.66953e-06 0 0 0 0 0.00187147 0 14341.1
0.138776 0 1.9703e-06 0 0 0 0 0.00173182 0 16924.7
0.146654 0 2.32525e-06 0 0 0 0 0.00159991 0 19973.8
0.154979 0 2.74415e-06 0 0 0 0 0.00147563 0 23572.1
0.163777 0 3.23852e-06 0 0 0 0 0.00135884 0 27818.7
0.173074 0 3.82195e-06 0 0 0 0 0.00124933 0 32830.3
0.182899 0 4.51048e-06 0 0 0 0 0.00114689 0 38744.7
0.193281 0 5.32305e-06 0 0 0 0 0.00105127 0 45724.7
0.204254 0 6.28202e-06 0 0 0 0 0.000962209 0 53962.1
0.215848 0 7.41374e-06 0 0 0 0 0.000879423 0 63683.5
0.228102 0 8.74934e-06 0 0 0 0 0.000802624 0 75156.3
0.24105 0 1.03256e-05 0 0 0 0 0.000731515 0 88695.9
0.254734 0 1.21857e-05 0 0 0 0 0.000665798 0 104675
0.269195 0 1.4381e-05 0 0 0 0 0.000605173 0 123532
0.284476 0 1.69718e-05 0 0 0 0 0.000549345 0 145787
0.300625 0 2.00293e-05 0 0 0 0 0.000498021 0 172051
0.317691 0 2.36377e-05 0 0 0 0 0.000450916 0 203046
0.335725 0 2.78961e-05 0 0 0 0 0.000407755 0 239625
0.354784 0 3.29216e-05 0 0 0 0 0.000368269 0 282795
0.374924 0 3.88525e-05 0 0 0 0 0.000332202 0 333741
0.396207 0.304495 4.58519e-05 7.73094e-07 6 0.296029 7.516e-07 0.000299307 0.0154977 393865
0.418699 0 5.41123e-05 0 0 0 0 0.00026935 0 464821
0.442467 0 6.38607e-05 0 0 0 0 0.000242108 0 548560
0.467585 0 7.53654e-05 0 0 0 0 0.00021737 0 647384
0.494129 0 8.89427e-05 0 0 0 0 0.000194938 0 764012
0.522179 0 0.000104966 0 0 0 0 0.000174625 0 901651
0.551822 0 0.000123876 0 0 0 0 0.000156255 0 1.06409e+06
0.583147 5.2705 0.000146192 4.19698e-06 12 5.54723 4.41735e-06 0.000139664 0.360607 1.25578e+06
0.616251 0 0.000172529 0 0 0 0 0.0001247 0 1.48202e+06
0.651234 0 0.000203611 0 0 0 0 0.00011122 0 1.74901e+06
0.688203 25.2729 0.000240292 1.22441e-05 8 24.6442 1.19395e-05 9.90935e-05 0.988487 2.06409e+06
0.72727 0 0.000283581 0 0 0 0 8.81969e-05 0 2.43595e+06
0.768555 0 0.000334669 0 0 0 0 7.84179e-05 0 2.87479e+06
0.812184 0.0388106 0.000394961 1.14395e-08 6 0.0396404 1.16841e-08 6.96525e-05 0.000985418 3.39269e+06
0.85829 0 0.000466114 0 0 0 0 6.1805e-05 0 4.00389e+06
0.907013 0.167581 0.000550086 3.54654e-08 24 0.170797 3.61459e-08 5.47875e-05 0.0155359 4.7252e+06
0.958501 0.787238 0.000649185 1.41172e-07 24 0.741127 1.32903e-07 4.85194e-05 0.0698302 5.57646e+06
1.01291 0 0.000766138 0 0 0 0 4.29272e-05 0 6.58107e+06
1.07041 0 0.00090416 0 0 0 0 3.79435e-05 0 7.76667e+06
1.13118 1.11434 0.00106705 1.21575e-07 12 1.10065 1.20082e-07 3.3507e-05 0.0435403 9.16586e+06
1.19539 0.431372 0.00125928 3.98787e-08 30 0.422479 3.90566e-08 2.9562e-05 0.0404695 1.08171e+07
1.26325 6.37392 0.00148614 4.99295e-07 24 6.27801 4.91782e-07 2.60578e-05 0.459865 1.27658e+07
1.33496 20.0616 0.00175387 1.33161e-06 24 20.1057 1.33454e-06 2.29484e-05 1.39263 1.50656e+07
1.41075 6.52 0.00206984 3.66709e-07 32 6.70865 3.7732e-07 2.01923e-05 0.581147 1.77798e+07
1.49083 0.326624 0.00244272 1.55662e-08 48 0.319661 1.52344e-08 1.77518e-05 0.0420905 2.09828e+07
1.57546 0.0824365 0.00288279 3.32903e-09 6 0.0784981 3.16998e-09 1.55929e-05 0.00128098 2.4763e+07
1.66489 0.389281 0.00340213 1.33206e-08 84 0.37409 1.28007e-08 1.3685e-05 0.0817629 2.92241e+07
1.75941 2.39705 0.00401503 6.95021e-08 48 2.41626 7.00593e-08 1.20007e-05 0.277993 3.44889e+07
1.85928 0.175712 0.00473835 4.31702e-09 72 0.177325 4.35665e-09 1.05151e-05 0.0295599 4.07021e+07
1.96483 1.04605 0.00559198 2.17769e-08 54 1.03185 2.14814e-08 9.20606e-06 0.127737 4.80347e+07
2.07637 8.88916 0.00659939 1.56808e-07 104 8.86476 1.56377e-07 8.05366e-06 2.02492 5.66883e+07
2.19424 0.218547 0.00778828 3.26673e-09 120 0.220552 3.2967e-09 7.04008e-06 0.0556824 6.69008e+07
2.3188 1.72708 0.00919136 2.18747e-08 156 1.63968 2.07678e-08 6.1494e-06 0.554925 7.89532e+07
2.45043 0.630791 0.0108472 6.76982e-09 126 0.632401 6.78711e-09 5.36741e-06 0.158922 9.31768e+07
2.58954 0.411856 0.0128014 3.7454e-09 192 0.41962 3.81602e-09 4.68145e-06 0.15361 1.09963e+08
2.73654 4.90379 0.0151076 3.77874e-08 152 5.07172 3.90815e-08 4.08023e-06 1.40769 1.29773e+08
2.89188 3.59267 0.0178292 2.34582e-08 378 3.67568 2.40002e-08 3.55373e-06 2.49518 1.53152e+08
3.05605 1.33169 0.0210412 7.36787e-09 264 1.30967 7.24607e-09 3.09304e-06 0.628869 1.80743e+08
3.22953 0.163809 0.0248319 7.67958e-10 366 0.159981 7.50014e-10 2.69025e-06 0.104478 2.13304e+08
3.41286 0.707457 0.0293054 2.81037e-09 428 0.671347 2.66692e-09 2.33837e-06 0.514391 2.51731e+08
3.6066 3.31079 0.0345848 1.11444e-08 486 3.1948 1.0754e-08 2.0312e-06 2.66648 2.97081e+08
3.81134 0.67458 0.0408154 1.92407e-09 600 0.66965 1.91e-09 1.76327e-06 0.654717 3.50601e+08
4.0277 0.483041 0.0481684 1.16743e-09 738 0.480265 1.16072e-09 1.52972e-06 0.563217 4.13763e+08
4.25634 1.19307 0.056846 2.4433e-09 824 1.24487 2.54938e-09 1.32631e-06 1.51796 4.88304e+08
4.49796 2.66305 0.067087 4.62116e-09 954 2.68491 4.6591e-09 1.14926e-06 3.83603 5.76273e+08
4.7533 0.476937 0.0791729 7.01285e-10 1094 0.467141 6.86881e-10 9.95263e-07 0.770858 6.8009e+08
5.02313 0.302041 0.0934361 3.76323e-10 1332 0.301297 3.75396e-10 8.61414e-07 0.581906 8.0261e+08
5.30828 2.12173 0.110269 2.24e-09 1614 2.14601 2.26563e-09 7.45152e-07 4.85183 9.47202e+08
5.60962 1.04325 0.130134 9.3327e-10 1850 1.0064 9.00307e-10 6.44232e-07 2.68001 1.11784e+09
5.92807 1.31803 0.153578 9.99096e-10 2238 1.25584 9.51954e-10 5.56685e-07 4.01659 1.31923e+09
6.26459 0.537479 0.181246 3.45227e-10 2546 0.547126 3.51423e-10 4.80786e-07 1.82814 1.55689e+09
6.62021 0.116259 0.213898 6.32749e-11 3264 0.116363 6.33313e-11 4.15026e-07 0.49763 1.83737e+09
6.99602 1.2842 0.252432 5.92243e-10 3506 1.33172 6.14156e-10 3.58083e-07 5.79867 2.16837e+09
7.39317 0.494434 0.297908 1.93213e-10 4506 0.503009 1.96564e-10 3.08803e-07 2.81932 2.55901e+09
7.81286 1.02118 0.351577 3.38136e-10 5018 1.05921 3.5073e-10 2.66181e-07 6.37449 3.02002e+09
8.25637 0.943431 0.414914 2.64705e-10 5852 0.902836 2.53315e-10 2.29336e-07 6.75451 3.56409e+09
8.72507 0.519666 0.489662 1.23549e-10 7362 0.511556 1.2162e-10 1.97503e-07 4.60532 4.20617e+09
9.22037 0.777042 0.577876 1.56538e-10 8306 0.766484 1.54411e-10 1.70014e-07 7.64762 4.96392e+09
9.74378 0.195696 0.681982 3.34056e-11 9698 0.196598 3.35595e-11 1.46289e-07 2.21457 5.85818e+09
10.2969 0.773716 0.804843 1.11913e-10 11816 0.78967 1.14221e-10 1.25822e-07 10.5098 6.91355e+09
10.8814 0.65934 0.949838 8.08109e-11 13682 0.661243 8.10442e-11 1.08175e-07 10.2209 8.15905e+09
11.4992 0.614781 1.12095 6.38474e-11 16152 0.601384 6.2456e-11 9.29669e-08 11.0928 9.62892e+09
12.1519 0.582826 1.3229 5.12889e-11 19472 0.565594 4.97724e-11 7.98658e-08 12.5047 1.13636e+10
12.8418 0.201266 1.56122 1.50078e-11 22670 0.205906 1.53538e-11 6.85852e-08 4.96063 1.34108e+10
13.5708 0.550031 1.84248 3.47532e-11 26224 0.561097 3.54524e-11 5.88765e-08 15.4793 1.58268e+10
14.3411 0.447434 2.17441 2.39552e-11 31640 0.456088 2.44185e-11 5.05241e-08 15.0016 1.8678e+10
15.1552 0.486204 2.56613 2.20572e-11 37484 0.492491 2.23424e-11 4.33417e-08 19.0761 2.20429e+10
16.0156 0.378699 3.02843 1.45575e-11 43856 0.389328 1.49661e-11 3.71677e-08 17.1771 2.6014e+10
16.9247 0.662071 3.574 2.15655e-11 51362 0.664829 2.16554e-11 3.18628e-08 34.763 3.07005e+10
17.8855 0.474828 4.21787 1.31055e-11 61636 0.468851 1.29405e-11 2.73063e-08 29.5818 3.62312e+10
18.9008 0.598629 4.97773 1.40003e-11 72218 0.59922 1.40141e-11 2.33941e-08 43.219 4.27584e+10
19.9738 0.886268 5.87448 1.75633e-11 84586 0.876483 1.73694e-11 2.00364e-08 74.1455 5.04614e+10
21.1076 1.26292 6.93279 2.1207e-11 100708 1.25679 2.1104e-11 1.71555e-08 124.491 5.95522e+10
22.3058 2.66282 8.18175 3.78884e-11 118712 2.65424 3.77663e-11 1.46847e-08 306.293 7.02807e+10
23.5721 6.96922 9.65571 8.40253e-11 140410 6.88748 8.30398e-11 1.25662e-08 938.87 8.29419e+10
24.9102 10.0542 11.3952 1.02715e-10 164374 9.97202 1.01876e-10 1.07504e-08 1570.52 9.78842e+10
26.3243 13.4728 13.4481 1.16629e-10 194680 13.4166 1.16142e-10 9.19452e-09 2469.45 1.15518e+11
27.8187 10.0514 15.8708 7.37286e-11 230196 10.0454 7.36846e-11 7.86182e-09 2158.79 1.36329e+11
29.3979 8.38661 18.73 5.21266e-11 271156 8.3793 5.20811e-11 6.72061e-09 2103.15 1.60889e+11
31.0667 9.17906 22.1042 4.83429e-11 321076 9.11929 4.80281e-11 5.74366e-09 2702.41 1.89874e+11
32.8303 13.6102 26.0864 6.07381e-11 377436 13.5071 6.0278e-11 4.90756e-09 4671.31 2.2408e+11
34.694 21.4816 30.7859 8.12317e-11 447594 21.3575 8.07623e-11 4.19221e-09 8672.96 2.64449e+11
36.6634 25.3175 36.3321 8.11224e-11 525078 25.2305 8.08435e-11 3.58032e-09 11897.1 3.1209e+11
38.7447 24.9243 42.8774 6.76713e-11 621924 24.8964 6.75957e-11 3.05709e-09 13766.8 3.68314e+11
40.9442 25.7182 50.6018 5.91676e-11 732630 25.6711 5.90593e-11 2.60976e-09 16609.9 4.34667e+11
43.2685 27.5243 59.7179 5.36565e-11 865596 27.4564 5.3524e-11 2.22743e-09 20851.3 5.12973e+11
45.7247 30.1376 70.4762 4.97825e-11 1.02168e+06 30.0504 4.96384e-11 1.90073e-09 26758.9 6.05386e+11
48.3204 35.7311 83.1727 5.00122e-11 1.20544e+06 35.59 4.98147e-11 1.62163e-09 37176.4 7.14448e+11
51.0634 46.2375 98.1565 5.48385e-11 1.42103e+06 46.0048 5.45625e-11 1.38326e-09 56336 8.43158e+11
53.9621 62.1797 115.84 6.24887e-11 1.67997e+06 61.8907 6.21983e-11 1.1797e-09 88987.6 9.95055e+11
57.0254 79.122 136.709 6.7377e-11 1.98018e+06 78.8524 6.71475e-11 1.00592e-09 132633 1.17432e+12
60.2626 91.4526 161.337 6.59891e-11 2.33957e+06 91.2406 6.58361e-11 8.57591e-10 180023 1.38587e+12
63.6835 99.6781 190.402 6.0945e-11 2.75676e+06 99.4485 6.08046e-11 7.3101e-10 229834 1.63554e+12
67.2987 111.174 224.704 5.75975e-11 3.25638e+06 110.848 5.74285e-11 6.23009e-10 301054 1.93019e+12
71.1191 132.137 265.185 5.80079e-11 3.84387e+06 131.656 5.77965e-11 5.30879e-10 420011 2.27792e+12
75.1563 161.124 312.958 5.99354e-11 4.53277e+06 160.536 5.97168e-11 4.52303e-10 600643 2.68829e+12
79.4227 193.36 369.339 6.09468e-11 5.35083e+06 192.718 6.07445e-11 3.85299e-10 846396 3.17259e+12
83.9313 228.035 435.876 6.09043e-11 6.32174e+06 227.304 6.07091e-11 3.28173e-10 1.17323e+06 3.74415e+12
88.6959 266.707 514.4 6.03593e-11 7.44986e+06 265.86 6.01676e-11 2.79476e-10 1.60897e+06 4.41866e+12
93.7309 313.379 607.071 6.00954e-11 8.79764e+06 312.362 5.99003e-11 2.37972e-10 2.22168e+06 5.2147e+12
99.0518 370.588 716.436 6.02177e-11 1.03827e+07 369.34 6.00148e-11 2.02605e-10 3.08591e+06 6.15414e+12
104.675 438.643 845.504 6.03956e-11 1.22515e+07 437.186 6.0195e-11 1.72471e-10 4.29022e+06 7.26283e+12
110.617 517.609 997.824 6.0389e-11 1.44573e+07 515.898 6.01894e-11 1.468e-10 5.9473e+06 8.57124e+12
116.896 610.335 1177.58 6.03373e-11 1.70664e+07 608.315 6.01377e-11 1.24935e-10 8.24223e+06 1.01154e+13
123.532 720.413 1389.73 6.03478e-11 2.0139e+07 718.02 6.01473e-11 1.06313e-10 1.14317e+07 1.19377e+13
130.545 851.526 1640.09 6.04421e-11 2.37643e+07 848.686 6.02405e-11 9.04567e-11 1.5879e+07 1.40883e+13
137.955 1005.57 1935.56 6.04806e-11 2.80503e+07 1002.24 6.02805e-11 7.69563e-11 2.2045e+07 1.66263e+13
145.787 1187.48 2284.26 6.0519e-11 3.30981e+07 1183.51 6.03166e-11 6.54636e-11 3.05981e+07 1.96216e+13
154.063 1402.79 2695.77 6.05788e-11 3.90634e+07 1398.12 6.03771e-11 5.56812e-11 4.24994e+07 2.31565e+13
162.808 1657.58 3181.42 6.06546e-11 4.61057e+07 1652.06 6.04524e-11 4.73556e-11 5.90537e+07 2.73282e+13
172.051 1959.25 3754.56 6.07492e-11 5.44046e+07 1952.68 6.05456e-11 4.02708e-11 8.20703e+07 3.22515e+13
181.818 2315.66 4430.96 6.08397e-11 6.42064e+07 2307.87 6.0635e-11 3.42426e-11 1.14077e+08 3.80616e+13
192.139 2738.55 5229.21 6.09671e-11 7.57748e+07 2729.34 6.0762e-11 2.91139e-11 1.58679e+08 4.49186e+13
203.046 3240.7 6171.26 6.11329e-11 8.94213e+07 3229.78 6.09268e-11 2.4751e-11 2.20863e+08 5.30108e+13
214.572 3837.93 7283.03 6.13472e-11 1.05538e+08 3824.94 6.11397e-11 2.10401e-11 3.07721e+08 6.25608e+13
226.753 4548.39 8595.09 6.16052e-11 1.24552e+08 4532.9 6.13954e-11 1.78839e-11 4.29047e+08 7.38313e+13
239.625 5395.47 10143.5 6.19228e-11 1.46987e+08 5377 6.17108e-11 1.51999e-11 5.9881e+08 8.71322e+13
253.228 6413.57 11970.9 6.23711e-11 1.7347e+08 6391.39 6.21553e-11 1.29176e-11 8.37578e+08 1.02829e+14
267.603 7635.32 14127.5 6.29176e-11 2.04703e+08 7608.77 6.26989e-11 1.09771e-11 1.17329e+09 1.21354e+14
282.795 9120.74 16672.6 6.3685e-11 2.4161e+08 9088.6 6.34606e-11 9.3274e-12 1.64965e+09 1.43217e+14
298.848 10934.6 19676.2 6.46952e-11 2.85122e+08 10895.3 6.44628e-11 7.925e-12 2.32758e+09 1.69017e+14
315.813 13182.9 23220.9 6.60908e-11 3.36491e+08 13134.3 6.58474e-11 6.73295e-12 3.30301e+09 1.99466e+14
333.741 16014.2 27404.3 6.80297e-11 3.97115e+08 15953.1 6.77702e-11 5.71979e-12 4.72318e+09 2.35401e+14
352.686 19662.3 32341.2 7.07764e-11 4.68637e+08 19584.1 7.04948e-11 4.85874e-12 6.82656e+09 2.77809e+14
372.707 24508 38167.6 7.4752e-11 5.53074e+08 24404.7 7.44372e-11 4.12703e-12 1.00177e+10 3.27857e+14
393.865 31193.3 45043.5 8.06194e-11 6.52716e+08 31051.7 8.02532e-11 3.50528e-12 1.50121e+10 3.86921e+14
416.224 36818.2 53158.3 8.0631e-11 2.2184e+08 38950.2 8.52999e-11 2.97701e-12 6.00843e+09 4.56626e+14
439.852 0 62734.9 0 0 0 0 2.52819e-12 0 5.38888e+14
464.821 0 74036.7 0 0 0 0 2.1469e-12 0 6.35971e+14
491.207 0 87374.6 0 0 0 0 1.82301e-12 0 7.50542e+14
519.092 0 103115 0 0 0 0 1.54789e-12 0 8.85755e+14
548.56 0 121692 0 0 0 0 1.31422e-12 0 1.04533e+15
579.7 0 143615 0 0 0 0 1.11576e-12 0 1.23364e+15
612.608 0 169488 0 0 0 0 9.47223e-13 0 1.45589e+15
647.384 0 200021 0 0 0 0 8.041e-13 0 1.71817e+15
684.134 0 236056 0 0 0 0 6.82568e-13 0 2.0277e+15
722.971 0 278582 0 0 0 0 5.79376e-13 0 2.393e+15
764.012 0 328769 0 0 0 0 4.91762e-13 0 2.8241e+15
0.0477877
200
1.23897e+09
8589934592
0.0129181 5.78606e-06 1.58924e-09 4.23842e-07 6 5.73309e-06 4.19962e-07 0.00677225 0.000375511 13.6515
0.0136515 0 1.87554e-09 0 0 0 0 0.00688819 0 16.1108
0.0144264 0 2.21343e-09 0 0 0 0 0.00699249 0 19.0132
0.0152454 0 2.61218e-09 0 0 0 0 0.00708412 0 22.4385
0.0161108 0 3.08278e-09 0 0 0 0 0.00716212 0 26.4808
0.0170254 0 3.63815e-09 0 0 0 0 0.00722559 0 31.2514
0.0179919 1.31393e-05 4.29357e-09 3.56258e-07 12 1.31224e-05 3.55799e-07 0.00727371 0.000587746 36.8815
0.0190132 0 5.06707e-09 0 0 0 0 0.00730578 0 43.5258
0.0200925 0 5.97991e-09 0 0 0 0 0.00732122 0 51.367
0.0212331 1.26494e-05 7.05721e-09 2.08663e-07 8 1.26384e-05 2.08482e-07 0.00731958 0.00022806 60.621
0.0224385 0 8.32858e-09 0 0 0 0 0.00730056 0 71.542
0.0237123 0 9.829e-09 0 0 0 0 0.00726401 0 84.4305
0.0250583 8.28815e-05 1.15997e-08 8.31803e-07 6 8.28425e-05 8.31411e-07 0.00720995 0.000692212 99.6408
0.0264808 0 1.36894e-08 0 0 0 0 0.00713857 0 117.591
0.0279841 5.22818e-05 1.61556e-08 3.76736e-07 24 5.22281e-05 3.76349e-07 0.00705021 0.00128247 138.776
0.0295727 0 1.90661e-08 0 0 0 0 0.00694538 0 163.777
0.0312514 9.44275e-05 2.25009e-08 4.88549e-07 24 9.49069e-05 4.9103e-07 0.00682475 0.00171804 193.281
0.0330255 0 2.65545e-08 0 0 0 0 0.00668915 0 228.102
0.0349003 0.000132054 3.13384e-08 4.90553e-07 12 0.000130997 4.86625e-07 0.00653951 0.000900164 269.195
0.0368815 0.000116098 3.69841e-08 3.65444e-07 30 0.000114862 3.61553e-07 0.00637693 0.00171922 317.691
0.0389751 0.000139583 4.36469e-08 3.72296e-07 24 0.000138147 3.68467e-07 0.00620256 0.00144055 374.924
0.0411876 8.83947e-05 5.151e-08 1.99777e-07 24 8.77944e-05 1.9842e-07 0.00601767 0.000796761 442.467
0.0435258 0.000185973 6.07896e-08 3.56147e-07 8 0.000185958 3.5612e-07 0.00582358 0.000489248 522.179
0.0459966 0.000238762 7.1741e-08 3.87442e-07 72 0.000236874 3.8438e-07 0.00562166 0.0049622 616.251
0.0486077 0 8.46654e-08 0 0 0 0 0.0054133 0 727.27
0.051367 0.000358974 9.99181e-08 4.18243e-07 54 0.000357849 4.16933e-07 0.00519989 0.00434339 858.29
0.054283 0.000276048 1.17919e-07 2.72529e-07 60 0.000277185 2.73651e-07 0.0049828 0.00328163 1012.91
0.0573645 0.000276516 1.39162e-07 2.31318e-07 96 0.000275811 2.30728e-07 0.00476339 0.00466193 1195.39
0.060621 0.000317434 1.64232e-07 2.25012e-07 24 0.000313133 2.21963e-07 0.00454293 0.00118872 1410.75
0.0640622 0.000560908 1.93819e-07 3.36903e-07 134 0.000561206 3.37082e-07 0.00432265 0.0104438 1664.89
0.0676989 0.000540809 2.28736e-07 2.75245e-07 120 0.000538347 2.73992e-07 0.00410371 0.00804866 1964.83
0.071542 0.000497961 2.69944e-07 2.14749e-07 108 0.000492565 2.12422e-07 0.00388717 0.00596653 2318.8
0.0756032 0.000732051 3.18575e-07 2.6751e-07 174 0.000728219 2.6611e-07 0.00367401 0.0126692 2736.54
0.079895 0.000801711 3.75967e-07 2.48244e-07 168 0.000794107 2.45889e-07 0.0034651 0.0120357 3229.53
0.0844305 0.000697953 4.43698e-07 1.83125e-07 168 0.000701396 1.84029e-07 0.00326121 0.00943365 3811.34
0.0892234 0.000795985 5.23632e-07 1.76966e-07 290 0.000792637 1.76221e-07 0.00306301 0.0167548 4497.96
0.0942883 0.00104384 6.17966e-07 1.96643e-07 288 0.00104114 1.96136e-07 0.00287109 0.0197253 5308.28
0.0996408 0.000953534 7.29294e-07 1.5221e-07 366 0.00094544 1.50918e-07 0.00268591 0.0207412 6264.59
0.105297 0.00100209 8.60678e-07 1.35543e-07 420 0.000995329 1.34628e-07 0.00250785 0.0226999 7393.17
0.111275 0.00103159 1.01573e-06 1.18233e-07 398 0.00102905 1.17941e-07 0.00233721 0.0201336 8725.07
0.117591 0.00120376 1.19872e-06 1.16905e-07 624 0.0012063 1.17151e-07 0.00217419 0.033552 10296.9
0.124267 0.00131106 1.41467e-06 1.07889e-07 642 0.00130958 1.07767e-07 0.00201893 0.0343076 12151.9
0.131321 0.00169314 1.66953e-06 1.18062e-07 800 0.00169346 1.18084e-07 0.00187147 0.050468 14341.1
0.138776 0.0016004 1.9703e-06 9.45598e-08 858 0.00160785 9.50001e-08 0.00173182 0.0468481 16924.7
0.146654 0.00177071 2.32525e-06 8.86517e-08 1080 0.00178511 8.93729e-08 0.00159991 0.0598433 19973.8
0.154979 0.00213222 2.74415e-06 9.04551e-08 1286 0.00214702 9.1083e-08 0.00147563 0.0788307 23572.1
0.163777 0.00201645 3.23852e-06 7.24857e-08 1650 0.00202031 7.26243e-08 0.00135884 0.0880173 27818.7
0.173074 0.00229155 3.82195e-06 6.97998e-08 1778 0.00229246 6.98276e-08 0.00124933 0.0993363 32830.3
0.182899 0.00218285 4.51048e-06 5.63393e-08 2112 0.00218814 5.64757e-08 0.00114689 0.103749 38744.7
0.193281 0.00257389 5.32305e-06 5.62911e-08 2570 0.00257744 5.63688e-08 0.00105127 0.137613 45724.7
0.204254 0.00292378 6.28202e-06 5.41821e-08 3030 0.00292197 5.41485e-08 0.000962209 0.17062 53962.1
0.215848 0.0030273 7.41374e-06 4.75366e-08 3434 0.00302674 4.75278e-08 0.000879423 0.185622 63683.5
0.228102 0.00317216 8.74934e-06 4.22075e-08 4218 0.00317313 4.22205e-08 0.000802624 0.221812 75156.3
0.24105 0.00346692 1.03256e-05 3.90877e-08 4766 0.00347086 3.91322e-08 0.000731515 0.254666 88695.9
0.254734 0.00360199 1.21857e-05 3.44113e-08 6026 0.0036008 3.43999e-08 0.000665798 0.31145 104675
0.269195 0.00384459 1.4381e-05 3.11222e-08 6480 0.00384212 3.11022e-08 0.000605173 0.333247 123532
0.284476 0.00426484 1.69718e-05 2.9254e-08 8162 0.00427411 2.93175e-08 0.000549345 0.434647 145787
0.300625 0.00427459 2.00293e-05 2.4845e-08 9578 0.00428105 2.48825e-08 0.000498021 0.477822 172051
0.317691 0.00461039 2.36377e-05 2.27061e-08 11234 0.00460785 2.26936e-08 0.000450916 0.565693 203046
0.335725 0.00487783 2.78961e-05 2.03561e-08 13344 0.00487531 2.03456e-08 0.000407755 0.666163 239625
0.354784 0.00512901 3.29216e-05 1.81369e-08 15464 0.00512589 1.81258e-08 0.000368269 0.761586 282795
0.374924 0.00546525 3.88525e-05 1.63757e-08 18458 0.00546458 1.63737e-08 0.000332202 0.909878 333741
0.396207 0.00569242 4.58519e-05 1.44527e-08 22232 0.00568376 1.44307e-08 0.000299307 1.07352 393865
0.418699 0.0062149 5.41123e-05 1.33705e-08 25628 0.00620333 1.33456e-08 0.00026935 1.27218 464821
0.442467 0.00639626 6.38607e-05 1.16601e-08 30320 0.00638646 1.16422e-08 0.000242108 1.46024 548560
0.467585 0.00669153 7.53654e-05 1.03363e-08 35452 0.00668181 1.03212e-08 0.00021737 1.68579 647384
0.494129 0.00695265 8.89427e-05 9.10018e-09 41792 0.006951 9.09802e-09 0.000194938 1.95095 764012
0.522179 0.00748828 0.000104966 8.30508e-09 49988 0.00748699 8.30365e-09 0.000174625 2.37741 901651
0.551822 0.00781243 0.000123876 7.34192e-09 59110 0.0078085 7.33823e-09 0.000156255 2.77739 1.06409e+06
0.583147 0.00817993 0.000146192 6.5138e-09 69716 0.00817076 6.5065e-09 0.000139664 3.25149 1.25578e+06
0.616251 0.008655 0.000172529 5.84002e-09 82210 0.00864177 5.83109e-09 0.0001247 3.8501 1.48202e+06
0.651234 0.00909823 0.000203611 5.20194e-09 96722 0.0090828 5.19312e-09 0.00011122 4.52383 1.74901e+06
0.688203 0.00949598 0.000240292 4.60056e-09 113098 0.00948815 4.59676e-09 9.90935e-05 5.25074 2.06409e+06
0.72727 0.00980476 0.000283581 4.02503e-09 135190 0.00979499 4.02102e-09 8.81969e-05 6.16965 2.43595e+06
0.768555 0.0103807 0.000334669 3.61096e-09 158170 0.0103728 3.60818e-09 7.84179e-05 7.28335 2.87479e+06
0.812184 0.0107906 0.000394961 3.18055e-09 188560 0.0107808 3.17765e-09 6.96525e-05 8.61024 3.39269e+06
0.85829 0.0112051 0.000466114 2.79855e-09 220444 0.0111936 2.79567e-09 6.1805e-05 9.98176 4.00389e+06
0.907013 0.0117714 0.000550086 2.4912e-09 261388 0.0117622 2.48925e-09 5.47875e-05 11.8854 4.7252e+06
0.958501 0.012195 0.000649185 2.18686e-09 308244 0.0121822 2.18457e-09 4.85194e-05 13.8931 5.57646e+06
1.01291 0.0127514 0.000766138 1.93759e-09 364396 0.0127366 1.93533e-09 4.29272e-05 16.4476 6.58107e+06
1.07041 0.0132474 0.00090416 1.70567e-09 429162 0.0132328 1.70379e-09 3.79435e-05 19.2921 7.76667e+06
1.13118 0.0138151 0.00106705 1.50724e-09 506358 0.0137978 1.50535e-09 3.3507e-05 22.7774 9.16586e+06
1.19539 0.0143278 0.00125928 1.32455e-09 598590 0.0143111 1.32301e-09 2.9562e-05 26.8203 1.08171e+07
1.26325 0.0149324 0.00148614 1.16971e-09 704844 0.0149155 1.16839e-09 2.60578e-05 31.6399 1.27658e+07
1.33496 0.0154839 0.00175387 1.02776e-09 834620 0.0154656 1.02655e-09 2.29484e-05 37.3789 1.50656e+07
1.41075 0.0160583 0.00206984 9.03178e-10 981444 0.0160402 9.0216e-10 2.01923e-05 43.8989 1.77798e+07
1.49083 0.0166128 0.00244272 7.91734e-10 1.15998e+06 0.016594 7.90835e-10 1.77518e-05 51.7353 2.09828e+07
1.57546 0.0172681 0.00288279 6.97334e-10 1.36931e+06 0.0172481 6.96529e-10 1.55929e-05 61.2374 2.4763e+07
1.66489 0.0178935 0.00340213 6.12288e-10 1.61652e+06 0.0178708 6.1151e-10 1.3685e-05 72.3253 2.92241e+07
1.75941 0.0185304 0.00401503 5.37287e-10 1.90601e+06 0.0185076 5.36627e-10 1.20007e-05 85.3345 3.44889e+07
1.85928 0.0191741 0.00473835 4.71083e-10 2.24913e+06 0.0191516 4.70531e-10 1.05151e-05 100.762 4.07021e+07
1.96483 0.0198683 0.00559198 4.13624e-10 2.65744e+06 0.0198442 4.13121e-10 9.20606e-06 119.398 4.80347e+07
2.07637 0.0205249 0.00659939 3.62067e-10 3.13125e+06 0.0205013 3.61649e-10 8.05366e-06 140.771 5.66883e+07
2.19424 0.0212487 0.00778828 3.17615e-10 3.69915e+06 0.0212228 3.17227e-10 7.04008e-06 166.888 6.69008e+07
2.3188 0.0219834 0.00919136 2.78436e-10 4.36472e+06 0.021957 2.78101e-10 6.1494e-06 197.629 7.89532e+07
2.45043 0.0227504 0.0108472 2.44163e-10 5.14913e+06 0.0227226 2.43866e-10 5.36741e-06 234.234 9.31768e+07
2.58954 0.0235123 0.0128014 2.13821e-10 6.07894e+06 0.0234844 2.13567e-10 4.68145e-06 277.649 1.09963e+08
2.73654 0.0243323 0.0151076 1.87499e-10 7.17304e+06 0.0243027 1.87271e-10 4.08023e-06 329.622 1.29773e+08
2.89188 0.0251261 0.0178292 1.6406e-10 8.46557e+06 0.0250949 1.63857e-10 3.55373e-06 390.818 1.53152e+08
3.05605 0.0259758 0.0210412 1.43717e-10 9.98773e+06 0.0259453 1.43548e-10 3.09304e-06 464.077 1.80743e+08
3.22953 0.0268569 0.0248319 1.25909e-10 1.1797e+07 0.026824 1.25755e-10 2.69025e-06 552.122 2.13304e+08
3.41286 0.0277557 0.0293054 1.10259e-10 1.39144e+07 0.0277204 1.10119e-10 2.33837e-06 656.092 2.51731e+08
3.6066 0.028684 0.0345848 9.65525e-11 1.64163e+07 0.0286478 9.64308e-11 2.0312e-06 780.343 2.97081e+08
3.81134 0.0296628 0.0408154 8.46054e-11 1.93821e+07 0.0296264 8.45016e-11 1.76327e-06 929.999 3.50601e+08
4.0277 0.0306651 0.0481684 7.41128e-11 2.28754e+07 0.030626 7.40183e-11 1.52972e-06 1108.28 4.13763e+08
4.25634 0.0317093 0.056846 6.49377e-11 2.69929e+07 0.0316687 6.48545e-11 1.32631e-06 1321.61 4.88304e+08
4.49796 0.0328055 0.067087 5.6927e-11 3.18542e+07 0.0327636 5.68543e-11 1.14926e-06 1577.86 5.76273e+08
4.7533 0.0339526 0.0791729 4.99236e-11 3.75892e+07 0.0339081 4.98583e-11 9.95263e-07 1885.52 6.8009e+08
5.02313 0.0351306 0.0934361 4.37705e-11 4.43706e+07 0.0350844 4.37128e-11 8.61414e-07 2254.58 8.0261e+08
5.30828 0.0363661 0.110269 3.83931e-11 5.23593e+07 0.0363178 3.83422e-11 7.45152e-07 2697.75 9.47202e+08
5.60962 0.0376607 0.130134 3.36905e-11 6.1787e+07 0.0376106 3.36457e-11 6.44232e-07 3231.19 1.11784e+09
5.92807 0.0390271 0.153578 2.95833e-11 7.29346e+07 0.0389739 2.9543e-11 5.56685e-07 3875.89 1.31923e+09
6.26459 0.0404571 0.181246 2.59859e-11 8.60651e+07 0.0404015 2.59501e-11 4.80786e-07 4651.7 1.55689e+09
6.62021 0.0419634 0.213898 2.28389e-11 1.01558e+08 0.0419049 2.28071e-11 4.15026e-07 5588.75 1.83737e+09
6.99602 0.0435463 0.252432 2.00825e-11 1.1986e+08 0.0434856 2.00545e-11 3.58083e-07 6722.15 2.16837e+09
7.39317 0.0452415 0.297908 1.76793e-11 1.41457e+08 0.0451777 1.76544e-11 3.08803e-07 8098.53 2.55901e+09
7.81286 0.0470272 0.351577 1.55718e-11 1.66936e+08 0.0469604 1.55497e-11 2.66181e-07 9765.89 3.02002e+09
8.25637 0.0489478 0.414914 1.37336e-11 1.97025e+08 0.0488769 1.37137e-11 2.29336e-07 11798.7 3.56409e+09
8.72507 0.0510029 0.489662 1.21257e-11 2.32497e+08 0.0509273 1.21078e-11 1.97503e-07 14274.2 4.20617e+09
9.22037 0.0532649 0.577876 1.07304e-11 2.74404e+08 0.0531842 1.07141e-11 1.70014e-07 17319 4.96392e+09
9.74378 0.0558145 0.681982 9.52761e-12 3.2382e+08 0.055727 9.51268e-12 1.46289e-07 21090 5.85818e+09
10.2969 0.0587561 0.804843 8.49869e-12 3.82165e+08 0.058659 8.48465e-12 1.25822e-07 25813.4 6.91355e+09
10.8814 0.0623178 0.949838 7.63788e-12 4.51027e+08 0.0622076 7.62438e-12 1.08175e-07 31845.4 8.15905e+09
11.4992 0.0668633 1.12095 6.94401e-12 5.32251e+08 0.0667322 6.93039e-12 9.29669e-08 39755.6 9.62892e+09
12.1519 0.0731535 1.3229 6.43753e-12 6.28157e+08 0.0729864 6.42282e-12 7.98658e-08 50632.2 1.13636e+10
12.8418 0.0802473 1.56122 5.98379e-12 3.82727e+08 0.0830642 6.19384e-12 6.85852e-08 33391.4 1.34108e+10
13.5708 0 1.84248 0 0 0 0 5.88765e-08 0 1.58268e+10
14.3411 0 2.17441 0 0 0 0 5.05241e-08 0 1.8678e+10
15.1552 0 2.56613 0 0 0 0 4.33417e-08 0 2.20429e+10
16.0156 0 3.02843 0 0 0 0 3.71677e-08 0 2.6014e+10
16.9247 0 3.574 0 0 0 0 3.18628e-08 0 3.07005e+10
17.8855 0 4.21787 0 0 0 0 2.73063e-08 0 3.62312e+10
18.9008 0 4.97773 0 0 0 0 2.33941e-08 0 4.27584e+10
19.9738 0 5.87448 0 0 0 0 2.00364e-08 0 5.04614e+10
21.1076 0 6.93279 0 0 0 0 1.71555e-08 0 5.95522e+10
22.3058 0 8.18175 0 0 0 0 1.46847e-08 0 7.02807e+10
23.5721 0 9.65571 0 0 0 0 1.25662e-08 0 8.29419e+10
24.9102 0 11.3952 0 0 0 0 1.07504e-08 0 9.78842e+10
26.3243 0 13.4481 0 0 0 0 9.19452e-09 0 1.15518e+11
27.8187 0 15.8708 0 0 0 0 7.86182e-09 0 1.36329e+11
29.3979 0 18.73 0 0 0 0 6.72061e-09 0 1.60889e+11
31.0667 0 22.1042 0 0 0 0 5.74366e-09 0 1.89874e+11
32.8303 0 26.0864 0 0 0 0 4.90756e-09 0 2.2408e+11
34.694 0 30.7859 0 0 0 0 4.19221e-09 0 2.64449e+11
36.6634 0 36.3321 0 0 0 0 3.58032e-09 0 3.1209e+11
38.7447 0 42.8774 0 0 0 0 3.05709e-09 0 3.68314e+11
40.9442 0 50.6018 0 0 0 0 2.60976e-09 0 4.34667e+11
43.2685 0 59.7179 0 0 0 0 2.22743e-09 0 5.12973e+11
45.7247 0 70.4762 0 0 0 0 1.90073e-09 0 6.05386e+11
48.3204 0 83.1727 0 0 0 0 1.62163e-09 0 7.14448e+11
51.0634 0 98.1565 0 0 0 0 1.38326e-09 0 8.43158e+11
53.9621 0 115.84 0 0 0 0 1.1797e-09 0 9.95055e+11
57.0254 0 136.709 0 0 0 0 1.00592e-09 0 1.17432e+12
60.2626 0 161.337 0 0 0 0 8.57591e-10 0 1.38587e+12
63.6835 0 190.402 0 0 0 0 7.3101e-10 0 1.63554e+12
67.2987 0 224.704 0 0 0 0 6.23009e-10 0 1.93019e+12
71.1191 0 265.185 0 0 0 0 5.30879e-10 0 2.27792e+12
75.1563 0 312.958 0 0 0 0 4.52303e-10 0 2.68829e+12
79.4227 0 369.339 0 0 0 0 3.85299e-10 0 3.17259e+12
83.9313 0 435.876 0 0 0 0 3.28173e-10 0 3.74415e+12
88.6959 0 514.4 0 0 0 0 2.79476e-10 0 4.41866e+12
93.7309 0 607.071 0 0 0 0 2.37972e-10 0 5.2147e+12
99.0518 0 716.436 0 0 0 0 2.02605e-10 0 6.15414e+12
104.675 0 845.504 0 0 0 0 1.72471e-10 0 7.26283e+12
110.617 0 997.824 0 0 0 0 1.468e-10 0 8.57124e+12
116.896 0 1177.58 0 0 0 0 1.24935e-10 0 1.01154e+13
123.532 0 1389.73 0 0 0 0 1.06313e-10 0 1.19377e+13
130.545 0 1640.09 0 0 0 0 9.04567e-11 0 1.40883e+13
137.955 0 1935.56 0 0 0 0 7.69563e-11 0 1.66263e+13
145.787 0 2284.26 0 0 0 0 6.54636e-11 0 1.96216e+13
154.063 0 2695.77 0 0 0 0 5.56812e-11 0 2.31565e+13
162.808 0 3181.42 0 0 0 0 4.73556e-11 0 2.73282e+13
172.051 0 3754.56 0 0 0 0 4.02708e-11 0 3.22515e+13
181.818 0 4430.96 0 0 0 0 3.42426e-11 0 3.80616e+13
192.139 0 5229.21 0 0 0 0 2.91139e-11 0 4.49186e+13
203.046 0 6171.26 0 0 0 0 2.4751e-11 0 5.30108e+13
214.572 0 7283.03 0 0 0 0 2.10401e-11 0 6.25608e+13
226.753 0 8595.09 0 0 0 0 1.78839e-11 0 7.38313e+13
239.625 0 10143.5 0 0 0 0 1.51999e-11 0 8.71322e+13
253.228 0 11970.9 0 0 0 0 1.29176e-11 0 1.02829e+14
267.603 0 14127.5 0 0 0 0 1.09771e-11 0 1.21354e+14
282.795 0 16672.6 0 0 0 0 9.3274e-12 0 1.43217e+14
298.848 0 19676.2 0 0 0 0 7.925e-12 0 1.69017e+14
315.813 0 23220.9 0 0 0 0 6.73295e-12 0 1.99466e+14
333.741 0 27404.3 0 0 0 0 5.71979e-12 0 2.35401e+14
352.686 0 32341.2 0 0 0 0 4.85874e-12 0 2.77809e+14
372.707 0 38167.6 0 0 0 0 4.12703e-12 0 3.27857e+14
393.865 0 45043.5 0 0 0 0 3.50528e-12 0 3.86921e+14
416.224 0 53158.3 0 0 0 0 2.97701e-12 0 4.56626e+14
439.852 0 62734.9 0 0 0 0 2.52819e-12 0 5.38888e+14
464.821 0 74036.7 0 0 0 0 2.1469e-12 0 6.35971e+14
491.207 0 87374.6 0 0 0 0 1.82301e-12 0 7.50542e+14
519.092 0 103115 0 0 0 0 1.54789e-12 0 8.85755e+14
548.56 0 121692 0 0 0 0 1.31422e-12 0 1.04533e+15
579.7 0 143615 0 0 0 0 1.11576e-12 0 1.23364e+15
612.608 0 169488 0 0 0 0 9.47223e-13 0 1.45589e+15
647.384 0 200021 0 0 0 0 8.041e-13 0 1.71817e+15
684.134 0 236056 0 0 0 0 6.82568e-13 0 2.0277e+15
722.971 0 278582 0 0 0 0 5.79376e-13 0 2.393e+15
764.012 0 328769 0 0 0 0 4.91762e-13 0 2.8241e+15
