0.169885
200
1.23897e+09
8589934592
0.0129181 0 1.58924e-09 0 0 0 0 0.00677225 0 13.6515
0.0136515 0 1.87554e-09 0 0 0 0 0.00688819 0 16.1108
0.0144264 0 2.21343e-09 0 0 0 0 0.00699249 0 19.0132
0.0152454 0 2.61218e-09 0 0 0 0 0.00708412 0 22.4385
0.0161108 0 3.08278e-09 0 0 0 0 0.00716212 0 26.4808
0.0170254 0 3.63815e-09 0 0 0 0 0.00722559 0 31.2514
0.0179919 0 4.29357e-09 0 0 0 0 0.00727371 0 36.8815
0.0190132 0 5.06707e-09 0 0 0 0 0.00730578 0 43.5258
0.0200925 0 5.97991e-09 0 0 0 0 0.00732122 0 51.367
0.0212331 0 7.05721e-09 0 0 0 0 0.00731958 0 60.621
0.0224385 0 8.32858e-09 0 0 0 0 0.00730056 0 71.542
0.0237123 0 9.829e-09 0 0 0 0 0.00726401 0 84.4305
0.0250583 0 1.15997e-08 0 0 0 0 0.00720995 0 99.6408
0.0264808 0 1.36894e-08 0 0 0 0 0.00713857 0 117.591
0.0279841 0 1.61556e-08 0 0 0 0 0.00705021 0 138.776
0.0295727 0 1.90661e-08 0 0 0 0 0.00694538 0 163.777
0.0312514 0 2.25009e-08 0 0 0 0 0.00682475 0 193.281
0.0330255 0 2.65545e-08 0 0 0 0 0.00668915 0 228.102
0.0349003 0 3.13384e-08 0 0 0 0 0.00653951 0 269.195
0.0368815 0 3.69841e-08 0 0 0 0 0.00637693 0 317.691
0.0389751 0 4.36469e-08 0 0 0 0 0.00620256 0 374.924
0.0411876 0 5.151e-08 0 0 0 0 0.00601767 0 442.467
0.0435258 0 6.07896e-08 0 0 0 0 0.00582358 0 522.179
0.0459966 0 7.1741e-08 0 0 0 0 0.00562166 0 616.251
0.0486077 0 8.46654e-08 0 0 0 0 0.0054133 0 727.27
0.051367 0 9.99181e-08 0 0 0 0 0.00519989 0 858.29
0.054283 0 1.17919e-07 0 0 0 0 0.0049828 0 1012.91
0.0573645 0 1.39162e-07 0 0 0 0 0.00476339 0 1195.39
0.060621 0 1.64232e-07 0 0 0 0 0.00454293 0 1410.75
0.0640622 0 1.93819e-07 0 0 0 0 0.00432265 0 1664.89
0.0676989 0 2.28736e-07 0 0 0 0 0.00410371 0 1964.83
0.071542 0 2.69944e-07 0 0 0 0 0.00388717 0 2318.8
0.0756032 0 3.18575e-07 0 0 0 0 0.00367401 0 2736.54
0.079895 0 3.75967e-07 0 0 0 0 0.0034651 0 3229.53
0.0844305 0 4.43698e-07 0 0 0 0 0.00326121 0 3811.34
0.0892234 0 5.23632e-07 0 0 0 0 0.00306301 0 4497.96
0.0942883 0 6.17966e-07 0 0 0 0 0.00287109 0 5308.28
0.0996408 0 7.29294e-07 0 0 0 0 0.00268591 0 6264.59
0.105297 0 8.60678e-07 0 0 0 0 0.00250785 0 7393.17
0.111275 0 1.01573e-06 0 0 0 0 0.00233721 0 8725.07
0.117591 0 1.19872e-06 0 0 0 0 0.00217419 0 10296.9
0.124267 0 1.41467e-06 0 0 0 0 0.00201893 0 12151.9
0.131321 0 1.66953e-06 0 0 0 0 0.00187147 0 14341.1
0.138776 0 1.9703e-06 0 0 0 0 0.00173182 0 16924.7
0.146654 0 2.32525e-06 0 0 0 0 0.00159991 0 19973.8
0.154979 0 2.74415e-06 0 0 0 0 0.00147563 0 23572.1
0.163777 0 3.23852e-06 0 0 0 0 0.00135884 0 27818.7
0.173074 0 3.82195e-06 0 0 0 0 0.00124933 0 32830.3
0.182899 0 4.51048e-06 0 0 0 0 0.00114689 0 38744.7
0.193281 0 5.32305e-06 0 0 0 0 0.00105127 0 45724.7
0.204254 0 6.28202e-06 0 0 0 0 0.000962209 0 53962.1
0.215848 0 7.41374e-06 0 0 0 0 0.000879423 0 63683.5
0.228102 0 8.74934e-06 0 0 0 0 0.000802624 0 75156.3
0.24105 0 1.03256e-05 0 0 0 0 0.000731515 0 88695.9
0.254734 0 1.21857e-05 0 0 0 0 0.000665798 0 104675
0.269195 0 1.4381e-05 0 0 0 0 0.000605173 0 123532
0.284476 0 1.69718e-05 0 0 0 0 0.000549345 0 145787
0.300625 0 2.00293e-05 0 0 0 0 0.000498021 0 172051
0.317691 0 2.36377e-05 0 0 0 0 0.000450916 0 203046
0.335725 0 2.78961e-05 0 0 0 0 0.000407755 0 239625
0.354784 0 3.29216e-05 0 0 0 0 0.000368269 0 282795
0.374924 0 3.88525e-05 0 0 0 0 0.000332202 0 333741
0.396207 0.722608 4.58519e-05 1.83466e-06 6 0.702518 1.78365e-06 0.000299307 0.0367782 393865
0.418699 0 5.41123e-05 0 0 0 0 0.00026935 0 464821
0.442467 0 6.38607e-05 0 0 0 0 0.000242108 0 548560
0.467585 0 7.53654e-05 0 0 0 0 0.00021737 0 647384
0.494129 0 8.89427e-05 0 0 0 0 0.000194938 0 764012
0.522179 0 0.000104966 0 0 0 0 0.000174625 0 901651
0.551822 0 0.000123876 0 0 0 0 0.000156255 0 1.06409e+06
0.583147 5.96318 0.000146192 4.74857e-06 12 6.27628 4.9979e-06 0.000139664 0.408 1.25578e+06
0.616251 0 0.000172529 0 0 0 0 0.0001247 0 1.48202e+06
0.651234 0 0.000203611 0 0 0 0 0.00011122 0 1.74901e+06
0.688203 22.4225 0.000240292 1.08631e-05 8 21.8647 1.05929e-05 9.90935e-05 0.877001 2.06409e+06
0.72727 0 0.000283581 0 0 0 0 8.81969e-05 0 2.43595e+06
0.768555 0 0.000334669 0 0 0 0 7.84179e-05 0 2.87479e+06
0.812184 0.235092 0.000394961 6.92938e-08 6 0.240119 7.07753e-08 6.96525e-05 0.0059691 3.39269e+06
0.85829 0 0.000466114 0 0 0 0 6.1805e-05 0 4.00389e+06
0.907013 0.353542 0.000550086 7.48204e-08 24 0.360325 7.62561e-08 5.47875e-05 0.0327756 4.7252e+06
0.958501 1.18893 0.000649185 2.13205e-07 24 1.11929 2.00716e-07 4.85194e-05 0.105461 5.57646e+06
1.01291 0 0.000766138 0 0 0 0 4.29272e-05 0 6.58107e+06
1.07041 0 0.00090416 0 0 0 0 3.79435e-05 0 7.76667e+06
1.13118 1.09806 0.00106705 1.19799e-07 12 1.08457 1.18327e-07 3.3507e-05 0.042904 9.16586e+06
1.19539 1.2395 0.00125928 1.14587e-07 30 1.21395 1.12225e-07 2.9562e-05 0.116285 1.08171e+07
1.26325 6.90054 0.00148614 5.40547e-07 24 6.7967 5.32413e-07 2.60578e-05 0.497859 1.27658e+07
1.33496 17.5614 0.00175387 1.16566e-06 24 17.6 1.16822e-06 2.29484e-05 1.21907 1.50656e+07
1.41075 5.8403 0.00206984 3.2848e-07 32 5.99723 3.37306e-07 2.01923e-05 0.520563 1.77798e+07
1.49083 0.781378 0.00244272 3.72389e-08 48 0.76472 3.6445e-08 1.77518e-05 0.100693 2.09828e+07
1.57546 0.140131 0.00288279 5.65891e-09 6 0.133437 5.38856e-09 1.55929e-05 0.0021775 2.4763e+07
1.66489 0.565911 0.00340213 1.93646e-08 84 0.552807 1.89161e-08 1.3685e-05 0.118862 2.92241e+07
1.75941 2.49707 0.00401503 7.24022e-08 48 2.51431 7.2902e-08 1.20007e-05 0.289592 3.44889e+07
1.85928 0.452863 0.00473835 1.11263e-08 72 0.453527 1.11426e-08 1.05151e-05 0.0761849 4.07021e+07
1.96483 0.909912 0.00559198 1.89428e-08 54 0.88908 1.85091e-08 9.20606e-06 0.111113 4.80347e+07
2.07637 8.62669 0.00659939 1.52178e-07 104 8.61766 1.52018e-07 8.05366e-06 1.96513 5.66883e+07
2.19424 0.512592 0.00778828 7.66197e-09 120 0.517946 7.74199e-09 7.04008e-06 0.1306 6.69008e+07
2.3188 2.08317 0.00919136 2.63848e-08 156 1.9898 2.52023e-08 6.1494e-06 0.669338 7.89532e+07
2.45043 1.06115 0.0108472 1.13886e-08 126 1.04839 1.12516e-08 5.36741e-06 0.267346 9.31768e+07
2.58954 0.896996 0.0128014 8.15726e-09 192 0.905456 8.23419e-09 4.68145e-06 0.334553 1.09963e+08
2.73654 4.17753 0.0151076 3.2191e-08 152 4.32917 3.33596e-08 4.08023e-06 1.19921 1.29773e+08
2.89188 3.83964 0.0178292 2.50708e-08 378 3.92505 2.56284e-08 3.55373e-06 2.66671 1.53152e+08
3.05605 1.49999 0.0210412 8.29902e-09 264 1.47332 8.15148e-09 3.09304e-06 0.708346 1.80743e+08
3.22953 0.455484 0.0248319 2.13538e-09 366 0.451801 2.11811e-09 2.69025e-06 0.290511 2.13304e+08
3.41286 1.00839 0.0293054 4.00581e-09 428 0.97446 3.87103e-09 2.33837e-06 0.733196 2.51731e+08
3.6066 3.50775 0.0345848 1.18074e-08 486 3.39877 1.14405e-08 2.0312e-06 2.82511 2.97081e+08
3.81134 1.07762 0.0408154 3.07364e-09 600 1.07423 3.06395e-09 1.76327e-06 1.04589 3.50601e+08
4.0277 0.958736 0.0481684 2.31711e-09 738 0.944318 2.28227e-09 1.52972e-06 1.11787 4.13763e+08
4.25634 1.51978 0.056846 3.11238e-09 824 1.56232 3.19949e-09 1.32631e-06 1.93364 4.88304e+08
4.49796 3.0177 0.067087 5.23657e-09 954 3.02914 5.25643e-09 1.14926e-06 4.34689 5.76273e+08
4.7533 0.983466 0.0791729 1.44608e-09 1094 0.971906 1.42908e-09 9.95263e-07 1.58954 6.8009e+08
5.02313 0.82088 0.0934361 1.02276e-09 1332 0.821835 1.02395e-09 8.61414e-07 1.58149 8.0261e+08
5.30828 2.71076 0.110269 2.86186e-09 1614 2.73621 2.88873e-09 7.45152e-07 6.1988 9.47202e+08
5.60962 1.63495 0.130134 1.4626e-09 1850 1.59863 1.4301e-09 6.44232e-07 4.20004 1.11784e+09
5.92807 2.06262 0.153578 1.56351e-09 2238 2.00382 1.51893e-09 5.56685e-07 6.28564 1.31923e+09
6.26459 1.28766 0.181246 8.27075e-10 2546 1.30065 8.35418e-10 4.80786e-07 4.37977 1.55689e+09
6.62021 1.03306 0.213898 5.6225e-10 3264 1.03359 5.62537e-10 4.15026e-07 4.42186 1.83737e+09
6.99602 2.16139 0.252432 9.96781e-10 3506 2.20255 1.01576e-09 3.58083e-07 9.75952 2.16837e+09
7.39317 1.51087 0.297908 5.90412e-10 4506 1.51953 5.93795e-10 3.08803e-07 8.61517 2.55901e+09
7.81286 2.08651 0.351577 6.90892e-10 5018 2.12053 7.02156e-10 2.66181e-07 13.0246 3.02002e+09
8.25637 2.08976 0.414914 5.86338e-10 5852 2.05266 5.75929e-10 2.29336e-07 14.9617 3.56409e+09
8.72507 1.87996 0.489662 4.46954e-10 7362 1.8724 4.45157e-10 1.97503e-07 16.6604 4.20617e+09
9.22037 2.29151 0.577876 4.61633e-10 8306 2.27374 4.58053e-10 1.70014e-07 22.553 4.96392e+09
9.74378 1.84793 0.681982 3.15443e-10 9698 1.84643 3.15188e-10 1.46289e-07 20.9118 5.85818e+09
10.2969 2.56994 0.804843 3.71726e-10 11816 2.58255 3.73549e-10 1.25822e-07 34.9088 6.91355e+09
10.8814 2.5599 0.949838 3.1375e-10 13682 2.55694 3.13387e-10 1.08175e-07 39.683 8.15905e+09
11.4992 2.766 1.12095 2.8726e-10 16152 2.75114 2.85717e-10 9.29669e-08 49.9084 9.62892e+09
12.1519 2.89438 1.3229 2.54706e-10 19472 2.87477 2.52981e-10 7.98658e-08 62.0997 1.13636e+10
12.8418 2.80941 1.56122 2.09489e-10 22670 2.80514 2.0917e-10 6.85852e-08 69.2441 1.34108e+10
13.5708 3.41554 1.84248 2.15808e-10 26224 3.41847 2.15993e-10 5.88765e-08 96.1222 1.58268e+10
14.3411 3.64614 2.17441 1.9521e-10 31640 3.6499 1.95411e-10 5.05241e-08 122.248 1.8678e+10
15.1552 4.00421 2.56613 1.81655e-10 37484 3.99863 1.81402e-10 4.33417e-08 157.104 2.20429e+10
16.0156 4.37302 3.02843 1.68103e-10 43856 4.37264 1.68088e-10 3.71677e-08 198.352 2.6014e+10
16.9247 5.2791 3.574 1.71955e-10 51362 5.26986 1.71654e-10 3.18628e-08 277.187 3.07005e+10
17.8855 5.66103 4.21787 1.56247e-10 61636 5.64113 1.55698e-10 2.73063e-08 352.683 3.62312e+10
18.9008 6.4257 4.97773 1.50279e-10 72218 6.40667 1.49834e-10 2.33941e-08 463.914 4.27584e+10
19.9738 7.32798 5.87448 1.45219e-10 84586 7.3044 1.44752e-10 2.00364e-08 613.061 5.04614e+10
21.1076 8.18983 6.93279 1.37524e-10 100708 8.17043 1.37198e-10 1.71555e-08 807.304 5.95522e+10
22.3058 9.41105 8.18175 1.33907e-10 118712 9.3883 1.33583e-10 1.46847e-08 1082.51 7.02807e+10
23.5721 10.5656 9.65571 1.27385e-10 140410 10.5373 1.27045e-10 1.25662e-08 1423.36 8.29419e+10
24.9102 11.912 11.3952 1.21695e-10 164374 11.8804 1.21372e-10 1.07504e-08 1860.72 9.78842e+10
26.3243 13.3268 13.4481 1.15365e-10 194680 13.2883 1.15032e-10 9.19452e-09 2442.69 1.15518e+11
27.8187 14.9613 15.8708 1.09744e-10 230196 14.9204 1.09444e-10 7.86182e-09 3213.32 1.36329e+11
29.3979 16.7639 18.73 1.04195e-10 271156 16.7173 1.03905e-10 6.72061e-09 4203.96 1.60889e+11
31.0667 18.8829 22.1042 9.94496e-11 321076 18.8298 9.91698e-11 5.74366e-09 5559.33 1.89874e+11
32.8303 21.1775 26.0864 9.45086e-11 377436 21.1231 9.4266e-11 4.90756e-09 7268.57 2.2408e+11
34.694 23.8969 30.7859 9.0365e-11 447594 23.8319 9.01191e-11 4.19221e-09 9648.1 2.64449e+11
36.6634 27.1963 36.3321 8.71425e-11 525078 27.1186 8.68935e-11 3.58032e-09 12780 3.1209e+11
38.7447 30.9667 42.8774 8.4077e-11 621924 30.8818 8.38466e-11 3.05709e-09 17104.4 3.68314e+11
40.9442 35.1008 50.6018 8.07533e-11 732630 35.0005 8.05226e-11 2.60976e-09 22669.6 4.34667e+11
43.2685 40.1203 59.7179 7.82114e-11 865596 40.0054 7.79873e-11 2.22743e-09 30393.5 5.12973e+11
45.7247 45.9094 70.4762 7.58349e-11 1.02168e+06 45.774 7.56113e-11 1.90073e-09 40762.6 6.05386e+11
48.3204 52.6644 83.1727 7.37134e-11 1.20544e+06 52.5065 7.34923e-11 1.62163e-09 54794.7 7.14448e+11
51.0634 60.7829 98.1565 7.20896e-11 1.42103e+06 60.602 7.1875e-11 1.38326e-09 74058.2 8.43158e+11
53.9621 69.8888 115.84 7.02361e-11 1.67997e+06 69.6901 7.00364e-11 1.1797e-09 100020 9.95055e+11
57.0254 80.4954 136.709 6.85466e-11 1.98018e+06 80.2576 6.8344e-11 1.00592e-09 134936 1.17432e+12
60.2626 93.5585 161.337 6.75087e-11 2.33957e+06 93.2798 6.73076e-11 8.57591e-10 184168 1.38587e+12
63.6835 108.426 190.402 6.62939e-11 2.75676e+06 108.086 6.60858e-11 7.3101e-10 250006 1.63554e+12
67.2987 126.063 224.704 6.5311e-11 3.25638e+06 125.67 6.51078e-11 6.23009e-10 341371 1.93019e+12
71.1191 147.104 265.185 6.45784e-11 3.84387e+06 146.643 6.43759e-11 5.30879e-10 467585 2.27792e+12
75.1563 171.634 312.958 6.3845e-11 4.53277e+06 171.077 6.3638e-11 4.52303e-10 639824 2.68829e+12
79.4227 200.547 369.339 6.32122e-11 5.35083e+06 199.926 6.30164e-11 3.85299e-10 877857 3.17259e+12
83.9313 234.778 435.876 6.27052e-11 6.32174e+06 234.03 6.25057e-11 3.28173e-10 1.20792e+06 3.74415e+12
88.6959 275.359 514.4 6.23172e-11 7.44986e+06 274.464 6.21147e-11 2.79476e-10 1.66116e+06 4.41866e+12
93.7309 323.24 607.071 6.19863e-11 8.79764e+06 322.21 6.17888e-11 2.37972e-10 2.29158e+06 5.2147e+12
99.0518 379.824 716.436 6.17184e-11 1.03827e+07 378.596 6.15188e-11 2.02605e-10 3.16282e+06 6.15414e+12
104.675 463.177 845.504 6.37736e-11 1.22515e+07 462.56 6.36886e-11 1.72471e-10 4.53018e+06 7.26283e+12
110.617 525.512 997.824 6.13111e-11 1.44573e+07 523.815 6.1113e-11 1.468e-10 6.0381e+06 8.57124e+12
116.896 618.525 1177.58 6.1147e-11 1.70664e+07 616.529 6.09497e-11 1.24935e-10 8.35283e+06 1.01154e+13
123.532 729.019 1389.73 6.10687e-11 2.0139e+07 726.622 6.08679e-11 1.06313e-10 1.15683e+07 1.19377e+13
130.545 864.803 1640.09 6.13845e-11 2.37643e+07 862.193 6.11993e-11 9.04567e-11 1.61266e+07 1.40883e+13
137.955 1012.45 1935.56 6.08943e-11 2.80503e+07 1009.1 6.06929e-11 7.69563e-11 2.21958e+07 1.66263e+13
145.787 1194 2284.26 6.08514e-11 3.30981e+07 1190.04 6.06496e-11 6.54636e-11 3.07662e+07 1.96216e+13
154.063 1409.26 2695.77 6.08582e-11 3.90634e+07 1404.59 6.06563e-11 5.56812e-11 4.26954e+07 2.31565e+13
162.808 1661.9 3181.42 6.08126e-11 4.61057e+07 1656.37 6.06103e-11 4.73556e-11 5.92075e+07 2.73282e+13
172.051 1961.58 3754.56 6.08215e-11 5.44046e+07 1954.99 6.0617e-11 4.02708e-11 8.2168e+07 3.22515e+13
181.818 2317.99 4430.96 6.09009e-11 6.42064e+07 2310.24 6.06974e-11 3.42426e-11 1.14192e+08 3.80616e+13
192.139 2739.45 5229.21 6.09871e-11 7.57748e+07 2730.27 6.07827e-11 2.91139e-11 1.58731e+08 4.49186e+13
203.046 3238.78 6171.26 6.10967e-11 8.94213e+07 3227.87 6.08908e-11 2.4751e-11 2.20732e+08 5.30108e+13
214.572 3834.38 7283.03 6.12904e-11 1.05538e+08 3821.41 6.10831e-11 2.10401e-11 3.07437e+08 6.25608e+13
226.753 4543.65 8595.09 6.1541e-11 1.24552e+08 4528.12 6.13306e-11 1.78839e-11 4.28599e+08 7.38313e+13
239.625 5385.83 10143.5 6.18121e-11 1.46987e+08 5367.44 6.16011e-11 1.51999e-11 5.9774e+08 8.71322e+13
253.228 6400.71 11970.9 6.2246e-11 1.7347e+08 6378.55 6.20305e-11 1.29176e-11 8.35898e+08 1.02829e+14
267.603 7616.93 14127.5 6.27661e-11 2.04703e+08 7590.49 6.25482e-11 1.09771e-11 1.17047e+09 1.21354e+14
282.795 9095.65 16672.6 6.35098e-11 2.4161e+08 9063.62 6.32861e-11 9.3274e-12 1.64511e+09 1.43217e+14
298.848 10902.3 19676.2 6.45042e-11 2.85122e+08 10863.2 6.42724e-11 7.925e-12 2.3207e+09 1.69017e+14
315.813 13141.1 23220.9 6.58814e-11 3.36491e+08 13092.9 6.56398e-11 6.73295e-12 3.29254e+09 1.99466e+14
333.741 15956 27404.3 6.77822e-11 3.97115e+08 15895.3 6.75245e-11 5.71979e-12 4.706e+09 2.35401e+14
352.686 19587.2 32341.2 7.0506e-11 4.68637e+08 19509.4 7.02258e-11 4.85874e-12 6.80047e+09 2.77809e+14
372.707 24404.7 38167.6 7.44371e-11 5.53074e+08 24302 7.41237e-11 4.12703e-12 9.97551e+09 3.27857e+14
393.865 31055.1 45043.5 8.0262e-11 6.52716e+08 30914.1 7.98977e-11 3.50528e-12 1.49455e+10 3.86921e+14
416.224 36648.5 53158.3 8.02593e-11 2.2184e+08 38770.7 8.4907e-11 2.97701e-12 5.98073e+09 4.56626e+14
439.852 0 62734.9 0 0 0 0 2.52819e-12 0 5.38888e+14
464.821 0 74036.7 0 0 0 0 2.1469e-12 0 6.35971e+14
491.207 0 87374.6 0 0 0 0 1.82301e-12 0 7.50542e+14
519.092 0 103115 0 0 0 0 1.54789e-12 0 8.85755e+14
548.56 0 121692 0 0 0 0 1.31422e-12 0 1.04533e+15
579.7 0 143615 0 0 0 0 1.11576e-12 0 1.23364e+15
612.608 0 169488 0 0 0 0 9.47223e-13 0 1.45589e+15
647.384 0 200021 0 0 0 0 8.041e-13 0 1.71817e+15
684.134 0 236056 0 0 0 0 6.82568e-13 0 2.0277e+15
722.971 0 278582 0 0 0 0 5.79376e-13 0 2.393e+15
764.012 0 328769 0 0 0 0 4.91762e-13 0 2.8241e+15
0.169885
200
1.23897e+09
8589934592
0.0129181 7.30464e-05 1.58924e-09 5.35082e-06 6 7.23777e-05 5.30183e-06 0.00677225 0.00474065 13.6515
0.0136515 0 1.87554e-09 0 0 0 0 0.00688819 0 16.1108
0.0144264 0 2.21343e-09 0 0 0 0 0.00699249 0 19.0132
0.0152454 0 2.61218e-09 0 0 0 0 0.00708412 0 22.4385
0.0161108 0 3.08278e-09 0 0 0 0 0.00716212 0 26.4808
0.0170254 0 3.63815e-09 0 0 0 0 0.00722559 0 31.2514
0.0179919 0.000166074 4.29357e-09 4.50292e-06 12 0.00016586 4.49712e-06 0.00727371 0.00742882 36.8815
0.0190132 0 5.06707e-09 0 0 0 0 0.00730578 0 43.5258
0.0200925 0 5.97991e-09 0 0 0 0 0.00732122 0 51.367
0.0212331 0.000159964 7.05721e-09 2.63875e-06 8 0.000159824 2.63646e-06 0.00731958 0.00288405 60.621
0.0224385 0 8.32858e-09 0 0 0 0 0.00730056 0 71.542
0.0237123 0 9.829e-09 0 0 0 0 0.00726401 0 84.4305
0.0250583 0.00104509 1.15997e-08 1.04886e-05 6 0.0010446 1.04836e-05 0.00720995 0.00872841 99.6408
0.0264808 0 1.36894e-08 0 0 0 0 0.00713857 0 117.591
0.0279841 0.000657559 1.61556e-08 4.73828e-06 24 0.000656884 4.73342e-06 0.00705021 0.0161298 138.776
0.0295727 0 1.90661e-08 0 0 0 0 0.00694538 0 163.777
0.0312514 0.00118686 2.25009e-08 6.14058e-06 24 0.00119289 6.17176e-06 0.00682475 0.021594 193.281
0.0330255 0 2.65545e-08 0 0 0 0 0.00668915 0 228.102
0.0349003 0.00168657 3.13384e-08 6.26523e-06 12 0.00167306 6.21506e-06 0.00653951 0.0114967 269.195
0.0368815 0.00145984 3.69841e-08 4.59515e-06 30 0.00144429 4.54622e-06 0.00637693 0.0216177 317.691
0.0389751 0.00174039 4.36469e-08 4.64198e-06 24 0.00172248 4.59422e-06 0.00620256 0.0179615 374.924
0.0411876 0.00110293 5.151e-08 2.49268e-06 24 0.00109544 2.47575e-06 0.00601767 0.00994144 442.467
0.0435258 0.00238723 6.07896e-08 4.57167e-06 8 0.00238705 4.57132e-06 0.00582358 0.00628022 522.179
0.0459966 0.00304039 7.1741e-08 4.93368e-06 72 0.00301637 4.89472e-06 0.00562166 0.0631887 616.251
0.0486077 0 8.46654e-08 0 0 0 0 0.0054133 0 727.27
0.051367 0.00449541 9.99181e-08 5.23763e-06 54 0.00448118 5.22106e-06 0.00519989 0.0543919 858.29
0.054283 0.00348479 1.17919e-07 3.44036e-06 60 0.00349938 3.45477e-06 0.0049828 0.0414268 1012.91
0.0573645 0.0034442 1.39162e-07 2.88123e-06 96 0.0034354 2.87387e-06 0.00476339 0.0580676 1195.39
0.060621 0.00397354 1.64232e-07 2.81663e-06 24 0.00391971 2.77847e-06 0.00454293 0.0148801 1410.75
0.0640622 0.00701556 1.93819e-07 4.21381e-06 134 0.00701931 4.21607e-06 0.00432265 0.130626 1664.89
0.0676989 0.00678205 2.28736e-07 3.45173e-06 120 0.00675089 3.43586e-06 0.00410371 0.100935 1964.83
0.071542 0.00628252 2.69944e-07 2.70938e-06 108 0.0062143 2.67997e-06 0.00388717 0.0752766 2318.8
0.0756032 0.00926655 3.18575e-07 3.38623e-06 174 0.00921736 3.36826e-06 0.00367401 0.160371 2736.54
0.079895 0.0101022 3.75967e-07 3.12808e-06 168 0.0100066 3.09848e-06 0.0034651 0.15166 3229.53
0.0844305 0.00875312 4.43698e-07 2.2966e-06 168 0.00879643 2.30796e-06 0.00326121 0.118308 3811.34
0.0892234 0.0100199 5.23632e-07 2.22765e-06 290 0.00997733 2.21819e-06 0.00306301 0.210909 4497.96
0.0942883 0.0130672 6.17966e-07 2.46166e-06 288 0.0130342 2.45544e-06 0.00287109 0.24693 5308.28
0.0996408 0.0118 7.29294e-07 1.88361e-06 366 0.0117013 1.86786e-06 0.00268591 0.256673 6264.59
0.105297 0.0125912 8.60678e-07 1.70309e-06 420 0.0125061 1.69158e-06 0.00250785 0.285223 7393.17
0.111275 0.013036 1.01573e-06 1.49409e-06 398 0.0130016 1.49015e-06 0.00233721 0.254425 8725.07
0.117591 0.0152177 1.19872e-06 1.47789e-06 624 0.0152502 1.48105e-06 0.00217419 0.424159 10296.9
0.124267 0.0167575 1.41467e-06 1.379e-06 642 0.0167355 1.37719e-06 0.00201893 0.43851 12151.9
0.131321 0.0215469 1.66953e-06 1.50245e-06 800 0.0215512 1.50275e-06 0.00187147 0.642257 14341.1
0.138776 0.0200711 1.9703e-06 1.18591e-06 858 0.020164 1.19139e-06 0.00173182 0.587538 16924.7
0.146654 0.0224733 2.32525e-06 1.12514e-06 1080 0.0226569 1.13433e-06 0.00159991 0.759514 19973.8
0.154979 0.0272192 2.74415e-06 1.15472e-06 1286 0.0274058 1.16264e-06 0.00147563 1.00633 23572.1
0.163777 0.0255388 3.23852e-06 9.18047e-07 1650 0.02559 9.19888e-07 0.00135884 1.11476 27818.7
0.173074 0.0290611 3.82195e-06 8.85192e-07 1778 0.0290721 8.85528e-07 0.00124933 1.25977 32830.3
0.182899 0.0275304 4.51048e-06 7.10558e-07 2112 0.0276005 7.12368e-07 0.00114689 1.30849 38744.7
0.193281 0.0323365 5.32305e-06 7.07199e-07 2570 0.0323787 7.08123e-07 0.00105127 1.72886 45724.7
0.204254 0.0373416 6.28202e-06 6.91997e-07 3030 0.037313 6.91467e-07 0.000962209 2.1791 53962.1
0.215848 0.0384955 7.41374e-06 6.04481e-07 3434 0.0384818 6.04266e-07 0.000879423 2.3604 63683.5
0.228102 0.0402679 8.74934e-06 5.35789e-07 4218 0.040285 5.36016e-07 0.000802624 2.81571 75156.3
0.24105 0.0440275 1.03256e-05 4.96387e-07 4766 0.0440815 4.96995e-07 0.000731515 3.23408 88695.9
0.254734 0.0462605 1.21857e-05 4.41946e-07 6026 0.0462462 4.41809e-07 0.000665798 3.99996 104675
0.269195 0.0495422 1.4381e-05 4.01047e-07 6480 0.0495042 4.00739e-07 0.000605173 4.29428 123532
0.284476 0.0552965 1.69718e-05 3.79297e-07 8162 0.0554173 3.80125e-07 0.000549345 5.63549 145787
0.300625 0.0553398 2.00293e-05 3.21648e-07 9578 0.0554202 3.22116e-07 0.000498021 6.18598 172051
0.317691 0.0604367 2.36377e-05 2.9765e-07 11234 0.0603941 2.97441e-07 0.000450916 7.41557 203046
0.335725 0.0638587 2.78961e-05 2.66494e-07 13344 0.0638148 2.66311e-07 0.000407755 8.72115 239625
0.354784 0.0674848 3.29216e-05 2.38636e-07 15464 0.0674415 2.38482e-07 0.000368269 10.0206 282795
0.374924 0.0719616 3.88525e-05 2.15621e-07 18458 0.0719615 2.15621e-07 0.000332202 11.9805 333741
0.396207 0.0753659 4.58519e-05 1.91349e-07 22232 0.075253 1.91063e-07 0.000299307 14.2131 393865
0.418699 0.0824639 5.41123e-05 1.7741e-07 25628 0.0822837 1.77022e-07 0.00026935 16.8802 464821
0.442467 0.0862351 6.38607e-05 1.57203e-07 30320 0.0860844 1.56928e-07 0.000242108 19.687 548560
0.467585 0.0903115 7.53654e-05 1.39502e-07 35452 0.0901769 1.39294e-07 0.00021737 22.7521 647384
0.494129 0.0945874 8.89427e-05 1.23804e-07 41792 0.0945483 1.23752e-07 0.000194938 26.5417 764012
0.522179 0.102233 0.000104966 1.13384e-07 49988 0.102202 1.1335e-07 0.000174625 32.4573 901651
0.551822 0.107416 0.000123876 1.00946e-07 59110 0.107341 1.00876e-07 0.000156255 38.1873 1.06409e+06
0.583147 0.114068 0.000146192 9.0834e-08 69716 0.113925 9.07199e-08 0.000139664 45.3415 1.25578e+06
0.616251 0.120749 0.000172529 8.1476e-08 82210 0.120553 8.13438e-08 0.0001247 53.7141 1.48202e+06
0.651234 0.128349 0.000203611 7.33839e-08 96722 0.128106 7.32453e-08 0.00011122 63.8178 1.74901e+06
0.688203 0.135608 0.000240292 6.56987e-08 113098 0.135475 6.56342e-08 9.90935e-05 74.9836 2.06409e+06
0.72727 0.142027 0.000283581 5.83046e-08 135190 0.141876 5.82426e-08 8.81969e-05 89.3705 2.43595e+06
0.768555 0.151394 0.000334669 5.26627e-08 158170 0.151252 5.26133e-08 7.84179e-05 106.221 2.87479e+06
0.812184 0.159323 0.000394961 4.69606e-08 188560 0.159158 4.69121e-08 6.96525e-05 127.129 3.39269e+06
0.85829 0.16789 0.000466114 4.19318e-08 220444 0.167689 4.18816e-08 6.1805e-05 149.561 4.00389e+06
0.907013 0.177384 0.000550086 3.75399e-08 261388 0.177195 3.75e-08 5.47875e-05 179.101 4.7252e+06
0.958501 0.187592 0.000649185 3.364e-08 308244 0.187386 3.3603e-08 4.85194e-05 213.715 5.57646e+06
1.01291 0.19929 0.000766138 3.02823e-08 364396 0.199059 3.02472e-08 4.29272e-05 257.057 6.58107e+06
1.07041 0.209701 0.00090416 2.70001e-08 429162 0.209425 2.69646e-08 3.79435e-05 305.387 7.76667e+06
1.13118 0.222761 0.00106705 2.43034e-08 506358 0.222486 2.42733e-08 3.3507e-05 367.273 9.16586e+06
1.19539 0.23492 0.00125928 2.17174e-08 598590 0.234602 2.1688e-08 2.9562e-05 439.748 1.08171e+07
1.26325 0.248653 0.00148614 1.9478e-08 704844 0.248317 1.94517e-08 2.60578e-05 526.865 1.27658e+07
1.33496 0.26233 0.00175387 1.74125e-08 834620 0.261964 1.73881e-08 2.29484e-05 633.28 1.50656e+07
1.41075 0.277568 0.00206984 1.56114e-08 981444 0.277206 1.55911e-08 2.01923e-05 758.792 1.77798e+07
1.49083 0.293852 0.00244272 1.40044e-08 1.15998e+06 0.293455 1.39855e-08 1.77518e-05 915.108 2.09828e+07
1.57546 0.31229 0.00288279 1.26112e-08 1.36931e+06 0.311846 1.25932e-08 1.55929e-05 1107.47 2.4763e+07
1.66489 0.330614 0.00340213 1.13131e-08 1.61652e+06 0.330109 1.12958e-08 1.3685e-05 1336.33 2.92241e+07
1.75941 0.350362 0.00401503 1.01587e-08 1.90601e+06 0.34984 1.01436e-08 1.20007e-05 1613.45 3.44889e+07
1.85928 0.372318 0.00473835 9.14739e-09 2.24913e+06 0.371786 9.13433e-09 1.05151e-05 1956.58 4.07021e+07
1.96483 0.394373 0.00559198 8.21017e-09 2.65744e+06 0.393753 8.19727e-09 9.20606e-06 2369.96 4.80347e+07
2.07637 0.419581 0.00659939 7.40154e-09 3.13125e+06 0.418946 7.39034e-09 8.05366e-06 2877.71 5.66883e+07
2.19424 0.446058 0.00778828 6.66745e-09 3.69915e+06 0.445399 6.6576e-09 7.04008e-06 3503.35 6.69008e+07
2.3188 0.474505 0.00919136 6.00996e-09 4.36472e+06 0.473771 6.00066e-09 6.1494e-06 4265.75 7.89532e+07
2.45043 0.505659 0.0108472 5.42687e-09 5.14913e+06 0.504862 5.41832e-09 5.36741e-06 5206.17 9.31768e+07
2.58954 0.540086 0.0128014 4.91153e-09 6.07894e+06 0.539216 4.90362e-09 4.68145e-06 6377.69 1.09963e+08
2.73654 0.575679 0.0151076 4.43605e-09 7.17304e+06 0.574763 4.42898e-09 4.08023e-06 7798.56 1.29773e+08
2.89188 0.615522 0.0178292 4.01903e-09 8.46557e+06 0.614534 4.01258e-09 3.55373e-06 9573.98 1.53152e+08
3.05605 0.658636 0.0210412 3.64405e-09 9.98773e+06 0.657605 3.63835e-09 3.09304e-06 11767 1.80743e+08
3.22953 0.704952 0.0248319 3.30492e-09 1.1797e+07 0.70378 3.29942e-09 2.69025e-06 14492.4 2.13304e+08
3.41286 0.756092 0.0293054 3.00357e-09 1.39144e+07 0.754804 2.99845e-09 2.33837e-06 17872.6 2.51731e+08
3.6066 0.811506 0.0345848 2.73159e-09 1.64163e+07 0.81014 2.727e-09 2.0312e-06 22076.9 2.97081e+08
3.81134 0.872169 0.0408154 2.48764e-09 1.93821e+07 0.870676 2.48338e-09 1.76327e-06 27344.6 3.50601e+08
4.0277 0.93848 0.0481684 2.26816e-09 2.28754e+07 0.936855 2.26423e-09 1.52972e-06 33917.9 4.13763e+08
4.25634 1.0107 0.056846 2.06982e-09 2.69929e+07 1.00891 2.06616e-09 1.32631e-06 42124.9 4.88304e+08
4.49796 1.09092 0.067087 1.89306e-09 3.18542e+07 1.08895 1.88964e-09 1.14926e-06 52470.4 5.76273e+08
4.7533 1.17808 0.0791729 1.73224e-09 3.75892e+07 1.17593 1.72908e-09 9.95263e-07 65423.3 6.8009e+08
5.02313 1.27357 0.0934361 1.58679e-09 4.43706e+07 1.27125 1.5839e-09 8.61414e-07 81733.8 8.0261e+08
5.30828 1.37835 0.110269 1.45518e-09 5.23593e+07 1.37579 1.45248e-09 7.45152e-07 102251 9.47202e+08
5.60962 1.49391 0.130134 1.33642e-09 6.1787e+07 1.49109 1.3339e-09 6.44232e-07 128174 1.11784e+09
5.92807 1.62058 0.153578 1.22843e-09 7.29346e+07 1.61747 1.22608e-09 5.56685e-07 160944 1.31923e+09
6.26459 1.76051 0.181246 1.13079e-09 8.60651e+07 1.75707 1.12858e-09 4.80786e-07 202422 1.55689e+09
6.62021 1.91549 0.213898 1.04252e-09 1.01558e+08 1.91171 1.04046e-09 4.15026e-07 255108 1.83737e+09
6.99602 2.08594 0.252432 9.61984e-10 1.1986e+08 2.0818 9.60077e-10 3.58083e-07 322002 2.16837e+09
7.39317 2.27554 0.297908 8.89227e-10 1.41457e+08 2.27095 8.87432e-10 3.08803e-07 407337 2.55901e+09
7.81286 2.48576 0.351577 8.23092e-10 1.66936e+08 2.48066 8.21403e-10 2.66181e-07 516204 3.02002e+09
8.25637 2.72109 0.414914 7.63475e-10 1.97025e+08 2.71543 7.61888e-10 2.29336e-07 655909 3.56409e+09
8.72507 2.98485 0.489662 7.09637e-10 2.32497e+08 2.97852 7.08132e-10 1.97503e-07 835372 4.20617e+09
9.22037 3.28415 0.577876 6.61605e-10 2.74404e+08 3.27703 6.6017e-10 1.70014e-07 1.06784e+06 4.96392e+09
9.74378 3.62812 0.681982 6.19324e-10 3.2382e+08 3.62002 6.17943e-10 1.46289e-07 1.37091e+06 5.85818e+09
10.2969 4.02966 0.804843 5.82864e-10 3.82165e+08 4.02029 5.81509e-10 1.25822e-07 1.77035e+06 6.91355e+09
10.8814 4.51877 0.949838 5.53835e-10 4.51027e+08 4.50755 5.5246e-10 1.08175e-07 2.30916e+06 8.15905e+09
11.4992 5.1396 1.12095 5.33768e-10 5.32251e+08 5.12562 5.32315e-10 9.29669e-08 3.05591e+06 9.62892e+09
12.1519 5.98484 1.3229 5.26667e-10 6.28157e+08 5.96636 5.25042e-10 7.98658e-08 4.14233e+06 1.13636e+10
12.8418 6.88248 1.56122 5.13205e-10 3.82727e+08 7.1225 5.31103e-10 6.85852e-08 2.86384e+06 1.34108e+10
13.5708 0 1.84248 0 0 0 0 5.88765e-08 0 1.58268e+10
14.3411 0 2.17441 0 0 0 0 5.05241e-08 0 1.8678e+10
15.1552 0 2.56613 0 0 0 0 4.33417e-08 0 2.20429e+10
16.0156 0 3.02843 0 0 0 0 3.71677e-08 0 2.6014e+10
16.9247 0 3.574 0 0 0 0 3.18628e-08 0 3.07005e+10
17.8855 0 4.21787 0 0 0 0 2.73063e-08 0 3.62312e+10
18.9008 0 4.97773 0 0 0 0 2.33941e-08 0 4.27584e+10
19.9738 0 5.87448 0 0 0 0 2.00364e-08 0 5.04614e+10
21.1076 0 6.93279 0 0 0 0 1.71555e-08 0 5.95522e+10
22.3058 0 8.18175 0 0 0 0 1.46847e-08 0 7.02807e+10
23.5721 0 9.65571 0 0 0 0 1.25662e-08 0 8.29419e+10
24.9102 0 11.3952 0 0 0 0 1.07504e-08 0 9.78842e+10
26.3243 0 13.4481 0 0 0 0 9.19452e-09 0 1.15518e+11
27.8187 0 15.8708 0 0 0 0 7.86182e-09 0 1.36329e+11
29.3979 0 18.73 0 0 0 0 6.72061e-09 0 1.60889e+11
31.0667 0 22.1042 0 0 0 0 5.74366e-09 0 1.89874e+11
32.8303 0 26.0864 0 0 0 0 4.90756e-09 0 2.2408e+11
34.694 0 30.7859 0 0 0 0 4.19221e-09 0 2.64449e+11
36.6634 0 36.3321 0 0 0 0 3.58032e-09 0 3.1209e+11
38.7447 0 42.8774 0 0 0 0 3.05709e-09 0 3.68314e+11
40.9442 0 50.6018 0 0 0 0 2.60976e-09 0 4.34667e+11
43.2685 0 59.7179 0 0 0 0 2.22743e-09 0 5.12973e+11
45.7247 0 70.4762 0 0 0 0 1.90073e-09 0 6.05386e+11
48.3204 0 83.1727 0 0 0 0 1.62163e-09 0 7.14448e+11
51.0634 0 98.1565 0 0 0 0 1.38326e-09 0 8.43158e+11
53.9621 0 115.84 0 0 0 0 1.1797e-09 0 9.95055e+11
57.0254 0 136.709 0 0 0 0 1.00592e-09 0 1.17432e+12
60.2626 0 161.337 0 0 0 0 8.57591e-10 0 1.38587e+12
63.6835 0 190.402 0 0 0 0 7.3101e-10 0 1.63554e+12
67.2987 0 224.704 0 0 0 0 6.23009e-10 0 1.93019e+12
71.1191 0 265.185 0 0 0 0 5.30879e-10 0 2.27792e+12
75.1563 0 312.958 0 0 0 0 4.52303e-10 0 2.68829e+12
79.4227 0 369.339 0 0 0 0 3.85299e-10 0 3.17259e+12
83.9313 0 435.876 0 0 0 0 3.28173e-10 0 3.74415e+12
88.6959 0 514.4 0 0 0 0 2.79476e-10 0 4.41866e+12
93.7309 0 607.071 0 0 0 0 2.37972e-10 0 5.2147e+12
99.0518 0 716.436 0 0 0 0 2.02605e-10 0 6.15414e+12
104.675 0 845.504 0 0 0 0 1.72471e-10 0 7.26283e+12
110.617 0 997.824 0 0 0 0 1.468e-10 0 8.57124e+12
116.896 0 1177.58 0 0 0 0 1.24935e-10 0 1.01154e+13
123.532 0 1389.73 0 0 0 0 1.06313e-10 0 1.19377e+13
130.545 0 1640.09 0 0 0 0 9.04567e-11 0 1.40883e+13
137.955 0 1935.56 0 0 0 0 7.69563e-11 0 1.66263e+13
145.787 0 2284.26 0 0 0 0 6.54636e-11 0 1.96216e+13
154.063 0 2695.77 0 0 0 0 5.56812e-11 0 2.31565e+13
162.808 0 3181.42 0 0 0 0 4.73556e-11 0 2.73282e+13
172.051 0 3754.56 0 0 0 0 4.02708e-11 0 3.22515e+13
181.818 0 4430.96 0 0 0 0 3.42426e-11 0 3.80616e+13
192.139 0 5229.21 0 0 0 0 2.91139e-11 0 4.49186e+13
203.046 0 6171.26 0 0 0 0 2.4751e-11 0 5.30108e+13
214.572 0 7283.03 0 0 0 0 2.10401e-11 0 6.25608e+13
226.753 0 8595.09 0 0 0 0 1.78839e-11 0 7.38313e+13
239.625 0 10143.5 0 0 0 0 1.51999e-11 0 8.71322e+13
253.228 0 11970.9 0 0 0 0 1.29176e-11 0 1.02829e+14
267.603 0 14127.5 0 0 0 0 1.09771e-11 0 1.21354e+14
282.795 0 16672.6 0 0 0 0 9.3274e-12 0 1.43217e+14
298.848 0 19676.2 0 0 0 0 7.925e-12 0 1.69017e+14
315.813 0 23220.9 0 0 0 0 6.73295e-12 0 1.99466e+14
333.741 0 27404.3 0 0 0 0 5.71979e-12 0 2.35401e+14
352.686 0 32341.2 0 0 0 0 4.85874e-12 0 2.77809e+14
372.707 0 38167.6 0 0 0 0 4.12703e-12 0 3.27857e+14
393.865 0 45043.5 0 0 0 0 3.50528e-12 0 3.86921e+14
416.224 0 53158.3 0 0 0 0 2.97701e-12 0 4.56626e+14
439.852 0 62734.9 0 0 0 0 2.52819e-12 0 5.38888e+14
464.821 0 74036.7 0 0 0 0 2.1469e-12 0 6.35971e+14
491.207 0 87374.6 0 0 0 0 1.82301e-12 0 7.50542e+14
519.092 0 103115 0 0 0 0 1.54789e-12 0 8.85755e+14
548.56 0 121692 0 0 0 0 1.31422e-12 0 1.04533e+15
579.7 0 143615 0 0 0 0 1.11576e-12 0 1.23364e+15
612.608 0 169488 0 0 0 0 9.47223e-13 0 1.45589e+15
647.384 0 200021 0 0 0 0 8.041e-13 0 1.71817e+15
684.134 0 236056 0 0 0 0 6.82568e-13 0 2.0277e+15
722.971 0 278582 0 0 0 0 5.79376e-13 0 2.393e+15
764.012 0 328769 0 0 0 0 4.91762e-13 0 2.8241e+15
