0.979207
200
1.23897e+09
8589934592
0.0129181 0 1.58924e-09 0 0 0 0 0.00677225 0 13.6515
0.0136515 0 1.87554e-09 0 0 0 0 0.00688819 0 16.1108
0.0144264 0 2.21343e-09 0 0 0 0 0.00699249 0 19.0132
0.0152454 0 2.61218e-09 0 0 0 0 0.00708412 0 22.4385
0.0161108 0 3.08278e-09 0 0 0 0 0.00716212 0 26.4808
0.0170254 0 3.63815e-09 0 0 0 0 0.00722559 0 31.2514
0.0179919 0 4.29357e-09 0 0 0 0 0.00727371 0 36.8815
0.0190132 0 5.06707e-09 0 0 0 0 0.00730578 0 43.5258
0.0200925 0 5.97991e-09 0 0 0 0 0.00732122 0 51.367
0.0212331 0 7.05721e-09 0 0 0 0 0.00731958 0 60.621
0.0224385 0 8.32858e-09 0 0 0 0 0.00730056 0 71.542
0.0237123 0 9.829e-09 0 0 0 0 0.00726401 0 84.4305
0.0250583 0 1.15997e-08 0 0 0 0 0.00720995 0 99.6408
0.0264808 0 1.36894e-08 0 0 0 0 0.00713857 0 117.591
0.0279841 0 1.61556e-08 0 0 0 0 0.00705021 0 138.776
0.0295727 0 1.90661e-08 0 0 0 0 0.00694538 0 163.777
0.0312514 0 2.25009e-08 0 0 0 0 0.00682475 0 193.281
0.0330255 0 2.65545e-08 0 0 0 0 0.00668915 0 228.102
0.0349003 0 3.13384e-08 0 0 0 0 0.00653951 0 269.195
0.0368815 0 3.69841e-08 0 0 0 0 0.00637693 0 317.691
0.0389751 0 4.36469e-08 0 0 0 0 0.00620256 0 374.924
0.0411876 0 5.151e-08 0 0 0 0 0.00601767 0 442.467
0.0435258 0 6.07896e-08 0 0 0 0 0.00582358 0 522.179
0.0459966 0 7.1741e-08 0 0 0 0 0.00562166 0 616.251
0.0486077 0 8.46654e-08 0 0 0 0 0.0054133 0 727.27
0.051367 0 9.99181e-08 0 0 0 0 0.00519989 0 858.29
0.054283 0 1.17919e-07 0 0 0 0 0.0049828 0 1012.91
0.0573645 0 1.39162e-07 0 0 0 0 0.00476339 0 1195.39
0.060621 0 1.64232e-07 0 0 0 0 0.00454293 0 1410.75
0.0640622 0 1.93819e-07 0 0 0 0 0.00432265 0 1664.89
0.0676989 0 2.28736e-07 0 0 0 0 0.00410371 0 1964.83
0.071542 0 2.69944e-07 0 0 0 0 0.00388717 0 2318.8
0.0756032 0 3.18575e-07 0 0 0 0 0.00367401 0 2736.54
0.079895 0 3.75967e-07 0 0 0 0 0.0034651 0 3229.53
0.0844305 0 4.43698e-07 0 0 0 0 0.00326121 0 3811.34
0.0892234 0 5.23632e-07 0 0 0 0 0.00306301 0 4497.96
0.0942883 0 6.17966e-07 0 0 0 0 0.00287109 0 5308.28
0.0996408 0 7.29294e-07 0 0 0 0 0.00268591 0 6264.59
0.105297 0 8.60678e-07 0 0 0 0 0.00250785 0 7393.17
0.111275 0 1.01573e-06 0 0 0 0 0.00233721 0 8725.07
0.117591 0 1.19872e-06 0 0 0 0 0.00217419 0 10296.9
0.124267 0 1.41467e-06 0 0 0 0 0.00201893 0 12151.9
0.131321 0 1.66953e-06 0 0 0 0 0.00187147 0 14341.1
0.138776 0 1.9703e-06 0 0 0 0 0.00173182 0 16924.7
0.146654 0 2.32525e-06 0 0 0 0 0.00159991 0 19973.8
0.154979 0 2.74415e-06 0 0 0 0 0.00147563 0 23572.1
0.163777 0 3.23852e-06 0 0 0 0 0.00135884 0 27818.7
0.173074 0 3.82195e-06 0 0 0 0 0.00124933 0 32830.3
0.182899 0 4.51048e-06 0 0 0 0 0.00114689 0 38744.7
0.193281 0 5.32305e-06 0 0 0 0 0.00105127 0 45724.7
0.204254 0 6.28202e-06 0 0 0 0 0.000962209 0 53962.1
0.215848 0 7.41374e-06 0 0 0 0 0.000879423 0 63683.5
0.228102 0 8.74934e-06 0 0 0 0 0.000802624 0 75156.3
0.24105 0 1.03256e-05 0 0 0 0 0.000731515 0 88695.9
0.254734 0 1.21857e-05 0 0 0 0 0.000665798 0 104675
0.269195 0 1.4381e-05 0 0 0 0 0.000605173 0 123532
0.284476 0 1.69718e-05 0 0 0 0 0.000549345 0 145787
0.300625 0 2.00293e-05 0 0 0 0 0.000498021 0 172051
0.317691 0 2.36377e-05 0 0 0 0 0.000450916 0 203046
0.335725 0 2.78961e-05 0 0 0 0 0.000407755 0 239625
0.354784 0 3.29216e-05 0 0 0 0 0.000368269 0 282795
0.374924 0 3.88525e-05 0 0 0 0 0.000332202 0 333741
0.396207 2.11835 4.58519e-05 5.37836e-06 6 2.05946 5.22884e-06 0.000299307 0.107816 393865
0.418699 0 5.41123e-05 0 0 0 0 0.00026935 0 464821
0.442467 0 6.38607e-05 0 0 0 0 0.000242108 0 548560
0.467585 0 7.53654e-05 0 0 0 0 0.00021737 0 647384
0.494129 0 8.89427e-05 0 0 0 0 0.000194938 0 764012
0.522179 0 0.000104966 0 0 0 0 0.000174625 0 901651
0.551822 0 0.000123876 0 0 0 0 0.000156255 0 1.06409e+06
0.583147 4.98409 0.000146192 3.96891e-06 12 5.24578 4.1773e-06 0.000139664 0.34101 1.25578e+06
0.616251 0 0.000172529 0 0 0 0 0.0001247 0 1.48202e+06
0.651234 0 0.000203611 0 0 0 0 0.00011122 0 1.74901e+06
0.688203 14.3954 0.000240292 6.9742e-06 8 14.0373 6.80069e-06 9.90935e-05 0.56304 2.06409e+06
0.72727 0 0.000283581 0 0 0 0 8.81969e-05 0 2.43595e+06
0.768555 0 0.000334669 0 0 0 0 7.84179e-05 0 2.87479e+06
0.812184 12.9405 0.000394961 3.81422e-06 6 13.2171 3.89577e-06 6.96525e-05 0.328564 3.39269e+06
0.85829 0 0.000466114 0 0 0 0 6.1805e-05 0 4.00389e+06
0.907013 2.22768 0.000550086 4.71447e-07 24 2.27043 4.80493e-07 5.47875e-05 0.20652 4.7252e+06
0.958501 4.97417 0.000649185 8.91995e-07 24 4.68282 8.39747e-07 4.85194e-05 0.441223 5.57646e+06
1.01291 0 0.000766138 0 0 0 0 4.29272e-05 0 6.58107e+06
1.07041 0 0.00090416 0 0 0 0 3.79435e-05 0 7.76667e+06
1.13118 7.80843 0.00106705 8.51904e-07 12 7.71252 8.4144e-07 3.3507e-05 0.305096 9.16586e+06
1.19539 4.04113 0.00125928 3.73587e-07 30 3.95782 3.65885e-07 2.9562e-05 0.379121 1.08171e+07
1.26325 8.41015 0.00148614 6.58801e-07 24 8.2836 6.48888e-07 2.60578e-05 0.606775 1.27658e+07
1.33496 17.9387 0.00175387 1.1907e-06 24 17.9781 1.19332e-06 2.29484e-05 1.24526 1.50656e+07
1.41075 19.2923 0.00206984 1.08507e-06 32 19.5074 1.09717e-06 2.01923e-05 1.71958 1.77798e+07
1.49083 4.74164 0.00244272 2.25977e-07 48 4.64055 2.21159e-07 1.77518e-05 0.611032 2.09828e+07
1.57546 53.2627 0.00288279 2.1509e-06 6 50.718 2.04814e-06 1.55929e-05 0.827649 2.4763e+07
1.66489 7.20385 0.00340213 2.46504e-07 84 7.00298 2.3963e-07 1.3685e-05 1.51307 2.92241e+07
1.75941 6.63535 0.00401503 1.92391e-07 48 6.48408 1.88005e-07 1.20007e-05 0.769521 3.44889e+07
1.85928 8.06366 0.00473835 1.98114e-07 72 8.07412 1.98371e-07 1.05151e-05 1.35655 4.07021e+07
1.96483 16.7029 0.00559198 3.47727e-07 54 16.3659 3.40709e-07 9.20606e-06 2.03966 4.80347e+07
2.07637 14.5918 0.00659939 2.57404e-07 104 14.6909 2.59152e-07 8.05366e-06 3.32396 5.66883e+07
2.19424 10.379 0.00778828 1.55139e-07 120 10.5353 1.57476e-07 7.04008e-06 2.64439 6.69008e+07
2.3188 11.835 0.00919136 1.49899e-07 156 11.4924 1.45559e-07 6.1494e-06 3.80269 7.89532e+07
2.45043 14.6804 0.0108472 1.57555e-07 126 14.527 1.55907e-07 5.36741e-06 3.69859 9.31768e+07
2.58954 12.3125 0.0128014 1.1197e-07 192 12.3526 1.12334e-07 4.68145e-06 4.59221 1.09963e+08
2.73654 34.8724 0.0151076 2.68718e-07 152 35.3171 2.72145e-07 4.08023e-06 10.0105 1.29773e+08
2.89188 16.5107 0.0178292 1.07806e-07 378 16.6209 1.08525e-07 3.55373e-06 11.467 1.53152e+08
3.05605 17.9595 0.0210412 9.9365e-08 264 17.6749 9.77903e-08 3.09304e-06 8.48109 1.80743e+08
3.22953 22.936 0.0248319 1.07527e-07 366 22.8285 1.07024e-07 2.69025e-06 14.6287 2.13304e+08
3.41286 20.112 0.0293054 7.98948e-08 428 19.9017 7.90591e-08 2.33837e-06 14.6234 2.51731e+08
3.6066 22.0675 0.0345848 7.4281e-08 486 21.7331 7.31553e-08 2.0312e-06 17.773 2.97081e+08
3.81134 20.7387 0.0408154 5.91518e-08 600 20.7678 5.92349e-08 1.76327e-06 20.1281 3.50601e+08
4.0277 27.2102 0.0481684 6.57628e-08 738 27.1571 6.56343e-08 1.52972e-06 31.7266 4.13763e+08
4.25634 30.261 0.056846 6.19717e-08 824 30.1793 6.18043e-08 1.32631e-06 38.5014 4.88304e+08
4.49796 30.0409 0.067087 5.21296e-08 954 29.8503 5.17988e-08 1.14926e-06 43.2729 5.76273e+08
4.7533 32.9872 0.0791729 4.85042e-08 1094 32.7262 4.81204e-08 9.95263e-07 53.3162 6.8009e+08
5.02313 34.8266 0.0934361 4.33917e-08 1332 34.9871 4.35916e-08 8.61414e-07 67.0963 8.0261e+08
5.30828 39.5372 0.110269 4.1741e-08 1614 39.5417 4.17458e-08 7.45152e-07 90.4111 9.47202e+08
5.60962 46.3566 0.130134 4.14696e-08 1850 46.4003 4.15087e-08 6.44232e-07 119.086 1.11784e+09
5.92807 41.1275 0.153578 3.11755e-08 2238 41.0993 3.11541e-08 5.56685e-07 125.333 1.31923e+09
6.26459 42.6842 0.181246 2.74164e-08 2546 42.7739 2.7474e-08 4.80786e-07 145.183 1.55689e+09
6.62021 42.4604 0.213898 2.31094e-08 3264 42.4527 2.31052e-08 4.15026e-07 181.746 1.83737e+09
6.99602 48.726 0.252432 2.24712e-08 3506 48.8309 2.25196e-08 3.58083e-07 220.017 2.16837e+09
7.39317 52.4623 0.297908 2.0501e-08 4506 52.4248 2.04864e-08 3.08803e-07 299.147 2.55901e+09
7.81286 60.3438 0.351577 1.99812e-08 5018 60.1515 1.99176e-08 2.66181e-07 376.683 3.02002e+09
8.25637 61.2611 0.414914 1.71885e-08 5852 61.1645 1.71613e-08 2.29336e-07 438.6 3.56409e+09
8.72507 64.7787 0.489662 1.54009e-08 7362 64.7412 1.5392e-08 1.97503e-07 574.074 4.20617e+09
9.22037 66.9939 0.577876 1.34962e-08 8306 66.7948 1.34561e-08 1.70014e-07 659.351 4.96392e+09
9.74378 75.2742 0.681982 1.28494e-08 9698 75.1096 1.28213e-08 1.46289e-07 851.832 5.85818e+09
10.2969 78.9136 0.804843 1.14143e-08 11816 78.7523 1.1391e-08 1.25822e-07 1071.92 6.91355e+09
10.8814 87.6976 0.949838 1.07485e-08 13682 87.4666 1.07202e-08 1.08175e-07 1359.47 8.15905e+09
11.4992 89.1082 1.12095 9.25423e-09 16152 89.0599 9.24921e-09 9.29669e-08 1607.82 9.62892e+09
12.1519 93.1478 1.3229 8.19703e-09 19472 93.0121 8.1851e-09 7.98658e-08 1998.51 1.13636e+10
12.8418 97.261 1.56122 7.25245e-09 22670 97.0646 7.23781e-09 6.85852e-08 2397.21 1.34108e+10
13.5708 105.403 1.84248 6.65979e-09 26224 105.301 6.65335e-09 5.88765e-08 2966.32 1.58268e+10
14.3411 110.933 2.17441 5.93925e-09 31640 110.846 5.93458e-09 5.05241e-08 3719.37 1.8678e+10
15.1552 119.534 2.56613 5.42277e-09 37484 119.326 5.41336e-09 4.33417e-08 4689.88 2.20429e+10
16.0156 128.799 3.02843 4.95113e-09 43856 128.611 4.94391e-09 3.71677e-08 5842.08 2.6014e+10
16.9247 135.415 3.574 4.41083e-09 51362 135.211 4.4042e-09 3.18628e-08 7110.14 3.07005e+10
17.8855 141.608 4.21787 3.90844e-09 61636 141.46 3.90437e-09 2.73063e-08 8822.16 3.62312e+10
18.9008 150.929 4.97773 3.5298e-09 72218 150.582 3.52168e-09 2.33941e-08 10896.5 4.27584e+10
19.9738 160.527 5.87448 3.18118e-09 84586 160.252 3.17574e-09 2.00364e-08 13429.7 5.04614e+10
21.1076 169.902 6.93279 2.85299e-09 100708 169.65 2.84876e-09 1.71555e-08 16747.9 5.95522e+10
22.3058 180.831 8.18175 2.57298e-09 118712 180.478 2.56796e-09 1.46847e-08 20800.2 7.02807e+10
23.5721 189.452 9.65571 2.28415e-09 140410 189.119 2.28013e-09 1.25662e-08 25522.3 8.29419e+10
24.9102 198.176 11.3952 2.0246e-09 164374 197.81 2.02086e-09 1.07504e-08 30956.3 9.78842e+10
26.3243 208.479 13.4481 1.80473e-09 194680 208.108 1.80152e-09 9.19452e-09 38212.3 1.15518e+11
27.8187 221.706 15.8708 1.62626e-09 230196 221.361 1.62372e-09 7.86182e-09 47617.2 1.36329e+11
29.3979 233.539 18.73 1.45155e-09 271156 233.172 1.44927e-09 6.72061e-09 58565.6 1.60889e+11
31.0667 247.026 22.1042 1.301e-09 321076 246.559 1.29854e-09 5.74366e-09 72727.1 1.89874e+11
32.8303 259.282 26.0864 1.15709e-09 377436 258.8 1.15494e-09 4.90756e-09 88991 2.2408e+11
34.694 273.276 30.7859 1.03338e-09 447594 272.757 1.03142e-09 4.19221e-09 110332 2.64449e+11
36.6634 286.843 36.3321 9.19104e-10 525078 286.34 9.17493e-10 3.58032e-09 134793 3.1209e+11
38.7447 302.957 42.8774 8.2255e-10 621924 302.418 8.21087e-10 3.05709e-09 167337 3.68314e+11
40.9442 318.54 50.6018 7.32839e-10 732630 317.957 7.31497e-10 2.60976e-09 205728 4.34667e+11
43.2685 334.951 59.7179 6.5296e-10 865596 334.38 6.51848e-10 2.22743e-09 253745 5.12973e+11
45.7247 352.506 70.4762 5.82283e-10 1.02168e+06 351.975 5.81405e-10 1.90073e-09 312987 6.05386e+11
48.3204 369.113 83.1727 5.16641e-10 1.20544e+06 368.466 5.15735e-10 1.62163e-09 384044 7.14448e+11
51.0634 387.366 98.1565 4.59422e-10 1.42103e+06 386.694 4.58626e-10 1.38326e-09 471968 8.43158e+11
53.9621 406.409 115.84 4.08429e-10 1.67997e+06 405.73 4.07746e-10 1.1797e-09 581627 9.95055e+11
57.0254 426.41 136.709 3.63113e-10 1.98018e+06 425.627 3.62446e-10 1.00592e-09 714798 1.17432e+12
60.2626 447.122 161.337 3.22628e-10 2.33957e+06 446.326 3.22054e-10 8.57591e-10 880152 1.38587e+12
63.6835 469.754 190.402 2.87216e-10 2.75676e+06 468.947 2.86723e-10 7.3101e-10 1.08314e+06 1.63554e+12
67.2987 494.555 224.704 2.56221e-10 3.25638e+06 493.741 2.55799e-10 6.23009e-10 1.33923e+06 1.93019e+12
71.1191 519.358 265.185 2.27997e-10 3.84387e+06 518.469 2.27607e-10 5.30879e-10 1.65083e+06 2.27792e+12
75.1563 547.564 312.958 2.03685e-10 4.53277e+06 546.576 2.03317e-10 4.52303e-10 2.04123e+06 2.68829e+12
79.4227 576.874 369.339 1.8183e-10 5.35083e+06 575.864 1.81512e-10 3.85299e-10 2.52516e+06 3.17259e+12
83.9313 610.335 435.876 1.6301e-10 6.32174e+06 609.209 1.6271e-10 3.28173e-10 3.14014e+06 3.74415e+12
88.6959 646.379 514.4 1.46284e-10 7.44986e+06 645.159 1.46008e-10 2.79476e-10 3.89942e+06 4.41866e+12
93.7309 686.077 607.071 1.31566e-10 8.79764e+06 684.821 1.31325e-10 2.37972e-10 4.86388e+06 5.2147e+12
99.0518 730.748 716.436 1.18741e-10 1.03827e+07 729.315 1.18508e-10 2.02605e-10 6.08499e+06 6.15414e+12
104.675 781.694 845.504 1.07629e-10 1.22515e+07 780.134 1.07415e-10 1.72471e-10 7.64549e+06 7.26283e+12
110.617 840.473 997.824 9.80573e-11 1.44573e+07 838.733 9.78543e-11 1.468e-10 9.65698e+06 8.57124e+12
116.896 910.093 1177.58 8.99712e-11 1.70664e+07 908.111 8.97753e-11 1.24935e-10 1.22903e+07 1.01154e+13
123.532 990.665 1389.73 8.29864e-11 2.0139e+07 988.396 8.27962e-11 1.06313e-10 1.57202e+07 1.19377e+13
130.545 1085.38 1640.09 7.70411e-11 2.37643e+07 1082.79 7.68574e-11 9.04567e-11 2.02398e+07 1.40883e+13
137.955 1197.09 1935.56 7.19999e-11 2.80503e+07 1194.14 7.18222e-11 7.69563e-11 2.62437e+07 1.66263e+13
145.787 1329.33 2284.26 6.77483e-11 3.30981e+07 1325.92 6.75745e-11 6.54636e-11 3.42532e+07 1.96216e+13
154.063 1486.36 2695.77 6.41875e-11 3.90634e+07 1482.42 6.40175e-11 5.56812e-11 4.50311e+07 2.31565e+13
162.808 1673.81 3181.42 6.12484e-11 4.61057e+07 1669.24 6.1081e-11 4.73556e-11 5.96318e+07 2.73282e+13
172.051 1896.28 3754.56 5.87967e-11 5.44046e+07 1890.91 5.86301e-11 4.02708e-11 7.94324e+07 3.22515e+13
181.818 2163.02 4430.96 5.68294e-11 6.42064e+07 2156.7 5.66634e-11 3.42426e-11 1.06558e+08 3.80616e+13
192.139 2480.33 5229.21 5.52183e-11 7.57748e+07 2472.89 5.50528e-11 2.91139e-11 1.43717e+08 4.49186e+13
203.046 2858.5 6171.26 5.3923e-11 8.94213e+07 2849.8 5.37588e-11 2.4751e-11 1.94815e+08 5.30108e+13
214.572 3314.44 7283.03 5.29795e-11 1.05538e+08 3304.07 5.28137e-11 2.10401e-11 2.65748e+08 6.25608e+13
226.753 3859.92 8595.09 5.22803e-11 1.24552e+08 3847.59 5.21133e-11 1.78839e-11 3.64104e+08 7.38313e+13
239.625 4516.85 10143.5 5.18391e-11 1.46987e+08 4502.18 5.16707e-11 1.51999e-11 5.01298e+08 8.71322e+13
253.228 5309.1 11970.9 5.16302e-11 1.7347e+08 5291.49 5.1459e-11 1.29176e-11 6.93339e+08 1.02829e+14
267.603 6266.09 14127.5 5.16347e-11 2.04703e+08 6244.86 5.14597e-11 1.09771e-11 9.62889e+08 1.21354e+14
282.795 7434.76 16672.6 5.19127e-11 2.4161e+08 7409.09 5.17335e-11 9.3274e-12 1.34471e+09 1.43217e+14
298.848 8869.7 19676.2 5.2478e-11 2.85122e+08 8838.36 5.22926e-11 7.925e-12 1.88803e+09 1.69017e+14
315.813 10653.1 23220.9 5.34081e-11 3.36491e+08 10614.3 5.32133e-11 6.73295e-12 2.66917e+09 1.99466e+14
333.741 12911.4 27404.3 5.48484e-11 3.97115e+08 12862.6 5.46413e-11 5.71979e-12 3.80803e+09 2.35401e+14
352.686 15831.1 32341.2 5.69855e-11 4.68637e+08 15768.3 5.67596e-11 4.85874e-12 5.49639e+09 2.77809e+14
372.707 19718.4 38167.6 6.01434e-11 5.53074e+08 19635.5 5.98906e-11 4.12703e-12 8.05997e+09 3.27857e+14
393.865 25099.1 45043.5 6.48687e-11 6.52716e+08 24985 6.45739e-11 3.50528e-12 1.20792e+10 3.86921e+14
416.224 29633.9 53158.3 6.48975e-11 2.2184e+08 31349.8 6.86554e-11 2.97701e-12 4.83601e+09 4.56626e+14
439.852 0 62734.9 0 0 0 0 2.52819e-12 0 5.38888e+14
464.821 0 74036.7 0 0 0 0 2.1469e-12 0 6.35971e+14
491.207 0 87374.6 0 0 0 0 1.82301e-12 0 7.50542e+14
519.092 0 103115 0 0 0 0 1.54789e-12 0 8.85755e+14
548.56 0 121692 0 0 0 0 1.31422e-12 0 1.04533e+15
579.7 0 143615 0 0 0 0 1.11576e-12 0 1.23364e+15
612.608 0 169488 0 0 0 0 9.47223e-13 0 1.45589e+15
647.384 0 200021 0 0 0 0 8.041e-13 0 1.71817e+15
684.134 0 236056 0 0 0 0 6.82568e-13 0 2.0277e+15
722.971 0 278582 0 0 0 0 5.79376e-13 0 2.393e+15
764.012 0 328769 0 0 0 0 4.91762e-13 0 2.8241e+15
0.979207
200
1.23897e+09
8589934592
0.0129181 0.00164275 1.58924e-09 0.000120335 6 0.00162771 0.000119234 0.00677225 0.106613 13.6515
0.0136515 0 1.87554e-09 0 0 0 0 0.00688819 0 16.1108
0.0144264 0 2.21343e-09 0 0 0 0 0.00699249 0 19.0132
0.0152454 0 2.61218e-09 0 0 0 0 0.00708412 0 22.4385
0.0161108 0 3.08278e-09 0 0 0 0 0.00716212 0 26.4808
0.0170254 0 3.63815e-09 0 0 0 0 0.00722559 0 31.2514
0.0179919 0.0037496 4.29357e-09 0.000101666 12 0.00374477 0.000101535 0.00727371 0.167727 36.8815
0.0190132 0 5.06707e-09 0 0 0 0 0.00730578 0 43.5258
0.0200925 0 5.97991e-09 0 0 0 0 0.00732122 0 51.367
0.0212331 0.00361724 7.05721e-09 5.96699e-05 8 0.0036141 5.96179e-05 0.00731958 0.0652167 60.621
0.0224385 0 8.32858e-09 0 0 0 0 0.00730056 0 71.542
0.0237123 0 9.829e-09 0 0 0 0 0.00726401 0 84.4305
0.0250583 0.023201 1.15997e-08 0.000232846 6 0.02319 0.000232736 0.00720995 0.19377 99.6408
0.0264808 0 1.36894e-08 0 0 0 0 0.00713857 0 117.591
0.0279841 0.0144577 1.61556e-08 0.00010418 24 0.0144428 0.000104073 0.00705021 0.354645 138.776
0.0295727 0 1.90661e-08 0 0 0 0 0.00694538 0 163.777
0.0312514 0.0258856 2.25009e-08 0.000133927 24 0.0260171 0.000134607 0.00682475 0.47097 193.281
0.0330255 0 2.65545e-08 0 0 0 0 0.00668915 0 228.102
0.0349003 0.0397253 3.13384e-08 0.000147571 12 0.0394072 0.000146389 0.00653951 0.270792 269.195
0.0368815 0.0318591 3.69841e-08 0.000100283 30 0.0315198 9.92154e-05 0.00637693 0.471779 317.691
0.0389751 0.0361715 4.36469e-08 9.64769e-05 24 0.0357994 9.54844e-05 0.00620256 0.373305 374.924
0.0411876 0.0231907 5.151e-08 5.24123e-05 24 0.0230333 5.20564e-05 0.00601767 0.209034 442.467
0.0435258 0.0573673 6.07896e-08 0.000109861 8 0.0573629 0.000109853 0.00582358 0.150919 522.179
0.0459966 0.0701964 7.1741e-08 0.000113909 72 0.0696437 0.000113012 0.00562166 1.4589 616.251
0.0486077 0 8.46654e-08 0 0 0 0 0.0054133 0 727.27
0.051367 0.095331 9.99181e-08 0.000111071 54 0.0950161 0.000110704 0.00519989 1.15345 858.29
0.054283 0.0768787 1.17919e-07 7.58986e-05 60 0.0772282 7.62436e-05 0.0049828 0.913926 1012.91
0.0573645 0.0712592 1.39162e-07 5.96116e-05 96 0.0710771 5.94592e-05 0.00476339 1.2014 1195.39
0.060621 0.0846238 1.64232e-07 5.99852e-05 24 0.0834773 5.91725e-05 0.00454293 0.316898 1410.75
0.0640622 0.145621 1.93819e-07 8.74654e-05 134 0.145685 8.75039e-05 0.00432265 2.71138 1664.89
0.0676989 0.143728 2.28736e-07 7.31506e-05 120 0.143023 7.27917e-05 0.00410371 2.13906 1964.83
0.071542 0.137153 2.69944e-07 5.91482e-05 108 0.13563 5.84914e-05 0.00388717 1.64335 2318.8
0.0756032 0.205455 3.18575e-07 7.50784e-05 174 0.204299 7.46561e-05 0.00367401 3.55569 2736.54
0.079895 0.219373 3.75967e-07 6.79271e-05 168 0.217302 6.7286e-05 0.0034651 3.29334 3229.53
0.0844305 0.185034 4.43698e-07 4.85482e-05 168 0.185944 4.87871e-05 0.00326121 2.50095 3811.34
0.0892234 0.224638 5.23632e-07 4.99422e-05 290 0.223575 4.97058e-05 0.00306301 4.72842 4497.96
0.0942883 0.272171 6.17966e-07 5.12728e-05 288 0.271579 5.11614e-05 0.00287109 5.1432 5308.28
0.0996408 0.242207 7.29294e-07 3.86628e-05 366 0.240362 3.83683e-05 0.00268591 5.26845 6264.59
0.105297 0.280594 8.60678e-07 3.79531e-05 420 0.278627 3.76871e-05 0.00250785 6.35616 7393.17
0.111275 0.295032 1.01573e-06 3.38143e-05 398 0.294231 3.37225e-05 0.00233721 5.75818 8725.07
0.117591 0.345764 1.19872e-06 3.35794e-05 624 0.346761 3.36763e-05 0.00217419 9.63738 10296.9
0.124267 0.401276 1.41467e-06 3.30216e-05 642 0.400359 3.29461e-05 0.00201893 10.5006 12151.9
0.131321 0.477177 1.66953e-06 3.32733e-05 800 0.477212 3.32758e-05 0.00187147 14.2234 14341.1
0.138776 0.449417 1.9703e-06 2.65539e-05 858 0.451275 2.66636e-05 0.00173182 13.1557 16924.7
0.146654 0.534402 2.32525e-06 2.67552e-05 1080 0.53877 2.69739e-05 0.00159991 18.0608 19973.8
0.154979 0.631323 2.74415e-06 2.67827e-05 1286 0.635295 2.69511e-05 0.00147563 23.3408 23572.1
0.163777 0.614853 3.23852e-06 2.21022e-05 1650 0.616664 2.21673e-05 0.00135884 26.8381 27818.7
0.173074 0.675053 3.82195e-06 2.05619e-05 1778 0.675657 2.05803e-05 0.00124933 29.2629 32830.3
0.182899 0.72091 4.51048e-06 1.86067e-05 2112 0.72259 1.865e-05 0.00114689 34.2642 38744.7
0.193281 0.797949 5.32305e-06 1.74512e-05 2570 0.798521 1.74637e-05 0.00105127 42.6621 45724.7
0.204254 0.946434 6.28202e-06 1.75389e-05 3030 0.945719 1.75256e-05 0.000962209 55.23 53962.1
0.215848 0.998976 7.41374e-06 1.56866e-05 3434 0.998544 1.56798e-05 0.000879423 61.2534 63683.5
0.228102 1.06259 8.74934e-06 1.41384e-05 4218 1.06198 1.41302e-05 0.000802624 74.3009 75156.3
0.24105 1.17519 1.03256e-05 1.32496e-05 4766 1.17596 1.32584e-05 0.000731515 86.3244 88695.9
0.254734 1.28195 1.21857e-05 1.2247e-05 6026 1.28192 1.22467e-05 0.000665798 110.845 104675
0.269195 1.46937 1.4381e-05 1.18946e-05 6480 1.46798 1.18834e-05 0.000605173 127.364 123532
0.284476 1.5886 1.69718e-05 1.08968e-05 8162 1.59132 1.09154e-05 0.000549345 161.901 145787
0.300625 1.75861 2.00293e-05 1.02215e-05 9578 1.7593 1.02255e-05 0.000498021 196.581 172051
0.317691 1.95737 2.36377e-05 9.64005e-06 11234 1.95563 9.63144e-06 0.000450916 240.169 203046
0.335725 2.10604 2.78961e-05 8.78888e-06 13344 2.10205 8.77225e-06 0.000407755 287.621 239625
0.354784 2.38177 3.29216e-05 8.42226e-06 15464 2.38022 8.41677e-06 0.000368269 353.66 282795
0.374924 2.57901 3.88525e-05 7.72758e-06 18458 2.57638 7.7197e-06 0.000332202 429.365 333741
0.396207 2.99044 4.58519e-05 7.59254e-06 22232 2.98555 7.58012e-06 0.000299307 563.961 393865
0.418699 3.21741 5.41123e-05 6.92182e-06 25628 3.20948 6.90477e-06 0.00026935 658.595 464821
0.442467 3.5286 6.38607e-05 6.43248e-06 30320 3.52242 6.42122e-06 0.000242108 805.561 548560
0.467585 4.009 7.53654e-05 6.19261e-06 35452 4.00161 6.18121e-06 0.00021737 1009.98 647384
0.494129 4.44297 8.89427e-05 5.81531e-06 41792 4.43769 5.80841e-06 0.000194938 1246.72 764012
0.522179 5.006 0.000104966 5.55204e-06 49988 5.00514 5.55108e-06 0.000174625 1589.32 901651
0.551822 5.61118 0.000123876 5.27324e-06 59110 5.60359 5.2661e-06 0.000156255 1994.83 1.06409e+06
0.583147 6.24868 0.000146192 4.97592e-06 69716 6.23843 4.96776e-06 0.000139664 2483.83 1.25578e+06
0.616251 6.99498 0.000172529 4.71991e-06 82210 6.98127 4.71065e-06 0.0001247 3111.66 1.48202e+06
0.651234 7.73335 0.000203611 4.42157e-06 96722 7.71595 4.41162e-06 0.00011122 3845.18 1.74901e+06
0.688203 8.79223 0.000240292 4.25961e-06 113098 8.77803 4.25273e-06 9.90935e-05 4861.6 2.06409e+06
0.72727 9.84522 0.000283581 4.04164e-06 135190 9.83072 4.03569e-06 8.81969e-05 6195.11 2.43595e+06
0.768555 11.0215 0.000334669 3.83384e-06 158170 11.0038 3.8277e-06 7.84179e-05 7732.91 2.87479e+06
0.812184 12.3593 0.000394961 3.64293e-06 188560 12.3388 3.63689e-06 6.96525e-05 9861.96 3.39269e+06
0.85829 13.8295 0.000466114 3.45402e-06 220444 13.8065 3.44827e-06 6.1805e-05 12319.7 4.00389e+06
0.907013 15.4699 0.000550086 3.27391e-06 261388 15.4433 3.26827e-06 5.47875e-05 15619.6 4.7252e+06
0.958501 17.338 0.000649185 3.10914e-06 308244 17.3113 3.10435e-06 4.85194e-05 19752.4 5.57646e+06
1.01291 19.4652 0.000766138 2.95776e-06 364396 19.432 2.95271e-06 4.29272e-05 25107.5 6.58107e+06
1.07041 21.663 0.00090416 2.78923e-06 429162 21.6233 2.78412e-06 3.79435e-05 31547.7 7.76667e+06
1.13118 24.1769 0.00106705 2.63771e-06 506358 24.1351 2.63315e-06 3.3507e-05 39861.1 9.16586e+06
1.19539 27.0299 0.00125928 2.4988e-06 598590 26.9792 2.49412e-06 2.9562e-05 50597.3 1.08171e+07
1.26325 30.0387 0.00148614 2.35305e-06 704844 29.9852 2.34886e-06 2.60578e-05 63648.2 1.27658e+07
1.33496 33.3983 0.00175387 2.21685e-06 834620 33.333 2.21252e-06 2.29484e-05 80625.4 1.50656e+07
1.41075 37.0313 0.00206984 2.08278e-06 981444 36.9615 2.07885e-06 2.01923e-05 101233 1.77798e+07
1.49083 40.9159 0.00244272 1.94997e-06 1.15998e+06 40.8414 1.94642e-06 1.77518e-05 127419 2.09828e+07
1.57546 45.202 0.00288279 1.82539e-06 1.36931e+06 45.1196 1.82206e-06 1.55929e-05 160299 2.4763e+07
1.66489 49.8032 0.00340213 1.70419e-06 1.61652e+06 49.712 1.70107e-06 1.3685e-05 201304 2.92241e+07
1.75941 54.8333 0.00401503 1.58988e-06 1.90601e+06 54.7315 1.58693e-06 1.20007e-05 252513 3.44889e+07
1.85928 60.1424 0.00473835 1.47762e-06 2.24913e+06 60.0302 1.47487e-06 1.05151e-05 316056 4.07021e+07
1.96483 65.6688 0.00559198 1.36711e-06 2.65744e+06 65.548 1.3646e-06 9.20606e-06 394633 4.80347e+07
2.07637 71.6216 0.00659939 1.26343e-06 3.13125e+06 71.4931 1.26116e-06 8.05366e-06 491219 5.66883e+07
2.19424 78.2766 0.00778828 1.17004e-06 3.69915e+06 78.1353 1.16793e-06 7.04008e-06 614787 6.69008e+07
2.3188 84.9647 0.00919136 1.07614e-06 4.36472e+06 84.8173 1.07427e-06 6.1494e-06 763823 7.89532e+07
2.45043 92.3714 0.0108472 9.91356e-07 5.14913e+06 92.2087 9.89609e-07 5.36741e-06 951040 9.31768e+07
2.58954 99.8976 0.0128014 9.08466e-07 6.07894e+06 99.7286 9.0693e-07 4.68145e-06 1.17966e+06 1.09963e+08
2.73654 108.135 0.0151076 8.33259e-07 7.17304e+06 107.951 8.31849e-07 4.08023e-06 1.46487e+06 1.29773e+08
2.89188 116.736 0.0178292 7.62225e-07 8.46557e+06 116.54 7.60943e-07 3.55373e-06 1.81574e+06 1.53152e+08
3.05605 125.946 0.0210412 6.96823e-07 9.98773e+06 125.736 6.95665e-07 3.09304e-06 2.25011e+06 1.80743e+08
3.22953 135.57 0.0248319 6.35574e-07 1.1797e+07 135.341 6.34499e-07 2.69025e-06 2.78705e+06 2.13304e+08
3.41286 145.691 0.0293054 5.78758e-07 1.39144e+07 145.442 5.77768e-07 2.33837e-06 3.44387e+06 2.51731e+08
3.6066 156.524 0.0345848 5.26871e-07 1.64163e+07 156.255 5.25969e-07 2.0312e-06 4.2582e+06 2.97081e+08
3.81134 167.852 0.0408154 4.78754e-07 1.93821e+07 167.575 4.77963e-07 1.76327e-06 5.26256e+06 3.50601e+08
4.0277 179.764 0.0481684 4.34461e-07 2.28754e+07 179.467 4.33744e-07 1.52972e-06 6.49692e+06 4.13763e+08
4.25634 192.298 0.056846 3.93808e-07 2.69929e+07 191.975 3.93146e-07 1.32631e-06 8.01474e+06 4.88304e+08
4.49796 205.368 0.067087 3.56373e-07 3.18542e+07 205.026 3.5578e-07 1.14926e-06 9.87768e+06 5.76273e+08
4.7533 219.394 0.0791729 3.22596e-07 3.75892e+07 219.031 3.22061e-07 9.95263e-07 1.21838e+07 6.8009e+08
5.02313 233.91 0.0934361 2.91436e-07 4.43706e+07 233.524 2.90955e-07 8.61414e-07 1.50116e+07 8.0261e+08
5.30828 249.238 0.110269 2.6313e-07 5.23593e+07 248.822 2.62691e-07 7.45152e-07 1.84893e+07 9.47202e+08
5.60962 265.369 0.130134 2.37394e-07 6.1787e+07 264.927 2.36998e-07 6.44232e-07 2.27679e+07 1.11784e+09
5.92807 282.385 0.153578 2.14053e-07 7.29346e+07 281.916 2.13698e-07 5.56685e-07 2.80444e+07 1.31923e+09
6.26459 300.135 0.181246 1.92779e-07 8.60651e+07 299.634 1.92457e-07 4.80786e-07 3.45091e+07 1.55689e+09
6.62021 318.756 0.213898 1.73485e-07 1.01558e+08 318.223 1.73195e-07 4.15026e-07 4.24524e+07 1.83737e+09
6.99602 338.378 0.252432 1.56052e-07 1.1986e+08 337.818 1.55793e-07 3.58083e-07 5.22347e+07 2.16837e+09
7.39317 358.903 0.297908 1.40251e-07 1.41457e+08 358.306 1.40017e-07 3.08803e-07 6.42461e+07 2.55901e+09
7.81286 380.446 0.351577 1.25975e-07 1.66936e+08 379.817 1.25766e-07 2.66181e-07 7.90051e+07 3.02002e+09
8.25637 403.323 0.414914 1.13163e-07 1.97025e+08 402.651 1.12974e-07 2.29336e-07 9.72196e+07 3.56409e+09
8.72507 427.45 0.489662 1.01625e-07 2.32497e+08 426.737 1.01455e-07 1.97503e-07 1.19631e+08 4.20617e+09
9.22037 453.046 0.577876 9.12677e-08 2.74404e+08 452.277 9.11129e-08 1.70014e-07 1.47307e+08 4.96392e+09
9.74378 481.135 0.681982 8.21304e-08 3.2382e+08 480.303 8.19884e-08 1.46289e-07 1.81801e+08 5.85818e+09
10.2969 512.541 0.804843 7.41356e-08 3.82165e+08 511.624 7.40031e-08 1.25822e-07 2.25175e+08 6.91355e+09
10.8814 549.83 0.949838 6.7389e-08 4.51027e+08 548.775 6.72597e-08 1.08175e-07 2.80972e+08 8.15905e+09
11.4992 597.402 1.12095 6.20425e-08 5.32251e+08 596.128 6.19101e-08 9.29669e-08 3.55204e+08 9.62892e+09
12.1519 664.478 1.3229 5.84742e-08 6.28157e+08 662.804 5.8327e-08 7.98658e-08 4.59909e+08 1.13636e+10
12.8418 739.46 1.56122 5.51392e-08 3.82727e+08 765.362 5.70706e-08 6.85852e-08 3.07694e+08 1.34108e+10
13.5708 0 1.84248 0 0 0 0 5.88765e-08 0 1.58268e+10
14.3411 0 2.17441 0 0 0 0 5.05241e-08 0 1.8678e+10
15.1552 0 2.56613 0 0 0 0 4.33417e-08 0 2.20429e+10
16.0156 0 3.02843 0 0 0 0 3.71677e-08 0 2.6014e+10
16.9247 0 3.574 0 0 0 0 3.18628e-08 0 3.07005e+10
17.8855 0 4.21787 0 0 0 0 2.73063e-08 0 3.62312e+10
18.9008 0 4.97773 0 0 0 0 2.33941e-08 0 4.27584e+10
19.9738 0 5.87448 0 0 0 0 2.00364e-08 0 5.04614e+10
21.1076 0 6.93279 0 0 0 0 1.71555e-08 0 5.95522e+10
22.3058 0 8.18175 0 0 0 0 1.46847e-08 0 7.02807e+10
23.5721 0 9.65571 0 0 0 0 1.25662e-08 0 8.29419e+10
24.9102 0 11.3952 0 0 0 0 1.07504e-08 0 9.78842e+10
26.3243 0 13.4481 0 0 0 0 9.19452e-09 0 1.15518e+11
27.8187 0 15.8708 0 0 0 0 7.86182e-09 0 1.36329e+11
29.3979 0 18.73 0 0 0 0 6.72061e-09 0 1.60889e+11
31.0667 0 22.1042 0 0 0 0 5.74366e-09 0 1.89874e+11
32.8303 0 26.0864 0 0 0 0 4.90756e-09 0 2.2408e+11
34.694 0 30.7859 0 0 0 0 4.19221e-09 0 2.64449e+11
36.6634 0 36.3321 0 0 0 0 3.58032e-09 0 3.1209e+11
38.7447 0 42.8774 0 0 0 0 3.05709e-09 0 3.68314e+11
40.9442 0 50.6018 0 0 0 0 2.60976e-09 0 4.34667e+11
43.2685 0 59.7179 0 0 0 0 2.22743e-09 0 5.12973e+11
45.7247 0 70.4762 0 0 0 0 1.90073e-09 0 6.05386e+11
48.3204 0 83.1727 0 0 0 0 1.62163e-09 0 7.14448e+11
51.0634 0 98.1565 0 0 0 0 1.38326e-09 0 8.43158e+11
53.9621 0 115.84 0 0 0 0 1.1797e-09 0 9.95055e+11
57.0254 0 136.709 0 0 0 0 1.00592e-09 0 1.17432e+12
60.2626 0 161.337 0 0 0 0 8.57591e-10 0 1.38587e+12
63.6835 0 190.402 0 0 0 0 7.3101e-10 0 1.63554e+12
67.2987 0 224.704 0 0 0 0 6.23009e-10 0 1.93019e+12
71.1191 0 265.185 0 0 0 0 5.30879e-10 0 2.27792e+12
75.1563 0 312.958 0 0 0 0 4.52303e-10 0 2.68829e+12
79.4227 0 369.339 0 0 0 0 3.85299e-10 0 3.17259e+12
83.9313 0 435.876 0 0 0 0 3.28173e-10 0 3.74415e+12
88.6959 0 514.4 0 0 0 0 2.79476e-10 0 4.41866e+12
93.7309 0 607.071 0 0 0 0 2.37972e-10 0 5.2147e+12
99.0518 0 716.436 0 0 0 0 2.02605e-10 0 6.15414e+12
104.675 0 845.504 0 0 0 0 1.72471e-10 0 7.26283e+12
110.617 0 997.824 0 0 0 0 1.468e-10 0 8.57124e+12
116.896 0 1177.58 0 0 0 0 1.24935e-10 0 1.01154e+13
123.532 0 1389.73 0 0 0 0 1.06313e-10 0 1.19377e+13
130.545 0 1640.09 0 0 0 0 9.04567e-11 0 1.40883e+13
137.955 0 1935.56 0 0 0 0 7.69563e-11 0 1.66263e+13
145.787 0 2284.26 0 0 0 0 6.54636e-11 0 1.96216e+13
154.063 0 2695.77 0 0 0 0 5.56812e-11 0 2.31565e+13
162.808 0 3181.42 0 0 0 0 4.73556e-11 0 2.73282e+13
172.051 0 3754.56 0 0 0 0 4.02708e-11 0 3.22515e+13
181.818 0 4430.96 0 0 0 0 3.42426e-11 0 3.80616e+13
192.139 0 5229.21 0 0 0 0 2.91139e-11 0 4.49186e+13
203.046 0 6171.26 0 0 0 0 2.4751e-11 0 5.30108e+13
214.572 0 7283.03 0 0 0 0 2.10401e-11 0 6.25608e+13
226.753 0 8595.09 0 0 0 0 1.78839e-11 0 7.38313e+13
239.625 0 10143.5 0 0 0 0 1.51999e-11 0 8.71322e+13
253.228 0 11970.9 0 0 0 0 1.29176e-11 0 1.02829e+14
267.603 0 14127.5 0 0 0 0 1.09771e-11 0 1.21354e+14
282.795 0 16672.6 0 0 0 0 9.3274e-12 0 1.43217e+14
298.848 0 19676.2 0 0 0 0 7.925e-12 0 1.69017e+14
315.813 0 23220.9 0 0 0 0 6.73295e-12 0 1.99466e+14
333.741 0 27404.3 0 0 0 0 5.71979e-12 0 2.35401e+14
352.686 0 32341.2 0 0 0 0 4.85874e-12 0 2.77809e+14
372.707 0 38167.6 0 0 0 0 4.12703e-12 0 3.27857e+14
393.865 0 45043.5 0 0 0 0 3.50528e-12 0 3.86921e+14
416.224 0 53158.3 0 0 0 0 2.97701e-12 0 4.56626e+14
439.852 0 62734.9 0 0 0 0 2.52819e-12 0 5.38888e+14
464.821 0 74036.7 0 0 0 0 2.1469e-12 0 6.35971e+14
491.207 0 87374.6 0 0 0 0 1.82301e-12 0 7.50542e+14
519.092 0 103115 0 0 0 0 1.54789e-12 0 8.85755e+14
548.56 0 121692 0 0 0 0 1.31422e-12 0 1.04533e+15
579.7 0 143615 0 0 0 0 1.11576e-12 0 1.23364e+15
612.608 0 169488 0 0 0 0 9.47223e-13 0 1.45589e+15
647.384 0 200021 0 0 0 0 8.041e-13 0 1.71817e+15
684.134 0 236056 0 0 0 0 6.82568e-13 0 2.0277e+15
722.971 0 278582 0 0 0 0 5.79376e-13 0 2.393e+15
764.012 0 328769 0 0 0 0 4.91762e-13 0 2.8241e+15
