0.277029
200
1.0655e+09
8589934592
0.0129181 0 1.58924e-09 0 0 0 0 0.00677225 0 13.6515
0.0136515 0 1.87554e-09 0 0 0 0 0.00688819 0 16.1108
0.0144264 0 2.21343e-09 0 0 0 0 0.00699249 0 19.0132
0.0152454 0 2.61218e-09 0 0 0 0 0.00708412 0 22.4385
0.0161108 0 3.08278e-09 0 0 0 0 0.00716212 0 26.4808
0.0170254 0 3.63815e-09 0 0 0 0 0.00722559 0 31.2514
0.0179919 0 4.29357e-09 0 0 0 0 0.00727371 0 36.8815
0.0190132 0 5.06707e-09 0 0 0 0 0.00730578 0 43.5258
0.0200925 0 5.97991e-09 0 0 0 0 0.00732122 0 51.367
0.0212331 0 7.05721e-09 0 0 0 0 0.00731958 0 60.621
0.0224385 0 8.32858e-09 0 0 0 0 0.00730056 0 71.542
0.0237123 0 9.829e-09 0 0 0 0 0.00726401 0 84.4305
0.0250583 0 1.15997e-08 0 0 0 0 0.00720995 0 99.6408
0.0264808 0 1.36894e-08 0 0 0 0 0.00713857 0 117.591
0.0279841 0 1.61556e-08 0 0 0 0 0.00705021 0 138.776
0.0295727 0 1.90661e-08 0 0 0 0 0.00694538 0 163.777
0.0312514 0 2.25009e-08 0 0 0 0 0.00682475 0 193.281
0.0330255 0 2.65545e-08 0 0 0 0 0.00668915 0 228.102
0.0349003 0 3.13384e-08 0 0 0 0 0.00653951 0 269.195
0.0368815 0 3.69841e-08 0 0 0 0 0.00637693 0 317.691
0.0389751 0 4.36469e-08 0 0 0 0 0.00620256 0 374.924
0.0411876 0 5.151e-08 0 0 0 0 0.00601767 0 442.467
0.0435258 0 6.07896e-08 0 0 0 0 0.00582358 0 522.179
0.0459966 0 7.1741e-08 0 0 0 0 0.00562166 0 616.251
0.0486077 0 8.46654e-08 0 0 0 0 0.0054133 0 727.27
0.051367 0 9.99181e-08 0 0 0 0 0.00519989 0 858.29
0.054283 0 1.17919e-07 0 0 0 0 0.0049828 0 1012.91
0.0573645 0 1.39162e-07 0 0 0 0 0.00476339 0 1195.39
0.060621 0 1.64232e-07 0 0 0 0 0.00454293 0 1410.75
0.0640622 0 1.93819e-07 0 0 0 0 0.00432265 0 1664.89
0.0676989 0 2.28736e-07 0 0 0 0 0.00410371 0 1964.83
0.071542 0 2.69944e-07 0 0 0 0 0.00388717 0 2318.8
0.0756032 0 3.18575e-07 0 0 0 0 0.00367401 0 2736.54
0.079895 0 3.75967e-07 0 0 0 0 0.0034651 0 3229.53
0.0844305 0 4.43698e-07 0 0 0 0 0.00326121 0 3811.34
0.0892234 0 5.23632e-07 0 0 0 0 0.00306301 0 4497.96
0.0942883 0 6.17966e-07 0 0 0 0 0.00287109 0 5308.28
0.0996408 0 7.29294e-07 0 0 0 0 0.00268591 0 6264.59
0.105297 0 8.60678e-07 0 0 0 0 0.00250785 0 7393.17
0.111275 0 1.01573e-06 0 0 0 0 0.00233721 0 8725.07
0.117591 0 1.19872e-06 0 0 0 0 0.00217419 0 10296.9
0.124267 0 1.41467e-06 0 0 0 0 0.00201893 0 12151.9
0.131321 0 1.66953e-06 0 0 0 0 0.00187147 0 14341.1
0.138776 0 1.9703e-06 0 0 0 0 0.00173182 0 16924.7
0.146654 0 2.32525e-06 0 0 0 0 0.00159991 0 19973.8
0.154979 0 2.74415e-06 0 0 0 0 0.00147563 0 23572.1
0.163777 0 3.23852e-06 0 0 0 0 0.00135884 0 27818.7
0.173074 0 3.82195e-06 0 0 0 0 0.00124933 0 32830.3
0.182899 0 4.51048e-06 0 0 0 0 0.00114689 0 38744.7
0.193281 0 5.32305e-06 0 0 0 0 0.00105127 0 45724.7
0.204254 0 6.28202e-06 0 0 0 0 0.000962209 0 53962.1
0.215848 0 7.41374e-06 0 0 0 0 0.000879423 0 63683.5
0.228102 0 8.74934e-06 0 0 0 0 0.000802624 0 75156.3
0.24105 0 1.03256e-05 0 0 0 0 0.000731515 0 88695.9
0.254734 0 1.21857e-05 0 0 0 0 0.000665798 0 104675
0.269195 0 1.4381e-05 0 0 0 0 0.000605173 0 123532
0.284476 0 1.69718e-05 0 0 0 0 0.000549345 0 145787
0.300625 0 2.00293e-05 0 0 0 0 0.000498021 0 172051
0.317691 0 2.36377e-05 0 0 0 0 0.000450916 0 203046
0.335725 0 2.78961e-05 0 0 0 0 0.000407755 0 239625
0.354784 0 3.29216e-05 0 0 0 0 0.000368269 0 282795
0.374924 0 3.88525e-05 0 0 0 0 0.000332202 0 333741
0.396207 0.988473 4.58519e-05 2.50967e-06 6 0.960992 2.4399e-06 0.000299307 0.0503097 393865
0.418699 0 5.41123e-05 0 0 0 0 0.00026935 0 464821
0.442467 0 6.38607e-05 0 0 0 0 0.000242108 0 548560
0.467585 0 7.53654e-05 0 0 0 0 0.00021737 0 647384
0.494129 0 8.89427e-05 0 0 0 0 0.000194938 0 764012
0.522179 0 0.000104966 0 0 0 0 0.000174625 0 901651
0.551822 0 0.000123876 0 0 0 0 0.000156255 0 1.06409e+06
0.583147 5.505 0.000146192 4.38372e-06 12 5.79404 4.61389e-06 0.000139664 0.376651 1.25578e+06
0.616251 0 0.000172529 0 0 0 0 0.0001247 0 1.48202e+06
0.651234 0 0.000203611 0 0 0 0 0.00011122 0 1.74901e+06
0.688203 26.6164 0.000240292 1.2895e-05 8 25.9542 1.25742e-05 9.90935e-05 1.04103 2.06409e+06
0.72727 0 0.000283581 0 0 0 0 8.81969e-05 0 2.43595e+06
0.768555 0 0.000334669 0 0 0 0 7.84179e-05 0 2.87479e+06
0.812184 0.757258 0.000394961 2.23203e-07 6 0.773449 2.27975e-07 6.96525e-05 0.0192271 3.39269e+06
0.85829 0 0.000466114 0 0 0 0 6.1805e-05 0 4.00389e+06
0.907013 0.445329 0.000550086 9.42454e-08 24 0.453873 9.60538e-08 5.47875e-05 0.0412848 4.7252e+06
0.958501 1.8019 0.000649185 3.23127e-07 24 1.69636 3.042e-07 4.85194e-05 0.159834 5.57646e+06
1.01291 0 0.000766138 0 0 0 0 4.29272e-05 0 6.58107e+06
1.07041 0 0.00090416 0 0 0 0 3.79435e-05 0 7.76667e+06
1.13118 1.71689 0.00106705 1.87314e-07 12 1.6958 1.85013e-07 3.3507e-05 0.0670834 9.16586e+06
1.19539 1.3568 0.00125928 1.25431e-07 30 1.32883 1.22845e-07 2.9562e-05 0.127289 1.08171e+07
1.26325 7.70486 0.00148614 6.03553e-07 24 7.58892 5.94471e-07 2.60578e-05 0.555889 1.27658e+07
1.33496 21.306 0.00175387 1.41421e-06 24 21.3528 1.41732e-06 2.29484e-05 1.47901 1.50656e+07
1.41075 7.87651 0.00206984 4.43004e-07 32 8.09098 4.55067e-07 2.01923e-05 0.702057 1.77798e+07
1.49083 1.64986 0.00244272 7.86289e-08 48 1.61468 7.69526e-08 1.77518e-05 0.212609 2.09828e+07
1.57546 1.49935 0.00288279 6.05483e-08 6 1.42772 5.76556e-08 1.55929e-05 0.0232985 2.4763e+07
1.66489 0.960072 0.00340213 3.28521e-08 84 0.935451 3.20096e-08 1.3685e-05 0.201649 2.92241e+07
1.75941 3.45058 0.00401503 1.00049e-07 48 3.45091 1.00059e-07 1.20007e-05 0.400174 3.44889e+07
1.85928 1.10868 0.00473835 2.72388e-08 72 1.11597 2.7418e-08 1.05151e-05 0.186512 4.07021e+07
1.96483 2.13441 0.00559198 4.44347e-08 54 2.08992 4.35085e-08 9.20606e-06 0.260641 4.80347e+07
2.07637 10.0001 0.00659939 1.76405e-07 104 9.97173 1.75904e-07 8.05366e-06 2.27798 5.66883e+07
2.19424 1.20335 0.00778828 1.79871e-08 120 1.21882 1.82183e-08 7.04008e-06 0.306594 6.69008e+07
2.3188 3.07851 0.00919136 3.89916e-08 156 2.95181 3.73868e-08 6.1494e-06 0.989151 7.89532e+07
2.45043 2.13945 0.0108472 2.29612e-08 126 2.11924 2.27443e-08 5.36741e-06 0.539013 9.31768e+07
2.58954 2.01333 0.0128014 1.83092e-08 192 2.037 1.85244e-08 4.68145e-06 0.750915 1.09963e+08
2.73654 7.69825 0.0151076 5.93209e-08 152 7.9606 6.13425e-08 4.08023e-06 2.20987 1.29773e+08
2.89188 5.51511 0.0178292 3.60107e-08 378 5.60114 3.65724e-08 3.55373e-06 3.83035 1.53152e+08
3.05605 3.23976 0.0210412 1.79247e-08 264 3.19997 1.77045e-08 3.09304e-06 1.52993 1.80743e+08
3.22953 1.82611 0.0248319 8.56107e-09 366 1.81761 8.52123e-09 2.69025e-06 1.16471 2.13304e+08
3.41286 3.14117 0.0293054 1.24783e-08 428 3.07629 1.22205e-08 2.33837e-06 2.28393 2.51731e+08
3.6066 5.83292 0.0345848 1.96341e-08 486 5.69179 1.9159e-08 2.0312e-06 4.69779 2.97081e+08
3.81134 2.99122 0.0408154 8.53168e-09 600 2.98958 8.527e-09 1.76327e-06 2.90314 3.50601e+08
4.0277 3.14556 0.0481684 7.60233e-09 738 3.10516 7.50468e-09 1.52972e-06 3.66767 4.13763e+08
4.25634 4.25448 0.056846 8.71278e-09 824 4.28503 8.77533e-09 1.32631e-06 5.41303 4.88304e+08
4.49796 5.59189 0.067087 9.70354e-09 954 5.57232 9.66959e-09 1.14926e-06 8.05493 5.76273e+08
4.7533 3.91139 0.0791729 5.75128e-09 1094 3.8888 5.71806e-09 9.95263e-07 6.32185 6.8009e+08
5.02313 4.37462 0.0934361 5.45049e-09 1332 4.38402 5.46221e-09 8.61414e-07 8.42806 8.0261e+08
5.30828 6.62625 0.110269 6.9956e-09 1614 6.64422 7.01458e-09 7.45152e-07 15.1525 9.47202e+08
5.60962 5.9733 0.130134 5.34359e-09 1850 5.92944 5.30436e-09 6.44232e-07 15.3448 1.11784e+09
5.92807 6.37619 0.153578 4.83328e-09 2238 6.32265 4.7927e-09 5.56685e-07 19.4309 1.31923e+09
6.26459 6.10544 0.181246 3.92156e-09 2546 6.14107 3.94445e-09 4.80786e-07 20.7666 1.55689e+09
6.62021 6.08506 0.213898 3.31184e-09 3264 6.08899 3.31398e-09 4.15026e-07 26.0462 1.83737e+09
6.99602 7.93639 0.252432 3.66007e-09 3506 7.97947 3.67994e-09 3.58083e-07 35.8359 2.16837e+09
7.39317 7.4839 0.297908 2.92453e-09 4506 7.49443 2.92864e-09 3.08803e-07 42.6742 2.55901e+09
7.81286 8.69624 0.351577 2.87953e-09 5018 8.69508 2.87914e-09 2.66181e-07 54.2844 3.02002e+09
8.25637 9.24271 0.414914 2.59329e-09 5852 9.21363 2.58513e-09 2.29336e-07 66.1733 3.56409e+09
8.72507 9.58855 0.489662 2.27964e-09 7362 9.56184 2.27329e-09 1.97503e-07 84.9745 4.20617e+09
9.22037 10.6111 0.577876 2.13765e-09 8306 10.5611 2.12757e-09 1.70014e-07 104.434 4.96392e+09
9.74378 10.7332 0.681982 1.83217e-09 9698 10.713 1.82872e-09 1.46289e-07 121.461 5.85818e+09
10.2969 12.1875 0.804843 1.76284e-09 11816 12.1994 1.76457e-09 1.25822e-07 165.548 6.91355e+09
10.8814 13.114 0.949838 1.60729e-09 13682 13.1132 1.6072e-09 1.08175e-07 203.29 8.15905e+09
11.4992 13.9389 1.12095 1.44761e-09 16152 13.9277 1.44645e-09 9.29669e-08 251.506 9.62892e+09
12.1519 14.7359 1.3229 1.29677e-09 19472 14.7004 1.29364e-09 7.98658e-08 316.163 1.13636e+10
12.8418 15.1454 1.56122 1.12935e-09 22670 15.1136 1.12697e-09 6.85852e-08 373.292 1.34108e+10
13.5708 16.3202 1.84248 1.03118e-09 26224 16.2965 1.02968e-09 5.88765e-08 459.293 1.58268e+10
14.3411 17.5425 2.17441 9.39208e-10 31640 17.5423 9.39197e-10 5.05241e-08 588.165 1.8678e+10
15.1552 18.6987 2.56613 8.48286e-10 37484 18.6688 8.46932e-10 4.33417e-08 733.639 2.20429e+10
16.0156 19.786 3.02843 7.60592e-10 43856 19.7429 7.58934e-10 3.71677e-08 897.459 2.6014e+10
16.9247 21.4744 3.574 6.99482e-10 51362 21.4319 6.98097e-10 3.18628e-08 1127.55 3.07005e+10
17.8855 22.6479 4.21787 6.25092e-10 61636 22.6081 6.23995e-10 2.73063e-08 1410.96 3.62312e+10
18.9008 23.9355 4.97773 5.59785e-10 72218 23.8864 5.58637e-10 2.33941e-08 1728.06 4.27584e+10
19.9738 25.6512 5.87448 5.08334e-10 84586 25.6018 5.07354e-10 2.00364e-08 2145.99 5.04614e+10
21.1076 27.188 6.93279 4.56541e-10 100708 27.1406 4.55745e-10 1.71555e-08 2680.03 5.95522e+10
22.3058 28.7632 8.18175 4.09262e-10 118712 28.7179 4.08617e-10 1.46847e-08 3308.51 7.02807e+10
23.5721 30.7408 9.65571 3.70631e-10 140410 30.6738 3.69823e-10 1.25662e-08 4141.3 8.29419e+10
24.9102 32.7746 11.3952 3.3483e-10 164374 32.709 3.3416e-10 1.07504e-08 5119.58 9.78842e+10
26.3243 34.8913 13.4481 3.02042e-10 194680 34.8349 3.01553e-10 9.19452e-09 6395.28 1.15518e+11
27.8187 37.223 15.8708 2.73038e-10 230196 37.1561 2.72547e-10 7.86182e-09 7994.61 1.36329e+11
29.3979 39.7375 18.73 2.46987e-10 271156 39.6582 2.46494e-10 6.72061e-09 9965.16 1.60889e+11
31.0667 42.4561 22.1042 2.23602e-10 321076 42.3781 2.23191e-10 5.74366e-09 12499.5 1.89874e+11
32.8303 45.5307 26.0864 2.03189e-10 377436 45.432 2.02749e-10 4.90756e-09 15627.1 2.2408e+11
34.694 48.743 30.7859 1.84319e-10 447594 48.6398 1.83929e-10 4.19221e-09 19679.4 2.64449e+11
36.6634 52.4836 36.3321 1.68168e-10 525078 52.365 1.67788e-10 3.58032e-09 24663 3.1209e+11
38.7447 56.7058 42.8774 1.53961e-10 621924 56.5789 1.53616e-10 3.05709e-09 31321.3 3.68314e+11
40.9442 61.3031 50.6018 1.41035e-10 732630 61.1698 1.40728e-10 2.60976e-09 39592.2 4.34667e+11
43.2685 66.6229 59.7179 1.29876e-10 865596 66.4754 1.29589e-10 2.22743e-09 50470.8 5.12973e+11
45.7247 72.7249 70.4762 1.2013e-10 1.02168e+06 72.5611 1.19859e-10 1.90073e-09 64571.7 6.05386e+11
48.3204 79.8117 83.1727 1.11711e-10 1.20544e+06 79.6186 1.11441e-10 1.62163e-09 83040.1 7.14448e+11
51.0634 103.244 98.1565 1.22449e-10 1.42103e+06 102.683 1.21784e-10 1.38326e-09 125793 8.43158e+11
53.9621 96.9873 115.84 9.74693e-11 1.67997e+06 96.7464 9.72272e-11 1.1797e-09 138802 9.95055e+11
57.0254 107.798 136.709 9.17965e-11 1.98018e+06 107.525 9.1564e-11 1.00592e-09 180704 1.17432e+12
60.2626 120.327 161.337 8.68241e-11 2.33957e+06 120.008 8.65934e-11 8.57591e-10 236862 1.38587e+12
63.6835 135.06 190.402 8.25784e-11 2.75676e+06 134.707 8.2362e-11 7.3101e-10 311417 1.63554e+12
67.2987 152.444 224.704 7.89788e-11 3.25638e+06 152.043 7.87712e-11 6.23009e-10 412811 1.93019e+12
71.1191 172.454 265.185 7.5707e-11 3.84387e+06 171.977 7.54973e-11 5.30879e-10 548163 2.27792e+12
75.1563 197.269 312.958 7.33809e-11 4.53277e+06 196.66 7.31541e-11 4.52303e-10 735388 2.68829e+12
79.4227 224.961 369.339 7.09075e-11 5.35083e+06 224.329 7.07083e-11 3.85299e-10 984725 3.17259e+12
83.9313 258.548 435.876 6.9054e-11 6.32174e+06 257.784 6.88498e-11 3.28173e-10 1.33022e+06 3.74415e+12
88.6959 298.083 514.4 6.74599e-11 7.44986e+06 297.182 6.72561e-11 2.79476e-10 1.79824e+06 4.41866e+12
93.7309 344.673 607.071 6.60964e-11 8.79764e+06 343.637 6.58977e-11 2.37972e-10 2.44353e+06 5.2147e+12
99.0518 400.421 716.436 6.50652e-11 1.03827e+07 399.174 6.48627e-11 2.02605e-10 3.33433e+06 6.15414e+12
104.675 466.697 845.504 6.42584e-11 1.22515e+07 465.258 6.40602e-11 1.72471e-10 4.56461e+06 7.26283e+12
110.617 543.463 997.824 6.34054e-11 1.44573e+07 541.739 6.32043e-11 1.468e-10 6.24436e+06 8.57124e+12
116.896 635.591 1177.58 6.28342e-11 1.70664e+07 633.58 6.26353e-11 1.24935e-10 8.5833e+06 1.01154e+13
123.532 744.359 1389.73 6.23537e-11 2.0139e+07 741.964 6.21531e-11 1.06313e-10 1.18117e+07 1.19377e+13
130.545 873.912 1640.09 6.20311e-11 2.37643e+07 871.144 6.18346e-11 9.04567e-11 1.62965e+07 1.40883e+13
137.955 1024.89 1935.56 6.16426e-11 2.80503e+07 1021.56 6.14422e-11 7.69563e-11 2.24685e+07 1.66263e+13
145.787 1203.54 2284.26 6.13376e-11 3.30981e+07 1199.6 6.11365e-11 6.54636e-11 3.1012e+07 1.96216e+13
154.063 1418 2695.77 6.12355e-11 3.90634e+07 1413.35 6.10347e-11 5.56812e-11 4.29601e+07 2.31565e+13
162.808 1667.97 3181.42 6.10346e-11 4.61057e+07 1662.46 6.08331e-11 4.73556e-11 5.94236e+07 2.73282e+13
172.051 1964.81 3754.56 6.09217e-11 5.44046e+07 1958.28 6.0719e-11 4.02708e-11 8.23033e+07 3.22515e+13
181.818 2317.47 4430.96 6.08873e-11 6.42064e+07 2309.75 6.06845e-11 3.42426e-11 1.14167e+08 3.80616e+13
192.139 2735.74 5229.21 6.09044e-11 7.57748e+07 2726.57 6.07002e-11 2.91139e-11 1.58516e+08 4.49186e+13
203.046 3232.14 6171.26 6.09715e-11 8.94213e+07 3221.3 6.07668e-11 2.4751e-11 2.2028e+08 5.30108e+13
214.572 3821.43 7283.03 6.10835e-11 1.05538e+08 3808.55 6.08775e-11 2.10401e-11 3.06398e+08 6.25608e+13
226.753 4524 8595.09 6.12749e-11 1.24552e+08 4508.66 6.1067e-11 1.78839e-11 4.26746e+08 7.38313e+13
239.625 5362.96 10143.5 6.15496e-11 1.46987e+08 5344.67 6.13398e-11 1.51999e-11 5.95202e+08 8.71322e+13
253.228 6368.94 11970.9 6.1937e-11 1.7347e+08 6347.01 6.17237e-11 1.29176e-11 8.31748e+08 1.02829e+14
267.603 7580.61 14127.5 6.24668e-11 2.04703e+08 7554.22 6.22493e-11 1.09771e-11 1.16489e+09 1.21354e+14
282.795 9049.81 16672.6 6.31897e-11 2.4161e+08 9017.85 6.29666e-11 9.3274e-12 1.63682e+09 1.43217e+14
298.848 10848.2 19676.2 6.4184e-11 2.85122e+08 10809.2 6.39531e-11 7.925e-12 2.30918e+09 1.69017e+14
315.813 13077.8 23220.9 6.55642e-11 3.36491e+08 13029.7 6.53227e-11 6.73295e-12 3.27669e+09 1.99466e+14
333.741 15885.4 27404.3 6.74822e-11 3.97115e+08 15824.9 6.72255e-11 5.71979e-12 4.68517e+09 2.35401e+14
352.686 19503.5 32341.2 7.02046e-11 4.68637e+08 19425.9 6.99254e-11 4.85874e-12 6.77141e+09 2.77809e+14
372.707 24314.2 38167.6 7.4161e-11 5.53074e+08 24211.6 7.38482e-11 4.12703e-12 9.9385e+09 3.27857e+14
393.865 30947.2 45043.5 7.99833e-11 6.52716e+08 30806.5 7.96197e-11 3.50528e-12 1.48936e+10 3.86921e+14
416.224 36526.6 53158.3 7.99923e-11 2.2184e+08 38641.8 8.46246e-11 2.97701e-12 5.96084e+09 4.56626e+14
439.852 0 62734.9 0 0 0 0 2.52819e-12 0 5.38888e+14
464.821 0 74036.7 0 0 0 0 2.1469e-12 0 6.35971e+14
491.207 0 87374.6 0 0 0 0 1.82301e-12 0 7.50542e+14
519.092 0 103115 0 0 0 0 1.54789e-12 0 8.85755e+14
548.56 0 121692 0 0 0 0 1.31422e-12 0 1.04533e+15
579.7 0 143615 0 0 0 0 1.11576e-12 0 1.23364e+15
612.608 0 169488 0 0 0 0 9.47223e-13 0 1.45589e+15
647.384 0 200021 0 0 0 0 8.041e-13 0 1.71817e+15
684.134 0 236056 0 0 0 0 6.82568e-13 0 2.0277e+15
722.971 0 278582 0 0 0 0 5.79376e-13 0 2.393e+15
764.012 0 328769 0 0 0 0 4.91762e-13 0 2.8241e+15
0.277029
200
1.0655e+09
8589934592
0.0129181 0.000242003 1.58924e-09 1.77273e-05 6 0.000239788 1.7565e-05 0.00677225 0.0157058 13.6515
0.0136515 0 1.87554e-09 0 0 0 0 0.00688819 0 16.1108
0.0144264 0 2.21343e-09 0 0 0 0 0.00699249 0 19.0132
0.0152454 0 2.61218e-09 0 0 0 0 0.00708412 0 22.4385
0.0161108 0 3.08278e-09 0 0 0 0 0.00716212 0 26.4808
0.0170254 0 3.63815e-09 0 0 0 0 0.00722559 0 31.2514
0.0179919 0.000535288 4.29357e-09 1.45137e-05 12 0.000534598 1.4495e-05 0.00727371 0.0239444 36.8815
0.0190132 0 5.06707e-09 0 0 0 0 0.00730578 0 43.5258
0.0200925 0 5.97991e-09 0 0 0 0 0.00732122 0 51.367
0.0212331 0.000504541 7.05721e-09 8.32288e-06 8 0.000504102 8.31563e-06 0.00731958 0.00909656 60.621
0.0224385 0 8.32858e-09 0 0 0 0 0.00730056 0 71.542
0.0237123 0 9.829e-09 0 0 0 0 0.00726401 0 84.4305
0.0250583 0.00322129 1.15997e-08 3.2329e-05 6 0.00321978 3.23138e-05 0.00720995 0.0269037 99.6408
0.0264808 0 1.36894e-08 0 0 0 0 0.00713857 0 117.591
0.0279841 0.00199 1.61556e-08 1.43397e-05 24 0.00198795 1.43249e-05 0.00705021 0.0488144 138.776
0.0295727 0 1.90661e-08 0 0 0 0 0.00694538 0 163.777
0.0312514 0.00354328 2.25009e-08 1.83322e-05 24 0.00356127 1.84253e-05 0.00682475 0.0644672 193.281
0.0330255 0 2.65545e-08 0 0 0 0 0.00668915 0 228.102
0.0349003 0.00502976 3.13384e-08 1.86845e-05 12 0.00498949 1.85349e-05 0.00653951 0.034286 269.195
0.0368815 0.00426056 3.69841e-08 1.3411e-05 30 0.0042152 1.32682e-05 0.00637693 0.0630917 317.691
0.0389751 0.00500667 4.36469e-08 1.33538e-05 24 0.00495517 1.32165e-05 0.00620256 0.051671 374.924
0.0411876 0.00317204 5.151e-08 7.16898e-06 24 0.0031505 7.1203e-06 0.00601767 0.0285917 442.467
0.0435258 0.0070717 6.07896e-08 1.35427e-05 8 0.00707116 1.35416e-05 0.00582358 0.0186039 522.179
0.0459966 0.0089204 7.1741e-08 1.44753e-05 72 0.00884996 1.4361e-05 0.00562166 0.185394 616.251
0.0486077 0 8.46654e-08 0 0 0 0 0.0054133 0 727.27
0.051367 0.0130277 9.99181e-08 1.51787e-05 54 0.012986 1.51301e-05 0.00519989 0.157628 858.29
0.054283 0.0102072 1.17919e-07 1.00771e-05 60 0.0102506 1.01199e-05 0.0049828 0.121342 1012.91
0.0573645 0.00999925 1.39162e-07 8.36483e-06 96 0.0099736 8.34337e-06 0.00476339 0.168582 1195.39
0.060621 0.0116169 1.64232e-07 8.23459e-06 24 0.0114595 8.12303e-06 0.00454293 0.0435029 1410.75
0.0640622 0.020439 1.93819e-07 1.22765e-05 134 0.0204501 1.22831e-05 0.00432265 0.380565 1664.89
0.0676989 0.0196991 2.28736e-07 1.00259e-05 120 0.0196077 9.97936e-06 0.00410371 0.293175 1964.83
0.071542 0.0181486 2.69944e-07 7.82671e-06 108 0.0179516 7.74175e-06 0.00388717 0.217455 2318.8
0.0756032 0.0265336 3.18575e-07 9.69606e-06 174 0.0263929 9.64463e-06 0.00367401 0.459202 2736.54
0.079895 0.0282165 3.75967e-07 8.73703e-06 168 0.027951 8.65482e-06 0.0034651 0.423602 3229.53
0.0844305 0.0239824 4.43698e-07 6.29237e-06 168 0.0241024 6.32386e-06 0.00326121 0.324149 3811.34
0.0892234 0.0271375 5.23632e-07 6.03328e-06 290 0.027022 6.00761e-06 0.00306301 0.571219 4497.96
0.0942883 0.0347563 6.17966e-07 6.54755e-06 288 0.0346718 6.53164e-06 0.00287109 0.656787 5308.28
0.0996408 0.031128 7.29294e-07 4.96889e-06 366 0.0308712 4.92789e-06 0.00268591 0.677094 6264.59
0.105297 0.0341977 8.60678e-07 4.62559e-06 420 0.0339619 4.59368e-06 0.00250785 0.774665 7393.17
0.111275 0.0362553 1.01573e-06 4.1553e-06 398 0.0361509 4.14334e-06 0.00233721 0.7076 8725.07
0.117591 0.0431289 1.19872e-06 4.18853e-06 624 0.0432203 4.19741e-06 0.00217419 1.20212 10296.9
0.124267 0.0483877 1.41467e-06 3.98189e-06 642 0.0483141 3.97584e-06 0.00201893 1.26621 12151.9
0.131321 0.0611432 1.66953e-06 4.26349e-06 800 0.0611636 4.2649e-06 0.00187147 1.82252 14341.1
0.138776 0.0552238 1.9703e-06 3.26291e-06 858 0.0554843 3.2783e-06 0.00173182 1.61655 16924.7
0.146654 0.0606879 2.32525e-06 3.03838e-06 1080 0.0611976 3.0639e-06 0.00159991 2.05103 19973.8
0.154979 0.0718216 2.74415e-06 3.04689e-06 1286 0.0723121 3.0677e-06 0.00147563 2.65533 23572.1
0.163777 0.0672965 3.23852e-06 2.41912e-06 1650 0.067434 2.42406e-06 0.00135884 2.93746 27818.7
0.173074 0.0784147 3.82195e-06 2.38849e-06 1778 0.0784302 2.38896e-06 0.00124933 3.3992 32830.3
0.182899 0.076741 4.51048e-06 1.98068e-06 2112 0.0769317 1.98561e-06 0.00114689 3.64743 38744.7
0.193281 0.0897686 5.32305e-06 1.96324e-06 2570 0.0898852 1.96579e-06 0.00105127 4.79945 45724.7
0.204254 0.102351 6.28202e-06 1.89672e-06 3030 0.102292 1.89562e-06 0.000962209 5.97277 53962.1
0.215848 0.102194 7.41374e-06 1.60472e-06 3434 0.102162 1.60422e-06 0.000879423 6.26617 63683.5
0.228102 0.106206 8.74934e-06 1.41314e-06 4218 0.106239 1.41357e-06 0.000802624 7.4264 75156.3
0.24105 0.118861 1.03256e-05 1.34009e-06 4766 0.118975 1.34138e-06 0.000731515 8.73103 88695.9
0.254734 0.128741 1.21857e-05 1.22991e-06 6026 0.128704 1.22956e-06 0.000665798 11.1317 104675
0.269195 0.137001 1.4381e-05 1.10903e-06 6480 0.136906 1.10826e-06 0.000605173 11.8752 123532
0.284476 0.149703 1.69718e-05 1.02686e-06 8162 0.150048 1.02923e-06 0.000549345 15.2568 145787
0.300625 0.151471 2.00293e-05 8.80384e-07 9578 0.151652 8.8144e-07 0.000498021 16.9317 172051
0.317691 0.168931 2.36377e-05 8.31985e-07 11234 0.168774 8.31209e-07 0.000450916 20.7278 203046
0.335725 0.178168 2.78961e-05 7.43528e-07 13344 0.178023 7.42923e-07 0.000407755 24.3324 239625
0.354784 0.187515 3.29216e-05 6.63077e-07 15464 0.187393 6.62646e-07 0.000368269 27.8433 282795
0.374924 0.200905 3.88525e-05 6.0198e-07 18458 0.200897 6.01955e-07 0.000332202 33.4476 333741
0.396207 0.214516 4.58519e-05 5.44644e-07 22232 0.214224 5.43903e-07 0.000299307 40.4552 393865
0.418699 0.231911 5.41123e-05 4.98926e-07 25628 0.23136 4.9774e-07 0.00026935 47.4716 464821
0.442467 0.247856 6.38607e-05 4.5183e-07 30320 0.247341 4.50891e-07 0.000242108 56.5843 548560
0.467585 0.259711 7.53654e-05 4.01169e-07 35452 0.259356 4.00621e-07 0.00021737 65.4287 647384
0.494129 0.277525 8.89427e-05 3.63247e-07 41792 0.277407 3.63092e-07 0.000194938 77.875 764012
0.522179 0.2998 0.000104966 3.32502e-07 49988 0.299705 3.32396e-07 0.000174625 95.1817 901651
0.551822 0.317463 0.000123876 2.98343e-07 59110 0.317213 2.98109e-07 0.000156255 112.861 1.06409e+06
0.583147 0.341536 0.000146192 2.71971e-07 69716 0.341017 2.71557e-07 0.000139664 135.759 1.25578e+06
0.616251 0.364632 0.000172529 2.46038e-07 82210 0.363983 2.456e-07 0.0001247 162.203 1.48202e+06
0.651234 0.390821 0.000203611 2.23453e-07 96722 0.390052 2.23014e-07 0.00011122 194.324 1.74901e+06
0.688203 0.418213 0.000240292 2.02613e-07 113098 0.417679 2.02355e-07 9.90935e-05 231.248 2.06409e+06
0.72727 0.448248 0.000283581 1.84014e-07 135190 0.447743 1.83807e-07 8.81969e-05 282.06 2.43595e+06
0.768555 0.480947 0.000334669 1.67298e-07 158170 0.48044 1.67122e-07 7.84179e-05 337.443 2.87479e+06
0.812184 0.51449 0.000394961 1.51647e-07 188560 0.513863 1.51462e-07 6.96525e-05 410.531 3.39269e+06
0.85829 0.552863 0.000466114 1.38081e-07 220444 0.552124 1.37897e-07 6.1805e-05 492.504 4.00389e+06
0.907013 0.58978 0.000550086 1.24816e-07 261388 0.589075 1.24667e-07 5.47875e-05 595.49 4.7252e+06
0.958501 0.63922 0.000649185 1.14628e-07 308244 0.638398 1.14481e-07 4.85194e-05 728.233 5.57646e+06
1.01291 0.687377 0.000766138 1.04448e-07 364396 0.686372 1.04295e-07 4.29272e-05 886.624 6.58107e+06
1.07041 0.738302 0.00090416 9.50603e-08 429162 0.737214 9.49202e-08 3.79435e-05 1075.19 7.76667e+06
1.13118 0.797251 0.00106705 8.69805e-08 506358 0.796078 8.68525e-08 3.3507e-05 1314.45 9.16586e+06
1.19539 0.861686 0.00125928 7.96595e-08 598590 0.860281 7.95296e-08 2.9562e-05 1612.99 1.08171e+07
1.26325 0.931256 0.00148614 7.2949e-08 704844 0.929929 7.28451e-08 2.60578e-05 1973.21 1.27658e+07
1.33496 1.00497 0.00175387 6.67061e-08 834620 1.00336 6.65995e-08 2.29484e-05 2426.06 1.50656e+07
1.41075 1.08951 0.00206984 6.12783e-08 981444 1.08766 6.11741e-08 2.01923e-05 2978.43 1.77798e+07
1.49083 1.18147 0.00244272 5.63066e-08 1.15998e+06 1.17953 5.6214e-08 1.77518e-05 3679.31 2.09828e+07
1.57546 1.28067 0.00288279 5.17173e-08 1.36931e+06 1.27851 5.16299e-08 1.55929e-05 4541.63 2.4763e+07
1.66489 1.39112 0.00340213 4.76019e-08 1.61652e+06 1.3887 4.75191e-08 1.3685e-05 5622.89 2.92241e+07
1.75941 1.51697 0.00401503 4.39844e-08 1.90601e+06 1.51431 4.39072e-08 1.20007e-05 6985.82 3.44889e+07
1.85928 1.64934 0.00473835 4.05221e-08 2.24913e+06 1.64646 4.04515e-08 1.05151e-05 8667.48 4.07021e+07
1.96483 1.7988 0.00559198 3.74479e-08 2.65744e+06 1.79556 3.73804e-08 9.20606e-06 10809.8 4.80347e+07
2.07637 1.96329 0.00659939 3.4633e-08 3.13125e+06 1.95979 3.45714e-08 8.05366e-06 13465.3 5.66883e+07
2.19424 2.14659 0.00778828 3.20861e-08 3.69915e+06 2.14266 3.20274e-08 7.04008e-06 16859.4 6.69008e+07
2.3188 2.3451 0.00919136 2.97024e-08 4.36472e+06 2.34084 2.96484e-08 6.1494e-06 21082.2 7.89532e+07
2.45043 2.56924 0.0108472 2.75738e-08 5.14913e+06 2.56449 2.75228e-08 5.36741e-06 26452.5 9.31768e+07
2.58954 2.81579 0.0128014 2.56067e-08 6.07894e+06 2.81046 2.55582e-08 4.68145e-06 33250.7 1.09963e+08
2.73654 3.08973 0.0151076 2.38087e-08 7.17304e+06 3.08391 2.37639e-08 4.08023e-06 41855.7 1.29773e+08
2.89188 3.38944 0.0178292 2.21312e-08 8.46557e+06 3.38306 2.20895e-08 3.55373e-06 52720.2 1.53152e+08
3.05605 3.72602 0.0210412 2.0615e-08 9.98773e+06 3.71894 2.05759e-08 3.09304e-06 66568 1.80743e+08
3.22953 4.09542 0.0248319 1.91999e-08 1.1797e+07 4.08751 1.91629e-08 2.69025e-06 84193.4 2.13304e+08
3.41286 4.50164 0.0293054 1.78827e-08 1.39144e+07 4.49277 1.78475e-08 2.33837e-06 106410 2.51731e+08
3.6066 4.9483 0.0345848 1.66564e-08 1.64163e+07 4.93877 1.66243e-08 2.0312e-06 134618 2.97081e+08
3.81134 5.44391 0.0408154 1.55273e-08 1.93821e+07 5.43318 1.54968e-08 1.76327e-06 170679 3.50601e+08
4.0277 5.98556 0.0481684 1.44661e-08 2.28754e+07 5.97372 1.44375e-08 1.52972e-06 216326 4.13763e+08
4.25634 6.57933 0.056846 1.34738e-08 2.69929e+07 6.56609 1.34467e-08 1.32631e-06 274219 4.88304e+08
4.49796 7.23536 0.067087 1.25554e-08 3.18542e+07 7.22078 1.25301e-08 1.14926e-06 348002 5.76273e+08
4.7533 7.94263 0.0791729 1.16788e-08 3.75892e+07 7.92671 1.16554e-08 9.95263e-07 441086 6.8009e+08
5.02313 8.70731 0.0934361 1.08487e-08 4.43706e+07 8.68997 1.08271e-08 8.61414e-07 558808 8.0261e+08
5.30828 9.54259 0.110269 1.00745e-08 5.23593e+07 9.52346 1.00543e-08 7.45152e-07 707900 9.47202e+08
5.60962 10.4428 0.130134 9.34195e-09 6.1787e+07 10.4222 9.32351e-09 6.44232e-07 895968 1.11784e+09
5.92807 11.4149 0.153578 8.65271e-09 7.29346e+07 11.3923 8.63558e-09 5.56685e-07 1.13364e+06 1.31923e+09
6.26459 12.4531 0.181246 7.99872e-09 8.60651e+07 12.4284 7.98286e-09 4.80786e-07 1.43184e+06 1.55689e+09
6.62021 13.5671 0.213898 7.38398e-09 1.01558e+08 13.5403 7.3694e-09 4.15026e-07 1.80688e+06 1.83737e+09
6.99602 14.7581 0.252432 6.80606e-09 1.1986e+08 14.7293 6.7928e-09 3.58083e-07 2.27817e+06 2.16837e+09
7.39317 16.0277 0.297908 6.26323e-09 1.41457e+08 15.9964 6.25099e-09 3.08803e-07 2.86906e+06 2.55901e+09
7.81286 17.3797 0.351577 5.75481e-09 1.66936e+08 17.3461 5.74371e-09 2.66181e-07 3.60914e+06 3.02002e+09
8.25637 18.8184 0.414914 5.28002e-09 1.97025e+08 18.7822 5.26983e-09 2.29336e-07 4.53612e+06 3.56409e+09
8.72507 20.352 0.489662 4.8386e-09 2.32497e+08 20.3128 4.82928e-09 1.97503e-07 5.69591e+06 4.20617e+09
9.22037 22.0105 0.577876 4.4341e-09 2.74404e+08 21.9678 4.4255e-09 1.70014e-07 7.15667e+06 4.96392e+09
9.74378 23.8371 0.681982 4.06903e-09 3.2382e+08 23.7903 4.06103e-09 1.46289e-07 9.00707e+06 5.85818e+09
10.2969 25.8869 0.804843 3.74437e-09 3.82165e+08 25.8342 3.73675e-09 1.25822e-07 1.13729e+07 6.91355e+09
10.8814 28.3182 0.949838 3.47077e-09 4.51027e+08 28.2572 3.4633e-09 1.08175e-07 1.4471e+07 8.15905e+09
11.4992 31.3743 1.12095 3.25834e-09 5.32251e+08 31.2997 3.25059e-09 9.29669e-08 1.86545e+07 9.62892e+09
12.1519 35.5655 1.3229 3.12978e-09 6.28157e+08 35.4678 3.12118e-09 7.98658e-08 2.46162e+07 1.13636e+10
12.8418 40.111 1.56122 2.99095e-09 3.82727e+08 41.5137 3.09555e-09 6.85852e-08 1.66904e+07 1.34108e+10
13.5708 0 1.84248 0 0 0 0 5.88765e-08 0 1.58268e+10
14.3411 0 2.17441 0 0 0 0 5.05241e-08 0 1.8678e+10
15.1552 0 2.56613 0 0 0 0 4.33417e-08 0 2.20429e+10
16.0156 0 3.02843 0 0 0 0 3.71677e-08 0 2.6014e+10
16.9247 0 3.574 0 0 0 0 3.18628e-08 0 3.07005e+10
17.8855 0 4.21787 0 0 0 0 2.73063e-08 0 3.62312e+10
18.9008 0 4.97773 0 0 0 0 2.33941e-08 0 4.27584e+10
19.9738 0 5.87448 0 0 0 0 2.00364e-08 0 5.04614e+10
21.1076 0 6.93279 0 0 0 0 1.71555e-08 0 5.95522e+10
22.3058 0 8.18175 0 0 0 0 1.46847e-08 0 7.02807e+10
23.5721 0 9.65571 0 0 0 0 1.25662e-08 0 8.29419e+10
24.9102 0 11.3952 0 0 0 0 1.07504e-08 0 9.78842e+10
26.3243 0 13.4481 0 0 0 0 9.19452e-09 0 1.15518e+11
27.8187 0 15.8708 0 0 0 0 7.86182e-09 0 1.36329e+11
29.3979 0 18.73 0 0 0 0 6.72061e-09 0 1.60889e+11
31.0667 0 22.1042 0 0 0 0 5.74366e-09 0 1.89874e+11
32.8303 0 26.0864 0 0 0 0 4.90756e-09 0 2.2408e+11
34.694 0 30.7859 0 0 0 0 4.19221e-09 0 2.64449e+11
36.6634 0 36.3321 0 0 0 0 3.58032e-09 0 3.1209e+11
38.7447 0 42.8774 0 0 0 0 3.05709e-09 0 3.68314e+11
40.9442 0 50.6018 0 0 0 0 2.60976e-09 0 4.34667e+11
43.2685 0 59.7179 0 0 0 0 2.22743e-09 0 5.12973e+11
45.7247 0 70.4762 0 0 0 0 1.90073e-09 0 6.05386e+11
48.3204 0 83.1727 0 0 0 0 1.62163e-09 0 7.14448e+11
51.0634 0 98.1565 0 0 0 0 1.38326e-09 0 8.43158e+11
53.9621 0 115.84 0 0 0 0 1.1797e-09 0 9.95055e+11
57.0254 0 136.709 0 0 0 0 1.00592e-09 0 1.17432e+12
60.2626 0 161.337 0 0 0 0 8.57591e-10 0 1.38587e+12
63.6835 0 190.402 0 0 0 0 7.3101e-10 0 1.63554e+12
67.2987 0 224.704 0 0 0 0 6.23009e-10 0 1.93019e+12
71.1191 0 265.185 0 0 0 0 5.30879e-10 0 2.27792e+12
75.1563 0 312.958 0 0 0 0 4.52303e-10 0 2.68829e+12
79.4227 0 369.339 0 0 0 0 3.85299e-10 0 3.17259e+12
83.9313 0 435.876 0 0 0 0 3.28173e-10 0 3.74415e+12
88.6959 0 514.4 0 0 0 0 2.79476e-10 0 4.41866e+12
93.7309 0 607.071 0 0 0 0 2.37972e-10 0 5.2147e+12
99.0518 0 716.436 0 0 0 0 2.02605e-10 0 6.15414e+12
104.675 0 845.504 0 0 0 0 1.72471e-10 0 7.26283e+12
110.617 0 997.824 0 0 0 0 1.468e-10 0 8.57124e+12
116.896 0 1177.58 0 0 0 0 1.24935e-10 0 1.01154e+13
123.532 0 1389.73 0 0 0 0 1.06313e-10 0 1.19377e+13
130.545 0 1640.09 0 0 0 0 9.04567e-11 0 1.40883e+13
137.955 0 1935.56 0 0 0 0 7.69563e-11 0 1.66263e+13
145.787 0 2284.26 0 0 0 0 6.54636e-11 0 1.96216e+13
154.063 0 2695.77 0 0 0 0 5.56812e-11 0 2.31565e+13
162.808 0 3181.42 0 0 0 0 4.73556e-11 0 2.73282e+13
172.051 0 3754.56 0 0 0 0 4.02708e-11 0 3.22515e+13
181.818 0 4430.96 0 0 0 0 3.42426e-11 0 3.80616e+13
192.139 0 5229.21 0 0 0 0 2.91139e-11 0 4.49186e+13
203.046 0 6171.26 0 0 0 0 2.4751e-11 0 5.30108e+13
214.572 0 7283.03 0 0 0 0 2.10401e-11 0 6.25608e+13
226.753 0 8595.09 0 0 0 0 1.78839e-11 0 7.38313e+13
239.625 0 10143.5 0 0 0 0 1.51999e-11 0 8.71322e+13
253.228 0 11970.9 0 0 0 0 1.29176e-11 0 1.02829e+14
267.603 0 14127.5 0 0 0 0 1.09771e-11 0 1.21354e+14
282.795 0 16672.6 0 0 0 0 9.3274e-12 0 1.43217e+14
298.848 0 19676.2 0 0 0 0 7.925e-12 0 1.69017e+14
315.813 0 23220.9 0 0 0 0 6.73295e-12 0 1.99466e+14
333.741 0 27404.3 0 0 0 0 5.71979e-12 0 2.35401e+14
352.686 0 32341.2 0 0 0 0 4.85874e-12 0 2.77809e+14
372.707 0 38167.6 0 0 0 0 4.12703e-12 0 3.27857e+14
393.865 0 45043.5 0 0 0 0 3.50528e-12 0 3.86921e+14
416.224 0 53158.3 0 0 0 0 2.97701e-12 0 4.56626e+14
439.852 0 62734.9 0 0 0 0 2.52819e-12 0 5.38888e+14
464.821 0 74036.7 0 0 0 0 2.1469e-12 0 6.35971e+14
491.207 0 87374.6 0 0 0 0 1.82301e-12 0 7.50542e+14
519.092 0 103115 0 0 0 0 1.54789e-12 0 8.85755e+14
548.56 0 121692 0 0 0 0 1.31422e-12 0 1.04533e+15
579.7 0 143615 0 0 0 0 1.11576e-12 0 1.23364e+15
612.608 0 169488 0 0 0 0 9.47223e-13 0 1.45589e+15
647.384 0 200021 0 0 0 0 8.041e-13 0 1.71817e+15
684.134 0 236056 0 0 0 0 6.82568e-13 0 2.0277e+15
722.971 0 278582 0 0 0 0 5.79376e-13 0 2.393e+15
764.012 0 328769 0 0 0 0 4.91762e-13 0 2.8241e+15
