0.290025
200
1.0655e+09
8589934592
0.0129181 0 1.58924e-09 0 0 0 0 0.00677225 0 13.6515
0.0136515 0 1.87554e-09 0 0 0 0 0.00688819 0 16.1108
0.0144264 0 2.21343e-09 0 0 0 0 0.00699249 0 19.0132
0.0152454 0 2.61218e-09 0 0 0 0 0.00708412 0 22.4385
0.0161108 0 3.08278e-09 0 0 0 0 0.00716212 0 26.4808
0.0170254 0 3.63815e-09 0 0 0 0 0.00722559 0 31.2514
0.0179919 0 4.29357e-09 0 0 0 0 0.00727371 0 36.8815
0.0190132 0 5.06707e-09 0 0 0 0 0.00730578 0 43.5258
0.0200925 0 5.97991e-09 0 0 0 0 0.00732122 0 51.367
0.0212331 0 7.05721e-09 0 0 0 0 0.00731958 0 60.621
0.0224385 0 8.32858e-09 0 0 0 0 0.00730056 0 71.542
0.0237123 0 9.829e-09 0 0 0 0 0.00726401 0 84.4305
0.0250583 0 1.15997e-08 0 0 0 0 0.00720995 0 99.6408
0.0264808 0 1.36894e-08 0 0 0 0 0.00713857 0 117.591
0.0279841 0 1.61556e-08 0 0 0 0 0.00705021 0 138.776
0.0295727 0 1.90661e-08 0 0 0 0 0.00694538 0 163.777
0.0312514 0 2.25009e-08 0 0 0 0 0.00682475 0 193.281
0.0330255 0 2.65545e-08 0 0 0 0 0.00668915 0 228.102
0.0349003 0 3.13384e-08 0 0 0 0 0.00653951 0 269.195
0.0368815 0 3.69841e-08 0 0 0 0 0.00637693 0 317.691
0.0389751 0 4.36469e-08 0 0 0 0 0.00620256 0 374.924
0.0411876 0 5.151e-08 0 0 0 0 0.00601767 0 442.467
0.0435258 0 6.07896e-08 0 0 0 0 0.00582358 0 522.179
0.0459966 0 7.1741e-08 0 0 0 0 0.00562166 0 616.251
0.0486077 0 8.46654e-08 0 0 0 0 0.0054133 0 727.27
0.051367 0 9.99181e-08 0 0 0 0 0.00519989 0 858.29
0.054283 0 1.17919e-07 0 0 0 0 0.0049828 0 1012.91
0.0573645 0 1.39162e-07 0 0 0 0 0.00476339 0 1195.39
0.060621 0 1.64232e-07 0 0 0 0 0.00454293 0 1410.75
0.0640622 0 1.93819e-07 0 0 0 0 0.00432265 0 1664.89
0.0676989 0 2.28736e-07 0 0 0 0 0.00410371 0 1964.83
0.071542 0 2.69944e-07 0 0 0 0 0.00388717 0 2318.8
0.0756032 0 3.18575e-07 0 0 0 0 0.00367401 0 2736.54
0.079895 0 3.75967e-07 0 0 0 0 0.0034651 0 3229.53
0.0844305 0 4.43698e-07 0 0 0 0 0.00326121 0 3811.34
0.0892234 0 5.23632e-07 0 0 0 0 0.00306301 0 4497.96
0.0942883 0 6.17966e-07 0 0 0 0 0.00287109 0 5308.28
0.0996408 0 7.29294e-07 0 0 0 0 0.00268591 0 6264.59
0.105297 0 8.60678e-07 0 0 0 0 0.00250785 0 7393.17
0.111275 0 1.01573e-06 0 0 0 0 0.00233721 0 8725.07
0.117591 0 1.19872e-06 0 0 0 0 0.00217419 0 10296.9
0.124267 0 1.41467e-06 0 0 0 0 0.00201893 0 12151.9
0.131321 0 1.66953e-06 0 0 0 0 0.00187147 0 14341.1
0.138776 0 1.9703e-06 0 0 0 0 0.00173182 0 16924.7
0.146654 0 2.32525e-06 0 0 0 0 0.00159991 0 19973.8
0.154979 0 2.74415e-06 0 0 0 0 0.00147563 0 23572.1
0.163777 0 3.23852e-06 0 0 0 0 0.00135884 0 27818.7
0.173074 0 3.82195e-06 0 0 0 0 0.00124933 0 32830.3
0.182899 0 4.51048e-06 0 0 0 0 0.00114689 0 38744.7
0.193281 0 5.32305e-06 0 0 0 0 0.00105127 0 45724.7
0.204254 0 6.28202e-06 0 0 0 0 0.000962209 0 53962.1
0.215848 0 7.41374e-06 0 0 0 0 0.000879423 0 63683.5
0.228102 0 8.74934e-06 0 0 0 0 0.000802624 0 75156.3
0.24105 0 1.03256e-05 0 0 0 0 0.000731515 0 88695.9
0.254734 0 1.21857e-05 0 0 0 0 0.000665798 0 104675
0.269195 0 1.4381e-05 0 0 0 0 0.000605173 0 123532
0.284476 0 1.69718e-05 0 0 0 0 0.000549345 0 145787
0.300625 0 2.00293e-05 0 0 0 0 0.000498021 0 172051
0.317691 0 2.36377e-05 0 0 0 0 0.000450916 0 203046
0.335725 0 2.78961e-05 0 0 0 0 0.000407755 0 239625
0.354784 0 3.29216e-05 0 0 0 0 0.000368269 0 282795
0.374924 0 3.88525e-05 0 0 0 0 0.000332202 0 333741
0.396207 1.31381 4.58519e-05 3.33568e-06 6 1.27728 3.24294e-06 0.000299307 0.0668681 393865
0.418699 0 5.41123e-05 0 0 0 0 0.00026935 0 464821
0.442467 0 6.38607e-05 0 0 0 0 0.000242108 0 548560
0.467585 0 7.53654e-05 0 0 0 0 0.00021737 0 647384
0.494129 0 8.89427e-05 0 0 0 0 0.000194938 0 764012
0.522179 0 0.000104966 0 0 0 0 0.000174625 0 901651
0.551822 0 0.000123876 0 0 0 0 0.000156255 0 1.06409e+06
0.583147 6.70416 0.000146192 5.33863e-06 12 7.05617 5.61894e-06 0.000139664 0.458698 1.25578e+06
0.616251 0 0.000172529 0 0 0 0 0.0001247 0 1.48202e+06
0.651234 0 0.000203611 0 0 0 0 0.00011122 0 1.74901e+06
0.688203 20.8578 0.000240292 1.0105e-05 8 20.3388 9.85364e-06 9.90935e-05 0.815799 2.06409e+06
0.72727 0 0.000283581 0 0 0 0 8.81969e-05 0 2.43595e+06
0.768555 0 0.000334669 0 0 0 0 7.84179e-05 0 2.87479e+06
0.812184 0.544489 0.000394961 1.60489e-07 6 0.55613 1.6392e-07 6.96525e-05 0.0138248 3.39269e+06
0.85829 0 0.000466114 0 0 0 0 6.1805e-05 0 4.00389e+06
0.907013 0.647682 0.000550086 1.3707e-07 24 0.66011 1.397e-07 5.47875e-05 0.0600443 4.7252e+06
0.958501 2.15373 0.000649185 3.86218e-07 24 2.02758 3.63596e-07 4.85194e-05 0.191042 5.57646e+06
1.01291 0 0.000766138 0 0 0 0 4.29272e-05 0 6.58107e+06
1.07041 0 0.00090416 0 0 0 0 3.79435e-05 0 7.76667e+06
1.13118 2.15645 0.00106705 2.35269e-07 12 2.12996 2.32379e-07 3.3507e-05 0.084258 9.16586e+06
1.19539 1.5338 0.00125928 1.41794e-07 30 1.50218 1.3887e-07 2.9562e-05 0.143894 1.08171e+07
1.26325 7.23969 0.00148614 5.67114e-07 24 7.13075 5.5858e-07 2.60578e-05 0.522328 1.27658e+07
1.33496 18.7647 0.00175387 1.24553e-06 24 18.806 1.24827e-06 2.29484e-05 1.3026 1.50656e+07
1.41075 9.91073 0.00206984 5.57416e-07 32 10.1535 5.71072e-07 2.01923e-05 0.883372 1.77798e+07
1.49083 1.65385 0.00244272 7.8819e-08 48 1.61859 7.71387e-08 1.77518e-05 0.213123 2.09828e+07
1.57546 1.53547 0.00288279 6.20068e-08 6 1.46211 5.90444e-08 1.55929e-05 0.0238597 2.4763e+07
1.66489 1.04382 0.00340213 3.57179e-08 84 1.0227 3.49952e-08 1.3685e-05 0.21924 2.92241e+07
1.75941 3.30796 0.00401503 9.59137e-08 48 3.30554 9.58438e-08 1.20007e-05 0.383633 3.44889e+07
1.85928 1.35311 0.00473835 3.32442e-08 72 1.3705 3.36714e-08 1.05151e-05 0.227633 4.07021e+07
1.96483 1.99214 0.00559198 4.1473e-08 54 1.9466 4.05248e-08 9.20606e-06 0.243268 4.80347e+07
2.07637 10.2944 0.00659939 1.81597e-07 104 10.3037 1.8176e-07 8.05366e-06 2.34504 5.66883e+07
2.19424 1.7379 0.00778828 2.59772e-08 120 1.7671 2.64137e-08 7.04008e-06 0.442788 6.69008e+07
2.3188 3.06613 0.00919136 3.88347e-08 156 2.95299 3.74017e-08 6.1494e-06 0.985172 7.89532e+07
2.45043 2.46775 0.0108472 2.64846e-08 126 2.45047 2.62992e-08 5.36741e-06 0.621726 9.31768e+07
2.58954 2.17374 0.0128014 1.97679e-08 192 2.1977 1.99858e-08 4.68145e-06 0.810741 1.09963e+08
2.73654 8.58179 0.0151076 6.61292e-08 152 8.85305 6.82195e-08 4.08023e-06 2.4635 1.29773e+08
2.89188 5.2125 0.0178292 3.40348e-08 378 5.30377 3.46308e-08 3.55373e-06 3.62019 1.53152e+08
3.05605 3.18101 0.0210412 1.75996e-08 264 3.13529 1.73467e-08 3.09304e-06 1.50218 1.80743e+08
3.22953 1.94704 0.0248319 9.12801e-09 366 1.92681 9.03315e-09 2.69025e-06 1.24184 2.13304e+08
3.41286 3.62915 0.0293054 1.44168e-08 428 3.57156 1.4188e-08 2.33837e-06 2.63875 2.51731e+08
3.6066 5.33896 0.0345848 1.79714e-08 486 5.21243 1.75455e-08 2.0312e-06 4.29996 2.97081e+08
3.81134 3.34656 0.0408154 9.5452e-09 600 3.35787 9.57747e-09 1.76327e-06 3.24802 3.50601e+08
4.0277 3.98589 0.0481684 9.63328e-09 738 3.94026 9.523e-09 1.52972e-06 4.64748 4.13763e+08
4.25634 4.46591 0.056846 9.14577e-09 824 4.48825 9.19152e-09 1.32631e-06 5.68203 4.88304e+08
4.49796 6.19528 0.067087 1.07506e-08 954 6.18758 1.07372e-08 1.14926e-06 8.9241 5.76273e+08
4.7533 4.76949 0.0791729 7.01303e-09 1094 4.74384 6.97532e-09 9.95263e-07 7.70877 6.8009e+08
5.02313 4.58691 0.0934361 5.715e-09 1332 4.59426 5.72415e-09 8.61414e-07 8.83707 8.0261e+08
5.30828 7.60447 0.110269 8.02834e-09 1614 7.61913 8.04382e-09 7.45152e-07 17.3894 9.47202e+08
5.60962 6.42862 0.130134 5.75091e-09 1850 6.39086 5.71713e-09 6.44232e-07 16.5145 1.11784e+09
5.92807 6.71366 0.153578 5.08909e-09 2238 6.6749 5.05971e-09 5.56685e-07 20.4593 1.31923e+09
6.26459 7.06774 0.181246 4.53966e-09 2546 7.09874 4.55957e-09 4.80786e-07 24.0397 1.55689e+09
6.62021 7.07951 0.213898 3.85308e-09 3264 7.0898 3.85868e-09 4.15026e-07 30.3028 1.83737e+09
6.99602 8.82549 0.252432 4.0701e-09 3506 8.8575 4.08486e-09 3.58083e-07 39.8505 2.16837e+09
7.39317 8.93461 0.297908 3.49143e-09 4506 8.94436 3.49524e-09 3.08803e-07 50.9463 2.55901e+09
7.81286 9.81732 0.351577 3.25074e-09 5018 9.80598 3.24699e-09 2.66181e-07 61.2825 3.02002e+09
8.25637 10.6173 0.414914 2.97898e-09 5852 10.5852 2.96996e-09 2.29336e-07 76.015 3.56409e+09
8.72507 11.2027 0.489662 2.66339e-09 7362 11.1691 2.6554e-09 1.97503e-07 99.279 4.20617e+09
9.22037 12.1185 0.577876 2.44132e-09 8306 12.0744 2.43242e-09 1.70014e-07 119.27 4.96392e+09
9.74378 12.2357 0.681982 2.08865e-09 9698 12.2234 2.08655e-09 1.46289e-07 138.464 5.85818e+09
10.2969 13.7574 0.804843 1.98992e-09 11816 13.7532 1.9893e-09 1.25822e-07 186.874 6.91355e+09
10.8814 14.3773 0.949838 1.76213e-09 13682 14.3708 1.76133e-09 1.08175e-07 222.873 8.15905e+09
11.4992 15.6903 1.12095 1.6295e-09 16152 15.659 1.62625e-09 9.29669e-08 283.108 9.62892e+09
12.1519 16.7895 1.3229 1.47748e-09 19472 16.746 1.47366e-09 7.98658e-08 360.224 1.13636e+10
12.8418 17.0798 1.56122 1.27359e-09 22670 17.0419 1.27076e-09 6.85852e-08 420.97 1.34108e+10
13.5708 18.8836 1.84248 1.19314e-09 26224 18.8553 1.19135e-09 5.88765e-08 531.433 1.58268e+10
14.3411 19.6599 2.17441 1.05257e-09 31640 19.6696 1.05309e-09 5.05241e-08 659.157 1.8678e+10
15.1552 21.2116 2.56613 9.62287e-10 37484 21.1745 9.60605e-10 4.33417e-08 832.233 2.20429e+10
16.0156 22.2741 3.02843 8.56235e-10 43856 22.226 8.54388e-10 3.71677e-08 1010.31 2.6014e+10
16.9247 24.0943 3.574 7.84818e-10 51362 24.0679 7.8396e-10 3.18628e-08 1265.11 3.07005e+10
17.8855 25.2812 4.21787 6.97774e-10 61636 25.2373 6.96562e-10 2.73063e-08 1575.02 3.62312e+10
18.9008 26.8468 4.97773 6.27873e-10 72218 26.7801 6.26312e-10 2.33941e-08 1938.25 4.27584e+10
19.9738 28.4144 5.87448 5.63091e-10 84586 28.3554 5.61922e-10 2.00364e-08 2377.15 5.04614e+10
21.1076 30.2493 6.93279 5.07947e-10 100708 30.2025 5.0716e-10 1.71555e-08 2981.8 5.95522e+10
22.3058 32.0446 8.18175 4.55952e-10 118712 31.9856 4.55113e-10 1.46847e-08 3685.96 7.02807e+10
23.5721 33.9416 9.65571 4.09221e-10 140410 33.8769 4.08441e-10 1.25662e-08 4572.5 8.29419e+10
24.9102 36.0852 11.3952 3.68652e-10 164374 36.0213 3.67999e-10 1.07504e-08 5636.73 9.78842e+10
26.3243 38.0044 13.4481 3.2899e-10 194680 37.9357 3.28396e-10 9.19452e-09 6965.87 1.15518e+11
27.8187 40.4397 15.8708 2.96633e-10 230196 40.3664 2.96095e-10 7.86182e-09 8685.49 1.36329e+11
29.3979 43.2649 18.73 2.68911e-10 271156 43.1801 2.68384e-10 6.72061e-09 10849.7 1.60889e+11
31.0667 46.2084 22.1042 2.43364e-10 321076 46.1259 2.42929e-10 5.74366e-09 13604.3 1.89874e+11
32.8303 49.3014 26.0864 2.20017e-10 377436 49.2121 2.19618e-10 4.90756e-09 16921.3 2.2408e+11
34.694 52.6765 30.7859 1.99194e-10 447594 52.5645 1.9877e-10 4.19221e-09 21267.5 2.64449e+11
36.6634 56.3678 36.3321 1.80614e-10 525078 56.2521 1.80243e-10 3.58032e-09 26488.2 3.1209e+11
38.7447 60.6176 42.8774 1.64581e-10 621924 60.4971 1.64254e-10 3.05709e-09 33481.9 3.68314e+11
40.9442 65.395 50.6018 1.50449e-10 732630 65.2683 1.50157e-10 2.60976e-09 42235 4.34667e+11
43.2685 70.8541 59.7179 1.38124e-10 865596 70.7041 1.37832e-10 2.22743e-09 53676.1 5.12973e+11
45.7247 76.9674 70.4762 1.27138e-10 1.02168e+06 76.7958 1.26854e-10 1.90073e-09 68338.7 6.05386e+11
48.3204 83.8168 83.1727 1.17317e-10 1.20544e+06 83.6168 1.17037e-10 1.62163e-09 87207.2 7.14448e+11
51.0634 104.901 98.1565 1.24414e-10 1.42103e+06 104.391 1.23809e-10 1.38326e-09 127812 8.43158e+11
53.9621 101.253 115.84 1.01756e-10 1.67997e+06 101.018 1.0152e-10 1.1797e-09 144906 9.95055e+11
57.0254 112.155 136.709 9.55067e-11 1.98018e+06 111.879 9.52718e-11 1.00592e-09 188008 1.17432e+12
60.2626 124.585 161.337 8.98964e-11 2.33957e+06 124.263 8.96641e-11 8.57591e-10 245244 1.38587e+12
63.6835 139.266 190.402 8.51495e-11 2.75676e+06 138.904 8.49282e-11 7.3101e-10 321114 1.63554e+12
67.2987 156.415 224.704 8.1036e-11 3.25638e+06 156.003 8.08228e-11 6.23009e-10 423564 1.93019e+12
71.1191 176.829 265.185 7.76276e-11 3.84387e+06 176.349 7.74168e-11 5.30879e-10 562069 2.27792e+12
75.1563 201.043 312.958 7.47848e-11 4.53277e+06 200.458 7.4567e-11 4.52303e-10 749457 2.68829e+12
79.4227 228.709 369.339 7.20888e-11 5.35083e+06 228.063 7.18854e-11 3.85299e-10 1.00113e+06 3.17259e+12
83.9313 262.247 435.876 7.00419e-11 6.32174e+06 261.478 6.98363e-11 3.28173e-10 1.34925e+06 3.74415e+12
88.6959 301.29 514.4 6.81857e-11 7.44986e+06 300.4 6.79843e-11 2.79476e-10 1.81759e+06 4.41866e+12
93.7309 348.138 607.071 6.6761e-11 8.79764e+06 347.088 6.65596e-11 2.37972e-10 2.4681e+06 5.2147e+12
99.0518 403.176 716.436 6.55129e-11 1.03827e+07 401.938 6.53117e-11 2.02605e-10 3.35728e+06 6.15414e+12
104.675 468.962 845.504 6.45702e-11 1.22515e+07 467.498 6.43686e-11 1.72471e-10 4.58676e+06 7.26283e+12
110.617 545.797 997.824 6.36777e-11 1.44573e+07 544.083 6.34777e-11 1.468e-10 6.27118e+06 8.57124e+12
116.896 637.745 1177.58 6.30471e-11 1.70664e+07 635.713 6.28462e-11 1.24935e-10 8.61239e+06 1.01154e+13
123.532 745.892 1389.73 6.24821e-11 2.0139e+07 743.498 6.22816e-11 1.06313e-10 1.1836e+07 1.19377e+13
130.545 874.887 1640.09 6.21002e-11 2.37643e+07 872.125 6.19043e-11 9.04567e-11 1.63146e+07 1.40883e+13
137.955 1024.32 1935.56 6.16085e-11 2.80503e+07 1021.01 6.1409e-11 7.69563e-11 2.24561e+07 1.66263e+13
145.787 1203.6 2284.26 6.13406e-11 3.30981e+07 1199.66 6.11399e-11 6.54636e-11 3.10135e+07 1.96216e+13
154.063 1415.58 2695.77 6.11311e-11 3.90634e+07 1410.97 6.09318e-11 5.56812e-11 4.28869e+07 2.31565e+13
162.808 1666.03 3181.42 6.09637e-11 4.61057e+07 1660.53 6.07626e-11 4.73556e-11 5.93546e+07 2.73282e+13
172.051 1962.71 3754.56 6.08564e-11 5.44046e+07 1956.19 6.06544e-11 4.02708e-11 8.2215e+07 3.22515e+13
181.818 2313.18 4430.96 6.07744e-11 6.42064e+07 2305.48 6.05721e-11 3.42426e-11 1.13955e+08 3.80616e+13
192.139 2730.64 5229.21 6.07909e-11 7.57748e+07 2721.53 6.05881e-11 2.91139e-11 1.58221e+08 4.49186e+13
203.046 3225.83 6171.26 6.08523e-11 8.94213e+07 3215.04 6.06488e-11 2.4751e-11 2.19849e+08 5.30108e+13
214.572 3813.41 7283.03 6.09553e-11 1.05538e+08 3800.59 6.07503e-11 2.10401e-11 3.05756e+08 6.25608e+13
226.753 4514.17 8595.09 6.11417e-11 1.24552e+08 4498.86 6.09344e-11 1.78839e-11 4.25819e+08 7.38313e+13
239.625 5351.01 10143.5 6.14125e-11 1.46987e+08 5332.75 6.1203e-11 1.51999e-11 5.93876e+08 8.71322e+13
253.228 6352.62 11970.9 6.17783e-11 1.7347e+08 6330.77 6.15658e-11 1.29176e-11 8.29618e+08 1.02829e+14
267.603 7560.98 14127.5 6.2305e-11 2.04703e+08 7534.72 6.20886e-11 1.09771e-11 1.16187e+09 1.21354e+14
282.795 9028.87 16672.6 6.30435e-11 2.4161e+08 8997.05 6.28213e-11 9.3274e-12 1.63303e+09 1.43217e+14
298.848 10820 19676.2 6.40172e-11 2.85122e+08 10781.2 6.37875e-11 7.925e-12 2.30319e+09 1.69017e+14
315.813 13042.1 23220.9 6.53851e-11 3.36491e+08 12994.2 6.51446e-11 6.73295e-12 3.26774e+09 1.99466e+14
333.741 15842.9 27404.3 6.73018e-11 3.97115e+08 15782.7 6.70459e-11 5.71979e-12 4.67264e+09 2.35401e+14
352.686 19453.9 32341.2 7.00263e-11 4.68637e+08 19376.5 6.97476e-11 4.85874e-12 6.7542e+09 2.77809e+14
372.707 24249.6 38167.6 7.39641e-11 5.53074e+08 24147.5 7.36525e-11 4.12703e-12 9.91213e+09 3.27857e+14
393.865 30866.6 45043.5 7.97749e-11 6.52716e+08 30726.3 7.94124e-11 3.50528e-12 1.48548e+10 3.86921e+14
416.224 36432.1 53158.3 7.97855e-11 2.2184e+08 38541.8 8.44057e-11 2.97701e-12 5.94543e+09 4.56626e+14
439.852 0 62734.9 0 0 0 0 2.52819e-12 0 5.38888e+14
464.821 0 74036.7 0 0 0 0 2.1469e-12 0 6.35971e+14
491.207 0 87374.6 0 0 0 0 1.82301e-12 0 7.50542e+14
519.092 0 103115 0 0 0 0 1.54789e-12 0 8.85755e+14
548.56 0 121692 0 0 0 0 1.31422e-12 0 1.04533e+15
579.7 0 143615 0 0 0 0 1.11576e-12 0 1.23364e+15
612.608 0 169488 0 0 0 0 9.47223e-13 0 1.45589e+15
647.384 0 200021 0 0 0 0 8.041e-13 0 1.71817e+15
684.134 0 236056 0 0 0 0 6.82568e-13 0 2.0277e+15
722.971 0 278582 0 0 0 0 5.79376e-13 0 2.393e+15
764.012 0 328769 0 0 0 0 4.91762e-13 0 2.8241e+15
0.290025
200
1.0655e+09
8589934592
0.0129181 0.000264644 1.58924e-09 1.93858e-05 6 0.000262221 1.92083e-05 0.00677225 0.0171752 13.6515
0.0136515 0 1.87554e-09 0 0 0 0 0.00688819 0 16.1108
0.0144264 0 2.21343e-09 0 0 0 0 0.00699249 0 19.0132
0.0152454 0 2.61218e-09 0 0 0 0 0.00708412 0 22.4385
0.0161108 0 3.08278e-09 0 0 0 0 0.00716212 0 26.4808
0.0170254 0 3.63815e-09 0 0 0 0 0.00722559 0 31.2514
0.0179919 0.000585429 4.29357e-09 1.58733e-05 12 0.000584675 1.58528e-05 0.00727371 0.0261874 36.8815
0.0190132 0 5.06707e-09 0 0 0 0 0.00730578 0 43.5258
0.0200925 0 5.97991e-09 0 0 0 0 0.00732122 0 51.367
0.0212331 0.000551835 7.05721e-09 9.10304e-06 8 0.000551355 9.09512e-06 0.00731958 0.00994926 60.621
0.0224385 0 8.32858e-09 0 0 0 0 0.00730056 0 71.542
0.0237123 0 9.829e-09 0 0 0 0 0.00726401 0 84.4305
0.0250583 0.00352191 1.15997e-08 3.5346e-05 6 0.00352025 3.53294e-05 0.00720995 0.0294144 99.6408
0.0264808 0 1.36894e-08 0 0 0 0 0.00713857 0 117.591
0.0279841 0.0021751 1.61556e-08 1.56734e-05 24 0.00217286 1.56574e-05 0.00705021 0.0533549 138.776
0.0295727 0 1.90661e-08 0 0 0 0 0.00694538 0 163.777
0.0312514 0.00387248 2.25009e-08 2.00355e-05 24 0.00389215 2.01372e-05 0.00682475 0.0704569 193.281
0.0330255 0 2.65545e-08 0 0 0 0 0.00668915 0 228.102
0.0349003 0.00550685 3.13384e-08 2.04568e-05 12 0.00546276 2.0293e-05 0.00653951 0.0375381 269.195
0.0368815 0.0046568 3.69841e-08 1.46583e-05 30 0.00460721 1.45022e-05 0.00637693 0.0689592 317.691
0.0389751 0.00546653 4.36469e-08 1.45804e-05 24 0.0054103 1.44304e-05 0.00620256 0.0564169 374.924
0.0411876 0.00346415 5.151e-08 7.82916e-06 24 0.00344062 7.77599e-06 0.00601767 0.0312247 442.467
0.0435258 0.00774697 6.07896e-08 1.48358e-05 8 0.00774637 1.48347e-05 0.00582358 0.0203804 522.179
0.0459966 0.00976287 7.1741e-08 1.58424e-05 72 0.00968578 1.57173e-05 0.00562166 0.202903 616.251
0.0486077 0 8.46654e-08 0 0 0 0 0.0054133 0 727.27
0.051367 0.0142315 9.99181e-08 1.65813e-05 54 0.0141859 1.65281e-05 0.00519989 0.172194 858.29
0.054283 0.0111599 1.17919e-07 1.10176e-05 60 0.0112075 1.10646e-05 0.0049828 0.132668 1012.91
0.0573645 0.0109175 1.39162e-07 9.13298e-06 96 0.0108895 9.10956e-06 0.00476339 0.184064 1195.39
0.060621 0.0126911 1.64232e-07 8.99601e-06 24 0.0125191 8.87413e-06 0.00454293 0.0475254 1410.75
0.0640622 0.0223217 1.93819e-07 1.34072e-05 134 0.0223337 1.34145e-05 0.00432265 0.415618 1664.89
0.0676989 0.0215216 2.28736e-07 1.09534e-05 120 0.0214216 1.09025e-05 0.00410371 0.320298 1964.83
0.071542 0.0198399 2.69944e-07 8.55612e-06 108 0.0196245 8.46321e-06 0.00388717 0.23772 2318.8
0.0756032 0.0290197 3.18575e-07 1.06045e-05 174 0.0288656 1.05482e-05 0.00367401 0.502228 2736.54
0.079895 0.0308441 3.75967e-07 9.55064e-06 168 0.0305539 9.46079e-06 0.0034651 0.463048 3229.53
0.0844305 0.0262015 4.43698e-07 6.87463e-06 168 0.0263327 6.90904e-06 0.00326121 0.354144 3811.34
0.0892234 0.0296778 5.23632e-07 6.59806e-06 290 0.0295513 6.56993e-06 0.00306301 0.624691 4497.96
0.0942883 0.0379656 6.17966e-07 7.15215e-06 288 0.0378736 7.13481e-06 0.00287109 0.717435 5308.28
0.0996408 0.0339758 7.29294e-07 5.42347e-06 366 0.033696 5.37881e-06 0.00268591 0.739039 6264.59
0.105297 0.037394 8.60678e-07 5.05792e-06 420 0.037136 5.02302e-06 0.00250785 0.847069 7393.17
0.111275 0.0396625 1.01573e-06 4.54581e-06 398 0.0395478 4.53267e-06 0.00233721 0.774098 8725.07
0.117591 0.0471839 1.19872e-06 4.58234e-06 624 0.0472844 4.5921e-06 0.00217419 1.31514 10296.9
0.124267 0.0529942 1.41467e-06 4.36097e-06 642 0.0529125 4.35425e-06 0.00201893 1.38675 12151.9
0.131321 0.0668882 1.66953e-06 4.66408e-06 800 0.0669104 4.66563e-06 0.00187147 1.99376 14341.1
0.138776 0.0603878 1.9703e-06 3.56802e-06 858 0.060672 3.58481e-06 0.00173182 1.76772 16924.7
0.146654 0.0664673 2.32525e-06 3.32773e-06 1080 0.0670257 3.35569e-06 0.00159991 2.24635 19973.8
0.154979 0.0786612 2.74415e-06 3.33705e-06 1286 0.0791974 3.3598e-06 0.00147563 2.9082 23572.1
0.163777 0.0737213 3.23852e-06 2.65007e-06 1650 0.0738734 2.65554e-06 0.00135884 3.2179 27818.7
0.173074 0.0858418 3.82195e-06 2.61471e-06 1778 0.0858595 2.61525e-06 0.00124933 3.72116 32830.3
0.182899 0.0840878 4.51048e-06 2.1703e-06 2112 0.0842976 2.17572e-06 0.00114689 3.99661 38744.7
0.193281 0.0982358 5.32305e-06 2.14842e-06 2570 0.0983622 2.15118e-06 0.00105127 5.25215 45724.7
0.204254 0.112194 6.28202e-06 2.07912e-06 3030 0.112128 2.07791e-06 0.000962209 6.54717 53962.1
0.215848 0.112108 7.41374e-06 1.76039e-06 3434 0.112071 1.75981e-06 0.000879423 6.87401 63683.5
0.228102 0.116535 8.74934e-06 1.55057e-06 4218 0.11657 1.55104e-06 0.000802624 8.14867 75156.3
0.24105 0.130377 1.03256e-05 1.46993e-06 4766 0.130501 1.47133e-06 0.000731515 9.57697 88695.9
0.254734 0.141338 1.21857e-05 1.35026e-06 6026 0.141299 1.34989e-06 0.000665798 12.2209 104675
0.269195 0.150629 1.4381e-05 1.21935e-06 6480 0.150522 1.21848e-06 0.000605173 13.0564 123532
0.284476 0.164659 1.69718e-05 1.12945e-06 8162 0.165036 1.13204e-06 0.000549345 16.781 145787
0.300625 0.166893 2.00293e-05 9.70025e-07 9578 0.167091 9.71174e-07 0.000498021 18.6556 172051
0.317691 0.186079 2.36377e-05 9.16438e-07 11234 0.185903 9.15568e-07 0.000450916 22.8319 203046
0.335725 0.196423 2.78961e-05 8.19707e-07 13344 0.196255 8.19009e-07 0.000407755 26.8254 239625
0.354784 0.207062 3.29216e-05 7.32201e-07 15464 0.206926 7.31717e-07 0.000368269 30.7459 282795
0.374924 0.221824 3.88525e-05 6.64659e-07 18458 0.221814 6.64631e-07 0.000332202 36.9302 333741
0.396207 0.237421 4.58519e-05 6.02798e-07 22232 0.237101 6.01984e-07 0.000299307 44.7748 393865
0.418699 0.256506 5.41123e-05 5.51838e-07 25628 0.255891 5.50516e-07 0.00026935 52.5061 464821
0.442467 0.274796 6.38607e-05 5.00942e-07 30320 0.274219 4.99889e-07 0.000242108 62.7346 548560
0.467585 0.288114 7.53654e-05 4.45043e-07 35452 0.287722 4.44438e-07 0.00021737 72.5842 647384
0.494129 0.308755 8.89427e-05 4.04123e-07 41792 0.308624 4.03952e-07 0.000194938 86.6383 764012
0.522179 0.333657 0.000104966 3.70052e-07 49988 0.333554 3.69936e-07 0.000174625 105.931 901651
0.551822 0.353769 0.000123876 3.32463e-07 59110 0.353483 3.32194e-07 0.000156255 125.768 1.06409e+06
0.583147 0.381102 0.000146192 3.03478e-07 69716 0.380512 3.03008e-07 0.000139664 151.487 1.25578e+06
0.616251 0.407553 0.000172529 2.74999e-07 82210 0.406818 2.74503e-07 0.0001247 181.297 1.48202e+06
0.651234 0.437253 0.000203611 2.50001e-07 96722 0.436393 2.49509e-07 0.00011122 217.411 1.74901e+06
0.688203 0.468741 0.000240292 2.27093e-07 113098 0.468124 2.26794e-07 9.90935e-05 259.187 2.06409e+06
0.72727 0.503693 0.000283581 2.06775e-07 135190 0.503119 2.0654e-07 8.81969e-05 316.949 2.43595e+06
0.768555 0.541159 0.000334669 1.88243e-07 158170 0.540579 1.88041e-07 7.84179e-05 379.689 2.87479e+06
0.812184 0.580429 0.000394961 1.71082e-07 188560 0.5797 1.70868e-07 6.96525e-05 463.146 3.39269e+06
0.85829 0.62484 0.000466114 1.56058e-07 220444 0.623994 1.55847e-07 6.1805e-05 556.623 4.00389e+06
0.907013 0.66797 0.000550086 1.41363e-07 261388 0.667155 1.41191e-07 5.47875e-05 674.436 4.7252e+06
0.958501 0.725482 0.000649185 1.30097e-07 308244 0.724536 1.29928e-07 4.85194e-05 826.508 5.57646e+06
1.01291 0.781874 0.000766138 1.18807e-07 364396 0.780708 1.18629e-07 4.29272e-05 1008.51 6.58107e+06
1.07041 0.841693 0.00090416 1.08372e-07 429162 0.840443 1.08211e-07 3.79435e-05 1225.75 7.76667e+06
1.13118 0.910824 0.00106705 9.93713e-08 506358 0.909455 9.9222e-08 3.3507e-05 1501.7 9.16586e+06
1.19539 0.9867 0.00125928 9.12166e-08 598590 0.985064 9.10653e-08 2.9562e-05 1847.01 1.08171e+07
1.26325 1.06926 0.00148614 8.37598e-08 704844 1.06772 8.36392e-08 2.60578e-05 2265.64 1.27658e+07
1.33496 1.15755 0.00175387 7.68335e-08 834620 1.15568 7.67093e-08 2.29484e-05 2794.38 1.50656e+07
1.41075 1.25725 0.00206984 7.07126e-08 981444 1.25508 7.05903e-08 2.01923e-05 3436.98 1.77798e+07
1.49083 1.36712 0.00244272 6.51541e-08 1.15998e+06 1.36483 6.50453e-08 1.77518e-05 4257.45 2.09828e+07
1.57546 1.48635 0.00288279 6.00229e-08 1.36931e+06 1.4838 5.992e-08 1.55929e-05 5271 2.4763e+07
1.66489 1.61783 0.00340213 5.53596e-08 1.61652e+06 1.61497 5.52616e-08 1.3685e-05 6539.24 2.92241e+07
1.75941 1.76969 0.00401503 5.13119e-08 1.90601e+06 1.76651 5.12197e-08 1.20007e-05 8149.6 3.44889e+07
1.85928 1.92902 0.00473835 4.73937e-08 2.24913e+06 1.92557 4.73088e-08 1.05151e-05 10137.3 4.07021e+07
1.96483 2.10909 0.00559198 4.39075e-08 2.65744e+06 2.10522 4.3827e-08 9.20606e-06 12674.4 4.80347e+07
2.07637 2.30748 0.00659939 4.07047e-08 3.13125e+06 2.30331 4.06312e-08 8.05366e-06 15825.9 5.66883e+07
2.19424 2.52854 0.00778828 3.77954e-08 3.69915e+06 2.52384 3.7725e-08 7.04008e-06 19859.3 6.69008e+07
2.3188 2.76943 0.00919136 3.50768e-08 4.36472e+06 2.76433 3.50123e-08 6.1494e-06 24896.8 7.89532e+07
2.45043 3.04025 0.0108472 3.26289e-08 5.14913e+06 3.03457 3.25678e-08 5.36741e-06 31301.9 9.31768e+07
2.58954 3.33829 0.0128014 3.03584e-08 6.07894e+06 3.33192 3.03004e-08 4.68145e-06 39420.8 1.09963e+08
2.73654 3.67088 0.0151076 2.8287e-08 7.17304e+06 3.66388 2.8233e-08 4.08023e-06 49728.4 1.29773e+08
2.89188 4.03293 0.0178292 2.63329e-08 8.46557e+06 4.02528 2.62829e-08 3.55373e-06 62729.2 1.53152e+08
3.05605 4.43778 0.0210412 2.4553e-08 9.98773e+06 4.42927 2.45059e-08 3.09304e-06 79284.1 1.80743e+08
3.22953 4.88451 0.0248319 2.28993e-08 1.1797e+07 4.87503 2.28549e-08 2.69025e-06 100416 2.13304e+08
3.41286 5.3747 0.0293054 2.13509e-08 1.39144e+07 5.36409 2.13088e-08 2.33837e-06 127048 2.51731e+08
3.6066 5.91445 0.0345848 1.99085e-08 1.64163e+07 5.90299 1.98699e-08 2.0312e-06 160902 2.97081e+08
3.81134 6.50796 0.0408154 1.85623e-08 1.93821e+07 6.49515 1.85257e-08 1.76327e-06 204040 3.50601e+08
4.0277 7.15685 0.0481684 1.7297e-08 2.28754e+07 7.14264 1.72626e-08 1.52972e-06 258658 4.13763e+08
4.25634 7.86241 0.056846 1.61015e-08 2.69929e+07 7.84664 1.60692e-08 1.32631e-06 327696 4.88304e+08
4.49796 8.64213 0.067087 1.49966e-08 3.18542e+07 8.62473 1.49664e-08 1.14926e-06 415664 5.76273e+08
4.7533 9.4832 0.0791729 1.3944e-08 3.75892e+07 9.46422 1.39161e-08 9.95263e-07 526640 6.8009e+08
5.02313 10.385 0.0934361 1.2939e-08 4.43706e+07 10.3645 1.29134e-08 8.61414e-07 666477 8.0261e+08
5.30828 11.3654 0.110269 1.19989e-08 5.23593e+07 11.3428 1.19751e-08 7.45152e-07 843121 9.47202e+08
5.60962 12.423 0.130134 1.11133e-08 6.1787e+07 12.3986 1.10915e-08 6.44232e-07 1.06586e+06 1.11784e+09
5.92807 13.5534 0.153578 1.02738e-08 7.29346e+07 13.5269 1.02536e-08 5.56685e-07 1.34603e+06 1.31923e+09
6.26459 14.7593 0.181246 9.47999e-09 8.60651e+07 14.7305 9.46153e-09 4.80786e-07 1.697e+06 1.55689e+09
6.62021 16.0398 0.213898 8.72977e-09 1.01558e+08 16.0084 8.71272e-09 4.15026e-07 2.1362e+06 1.83737e+09
6.99602 17.4073 0.252432 8.02782e-09 1.1986e+08 17.3739 8.01243e-09 3.58083e-07 2.68713e+06 2.16837e+09
7.39317 18.8547 0.297908 7.36796e-09 1.41457e+08 18.8187 7.35388e-09 3.08803e-07 3.37512e+06 2.55901e+09
7.81286 20.3936 0.351577 6.75279e-09 1.66936e+08 20.3549 6.73997e-09 2.66181e-07 4.23502e+06 3.02002e+09
8.25637 22.0207 0.414914 6.17851e-09 1.97025e+08 21.979 6.1668e-09 2.29336e-07 5.30802e+06 3.56409e+09
8.72507 23.7506 0.489662 5.64662e-09 2.32497e+08 23.7059 5.63599e-09 1.97503e-07 6.64709e+06 4.20617e+09
9.22037 25.6074 0.577876 5.1587e-09 2.74404e+08 25.5588 5.1489e-09 1.70014e-07 8.32619e+06 4.96392e+09
9.74378 27.6455 0.681982 4.71912e-09 3.2382e+08 27.5919 4.70998e-09 1.46289e-07 1.04461e+07 5.85818e+09
10.2969 29.9331 0.804843 4.32963e-09 3.82165e+08 29.8736 4.32102e-09 1.25822e-07 1.31505e+07 6.91355e+09
10.8814 32.6386 0.949838 4.0003e-09 4.51027e+08 32.5695 3.99183e-09 1.08175e-07 1.66788e+07 8.15905e+09
11.4992 36.0395 1.12095 3.74284e-09 5.32251e+08 35.9554 3.7341e-09 9.29669e-08 2.14284e+07 9.62892e+09
12.1519 40.7086 1.3229 3.58237e-09 6.28157e+08 40.5984 3.57268e-09 7.98658e-08 2.81759e+07 1.13636e+10
12.8418 45.8105 1.56122 3.41595e-09 3.82727e+08 47.413 3.53544e-09 6.85852e-08 1.9062e+07 1.34108e+10
13.5708 0 1.84248 0 0 0 0 5.88765e-08 0 1.58268e+10
14.3411 0 2.17441 0 0 0 0 5.05241e-08 0 1.8678e+10
15.1552 0 2.56613 0 0 0 0 4.33417e-08 0 2.20429e+10
16.0156 0 3.02843 0 0 0 0 3.71677e-08 0 2.6014e+10
16.9247 0 3.574 0 0 0 0 3.18628e-08 0 3.07005e+10
17.8855 0 4.21787 0 0 0 0 2.73063e-08 0 3.62312e+10
18.9008 0 4.97773 0 0 0 0 2.33941e-08 0 4.27584e+10
19.9738 0 5.87448 0 0 0 0 2.00364e-08 0 5.04614e+10
21.1076 0 6.93279 0 0 0 0 1.71555e-08 0 5.95522e+10
22.3058 0 8.18175 0 0 0 0 1.46847e-08 0 7.02807e+10
23.5721 0 9.65571 0 0 0 0 1.25662e-08 0 8.29419e+10
24.9102 0 11.3952 0 0 0 0 1.07504e-08 0 9.78842e+10
26.3243 0 13.4481 0 0 0 0 9.19452e-09 0 1.15518e+11
27.8187 0 15.8708 0 0 0 0 7.86182e-09 0 1.36329e+11
29.3979 0 18.73 0 0 0 0 6.72061e-09 0 1.60889e+11
31.0667 0 22.1042 0 0 0 0 5.74366e-09 0 1.89874e+11
32.8303 0 26.0864 0 0 0 0 4.90756e-09 0 2.2408e+11
34.694 0 30.7859 0 0 0 0 4.19221e-09 0 2.64449e+11
36.6634 0 36.3321 0 0 0 0 3.58032e-09 0 3.1209e+11
38.7447 0 42.8774 0 0 0 0 3.05709e-09 0 3.68314e+11
40.9442 0 50.6018 0 0 0 0 2.60976e-09 0 4.34667e+11
43.2685 0 59.7179 0 0 0 0 2.22743e-09 0 5.12973e+11
45.7247 0 70.4762 0 0 0 0 1.90073e-09 0 6.05386e+11
48.3204 0 83.1727 0 0 0 0 1.62163e-09 0 7.14448e+11
51.0634 0 98.1565 0 0 0 0 1.38326e-09 0 8.43158e+11
53.9621 0 115.84 0 0 0 0 1.1797e-09 0 9.95055e+11
57.0254 0 136.709 0 0 0 0 1.00592e-09 0 1.17432e+12
60.2626 0 161.337 0 0 0 0 8.57591e-10 0 1.38587e+12
63.6835 0 190.402 0 0 0 0 7.3101e-10 0 1.63554e+12
67.2987 0 224.704 0 0 0 0 6.23009e-10 0 1.93019e+12
71.1191 0 265.185 0 0 0 0 5.30879e-10 0 2.27792e+12
75.1563 0 312.958 0 0 0 0 4.52303e-10 0 2.68829e+12
79.4227 0 369.339 0 0 0 0 3.85299e-10 0 3.17259e+12
83.9313 0 435.876 0 0 0 0 3.28173e-10 0 3.74415e+12
88.6959 0 514.4 0 0 0 0 2.79476e-10 0 4.41866e+12
93.7309 0 607.071 0 0 0 0 2.37972e-10 0 5.2147e+12
99.0518 0 716.436 0 0 0 0 2.02605e-10 0 6.15414e+12
104.675 0 845.504 0 0 0 0 1.72471e-10 0 7.26283e+12
110.617 0 997.824 0 0 0 0 1.468e-10 0 8.57124e+12
116.896 0 1177.58 0 0 0 0 1.24935e-10 0 1.01154e+13
123.532 0 1389.73 0 0 0 0 1.06313e-10 0 1.19377e+13
130.545 0 1640.09 0 0 0 0 9.04567e-11 0 1.40883e+13
137.955 0 1935.56 0 0 0 0 7.69563e-11 0 1.66263e+13
145.787 0 2284.26 0 0 0 0 6.54636e-11 0 1.96216e+13
154.063 0 2695.77 0 0 0 0 5.56812e-11 0 2.31565e+13
162.808 0 3181.42 0 0 0 0 4.73556e-11 0 2.73282e+13
172.051 0 3754.56 0 0 0 0 4.02708e-11 0 3.22515e+13
181.818 0 4430.96 0 0 0 0 3.42426e-11 0 3.80616e+13
192.139 0 5229.21 0 0 0 0 2.91139e-11 0 4.49186e+13
203.046 0 6171.26 0 0 0 0 2.4751e-11 0 5.30108e+13
214.572 0 7283.03 0 0 0 0 2.10401e-11 0 6.25608e+13
226.753 0 8595.09 0 0 0 0 1.78839e-11 0 7.38313e+13
239.625 0 10143.5 0 0 0 0 1.51999e-11 0 8.71322e+13
253.228 0 11970.9 0 0 0 0 1.29176e-11 0 1.02829e+14
267.603 0 14127.5 0 0 0 0 1.09771e-11 0 1.21354e+14
282.795 0 16672.6 0 0 0 0 9.3274e-12 0 1.43217e+14
298.848 0 19676.2 0 0 0 0 7.925e-12 0 1.69017e+14
315.813 0 23220.9 0 0 0 0 6.73295e-12 0 1.99466e+14
333.741 0 27404.3 0 0 0 0 5.71979e-12 0 2.35401e+14
352.686 0 32341.2 0 0 0 0 4.85874e-12 0 2.77809e+14
372.707 0 38167.6 0 0 0 0 4.12703e-12 0 3.27857e+14
393.865 0 45043.5 0 0 0 0 3.50528e-12 0 3.86921e+14
416.224 0 53158.3 0 0 0 0 2.97701e-12 0 4.56626e+14
439.852 0 62734.9 0 0 0 0 2.52819e-12 0 5.38888e+14
464.821 0 74036.7 0 0 0 0 2.1469e-12 0 6.35971e+14
491.207 0 87374.6 0 0 0 0 1.82301e-12 0 7.50542e+14
519.092 0 103115 0 0 0 0 1.54789e-12 0 8.85755e+14
548.56 0 121692 0 0 0 0 1.31422e-12 0 1.04533e+15
579.7 0 143615 0 0 0 0 1.11576e-12 0 1.23364e+15
612.608 0 169488 0 0 0 0 9.47223e-13 0 1.45589e+15
647.384 0 200021 0 0 0 0 8.041e-13 0 1.71817e+15
684.134 0 236056 0 0 0 0 6.82568e-13 0 2.0277e+15
722.971 0 278582 0 0 0 0 5.79376e-13 0 2.393e+15
764.012 0 328769 0 0 0 0 4.91762e-13 0 2.8241e+15
