0.57112
200
1.0655e+09
8589934592
0.0129181 0 1.58924e-09 0 0 0 0 0.00677225 0 13.6515
0.0136515 0 1.87554e-09 0 0 0 0 0.00688819 0 16.1108
0.0144264 0 2.21343e-09 0 0 0 0 0.00699249 0 19.0132
0.0152454 0 2.61218e-09 0 0 0 0 0.00708412 0 22.4385
0.0161108 0 3.08278e-09 0 0 0 0 0.00716212 0 26.4808
0.0170254 0 3.63815e-09 0 0 0 0 0.00722559 0 31.2514
0.0179919 0 4.29357e-09 0 0 0 0 0.00727371 0 36.8815
0.0190132 0 5.06707e-09 0 0 0 0 0.00730578 0 43.5258
0.0200925 0 5.97991e-09 0 0 0 0 0.00732122 0 51.367
0.0212331 0 7.05721e-09 0 0 0 0 0.00731958 0 60.621
0.0224385 0 8.32858e-09 0 0 0 0 0.00730056 0 71.542
0.0237123 0 9.829e-09 0 0 0 0 0.00726401 0 84.4305
0.0250583 0 1.15997e-08 0 0 0 0 0.00720995 0 99.6408
0.0264808 0 1.36894e-08 0 0 0 0 0.00713857 0 117.591
0.0279841 0 1.61556e-08 0 0 0 0 0.00705021 0 138.776
0.0295727 0 1.90661e-08 0 0 0 0 0.00694538 0 163.777
0.0312514 0 2.25009e-08 0 0 0 0 0.00682475 0 193.281
0.0330255 0 2.65545e-08 0 0 0 0 0.00668915 0 228.102
0.0349003 0 3.13384e-08 0 0 0 0 0.00653951 0 269.195
0.0368815 0 3.69841e-08 0 0 0 0 0.00637693 0 317.691
0.0389751 0 4.36469e-08 0 0 0 0 0.00620256 0 374.924
0.0411876 0 5.151e-08 0 0 0 0 0.00601767 0 442.467
0.0435258 0 6.07896e-08 0 0 0 0 0.00582358 0 522.179
0.0459966 0 7.1741e-08 0 0 0 0 0.00562166 0 616.251
0.0486077 0 8.46654e-08 0 0 0 0 0.0054133 0 727.27
0.051367 0 9.99181e-08 0 0 0 0 0.00519989 0 858.29
0.054283 0 1.17919e-07 0 0 0 0 0.0049828 0 1012.91
0.0573645 0 1.39162e-07 0 0 0 0 0.00476339 0 1195.39
0.060621 0 1.64232e-07 0 0 0 0 0.00454293 0 1410.75
0.0640622 0 1.93819e-07 0 0 0 0 0.00432265 0 1664.89
0.0676989 0 2.28736e-07 0 0 0 0 0.00410371 0 1964.83
0.071542 0 2.69944e-07 0 0 0 0 0.00388717 0 2318.8
0.0756032 0 3.18575e-07 0 0 0 0 0.00367401 0 2736.54
0.079895 0 3.75967e-07 0 0 0 0 0.0034651 0 3229.53
0.0844305 0 4.43698e-07 0 0 0 0 0.00326121 0 3811.34
0.0892234 0 5.23632e-07 0 0 0 0 0.00306301 0 4497.96
0.0942883 0 6.17966e-07 0 0 0 0 0.00287109 0 5308.28
0.0996408 0 7.29294e-07 0 0 0 0 0.00268591 0 6264.59
0.105297 0 8.60678e-07 0 0 0 0 0.00250785 0 7393.17
0.111275 0 1.01573e-06 0 0 0 0 0.00233721 0 8725.07
0.117591 0 1.19872e-06 0 0 0 0 0.00217419 0 10296.9
0.124267 0 1.41467e-06 0 0 0 0 0.00201893 0 12151.9
0.131321 0 1.66953e-06 0 0 0 0 0.00187147 0 14341.1
0.138776 0 1.9703e-06 0 0 0 0 0.00173182 0 16924.7
0.146654 0 2.32525e-06 0 0 0 0 0.00159991 0 19973.8
0.154979 0 2.74415e-06 0 0 0 0 0.00147563 0 23572.1
0.163777 0 3.23852e-06 0 0 0 0 0.00135884 0 27818.7
0.173074 0 3.82195e-06 0 0 0 0 0.00124933 0 32830.3
0.182899 0 4.51048e-06 0 0 0 0 0.00114689 0 38744.7
0.193281 0 5.32305e-06 0 0 0 0 0.00105127 0 45724.7
0.204254 0 6.28202e-06 0 0 0 0 0.000962209 0 53962.1
0.215848 0 7.41374e-06 0 0 0 0 0.000879423 0 63683.5
0.228102 0 8.74934e-06 0 0 0 0 0.000802624 0 75156.3
0.24105 0 1.03256e-05 0 0 0 0 0.000731515 0 88695.9
0.254734 0 1.21857e-05 0 0 0 0 0.000665798 0 104675
0.269195 0 1.4381e-05 0 0 0 0 0.000605173 0 123532
0.284476 0 1.69718e-05 0 0 0 0 0.000549345 0 145787
0.300625 0 2.00293e-05 0 0 0 0 0.000498021 0 172051
0.317691 0 2.36377e-05 0 0 0 0 0.000450916 0 203046
0.335725 0 2.78961e-05 0 0 0 0 0.000407755 0 239625
0.354784 0 3.29216e-05 0 0 0 0 0.000368269 0 282795
0.374924 0 3.88525e-05 0 0 0 0 0.000332202 0 333741
0.396207 1.64515 4.58519e-05 4.17693e-06 6 1.59941 4.0608e-06 0.000299307 0.0837321 393865
0.418699 0 5.41123e-05 0 0 0 0 0.00026935 0 464821
0.442467 0 6.38607e-05 0 0 0 0 0.000242108 0 548560
0.467585 0 7.53654e-05 0 0 0 0 0.00021737 0 647384
0.494129 0 8.89427e-05 0 0 0 0 0.000194938 0 764012
0.522179 0 0.000104966 0 0 0 0 0.000174625 0 901651
0.551822 0 0.000123876 0 0 0 0 0.000156255 0 1.06409e+06
0.583147 7.32787 0.000146192 5.8353e-06 12 7.71262 6.14168e-06 0.000139664 0.501371 1.25578e+06
0.616251 0 0.000172529 0 0 0 0 0.0001247 0 1.48202e+06
0.651234 0 0.000203611 0 0 0 0 0.00011122 0 1.74901e+06
0.688203 16.5154 0.000240292 8.0013e-06 8 16.1045 7.80224e-06 9.90935e-05 0.64596 2.06409e+06
0.72727 0 0.000283581 0 0 0 0 8.81969e-05 0 2.43595e+06
0.768555 0 0.000334669 0 0 0 0 7.84179e-05 0 2.87479e+06
0.812184 6.6874 0.000394961 1.97112e-06 6 6.83038 2.01326e-06 6.96525e-05 0.169796 3.39269e+06
0.85829 0 0.000466114 0 0 0 0 6.1805e-05 0 4.00389e+06
0.907013 0.903682 0.000550086 1.91247e-07 24 0.921021 1.94917e-07 5.47875e-05 0.0837771 4.7252e+06
0.958501 2.6404 0.000649185 4.73491e-07 24 2.48574 4.45757e-07 4.85194e-05 0.234211 5.57646e+06
1.01291 0 0.000766138 0 0 0 0 4.29272e-05 0 6.58107e+06
1.07041 0 0.00090416 0 0 0 0 3.79435e-05 0 7.76667e+06
1.13118 8.52565 0.00106705 9.30153e-07 12 8.42093 9.18727e-07 3.3507e-05 0.333119 9.16586e+06
1.19539 2.88562 0.00125928 2.66764e-07 30 2.82613 2.61265e-07 2.9562e-05 0.270716 1.08171e+07
1.26325 9.361 0.00148614 7.33285e-07 24 9.22014 7.22251e-07 2.60578e-05 0.675376 1.27658e+07
1.33496 15.2673 0.00175387 1.01338e-06 24 15.3008 1.01561e-06 2.29484e-05 1.05982 1.50656e+07
1.41075 15.5938 0.00206984 8.77053e-07 32 15.9511 8.97152e-07 2.01923e-05 1.38992 1.77798e+07
1.49083 3.08782 0.00244272 1.47159e-07 48 3.02199 1.44022e-07 1.77518e-05 0.397912 2.09828e+07
1.57546 10.959 0.00288279 4.42556e-07 6 10.4354 4.21413e-07 1.55929e-05 0.170292 2.4763e+07
1.66489 3.44993 0.00340213 1.18051e-07 84 3.36756 1.15232e-07 1.3685e-05 0.72461 2.92241e+07
1.75941 5.84615 0.00401503 1.69509e-07 48 5.77275 1.6738e-07 1.20007e-05 0.677996 3.44889e+07
1.85928 5.01732 0.00473835 1.23269e-07 72 5.0777 1.24753e-07 1.05151e-05 0.844062 4.07021e+07
1.96483 7.73878 0.00559198 1.61108e-07 54 7.57632 1.57726e-07 9.20606e-06 0.945012 4.80347e+07
2.07637 12.9627 0.00659939 2.28666e-07 104 13.044 2.30101e-07 8.05366e-06 2.95285 5.66883e+07
2.19424 4.02608 0.00778828 6.01797e-08 120 4.08734 6.10954e-08 7.04008e-06 1.02578 6.69008e+07
2.3188 6.82927 0.00919136 8.64977e-08 156 6.63131 8.39904e-08 6.1494e-06 2.1943 7.89532e+07
2.45043 7.9964 0.0108472 8.58196e-08 126 7.95243 8.53477e-08 5.36741e-06 2.01462 9.31768e+07
2.58954 8.51704 0.0128014 7.74538e-08 192 8.57819 7.80098e-08 4.68145e-06 3.17661 1.09963e+08
2.73654 23.1788 0.0151076 1.7861e-07 152 23.6986 1.82615e-07 4.08023e-06 6.65373 1.29773e+08
2.89188 10.3713 0.0178292 6.77193e-08 378 10.4438 6.81924e-08 3.55373e-06 7.2031 1.53152e+08
3.05605 10.4767 0.0210412 5.79649e-08 264 10.3658 5.73509e-08 3.09304e-06 4.94747 1.80743e+08
3.22953 9.78657 0.0248319 4.58809e-08 366 9.70144 4.54818e-08 2.69025e-06 6.24194 2.13304e+08
3.41286 11.6612 0.0293054 4.63242e-08 428 11.5295 4.58008e-08 2.33837e-06 8.47886 2.51731e+08
3.6066 14.5201 0.0345848 4.8876e-08 486 14.3166 4.81909e-08 2.0312e-06 11.6944 2.97081e+08
3.81134 13.4129 0.0408154 3.82569e-08 600 13.3876 3.81848e-08 1.76327e-06 13.018 3.50601e+08
4.0277 16.1116 0.0481684 3.89391e-08 738 15.9929 3.86524e-08 1.52972e-06 18.7858 4.13763e+08
4.25634 16.4574 0.056846 3.37032e-08 824 16.4066 3.35991e-08 1.32631e-06 20.9389 4.88304e+08
4.49796 17.5209 0.067087 3.04037e-08 954 17.4156 3.02211e-08 1.14926e-06 25.2382 5.76273e+08
4.7533 16.3275 0.0791729 2.40078e-08 1094 16.206 2.38292e-08 9.95263e-07 26.3896 6.8009e+08
5.02313 18.5361 0.0934361 2.30948e-08 1332 18.5987 2.31728e-08 8.61414e-07 35.7113 8.0261e+08
5.30828 24.5087 0.110269 2.58748e-08 1614 24.4916 2.58568e-08 7.45152e-07 56.0449 9.47202e+08
5.60962 24.7058 0.130134 2.21013e-08 1850 24.6367 2.20395e-08 6.44232e-07 63.4669 1.11784e+09
5.92807 22.9684 0.153578 1.74105e-08 2238 22.9849 1.7423e-08 5.56685e-07 69.9943 1.31923e+09
6.26459 26.0629 0.181246 1.67404e-08 2546 26.2216 1.68423e-08 4.80786e-07 88.6485 1.55689e+09
6.62021 24.9679 0.213898 1.3589e-08 3264 24.9935 1.36029e-08 4.15026e-07 106.872 1.83737e+09
6.99602 28.6382 0.252432 1.32072e-08 3506 28.6491 1.32123e-08 3.58083e-07 129.312 2.16837e+09
7.39317 30.5539 0.297908 1.19398e-08 4506 30.5984 1.19571e-08 3.08803e-07 174.223 2.55901e+09
7.81286 33.5703 0.351577 1.11159e-08 5018 33.472 1.10834e-08 2.66181e-07 209.555 3.02002e+09
8.25637 36.4813 0.414914 1.02358e-08 5852 36.4235 1.02196e-08 2.29336e-07 261.189 3.56409e+09
8.72507 36.7602 0.489662 8.7396e-09 7362 36.6711 8.71841e-09 1.97503e-07 325.772 4.20617e+09
9.22037 39.4034 0.577876 7.93796e-09 8306 39.2911 7.91534e-09 1.70014e-07 387.807 4.96392e+09
9.74378 42.5251 0.681982 7.25909e-09 9698 42.469 7.24951e-09 1.46289e-07 481.23 5.85818e+09
10.2969 44.4166 0.804843 6.42457e-09 11816 44.3648 6.41708e-09 1.25822e-07 603.332 6.91355e+09
10.8814 47.97 0.949838 5.87936e-09 13682 47.865 5.86649e-09 1.08175e-07 743.62 8.15905e+09
11.4992 49.9211 1.12095 5.18449e-09 16152 49.9058 5.18291e-09 9.29669e-08 900.75 9.62892e+09
12.1519 52.5016 1.3229 4.62015e-09 19472 52.4064 4.61178e-09 7.98658e-08 1126.44 1.13636e+10
12.8418 55.524 1.56122 4.14025e-09 22670 55.3849 4.12988e-09 6.85852e-08 1368.51 1.34108e+10
13.5708 59.4099 1.84248 3.75376e-09 26224 59.2874 3.74602e-09 5.88765e-08 1671.95 1.58268e+10
14.3411 62.5762 2.17441 3.35026e-09 31640 62.5738 3.35013e-09 5.05241e-08 2098.05 1.8678e+10
15.1552 65.6763 2.56613 2.97948e-09 37484 65.5843 2.9753e-09 4.33417e-08 2576.8 2.20429e+10
16.0156 69.7206 3.02843 2.68012e-09 43856 69.6049 2.67567e-09 3.71677e-08 3162.4 2.6014e+10
16.9247 74.1041 3.574 2.41378e-09 51362 74.0317 2.41142e-09 3.18628e-08 3890.95 3.07005e+10
17.8855 77.1194 4.21787 2.12853e-09 61636 77.026 2.12595e-09 2.73063e-08 4804.54 3.62312e+10
18.9008 82.4553 4.97773 1.9284e-09 72218 82.2842 1.9244e-09 2.33941e-08 5953 4.27584e+10
19.9738 86.7869 5.87448 1.71987e-09 84586 86.5849 1.71586e-09 2.00364e-08 7260.62 5.04614e+10
21.1076 91.6598 6.93279 1.53915e-09 100708 91.4923 1.53634e-09 1.71555e-08 9035.27 5.95522e+10
22.3058 96.2316 8.18175 1.36925e-09 118712 96.1054 1.36745e-09 1.46847e-08 11069.1 7.02807e+10
23.5721 101.46 9.65571 1.22326e-09 140410 101.246 1.22068e-09 1.25662e-08 13668.3 8.29419e+10
24.9102 106.214 11.3952 1.0851e-09 164374 106.027 1.08319e-09 1.07504e-08 16591.3 9.78842e+10
26.3243 112.967 13.4481 9.77915e-10 194680 112.907 9.77394e-10 9.19452e-09 20705.9 1.15518e+11
27.8187 117.054 15.8708 8.58615e-10 230196 116.861 8.572e-10 7.86182e-09 25140.4 1.36329e+11
29.3979 122.641 18.73 7.62268e-10 271156 122.416 7.60873e-10 6.72061e-09 30755.2 1.60889e+11
31.0667 129.313 22.1042 6.81045e-10 321076 129.096 6.79906e-10 5.74366e-09 38071.1 1.89874e+11
32.8303 135.779 26.0864 6.0594e-10 377436 135.548 6.04906e-10 4.90756e-09 46602.3 2.2408e+11
34.694 142.315 30.7859 5.38159e-10 447594 142.048 5.37146e-10 4.19221e-09 57458.2 2.64449e+11
36.6634 149.714 36.3321 4.79716e-10 525078 149.419 4.78768e-10 3.58032e-09 70353.4 3.1209e+11
38.7447 157.434 42.8774 4.27446e-10 621924 157.161 4.26704e-10 3.05709e-09 86958.4 3.68314e+11
40.9442 164.809 50.6018 3.79162e-10 732630 164.538 3.78538e-10 2.60976e-09 106441 4.34667e+11
43.2685 173.345 59.7179 3.37923e-10 865596 173.053 3.37353e-10 2.22743e-09 131319 5.12973e+11
45.7247 181.827 70.4762 3.00348e-10 1.02168e+06 181.508 2.99822e-10 1.90073e-09 161442 6.05386e+11
48.3204 191.414 83.1727 2.67918e-10 1.20544e+06 191.046 2.67404e-10 1.62163e-09 199156 7.14448e+11
51.0634 201.487 98.1565 2.38967e-10 1.42103e+06 201.139 2.38554e-10 1.38326e-09 245493 8.43158e+11
53.9621 212.771 115.84 2.13829e-10 1.67997e+06 212.376 2.13432e-10 1.1797e-09 304505 9.95055e+11
57.0254 225.094 136.709 1.9168e-10 1.98018e+06 224.683 1.91331e-10 1.00592e-09 377328 1.17432e+12
60.2626 238.765 161.337 1.72285e-10 2.33957e+06 238.311 1.71957e-10 8.57591e-10 470006 1.38587e+12
63.6835 254.076 190.402 1.55346e-10 2.75676e+06 253.589 1.55049e-10 7.3101e-10 585839 1.63554e+12
67.2987 271.66 224.704 1.40742e-10 3.25638e+06 271.138 1.40472e-10 6.23009e-10 735641 1.93019e+12
71.1191 291.356 265.185 1.27904e-10 3.84387e+06 290.746 1.27637e-10 5.30879e-10 926101 2.27792e+12
75.1563 314.047 312.958 1.1682e-10 4.53277e+06 313.377 1.16571e-10 4.52303e-10 1.17072e+06 2.68829e+12
79.4227 339.941 369.339 1.07149e-10 5.35083e+06 339.231 1.06925e-10 3.85299e-10 1.48803e+06 3.17259e+12
83.9313 370.129 435.876 9.88553e-11 6.32174e+06 369.28 9.86286e-11 3.28173e-10 1.90429e+06 3.74415e+12
88.6959 405.456 514.4 9.17598e-11 7.44986e+06 404.516 9.1547e-11 2.79476e-10 2.446e+06 4.41866e+12
93.7309 447.195 607.071 8.57566e-11 8.79764e+06 446.105 8.55476e-11 2.37972e-10 3.17035e+06 5.2147e+12
99.0518 495.128 716.436 8.04544e-11 1.03827e+07 493.892 8.02535e-11 2.02605e-10 4.12297e+06 6.15414e+12
104.675 552.315 845.504 7.60468e-11 1.22515e+07 550.882 7.58495e-11 1.72471e-10 5.40201e+06 7.26283e+12
110.617 620.733 997.824 7.24204e-11 1.44573e+07 619.069 7.22263e-11 1.468e-10 7.13218e+06 8.57124e+12
116.896 700.68 1177.58 6.92688e-11 1.70664e+07 698.755 6.90785e-11 1.24935e-10 9.46229e+06 1.01154e+13
123.532 796.858 1389.73 6.67514e-11 2.0139e+07 794.586 6.65611e-11 1.06313e-10 1.26448e+07 1.19377e+13
130.545 908.993 1640.09 6.45212e-11 2.37643e+07 906.358 6.43341e-11 9.04567e-11 1.69506e+07 1.40883e+13
137.955 1044.46 1935.56 6.28194e-11 2.80503e+07 1041.36 6.2633e-11 7.69563e-11 2.28975e+07 1.66263e+13
145.787 1204.22 2284.26 6.13722e-11 3.30981e+07 1200.58 6.11868e-11 6.54636e-11 3.10295e+07 1.96216e+13
154.063 1393.57 2695.77 6.01803e-11 3.90634e+07 1389.25 5.9994e-11 5.56812e-11 4.22198e+07 2.31565e+13
162.808 1619.27 3181.42 5.92528e-11 4.61057e+07 1614.2 5.90671e-11 4.73556e-11 5.76888e+07 2.73282e+13
172.051 1887.43 3754.56 5.85223e-11 5.44046e+07 1881.42 5.83358e-11 4.02708e-11 7.90618e+07 3.22515e+13
181.818 2206.25 4430.96 5.79652e-11 6.42064e+07 2199.15 5.77785e-11 3.42426e-11 1.08687e+08 3.80616e+13
192.139 2584.41 5229.21 5.75354e-11 7.57748e+07 2576.05 5.73493e-11 2.91139e-11 1.49747e+08 4.49186e+13
203.046 3034.57 6171.26 5.72445e-11 8.94213e+07 3024.62 5.70566e-11 2.4751e-11 2.06815e+08 5.30108e+13
214.572 3571.22 7283.03 5.7084e-11 1.05538e+08 3559.42 5.68953e-11 2.10401e-11 2.86337e+08 6.25608e+13
226.753 4211.75 8595.09 5.70456e-11 1.24552e+08 4197.66 5.68548e-11 1.78839e-11 3.97291e+08 7.38313e+13
239.625 4976.47 10143.5 5.7114e-11 1.46987e+08 4959.63 5.69208e-11 1.51999e-11 5.52308e+08 8.71322e+13
253.228 5896.41 11970.9 5.73417e-11 1.7347e+08 5876.29 5.7146e-11 1.29176e-11 7.70039e+08 1.02829e+14
267.603 7006.32 14127.5 5.77344e-11 2.04703e+08 6982.12 5.7535e-11 1.09771e-11 1.07664e+09 1.21354e+14
282.795 8352.12 16672.6 5.83181e-11 2.4161e+08 8322.87 5.81139e-11 9.3274e-12 1.51063e+09 1.43217e+14
298.848 10004.4 19676.2 5.91914e-11 2.85122e+08 9968.57 5.89796e-11 7.925e-12 2.12956e+09 1.69017e+14
315.813 12052.4 23220.9 6.04232e-11 3.36491e+08 12008.1 6.02012e-11 6.73295e-12 3.01976e+09 1.99466e+14
333.741 14635.6 27404.3 6.21729e-11 3.97115e+08 14579.9 6.19365e-11 5.71979e-12 4.31655e+09 2.35401e+14
352.686 17972.8 32341.2 6.4695e-11 4.68637e+08 17901.3 6.44375e-11 4.85874e-12 6.23999e+09 2.77809e+14
372.707 22410.2 38167.6 6.83537e-11 5.53074e+08 22315.6 6.8065e-11 4.12703e-12 9.16025e+09 3.27857e+14
393.865 28538.9 45043.5 7.3759e-11 6.52716e+08 28409.1 7.34234e-11 3.50528e-12 1.37346e+10 3.86921e+14
416.224 33697.4 53158.3 7.37966e-11 2.2184e+08 35648.6 7.80696e-11 2.97701e-12 5.49915e+09 4.56626e+14
439.852 0 62734.9 0 0 0 0 2.52819e-12 0 5.38888e+14
464.821 0 74036.7 0 0 0 0 2.1469e-12 0 6.35971e+14
491.207 0 87374.6 0 0 0 0 1.82301e-12 0 7.50542e+14
519.092 0 103115 0 0 0 0 1.54789e-12 0 8.85755e+14
548.56 0 121692 0 0 0 0 1.31422e-12 0 1.04533e+15
579.7 0 143615 0 0 0 0 1.11576e-12 0 1.23364e+15
612.608 0 169488 0 0 0 0 9.47223e-13 0 1.45589e+15
647.384 0 200021 0 0 0 0 8.041e-13 0 1.71817e+15
684.134 0 236056 0 0 0 0 6.82568e-13 0 2.0277e+15
722.971 0 278582 0 0 0 0 5.79376e-13 0 2.393e+15
764.012 0 328769 0 0 0 0 4.91762e-13 0 2.8241e+15
0.57112
200
1.0655e+09
8589934592
0.0129181 0.000918551 1.58924e-09 6.72859e-05 6 0.000910142 6.66699e-05 0.00677225 0.0596132 13.6515
0.0136515 0 1.87554e-09 0 0 0 0 0.00688819 0 16.1108
0.0144264 0 2.21343e-09 0 0 0 0 0.00699249 0 19.0132
0.0152454 0 2.61218e-09 0 0 0 0 0.00708412 0 22.4385
0.0161108 0 3.08278e-09 0 0 0 0 0.00716212 0 26.4808
0.0170254 0 3.63815e-09 0 0 0 0 0.00722559 0 31.2514
0.0179919 0.00203554 4.29357e-09 5.51915e-05 12 0.00203292 5.51204e-05 0.00727371 0.0910538 36.8815
0.0190132 0 5.06707e-09 0 0 0 0 0.00730578 0 43.5258
0.0200925 0 5.97991e-09 0 0 0 0 0.00732122 0 51.367
0.0212331 0.00192064 7.05721e-09 3.16828e-05 8 0.00191897 3.16552e-05 0.00731958 0.034628 60.621
0.0224385 0 8.32858e-09 0 0 0 0 0.00730056 0 71.542
0.0237123 0 9.829e-09 0 0 0 0 0.00726401 0 84.4305
0.0250583 0.0121602 1.15997e-08 0.000122041 6 0.0121545 0.000121983 0.00720995 0.10156 99.6408
0.0264808 0 1.36894e-08 0 0 0 0 0.00713857 0 117.591
0.0279841 0.00747299 1.61556e-08 5.38494e-05 24 0.00746532 5.37941e-05 0.00705021 0.183312 138.776
0.0295727 0 1.90661e-08 0 0 0 0 0.00694538 0 163.777
0.0312514 0.0132702 2.25009e-08 6.86574e-05 24 0.0133376 6.9006e-05 0.00682475 0.241441 193.281
0.0330255 0 2.65545e-08 0 0 0 0 0.00668915 0 228.102
0.0349003 0.0195243 3.13384e-08 7.25287e-05 12 0.019368 7.19479e-05 0.00653951 0.13309 269.195
0.0368815 0.0159814 3.69841e-08 5.03049e-05 30 0.0158112 4.97692e-05 0.00637693 0.236657 317.691
0.0389751 0.0183616 4.36469e-08 4.89742e-05 24 0.0181727 4.84704e-05 0.00620256 0.189499 374.924
0.0411876 0.0117007 5.151e-08 2.64441e-05 24 0.0116212 2.62645e-05 0.00601767 0.105466 442.467
0.0435258 0.0277519 6.07896e-08 5.31464e-05 8 0.0277498 5.31423e-05 0.00582358 0.0730085 522.179
0.0459966 0.0343358 7.1741e-08 5.57172e-05 72 0.034065 5.52778e-05 0.00562166 0.713604 616.251
0.0486077 0 8.46654e-08 0 0 0 0 0.0054133 0 727.27
0.051367 0.048265 9.99181e-08 5.62339e-05 54 0.0481072 5.60501e-05 0.00519989 0.58398 858.29
0.054283 0.0384743 1.17919e-07 3.79838e-05 60 0.0386443 3.81517e-05 0.0049828 0.457378 1012.91
0.0573645 0.0366641 1.39162e-07 3.06712e-05 96 0.0365702 3.05926e-05 0.00476339 0.618139 1195.39
0.060621 0.0431309 1.64232e-07 3.05731e-05 24 0.0425466 3.01589e-05 0.00454293 0.161516 1410.75
0.0640622 0.0751166 1.93819e-07 4.51179e-05 134 0.0751543 4.51406e-05 0.00432265 1.39863 1664.89
0.0676989 0.0730364 2.28736e-07 3.71719e-05 120 0.0726877 3.69944e-05 0.00410371 1.08697 1964.83
0.071542 0.0681584 2.69944e-07 2.93938e-05 108 0.067412 2.9072e-05 0.00388717 0.816669 2318.8
0.0756032 0.100568 3.18575e-07 3.67501e-05 174 0.100019 3.65494e-05 0.00367401 1.74048 2736.54
0.079895 0.105861 3.75967e-07 3.2779e-05 168 0.104867 3.24712e-05 0.0034651 1.58924 3229.53
0.0844305 0.0889647 4.43698e-07 2.33421e-05 168 0.0894085 2.34586e-05 0.00326121 1.20246 3811.34
0.0892234 0.103381 5.23632e-07 2.2984e-05 290 0.102919 2.28813e-05 0.00306301 2.17608 4497.96
0.0942883 0.128377 6.17966e-07 2.41843e-05 288 0.128086 2.41294e-05 0.00287109 2.42594 5308.28
0.0996408 0.113991 7.29294e-07 1.81962e-05 366 0.113089 1.80522e-05 0.00268591 2.47953 6264.59
0.105297 0.129973 8.60678e-07 1.75801e-05 420 0.129064 1.74572e-05 0.00250785 2.94421 7393.17
0.111275 0.138644 1.01573e-06 1.58903e-05 398 0.138234 1.58433e-05 0.00233721 2.70593 8725.07
0.117591 0.165001 1.19872e-06 1.60243e-05 624 0.165403 1.60633e-05 0.00217419 4.59903 10296.9
0.124267 0.189047 1.41467e-06 1.55569e-05 642 0.188673 1.55261e-05 0.00201893 4.94697 12151.9
0.131321 0.231428 1.66953e-06 1.61373e-05 800 0.2315 1.61424e-05 0.00187147 6.89825 14341.1
0.138776 0.210116 1.9703e-06 1.24147e-05 858 0.211055 1.24702e-05 0.00173182 6.15066 16924.7
0.146654 0.238728 2.32525e-06 1.19521e-05 1080 0.240735 1.20526e-05 0.00159991 8.06812 19973.8
0.154979 0.280404 2.74415e-06 1.18956e-05 1286 0.282241 1.19735e-05 0.00147563 10.3669 23572.1
0.163777 0.267203 3.23852e-06 9.60519e-06 1650 0.267885 9.62968e-06 0.00135884 11.6633 27818.7
0.173074 0.304176 3.82195e-06 9.26512e-06 1778 0.304327 9.2697e-06 0.00124933 13.1858 32830.3
0.182899 0.310267 4.51048e-06 8.00797e-06 2112 0.311046 8.02808e-06 0.00114689 14.7467 38744.7
0.193281 0.351126 5.32305e-06 7.67914e-06 2570 0.351482 7.68691e-06 0.00105127 18.7729 45724.7
0.204254 0.410518 6.28202e-06 7.60753e-06 3030 0.410264 7.60282e-06 0.000962209 23.9561 53962.1
0.215848 0.419066 7.41374e-06 6.58044e-06 3434 0.418892 6.57772e-06 0.000879423 25.6955 63683.5
0.228102 0.439256 8.74934e-06 5.84457e-06 4218 0.439201 5.84383e-06 0.000802624 30.7148 75156.3
0.24105 0.488761 1.03256e-05 5.51052e-06 4766 0.4891 5.51434e-06 0.000731515 35.9024 88695.9
0.254734 0.533989 1.21857e-05 5.10142e-06 6026 0.533949 5.10103e-06 0.000665798 46.1719 104675
0.269195 0.591053 1.4381e-05 4.78461e-06 6480 0.590519 4.78029e-06 0.000605173 51.2321 123532
0.284476 0.643181 1.69718e-05 4.4118e-06 8162 0.644533 4.42106e-06 0.000549345 65.5491 145787
0.300625 0.685472 2.00293e-05 3.98413e-06 9578 0.686027 3.98735e-06 0.000498021 76.6233 172051
0.317691 0.753623 2.36377e-05 3.71158e-06 11234 0.752754 3.70731e-06 0.000450916 92.4693 203046
0.335725 0.812492 2.78961e-05 3.39067e-06 13344 0.811166 3.38514e-06 0.000407755 110.962 239625
0.354784 0.885652 3.29216e-05 3.13179e-06 15464 0.884993 3.12946e-06 0.000368269 131.507 282795
0.374924 0.945063 3.88525e-05 2.83173e-06 18458 0.944653 2.8305e-06 0.000332202 157.338 333741
0.396207 1.06776 4.58519e-05 2.71098e-06 22232 1.06639 2.70749e-06 0.000299307 201.367 393865
0.418699 1.14129 5.41123e-05 2.45533e-06 25628 1.13844 2.44919e-06 0.00026935 233.619 464821
0.442467 1.24391 6.38607e-05 2.2676e-06 30320 1.24143 2.26307e-06 0.000242108 283.979 548560
0.467585 1.36602 7.53654e-05 2.11006e-06 35452 1.36382 2.10666e-06 0.00021737 344.14 647384
0.494129 1.49668 8.89427e-05 1.95897e-06 41792 1.49568 1.95767e-06 0.000194938 419.975 764012
0.522179 1.66332 0.000104966 1.84475e-06 49988 1.66318 1.8446e-06 0.000174625 528.076 901651
0.551822 1.81332 0.000123876 1.70411e-06 59110 1.81095 1.70188e-06 0.000156255 644.651 1.06409e+06
0.583147 1.98937 0.000146192 1.58417e-06 69716 1.98585 1.58136e-06 0.000139664 790.769 1.25578e+06
0.616251 2.18869 0.000172529 1.47683e-06 82210 2.18414 1.47376e-06 0.0001247 973.619 1.48202e+06
0.651234 2.39672 0.000203611 1.37033e-06 96722 2.39158 1.36739e-06 0.00011122 1191.7 1.74901e+06
0.688203 2.66322 0.000240292 1.29026e-06 113098 2.65894 1.28819e-06 9.90935e-05 1472.61 2.06409e+06
0.72727 2.91872 0.000283581 1.19819e-06 135190 2.91467 1.19652e-06 8.81969e-05 1836.6 2.43595e+06
0.768555 3.21409 0.000334669 1.11803e-06 158170 3.21003 1.11661e-06 7.84179e-05 2255.08 2.87479e+06
0.812184 3.59038 0.000394961 1.05827e-06 188560 3.58455 1.05655e-06 6.96525e-05 2864.9 3.39269e+06
0.85829 3.96351 0.000466114 9.89915e-07 220444 3.95724 9.8835e-07 6.1805e-05 3530.79 4.00389e+06
0.907013 4.39509 0.000550086 9.30138e-07 261388 4.38859 9.28762e-07 5.47875e-05 4437.64 4.7252e+06
0.958501 4.87559 0.000649185 8.74316e-07 308244 4.86847 8.7304e-07 4.85194e-05 5554.53 5.57646e+06
1.01291 5.44286 0.000766138 8.27047e-07 364396 5.43386 8.2568e-07 4.29272e-05 7020.56 6.58107e+06
1.07041 6.03644 0.00090416 7.77223e-07 429162 6.02604 7.75884e-07 3.79435e-05 8790.83 7.76667e+06
1.13118 6.72617 0.00106705 7.33829e-07 506358 6.71495 7.32604e-07 3.3507e-05 11089.6 9.16586e+06
1.19539 7.47738 0.00125928 6.91254e-07 598590 7.46384 6.90003e-07 2.9562e-05 13996.9 1.08171e+07
1.26325 8.31526 0.00148614 6.51368e-07 704844 8.30052 6.50213e-07 2.60578e-05 17619 1.27658e+07
1.33496 9.28251 0.00175387 6.16138e-07 834620 9.26401 6.14909e-07 2.29484e-05 22408.5 1.50656e+07
1.41075 10.2753 0.00206984 5.77922e-07 981444 10.2542 5.76736e-07 2.01923e-05 28089.8 1.77798e+07
1.49083 11.4568 0.00244272 5.46007e-07 1.15998e+06 11.4355 5.44992e-07 1.77518e-05 35678.5 2.09828e+07
1.57546 12.7026 0.00288279 5.1297e-07 1.36931e+06 12.6783 5.11985e-07 1.55929e-05 45047.2 2.4763e+07
1.66489 14.0766 0.00340213 4.81677e-07 1.61652e+06 14.0494 4.80747e-07 1.3685e-05 56897.1 2.92241e+07
1.75941 15.5999 0.00401503 4.52318e-07 1.90601e+06 15.5704 4.51463e-07 1.20007e-05 71839.4 3.44889e+07
1.85928 17.3016 0.00473835 4.2508e-07 2.24913e+06 17.2688 4.24274e-07 1.05151e-05 90922.4 4.07021e+07
1.96483 19.1235 0.00559198 3.98117e-07 2.65744e+06 19.0863 3.97344e-07 9.20606e-06 114921 4.80347e+07
2.07637 21.1061 0.00659939 3.72319e-07 3.13125e+06 21.0666 3.71622e-07 8.05366e-06 144757 5.66883e+07
2.19424 23.1824 0.00778828 3.46519e-07 3.69915e+06 23.139 3.4587e-07 7.04008e-06 182076 6.69008e+07
2.3188 25.4828 0.00919136 3.22759e-07 4.36472e+06 25.4352 3.22155e-07 6.1494e-06 229088 7.89532e+07
2.45043 27.919 0.0108472 2.99635e-07 5.14913e+06 27.8675 2.99082e-07 5.36741e-06 287449 9.31768e+07
2.58954 30.5488 0.0128014 2.7781e-07 6.07894e+06 30.4935 2.77308e-07 4.68145e-06 360741 1.09963e+08
2.73654 33.3207 0.0151076 2.56762e-07 7.17304e+06 33.2602 2.56295e-07 4.08023e-06 451386 1.29773e+08
2.89188 36.254 0.0178292 2.36719e-07 8.46557e+06 36.188 2.36288e-07 3.55373e-06 563904 1.53152e+08
3.05605 39.3524 0.0210412 2.17726e-07 9.98773e+06 39.2826 2.1734e-07 3.09304e-06 703060 1.80743e+08
3.22953 42.6619 0.0248319 2.00005e-07 1.1797e+07 42.5864 1.99651e-07 2.69025e-06 877042 2.13304e+08
3.41286 46.1758 0.0293054 1.83433e-07 1.39144e+07 46.0937 1.83107e-07 2.33837e-06 1.09151e+06 2.51731e+08
3.6066 49.8307 0.0345848 1.67734e-07 1.64163e+07 49.7448 1.67445e-07 2.0312e-06 1.35564e+06 2.97081e+08
3.81134 53.6167 0.0408154 1.52928e-07 1.93821e+07 53.5245 1.52665e-07 1.76327e-06 1.68101e+06 3.50601e+08
4.0277 57.5559 0.0481684 1.39104e-07 2.28754e+07 57.4571 1.38865e-07 1.52972e-06 2.08015e+06 4.13763e+08
4.25634 61.7795 0.056846 1.26519e-07 2.69929e+07 61.6717 1.26298e-07 1.32631e-06 2.5749e+06 4.88304e+08
4.49796 66.1698 0.067087 1.14824e-07 3.18542e+07 66.0572 1.14628e-07 1.14926e-06 3.1826e+06 5.76273e+08
4.7533 70.6931 0.0791729 1.03947e-07 3.75892e+07 70.5754 1.03774e-07 9.95263e-07 3.92587e+06 6.8009e+08
5.02313 75.424 0.0934361 9.39734e-08 4.43706e+07 75.2992 9.38179e-08 8.61414e-07 4.84048e+06 8.0261e+08
5.30828 80.3234 0.110269 8.48007e-08 5.23593e+07 80.1905 8.46604e-08 7.45152e-07 5.95865e+06 9.47202e+08
5.60962 85.4349 0.130134 7.64284e-08 6.1787e+07 85.2942 7.63025e-08 6.44232e-07 7.33009e+06 1.11784e+09
5.92807 90.7773 0.153578 6.88111e-08 7.29346e+07 90.6273 6.86973e-08 5.56685e-07 9.01534e+06 1.31923e+09
6.26459 96.3962 0.181246 6.19159e-08 8.60651e+07 96.2356 6.18128e-08 4.80786e-07 1.10835e+07 1.55689e+09
6.62021 102.249 0.213898 5.56497e-08 1.01558e+08 102.081 5.55583e-08 4.15026e-07 1.36177e+07 1.83737e+09
6.99602 108.35 0.252432 4.99685e-08 1.1986e+08 108.172 4.98864e-08 3.58083e-07 1.67258e+07 2.16837e+09
7.39317 114.708 0.297908 4.4825e-08 1.41457e+08 114.52 4.47517e-08 3.08803e-07 2.05335e+07 2.55901e+09
7.81286 121.403 0.351577 4.01994e-08 1.66936e+08 121.205 4.01338e-08 2.66181e-07 2.52111e+07 3.02002e+09
8.25637 128.423 0.414914 3.60324e-08 1.97025e+08 128.212 3.59734e-08 2.29336e-07 3.09558e+07 3.56409e+09
8.72507 135.876 0.489662 3.23039e-08 2.32497e+08 135.65 3.22503e-08 1.97503e-07 3.80276e+07 4.20617e+09
9.22037 143.835 0.577876 2.89761e-08 2.74404e+08 143.594 2.89276e-08 1.70014e-07 4.67676e+07 4.96392e+09
9.74378 152.506 0.681982 2.6033e-08 3.2382e+08 152.244 2.59883e-08 1.46289e-07 5.76257e+07 5.85818e+09
10.2969 162.389 0.804843 2.34886e-08 3.82165e+08 162.1 2.34467e-08 1.25822e-07 7.13426e+07 6.91355e+09
10.8814 173.981 0.949838 2.13236e-08 4.51027e+08 173.65 2.12831e-08 1.08175e-07 8.89068e+07 8.15905e+09
11.4992 188.878 1.12095 1.96157e-08 5.32251e+08 188.476 1.9574e-08 9.29669e-08 1.12303e+08 9.62892e+09
12.1519 209.82 1.3229 1.84642e-08 6.28157e+08 209.295 1.8418e-08 7.98658e-08 1.45224e+08 1.13636e+10
12.8418 233.33 1.56122 1.73987e-08 3.82727e+08 241.504 1.80082e-08 6.85852e-08 9.70901e+07 1.34108e+10
13.5708 0 1.84248 0 0 0 0 5.88765e-08 0 1.58268e+10
14.3411 0 2.17441 0 0 0 0 5.05241e-08 0 1.8678e+10
15.1552 0 2.56613 0 0 0 0 4.33417e-08 0 2.20429e+10
16.0156 0 3.02843 0 0 0 0 3.71677e-08 0 2.6014e+10
16.9247 0 3.574 0 0 0 0 3.18628e-08 0 3.07005e+10
17.8855 0 4.21787 0 0 0 0 2.73063e-08 0 3.62312e+10
18.9008 0 4.97773 0 0 0 0 2.33941e-08 0 4.27584e+10
19.9738 0 5.87448 0 0 0 0 2.00364e-08 0 5.04614e+10
21.1076 0 6.93279 0 0 0 0 1.71555e-08 0 5.95522e+10
22.3058 0 8.18175 0 0 0 0 1.46847e-08 0 7.02807e+10
23.5721 0 9.65571 0 0 0 0 1.25662e-08 0 8.29419e+10
24.9102 0 11.3952 0 0 0 0 1.07504e-08 0 9.78842e+10
26.3243 0 13.4481 0 0 0 0 9.19452e-09 0 1.15518e+11
27.8187 0 15.8708 0 0 0 0 7.86182e-09 0 1.36329e+11
29.3979 0 18.73 0 0 0 0 6.72061e-09 0 1.60889e+11
31.0667 0 22.1042 0 0 0 0 5.74366e-09 0 1.89874e+11
32.8303 0 26.0864 0 0 0 0 4.90756e-09 0 2.2408e+11
34.694 0 30.7859 0 0 0 0 4.19221e-09 0 2.64449e+11
36.6634 0 36.3321 0 0 0 0 3.58032e-09 0 3.1209e+11
38.7447 0 42.8774 0 0 0 0 3.05709e-09 0 3.68314e+11
40.9442 0 50.6018 0 0 0 0 2.60976e-09 0 4.34667e+11
43.2685 0 59.7179 0 0 0 0 2.22743e-09 0 5.12973e+11
45.7247 0 70.4762 0 0 0 0 1.90073e-09 0 6.05386e+11
48.3204 0 83.1727 0 0 0 0 1.62163e-09 0 7.14448e+11
51.0634 0 98.1565 0 0 0 0 1.38326e-09 0 8.43158e+11
53.9621 0 115.84 0 0 0 0 1.1797e-09 0 9.95055e+11
57.0254 0 136.709 0 0 0 0 1.00592e-09 0 1.17432e+12
60.2626 0 161.337 0 0 0 0 8.57591e-10 0 1.38587e+12
63.6835 0 190.402 0 0 0 0 7.3101e-10 0 1.63554e+12
67.2987 0 224.704 0 0 0 0 6.23009e-10 0 1.93019e+12
71.1191 0 265.185 0 0 0 0 5.30879e-10 0 2.27792e+12
75.1563 0 312.958 0 0 0 0 4.52303e-10 0 2.68829e+12
79.4227 0 369.339 0 0 0 0 3.85299e-10 0 3.17259e+12
83.9313 0 435.876 0 0 0 0 3.28173e-10 0 3.74415e+12
88.6959 0 514.4 0 0 0 0 2.79476e-10 0 4.41866e+12
93.7309 0 607.071 0 0 0 0 2.37972e-10 0 5.2147e+12
99.0518 0 716.436 0 0 0 0 2.02605e-10 0 6.15414e+12
104.675 0 845.504 0 0 0 0 1.72471e-10 0 7.26283e+12
110.617 0 997.824 0 0 0 0 1.468e-10 0 8.57124e+12
116.896 0 1177.58 0 0 0 0 1.24935e-10 0 1.01154e+13
123.532 0 1389.73 0 0 0 0 1.06313e-10 0 1.19377e+13
130.545 0 1640.09 0 0 0 0 9.04567e-11 0 1.40883e+13
137.955 0 1935.56 0 0 0 0 7.69563e-11 0 1.66263e+13
145.787 0 2284.26 0 0 0 0 6.54636e-11 0 1.96216e+13
154.063 0 2695.77 0 0 0 0 5.56812e-11 0 2.31565e+13
162.808 0 3181.42 0 0 0 0 4.73556e-11 0 2.73282e+13
172.051 0 3754.56 0 0 0 0 4.02708e-11 0 3.22515e+13
181.818 0 4430.96 0 0 0 0 3.42426e-11 0 3.80616e+13
192.139 0 5229.21 0 0 0 0 2.91139e-11 0 4.49186e+13
203.046 0 6171.26 0 0 0 0 2.4751e-11 0 5.30108e+13
214.572 0 7283.03 0 0 0 0 2.10401e-11 0 6.25608e+13
226.753 0 8595.09 0 0 0 0 1.78839e-11 0 7.38313e+13
239.625 0 10143.5 0 0 0 0 1.51999e-11 0 8.71322e+13
253.228 0 11970.9 0 0 0 0 1.29176e-11 0 1.02829e+14
267.603 0 14127.5 0 0 0 0 1.09771e-11 0 1.21354e+14
282.795 0 16672.6 0 0 0 0 9.3274e-12 0 1.43217e+14
298.848 0 19676.2 0 0 0 0 7.925e-12 0 1.69017e+14
315.813 0 23220.9 0 0 0 0 6.73295e-12 0 1.99466e+14
333.741 0 27404.3 0 0 0 0 5.71979e-12 0 2.35401e+14
352.686 0 32341.2 0 0 0 0 4.85874e-12 0 2.77809e+14
372.707 0 38167.6 0 0 0 0 4.12703e-12 0 3.27857e+14
393.865 0 45043.5 0 0 0 0 3.50528e-12 0 3.86921e+14
416.224 0 53158.3 0 0 0 0 2.97701e-12 0 4.56626e+14
439.852 0 62734.9 0 0 0 0 2.52819e-12 0 5.38888e+14
464.821 0 74036.7 0 0 0 0 2.1469e-12 0 6.35971e+14
491.207 0 87374.6 0 0 0 0 1.82301e-12 0 7.50542e+14
519.092 0 103115 0 0 0 0 1.54789e-12 0 8.85755e+14
548.56 0 121692 0 0 0 0 1.31422e-12 0 1.04533e+15
579.7 0 143615 0 0 0 0 1.11576e-12 0 1.23364e+15
612.608 0 169488 0 0 0 0 9.47223e-13 0 1.45589e+15
647.384 0 200021 0 0 0 0 8.041e-13 0 1.71817e+15
684.134 0 236056 0 0 0 0 6.82568e-13 0 2.0277e+15
722.971 0 278582 0 0 0 0 5.79376e-13 0 2.393e+15
764.012 0 328769 0 0 0 0 4.91762e-13 0 2.8241e+15
