0.964127
200
1.0655e+09
8589934592
0.0129181 0 1.58924e-09 0 0 0 0 0.00677225 0 13.6515
0.0136515 0 1.87554e-09 0 0 0 0 0.00688819 0 16.1108
0.0144264 0 2.21343e-09 0 0 0 0 0.00699249 0 19.0132
0.0152454 0 2.61218e-09 0 0 0 0 0.00708412 0 22.4385
0.0161108 0 3.08278e-09 0 0 0 0 0.00716212 0 26.4808
0.0170254 0 3.63815e-09 0 0 0 0 0.00722559 0 31.2514
0.0179919 0 4.29357e-09 0 0 0 0 0.00727371 0 36.8815
0.0190132 0 5.06707e-09 0 0 0 0 0.00730578 0 43.5258
0.0200925 0 5.97991e-09 0 0 0 0 0.00732122 0 51.367
0.0212331 0 7.05721e-09 0 0 0 0 0.00731958 0 60.621
0.0224385 0 8.32858e-09 0 0 0 0 0.00730056 0 71.542
0.0237123 0 9.829e-09 0 0 0 0 0.00726401 0 84.4305
0.0250583 0 1.15997e-08 0 0 0 0 0.00720995 0 99.6408
0.0264808 0 1.36894e-08 0 0 0 0 0.00713857 0 117.591
0.0279841 0 1.61556e-08 0 0 0 0 0.00705021 0 138.776
0.0295727 0 1.90661e-08 0 0 0 0 0.00694538 0 163.777
0.0312514 0 2.25009e-08 0 0 0 0 0.00682475 0 193.281
0.0330255 0 2.65545e-08 0 0 0 0 0.00668915 0 228.102
0.0349003 0 3.13384e-08 0 0 0 0 0.00653951 0 269.195
0.0368815 0 3.69841e-08 0 0 0 0 0.00637693 0 317.691
0.0389751 0 4.36469e-08 0 0 0 0 0.00620256 0 374.924
0.0411876 0 5.151e-08 0 0 0 0 0.00601767 0 442.467
0.0435258 0 6.07896e-08 0 0 0 0 0.00582358 0 522.179
0.0459966 0 7.1741e-08 0 0 0 0 0.00562166 0 616.251
0.0486077 0 8.46654e-08 0 0 0 0 0.0054133 0 727.27
0.051367 0 9.99181e-08 0 0 0 0 0.00519989 0 858.29
0.054283 0 1.17919e-07 0 0 0 0 0.0049828 0 1012.91
0.0573645 0 1.39162e-07 0 0 0 0 0.00476339 0 1195.39
0.060621 0 1.64232e-07 0 0 0 0 0.00454293 0 1410.75
0.0640622 0 1.93819e-07 0 0 0 0 0.00432265 0 1664.89
0.0676989 0 2.28736e-07 0 0 0 0 0.00410371 0 1964.83
0.071542 0 2.69944e-07 0 0 0 0 0.00388717 0 2318.8
0.0756032 0 3.18575e-07 0 0 0 0 0.00367401 0 2736.54
0.079895 0 3.75967e-07 0 0 0 0 0.0034651 0 3229.53
0.0844305 0 4.43698e-07 0 0 0 0 0.00326121 0 3811.34
0.0892234 0 5.23632e-07 0 0 0 0 0.00306301 0 4497.96
0.0942883 0 6.17966e-07 0 0 0 0 0.00287109 0 5308.28
0.0996408 0 7.29294e-07 0 0 0 0 0.00268591 0 6264.59
0.105297 0 8.60678e-07 0 0 0 0 0.00250785 0 7393.17
0.111275 0 1.01573e-06 0 0 0 0 0.00233721 0 8725.07
0.117591 0 1.19872e-06 0 0 0 0 0.00217419 0 10296.9
0.124267 0 1.41467e-06 0 0 0 0 0.00201893 0 12151.9
0.131321 0 1.66953e-06 0 0 0 0 0.00187147 0 14341.1
0.138776 0 1.9703e-06 0 0 0 0 0.00173182 0 16924.7
0.146654 0 2.32525e-06 0 0 0 0 0.00159991 0 19973.8
0.154979 0 2.74415e-06 0 0 0 0 0.00147563 0 23572.1
0.163777 0 3.23852e-06 0 0 0 0 0.00135884 0 27818.7
0.173074 0 3.82195e-06 0 0 0 0 0.00124933 0 32830.3
0.182899 0 4.51048e-06 0 0 0 0 0.00114689 0 38744.7
0.193281 0 5.32305e-06 0 0 0 0 0.00105127 0 45724.7
0.204254 0 6.28202e-06 0 0 0 0 0.000962209 0 53962.1
0.215848 0 7.41374e-06 0 0 0 0 0.000879423 0 63683.5
0.228102 0 8.74934e-06 0 0 0 0 0.000802624 0 75156.3
0.24105 0 1.03256e-05 0 0 0 0 0.000731515 0 88695.9
0.254734 0 1.21857e-05 0 0 0 0 0.000665798 0 104675
0.269195 0 1.4381e-05 0 0 0 0 0.000605173 0 123532
0.284476 0 1.69718e-05 0 0 0 0 0.000549345 0 145787
0.300625 0 2.00293e-05 0 0 0 0 0.000498021 0 172051
0.317691 0 2.36377e-05 0 0 0 0 0.000450916 0 203046
0.335725 0 2.78961e-05 0 0 0 0 0.000407755 0 239625
0.354784 0 3.29216e-05 0 0 0 0 0.000368269 0 282795
0.374924 0 3.88525e-05 0 0 0 0 0.000332202 0 333741
0.396207 1.80813 4.58519e-05 4.59073e-06 6 1.75786 4.4631e-06 0.000299307 0.0920273 393865
0.418699 0 5.41123e-05 0 0 0 0 0.00026935 0 464821
0.442467 0 6.38607e-05 0 0 0 0 0.000242108 0 548560
0.467585 0 7.53654e-05 0 0 0 0 0.00021737 0 647384
0.494129 0 8.89427e-05 0 0 0 0 0.000194938 0 764012
0.522179 0 0.000104966 0 0 0 0 0.000174625 0 901651
0.551822 0 0.000123876 0 0 0 0 0.000156255 0 1.06409e+06
0.583147 6.64825 0.000146192 5.2941e-06 12 6.99732 5.57207e-06 0.000139664 0.454872 1.25578e+06
0.616251 0 0.000172529 0 0 0 0 0.0001247 0 1.48202e+06
0.651234 0 0.000203611 0 0 0 0 0.00011122 0 1.74901e+06
0.688203 12.6051 0.000240292 6.10683e-06 8 12.2915 5.9549e-06 9.90935e-05 0.493016 2.06409e+06
0.72727 0 0.000283581 0 0 0 0 8.81969e-05 0 2.43595e+06
0.768555 0 0.000334669 0 0 0 0 7.84179e-05 0 2.87479e+06
0.812184 10.4996 0.000394961 3.09479e-06 6 10.7241 3.16095e-06 6.96525e-05 0.266591 3.39269e+06
0.85829 0 0.000466114 0 0 0 0 6.1805e-05 0 4.00389e+06
0.907013 1.41399 0.000550086 2.99244e-07 24 1.44112 3.04986e-07 5.47875e-05 0.131086 4.7252e+06
0.958501 4.80314 0.000649185 8.61325e-07 24 4.5218 8.10873e-07 4.85194e-05 0.426052 5.57646e+06
1.01291 0 0.000766138 0 0 0 0 4.29272e-05 0 6.58107e+06
1.07041 0 0.00090416 0 0 0 0 3.79435e-05 0 7.76667e+06
1.13118 8.01949 0.00106705 8.74931e-07 12 7.92098 8.64184e-07 3.3507e-05 0.313342 9.16586e+06
1.19539 2.35066 0.00125928 2.1731e-07 30 2.3022 2.1283e-07 2.9562e-05 0.220529 1.08171e+07
1.26325 6.29748 0.00148614 4.93307e-07 24 6.20272 4.85884e-07 2.60578e-05 0.45435 1.27658e+07
1.33496 15.8439 0.00175387 1.05166e-06 24 15.8787 1.05397e-06 2.29484e-05 1.09985 1.50656e+07
1.41075 20.3086 0.00206984 1.14223e-06 32 20.546 1.15558e-06 2.01923e-05 1.81017 1.77798e+07
1.49083 4.44809 0.00244272 2.11987e-07 48 4.35327 2.07468e-07 1.77518e-05 0.573205 2.09828e+07
1.57546 35.5607 0.00288279 1.43604e-06 6 33.8618 1.36744e-06 1.55929e-05 0.552578 2.4763e+07
1.66489 6.42513 0.00340213 2.19858e-07 84 6.27199 2.14617e-07 1.3685e-05 1.34951 2.92241e+07
1.75941 7.78401 0.00401503 2.25696e-07 48 7.69222 2.23035e-07 1.20007e-05 0.902735 3.44889e+07
1.85928 5.59384 0.00473835 1.37434e-07 72 5.57668 1.37012e-07 1.05151e-05 0.941049 4.07021e+07
1.96483 18.0504 0.00559198 3.75779e-07 54 17.5825 3.66038e-07 9.20606e-06 2.20421 4.80347e+07
2.07637 13.975 0.00659939 2.46524e-07 104 14.0431 2.47724e-07 8.05366e-06 3.18346 5.66883e+07
2.19424 10.4743 0.00778828 1.56564e-07 120 10.5974 1.58404e-07 7.04008e-06 2.66868 6.69008e+07
2.3188 10.242 0.00919136 1.29723e-07 156 10.0513 1.27307e-07 6.1494e-06 3.29085 7.89532e+07
2.45043 11.7942 0.0108472 1.26579e-07 126 11.691 1.25471e-07 5.36741e-06 2.97143 9.31768e+07
2.58954 10.4461 0.0128014 9.49969e-08 192 10.4777 9.52841e-08 4.68145e-06 3.8961 1.09963e+08
2.73654 34.6283 0.0151076 2.66837e-07 152 34.8429 2.68491e-07 4.08023e-06 9.94042 1.29773e+08
2.89188 17.1451 0.0178292 1.11948e-07 378 17.2148 1.12403e-07 3.55373e-06 11.9076 1.53152e+08
3.05605 16.8317 0.0210412 9.31249e-08 264 16.5885 9.17797e-08 3.09304e-06 7.94849 1.80743e+08
3.22953 20.158 0.0248319 9.45035e-08 366 19.9929 9.37298e-08 2.69025e-06 12.8569 2.13304e+08
3.41286 16.9446 0.0293054 6.73124e-08 428 16.7775 6.66486e-08 2.33837e-06 12.3204 2.51731e+08
3.6066 21.0438 0.0345848 7.0835e-08 486 20.7042 6.96921e-08 2.0312e-06 16.9485 2.97081e+08
3.81134 21.1729 0.0408154 6.03901e-08 600 21.2165 6.05146e-08 1.76327e-06 20.5494 3.50601e+08
4.0277 24.9216 0.0481684 6.02315e-08 738 24.8261 6.00006e-08 1.52972e-06 29.0581 4.13763e+08
4.25634 27.1157 0.056846 5.55304e-08 824 27.158 5.5617e-08 1.32631e-06 34.4996 4.88304e+08
4.49796 28.1544 0.067087 4.8856e-08 954 27.9782 4.85503e-08 1.14926e-06 40.5555 5.76273e+08
4.7533 31.2199 0.0791729 4.59055e-08 1094 31.0354 4.56342e-08 9.95263e-07 50.4597 6.8009e+08
5.02313 32.346 0.0934361 4.0301e-08 1332 32.4715 4.04574e-08 8.61414e-07 62.3173 8.0261e+08
5.30828 37.9982 0.110269 4.01162e-08 1614 37.9774 4.00943e-08 7.45152e-07 86.8918 9.47202e+08
5.60962 42.8688 0.130134 3.83496e-08 1850 42.8547 3.83369e-08 6.44232e-07 110.126 1.11784e+09
5.92807 39.4525 0.153578 2.99058e-08 2238 39.4438 2.98992e-08 5.56685e-07 120.228 1.31923e+09
6.26459 41.997 0.181246 2.6975e-08 2546 42.1457 2.70705e-08 4.80786e-07 142.846 1.55689e+09
6.62021 45.2386 0.213898 2.46215e-08 3264 45.3469 2.46804e-08 4.15026e-07 193.637 1.83737e+09
6.99602 45.6906 0.252432 2.10714e-08 3506 45.7476 2.10977e-08 3.58083e-07 206.311 2.16837e+09
7.39317 50.9441 0.297908 1.99077e-08 4506 50.9939 1.99272e-08 3.08803e-07 290.49 2.55901e+09
7.81286 56.7957 0.351577 1.88064e-08 5018 56.6532 1.87592e-08 2.66181e-07 354.535 3.02002e+09
8.25637 60.9717 0.414914 1.71072e-08 5852 60.8752 1.70802e-08 2.29336e-07 436.528 3.56409e+09
8.72507 59.8416 0.489662 1.42271e-08 7362 59.7213 1.41985e-08 1.97503e-07 530.321 4.20617e+09
9.22037 64.6233 0.577876 1.30186e-08 8306 64.3932 1.29722e-08 1.70014e-07 636.02 4.96392e+09
9.74378 70.2815 0.681982 1.19972e-08 9698 70.2542 1.19925e-08 1.46289e-07 795.332 5.85818e+09
10.2969 73.9187 0.804843 1.06919e-08 11816 73.827 1.06786e-08 1.25822e-07 1004.07 6.91355e+09
10.8814 85.0601 0.949838 1.04252e-08 13682 84.8005 1.03934e-08 1.08175e-07 1318.58 8.15905e+09
11.4992 83.5468 1.12095 8.67665e-09 16152 83.563 8.67833e-09 9.29669e-08 1507.48 9.62892e+09
12.1519 89.9111 1.3229 7.9122e-09 19472 89.7986 7.9023e-09 7.98658e-08 1929.07 1.13636e+10
12.8418 94.0425 1.56122 7.01246e-09 22670 93.8039 6.99466e-09 6.85852e-08 2317.88 1.34108e+10
13.5708 100.382 1.84248 6.34256e-09 26224 100.231 6.33303e-09 5.88765e-08 2825.02 1.58268e+10
14.3411 106.996 2.17441 5.72843e-09 31640 106.826 5.71937e-09 5.05241e-08 3587.34 1.8678e+10
15.1552 112.224 2.56613 5.09116e-09 37484 112.014 5.08164e-09 4.33417e-08 4403.09 2.20429e+10
16.0156 124.02 3.02843 4.76743e-09 43856 123.837 4.7604e-09 3.71677e-08 5625.32 2.6014e+10
16.9247 128.432 3.574 4.1834e-09 51362 128.272 4.17818e-09 3.18628e-08 6743.54 3.07005e+10
17.8855 134.946 4.21787 3.72456e-09 61636 134.709 3.71803e-09 2.73063e-08 8407.11 3.62312e+10
18.9008 144.179 4.97773 3.37194e-09 72218 143.839 3.364e-09 2.33941e-08 10409.2 4.27584e+10
19.9738 153.347 5.87448 3.03889e-09 84586 153.086 3.03372e-09 2.00364e-08 12829 5.04614e+10
21.1076 162.43 6.93279 2.72752e-09 100708 162.14 2.72266e-09 1.71555e-08 16011.4 5.95522e+10
22.3058 172.125 8.18175 2.44911e-09 118712 171.799 2.44447e-09 1.46847e-08 19798.8 7.02807e+10
23.5721 180.684 9.65571 2.17843e-09 140410 180.298 2.17379e-09 1.25662e-08 24341.1 8.29419e+10
24.9102 190.87 11.3952 1.94995e-09 164374 190.481 1.94599e-09 1.07504e-08 29815 9.78842e+10
26.3243 200.802 13.4481 1.73827e-09 194680 200.444 1.73517e-09 9.19452e-09 36805.2 1.15518e+11
27.8187 211.565 15.8708 1.55187e-09 230196 211.232 1.54942e-09 7.86182e-09 45439 1.36329e+11
29.3979 223.742 18.73 1.39066e-09 271156 223.375 1.38838e-09 6.72061e-09 56108.8 1.60889e+11
31.0667 234.672 22.1042 1.23594e-09 321076 234.177 1.23333e-09 5.74366e-09 69090 1.89874e+11
32.8303 248.704 26.0864 1.10989e-09 377436 248.202 1.10765e-09 4.90756e-09 85360.5 2.2408e+11
34.694 261.702 30.7859 9.89611e-10 447594 261.208 9.87745e-10 4.19221e-09 105659 2.64449e+11
36.6634 275.849 36.3321 8.83876e-10 525078 275.312 8.82155e-10 3.58032e-09 129626 3.1209e+11
38.7447 290.681 42.8774 7.89221e-10 621924 290.146 7.87768e-10 3.05709e-09 160557 3.68314e+11
40.9442 304.559 50.6018 7.00672e-10 732630 304.029 6.99453e-10 2.60976e-09 196698 4.34667e+11
43.2685 320.565 59.7179 6.24916e-10 865596 320.051 6.23914e-10 2.22743e-09 242847 5.12973e+11
45.7247 336.653 70.4762 5.56096e-10 1.02168e+06 336.117 5.55211e-10 1.90073e-09 298911 6.05386e+11
48.3204 353.496 83.1727 4.94782e-10 1.20544e+06 352.87 4.93906e-10 1.62163e-09 367795 7.14448e+11
51.0634 370.151 98.1565 4.39006e-10 1.42103e+06 369.508 4.38243e-10 1.38326e-09 450994 8.43158e+11
53.9621 388.789 115.84 3.90721e-10 1.67997e+06 388.079 3.90007e-10 1.1797e-09 556409 9.95055e+11
57.0254 408.258 136.709 3.47656e-10 1.98018e+06 407.52 3.47027e-10 1.00592e-09 684370 1.17432e+12
60.2626 428.596 161.337 3.09261e-10 2.33957e+06 427.802 3.08687e-10 8.57591e-10 843685 1.38587e+12
63.6835 450.349 190.402 2.75351e-10 2.75676e+06 449.534 2.74853e-10 7.3101e-10 1.0384e+06 1.63554e+12
67.2987 474.378 224.704 2.45768e-10 3.25638e+06 473.589 2.45359e-10 6.23009e-10 1.28459e+06 1.93019e+12
71.1191 498.771 265.185 2.18959e-10 3.84387e+06 497.904 2.18578e-10 5.30879e-10 1.58539e+06 2.27792e+12
75.1563 526.809 312.958 1.95964e-10 4.53277e+06 525.845 1.95606e-10 4.52303e-10 1.96386e+06 2.68829e+12
79.4227 555.556 369.339 1.75111e-10 5.35083e+06 554.582 1.74804e-10 3.85299e-10 2.43185e+06 3.17259e+12
83.9313 588.943 435.876 1.57297e-10 6.32174e+06 587.81 1.56994e-10 3.28173e-10 3.03008e+06 3.74415e+12
88.6959 624.304 514.4 1.41288e-10 7.44986e+06 623.126 1.41021e-10 2.79476e-10 3.76624e+06 4.41866e+12
93.7309 664.149 607.071 1.27361e-10 8.79764e+06 662.865 1.27115e-10 2.37972e-10 4.70842e+06 5.2147e+12
99.0518 709.074 716.436 1.15219e-10 1.03827e+07 707.689 1.14994e-10 2.02605e-10 5.90451e+06 6.15414e+12
104.675 761.322 845.504 1.04825e-10 1.22515e+07 759.759 1.04609e-10 1.72471e-10 7.44624e+06 7.26283e+12
110.617 821.168 997.824 9.5805e-11 1.44573e+07 819.393 9.55979e-11 1.468e-10 9.43517e+06 8.57124e+12
116.896 890.635 1177.58 8.80476e-11 1.70664e+07 888.629 8.78493e-11 1.24935e-10 1.20275e+07 1.01154e+13
123.532 972.637 1389.73 8.14762e-11 2.0139e+07 970.358 8.12853e-11 1.06313e-10 1.54341e+07 1.19377e+13
130.545 1068.49 1640.09 7.58426e-11 2.37643e+07 1065.91 7.56594e-11 9.04567e-11 1.9925e+07 1.40883e+13
137.955 1182.35 1935.56 7.11131e-11 2.80503e+07 1179.39 7.09351e-11 7.69563e-11 2.59205e+07 1.66263e+13
145.787 1317.25 2284.26 6.71326e-11 3.30981e+07 1313.84 6.69591e-11 6.54636e-11 3.39419e+07 1.96216e+13
154.063 1477.52 2695.77 6.38057e-11 3.90634e+07 1473.54 6.36338e-11 5.56812e-11 4.47632e+07 2.31565e+13
162.808 1668.98 3181.42 6.10718e-11 4.61057e+07 1664.34 6.09018e-11 4.73556e-11 5.94598e+07 2.73282e+13
172.051 1896.61 3754.56 5.8807e-11 5.44046e+07 1891.2 5.86393e-11 4.02708e-11 7.94464e+07 3.22515e+13
181.818 2167.66 4430.96 5.69513e-11 6.42064e+07 2161.3 5.67841e-11 3.42426e-11 1.06786e+08 3.80616e+13
192.139 2491.01 5229.21 5.54562e-11 7.57748e+07 2483.5 5.52889e-11 2.91139e-11 1.44336e+08 4.49186e+13
203.046 2877.64 6171.26 5.42841e-11 8.94213e+07 2868.83 5.41178e-11 2.4751e-11 1.96119e+08 5.30108e+13
214.572 3341.08 7283.03 5.34054e-11 1.05538e+08 3330.56 5.32372e-11 2.10401e-11 2.67885e+08 6.25608e+13
226.753 3897.01 8595.09 5.27826e-11 1.24552e+08 3884.49 5.26131e-11 1.78839e-11 3.67602e+08 7.38313e+13
239.625 4565.62 10143.5 5.23988e-11 1.46987e+08 4550.72 5.22278e-11 1.51999e-11 5.06711e+08 8.71322e+13
253.228 5368.61 11970.9 5.22089e-11 1.7347e+08 5350.75 5.20352e-11 1.29176e-11 7.01111e+08 1.02829e+14
267.603 6343.74 14127.5 5.22746e-11 2.04703e+08 6322.27 5.20976e-11 1.09771e-11 9.74822e+08 1.21354e+14
282.795 7528.53 16672.6 5.25675e-11 2.4161e+08 7502.53 5.23859e-11 9.3274e-12 1.36167e+09 1.43217e+14
298.848 8986.37 19676.2 5.31683e-11 2.85122e+08 8954.53 5.29799e-11 7.925e-12 1.91287e+09 1.69017e+14
315.813 10798.7 23220.9 5.41381e-11 3.36491e+08 10759.3 5.39406e-11 6.73295e-12 2.70565e+09 1.99466e+14
333.741 13087.7 27404.3 5.55977e-11 3.97115e+08 13038.2 5.53874e-11 5.71979e-12 3.86005e+09 2.35401e+14
352.686 16049 32341.2 5.77698e-11 4.68637e+08 15985.3 5.75406e-11 4.85874e-12 5.57203e+09 2.77809e+14
372.707 19995.5 38167.6 6.09885e-11 5.53074e+08 19911.3 6.07318e-11 4.12703e-12 8.17323e+09 3.27857e+14
393.865 25452.6 45043.5 6.57823e-11 6.52716e+08 25336.9 6.54833e-11 3.50528e-12 1.22493e+10 3.86921e+14
416.224 30044.3 53158.3 6.57963e-11 2.2184e+08 31784 6.96063e-11 2.97701e-12 4.90298e+09 4.56626e+14
439.852 0 62734.9 0 0 0 0 2.52819e-12 0 5.38888e+14
464.821 0 74036.7 0 0 0 0 2.1469e-12 0 6.35971e+14
491.207 0 87374.6 0 0 0 0 1.82301e-12 0 7.50542e+14
519.092 0 103115 0 0 0 0 1.54789e-12 0 8.85755e+14
548.56 0 121692 0 0 0 0 1.31422e-12 0 1.04533e+15
579.7 0 143615 0 0 0 0 1.11576e-12 0 1.23364e+15
612.608 0 169488 0 0 0 0 9.47223e-13 0 1.45589e+15
647.384 0 200021 0 0 0 0 8.041e-13 0 1.71817e+15
684.134 0 236056 0 0 0 0 6.82568e-13 0 2.0277e+15
722.971 0 278582 0 0 0 0 5.79376e-13 0 2.393e+15
764.012 0 328769 0 0 0 0 4.91762e-13 0 2.8241e+15
0.964127
200
1.0655e+09
8589934592
0.0129181 0.00190152 1.58924e-09 0.000139291 6 0.00188411 0.000138015 0.00677225 0.123407 13.6515
0.0136515 0 1.87554e-09 0 0 0 0 0.00688819 0 16.1108
0.0144264 0 2.21343e-09 0 0 0 0 0.00699249 0 19.0132
0.0152454 0 2.61218e-09 0 0 0 0 0.00708412 0 22.4385
0.0161108 0 3.08278e-09 0 0 0 0 0.00716212 0 26.4808
0.0170254 0 3.63815e-09 0 0 0 0 0.00722559 0 31.2514
0.0179919 0.00421868 4.29357e-09 0.000114385 12 0.00421325 0.000114238 0.00727371 0.18871 36.8815
0.0190132 0 5.06707e-09 0 0 0 0 0.00730578 0 43.5258
0.0200925 0 5.97991e-09 0 0 0 0 0.00732122 0 51.367
0.0212331 0.00398333 7.05721e-09 6.57088e-05 8 0.00397986 6.56516e-05 0.00731958 0.0718171 60.621
0.0224385 0 8.32858e-09 0 0 0 0 0.00730056 0 71.542
0.0237123 0 9.829e-09 0 0 0 0 0.00726401 0 84.4305
0.0250583 0.0250098 1.15997e-08 0.000250999 6 0.024998 0.000250881 0.00720995 0.208877 99.6408
0.0264808 0 1.36894e-08 0 0 0 0 0.00713857 0 117.591
0.0279841 0.0153158 1.61556e-08 0.000110364 24 0.0153001 0.00011025 0.00705021 0.375695 138.776
0.0295727 0 1.90661e-08 0 0 0 0 0.00694538 0 163.777
0.0312514 0.0270947 2.25009e-08 0.000140183 24 0.0272322 0.000140894 0.00682475 0.492967 193.281
0.0330255 0 2.65545e-08 0 0 0 0 0.00668915 0 228.102
0.0349003 0.0411045 3.13384e-08 0.000152694 12 0.0407754 0.000151472 0.00653951 0.280194 269.195
0.0368815 0.0326649 3.69841e-08 0.00010282 30 0.032317 0.000101725 0.00637693 0.483711 317.691
0.0389751 0.0367335 4.36469e-08 9.79759e-05 24 0.0363556 9.6968e-05 0.00620256 0.379105 374.924
0.0411876 0.0235901 5.151e-08 5.3315e-05 24 0.0234299 5.29529e-05 0.00601767 0.212634 442.467
0.0435258 0.0588876 6.07896e-08 0.000112773 8 0.0588831 0.000112764 0.00582358 0.154919 522.179
0.0459966 0.0716572 7.1741e-08 0.000116279 72 0.0710927 0.000115363 0.00562166 1.48926 616.251
0.0486077 0 8.46654e-08 0 0 0 0 0.0054133 0 727.27
0.051367 0.0974413 9.99181e-08 0.00011353 54 0.0971175 0.000113152 0.00519989 1.17899 858.29
0.054283 0.0787984 1.17919e-07 7.77938e-05 60 0.0791582 7.81491e-05 0.0049828 0.936747 1012.91
0.0573645 0.0734262 1.39162e-07 6.14243e-05 96 0.0732384 6.12673e-05 0.00476339 1.23793 1195.39
0.060621 0.0874413 1.64232e-07 6.19823e-05 24 0.0862566 6.11426e-05 0.00454293 0.327449 1410.75
0.0640622 0.149991 1.93819e-07 9.00901e-05 134 0.150056 9.01292e-05 0.00432265 2.79275 1664.89
0.0676989 0.14723 2.28736e-07 7.49327e-05 120 0.146506 7.45644e-05 0.00410371 2.19117 1964.83
0.071542 0.139214 2.69944e-07 6.0037e-05 108 0.137672 5.9372e-05 0.00388717 1.66805 2318.8
0.0756032 0.206539 3.18575e-07 7.54745e-05 174 0.205388 7.50539e-05 0.00367401 3.57445 2736.54
0.079895 0.215879 3.75967e-07 6.68453e-05 168 0.21385 6.62171e-05 0.0034651 3.24089 3229.53
0.0844305 0.179642 4.43698e-07 4.71336e-05 168 0.18053 4.73666e-05 0.00326121 2.42807 3811.34
0.0892234 0.215525 5.23632e-07 4.79161e-05 290 0.214506 4.76896e-05 0.00306301 4.5366 4497.96
0.0942883 0.257946 6.17966e-07 4.85931e-05 288 0.257407 4.84916e-05 0.00287109 4.8744 5308.28
0.0996408 0.230456 7.29294e-07 3.67871e-05 366 0.228705 3.65076e-05 0.00268591 5.01286 6264.59
0.105297 0.2708 8.60678e-07 3.66284e-05 420 0.268871 3.63674e-05 0.00250785 6.1343 7393.17
0.111275 0.288781 1.01573e-06 3.30978e-05 398 0.28799 3.30072e-05 0.00233721 5.63617 8725.07
0.117591 0.342656 1.19872e-06 3.32776e-05 624 0.343631 3.33723e-05 0.00217419 9.55076 10296.9
0.124267 0.399852 1.41467e-06 3.29044e-05 642 0.398923 3.2828e-05 0.00201893 10.4633 12151.9
0.131321 0.470685 1.66953e-06 3.28206e-05 800 0.470789 3.28279e-05 0.00187147 14.0299 14341.1
0.138776 0.437639 1.9703e-06 2.58579e-05 858 0.439478 2.59666e-05 0.00173182 12.8109 16924.7
0.146654 0.511487 2.32525e-06 2.5608e-05 1080 0.515736 2.58207e-05 0.00159991 17.2864 19973.8
0.154979 0.593966 2.74415e-06 2.51978e-05 1286 0.597711 2.53567e-05 0.00147563 21.9596 23572.1
0.163777 0.581031 3.23852e-06 2.08864e-05 1650 0.582723 2.09472e-05 0.00135884 25.3617 27818.7
0.173074 0.644264 3.82195e-06 1.96241e-05 1778 0.644787 1.964e-05 0.00124933 27.9282 32830.3
0.182899 0.697188 4.51048e-06 1.79944e-05 2112 0.698775 1.80353e-05 0.00114689 33.1367 38744.7
0.193281 0.771347 5.32305e-06 1.68694e-05 2570 0.771889 1.68812e-05 0.00105127 41.2398 45724.7
0.204254 0.905329 6.28202e-06 1.67771e-05 3030 0.904713 1.67657e-05 0.000962209 52.8312 53962.1
0.215848 0.943259 7.41374e-06 1.48117e-05 3434 0.942894 1.48059e-05 0.000879423 57.837 63683.5
0.228102 1.00091 8.74934e-06 1.33177e-05 4218 1.00028 1.33093e-05 0.000802624 69.9882 75156.3
0.24105 1.11441 1.03256e-05 1.25644e-05 4766 1.11508 1.25719e-05 0.000731515 81.8598 88695.9
0.254734 1.21443 1.21857e-05 1.16019e-05 6026 1.21438 1.16015e-05 0.000665798 105.007 104675
0.269195 1.38766 1.4381e-05 1.12332e-05 6480 1.38641 1.12231e-05 0.000605173 120.282 123532
0.284476 1.49616 1.69718e-05 1.02627e-05 8162 1.49877 1.02805e-05 0.000549345 152.48 145787
0.300625 1.65519 2.00293e-05 9.62038e-06 9578 1.65573 9.62351e-06 0.000498021 185.02 172051
0.317691 1.83625 2.36377e-05 9.04353e-06 11234 1.83475 9.03614e-06 0.000450916 225.308 203046
0.335725 1.9765 2.78961e-05 8.2483e-06 13344 1.97292 8.23337e-06 0.000407755 269.93 239625
0.354784 2.22888 3.29216e-05 7.88162e-06 15464 2.22751 7.87678e-06 0.000368269 330.957 282795
0.374924 2.41141 3.88525e-05 7.2254e-06 18458 2.409 7.21817e-06 0.000332202 401.462 333741
0.396207 2.79223 4.58519e-05 7.08932e-06 22232 2.78766 7.0777e-06 0.000299307 526.582 393865
0.418699 3.00238 5.41123e-05 6.45923e-06 25628 2.99507 6.4435e-06 0.00026935 614.58 464821
0.442467 3.28693 6.38607e-05 5.99194e-06 30320 3.28131 5.98169e-06 0.000242108 750.391 548560
0.467585 3.72075 7.53654e-05 5.74735e-06 35452 3.71393 5.73683e-06 0.00021737 937.365 647384
0.494129 4.12244 8.89427e-05 5.39578e-06 41792 4.11773 5.38962e-06 0.000194938 1156.78 764012
0.522179 4.64314 0.000104966 5.14959e-06 49988 4.64253 5.14893e-06 0.000174625 1474.12 901651
0.551822 5.18841 0.000123876 4.87594e-06 59110 5.18147 4.86941e-06 0.000156255 1844.53 1.06409e+06
0.583147 5.77952 0.000146192 4.60232e-06 69716 5.77029 4.59497e-06 0.000139664 2297.34 1.25578e+06
0.616251 6.45906 0.000172529 4.35829e-06 82210 6.44624 4.34964e-06 0.0001247 2873.26 1.48202e+06
0.651234 7.12971 0.000203611 4.07644e-06 96722 7.11384 4.06736e-06 0.00011122 3545.04 1.74901e+06
0.688203 8.0968 0.000240292 3.92269e-06 113098 8.08356 3.91627e-06 9.90935e-05 4477.07 2.06409e+06
0.72727 9.07565 0.000283581 3.72572e-06 135190 9.06214 3.72017e-06 8.81969e-05 5710.86 2.43595e+06
0.768555 10.1417 0.000334669 3.5278e-06 158170 10.1255 3.52217e-06 7.84179e-05 7115.62 2.87479e+06
0.812184 11.3717 0.000394961 3.35182e-06 188560 11.353 3.34633e-06 6.96525e-05 9073.89 3.39269e+06
0.85829 12.7283 0.000466114 3.17899e-06 220444 12.7074 3.17376e-06 6.1805e-05 11338.7 4.00389e+06
0.907013 14.2351 0.000550086 3.01259e-06 261388 14.2108 3.00744e-06 5.47875e-05 14372.9 4.7252e+06
0.958501 15.9519 0.000649185 2.86058e-06 308244 15.9274 2.85618e-06 4.85194e-05 18173.3 5.57646e+06
1.01291 17.9227 0.000766138 2.72336e-06 364396 17.892 2.71871e-06 4.29272e-05 23117.8 6.58107e+06
1.07041 19.9444 0.00090416 2.56795e-06 429162 19.9075 2.5632e-06 3.79435e-05 29045 7.76667e+06
1.13118 22.2748 0.00106705 2.43019e-06 506358 22.2367 2.42604e-06 3.3507e-05 36725 9.16586e+06
1.19539 24.9205 0.00125928 2.30381e-06 598590 24.8735 2.29946e-06 2.9562e-05 46648.9 1.08171e+07
1.26325 27.709 0.00148614 2.17056e-06 704844 27.6597 2.16669e-06 2.60578e-05 58712 1.27658e+07
1.33496 30.8145 0.00175387 2.04535e-06 834620 30.7536 2.04131e-06 2.29484e-05 74387.9 1.50656e+07
1.41075 34.2286 0.00206984 1.92515e-06 981444 34.1635 1.92148e-06 2.01923e-05 93571.5 1.77798e+07
1.49083 37.8355 0.00244272 1.80317e-06 1.15998e+06 37.7661 1.79986e-06 1.77518e-05 117827 2.09828e+07
1.57546 41.8369 0.00288279 1.68949e-06 1.36931e+06 41.76 1.68639e-06 1.55929e-05 148365 2.4763e+07
1.66489 46.1429 0.00340213 1.57894e-06 1.61652e+06 46.0574 1.57601e-06 1.3685e-05 186509 2.92241e+07
1.75941 50.8912 0.00401503 1.47558e-06 1.90601e+06 50.7951 1.4728e-06 1.20007e-05 234359 3.44889e+07
1.85928 55.852 0.00473835 1.37221e-06 2.24913e+06 55.7465 1.36962e-06 1.05151e-05 293510 4.07021e+07
1.96483 61.0692 0.00559198 1.27136e-06 2.65744e+06 60.9551 1.26898e-06 9.20606e-06 366992 4.80347e+07
2.07637 66.7884 0.00659939 1.17817e-06 3.13125e+06 66.6669 1.17603e-06 8.05366e-06 458070 5.66883e+07
2.19424 73.0312 0.00778828 1.09163e-06 3.69915e+06 72.8968 1.08962e-06 7.04008e-06 573589 6.69008e+07
2.3188 79.4171 0.00919136 1.00588e-06 4.36472e+06 79.2776 1.00411e-06 6.1494e-06 713951 7.89532e+07
2.45043 86.4963 0.0108472 9.28303e-07 5.14913e+06 86.3415 9.26641e-07 5.36741e-06 890551 9.31768e+07
2.58954 93.67 0.0128014 8.51833e-07 6.07894e+06 93.509 8.50368e-07 4.68145e-06 1.10612e+06 1.09963e+08
2.73654 101.502 0.0151076 7.82153e-07 7.17304e+06 101.329 7.80818e-07 4.08023e-06 1.37502e+06 1.29773e+08
2.89188 109.604 0.0178292 7.15656e-07 8.46557e+06 109.418 7.14442e-07 3.55373e-06 1.70481e+06 1.53152e+08
3.05605 118.348 0.0210412 6.54785e-07 9.98773e+06 118.149 6.53685e-07 3.09304e-06 2.11437e+06 1.80743e+08
3.22953 127.469 0.0248319 5.97592e-07 1.1797e+07 127.254 5.96586e-07 2.69025e-06 2.6205e+06 2.13304e+08
3.41286 137.069 0.0293054 5.44507e-07 1.39144e+07 136.835 5.43577e-07 2.33837e-06 3.24006e+06 2.51731e+08
3.6066 147.357 0.0345848 4.96017e-07 1.64163e+07 147.106 4.9517e-07 2.0312e-06 4.00884e+06 2.97081e+08
3.81134 158.122 0.0408154 4.51003e-07 1.93821e+07 157.863 4.50263e-07 1.76327e-06 4.95751e+06 3.50601e+08
4.0277 169.36 0.0481684 4.09316e-07 2.28754e+07 169.079 4.08636e-07 1.52972e-06 6.1209e+06 4.13763e+08
4.25634 181.179 0.056846 3.71037e-07 2.69929e+07 180.872 3.70408e-07 1.32631e-06 7.55131e+06 4.88304e+08
4.49796 193.642 0.067087 3.36024e-07 3.18542e+07 193.317 3.35461e-07 1.14926e-06 9.31366e+06 5.76273e+08
4.7533 206.859 0.0791729 3.04164e-07 3.75892e+07 206.516 3.0366e-07 9.95263e-07 1.14877e+07 6.8009e+08
5.02313 220.543 0.0934361 2.74782e-07 4.43706e+07 220.177 2.74326e-07 8.61414e-07 1.41537e+07 8.0261e+08
5.30828 235.076 0.110269 2.48179e-07 5.23593e+07 234.682 2.47763e-07 7.45152e-07 1.74387e+07 9.47202e+08
5.60962 250.434 0.130134 2.24033e-07 6.1787e+07 250.019 2.23662e-07 6.44232e-07 2.14866e+07 1.11784e+09
5.92807 266.458 0.153578 2.01981e-07 7.29346e+07 266.017 2.01646e-07 5.56685e-07 2.64627e+07 1.31923e+09
6.26459 283.022 0.181246 1.81787e-07 8.60651e+07 282.551 1.81485e-07 4.80786e-07 3.25415e+07 1.55689e+09
6.62021 300.496 0.213898 1.63547e-07 1.01558e+08 299.997 1.63276e-07 4.15026e-07 4.00205e+07 1.83737e+09
6.99602 318.861 0.252432 1.47051e-07 1.1986e+08 318.331 1.46806e-07 3.58083e-07 4.92218e+07 2.16837e+09
7.39317 338.115 0.297908 1.32127e-07 1.41457e+08 337.561 1.31911e-07 3.08803e-07 6.0525e+07 2.55901e+09
7.81286 358.054 0.351577 1.1856e-07 1.66936e+08 357.463 1.18364e-07 2.66181e-07 7.43551e+07 3.02002e+09
8.25637 379.275 0.414914 1.06416e-07 1.97025e+08 378.653 1.06241e-07 2.29336e-07 9.14229e+07 3.56409e+09
8.72507 401.486 0.489662 9.54518e-08 2.32497e+08 400.816 9.52925e-08 1.97503e-07 1.12364e+08 4.20617e+09
9.22037 425.31 0.577876 8.56802e-08 2.74404e+08 424.593 8.55359e-08 1.70014e-07 1.38289e+08 4.96392e+09
9.74378 451.534 0.681982 7.70775e-08 3.2382e+08 450.757 7.69449e-08 1.46289e-07 1.70616e+08 5.85818e+09
10.2969 480.739 0.804843 6.95358e-08 3.82165e+08 479.88 6.94115e-08 1.25822e-07 2.11204e+08 6.91355e+09
10.8814 515.192 0.949838 6.31436e-08 4.51027e+08 514.211 6.30234e-08 1.08175e-07 2.63271e+08 8.15905e+09
11.4992 559.445 1.12095 5.81005e-08 5.32251e+08 558.258 5.79772e-08 9.29669e-08 3.32635e+08 9.62892e+09
12.1519 621.501 1.3229 5.46923e-08 6.28157e+08 619.942 5.45551e-08 7.98658e-08 4.30164e+08 1.13636e+10
12.8418 691.368 1.56122 5.15531e-08 3.82727e+08 715.592 5.33595e-08 6.85852e-08 2.87682e+08 1.34108e+10
13.5708 0 1.84248 0 0 0 0 5.88765e-08 0 1.58268e+10
14.3411 0 2.17441 0 0 0 0 5.05241e-08 0 1.8678e+10
15.1552 0 2.56613 0 0 0 0 4.33417e-08 0 2.20429e+10
16.0156 0 3.02843 0 0 0 0 3.71677e-08 0 2.6014e+10
16.9247 0 3.574 0 0 0 0 3.18628e-08 0 3.07005e+10
17.8855 0 4.21787 0 0 0 0 2.73063e-08 0 3.62312e+10
18.9008 0 4.97773 0 0 0 0 2.33941e-08 0 4.27584e+10
19.9738 0 5.87448 0 0 0 0 2.00364e-08 0 5.04614e+10
21.1076 0 6.93279 0 0 0 0 1.71555e-08 0 5.95522e+10
22.3058 0 8.18175 0 0 0 0 1.46847e-08 0 7.02807e+10
23.5721 0 9.65571 0 0 0 0 1.25662e-08 0 8.29419e+10
24.9102 0 11.3952 0 0 0 0 1.07504e-08 0 9.78842e+10
26.3243 0 13.4481 0 0 0 0 9.19452e-09 0 1.15518e+11
27.8187 0 15.8708 0 0 0 0 7.86182e-09 0 1.36329e+11
29.3979 0 18.73 0 0 0 0 6.72061e-09 0 1.60889e+11
31.0667 0 22.1042 0 0 0 0 5.74366e-09 0 1.89874e+11
32.8303 0 26.0864 0 0 0 0 4.90756e-09 0 2.2408e+11
34.694 0 30.7859 0 0 0 0 4.19221e-09 0 2.64449e+11
36.6634 0 36.3321 0 0 0 0 3.58032e-09 0 3.1209e+11
38.7447 0 42.8774 0 0 0 0 3.05709e-09 0 3.68314e+11
40.9442 0 50.6018 0 0 0 0 2.60976e-09 0 4.34667e+11
43.2685 0 59.7179 0 0 0 0 2.22743e-09 0 5.12973e+11
45.7247 0 70.4762 0 0 0 0 1.90073e-09 0 6.05386e+11
48.3204 0 83.1727 0 0 0 0 1.62163e-09 0 7.14448e+11
51.0634 0 98.1565 0 0 0 0 1.38326e-09 0 8.43158e+11
53.9621 0 115.84 0 0 0 0 1.1797e-09 0 9.95055e+11
57.0254 0 136.709 0 0 0 0 1.00592e-09 0 1.17432e+12
60.2626 0 161.337 0 0 0 0 8.57591e-10 0 1.38587e+12
63.6835 0 190.402 0 0 0 0 7.3101e-10 0 1.63554e+12
67.2987 0 224.704 0 0 0 0 6.23009e-10 0 1.93019e+12
71.1191 0 265.185 0 0 0 0 5.30879e-10 0 2.27792e+12
75.1563 0 312.958 0 0 0 0 4.52303e-10 0 2.68829e+12
79.4227 0 369.339 0 0 0 0 3.85299e-10 0 3.17259e+12
83.9313 0 435.876 0 0 0 0 3.28173e-10 0 3.74415e+12
88.6959 0 514.4 0 0 0 0 2.79476e-10 0 4.41866e+12
93.7309 0 607.071 0 0 0 0 2.37972e-10 0 5.2147e+12
99.0518 0 716.436 0 0 0 0 2.02605e-10 0 6.15414e+12
104.675 0 845.504 0 0 0 0 1.72471e-10 0 7.26283e+12
110.617 0 997.824 0 0 0 0 1.468e-10 0 8.57124e+12
116.896 0 1177.58 0 0 0 0 1.24935e-10 0 1.01154e+13
123.532 0 1389.73 0 0 0 0 1.06313e-10 0 1.19377e+13
130.545 0 1640.09 0 0 0 0 9.04567e-11 0 1.40883e+13
137.955 0 1935.56 0 0 0 0 7.69563e-11 0 1.66263e+13
145.787 0 2284.26 0 0 0 0 6.54636e-11 0 1.96216e+13
154.063 0 2695.77 0 0 0 0 5.56812e-11 0 2.31565e+13
162.808 0 3181.42 0 0 0 0 4.73556e-11 0 2.73282e+13
172.051 0 3754.56 0 0 0 0 4.02708e-11 0 3.22515e+13
181.818 0 4430.96 0 0 0 0 3.42426e-11 0 3.80616e+13
192.139 0 5229.21 0 0 0 0 2.91139e-11 0 4.49186e+13
203.046 0 6171.26 0 0 0 0 2.4751e-11 0 5.30108e+13
214.572 0 7283.03 0 0 0 0 2.10401e-11 0 6.25608e+13
226.753 0 8595.09 0 0 0 0 1.78839e-11 0 7.38313e+13
239.625 0 10143.5 0 0 0 0 1.51999e-11 0 8.71322e+13
253.228 0 11970.9 0 0 0 0 1.29176e-11 0 1.02829e+14
267.603 0 14127.5 0 0 0 0 1.09771e-11 0 1.21354e+14
282.795 0 16672.6 0 0 0 0 9.3274e-12 0 1.43217e+14
298.848 0 19676.2 0 0 0 0 7.925e-12 0 1.69017e+14
315.813 0 23220.9 0 0 0 0 6.73295e-12 0 1.99466e+14
333.741 0 27404.3 0 0 0 0 5.71979e-12 0 2.35401e+14
352.686 0 32341.2 0 0 0 0 4.85874e-12 0 2.77809e+14
372.707 0 38167.6 0 0 0 0 4.12703e-12 0 3.27857e+14
393.865 0 45043.5 0 0 0 0 3.50528e-12 0 3.86921e+14
416.224 0 53158.3 0 0 0 0 2.97701e-12 0 4.56626e+14
439.852 0 62734.9 0 0 0 0 2.52819e-12 0 5.38888e+14
464.821 0 74036.7 0 0 0 0 2.1469e-12 0 6.35971e+14
491.207 0 87374.6 0 0 0 0 1.82301e-12 0 7.50542e+14
519.092 0 103115 0 0 0 0 1.54789e-12 0 8.85755e+14
548.56 0 121692 0 0 0 0 1.31422e-12 0 1.04533e+15
579.7 0 143615 0 0 0 0 1.11576e-12 0 1.23364e+15
612.608 0 169488 0 0 0 0 9.47223e-13 0 1.45589e+15
647.384 0 200021 0 0 0 0 8.041e-13 0 1.71817e+15
684.134 0 236056 0 0 0 0 6.82568e-13 0 2.0277e+15
722.971 0 278582 0 0 0 0 5.79376e-13 0 2.393e+15
764.012 0 328769 0 0 0 0 4.91762e-13 0 2.8241e+15
