0.94093
200
1.0655e+09
8589934592
0.0129181 0 1.58924e-09 0 0 0 0 0.00677225 0 13.6515
0.0136515 0 1.87554e-09 0 0 0 0 0.00688819 0 16.1108
0.0144264 0 2.21343e-09 0 0 0 0 0.00699249 0 19.0132
0.0152454 0 2.61218e-09 0 0 0 0 0.00708412 0 22.4385
0.0161108 0 3.08278e-09 0 0 0 0 0.00716212 0 26.4808
0.0170254 0 3.63815e-09 0 0 0 0 0.00722559 0 31.2514
0.0179919 0 4.29357e-09 0 0 0 0 0.00727371 0 36.8815
0.0190132 0 5.06707e-09 0 0 0 0 0.00730578 0 43.5258
0.0200925 0 5.97991e-09 0 0 0 0 0.00732122 0 51.367
0.0212331 0 7.05721e-09 0 0 0 0 0.00731958 0 60.621
0.0224385 0 8.32858e-09 0 0 0 0 0.00730056 0 71.542
0.0237123 0 9.829e-09 0 0 0 0 0.00726401 0 84.4305
0.0250583 0 1.15997e-08 0 0 0 0 0.00720995 0 99.6408
0.0264808 0 1.36894e-08 0 0 0 0 0.00713857 0 117.591
0.0279841 0 1.61556e-08 0 0 0 0 0.00705021 0 138.776
0.0295727 0 1.90661e-08 0 0 0 0 0.00694538 0 163.777
0.0312514 0 2.25009e-08 0 0 0 0 0.00682475 0 193.281
0.0330255 0 2.65545e-08 0 0 0 0 0.00668915 0 228.102
0.0349003 0 3.13384e-08 0 0 0 0 0.00653951 0 269.195
0.0368815 0 3.69841e-08 0 0 0 0 0.00637693 0 317.691
0.0389751 0 4.36469e-08 0 0 0 0 0.00620256 0 374.924
0.0411876 0 5.151e-08 0 0 0 0 0.00601767 0 442.467
0.0435258 0 6.07896e-08 0 0 0 0 0.00582358 0 522.179
0.0459966 0 7.1741e-08 0 0 0 0 0.00562166 0 616.251
0.0486077 0 8.46654e-08 0 0 0 0 0.0054133 0 727.27
0.051367 0 9.99181e-08 0 0 0 0 0.00519989 0 858.29
0.054283 0 1.17919e-07 0 0 0 0 0.0049828 0 1012.91
0.0573645 0 1.39162e-07 0 0 0 0 0.00476339 0 1195.39
0.060621 0 1.64232e-07 0 0 0 0 0.00454293 0 1410.75
0.0640622 0 1.93819e-07 0 0 0 0 0.00432265 0 1664.89
0.0676989 0 2.28736e-07 0 0 0 0 0.00410371 0 1964.83
0.071542 0 2.69944e-07 0 0 0 0 0.00388717 0 2318.8
0.0756032 0 3.18575e-07 0 0 0 0 0.00367401 0 2736.54
0.079895 0 3.75967e-07 0 0 0 0 0.0034651 0 3229.53
0.0844305 0 4.43698e-07 0 0 0 0 0.00326121 0 3811.34
0.0892234 0 5.23632e-07 0 0 0 0 0.00306301 0 4497.96
0.0942883 0 6.17966e-07 0 0 0 0 0.00287109 0 5308.28
0.0996408 0 7.29294e-07 0 0 0 0 0.00268591 0 6264.59
0.105297 0 8.60678e-07 0 0 0 0 0.00250785 0 7393.17
0.111275 0 1.01573e-06 0 0 0 0 0.00233721 0 8725.07
0.117591 0 1.19872e-06 0 0 0 0 0.00217419 0 10296.9
0.124267 0 1.41467e-06 0 0 0 0 0.00201893 0 12151.9
0.131321 0 1.66953e-06 0 0 0 0 0.00187147 0 14341.1
0.138776 0 1.9703e-06 0 0 0 0 0.00173182 0 16924.7
0.146654 0 2.32525e-06 0 0 0 0 0.00159991 0 19973.8
0.154979 0 2.74415e-06 0 0 0 0 0.00147563 0 23572.1
0.163777 0 3.23852e-06 0 0 0 0 0.00135884 0 27818.7
0.173074 0 3.82195e-06 0 0 0 0 0.00124933 0 32830.3
0.182899 0 4.51048e-06 0 0 0 0 0.00114689 0 38744.7
0.193281 0 5.32305e-06 0 0 0 0 0.00105127 0 45724.7
0.204254 0 6.28202e-06 0 0 0 0 0.000962209 0 53962.1
0.215848 0 7.41374e-06 0 0 0 0 0.000879423 0 63683.5
0.228102 0 8.74934e-06 0 0 0 0 0.000802624 0 75156.3
0.24105 0 1.03256e-05 0 0 0 0 0.000731515 0 88695.9
0.254734 0 1.21857e-05 0 0 0 0 0.000665798 0 104675
0.269195 0 1.4381e-05 0 0 0 0 0.000605173 0 123532
0.284476 0 1.69718e-05 0 0 0 0 0.000549345 0 145787
0.300625 0 2.00293e-05 0 0 0 0 0.000498021 0 172051
0.317691 0 2.36377e-05 0 0 0 0 0.000450916 0 203046
0.335725 0 2.78961e-05 0 0 0 0 0.000407755 0 239625
0.354784 0 3.29216e-05 0 0 0 0 0.000368269 0 282795
0.374924 0 3.88525e-05 0 0 0 0 0.000332202 0 333741
0.396207 1.8649 4.58519e-05 4.73488e-06 6 1.81305 4.60324e-06 0.000299307 0.0949168 393865
0.418699 0 5.41123e-05 0 0 0 0 0.00026935 0 464821
0.442467 0 6.38607e-05 0 0 0 0 0.000242108 0 548560
0.467585 0 7.53654e-05 0 0 0 0 0.00021737 0 647384
0.494129 0 8.89427e-05 0 0 0 0 0.000194938 0 764012
0.522179 0 0.000104966 0 0 0 0 0.000174625 0 901651
0.551822 0 0.000123876 0 0 0 0 0.000156255 0 1.06409e+06
0.583147 4.77827 0.000146192 3.80501e-06 12 5.02916 4.0048e-06 0.000139664 0.326929 1.25578e+06
0.616251 0 0.000172529 0 0 0 0 0.0001247 0 1.48202e+06
0.651234 0 0.000203611 0 0 0 0 0.00011122 0 1.74901e+06
0.688203 14.314 0.000240292 6.93476e-06 8 13.9579 6.76223e-06 9.90935e-05 0.559856 2.06409e+06
0.72727 0 0.000283581 0 0 0 0 8.81969e-05 0 2.43595e+06
0.768555 0 0.000334669 0 0 0 0 7.84179e-05 0 2.87479e+06
0.812184 13.4197 0.000394961 3.95547e-06 6 13.7066 4.04004e-06 6.96525e-05 0.340732 3.39269e+06
0.85829 0 0.000466114 0 0 0 0 6.1805e-05 0 4.00389e+06
0.907013 1.2736 0.000550086 2.69534e-07 24 1.29804 2.74706e-07 5.47875e-05 0.118071 4.7252e+06
0.958501 2.86445 0.000649185 5.13668e-07 24 2.69667 4.8358e-07 4.85194e-05 0.254085 5.57646e+06
1.01291 0 0.000766138 0 0 0 0 4.29272e-05 0 6.58107e+06
1.07041 0 0.00090416 0 0 0 0 3.79435e-05 0 7.76667e+06
1.13118 9.87736 0.00106705 1.07762e-06 12 9.75603 1.06439e-06 3.3507e-05 0.385934 9.16586e+06
1.19539 3.30636 0.00125928 3.0566e-07 30 3.2382 2.99359e-07 2.9562e-05 0.310189 1.08171e+07
1.26325 9.11393 0.00148614 7.13931e-07 24 8.97679 7.03188e-07 2.60578e-05 0.657551 1.27658e+07
1.33496 15.8083 0.00175387 1.0493e-06 24 15.8431 1.0516e-06 2.29484e-05 1.09738 1.50656e+07
1.41075 19.9863 0.00206984 1.1241e-06 32 20.3825 1.14639e-06 2.01923e-05 1.78143 1.77798e+07
1.49083 4.91199 0.00244272 2.34096e-07 48 4.80728 2.29105e-07 1.77518e-05 0.632985 2.09828e+07
1.57546 24.8891 0.00288279 1.00509e-06 6 23.7 9.57076e-07 1.55929e-05 0.386752 2.4763e+07
1.66489 6.27623 0.00340213 2.14763e-07 84 6.14041 2.10115e-07 1.3685e-05 1.31823 2.92241e+07
1.75941 7.78944 0.00401503 2.25854e-07 48 7.69263 2.23047e-07 1.20007e-05 0.903364 3.44889e+07
1.85928 6.24474 0.00473835 1.53425e-07 72 6.27326 1.54126e-07 1.05151e-05 1.05055 4.07021e+07
1.96483 17.222 0.00559198 3.58532e-07 54 16.8129 3.50016e-07 9.20606e-06 2.10304 4.80347e+07
2.07637 14.1981 0.00659939 2.50459e-07 104 14.3468 2.53083e-07 8.05366e-06 3.23428 5.66883e+07
2.19424 8.48092 0.00778828 1.26769e-07 120 8.66177 1.29472e-07 7.04008e-06 2.1608 6.69008e+07
2.3188 10.4756 0.00919136 1.32681e-07 156 10.2229 1.29481e-07 6.1494e-06 3.3659 7.89532e+07
2.45043 12.6848 0.0108472 1.36136e-07 126 12.5849 1.35064e-07 5.36741e-06 3.1958 9.31768e+07
2.58954 12.5129 0.0128014 1.13792e-07 192 12.5331 1.13976e-07 4.68145e-06 4.66696 1.09963e+08
2.73654 39.31 0.0151076 3.02914e-07 152 39.8865 3.07356e-07 4.08023e-06 11.2844 1.29773e+08
2.89188 14.9576 0.0178292 9.76653e-08 378 15.0385 9.81935e-08 3.55373e-06 10.3884 1.53152e+08
3.05605 14.9623 0.0210412 8.27821e-08 264 14.7713 8.17258e-08 3.09304e-06 7.06569 1.80743e+08
3.22953 21.3288 0.0248319 9.99927e-08 366 21.1596 9.91992e-08 2.69025e-06 13.6037 2.13304e+08
3.41286 16.9099 0.0293054 6.71743e-08 428 16.6912 6.63058e-08 2.33837e-06 12.2951 2.51731e+08
3.6066 21.1263 0.0345848 7.11128e-08 486 20.8403 7.01501e-08 2.0312e-06 17.0149 2.97081e+08
3.81134 19.5812 0.0408154 5.58502e-08 600 19.5932 5.58846e-08 1.76327e-06 19.0046 3.50601e+08
4.0277 22.622 0.0481684 5.46738e-08 738 22.5934 5.46047e-08 1.52972e-06 26.3768 4.13763e+08
4.25634 25.1635 0.056846 5.15324e-08 824 25.0939 5.139e-08 1.32631e-06 32.0158 4.88304e+08
4.49796 27.4628 0.067087 4.76559e-08 954 27.2645 4.73118e-08 1.14926e-06 39.5592 5.76273e+08
4.7533 29.0538 0.0791729 4.27206e-08 1094 28.9083 4.25066e-08 9.95263e-07 46.9588 6.8009e+08
5.02313 29.9988 0.0934361 3.73766e-08 1332 30.0322 3.74182e-08 8.61414e-07 57.7952 8.0261e+08
5.30828 39.6642 0.110269 4.18751e-08 1614 39.6415 4.18512e-08 7.45152e-07 90.7015 9.47202e+08
5.60962 43.8634 0.130134 3.92393e-08 1850 43.9523 3.93189e-08 6.44232e-07 112.681 1.11784e+09
5.92807 37.3268 0.153578 2.82945e-08 2238 37.2962 2.82712e-08 5.56685e-07 113.75 1.31923e+09
6.26459 39.8817 0.181246 2.56163e-08 2546 39.9427 2.56555e-08 4.80786e-07 135.651 1.55689e+09
6.62021 40.3702 0.213898 2.19718e-08 3264 40.3749 2.19744e-08 4.15026e-07 172.799 1.83737e+09
6.99602 46.5317 0.252432 2.14593e-08 3506 46.5994 2.14905e-08 3.58083e-07 210.109 2.16837e+09
7.39317 49.5563 0.297908 1.93654e-08 4506 49.555 1.93649e-08 3.08803e-07 282.576 2.55901e+09
7.81286 53.5956 0.351577 1.77468e-08 5018 53.3588 1.76683e-08 2.66181e-07 334.559 3.02002e+09
8.25637 57.0508 0.414914 1.60071e-08 5852 57.0056 1.59945e-08 2.29336e-07 408.456 3.56409e+09
8.72507 59.7415 0.489662 1.42033e-08 7362 59.5806 1.41651e-08 1.97503e-07 529.434 4.20617e+09
9.22037 62.7682 0.577876 1.26449e-08 8306 62.59 1.2609e-08 1.70014e-07 617.762 4.96392e+09
9.74378 69.1736 0.681982 1.1808e-08 9698 69.1479 1.18036e-08 1.46289e-07 782.794 5.85818e+09
10.2969 72.0789 0.804843 1.04257e-08 11816 71.9729 1.04104e-08 1.25822e-07 979.083 6.91355e+09
10.8814 84.4611 0.949838 1.03518e-08 13682 84.2553 1.03266e-08 1.08175e-07 1309.3 8.15905e+09
11.4992 81.5116 1.12095 8.46529e-09 16152 81.4236 8.45615e-09 9.29669e-08 1470.75 9.62892e+09
12.1519 87.7384 1.3229 7.721e-09 19472 87.6466 7.71292e-09 7.98658e-08 1882.45 1.13636e+10
12.8418 91.5154 1.56122 6.82402e-09 22670 91.3404 6.81097e-09 6.85852e-08 2255.6 1.34108e+10
13.5708 97.4193 1.84248 6.15535e-09 26224 97.3481 6.15085e-09 5.88765e-08 2741.64 1.58268e+10
14.3411 103.934 2.17441 5.56451e-09 31640 103.887 5.56197e-09 5.05241e-08 3484.69 1.8678e+10
15.1552 108.634 2.56613 4.9283e-09 37484 108.378 4.91669e-09 4.33417e-08 4262.24 2.20429e+10
16.0156 118.935 3.02843 4.57196e-09 43856 118.752 4.56494e-09 3.71677e-08 5394.68 2.6014e+10
16.9247 124.902 3.574 4.06841e-09 51362 124.81 4.06541e-09 3.18628e-08 6558.16 3.07005e+10
17.8855 131.36 4.21787 3.6256e-09 61636 131.166 3.62026e-09 2.73063e-08 8183.72 3.62312e+10
18.9008 140.854 4.97773 3.29418e-09 72218 140.556 3.28722e-09 2.33941e-08 10169.2 4.27584e+10
19.9738 148.765 5.87448 2.94809e-09 84586 148.516 2.94315e-09 2.00364e-08 12445.7 5.04614e+10
21.1076 158.329 6.93279 2.65867e-09 100708 158.067 2.65426e-09 1.71555e-08 15607.2 5.95522e+10
22.3058 167.387 8.18175 2.38169e-09 118712 167.066 2.37713e-09 1.46847e-08 19253.8 7.02807e+10
23.5721 175.821 9.65571 2.1198e-09 140410 175.418 2.11494e-09 1.25662e-08 23686 8.29419e+10
24.9102 184.016 11.3952 1.87994e-09 164374 183.683 1.87654e-09 1.07504e-08 28744.4 9.78842e+10
26.3243 194.807 13.4481 1.68637e-09 194680 194.498 1.6837e-09 9.19452e-09 35706.4 1.15518e+11
27.8187 206.091 15.8708 1.51172e-09 230196 205.741 1.50915e-09 7.86182e-09 44263.5 1.36329e+11
29.3979 216.706 18.73 1.34693e-09 271156 216.329 1.34458e-09 6.72061e-09 54344.3 1.60889e+11
31.0667 228.081 22.1042 1.20122e-09 321076 227.686 1.19914e-09 5.74366e-09 67149.4 1.89874e+11
32.8303 241.412 26.0864 1.07734e-09 377436 240.971 1.07538e-09 4.90756e-09 82857.6 2.2408e+11
34.694 254.343 30.7859 9.61786e-10 447594 253.877 9.60025e-10 4.19221e-09 102688 2.64449e+11
36.6634 267.138 36.3321 8.55965e-10 525078 266.685 8.54514e-10 3.58032e-09 125533 3.1209e+11
38.7447 281.881 42.8774 7.65329e-10 621924 281.374 7.63951e-10 3.05709e-09 155696 3.68314e+11
40.9442 295.667 50.6018 6.80217e-10 732630 295.11 6.78935e-10 2.60976e-09 190955 4.34667e+11
43.2685 311.581 59.7179 6.07402e-10 865596 311.084 6.06433e-10 2.22743e-09 236041 5.12973e+11
45.7247 326.784 70.4762 5.39795e-10 1.02168e+06 326.254 5.38918e-10 1.90073e-09 290149 6.05386e+11
48.3204 342.657 83.1727 4.7961e-10 1.20544e+06 342.037 4.78742e-10 1.62163e-09 356517 7.14448e+11
51.0634 358.898 98.1565 4.2566e-10 1.42103e+06 358.263 4.24907e-10 1.38326e-09 437284 8.43158e+11
53.9621 377.048 115.84 3.78922e-10 1.67997e+06 376.397 3.78267e-10 1.1797e-09 539607 9.95055e+11
57.0254 395.9 136.709 3.37132e-10 1.98018e+06 395.22 3.36553e-10 1.00592e-09 663653 1.17432e+12
60.2626 415.02 161.337 2.99465e-10 2.33957e+06 414.288 2.98936e-10 8.57591e-10 816961 1.38587e+12
63.6835 436.551 190.402 2.66915e-10 2.75676e+06 435.76 2.66431e-10 7.3101e-10 1.00658e+06 1.63554e+12
67.2987 459.643 224.704 2.38134e-10 3.25638e+06 458.872 2.37734e-10 6.23009e-10 1.24469e+06 1.93019e+12
71.1191 484.094 265.185 2.12516e-10 3.84387e+06 483.23 2.12136e-10 5.30879e-10 1.53874e+06 2.27792e+12
75.1563 510.799 312.958 1.90009e-10 4.53277e+06 509.893 1.89672e-10 4.52303e-10 1.90417e+06 2.68829e+12
79.4227 539.355 369.339 1.70005e-10 5.35083e+06 538.393 1.69701e-10 3.85299e-10 2.36093e+06 3.17259e+12
83.9313 572.648 435.876 1.52945e-10 6.32174e+06 571.546 1.52651e-10 3.28173e-10 2.94624e+06 3.74415e+12
88.6959 607.895 514.4 1.37574e-10 7.44986e+06 606.735 1.37312e-10 2.79476e-10 3.66725e+06 4.41866e+12
93.7309 646.583 607.071 1.23992e-10 8.79764e+06 645.329 1.23752e-10 2.37972e-10 4.58389e+06 5.2147e+12
99.0518 692.238 716.436 1.12483e-10 1.03827e+07 690.861 1.1226e-10 2.02605e-10 5.76432e+06 6.15414e+12
104.675 743.262 845.504 1.02338e-10 1.22515e+07 741.691 1.02122e-10 1.72471e-10 7.2696e+06 7.26283e+12
110.617 803.466 997.824 9.37398e-11 1.44573e+07 801.735 9.35378e-11 1.468e-10 9.23178e+06 8.57124e+12
116.896 873.903 1177.58 8.63935e-11 1.70664e+07 871.94 8.61994e-11 1.24935e-10 1.18016e+07 1.01154e+13
123.532 955.979 1389.73 8.00808e-11 2.0139e+07 953.76 7.98949e-11 1.06313e-10 1.51698e+07 1.19377e+13
130.545 1052.46 1640.09 7.47045e-11 2.37643e+07 1049.9 7.45229e-11 9.04567e-11 1.9626e+07 1.40883e+13
137.955 1167.43 1935.56 7.02156e-11 2.80503e+07 1164.47 7.00377e-11 7.69563e-11 2.55933e+07 1.66263e+13
145.787 1303.5 2284.26 6.64316e-11 3.30981e+07 1300.08 6.62573e-11 6.54636e-11 3.35875e+07 1.96216e+13
154.063 1464.04 2695.77 6.32238e-11 3.90634e+07 1460.09 6.3053e-11 5.56812e-11 4.4355e+07 2.31565e+13
162.808 1656.11 3181.42 6.06009e-11 4.61057e+07 1651.47 6.0431e-11 4.73556e-11 5.90013e+07 2.73282e+13
172.051 1885.94 3754.56 5.8476e-11 5.44046e+07 1880.5 5.83073e-11 4.02708e-11 7.89992e+07 3.22515e+13
181.818 2159.32 4430.96 5.67322e-11 6.42064e+07 2152.92 5.6564e-11 3.42426e-11 1.06375e+08 3.80616e+13
192.139 2484.82 5229.21 5.53183e-11 7.57748e+07 2477.28 5.51504e-11 2.91139e-11 1.43977e+08 4.49186e+13
203.046 2874.89 6171.26 5.42322e-11 8.94213e+07 2866.01 5.40647e-11 2.4751e-11 1.95932e+08 5.30108e+13
214.572 3341.04 7283.03 5.34047e-11 1.05538e+08 3330.53 5.32366e-11 2.10401e-11 2.67881e+08 6.25608e+13
226.753 3899.84 8595.09 5.28209e-11 1.24552e+08 3887.25 5.26505e-11 1.78839e-11 3.67869e+08 7.38313e+13
239.625 4572.75 10143.5 5.24806e-11 1.46987e+08 4557.77 5.23087e-11 1.51999e-11 5.07502e+08 8.71322e+13
253.228 5380.93 11970.9 5.23288e-11 1.7347e+08 5362.98 5.21542e-11 1.29176e-11 7.0272e+08 1.02829e+14
267.603 6360.66 14127.5 5.2414e-11 2.04703e+08 6339.07 5.22361e-11 1.09771e-11 9.77421e+08 1.21354e+14
282.795 7552.18 16672.6 5.27326e-11 2.4161e+08 7526.1 5.25505e-11 9.3274e-12 1.36595e+09 1.43217e+14
298.848 9017.1 19676.2 5.33501e-11 2.85122e+08 8985.14 5.31611e-11 7.925e-12 1.91941e+09 1.69017e+14
315.813 10838.7 23220.9 5.43383e-11 3.36491e+08 10799.1 5.41401e-11 6.73295e-12 2.71565e+09 1.99466e+14
333.741 13139.5 27404.3 5.58176e-11 3.97115e+08 13089.8 5.56064e-11 5.71979e-12 3.87532e+09 2.35401e+14
352.686 16114.3 32341.2 5.8005e-11 4.68637e+08 16050.3 5.77748e-11 4.85874e-12 5.59472e+09 2.77809e+14
372.707 20076.5 38167.6 6.12354e-11 5.53074e+08 19991.9 6.09777e-11 4.12703e-12 8.20632e+09 3.27857e+14
393.865 25556.6 45043.5 6.60511e-11 6.52716e+08 25440.2 6.57504e-11 3.50528e-12 1.22993e+10 3.86921e+14
416.224 30164.2 53158.3 6.60588e-11 2.2184e+08 31910.8 6.98839e-11 2.97701e-12 4.92255e+09 4.56626e+14
439.852 0 62734.9 0 0 0 0 2.52819e-12 0 5.38888e+14
464.821 0 74036.7 0 0 0 0 2.1469e-12 0 6.35971e+14
491.207 0 87374.6 0 0 0 0 1.82301e-12 0 7.50542e+14
519.092 0 103115 0 0 0 0 1.54789e-12 0 8.85755e+14
548.56 0 121692 0 0 0 0 1.31422e-12 0 1.04533e+15
579.7 0 143615 0 0 0 0 1.11576e-12 0 1.23364e+15
612.608 0 169488 0 0 0 0 9.47223e-13 0 1.45589e+15
647.384 0 200021 0 0 0 0 8.041e-13 0 1.71817e+15
684.134 0 236056 0 0 0 0 6.82568e-13 0 2.0277e+15
722.971 0 278582 0 0 0 0 5.79376e-13 0 2.393e+15
764.012 0 328769 0 0 0 0 4.91762e-13 0 2.8241e+15
0.94093
200
1.0655e+09
8589934592
0.0129181 0.00185112 1.58924e-09 0.000135599 6 0.00183417 0.000134357 0.00677225 0.120136 13.6515
0.0136515 0 1.87554e-09 0 0 0 0 0.00688819 0 16.1108
0.0144264 0 2.21343e-09 0 0 0 0 0.00699249 0 19.0132
0.0152454 0 2.61218e-09 0 0 0 0 0.00708412 0 22.4385
0.0161108 0 3.08278e-09 0 0 0 0 0.00716212 0 26.4808
0.0170254 0 3.63815e-09 0 0 0 0 0.00722559 0 31.2514
0.0179919 0.00410669 4.29357e-09 0.000111348 12 0.0041014 0.000111205 0.00727371 0.1837 36.8815
0.0190132 0 5.06707e-09 0 0 0 0 0.00730578 0 43.5258
0.0200925 0 5.97991e-09 0 0 0 0 0.00732122 0 51.367
0.0212331 0.00387749 7.05721e-09 6.39628e-05 8 0.00387411 6.39072e-05 0.00731958 0.0699088 60.621
0.0224385 0 8.32858e-09 0 0 0 0 0.00730056 0 71.542
0.0237123 0 9.829e-09 0 0 0 0 0.00726401 0 84.4305
0.0250583 0.0243544 1.15997e-08 0.000244422 6 0.024343 0.000244307 0.00720995 0.203404 99.6408
0.0264808 0 1.36894e-08 0 0 0 0 0.00713857 0 117.591
0.0279841 0.0149164 1.61556e-08 0.000107486 24 0.0149011 0.000107375 0.00705021 0.365898 138.776
0.0295727 0 1.90661e-08 0 0 0 0 0.00694538 0 163.777
0.0312514 0.0263932 2.25009e-08 0.000136553 24 0.0265272 0.000137247 0.00682475 0.480205 193.281
0.0330255 0 2.65545e-08 0 0 0 0 0.00668915 0 228.102
0.0349003 0.0399877 3.13384e-08 0.000148546 12 0.0396675 0.000147356 0.00653951 0.272581 269.195
0.0368815 0.0318179 3.69841e-08 0.000100154 30 0.0314791 9.90871e-05 0.00637693 0.471169 317.691
0.0389751 0.0358151 4.36469e-08 9.55265e-05 24 0.0354467 9.45438e-05 0.00620256 0.369627 374.924
0.0411876 0.0229914 5.151e-08 5.19618e-05 24 0.0228353 5.16089e-05 0.00601767 0.207237 442.467
0.0435258 0.0572701 6.07896e-08 0.000109675 8 0.0572657 0.000109667 0.00582358 0.150664 522.179
0.0459966 0.0697386 7.1741e-08 0.000113166 72 0.0691891 0.000112274 0.00562166 1.44938 616.251
0.0486077 0 8.46654e-08 0 0 0 0 0.0054133 0 727.27
0.051367 0.0949665 9.99181e-08 0.000110646 54 0.0946511 0.000110279 0.00519989 1.14904 858.29
0.054283 0.0767511 1.17919e-07 7.57726e-05 60 0.0771011 7.61182e-05 0.0049828 0.91241 1012.91
0.0573645 0.0715842 1.39162e-07 5.98834e-05 96 0.0714012 5.97303e-05 0.00476339 1.20687 1195.39
0.060621 0.0851998 1.64232e-07 6.03934e-05 24 0.0840455 5.95752e-05 0.00454293 0.319055 1410.75
0.0640622 0.14626 1.93819e-07 8.78492e-05 134 0.146324 8.78876e-05 0.00432265 2.72328 1664.89
0.0676989 0.143506 2.28736e-07 7.30372e-05 120 0.142801 7.26787e-05 0.00410371 2.13574 1964.83
0.071542 0.135605 2.69944e-07 5.84805e-05 108 0.134103 5.78332e-05 0.00388717 1.6248 2318.8
0.0756032 0.201156 3.18575e-07 7.35073e-05 174 0.200036 7.30981e-05 0.00367401 3.48128 2736.54
0.079895 0.210304 3.75967e-07 6.5119e-05 168 0.208328 6.4507e-05 0.0034651 3.15719 3229.53
0.0844305 0.175075 4.43698e-07 4.59352e-05 168 0.175941 4.61625e-05 0.00326121 2.36634 3811.34
0.0892234 0.209732 5.23632e-07 4.66282e-05 290 0.208743 4.64084e-05 0.00306301 4.41467 4497.96
0.0942883 0.251445 6.17966e-07 4.73685e-05 288 0.250918 4.72691e-05 0.00287109 4.75155 5308.28
0.0996408 0.224531 7.29294e-07 3.58413e-05 366 0.222822 3.55685e-05 0.00268591 4.88398 6264.59
0.105297 0.263519 8.60678e-07 3.56436e-05 420 0.261643 3.53899e-05 0.00250785 5.96937 7393.17
0.111275 0.281044 1.01573e-06 3.22111e-05 398 0.28027 3.21224e-05 0.00233721 5.48517 8725.07
0.117591 0.333558 1.19872e-06 3.2394e-05 624 0.334501 3.24855e-05 0.00217419 9.29717 10296.9
0.124267 0.388916 1.41467e-06 3.20044e-05 642 0.388017 3.19305e-05 0.00201893 10.1771 12151.9
0.131321 0.45865 1.66953e-06 3.19814e-05 800 0.458753 3.19887e-05 0.00187147 13.6712 14341.1
0.138776 0.425896 1.9703e-06 2.51642e-05 858 0.427692 2.52702e-05 0.00173182 12.4672 16924.7
0.146654 0.497195 2.32525e-06 2.48924e-05 1080 0.501328 2.50993e-05 0.00159991 16.8033 19973.8
0.154979 0.577603 2.74415e-06 2.45037e-05 1286 0.58125 2.46584e-05 0.00147563 21.3547 23572.1
0.163777 0.564392 3.23852e-06 2.02882e-05 1650 0.566029 2.03471e-05 0.00135884 24.6354 27818.7
0.173074 0.626429 3.82195e-06 1.90808e-05 1778 0.626931 1.90961e-05 0.00124933 27.1551 32830.3
0.182899 0.67616 4.51048e-06 1.74517e-05 2112 0.677708 1.74916e-05 0.00114689 32.1372 38744.7
0.193281 0.748485 5.32305e-06 1.63694e-05 2570 0.749022 1.63811e-05 0.00105127 40.0175 45724.7
0.204254 0.87861 6.28202e-06 1.6282e-05 3030 0.878016 1.6271e-05 0.000962209 51.272 53962.1
0.215848 0.914627 7.41374e-06 1.43621e-05 3434 0.914273 1.43565e-05 0.000879423 56.0814 63683.5
0.228102 0.969974 8.74934e-06 1.29061e-05 4218 0.96938 1.28982e-05 0.000802624 67.8249 75156.3
0.24105 1.07976 1.03256e-05 1.21738e-05 4766 1.08041 1.21811e-05 0.000731515 79.315 88695.9
0.254734 1.17671 1.21857e-05 1.12416e-05 6026 1.17667 1.12412e-05 0.000665798 101.745 104675
0.269195 1.34324 1.4381e-05 1.08736e-05 6480 1.34203 1.08638e-05 0.000605173 116.431 123532
0.284476 1.4485 1.69718e-05 9.93577e-06 8162 1.45105 9.95326e-06 0.000549345 147.623 145787
0.300625 1.60087 2.00293e-05 9.30463e-06 9578 1.60143 9.3079e-06 0.000498021 178.948 172051
0.317691 1.77433 2.36377e-05 8.73858e-06 11234 1.77284 8.73124e-06 0.000450916 217.71 203046
0.335725 1.91053 2.78961e-05 7.97297e-06 13344 1.90705 7.95847e-06 0.000407755 260.92 239625
0.354784 2.15204 3.29216e-05 7.60992e-06 15464 2.15072 7.60523e-06 0.000368269 319.548 282795
0.374924 2.32556 3.88525e-05 6.96815e-06 18458 2.32327 6.9613e-06 0.000332202 387.169 333741
0.396207 2.69167 4.58519e-05 6.83399e-06 22232 2.68732 6.82296e-06 0.000299307 507.617 393865
0.418699 2.89307 5.41123e-05 6.22406e-06 25628 2.88605 6.20894e-06 0.00026935 592.205 464821
0.442467 3.16365 6.38607e-05 5.7672e-06 30320 3.15825 5.75736e-06 0.000242108 722.246 548560
0.467585 3.58141 7.53654e-05 5.53212e-06 35452 3.57488 5.52204e-06 0.00021737 902.261 647384
0.494129 3.96489 8.89427e-05 5.18956e-06 41792 3.96037 5.18365e-06 0.000194938 1112.57 764012
0.522179 4.46445 0.000104966 4.95141e-06 49988 4.46389 4.9508e-06 0.000174625 1417.39 901651
0.551822 4.98333 0.000123876 4.6832e-06 59110 4.97665 4.67693e-06 0.000156255 1771.62 1.06409e+06
0.583147 5.54689 0.000146192 4.41707e-06 69716 5.53798 4.40998e-06 0.000139664 2204.87 1.25578e+06
0.616251 6.19395 0.000172529 4.17941e-06 82210 6.18168 4.17113e-06 0.0001247 2755.33 1.48202e+06
0.651234 6.83971 0.000203611 3.91063e-06 96722 6.82442 3.90189e-06 0.00011122 3400.85 1.74901e+06
0.688203 7.76431 0.000240292 3.76161e-06 113098 7.75165 3.75548e-06 9.90935e-05 4293.22 2.06409e+06
0.72727 8.69357 0.000283581 3.56887e-06 135190 8.6807 3.56359e-06 8.81969e-05 5470.43 2.43595e+06
0.768555 9.71601 0.000334669 3.37973e-06 158170 9.70074 3.37442e-06 7.84179e-05 6816.96 2.87479e+06
0.812184 10.8864 0.000394961 3.20879e-06 188560 10.8684 3.20347e-06 6.96525e-05 8686.67 3.39269e+06
0.85829 12.1808 0.000466114 3.04224e-06 220444 12.1608 3.03724e-06 6.1805e-05 10850.9 4.00389e+06
0.907013 13.6245 0.000550086 2.88337e-06 261388 13.6011 2.87842e-06 5.47875e-05 13756.4 4.7252e+06
0.958501 15.2609 0.000649185 2.73667e-06 308244 15.2376 2.73249e-06 4.85194e-05 17386.1 5.57646e+06
1.01291 17.1467 0.000766138 2.60545e-06 364396 17.1175 2.60102e-06 4.29272e-05 22116.9 6.58107e+06
1.07041 19.0717 0.00090416 2.45558e-06 429162 19.0364 2.45103e-06 3.79435e-05 27773.9 7.76667e+06
1.13118 21.2958 0.00106705 2.32339e-06 506358 21.2596 2.31943e-06 3.3507e-05 35111 9.16586e+06
1.19539 23.8248 0.00125928 2.20251e-06 598590 23.7799 2.19836e-06 2.9562e-05 44597.8 1.08171e+07
1.26325 26.4886 0.00148614 2.07496e-06 704844 26.441 2.07123e-06 2.60578e-05 56126.1 1.27658e+07
1.33496 29.4588 0.00175387 1.95536e-06 834620 29.4005 1.9515e-06 2.29484e-05 71115.3 1.50656e+07
1.41075 32.7164 0.00206984 1.84009e-06 981444 32.654 1.83658e-06 2.01923e-05 89437.5 1.77798e+07
1.49083 36.1659 0.00244272 1.72359e-06 1.15998e+06 36.0997 1.72044e-06 1.77518e-05 112627 2.09828e+07
1.57546 39.9972 0.00288279 1.6152e-06 1.36931e+06 39.9238 1.61224e-06 1.55929e-05 141842 2.4763e+07
1.66489 44.127 0.00340213 1.50996e-06 1.61652e+06 44.0452 1.50716e-06 1.3685e-05 178361 2.92241e+07
1.75941 48.6883 0.00401503 1.41171e-06 1.90601e+06 48.5967 1.40906e-06 1.20007e-05 224215 3.44889e+07
1.85928 53.4206 0.00473835 1.31248e-06 2.24913e+06 53.3193 1.30999e-06 1.05151e-05 280732 4.07021e+07
1.96483 58.446 0.00559198 1.21675e-06 2.65744e+06 58.3356 1.21445e-06 9.20606e-06 351228 4.80347e+07
2.07637 63.9624 0.00659939 1.12832e-06 3.13125e+06 63.8451 1.12625e-06 8.05366e-06 438689 5.66883e+07
2.19424 69.9166 0.00778828 1.04508e-06 3.69915e+06 69.7878 1.04315e-06 7.04008e-06 549127 6.69008e+07
2.3188 76.0088 0.00919136 9.62707e-07 4.36472e+06 75.8758 9.61022e-07 6.1494e-06 683311 7.89532e+07
2.45043 82.7799 0.0108472 8.88417e-07 5.14913e+06 82.6331 8.86842e-07 5.36741e-06 852288 9.31768e+07
2.58954 89.6131 0.0128014 8.14939e-07 6.07894e+06 89.4579 8.13528e-07 4.68145e-06 1.05821e+06 1.09963e+08
2.73654 97.0404 0.0151076 7.4777e-07 7.17304e+06 96.8751 7.46497e-07 4.08023e-06 1.31458e+06 1.29773e+08
2.89188 104.865 0.0178292 6.84714e-07 8.46557e+06 104.686 6.83544e-07 3.55373e-06 1.6311e+06 1.53152e+08
3.05605 113.216 0.0210412 6.26395e-07 9.98773e+06 113.027 6.25348e-07 3.09304e-06 2.02269e+06 1.80743e+08
3.22953 121.956 0.0248319 5.71748e-07 1.1797e+07 121.751 5.70788e-07 2.69025e-06 2.50717e+06 2.13304e+08
3.41286 131.114 0.0293054 5.20849e-07 1.39144e+07 130.889 5.19955e-07 2.33837e-06 3.09929e+06 2.51731e+08
3.6066 140.914 0.0345848 4.74327e-07 1.64163e+07 140.676 4.73526e-07 2.0312e-06 3.83354e+06 2.97081e+08
3.81134 151.066 0.0408154 4.30878e-07 1.93821e+07 150.818 4.30171e-07 1.76327e-06 4.73629e+06 3.50601e+08
4.0277 161.78 0.0481684 3.90997e-07 2.28754e+07 161.512 3.9035e-07 1.52972e-06 5.84696e+06 4.13763e+08
4.25634 173.115 0.056846 3.54524e-07 2.69929e+07 172.824 3.53928e-07 1.32631e-06 7.21524e+06 4.88304e+08
4.49796 184.945 0.067087 3.20933e-07 3.18542e+07 184.635 3.20395e-07 1.14926e-06 8.89537e+06 5.76273e+08
4.7533 197.438 0.0791729 2.90311e-07 3.75892e+07 197.111 2.89831e-07 9.95263e-07 1.09645e+07 6.8009e+08
5.02313 210.51 0.0934361 2.62282e-07 4.43706e+07 210.161 2.61847e-07 8.61414e-07 1.35099e+07 8.0261e+08
5.30828 224.416 0.110269 2.36925e-07 5.23593e+07 224.041 2.3653e-07 7.45152e-07 1.66479e+07 9.47202e+08
5.60962 238.847 0.130134 2.13667e-07 6.1787e+07 238.453 2.13315e-07 6.44232e-07 2.04924e+07 1.11784e+09
5.92807 253.95 0.153578 1.925e-07 7.29346e+07 253.53 1.92181e-07 5.56685e-07 2.52205e+07 1.31923e+09
6.26459 269.77 0.181246 1.73275e-07 8.60651e+07 269.321 1.72987e-07 4.80786e-07 3.10178e+07 1.55689e+09
6.62021 286.399 0.213898 1.55875e-07 1.01558e+08 285.925 1.55617e-07 4.15026e-07 3.81431e+07 1.83737e+09
6.99602 303.836 0.252432 1.40122e-07 1.1986e+08 303.333 1.3989e-07 3.58083e-07 4.69025e+07 2.16837e+09
7.39317 322.011 0.297908 1.25834e-07 1.41457e+08 321.483 1.25628e-07 3.08803e-07 5.76421e+07 2.55901e+09
7.81286 340.986 0.351577 1.12908e-07 1.66936e+08 340.423 1.12722e-07 2.66181e-07 7.08107e+07 3.02002e+09
8.25637 361.168 0.414914 1.01335e-07 1.97025e+08 360.574 1.01169e-07 2.29336e-07 8.70582e+07 3.56409e+09
8.72507 382.377 0.489662 9.09086e-08 2.32497e+08 381.74 9.07572e-08 1.97503e-07 1.07016e+08 4.20617e+09
9.22037 405.005 0.577876 8.15897e-08 2.74404e+08 404.322 8.14521e-08 1.70014e-07 1.31686e+08 4.96392e+09
9.74378 429.939 0.681982 7.33912e-08 3.2382e+08 429.2 7.32651e-08 1.46289e-07 1.62456e+08 5.85818e+09
10.2969 457.746 0.804843 6.621e-08 3.82165e+08 456.931 6.6092e-08 1.25822e-07 2.01102e+08 6.91355e+09
10.8814 490.795 0.949838 6.01535e-08 4.51027e+08 489.857 6.00386e-08 1.08175e-07 2.50804e+08 8.15905e+09
11.4992 533.222 1.12095 5.53771e-08 5.32251e+08 532.082 5.52587e-08 9.29669e-08 3.17043e+08 9.62892e+09
12.1519 592.922 1.3229 5.21773e-08 6.28157e+08 591.429 5.20459e-08 7.98658e-08 4.10383e+08 1.13636e+10
12.8418 659.851 1.56122 4.9203e-08 3.82727e+08 682.969 5.09268e-08 6.85852e-08 2.74568e+08 1.34108e+10
13.5708 0 1.84248 0 0 0 0 5.88765e-08 0 1.58268e+10
14.3411 0 2.17441 0 0 0 0 5.05241e-08 0 1.8678e+10
15.1552 0 2.56613 0 0 0 0 4.33417e-08 0 2.20429e+10
16.0156 0 3.02843 0 0 0 0 3.71677e-08 0 2.6014e+10
16.9247 0 3.574 0 0 0 0 3.18628e-08 0 3.07005e+10
17.8855 0 4.21787 0 0 0 0 2.73063e-08 0 3.62312e+10
18.9008 0 4.97773 0 0 0 0 2.33941e-08 0 4.27584e+10
19.9738 0 5.87448 0 0 0 0 2.00364e-08 0 5.04614e+10
21.1076 0 6.93279 0 0 0 0 1.71555e-08 0 5.95522e+10
22.3058 0 8.18175 0 0 0 0 1.46847e-08 0 7.02807e+10
23.5721 0 9.65571 0 0 0 0 1.25662e-08 0 8.29419e+10
24.9102 0 11.3952 0 0 0 0 1.07504e-08 0 9.78842e+10
26.3243 0 13.4481 0 0 0 0 9.19452e-09 0 1.15518e+11
27.8187 0 15.8708 0 0 0 0 7.86182e-09 0 1.36329e+11
29.3979 0 18.73 0 0 0 0 6.72061e-09 0 1.60889e+11
31.0667 0 22.1042 0 0 0 0 5.74366e-09 0 1.89874e+11
32.8303 0 26.0864 0 0 0 0 4.90756e-09 0 2.2408e+11
34.694 0 30.7859 0 0 0 0 4.19221e-09 0 2.64449e+11
36.6634 0 36.3321 0 0 0 0 3.58032e-09 0 3.1209e+11
38.7447 0 42.8774 0 0 0 0 3.05709e-09 0 3.68314e+11
40.9442 0 50.6018 0 0 0 0 2.60976e-09 0 4.34667e+11
43.2685 0 59.7179 0 0 0 0 2.22743e-09 0 5.12973e+11
45.7247 0 70.4762 0 0 0 0 1.90073e-09 0 6.05386e+11
48.3204 0 83.1727 0 0 0 0 1.62163e-09 0 7.14448e+11
51.0634 0 98.1565 0 0 0 0 1.38326e-09 0 8.43158e+11
53.9621 0 115.84 0 0 0 0 1.1797e-09 0 9.95055e+11
57.0254 0 136.709 0 0 0 0 1.00592e-09 0 1.17432e+12
60.2626 0 161.337 0 0 0 0 8.57591e-10 0 1.38587e+12
63.6835 0 190.402 0 0 0 0 7.3101e-10 0 1.63554e+12
67.2987 0 224.704 0 0 0 0 6.23009e-10 0 1.93019e+12
71.1191 0 265.185 0 0 0 0 5.30879e-10 0 2.27792e+12
75.1563 0 312.958 0 0 0 0 4.52303e-10 0 2.68829e+12
79.4227 0 369.339 0 0 0 0 3.85299e-10 0 3.17259e+12
83.9313 0 435.876 0 0 0 0 3.28173e-10 0 3.74415e+12
88.6959 0 514.4 0 0 0 0 2.79476e-10 0 4.41866e+12
93.7309 0 607.071 0 0 0 0 2.37972e-10 0 5.2147e+12
99.0518 0 716.436 0 0 0 0 2.02605e-10 0 6.15414e+12
104.675 0 845.504 0 0 0 0 1.72471e-10 0 7.26283e+12
110.617 0 997.824 0 0 0 0 1.468e-10 0 8.57124e+12
116.896 0 1177.58 0 0 0 0 1.24935e-10 0 1.01154e+13
123.532 0 1389.73 0 0 0 0 1.06313e-10 0 1.19377e+13
130.545 0 1640.09 0 0 0 0 9.04567e-11 0 1.40883e+13
137.955 0 1935.56 0 0 0 0 7.69563e-11 0 1.66263e+13
145.787 0 2284.26 0 0 0 0 6.54636e-11 0 1.96216e+13
154.063 0 2695.77 0 0 0 0 5.56812e-11 0 2.31565e+13
162.808 0 3181.42 0 0 0 0 4.73556e-11 0 2.73282e+13
172.051 0 3754.56 0 0 0 0 4.02708e-11 0 3.22515e+13
181.818 0 4430.96 0 0 0 0 3.42426e-11 0 3.80616e+13
192.139 0 5229.21 0 0 0 0 2.91139e-11 0 4.49186e+13
203.046 0 6171.26 0 0 0 0 2.4751e-11 0 5.30108e+13
214.572 0 7283.03 0 0 0 0 2.10401e-11 0 6.25608e+13
226.753 0 8595.09 0 0 0 0 1.78839e-11 0 7.38313e+13
239.625 0 10143.5 0 0 0 0 1.51999e-11 0 8.71322e+13
253.228 0 11970.9 0 0 0 0 1.29176e-11 0 1.02829e+14
267.603 0 14127.5 0 0 0 0 1.09771e-11 0 1.21354e+14
282.795 0 16672.6 0 0 0 0 9.3274e-12 0 1.43217e+14
298.848 0 19676.2 0 0 0 0 7.925e-12 0 1.69017e+14
315.813 0 23220.9 0 0 0 0 6.73295e-12 0 1.99466e+14
333.741 0 27404.3 0 0 0 0 5.71979e-12 0 2.35401e+14
352.686 0 32341.2 0 0 0 0 4.85874e-12 0 2.77809e+14
372.707 0 38167.6 0 0 0 0 4.12703e-12 0 3.27857e+14
393.865 0 45043.5 0 0 0 0 3.50528e-12 0 3.86921e+14
416.224 0 53158.3 0 0 0 0 2.97701e-12 0 4.56626e+14
439.852 0 62734.9 0 0 0 0 2.52819e-12 0 5.38888e+14
464.821 0 74036.7 0 0 0 0 2.1469e-12 0 6.35971e+14
491.207 0 87374.6 0 0 0 0 1.82301e-12 0 7.50542e+14
519.092 0 103115 0 0 0 0 1.54789e-12 0 8.85755e+14
548.56 0 121692 0 0 0 0 1.31422e-12 0 1.04533e+15
579.7 0 143615 0 0 0 0 1.11576e-12 0 1.23364e+15
612.608 0 169488 0 0 0 0 9.47223e-13 0 1.45589e+15
647.384 0 200021 0 0 0 0 8.041e-13 0 1.71817e+15
684.134 0 236056 0 0 0 0 6.82568e-13 0 2.0277e+15
722.971 0 278582 0 0 0 0 5.79376e-13 0 2.393e+15
764.012 0 328769 0 0 0 0 4.91762e-13 0 2.8241e+15
