0.169885
200
1.0655e+09
8589934592
0.0129181 0 1.58924e-09 0 0 0 0 0.00677225 0 13.6515
0.0136515 0 1.87554e-09 0 0 0 0 0.00688819 0 16.1108
0.0144264 0 2.21343e-09 0 0 0 0 0.00699249 0 19.0132
0.0152454 0 2.61218e-09 0 0 0 0 0.00708412 0 22.4385
0.0161108 0 3.08278e-09 0 0 0 0 0.00716212 0 26.4808
0.0170254 0 3.63815e-09 0 0 0 0 0.00722559 0 31.2514
0.0179919 0 4.29357e-09 0 0 0 0 0.00727371 0 36.8815
0.0190132 0 5.06707e-09 0 0 0 0 0.00730578 0 43.5258
0.0200925 0 5.97991e-09 0 0 0 0 0.00732122 0 51.367
0.0212331 0 7.05721e-09 0 0 0 0 0.00731958 0 60.621
0.0224385 0 8.32858e-09 0 0 0 0 0.00730056 0 71.542
0.0237123 0 9.829e-09 0 0 0 0 0.00726401 0 84.4305
0.0250583 0 1.15997e-08 0 0 0 0 0.00720995 0 99.6408
0.0264808 0 1.36894e-08 0 0 0 0 0.00713857 0 117.591
0.0279841 0 1.61556e-08 0 0 0 0 0.00705021 0 138.776
0.0295727 0 1.90661e-08 0 0 0 0 0.00694538 0 163.777
0.0312514 0 2.25009e-08 0 0 0 0 0.00682475 0 193.281
0.0330255 0 2.65545e-08 0 0 0 0 0.00668915 0 228.102
0.0349003 0 3.13384e-08 0 0 0 0 0.00653951 0 269.195
0.0368815 0 3.69841e-08 0 0 0 0 0.00637693 0 317.691
0.0389751 0 4.36469e-08 0 0 0 0 0.00620256 0 374.924
0.0411876 0 5.151e-08 0 0 0 0 0.00601767 0 442.467
0.0435258 0 6.07896e-08 0 0 0 0 0.00582358 0 522.179
0.0459966 0 7.1741e-08 0 0 0 0 0.00562166 0 616.251
0.0486077 0 8.46654e-08 0 0 0 0 0.0054133 0 727.27
0.051367 0 9.99181e-08 0 0 0 0 0.00519989 0 858.29
0.054283 0 1.17919e-07 0 0 0 0 0.0049828 0 1012.91
0.0573645 0 1.39162e-07 0 0 0 0 0.00476339 0 1195.39
0.060621 0 1.64232e-07 0 0 0 0 0.00454293 0 1410.75
0.0640622 0 1.93819e-07 0 0 0 0 0.00432265 0 1664.89
0.0676989 0 2.28736e-07 0 0 0 0 0.00410371 0 1964.83
0.071542 0 2.69944e-07 0 0 0 0 0.00388717 0 2318.8
0.0756032 0 3.18575e-07 0 0 0 0 0.00367401 0 2736.54
0.079895 0 3.75967e-07 0 0 0 0 0.0034651 0 3229.53
0.0844305 0 4.43698e-07 0 0 0 0 0.00326121 0 3811.34
0.0892234 0 5.23632e-07 0 0 0 0 0.00306301 0 4497.96
0.0942883 0 6.17966e-07 0 0 0 0 0.00287109 0 5308.28
0.0996408 0 7.29294e-07 0 0 0 0 0.00268591 0 6264.59
0.105297 0 8.60678e-07 0 0 0 0 0.00250785 0 7393.17
0.111275 0 1.01573e-06 0 0 0 0 0.00233721 0 8725.07
0.117591 0 1.19872e-06 0 0 0 0 0.00217419 0 10296.9
0.124267 0 1.41467e-06 0 0 0 0 0.00201893 0 12151.9
0.131321 0 1.66953e-06 0 0 0 0 0.00187147 0 14341.1
0.138776 0 1.9703e-06 0 0 0 0 0.00173182 0 16924.7
0.146654 0 2.32525e-06 0 0 0 0 0.00159991 0 19973.8
0.154979 0 2.74415e-06 0 0 0 0 0.00147563 0 23572.1
0.163777 0 3.23852e-06 0 0 0 0 0.00135884 0 27818.7
0.173074 0 3.82195e-06 0 0 0 0 0.00124933 0 32830.3
0.182899 0 4.51048e-06 0 0 0 0 0.00114689 0 38744.7
0.193281 0 5.32305e-06 0 0 0 0 0.00105127 0 45724.7
0.204254 0 6.28202e-06 0 0 0 0 0.000962209 0 53962.1
0.215848 0 7.41374e-06 0 0 0 0 0.000879423 0 63683.5
0.228102 0 8.74934e-06 0 0 0 0 0.000802624 0 75156.3
0.24105 0 1.03256e-05 0 0 0 0 0.000731515 0 88695.9
0.254734 0 1.21857e-05 0 0 0 0 0.000665798 0 104675
0.269195 0 1.4381e-05 0 0 0 0 0.000605173 0 123532
0.284476 0 1.69718e-05 0 0 0 0 0.000549345 0 145787
0.300625 0 2.00293e-05 0 0 0 0 0.000498021 0 172051
0.317691 0 2.36377e-05 0 0 0 0 0.000450916 0 203046
0.335725 0 2.78961e-05 0 0 0 0 0.000407755 0 239625
0.354784 0 3.29216e-05 0 0 0 0 0.000368269 0 282795
0.374924 0 3.88525e-05 0 0 0 0 0.000332202 0 333741
0.396207 0.561333 4.58519e-05 1.42519e-06 6 0.545727 1.38557e-06 0.000299307 0.0285698 393865
0.418699 0 5.41123e-05 0 0 0 0 0.00026935 0 464821
0.442467 0 6.38607e-05 0 0 0 0 0.000242108 0 548560
0.467585 0 7.53654e-05 0 0 0 0 0.00021737 0 647384
0.494129 0 8.89427e-05 0 0 0 0 0.000194938 0 764012
0.522179 0 0.000104966 0 0 0 0 0.000174625 0 901651
0.551822 0 0.000123876 0 0 0 0 0.000156255 0 1.06409e+06
0.583147 6.66433 0.000146192 5.30691e-06 12 7.01424 5.58555e-06 0.000139664 0.455972 1.25578e+06
0.616251 0 0.000172529 0 0 0 0 0.0001247 0 1.48202e+06
0.651234 0 0.000203611 0 0 0 0 0.00011122 0 1.74901e+06
0.688203 24.8057 0.000240292 1.20177e-05 8 24.1885 1.17187e-05 9.90935e-05 0.970212 2.06409e+06
0.72727 0 0.000283581 0 0 0 0 8.81969e-05 0 2.43595e+06
0.768555 0 0.000334669 0 0 0 0 7.84179e-05 0 2.87479e+06
0.812184 0.300722 0.000394961 8.86382e-08 6 0.307151 9.05333e-08 6.96525e-05 0.00763547 3.39269e+06
0.85829 0 0.000466114 0 0 0 0 6.1805e-05 0 4.00389e+06
0.907013 0.238712 0.000550086 5.05189e-08 24 0.243292 5.14882e-08 5.47875e-05 0.0221301 4.7252e+06
0.958501 1.24863 0.000649185 2.23911e-07 24 1.1755 2.10796e-07 4.85194e-05 0.110757 5.57646e+06
1.01291 0 0.000766138 0 0 0 0 4.29272e-05 0 6.58107e+06
1.07041 0 0.00090416 0 0 0 0 3.79435e-05 0 7.76667e+06
1.13118 1.03995 0.00106705 1.13459e-07 12 1.02717 1.12065e-07 3.3507e-05 0.0406335 9.16586e+06
1.19539 0.93851 0.00125928 8.67616e-08 30 0.919163 8.4973e-08 2.9562e-05 0.088047 1.08171e+07
1.26325 7.6501 0.00148614 5.99263e-07 24 7.53499 5.90246e-07 2.60578e-05 0.551939 1.27658e+07
1.33496 19.503 0.00175387 1.29454e-06 24 19.5459 1.29738e-06 2.29484e-05 1.35386 1.50656e+07
1.41075 6.24362 0.00206984 3.51164e-07 32 6.4194 3.61051e-07 2.01923e-05 0.556512 1.77798e+07
1.49083 0.753864 0.00244272 3.59277e-08 48 0.737793 3.51617e-08 1.77518e-05 0.0971469 2.09828e+07
1.57546 0.114402 0.00288279 4.61989e-09 6 0.108937 4.39917e-09 1.55929e-05 0.00177769 2.4763e+07
1.66489 0.564085 0.00340213 1.93021e-08 84 0.550033 1.88212e-08 1.3685e-05 0.118478 2.92241e+07
1.75941 2.49778 0.00401503 7.24228e-08 48 2.51392 7.28907e-08 1.20007e-05 0.289675 3.44889e+07
1.85928 0.412291 0.00473835 1.01295e-08 72 0.413818 1.0167e-08 1.05151e-05 0.0693595 4.07021e+07
1.96483 0.689872 0.00559198 1.4362e-08 54 0.672837 1.40073e-08 9.20606e-06 0.084243 4.80347e+07
2.07637 9.26437 0.00659939 1.63427e-07 104 9.24843 1.63145e-07 8.05366e-06 2.11039 5.66883e+07
2.19424 0.504488 0.00778828 7.54082e-09 120 0.510263 7.62716e-09 7.04008e-06 0.128535 6.69008e+07
2.3188 1.77618 0.00919136 2.24966e-08 156 1.69905 2.15196e-08 6.1494e-06 0.5707 7.89532e+07
2.45043 0.933763 0.0108472 1.00214e-08 126 0.922221 9.89753e-09 5.36741e-06 0.235252 9.31768e+07
2.58954 0.814389 0.0128014 7.40603e-09 192 0.822986 7.48422e-09 4.68145e-06 0.303743 1.09963e+08
2.73654 4.22005 0.0151076 3.25187e-08 152 4.37239 3.36926e-08 4.08023e-06 1.21141 1.29773e+08
2.89188 4.12007 0.0178292 2.69019e-08 378 4.20998 2.74889e-08 3.55373e-06 2.86147 1.53152e+08
3.05605 1.58697 0.0210412 8.78025e-09 264 1.55712 8.61512e-09 3.09304e-06 0.74942 1.80743e+08
3.22953 0.433812 0.0248319 2.03378e-09 366 0.429166 2.01199e-09 2.69025e-06 0.276688 2.13304e+08
3.41286 0.916415 0.0293054 3.64045e-09 428 0.885193 3.51642e-09 2.33837e-06 0.666323 2.51731e+08
3.6066 3.285 0.0345848 1.10576e-08 486 3.1822 1.07115e-08 2.0312e-06 2.64571 2.97081e+08
3.81134 1.07516 0.0408154 3.06662e-09 600 1.07298 3.06039e-09 1.76327e-06 1.0435 3.50601e+08
4.0277 0.944291 0.0481684 2.2822e-09 738 0.927788 2.24232e-09 1.52972e-06 1.10103 4.13763e+08
4.25634 1.51492 0.056846 3.10242e-09 824 1.55564 3.1858e-09 1.32631e-06 1.92746 4.88304e+08
4.49796 3.0751 0.067087 5.33618e-09 954 3.09363 5.36835e-09 1.14926e-06 4.42957 5.76273e+08
4.7533 0.920203 0.0791729 1.35306e-09 1094 0.909126 1.33677e-09 9.95263e-07 1.48729 6.8009e+08
5.02313 0.822403 0.0934361 1.02466e-09 1332 0.825049 1.02796e-09 8.61414e-07 1.58443 8.0261e+08
5.30828 2.74126 0.110269 2.89406e-09 1614 2.76889 2.92323e-09 7.45152e-07 6.26854 9.47202e+08
5.60962 1.64339 0.130134 1.47014e-09 1850 1.60958 1.43989e-09 6.44232e-07 4.22171 1.11784e+09
5.92807 1.98243 0.153578 1.50272e-09 2238 1.91908 1.4547e-09 5.56685e-07 6.04129 1.31923e+09
6.26459 1.31206 0.181246 8.42748e-10 2546 1.32613 8.51782e-10 4.80786e-07 4.46276 1.55689e+09
6.62021 0.935845 0.213898 5.09341e-10 3264 0.935278 5.09032e-10 4.15026e-07 4.00575 1.83737e+09
6.99602 2.0829 0.252432 9.60584e-10 3506 2.1281 9.81428e-10 3.58083e-07 9.40511 2.16837e+09
7.39317 1.43959 0.297908 5.62556e-10 4506 1.44826 5.65945e-10 3.08803e-07 8.20871 2.55901e+09
7.81286 2.07388 0.351577 6.86711e-10 5018 2.10605 6.97361e-10 2.66181e-07 12.9458 3.02002e+09
8.25637 2.03642 0.414914 5.71373e-10 5852 1.99759 5.60476e-10 2.29336e-07 14.5798 3.56409e+09
8.72507 1.79607 0.489662 4.27009e-10 7362 1.78889 4.25301e-10 1.97503e-07 15.9169 4.20617e+09
9.22037 2.1861 0.577876 4.40398e-10 8306 2.17028 4.37212e-10 1.70014e-07 21.5155 4.96392e+09
9.74378 1.70246 0.681982 2.90612e-10 9698 1.70299 2.90703e-10 1.46289e-07 19.2657 5.85818e+09
10.2969 2.39643 0.804843 3.46628e-10 11816 2.41088 3.48718e-10 1.25822e-07 32.5519 6.91355e+09
10.8814 2.37891 0.949838 2.91567e-10 13682 2.37565 2.91168e-10 1.08175e-07 36.8773 8.15905e+09
11.4992 2.57092 1.12095 2.67e-10 16152 2.55583 2.65433e-10 9.29669e-08 46.3884 9.62892e+09
12.1519 2.70942 1.3229 2.3843e-10 19472 2.68778 2.36526e-10 7.98658e-08 58.1314 1.13636e+10
12.8418 2.53635 1.56122 1.89128e-10 22670 2.53368 1.88929e-10 6.85852e-08 62.5139 1.34108e+10
13.5708 3.13155 1.84248 1.97864e-10 26224 3.13651 1.98178e-10 5.88765e-08 88.1301 1.58268e+10
14.3411 3.30325 2.17441 1.76852e-10 31640 3.30859 1.77138e-10 5.05241e-08 110.751 1.8678e+10
15.1552 3.71293 2.56613 1.68441e-10 37484 3.70991 1.68304e-10 4.33417e-08 145.676 2.20429e+10
16.0156 3.96568 3.02843 1.52444e-10 43856 3.96754 1.52516e-10 3.71677e-08 179.876 2.6014e+10
16.9247 4.758 3.574 1.54981e-10 51362 4.74998 1.5472e-10 3.18628e-08 249.826 3.07005e+10
17.8855 5.19894 4.21787 1.43493e-10 61636 5.18054 1.42986e-10 2.73063e-08 323.894 3.62312e+10
18.9008 6.01288 4.97773 1.40625e-10 72218 5.99532 1.40214e-10 2.33941e-08 434.11 4.27584e+10
19.9738 6.79896 5.87448 1.34736e-10 84586 6.78011 1.34362e-10 2.00364e-08 568.803 5.04614e+10
21.1076 7.63575 6.93279 1.2822e-10 100708 7.61844 1.27929e-10 1.71555e-08 752.687 5.95522e+10
22.3058 8.81627 8.18175 1.25444e-10 118712 8.79532 1.25146e-10 1.46847e-08 1014.1 7.02807e+10
23.5721 9.95492 9.65571 1.20023e-10 140410 9.92754 1.19693e-10 1.25662e-08 1341.09 8.29419e+10
24.9102 11.3479 11.3952 1.15932e-10 164374 11.3142 1.15588e-10 1.07504e-08 1772.61 9.78842e+10
26.3243 12.7151 13.4481 1.1007e-10 194680 12.6841 1.09802e-10 9.19452e-09 2330.57 1.15518e+11
27.8187 14.3604 15.8708 1.05336e-10 230196 14.3196 1.05037e-10 7.86182e-09 3084.27 1.36329e+11
29.3979 16.1259 18.73 1.0023e-10 271156 16.0811 9.99516e-11 6.72061e-09 4043.97 1.60889e+11
31.0667 18.0826 22.1042 9.5235e-11 321076 18.0297 9.4956e-11 5.74366e-09 5323.73 1.89874e+11
32.8303 20.3869 26.0864 9.09806e-11 377436 20.3338 9.07435e-11 4.90756e-09 6997.24 2.2408e+11
34.694 23.1484 30.7859 8.75344e-11 447594 23.0864 8.73e-11 4.19221e-09 9345.88 2.64449e+11
36.6634 26.3821 36.3321 8.45337e-11 525078 26.302 8.4277e-11 3.58032e-09 12397.4 3.1209e+11
38.7447 29.9193 42.8774 8.12332e-11 621924 29.8301 8.0991e-11 3.05709e-09 16525.8 3.68314e+11
40.9442 34.2548 50.6018 7.8807e-11 732630 34.1572 7.85824e-11 2.60976e-09 22123.2 4.34667e+11
43.2685 39.1976 59.7179 7.64125e-11 865596 39.0874 7.61978e-11 2.22743e-09 29694.5 5.12973e+11
45.7247 45.0584 70.4762 7.44292e-11 1.02168e+06 44.9242 7.42076e-11 1.90073e-09 40007 6.05386e+11
48.3204 51.9507 83.1727 7.27144e-11 1.20544e+06 51.7923 7.24928e-11 1.62163e-09 54052.1 7.14448e+11
51.0634 59.6188 98.1565 7.0709e-11 1.42103e+06 59.4435 7.0501e-11 1.38326e-09 72639.9 8.43158e+11
53.9621 69.0171 115.84 6.93601e-11 1.67997e+06 68.8092 6.91512e-11 1.1797e-09 98772.9 9.95055e+11
57.0254 79.6607 136.709 6.78358e-11 1.98018e+06 79.4193 6.76302e-11 1.00592e-09 133537 1.17432e+12
60.2626 92.405 161.337 6.66764e-11 2.33957e+06 92.1215 6.64718e-11 8.57591e-10 181898 1.38587e+12
63.6835 107.425 190.402 6.56817e-11 2.75676e+06 107.094 6.54791e-11 7.3101e-10 247697 1.63554e+12
67.2987 125.005 224.704 6.4763e-11 3.25638e+06 124.626 6.45667e-11 6.23009e-10 338507 1.93019e+12
71.1191 145.995 265.185 6.40916e-11 3.84387e+06 145.544 6.38932e-11 5.30879e-10 464060 2.27792e+12
75.1563 170.987 312.958 6.36043e-11 4.53277e+06 170.426 6.33958e-11 4.52303e-10 637411 2.68829e+12
79.4227 199.865 369.339 6.29973e-11 5.35083e+06 199.245 6.28019e-11 3.85299e-10 874872 3.17259e+12
83.9313 233.544 435.876 6.23756e-11 6.32174e+06 232.797 6.21763e-11 3.28173e-10 1.20157e+06 3.74415e+12
88.6959 274.261 514.4 6.20688e-11 7.44986e+06 273.373 6.18678e-11 2.79476e-10 1.65454e+06 4.41866e+12
93.7309 321.978 607.071 6.17444e-11 8.79764e+06 320.938 6.15448e-11 2.37972e-10 2.28264e+06 5.2147e+12
99.0518 378.924 716.436 6.15722e-11 1.03827e+07 377.693 6.13721e-11 2.02605e-10 3.15533e+06 6.15414e+12
104.675 461.74 845.504 6.35759e-11 1.22515e+07 461.089 6.34861e-11 1.72471e-10 4.51613e+06 7.26283e+12
110.617 524.418 997.824 6.11834e-11 1.44573e+07 522.686 6.09813e-11 1.468e-10 6.02553e+06 8.57124e+12
116.896 617.91 1177.58 6.10862e-11 1.70664e+07 615.9 6.08875e-11 1.24935e-10 8.34453e+06 1.01154e+13
123.532 727.478 1389.73 6.09396e-11 2.0139e+07 725.079 6.07386e-11 1.06313e-10 1.15438e+07 1.19377e+13
130.545 863.055 1640.09 6.12605e-11 2.37643e+07 860.438 6.10747e-11 9.04567e-11 1.6094e+07 1.40883e+13
137.955 1010.57 1935.56 6.07812e-11 2.80503e+07 1007.22 6.05799e-11 7.69563e-11 2.21545e+07 1.66263e+13
145.787 1191.99 2284.26 6.07489e-11 3.30981e+07 1188.04 6.05475e-11 6.54636e-11 3.07144e+07 1.96216e+13
154.063 1408.1 2695.77 6.08081e-11 3.90634e+07 1403.46 6.06078e-11 5.56812e-11 4.26603e+07 2.31565e+13
162.808 1659.91 3181.42 6.07396e-11 4.61057e+07 1654.36 6.05369e-11 4.73556e-11 5.91364e+07 2.73282e+13
172.051 1959.82 3754.56 6.07669e-11 5.44046e+07 1953.29 6.05644e-11 4.02708e-11 8.20941e+07 3.22515e+13
181.818 2315.51 4430.96 6.08359e-11 6.42064e+07 2307.81 6.06334e-11 3.42426e-11 1.1407e+08 3.80616e+13
192.139 2736.18 5229.21 6.09143e-11 7.57748e+07 2726.96 6.07089e-11 2.91139e-11 1.58542e+08 4.49186e+13
203.046 3236.89 6171.26 6.10609e-11 8.94213e+07 3225.99 6.08553e-11 2.4751e-11 2.20603e+08 5.30108e+13
214.572 3829.89 7283.03 6.12188e-11 1.05538e+08 3817 6.10126e-11 2.10401e-11 3.07077e+08 6.25608e+13
226.753 4538.83 8595.09 6.14757e-11 1.24552e+08 4523.31 6.12654e-11 1.78839e-11 4.28145e+08 7.38313e+13
239.625 5381.01 10143.5 6.17568e-11 1.46987e+08 5362.6 6.15456e-11 1.51999e-11 5.97205e+08 8.71322e+13
253.228 6395.17 11970.9 6.21921e-11 1.7347e+08 6373.06 6.19771e-11 1.29176e-11 8.35174e+08 1.02829e+14
267.603 7609.81 14127.5 6.27074e-11 2.04703e+08 7583.33 6.24892e-11 1.09771e-11 1.16937e+09 1.21354e+14
282.795 9087.87 16672.6 6.34554e-11 2.4161e+08 9055.78 6.32314e-11 9.3274e-12 1.6437e+09 1.43217e+14
298.848 10893.7 19676.2 6.44529e-11 2.85122e+08 10854.5 6.42214e-11 7.925e-12 2.31886e+09 1.69017e+14
315.813 13130.3 23220.9 6.58272e-11 3.36491e+08 13082.2 6.5586e-11 6.73295e-12 3.28983e+09 1.99466e+14
333.741 15943 27404.3 6.77269e-11 3.97115e+08 15882.3 6.7469e-11 5.71979e-12 4.70216e+09 2.35401e+14
352.686 19571.2 32341.2 7.04485e-11 4.68637e+08 19493.5 7.01689e-11 4.85874e-12 6.79492e+09 2.77809e+14
372.707 24385.6 38167.6 7.43788e-11 5.53074e+08 24282.9 7.40656e-11 4.12703e-12 9.9677e+09 3.27857e+14
393.865 31024.7 45043.5 8.01836e-11 6.52716e+08 30884 7.98198e-11 3.50528e-12 1.49309e+10 3.86921e+14
416.224 36614 53158.3 8.01838e-11 2.2184e+08 38734.1 8.48269e-11 2.97701e-12 5.97511e+09 4.56626e+14
439.852 0 62734.9 0 0 0 0 2.52819e-12 0 5.38888e+14
464.821 0 74036.7 0 0 0 0 2.1469e-12 0 6.35971e+14
491.207 0 87374.6 0 0 0 0 1.82301e-12 0 7.50542e+14
519.092 0 103115 0 0 0 0 1.54789e-12 0 8.85755e+14
548.56 0 121692 0 0 0 0 1.31422e-12 0 1.04533e+15
579.7 0 143615 0 0 0 0 1.11576e-12 0 1.23364e+15
612.608 0 169488 0 0 0 0 9.47223e-13 0 1.45589e+15
647.384 0 200021 0 0 0 0 8.041e-13 0 1.71817e+15
684.134 0 236056 0 0 0 0 6.82568e-13 0 2.0277e+15
722.971 0 278582 0 0 0 0 5.79376e-13 0 2.393e+15
764.012 0 328769 0 0 0 0 4.91762e-13 0 2.8241e+15
0.169885
200
1.0655e+09
8589934592
0.0129181 9.20367e-05 1.58924e-09 6.74189e-06 6 9.11941e-05 6.68017e-06 0.00677225 0.0059731 13.6515
0.0136515 0 1.87554e-09 0 0 0 0 0.00688819 0 16.1108
0.0144264 0 2.21343e-09 0 0 0 0 0.00699249 0 19.0132
0.0152454 0 2.61218e-09 0 0 0 0 0.00708412 0 22.4385
0.0161108 0 3.08278e-09 0 0 0 0 0.00716212 0 26.4808
0.0170254 0 3.63815e-09 0 0 0 0 0.00722559 0 31.2514
0.0179919 0.00020338 4.29357e-09 5.51441e-06 12 0.000203118 5.50731e-06 0.00727371 0.00909756 36.8815
0.0190132 0 5.06707e-09 0 0 0 0 0.00730578 0 43.5258
0.0200925 0 5.97991e-09 0 0 0 0 0.00732122 0 51.367
0.0212331 0.000191595 7.05721e-09 3.16054e-06 8 0.000191428 3.15779e-06 0.00731958 0.00345434 60.621
0.0224385 0 8.32858e-09 0 0 0 0 0.00730056 0 71.542
0.0237123 0 9.829e-09 0 0 0 0 0.00726401 0 84.4305
0.0250583 0.00122705 1.15997e-08 1.23147e-05 6 0.00122647 1.23089e-05 0.00720995 0.0102481 99.6408
0.0264808 0 1.36894e-08 0 0 0 0 0.00713857 0 117.591
0.0279841 0.000759888 1.61556e-08 5.47565e-06 24 0.000759108 5.47003e-06 0.00705021 0.01864 138.776
0.0295727 0 1.90661e-08 0 0 0 0 0.00694538 0 163.777
0.0312514 0.00135391 2.25009e-08 7.00487e-06 24 0.00136079 7.04044e-06 0.00682475 0.0246334 193.281
0.0330255 0 2.65545e-08 0 0 0 0 0.00668915 0 228.102
0.0349003 0.00189317 3.13384e-08 7.03272e-06 12 0.00187801 6.97641e-06 0.00653951 0.012905 269.195
0.0368815 0.00162686 3.69841e-08 5.12089e-06 30 0.00160954 5.06636e-06 0.00637693 0.024091 317.691
0.0389751 0.0019284 4.36469e-08 5.14344e-06 24 0.00190856 5.09052e-06 0.00620256 0.0199019 374.924
0.0411876 0.00121983 5.151e-08 2.75688e-06 24 0.00121154 2.73815e-06 0.00601767 0.0109951 442.467
0.0435258 0.00264843 6.07896e-08 5.07188e-06 8 0.00264823 5.07149e-06 0.00582358 0.00696738 522.179
0.0459966 0.00336777 7.1741e-08 5.46494e-06 72 0.00334116 5.42176e-06 0.00562166 0.0699928 616.251
0.0486077 0 8.46654e-08 0 0 0 0 0.0054133 0 727.27
0.051367 0.004996 9.99181e-08 5.82088e-06 54 0.00498014 5.8024e-06 0.00519989 0.0604488 858.29
0.054283 0.0038863 1.17919e-07 3.83675e-06 60 0.00390258 3.85283e-06 0.0049828 0.0461999 1012.91
0.0573645 0.00385197 1.39162e-07 3.22235e-06 96 0.00384209 3.21408e-06 0.00476339 0.0649423 1195.39
0.060621 0.00445397 1.64232e-07 3.15718e-06 24 0.00439363 3.1144e-06 0.00454293 0.0166792 1410.75
0.0640622 0.00785251 1.93819e-07 4.71652e-06 134 0.00785677 4.71908e-06 0.00432265 0.14621 1664.89
0.0676989 0.00754652 2.28736e-07 3.8408e-06 120 0.00751186 3.82316e-06 0.00410371 0.112312 1964.83
0.071542 0.00691563 2.69944e-07 2.98242e-06 108 0.00684074 2.95012e-06 0.00388717 0.0828625 2318.8
0.0756032 0.0100728 3.18575e-07 3.68084e-06 174 0.01002 3.66158e-06 0.00367401 0.174323 2736.54
0.079895 0.0107599 3.75967e-07 3.33173e-06 168 0.0106585 3.30033e-06 0.0034651 0.161534 3229.53
0.0844305 0.0091859 4.43698e-07 2.41015e-06 168 0.00923185 2.4222e-06 0.00326121 0.124158 3811.34
0.0892234 0.0103237 5.23632e-07 2.29519e-06 290 0.0102804 2.28556e-06 0.00306301 0.217304 4497.96
0.0942883 0.0133318 6.17966e-07 2.51151e-06 288 0.0132987 2.50527e-06 0.00287109 0.251931 5308.28
0.0996408 0.0120354 7.29294e-07 1.92119e-06 366 0.0119346 1.90509e-06 0.00268591 0.261794 6264.59
0.105297 0.013026 8.60678e-07 1.7619e-06 420 0.0129364 1.74978e-06 0.00250785 0.295072 7393.17
0.111275 0.0137485 1.01573e-06 1.57575e-06 398 0.0137105 1.57139e-06 0.00233721 0.268331 8725.07
0.117591 0.0163496 1.19872e-06 1.58782e-06 624 0.0163831 1.59107e-06 0.00217419 0.455708 10296.9
0.124267 0.0181733 1.41467e-06 1.49551e-06 642 0.018149 1.49351e-06 0.00201893 0.475558 12151.9
0.131321 0.0231425 1.66953e-06 1.61371e-06 800 0.0231501 1.61424e-06 0.00187147 0.689817 14341.1
0.138776 0.0210354 1.9703e-06 1.24288e-06 858 0.0211361 1.24883e-06 0.00173182 0.615764 16924.7
0.146654 0.0228242 2.32525e-06 1.14271e-06 1080 0.0230152 1.15227e-06 0.00159991 0.771373 19973.8
0.154979 0.0269594 2.74415e-06 1.1437e-06 1286 0.0271461 1.15162e-06 0.00147563 0.996721 23572.1
0.163777 0.0252906 3.23852e-06 9.09125e-07 1650 0.0253383 9.1084e-07 0.00135884 1.10393 27818.7
0.173074 0.0295763 3.82195e-06 9.00884e-07 1778 0.0295807 9.0102e-07 0.00124933 1.2821 32830.3
0.182899 0.0288587 4.51048e-06 7.44841e-07 2112 0.0289276 7.46621e-07 0.00114689 1.37162 38744.7
0.193281 0.0340497 5.32305e-06 7.44668e-07 2570 0.0340972 7.45707e-07 0.00105127 1.82046 45724.7
0.204254 0.0382289 6.28202e-06 7.0844e-07 3030 0.0382103 7.08095e-07 0.000962209 2.23088 53962.1
0.215848 0.0380229 7.41374e-06 5.9706e-07 3434 0.0380156 5.96946e-07 0.000879423 2.33142 63683.5
0.228102 0.0394789 8.74934e-06 5.25291e-07 4218 0.0394918 5.25463e-07 0.000802624 2.76054 75156.3
0.24105 0.0443005 1.03256e-05 4.99465e-07 4766 0.0443441 4.99956e-07 0.000731515 3.25414 88695.9
0.254734 0.0475758 1.21857e-05 4.54511e-07 6026 0.0475594 4.54355e-07 0.000665798 4.11368 104675
0.269195 0.0501414 1.4381e-05 4.05897e-07 6480 0.0501141 4.05677e-07 0.000605173 4.34622 123532
0.284476 0.0544774 1.69718e-05 3.73679e-07 8162 0.0546052 3.74555e-07 0.000549345 5.55201 145787
0.300625 0.0546141 2.00293e-05 3.1743e-07 9578 0.0546847 3.17841e-07 0.000498021 6.10486 172051
0.317691 0.0608061 2.36377e-05 2.9947e-07 11234 0.0607576 2.99231e-07 0.000450916 7.4609 203046
0.335725 0.0638684 2.78961e-05 2.66534e-07 13344 0.0638341 2.66391e-07 0.000407755 8.72248 239625
0.354784 0.0663766 3.29216e-05 2.34717e-07 15464 0.0663382 2.34581e-07 0.000368269 9.85599 282795
0.374924 0.071123 3.88525e-05 2.13109e-07 18458 0.0711157 2.13087e-07 0.000332202 11.8409 333741
0.396207 0.0748669 4.58519e-05 1.90083e-07 22232 0.0747592 1.89809e-07 0.000299307 14.119 393865
0.418699 0.0810825 5.41123e-05 1.74438e-07 25628 0.0809091 1.74065e-07 0.00026935 16.5974 464821
0.442467 0.0848535 6.38607e-05 1.54684e-07 30320 0.0846999 1.54404e-07 0.000242108 19.3716 548560
0.467585 0.0889217 7.53654e-05 1.37355e-07 35452 0.0887937 1.37158e-07 0.00021737 22.402 647384
0.494129 0.0927106 8.89427e-05 1.21347e-07 41792 0.0926739 1.21299e-07 0.000194938 26.0151 764012
0.522179 0.100211 0.000104966 1.11142e-07 49988 0.10018 1.11108e-07 0.000174625 31.8155 901651
0.551822 0.105059 0.000123876 9.87318e-08 59110 0.10499 9.86664e-08 0.000156255 37.3495 1.06409e+06
0.583147 0.111401 0.000146192 8.87103e-08 69716 0.11126 8.85983e-08 0.000139664 44.2815 1.25578e+06
0.616251 0.117734 0.000172529 7.94418e-08 82210 0.117544 7.93138e-08 0.0001247 52.373 1.48202e+06
0.651234 0.124926 0.000203611 7.14267e-08 96722 0.124691 7.12926e-08 0.00011122 62.1156 1.74901e+06
0.688203 0.131861 0.000240292 6.3883e-08 113098 0.131732 6.38208e-08 9.90935e-05 72.9114 2.06409e+06
0.72727 0.137926 0.000283581 5.66213e-08 135190 0.137782 5.65622e-08 8.81969e-05 86.7902 2.43595e+06
0.768555 0.146743 0.000334669 5.10447e-08 158170 0.146606 5.09972e-08 7.84179e-05 102.958 2.87479e+06
0.812184 0.1542 0.000394961 4.54506e-08 188560 0.154043 4.54045e-08 6.96525e-05 123.042 3.39269e+06
0.85829 0.162366 0.000466114 4.05522e-08 220444 0.162175 4.05043e-08 6.1805e-05 144.64 4.00389e+06
0.907013 0.171193 0.000550086 3.62298e-08 261388 0.171014 3.61919e-08 5.47875e-05 172.85 4.7252e+06
0.958501 0.180857 0.000649185 3.24322e-08 308244 0.180661 3.23971e-08 4.85194e-05 206.042 5.57646e+06
1.01291 0.191884 0.000766138 2.9157e-08 364396 0.191666 2.91238e-08 4.29272e-05 247.505 6.58107e+06
1.07041 0.20159 0.00090416 2.59558e-08 429162 0.201327 2.5922e-08 3.79435e-05 293.575 7.76667e+06
1.13118 0.213853 0.00106705 2.33315e-08 506358 0.213593 2.33031e-08 3.3507e-05 352.585 9.16586e+06
1.19539 0.225316 0.00125928 2.08296e-08 598590 0.225014 2.08016e-08 2.9562e-05 421.771 1.08171e+07
1.26325 0.238068 0.00148614 1.86488e-08 704844 0.237751 1.8624e-08 2.60578e-05 504.436 1.27658e+07
1.33496 0.250826 0.00175387 1.66489e-08 834620 0.250479 1.66258e-08 2.29484e-05 605.509 1.50656e+07
1.41075 0.265077 0.00206984 1.49089e-08 981444 0.264733 1.48896e-08 2.01923e-05 724.646 1.77798e+07
1.49083 0.280167 0.00244272 1.33522e-08 1.15998e+06 0.279794 1.33344e-08 1.77518e-05 872.489 2.09828e+07
1.57546 0.297285 0.00288279 1.20052e-08 1.36931e+06 0.296867 1.19884e-08 1.55929e-05 1054.26 2.4763e+07
1.66489 0.31437 0.00340213 1.07572e-08 1.61652e+06 0.313899 1.07411e-08 1.3685e-05 1270.68 2.92241e+07
1.75941 0.332663 0.00401503 9.64551e-09 1.90601e+06 0.332172 9.63128e-09 1.20007e-05 1531.95 3.44889e+07
1.85928 0.352972 0.00473835 8.67208e-09 2.24913e+06 0.352471 8.65978e-09 1.05151e-05 1854.91 4.07021e+07
1.96483 0.373311 0.00559198 7.7717e-09 2.65744e+06 0.372728 7.75956e-09 9.20606e-06 2243.39 4.80347e+07
2.07637 0.396583 0.00659939 6.99586e-09 3.13125e+06 0.395991 6.98541e-09 8.05366e-06 2719.98 5.66883e+07
2.19424 0.420983 0.00778828 6.29264e-09 3.69915e+06 0.420372 6.28351e-09 7.04008e-06 3306.42 6.69008e+07
2.3188 0.447179 0.00919136 5.66385e-09 4.36472e+06 0.446499 5.65523e-09 6.1494e-06 4020.09 7.89532e+07
2.45043 0.475765 0.0108472 5.10604e-09 5.14913e+06 0.475023 5.09808e-09 5.36741e-06 4898.39 9.31768e+07
2.58954 0.507387 0.0128014 4.61416e-09 6.07894e+06 0.506579 4.60682e-09 4.68145e-06 5991.56 1.09963e+08
2.73654 0.539962 0.0151076 4.16082e-09 7.17304e+06 0.539113 4.15428e-09 4.08023e-06 7314.72 1.29773e+08
2.89188 0.576424 0.0178292 3.76374e-09 8.46557e+06 0.575508 3.75776e-09 3.55373e-06 8965.84 1.53152e+08
3.05605 0.615786 0.0210412 3.40698e-09 9.98773e+06 0.614831 3.40169e-09 3.09304e-06 11001.5 1.80743e+08
3.22953 0.658056 0.0248319 3.08506e-09 1.1797e+07 0.656971 3.07998e-09 2.69025e-06 13528.3 2.13304e+08
3.41286 0.704562 0.0293054 2.79886e-09 1.39144e+07 0.703375 2.79415e-09 2.33837e-06 16654.5 2.51731e+08
3.6066 0.755099 0.0345848 2.54173e-09 1.64163e+07 0.753842 2.53749e-09 2.0312e-06 20542.4 2.97081e+08
3.81134 0.810065 0.0408154 2.3105e-09 1.93821e+07 0.808695 2.30659e-09 1.76327e-06 25397.5 3.50601e+08
4.0277 0.870264 0.0481684 2.10329e-09 2.28754e+07 0.868777 2.0997e-09 1.52972e-06 31452.5 4.13763e+08
4.25634 0.935808 0.056846 1.91645e-09 2.69929e+07 0.93417 1.91309e-09 1.32631e-06 39003.4 4.88304e+08
4.49796 1.00822 0.067087 1.74956e-09 3.18542e+07 1.00642 1.74643e-09 1.14926e-06 48492.9 5.76273e+08
4.7533 1.08704 0.0791729 1.59837e-09 3.75892e+07 1.08508 1.59549e-09 9.95263e-07 60367.4 6.8009e+08
5.02313 1.17321 0.0934361 1.46174e-09 4.43706e+07 1.17109 1.45911e-09 8.61414e-07 75292.8 8.0261e+08
5.30828 1.26775 0.110269 1.33841e-09 5.23593e+07 1.26542 1.33595e-09 7.45152e-07 94045.4 9.47202e+08
5.60962 1.37179 0.130134 1.22717e-09 6.1787e+07 1.36922 1.22488e-09 6.44232e-07 117696 1.11784e+09
5.92807 1.48579 0.153578 1.12626e-09 7.29346e+07 1.48297 1.12412e-09 5.56685e-07 147558 1.31923e+09
6.26459 1.61144 0.181246 1.03504e-09 8.60651e+07 1.60832 1.03303e-09 4.80786e-07 185281 1.55689e+09
6.62021 1.75067 0.213898 9.52814e-10 1.01558e+08 1.74725 9.50953e-10 4.15026e-07 233157 1.83737e+09
6.99602 1.90369 0.252432 8.77936e-10 1.1986e+08 1.89995 8.76212e-10 3.58083e-07 293869 2.16837e+09
7.39317 2.07388 0.297908 8.10424e-10 1.41457e+08 2.06973 8.08801e-10 3.08803e-07 371239 2.55901e+09
7.81286 2.26251 0.351577 7.4917e-10 1.66936e+08 2.25791 7.47645e-10 2.66181e-07 469843 3.02002e+09
8.25637 2.47383 0.414914 6.94099e-10 1.97025e+08 2.46872 6.92665e-10 2.29336e-07 596308 3.56409e+09
8.72507 2.71067 0.489662 6.4445e-10 2.32497e+08 2.70495 6.43092e-10 1.97503e-07 758635 4.20617e+09
9.22037 2.97884 0.577876 6.00098e-10 2.74404e+08 2.97243 5.98807e-10 1.70014e-07 968564 4.96392e+09
9.74378 3.28684 0.681982 5.61067e-10 3.2382e+08 3.27955 5.59824e-10 1.46289e-07 1.24196e+06 5.85818e+09
10.2969 3.64593 0.804843 5.2736e-10 3.82165e+08 3.63751 5.26142e-10 1.25822e-07 1.60177e+06 6.91355e+09
10.8814 4.0834 0.949838 5.00475e-10 4.51027e+08 4.07332 4.9924e-10 1.08175e-07 2.08668e+06 8.15905e+09
11.4992 4.6376 1.12095 4.81632e-10 5.32251e+08 4.62507 4.80331e-10 9.29669e-08 2.75742e+06 9.62892e+09
12.1519 5.39317 1.3229 4.74601e-10 6.28157e+08 5.37661 4.73143e-10 7.98658e-08 3.73281e+06 1.13636e+10
12.8418 6.1973 1.56122 4.62113e-10 3.82727e+08 6.41344 4.7823e-10 6.85852e-08 2.57873e+06 1.34108e+10
13.5708 0 1.84248 0 0 0 0 5.88765e-08 0 1.58268e+10
14.3411 0 2.17441 0 0 0 0 5.05241e-08 0 1.8678e+10
15.1552 0 2.56613 0 0 0 0 4.33417e-08 0 2.20429e+10
16.0156 0 3.02843 0 0 0 0 3.71677e-08 0 2.6014e+10
16.9247 0 3.574 0 0 0 0 3.18628e-08 0 3.07005e+10
17.8855 0 4.21787 0 0 0 0 2.73063e-08 0 3.62312e+10
18.9008 0 4.97773 0 0 0 0 2.33941e-08 0 4.27584e+10
19.9738 0 5.87448 0 0 0 0 2.00364e-08 0 5.04614e+10
21.1076 0 6.93279 0 0 0 0 1.71555e-08 0 5.95522e+10
22.3058 0 8.18175 0 0 0 0 1.46847e-08 0 7.02807e+10
23.5721 0 9.65571 0 0 0 0 1.25662e-08 0 8.29419e+10
24.9102 0 11.3952 0 0 0 0 1.07504e-08 0 9.78842e+10
26.3243 0 13.4481 0 0 0 0 9.19452e-09 0 1.15518e+11
27.8187 0 15.8708 0 0 0 0 7.86182e-09 0 1.36329e+11
29.3979 0 18.73 0 0 0 0 6.72061e-09 0 1.60889e+11
31.0667 0 22.1042 0 0 0 0 5.74366e-09 0 1.89874e+11
32.8303 0 26.0864 0 0 0 0 4.90756e-09 0 2.2408e+11
34.694 0 30.7859 0 0 0 0 4.19221e-09 0 2.64449e+11
36.6634 0 36.3321 0 0 0 0 3.58032e-09 0 3.1209e+11
38.7447 0 42.8774 0 0 0 0 3.05709e-09 0 3.68314e+11
40.9442 0 50.6018 0 0 0 0 2.60976e-09 0 4.34667e+11
43.2685 0 59.7179 0 0 0 0 2.22743e-09 0 5.12973e+11
45.7247 0 70.4762 0 0 0 0 1.90073e-09 0 6.05386e+11
48.3204 0 83.1727 0 0 0 0 1.62163e-09 0 7.14448e+11
51.0634 0 98.1565 0 0 0 0 1.38326e-09 0 8.43158e+11
53.9621 0 115.84 0 0 0 0 1.1797e-09 0 9.95055e+11
57.0254 0 136.709 0 0 0 0 1.00592e-09 0 1.17432e+12
60.2626 0 161.337 0 0 0 0 8.57591e-10 0 1.38587e+12
63.6835 0 190.402 0 0 0 0 7.3101e-10 0 1.63554e+12
67.2987 0 224.704 0 0 0 0 6.23009e-10 0 1.93019e+12
71.1191 0 265.185 0 0 0 0 5.30879e-10 0 2.27792e+12
75.1563 0 312.958 0 0 0 0 4.52303e-10 0 2.68829e+12
79.4227 0 369.339 0 0 0 0 3.85299e-10 0 3.17259e+12
83.9313 0 435.876 0 0 0 0 3.28173e-10 0 3.74415e+12
88.6959 0 514.4 0 0 0 0 2.79476e-10 0 4.41866e+12
93.7309 0 607.071 0 0 0 0 2.37972e-10 0 5.2147e+12
99.0518 0 716.436 0 0 0 0 2.02605e-10 0 6.15414e+12
104.675 0 845.504 0 0 0 0 1.72471e-10 0 7.26283e+12
110.617 0 997.824 0 0 0 0 1.468e-10 0 8.57124e+12
116.896 0 1177.58 0 0 0 0 1.24935e-10 0 1.01154e+13
123.532 0 1389.73 0 0 0 0 1.06313e-10 0 1.19377e+13
130.545 0 1640.09 0 0 0 0 9.04567e-11 0 1.40883e+13
137.955 0 1935.56 0 0 0 0 7.69563e-11 0 1.66263e+13
145.787 0 2284.26 0 0 0 0 6.54636e-11 0 1.96216e+13
154.063 0 2695.77 0 0 0 0 5.56812e-11 0 2.31565e+13
162.808 0 3181.42 0 0 0 0 4.73556e-11 0 2.73282e+13
172.051 0 3754.56 0 0 0 0 4.02708e-11 0 3.22515e+13
181.818 0 4430.96 0 0 0 0 3.42426e-11 0 3.80616e+13
192.139 0 5229.21 0 0 0 0 2.91139e-11 0 4.49186e+13
203.046 0 6171.26 0 0 0 0 2.4751e-11 0 5.30108e+13
214.572 0 7283.03 0 0 0 0 2.10401e-11 0 6.25608e+13
226.753 0 8595.09 0 0 0 0 1.78839e-11 0 7.38313e+13
239.625 0 10143.5 0 0 0 0 1.51999e-11 0 8.71322e+13
253.228 0 11970.9 0 0 0 0 1.29176e-11 0 1.02829e+14
267.603 0 14127.5 0 0 0 0 1.09771e-11 0 1.21354e+14
282.795 0 16672.6 0 0 0 0 9.3274e-12 0 1.43217e+14
298.848 0 19676.2 0 0 0 0 7.925e-12 0 1.69017e+14
315.813 0 23220.9 0 0 0 0 6.73295e-12 0 1.99466e+14
333.741 0 27404.3 0 0 0 0 5.71979e-12 0 2.35401e+14
352.686 0 32341.2 0 0 0 0 4.85874e-12 0 2.77809e+14
372.707 0 38167.6 0 0 0 0 4.12703e-12 0 3.27857e+14
393.865 0 45043.5 0 0 0 0 3.50528e-12 0 3.86921e+14
416.224 0 53158.3 0 0 0 0 2.97701e-12 0 4.56626e+14
439.852 0 62734.9 0 0 0 0 2.52819e-12 0 5.38888e+14
464.821 0 74036.7 0 0 0 0 2.1469e-12 0 6.35971e+14
491.207 0 87374.6 0 0 0 0 1.82301e-12 0 7.50542e+14
519.092 0 103115 0 0 0 0 1.54789e-12 0 8.85755e+14
548.56 0 121692 0 0 0 0 1.31422e-12 0 1.04533e+15
579.7 0 143615 0 0 0 0 1.11576e-12 0 1.23364e+15
612.608 0 169488 0 0 0 0 9.47223e-13 0 1.45589e+15
647.384 0 200021 0 0 0 0 8.041e-13 0 1.71817e+15
684.134 0 236056 0 0 0 0 6.82568e-13 0 2.0277e+15
722.971 0 278582 0 0 0 0 5.79376e-13 0 2.393e+15
764.012 0 328769 0 0 0 0 4.91762e-13 0 2.8241e+15
