0.458705
200
1.0655e+09
8589934592
0.0129181 0 1.58924e-09 0 0 0 0 0.00677225 0 13.6515
0.0136515 0 1.87554e-09 0 0 0 0 0.00688819 0 16.1108
0.0144264 0 2.21343e-09 0 0 0 0 0.00699249 0 19.0132
0.0152454 0 2.61218e-09 0 0 0 0 0.00708412 0 22.4385
0.0161108 0 3.08278e-09 0 0 0 0 0.00716212 0 26.4808
0.0170254 0 3.63815e-09 0 0 0 0 0.00722559 0 31.2514
0.0179919 0 4.29357e-09 0 0 0 0 0.00727371 0 36.8815
0.0190132 0 5.06707e-09 0 0 0 0 0.00730578 0 43.5258
0.0200925 0 5.97991e-09 0 0 0 0 0.00732122 0 51.367
0.0212331 0 7.05721e-09 0 0 0 0 0.00731958 0 60.621
0.0224385 0 8.32858e-09 0 0 0 0 0.00730056 0 71.542
0.0237123 0 9.829e-09 0 0 0 0 0.00726401 0 84.4305
0.0250583 0 1.15997e-08 0 0 0 0 0.00720995 0 99.6408
0.0264808 0 1.36894e-08 0 0 0 0 0.00713857 0 117.591
0.0279841 0 1.61556e-08 0 0 0 0 0.00705021 0 138.776
0.0295727 0 1.90661e-08 0 0 0 0 0.00694538 0 163.777
0.0312514 0 2.25009e-08 0 0 0 0 0.00682475 0 193.281
0.0330255 0 2.65545e-08 0 0 0 0 0.00668915 0 228.102
0.0349003 0 3.13384e-08 0 0 0 0 0.00653951 0 269.195
0.0368815 0 3.69841e-08 0 0 0 0 0.00637693 0 317.691
0.0389751 0 4.36469e-08 0 0 0 0 0.00620256 0 374.924
0.0411876 0 5.151e-08 0 0 0 0 0.00601767 0 442.467
0.0435258 0 6.07896e-08 0 0 0 0 0.00582358 0 522.179
0.0459966 0 7.1741e-08 0 0 0 0 0.00562166 0 616.251
0.0486077 0 8.46654e-08 0 0 0 0 0.0054133 0 727.27
0.051367 0 9.99181e-08 0 0 0 0 0.00519989 0 858.29
0.054283 0 1.17919e-07 0 0 0 0 0.0049828 0 1012.91
0.0573645 0 1.39162e-07 0 0 0 0 0.00476339 0 1195.39
0.060621 0 1.64232e-07 0 0 0 0 0.00454293 0 1410.75
0.0640622 0 1.93819e-07 0 0 0 0 0.00432265 0 1664.89
0.0676989 0 2.28736e-07 0 0 0 0 0.00410371 0 1964.83
0.071542 0 2.69944e-07 0 0 0 0 0.00388717 0 2318.8
0.0756032 0 3.18575e-07 0 0 0 0 0.00367401 0 2736.54
0.079895 0 3.75967e-07 0 0 0 0 0.0034651 0 3229.53
0.0844305 0 4.43698e-07 0 0 0 0 0.00326121 0 3811.34
0.0892234 0 5.23632e-07 0 0 0 0 0.00306301 0 4497.96
0.0942883 0 6.17966e-07 0 0 0 0 0.00287109 0 5308.28
0.0996408 0 7.29294e-07 0 0 0 0 0.00268591 0 6264.59
0.105297 0 8.60678e-07 0 0 0 0 0.00250785 0 7393.17
0.111275 0 1.01573e-06 0 0 0 0 0.00233721 0 8725.07
0.117591 0 1.19872e-06 0 0 0 0 0.00217419 0 10296.9
0.124267 0 1.41467e-06 0 0 0 0 0.00201893 0 12151.9
0.131321 0 1.66953e-06 0 0 0 0 0.00187147 0 14341.1
0.138776 0 1.9703e-06 0 0 0 0 0.00173182 0 16924.7
0.146654 0 2.32525e-06 0 0 0 0 0.00159991 0 19973.8
0.154979 0 2.74415e-06 0 0 0 0 0.00147563 0 23572.1
0.163777 0 3.23852e-06 0 0 0 0 0.00135884 0 27818.7
0.173074 0 3.82195e-06 0 0 0 0 0.00124933 0 32830.3
0.182899 0 4.51048e-06 0 0 0 0 0.00114689 0 38744.7
0.193281 0 5.32305e-06 0 0 0 0 0.00105127 0 45724.7
0.204254 0 6.28202e-06 0 0 0 0 0.000962209 0 53962.1
0.215848 0 7.41374e-06 0 0 0 0 0.000879423 0 63683.5
0.228102 0 8.74934e-06 0 0 0 0 0.000802624 0 75156.3
0.24105 0 1.03256e-05 0 0 0 0 0.000731515 0 88695.9
0.254734 0 1.21857e-05 0 0 0 0 0.000665798 0 104675
0.269195 0 1.4381e-05 0 0 0 0 0.000605173 0 123532
0.284476 0 1.69718e-05 0 0 0 0 0.000549345 0 145787
0.300625 0 2.00293e-05 0 0 0 0 0.000498021 0 172051
0.317691 0 2.36377e-05 0 0 0 0 0.000450916 0 203046
0.335725 0 2.78961e-05 0 0 0 0 0.000407755 0 239625
0.354784 0 3.29216e-05 0 0 0 0 0.000368269 0 282795
0.374924 0 3.88525e-05 0 0 0 0 0.000332202 0 333741
0.396207 1.78821 4.58519e-05 4.54016e-06 6 1.73849 4.41393e-06 0.000299307 0.0910135 393865
0.418699 0 5.41123e-05 0 0 0 0 0.00026935 0 464821
0.442467 0 6.38607e-05 0 0 0 0 0.000242108 0 548560
0.467585 0 7.53654e-05 0 0 0 0 0.00021737 0 647384
0.494129 0 8.89427e-05 0 0 0 0 0.000194938 0 764012
0.522179 0 0.000104966 0 0 0 0 0.000174625 0 901651
0.551822 0 0.000123876 0 0 0 0 0.000156255 0 1.06409e+06
0.583147 7.93239 0.000146192 6.31669e-06 12 8.34888 6.64834e-06 0.000139664 0.542732 1.25578e+06
0.616251 0 0.000172529 0 0 0 0 0.0001247 0 1.48202e+06
0.651234 0 0.000203611 0 0 0 0 0.00011122 0 1.74901e+06
0.688203 19.2552 0.000240292 9.32865e-06 8 18.7762 9.09656e-06 9.90935e-05 0.753119 2.06409e+06
0.72727 0 0.000283581 0 0 0 0 8.81969e-05 0 2.43595e+06
0.768555 0 0.000334669 0 0 0 0 7.84179e-05 0 2.87479e+06
0.812184 2.50105 0.000394961 7.37187e-07 6 2.55452 7.52948e-07 6.96525e-05 0.0635027 3.39269e+06
0.85829 0 0.000466114 0 0 0 0 6.1805e-05 0 4.00389e+06
0.907013 0.922291 0.000550086 1.95185e-07 24 0.939987 1.98931e-07 5.47875e-05 0.0855022 4.7252e+06
0.958501 2.99727 0.000649185 5.37486e-07 24 2.82171 5.06003e-07 4.85194e-05 0.265866 5.57646e+06
1.01291 0 0.000766138 0 0 0 0 4.29272e-05 0 6.58107e+06
1.07041 0 0.00090416 0 0 0 0 3.79435e-05 0 7.76667e+06
1.13118 3.82993 0.00106705 4.17847e-07 12 3.78288 4.12715e-07 3.3507e-05 0.149645 9.16586e+06
1.19539 2.91278 0.00125928 2.69275e-07 30 2.85273 2.63724e-07 2.9562e-05 0.273264 1.08171e+07
1.26325 13.1604 0.00148614 1.03091e-06 24 12.9624 1.01539e-06 2.60578e-05 0.949494 1.27658e+07
1.33496 19.2791 0.00175387 1.27967e-06 24 19.3214 1.28248e-06 2.29484e-05 1.33831 1.50656e+07
1.41075 11.7596 0.00206984 6.61401e-07 32 12.0084 6.75395e-07 2.01923e-05 1.04816 1.77798e+07
1.49083 2.61195 0.00244272 1.24481e-07 48 2.55627 1.21827e-07 1.77518e-05 0.33659 2.09828e+07
1.57546 4.70754 0.00288279 1.90104e-07 6 4.48264 1.81022e-07 1.55929e-05 0.0731505 2.4763e+07
1.66489 4.51813 0.00340213 1.54603e-07 84 4.41139 1.50951e-07 1.3685e-05 0.94897 2.92241e+07
1.75941 4.45458 0.00401503 1.2916e-07 48 4.43254 1.28521e-07 1.20007e-05 0.516611 3.44889e+07
1.85928 3.84658 0.00473835 9.45057e-08 72 3.87691 9.52508e-08 1.05151e-05 0.647108 4.07021e+07
1.96483 4.99832 0.00559198 1.04056e-07 54 4.89128 1.01828e-07 9.20606e-06 0.610364 4.80347e+07
2.07637 12.7483 0.00659939 2.24885e-07 104 12.7829 2.25495e-07 8.05366e-06 2.90403 5.66883e+07
2.19424 3.91868 0.00778828 5.85744e-08 120 3.96632 5.92865e-08 7.04008e-06 0.998417 6.69008e+07
2.3188 5.44395 0.00919136 6.89516e-08 156 5.30119 6.71434e-08 6.1494e-06 1.74919 7.89532e+07
2.45043 7.60183 0.0108472 8.1585e-08 126 7.54972 8.10257e-08 5.36741e-06 1.91521 9.31768e+07
2.58954 6.34165 0.0128014 5.76708e-08 192 6.37656 5.79883e-08 4.68145e-06 2.36525 1.09963e+08
2.73654 15.2076 0.0151076 1.17186e-07 152 15.5316 1.19683e-07 4.08023e-06 4.36552 1.29773e+08
2.89188 8.8974 0.0178292 5.80952e-08 378 8.99122 5.87078e-08 3.55373e-06 6.17942 1.53152e+08
3.05605 7.50055 0.0210412 4.14985e-08 264 7.39623 4.09213e-08 3.09304e-06 3.54202 1.80743e+08
3.22953 7.42688 0.0248319 3.48183e-08 366 7.37523 3.45761e-08 2.69025e-06 4.73691 2.13304e+08
3.41286 7.92816 0.0293054 3.14945e-08 428 7.8224 3.10744e-08 2.33837e-06 5.76454 2.51731e+08
3.6066 11.4919 0.0345848 3.86827e-08 486 11.3281 3.81312e-08 2.0312e-06 9.2555 2.97081e+08
3.81134 9.07556 0.0408154 2.58857e-08 600 9.0751 2.58844e-08 1.76327e-06 8.80832 3.50601e+08
4.0277 11.1371 0.0481684 2.69166e-08 738 11.063 2.67374e-08 1.52972e-06 12.9857 4.13763e+08
4.25634 13.1223 0.056846 2.68733e-08 824 13.0658 2.67575e-08 1.32631e-06 16.6957 4.88304e+08
4.49796 13.9936 0.067087 2.4283e-08 954 13.8929 2.41082e-08 1.14926e-06 20.1573 5.76273e+08
4.7533 12.5844 0.0791729 1.8504e-08 1094 12.54 1.84387e-08 9.95263e-07 20.3397 6.8009e+08
5.02313 13.8003 0.0934361 1.71942e-08 1332 13.8613 1.72703e-08 8.61414e-07 26.5873 8.0261e+08
5.30828 18.2063 0.110269 1.92211e-08 1614 18.2111 1.92262e-08 7.45152e-07 41.6329 9.47202e+08
5.60962 18.1422 0.130134 1.62296e-08 1850 18.0657 1.61612e-08 6.44232e-07 46.6056 1.11784e+09
5.92807 18.3204 0.153578 1.38873e-08 2238 18.303 1.38741e-08 5.56685e-07 55.8299 1.31923e+09
6.26459 18.3826 0.181246 1.18073e-08 2546 18.4841 1.18725e-08 4.80786e-07 62.5253 1.55689e+09
6.62021 19.8507 0.213898 1.08039e-08 3264 19.9047 1.08333e-08 4.15026e-07 84.9679 1.83737e+09
6.99602 22.4303 0.252432 1.03443e-08 3506 22.495 1.03741e-08 3.58083e-07 101.282 2.16837e+09
7.39317 23.3765 0.297908 9.13498e-09 4506 23.408 9.14728e-09 3.08803e-07 133.296 2.55901e+09
7.81286 25.3226 0.351577 8.3849e-09 5018 25.2846 8.37231e-09 2.66181e-07 158.071 3.02002e+09
8.25637 27.0518 0.414914 7.59012e-09 5852 27.0295 7.58385e-09 2.29336e-07 193.678 3.56409e+09
8.72507 27.9394 0.489662 6.64247e-09 7362 27.9019 6.63356e-09 1.97503e-07 247.601 4.20617e+09
9.22037 29.9456 0.577876 6.03265e-09 8306 29.8762 6.01867e-09 1.70014e-07 294.724 4.96392e+09
9.74378 32.0731 0.681982 5.47493e-09 9698 32.0216 5.46612e-09 1.46289e-07 362.952 5.85818e+09
10.2969 33.1501 0.804843 4.79494e-09 11816 33.1148 4.78984e-09 1.25822e-07 450.294 6.91355e+09
10.8814 36.8012 0.949838 4.51048e-09 13682 36.7426 4.50329e-09 1.08175e-07 570.484 8.15905e+09
11.4992 38.1935 1.12095 3.96654e-09 16152 38.1566 3.96271e-09 9.29669e-08 689.144 9.62892e+09
12.1519 39.797 1.3229 3.50215e-09 19472 39.7196 3.49534e-09 7.98658e-08 853.856 1.13636e+10
12.8418 41.561 1.56122 3.09908e-09 22670 41.4686 3.09219e-09 6.85852e-08 1024.36 1.34108e+10
13.5708 44.2642 1.84248 2.79679e-09 26224 44.1767 2.79126e-09 5.88765e-08 1245.71 1.58268e+10
14.3411 47.4681 2.17441 2.54139e-09 31640 47.4219 2.53892e-09 5.05241e-08 1591.51 1.8678e+10
15.1552 50.4192 2.56613 2.28732e-09 37484 50.3391 2.28369e-09 4.33417e-08 1978.19 2.20429e+10
16.0156 52.3647 3.02843 2.01295e-09 43856 52.2526 2.00864e-09 3.71677e-08 2375.17 2.6014e+10
16.9247 55.4771 3.574 1.80704e-09 51362 55.4032 1.80464e-09 3.18628e-08 2912.91 3.07005e+10
17.8855 58.1402 4.21787 1.6047e-09 61636 58.0434 1.60203e-09 2.73063e-08 3622.13 3.62312e+10
18.9008 61.1741 4.97773 1.43069e-09 72218 61.0611 1.42805e-09 2.33941e-08 4416.57 4.27584e+10
19.9738 65.3387 5.87448 1.29482e-09 84586 65.2459 1.29299e-09 2.00364e-08 5466.25 5.04614e+10
21.1076 68.3556 6.93279 1.14783e-09 100708 68.2566 1.14616e-09 1.71555e-08 6738.09 5.95522e+10
22.3058 72.4472 8.18175 1.03083e-09 118712 72.3372 1.02926e-09 1.46847e-08 8333.29 7.02807e+10
23.5721 75.7615 9.65571 9.13428e-10 140410 75.618 9.11698e-10 1.25662e-08 10206.3 8.29419e+10
24.9102 79.8177 11.3952 8.1543e-10 164374 79.6617 8.13836e-10 1.07504e-08 12468 9.78842e+10
26.3243 83.5062 13.4481 7.22883e-10 194680 83.3568 7.2159e-10 9.19452e-09 15306 1.15518e+11
27.8187 87.9235 15.8708 6.44935e-10 230196 87.7789 6.43874e-10 7.86182e-09 18883.9 1.36329e+11
29.3979 92.0633 18.73 5.72215e-10 271156 91.9187 5.71316e-10 6.72061e-09 23087.1 1.60889e+11
31.0667 96.6464 22.1042 5.09003e-10 321076 96.4461 5.07948e-10 5.74366e-09 28453.8 1.89874e+11
32.8303 101.999 26.0864 4.5519e-10 377436 101.795 4.54279e-10 4.90756e-09 35008.2 2.2408e+11
34.694 106.824 30.7859 4.03949e-10 447594 106.633 4.03228e-10 4.19221e-09 43128.9 2.64449e+11
36.6634 112.502 36.3321 3.60479e-10 525078 112.294 3.59812e-10 3.58032e-09 52866.6 3.1209e+11
38.7447 118.559 42.8774 3.21898e-10 621924 118.344 3.21313e-10 3.05709e-09 65485.9 3.68314e+11
40.9442 124.647 50.6018 2.86765e-10 732630 124.421 2.86245e-10 2.60976e-09 80502.6 4.34667e+11
43.2685 131.707 59.7179 2.56753e-10 865596 131.493 2.56336e-10 2.22743e-09 99776.2 5.12973e+11
45.7247 139.059 70.4762 2.29703e-10 1.02168e+06 138.809 2.29291e-10 1.90073e-09 123469 6.05386e+11
48.3204 147.351 83.1727 2.06244e-10 1.20544e+06 147.071 2.05852e-10 1.62163e-09 153311 7.14448e+11
51.0634 156.839 98.1565 1.86014e-10 1.42103e+06 156.53 1.85648e-10 1.38326e-09 191094 8.43158e+11
53.9621 166.539 115.84 1.67366e-10 1.67997e+06 166.208 1.67034e-10 1.1797e-09 238340 9.95055e+11
57.0254 177.29 136.709 1.50973e-10 1.98018e+06 176.927 1.50664e-10 1.00592e-09 297194 1.17432e+12
60.2626 190.542 161.337 1.37488e-10 2.33957e+06 190.151 1.37207e-10 8.57591e-10 375078 1.38587e+12
63.6835 205.296 190.402 1.25521e-10 2.75676e+06 204.847 1.25247e-10 7.3101e-10 473363 1.63554e+12
67.2987 222.726 224.704 1.15391e-10 3.25638e+06 222.266 1.15152e-10 6.23009e-10 603132 1.93019e+12
71.1191 241.811 265.185 1.06154e-10 3.84387e+06 241.264 1.05914e-10 5.30879e-10 768618 2.27792e+12
75.1563 264.948 312.958 9.85563e-11 4.53277e+06 264.304 9.83166e-11 4.52303e-10 987684 2.68829e+12
79.4227 291.719 369.339 9.19498e-11 5.35083e+06 291.033 9.17333e-11 3.85299e-10 1.27695e+06 3.17259e+12
83.9313 322.948 435.876 8.62541e-11 6.32174e+06 322.157 8.60429e-11 3.28173e-10 1.66155e+06 3.74415e+12
88.6959 359.419 514.4 8.13412e-11 7.44986e+06 358.487 8.11302e-11 2.79476e-10 2.16827e+06 4.41866e+12
93.7309 403.074 607.071 7.72957e-11 8.79764e+06 402.022 7.7094e-11 2.37972e-10 2.85756e+06 5.2147e+12
99.0518 454.115 716.436 7.37901e-11 1.03827e+07 452.892 7.35914e-11 2.02605e-10 3.78145e+06 6.15414e+12
104.675 514.793 845.504 7.08805e-11 1.22515e+07 513.352 7.06821e-11 1.72471e-10 5.03502e+06 7.26283e+12
110.617 586.957 997.824 6.84798e-11 1.44573e+07 585.272 6.82832e-11 1.468e-10 6.7441e+06 8.57124e+12
116.896 672.183 1177.58 6.64516e-11 1.70664e+07 670.202 6.62558e-11 1.24935e-10 9.07746e+06 1.01154e+13
123.532 773.595 1389.73 6.48028e-11 2.0139e+07 771.294 6.461e-11 1.06313e-10 1.22756e+07 1.19377e+13
130.545 894.372 1640.09 6.34833e-11 2.37643e+07 891.659 6.32907e-11 9.04567e-11 1.6678e+07 1.40883e+13
137.955 1036.77 1935.56 6.23568e-11 2.80503e+07 1033.55 6.21636e-11 7.69563e-11 2.27288e+07 1.66263e+13
145.787 1205.32 2284.26 6.1428e-11 3.30981e+07 1201.51 6.12338e-11 6.54636e-11 3.10577e+07 1.96216e+13
154.063 1405.55 2695.77 6.06978e-11 3.90634e+07 1401.1 6.05055e-11 5.56812e-11 4.25829e+07 2.31565e+13
162.808 1644.23 3181.42 6.01659e-11 4.61057e+07 1638.94 5.99723e-11 4.73556e-11 5.85778e+07 2.73282e+13
172.051 1925.19 3754.56 5.96932e-11 5.44046e+07 1918.96 5.95001e-11 4.02708e-11 8.06436e+07 3.22515e+13
181.818 2260.64 4430.96 5.93941e-11 6.42064e+07 2253.24 5.91998e-11 3.42426e-11 1.11367e+08 3.80616e+13
192.139 2658.09 5229.21 5.91757e-11 7.57748e+07 2649.32 5.89805e-11 2.91139e-11 1.54017e+08 4.49186e+13
203.046 3129.45 6171.26 5.90343e-11 8.94213e+07 3119.1 5.8839e-11 2.4751e-11 2.13281e+08 5.30108e+13
214.572 3692.05 7283.03 5.90154e-11 1.05538e+08 3679.72 5.88183e-11 2.10401e-11 2.96025e+08 6.25608e+13
226.753 4361.83 8595.09 5.90783e-11 1.24552e+08 4347.14 5.88794e-11 1.78839e-11 4.11448e+08 7.38313e+13
239.625 5161.64 10143.5 5.92392e-11 1.46987e+08 5144.08 5.90377e-11 1.51999e-11 5.72859e+08 8.71322e+13
253.228 6123.25 11970.9 5.95477e-11 1.7347e+08 6102.23 5.93433e-11 1.29176e-11 7.99663e+08 1.02829e+14
267.603 7281.33 14127.5 6.00006e-11 2.04703e+08 7256.08 5.97926e-11 1.09771e-11 1.1189e+09 1.21354e+14
282.795 8685.84 16672.6 6.06483e-11 2.4161e+08 8655.24 6.04347e-11 9.3274e-12 1.57099e+09 1.43217e+14
298.848 10408.8 19676.2 6.1584e-11 2.85122e+08 10371.4 6.13632e-11 7.925e-12 2.21565e+09 1.69017e+14
315.813 12543.7 23220.9 6.28865e-11 3.36491e+08 12497.6 6.26553e-11 6.73295e-12 3.14287e+09 1.99466e+14
333.741 15236.6 27404.3 6.47262e-11 3.97115e+08 15178.6 6.44799e-11 5.71979e-12 4.49383e+09 2.35401e+14
352.686 18709 32341.2 6.73449e-11 4.68637e+08 18634.5 6.70766e-11 4.85874e-12 6.49557e+09 2.77809e+14
372.707 23326.5 38167.6 7.11486e-11 5.53074e+08 23228.2 7.08485e-11 4.12703e-12 9.5348e+09 3.27857e+14
393.865 29706.7 45043.5 7.67772e-11 6.52716e+08 29571.6 7.6428e-11 3.50528e-12 1.42966e+10 3.86921e+14
416.224 35080 53158.3 7.68245e-11 2.2184e+08 37111.3 8.12729e-11 2.97701e-12 5.72478e+09 4.56626e+14
439.852 0 62734.9 0 0 0 0 2.52819e-12 0 5.38888e+14
464.821 0 74036.7 0 0 0 0 2.1469e-12 0 6.35971e+14
491.207 0 87374.6 0 0 0 0 1.82301e-12 0 7.50542e+14
519.092 0 103115 0 0 0 0 1.54789e-12 0 8.85755e+14
548.56 0 121692 0 0 0 0 1.31422e-12 0 1.04533e+15
579.7 0 143615 0 0 0 0 1.11576e-12 0 1.23364e+15
612.608 0 169488 0 0 0 0 9.47223e-13 0 1.45589e+15
647.384 0 200021 0 0 0 0 8.041e-13 0 1.71817e+15
684.134 0 236056 0 0 0 0 6.82568e-13 0 2.0277e+15
722.971 0 278582 0 0 0 0 5.79376e-13 0 2.393e+15
764.012 0 328769 0 0 0 0 4.91762e-13 0 2.8241e+15
0.458705
200
1.0655e+09
8589934592
0.0129181 0.000629017 1.58924e-09 4.60769e-05 6 0.000623259 4.56551e-05 0.00677225 0.0408227 13.6515
0.0136515 0 1.87554e-09 0 0 0 0 0.00688819 0 16.1108
0.0144264 0 2.21343e-09 0 0 0 0 0.00699249 0 19.0132
0.0152454 0 2.61218e-09 0 0 0 0 0.00708412 0 22.4385
0.0161108 0 3.08278e-09 0 0 0 0 0.00716212 0 26.4808
0.0170254 0 3.63815e-09 0 0 0 0 0.00722559 0 31.2514
0.0179919 0.00139313 4.29357e-09 3.77731e-05 12 0.00139133 3.77244e-05 0.00727371 0.0623171 36.8815
0.0190132 0 5.06707e-09 0 0 0 0 0.00730578 0 43.5258
0.0200925 0 5.97991e-09 0 0 0 0 0.00732122 0 51.367
0.0212331 0.00131406 7.05721e-09 2.16767e-05 8 0.00131292 2.16578e-05 0.00731958 0.0236917 60.621
0.0224385 0 8.32858e-09 0 0 0 0 0.00730056 0 71.542
0.0237123 0 9.829e-09 0 0 0 0 0.00726401 0 84.4305
0.0250583 0.0083454 1.15997e-08 8.37548e-05 6 0.00834147 8.37154e-05 0.00720995 0.0696993 99.6408
0.0264808 0 1.36894e-08 0 0 0 0 0.00713857 0 117.591
0.0279841 0.00513738 1.61556e-08 3.70193e-05 24 0.0051321 3.69813e-05 0.00705021 0.126019 138.776
0.0295727 0 1.90661e-08 0 0 0 0 0.00694538 0 163.777
0.0312514 0.00913302 2.25009e-08 4.72524e-05 24 0.00917939 4.74923e-05 0.00682475 0.166168 193.281
0.0330255 0 2.65545e-08 0 0 0 0 0.00668915 0 228.102
0.0349003 0.0132712 3.13384e-08 4.92996e-05 12 0.0131649 4.89048e-05 0.00653951 0.0904647 269.195
0.0368815 0.0109933 3.69841e-08 3.46039e-05 30 0.0108763 3.42354e-05 0.00637693 0.162793 317.691
0.0389751 0.0127338 4.36469e-08 3.39637e-05 24 0.0126028 3.36143e-05 0.00620256 0.131418 374.924
0.0411876 0.00809548 5.151e-08 1.82962e-05 24 0.0080405 1.8172e-05 0.00601767 0.07297 442.467
0.0435258 0.0187964 6.07896e-08 3.59961e-05 8 0.018795 3.59933e-05 0.00582358 0.0494487 522.179
0.0459966 0.0234126 7.1741e-08 3.7992e-05 72 0.0232279 3.76922e-05 0.00562166 0.486586 616.251
0.0486077 0 8.46654e-08 0 0 0 0 0.0054133 0 727.27
0.051367 0.0333548 9.99181e-08 3.88619e-05 54 0.0332465 3.87358e-05 0.00519989 0.403575 858.29
0.054283 0.0264298 1.17919e-07 2.60928e-05 60 0.0265451 2.62067e-05 0.0049828 0.314194 1012.91
0.0573645 0.0254272 1.39162e-07 2.1271e-05 96 0.025362 2.12165e-05 0.00476339 0.42869 1195.39
0.060621 0.0297772 1.64232e-07 2.11074e-05 24 0.0293738 2.08215e-05 0.00454293 0.111509 1410.75
0.0640622 0.0520897 1.93819e-07 3.12871e-05 134 0.0521168 3.13034e-05 0.00432265 0.969884 1664.89
0.0676989 0.050477 2.28736e-07 2.56902e-05 120 0.0502385 2.55689e-05 0.00410371 0.75123 1964.83
0.071542 0.0468898 2.69944e-07 2.02216e-05 108 0.0463782 2.0001e-05 0.00388717 0.56183 2318.8
0.0756032 0.0689727 3.18575e-07 2.52044e-05 174 0.0685996 2.5068e-05 0.00367401 1.19367 2736.54
0.079895 0.072851 3.75967e-07 2.25578e-05 168 0.0721667 2.23459e-05 0.0034651 1.09368 3229.53
0.0844305 0.0614699 4.43698e-07 1.61282e-05 168 0.0617772 1.62088e-05 0.00326121 0.830837 3811.34
0.0892234 0.0706665 5.23632e-07 1.57108e-05 290 0.0703567 1.56419e-05 0.00306301 1.48746 4497.96
0.0942883 0.088853 6.17966e-07 1.67386e-05 288 0.0886459 1.66995e-05 0.00287109 1.67905 5308.28
0.0996408 0.0789914 7.29294e-07 1.26092e-05 366 0.0783567 1.25079e-05 0.00268591 1.71821 6264.59
0.105297 0.0889089 8.60678e-07 1.20258e-05 420 0.0882908 1.19422e-05 0.00250785 2.01401 7393.17
0.111275 0.0947168 1.01573e-06 1.08557e-05 398 0.0944356 1.08235e-05 0.00233721 1.8486 8725.07
0.117591 0.112727 1.19872e-06 1.09477e-05 624 0.112987 1.09729e-05 0.00217419 3.14202 10296.9
0.124267 0.128231 1.41467e-06 1.05523e-05 642 0.127997 1.05331e-05 0.00201893 3.35554 12151.9
0.131321 0.15904 1.66953e-06 1.10898e-05 800 0.159092 1.10934e-05 0.00187147 4.74058 14341.1
0.138776 0.143683 1.9703e-06 8.48951e-06 858 0.144339 8.52827e-06 0.00173182 4.20599 16924.7
0.146654 0.161335 2.32525e-06 8.07733e-06 1080 0.162693 8.14531e-06 0.00159991 5.45251 19973.8
0.154979 0.190286 2.74415e-06 8.07251e-06 1286 0.191552 8.12623e-06 0.00147563 7.03511 23572.1
0.163777 0.179794 3.23852e-06 6.46306e-06 1650 0.180219 6.47835e-06 0.00135884 7.84791 27818.7
0.173074 0.206745 3.82195e-06 6.29738e-06 1778 0.206821 6.2997e-06 0.00124933 8.96219 32830.3
0.182899 0.206835 4.51048e-06 5.3384e-06 2112 0.207361 5.35198e-06 0.00114689 9.83067 38744.7
0.193281 0.237026 5.32305e-06 5.18377e-06 2570 0.237291 5.18957e-06 0.00105127 12.6725 45724.7
0.204254 0.275355 6.28202e-06 5.10274e-06 3030 0.275185 5.09959e-06 0.000962209 16.0685 53962.1
0.215848 0.278671 7.41374e-06 4.37587e-06 3434 0.278557 4.37408e-06 0.000879423 17.087 63683.5
0.228102 0.290972 8.74934e-06 3.87155e-06 4218 0.290992 3.87183e-06 0.000802624 20.346 75156.3
0.24105 0.324314 1.03256e-05 3.65647e-06 4766 0.32457 3.65936e-06 0.000731515 23.8228 88695.9
0.254734 0.354034 1.21857e-05 3.38223e-06 6026 0.353984 3.38175e-06 0.000665798 30.6119 104675
0.269195 0.385969 1.4381e-05 3.12444e-06 6480 0.385632 3.12171e-06 0.000605173 33.4555 123532
0.284476 0.42161 1.69718e-05 2.89197e-06 8162 0.422532 2.89829e-06 0.000549345 42.968 145787
0.300625 0.440244 2.00293e-05 2.5588e-06 9578 0.440668 2.56127e-06 0.000498021 49.2113 172051
0.317691 0.4865 2.36377e-05 2.39601e-06 11234 0.485954 2.39332e-06 0.000450916 59.6934 203046
0.335725 0.520947 2.78961e-05 2.17401e-06 13344 0.520239 2.17105e-06 0.000407755 71.1455 239625
0.354784 0.560468 3.29216e-05 1.98189e-06 15464 0.560047 1.9804e-06 0.000368269 83.2216 282795
0.374924 0.598713 3.88525e-05 1.79395e-06 18458 0.598585 1.79356e-06 0.000332202 99.6763 333741
0.396207 0.663695 4.58519e-05 1.68508e-06 22232 0.66285 1.68294e-06 0.000299307 125.165 393865
0.418699 0.710704 5.41123e-05 1.52898e-06 25628 0.708916 1.52514e-06 0.00026935 145.479 464821
0.442467 0.774952 6.38607e-05 1.4127e-06 30320 0.773292 1.40968e-06 0.000242108 176.918 548560
0.467585 0.832174 7.53654e-05 1.28544e-06 35452 0.830967 1.28358e-06 0.00021737 209.649 647384
0.494129 0.910092 8.89427e-05 1.1912e-06 41792 0.909667 1.19064e-06 0.000194938 255.377 764012
0.522179 0.999095 0.000104966 1.10807e-06 49988 0.998917 1.10788e-06 0.000174625 317.196 901651
0.551822 1.07846 0.000123876 1.0135e-06 59110 1.07721 1.01233e-06 0.000156255 383.401 1.06409e+06
0.583147 1.17421 0.000146192 9.35044e-07 69716 1.1722 9.3344e-07 0.000139664 466.745 1.25578e+06
0.616251 1.28138 0.000172529 8.64619e-07 82210 1.27874 8.62835e-07 0.0001247 570.01 1.48202e+06
0.651234 1.39219 0.000203611 7.95992e-07 96722 1.38943 7.9441e-07 0.00011122 692.228 1.74901e+06
0.688203 1.52745 0.000240292 7.4001e-07 113098 1.52492 7.38783e-07 9.90935e-05 844.593 2.06409e+06
0.72727 1.66936 0.000283581 6.85304e-07 135190 1.66711 6.8438e-07 8.81969e-05 1050.45 2.43595e+06
0.768555 1.82595 0.000334669 6.35161e-07 158170 1.82357 6.34333e-07 7.84179e-05 1281.13 2.87479e+06
0.812184 2.02112 0.000394961 5.95727e-07 188560 2.01787 5.94771e-07 6.96525e-05 1612.72 3.39269e+06
0.85829 2.21096 0.000466114 5.52204e-07 220444 2.20763 5.51371e-07 6.1805e-05 1969.58 4.00389e+06
0.907013 2.43043 0.000550086 5.14354e-07 261388 2.427 5.13628e-07 5.47875e-05 2453.95 4.7252e+06
0.958501 2.67968 0.000649185 4.80534e-07 308244 2.67569 4.79819e-07 4.85194e-05 3052.84 5.57646e+06
1.01291 2.96254 0.000766138 4.5016e-07 364396 2.95783 4.49445e-07 4.29272e-05 3821.28 6.58107e+06
1.07041 3.26381 0.00090416 4.20232e-07 429162 3.25822 4.19513e-07 3.79435e-05 4753.06 7.76667e+06
1.13118 3.60373 0.00106705 3.93169e-07 506358 3.59768 3.92508e-07 3.3507e-05 5941.57 9.16586e+06
1.19539 3.97496 0.00125928 3.6747e-07 598590 3.96815 3.6684e-07 2.9562e-05 7440.75 1.08171e+07
1.26325 4.41155 0.00148614 3.45574e-07 704844 4.40408 3.44989e-07 2.60578e-05 9347.52 1.27658e+07
1.33496 4.88463 0.00175387 3.24223e-07 834620 4.87522 3.23598e-07 2.29484e-05 11791.8 1.50656e+07
1.41075 5.39988 0.00206984 3.03709e-07 981444 5.38904 3.031e-07 2.01923e-05 14761.8 1.77798e+07
1.49083 5.98985 0.00244272 2.85464e-07 1.15998e+06 5.97921 2.84957e-07 1.77518e-05 18653.5 2.09828e+07
1.57546 6.63242 0.00288279 2.67836e-07 1.36931e+06 6.61937 2.67309e-07 1.55929e-05 23520.4 2.4763e+07
1.66489 7.36652 0.00340213 2.5207e-07 1.61652e+06 7.35205 2.51575e-07 1.3685e-05 29775.3 2.92241e+07
1.75941 8.16677 0.00401503 2.36794e-07 1.90601e+06 8.15118 2.36342e-07 1.20007e-05 37608.8 3.44889e+07
1.85928 9.04045 0.00473835 2.22113e-07 2.24913e+06 9.02323 2.2169e-07 1.05151e-05 47508.7 4.07021e+07
1.96483 10.0372 0.00559198 2.08958e-07 2.65744e+06 10.0167 2.08531e-07 9.20606e-06 60318.2 4.80347e+07
2.07637 11.0765 0.00659939 1.95394e-07 3.13125e+06 11.0549 1.95012e-07 8.05366e-06 75968.7 5.66883e+07
2.19424 12.2632 0.00778828 1.83304e-07 3.69915e+06 12.2394 1.82949e-07 7.04008e-06 96315.4 6.69008e+07
2.3188 13.545 0.00919136 1.71558e-07 4.36472e+06 13.5191 1.71229e-07 6.1494e-06 121768 7.89532e+07
2.45043 14.945 0.0108472 1.60394e-07 5.14913e+06 14.9156 1.60079e-07 5.36741e-06 153871 9.31768e+07
2.58954 16.4294 0.0128014 1.49408e-07 6.07894e+06 16.3978 1.49121e-07 4.68145e-06 194009 1.09963e+08
2.73654 18.0523 0.0151076 1.39107e-07 7.17304e+06 18.018 1.38842e-07 4.08023e-06 244550 1.29773e+08
2.89188 19.8359 0.0178292 1.29518e-07 8.46557e+06 19.7979 1.2927e-07 3.55373e-06 308532 1.53152e+08
3.05605 21.7204 0.0210412 1.20173e-07 9.98773e+06 21.6801 1.1995e-07 3.09304e-06 388051 1.80743e+08
3.22953 23.7671 0.0248319 1.11424e-07 1.1797e+07 23.7232 1.11218e-07 2.69025e-06 488604 2.13304e+08
3.41286 25.9079 0.0293054 1.02919e-07 1.39144e+07 25.8598 1.02728e-07 2.33837e-06 612415 2.51731e+08
3.6066 28.184 0.0345848 9.48697e-08 1.64163e+07 28.1336 9.47e-08 2.0312e-06 766742 2.97081e+08
3.81134 30.5893 0.0408154 8.7248e-08 1.93821e+07 30.5347 8.70924e-08 1.76327e-06 959046 3.50601e+08
4.0277 33.1269 0.0481684 8.00625e-08 2.28754e+07 33.0668 7.99171e-08 1.52972e-06 1.19725e+06 4.13763e+08
4.25634 35.7869 0.056846 7.32883e-08 2.69929e+07 35.7231 7.31576e-08 1.32631e-06 1.49156e+06 4.88304e+08
4.49796 38.6001 0.067087 6.69824e-08 3.18542e+07 38.5304 6.68613e-08 1.14926e-06 1.85657e+06 5.76273e+08
4.7533 41.534 0.0791729 6.10713e-08 3.75892e+07 41.461 6.0964e-08 9.95263e-07 2.30655e+06 6.8009e+08
5.02313 44.5959 0.0934361 5.55636e-08 4.43706e+07 44.5189 5.54677e-08 8.61414e-07 2.86203e+06 8.0261e+08
5.30828 47.7611 0.110269 5.04233e-08 5.23593e+07 47.6789 5.03365e-08 7.45152e-07 3.54307e+06 9.47202e+08
5.60962 51.084 0.130134 4.56987e-08 6.1787e+07 50.9972 4.56211e-08 6.44232e-07 4.38287e+06 1.11784e+09
5.92807 54.5586 0.153578 4.13566e-08 7.29346e+07 54.466 4.12864e-08 5.56685e-07 5.41837e+06 1.31923e+09
6.26459 58.1434 0.181246 3.73459e-08 8.60651e+07 58.0442 3.72822e-08 4.80786e-07 6.68525e+06 1.55689e+09
6.62021 61.8625 0.213898 3.36691e-08 1.01558e+08 61.7588 3.36127e-08 4.15026e-07 8.23894e+06 1.83737e+09
6.99602 65.7207 0.252432 3.03088e-08 1.1986e+08 65.6108 3.02581e-08 3.58083e-07 1.01452e+07 2.16837e+09
7.39317 69.7385 0.297908 2.72522e-08 1.41457e+08 69.6225 2.72068e-08 3.08803e-07 1.24837e+07 2.55901e+09
7.81286 73.9368 0.351577 2.44822e-08 1.66936e+08 73.8146 2.44418e-08 2.66181e-07 1.5354e+07 3.02002e+09
8.25637 78.3372 0.414914 2.19796e-08 1.97025e+08 78.2064 2.19429e-08 2.29336e-07 1.88829e+07 3.56409e+09
8.72507 82.9971 0.489662 1.97322e-08 2.32497e+08 82.8581 1.96992e-08 1.97503e-07 2.32284e+07 4.20617e+09
9.22037 88.0066 0.577876 1.77293e-08 2.74404e+08 87.858 1.76993e-08 1.70014e-07 2.86152e+07 4.96392e+09
9.74378 93.4654 0.681982 1.59547e-08 3.2382e+08 93.3037 1.59271e-08 1.46289e-07 3.53167e+07 5.85818e+09
10.2969 99.6166 0.804843 1.44089e-08 3.82165e+08 99.4378 1.4383e-08 1.25822e-07 4.37646e+07 6.91355e+09
10.8814 106.945 0.949838 1.31075e-08 4.51027e+08 106.739 1.30823e-08 1.08175e-07 5.46505e+07 8.15905e+09
11.4992 116.322 1.12095 1.20805e-08 5.32251e+08 116.072 1.20545e-08 9.29669e-08 6.91629e+07 9.62892e+09
12.1519 129.494 1.3229 1.13955e-08 6.28157e+08 129.165 1.13666e-08 7.98658e-08 8.96273e+07 1.13636e+10
12.8418 144.262 1.56122 1.07572e-08 3.82727e+08 149.315 1.11339e-08 6.85852e-08 6.00283e+07 1.34108e+10
13.5708 0 1.84248 0 0 0 0 5.88765e-08 0 1.58268e+10
14.3411 0 2.17441 0 0 0 0 5.05241e-08 0 1.8678e+10
15.1552 0 2.56613 0 0 0 0 4.33417e-08 0 2.20429e+10
16.0156 0 3.02843 0 0 0 0 3.71677e-08 0 2.6014e+10
16.9247 0 3.574 0 0 0 0 3.18628e-08 0 3.07005e+10
17.8855 0 4.21787 0 0 0 0 2.73063e-08 0 3.62312e+10
18.9008 0 4.97773 0 0 0 0 2.33941e-08 0 4.27584e+10
19.9738 0 5.87448 0 0 0 0 2.00364e-08 0 5.04614e+10
21.1076 0 6.93279 0 0 0 0 1.71555e-08 0 5.95522e+10
22.3058 0 8.18175 0 0 0 0 1.46847e-08 0 7.02807e+10
23.5721 0 9.65571 0 0 0 0 1.25662e-08 0 8.29419e+10
24.9102 0 11.3952 0 0 0 0 1.07504e-08 0 9.78842e+10
26.3243 0 13.4481 0 0 0 0 9.19452e-09 0 1.15518e+11
27.8187 0 15.8708 0 0 0 0 7.86182e-09 0 1.36329e+11
29.3979 0 18.73 0 0 0 0 6.72061e-09 0 1.60889e+11
31.0667 0 22.1042 0 0 0 0 5.74366e-09 0 1.89874e+11
32.8303 0 26.0864 0 0 0 0 4.90756e-09 0 2.2408e+11
34.694 0 30.7859 0 0 0 0 4.19221e-09 0 2.64449e+11
36.6634 0 36.3321 0 0 0 0 3.58032e-09 0 3.1209e+11
38.7447 0 42.8774 0 0 0 0 3.05709e-09 0 3.68314e+11
40.9442 0 50.6018 0 0 0 0 2.60976e-09 0 4.34667e+11
43.2685 0 59.7179 0 0 0 0 2.22743e-09 0 5.12973e+11
45.7247 0 70.4762 0 0 0 0 1.90073e-09 0 6.05386e+11
48.3204 0 83.1727 0 0 0 0 1.62163e-09 0 7.14448e+11
51.0634 0 98.1565 0 0 0 0 1.38326e-09 0 8.43158e+11
53.9621 0 115.84 0 0 0 0 1.1797e-09 0 9.95055e+11
57.0254 0 136.709 0 0 0 0 1.00592e-09 0 1.17432e+12
60.2626 0 161.337 0 0 0 0 8.57591e-10 0 1.38587e+12
63.6835 0 190.402 0 0 0 0 7.3101e-10 0 1.63554e+12
67.2987 0 224.704 0 0 0 0 6.23009e-10 0 1.93019e+12
71.1191 0 265.185 0 0 0 0 5.30879e-10 0 2.27792e+12
75.1563 0 312.958 0 0 0 0 4.52303e-10 0 2.68829e+12
79.4227 0 369.339 0 0 0 0 3.85299e-10 0 3.17259e+12
83.9313 0 435.876 0 0 0 0 3.28173e-10 0 3.74415e+12
88.6959 0 514.4 0 0 0 0 2.79476e-10 0 4.41866e+12
93.7309 0 607.071 0 0 0 0 2.37972e-10 0 5.2147e+12
99.0518 0 716.436 0 0 0 0 2.02605e-10 0 6.15414e+12
104.675 0 845.504 0 0 0 0 1.72471e-10 0 7.26283e+12
110.617 0 997.824 0 0 0 0 1.468e-10 0 8.57124e+12
116.896 0 1177.58 0 0 0 0 1.24935e-10 0 1.01154e+13
123.532 0 1389.73 0 0 0 0 1.06313e-10 0 1.19377e+13
130.545 0 1640.09 0 0 0 0 9.04567e-11 0 1.40883e+13
137.955 0 1935.56 0 0 0 0 7.69563e-11 0 1.66263e+13
145.787 0 2284.26 0 0 0 0 6.54636e-11 0 1.96216e+13
154.063 0 2695.77 0 0 0 0 5.56812e-11 0 2.31565e+13
162.808 0 3181.42 0 0 0 0 4.73556e-11 0 2.73282e+13
172.051 0 3754.56 0 0 0 0 4.02708e-11 0 3.22515e+13
181.818 0 4430.96 0 0 0 0 3.42426e-11 0 3.80616e+13
192.139 0 5229.21 0 0 0 0 2.91139e-11 0 4.49186e+13
203.046 0 6171.26 0 0 0 0 2.4751e-11 0 5.30108e+13
214.572 0 7283.03 0 0 0 0 2.10401e-11 0 6.25608e+13
226.753 0 8595.09 0 0 0 0 1.78839e-11 0 7.38313e+13
239.625 0 10143.5 0 0 0 0 1.51999e-11 0 8.71322e+13
253.228 0 11970.9 0 0 0 0 1.29176e-11 0 1.02829e+14
267.603 0 14127.5 0 0 0 0 1.09771e-11 0 1.21354e+14
282.795 0 16672.6 0 0 0 0 9.3274e-12 0 1.43217e+14
298.848 0 19676.2 0 0 0 0 7.925e-12 0 1.69017e+14
315.813 0 23220.9 0 0 0 0 6.73295e-12 0 1.99466e+14
333.741 0 27404.3 0 0 0 0 5.71979e-12 0 2.35401e+14
352.686 0 32341.2 0 0 0 0 4.85874e-12 0 2.77809e+14
372.707 0 38167.6 0 0 0 0 4.12703e-12 0 3.27857e+14
393.865 0 45043.5 0 0 0 0 3.50528e-12 0 3.86921e+14
416.224 0 53158.3 0 0 0 0 2.97701e-12 0 4.56626e+14
439.852 0 62734.9 0 0 0 0 2.52819e-12 0 5.38888e+14
464.821 0 74036.7 0 0 0 0 2.1469e-12 0 6.35971e+14
491.207 0 87374.6 0 0 0 0 1.82301e-12 0 7.50542e+14
519.092 0 103115 0 0 0 0 1.54789e-12 0 8.85755e+14
548.56 0 121692 0 0 0 0 1.31422e-12 0 1.04533e+15
579.7 0 143615 0 0 0 0 1.11576e-12 0 1.23364e+15
612.608 0 169488 0 0 0 0 9.47223e-13 0 1.45589e+15
647.384 0 200021 0 0 0 0 8.041e-13 0 1.71817e+15
684.134 0 236056 0 0 0 0 6.82568e-13 0 2.0277e+15
722.971 0 278582 0 0 0 0 5.79376e-13 0 2.393e+15
764.012 0 328769 0 0 0 0 4.91762e-13 0 2.8241e+15
