0.682472
200
2.30148e+11
8589934592
0.0021528 0 1.58875e-09 0 0 0 0 0.00197275 0 13.6473
0.00227455 0 1.87382e-09 0 0 0 0 0.00207247 0 16.096
0.00240318 0 2.21004e-09 0 0 0 0 0.00217643 0 18.9841
0.00253908 0 2.60659e-09 0 0 0 0 0.00228471 0 22.3904
0.00268267 0 3.07429e-09 0 0 0 0 0.00239737 0 26.408
0.00283438 0 3.62591e-09 0 0 0 0 0.00251449 0 31.1464
0.00299467 0 4.27651e-09 0 0 0 0 0.00263608 0 36.735
0.00316402 0 5.04385e-09 0 0 0 0 0.00276218 0 43.3263
0.00334295 0 5.94887e-09 0 0 0 0 0.00289278 0 51.1004
0.003532 0 7.01627e-09 0 0 0 0 0.00302786 0 60.2693
0.00373174 0 8.27521e-09 0 0 0 0 0.00316735 0 71.0835
0.00394278 0 9.76003e-09 0 0 0 0 0.00331119 0 83.838
0.00416575 0 1.15113e-08 0 0 0 0 0.00345926 0 98.8811
0.00440133 0 1.35767e-08 0 0 0 0 0.00361139 0 116.623
0.00465023 0 1.60128e-08 0 0 0 0 0.00376739 0 137.549
0.00491321 0 1.8886e-08 0 0 0 0 0.00392704 0 162.23
0.00519106 0 2.22747e-08 0 0 0 0 0.00409003 0 191.338
0.00548462 0 2.62715e-08 0 0 0 0 0.00425603 0 225.67
0.00579479 0 3.09854e-08 0 0 0 0 0.00442465 0 266.162
0.00612249 0 3.65451e-08 0 0 0 0 0.00459545 0 313.92
0.00646873 0 4.31024e-08 0 0 0 0 0.00476791 0 370.247
0.00683455 0 5.08363e-08 0 0 0 0 0.00494148 0 436.68
0.00722105 0 5.99579e-08 0 0 0 0 0.00511552 0 515.034
0.00762942 0 7.07161e-08 0 0 0 0 0.00528933 0 607.447
0.00806087 0 8.34047e-08 0 0 0 0 0.00546217 0 716.441
0.00851673 0 9.837e-08 0 0 0 0 0.00563323 0 844.992
0.00899837 0 1.16021e-07 0 0 0 0 0.00580162 0 996.609
0.00950724 0 1.36838e-07 0 0 0 0 0.00596643 0 1175.43
0.0100449 0 1.61391e-07 0 0 0 0 0.00612667 0 1386.34
0.0106129 0 1.9035e-07 0 0 0 0 0.00628133 0 1635.09
0.0112131 0 2.24504e-07 0 0 0 0 0.00642937 0 1928.48
0.0118472 0 2.64787e-07 0 0 0 0 0.0065697 0 2274.5
0.0125172 0 3.12298e-07 0 0 0 0 0.00670125 0 2682.62
0.0132251 0 3.68333e-07 0 0 0 0 0.00682292 0 3163.96
0.013973 0 4.34423e-07 0 0 0 0 0.00693364 0 3731.67
0.0147632 0 5.12372e-07 0 0 0 0 0.00703238 0 4401.24
0.0155981 0 6.04307e-07 0 0 0 0 0.00711814 0 5190.96
0.0164802 0 7.12738e-07 0 0 0 0 0.00718999 0 6122.38
0.0174122 0 8.40625e-07 0 0 0 0 0.00724706 0 7220.91
0.0183969 0 9.91459e-07 0 0 0 0 0.0072886 0 8516.57
0.0194372 0 1.16936e-06 0 0 0 0 0.00731397 0 10044.7
0.0205364 0 1.37917e-06 0 0 0 0 0.00732263 0 11847
0.0216978 0 1.62664e-06 0 0 0 0 0.0073142 0 13972.7
0.0229249 0 1.91851e-06 0 0 0 0 0.00728845 0 16479.9
0.0242213 0 2.26275e-06 0 0 0 0 0.00724528 0 19436.8
0.025591 0 2.66875e-06 0 0 0 0 0.00718478 0 22924.4
0.0270383 0 3.14761e-06 0 0 0 0 0.0071072 0 27037.7
0.0285673 0 3.71238e-06 0 0 0 0 0.00701294 0 31889.1
0.0301829 0 4.3785e-06 0 0 0 0 0.00690256 0 37611
0.0318897 0 5.16413e-06 0 0 0 0 0.00677679 0 44359.6
0.0336932 0 6.09073e-06 0 0 0 0 0.00663647 0 52319
0.0355986 0 7.1836e-06 0 0 0 0 0.00648261 0 61706.6
0.0376117 0 8.47255e-06 0 0 0 0 0.00631629 0 72778.6
0.0397387 0 9.99278e-06 0 0 0 0 0.00613872 0 85837.3
0.041986 0 1.17858e-05 0 0 0 0 0.00595116 0 101239
0.0443604 0 1.39005e-05 0 0 0 0 0.00575493 0 119405
0.0468691 0 1.63947e-05 0 0 0 0 0.00555141 0 140829
0.0495196 0 1.93364e-05 0 0 0 0 0.00534196 0 166098
0.05232 0 2.28059e-05 0 0 0 0 0.00512796 0 195901
0.0552788 0 2.6898e-05 0 0 0 0 0.00491076 0 231052
0.0584049 0 3.17243e-05 0 0 0 0 0.00469167 0 272510
0.0617078 0 3.74166e-05 0 0 0 0 0.00447196 0 321406
0.0651975 0 4.41303e-05 0 0 0 0 0.0042528 0 379076
0.0688845 0.683544 5.20486e-05 1.52886e-06 6 0.701867 1.56984e-06 0.00403532 0.00227322 447094
0.0727801 0 6.13877e-05 0 0 0 0 0.00382053 0 527316
0.0768959 0 7.24025e-05 0 0 0 0 0.00360937 0 621933
0.0812445 0 8.53937e-05 0 0 0 0 0.00340268 0 733526
0.085839 0 0.000100716 0 0 0 0 0.00320119 0 865143
0.0906933 0 0.000118787 0 0 0 0 0.00300554 0 1.02038e+06
0.0958222 7.3111 0.000140101 6.07505e-06 12 7.40727 6.15496e-06 0.00281625 0.0258857 1.20346e+06
0.101241 0 0.00016524 0 0 0 0 0.00263378 0 1.4194e+06
0.106966 0 0.000194889 0 0 0 0 0.00245848 0 1.67408e+06
0.113016 10.9731 0.000229858 5.55753e-06 8 10.5948 5.3659e-06 0.0022906 0.0194099 1.97446e+06
0.119407 0 0.000271101 0 0 0 0 0.00213033 0 2.32874e+06
0.126159 0 0.000319745 0 0 0 0 0.00197778 0 2.74659e+06
0.133294 0.295404 0.000377117 9.11905e-08 6 0.293102 9.04801e-08 0.00183298 0.000298499 3.23941e+06
0.140832 0 0.000444783 0 0 0 0 0.00169593 0 3.82066e+06
0.148796 0.448714 0.000524591 9.95769e-08 24 0.444062 9.85445e-08 0.00156653 0.00152557 4.5062e+06
0.157211 0 0.000618719 0 0 0 0 0.00144468 0 5.31475e+06
0.166102 1.29881 0.000729735 2.07201e-07 24 1.32203 2.10904e-07 0.0013302 0.0037384 6.26838e+06
0.175495 0 0.000860672 0 0 0 0 0.0012229 0 7.39312e+06
0.185419 1.60833 0.0010151 1.84449e-07 12 1.5533 1.78138e-07 0.00112256 0.00197173 8.71966e+06
0.195905 1.21038 0.00119724 1.17693e-07 30 1.16101 1.12892e-07 0.00102893 0.00343152 1.02842e+07
0.206984 8.20088 0.00141206 6.76108e-07 24 7.89106 6.50566e-07 0.000941736 0.0172305 1.21295e+07
0.218689 9.01688 0.00166543 6.30289e-07 24 8.77735 6.13546e-07 0.000860706 0.017575 1.43059e+07
0.231057 30.9875 0.00196426 1.83653e-06 8 30.7398 1.82185e-06 0.00078555 0.0187031 1.68729e+07
0.244123 0.82839 0.00231671 4.16268e-08 72 0.805795 4.04915e-08 0.000715973 0.0041861 1.99004e+07
0.257929 0 0.0027324 0 0 0 0 0.000651679 0 2.34711e+07
0.272515 0.620824 0.00322267 2.24266e-08 54 0.607135 2.19321e-08 0.000592374 0.00204438 2.76825e+07
0.287926 1.40349 0.00380091 4.29864e-08 60 1.40089 4.29069e-08 0.000537765 0.00479612 3.26496e+07
0.304209 0.663738 0.00448291 1.72364e-08 72 0.661024 1.71659e-08 0.000487565 0.00254535 3.85079e+07
0.321413 0.768763 0.00528728 1.69266e-08 48 0.760866 1.67527e-08 0.000441493 0.00184029 4.54174e+07
0.339589 4.81577 0.00623598 8.99023e-08 134 4.69831 8.77095e-08 0.000399279 0.0301717 5.35667e+07
0.358793 0.782305 0.00735491 1.23825e-08 120 0.761772 1.20575e-08 0.000360659 0.00411997 6.31782e+07
0.379084 0.830644 0.0086746 1.11475e-08 60 0.811596 1.08918e-08 0.000325382 0.00205558 7.45142e+07
0.400522 2.21295 0.0102311 2.51803e-08 150 2.25057 2.56083e-08 0.000293206 0.0128819 8.78843e+07
0.423172 1.58176 0.0120669 1.526e-08 240 1.57389 1.51842e-08 0.000263903 0.0138779 1.03653e+08
0.447103 5.0471 0.014232 4.12844e-08 168 5.07819 4.15387e-08 0.000237253 0.0292337 1.22252e+08
0.472387 5.87874 0.0167857 4.07714e-08 218 5.84877 4.05635e-08 0.000213051 0.0417185 1.44188e+08
0.499101 1.66515 0.0197975 9.79159e-09 288 1.65703 9.74382e-09 0.000191102 0.0147564 1.70059e+08
0.527327 1.7298 0.0233498 8.6243e-09 342 1.74592 8.70467e-09 0.000171224 0.017226 2.00573e+08
0.557148 1.66802 0.0275395 7.05111e-09 396 1.67609 7.08522e-09 0.000153245 0.0182207 2.36562e+08
0.588655 2.14868 0.0324809 7.70113e-09 470 2.15463 7.72246e-09 0.000137005 0.0264189 2.79008e+08
0.621945 3.76473 0.0383089 1.14405e-08 624 3.8319 1.16446e-08 0.000122355 0.0583452 3.29071e+08
0.657117 2.3379 0.0451827 6.0237e-09 642 2.32201 5.98278e-09 0.000109156 0.0354282 3.88116e+08
0.694278 4.1458 0.0532898 9.05679e-09 704 4.1462 9.05765e-09 9.72796e-05 0.0655428 4.57756e+08
0.733541 3.88582 0.0628516 7.1974e-09 990 3.83857 7.10989e-09 8.66058e-05 0.0822742 5.39891e+08
0.775024 3.26739 0.0741291 5.13125e-09 1044 3.24329 5.09339e-09 7.70247e-05 0.0695494 6.36764e+08
0.818852 3.15853 0.0874301 4.20565e-09 1214 3.15099 4.19561e-09 6.84347e-05 0.0746064 7.51019e+08
0.86516 4.50498 0.103118 5.08592e-09 1506 4.45626 5.03092e-09 6.07424e-05 0.126096 8.85775e+08
0.914086 4.24408 0.12162 4.06245e-09 1718 4.24039 4.05891e-09 5.3862e-05 0.129577 1.04471e+09
0.965779 5.0767 0.143443 4.12015e-09 2100 5.09571 4.13559e-09 4.77149e-05 0.181334 1.23216e+09
1.0204 5.59975 0.16918 3.85326e-09 2354 5.61863 3.86625e-09 4.22291e-05 0.214794 1.45325e+09
1.0781 5.32043 0.199537 3.10409e-09 2982 5.32772 3.10834e-09 3.73389e-05 0.247903 1.71401e+09
1.13907 6.77501 0.235339 3.35139e-09 3386 6.73712 3.33265e-09 3.29844e-05 0.344036 2.02155e+09
1.20349 6.72074 0.277566 2.81877e-09 3858 6.70363 2.8116e-09 2.91111e-05 0.373563 2.38428e+09
1.27154 7.47968 0.32737 2.65983e-09 4910 7.4793 2.6597e-09 2.56695e-05 0.508765 2.81209e+09
1.34345 7.9248 0.38611 2.38939e-09 5346 7.91839 2.38746e-09 2.26148e-05 0.564837 3.31666e+09
1.41943 9.25205 0.45539 2.36518e-09 6698 9.27066 2.36994e-09 1.99062e-05 0.795833 3.91177e+09
1.4997 10.3683 0.537101 2.2473e-09 7736 10.3675 2.24713e-09 1.75069e-05 0.993043 4.61366e+09
1.58451 11.3818 0.633473 2.09167e-09 9362 11.3655 2.08866e-09 1.53838e-05 1.27291 5.4415e+09
1.67412 12.2384 0.747138 1.90692e-09 10770 12.1924 1.89975e-09 1.35069e-05 1.52052 6.41786e+09
1.76879 13.9815 0.881197 1.84711e-09 12584 13.9445 1.84222e-09 1.18493e-05 1.96164 7.56942e+09
1.86882 14.6425 1.03931 1.64013e-09 15146 14.6064 1.63609e-09 1.03867e-05 2.39165 8.92761e+09
1.9745 16.1351 1.22579 1.53237e-09 17744 16.0839 1.52751e-09 9.09749e-06 2.98878 1.05295e+10
2.08616 17.9602 1.44574 1.44621e-09 20570 17.9253 1.4434e-09 7.96208e-06 3.73628 1.24188e+10
2.20414 19.2065 1.70515 1.31128e-09 24872 19.1795 1.30944e-09 6.96304e-06 4.68391 1.46471e+10
2.32879 21.2675 2.0111 1.2311e-09 29132 21.2166 1.22815e-09 6.08479e-06 5.89409 1.72752e+10
2.46049 23.2562 2.37196 1.14141e-09 34136 23.2076 1.13903e-09 5.3134e-06 7.33301 2.03749e+10
2.59963 25.0335 2.79756 1.04172e-09 40372 24.9801 1.0395e-09 4.63644e-06 9.07085 2.40308e+10
2.74664 27.2304 3.29952 9.60754e-10 47702 27.1664 9.58497e-10 4.04286e-06 11.336 2.83427e+10
2.90197 29.5976 3.89156 8.85407e-10 56012 29.5594 8.84265e-10 3.52282e-06 14.0778 3.34282e+10
3.06608 31.9781 4.58982 8.11087e-10 66322 31.9194 8.09598e-10 3.06758e-06 17.5359 3.94263e+10
3.23947 34.3806 5.41337 7.3936e-10 77876 34.3311 7.38294e-10 2.66939e-06 21.5699 4.65005e+10
3.42267 37.5202 6.38469 6.84125e-10 92650 37.459 6.83009e-10 2.32136e-06 27.3048 5.48441e+10
3.61623 39.9189 7.5303 6.1713e-10 108250 39.8488 6.16046e-10 2.01741e-06 33.1139 6.46848e+10
3.82073 42.9924 8.88147 5.6353e-10 128258 42.9327 5.62747e-10 1.75215e-06 41.2505 7.62912e+10
4.0368 46.3175 10.4751 5.14752e-10 151594 46.2443 5.13938e-10 1.52084e-06 51.3093 8.99802e+10
4.26509 49.76 12.3546 4.6888e-10 178516 49.6685 4.68017e-10 1.31927e-06 63.446 1.06125e+11
4.50629 53.3718 14.5714 4.26403e-10 209896 53.2811 4.25679e-10 1.14374e-06 78.2522 1.25167e+11
4.76113 57.363 17.186 3.88569e-10 248076 57.2692 3.87934e-10 9.90997e-07 97.2704 1.47626e+11
5.03038 61.335 20.2696 3.52268e-10 292420 61.2276 3.51651e-10 8.58167e-07 120.035 1.74115e+11
5.31485 65.4906 23.9066 3.18912e-10 345804 65.383 3.18388e-10 7.42731e-07 148.48 2.05356e+11
5.61542 70.5311 28.1962 2.91206e-10 406714 70.4098 2.90705e-10 6.42478e-07 184.345 2.42204e+11
5.93298 75.6287 33.2555 2.64749e-10 479520 75.506 2.64319e-10 5.55464e-07 228.552 2.85662e+11
6.2685 81.2774 39.2225 2.41237e-10 566472 81.1558 2.40877e-10 4.79988e-07 284.703 3.36919e+11
6.62299 87.1963 46.2602 2.19432e-10 668454 87.043 2.19047e-10 4.1456e-07 353.822 3.97372e+11
6.99754 94.1233 54.5607 2.0083e-10 787572 93.9506 2.00461e-10 3.57875e-07 441.964 4.68673e+11
7.39326 101.411 64.3505 1.83461e-10 930080 101.213 1.83103e-10 3.08793e-07 552.582 5.52767e+11
7.81136 109.495 75.8969 1.6795e-10 1.09432e+06 109.283 1.67625e-10 2.66319e-07 690.122 6.5195e+11
8.25311 118.786 89.5151 1.54482e-10 1.29162e+06 118.566 1.54196e-10 2.29582e-07 869.111 7.68929e+11
8.71983 173.496 105.577 1.91307e-10 1.52605e+06 175.266 1.93259e-10 1.97824e-07 1475.78 9.06898e+11
9.21295 140.061 124.521 1.30945e-10 1.79721e+06 139.773 1.30675e-10 1.70386e-07 1381.19 1.06962e+12
9.73396 152.857 146.863 1.21166e-10 2.12116e+06 152.534 1.2091e-10 1.46692e-07 1752.06 1.26155e+12
10.2844 167.794 173.215 1.12772e-10 2.49914e+06 167.437 1.12532e-10 1.2624e-07 2232.52 1.48791e+12
10.866 184.501 204.295 1.05136e-10 2.94919e+06 184.107 1.04911e-10 1.08596e-07 2855.22 1.75488e+12
11.4805 203.933 240.952 9.85298e-11 3.47939e+06 203.477 9.83096e-11 9.33817e-08 3671.21 2.06976e+12
12.1298 227.045 284.186 9.30078e-11 4.1004e+06 226.524 9.27945e-11 8.02681e-08 4751.19 2.44114e+12
12.8157 257.632 335.177 8.94818e-11 4.84282e+06 256.98 8.92556e-11 6.89705e-08 6283.04 2.87915e+12
13.5405 283.439 395.318 8.34686e-11 5.70611e+06 282.733 8.32605e-11 5.92414e-08 8039.66 3.39576e+12
14.3062 319.582 466.25 7.97947e-11 6.73072e+06 318.768 7.95914e-11 5.08668e-08 10558.5 4.00506e+12
15.1153 361.919 549.91 7.66179e-11 7.93789e+06 360.98 7.64191e-11 4.36611e-08 13929.7 4.72369e+12
15.9701 411.732 648.58 7.39029e-11 9.3654e+06 410.659 7.37102e-11 3.74635e-08 18474.8 5.57126e+12
16.8732 502.594 764.955 7.64878e-11 1.10411e+07 499.842 7.60689e-11 3.21352e-08 26280 6.57091e+12
17.8274 539.423 902.211 6.96036e-11 1.30294e+07 537.921 6.94097e-11 2.7556e-08 32910.9 7.74994e+12
18.8356 621.572 1064.1 6.80019e-11 1.53594e+07 619.81 6.78091e-11 2.3622e-08 44215.9 9.14051e+12
19.9008 718.388 1255.03 6.66372e-11 1.81236e+07 716.321 6.64454e-11 2.02435e-08 59658.8 1.07806e+13
21.0262 845.156 1480.22 6.64694e-11 2.13681e+07 842.06 6.62259e-11 1.73432e-08 81895.6 1.2715e+13
22.2152 968.533 1745.81 6.45843e-11 2.52005e+07 965.663 6.4393e-11 1.48541e-08 109570 1.49964e+13
23.4716 1129.17 2059.06 6.3841e-11 2.97255e+07 1125.79 6.36501e-11 1.27187e-08 149205 1.76872e+13
24.7989 1318.15 2428.52 6.31876e-11 3.50616e+07 1314.18 6.29975e-11 1.08874e-08 203488 2.08608e+13
26.2013 1543.05 2864.27 6.27158e-11 4.13531e+07 1538.35 6.25246e-11 9.31732e-09 278352 2.46039e+13
27.6831 1808.22 3378.21 6.23125e-11 4.87711e+07 1802.62 6.21195e-11 7.97161e-09 381234 2.90186e+13
29.2486 2141.03 3984.36 6.25566e-11 5.75255e+07 2133.09 6.23247e-11 6.81857e-09 527765 3.42254e+13
30.9026 2496.16 4699.28 6.18374e-11 6.78404e+07 2488.32 6.16433e-11 5.83089e-09 719457 4.03665e+13
32.6502 2938.85 5542.47 6.17284e-11 8.0018e+07 2929.56 6.15333e-11 4.9851e-09 990828 4.76094e+13
34.4967 3468.17 6536.95 6.1764e-11 9.43754e+07 3457.19 6.15684e-11 4.26103e-09 1.36798e+06 5.6152e+13
36.4475 4088.67 7709.88 6.17368e-11 1.11311e+08 4075.49 6.15379e-11 3.64131e-09 1.88722e+06 6.62274e+13
38.5087 4845.33 9093.27 6.20317e-11 1.31285e+08 4829.56 6.18298e-11 3.11104e-09 2.61771e+06 7.81106e+13
40.6864 5722.5 10724.9 6.2116e-11 1.54822e+08 5703.81 6.19131e-11 2.65744e-09 3.61886e+06 9.2126e+13
42.9873 6791.38 12649.2 6.25034e-11 1.82627e+08 6769 6.22974e-11 2.26951e-09 5.02965e+06 1.08656e+14
45.4183 8076.32 14918.9 6.30212e-11 2.1538e+08 8049.31 6.28105e-11 1.93782e-09 7.00452e+06 1.28152e+14
47.9868 9643.43 17595.8 6.38017e-11 2.54026e+08 9610.69 6.35851e-11 1.65429e-09 9.79717e+06 1.51147e+14
50.7005 11564.6 20753 6.48724e-11 2.99614e+08 11524.4 6.46466e-11 1.41197e-09 1.37657e+07 1.78267e+14
53.5677 13956.7 24476.7 6.63804e-11 3.53368e+08 13906.8 6.6143e-11 1.20493e-09 1.94673e+07 2.10254e+14
56.5971 16991.3 28868.6 6.85189e-11 4.16783e+08 16928.2 6.82646e-11 1.02806e-09 2.7778e+07 2.47979e+14
59.7977 20936.7 34048.5 7.15848e-11 4.91558e+08 20855.1 7.13056e-11 8.77005e-10 4.0123e+07 2.92474e+14
63.1794 26216.6 40157.8 7.60005e-11 5.79769e+08 26107.4 7.56839e-11 7.48017e-10 5.8906e+07 3.44953e+14
66.7523 33600.1 47363.4 8.25863e-11 6.8378e+08 33448.4 8.22135e-11 6.37895e-10 8.85268e+07 4.06848e+14
70.5272 38298 55861.8 7.98126e-11 3.00349e+06 41462.9 8.64082e-11 5.43899e-10 440737 4.79849e+14
74.5157 0 65885.1 0 0 0 0 4.63681e-10 0 5.65949e+14
78.7297 0 77706.9 0 0 0 0 3.95235e-10 0 6.67497e+14
83.182 0 91649.8 0 0 0 0 3.36843e-10 0 7.87266e+14
87.8861 0 108095 0 0 0 0 2.87037e-10 0 9.28526e+14
92.8562 0 127490 0 0 0 0 2.44561e-10 0 1.09513e+15
98.1073 0 150366 0 0 0 0 2.08343e-10 0 1.29163e+15
103.655 0 177346 0 0 0 0 1.77465e-10 0 1.52339e+15
109.517 0 209167 0 0 0 0 1.51145e-10 0 1.79673e+15
115.711 0 246698 0 0 0 0 1.28712e-10 0 2.11912e+15
122.254 0 290963 0 0 0 0 1.09595e-10 0 2.49935e+15
0.682472
200
2.30148e+11
8589934592
0.0021528 1.8328e-06 1.58875e-09 1.34298e-07 6 1.78793e-06 1.3101e-07 0.00197275 0.000408459 13.6473
0.00227455 0 1.87382e-09 0 0 0 0 0.00207247 0 16.096
0.00240318 0 2.21004e-09 0 0 0 0 0.00217643 0 18.9841
0.00253908 0 2.60659e-09 0 0 0 0 0.00228471 0 22.3904
0.00268267 0 3.07429e-09 0 0 0 0 0.00239737 0 26.408
0.00283438 0 3.62591e-09 0 0 0 0 0.00251449 0 31.1464
0.00299467 5.21147e-06 4.27651e-09 1.41867e-07 12 5.16272e-06 1.4054e-07 0.00263608 0.000645808 36.735
0.00316402 0 5.04385e-09 0 0 0 0 0.00276218 0 43.3263
0.00334295 0 5.94887e-09 0 0 0 0 0.00289278 0 51.1004
0.003532 5.83112e-06 7.01627e-09 9.67511e-08 8 5.96049e-06 9.88976e-08 0.00302786 0.000255629 60.2693
0.00373174 0 8.27521e-09 0 0 0 0 0.00316735 0 71.0835
0.00394278 0 9.76003e-09 0 0 0 0 0.00331119 0 83.838
0.00416575 4.54499e-05 1.15113e-08 4.59642e-07 6 4.56479e-05 4.61645e-07 0.00345926 0.000797238 98.8811
0.00440133 0 1.35767e-08 0 0 0 0 0.00361139 0 116.623
0.00465023 3.29125e-05 1.60128e-08 2.39278e-07 24 3.30899e-05 2.40568e-07 0.00376739 0.00152431 137.549
0.00491321 0 1.8886e-08 0 0 0 0 0.00392704 0 162.23
0.00519106 6.85191e-05 2.22747e-08 3.58104e-07 24 6.79292e-05 3.55021e-07 0.00409003 0.00210133 191.338
0.00548462 0 2.62715e-08 0 0 0 0 0.00425603 0 225.67
0.00579479 0.000113594 3.09854e-08 4.26784e-07 12 0.000115343 4.33357e-07 0.00442465 0.00115747 266.162
0.00612249 0.000109055 3.65451e-08 3.47398e-07 30 0.000110978 3.53525e-07 0.00459545 0.00226788 313.92
0.00646873 0.000142839 4.31024e-08 3.85795e-07 24 0.000145065 3.91806e-07 0.00476791 0.00194196 370.247
0.00683455 9.79035e-05 5.08363e-08 2.24199e-07 24 9.89199e-05 2.26527e-07 0.00494148 0.0010889 436.68
0.00722105 0.000223085 5.99579e-08 4.33146e-07 8 0.000223736 4.34409e-07 0.00511552 0.000677383 515.034
0.00762942 0.000313063 7.07161e-08 5.15376e-07 72 0.000316172 5.20494e-07 0.00528933 0.00701545 607.447
0.00806087 0 8.34047e-08 0 0 0 0 0.00546217 0 716.441
0.00851673 0.000548814 9.837e-08 6.4949e-07 54 0.000551619 6.5281e-07 0.00563323 0.006226 844.992
0.00899837 0.000453912 1.16021e-07 4.55457e-07 60 0.000453948 4.55492e-07 0.00580162 0.0047103 996.609
0.00950724 0.000484041 1.36838e-07 4.11798e-07 72 0.000484178 4.11915e-07 0.00596643 0.00496939 1175.43
0.0100449 0.000584406 1.61391e-07 4.21546e-07 48 0.000584247 4.21432e-07 0.00612667 0.00330264 1386.34
0.0106129 0.0011023 1.9035e-07 6.74155e-07 134 0.00110489 6.75735e-07 0.00628133 0.0143818 1635.09
0.0112131 0.00112291 2.24504e-07 5.8228e-07 120 0.00112788 5.84857e-07 0.00642937 0.0108679 1928.48
0.0118472 0.00126807 2.64787e-07 5.57515e-07 60 0.00127281 5.59598e-07 0.0065697 0.00509169 2274.5
0.0125172 0.00163656 3.12298e-07 6.10061e-07 150 0.00163422 6.0919e-07 0.00670125 0.0136555 2682.62
0.0132251 0.00193308 3.68333e-07 6.10969e-07 240 0.0019359 6.11858e-07 0.00682292 0.0214912 3163.96
0.013973 0.00190946 4.34423e-07 5.11689e-07 168 0.00191078 5.12044e-07 0.00693364 0.0123981 3731.67
0.0147632 0.00240774 5.12372e-07 5.47058e-07 218 0.00241005 5.47584e-07 0.00703238 0.0169585 4401.24
0.0155981 0.00329809 6.04307e-07 6.35352e-07 288 0.00329599 6.34949e-07 0.00711814 0.0257063 5190.96
0.0164802 0.00354404 7.12738e-07 5.78867e-07 342 0.00354343 5.78768e-07 0.00718999 0.0275345 6122.38
0.0174122 0.00428554 8.40625e-07 5.9349e-07 396 0.00428387 5.93259e-07 0.00724706 0.03243 7220.91
0.0183969 0.00451774 9.91459e-07 5.30465e-07 470 0.00451689 5.30365e-07 0.0072886 0.0342066 8516.57
0.0194372 0.00578728 1.16936e-06 5.76153e-07 672 0.00578762 5.76187e-07 0.00731397 0.0529363 10044.7
0.0205364 0.00658948 1.37917e-06 5.56214e-07 594 0.00658874 5.56152e-07 0.00732263 0.0451192 11847
0.0216978 0.00863602 1.62664e-06 6.18062e-07 704 0.0086344 6.17946e-07 0.0073142 0.0594892 13972.7
0.0229249 0.00860467 1.91851e-06 5.22132e-07 990 0.0086032 5.22043e-07 0.00728845 0.0709219 16479.9
0.0242213 0.0100016 2.26275e-06 5.14569e-07 1044 0.00999752 5.14359e-07 0.00724528 0.0741461 19436.8
0.025591 0.0124716 2.66875e-06 5.44031e-07 1214 0.0124681 5.43879e-07 0.00718478 0.0919239 22924.4
0.0270383 0.0133403 3.14761e-06 4.93395e-07 1506 0.013337 4.93272e-07 0.0071072 0.104549 27037.7
0.0285673 0.0166201 3.71238e-06 5.21184e-07 1718 0.0166121 5.20934e-07 0.00701294 0.127677 31889.1
0.0301829 0.0163743 4.3785e-06 4.3536e-07 2100 0.0163754 4.3539e-07 0.00690256 0.132452 37611
0.0318897 0.0198972 5.16413e-06 4.48545e-07 2354 0.0198978 4.48558e-07 0.00677679 0.155808 44359.6
0.0336932 0.0223259 6.09073e-06 4.26727e-07 2982 0.0223275 4.26756e-07 0.00663647 0.191743 52319
0.0355986 0.0252159 7.1836e-06 4.08641e-07 3386 0.0252073 4.08502e-07 0.00648261 0.213442 61706.6
0.0376117 0.02697 8.47255e-06 3.70576e-07 3858 0.0269745 3.70637e-07 0.00631629 0.226348 72778.6
0.0397387 0.032245 9.99278e-06 3.75652e-07 4910 0.0322481 3.75688e-07 0.00613872 0.300462 85837.3
0.041986 0.0348782 1.17858e-05 3.44513e-07 5346 0.0348816 3.44546e-07 0.00595116 0.30948 101239
0.0443604 0.038324 1.39005e-05 3.20959e-07 6698 0.0383401 3.21094e-07 0.00575493 0.373555 119405
0.0468691 0.0448665 1.63947e-05 3.18588e-07 7736 0.0448665 3.18587e-07 0.00555141 0.443959 140829
0.0495196 0.0485743 1.93364e-05 2.92443e-07 9362 0.0485579 2.92344e-07 0.00534196 0.512518 166098
0.05232 0.0547622 2.28059e-05 2.7954e-07 10770 0.0546976 2.7921e-07 0.00512796 0.587103 195901
0.0552788 0.0629323 2.6898e-05 2.72373e-07 12632 0.0628933 2.72204e-07 0.00491076 0.700627 231052
0.0584049 0.0702462 3.17243e-05 2.57775e-07 15098 0.0701843 2.57548e-07 0.00469167 0.82953 272510
0.0617078 0.0797601 3.74166e-05 2.4816e-07 17744 0.0796738 2.47891e-07 0.00447196 0.984658 321406
0.0651975 0.0905131 4.41303e-05 2.38773e-07 20570 0.0904498 2.38606e-07 0.0042528 1.1549 379076
0.0688845 0.103447 5.20486e-05 2.31377e-07 24872 0.103376 2.31217e-07 0.00403532 1.42611 447094
0.0727801 0.114226 6.13877e-05 2.16618e-07 29132 0.114129 2.16434e-07 0.00382053 1.65174 527316
0.0768959 0.124327 7.24025e-05 1.99904e-07 34136 0.124203 1.99706e-07 0.00360937 1.89061 621933
0.0812445 0.134487 8.53937e-05 1.83343e-07 40372 0.134389 1.8321e-07 0.00340268 2.17532 733526
0.085839 0.146137 0.000100716 1.68917e-07 47702 0.145993 1.6875e-07 0.00320119 2.51708 865143
0.0906933 0.156722 0.000118787 1.53592e-07 56252 0.156618 1.5349e-07 0.00300554 2.87465 1.02038e+06
0.0958222 0.168379 0.000140101 1.39912e-07 66082 0.168256 1.3981e-07 0.00281625 3.28296 1.20346e+06
0.101241 0.181583 0.00016524 1.27929e-07 77876 0.181488 1.27863e-07 0.00263378 3.78262 1.4194e+06
0.106966 0.200204 0.000194889 1.1959e-07 92650 0.200049 1.19498e-07 0.00245848 4.50686 1.67408e+06
0.113016 0.223709 0.000229858 1.13301e-07 108490 0.223503 1.13197e-07 0.0022906 5.36629 1.97446e+06
0.119407 0.245529 0.000271101 1.05434e-07 128882 0.245246 1.05313e-07 0.00213033 6.37861 2.32874e+06
0.126159 0.276859 0.000319745 1.00801e-07 150730 0.276565 1.00694e-07 0.00197778 7.68223 2.74659e+06
0.133294 0.30599 0.000377117 9.44587e-08 178516 0.305757 9.43865e-08 0.00183298 9.19942 3.23941e+06
0.140832 0.329622 0.000444783 8.62736e-08 210280 0.329368 8.62071e-08 0.00169593 10.6972 3.82066e+06
0.148796 0.352952 0.000524591 7.83258e-08 247692 0.352701 7.82701e-08 0.00156653 12.3845 4.5062e+06
0.157211 0.376014 0.000618719 7.07492e-08 292948 0.375754 7.07002e-08 0.00144468 14.3464 5.31475e+06
0.166102 0.407904 0.000729735 6.50734e-08 345852 0.407507 6.50099e-08 0.0013302 16.9191 6.26838e+06
0.175495 0.447048 0.000860672 6.04681e-08 406882 0.446539 6.03993e-08 0.0012229 20.1189 7.39312e+06
0.185419 0.494523 0.0010151 5.67136e-08 480198 0.493949 5.66477e-08 0.00112256 24.2604 8.71966e+06
0.195905 0.541688 0.00119724 5.26717e-08 565530 0.541207 5.26249e-08 0.00102893 28.95 1.02842e+07
0.206984 0.588153 0.00141206 4.84893e-08 668550 0.587638 4.84469e-08 0.000941736 34.4231 1.21295e+07
0.218689 0.634318 0.00166543 4.43395e-08 787620 0.633728 4.42982e-08 0.000860706 40.5744 1.43059e+07
0.231057 0.687453 0.00196426 4.07431e-08 930848 0.686721 4.06997e-08 0.00078555 48.2791 1.68729e+07
0.244123 0.751026 0.00231671 3.77393e-08 1.0948e+06 0.750097 3.76926e-08 0.000715973 57.7077 1.99004e+07
0.257929 0.825273 0.0027324 3.51612e-08 1.29177e+06 0.824368 3.51227e-08 0.000651679 69.697 2.34711e+07
0.272515 0.898535 0.00322267 3.24586e-08 1.52529e+06 0.897582 3.24241e-08 0.000592374 83.5765 2.76825e+07
0.287926 0.979899 0.00380091 3.00126e-08 1.79673e+06 0.97887 2.99811e-08 0.000537765 100.275 3.26496e+07
0.304209 1.07153 0.00448291 2.78262e-08 2.12289e+06 1.07027 2.77934e-08 0.000487565 121.157 3.85079e+07
0.321413 1.17113 0.00528728 2.57858e-08 2.50053e+06 1.16972 2.57549e-08 0.000441493 146.046 4.54174e+07
0.339589 1.28285 0.00623598 2.39486e-08 2.94969e+06 1.28127 2.39192e-08 0.000399279 176.922 5.35667e+07
0.358793 1.40509 0.00735491 2.22401e-08 3.47889e+06 1.40335 2.22125e-08 0.000360659 214.526 6.31782e+07
0.379084 1.54042 0.0086746 2.06728e-08 4.10369e+06 1.5385 2.06471e-08 0.000325382 260.724 7.45142e+07
0.400522 1.69451 0.0102311 1.92811e-08 4.84176e+06 1.69228 1.92557e-08 0.000293206 318.392 8.78843e+07
0.423172 1.86324 0.0120669 1.79756e-08 5.70705e+06 1.86066 1.79508e-08 0.000263903 388.733 1.03653e+08
0.447103 2.05122 0.014232 1.67786e-08 6.73675e+06 2.04837 1.67553e-08 0.000237253 476.426 1.22252e+08
0.472387 2.26319 0.0167857 1.56961e-08 7.9377e+06 2.25993 1.56735e-08 0.000213051 584.795 1.44188e+08
0.499101 2.49517 0.0197975 1.46724e-08 9.36285e+06 2.49163 1.46515e-08 0.000191102 718.857 1.70059e+08
0.527327 2.75662 0.0233498 1.37437e-08 1.10478e+07 2.7526 1.37236e-08 0.000171224 886.782 2.00573e+08
0.557148 3.05034 0.0275395 1.28945e-08 1.30307e+07 3.04577 1.28751e-08 0.000153245 1096.44 2.36562e+08
0.588655 3.37641 0.0324809 1.21015e-08 1.53619e+07 3.37133 1.20832e-08 0.000137005 1356.89 2.79008e+08
0.621945 3.74227 0.0383089 1.13722e-08 1.81296e+07 3.73638 1.13543e-08 0.000122355 1685.04 3.29071e+08
0.657117 4.1522 0.0451827 1.06983e-08 2.13731e+07 4.14548 1.0681e-08 0.000109156 2094.76 3.88116e+08
0.694278 4.61077 0.0532898 1.00725e-08 2.52109e+07 4.60324 1.00561e-08 9.72796e-05 2610.39 4.57756e+08
0.733541 5.12604 0.0628516 9.49457e-09 2.9726e+07 5.11759 9.47893e-09 8.66058e-05 3258.86 5.39891e+08
0.775024 5.70135 0.0741291 8.95363e-09 3.50739e+07 5.69192 8.93881e-09 7.70247e-05 4077.12 6.36764e+08
0.818852 6.34154 0.0874301 8.44391e-09 4.13576e+07 6.33086 8.42969e-09 6.84347e-05 5102.97 7.51019e+08
0.86516 7.05956 0.103118 7.96992e-09 4.87837e+07 7.04746 7.95627e-09 6.07424e-05 6400.83 8.85775e+08
0.914086 7.85984 0.12162 7.52347e-09 5.75372e+07 7.84621 7.51042e-09 5.3862e-05 8036.81 1.04471e+09
0.965779 8.75137 0.143443 7.10245e-09 6.78547e+07 8.73615 7.0901e-09 4.77149e-05 10100.3 1.23216e+09
1.0204 9.74756 0.16918 6.70742e-09 8.00386e+07 9.73036 6.69559e-09 4.22291e-05 12712.9 1.45325e+09
1.0781 10.8562 0.199537 6.33381e-09 9.43992e+07 10.8368 6.32249e-09 3.73389e-05 16013 1.71401e+09
1.13907 12.0836 0.235339 5.97739e-09 1.11325e+08 12.0619 5.96666e-09 3.29844e-05 20174.2 2.02155e+09
1.20349 13.4481 0.277566 5.64034e-09 1.31307e+08 13.4239 5.63017e-09 2.91111e-05 25441.1 2.38428e+09
1.27154 14.9636 0.32737 5.32115e-09 1.54867e+08 14.9363 5.31147e-09 2.56695e-05 32103 2.81209e+09
1.34345 16.6409 0.38611 5.01735e-09 1.82662e+08 16.6104 5.00815e-09 2.26148e-05 40525.6 3.31666e+09
1.41943 18.5069 0.45539 4.73108e-09 2.15434e+08 18.4726 4.72232e-09 1.99062e-05 51202 3.91177e+09
1.4997 20.5976 0.537101 4.46447e-09 2.54082e+08 20.5589 4.45609e-09 1.75069e-05 64794 4.61366e+09
1.58451 22.9565 0.633473 4.21878e-09 2.99691e+08 22.9127 4.21074e-09 1.53838e-05 82185.8 5.4415e+09
1.67412 25.6502 0.747138 3.99668e-09 3.53444e+08 25.5996 3.98881e-09 1.35069e-05 104584 6.41786e+09
1.76879 28.8252 0.881197 3.80811e-09 4.16883e+08 28.7657 3.80025e-09 1.18493e-05 133977 7.56942e+09
1.86882 32.7068 1.03931 3.66356e-09 4.91657e+08 32.6342 3.65543e-09 1.03867e-05 173415 8.92761e+09
1.9745 37.7351 1.22579 3.58375e-09 5.79899e+08 37.6419 3.5749e-09 9.09749e-06 228438 1.05295e+10
2.08616 44.7649 1.44574 3.6046e-09 6.83936e+08 44.6365 3.59427e-09 7.96208e-06 309633 1.24188e+10
2.20414 49.8825 1.70515 3.40562e-09 1.99573e+06 53.3365 3.64143e-09 6.96304e-06 976.112 1.46471e+10
2.32879 0 2.0111 0 0 0 0 6.08479e-06 0 1.72752e+10
2.46049 0 2.37196 0 0 0 0 5.3134e-06 0 2.03749e+10
2.59963 0 2.79756 0 0 0 0 4.63644e-06 0 2.40308e+10
2.74664 0 3.29952 0 0 0 0 4.04286e-06 0 2.83427e+10
2.90197 0 3.89156 0 0 0 0 3.52282e-06 0 3.34282e+10
3.06608 0 4.58982 0 0 0 0 3.06758e-06 0 3.94263e+10
3.23947 0 5.41337 0 0 0 0 2.66939e-06 0 4.65005e+10
3.42267 0 6.38469 0 0 0 0 2.32136e-06 0 5.48441e+10
3.61623 0 7.5303 0 0 0 0 2.01741e-06 0 6.46848e+10
3.82073 0 8.88147 0 0 0 0 1.75215e-06 0 7.62912e+10
4.0368 0 10.4751 0 0 0 0 1.52084e-06 0 8.99802e+10
4.26509 0 12.3546 0 0 0 0 1.31927e-06 0 1.06125e+11
4.50629 0 14.5714 0 0 0 0 1.14374e-06 0 1.25167e+11
4.76113 0 17.186 0 0 0 0 9.90997e-07 0 1.47626e+11
5.03038 0 20.2696 0 0 0 0 8.58167e-07 0 1.74115e+11
5.31485 0 23.9066 0 0 0 0 7.42731e-07 0 2.05356e+11
5.61542 0 28.1962 0 0 0 0 6.42478e-07 0 2.42204e+11
5.93298 0 33.2555 0 0 0 0 5.55464e-07 0 2.85662e+11
6.2685 0 39.2225 0 0 0 0 4.79988e-07 0 3.36919e+11
6.62299 0 46.2602 0 0 0 0 4.1456e-07 0 3.97372e+11
6.99754 0 54.5607 0 0 0 0 3.57875e-07 0 4.68673e+11
7.39326 0 64.3505 0 0 0 0 3.08793e-07 0 5.52767e+11
7.81136 0 75.8969 0 0 0 0 2.66319e-07 0 6.5195e+11
8.25311 0 89.5151 0 0 0 0 2.29582e-07 0 7.68929e+11
8.71983 0 105.577 0 0 0 0 1.97824e-07 0 9.06898e+11
9.21295 0 124.521 0 0 0 0 1.70386e-07 0 1.06962e+12
9.73396 0 146.863 0 0 0 0 1.46692e-07 0 1.26155e+12
10.2844 0 173.215 0 0 0 0 1.2624e-07 0 1.48791e+12
10.866 0 204.295 0 0 0 0 1.08596e-07 0 1.75488e+12
11.4805 0 240.952 0 0 0 0 9.33817e-08 0 2.06976e+12
12.1298 0 284.186 0 0 0 0 8.02681e-08 0 2.44114e+12
12.8157 0 335.177 0 0 0 0 6.89705e-08 0 2.87915e+12
13.5405 0 395.318 0 0 0 0 5.92414e-08 0 3.39576e+12
14.3062 0 466.25 0 0 0 0 5.08668e-08 0 4.00506e+12
15.1153 0 549.91 0 0 0 0 4.36611e-08 0 4.72369e+12
15.9701 0 648.58 0 0 0 0 3.74635e-08 0 5.57126e+12
16.8732 0 764.955 0 0 0 0 3.21352e-08 0 6.57091e+12
17.8274 0 902.211 0 0 0 0 2.7556e-08 0 7.74994e+12
18.8356 0 1064.1 0 0 0 0 2.3622e-08 0 9.14051e+12
19.9008 0 1255.03 0 0 0 0 2.02435e-08 0 1.07806e+13
21.0262 0 1480.22 0 0 0 0 1.73432e-08 0 1.2715e+13
22.2152 0 1745.81 0 0 0 0 1.48541e-08 0 1.49964e+13
23.4716 0 2059.06 0 0 0 0 1.27187e-08 0 1.76872e+13
24.7989 0 2428.52 0 0 0 0 1.08874e-08 0 2.08608e+13
26.2013 0 2864.27 0 0 0 0 9.31732e-09 0 2.46039e+13
27.6831 0 3378.21 0 0 0 0 7.97161e-09 0 2.90186e+13
29.2486 0 3984.36 0 0 0 0 6.81857e-09 0 3.42254e+13
30.9026 0 4699.28 0 0 0 0 5.83089e-09 0 4.03665e+13
32.6502 0 5542.47 0 0 0 0 4.9851e-09 0 4.76094e+13
34.4967 0 6536.95 0 0 0 0 4.26103e-09 0 5.6152e+13
36.4475 0 7709.88 0 0 0 0 3.64131e-09 0 6.62274e+13
38.5087 0 9093.27 0 0 0 0 3.11104e-09 0 7.81106e+13
40.6864 0 10724.9 0 0 0 0 2.65744e-09 0 9.2126e+13
42.9873 0 12649.2 0 0 0 0 2.26951e-09 0 1.08656e+14
45.4183 0 14918.9 0 0 0 0 1.93782e-09 0 1.28152e+14
47.9868 0 17595.8 0 0 0 0 1.65429e-09 0 1.51147e+14
50.7005 0 20753 0 0 0 0 1.41197e-09 0 1.78267e+14
53.5677 0 24476.7 0 0 0 0 1.20493e-09 0 2.10254e+14
56.5971 0 28868.6 0 0 0 0 1.02806e-09 0 2.47979e+14
59.7977 0 34048.5 0 0 0 0 8.77005e-10 0 2.92474e+14
63.1794 0 40157.8 0 0 0 0 7.48017e-10 0 3.44953e+14
66.7523 0 47363.4 0 0 0 0 6.37895e-10 0 4.06848e+14
70.5272 0 55861.8 0 0 0 0 5.43899e-10 0 4.79849e+14
74.5157 0 65885.1 0 0 0 0 4.63681e-10 0 5.65949e+14
78.7297 0 77706.9 0 0 0 0 3.95235e-10 0 6.67497e+14
83.182 0 91649.8 0 0 0 0 3.36843e-10 0 7.87266e+14
87.8861 0 108095 0 0 0 0 2.87037e-10 0 9.28526e+14
92.8562 0 127490 0 0 0 0 2.44561e-10 0 1.09513e+15
98.1073 0 150366 0 0 0 0 2.08343e-10 0 1.29163e+15
103.655 0 177346 0 0 0 0 1.77465e-10 0 1.52339e+15
109.517 0 209167 0 0 0 0 1.51145e-10 0 1.79673e+15
115.711 0 246698 0 0 0 0 1.28712e-10 0 2.11912e+15
122.254 0 290963 0 0 0 0 1.09595e-10 0 2.49935e+15
