0.169885
200
2.30148e+11
8589934592
0.0021528 0 1.58875e-09 0 0 0 0 0.00197275 0 13.6473
0.00227455 0 1.87382e-09 0 0 0 0 0.00207247 0 16.096
0.00240318 0 2.21004e-09 0 0 0 0 0.00217643 0 18.9841
0.00253908 0 2.60659e-09 0 0 0 0 0.00228471 0 22.3904
0.00268267 0 3.07429e-09 0 0 0 0 0.00239737 0 26.408
0.00283438 0 3.62591e-09 0 0 0 0 0.00251449 0 31.1464
0.00299467 0 4.27651e-09 0 0 0 0 0.00263608 0 36.735
0.00316402 0 5.04385e-09 0 0 0 0 0.00276218 0 43.3263
0.00334295 0 5.94887e-09 0 0 0 0 0.00289278 0 51.1004
0.003532 0 7.01627e-09 0 0 0 0 0.00302786 0 60.2693
0.00373174 0 8.27521e-09 0 0 0 0 0.00316735 0 71.0835
0.00394278 0 9.76003e-09 0 0 0 0 0.00331119 0 83.838
0.00416575 0 1.15113e-08 0 0 0 0 0.00345926 0 98.8811
0.00440133 0 1.35767e-08 0 0 0 0 0.00361139 0 116.623
0.00465023 0 1.60128e-08 0 0 0 0 0.00376739 0 137.549
0.00491321 0 1.8886e-08 0 0 0 0 0.00392704 0 162.23
0.00519106 0 2.22747e-08 0 0 0 0 0.00409003 0 191.338
0.00548462 0 2.62715e-08 0 0 0 0 0.00425603 0 225.67
0.00579479 0 3.09854e-08 0 0 0 0 0.00442465 0 266.162
0.00612249 0 3.65451e-08 0 0 0 0 0.00459545 0 313.92
0.00646873 0 4.31024e-08 0 0 0 0 0.00476791 0 370.247
0.00683455 0 5.08363e-08 0 0 0 0 0.00494148 0 436.68
0.00722105 0 5.99579e-08 0 0 0 0 0.00511552 0 515.034
0.00762942 0 7.07161e-08 0 0 0 0 0.00528933 0 607.447
0.00806087 0 8.34047e-08 0 0 0 0 0.00546217 0 716.441
0.00851673 0 9.837e-08 0 0 0 0 0.00563323 0 844.992
0.00899837 0 1.16021e-07 0 0 0 0 0.00580162 0 996.609
0.00950724 0 1.36838e-07 0 0 0 0 0.00596643 0 1175.43
0.0100449 0 1.61391e-07 0 0 0 0 0.00612667 0 1386.34
0.0106129 0 1.9035e-07 0 0 0 0 0.00628133 0 1635.09
0.0112131 0 2.24504e-07 0 0 0 0 0.00642937 0 1928.48
0.0118472 0 2.64787e-07 0 0 0 0 0.0065697 0 2274.5
0.0125172 0 3.12298e-07 0 0 0 0 0.00670125 0 2682.62
0.0132251 0 3.68333e-07 0 0 0 0 0.00682292 0 3163.96
0.013973 0 4.34423e-07 0 0 0 0 0.00693364 0 3731.67
0.0147632 0 5.12372e-07 0 0 0 0 0.00703238 0 4401.24
0.0155981 0 6.04307e-07 0 0 0 0 0.00711814 0 5190.96
0.0164802 0 7.12738e-07 0 0 0 0 0.00718999 0 6122.38
0.0174122 0 8.40625e-07 0 0 0 0 0.00724706 0 7220.91
0.0183969 0 9.91459e-07 0 0 0 0 0.0072886 0 8516.57
0.0194372 0 1.16936e-06 0 0 0 0 0.00731397 0 10044.7
0.0205364 0 1.37917e-06 0 0 0 0 0.00732263 0 11847
0.0216978 0 1.62664e-06 0 0 0 0 0.0073142 0 13972.7
0.0229249 0 1.91851e-06 0 0 0 0 0.00728845 0 16479.9
0.0242213 0 2.26275e-06 0 0 0 0 0.00724528 0 19436.8
0.025591 0 2.66875e-06 0 0 0 0 0.00718478 0 22924.4
0.0270383 0 3.14761e-06 0 0 0 0 0.0071072 0 27037.7
0.0285673 0 3.71238e-06 0 0 0 0 0.00701294 0 31889.1
0.0301829 0 4.3785e-06 0 0 0 0 0.00690256 0 37611
0.0318897 0 5.16413e-06 0 0 0 0 0.00677679 0 44359.6
0.0336932 0 6.09073e-06 0 0 0 0 0.00663647 0 52319
0.0355986 0 7.1836e-06 0 0 0 0 0.00648261 0 61706.6
0.0376117 0 8.47255e-06 0 0 0 0 0.00631629 0 72778.6
0.0397387 0 9.99278e-06 0 0 0 0 0.00613872 0 85837.3
0.041986 0 1.17858e-05 0 0 0 0 0.00595116 0 101239
0.0443604 0 1.39005e-05 0 0 0 0 0.00575493 0 119405
0.0468691 0 1.63947e-05 0 0 0 0 0.00555141 0 140829
0.0495196 0 1.93364e-05 0 0 0 0 0.00534196 0 166098
0.05232 0 2.28059e-05 0 0 0 0 0.00512796 0 195901
0.0552788 0 2.6898e-05 0 0 0 0 0.00491076 0 231052
0.0584049 0 3.17243e-05 0 0 0 0 0.00469167 0 272510
0.0617078 0 3.74166e-05 0 0 0 0 0.00447196 0 321406
0.0651975 0 4.41303e-05 0 0 0 0 0.0042528 0 379076
0.0688845 0.3624 5.20486e-05 8.10567e-07 6 0.372115 8.32296e-07 0.00403532 0.00120521 447094
0.0727801 0 6.13877e-05 0 0 0 0 0.00382053 0 527316
0.0768959 0 7.24025e-05 0 0 0 0 0.00360937 0 621933
0.0812445 0 8.53937e-05 0 0 0 0 0.00340268 0 733526
0.085839 0 0.000100716 0 0 0 0 0.00320119 0 865143
0.0906933 0 0.000118787 0 0 0 0 0.00300554 0 1.02038e+06
0.0958222 3.98518 0.000140101 3.31143e-06 12 4.03761 3.35499e-06 0.00281625 0.01411 1.20346e+06
0.101241 0 0.00016524 0 0 0 0 0.00263378 0 1.4194e+06
0.106966 0 0.000194889 0 0 0 0 0.00245848 0 1.67408e+06
0.113016 8.99742 0.000229858 4.55689e-06 8 8.68717 4.39976e-06 0.0022906 0.0159151 1.97446e+06
0.119407 0 0.000271101 0 0 0 0 0.00213033 0 2.32874e+06
0.126159 0 0.000319745 0 0 0 0 0.00197778 0 2.74659e+06
0.133294 0.0531879 0.000377117 1.6419e-08 6 0.0527735 1.62911e-08 0.00183298 5.37452e-05 3.23941e+06
0.140832 0 0.000444783 0 0 0 0 0.00169593 0 3.82066e+06
0.148796 0.152918 0.000524591 3.39351e-08 24 0.151333 3.35833e-08 0.00156653 0.000519902 4.5062e+06
0.157211 0 0.000618719 0 0 0 0 0.00144468 0 5.31475e+06
0.166102 1.02941 0.000729735 1.64222e-07 24 1.04781 1.67158e-07 0.0013302 0.00296297 6.26838e+06
0.175495 0 0.000860672 0 0 0 0 0.0012229 0 7.39312e+06
0.185419 1.25319 0.0010151 1.4372e-07 12 1.21031 1.38803e-07 0.00112256 0.00153634 8.71966e+06
0.195905 1.12964 0.00119724 1.09842e-07 30 1.08357 1.05362e-07 0.00102893 0.00320262 1.02842e+07
0.206984 4.47909 0.00141206 3.69271e-07 24 4.30988 3.55321e-07 0.000941736 0.00941082 1.21295e+07
0.218689 7.48968 0.00166543 5.23536e-07 24 7.29073 5.09629e-07 0.000860706 0.0145983 1.43059e+07
0.231057 26.7685 0.00196426 1.58648e-06 8 26.5546 1.5738e-06 0.00078555 0.0161567 1.68729e+07
0.244123 0.323 0.00231671 1.62309e-08 72 0.310241 1.55897e-08 0.000715973 0.00163222 1.99004e+07
0.257929 0 0.0027324 0 0 0 0 0.000651679 0 2.34711e+07
0.272515 0.264507 0.00322267 9.555e-09 54 0.258255 9.32917e-09 0.000592374 0.00087102 2.76825e+07
0.287926 0.991738 0.00380091 3.03752e-08 60 0.979329 2.99951e-08 0.000537765 0.00338905 3.26496e+07
0.304209 0.185402 0.00448291 4.81464e-09 72 0.184208 4.78365e-09 0.000487565 0.000710991 3.85079e+07
0.321413 0.593537 0.00528728 1.30685e-08 48 0.576385 1.26908e-08 0.000441493 0.00142083 4.54174e+07
0.339589 3.11344 0.00623598 5.81227e-08 134 3.02151 5.64065e-08 0.000399279 0.0195063 5.35667e+07
0.358793 0.266825 0.00735491 4.22338e-09 120 0.258992 4.09938e-09 0.000360659 0.00140522 6.31782e+07
0.379084 0.322582 0.0086746 4.32914e-09 60 0.315361 4.23222e-09 0.000325382 0.000798287 7.45142e+07
0.400522 0.995467 0.0102311 1.1327e-08 150 1.01451 1.15437e-08 0.000293206 0.00579473 8.78843e+07
0.423172 0.710049 0.0120669 6.85022e-09 240 0.710628 6.85581e-09 0.000263903 0.00622977 1.03653e+08
0.447103 3.22125 0.014232 2.63493e-08 168 3.25381 2.66156e-08 0.000237253 0.018658 1.22252e+08
0.472387 3.59222 0.0167857 2.49135e-08 218 3.56905 2.47528e-08 0.000213051 0.0254922 1.44188e+08
0.499101 0.417421 0.0197975 2.45456e-09 288 0.414714 2.43864e-09 0.000191102 0.00369914 1.70059e+08
0.527327 0.399247 0.0233498 1.99053e-09 342 0.412218 2.0552e-09 0.000171224 0.00397585 2.00573e+08
0.557148 0.152844 0.0275395 6.46106e-10 396 0.152489 6.44605e-10 0.000153245 0.0016696 2.36562e+08
0.588655 0.515076 0.0324809 1.84609e-09 470 0.521717 1.8699e-09 0.000137005 0.00633307 2.79008e+08
0.621945 1.40766 0.0383089 4.27768e-09 624 1.45655 4.42624e-09 0.000122355 0.0218157 3.29071e+08
0.657117 0.367944 0.0451827 9.48024e-10 642 0.376818 9.7089e-10 0.000109156 0.00557577 3.88116e+08
0.694278 1.54781 0.0532898 3.3813e-09 704 1.55146 3.38928e-09 9.72796e-05 0.02447 4.57756e+08
0.733541 1.09879 0.0628516 2.0352e-09 990 1.07452 1.99026e-09 8.66058e-05 0.0232646 5.39891e+08
0.775024 0.608223 0.0741291 9.55177e-10 1044 0.602693 9.46494e-10 7.70247e-05 0.0129466 6.36764e+08
0.818852 0.270638 0.0874301 3.60361e-10 1214 0.270211 3.59793e-10 6.84347e-05 0.00639263 7.51019e+08
0.86516 1.15914 0.103118 1.30862e-09 1506 1.12746 1.27285e-09 6.07424e-05 0.0324449 8.85775e+08
0.914086 0.380929 0.12162 3.64627e-10 1718 0.382568 3.66195e-10 5.3862e-05 0.0116302 1.04471e+09
0.965779 0.880465 0.143443 7.14569e-10 2100 0.896427 7.27524e-10 4.77149e-05 0.0314492 1.23216e+09
1.0204 0.917929 0.16918 6.31639e-10 2354 0.928301 6.38776e-10 4.22291e-05 0.0352098 1.45325e+09
1.0781 0.1956 0.199537 1.14119e-10 2982 0.197012 1.14942e-10 3.73389e-05 0.00911388 1.71401e+09
1.13907 0.718408 0.235339 3.55375e-10 3386 0.710145 3.51287e-10 3.29844e-05 0.0364809 2.02155e+09
1.20349 0.614115 0.277566 2.57569e-10 3858 0.60222 2.5258e-10 2.91111e-05 0.0341348 2.38428e+09
1.27154 0.643279 0.32737 2.28755e-10 4910 0.637875 2.26833e-10 2.56695e-05 0.0437556 2.81209e+09
1.34345 0.272624 0.38611 8.21984e-11 5346 0.272829 8.22599e-11 2.26148e-05 0.0194312 3.31666e+09
1.41943 0.60725 0.45539 1.55237e-10 6698 0.614805 1.57168e-10 1.99062e-05 0.0522338 3.91177e+09
1.4997 0.539149 0.537101 1.16859e-10 7736 0.54179 1.17432e-10 1.75069e-05 0.0516381 4.61366e+09
1.58451 0.499125 0.633473 9.17257e-11 9362 0.51248 9.418e-11 1.53838e-05 0.0558208 5.4415e+09
1.67412 0.45522 0.747138 7.09301e-11 10770 0.451994 7.04276e-11 1.35069e-05 0.0565576 6.41786e+09
1.76879 0.662607 0.881197 8.75373e-11 12584 0.65559 8.66103e-11 1.18493e-05 0.0929651 7.56942e+09
1.86882 0.354721 1.03931 3.9733e-11 15146 0.352961 3.9536e-11 1.03867e-05 0.0579389 8.92761e+09
1.9745 0.557807 1.22579 5.29757e-11 17744 0.554907 5.27003e-11 9.09749e-06 0.103325 1.05295e+10
2.08616 0.446782 1.44574 3.59762e-11 20570 0.448032 3.60769e-11 7.96208e-06 0.0929445 1.24188e+10
2.20414 0.426457 1.70515 2.91155e-11 24872 0.425711 2.90645e-11 6.96304e-06 0.104 1.46471e+10
2.32879 0.562151 2.0111 3.25408e-11 29132 0.563463 3.26168e-11 6.08479e-06 0.155795 1.72752e+10
2.46049 0.487512 2.37196 2.3927e-11 34136 0.48437 2.37728e-11 5.3134e-06 0.15372 2.03749e+10
2.59963 0.615554 2.79756 2.56152e-11 40372 0.616669 2.56616e-11 4.63644e-06 0.223045 2.40308e+10
2.74664 0.66907 3.29952 2.36064e-11 47702 0.661912 2.33539e-11 4.04286e-06 0.278534 2.83427e+10
2.90197 0.785334 3.89156 2.34931e-11 56012 0.782307 2.34026e-11 3.52282e-06 0.373535 3.34282e+10
3.06608 1.11975 4.58982 2.84011e-11 66322 1.11325 2.82362e-11 3.06758e-06 0.61404 3.94263e+10
3.23947 1.53912 5.41337 3.30989e-11 77876 1.53239 3.29543e-11 2.66939e-06 0.96562 4.65005e+10
3.42267 2.31049 6.38469 4.21284e-11 92650 2.29793 4.18993e-11 2.32136e-06 1.68143 5.48441e+10
3.61623 3.53927 7.5303 5.47156e-11 108250 3.51376 5.43212e-11 2.01741e-06 2.93593 6.46848e+10
3.82073 4.68478 8.88147 6.14065e-11 128258 4.65479 6.10134e-11 1.75215e-06 4.49497 7.62912e+10
4.0368 5.87417 10.4751 6.52829e-11 151594 5.87006 6.52373e-11 1.52084e-06 6.50725 8.99802e+10
4.26509 7.48653 12.3546 7.05442e-11 178516 7.46568 7.03477e-11 1.31927e-06 9.54562 1.06125e+11
4.50629 8.0872 14.5714 6.46111e-11 209896 8.06361 6.44226e-11 1.14374e-06 11.8572 1.25167e+11
4.76113 9.5375 17.186 6.46057e-11 248076 9.52093 6.44935e-11 9.90997e-07 16.1727 1.47626e+11
5.03038 11.2722 20.2696 6.474e-11 292420 11.2414 6.45633e-11 8.58167e-07 22.0601 1.74115e+11
5.31485 13.3984 23.9066 6.52448e-11 345804 13.3599 6.5057e-11 7.42731e-07 30.3769 2.05356e+11
5.61542 15.7617 28.1962 6.50764e-11 406714 15.7157 6.48862e-11 6.42478e-07 41.196 2.42204e+11
5.93298 18.1657 33.2555 6.35917e-11 479520 18.1256 6.34513e-11 5.55464e-07 54.8973 2.85662e+11
6.2685 20.7771 39.2225 6.16679e-11 566472 20.7314 6.15325e-11 4.79988e-07 72.7792 3.36919e+11
6.62299 23.8804 46.2602 6.00959e-11 668454 23.8198 5.99432e-11 4.1456e-07 96.9011 3.97372e+11
6.99754 27.8439 54.5607 5.94101e-11 787572 27.7615 5.92343e-11 3.57875e-07 130.743 4.68673e+11
7.39326 32.6801 64.3505 5.91209e-11 930080 32.5779 5.8936e-11 3.08793e-07 178.071 5.52767e+11
7.81136 38.8129 75.8969 5.95336e-11 1.09432e+06 38.6917 5.93477e-11 2.66319e-07 244.628 6.5195e+11
8.25311 46.2994 89.5151 6.02128e-11 1.29162e+06 46.164 6.00367e-11 2.29582e-07 338.756 7.68929e+11
8.71983 55.0556 105.577 6.07076e-11 1.52605e+06 54.8899 6.05249e-11 1.97824e-07 468.31 9.06898e+11
9.21295 64.8325 124.521 6.06124e-11 1.79721e+06 64.6402 6.04326e-11 1.70386e-07 639.332 1.06962e+12
9.73396 76.2341 146.863 6.04291e-11 2.12116e+06 76.0034 6.02463e-11 1.46692e-07 873.805 1.26155e+12
10.2844 89.602 173.215 6.02202e-11 2.49914e+06 89.3293 6.00369e-11 1.2624e-07 1192.16 1.48791e+12
10.866 105.468 204.295 6.00995e-11 2.94919e+06 105.152 5.992e-11 1.08596e-07 1632.15 1.75488e+12
11.4805 124.622 240.952 6.02107e-11 3.47939e+06 124.249 6.00304e-11 9.33817e-08 2243.44 2.06976e+12
12.1298 146.885 284.186 6.01708e-11 4.1004e+06 146.443 5.99899e-11 8.02681e-08 3073.75 2.44114e+12
12.8157 173.509 335.177 6.02638e-11 4.84282e+06 172.98 6.00804e-11 6.89705e-08 4231.47 2.87915e+12
13.5405 204.383 395.318 6.01878e-11 5.70611e+06 203.755 6.00028e-11 5.92414e-08 5797.27 3.39576e+12
14.3062 240.866 466.25 6.01404e-11 6.73072e+06 240.131 5.9957e-11 5.08668e-08 7957.8 4.00506e+12
15.1153 284.221 549.91 6.01693e-11 7.93789e+06 283.363 5.99877e-11 4.36611e-08 10939.2 4.72369e+12
15.9701 335.169 648.58 6.01604e-11 9.3654e+06 334.138 5.99753e-11 3.74635e-08 15039.3 5.57126e+12
16.8732 395.615 764.955 6.02069e-11 1.10411e+07 394.387 6.002e-11 3.21352e-08 20686.1 6.57091e+12
17.8274 466.692 902.211 6.02188e-11 1.30294e+07 465.258 6.00338e-11 2.7556e-08 28473.5 7.74994e+12
18.8356 550.068 1064.1 6.01791e-11 1.53594e+07 548.327 5.99887e-11 2.3622e-08 39129.4 9.14051e+12
19.9008 649.127 1255.03 6.02125e-11 1.81236e+07 647.084 6.0023e-11 2.02435e-08 53907 1.07806e+13
21.0262 766.153 1480.22 6.0256e-11 2.13681e+07 763.736 6.00659e-11 1.73432e-08 74240.2 1.2715e+13
22.2152 903.839 1745.81 6.02704e-11 2.52005e+07 900.991 6.00805e-11 1.48541e-08 102251 1.49964e+13
23.4716 1066.96 2059.06 6.03236e-11 2.97255e+07 1063.6 6.0134e-11 1.27187e-08 140985 1.76872e+13
24.7989 1259.41 2428.52 6.03718e-11 3.50616e+07 1255.41 6.018e-11 1.08874e-08 194420 2.08608e+13
26.2013 1488.23 2864.27 6.04876e-11 4.13531e+07 1483.57 6.02982e-11 9.31732e-09 268462 2.46039e+13
27.6831 1755.14 3378.21 6.04832e-11 4.87711e+07 1749.56 6.02909e-11 7.97161e-09 370042 2.90186e+13
29.2486 2221.52 3984.36 6.49084e-11 5.75255e+07 2204.26 6.44041e-11 6.81857e-09 547606 3.42254e+13
30.9026 2450.51 4699.28 6.07066e-11 6.78404e+07 2442.69 6.05129e-11 5.83089e-09 706300 4.03665e+13
32.6502 2897.15 5542.47 6.08524e-11 8.0018e+07 2887.83 6.06567e-11 4.9851e-09 976767 4.76094e+13
34.4967 3544.96 6536.95 6.31315e-11 9.43754e+07 3535.72 6.29669e-11 4.26103e-09 1.39827e+06 5.6152e+13
36.4475 4055.82 7709.88 6.12409e-11 1.11311e+08 4042.68 6.10424e-11 3.64131e-09 1.87206e+06 6.62274e+13
38.5087 4875.99 9093.27 6.24243e-11 1.31285e+08 4859.78 6.22166e-11 3.11104e-09 2.63427e+06 7.81106e+13
40.6864 5701.5 10724.9 6.18881e-11 1.54822e+08 5682.8 6.16851e-11 2.65744e-09 3.60558e+06 9.2126e+13
42.9873 6808.32 12649.2 6.26593e-11 1.82627e+08 6786.02 6.24541e-11 2.26951e-09 5.0422e+06 1.08656e+14
45.4183 8071.2 14918.9 6.29813e-11 2.1538e+08 8044.07 6.27695e-11 1.93782e-09 7.00008e+06 1.28152e+14
47.9868 9741.07 17595.8 6.44477e-11 2.54026e+08 9712.89 6.42613e-11 1.65429e-09 9.89637e+06 1.51147e+14
50.7005 11627.6 20753 6.52258e-11 2.99614e+08 11585 6.49868e-11 1.41197e-09 1.38406e+07 1.78267e+14
53.5677 13979.7 24476.7 6.64898e-11 3.53368e+08 13929.7 6.62517e-11 1.20493e-09 1.94994e+07 2.10254e+14
56.5971 17070.6 28868.6 6.88388e-11 4.16783e+08 17009.3 6.85918e-11 1.02806e-09 2.79077e+07 2.47979e+14
59.7977 20995.5 34048.5 7.17857e-11 4.91558e+08 20913.4 7.1505e-11 8.77005e-10 4.02356e+07 2.92474e+14
63.1794 26320.1 40157.8 7.63004e-11 5.79769e+08 26208.5 7.5977e-11 7.48017e-10 5.91385e+07 3.44953e+14
66.7523 33695.1 47363.4 8.28197e-11 6.8378e+08 33542.8 8.24454e-11 6.37895e-10 8.8777e+07 4.06848e+14
70.5272 38349.5 55861.8 7.99198e-11 3.00349e+06 41518.7 8.65244e-11 5.43899e-10 441330 4.79849e+14
74.5157 0 65885.1 0 0 0 0 4.63681e-10 0 5.65949e+14
78.7297 0 77706.9 0 0 0 0 3.95235e-10 0 6.67497e+14
83.182 0 91649.8 0 0 0 0 3.36843e-10 0 7.87266e+14
87.8861 0 108095 0 0 0 0 2.87037e-10 0 9.28526e+14
92.8562 0 127490 0 0 0 0 2.44561e-10 0 1.09513e+15
98.1073 0 150366 0 0 0 0 2.08343e-10 0 1.29163e+15
103.655 0 177346 0 0 0 0 1.77465e-10 0 1.52339e+15
109.517 0 209167 0 0 0 0 1.51145e-10 0 1.79673e+15
115.711 0 246698 0 0 0 0 1.28712e-10 0 2.11912e+15
122.254 0 290963 0 0 0 0 1.09595e-10 0 2.49935e+15
0.169885
200
2.30148e+11
8589934592
0.0021528 1.39375e-07 1.58875e-09 1.02127e-08 6 1.35963e-07 9.96263e-09 0.00197275 3.10612e-05 13.6473
0.00227455 0 1.87382e-09 0 0 0 0 0.00207247 0 16.096
0.00240318 0 2.21004e-09 0 0 0 0 0.00217643 0 18.9841
0.00253908 0 2.60659e-09 0 0 0 0 0.00228471 0 22.3904
0.00268267 0 3.07429e-09 0 0 0 0 0.00239737 0 26.408
0.00283438 0 3.62591e-09 0 0 0 0 0.00251449 0 31.1464
0.00299467 3.96332e-07 4.27651e-09 1.0789e-08 12 3.92624e-07 1.0688e-08 0.00263608 4.91137e-05 36.735
0.00316402 0 5.04385e-09 0 0 0 0 0.00276218 0 43.3263
0.00334295 0 5.94887e-09 0 0 0 0 0.00289278 0 51.1004
0.003532 4.43849e-07 7.01627e-09 7.36443e-09 8 4.53696e-07 7.52781e-09 0.00302786 1.94578e-05 60.2693
0.00373174 0 8.27521e-09 0 0 0 0 0.00316735 0 71.0835
0.00394278 0 9.76003e-09 0 0 0 0 0.00331119 0 83.838
0.00416575 3.4591e-06 1.15113e-08 3.49824e-08 6 3.47417e-06 3.51349e-08 0.00345926 6.06762e-05 98.8811
0.00440133 0 1.35767e-08 0 0 0 0 0.00361139 0 116.623
0.00465023 2.50411e-06 1.60128e-08 1.82052e-08 24 2.51761e-06 1.83034e-08 0.00376739 0.000115976 137.549
0.00491321 0 1.8886e-08 0 0 0 0 0.00392704 0 162.23
0.00519106 5.21386e-06 2.22747e-08 2.72494e-08 24 5.16897e-06 2.70148e-08 0.00409003 0.000159898 191.338
0.00548462 0 2.62715e-08 0 0 0 0 0.00425603 0 225.67
0.00579479 8.62602e-06 3.09854e-08 3.24089e-08 12 8.75889e-06 3.29081e-08 0.00442465 8.78953e-05 266.162
0.00612249 8.30753e-06 3.65451e-08 2.64638e-08 30 8.45405e-06 2.69306e-08 0.00459545 0.000172761 313.92
0.00646873 1.08956e-05 4.31024e-08 2.94278e-08 24 1.10653e-05 2.98863e-08 0.00476791 0.000148129 370.247
0.00683455 7.48605e-06 5.08363e-08 1.71431e-08 24 7.56377e-06 1.73211e-08 0.00494148 8.32614e-05 436.68
0.00722105 1.69338e-05 5.99579e-08 3.28789e-08 8 1.69832e-05 3.29748e-08 0.00511552 5.14183e-05 515.034
0.00762942 2.37667e-05 7.07161e-08 3.91256e-08 72 2.40028e-05 3.95142e-08 0.00528933 0.000532589 607.447
0.00806087 0 8.34047e-08 0 0 0 0 0.00546217 0 716.441
0.00851673 4.18613e-05 9.837e-08 4.95405e-08 54 4.20752e-05 4.97936e-08 0.00563323 0.000474894 844.992
0.00899837 3.44913e-05 1.16021e-07 3.46086e-08 60 3.44945e-05 3.46118e-08 0.00580162 0.00035792 996.609
0.00950724 3.6998e-05 1.36838e-07 3.14761e-08 72 3.70082e-05 3.14848e-08 0.00596643 0.000379838 1175.43
0.0100449 4.46794e-05 1.61391e-07 3.22283e-08 48 4.46667e-05 3.22192e-08 0.00612667 0.000252496 1386.34
0.0106129 8.41958e-05 1.9035e-07 5.14931e-08 134 8.43931e-05 5.16137e-08 0.00628133 0.0010985 1635.09
0.0112131 8.56482e-05 2.24504e-07 4.44124e-08 120 8.60273e-05 4.4609e-08 0.00642937 0.000828929 1928.48
0.0118472 9.67011e-05 2.64787e-07 4.25153e-08 60 9.70631e-05 4.26744e-08 0.0065697 0.000388285 2274.5
0.0125172 0.000124572 3.12298e-07 4.64367e-08 150 0.000124395 4.63709e-08 0.00670125 0.00103943 2682.62
0.0132251 0.000147198 3.68333e-07 4.65233e-08 240 0.000147412 4.6591e-08 0.00682292 0.00163648 3163.96
0.013973 0.000145598 4.34423e-07 3.90169e-08 168 0.0001457 3.90441e-08 0.00693364 0.000945367 3731.67
0.0147632 0.000183619 5.12372e-07 4.17199e-08 218 0.000183796 4.17599e-08 0.00703238 0.00129329 4401.24
0.0155981 0.000251812 6.04307e-07 4.85097e-08 288 0.000251651 4.84787e-08 0.00711814 0.0019627 5190.96
0.0164802 0.000271798 7.12738e-07 4.43941e-08 342 0.000271751 4.43865e-08 0.00718999 0.00211166 6122.38
0.0174122 0.000328243 8.40625e-07 4.54572e-08 396 0.000328113 4.54393e-08 0.00724706 0.00248391 7220.91
0.0183969 0.000344715 9.91459e-07 4.04758e-08 470 0.00034465 4.04682e-08 0.0072886 0.00261005 8516.57
0.0194372 0.000441831 1.16936e-06 4.39865e-08 672 0.000441858 4.39891e-08 0.00731397 0.00404144 10044.7
0.0205364 0.00050132 1.37917e-06 4.23162e-08 594 0.000501264 4.23114e-08 0.00732263 0.00343262 11847
0.0216978 0.000658273 1.62664e-06 4.71112e-08 704 0.000658149 4.71024e-08 0.0073142 0.00453451 13972.7
0.0229249 0.000659182 1.91851e-06 3.99992e-08 990 0.000659065 3.99922e-08 0.00728845 0.00543315 16479.9
0.0242213 0.000764127 2.26275e-06 3.93133e-08 1044 0.000763815 3.92973e-08 0.00724528 0.0056648 19436.8
0.025591 0.00095079 2.66875e-06 4.1475e-08 1214 0.000950529 4.14636e-08 0.00718478 0.00700796 22924.4
0.0270383 0.00102156 3.14761e-06 3.77826e-08 1506 0.0010213 3.77731e-08 0.0071072 0.00800605 27037.7
0.0285673 0.00127569 3.71238e-06 4.00038e-08 1718 0.00127507 3.99845e-08 0.00701294 0.00979996 31889.1
0.0301829 0.00125793 4.3785e-06 3.34458e-08 2100 0.00125798 3.3447e-08 0.00690256 0.0101754 37611
0.0318897 0.00153145 5.16413e-06 3.45236e-08 2354 0.00153147 3.45239e-08 0.00677679 0.0119922 44359.6
0.0336932 0.00171478 6.09073e-06 3.27754e-08 2982 0.00171487 3.27772e-08 0.00663647 0.0147271 52319
0.0355986 0.00193755 7.1836e-06 3.13993e-08 3386 0.00193687 3.13883e-08 0.00648261 0.0164005 61706.6
0.0376117 0.00207188 8.47255e-06 2.84682e-08 3858 0.00207219 2.84725e-08 0.00631629 0.0173884 72778.6
0.0397387 0.00248584 9.99278e-06 2.89599e-08 4910 0.00248613 2.89633e-08 0.00613872 0.0231633 85837.3
0.041986 0.00268404 1.17858e-05 2.65119e-08 5346 0.00268441 2.65156e-08 0.00595116 0.023816 101239
0.0443604 0.002952 1.39005e-05 2.47227e-08 6698 0.00295333 2.47338e-08 0.00575493 0.028774 119405
0.0468691 0.0034398 1.63947e-05 2.44253e-08 7736 0.00343984 2.44256e-08 0.00555141 0.0340372 140829
0.0495196 0.00373834 1.93364e-05 2.25068e-08 9362 0.00373697 2.24985e-08 0.00534196 0.0394441 166098
0.05232 0.00420658 2.28059e-05 2.14729e-08 10770 0.00420161 2.14476e-08 0.00512796 0.0450986 195901
0.0552788 0.00483623 2.6898e-05 2.09313e-08 12632 0.00483335 2.09189e-08 0.00491076 0.0538419 231052
0.0584049 0.00540779 3.17243e-05 1.98444e-08 15098 0.00540309 1.98272e-08 0.00469167 0.0638601 272510
0.0617078 0.00614629 3.74166e-05 1.91231e-08 17744 0.00613948 1.91019e-08 0.00447196 0.0758774 321406
0.0651975 0.0070196 4.41303e-05 1.85176e-08 20570 0.00701475 1.85049e-08 0.0042528 0.0895664 379076
0.0688845 0.00800789 5.20486e-05 1.7911e-08 24872 0.00800261 1.78992e-08 0.00403532 0.110396 447094
0.0727801 0.00883348 6.13877e-05 1.67518e-08 29132 0.00882595 1.67375e-08 0.00382053 0.127734 527316
0.0768959 0.00959749 7.24025e-05 1.54317e-08 34136 0.00958766 1.54159e-08 0.00360937 0.145947 621933
0.0812445 0.0103627 8.53937e-05 1.41272e-08 40372 0.0103553 1.41171e-08 0.00340268 0.167615 733526
0.085839 0.0112318 0.000100716 1.29825e-08 47702 0.0112211 1.29703e-08 0.00320119 0.193457 865143
0.0906933 0.0120036 0.000118787 1.17639e-08 56252 0.0119965 1.17569e-08 0.00300554 0.220175 1.02038e+06
0.0958222 0.0127331 0.000140101 1.05804e-08 66082 0.0127236 1.05725e-08 0.00281625 0.248263 1.20346e+06
0.101241 0.0137002 0.00016524 9.65208e-09 77876 0.0136931 9.64712e-09 0.00263378 0.285394 1.4194e+06
0.106966 0.0150752 0.000194889 9.00507e-09 92650 0.0150645 8.99866e-09 0.00245848 0.339364 1.67408e+06
0.113016 0.0167412 0.000229858 8.47883e-09 108490 0.016726 8.47115e-09 0.0022906 0.401584 1.97446e+06
0.119407 0.018417 0.000271101 7.90854e-09 128882 0.018396 7.89953e-09 0.00213033 0.478456 2.32874e+06
0.126159 0.0208157 0.000319745 7.57875e-09 150730 0.0207931 7.57052e-09 0.00197778 0.57759 2.74659e+06
0.133294 0.0229385 0.000377117 7.08107e-09 178516 0.0229212 7.07572e-09 0.00183298 0.689632 3.23941e+06
0.140832 0.0245083 0.000444783 6.41467e-09 210280 0.0244907 6.41008e-09 0.00169593 0.795364 3.82066e+06
0.148796 0.0258225 0.000524591 5.73045e-09 247692 0.0258068 5.72696e-09 0.00156653 0.906069 4.5062e+06
0.157211 0.0267547 0.000618719 5.03405e-09 292948 0.0267397 5.03122e-09 0.00144468 1.02079 5.31475e+06
0.166102 0.0285552 0.000729735 4.55544e-09 345852 0.0285306 4.55151e-09 0.0013302 1.18442 6.26838e+06
0.175495 0.0311312 0.000860672 4.21083e-09 406882 0.0310964 4.20613e-09 0.0012229 1.40102 7.39312e+06
0.185419 0.0343841 0.0010151 3.94329e-09 480198 0.0343431 3.93858e-09 0.00112256 1.68682 8.71966e+06
0.195905 0.037646 0.00119724 3.66055e-09 565530 0.0376146 3.6575e-09 0.00102893 2.01195 1.02842e+07
0.206984 0.0399506 0.00141206 3.29366e-09 668550 0.0399251 3.29156e-09 0.000941736 2.33821 1.21295e+07
0.218689 0.0416603 0.00166543 2.91209e-09 787620 0.0416331 2.9102e-09 0.000860706 2.66482 1.43059e+07
0.231057 0.0439849 0.00196426 2.60684e-09 930848 0.043943 2.60436e-09 0.00078555 3.08902 1.68729e+07
0.244123 0.0474137 0.00231671 2.38255e-09 1.0948e+06 0.0473605 2.37988e-09 0.000715973 3.64319 1.99004e+07
0.257929 0.0515159 0.0027324 2.19487e-09 1.29177e+06 0.0514667 2.19277e-09 0.000651679 4.35069 2.34711e+07
0.272515 0.0546097 0.00322267 1.97271e-09 1.52529e+06 0.0545692 1.97125e-09 0.000592374 5.07948 2.76825e+07
0.287926 0.0572794 0.00380091 1.75437e-09 1.79673e+06 0.0572351 1.75301e-09 0.000537765 5.86154 3.26496e+07
0.304209 0.0609435 0.00448291 1.58262e-09 2.12289e+06 0.0608842 1.58108e-09 0.000487565 6.89084 3.85079e+07
0.321413 0.0653707 0.00528728 1.43933e-09 2.50053e+06 0.0653044 1.43787e-09 0.000441493 8.15207 4.54174e+07
0.339589 0.0692287 0.00623598 1.29238e-09 2.94969e+06 0.0691688 1.29127e-09 0.000399279 9.54755 5.35667e+07
0.358793 0.0728317 0.00735491 1.1528e-09 3.47889e+06 0.0727596 1.15166e-09 0.000360659 11.1198 6.31782e+07
0.379084 0.0776084 0.0086746 1.04152e-09 4.10369e+06 0.0775288 1.04046e-09 0.000325382 13.1356 7.45142e+07
0.400522 0.0822906 0.0102311 9.36351e-10 4.84176e+06 0.0822094 9.35427e-10 0.000293206 15.4621 8.78843e+07
0.423172 0.0868696 0.0120669 8.38077e-10 5.70705e+06 0.0867815 8.37228e-10 0.000263903 18.1239 1.03653e+08
0.447103 0.0920958 0.014232 7.53328e-10 6.73675e+06 0.0919974 7.52523e-10 0.000237253 21.3906 1.22252e+08
0.472387 0.0972889 0.0167857 6.74737e-10 7.9377e+06 0.0971876 6.74035e-10 0.000213051 25.1389 1.44188e+08
0.499101 0.102825 0.0197975 6.0464e-10 9.36285e+06 0.102719 6.04016e-10 0.000191102 29.6237 1.70059e+08
0.527327 0.10871 0.0233498 5.41996e-10 1.10478e+07 0.108596 5.41428e-10 0.000171224 34.971 2.00573e+08
0.557148 0.114768 0.0275395 4.85151e-10 1.30307e+07 0.114645 4.8463e-10 0.000153245 41.2531 2.36562e+08
0.588655 0.121241 0.0324809 4.34542e-10 1.53619e+07 0.12111 4.34072e-10 0.000137005 48.7235 2.79008e+08
0.621945 0.128092 0.0383089 3.89253e-10 1.81296e+07 0.127952 3.88828e-10 0.000122355 57.6763 3.29071e+08
0.657117 0.135181 0.0451827 3.48299e-10 2.13731e+07 0.13503 3.47911e-10 0.000109156 68.1977 3.88116e+08
0.694278 0.142743 0.0532898 3.11832e-10 2.52109e+07 0.142582 3.1148e-10 9.72796e-05 80.8141 4.57756e+08
0.733541 0.150707 0.0628516 2.79143e-10 2.9726e+07 0.150536 2.78827e-10 8.66058e-05 95.8114 5.39891e+08
0.775024 0.159074 0.0741291 2.49816e-10 3.50739e+07 0.158893 2.49532e-10 7.70247e-05 113.756 6.36764e+08
0.818852 0.167801 0.0874301 2.23431e-10 4.13576e+07 0.167609 2.23175e-10 6.84347e-05 135.028 7.51019e+08
0.86516 0.177014 0.103118 1.9984e-10 4.87837e+07 0.176807 1.99608e-10 6.07424e-05 160.497 8.85775e+08
0.914086 0.186636 0.12162 1.78648e-10 5.75372e+07 0.186415 1.78438e-10 5.3862e-05 190.838 1.04471e+09
0.965779 0.196648 0.143443 1.59596e-10 6.78547e+07 0.196416 1.59408e-10 4.77149e-05 226.958 1.23216e+09
1.0204 0.207164 0.16918 1.42552e-10 8.00386e+07 0.206919 1.42383e-10 4.22291e-05 270.185 1.45325e+09
1.0781 0.218136 0.199537 1.27267e-10 9.43992e+07 0.217872 1.27113e-10 3.73389e-05 321.753 1.71401e+09
1.13907 0.229598 0.235339 1.13575e-10 1.11325e+08 0.229321 1.13438e-10 3.29844e-05 383.326 2.02155e+09
1.20349 0.24175 0.277566 1.01393e-10 1.31307e+08 0.241454 1.01269e-10 2.91111e-05 457.342 2.38428e+09
1.27154 0.254716 0.32737 9.0579e-11 1.54867e+08 0.254397 9.04655e-11 2.56695e-05 546.473 2.81209e+09
1.34345 0.26849 0.38611 8.0952e-11 1.82662e+08 0.268146 8.08481e-11 2.26148e-05 653.857 3.31666e+09
1.41943 0.283774 0.45539 7.25435e-11 2.15434e+08 0.283402 7.24484e-11 1.99062e-05 785.102 3.91177e+09
1.4997 0.300622 0.537101 6.51591e-11 2.54082e+08 0.300212 6.50703e-11 1.75069e-05 945.67 4.61366e+09
1.58451 0.319782 0.633473 5.87672e-11 2.99691e+08 0.319323 5.8683e-11 1.53838e-05 1144.84 5.4415e+09
1.67412 0.342096 0.747138 5.33038e-11 3.53444e+08 0.341577 5.32228e-11 1.35069e-05 1394.84 6.41786e+09
1.76879 0.369268 0.881197 4.87841e-11 4.16883e+08 0.36866 4.87038e-11 1.18493e-05 1716.33 7.56942e+09
1.86882 0.403679 1.03931 4.5217e-11 4.91657e+08 0.402939 4.51341e-11 1.03867e-05 2140.35 8.92761e+09
1.9745 0.450784 1.22579 4.28116e-11 5.79899e+08 0.449821 4.27201e-11 9.09749e-06 2728.92 1.05295e+10
2.08616 0.520821 1.44574 4.19381e-11 6.83936e+08 0.519453 4.1828e-11 7.96208e-06 3602.45 1.24188e+10
2.20414 0.575509 1.70515 3.92917e-11 1.99573e+06 0.615359 4.20123e-11 6.96304e-06 11.2617 1.46471e+10
2.32879 0 2.0111 0 0 0 0 6.08479e-06 0 1.72752e+10
2.46049 0 2.37196 0 0 0 0 5.3134e-06 0 2.03749e+10
2.59963 0 2.79756 0 0 0 0 4.63644e-06 0 2.40308e+10
2.74664 0 3.29952 0 0 0 0 4.04286e-06 0 2.83427e+10
2.90197 0 3.89156 0 0 0 0 3.52282e-06 0 3.34282e+10
3.06608 0 4.58982 0 0 0 0 3.06758e-06 0 3.94263e+10
3.23947 0 5.41337 0 0 0 0 2.66939e-06 0 4.65005e+10
3.42267 0 6.38469 0 0 0 0 2.32136e-06 0 5.48441e+10
3.61623 0 7.5303 0 0 0 0 2.01741e-06 0 6.46848e+10
3.82073 0 8.88147 0 0 0 0 1.75215e-06 0 7.62912e+10
4.0368 0 10.4751 0 0 0 0 1.52084e-06 0 8.99802e+10
4.26509 0 12.3546 0 0 0 0 1.31927e-06 0 1.06125e+11
4.50629 0 14.5714 0 0 0 0 1.14374e-06 0 1.25167e+11
4.76113 0 17.186 0 0 0 0 9.90997e-07 0 1.47626e+11
5.03038 0 20.2696 0 0 0 0 8.58167e-07 0 1.74115e+11
5.31485 0 23.9066 0 0 0 0 7.42731e-07 0 2.05356e+11
5.61542 0 28.1962 0 0 0 0 6.42478e-07 0 2.42204e+11
5.93298 0 33.2555 0 0 0 0 5.55464e-07 0 2.85662e+11
6.2685 0 39.2225 0 0 0 0 4.79988e-07 0 3.36919e+11
6.62299 0 46.2602 0 0 0 0 4.1456e-07 0 3.97372e+11
6.99754 0 54.5607 0 0 0 0 3.57875e-07 0 4.68673e+11
7.39326 0 64.3505 0 0 0 0 3.08793e-07 0 5.52767e+11
7.81136 0 75.8969 0 0 0 0 2.66319e-07 0 6.5195e+11
8.25311 0 89.5151 0 0 0 0 2.29582e-07 0 7.68929e+11
8.71983 0 105.577 0 0 0 0 1.97824e-07 0 9.06898e+11
9.21295 0 124.521 0 0 0 0 1.70386e-07 0 1.06962e+12
9.73396 0 146.863 0 0 0 0 1.46692e-07 0 1.26155e+12
10.2844 0 173.215 0 0 0 0 1.2624e-07 0 1.48791e+12
10.866 0 204.295 0 0 0 0 1.08596e-07 0 1.75488e+12
11.4805 0 240.952 0 0 0 0 9.33817e-08 0 2.06976e+12
12.1298 0 284.186 0 0 0 0 8.02681e-08 0 2.44114e+12
12.8157 0 335.177 0 0 0 0 6.89705e-08 0 2.87915e+12
13.5405 0 395.318 0 0 0 0 5.92414e-08 0 3.39576e+12
14.3062 0 466.25 0 0 0 0 5.08668e-08 0 4.00506e+12
15.1153 0 549.91 0 0 0 0 4.36611e-08 0 4.72369e+12
15.9701 0 648.58 0 0 0 0 3.74635e-08 0 5.57126e+12
16.8732 0 764.955 0 0 0 0 3.21352e-08 0 6.57091e+12
17.8274 0 902.211 0 0 0 0 2.7556e-08 0 7.74994e+12
18.8356 0 1064.1 0 0 0 0 2.3622e-08 0 9.14051e+12
19.9008 0 1255.03 0 0 0 0 2.02435e-08 0 1.07806e+13
21.0262 0 1480.22 0 0 0 0 1.73432e-08 0 1.2715e+13
22.2152 0 1745.81 0 0 0 0 1.48541e-08 0 1.49964e+13
23.4716 0 2059.06 0 0 0 0 1.27187e-08 0 1.76872e+13
24.7989 0 2428.52 0 0 0 0 1.08874e-08 0 2.08608e+13
26.2013 0 2864.27 0 0 0 0 9.31732e-09 0 2.46039e+13
27.6831 0 3378.21 0 0 0 0 7.97161e-09 0 2.90186e+13
29.2486 0 3984.36 0 0 0 0 6.81857e-09 0 3.42254e+13
30.9026 0 4699.28 0 0 0 0 5.83089e-09 0 4.03665e+13
32.6502 0 5542.47 0 0 0 0 4.9851e-09 0 4.76094e+13
34.4967 0 6536.95 0 0 0 0 4.26103e-09 0 5.6152e+13
36.4475 0 7709.88 0 0 0 0 3.64131e-09 0 6.62274e+13
38.5087 0 9093.27 0 0 0 0 3.11104e-09 0 7.81106e+13
40.6864 0 10724.9 0 0 0 0 2.65744e-09 0 9.2126e+13
42.9873 0 12649.2 0 0 0 0 2.26951e-09 0 1.08656e+14
45.4183 0 14918.9 0 0 0 0 1.93782e-09 0 1.28152e+14
47.9868 0 17595.8 0 0 0 0 1.65429e-09 0 1.51147e+14
50.7005 0 20753 0 0 0 0 1.41197e-09 0 1.78267e+14
53.5677 0 24476.7 0 0 0 0 1.20493e-09 0 2.10254e+14
56.5971 0 28868.6 0 0 0 0 1.02806e-09 0 2.47979e+14
59.7977 0 34048.5 0 0 0 0 8.77005e-10 0 2.92474e+14
63.1794 0 40157.8 0 0 0 0 7.48017e-10 0 3.44953e+14
66.7523 0 47363.4 0 0 0 0 6.37895e-10 0 4.06848e+14
70.5272 0 55861.8 0 0 0 0 5.43899e-10 0 4.79849e+14
74.5157 0 65885.1 0 0 0 0 4.63681e-10 0 5.65949e+14
78.7297 0 77706.9 0 0 0 0 3.95235e-10 0 6.67497e+14
83.182 0 91649.8 0 0 0 0 3.36843e-10 0 7.87266e+14
87.8861 0 108095 0 0 0 0 2.87037e-10 0 9.28526e+14
92.8562 0 127490 0 0 0 0 2.44561e-10 0 1.09513e+15
98.1073 0 150366 0 0 0 0 2.08343e-10 0 1.29163e+15
103.655 0 177346 0 0 0 0 1.77465e-10 0 1.52339e+15
109.517 0 209167 0 0 0 0 1.51145e-10 0 1.79673e+15
115.711 0 246698 0 0 0 0 1.28712e-10 0 2.11912e+15
122.254 0 290963 0 0 0 0 1.09595e-10 0 2.49935e+15
