0.0779269
200
2.30148e+11
8589934592
0.0021528 0 1.58875e-09 0 0 0 0 0.00197275 0 13.6473
0.00227455 0 1.87382e-09 0 0 0 0 0.00207247 0 16.096
0.00240318 0 2.21004e-09 0 0 0 0 0.00217643 0 18.9841
0.00253908 0 2.60659e-09 0 0 0 0 0.00228471 0 22.3904
0.00268267 0 3.07429e-09 0 0 0 0 0.00239737 0 26.408
0.00283438 0 3.62591e-09 0 0 0 0 0.00251449 0 31.1464
0.00299467 0 4.27651e-09 0 0 0 0 0.00263608 0 36.735
0.00316402 0 5.04385e-09 0 0 0 0 0.00276218 0 43.3263
0.00334295 0 5.94887e-09 0 0 0 0 0.00289278 0 51.1004
0.003532 0 7.01627e-09 0 0 0 0 0.00302786 0 60.2693
0.00373174 0 8.27521e-09 0 0 0 0 0.00316735 0 71.0835
0.00394278 0 9.76003e-09 0 0 0 0 0.00331119 0 83.838
0.00416575 0 1.15113e-08 0 0 0 0 0.00345926 0 98.8811
0.00440133 0 1.35767e-08 0 0 0 0 0.00361139 0 116.623
0.00465023 0 1.60128e-08 0 0 0 0 0.00376739 0 137.549
0.00491321 0 1.8886e-08 0 0 0 0 0.00392704 0 162.23
0.00519106 0 2.22747e-08 0 0 0 0 0.00409003 0 191.338
0.00548462 0 2.62715e-08 0 0 0 0 0.00425603 0 225.67
0.00579479 0 3.09854e-08 0 0 0 0 0.00442465 0 266.162
0.00612249 0 3.65451e-08 0 0 0 0 0.00459545 0 313.92
0.00646873 0 4.31024e-08 0 0 0 0 0.00476791 0 370.247
0.00683455 0 5.08363e-08 0 0 0 0 0.00494148 0 436.68
0.00722105 0 5.99579e-08 0 0 0 0 0.00511552 0 515.034
0.00762942 0 7.07161e-08 0 0 0 0 0.00528933 0 607.447
0.00806087 0 8.34047e-08 0 0 0 0 0.00546217 0 716.441
0.00851673 0 9.837e-08 0 0 0 0 0.00563323 0 844.992
0.00899837 0 1.16021e-07 0 0 0 0 0.00580162 0 996.609
0.00950724 0 1.36838e-07 0 0 0 0 0.00596643 0 1175.43
0.0100449 0 1.61391e-07 0 0 0 0 0.00612667 0 1386.34
0.0106129 0 1.9035e-07 0 0 0 0 0.00628133 0 1635.09
0.0112131 0 2.24504e-07 0 0 0 0 0.00642937 0 1928.48
0.0118472 0 2.64787e-07 0 0 0 0 0.0065697 0 2274.5
0.0125172 0 3.12298e-07 0 0 0 0 0.00670125 0 2682.62
0.0132251 0 3.68333e-07 0 0 0 0 0.00682292 0 3163.96
0.013973 0 4.34423e-07 0 0 0 0 0.00693364 0 3731.67
0.0147632 0 5.12372e-07 0 0 0 0 0.00703238 0 4401.24
0.0155981 0 6.04307e-07 0 0 0 0 0.00711814 0 5190.96
0.0164802 0 7.12738e-07 0 0 0 0 0.00718999 0 6122.38
0.0174122 0 8.40625e-07 0 0 0 0 0.00724706 0 7220.91
0.0183969 0 9.91459e-07 0 0 0 0 0.0072886 0 8516.57
0.0194372 0 1.16936e-06 0 0 0 0 0.00731397 0 10044.7
0.0205364 0 1.37917e-06 0 0 0 0 0.00732263 0 11847
0.0216978 0 1.62664e-06 0 0 0 0 0.0073142 0 13972.7
0.0229249 0 1.91851e-06 0 0 0 0 0.00728845 0 16479.9
0.0242213 0 2.26275e-06 0 0 0 0 0.00724528 0 19436.8
0.025591 0 2.66875e-06 0 0 0 0 0.00718478 0 22924.4
0.0270383 0 3.14761e-06 0 0 0 0 0.0071072 0 27037.7
0.0285673 0 3.71238e-06 0 0 0 0 0.00701294 0 31889.1
0.0301829 0 4.3785e-06 0 0 0 0 0.00690256 0 37611
0.0318897 0 5.16413e-06 0 0 0 0 0.00677679 0 44359.6
0.0336932 0 6.09073e-06 0 0 0 0 0.00663647 0 52319
0.0355986 0 7.1836e-06 0 0 0 0 0.00648261 0 61706.6
0.0376117 0 8.47255e-06 0 0 0 0 0.00631629 0 72778.6
0.0397387 0 9.99278e-06 0 0 0 0 0.00613872 0 85837.3
0.041986 0 1.17858e-05 0 0 0 0 0.00595116 0 101239
0.0443604 0 1.39005e-05 0 0 0 0 0.00575493 0 119405
0.0468691 0 1.63947e-05 0 0 0 0 0.00555141 0 140829
0.0495196 0 1.93364e-05 0 0 0 0 0.00534196 0 166098
0.05232 0 2.28059e-05 0 0 0 0 0.00512796 0 195901
0.0552788 0 2.6898e-05 0 0 0 0 0.00491076 0 231052
0.0584049 0 3.17243e-05 0 0 0 0 0.00469167 0 272510
0.0617078 0 3.74166e-05 0 0 0 0 0.00447196 0 321406
0.0651975 0 4.41303e-05 0 0 0 0 0.0042528 0 379076
0.0688845 0.449133 5.20486e-05 1.00456e-06 6 0.461172 1.03149e-06 0.00403532 0.00149365 447094
0.0727801 0 6.13877e-05 0 0 0 0 0.00382053 0 527316
0.0768959 0 7.24025e-05 0 0 0 0 0.00360937 0 621933
0.0812445 0 8.53937e-05 0 0 0 0 0.00340268 0 733526
0.085839 0 0.000100716 0 0 0 0 0.00320119 0 865143
0.0906933 0 0.000118787 0 0 0 0 0.00300554 0 1.02038e+06
0.0958222 7.84942 0.000140101 6.52237e-06 12 7.95267 6.60816e-06 0.00281625 0.0277917 1.20346e+06
0.101241 0 0.00016524 0 0 0 0 0.00263378 0 1.4194e+06
0.106966 0 0.000194889 0 0 0 0 0.00245848 0 1.67408e+06
0.113016 13.5512 0.000229858 6.86323e-06 8 13.0839 6.62658e-06 0.0022906 0.0239701 1.97446e+06
0.119407 0 0.000271101 0 0 0 0 0.00213033 0 2.32874e+06
0.126159 0 0.000319745 0 0 0 0 0.00197778 0 2.74659e+06
0.133294 0.186566 0.000377117 5.75925e-08 6 0.185112 5.71438e-08 0.00183298 0.00018852 3.23941e+06
0.140832 0 0.000444783 0 0 0 0 0.00169593 0 3.82066e+06
0.148796 0.301076 0.000524591 6.68136e-08 24 0.297954 6.61209e-08 0.00156653 0.00102362 4.5062e+06
0.157211 0 0.000618719 0 0 0 0 0.00144468 0 5.31475e+06
0.166102 2.33073 0.000729735 3.71823e-07 24 2.37239 3.78469e-07 0.0013302 0.00670858 6.26838e+06
0.175495 0 0.000860672 0 0 0 0 0.0012229 0 7.39312e+06
0.185419 1.3283 0.0010151 1.52334e-07 12 1.28286 1.47122e-07 0.00112256 0.00162843 8.71966e+06
0.195905 0.984402 0.00119724 9.57195e-08 30 0.944251 9.18154e-08 0.00102893 0.00279085 1.02842e+07
0.206984 9.55185 0.00141206 7.87486e-07 24 9.19099 7.57736e-07 0.000941736 0.020069 1.21295e+07
0.218689 11.3924 0.00166543 7.96343e-07 24 11.0898 7.75189e-07 0.000860706 0.0222053 1.43059e+07
0.231057 49.4489 0.00196426 2.93067e-06 8 49.0537 2.90725e-06 0.00078555 0.0298458 1.68729e+07
0.244123 0.588917 0.00231671 2.95933e-08 72 0.565363 2.84097e-08 0.000715973 0.00297597 1.99004e+07
0.257929 0 0.0027324 0 0 0 0 0.000651679 0 2.34711e+07
0.272515 0.385561 0.00322267 1.39279e-08 54 0.377593 1.36401e-08 0.000592374 0.00126965 2.76825e+07
0.287926 1.95539 0.00380091 5.98903e-08 60 1.93886 5.9384e-08 0.000537765 0.00668213 3.26496e+07
0.304209 0.450388 0.00448291 1.1696e-08 72 0.444174 1.15346e-08 0.000487565 0.00172718 3.85079e+07
0.321413 1.65112 0.00528728 3.63542e-08 48 1.60183 3.52691e-08 0.000441493 0.0039525 4.54174e+07
0.339589 5.39552 0.00623598 1.00725e-07 134 5.24137 9.78476e-08 0.000399279 0.0338039 5.35667e+07
0.358793 0.57 0.00735491 9.02211e-09 120 0.552565 8.74614e-09 0.000360659 0.00300187 6.31782e+07
0.379084 0.516599 0.0086746 6.93289e-09 60 0.506252 6.79403e-09 0.000325382 0.00127842 7.45142e+07
0.400522 1.68163 0.0102311 1.91346e-08 150 1.71252 1.94861e-08 0.000293206 0.00978897 8.78843e+07
0.423172 0.986595 0.0120669 9.5182e-09 240 1.00291 9.67564e-09 0.000263903 0.0086561 1.03653e+08
0.447103 6.16535 0.014232 5.04314e-08 168 6.22545 5.09231e-08 0.000237253 0.0357107 1.22252e+08
0.472387 6.95359 0.0167857 4.82259e-08 218 6.94311 4.81532e-08 0.000213051 0.0493462 1.44188e+08
0.499101 0.747353 0.0197975 4.39466e-09 288 0.744025 4.37509e-09 0.000191102 0.00662295 1.70059e+08
0.527327 0.625069 0.0233498 3.11641e-09 342 0.645474 3.21815e-09 0.000171224 0.00622467 2.00573e+08
0.557148 0.204502 0.0275395 8.64474e-10 396 0.204542 8.64643e-10 0.000153245 0.00223388 2.36562e+08
0.588655 0.858626 0.0324809 3.07742e-09 470 0.872462 3.12701e-09 0.000137005 0.0105572 2.79008e+08
0.621945 2.49343 0.0383089 7.57717e-09 624 2.58352 7.85094e-09 0.000122355 0.0386428 3.29071e+08
0.657117 0.654446 0.0451827 1.68621e-09 642 0.665912 1.71575e-09 0.000109156 0.00991739 3.88116e+08
0.694278 2.76719 0.0532898 6.04511e-09 704 2.77251 6.05674e-09 9.72796e-05 0.0437477 4.57756e+08
0.733541 1.85562 0.0628516 3.43702e-09 990 1.81445 3.36077e-09 8.66058e-05 0.0392889 5.39891e+08
0.775024 0.98592 0.0741291 1.54833e-09 1044 0.974565 1.53049e-09 7.70247e-05 0.0209862 6.36764e+08
0.818852 0.456393 0.0874301 6.07698e-10 1214 0.455627 6.06678e-10 6.84347e-05 0.0107803 7.51019e+08
0.86516 2.16117 0.103118 2.43987e-09 1506 2.09253 2.36237e-09 6.07424e-05 0.0604921 8.85775e+08
0.914086 0.703217 0.12162 6.73122e-10 1718 0.701161 6.71154e-10 5.3862e-05 0.0214701 1.04471e+09
0.965779 1.43734 0.143443 1.16652e-09 2100 1.46542 1.18931e-09 4.77149e-05 0.0513401 1.23216e+09
1.0204 1.48952 0.16918 1.02496e-09 2354 1.50837 1.03793e-09 4.22291e-05 0.057135 1.45325e+09
1.0781 0.190693 0.199537 1.11256e-10 2982 0.193161 1.12695e-10 3.73389e-05 0.00888525 1.71401e+09
1.13907 1.14132 0.235339 5.64578e-10 3386 1.12546 5.56731e-10 3.29844e-05 0.0579566 2.02155e+09
1.20349 0.959036 0.277566 4.02233e-10 3858 0.936718 3.92873e-10 2.91111e-05 0.0533067 2.38428e+09
1.27154 0.947723 0.32737 3.37017e-10 4910 0.938947 3.33897e-10 2.56695e-05 0.0644638 2.81209e+09
1.34345 0.333633 0.38611 1.00593e-10 5346 0.333909 1.00676e-10 2.26148e-05 0.0237796 3.31666e+09
1.41943 0.953746 0.45539 2.43814e-10 6698 0.970344 2.48057e-10 1.99062e-05 0.0820383 3.91177e+09
1.4997 0.768641 0.537101 1.66601e-10 7736 0.773406 1.67634e-10 1.75069e-05 0.0736182 4.61366e+09
1.58451 0.658604 0.633473 1.21034e-10 9362 0.680927 1.25136e-10 1.53838e-05 0.0736565 5.4415e+09
1.67412 0.565793 0.747138 8.8159e-11 10770 0.56165 8.75136e-11 1.35069e-05 0.0702954 6.41786e+09
1.76879 0.950562 0.881197 1.25579e-10 12584 0.938562 1.23994e-10 1.18493e-05 0.133366 7.56942e+09
1.86882 0.443397 1.03931 4.96658e-11 15146 0.438392 4.91052e-11 1.03867e-05 0.072423 8.92761e+09
1.9745 0.720563 1.22579 6.84328e-11 17744 0.715954 6.79951e-11 9.09749e-06 0.133473 1.05295e+10
2.08616 0.488463 1.44574 3.93325e-11 20570 0.491331 3.95635e-11 7.96208e-06 0.101615 1.24188e+10
2.20414 0.396345 1.70515 2.70596e-11 24872 0.394624 2.69421e-11 6.96304e-06 0.0966571 1.46471e+10
2.32879 0.614233 2.0111 3.55557e-11 29132 0.617868 3.57661e-11 6.08479e-06 0.170229 1.72752e+10
2.46049 0.454411 2.37196 2.23024e-11 34136 0.451548 2.2162e-11 5.3134e-06 0.143282 2.03749e+10
2.59963 0.555836 2.79756 2.31301e-11 40372 0.560276 2.33149e-11 4.63644e-06 0.201407 2.40308e+10
2.74664 0.518053 3.29952 1.82782e-11 47702 0.508198 1.79305e-11 4.04286e-06 0.215666 2.83427e+10
2.90197 0.489412 3.89156 1.46407e-11 56012 0.487309 1.45778e-11 3.52282e-06 0.232783 3.34282e+10
3.06608 0.650998 4.58982 1.65118e-11 66322 0.64613 1.63883e-11 3.06758e-06 0.35699 3.94263e+10
3.23947 0.614182 5.41337 1.32081e-11 77876 0.610438 1.31276e-11 2.66939e-06 0.385329 4.65005e+10
3.42267 0.966132 6.38469 1.7616e-11 92650 0.960746 1.75178e-11 2.32136e-06 0.703089 5.48441e+10
3.61623 1.71615 7.5303 2.65309e-11 108250 1.6973 2.62395e-11 2.01741e-06 1.42359 6.46848e+10
3.82073 3.00893 8.88147 3.94401e-11 128258 2.97609 3.90096e-11 1.75215e-06 2.88702 7.62912e+10
4.0368 6.2551 10.4751 6.95164e-11 151594 6.23894 6.93368e-11 1.52084e-06 6.92923 8.99802e+10
4.26509 1269.98 12.3546 1.19668e-08 178516 1251.68 1.17944e-08 1.31927e-06 1619.28 1.06125e+11
4.50629 11.5854 14.5714 9.25593e-11 209896 11.6068 9.27305e-11 1.14374e-06 16.9862 1.25167e+11
4.76113 7.50196 17.186 5.08172e-11 248076 7.52823 5.09952e-11 9.90997e-07 12.7211 1.47626e+11
5.03038 6.88618 20.2696 3.95496e-11 292420 6.88507 3.95433e-11 8.58167e-07 13.4765 1.74115e+11
5.31485 8.8033 23.9066 4.28684e-11 345804 8.74292 4.25744e-11 7.42731e-07 19.9588 2.05356e+11
5.61542 15.2304 28.1962 6.28826e-11 406714 15.0975 6.23341e-11 6.42478e-07 39.8072 2.42204e+11
5.93298 30.9237 33.2555 1.08253e-10 479520 30.5746 1.07031e-10 5.55464e-07 93.4521 2.85662e+11
6.2685 27.0243 39.2225 8.02102e-11 566472 27.1093 8.04624e-11 4.79988e-07 94.6623 3.36919e+11
6.62299 23.4858 46.2602 5.91029e-11 668454 23.5303 5.92148e-11 4.1456e-07 95.3 3.97372e+11
6.99754 24.2719 54.5607 5.17887e-11 787572 24.2155 5.16684e-11 3.57875e-07 113.971 4.68673e+11
7.39326 28.9187 64.3505 5.23163e-11 930080 28.8493 5.21907e-11 3.08793e-07 157.576 5.52767e+11
7.81136 30.0001 75.8969 4.6016e-11 1.09432e+06 29.9343 4.5915e-11 2.66319e-07 189.083 6.5195e+11
8.25311 36.4711 89.5151 4.7431e-11 1.29162e+06 36.3207 4.72354e-11 2.29582e-07 266.846 7.68929e+11
8.71983 49.5002 105.577 5.45819e-11 1.52605e+06 49.2686 5.43265e-11 1.97824e-07 421.055 9.06898e+11
9.21295 68.9621 124.521 6.44732e-11 1.79721e+06 68.6549 6.41861e-11 1.70386e-07 680.055 1.06962e+12
9.73396 86.8327 146.863 6.88304e-11 2.12116e+06 86.5778 6.86283e-11 1.46692e-07 995.287 1.26155e+12
10.2844 96.1049 173.215 6.45907e-11 2.49914e+06 95.9378 6.44784e-11 1.2624e-07 1278.68 1.48791e+12
10.866 99.6687 204.295 5.67951e-11 2.94919e+06 99.5129 5.67064e-11 1.08596e-07 1542.41 1.75488e+12
11.4805 111.087 240.952 5.36713e-11 3.47939e+06 110.759 5.35132e-11 9.33817e-08 1999.79 2.06976e+12
12.1298 137.056 284.186 5.61443e-11 4.1004e+06 136.539 5.59323e-11 8.02681e-08 2868.06 2.44114e+12
12.8157 170.934 335.177 5.93697e-11 4.84282e+06 170.355 5.91685e-11 6.89705e-08 4168.69 2.87915e+12
13.5405 203.791 395.318 6.00133e-11 5.70611e+06 203.173 5.98313e-11 5.92414e-08 5780.46 3.39576e+12
14.3062 237.185 466.25 5.92214e-11 6.73072e+06 236.517 5.90546e-11 5.08668e-08 7836.21 4.00506e+12
15.1153 276.402 549.91 5.85141e-11 7.93789e+06 275.586 5.83412e-11 4.36611e-08 10638.3 4.72369e+12
15.9701 324.435 648.58 5.82337e-11 9.3654e+06 323.443 5.80557e-11 3.74635e-08 14557.7 5.57126e+12
16.8732 385.065 764.955 5.86015e-11 1.10411e+07 383.83 5.84135e-11 3.21352e-08 20134.5 6.57091e+12
17.8274 456.41 902.211 5.88922e-11 1.30294e+07 454.976 5.8707e-11 2.7556e-08 27846.2 7.74994e+12
18.8356 537.721 1064.1 5.88284e-11 1.53594e+07 536.059 5.86465e-11 2.3622e-08 38251.2 9.14051e+12
19.9008 632.913 1255.03 5.87085e-11 1.81236e+07 630.93 5.85246e-11 2.02435e-08 52560.5 1.07806e+13
21.0262 747.559 1480.22 5.87936e-11 2.13681e+07 745.175 5.86062e-11 1.73432e-08 72438.4 1.2715e+13
22.2152 882.953 1745.81 5.88776e-11 2.52005e+07 880.173 5.86923e-11 1.48541e-08 99888 1.49964e+13
23.4716 1041.76 2059.06 5.8899e-11 2.97255e+07 1038.5 5.87145e-11 1.27187e-08 137655 1.76872e+13
24.7989 1229.87 2428.52 5.8956e-11 3.50616e+07 1225.99 5.87697e-11 1.08874e-08 189861 2.08608e+13
26.2013 1452.96 2864.27 5.90542e-11 4.13531e+07 1448.37 5.88675e-11 9.31732e-09 262100 2.46039e+13
27.6831 1715.69 3378.21 5.91238e-11 4.87711e+07 1710.22 5.89355e-11 7.97161e-09 361725 2.90186e+13
29.2486 2027.02 3984.36 5.92256e-11 5.75255e+07 2020.52 5.90357e-11 6.81857e-09 499663 3.42254e+13
30.9026 2396.07 4699.28 5.93579e-11 6.78404e+07 2388.37 5.91672e-11 5.83089e-09 690609 4.03665e+13
32.6502 2833.26 5542.47 5.95105e-11 8.0018e+07 2824.13 5.93188e-11 4.9851e-09 955227 4.76094e+13
34.4967 3352.78 6536.95 5.9709e-11 9.43754e+07 3341.93 5.95157e-11 4.26103e-09 1.32247e+06 5.6152e+13
36.4475 3969.81 7709.88 5.99421e-11 1.11311e+08 3956.88 5.97468e-11 3.64131e-09 1.83236e+06 6.62274e+13
38.5087 4706.13 9093.27 6.02495e-11 1.31285e+08 4690.66 6.00516e-11 3.11104e-09 2.5425e+06 7.81106e+13
40.6864 5585.32 10724.9 6.0627e-11 1.54822e+08 5566.84 6.04264e-11 2.65744e-09 3.53211e+06 9.2126e+13
42.9873 6641.55 12649.2 6.11244e-11 1.82627e+08 6619.44 6.0921e-11 2.26951e-09 4.91868e+06 1.08656e+14
45.4183 7914.76 14918.9 6.17605e-11 2.1538e+08 7888.05 6.15521e-11 1.93782e-09 6.8644e+06 1.28152e+14
47.9868 9464.79 17595.8 6.26198e-11 2.54026e+08 9432.45 6.24059e-11 1.65429e-09 9.61568e+06 1.51147e+14
50.7005 11368.5 20753 6.37722e-11 2.99614e+08 11328.7 6.35492e-11 1.41197e-09 1.35322e+07 1.78267e+14
53.5677 13738.1 24476.7 6.53407e-11 3.53368e+08 13688.8 6.5106e-11 1.20493e-09 1.91624e+07 2.10254e+14
56.5971 16746.4 28868.6 6.75314e-11 4.16783e+08 16683.9 6.72793e-11 1.02806e-09 2.73777e+07 2.47979e+14
59.7977 20654.9 34048.5 7.06212e-11 4.91558e+08 20574.1 7.03449e-11 8.77005e-10 3.9583e+07 2.92474e+14
63.1794 25904.2 40157.8 7.50948e-11 5.79769e+08 25796.1 7.47814e-11 7.48017e-10 5.8204e+07 3.44953e+14
66.7523 33238.4 47363.4 8.16974e-11 6.8378e+08 33087.8 8.13272e-11 6.37895e-10 8.7574e+07 4.06848e+14
70.5272 37904.3 55861.8 7.89922e-11 3.00349e+06 41036.7 8.55201e-11 5.43899e-10 436207 4.79849e+14
74.5157 0 65885.1 0 0 0 0 4.63681e-10 0 5.65949e+14
78.7297 0 77706.9 0 0 0 0 3.95235e-10 0 6.67497e+14
83.182 0 91649.8 0 0 0 0 3.36843e-10 0 7.87266e+14
87.8861 0 108095 0 0 0 0 2.87037e-10 0 9.28526e+14
92.8562 0 127490 0 0 0 0 2.44561e-10 0 1.09513e+15
98.1073 0 150366 0 0 0 0 2.08343e-10 0 1.29163e+15
103.655 0 177346 0 0 0 0 1.77465e-10 0 1.52339e+15
109.517 0 209167 0 0 0 0 1.51145e-10 0 1.79673e+15
115.711 0 246698 0 0 0 0 1.28712e-10 0 2.11912e+15
122.254 0 290963 0 0 0 0 1.09595e-10 0 2.49935e+15
0.0779269
200
2.30148e+11
8589934592
0.0021528 2.94341e-08 1.58875e-09 2.15677e-09 6 2.87135e-08 2.10397e-09 0.00197275 6.5597e-06 13.6473
0.00227455 0 1.87382e-09 0 0 0 0 0.00207247 0 16.096
0.00240318 0 2.21004e-09 0 0 0 0 0.00217643 0 18.9841
0.00253908 0 2.60659e-09 0 0 0 0 0.00228471 0 22.3904
0.00268267 0 3.07429e-09 0 0 0 0 0.00239737 0 26.408
0.00283438 0 3.62591e-09 0 0 0 0 0.00251449 0 31.1464
0.00299467 8.37e-08 4.27651e-09 2.27848e-09 12 8.2917e-08 2.25717e-09 0.00263608 1.03721e-05 36.735
0.00316402 0 5.04385e-09 0 0 0 0 0.00276218 0 43.3263
0.00334295 0 5.94887e-09 0 0 0 0 0.00289278 0 51.1004
0.003532 9.37517e-08 7.01627e-09 1.55555e-09 8 9.58317e-08 1.59006e-09 0.00302786 4.10996e-06 60.2693
0.00373174 0 8.27521e-09 0 0 0 0 0.00316735 0 71.0835
0.00394278 0 9.76003e-09 0 0 0 0 0.00331119 0 83.838
0.00416575 7.30608e-07 1.15113e-08 7.38875e-09 6 7.33791e-07 7.42095e-09 0.00345926 1.28156e-05 98.8811
0.00440133 0 1.35767e-08 0 0 0 0 0.00361139 0 116.623
0.00465023 5.28881e-07 1.60128e-08 3.84503e-09 24 5.31732e-07 3.86576e-09 0.00376739 2.44946e-05 137.549
0.00491321 0 1.8886e-08 0 0 0 0 0.00392704 0 162.23
0.00519106 1.10119e-06 2.22747e-08 5.75517e-09 24 1.09171e-06 5.70563e-09 0.00409003 3.3771e-05 191.338
0.00548462 0 2.62715e-08 0 0 0 0 0.00425603 0 225.67
0.00579479 1.82106e-06 3.09854e-08 6.84192e-09 12 1.84911e-06 6.94731e-09 0.00442465 1.85558e-05 266.162
0.00612249 1.75496e-06 3.65451e-08 5.59048e-09 30 1.78592e-06 5.68908e-09 0.00459545 3.64958e-05 313.92
0.00646873 2.30227e-06 4.31024e-08 6.2182e-09 24 2.33814e-06 6.31509e-09 0.00476791 3.13002e-05 370.247
0.00683455 1.58261e-06 5.08363e-08 3.62418e-09 24 1.59904e-06 3.66181e-09 0.00494148 1.76021e-05 436.68
0.00722105 3.57454e-06 5.99579e-08 6.9404e-09 8 3.58497e-06 6.96064e-09 0.00511552 1.08539e-05 515.034
0.00762942 5.01705e-06 7.07161e-08 8.25925e-09 72 5.06689e-06 8.34129e-09 0.00528933 0.000112427 607.447
0.00806087 0 8.34047e-08 0 0 0 0 0.00546217 0 716.441
0.00851673 8.84506e-06 9.837e-08 1.04676e-08 54 8.89024e-06 1.05211e-08 0.00563323 0.000100342 844.992
0.00899837 7.28212e-06 1.16021e-07 7.3069e-09 60 7.28282e-06 7.30759e-09 0.00580162 7.55675e-05 996.609
0.00950724 7.82053e-06 1.36838e-07 6.65333e-09 72 7.82268e-06 6.65516e-09 0.00596643 8.02892e-05 1175.43
0.0100449 9.44457e-06 1.61391e-07 6.8126e-09 48 9.44187e-06 6.81065e-09 0.00612667 5.3374e-05 1386.34
0.0106129 1.77937e-05 1.9035e-07 1.08824e-08 134 1.78354e-05 1.09079e-08 0.00628133 0.000232155 1635.09
0.0112131 1.80956e-05 2.24504e-07 9.38336e-09 120 1.81757e-05 9.42489e-09 0.00642937 0.000175134 1928.48
0.0118472 2.04286e-05 2.64787e-07 8.98158e-09 60 2.05051e-05 9.01521e-09 0.0065697 8.20273e-05 2274.5
0.0125172 2.6307e-05 3.12298e-07 9.80648e-09 150 2.62698e-05 9.79261e-09 0.00670125 0.000219507 2682.62
0.0132251 3.10865e-05 3.68333e-07 9.82518e-09 240 3.11318e-05 9.83949e-09 0.00682292 0.000345606 3163.96
0.013973 3.07564e-05 4.34423e-07 8.24198e-09 168 3.07778e-05 8.24774e-09 0.00693364 0.000199701 3731.67
0.0147632 3.87903e-05 5.12372e-07 8.81348e-09 218 3.88275e-05 8.82194e-09 0.00703238 0.000273213 4401.24
0.0155981 5.32037e-05 6.04307e-07 1.02493e-08 288 5.31697e-05 1.02427e-08 0.00711814 0.000414687 5190.96
0.0164802 5.74776e-05 7.12738e-07 9.38812e-09 342 5.74677e-05 9.38651e-09 0.00718999 0.000446557 6122.38
0.0174122 6.93911e-05 8.40625e-07 9.60974e-09 396 6.93636e-05 9.60593e-09 0.00724706 0.000525103 7220.91
0.0183969 7.2816e-05 9.91459e-07 8.54992e-09 470 7.28022e-05 8.5483e-09 0.0072886 0.000551335 8516.57
0.0194372 9.33362e-05 1.16936e-06 9.29209e-09 672 9.33418e-05 9.29265e-09 0.00731397 0.000853748 10044.7
0.0205364 0.000105823 1.37917e-06 8.93247e-09 594 0.000105811 8.93147e-09 0.00732263 0.000724587 11847
0.0216978 0.000138997 1.62664e-06 9.94772e-09 704 0.000138971 9.94586e-09 0.0073142 0.000957479 13972.7
0.0229249 0.000139328 1.91851e-06 8.45444e-09 990 0.000139303 8.45294e-09 0.00728845 0.00114838 16479.9
0.0242213 0.000161414 2.26275e-06 8.30456e-09 1044 0.000161349 8.30117e-09 0.00724528 0.00119664 19436.8
0.025591 0.000200733 2.66875e-06 8.7563e-09 1214 0.000200678 8.7539e-09 0.00718478 0.00147954 22924.4
0.0270383 0.00021586 3.14761e-06 7.98364e-09 1506 0.000215805 7.98162e-09 0.0071072 0.00169172 27037.7
0.0285673 0.000269644 3.71238e-06 8.45569e-09 1718 0.000269514 8.45159e-09 0.00701294 0.00207144 31889.1
0.0301829 0.000265957 4.3785e-06 7.07125e-09 2100 0.000265965 7.07147e-09 0.00690256 0.00215132 37611
0.0318897 0.000323852 5.16413e-06 7.30062e-09 2354 0.000323854 7.30067e-09 0.00677679 0.00253596 44359.6
0.0336932 0.000362475 6.09073e-06 6.92818e-09 2982 0.000362494 6.92854e-09 0.00663647 0.00311307 52319
0.0355986 0.000409554 7.1836e-06 6.63712e-09 3386 0.00040941 6.63479e-09 0.00648261 0.00346671 61706.6
0.0376117 0.000437965 8.47255e-06 6.01776e-09 3858 0.00043803 6.01866e-09 0.00631629 0.00367566 72778.6
0.0397387 0.000525755 9.99278e-06 6.12501e-09 4910 0.000525819 6.12576e-09 0.00613872 0.00489904 85837.3
0.041986 0.000567475 1.17858e-05 5.60529e-09 5346 0.000567559 5.60612e-09 0.00595116 0.0050353 101239
0.0443604 0.000624255 1.39005e-05 5.22806e-09 6698 0.000624539 5.23044e-09 0.00575493 0.00608479 119405
0.0468691 0.000726659 1.63947e-05 5.15985e-09 7736 0.000726668 5.15992e-09 0.00555141 0.00719036 140829
0.0495196 0.000790352 1.93364e-05 4.75833e-09 9362 0.000790057 4.75656e-09 0.00534196 0.00833918 166098
0.05232 0.000888947 2.28059e-05 4.53773e-09 10770 0.000887896 4.53236e-09 0.00512796 0.00953037 195901
0.0552788 0.00102183 2.6898e-05 4.42249e-09 12632 0.00102122 4.41988e-09 0.00491076 0.011376 231052
0.0584049 0.00114304 3.17243e-05 4.19448e-09 15098 0.00114205 4.19085e-09 0.00469167 0.013498 272510
0.0617078 0.00129945 3.74166e-05 4.04301e-09 17744 0.00129801 4.03852e-09 0.00447196 0.016042 321406
0.0651975 0.00148543 4.41303e-05 3.91855e-09 20570 0.00148441 3.91585e-09 0.0042528 0.0189533 379076
0.0688845 0.00169379 5.20486e-05 3.78843e-09 24872 0.00169268 3.78595e-09 0.00403532 0.0233503 447094
0.0727801 0.00186796 6.13877e-05 3.54239e-09 29132 0.00186637 3.53937e-09 0.00382053 0.0270112 527316
0.0768959 0.00202946 7.24025e-05 3.26315e-09 34136 0.00202738 3.2598e-09 0.00360937 0.0308616 621933
0.0812445 0.00219149 8.53937e-05 2.98761e-09 40372 0.00218992 2.98547e-09 0.00340268 0.0354472 733526
0.085839 0.00237415 0.000100716 2.74423e-09 47702 0.00237194 2.74167e-09 0.00320119 0.0408926 865143
0.0906933 0.00253786 0.000118787 2.48718e-09 56252 0.00253637 2.48572e-09 0.00300554 0.0465504 1.02038e+06
0.0958222 0.00268741 0.000140101 2.23306e-09 66082 0.00268539 2.23138e-09 0.00281625 0.0523977 1.20346e+06
0.101241 0.00289324 0.00016524 2.03835e-09 77876 0.00289174 2.0373e-09 0.00263378 0.0602703 1.4194e+06
0.106966 0.00318399 0.000194889 1.90193e-09 92650 0.00318175 1.90059e-09 0.00245848 0.0716759 1.67408e+06
0.113016 0.00353019 0.000229858 1.78792e-09 108490 0.003527 1.78631e-09 0.0022906 0.0846817 1.97446e+06
0.119407 0.00388621 0.000271101 1.6688e-09 128882 0.00388179 1.6669e-09 0.00213033 0.10096 2.32874e+06
0.126159 0.00439264 0.000319745 1.59931e-09 150730 0.00438788 1.59757e-09 0.00197778 0.121886 2.74659e+06
0.133294 0.00484035 0.000377117 1.49421e-09 178516 0.00483664 1.49306e-09 0.00183298 0.145522 3.23941e+06
0.140832 0.00516862 0.000444783 1.35281e-09 210280 0.00516489 1.35183e-09 0.00169593 0.167736 3.82066e+06
0.148796 0.00543766 0.000524591 1.20671e-09 247692 0.00543445 1.20599e-09 0.00156653 0.190798 4.5062e+06
0.157211 0.00562193 0.000618719 1.0578e-09 292948 0.00561884 1.05722e-09 0.00144468 0.214498 5.31475e+06
0.166102 0.00599549 0.000729735 9.56465e-10 345852 0.00599033 9.55643e-10 0.0013302 0.248681 6.26838e+06
0.175495 0.00652831 0.000860672 8.83025e-10 406882 0.00652096 8.82031e-10 0.0012229 0.293799 7.39312e+06
0.185419 0.0072122 0.0010151 8.27119e-10 480198 0.00720363 8.26136e-10 0.00112256 0.353817 8.71966e+06
0.195905 0.00790166 0.00119724 7.68327e-10 565530 0.00789495 7.67675e-10 0.00102893 0.422296 1.02842e+07
0.206984 0.00837175 0.00141206 6.90195e-10 668550 0.00836669 6.89778e-10 0.000941736 0.489978 1.21295e+07
0.218689 0.00869683 0.00166543 6.07917e-10 787620 0.00869143 6.0754e-10 0.000860706 0.556296 1.43059e+07
0.231057 0.00915889 0.00196426 5.42818e-10 930848 0.0091501 5.42297e-10 0.00078555 0.643219 1.68729e+07
0.244123 0.00986929 0.00231671 4.95935e-10 1.0948e+06 0.00985828 4.95382e-10 0.000715973 0.758341 1.99004e+07
0.257929 0.0107167 0.0027324 4.56589e-10 1.29177e+06 0.0107064 4.56154e-10 0.000651679 0.905056 2.34711e+07
0.272515 0.0113245 0.00322267 4.09085e-10 1.52529e+06 0.0113164 4.08793e-10 0.000592374 1.05334 2.76825e+07
0.287926 0.0118302 0.00380091 3.62339e-10 1.79673e+06 0.0118213 3.62066e-10 0.000537765 1.21062 3.26496e+07
0.304209 0.0125602 0.00448291 3.26172e-10 2.12289e+06 0.0125481 3.25857e-10 0.000487565 1.42017 3.85079e+07
0.321413 0.0134653 0.00528728 2.96478e-10 2.50053e+06 0.0134518 2.9618e-10 0.000441493 1.67919 4.54174e+07
0.339589 0.014213 0.00623598 2.65333e-10 2.94969e+06 0.0142012 2.65113e-10 0.000399279 1.96016 5.35667e+07
0.358793 0.0148828 0.00735491 2.35569e-10 3.47889e+06 0.0148683 2.35339e-10 0.000360659 2.27228 6.31782e+07
0.379084 0.0158273 0.0086746 2.12407e-10 4.10369e+06 0.0158113 2.12192e-10 0.000325382 2.67885 7.45142e+07
0.400522 0.0167273 0.0102311 1.90333e-10 4.84176e+06 0.0167114 1.90153e-10 0.000293206 3.143 8.78843e+07
0.423172 0.0175758 0.0120669 1.69563e-10 5.70705e+06 0.0175587 1.69398e-10 0.000263903 3.66691 1.03653e+08
0.447103 0.01857 0.014232 1.51899e-10 6.73675e+06 0.0185508 1.51742e-10 0.000237253 4.31315 1.22252e+08
0.472387 0.0195441 0.0167857 1.35546e-10 7.9377e+06 0.0195244 1.35409e-10 0.000213051 5.05007 1.44188e+08
0.499101 0.0205585 0.0197975 1.2089e-10 9.36285e+06 0.0205378 1.20769e-10 0.000191102 5.92287 1.70059e+08
0.527327 0.0216327 0.0233498 1.07854e-10 1.10478e+07 0.0216112 1.07747e-10 0.000171224 6.95904 2.00573e+08
0.557148 0.0227297 0.0275395 9.60833e-11 1.30307e+07 0.0227065 9.59852e-11 0.000153245 8.17011 2.36562e+08
0.588655 0.0238796 0.0324809 8.55873e-11 1.53619e+07 0.0238551 8.54996e-11 0.000137005 9.59658 2.79008e+08
0.621945 0.0250943 0.0383089 7.6258e-11 1.81296e+07 0.0250681 7.61785e-11 0.000122355 11.2993 3.29071e+08
0.657117 0.026319 0.0451827 6.78122e-11 2.13731e+07 0.0262915 6.77413e-11 0.000109156 13.2778 3.88116e+08
0.694278 0.0276043 0.0532898 6.03035e-11 2.52109e+07 0.0275751 6.02397e-11 9.72796e-05 15.6282 4.57756e+08
0.733541 0.0289452 0.0628516 5.3613e-11 2.9726e+07 0.0289144 5.3556e-11 8.66058e-05 18.4018 5.39891e+08
0.775024 0.0303177 0.0741291 4.76121e-11 3.50739e+07 0.0302854 4.75615e-11 7.70247e-05 21.6806 6.36764e+08
0.818852 0.0317366 0.0874301 4.2258e-11 4.13576e+07 0.0317028 4.2213e-11 6.84347e-05 25.5381 7.51019e+08
0.86516 0.0331917 0.103118 3.74719e-11 4.87837e+07 0.0331557 3.74313e-11 6.07424e-05 30.0946 8.85775e+08
0.914086 0.0346755 0.12162 3.31915e-11 5.75372e+07 0.0346382 3.31558e-11 5.3862e-05 35.4563 1.04471e+09
0.965779 0.0361994 0.143443 2.93787e-11 6.78547e+07 0.0361603 2.9347e-11 4.77149e-05 41.7791 1.23216e+09
1.0204 0.0377642 0.16918 2.5986e-11 8.00386e+07 0.0377235 2.5958e-11 4.22291e-05 49.2525 1.45325e+09
1.0781 0.0393596 0.199537 2.29635e-11 9.43992e+07 0.0393163 2.29383e-11 3.73389e-05 58.0557 1.71401e+09
1.13907 0.0410117 0.235339 2.02872e-11 1.11325e+08 0.0409664 2.02648e-11 3.29844e-05 68.4711 2.02155e+09
1.20349 0.0427369 0.277566 1.79245e-11 1.31307e+08 0.0426888 1.79043e-11 2.91111e-05 80.8494 2.38428e+09
1.27154 0.0445682 0.32737 1.58488e-11 1.54867e+08 0.0445172 1.58307e-11 2.56695e-05 95.6174 2.81209e+09
1.34345 0.0465391 0.38611 1.40319e-11 1.82662e+08 0.0464847 1.40155e-11 2.26148e-05 113.337 3.31666e+09
1.41943 0.0486924 0.45539 1.24476e-11 2.15434e+08 0.0486338 1.24327e-11 1.99062e-05 134.715 3.91177e+09
1.4997 0.0510854 0.537101 1.10726e-11 2.54082e+08 0.0510213 1.10587e-11 1.75069e-05 160.7 4.61366e+09
1.58451 0.0537969 0.633473 9.88641e-12 2.99691e+08 0.0537263 9.87345e-12 1.53838e-05 192.597 5.4415e+09
1.67412 0.0568929 0.747138 8.86478e-12 3.53444e+08 0.0568148 8.8526e-12 1.35069e-05 231.971 6.41786e+09
1.76879 0.0605262 0.881197 7.99614e-12 4.16883e+08 0.0604372 7.98438e-12 1.18493e-05 281.321 7.56942e+09
1.86882 0.0649138 1.03931 7.27113e-12 4.91657e+08 0.0648107 7.25958e-12 1.03867e-05 344.18 8.92761e+09
1.9745 0.0705196 1.22579 6.69735e-12 5.79899e+08 0.0703941 6.68542e-12 9.09749e-06 426.907 1.05295e+10
2.08616 0.0783709 1.44574 6.31067e-12 6.83936e+08 0.0782038 6.29721e-12 7.96208e-06 542.082 1.24188e+10
2.20414 0.0846194 1.70515 5.77721e-12 1.99573e+06 0.0904785 6.17723e-12 6.96304e-06 1.65585 1.46471e+10
2.32879 0 2.0111 0 0 0 0 6.08479e-06 0 1.72752e+10
2.46049 0 2.37196 0 0 0 0 5.3134e-06 0 2.03749e+10
2.59963 0 2.79756 0 0 0 0 4.63644e-06 0 2.40308e+10
2.74664 0 3.29952 0 0 0 0 4.04286e-06 0 2.83427e+10
2.90197 0 3.89156 0 0 0 0 3.52282e-06 0 3.34282e+10
3.06608 0 4.58982 0 0 0 0 3.06758e-06 0 3.94263e+10
3.23947 0 5.41337 0 0 0 0 2.66939e-06 0 4.65005e+10
3.42267 0 6.38469 0 0 0 0 2.32136e-06 0 5.48441e+10
3.61623 0 7.5303 0 0 0 0 2.01741e-06 0 6.46848e+10
3.82073 0 8.88147 0 0 0 0 1.75215e-06 0 7.62912e+10
4.0368 0 10.4751 0 0 0 0 1.52084e-06 0 8.99802e+10
4.26509 0 12.3546 0 0 0 0 1.31927e-06 0 1.06125e+11
4.50629 0 14.5714 0 0 0 0 1.14374e-06 0 1.25167e+11
4.76113 0 17.186 0 0 0 0 9.90997e-07 0 1.47626e+11
5.03038 0 20.2696 0 0 0 0 8.58167e-07 0 1.74115e+11
5.31485 0 23.9066 0 0 0 0 7.42731e-07 0 2.05356e+11
5.61542 0 28.1962 0 0 0 0 6.42478e-07 0 2.42204e+11
5.93298 0 33.2555 0 0 0 0 5.55464e-07 0 2.85662e+11
6.2685 0 39.2225 0 0 0 0 4.79988e-07 0 3.36919e+11
6.62299 0 46.2602 0 0 0 0 4.1456e-07 0 3.97372e+11
6.99754 0 54.5607 0 0 0 0 3.57875e-07 0 4.68673e+11
7.39326 0 64.3505 0 0 0 0 3.08793e-07 0 5.52767e+11
7.81136 0 75.8969 0 0 0 0 2.66319e-07 0 6.5195e+11
8.25311 0 89.5151 0 0 0 0 2.29582e-07 0 7.68929e+11
8.71983 0 105.577 0 0 0 0 1.97824e-07 0 9.06898e+11
9.21295 0 124.521 0 0 0 0 1.70386e-07 0 1.06962e+12
9.73396 0 146.863 0 0 0 0 1.46692e-07 0 1.26155e+12
10.2844 0 173.215 0 0 0 0 1.2624e-07 0 1.48791e+12
10.866 0 204.295 0 0 0 0 1.08596e-07 0 1.75488e+12
11.4805 0 240.952 0 0 0 0 9.33817e-08 0 2.06976e+12
12.1298 0 284.186 0 0 0 0 8.02681e-08 0 2.44114e+12
12.8157 0 335.177 0 0 0 0 6.89705e-08 0 2.87915e+12
13.5405 0 395.318 0 0 0 0 5.92414e-08 0 3.39576e+12
14.3062 0 466.25 0 0 0 0 5.08668e-08 0 4.00506e+12
15.1153 0 549.91 0 0 0 0 4.36611e-08 0 4.72369e+12
15.9701 0 648.58 0 0 0 0 3.74635e-08 0 5.57126e+12
16.8732 0 764.955 0 0 0 0 3.21352e-08 0 6.57091e+12
17.8274 0 902.211 0 0 0 0 2.7556e-08 0 7.74994e+12
18.8356 0 1064.1 0 0 0 0 2.3622e-08 0 9.14051e+12
19.9008 0 1255.03 0 0 0 0 2.02435e-08 0 1.07806e+13
21.0262 0 1480.22 0 0 0 0 1.73432e-08 0 1.2715e+13
22.2152 0 1745.81 0 0 0 0 1.48541e-08 0 1.49964e+13
23.4716 0 2059.06 0 0 0 0 1.27187e-08 0 1.76872e+13
24.7989 0 2428.52 0 0 0 0 1.08874e-08 0 2.08608e+13
26.2013 0 2864.27 0 0 0 0 9.31732e-09 0 2.46039e+13
27.6831 0 3378.21 0 0 0 0 7.97161e-09 0 2.90186e+13
29.2486 0 3984.36 0 0 0 0 6.81857e-09 0 3.42254e+13
30.9026 0 4699.28 0 0 0 0 5.83089e-09 0 4.03665e+13
32.6502 0 5542.47 0 0 0 0 4.9851e-09 0 4.76094e+13
34.4967 0 6536.95 0 0 0 0 4.26103e-09 0 5.6152e+13
36.4475 0 7709.88 0 0 0 0 3.64131e-09 0 6.62274e+13
38.5087 0 9093.27 0 0 0 0 3.11104e-09 0 7.81106e+13
40.6864 0 10724.9 0 0 0 0 2.65744e-09 0 9.2126e+13
42.9873 0 12649.2 0 0 0 0 2.26951e-09 0 1.08656e+14
45.4183 0 14918.9 0 0 0 0 1.93782e-09 0 1.28152e+14
47.9868 0 17595.8 0 0 0 0 1.65429e-09 0 1.51147e+14
50.7005 0 20753 0 0 0 0 1.41197e-09 0 1.78267e+14
53.5677 0 24476.7 0 0 0 0 1.20493e-09 0 2.10254e+14
56.5971 0 28868.6 0 0 0 0 1.02806e-09 0 2.47979e+14
59.7977 0 34048.5 0 0 0 0 8.77005e-10 0 2.92474e+14
63.1794 0 40157.8 0 0 0 0 7.48017e-10 0 3.44953e+14
66.7523 0 47363.4 0 0 0 0 6.37895e-10 0 4.06848e+14
70.5272 0 55861.8 0 0 0 0 5.43899e-10 0 4.79849e+14
74.5157 0 65885.1 0 0 0 0 4.63681e-10 0 5.65949e+14
78.7297 0 77706.9 0 0 0 0 3.95235e-10 0 6.67497e+14
83.182 0 91649.8 0 0 0 0 3.36843e-10 0 7.87266e+14
87.8861 0 108095 0 0 0 0 2.87037e-10 0 9.28526e+14
92.8562 0 127490 0 0 0 0 2.44561e-10 0 1.09513e+15
98.1073 0 150366 0 0 0 0 2.08343e-10 0 1.29163e+15
103.655 0 177346 0 0 0 0 1.77465e-10 0 1.52339e+15
109.517 0 209167 0 0 0 0 1.51145e-10 0 1.79673e+15
115.711 0 246698 0 0 0 0 1.28712e-10 0 2.11912e+15
122.254 0 290963 0 0 0 0 1.09595e-10 0 2.49935e+15
