0.180593
200
2.30148e+11
8589934592
0.0021528 0 1.58875e-09 0 0 0 0 0.00197275 0 13.6473
0.00227455 0 1.87382e-09 0 0 0 0 0.00207247 0 16.096
0.00240318 0 2.21004e-09 0 0 0 0 0.00217643 0 18.9841
0.00253908 0 2.60659e-09 0 0 0 0 0.00228471 0 22.3904
0.00268267 0 3.07429e-09 0 0 0 0 0.00239737 0 26.408
0.00283438 0 3.62591e-09 0 0 0 0 0.00251449 0 31.1464
0.00299467 0 4.27651e-09 0 0 0 0 0.00263608 0 36.735
0.00316402 0 5.04385e-09 0 0 0 0 0.00276218 0 43.3263
0.00334295 0 5.94887e-09 0 0 0 0 0.00289278 0 51.1004
0.003532 0 7.01627e-09 0 0 0 0 0.00302786 0 60.2693
0.00373174 0 8.27521e-09 0 0 0 0 0.00316735 0 71.0835
0.00394278 0 9.76003e-09 0 0 0 0 0.00331119 0 83.838
0.00416575 0 1.15113e-08 0 0 0 0 0.00345926 0 98.8811
0.00440133 0 1.35767e-08 0 0 0 0 0.00361139 0 116.623
0.00465023 0 1.60128e-08 0 0 0 0 0.00376739 0 137.549
0.00491321 0 1.8886e-08 0 0 0 0 0.00392704 0 162.23
0.00519106 0 2.22747e-08 0 0 0 0 0.00409003 0 191.338
0.00548462 0 2.62715e-08 0 0 0 0 0.00425603 0 225.67
0.00579479 0 3.09854e-08 0 0 0 0 0.00442465 0 266.162
0.00612249 0 3.65451e-08 0 0 0 0 0.00459545 0 313.92
0.00646873 0 4.31024e-08 0 0 0 0 0.00476791 0 370.247
0.00683455 0 5.08363e-08 0 0 0 0 0.00494148 0 436.68
0.00722105 0 5.99579e-08 0 0 0 0 0.00511552 0 515.034
0.00762942 0 7.07161e-08 0 0 0 0 0.00528933 0 607.447
0.00806087 0 8.34047e-08 0 0 0 0 0.00546217 0 716.441
0.00851673 0 9.837e-08 0 0 0 0 0.00563323 0 844.992
0.00899837 0 1.16021e-07 0 0 0 0 0.00580162 0 996.609
0.00950724 0 1.36838e-07 0 0 0 0 0.00596643 0 1175.43
0.0100449 0 1.61391e-07 0 0 0 0 0.00612667 0 1386.34
0.0106129 0 1.9035e-07 0 0 0 0 0.00628133 0 1635.09
0.0112131 0 2.24504e-07 0 0 0 0 0.00642937 0 1928.48
0.0118472 0 2.64787e-07 0 0 0 0 0.0065697 0 2274.5
0.0125172 0 3.12298e-07 0 0 0 0 0.00670125 0 2682.62
0.0132251 0 3.68333e-07 0 0 0 0 0.00682292 0 3163.96
0.013973 0 4.34423e-07 0 0 0 0 0.00693364 0 3731.67
0.0147632 0 5.12372e-07 0 0 0 0 0.00703238 0 4401.24
0.0155981 0 6.04307e-07 0 0 0 0 0.00711814 0 5190.96
0.0164802 0 7.12738e-07 0 0 0 0 0.00718999 0 6122.38
0.0174122 0 8.40625e-07 0 0 0 0 0.00724706 0 7220.91
0.0183969 0 9.91459e-07 0 0 0 0 0.0072886 0 8516.57
0.0194372 0 1.16936e-06 0 0 0 0 0.00731397 0 10044.7
0.0205364 0 1.37917e-06 0 0 0 0 0.00732263 0 11847
0.0216978 0 1.62664e-06 0 0 0 0 0.0073142 0 13972.7
0.0229249 0 1.91851e-06 0 0 0 0 0.00728845 0 16479.9
0.0242213 0 2.26275e-06 0 0 0 0 0.00724528 0 19436.8
0.025591 0 2.66875e-06 0 0 0 0 0.00718478 0 22924.4
0.0270383 0 3.14761e-06 0 0 0 0 0.0071072 0 27037.7
0.0285673 0 3.71238e-06 0 0 0 0 0.00701294 0 31889.1
0.0301829 0 4.3785e-06 0 0 0 0 0.00690256 0 37611
0.0318897 0 5.16413e-06 0 0 0 0 0.00677679 0 44359.6
0.0336932 0 6.09073e-06 0 0 0 0 0.00663647 0 52319
0.0355986 0 7.1836e-06 0 0 0 0 0.00648261 0 61706.6
0.0376117 0 8.47255e-06 0 0 0 0 0.00631629 0 72778.6
0.0397387 0 9.99278e-06 0 0 0 0 0.00613872 0 85837.3
0.041986 0 1.17858e-05 0 0 0 0 0.00595116 0 101239
0.0443604 0 1.39005e-05 0 0 0 0 0.00575493 0 119405
0.0468691 0 1.63947e-05 0 0 0 0 0.00555141 0 140829
0.0495196 0 1.93364e-05 0 0 0 0 0.00534196 0 166098
0.05232 0 2.28059e-05 0 0 0 0 0.00512796 0 195901
0.0552788 0 2.6898e-05 0 0 0 0 0.00491076 0 231052
0.0584049 0 3.17243e-05 0 0 0 0 0.00469167 0 272510
0.0617078 0 3.74166e-05 0 0 0 0 0.00447196 0 321406
0.0651975 0 4.41303e-05 0 0 0 0 0.0042528 0 379076
0.0688845 0.299957 5.20486e-05 6.70904e-07 6 0.307998 6.88888e-07 0.00403532 0.000997548 447094
0.0727801 0 6.13877e-05 0 0 0 0 0.00382053 0 527316
0.0768959 0 7.24025e-05 0 0 0 0 0.00360937 0 621933
0.0812445 0 8.53937e-05 0 0 0 0 0.00340268 0 733526
0.085839 0 0.000100716 0 0 0 0 0.00320119 0 865143
0.0906933 0 0.000118787 0 0 0 0 0.00300554 0 1.02038e+06
0.0958222 5.52589 0.000140101 4.59166e-06 12 5.59858 4.65206e-06 0.00281625 0.019565 1.20346e+06
0.101241 0 0.00016524 0 0 0 0 0.00263378 0 1.4194e+06
0.106966 0 0.000194889 0 0 0 0 0.00245848 0 1.67408e+06
0.113016 9.89997 0.000229858 5.014e-06 8 9.55861 4.84111e-06 0.0022906 0.0175116 1.97446e+06
0.119407 0 0.000271101 0 0 0 0 0.00213033 0 2.32874e+06
0.126159 0 0.000319745 0 0 0 0 0.00197778 0 2.74659e+06
0.133294 0.0787125 0.000377117 2.42984e-08 6 0.0780993 2.41091e-08 0.00183298 7.95372e-05 3.23941e+06
0.140832 0 0.000444783 0 0 0 0 0.00169593 0 3.82066e+06
0.148796 0.240217 0.000524591 5.33081e-08 24 0.237727 5.27554e-08 0.00156653 0.000816706 4.5062e+06
0.157211 0 0.000618719 0 0 0 0 0.00144468 0 5.31475e+06
0.166102 0.898178 0.000729735 1.43287e-07 24 0.914234 1.45849e-07 0.0013302 0.00258525 6.26838e+06
0.175495 0 0.000860672 0 0 0 0 0.0012229 0 7.39312e+06
0.185419 1.10919 0.0010151 1.27205e-07 12 1.07124 1.22853e-07 0.00112256 0.0013598 8.71966e+06
0.195905 1.19292 0.00119724 1.15995e-07 30 1.14427 1.11264e-07 0.00102893 0.00338202 1.02842e+07
0.206984 6.52717 0.00141206 5.38122e-07 24 6.28059 5.17793e-07 0.000941736 0.013714 1.21295e+07
0.218689 7.70462 0.00166543 5.38561e-07 24 7.49996 5.24255e-07 0.000860706 0.0150173 1.43059e+07
0.231057 26.2634 0.00196426 1.55654e-06 8 26.0535 1.54411e-06 0.00078555 0.0158518 1.68729e+07
0.244123 0.318692 0.00231671 1.60144e-08 72 0.30681 1.54173e-08 0.000715973 0.00161045 1.99004e+07
0.257929 0 0.0027324 0 0 0 0 0.000651679 0 2.34711e+07
0.272515 0.289995 0.00322267 1.04757e-08 54 0.283168 1.02291e-08 0.000592374 0.000954954 2.76825e+07
0.287926 1.18776 0.00380091 3.63789e-08 60 1.17621 3.60252e-08 0.000537765 0.0040589 3.26496e+07
0.304209 0.121412 0.00448291 3.1529e-09 72 0.1205 3.12923e-09 0.000487565 0.000465597 3.85079e+07
0.321413 0.612047 0.00528728 1.34761e-08 48 0.5943 1.30853e-08 0.000441493 0.00146514 4.54174e+07
0.339589 3.71074 0.00623598 6.92732e-08 134 3.60798 6.7355e-08 0.000399279 0.0232484 5.35667e+07
0.358793 0.280844 0.00735491 4.44526e-09 120 0.272877 4.31917e-09 0.000360659 0.00147905 6.31782e+07
0.379084 0.30832 0.0086746 4.13773e-09 60 0.301124 4.04117e-09 0.000325382 0.000762992 7.45142e+07
0.400522 1.13139 0.0102311 1.28736e-08 150 1.15331 1.3123e-08 0.000293206 0.00658596 8.78843e+07
0.423172 0.67385 0.0120669 6.50099e-09 240 0.674013 6.50256e-09 0.000263903 0.00591217 1.03653e+08
0.447103 3.18505 0.014232 2.60532e-08 168 3.21705 2.63149e-08 0.000237253 0.0184484 1.22252e+08
0.472387 4.14018 0.0167857 2.87138e-08 218 4.11188 2.85176e-08 0.000213051 0.0293808 1.44188e+08
0.499101 0.437846 0.0197975 2.57466e-09 288 0.43375 2.55058e-09 0.000191102 0.00388014 1.70059e+08
0.527327 0.410165 0.0233498 2.04497e-09 342 0.423026 2.10908e-09 0.000171224 0.00408458 2.00573e+08
0.557148 0.161799 0.0275395 6.83958e-10 396 0.161715 6.83607e-10 0.000153245 0.00176741 2.36562e+08
0.588655 0.526609 0.0324809 1.88743e-09 470 0.534731 1.91654e-09 0.000137005 0.00647487 2.79008e+08
0.621945 1.68277 0.0383089 5.11369e-09 624 1.74249 5.29519e-09 0.000122355 0.0260793 3.29071e+08
0.657117 0.390618 0.0451827 1.00644e-09 642 0.398444 1.02661e-09 0.000109156 0.00591937 3.88116e+08
0.694278 1.51733 0.0532898 3.31471e-09 704 1.52022 3.32102e-09 9.72796e-05 0.0239881 4.57756e+08
0.733541 1.27134 0.0628516 2.3548e-09 990 1.24352 2.30327e-09 8.66058e-05 0.026918 5.39891e+08
0.775024 0.630321 0.0741291 9.89881e-10 1044 0.625615 9.82491e-10 7.70247e-05 0.0134169 6.36764e+08
0.818852 0.283584 0.0874301 3.77599e-10 1214 0.282928 3.76725e-10 6.84347e-05 0.00669843 7.51019e+08
0.86516 1.26268 0.103118 1.42551e-09 1506 1.22892 1.38739e-09 6.07424e-05 0.0353429 8.85775e+08
0.914086 0.399902 0.12162 3.82788e-10 1718 0.401965 3.84762e-10 5.3862e-05 0.0122095 1.04471e+09
0.965779 0.867525 0.143443 7.04067e-10 2100 0.88285 7.16505e-10 4.77149e-05 0.030987 1.23216e+09
1.0204 1.04007 0.16918 7.15686e-10 2354 1.05222 7.24045e-10 4.22291e-05 0.0398949 1.45325e+09
1.0781 0.220985 0.199537 1.28929e-10 2982 0.222933 1.30066e-10 3.73389e-05 0.0102967 1.71401e+09
1.13907 0.822334 0.235339 4.06784e-10 3386 0.813224 4.02277e-10 3.29844e-05 0.0417583 2.02155e+09
1.20349 0.648084 0.277566 2.71816e-10 3858 0.636394 2.66913e-10 2.91111e-05 0.0360229 2.38428e+09
1.27154 0.723536 0.32737 2.57295e-10 4910 0.717891 2.55287e-10 2.56695e-05 0.0492146 2.81209e+09
1.34345 0.294721 0.38611 8.88607e-11 5346 0.294779 8.8878e-11 2.26148e-05 0.0210061 3.31666e+09
1.41943 0.688592 0.45539 1.76031e-10 6698 0.696951 1.78167e-10 1.99062e-05 0.0592306 3.91177e+09
1.4997 0.562222 0.537101 1.2186e-10 7736 0.564772 1.22413e-10 1.75069e-05 0.0538479 4.61366e+09
1.58451 0.577739 0.633473 1.06173e-10 9362 0.594059 1.09172e-10 1.53838e-05 0.0646129 5.4415e+09
1.67412 0.527794 0.747138 8.22383e-11 10770 0.524235 8.16837e-11 1.35069e-05 0.0655744 6.41786e+09
1.76879 0.705645 0.881197 9.32231e-11 12584 0.697041 9.20864e-11 1.18493e-05 0.0990034 7.56942e+09
1.86882 0.39021 1.03931 4.37082e-11 15146 0.388967 4.3569e-11 1.03867e-05 0.0637357 8.92761e+09
1.9745 0.600053 1.22579 5.69879e-11 17744 0.598152 5.68073e-11 9.09749e-06 0.111151 1.05295e+10
2.08616 0.515224 1.44574 4.14874e-11 20570 0.516641 4.16016e-11 7.96208e-06 0.107183 1.24188e+10
2.20414 0.479574 1.70515 3.27419e-11 24872 0.478413 3.26626e-11 6.96304e-06 0.116954 1.46471e+10
2.32879 0.620851 2.0111 3.59388e-11 29132 0.621134 3.59552e-11 6.08479e-06 0.172063 1.72752e+10
2.46049 0.557385 2.37196 2.73564e-11 34136 0.553764 2.71787e-11 5.3134e-06 0.175751 2.03749e+10
2.59963 0.668826 2.79756 2.7832e-11 40372 0.669625 2.78652e-11 4.63644e-06 0.242348 2.40308e+10
2.74664 0.763589 3.29952 2.69413e-11 47702 0.755537 2.66572e-11 4.04286e-06 0.317883 2.83427e+10
2.90197 0.91197 3.89156 2.72814e-11 56012 0.908521 2.71783e-11 3.52282e-06 0.433768 3.34282e+10
3.06608 1.29159 4.58982 3.27597e-11 66322 1.28389 3.25644e-11 3.06758e-06 0.708275 3.94263e+10
3.23947 1.67939 5.41337 3.61156e-11 77876 1.67081 3.59311e-11 2.66939e-06 1.05363 4.65005e+10
3.42267 2.53962 6.38469 4.63062e-11 92650 2.52379 4.60175e-11 2.32136e-06 1.84817 5.48441e+10
3.61623 3.67775 7.5303 5.68565e-11 108250 3.65234 5.64636e-11 2.01741e-06 3.0508 6.46848e+10
3.82073 4.79526 8.88147 6.28547e-11 128258 4.7636 6.24397e-11 1.75215e-06 4.60097 7.62912e+10
4.0368 5.92667 10.4751 6.58664e-11 151594 5.9157 6.57445e-11 1.52084e-06 6.56541 8.99802e+10
4.26509 7.30143 12.3546 6.88001e-11 178516 7.28293 6.86257e-11 1.31927e-06 9.30962 1.06125e+11
4.50629 8.18388 14.5714 6.53834e-11 209896 8.15881 6.51832e-11 1.14374e-06 11.999 1.25167e+11
4.76113 9.53198 17.186 6.45683e-11 248076 9.50828 6.44078e-11 9.90997e-07 16.1634 1.47626e+11
5.03038 11.3075 20.2696 6.49428e-11 292420 11.2813 6.47924e-11 8.58167e-07 22.1292 1.74115e+11
5.31485 13.5033 23.9066 6.57552e-11 345804 13.462 6.55541e-11 7.42731e-07 30.6146 2.05356e+11
5.61542 15.6128 28.1962 6.44616e-11 406714 15.5699 6.42843e-11 6.42478e-07 40.8067 2.42204e+11
5.93298 18.0558 33.2555 6.3207e-11 479520 18.011 6.30498e-11 5.55464e-07 54.5652 2.85662e+11
6.2685 20.751 39.2225 6.15905e-11 566472 20.7061 6.14572e-11 4.79988e-07 72.6878 3.36919e+11
6.62299 24.0716 46.2602 6.0577e-11 668454 24.0042 6.04074e-11 4.1456e-07 97.6769 3.97372e+11
6.99754 28.0172 54.5607 5.97798e-11 787572 27.9364 5.96076e-11 3.57875e-07 131.557 4.68673e+11
7.39326 33.0259 64.3505 5.97465e-11 930080 32.9229 5.95602e-11 3.08793e-07 179.955 5.52767e+11
7.81136 39.2227 75.8969 6.01622e-11 1.09432e+06 39.1003 5.99745e-11 2.66319e-07 247.211 6.5195e+11
8.25311 46.6003 89.5151 6.06041e-11 1.29162e+06 46.4667 6.04305e-11 2.29582e-07 340.958 7.68929e+11
8.71983 55.1896 105.577 6.08553e-11 1.52605e+06 55.0253 6.06742e-11 1.97824e-07 469.449 9.06898e+11
9.21295 64.9241 124.521 6.06981e-11 1.79721e+06 64.7361 6.05224e-11 1.70386e-07 640.236 1.06962e+12
9.73396 76.3234 146.863 6.04999e-11 2.12116e+06 76.0973 6.03207e-11 1.46692e-07 874.828 1.26155e+12
10.2844 89.8302 173.215 6.03736e-11 2.49914e+06 89.5597 6.01918e-11 1.2624e-07 1195.2 1.48791e+12
10.866 105.908 204.295 6.03508e-11 2.94919e+06 105.593 6.01708e-11 1.08596e-07 1638.97 1.75488e+12
11.4805 124.748 240.952 6.02719e-11 3.47939e+06 124.366 6.00874e-11 9.33817e-08 2245.73 2.06976e+12
12.1298 147.107 284.186 6.02618e-11 4.1004e+06 146.664 6.00802e-11 8.02681e-08 3078.4 2.44114e+12
12.8157 173.633 335.177 6.03071e-11 4.84282e+06 173.113 6.01265e-11 6.89705e-08 4234.51 2.87915e+12
13.5405 204.47 395.318 6.02134e-11 5.70611e+06 203.832 6.00256e-11 5.92414e-08 5799.74 3.39576e+12
14.3062 241.198 466.25 6.02233e-11 6.73072e+06 240.467 6.00409e-11 5.08668e-08 7968.78 4.00506e+12
15.1153 284.405 549.91 6.02083e-11 7.93789e+06 283.535 6.0024e-11 4.36611e-08 10946.3 4.72369e+12
15.9701 335.44 648.58 6.0209e-11 9.3654e+06 334.413 6.00246e-11 3.74635e-08 15051.5 5.57126e+12
16.8732 395.628 764.955 6.0209e-11 1.10411e+07 394.389 6.00204e-11 3.21352e-08 20686.8 6.57091e+12
17.8274 466.561 902.211 6.0202e-11 1.30294e+07 465.107 6.00143e-11 2.7556e-08 28465.5 7.74994e+12
18.8356 550.723 1064.1 6.02508e-11 1.53594e+07 548.994 6.00617e-11 2.3622e-08 39176 9.14051e+12
19.9008 649.521 1255.03 6.02491e-11 1.81236e+07 647.491 6.00608e-11 2.02435e-08 53939.7 1.07806e+13
21.0262 766.008 1480.22 6.02447e-11 2.13681e+07 763.582 6.00538e-11 1.73432e-08 74226.2 1.2715e+13
22.2152 903.626 1745.81 6.02562e-11 2.52005e+07 900.822 6.00692e-11 1.48541e-08 102227 1.49964e+13
23.4716 1067.14 2059.06 6.03341e-11 2.97255e+07 1063.79 6.01443e-11 1.27187e-08 141009 1.76872e+13
24.7989 1258.77 2428.52 6.03415e-11 3.50616e+07 1254.82 6.0152e-11 1.08874e-08 194323 2.08608e+13
26.2013 1492.6 2864.27 6.06651e-11 4.13531e+07 1488.21 6.04866e-11 9.31732e-09 269250 2.46039e+13
27.6831 1754.32 3378.21 6.04552e-11 4.87711e+07 1748.76 6.02635e-11 7.97161e-09 369871 2.90186e+13
29.2486 2220.02 3984.36 6.48647e-11 5.75255e+07 2202.8 6.43616e-11 6.81857e-09 547237 3.42254e+13
30.9026 2448.9 4699.28 6.06668e-11 6.78404e+07 2441.08 6.04729e-11 5.83089e-09 705837 4.03665e+13
32.6502 2894.81 5542.47 6.08034e-11 8.0018e+07 2885.5 6.06078e-11 4.9851e-09 975980 4.76094e+13
34.4967 3518.91 6536.95 6.26675e-11 9.43754e+07 3509.27 6.2496e-11 4.26103e-09 1.38799e+06 5.6152e+13
36.4475 4052.89 7709.88 6.11966e-11 1.11311e+08 4039.72 6.09977e-11 3.64131e-09 1.87071e+06 6.62274e+13
38.5087 4850.72 9093.27 6.21007e-11 1.31285e+08 4834.64 6.18948e-11 3.11104e-09 2.62062e+06 7.81106e+13
40.6864 5694.67 10724.9 6.1814e-11 1.54822e+08 5675.95 6.16107e-11 2.65744e-09 3.60126e+06 9.2126e+13
42.9873 6844.53 12649.2 6.29925e-11 1.82627e+08 6822.48 6.27897e-11 2.26951e-09 5.06901e+06 1.08656e+14
45.4183 8062.42 14918.9 6.29127e-11 2.1538e+08 8035.29 6.2701e-11 1.93782e-09 6.99246e+06 1.28152e+14
47.9868 9686.77 17595.8 6.40885e-11 2.54026e+08 9656.49 6.38881e-11 1.65429e-09 9.8412e+06 1.51147e+14
50.7005 11601.7 20753 6.50803e-11 2.99614e+08 11559.8 6.48453e-11 1.41197e-09 1.38098e+07 1.78267e+14
53.5677 13960.2 24476.7 6.63969e-11 3.53368e+08 13910.2 6.6159e-11 1.20493e-09 1.94721e+07 2.10254e+14
56.5971 17018.6 28868.6 6.86289e-11 4.16783e+08 16956.3 6.8378e-11 1.02806e-09 2.78226e+07 2.47979e+14
59.7977 20976.2 34048.5 7.17197e-11 4.91558e+08 20894 7.14389e-11 8.77005e-10 4.01986e+07 2.92474e+14
63.1794 26294.8 40157.8 7.62272e-11 5.79769e+08 26182.5 7.59015e-11 7.48017e-10 5.90818e+07 3.44953e+14
66.7523 33621.3 47363.4 8.26384e-11 6.8378e+08 33469.5 8.22654e-11 6.37895e-10 8.85827e+07 4.06848e+14
70.5272 38335 55861.8 7.98896e-11 3.00349e+06 41503 8.64917e-11 5.43899e-10 441163 4.79849e+14
74.5157 0 65885.1 0 0 0 0 4.63681e-10 0 5.65949e+14
78.7297 0 77706.9 0 0 0 0 3.95235e-10 0 6.67497e+14
83.182 0 91649.8 0 0 0 0 3.36843e-10 0 7.87266e+14
87.8861 0 108095 0 0 0 0 2.87037e-10 0 9.28526e+14
92.8562 0 127490 0 0 0 0 2.44561e-10 0 1.09513e+15
98.1073 0 150366 0 0 0 0 2.08343e-10 0 1.29163e+15
103.655 0 177346 0 0 0 0 1.77465e-10 0 1.52339e+15
109.517 0 209167 0 0 0 0 1.51145e-10 0 1.79673e+15
115.711 0 246698 0 0 0 0 1.28712e-10 0 2.11912e+15
122.254 0 290963 0 0 0 0 1.09595e-10 0 2.49935e+15
0.180593
200
2.30148e+11
8589934592
0.0021528 1.57373e-07 1.58875e-09 1.15314e-08 6 1.5352e-07 1.12491e-08 0.00197275 3.50722e-05 13.6473
0.00227455 0 1.87382e-09 0 0 0 0 0.00207247 0 16.096
0.00240318 0 2.21004e-09 0 0 0 0 0.00217643 0 18.9841
0.00253908 0 2.60659e-09 0 0 0 0 0.00228471 0 22.3904
0.00268267 0 3.07429e-09 0 0 0 0 0.00239737 0 26.408
0.00283438 0 3.62591e-09 0 0 0 0 0.00251449 0 31.1464
0.00299467 4.47513e-07 4.27651e-09 1.21822e-08 12 4.43326e-07 1.20682e-08 0.00263608 5.5456e-05 36.735
0.00316402 0 5.04385e-09 0 0 0 0 0.00276218 0 43.3263
0.00334295 0 5.94887e-09 0 0 0 0 0.00289278 0 51.1004
0.003532 5.01156e-07 7.01627e-09 8.31527e-09 8 5.12274e-07 8.49975e-09 0.00302786 2.197e-05 60.2693
0.00373174 0 8.27521e-09 0 0 0 0 0.00316735 0 71.0835
0.00394278 0 9.76003e-09 0 0 0 0 0.00331119 0 83.838
0.00416575 3.90573e-06 1.15113e-08 3.94993e-08 6 3.92275e-06 3.96714e-08 0.00345926 6.85105e-05 98.8811
0.00440133 0 1.35767e-08 0 0 0 0 0.00361139 0 116.623
0.00465023 2.82746e-06 1.60128e-08 2.0556e-08 24 2.8427e-06 2.06668e-08 0.00376739 0.000130951 137.549
0.00491321 0 1.8886e-08 0 0 0 0 0.00392704 0 162.23
0.00519106 5.88709e-06 2.22747e-08 3.07679e-08 24 5.83641e-06 3.05031e-08 0.00409003 0.000180544 191.338
0.00548462 0 2.62715e-08 0 0 0 0 0.00425603 0 225.67
0.00579479 9.74034e-06 3.09854e-08 3.65955e-08 12 9.89038e-06 3.71592e-08 0.00442465 9.92498e-05 266.162
0.00612249 9.38e-06 3.65451e-08 2.98802e-08 30 9.54543e-06 3.04072e-08 0.00459545 0.000195064 313.92
0.00646873 1.23018e-05 4.31024e-08 3.32258e-08 24 1.24934e-05 3.37435e-08 0.00476791 0.000167247 370.247
0.00683455 8.45173e-06 5.08363e-08 1.93545e-08 24 8.53948e-06 1.95554e-08 0.00494148 9.40018e-05 436.68
0.00722105 1.91215e-05 5.99579e-08 3.71267e-08 8 1.91773e-05 3.7235e-08 0.00511552 5.80614e-05 515.034
0.00762942 2.68372e-05 7.07161e-08 4.41803e-08 72 2.71037e-05 4.46191e-08 0.00528933 0.000601396 607.447
0.00806087 0 8.34047e-08 0 0 0 0 0.00546217 0 716.441
0.00851673 4.72643e-05 9.837e-08 5.59346e-08 54 4.75058e-05 5.62204e-08 0.00563323 0.000536188 844.992
0.00899837 3.89466e-05 1.16021e-07 3.90791e-08 60 3.89501e-05 3.90827e-08 0.00580162 0.000404153 996.609
0.00950724 4.17713e-05 1.36838e-07 3.5537e-08 72 4.17829e-05 3.55468e-08 0.00596643 0.000428844 1175.43
0.0100449 5.04434e-05 1.61391e-07 3.63861e-08 48 5.04292e-05 3.63758e-08 0.00612667 0.00028507 1386.34
0.0106129 9.50603e-05 1.9035e-07 5.81377e-08 134 9.5283e-05 5.82738e-08 0.00628133 0.00124025 1635.09
0.0112131 9.67035e-05 2.24504e-07 5.0145e-08 120 9.71315e-05 5.0367e-08 0.00642937 0.000935924 1928.48
0.0118472 0.000109184 2.64787e-07 4.80035e-08 60 0.000109593 4.81832e-08 0.0065697 0.000438408 2274.5
0.0125172 0.000140659 3.12298e-07 5.24334e-08 150 0.000140459 5.23591e-08 0.00670125 0.00117366 2682.62
0.0132251 0.000166205 3.68333e-07 5.25308e-08 240 0.000166448 5.26074e-08 0.00682292 0.0018478 3163.96
0.013973 0.000164394 4.34423e-07 4.40538e-08 168 0.000164509 4.40845e-08 0.00693364 0.00106741 3731.67
0.0147632 0.000207323 5.12372e-07 4.71055e-08 218 0.000207522 4.71508e-08 0.00703238 0.00146024 4401.24
0.0155981 0.000284312 6.04307e-07 5.47707e-08 288 0.000284131 5.47357e-08 0.00711814 0.00221602 5190.96
0.0164802 0.000306846 7.12738e-07 5.01187e-08 342 0.000306793 5.01101e-08 0.00718999 0.00238396 6122.38
0.0174122 0.000370582 8.40625e-07 5.13207e-08 396 0.000370436 5.13004e-08 0.00724706 0.00280431 7220.91
0.0183969 0.000389216 9.91459e-07 4.57011e-08 470 0.000389142 4.56924e-08 0.0072886 0.002947 8516.57
0.0194372 0.000498865 1.16936e-06 4.96646e-08 672 0.000498895 4.96675e-08 0.00731397 0.00456313 10044.7
0.0205364 0.000566083 1.37917e-06 4.77827e-08 594 0.000566019 4.77774e-08 0.00732263 0.00387606 11847
0.0216978 0.000743284 1.62664e-06 5.31954e-08 704 0.000743145 5.31854e-08 0.0073142 0.00512011 13972.7
0.0229249 0.000744223 1.91851e-06 4.51595e-08 990 0.000744092 4.51516e-08 0.00728845 0.00613408 16479.9
0.0242213 0.000862767 2.26275e-06 4.43882e-08 1044 0.000862415 4.43701e-08 0.00724528 0.00639606 19436.8
0.025591 0.00107359 2.66875e-06 4.68318e-08 1214 0.0010733 4.68189e-08 0.00718478 0.00791308 22924.4
0.0270383 0.00115338 3.14761e-06 4.26582e-08 1506 0.00115309 4.26475e-08 0.0071072 0.00903919 27037.7
0.0285673 0.00144024 3.71238e-06 4.51641e-08 1718 0.00143955 4.51422e-08 0.00701294 0.0110641 31889.1
0.0301829 0.00142016 4.3785e-06 3.77592e-08 2100 0.00142021 3.77606e-08 0.00690256 0.0114877 37611
0.0318897 0.0017289 5.16413e-06 3.89748e-08 2354 0.00172892 3.89752e-08 0.00677679 0.0135384 44359.6
0.0336932 0.00193596 6.09073e-06 3.70031e-08 2982 0.00193607 3.70051e-08 0.00663647 0.0166268 52319
0.0355986 0.00218746 7.1836e-06 3.54494e-08 3386 0.0021867 3.5437e-08 0.00648261 0.0185159 61706.6
0.0376117 0.00233913 8.47255e-06 3.21404e-08 3858 0.00233949 3.21453e-08 0.00631629 0.0196314 72778.6
0.0397387 0.0028063 9.99278e-06 3.26932e-08 4910 0.00280662 3.2697e-08 0.00613872 0.0261494 85837.3
0.041986 0.00303017 1.17858e-05 2.99309e-08 5346 0.00303059 2.9935e-08 0.00595116 0.0268873 101239
0.0443604 0.00333261 1.39005e-05 2.79103e-08 6698 0.00333411 2.79228e-08 0.00575493 0.032484 119405
0.0468691 0.00388378 1.63947e-05 2.75779e-08 7736 0.00388382 2.75782e-08 0.00555141 0.0384304 140829
0.0495196 0.00422047 1.93364e-05 2.54094e-08 9362 0.00421892 2.54001e-08 0.00534196 0.0445311 166098
0.05232 0.00474935 2.28059e-05 2.42436e-08 10770 0.00474373 2.42149e-08 0.00512796 0.0509175 195901
0.0552788 0.00546031 2.6898e-05 2.36324e-08 12632 0.00545706 2.36183e-08 0.00491076 0.0607899 231052
0.0584049 0.00610535 3.17243e-05 2.24042e-08 15098 0.00610005 2.23847e-08 0.00469167 0.0720975 272510
0.0617078 0.00693893 3.74166e-05 2.15893e-08 17744 0.00693126 2.15654e-08 0.00447196 0.0856628 321406
0.0651975 0.00792399 4.41303e-05 2.09034e-08 20570 0.00791852 2.0889e-08 0.0042528 0.101106 379076
0.0688845 0.00904007 5.20486e-05 2.02196e-08 24872 0.00903412 2.02063e-08 0.00403532 0.124625 447094
0.0727801 0.0099724 6.13877e-05 1.89116e-08 29132 0.00996391 1.88955e-08 0.00382053 0.144203 527316
0.0768959 0.0108351 7.24025e-05 1.74216e-08 34136 0.010824 1.74038e-08 0.00360937 0.164766 621933
0.0812445 0.0116989 8.53937e-05 1.59488e-08 40372 0.0116905 1.59374e-08 0.00340268 0.189229 733526
0.085839 0.0126808 0.000100716 1.46575e-08 47702 0.0126688 1.46436e-08 0.00320119 0.218416 865143
0.0906933 0.0135523 0.000118787 1.32816e-08 56252 0.0135442 1.32737e-08 0.00300554 0.248581 1.02038e+06
0.0958222 0.0143793 0.000140101 1.19483e-08 66082 0.0143687 1.19394e-08 0.00281625 0.280361 1.20346e+06
0.101241 0.0154707 0.00016524 1.08994e-08 77876 0.0154627 1.08939e-08 0.00263378 0.322276 1.4194e+06
0.106966 0.0170237 0.000194889 1.0169e-08 92650 0.0170115 1.01617e-08 0.00245848 0.383226 1.67408e+06
0.113016 0.0189085 0.000229858 9.5765e-09 108490 0.0188913 9.56781e-09 0.0022906 0.453573 1.97446e+06
0.119407 0.0207998 0.000271101 8.93176e-09 128882 0.0207761 8.92158e-09 0.00213033 0.540359 2.32874e+06
0.126159 0.0235086 0.000319745 8.55919e-09 150730 0.0234831 8.5499e-09 0.00197778 0.652311 2.74659e+06
0.133294 0.0259067 0.000377117 7.99735e-09 178516 0.0258872 7.99131e-09 0.00183298 0.778869 3.23941e+06
0.140832 0.0276827 0.000444783 7.24552e-09 210280 0.0276628 7.24033e-09 0.00169593 0.898381 3.82066e+06
0.148796 0.0291743 0.000524591 6.47426e-09 247692 0.0291565 6.47031e-09 0.00156653 1.02368 4.5062e+06
0.157211 0.0302392 0.000618719 5.68967e-09 292948 0.0302221 5.68645e-09 0.00144468 1.15374 5.31475e+06
0.166102 0.0322801 0.000729735 5.14968e-09 345852 0.0322522 5.14522e-09 0.0013302 1.33892 6.26838e+06
0.175495 0.0351976 0.000860672 4.76086e-09 406882 0.0351582 4.75554e-09 0.0012229 1.58402 7.39312e+06
0.185419 0.0388757 0.0010151 4.45839e-09 480198 0.0388293 4.45307e-09 0.00112256 1.90717 8.71966e+06
0.195905 0.0425617 0.00119724 4.13854e-09 565530 0.0425262 4.13509e-09 0.00102893 2.27467 1.02842e+07
0.206984 0.0451817 0.00141206 3.72493e-09 668550 0.0451527 3.72254e-09 0.000941736 2.64437 1.21295e+07
0.218689 0.0471442 0.00166543 3.29543e-09 787620 0.0471132 3.29326e-09 0.000860706 3.0156 1.43059e+07
0.231057 0.0497969 0.00196426 2.9513e-09 930848 0.0497494 2.94849e-09 0.00078555 3.49718 1.68729e+07
0.244123 0.0536863 0.00231671 2.69775e-09 1.0948e+06 0.053626 2.69473e-09 0.000715973 4.12517 1.99004e+07
0.257929 0.0583415 0.0027324 2.48567e-09 1.29177e+06 0.0582857 2.4833e-09 0.000651679 4.92713 2.34711e+07
0.272515 0.0618777 0.00322267 2.23526e-09 1.52529e+06 0.0618315 2.23359e-09 0.000592374 5.7555 2.76825e+07
0.287926 0.06495 0.00380091 1.9893e-09 1.79673e+06 0.0648994 1.98775e-09 0.000537765 6.64648 3.26496e+07
0.304209 0.069135 0.00448291 1.79534e-09 2.12289e+06 0.0690675 1.79359e-09 0.000487565 7.81705 3.85079e+07
0.321413 0.0741727 0.00528728 1.63313e-09 2.50053e+06 0.0740973 1.63147e-09 0.000441493 9.24973 4.54174e+07
0.339589 0.0786 0.00623598 1.46733e-09 2.94969e+06 0.0785315 1.46605e-09 0.000399279 10.84 5.35667e+07
0.358793 0.0827617 0.00735491 1.30997e-09 3.47889e+06 0.0826796 1.30867e-09 0.000360659 12.6359 6.31782e+07
0.379084 0.0882289 0.0086746 1.18405e-09 4.10369e+06 0.088138 1.18283e-09 0.000325382 14.9332 7.45142e+07
0.400522 0.0936144 0.0102311 1.0652e-09 4.84176e+06 0.0935214 1.06414e-09 0.000293206 17.5898 8.78843e+07
0.423172 0.098909 0.0120669 9.54228e-10 5.70705e+06 0.098808 9.53253e-10 0.000263903 20.6357 1.03653e+08
0.447103 0.104936 0.014232 8.58358e-10 6.73675e+06 0.104823 8.57435e-10 0.000237253 24.3729 1.22252e+08
0.472387 0.110938 0.0167857 7.69402e-10 7.9377e+06 0.110822 7.68595e-10 0.000213051 28.6658 1.44188e+08
0.499101 0.117355 0.0197975 6.90084e-10 9.36285e+06 0.117233 6.89367e-10 0.000191102 33.8099 1.70059e+08
0.527327 0.124187 0.0233498 6.19161e-10 1.10478e+07 0.124056 6.18505e-10 0.000171224 39.9499 2.00573e+08
0.557148 0.131234 0.0275395 5.54754e-10 1.30307e+07 0.131092 5.54153e-10 0.000153245 47.1716 2.36562e+08
0.588655 0.138771 0.0324809 4.97373e-10 1.53619e+07 0.13862 4.9683e-10 0.000137005 55.7685 2.79008e+08
0.621945 0.146766 0.0383089 4.46002e-10 1.81296e+07 0.146604 4.4551e-10 0.000122355 66.0849 3.29071e+08
0.657117 0.155062 0.0451827 3.99525e-10 2.13731e+07 0.154888 3.99075e-10 0.000109156 78.2279 3.88116e+08
0.694278 0.16394 0.0532898 3.58137e-10 2.52109e+07 0.163753 3.57729e-10 9.72796e-05 92.8146 4.57756e+08
0.733541 0.173298 0.0628516 3.20987e-10 2.9726e+07 0.1731 3.20619e-10 8.66058e-05 110.173 5.39891e+08
0.775024 0.183175 0.0741291 2.87665e-10 3.50739e+07 0.182964 2.87334e-10 7.70247e-05 130.991 6.36764e+08
0.818852 0.193493 0.0874301 2.57641e-10 4.13576e+07 0.193268 2.57341e-10 6.84347e-05 155.702 7.51019e+08
0.86516 0.204433 0.103118 2.30796e-10 4.87837e+07 0.204192 2.30524e-10 6.07424e-05 185.358 8.85775e+08
0.914086 0.21592 0.12162 2.0668e-10 5.75372e+07 0.215662 2.06432e-10 5.3862e-05 220.782 1.04471e+09
0.965779 0.227919 0.143443 1.84975e-10 6.78547e+07 0.227647 1.84754e-10 4.77149e-05 263.05 1.23216e+09
1.0204 0.240583 0.16918 1.65548e-10 8.00386e+07 0.240293 1.65349e-10 4.22291e-05 313.771 1.45325e+09
1.0781 0.253878 0.199537 1.4812e-10 9.43992e+07 0.253565 1.47937e-10 3.73389e-05 374.473 1.71401e+09
1.13907 0.267836 0.235339 1.3249e-10 1.11325e+08 0.267505 1.32327e-10 3.29844e-05 447.165 2.02155e+09
1.20349 0.282716 0.277566 1.18575e-10 1.31307e+08 0.282362 1.18427e-10 2.91111e-05 534.841 2.38428e+09
1.27154 0.298656 0.32737 1.06204e-10 1.54867e+08 0.298273 1.06068e-10 2.56695e-05 640.741 2.81209e+09
1.34345 0.315649 0.38611 9.51707e-11 1.82662e+08 0.315235 9.50458e-11 2.26148e-05 768.702 3.31666e+09
1.41943 0.334549 0.45539 8.55237e-11 2.15434e+08 0.334101 8.5409e-11 1.99062e-05 925.58 3.91177e+09
1.4997 0.355414 0.537101 7.7035e-11 2.54082e+08 0.354918 7.69276e-11 1.75069e-05 1118.03 4.61366e+09
1.58451 0.379134 0.633473 6.96746e-11 2.99691e+08 0.378578 6.95724e-11 1.53838e-05 1357.33 5.4415e+09
1.67412 0.406774 0.747138 6.33815e-11 3.53444e+08 0.406143 6.32831e-11 1.35069e-05 1658.55 6.41786e+09
1.76879 0.440457 0.881197 5.8189e-11 4.16883e+08 0.439717 5.80912e-11 1.18493e-05 2047.21 7.56942e+09
1.86882 0.483135 1.03931 5.4117e-11 4.91657e+08 0.482231 5.40157e-11 1.03867e-05 2561.64 8.92761e+09
1.9745 0.54154 1.22579 5.14308e-11 5.79899e+08 0.54036 5.13187e-11 9.09749e-06 3278.34 1.05295e+10
2.08616 0.628264 1.44574 5.05898e-11 6.83936e+08 0.626586 5.04547e-11 7.96208e-06 4345.62 1.24188e+10
2.20414 0.695754 1.70515 4.75011e-11 1.99573e+06 0.743929 5.07902e-11 6.96304e-06 13.6147 1.46471e+10
2.32879 0 2.0111 0 0 0 0 6.08479e-06 0 1.72752e+10
2.46049 0 2.37196 0 0 0 0 5.3134e-06 0 2.03749e+10
2.59963 0 2.79756 0 0 0 0 4.63644e-06 0 2.40308e+10
2.74664 0 3.29952 0 0 0 0 4.04286e-06 0 2.83427e+10
2.90197 0 3.89156 0 0 0 0 3.52282e-06 0 3.34282e+10
3.06608 0 4.58982 0 0 0 0 3.06758e-06 0 3.94263e+10
3.23947 0 5.41337 0 0 0 0 2.66939e-06 0 4.65005e+10
3.42267 0 6.38469 0 0 0 0 2.32136e-06 0 5.48441e+10
3.61623 0 7.5303 0 0 0 0 2.01741e-06 0 6.46848e+10
3.82073 0 8.88147 0 0 0 0 1.75215e-06 0 7.62912e+10
4.0368 0 10.4751 0 0 0 0 1.52084e-06 0 8.99802e+10
4.26509 0 12.3546 0 0 0 0 1.31927e-06 0 1.06125e+11
4.50629 0 14.5714 0 0 0 0 1.14374e-06 0 1.25167e+11
4.76113 0 17.186 0 0 0 0 9.90997e-07 0 1.47626e+11
5.03038 0 20.2696 0 0 0 0 8.58167e-07 0 1.74115e+11
5.31485 0 23.9066 0 0 0 0 7.42731e-07 0 2.05356e+11
5.61542 0 28.1962 0 0 0 0 6.42478e-07 0 2.42204e+11
5.93298 0 33.2555 0 0 0 0 5.55464e-07 0 2.85662e+11
6.2685 0 39.2225 0 0 0 0 4.79988e-07 0 3.36919e+11
6.62299 0 46.2602 0 0 0 0 4.1456e-07 0 3.97372e+11
6.99754 0 54.5607 0 0 0 0 3.57875e-07 0 4.68673e+11
7.39326 0 64.3505 0 0 0 0 3.08793e-07 0 5.52767e+11
7.81136 0 75.8969 0 0 0 0 2.66319e-07 0 6.5195e+11
8.25311 0 89.5151 0 0 0 0 2.29582e-07 0 7.68929e+11
8.71983 0 105.577 0 0 0 0 1.97824e-07 0 9.06898e+11
9.21295 0 124.521 0 0 0 0 1.70386e-07 0 1.06962e+12
9.73396 0 146.863 0 0 0 0 1.46692e-07 0 1.26155e+12
10.2844 0 173.215 0 0 0 0 1.2624e-07 0 1.48791e+12
10.866 0 204.295 0 0 0 0 1.08596e-07 0 1.75488e+12
11.4805 0 240.952 0 0 0 0 9.33817e-08 0 2.06976e+12
12.1298 0 284.186 0 0 0 0 8.02681e-08 0 2.44114e+12
12.8157 0 335.177 0 0 0 0 6.89705e-08 0 2.87915e+12
13.5405 0 395.318 0 0 0 0 5.92414e-08 0 3.39576e+12
14.3062 0 466.25 0 0 0 0 5.08668e-08 0 4.00506e+12
15.1153 0 549.91 0 0 0 0 4.36611e-08 0 4.72369e+12
15.9701 0 648.58 0 0 0 0 3.74635e-08 0 5.57126e+12
16.8732 0 764.955 0 0 0 0 3.21352e-08 0 6.57091e+12
17.8274 0 902.211 0 0 0 0 2.7556e-08 0 7.74994e+12
18.8356 0 1064.1 0 0 0 0 2.3622e-08 0 9.14051e+12
19.9008 0 1255.03 0 0 0 0 2.02435e-08 0 1.07806e+13
21.0262 0 1480.22 0 0 0 0 1.73432e-08 0 1.2715e+13
22.2152 0 1745.81 0 0 0 0 1.48541e-08 0 1.49964e+13
23.4716 0 2059.06 0 0 0 0 1.27187e-08 0 1.76872e+13
24.7989 0 2428.52 0 0 0 0 1.08874e-08 0 2.08608e+13
26.2013 0 2864.27 0 0 0 0 9.31732e-09 0 2.46039e+13
27.6831 0 3378.21 0 0 0 0 7.97161e-09 0 2.90186e+13
29.2486 0 3984.36 0 0 0 0 6.81857e-09 0 3.42254e+13
30.9026 0 4699.28 0 0 0 0 5.83089e-09 0 4.03665e+13
32.6502 0 5542.47 0 0 0 0 4.9851e-09 0 4.76094e+13
34.4967 0 6536.95 0 0 0 0 4.26103e-09 0 5.6152e+13
36.4475 0 7709.88 0 0 0 0 3.64131e-09 0 6.62274e+13
38.5087 0 9093.27 0 0 0 0 3.11104e-09 0 7.81106e+13
40.6864 0 10724.9 0 0 0 0 2.65744e-09 0 9.2126e+13
42.9873 0 12649.2 0 0 0 0 2.26951e-09 0 1.08656e+14
45.4183 0 14918.9 0 0 0 0 1.93782e-09 0 1.28152e+14
47.9868 0 17595.8 0 0 0 0 1.65429e-09 0 1.51147e+14
50.7005 0 20753 0 0 0 0 1.41197e-09 0 1.78267e+14
53.5677 0 24476.7 0 0 0 0 1.20493e-09 0 2.10254e+14
56.5971 0 28868.6 0 0 0 0 1.02806e-09 0 2.47979e+14
59.7977 0 34048.5 0 0 0 0 8.77005e-10 0 2.92474e+14
63.1794 0 40157.8 0 0 0 0 7.48017e-10 0 3.44953e+14
66.7523 0 47363.4 0 0 0 0 6.37895e-10 0 4.06848e+14
70.5272 0 55861.8 0 0 0 0 5.43899e-10 0 4.79849e+14
74.5157 0 65885.1 0 0 0 0 4.63681e-10 0 5.65949e+14
78.7297 0 77706.9 0 0 0 0 3.95235e-10 0 6.67497e+14
83.182 0 91649.8 0 0 0 0 3.36843e-10 0 7.87266e+14
87.8861 0 108095 0 0 0 0 2.87037e-10 0 9.28526e+14
92.8562 0 127490 0 0 0 0 2.44561e-10 0 1.09513e+15
98.1073 0 150366 0 0 0 0 2.08343e-10 0 1.29163e+15
103.655 0 177346 0 0 0 0 1.77465e-10 0 1.52339e+15
109.517 0 209167 0 0 0 0 1.51145e-10 0 1.79673e+15
115.711 0 246698 0 0 0 0 1.28712e-10 0 2.11912e+15
122.254 0 290963 0 0 0 0 1.09595e-10 0 2.49935e+15
