0.0721946
200
2.30148e+11
8589934592
0.0021528 0 1.58875e-09 0 0 0 0 0.00197275 0 13.6473
0.00227455 0 1.87382e-09 0 0 0 0 0.00207247 0 16.096
0.00240318 0 2.21004e-09 0 0 0 0 0.00217643 0 18.9841
0.00253908 0 2.60659e-09 0 0 0 0 0.00228471 0 22.3904
0.00268267 0 3.07429e-09 0 0 0 0 0.00239737 0 26.408
0.00283438 0 3.62591e-09 0 0 0 0 0.00251449 0 31.1464
0.00299467 0 4.27651e-09 0 0 0 0 0.00263608 0 36.735
0.00316402 0 5.04385e-09 0 0 0 0 0.00276218 0 43.3263
0.00334295 0 5.94887e-09 0 0 0 0 0.00289278 0 51.1004
0.003532 0 7.01627e-09 0 0 0 0 0.00302786 0 60.2693
0.00373174 0 8.27521e-09 0 0 0 0 0.00316735 0 71.0835
0.00394278 0 9.76003e-09 0 0 0 0 0.00331119 0 83.838
0.00416575 0 1.15113e-08 0 0 0 0 0.00345926 0 98.8811
0.00440133 0 1.35767e-08 0 0 0 0 0.00361139 0 116.623
0.00465023 0 1.60128e-08 0 0 0 0 0.00376739 0 137.549
0.00491321 0 1.8886e-08 0 0 0 0 0.00392704 0 162.23
0.00519106 0 2.22747e-08 0 0 0 0 0.00409003 0 191.338
0.00548462 0 2.62715e-08 0 0 0 0 0.00425603 0 225.67
0.00579479 0 3.09854e-08 0 0 0 0 0.00442465 0 266.162
0.00612249 0 3.65451e-08 0 0 0 0 0.00459545 0 313.92
0.00646873 0 4.31024e-08 0 0 0 0 0.00476791 0 370.247
0.00683455 0 5.08363e-08 0 0 0 0 0.00494148 0 436.68
0.00722105 0 5.99579e-08 0 0 0 0 0.00511552 0 515.034
0.00762942 0 7.07161e-08 0 0 0 0 0.00528933 0 607.447
0.00806087 0 8.34047e-08 0 0 0 0 0.00546217 0 716.441
0.00851673 0 9.837e-08 0 0 0 0 0.00563323 0 844.992
0.00899837 0 1.16021e-07 0 0 0 0 0.00580162 0 996.609
0.00950724 0 1.36838e-07 0 0 0 0 0.00596643 0 1175.43
0.0100449 0 1.61391e-07 0 0 0 0 0.00612667 0 1386.34
0.0106129 0 1.9035e-07 0 0 0 0 0.00628133 0 1635.09
0.0112131 0 2.24504e-07 0 0 0 0 0.00642937 0 1928.48
0.0118472 0 2.64787e-07 0 0 0 0 0.0065697 0 2274.5
0.0125172 0 3.12298e-07 0 0 0 0 0.00670125 0 2682.62
0.0132251 0 3.68333e-07 0 0 0 0 0.00682292 0 3163.96
0.013973 0 4.34423e-07 0 0 0 0 0.00693364 0 3731.67
0.0147632 0 5.12372e-07 0 0 0 0 0.00703238 0 4401.24
0.0155981 0 6.04307e-07 0 0 0 0 0.00711814 0 5190.96
0.0164802 0 7.12738e-07 0 0 0 0 0.00718999 0 6122.38
0.0174122 0 8.40625e-07 0 0 0 0 0.00724706 0 7220.91
0.0183969 0 9.91459e-07 0 0 0 0 0.0072886 0 8516.57
0.0194372 0 1.16936e-06 0 0 0 0 0.00731397 0 10044.7
0.0205364 0 1.37917e-06 0 0 0 0 0.00732263 0 11847
0.0216978 0 1.62664e-06 0 0 0 0 0.0073142 0 13972.7
0.0229249 0 1.91851e-06 0 0 0 0 0.00728845 0 16479.9
0.0242213 0 2.26275e-06 0 0 0 0 0.00724528 0 19436.8
0.025591 0 2.66875e-06 0 0 0 0 0.00718478 0 22924.4
0.0270383 0 3.14761e-06 0 0 0 0 0.0071072 0 27037.7
0.0285673 0 3.71238e-06 0 0 0 0 0.00701294 0 31889.1
0.0301829 0 4.3785e-06 0 0 0 0 0.00690256 0 37611
0.0318897 0 5.16413e-06 0 0 0 0 0.00677679 0 44359.6
0.0336932 0 6.09073e-06 0 0 0 0 0.00663647 0 52319
0.0355986 0 7.1836e-06 0 0 0 0 0.00648261 0 61706.6
0.0376117 0 8.47255e-06 0 0 0 0 0.00631629 0 72778.6
0.0397387 0 9.99278e-06 0 0 0 0 0.00613872 0 85837.3
0.041986 0 1.17858e-05 0 0 0 0 0.00595116 0 101239
0.0443604 0 1.39005e-05 0 0 0 0 0.00575493 0 119405
0.0468691 0 1.63947e-05 0 0 0 0 0.00555141 0 140829
0.0495196 0 1.93364e-05 0 0 0 0 0.00534196 0 166098
0.05232 0 2.28059e-05 0 0 0 0 0.00512796 0 195901
0.0552788 0 2.6898e-05 0 0 0 0 0.00491076 0 231052
0.0584049 0 3.17243e-05 0 0 0 0 0.00469167 0 272510
0.0617078 0 3.74166e-05 0 0 0 0 0.00447196 0 321406
0.0651975 0 4.41303e-05 0 0 0 0 0.0042528 0 379076
0.0688845 0.54657 5.20486e-05 1.22249e-06 6 0.561222 1.25527e-06 0.00403532 0.00181769 447094
0.0727801 0 6.13877e-05 0 0 0 0 0.00382053 0 527316
0.0768959 0 7.24025e-05 0 0 0 0 0.00360937 0 621933
0.0812445 0 8.53937e-05 0 0 0 0 0.00340268 0 733526
0.085839 0 0.000100716 0 0 0 0 0.00320119 0 865143
0.0906933 0 0.000118787 0 0 0 0 0.00300554 0 1.02038e+06
0.0958222 7.40102 0.000140101 6.14977e-06 12 7.49837 6.23067e-06 0.00281625 0.0262041 1.20346e+06
0.101241 0 0.00016524 0 0 0 0 0.00263378 0 1.4194e+06
0.106966 0 0.000194889 0 0 0 0 0.00245848 0 1.67408e+06
0.113016 15.5408 0.000229858 7.87087e-06 8 15.0049 7.59947e-06 0.0022906 0.0274893 1.97446e+06
0.119407 0 0.000271101 0 0 0 0 0.00213033 0 2.32874e+06
0.126159 0 0.000319745 0 0 0 0 0.00197778 0 2.74659e+06
0.133294 0.275229 0.000377117 8.49627e-08 6 0.273085 8.43008e-08 0.00183298 0.000278113 3.23941e+06
0.140832 0 0.000444783 0 0 0 0 0.00169593 0 3.82066e+06
0.148796 0.283397 0.000524591 6.28905e-08 24 0.280459 6.22385e-08 0.00156653 0.000963513 4.5062e+06
0.157211 0 0.000618719 0 0 0 0 0.00144468 0 5.31475e+06
0.166102 2.99831 0.000729735 4.78322e-07 24 3.0519 4.86873e-07 0.0013302 0.00863009 6.26838e+06
0.175495 0 0.000860672 0 0 0 0 0.0012229 0 7.39312e+06
0.185419 1.90536 0.0010151 2.18513e-07 12 1.84017 2.11036e-07 0.00112256 0.00233587 8.71966e+06
0.195905 1.09951 0.00119724 1.06912e-07 30 1.05466 1.02552e-07 0.00102893 0.00311719 1.02842e+07
0.206984 9.40546 0.00141206 7.75418e-07 24 9.05014 7.46124e-07 0.000941736 0.0197614 1.21295e+07
0.218689 13.0009 0.00166543 9.08773e-07 24 12.6555 8.84632e-07 0.000860706 0.0253403 1.43059e+07
0.231057 57.0429 0.00196426 3.38075e-06 8 56.587 3.35373e-06 0.00078555 0.0344294 1.68729e+07
0.244123 0.763021 0.00231671 3.8342e-08 72 0.73224 3.67953e-08 0.000715973 0.00385577 1.99004e+07
0.257929 0 0.0027324 0 0 0 0 0.000651679 0 2.34711e+07
0.272515 0.425152 0.00322267 1.53581e-08 54 0.416996 1.50635e-08 0.000592374 0.00140003 2.76825e+07
0.287926 2.12688 0.00380091 6.51425e-08 60 2.10765 6.45536e-08 0.000537765 0.00726814 3.26496e+07
0.304209 0.538104 0.00448291 1.39738e-08 72 0.53105 1.37907e-08 0.000487565 0.00206356 3.85079e+07
0.321413 2.0259 0.00528728 4.46062e-08 48 1.96608 4.32892e-08 0.000441493 0.00484967 4.54174e+07
0.339589 5.97674 0.00623598 1.11576e-07 134 5.79756 1.08231e-07 0.000399279 0.0374454 5.35667e+07
0.358793 0.749407 0.00735491 1.18618e-08 120 0.726062 1.14923e-08 0.000360659 0.00394671 6.31782e+07
0.379084 0.563679 0.0086746 7.56471e-09 60 0.553041 7.42196e-09 0.000325382 0.00139492 7.45142e+07
0.400522 1.88827 0.0102311 2.14859e-08 150 1.9224 2.18742e-08 0.000293206 0.0109919 8.78843e+07
0.423172 1.2868 0.0120669 1.24145e-08 240 1.31075 1.26455e-08 0.000263903 0.01129 1.03653e+08
0.447103 7.12067 0.014232 5.82458e-08 168 7.18892 5.88041e-08 0.000237253 0.0412441 1.22252e+08
0.472387 7.53365 0.0167857 5.22489e-08 218 7.52613 5.21968e-08 0.000213051 0.0534626 1.44188e+08
0.499101 0.863473 0.0197975 5.07748e-09 288 0.861362 5.06507e-09 0.000191102 0.00765199 1.70059e+08
0.527327 0.74344 0.0233498 3.70658e-09 342 0.766642 3.82226e-09 0.000171224 0.00740346 2.00573e+08
0.557148 0.238167 0.0275395 1.00678e-09 396 0.23819 1.00688e-09 0.000153245 0.00260163 2.36562e+08
0.588655 0.988699 0.0324809 3.54362e-09 470 1.00453 3.60037e-09 0.000137005 0.0121565 2.79008e+08
0.621945 2.643 0.0383089 8.03169e-09 624 2.73662 8.3162e-09 0.000122355 0.0409608 3.29071e+08
0.657117 0.709045 0.0451827 1.82689e-09 642 0.7225 1.86156e-09 0.000109156 0.0107448 3.88116e+08
0.694278 3.1852 0.0532898 6.95829e-09 704 3.19339 6.97618e-09 9.72796e-05 0.0503563 4.57756e+08
0.733541 1.99927 0.0628516 3.7031e-09 990 1.95485 3.62082e-09 8.66058e-05 0.0423305 5.39891e+08
0.775024 1.11316 0.0741291 1.74814e-09 1044 1.09947 1.72666e-09 7.70247e-05 0.0236945 6.36764e+08
0.818852 0.546985 0.0874301 7.28324e-10 1214 0.545997 7.27008e-10 6.84347e-05 0.0129201 7.51019e+08
0.86516 2.41939 0.103118 2.73138e-09 1506 2.34151 2.64346e-09 6.07424e-05 0.0677197 8.85775e+08
0.914086 0.787534 0.12162 7.5383e-10 1718 0.784581 7.51004e-10 5.3862e-05 0.0240444 1.04471e+09
0.965779 1.66237 0.143443 1.34915e-09 2100 1.69516 1.37576e-09 4.77149e-05 0.0593779 1.23216e+09
1.0204 1.61865 0.16918 1.11382e-09 2354 1.63782 1.12701e-09 4.22291e-05 0.0620881 1.45325e+09
1.0781 0.217977 0.199537 1.27174e-10 2982 0.220879 1.28867e-10 3.73389e-05 0.0101565 1.71401e+09
1.13907 1.23153 0.235339 6.09201e-10 3386 1.21382 6.00442e-10 3.29844e-05 0.0625373 2.02155e+09
1.20349 1.10713 0.277566 4.64347e-10 3858 1.08112 4.53439e-10 2.91111e-05 0.0615384 2.38428e+09
1.27154 1.02508 0.32737 3.64528e-10 4910 1.01578 3.6122e-10 2.56695e-05 0.0697259 2.81209e+09
1.34345 0.379074 0.38611 1.14294e-10 5346 0.379344 1.14375e-10 2.26148e-05 0.0270183 3.31666e+09
1.41943 1.02858 0.45539 2.62943e-10 6698 1.04695 2.6764e-10 1.99062e-05 0.0884749 3.91177e+09
1.4997 0.873205 0.537101 1.89265e-10 7736 0.878779 1.90473e-10 1.75069e-05 0.083633 4.61366e+09
1.58451 0.706083 0.633473 1.29759e-10 9362 0.729349 1.34035e-10 1.53838e-05 0.0789665 5.4415e+09
1.67412 0.611514 0.747138 9.52832e-11 10770 0.606908 9.45655e-11 1.35069e-05 0.075976 6.41786e+09
1.76879 1.04264 0.881197 1.37743e-10 12584 1.03088 1.3619e-10 1.18493e-05 0.146284 7.56942e+09
1.86882 0.498074 1.03931 5.57903e-11 15146 0.492251 5.51381e-11 1.03867e-05 0.0813538 8.92761e+09
1.9745 0.772486 1.22579 7.3364e-11 17744 0.765962 7.27444e-11 9.09749e-06 0.143091 1.05295e+10
2.08616 0.53389 1.44574 4.29905e-11 20570 0.537224 4.32589e-11 7.96208e-06 0.111066 1.24188e+10
2.20414 0.409527 1.70515 2.79596e-11 24872 0.40752 2.78226e-11 6.96304e-06 0.0998717 1.46471e+10
2.32879 0.662053 2.0111 3.83238e-11 29132 0.666711 3.85935e-11 6.08479e-06 0.183482 1.72752e+10
2.46049 0.479137 2.37196 2.3516e-11 34136 0.476681 2.33955e-11 5.3134e-06 0.151079 2.03749e+10
2.59963 0.584807 2.79756 2.43357e-11 40372 0.589828 2.45447e-11 4.63644e-06 0.211904 2.40308e+10
2.74664 0.532561 3.29952 1.87901e-11 47702 0.521954 1.84158e-11 4.04286e-06 0.221706 2.83427e+10
2.90197 0.491355 3.89156 1.46988e-11 56012 0.489275 1.46366e-11 3.52282e-06 0.233708 3.34282e+10
3.06608 0.643103 4.58982 1.63115e-11 66322 0.637544 1.61705e-11 3.06758e-06 0.35266 3.94263e+10
3.23947 0.573954 5.41337 1.2343e-11 77876 0.571376 1.22875e-11 2.66939e-06 0.360091 4.65005e+10
3.42267 0.897919 6.38469 1.63722e-11 92650 0.892989 1.62823e-11 2.32136e-06 0.653448 5.48441e+10
3.61623 1.5211 7.5303 2.35156e-11 108250 1.50542 2.32732e-11 2.01741e-06 1.2618 6.46848e+10
3.82073 2.68828 8.88147 3.52371e-11 128258 2.65994 3.48656e-11 1.75215e-06 2.57936 7.62912e+10
4.0368 6.22364 10.4751 6.91668e-11 151594 6.19747 6.8876e-11 1.52084e-06 6.89439 8.99802e+10
4.26509 2921.98 12.3546 2.75333e-08 178516 2879.62 2.71341e-08 1.31927e-06 3725.64 1.06125e+11
4.50629 12.1436 14.5714 9.70187e-11 209896 12.1844 9.73449e-11 1.14374e-06 17.8046 1.25167e+11
4.76113 7.27615 17.186 4.92876e-11 248076 7.30723 4.94982e-11 9.90997e-07 12.3382 1.47626e+11
5.03038 6.36947 20.2696 3.6582e-11 292420 6.37132 3.65926e-11 8.58167e-07 12.4653 1.74115e+11
5.31485 7.90448 23.9066 3.84915e-11 345804 7.85383 3.82449e-11 7.42731e-07 17.921 2.05356e+11
5.61542 14.3169 28.1962 5.91112e-11 406714 14.1905 5.85891e-11 6.42478e-07 37.4198 2.42204e+11
5.93298 53.3189 33.2555 1.8665e-10 479520 51.8231 1.81414e-10 5.55464e-07 161.131 2.85662e+11
6.2685 28.6328 39.2225 8.49843e-11 566472 28.7668 8.53821e-11 4.79988e-07 100.297 3.36919e+11
6.62299 22.2925 46.2602 5.60999e-11 668454 22.3523 5.62504e-11 4.1456e-07 90.4578 3.97372e+11
6.99754 23.0173 54.5607 4.91116e-11 787572 22.9489 4.89658e-11 3.57875e-07 108.079 4.68673e+11
7.39326 28.8051 64.3505 5.21108e-11 930080 28.7448 5.20016e-11 3.08793e-07 156.957 5.52767e+11
7.81136 28.863 75.8969 4.42719e-11 1.09432e+06 28.8059 4.41843e-11 2.66319e-07 181.917 6.5195e+11
8.25311 34.9093 89.5151 4.53999e-11 1.29162e+06 34.7602 4.5206e-11 2.29582e-07 255.419 7.68929e+11
8.71983 48.1357 105.577 5.30773e-11 1.52605e+06 47.9257 5.28458e-11 1.97824e-07 409.448 9.06898e+11
9.21295 68.6517 124.521 6.41831e-11 1.79721e+06 68.3258 6.38784e-11 1.70386e-07 676.995 1.06962e+12
9.73396 88.47 146.863 7.01283e-11 2.12116e+06 88.2199 6.993e-11 1.46692e-07 1014.05 1.26155e+12
10.2844 97.0543 173.215 6.52288e-11 2.49914e+06 96.9029 6.51271e-11 1.2624e-07 1291.31 1.48791e+12
10.866 97.5848 204.295 5.56076e-11 2.94919e+06 97.482 5.55491e-11 1.08596e-07 1510.16 1.75488e+12
11.4805 106.254 240.952 5.13362e-11 3.47939e+06 105.94 5.11846e-11 9.33817e-08 1912.78 2.06976e+12
12.1298 133.325 284.186 5.4616e-11 4.1004e+06 132.778 5.43918e-11 8.02681e-08 2789.99 2.44114e+12
12.8157 169.882 335.177 5.90041e-11 4.84282e+06 169.277 5.8794e-11 6.89705e-08 4143.02 2.87915e+12
13.5405 202.777 395.318 5.97147e-11 5.70611e+06 202.19 5.9542e-11 5.92414e-08 5751.7 3.39576e+12
14.3062 234.541 466.25 5.85611e-11 6.73072e+06 233.889 5.83985e-11 5.08668e-08 7748.84 4.00506e+12
15.1153 272.471 549.91 5.76819e-11 7.93789e+06 271.675 5.75134e-11 4.36611e-08 10487 4.72369e+12
15.9701 319.21 648.58 5.72959e-11 9.3654e+06 318.236 5.71209e-11 3.74635e-08 14323.2 5.57126e+12
16.8732 378.935 764.955 5.76685e-11 1.10411e+07 377.705 5.74814e-11 3.21352e-08 19814 6.57091e+12
17.8274 451.397 902.211 5.82452e-11 1.30294e+07 449.96 5.80599e-11 2.7556e-08 27540.3 7.74994e+12
18.8356 531.124 1064.1 5.81066e-11 1.53594e+07 529.518 5.79309e-11 2.3622e-08 37781.8 9.14051e+12
19.9008 623.561 1255.03 5.78411e-11 1.81236e+07 621.624 5.76614e-11 2.02435e-08 51783.9 1.07806e+13
21.0262 737.295 1480.22 5.79865e-11 2.13681e+07 734.921 5.77997e-11 1.73432e-08 71443.9 1.2715e+13
22.2152 871.239 1745.81 5.80965e-11 2.52005e+07 868.503 5.79141e-11 1.48541e-08 98562.9 1.49964e+13
23.4716 1027.46 2059.06 5.80908e-11 2.97255e+07 1024.23 5.79079e-11 1.27187e-08 135766 1.76872e+13
24.7989 1213.04 2428.52 5.8149e-11 3.50616e+07 1209.2 5.79649e-11 1.08874e-08 187262 2.08608e+13
26.2013 1433.45 2864.27 5.82611e-11 4.13531e+07 1428.9 5.80763e-11 9.31732e-09 258580 2.46039e+13
27.6831 1692.57 3378.21 5.8327e-11 4.87711e+07 1687.18 5.81413e-11 7.97161e-09 356850 2.90186e+13
29.2486 1999.6 3984.36 5.84243e-11 5.75255e+07 1993.21 5.82378e-11 6.81857e-09 492902 3.42254e+13
30.9026 2363.68 4699.28 5.85554e-11 6.78404e+07 2356.09 5.83676e-11 5.83089e-09 681272 4.03665e+13
32.6502 2795.88 5542.47 5.87253e-11 8.0018e+07 2786.85 5.85357e-11 4.9851e-09 942623 4.76094e+13
34.4967 3308.73 6536.95 5.89245e-11 9.43754e+07 3298.01 5.87335e-11 4.26103e-09 1.30509e+06 5.6152e+13
36.4475 3918.04 7709.88 5.91604e-11 1.11311e+08 3905.28 5.89678e-11 3.64131e-09 1.80846e+06 6.62274e+13
38.5087 4644.41 9093.27 5.94594e-11 1.31285e+08 4629.22 5.92649e-11 3.11104e-09 2.50916e+06 7.81106e+13
40.6864 5511.93 10724.9 5.98304e-11 1.54822e+08 5493.73 5.96328e-11 2.65744e-09 3.4857e+06 9.2126e+13
42.9873 6555.86 12649.2 6.03359e-11 1.82627e+08 6534.06 6.01352e-11 2.26951e-09 4.85523e+06 1.08656e+14
45.4183 7814.04 14918.9 6.09746e-11 2.1538e+08 7787.64 6.07686e-11 1.93782e-09 6.77705e+06 1.28152e+14
47.9868 9347.19 17595.8 6.18418e-11 2.54026e+08 9315.18 6.163e-11 1.65429e-09 9.49621e+06 1.51147e+14
50.7005 11226.5 20753 6.2976e-11 2.99614e+08 11187.2 6.27551e-11 1.41197e-09 1.33632e+07 1.78267e+14
53.5677 13570.1 24476.7 6.45414e-11 3.53368e+08 13521.3 6.43093e-11 1.20493e-09 1.8928e+07 2.10254e+14
56.5971 16543.4 28868.6 6.67128e-11 4.16783e+08 16481.7 6.64638e-11 1.02806e-09 2.70458e+07 2.47979e+14
59.7977 20405.7 34048.5 6.97693e-11 4.91558e+08 20325.8 6.94959e-11 8.77005e-10 3.91055e+07 2.92474e+14
63.1794 25599.1 40157.8 7.42103e-11 5.79769e+08 25492.1 7.39e-11 7.48017e-10 5.75185e+07 3.44953e+14
66.7523 32856.2 47363.4 8.07579e-11 6.8378e+08 32707.3 8.03918e-11 6.37895e-10 8.65669e+07 4.06848e+14
70.5272 37427.8 55861.8 7.79991e-11 3.00349e+06 40520.9 8.4445e-11 5.43899e-10 430723 4.79849e+14
74.5157 0 65885.1 0 0 0 0 4.63681e-10 0 5.65949e+14
78.7297 0 77706.9 0 0 0 0 3.95235e-10 0 6.67497e+14
83.182 0 91649.8 0 0 0 0 3.36843e-10 0 7.87266e+14
87.8861 0 108095 0 0 0 0 2.87037e-10 0 9.28526e+14
92.8562 0 127490 0 0 0 0 2.44561e-10 0 1.09513e+15
98.1073 0 150366 0 0 0 0 2.08343e-10 0 1.29163e+15
103.655 0 177346 0 0 0 0 1.77465e-10 0 1.52339e+15
109.517 0 209167 0 0 0 0 1.51145e-10 0 1.79673e+15
115.711 0 246698 0 0 0 0 1.28712e-10 0 2.11912e+15
122.254 0 290963 0 0 0 0 1.09595e-10 0 2.49935e+15
0.0721946
200
2.30148e+11
8589934592
0.0021528 2.52657e-08 1.58875e-09 1.85134e-09 6 2.46471e-08 1.80601e-09 0.00197275 5.63073e-06 13.6473
0.00227455 0 1.87382e-09 0 0 0 0 0.00207247 0 16.096
0.00240318 0 2.21004e-09 0 0 0 0 0.00217643 0 18.9841
0.00253908 0 2.60659e-09 0 0 0 0 0.00228471 0 22.3904
0.00268267 0 3.07429e-09 0 0 0 0 0.00239737 0 26.408
0.00283438 0 3.62591e-09 0 0 0 0 0.00251449 0 31.1464
0.00299467 7.18464e-08 4.27651e-09 1.9558e-09 12 7.11742e-08 1.93751e-09 0.00263608 8.90323e-06 36.735
0.00316402 0 5.04385e-09 0 0 0 0 0.00276218 0 43.3263
0.00334295 0 5.94887e-09 0 0 0 0 0.00289278 0 51.1004
0.003532 8.04758e-08 7.01627e-09 1.33527e-09 8 8.22612e-08 1.36489e-09 0.00302786 3.52796e-06 60.2693
0.00373174 0 8.27521e-09 0 0 0 0 0.00316735 0 71.0835
0.00394278 0 9.76003e-09 0 0 0 0 0.00331119 0 83.838
0.00416575 6.27143e-07 1.15113e-08 6.3424e-09 6 6.29876e-07 6.37004e-09 0.00345926 1.10007e-05 98.8811
0.00440133 0 1.35767e-08 0 0 0 0 0.00361139 0 116.623
0.00465023 4.53983e-07 1.60128e-08 3.30051e-09 24 4.5643e-07 3.31831e-09 0.00376739 2.10258e-05 137.549
0.00491321 0 1.8886e-08 0 0 0 0 0.00392704 0 162.23
0.00519106 9.4524e-07 2.22747e-08 4.94014e-09 24 9.37103e-07 4.89762e-09 0.00409003 2.89884e-05 191.338
0.00548462 0 2.62715e-08 0 0 0 0 0.00425603 0 225.67
0.00579479 1.56313e-06 3.09854e-08 5.87286e-09 12 1.58721e-06 5.96332e-09 0.00442465 1.59276e-05 266.162
0.00612249 1.50646e-06 3.65451e-08 4.79885e-09 30 1.53303e-06 4.88349e-09 0.00459545 3.13279e-05 313.92
0.00646873 1.9763e-06 4.31024e-08 5.33778e-09 24 2.00709e-06 5.42095e-09 0.00476791 2.68685e-05 370.247
0.00683455 1.35856e-06 5.08363e-08 3.11111e-09 24 1.37267e-06 3.14341e-09 0.00494148 1.51102e-05 436.68
0.00722105 3.06821e-06 5.99579e-08 5.95729e-09 8 3.07716e-06 5.97467e-09 0.00511552 9.31643e-06 515.034
0.00762942 4.30644e-06 7.07161e-08 7.08942e-09 72 4.34922e-06 7.15984e-09 0.00528933 9.65033e-05 607.447
0.00806087 0 8.34047e-08 0 0 0 0 0.00546217 0 716.441
0.00851673 7.59265e-06 9.837e-08 8.98547e-09 54 7.63144e-06 9.03137e-09 0.00563323 8.61345e-05 844.992
0.00899837 6.25077e-06 1.16021e-07 6.27204e-09 60 6.25137e-06 6.27263e-09 0.00580162 6.4865e-05 996.609
0.00950724 6.71337e-06 1.36838e-07 5.71141e-09 72 6.71522e-06 5.71298e-09 0.00596643 6.89226e-05 1175.43
0.0100449 8.10747e-06 1.61391e-07 5.84812e-09 48 8.10515e-06 5.84644e-09 0.00612667 4.58176e-05 1386.34
0.0106129 1.52744e-05 1.9035e-07 9.34162e-09 134 1.53102e-05 9.36349e-09 0.00628133 0.000199285 1635.09
0.0112131 1.55334e-05 2.24504e-07 8.05473e-09 120 1.56021e-05 8.09038e-09 0.00642937 0.000150336 1928.48
0.0118472 1.75359e-05 2.64787e-07 7.70978e-09 60 1.76016e-05 7.73866e-09 0.0065697 7.04122e-05 2274.5
0.0125172 2.25814e-05 3.12298e-07 8.41768e-09 150 2.25495e-05 8.40578e-09 0.00670125 0.00018842 2682.62
0.0132251 2.6684e-05 3.68333e-07 8.43375e-09 240 2.67229e-05 8.44603e-09 0.00682292 0.000296662 3163.96
0.013973 2.6401e-05 4.34423e-07 7.07485e-09 168 2.64194e-05 7.07978e-09 0.00693364 0.000171421 3731.67
0.0147632 3.32975e-05 5.12372e-07 7.56548e-09 218 3.33295e-05 7.57274e-09 0.00703238 0.000234526 4401.24
0.0155981 4.56701e-05 6.04307e-07 8.79801e-09 288 4.56409e-05 8.79238e-09 0.00711814 0.000355968 5190.96
0.0164802 4.93413e-05 7.12738e-07 8.05918e-09 342 4.93328e-05 8.05779e-09 0.00718999 0.000383344 6122.38
0.0174122 5.95669e-05 8.40625e-07 8.24922e-09 396 5.95434e-05 8.24596e-09 0.00724706 0.000450761 7220.91
0.0183969 6.25043e-05 9.91459e-07 7.33914e-09 470 6.24925e-05 7.33775e-09 0.0072886 0.000473259 8516.57
0.0194372 8.01189e-05 1.16936e-06 7.97624e-09 672 8.01237e-05 7.97672e-09 0.00731397 0.000732849 10044.7
0.0205364 9.08336e-05 1.37917e-06 7.66722e-09 594 9.08235e-05 7.66636e-09 0.00732263 0.000621952 11847
0.0216978 0.000119311 1.62664e-06 8.53888e-09 704 0.000119289 8.53728e-09 0.0073142 0.000821876 13972.7
0.0229249 0.000119601 1.91851e-06 7.25742e-09 990 0.00011958 7.25613e-09 0.00728845 0.000985785 16479.9
0.0242213 0.000138557 2.26275e-06 7.12855e-09 1044 0.0001385 7.12565e-09 0.00724528 0.00102718 19436.8
0.025591 0.0001723 2.66875e-06 7.516e-09 1214 0.000172253 7.51394e-09 0.00718478 0.00126996 22924.4
0.0270383 0.000185294 3.14761e-06 6.85317e-09 1506 0.000185247 6.85143e-09 0.0071072 0.00145217 27037.7
0.0285673 0.000231466 3.71238e-06 7.25846e-09 1718 0.000231354 7.25495e-09 0.00701294 0.00177815 31889.1
0.0301829 0.000228305 4.3785e-06 6.07016e-09 2100 0.000228312 6.07035e-09 0.00690256 0.00184676 37611
0.0318897 0.000278004 5.16413e-06 6.26706e-09 2354 0.000278006 6.26709e-09 0.00677679 0.00217694 44359.6
0.0336932 0.000311156 6.09073e-06 5.94728e-09 2982 0.000311172 5.94759e-09 0.00663647 0.00267232 52319
0.0355986 0.000351565 7.1836e-06 5.69737e-09 3386 0.000351442 5.69537e-09 0.00648261 0.00297585 61706.6
0.0376117 0.00037596 8.47255e-06 5.1658e-09 3858 0.000376016 5.16657e-09 0.00631629 0.00315528 72778.6
0.0397387 0.00045133 9.99278e-06 5.25797e-09 4910 0.000451385 5.25861e-09 0.00613872 0.00420554 85837.3
0.041986 0.000487132 1.17858e-05 4.81169e-09 5346 0.000487204 4.81241e-09 0.00595116 0.00432241 101239
0.0443604 0.000535879 1.39005e-05 4.48793e-09 6698 0.000536123 4.48997e-09 0.00575493 0.00522337 119405
0.0468691 0.000623751 1.63947e-05 4.42913e-09 7736 0.000623759 4.42919e-09 0.00555141 0.00617208 140829
0.0495196 0.000678458 1.93364e-05 4.08468e-09 9362 0.000678205 4.08315e-09 0.00534196 0.00715856 166098
0.05232 0.000763075 2.28059e-05 3.8952e-09 10770 0.000762173 3.89059e-09 0.00512796 0.00818089 195901
0.0552788 0.000877127 2.6898e-05 3.79623e-09 12632 0.000876609 3.79399e-09 0.00491076 0.00976509 231052
0.0584049 0.00098119 3.17243e-05 3.60057e-09 15098 0.000980341 3.59745e-09 0.00469167 0.0115868 272510
0.0617078 0.00111548 3.74166e-05 3.47061e-09 17744 0.00111424 3.46676e-09 0.00447196 0.0137708 321406
0.0651975 0.00127519 4.41303e-05 3.36394e-09 20570 0.00127431 3.36162e-09 0.0042528 0.0162707 379076
0.0688845 0.00145402 5.20486e-05 3.25216e-09 24872 0.00145307 3.25003e-09 0.00403532 0.0200449 447094
0.0727801 0.00160352 6.13877e-05 3.04091e-09 29132 0.00160216 3.03832e-09 0.00382053 0.0231873 527316
0.0768959 0.00174217 7.24025e-05 2.80122e-09 34136 0.00174038 2.79835e-09 0.00360937 0.0264928 621933
0.0812445 0.00188129 8.53937e-05 2.56472e-09 40372 0.00187994 2.56288e-09 0.00340268 0.0304297 733526
0.085839 0.00203803 0.000100716 2.35571e-09 47702 0.00203613 2.35352e-09 0.00320119 0.0351032 865143
0.0906933 0.00217862 0.000118787 2.13511e-09 56252 0.00217734 2.13386e-09 0.00300554 0.039961 1.02038e+06
0.0958222 0.00230683 0.000140101 1.91683e-09 66082 0.0023051 1.91539e-09 0.00281625 0.0449775 1.20346e+06
0.101241 0.0024836 0.00016524 1.74975e-09 77876 0.00248231 1.74885e-09 0.00263378 0.0517369 1.4194e+06
0.106966 0.00273327 0.000194889 1.6327e-09 92650 0.00273135 1.63155e-09 0.00245848 0.0615297 1.67408e+06
0.113016 0.0030302 0.000229858 1.5347e-09 108490 0.00302747 1.53331e-09 0.0022906 0.0726881 1.97446e+06
0.119407 0.00333597 0.000271101 1.43252e-09 128882 0.00333218 1.43089e-09 0.00213033 0.0866655 2.32874e+06
0.126159 0.00377073 0.000319745 1.37288e-09 150730 0.00376664 1.37139e-09 0.00197778 0.104629 2.74659e+06
0.133294 0.00415511 0.000377117 1.28267e-09 178516 0.00415193 1.28169e-09 0.00183298 0.124921 3.23941e+06
0.140832 0.00443684 0.000444783 1.16127e-09 210280 0.00443364 1.16044e-09 0.00169593 0.143988 3.82066e+06
0.148796 0.00466763 0.000524591 1.03582e-09 247692 0.00466488 1.03521e-09 0.00156653 0.163779 4.5062e+06
0.157211 0.00482555 0.000618719 9.07954e-10 292948 0.0048229 9.07456e-10 0.00144468 0.184113 5.31475e+06
0.166102 0.00514631 0.000729735 8.20996e-10 345852 0.00514189 8.2029e-10 0.0013302 0.213459 6.26838e+06
0.175495 0.00560336 0.000860672 7.57916e-10 406882 0.00559705 7.57062e-10 0.0012229 0.252173 7.39312e+06
0.185419 0.00619061 0.0010151 7.0996e-10 480198 0.00618326 7.09117e-10 0.00112256 0.3037 8.71966e+06
0.195905 0.00678284 0.00119724 6.59537e-10 565530 0.00677707 6.58977e-10 0.00102893 0.362502 1.02842e+07
0.206984 0.00718621 0.00141206 5.92456e-10 668550 0.00718187 5.92098e-10 0.000941736 0.420591 1.21295e+07
0.218689 0.00746446 0.00166543 5.21773e-10 787620 0.00745983 5.2145e-10 0.000860706 0.477467 1.43059e+07
0.231057 0.00786051 0.00196426 4.65867e-10 930848 0.00785295 4.65419e-10 0.00078555 0.552035 1.68729e+07
0.244123 0.00847053 0.00231671 4.25647e-10 1.0948e+06 0.00846108 4.25172e-10 0.000715973 0.650863 1.99004e+07
0.257929 0.00919811 0.0027324 3.91891e-10 1.29177e+06 0.00918933 3.91517e-10 0.000651679 0.77681 2.34711e+07
0.272515 0.00971893 0.00322267 3.51085e-10 1.52529e+06 0.009712 3.50835e-10 0.000592374 0.903999 2.76825e+07
0.287926 0.0101522 0.00380091 3.10945e-10 1.79673e+06 0.0101446 3.10711e-10 0.000537765 1.0389 3.26496e+07
0.304209 0.0107783 0.00448291 2.79899e-10 2.12289e+06 0.0107679 2.79629e-10 0.000487565 1.2187 3.85079e+07
0.321413 0.0115554 0.00528728 2.54427e-10 2.50053e+06 0.0115438 2.54172e-10 0.000441493 1.44102 4.54174e+07
0.339589 0.0121965 0.00623598 2.27688e-10 2.94969e+06 0.0121863 2.27499e-10 0.000399279 1.68205 5.35667e+07
0.358793 0.0127699 0.00735491 2.02125e-10 3.47889e+06 0.0127574 2.01928e-10 0.000360659 1.94968 6.31782e+07
0.379084 0.01358 0.0086746 1.82248e-10 4.10369e+06 0.0135663 1.82063e-10 0.000325382 2.29849 7.45142e+07
0.400522 0.0143517 0.0102311 1.63302e-10 4.84176e+06 0.0143381 1.63147e-10 0.000293206 2.69663 8.78843e+07
0.423172 0.015078 0.0120669 1.45465e-10 5.70705e+06 0.0150633 1.45324e-10 0.000263903 3.14577 1.03653e+08
0.447103 0.0159301 0.014232 1.30306e-10 6.73675e+06 0.0159137 1.30171e-10 0.000237253 3.7 1.22252e+08
0.472387 0.0167645 0.0167857 1.16269e-10 7.9377e+06 0.0167476 1.16151e-10 0.000213051 4.33185 1.44188e+08
0.499101 0.017633 0.0197975 1.03687e-10 9.36285e+06 0.0176153 1.03583e-10 0.000191102 5.08005 1.70059e+08
0.527327 0.0185527 0.0233498 9.24983e-11 1.10478e+07 0.0185343 9.24065e-11 0.000171224 5.96823 2.00573e+08
0.557148 0.0194917 0.0275395 8.23957e-11 1.30307e+07 0.0194718 8.23117e-11 0.000153245 7.00623 2.36562e+08
0.588655 0.020476 0.0324809 7.33883e-11 1.53619e+07 0.020455 7.33131e-11 0.000137005 8.22875 2.79008e+08
0.621945 0.0215148 0.0383089 6.53804e-11 1.81296e+07 0.0214924 6.53124e-11 0.000122355 9.68752 3.29071e+08
0.657117 0.0225627 0.0451827 5.81339e-11 2.13731e+07 0.0225392 5.80732e-11 0.000109156 11.3827 3.88116e+08
0.694278 0.0236616 0.0532898 5.16904e-11 2.52109e+07 0.0236365 5.16357e-11 9.72796e-05 13.396 4.57756e+08
0.733541 0.0248094 0.0628516 4.59525e-11 2.9726e+07 0.024783 4.59037e-11 8.66058e-05 15.7725 5.39891e+08
0.775024 0.0259826 0.0741291 4.08042e-11 3.50739e+07 0.025955 4.07608e-11 7.70247e-05 18.5806 6.36764e+08
0.818852 0.0271979 0.0874301 3.62147e-11 4.13576e+07 0.027169 3.61762e-11 6.84347e-05 21.8859 7.51019e+08
0.86516 0.0284436 0.103118 3.21115e-11 4.87837e+07 0.0284127 3.20767e-11 6.07424e-05 25.7895 8.85775e+08
0.914086 0.0297158 0.12162 2.84441e-11 5.75372e+07 0.0296838 2.84135e-11 5.3862e-05 30.3849 1.04471e+09
0.965779 0.0310245 0.143443 2.51789e-11 6.78547e+07 0.0309909 2.51517e-11 4.77149e-05 35.8065 1.23216e+09
1.0204 0.0323701 0.16918 2.22743e-11 8.00386e+07 0.0323351 2.22502e-11 4.22291e-05 42.2175 1.45325e+09
1.0781 0.0337453 0.199537 1.96879e-11 9.43992e+07 0.0337081 1.96663e-11 3.73389e-05 49.7746 1.71401e+09
1.13907 0.0351731 0.235339 1.73991e-11 1.11325e+08 0.0351342 1.73798e-11 3.29844e-05 58.7234 2.02155e+09
1.20349 0.036669 0.277566 1.53795e-11 1.31307e+08 0.0366275 1.53621e-11 2.91111e-05 69.3701 2.38428e+09
1.27154 0.0382594 0.32737 1.36053e-11 1.54867e+08 0.0382154 1.35897e-11 2.56695e-05 82.0823 2.81209e+09
1.34345 0.0399734 0.38611 1.20523e-11 1.82662e+08 0.0399264 1.20381e-11 2.26148e-05 97.3474 3.31666e+09
1.41943 0.0418487 0.45539 1.06981e-11 2.15434e+08 0.0417981 1.06852e-11 1.99062e-05 115.781 3.91177e+09
1.4997 0.0439324 0.537101 9.52224e-12 2.54082e+08 0.043877 9.51023e-12 1.75069e-05 138.199 4.61366e+09
1.58451 0.0462921 0.633473 8.50723e-12 2.99691e+08 0.0462311 8.49602e-12 1.53838e-05 165.729 5.4415e+09
1.67412 0.0489838 0.747138 7.63241e-12 3.53444e+08 0.0489161 7.62187e-12 1.35069e-05 199.723 6.41786e+09
1.76879 0.0521362 0.881197 6.88774e-12 4.16883e+08 0.0520594 6.87759e-12 1.18493e-05 242.325 7.56942e+09
1.86882 0.0559289 1.03931 6.26472e-12 4.91657e+08 0.05584 6.25476e-12 1.03867e-05 296.541 8.92761e+09
1.9745 0.0607522 1.22579 5.76972e-12 5.79899e+08 0.0606443 5.75947e-12 9.09749e-06 367.778 1.05295e+10
2.08616 0.0674581 1.44574 5.43193e-12 6.83936e+08 0.0673152 5.42043e-12 7.96208e-06 466.599 1.24188e+10
2.20414 0.0727738 1.70515 4.96848e-12 1.99573e+06 0.0778128 5.3125e-12 6.96304e-06 1.42405 1.46471e+10
2.32879 0 2.0111 0 0 0 0 6.08479e-06 0 1.72752e+10
2.46049 0 2.37196 0 0 0 0 5.3134e-06 0 2.03749e+10
2.59963 0 2.79756 0 0 0 0 4.63644e-06 0 2.40308e+10
2.74664 0 3.29952 0 0 0 0 4.04286e-06 0 2.83427e+10
2.90197 0 3.89156 0 0 0 0 3.52282e-06 0 3.34282e+10
3.06608 0 4.58982 0 0 0 0 3.06758e-06 0 3.94263e+10
3.23947 0 5.41337 0 0 0 0 2.66939e-06 0 4.65005e+10
3.42267 0 6.38469 0 0 0 0 2.32136e-06 0 5.48441e+10
3.61623 0 7.5303 0 0 0 0 2.01741e-06 0 6.46848e+10
3.82073 0 8.88147 0 0 0 0 1.75215e-06 0 7.62912e+10
4.0368 0 10.4751 0 0 0 0 1.52084e-06 0 8.99802e+10
4.26509 0 12.3546 0 0 0 0 1.31927e-06 0 1.06125e+11
4.50629 0 14.5714 0 0 0 0 1.14374e-06 0 1.25167e+11
4.76113 0 17.186 0 0 0 0 9.90997e-07 0 1.47626e+11
5.03038 0 20.2696 0 0 0 0 8.58167e-07 0 1.74115e+11
5.31485 0 23.9066 0 0 0 0 7.42731e-07 0 2.05356e+11
5.61542 0 28.1962 0 0 0 0 6.42478e-07 0 2.42204e+11
5.93298 0 33.2555 0 0 0 0 5.55464e-07 0 2.85662e+11
6.2685 0 39.2225 0 0 0 0 4.79988e-07 0 3.36919e+11
6.62299 0 46.2602 0 0 0 0 4.1456e-07 0 3.97372e+11
6.99754 0 54.5607 0 0 0 0 3.57875e-07 0 4.68673e+11
7.39326 0 64.3505 0 0 0 0 3.08793e-07 0 5.52767e+11
7.81136 0 75.8969 0 0 0 0 2.66319e-07 0 6.5195e+11
8.25311 0 89.5151 0 0 0 0 2.29582e-07 0 7.68929e+11
8.71983 0 105.577 0 0 0 0 1.97824e-07 0 9.06898e+11
9.21295 0 124.521 0 0 0 0 1.70386e-07 0 1.06962e+12
9.73396 0 146.863 0 0 0 0 1.46692e-07 0 1.26155e+12
10.2844 0 173.215 0 0 0 0 1.2624e-07 0 1.48791e+12
10.866 0 204.295 0 0 0 0 1.08596e-07 0 1.75488e+12
11.4805 0 240.952 0 0 0 0 9.33817e-08 0 2.06976e+12
12.1298 0 284.186 0 0 0 0 8.02681e-08 0 2.44114e+12
12.8157 0 335.177 0 0 0 0 6.89705e-08 0 2.87915e+12
13.5405 0 395.318 0 0 0 0 5.92414e-08 0 3.39576e+12
14.3062 0 466.25 0 0 0 0 5.08668e-08 0 4.00506e+12
15.1153 0 549.91 0 0 0 0 4.36611e-08 0 4.72369e+12
15.9701 0 648.58 0 0 0 0 3.74635e-08 0 5.57126e+12
16.8732 0 764.955 0 0 0 0 3.21352e-08 0 6.57091e+12
17.8274 0 902.211 0 0 0 0 2.7556e-08 0 7.74994e+12
18.8356 0 1064.1 0 0 0 0 2.3622e-08 0 9.14051e+12
19.9008 0 1255.03 0 0 0 0 2.02435e-08 0 1.07806e+13
21.0262 0 1480.22 0 0 0 0 1.73432e-08 0 1.2715e+13
22.2152 0 1745.81 0 0 0 0 1.48541e-08 0 1.49964e+13
23.4716 0 2059.06 0 0 0 0 1.27187e-08 0 1.76872e+13
24.7989 0 2428.52 0 0 0 0 1.08874e-08 0 2.08608e+13
26.2013 0 2864.27 0 0 0 0 9.31732e-09 0 2.46039e+13
27.6831 0 3378.21 0 0 0 0 7.97161e-09 0 2.90186e+13
29.2486 0 3984.36 0 0 0 0 6.81857e-09 0 3.42254e+13
30.9026 0 4699.28 0 0 0 0 5.83089e-09 0 4.03665e+13
32.6502 0 5542.47 0 0 0 0 4.9851e-09 0 4.76094e+13
34.4967 0 6536.95 0 0 0 0 4.26103e-09 0 5.6152e+13
36.4475 0 7709.88 0 0 0 0 3.64131e-09 0 6.62274e+13
38.5087 0 9093.27 0 0 0 0 3.11104e-09 0 7.81106e+13
40.6864 0 10724.9 0 0 0 0 2.65744e-09 0 9.2126e+13
42.9873 0 12649.2 0 0 0 0 2.26951e-09 0 1.08656e+14
45.4183 0 14918.9 0 0 0 0 1.93782e-09 0 1.28152e+14
47.9868 0 17595.8 0 0 0 0 1.65429e-09 0 1.51147e+14
50.7005 0 20753 0 0 0 0 1.41197e-09 0 1.78267e+14
53.5677 0 24476.7 0 0 0 0 1.20493e-09 0 2.10254e+14
56.5971 0 28868.6 0 0 0 0 1.02806e-09 0 2.47979e+14
59.7977 0 34048.5 0 0 0 0 8.77005e-10 0 2.92474e+14
63.1794 0 40157.8 0 0 0 0 7.48017e-10 0 3.44953e+14
66.7523 0 47363.4 0 0 0 0 6.37895e-10 0 4.06848e+14
70.5272 0 55861.8 0 0 0 0 5.43899e-10 0 4.79849e+14
74.5157 0 65885.1 0 0 0 0 4.63681e-10 0 5.65949e+14
78.7297 0 77706.9 0 0 0 0 3.95235e-10 0 6.67497e+14
83.182 0 91649.8 0 0 0 0 3.36843e-10 0 7.87266e+14
87.8861 0 108095 0 0 0 0 2.87037e-10 0 9.28526e+14
92.8562 0 127490 0 0 0 0 2.44561e-10 0 1.09513e+15
98.1073 0 150366 0 0 0 0 2.08343e-10 0 1.29163e+15
103.655 0 177346 0 0 0 0 1.77465e-10 0 1.52339e+15
109.517 0 209167 0 0 0 0 1.51145e-10 0 1.79673e+15
115.711 0 246698 0 0 0 0 1.28712e-10 0 2.11912e+15
122.254 0 290963 0 0 0 0 1.09595e-10 0 2.49935e+15
