0.129031
200
2.30148e+11
8589934592
0.0021528 0 1.58875e-09 0 0 0 0 0.00197275 0 13.6473
0.00227455 0 1.87382e-09 0 0 0 0 0.00207247 0 16.096
0.00240318 0 2.21004e-09 0 0 0 0 0.00217643 0 18.9841
0.00253908 0 2.60659e-09 0 0 0 0 0.00228471 0 22.3904
0.00268267 0 3.07429e-09 0 0 0 0 0.00239737 0 26.408
0.00283438 0 3.62591e-09 0 0 0 0 0.00251449 0 31.1464
0.00299467 0 4.27651e-09 0 0 0 0 0.00263608 0 36.735
0.00316402 0 5.04385e-09 0 0 0 0 0.00276218 0 43.3263
0.00334295 0 5.94887e-09 0 0 0 0 0.00289278 0 51.1004
0.003532 0 7.01627e-09 0 0 0 0 0.00302786 0 60.2693
0.00373174 0 8.27521e-09 0 0 0 0 0.00316735 0 71.0835
0.00394278 0 9.76003e-09 0 0 0 0 0.00331119 0 83.838
0.00416575 0 1.15113e-08 0 0 0 0 0.00345926 0 98.8811
0.00440133 0 1.35767e-08 0 0 0 0 0.00361139 0 116.623
0.00465023 0 1.60128e-08 0 0 0 0 0.00376739 0 137.549
0.00491321 0 1.8886e-08 0 0 0 0 0.00392704 0 162.23
0.00519106 0 2.22747e-08 0 0 0 0 0.00409003 0 191.338
0.00548462 0 2.62715e-08 0 0 0 0 0.00425603 0 225.67
0.00579479 0 3.09854e-08 0 0 0 0 0.00442465 0 266.162
0.00612249 0 3.65451e-08 0 0 0 0 0.00459545 0 313.92
0.00646873 0 4.31024e-08 0 0 0 0 0.00476791 0 370.247
0.00683455 0 5.08363e-08 0 0 0 0 0.00494148 0 436.68
0.00722105 0 5.99579e-08 0 0 0 0 0.00511552 0 515.034
0.00762942 0 7.07161e-08 0 0 0 0 0.00528933 0 607.447
0.00806087 0 8.34047e-08 0 0 0 0 0.00546217 0 716.441
0.00851673 0 9.837e-08 0 0 0 0 0.00563323 0 844.992
0.00899837 0 1.16021e-07 0 0 0 0 0.00580162 0 996.609
0.00950724 0 1.36838e-07 0 0 0 0 0.00596643 0 1175.43
0.0100449 0 1.61391e-07 0 0 0 0 0.00612667 0 1386.34
0.0106129 0 1.9035e-07 0 0 0 0 0.00628133 0 1635.09
0.0112131 0 2.24504e-07 0 0 0 0 0.00642937 0 1928.48
0.0118472 0 2.64787e-07 0 0 0 0 0.0065697 0 2274.5
0.0125172 0 3.12298e-07 0 0 0 0 0.00670125 0 2682.62
0.0132251 0 3.68333e-07 0 0 0 0 0.00682292 0 3163.96
0.013973 0 4.34423e-07 0 0 0 0 0.00693364 0 3731.67
0.0147632 0 5.12372e-07 0 0 0 0 0.00703238 0 4401.24
0.0155981 0 6.04307e-07 0 0 0 0 0.00711814 0 5190.96
0.0164802 0 7.12738e-07 0 0 0 0 0.00718999 0 6122.38
0.0174122 0 8.40625e-07 0 0 0 0 0.00724706 0 7220.91
0.0183969 0 9.91459e-07 0 0 0 0 0.0072886 0 8516.57
0.0194372 0 1.16936e-06 0 0 0 0 0.00731397 0 10044.7
0.0205364 0 1.37917e-06 0 0 0 0 0.00732263 0 11847
0.0216978 0 1.62664e-06 0 0 0 0 0.0073142 0 13972.7
0.0229249 0 1.91851e-06 0 0 0 0 0.00728845 0 16479.9
0.0242213 0 2.26275e-06 0 0 0 0 0.00724528 0 19436.8
0.025591 0 2.66875e-06 0 0 0 0 0.00718478 0 22924.4
0.0270383 0 3.14761e-06 0 0 0 0 0.0071072 0 27037.7
0.0285673 0 3.71238e-06 0 0 0 0 0.00701294 0 31889.1
0.0301829 0 4.3785e-06 0 0 0 0 0.00690256 0 37611
0.0318897 0 5.16413e-06 0 0 0 0 0.00677679 0 44359.6
0.0336932 0 6.09073e-06 0 0 0 0 0.00663647 0 52319
0.0355986 0 7.1836e-06 0 0 0 0 0.00648261 0 61706.6
0.0376117 0 8.47255e-06 0 0 0 0 0.00631629 0 72778.6
0.0397387 0 9.99278e-06 0 0 0 0 0.00613872 0 85837.3
0.041986 0 1.17858e-05 0 0 0 0 0.00595116 0 101239
0.0443604 0 1.39005e-05 0 0 0 0 0.00575493 0 119405
0.0468691 0 1.63947e-05 0 0 0 0 0.00555141 0 140829
0.0495196 0 1.93364e-05 0 0 0 0 0.00534196 0 166098
0.05232 0 2.28059e-05 0 0 0 0 0.00512796 0 195901
0.0552788 0 2.6898e-05 0 0 0 0 0.00491076 0 231052
0.0584049 0 3.17243e-05 0 0 0 0 0.00469167 0 272510
0.0617078 0 3.74166e-05 0 0 0 0 0.00447196 0 321406
0.0651975 0 4.41303e-05 0 0 0 0 0.0042528 0 379076
0.0688845 0.295453 5.20486e-05 6.6083e-07 6 0.303373 6.78544e-07 0.00403532 0.000982569 447094
0.0727801 0 6.13877e-05 0 0 0 0 0.00382053 0 527316
0.0768959 0 7.24025e-05 0 0 0 0 0.00360937 0 621933
0.0812445 0 8.53937e-05 0 0 0 0 0.00340268 0 733526
0.085839 0 0.000100716 0 0 0 0 0.00320119 0 865143
0.0906933 0 0.000118787 0 0 0 0 0.00300554 0 1.02038e+06
0.0958222 4.41348 0.000140101 3.66732e-06 12 4.47153 3.71556e-06 0.00281625 0.0156264 1.20346e+06
0.101241 0 0.00016524 0 0 0 0 0.00263378 0 1.4194e+06
0.106966 0 0.000194889 0 0 0 0 0.00245848 0 1.67408e+06
0.113016 8.78011 0.000229858 4.44683e-06 8 8.47736 4.2935e-06 0.0022906 0.0155307 1.97446e+06
0.119407 0 0.000271101 0 0 0 0 0.00213033 0 2.32874e+06
0.126159 0 0.000319745 0 0 0 0 0.00197778 0 2.74659e+06
0.133294 0.0207756 0.000377117 6.41338e-09 6 0.0206137 6.36341e-09 0.00183298 2.09932e-05 3.23941e+06
0.140832 0 0.000444783 0 0 0 0 0.00169593 0 3.82066e+06
0.148796 0.214385 0.000524591 4.75755e-08 24 0.212162 4.70823e-08 0.00156653 0.00072888 4.5062e+06
0.157211 0 0.000618719 0 0 0 0 0.00144468 0 5.31475e+06
0.166102 0.924057 0.000729735 1.47416e-07 24 0.940576 1.50051e-07 0.0013302 0.00265974 6.26838e+06
0.175495 0 0.000860672 0 0 0 0 0.0012229 0 7.39312e+06
0.185419 1.21293 0.0010151 1.39103e-07 12 1.17143 1.34344e-07 0.00112256 0.00148699 8.71966e+06
0.195905 0.932404 0.00119724 9.06634e-08 30 0.894373 8.69655e-08 0.00102893 0.00264343 1.02842e+07
0.206984 5.03573 0.00141206 4.15162e-07 24 4.84548 3.99478e-07 0.000941736 0.0105803 1.21295e+07
0.218689 7.16948 0.00166543 5.01154e-07 24 6.97903 4.87841e-07 0.000860706 0.0139742 1.43059e+07
0.231057 28.194 0.00196426 1.67096e-06 8 27.9686 1.65761e-06 0.00078555 0.017017 1.68729e+07
0.244123 0.289848 0.00231671 1.45649e-08 72 0.27887 1.40133e-08 0.000715973 0.00146469 1.99004e+07
0.257929 0 0.0027324 0 0 0 0 0.000651679 0 2.34711e+07
0.272515 0.227317 0.00322267 8.21159e-09 54 0.22206 8.02166e-09 0.000592374 0.000748557 2.76825e+07
0.287926 1.02587 0.00380091 3.14207e-08 60 1.01495 3.10861e-08 0.000537765 0.0035057 3.26496e+07
0.304209 0.156838 0.00448291 4.07289e-09 72 0.155477 4.03753e-09 0.000487565 0.000601454 3.85079e+07
0.321413 0.684914 0.00528728 1.50804e-08 48 0.664403 1.46288e-08 0.000441493 0.00163957 4.54174e+07
0.339589 3.29432 0.00623598 6.14994e-08 134 3.19956 5.97304e-08 0.000399279 0.0206395 5.35667e+07
0.358793 0.269307 0.00735491 4.26266e-09 120 0.261265 4.13537e-09 0.000360659 0.00141829 6.31782e+07
0.379084 0.331841 0.0086746 4.45339e-09 60 0.324793 4.3588e-09 0.000325382 0.000821199 7.45142e+07
0.400522 1.01414 0.0102311 1.15395e-08 150 1.03206 1.17434e-08 0.000293206 0.00590342 8.78843e+07
0.423172 0.624076 0.0120669 6.02079e-09 240 0.626849 6.04754e-09 0.000263903 0.00547547 1.03653e+08
0.447103 3.3797 0.014232 2.76453e-08 168 3.41388 2.79249e-08 0.000237253 0.0195758 1.22252e+08
0.472387 3.82736 0.0167857 2.65443e-08 218 3.80866 2.64146e-08 0.000213051 0.0271609 1.44188e+08
0.499101 0.400603 0.0197975 2.35566e-09 288 0.397392 2.33678e-09 0.000191102 0.0035501 1.70059e+08
0.527327 0.384139 0.0233498 1.9152e-09 342 0.397047 1.97956e-09 0.000171224 0.0038254 2.00573e+08
0.557148 0.122123 0.0275395 5.16241e-10 396 0.122051 5.15934e-10 0.000153245 0.00133402 2.36562e+08
0.588655 0.529873 0.0324809 1.89913e-09 470 0.537227 1.92549e-09 0.000137005 0.00651501 2.79008e+08
0.621945 1.44735 0.0383089 4.3983e-09 624 1.49841 4.55344e-09 0.000122355 0.0224309 3.29071e+08
0.657117 0.366196 0.0451827 9.4352e-10 642 0.374289 9.64374e-10 0.000109156 0.00554929 3.88116e+08
0.694278 1.61252 0.0532898 3.52266e-09 704 1.61547 3.5291e-09 9.72796e-05 0.025493 4.57756e+08
0.733541 1.08922 0.0628516 2.01749e-09 990 1.06516 1.97291e-09 8.66058e-05 0.0230621 5.39891e+08
0.775024 0.594961 0.0741291 9.3435e-10 1044 0.588517 9.24231e-10 7.70247e-05 0.0126643 6.36764e+08
0.818852 0.24126 0.0874301 3.21243e-10 1214 0.240884 3.20743e-10 6.84347e-05 0.00569871 7.51019e+08
0.86516 1.17184 0.103118 1.32296e-09 1506 1.13761 1.28432e-09 6.07424e-05 0.0328004 8.85775e+08
0.914086 0.385079 0.12162 3.68599e-10 1718 0.385995 3.69476e-10 5.3862e-05 0.011757 1.04471e+09
0.965779 0.871049 0.143443 7.06927e-10 2100 0.88772 7.20457e-10 4.77149e-05 0.0311129 1.23216e+09
1.0204 0.902765 0.16918 6.21205e-10 2354 0.913465 6.28567e-10 4.22291e-05 0.0346282 1.45325e+09
1.0781 0.147745 0.199537 8.61987e-11 2982 0.149114 8.69973e-11 3.73389e-05 0.0068841 1.71401e+09
1.13907 0.697144 0.235339 3.44856e-10 3386 0.68825 3.40456e-10 3.29844e-05 0.0354011 2.02155e+09
1.20349 0.593033 0.277566 2.48726e-10 3858 0.580392 2.43424e-10 2.91111e-05 0.0329629 2.38428e+09
1.27154 0.592142 0.32737 2.1057e-10 4910 0.586733 2.08647e-10 2.56695e-05 0.0402773 2.81209e+09
1.34345 0.21437 0.38611 6.46341e-11 5346 0.214397 6.46423e-11 2.26148e-05 0.0152791 3.31666e+09
1.41943 0.573972 0.45539 1.46729e-10 6698 0.582328 1.48865e-10 1.99062e-05 0.0493713 3.91177e+09
1.4997 0.492971 0.537101 1.0685e-10 7736 0.495551 1.07409e-10 1.75069e-05 0.0472153 4.61366e+09
1.58451 0.422145 0.633473 7.75789e-11 9362 0.434989 7.99393e-11 1.53838e-05 0.0472116 5.4415e+09
1.67412 0.388469 0.747138 6.05294e-11 10770 0.385695 6.00971e-11 1.35069e-05 0.0482643 6.41786e+09
1.76879 0.595963 0.881197 7.8733e-11 12584 0.588893 7.7799e-11 1.18493e-05 0.0836148 7.56942e+09
1.86882 0.295376 1.03931 3.30857e-11 15146 0.293509 3.28765e-11 1.03867e-05 0.0482457 8.92761e+09
1.9745 0.48606 1.22579 4.61617e-11 17744 0.482783 4.58505e-11 9.09749e-06 0.0900352 1.05295e+10
2.08616 0.365339 1.44574 2.94182e-11 20570 0.367031 2.95545e-11 7.96208e-06 0.0760019 1.24188e+10
2.20414 0.342569 1.70515 2.33882e-11 24872 0.343145 2.34275e-11 6.96304e-06 0.0835427 1.46471e+10
2.32879 0.45342 2.0111 2.62468e-11 29132 0.455087 2.63433e-11 6.08479e-06 0.125661 1.72752e+10
2.46049 0.36304 2.37196 1.7818e-11 34136 0.360608 1.76986e-11 5.3134e-06 0.114472 2.03749e+10
2.59963 0.454837 2.79756 1.89272e-11 40372 0.456717 1.90055e-11 4.63644e-06 0.16481 2.40308e+10
2.74664 0.494409 3.29952 1.7444e-11 47702 0.486934 1.71803e-11 4.04286e-06 0.205823 2.83427e+10
2.90197 0.535176 3.89156 1.60097e-11 56012 0.533364 1.59555e-11 3.52282e-06 0.25455 3.34282e+10
3.06608 0.760119 4.58982 1.92795e-11 66322 0.754985 1.91493e-11 3.06758e-06 0.416828 3.94263e+10
3.23947 0.994373 5.41337 2.13841e-11 77876 0.988289 2.12533e-11 2.66939e-06 0.623855 4.65005e+10
3.42267 1.66108 6.38469 3.02873e-11 92650 1.64858 3.00594e-11 2.32136e-06 1.20883 5.48441e+10
3.61623 2.89036 7.5303 4.46837e-11 108250 2.86041 4.42208e-11 2.01741e-06 2.39764 6.46848e+10
3.82073 4.59184 8.88147 6.01883e-11 128258 4.55355 5.96865e-11 1.75215e-06 4.4058 7.62912e+10
4.0368 6.67243 10.4751 7.41544e-11 151594 6.66618 7.4085e-11 1.52084e-06 7.39154 8.99802e+10
4.26509 9.76745 12.3546 9.2037e-11 178516 9.77155 9.20755e-11 1.31927e-06 12.4539 1.06125e+11
4.50629 8.6437 14.5714 6.90571e-11 209896 8.62168 6.88812e-11 1.14374e-06 12.6731 1.25167e+11
4.76113 9.14131 17.186 6.1922e-11 248076 9.14173 6.19248e-11 9.90997e-07 15.5009 1.47626e+11
5.03038 10.5134 20.2696 6.03818e-11 292420 10.4887 6.02401e-11 8.58167e-07 20.5751 1.74115e+11
5.31485 13.1629 23.9066 6.4098e-11 345804 13.1077 6.38293e-11 7.42731e-07 29.843 2.05356e+11
5.61542 16.5596 28.1962 6.83707e-11 406714 16.5043 6.81424e-11 6.42478e-07 43.2813 2.42204e+11
5.93298 19.483 33.2555 6.82029e-11 479520 19.4427 6.80618e-11 5.55464e-07 58.8781 2.85662e+11
6.2685 21.9569 39.2225 6.51698e-11 566472 21.927 6.5081e-11 4.79988e-07 76.912 3.36919e+11
6.62299 24.2329 46.2602 6.09829e-11 668454 24.1888 6.0872e-11 4.1456e-07 98.3314 3.97372e+11
6.99754 26.9832 54.5607 5.75737e-11 787572 26.9128 5.74235e-11 3.57875e-07 126.702 4.68673e+11
7.39326 31.0042 64.3505 5.60891e-11 930080 30.9117 5.59217e-11 3.08793e-07 168.939 5.52767e+11
7.81136 36.6718 75.8969 5.62495e-11 1.09432e+06 36.5444 5.6054e-11 2.66319e-07 231.134 6.5195e+11
8.25311 44.7605 89.5151 5.82115e-11 1.29162e+06 44.6111 5.80172e-11 2.29582e-07 327.497 7.68929e+11
8.71983 54.5848 105.577 6.01884e-11 1.52605e+06 54.41 5.99957e-11 1.97824e-07 464.305 9.06898e+11
9.21295 65.649 124.521 6.13758e-11 1.79721e+06 65.4531 6.11926e-11 1.70386e-07 647.384 1.06962e+12
9.73396 76.9639 146.863 6.10076e-11 2.12116e+06 76.7345 6.08258e-11 1.46692e-07 882.169 1.26155e+12
10.2844 89.73 173.215 6.03062e-11 2.49914e+06 89.4704 6.01317e-11 1.2624e-07 1193.86 1.48791e+12
10.866 104.817 204.295 5.97289e-11 2.94919e+06 104.516 5.95571e-11 1.08596e-07 1622.08 1.75488e+12
11.4805 123.648 240.952 5.97403e-11 3.47939e+06 123.27 5.95574e-11 9.33817e-08 2225.92 2.06976e+12
12.1298 146.729 284.186 6.01066e-11 4.1004e+06 146.285 5.9925e-11 8.02681e-08 3070.47 2.44114e+12
12.8157 173.157 335.177 6.01416e-11 4.84282e+06 172.632 5.99594e-11 6.89705e-08 4222.89 2.87915e+12
13.5405 203.85 395.318 6.00307e-11 5.70611e+06 203.226 5.98471e-11 5.92414e-08 5782.14 3.39576e+12
14.3062 240.623 466.25 6.00799e-11 6.73072e+06 239.882 5.98948e-11 5.08668e-08 7949.79 4.00506e+12
15.1153 283.654 549.91 6.00493e-11 7.93789e+06 282.775 5.98632e-11 4.36611e-08 10917.4 4.72369e+12
15.9701 334.816 648.58 6.00969e-11 9.3654e+06 333.785 5.99119e-11 3.74635e-08 15023.5 5.57126e+12
16.8732 394.998 764.955 6.01131e-11 1.10411e+07 393.783 5.99282e-11 3.21352e-08 20653.9 6.57091e+12
17.8274 465.899 902.211 6.01165e-11 1.30294e+07 464.443 5.99286e-11 2.7556e-08 28425.1 7.74994e+12
18.8356 549.881 1064.1 6.01586e-11 1.53594e+07 548.161 5.99705e-11 2.3622e-08 39116.1 9.14051e+12
19.9008 648.374 1255.03 6.01427e-11 1.81236e+07 646.334 5.99535e-11 2.02435e-08 53844.5 1.07806e+13
21.0262 765.519 1480.22 6.02062e-11 2.13681e+07 763.106 6.00164e-11 1.73432e-08 74178.8 1.2715e+13
22.2152 903.228 1745.81 6.02296e-11 2.52005e+07 900.37 6.00391e-11 1.48541e-08 102182 1.49964e+13
23.4716 1066.05 2059.06 6.02721e-11 2.97255e+07 1062.7 6.00831e-11 1.27187e-08 140864 1.76872e+13
24.7989 1258.12 2428.52 6.03101e-11 3.50616e+07 1254.14 6.01195e-11 1.08874e-08 194221 2.08608e+13
26.2013 1486.14 2864.27 6.04025e-11 4.13531e+07 1481.43 6.02111e-11 9.31732e-09 268085 2.46039e+13
27.6831 1754.74 3378.21 6.04694e-11 4.87711e+07 1749.16 6.02772e-11 7.97161e-09 369958 2.90186e+13
29.2486 2073.18 3984.36 6.05744e-11 5.75255e+07 2066.52 6.03797e-11 6.81857e-09 511042 3.42254e+13
30.9026 2450.48 4699.28 6.0706e-11 6.78404e+07 2442.61 6.05109e-11 5.83089e-09 706292 4.03665e+13
32.6502 2895.46 5542.47 6.0817e-11 8.0018e+07 2886.16 6.06215e-11 4.9851e-09 976198 4.76094e+13
34.4967 3429.67 6536.95 6.10783e-11 9.43754e+07 3418.64 6.0882e-11 4.26103e-09 1.35279e+06 5.6152e+13
36.4475 4056.18 7709.88 6.12463e-11 1.11311e+08 4043.03 6.10478e-11 3.64131e-09 1.87223e+06 6.62274e+13
38.5087 4913.41 9093.27 6.29032e-11 1.31285e+08 4896.89 6.26918e-11 3.11104e-09 2.65448e+06 7.81106e+13
40.6864 5701.73 10724.9 6.18906e-11 1.54822e+08 5683.02 6.16875e-11 2.65744e-09 3.60573e+06 9.2126e+13
42.9873 6920.47 12649.2 6.36914e-11 1.82627e+08 6898.79 6.34919e-11 2.26951e-09 5.12525e+06 1.08656e+14
45.4183 8074.88 14918.9 6.301e-11 2.1538e+08 8047.75 6.27983e-11 1.93782e-09 7.00328e+06 1.28152e+14
47.9868 9729.26 17595.8 6.43696e-11 2.54026e+08 9700.13 6.41769e-11 1.65429e-09 9.88437e+06 1.51147e+14
50.7005 11587.3 20753 6.49995e-11 2.99614e+08 11546.7 6.47722e-11 1.41197e-09 1.37926e+07 1.78267e+14
53.5677 13989.9 24476.7 6.65384e-11 3.53368e+08 13939.9 6.63004e-11 1.20493e-09 1.95136e+07 2.10254e+14
56.5971 17041.5 28868.6 6.87216e-11 4.16783e+08 16978.3 6.84666e-11 1.02806e-09 2.78602e+07 2.47979e+14
59.7977 21040.7 34048.5 7.19402e-11 4.91558e+08 20958.2 7.16582e-11 8.77005e-10 4.03223e+07 2.92474e+14
63.1794 26402 40157.8 7.65378e-11 5.79769e+08 26287.5 7.62061e-11 7.48017e-10 5.93225e+07 3.44953e+14
66.7523 33737.9 47363.4 8.2925e-11 6.8378e+08 33585.3 8.25499e-11 6.37895e-10 8.88899e+07 4.06848e+14
70.5272 38429.7 55861.8 8.00871e-11 3.00349e+06 41605.6 8.67055e-11 5.43899e-10 442253 4.79849e+14
74.5157 0 65885.1 0 0 0 0 4.63681e-10 0 5.65949e+14
78.7297 0 77706.9 0 0 0 0 3.95235e-10 0 6.67497e+14
83.182 0 91649.8 0 0 0 0 3.36843e-10 0 7.87266e+14
87.8861 0 108095 0 0 0 0 2.87037e-10 0 9.28526e+14
92.8562 0 127490 0 0 0 0 2.44561e-10 0 1.09513e+15
98.1073 0 150366 0 0 0 0 2.08343e-10 0 1.29163e+15
103.655 0 177346 0 0 0 0 1.77465e-10 0 1.52339e+15
109.517 0 209167 0 0 0 0 1.51145e-10 0 1.79673e+15
115.711 0 246698 0 0 0 0 1.28712e-10 0 2.11912e+15
122.254 0 290963 0 0 0 0 1.09595e-10 0 2.49935e+15
0.129031
200
2.30148e+11
8589934592
0.0021528 8.05814e-08 1.58875e-09 5.90458e-09 6 7.86085e-08 5.76002e-09 0.00197275 1.79584e-05 13.6473
0.00227455 0 1.87382e-09 0 0 0 0 0.00207247 0 16.096
0.00240318 0 2.21004e-09 0 0 0 0 0.00217643 0 18.9841
0.00253908 0 2.60659e-09 0 0 0 0 0.00228471 0 22.3904
0.00268267 0 3.07429e-09 0 0 0 0 0.00239737 0 26.408
0.00283438 0 3.62591e-09 0 0 0 0 0.00251449 0 31.1464
0.00299467 2.29147e-07 4.27651e-09 6.23784e-09 12 2.27003e-07 6.17948e-09 0.00263608 2.8396e-05 36.735
0.00316402 0 5.04385e-09 0 0 0 0 0.00276218 0 43.3263
0.00334295 0 5.94887e-09 0 0 0 0 0.00289278 0 51.1004
0.003532 2.56639e-07 7.01627e-09 4.25821e-09 8 2.62333e-07 4.35268e-09 0.00302786 1.12508e-05 60.2693
0.00373174 0 8.27521e-09 0 0 0 0 0.00316735 0 71.0835
0.00394278 0 9.76003e-09 0 0 0 0 0.00331119 0 83.838
0.00416575 2.00007e-06 1.15113e-08 2.0227e-08 6 2.00878e-06 2.03152e-08 0.00345926 3.50833e-05 98.8811
0.00440133 0 1.35767e-08 0 0 0 0 0.00361139 0 116.623
0.00465023 1.44785e-06 1.60128e-08 1.05261e-08 24 1.45566e-06 1.05828e-08 0.00376739 6.70558e-05 137.549
0.00491321 0 1.8886e-08 0 0 0 0 0.00392704 0 162.23
0.00519106 3.01461e-06 2.22747e-08 1.57554e-08 24 2.98866e-06 1.56197e-08 0.00409003 9.24515e-05 191.338
0.00548462 0 2.62715e-08 0 0 0 0 0.00425603 0 225.67
0.00579479 4.98652e-06 3.09854e-08 1.87349e-08 12 5.06333e-06 1.90234e-08 0.00442465 5.08104e-05 266.162
0.00612249 4.80379e-06 3.65451e-08 1.53026e-08 30 4.88851e-06 1.55725e-08 0.00459545 9.98983e-05 313.92
0.00646873 6.30101e-06 4.31024e-08 1.70184e-08 24 6.39919e-06 1.72836e-08 0.00476791 8.56647e-05 370.247
0.00683455 4.33024e-06 5.08363e-08 9.91627e-09 24 4.3752e-06 1.00192e-08 0.00494148 4.81618e-05 436.68
0.00722105 9.78859e-06 5.99579e-08 1.90057e-08 8 9.81714e-06 1.90612e-08 0.00511552 2.97225e-05 515.034
0.00762942 1.37385e-05 7.07161e-08 2.26168e-08 72 1.38749e-05 2.28414e-08 0.00528933 0.000307866 607.447
0.00806087 0 8.34047e-08 0 0 0 0 0.00546217 0 716.441
0.00851673 2.42084e-05 9.837e-08 2.86493e-08 54 2.43321e-05 2.87957e-08 0.00563323 0.000274632 844.992
0.00899837 1.99393e-05 1.16021e-07 2.00071e-08 60 1.99411e-05 2.0009e-08 0.00580162 0.000206912 996.609
0.00950724 2.13997e-05 1.36838e-07 1.82059e-08 72 2.14056e-05 1.82109e-08 0.00596643 0.0002197 1175.43
0.0100449 2.58431e-05 1.61391e-07 1.86413e-08 48 2.58358e-05 1.8636e-08 0.00612667 0.000146047 1386.34
0.0106129 4.86952e-05 1.9035e-07 2.97814e-08 134 4.88093e-05 2.98511e-08 0.00628133 0.000635327 1635.09
0.0112131 4.95286e-05 2.24504e-07 2.56828e-08 120 4.97478e-05 2.57965e-08 0.00642937 0.000479353 1928.48
0.0118472 5.5918e-05 2.64787e-07 2.45847e-08 60 5.61273e-05 2.46768e-08 0.0065697 0.000224528 2274.5
0.0125172 7.20225e-05 3.12298e-07 2.68479e-08 150 7.19206e-05 2.68099e-08 0.00670125 0.00060096 2682.62
0.0132251 8.51059e-05 3.68333e-07 2.68985e-08 240 8.52299e-05 2.69377e-08 0.00682292 0.000946171 3163.96
0.013973 8.4191e-05 4.34423e-07 2.25612e-08 168 8.42497e-05 2.2577e-08 0.00693364 0.000546651 3731.67
0.0147632 0.000106178 5.12372e-07 2.41245e-08 218 0.00010628 2.41477e-08 0.00703238 0.000747847 4401.24
0.0155981 0.000145622 6.04307e-07 2.80531e-08 288 0.000145529 2.80351e-08 0.00711814 0.00113503 5190.96
0.0164802 0.000157242 7.12738e-07 2.56832e-08 342 0.000157215 2.56788e-08 0.00718999 0.00122165 6122.38
0.0174122 0.000189871 8.40625e-07 2.62946e-08 396 0.000189796 2.62843e-08 0.00724706 0.00143681 7220.91
0.0183969 0.000199328 9.91459e-07 2.34047e-08 470 0.00019929 2.34003e-08 0.0072886 0.00150923 8516.57
0.0194372 0.000255491 1.16936e-06 2.54354e-08 672 0.000255507 2.5437e-08 0.00731397 0.00233698 10044.7
0.0205364 0.000289794 1.37917e-06 2.44613e-08 594 0.000289762 2.44586e-08 0.00732263 0.00198426 11847
0.0216978 0.000380572 1.62664e-06 2.72367e-08 704 0.000380501 2.72317e-08 0.0073142 0.00262157 13972.7
0.0229249 0.000381271 1.91851e-06 2.31356e-08 990 0.000381204 2.31315e-08 0.00728845 0.00314254 16479.9
0.0242213 0.000441854 2.26275e-06 2.27328e-08 1044 0.000441674 2.27236e-08 0.00724528 0.00327566 19436.8
0.025591 0.000549662 2.66875e-06 2.39772e-08 1214 0.000549511 2.39706e-08 0.00718478 0.00405138 22924.4
0.0270383 0.000590798 3.14761e-06 2.18509e-08 1506 0.000590648 2.18453e-08 0.0071072 0.00463015 27037.7
0.0285673 0.000737888 3.71238e-06 2.31392e-08 1718 0.000737531 2.3128e-08 0.00701294 0.00566853 31889.1
0.0301829 0.000727687 4.3785e-06 1.93477e-08 2100 0.000727712 1.93484e-08 0.00690256 0.00588625 37611
0.0318897 0.000886018 5.16413e-06 1.99736e-08 2354 0.000886026 1.99737e-08 0.00677679 0.00693806 44359.6
0.0336932 0.000991876 6.09073e-06 1.89582e-08 2982 0.000991929 1.89592e-08 0.00663647 0.0085186 52319
0.0355986 0.00112075 7.1836e-06 1.81625e-08 3386 0.00112036 1.81562e-08 0.00648261 0.00948666 61706.6
0.0376117 0.00119843 8.47255e-06 1.64667e-08 3858 0.00119861 1.64692e-08 0.00631629 0.0100579 72778.6
0.0397387 0.00143825 9.99278e-06 1.67556e-08 4910 0.00143843 1.67576e-08 0.00613872 0.0134018 85837.3
0.041986 0.00155269 1.17858e-05 1.53368e-08 5346 0.00155291 1.5339e-08 0.00595116 0.0137773 101239
0.0443604 0.00170786 1.39005e-05 1.43031e-08 6698 0.00170863 1.43096e-08 0.00575493 0.016647 119405
0.0468691 0.00198913 1.63947e-05 1.41244e-08 7736 0.00198916 1.41246e-08 0.00555141 0.0196827 140829
0.0495196 0.00216253 1.93364e-05 1.30196e-08 9362 0.00216173 1.30148e-08 0.00534196 0.0228173 166098
0.05232 0.0024329 2.28059e-05 1.2419e-08 10770 0.00243003 1.24043e-08 0.00512796 0.0260831 195901
0.0552788 0.00279691 2.6898e-05 1.21051e-08 12632 0.00279525 1.20979e-08 0.00491076 0.0311381 231052
0.0584049 0.00312801 3.17243e-05 1.14785e-08 15098 0.00312529 1.14686e-08 0.00469167 0.0369383 272510
0.0617078 0.00355552 3.74166e-05 1.10624e-08 17744 0.00355158 1.10501e-08 0.00447196 0.0438937 321406
0.0651975 0.00406237 4.41303e-05 1.07165e-08 20570 0.00405957 1.07091e-08 0.0042528 0.0518337 379076
0.0688845 0.00463339 5.20486e-05 1.03633e-08 24872 0.00463035 1.03565e-08 0.00403532 0.0638753 447094
0.0727801 0.0051105 6.13877e-05 9.69153e-09 29132 0.00510614 9.68327e-09 0.00382053 0.0738991 527316
0.0768959 0.00555226 7.24025e-05 8.92742e-09 34136 0.00554656 8.91827e-09 0.00360937 0.0844319 621933
0.0812445 0.00599515 8.53937e-05 8.17306e-09 40372 0.00599087 8.16722e-09 0.00340268 0.0969713 733526
0.085839 0.00649647 0.000100716 7.50912e-09 47702 0.00649036 7.50207e-09 0.00320119 0.111896 865143
0.0906933 0.00694335 0.000118787 6.8047e-09 56252 0.00693925 6.80068e-09 0.00300554 0.127358 1.02038e+06
0.0958222 0.00735884 0.000140101 6.11473e-09 66082 0.00735335 6.11016e-09 0.00281625 0.143479 1.20346e+06
0.101241 0.00791963 0.00016524 5.57956e-09 77876 0.00791555 5.57669e-09 0.00263378 0.164977 1.4194e+06
0.106966 0.00871429 0.000194889 5.20541e-09 92650 0.00870813 5.20173e-09 0.00245848 0.196171 1.67408e+06
0.113016 0.00967032 0.000229858 4.89769e-09 108490 0.00966157 4.89326e-09 0.0022906 0.23197 1.97446e+06
0.119407 0.0106414 0.000271101 4.56959e-09 128882 0.0106293 4.56439e-09 0.00213033 0.276454 2.32874e+06
0.126159 0.0120277 0.000319745 4.37916e-09 150730 0.0120147 4.3744e-09 0.00197778 0.333743 2.74659e+06
0.133294 0.0132534 0.000377117 4.09129e-09 178516 0.0132433 4.08819e-09 0.00183298 0.398455 3.23941e+06
0.140832 0.0141556 0.000444783 3.70501e-09 210280 0.0141454 3.70235e-09 0.00169593 0.459389 3.82066e+06
0.148796 0.0149023 0.000524591 3.30707e-09 247692 0.0148934 3.30509e-09 0.00156653 0.522897 4.5062e+06
0.157211 0.0154209 0.000618719 2.90154e-09 292948 0.0154124 2.89993e-09 0.00144468 0.588367 5.31475e+06
0.166102 0.0164496 0.000729735 2.62421e-09 345852 0.0164354 2.62196e-09 0.0013302 0.682297 6.26838e+06
0.175495 0.0179234 0.000860672 2.42433e-09 406882 0.0179033 2.42162e-09 0.0012229 0.806621 7.39312e+06
0.185419 0.0197962 0.0010151 2.2703e-09 480198 0.0197727 2.26759e-09 0.00112256 0.971166 8.71966e+06
0.195905 0.0216792 0.00119724 2.108e-09 565530 0.021661 2.10623e-09 0.00102893 1.15862 1.02842e+07
0.206984 0.0229829 0.00141206 1.89479e-09 668550 0.0229686 1.89361e-09 0.000941736 1.34513 1.21295e+07
0.218689 0.0239163 0.00166543 1.67177e-09 787620 0.0239011 1.67071e-09 0.000860706 1.52982 1.43059e+07
0.231057 0.0252142 0.00196426 1.49436e-09 930848 0.0251901 1.49294e-09 0.00078555 1.77076 1.68729e+07
0.244123 0.0271694 0.00231671 1.36527e-09 1.0948e+06 0.0271391 1.36375e-09 0.000715973 2.08766 1.99004e+07
0.257929 0.0295055 0.0027324 1.2571e-09 1.29177e+06 0.0294775 1.25591e-09 0.000651679 2.49184 2.34711e+07
0.272515 0.0312221 0.00322267 1.12786e-09 1.52529e+06 0.0311995 1.12705e-09 0.000592374 2.9041 2.76825e+07
0.287926 0.0326714 0.00380091 1.00067e-09 1.79673e+06 0.0326466 9.99907e-10 0.000537765 3.34334 3.26496e+07
0.304209 0.0347129 0.00448291 9.01449e-10 2.12289e+06 0.0346794 9.00579e-10 0.000487565 3.92497 3.85079e+07
0.321413 0.0372151 0.00528728 8.19401e-10 2.50053e+06 0.0371776 8.18575e-10 0.000441493 4.64092 4.54174e+07
0.339589 0.0393308 0.00623598 7.34241e-10 2.94969e+06 0.0392977 7.33622e-10 0.000399279 5.42424 5.35667e+07
0.358793 0.0412646 0.00735491 6.53146e-10 3.47889e+06 0.0412241 6.52506e-10 0.000360659 6.30019 6.31782e+07
0.379084 0.0439119 0.0086746 5.89309e-10 4.10369e+06 0.0438673 5.88711e-10 0.000325382 7.43231 7.45142e+07
0.400522 0.0464637 0.0102311 5.28691e-10 4.84176e+06 0.0464189 5.28182e-10 0.000293206 8.73035 8.78843e+07
0.423172 0.0489162 0.0120669 4.71921e-10 5.70705e+06 0.0488678 4.71454e-10 0.000263903 10.2056 1.03653e+08
0.447103 0.0517441 0.014232 4.23258e-10 6.73675e+06 0.0516899 4.22814e-10 0.000237253 12.0183 1.22252e+08
0.472387 0.0545377 0.0167857 3.78241e-10 7.9377e+06 0.0544821 3.77855e-10 0.000213051 14.0922 1.44188e+08
0.499101 0.0574805 0.0197975 3.38003e-10 9.36285e+06 0.0574223 3.3766e-10 0.000191102 16.5601 1.70059e+08
0.527327 0.0605974 0.0233498 3.02121e-10 1.10478e+07 0.0605358 3.01814e-10 0.000171224 19.4937 2.00573e+08
0.557148 0.0637876 0.0275395 2.69644e-10 1.30307e+07 0.063721 2.69363e-10 0.000153245 22.9283 2.36562e+08
0.588655 0.0671793 0.0324809 2.40779e-10 1.53619e+07 0.0671088 2.40526e-10 0.000137005 26.9976 2.79008e+08
0.621945 0.0707491 0.0383089 2.14997e-10 1.81296e+07 0.0706739 2.14768e-10 0.000122355 31.8564 3.29071e+08
0.657117 0.0743976 0.0451827 1.91689e-10 2.13731e+07 0.0743173 1.91482e-10 0.000109156 37.5331 3.88116e+08
0.694278 0.0782448 0.0532898 1.70931e-10 2.52109e+07 0.0781596 1.70745e-10 9.72796e-05 44.2984 4.57756e+08
0.733541 0.0822858 0.0628516 1.52412e-10 2.9726e+07 0.0821958 1.52245e-10 8.66058e-05 52.3129 5.39891e+08
0.775024 0.0864557 0.0741291 1.35773e-10 3.50739e+07 0.0863612 1.35625e-10 7.70247e-05 61.8257 6.36764e+08
0.818852 0.0907888 0.0874301 1.20887e-10 4.13576e+07 0.090689 1.20755e-10 6.84347e-05 73.0567 7.51019e+08
0.86516 0.0952862 0.103118 1.07574e-10 4.87837e+07 0.0951798 1.07454e-10 6.07424e-05 86.3951 8.85775e+08
0.914086 0.0998882 0.12162 9.56134e-11 5.75372e+07 0.0997768 9.55067e-11 5.3862e-05 102.137 1.04471e+09
0.965779 0.104632 0.143443 8.49173e-11 6.78547e+07 0.104515 8.48228e-11 4.77149e-05 120.76 1.23216e+09
1.0204 0.10952 0.16918 7.53618e-11 8.00386e+07 0.109398 7.5278e-11 4.22291e-05 142.837 1.45325e+09
1.0781 0.114524 0.199537 6.68167e-11 9.43992e+07 0.114394 6.67409e-11 3.73389e-05 168.924 1.71401e+09
1.13907 0.119677 0.235339 5.92007e-11 1.11325e+08 0.119542 5.91337e-11 3.29844e-05 199.807 2.02155e+09
1.20349 0.125061 0.277566 5.24524e-11 1.31307e+08 0.124917 5.23918e-11 2.91111e-05 236.59 2.38428e+09
1.27154 0.13073 0.32737 4.64886e-11 1.54867e+08 0.130577 4.64343e-11 2.56695e-05 280.471 2.81209e+09
1.34345 0.136766 0.38611 4.12359e-11 1.82662e+08 0.136602 4.11867e-11 2.26148e-05 333.066 3.31666e+09
1.41943 0.143384 0.45539 3.66546e-11 2.15434e+08 0.143209 3.66097e-11 1.99062e-05 396.694 3.91177e+09
1.4997 0.150739 0.537101 3.26723e-11 2.54082e+08 0.150547 3.26306e-11 1.75069e-05 474.181 4.61366e+09
1.58451 0.159091 0.633473 2.92366e-11 2.99691e+08 0.158877 2.91974e-11 1.53838e-05 569.557 5.4415e+09
1.67412 0.168806 0.747138 2.63026e-11 3.53444e+08 0.168567 2.62653e-11 1.35069e-05 688.278 6.41786e+09
1.76879 0.180509 0.881197 2.38471e-11 4.16883e+08 0.180231 2.38104e-11 1.18493e-05 838.991 7.56942e+09
1.86882 0.195161 1.03931 2.18604e-11 4.91657e+08 0.194829 2.18232e-11 1.03867e-05 1034.76 8.92761e+09
1.9745 0.21487 1.22579 2.04065e-11 5.79899e+08 0.214449 2.03665e-11 9.09749e-06 1300.77 1.05295e+10
2.08616 0.244004 1.44574 1.9648e-11 6.83936e+08 0.243413 1.96004e-11 7.96208e-06 1687.75 1.24188e+10
2.20414 0.267254 1.70515 1.82462e-11 1.99573e+06 0.285759 1.95096e-11 6.96304e-06 5.22969 1.46471e+10
2.32879 0 2.0111 0 0 0 0 6.08479e-06 0 1.72752e+10
2.46049 0 2.37196 0 0 0 0 5.3134e-06 0 2.03749e+10
2.59963 0 2.79756 0 0 0 0 4.63644e-06 0 2.40308e+10
2.74664 0 3.29952 0 0 0 0 4.04286e-06 0 2.83427e+10
2.90197 0 3.89156 0 0 0 0 3.52282e-06 0 3.34282e+10
3.06608 0 4.58982 0 0 0 0 3.06758e-06 0 3.94263e+10
3.23947 0 5.41337 0 0 0 0 2.66939e-06 0 4.65005e+10
3.42267 0 6.38469 0 0 0 0 2.32136e-06 0 5.48441e+10
3.61623 0 7.5303 0 0 0 0 2.01741e-06 0 6.46848e+10
3.82073 0 8.88147 0 0 0 0 1.75215e-06 0 7.62912e+10
4.0368 0 10.4751 0 0 0 0 1.52084e-06 0 8.99802e+10
4.26509 0 12.3546 0 0 0 0 1.31927e-06 0 1.06125e+11
4.50629 0 14.5714 0 0 0 0 1.14374e-06 0 1.25167e+11
4.76113 0 17.186 0 0 0 0 9.90997e-07 0 1.47626e+11
5.03038 0 20.2696 0 0 0 0 8.58167e-07 0 1.74115e+11
5.31485 0 23.9066 0 0 0 0 7.42731e-07 0 2.05356e+11
5.61542 0 28.1962 0 0 0 0 6.42478e-07 0 2.42204e+11
5.93298 0 33.2555 0 0 0 0 5.55464e-07 0 2.85662e+11
6.2685 0 39.2225 0 0 0 0 4.79988e-07 0 3.36919e+11
6.62299 0 46.2602 0 0 0 0 4.1456e-07 0 3.97372e+11
6.99754 0 54.5607 0 0 0 0 3.57875e-07 0 4.68673e+11
7.39326 0 64.3505 0 0 0 0 3.08793e-07 0 5.52767e+11
7.81136 0 75.8969 0 0 0 0 2.66319e-07 0 6.5195e+11
8.25311 0 89.5151 0 0 0 0 2.29582e-07 0 7.68929e+11
8.71983 0 105.577 0 0 0 0 1.97824e-07 0 9.06898e+11
9.21295 0 124.521 0 0 0 0 1.70386e-07 0 1.06962e+12
9.73396 0 146.863 0 0 0 0 1.46692e-07 0 1.26155e+12
10.2844 0 173.215 0 0 0 0 1.2624e-07 0 1.48791e+12
10.866 0 204.295 0 0 0 0 1.08596e-07 0 1.75488e+12
11.4805 0 240.952 0 0 0 0 9.33817e-08 0 2.06976e+12
12.1298 0 284.186 0 0 0 0 8.02681e-08 0 2.44114e+12
12.8157 0 335.177 0 0 0 0 6.89705e-08 0 2.87915e+12
13.5405 0 395.318 0 0 0 0 5.92414e-08 0 3.39576e+12
14.3062 0 466.25 0 0 0 0 5.08668e-08 0 4.00506e+12
15.1153 0 549.91 0 0 0 0 4.36611e-08 0 4.72369e+12
15.9701 0 648.58 0 0 0 0 3.74635e-08 0 5.57126e+12
16.8732 0 764.955 0 0 0 0 3.21352e-08 0 6.57091e+12
17.8274 0 902.211 0 0 0 0 2.7556e-08 0 7.74994e+12
18.8356 0 1064.1 0 0 0 0 2.3622e-08 0 9.14051e+12
19.9008 0 1255.03 0 0 0 0 2.02435e-08 0 1.07806e+13
21.0262 0 1480.22 0 0 0 0 1.73432e-08 0 1.2715e+13
22.2152 0 1745.81 0 0 0 0 1.48541e-08 0 1.49964e+13
23.4716 0 2059.06 0 0 0 0 1.27187e-08 0 1.76872e+13
24.7989 0 2428.52 0 0 0 0 1.08874e-08 0 2.08608e+13
26.2013 0 2864.27 0 0 0 0 9.31732e-09 0 2.46039e+13
27.6831 0 3378.21 0 0 0 0 7.97161e-09 0 2.90186e+13
29.2486 0 3984.36 0 0 0 0 6.81857e-09 0 3.42254e+13
30.9026 0 4699.28 0 0 0 0 5.83089e-09 0 4.03665e+13
32.6502 0 5542.47 0 0 0 0 4.9851e-09 0 4.76094e+13
34.4967 0 6536.95 0 0 0 0 4.26103e-09 0 5.6152e+13
36.4475 0 7709.88 0 0 0 0 3.64131e-09 0 6.62274e+13
38.5087 0 9093.27 0 0 0 0 3.11104e-09 0 7.81106e+13
40.6864 0 10724.9 0 0 0 0 2.65744e-09 0 9.2126e+13
42.9873 0 12649.2 0 0 0 0 2.26951e-09 0 1.08656e+14
45.4183 0 14918.9 0 0 0 0 1.93782e-09 0 1.28152e+14
47.9868 0 17595.8 0 0 0 0 1.65429e-09 0 1.51147e+14
50.7005 0 20753 0 0 0 0 1.41197e-09 0 1.78267e+14
53.5677 0 24476.7 0 0 0 0 1.20493e-09 0 2.10254e+14
56.5971 0 28868.6 0 0 0 0 1.02806e-09 0 2.47979e+14
59.7977 0 34048.5 0 0 0 0 8.77005e-10 0 2.92474e+14
63.1794 0 40157.8 0 0 0 0 7.48017e-10 0 3.44953e+14
66.7523 0 47363.4 0 0 0 0 6.37895e-10 0 4.06848e+14
70.5272 0 55861.8 0 0 0 0 5.43899e-10 0 4.79849e+14
74.5157 0 65885.1 0 0 0 0 4.63681e-10 0 5.65949e+14
78.7297 0 77706.9 0 0 0 0 3.95235e-10 0 6.67497e+14
83.182 0 91649.8 0 0 0 0 3.36843e-10 0 7.87266e+14
87.8861 0 108095 0 0 0 0 2.87037e-10 0 9.28526e+14
92.8562 0 127490 0 0 0 0 2.44561e-10 0 1.09513e+15
98.1073 0 150366 0 0 0 0 2.08343e-10 0 1.29163e+15
103.655 0 177346 0 0 0 0 1.77465e-10 0 1.52339e+15
109.517 0 209167 0 0 0 0 1.51145e-10 0 1.79673e+15
115.711 0 246698 0 0 0 0 1.28712e-10 0 2.11912e+15
122.254 0 290963 0 0 0 0 1.09595e-10 0 2.49935e+15
