0.845274
200
2.30148e+11
8589934592
0.0021528 0 1.58875e-09 0 0 0 0 0.00197275 0 13.6473
0.00227455 0 1.87382e-09 0 0 0 0 0.00207247 0 16.096
0.00240318 0 2.21004e-09 0 0 0 0 0.00217643 0 18.9841
0.00253908 0 2.60659e-09 0 0 0 0 0.00228471 0 22.3904
0.00268267 0 3.07429e-09 0 0 0 0 0.00239737 0 26.408
0.00283438 0 3.62591e-09 0 0 0 0 0.00251449 0 31.1464
0.00299467 0 4.27651e-09 0 0 0 0 0.00263608 0 36.735
0.00316402 0 5.04385e-09 0 0 0 0 0.00276218 0 43.3263
0.00334295 0 5.94887e-09 0 0 0 0 0.00289278 0 51.1004
0.003532 0 7.01627e-09 0 0 0 0 0.00302786 0 60.2693
0.00373174 0 8.27521e-09 0 0 0 0 0.00316735 0 71.0835
0.00394278 0 9.76003e-09 0 0 0 0 0.00331119 0 83.838
0.00416575 0 1.15113e-08 0 0 0 0 0.00345926 0 98.8811
0.00440133 0 1.35767e-08 0 0 0 0 0.00361139 0 116.623
0.00465023 0 1.60128e-08 0 0 0 0 0.00376739 0 137.549
0.00491321 0 1.8886e-08 0 0 0 0 0.00392704 0 162.23
0.00519106 0 2.22747e-08 0 0 0 0 0.00409003 0 191.338
0.00548462 0 2.62715e-08 0 0 0 0 0.00425603 0 225.67
0.00579479 0 3.09854e-08 0 0 0 0 0.00442465 0 266.162
0.00612249 0 3.65451e-08 0 0 0 0 0.00459545 0 313.92
0.00646873 0 4.31024e-08 0 0 0 0 0.00476791 0 370.247
0.00683455 0 5.08363e-08 0 0 0 0 0.00494148 0 436.68
0.00722105 0 5.99579e-08 0 0 0 0 0.00511552 0 515.034
0.00762942 0 7.07161e-08 0 0 0 0 0.00528933 0 607.447
0.00806087 0 8.34047e-08 0 0 0 0 0.00546217 0 716.441
0.00851673 0 9.837e-08 0 0 0 0 0.00563323 0 844.992
0.00899837 0 1.16021e-07 0 0 0 0 0.00580162 0 996.609
0.00950724 0 1.36838e-07 0 0 0 0 0.00596643 0 1175.43
0.0100449 0 1.61391e-07 0 0 0 0 0.00612667 0 1386.34
0.0106129 0 1.9035e-07 0 0 0 0 0.00628133 0 1635.09
0.0112131 0 2.24504e-07 0 0 0 0 0.00642937 0 1928.48
0.0118472 0 2.64787e-07 0 0 0 0 0.0065697 0 2274.5
0.0125172 0 3.12298e-07 0 0 0 0 0.00670125 0 2682.62
0.0132251 0 3.68333e-07 0 0 0 0 0.00682292 0 3163.96
0.013973 0 4.34423e-07 0 0 0 0 0.00693364 0 3731.67
0.0147632 0 5.12372e-07 0 0 0 0 0.00703238 0 4401.24
0.0155981 0 6.04307e-07 0 0 0 0 0.00711814 0 5190.96
0.0164802 0 7.12738e-07 0 0 0 0 0.00718999 0 6122.38
0.0174122 0 8.40625e-07 0 0 0 0 0.00724706 0 7220.91
0.0183969 0 9.91459e-07 0 0 0 0 0.0072886 0 8516.57
0.0194372 0 1.16936e-06 0 0 0 0 0.00731397 0 10044.7
0.0205364 0 1.37917e-06 0 0 0 0 0.00732263 0 11847
0.0216978 0 1.62664e-06 0 0 0 0 0.0073142 0 13972.7
0.0229249 0 1.91851e-06 0 0 0 0 0.00728845 0 16479.9
0.0242213 0 2.26275e-06 0 0 0 0 0.00724528 0 19436.8
0.025591 0 2.66875e-06 0 0 0 0 0.00718478 0 22924.4
0.0270383 0 3.14761e-06 0 0 0 0 0.0071072 0 27037.7
0.0285673 0 3.71238e-06 0 0 0 0 0.00701294 0 31889.1
0.0301829 0 4.3785e-06 0 0 0 0 0.00690256 0 37611
0.0318897 0 5.16413e-06 0 0 0 0 0.00677679 0 44359.6
0.0336932 0 6.09073e-06 0 0 0 0 0.00663647 0 52319
0.0355986 0 7.1836e-06 0 0 0 0 0.00648261 0 61706.6
0.0376117 0 8.47255e-06 0 0 0 0 0.00631629 0 72778.6
0.0397387 0 9.99278e-06 0 0 0 0 0.00613872 0 85837.3
0.041986 0 1.17858e-05 0 0 0 0 0.00595116 0 101239
0.0443604 0 1.39005e-05 0 0 0 0 0.00575493 0 119405
0.0468691 0 1.63947e-05 0 0 0 0 0.00555141 0 140829
0.0495196 0 1.93364e-05 0 0 0 0 0.00534196 0 166098
0.05232 0 2.28059e-05 0 0 0 0 0.00512796 0 195901
0.0552788 0 2.6898e-05 0 0 0 0 0.00491076 0 231052
0.0584049 0 3.17243e-05 0 0 0 0 0.00469167 0 272510
0.0617078 0 3.74166e-05 0 0 0 0 0.00447196 0 321406
0.0651975 0 4.41303e-05 0 0 0 0 0.0042528 0 379076
0.0688845 0.436967 5.20486e-05 9.77348e-07 6 0.44868 1.00355e-06 0.00403532 0.00145319 447094
0.0727801 0 6.13877e-05 0 0 0 0 0.00382053 0 527316
0.0768959 0 7.24025e-05 0 0 0 0 0.00360937 0 621933
0.0812445 0 8.53937e-05 0 0 0 0 0.00340268 0 733526
0.085839 0 0.000100716 0 0 0 0 0.00320119 0 865143
0.0906933 0 0.000118787 0 0 0 0 0.00300554 0 1.02038e+06
0.0958222 5.39157 0.000140101 4.48005e-06 12 5.46249 4.53898e-06 0.00281625 0.0190894 1.20346e+06
0.101241 0 0.00016524 0 0 0 0 0.00263378 0 1.4194e+06
0.106966 0 0.000194889 0 0 0 0 0.00245848 0 1.67408e+06
0.113016 10.3601 0.000229858 5.24703e-06 8 10.0029 5.06611e-06 0.0022906 0.0183255 1.97446e+06
0.119407 0 0.000271101 0 0 0 0 0.00213033 0 2.32874e+06
0.126159 0 0.000319745 0 0 0 0 0.00197778 0 2.74659e+06
0.133294 0.302602 0.000377117 9.34128e-08 6 0.300245 9.2685e-08 0.00183298 0.000305773 3.23941e+06
0.140832 0 0.000444783 0 0 0 0 0.00169593 0 3.82066e+06
0.148796 0.487309 0.000524591 1.08142e-07 24 0.482257 1.07021e-07 0.00156653 0.00165679 4.5062e+06
0.157211 0 0.000618719 0 0 0 0 0.00144468 0 5.31475e+06
0.166102 1.55862 0.000729735 2.48648e-07 24 1.58648 2.53092e-07 0.0013302 0.0044862 6.26838e+06
0.175495 0 0.000860672 0 0 0 0 0.0012229 0 7.39312e+06
0.185419 1.634 0.0010151 1.87393e-07 12 1.57809 1.80981e-07 0.00112256 0.0020032 8.71966e+06
0.195905 1.41124 0.00119724 1.37224e-07 30 1.35368 1.31627e-07 0.00102893 0.00400097 1.02842e+07
0.206984 6.17592 0.00141206 5.09163e-07 24 5.9426 4.89928e-07 0.000941736 0.0129759 1.21295e+07
0.218689 8.49349 0.00166543 5.93703e-07 24 8.26787 5.77933e-07 0.000860706 0.0165549 1.43059e+07
0.231057 35.4518 0.00196426 2.10111e-06 8 35.1684 2.08432e-06 0.00078555 0.0213976 1.68729e+07
0.244123 1.15189 0.00231671 5.78829e-08 72 1.11353 5.59552e-08 0.000715973 0.00582085 1.99004e+07
0.257929 0 0.0027324 0 0 0 0 0.000651679 0 2.34711e+07
0.272515 0.90269 0.00322267 3.26086e-08 54 0.884114 3.19376e-08 0.000592374 0.00297256 2.76825e+07
0.287926 1.97615 0.00380091 6.05261e-08 60 1.96996 6.03365e-08 0.000537765 0.00675307 3.26496e+07
0.304209 0.75467 0.00448291 1.95978e-08 72 0.750602 1.94922e-08 0.000487565 0.00289406 3.85079e+07
0.321413 1.33441 0.00528728 2.93809e-08 48 1.3146 2.89449e-08 0.000441493 0.00319435 4.54174e+07
0.339589 4.91565 0.00623598 9.17669e-08 134 4.80005 8.96089e-08 0.000399279 0.0307974 5.35667e+07
0.358793 1.53908 0.00735491 2.4361e-08 120 1.49525 2.36672e-08 0.000360659 0.00810548 6.31782e+07
0.379084 1.49152 0.0086746 2.00166e-08 60 1.45783 1.95644e-08 0.000325382 0.00369103 7.45142e+07
0.400522 2.75813 0.0102311 3.13836e-08 150 2.80123 3.1874e-08 0.000293206 0.0160554 8.78843e+07
0.423172 1.6107 0.0120669 1.55393e-08 240 1.59994 1.54355e-08 0.000263903 0.0141318 1.03653e+08
0.447103 5.89078 0.014232 4.81855e-08 168 5.91868 4.84138e-08 0.000237253 0.0341204 1.22252e+08
0.472387 6.14405 0.0167857 4.26115e-08 218 6.11105 4.23826e-08 0.000213051 0.0436013 1.44188e+08
0.499101 2.09233 0.0197975 1.23036e-08 288 2.10025 1.23501e-08 0.000191102 0.018542 1.70059e+08
0.527327 2.04814 0.0233498 1.02114e-08 342 2.0574 1.02576e-08 0.000171224 0.0203962 2.00573e+08
0.557148 2.18721 0.0275395 9.24583e-09 396 2.18817 9.24989e-09 0.000153245 0.0238921 2.36562e+08
0.588655 3.04293 0.0324809 1.09062e-08 470 3.05848 1.0962e-08 0.000137005 0.0374141 2.79008e+08
0.621945 4.43481 0.0383089 1.34768e-08 624 4.48086 1.36167e-08 0.000122355 0.0687301 3.29071e+08
0.657117 3.66229 0.0451827 9.43606e-09 642 3.62918 9.35076e-09 0.000109156 0.0554979 3.88116e+08
0.694278 5.39512 0.0532898 1.1786e-08 704 5.39763 1.17915e-08 9.72796e-05 0.0852938 4.57756e+08
0.733541 5.11348 0.0628516 9.47131e-09 990 5.06763 9.38639e-09 8.66058e-05 0.108267 5.39891e+08
0.775024 4.93177 0.0741291 7.74505e-09 1044 4.90383 7.70117e-09 7.70247e-05 0.104977 6.36764e+08
0.818852 4.88582 0.0874301 6.50559e-09 1214 4.8639 6.4764e-09 6.84347e-05 0.115406 7.51019e+08
0.86516 6.60613 0.103118 7.45802e-09 1506 6.54724 7.39154e-09 6.07424e-05 0.184908 8.85775e+08
0.914086 6.28926 0.12162 6.0201e-09 1718 6.27922 6.01049e-09 5.3862e-05 0.192019 1.04471e+09
0.965779 7.30157 0.143443 5.92582e-09 2100 7.31039 5.93298e-09 4.77149e-05 0.260804 1.23216e+09
1.0204 8.30239 0.16918 5.71298e-09 2354 8.31164 5.71935e-09 4.22291e-05 0.318462 1.45325e+09
1.0781 7.95035 0.199537 4.63846e-09 2982 7.94829 4.63726e-09 3.73389e-05 0.370442 1.71401e+09
1.13907 9.98872 0.235339 4.94112e-09 3386 9.95505 4.92446e-09 3.29844e-05 0.507229 2.02155e+09
1.20349 10.5844 0.277566 4.43924e-09 3858 10.5748 4.43521e-09 2.91111e-05 0.588318 2.38428e+09
1.27154 11.8189 0.32737 4.20288e-09 4910 11.8341 4.20828e-09 2.56695e-05 0.803916 2.81209e+09
1.34345 12.4061 0.38611 3.74054e-09 5346 12.39 3.7357e-09 2.26148e-05 0.884241 3.31666e+09
1.41943 14.4274 0.45539 3.6882e-09 6698 14.4562 3.69556e-09 1.99062e-05 1.241 3.91177e+09
1.4997 15.6982 0.537101 3.40256e-09 7736 15.6896 3.40068e-09 1.75069e-05 1.50353 4.61366e+09
1.58451 16.8397 0.633473 3.09468e-09 9362 16.8344 3.0937e-09 1.53838e-05 1.88331 5.4415e+09
1.67412 18.8823 0.747138 2.94215e-09 10770 18.8142 2.93153e-09 1.35069e-05 2.34598 6.41786e+09
1.76879 21.0029 0.881197 2.7747e-09 12584 20.9412 2.76655e-09 1.18493e-05 2.94674 7.56942e+09
1.86882 22.3822 1.03931 2.50708e-09 15146 22.3276 2.50097e-09 1.03867e-05 3.65584 8.92761e+09
1.9745 24.8593 1.22579 2.36092e-09 17744 24.7707 2.3525e-09 9.09749e-06 4.60481 1.05295e+10
2.08616 26.8368 1.44574 2.16099e-09 20570 26.7842 2.15674e-09 7.96208e-06 5.5829 1.24188e+10
2.20414 29.2995 1.70515 2.00036e-09 24872 29.2417 1.99641e-09 6.96304e-06 7.1453 1.46471e+10
2.32879 31.9544 2.0111 1.84972e-09 29132 31.8879 1.84587e-09 6.08479e-06 8.85587 1.72752e+10
2.46049 34.4234 2.37196 1.6895e-09 34136 34.3457 1.68568e-09 5.3134e-06 10.8542 2.03749e+10
2.59963 37.4682 2.79756 1.55917e-09 40372 37.3739 1.55525e-09 4.63644e-06 13.5765 2.40308e+10
2.74664 40.5311 3.29952 1.43004e-09 47702 40.4388 1.42678e-09 4.04286e-06 16.8731 2.83427e+10
2.90197 43.4062 3.89156 1.29849e-09 56012 43.3234 1.29601e-09 3.52282e-06 20.6457 3.34282e+10
3.06608 47.2492 4.58982 1.19842e-09 66322 47.1596 1.19615e-09 3.06758e-06 25.9102 3.94263e+10
3.23947 50.7498 5.41337 1.09138e-09 77876 50.6814 1.08991e-09 2.66939e-06 31.8397 4.65005e+10
3.42267 54.4241 6.38469 9.92341e-10 92650 54.3485 9.90964e-10 2.32136e-06 39.6063 5.48441e+10
3.61623 58.7465 7.5303 9.08196e-10 108250 58.6635 9.06913e-10 2.01741e-06 48.7319 6.46848e+10
3.82073 63.1742 8.88147 8.28066e-10 128258 63.0602 8.26572e-10 1.75215e-06 60.6146 7.62912e+10
4.0368 67.6403 10.4751 7.51725e-10 151594 67.5474 7.50692e-10 1.52084e-06 74.9302 8.99802e+10
4.26509 72.4488 12.3546 6.82672e-10 178516 72.3117 6.8138e-10 1.31927e-06 92.3751 1.06125e+11
4.50629 77.6862 14.5714 6.20658e-10 209896 77.5325 6.1943e-10 1.14374e-06 113.901 1.25167e+11
4.76113 82.4588 17.186 5.58565e-10 248076 82.3389 5.57753e-10 9.90997e-07 139.825 1.47626e+11
5.03038 88.6894 20.2696 5.09373e-10 292420 88.5475 5.08558e-10 8.58167e-07 173.569 1.74115e+11
5.31485 94.0828 23.9066 4.58144e-10 345804 93.9263 4.57382e-10 7.42731e-07 213.305 2.05356e+11
5.61542 100.998 28.1962 4.16997e-10 406714 100.81 4.16221e-10 6.42478e-07 263.976 2.42204e+11
5.93298 108.37 33.2555 3.79363e-10 479520 108.198 3.78762e-10 5.55464e-07 327.496 2.85662e+11
6.2685 115.604 39.2225 3.43121e-10 566472 115.428 3.42598e-10 4.79988e-07 404.944 3.36919e+11
6.62299 123.116 46.2602 3.09824e-10 668454 122.903 3.0929e-10 4.1456e-07 499.574 3.97372e+11
6.99754 131.422 54.5607 2.80414e-10 787572 131.209 2.79959e-10 3.57875e-07 617.104 4.68673e+11
7.39326 140.805 64.3505 2.54728e-10 930080 140.538 2.54244e-10 3.08793e-07 767.237 5.52767e+11
7.81136 151.068 75.8969 2.31717e-10 1.09432e+06 150.795 2.31298e-10 2.66319e-07 952.144 6.5195e+11
8.25311 161.361 89.5151 2.09852e-10 1.29162e+06 161.067 2.0947e-10 2.29582e-07 1180.62 7.68929e+11
8.71983 176.131 105.577 1.94212e-10 1.52605e+06 175.923 1.93983e-10 1.97824e-07 1498.19 9.06898e+11
9.21295 186.016 124.521 1.73908e-10 1.79721e+06 185.648 1.73564e-10 1.70386e-07 1834.36 1.06962e+12
9.73396 200.92 146.863 1.59265e-10 2.12116e+06 200.532 1.58957e-10 1.46692e-07 2302.96 1.26155e+12
10.2844 216.777 173.215 1.45693e-10 2.49914e+06 216.352 1.45407e-10 1.2624e-07 2884.24 1.48791e+12
10.866 234.817 204.295 1.33808e-10 2.94919e+06 234.353 1.33543e-10 1.08596e-07 3633.88 1.75488e+12
11.4805 255.575 240.952 1.23481e-10 3.47939e+06 255.061 1.23232e-10 9.33817e-08 4600.88 2.06976e+12
12.1298 278.753 284.186 1.1419e-10 4.1004e+06 278.18 1.13955e-10 8.02681e-08 5833.26 2.44114e+12
12.8157 307.105 335.177 1.06665e-10 4.84282e+06 306.411 1.06424e-10 6.89705e-08 7489.57 2.87915e+12
13.5405 336.469 395.318 9.9085e-11 5.70611e+06 335.699 9.88583e-11 5.92414e-08 9543.83 3.39576e+12
14.3062 372.429 466.25 9.29897e-11 6.73072e+06 371.575 9.27764e-11 5.08668e-08 12304.4 4.00506e+12
15.1153 415.319 549.91 8.79226e-11 7.93789e+06 414.345 8.77163e-11 4.36611e-08 15984.9 4.72369e+12
15.9701 464.262 648.58 8.33316e-11 9.3654e+06 463.129 8.31283e-11 3.74635e-08 20831.8 5.57126e+12
16.8732 537.252 764.955 8.17621e-11 1.10411e+07 535.271 8.14607e-11 3.21352e-08 28092.2 6.57091e+12
17.8274 590.346 902.211 7.61743e-11 1.30294e+07 588.812 7.59763e-11 2.7556e-08 36017.8 7.74994e+12
18.8356 670.599 1064.1 7.33656e-11 1.53594e+07 668.79 7.31677e-11 2.3622e-08 47703.5 9.14051e+12
19.9008 766.408 1255.03 7.10915e-11 1.81236e+07 764.298 7.08958e-11 2.02435e-08 63646.6 1.07806e+13
21.0262 879.606 1480.22 6.91788e-11 2.13681e+07 877.101 6.89818e-11 1.73432e-08 85233.8 1.2715e+13
22.2152 1012.54 1745.81 6.75189e-11 2.52005e+07 1009.65 6.73262e-11 1.48541e-08 114548 1.49964e+13
23.4716 1170.08 2059.06 6.61543e-11 2.97255e+07 1166.7 6.5963e-11 1.27187e-08 154612 1.76872e+13
24.7989 1357.89 2428.52 6.50927e-11 3.50616e+07 1353.91 6.4902e-11 1.08874e-08 209623 2.08608e+13
26.2013 1584.94 2864.27 6.44181e-11 4.13531e+07 1580.49 6.42374e-11 9.31732e-09 285907 2.46039e+13
27.6831 1842.53 3378.21 6.34949e-11 4.87711e+07 1836.91 6.3301e-11 7.97161e-09 388468 2.90186e+13
29.2486 2157.96 3984.36 6.30514e-11 5.75255e+07 2151.05 6.28496e-11 6.81857e-09 531939 3.42254e+13
30.9026 2523.87 4699.28 6.2524e-11 6.78404e+07 2516.03 6.23296e-11 5.83089e-09 727445 4.03665e+13
32.6502 2963.55 5542.47 6.22472e-11 8.0018e+07 2954.24 6.20516e-11 4.9851e-09 999155 4.76094e+13
34.4967 3494.78 6536.95 6.22379e-11 9.43754e+07 3483.9 6.20441e-11 4.26103e-09 1.37848e+06 5.6152e+13
36.4475 4105.55 7709.88 6.19917e-11 1.11311e+08 4092.44 6.17938e-11 3.64131e-09 1.89501e+06 6.62274e+13
38.5087 4848.74 9093.27 6.20753e-11 1.31285e+08 4833.08 6.18749e-11 3.11104e-09 2.61955e+06 7.81106e+13
40.6864 5730.74 10724.9 6.22054e-11 1.54822e+08 5712.13 6.20035e-11 2.65744e-09 3.62407e+06 9.2126e+13
42.9873 6797.4 12649.2 6.25588e-11 1.82627e+08 6775.15 6.2354e-11 2.26951e-09 5.0341e+06 1.08656e+14
45.4183 8076.76 14918.9 6.30247e-11 2.1538e+08 8049.84 6.28146e-11 1.93782e-09 7.0049e+06 1.28152e+14
47.9868 9636.9 17595.8 6.37586e-11 2.54026e+08 9604.2 6.35422e-11 1.65429e-09 9.79054e+06 1.51147e+14
50.7005 11553.7 20753 6.48111e-11 2.99614e+08 11513.5 6.45857e-11 1.41197e-09 1.37526e+07 1.78267e+14
53.5677 13938.2 24476.7 6.62923e-11 3.53368e+08 13888.3 6.6055e-11 1.20493e-09 1.94415e+07 2.10254e+14
56.5971 16964.9 28868.6 6.84126e-11 4.16783e+08 16901.9 6.81585e-11 1.02806e-09 2.77349e+07 2.47979e+14
59.7977 20903.8 34048.5 7.14721e-11 4.91558e+08 20822.1 7.11929e-11 8.77005e-10 4.00599e+07 2.92474e+14
63.1794 26175.1 40157.8 7.588e-11 5.79769e+08 26066.1 7.5564e-11 7.48017e-10 5.88127e+07 3.44953e+14
66.7523 33553.4 47363.4 8.24716e-11 6.8378e+08 33401.8 8.20989e-11 6.37895e-10 8.84039e+07 4.06848e+14
70.5272 38196.9 55861.8 7.96019e-11 3.00349e+06 41353.5 8.61802e-11 5.43899e-10 439574 4.79849e+14
74.5157 0 65885.1 0 0 0 0 4.63681e-10 0 5.65949e+14
78.7297 0 77706.9 0 0 0 0 3.95235e-10 0 6.67497e+14
83.182 0 91649.8 0 0 0 0 3.36843e-10 0 7.87266e+14
87.8861 0 108095 0 0 0 0 2.87037e-10 0 9.28526e+14
92.8562 0 127490 0 0 0 0 2.44561e-10 0 1.09513e+15
98.1073 0 150366 0 0 0 0 2.08343e-10 0 1.29163e+15
103.655 0 177346 0 0 0 0 1.77465e-10 0 1.52339e+15
109.517 0 209167 0 0 0 0 1.51145e-10 0 1.79673e+15
115.711 0 246698 0 0 0 0 1.28712e-10 0 2.11912e+15
122.254 0 290963 0 0 0 0 1.09595e-10 0 2.49935e+15
0.845274
200
2.30148e+11
8589934592
0.0021528 2.45638e-06 1.58875e-09 1.79991e-07 6 2.39624e-06 1.75584e-07 0.00197275 0.000547431 13.6473
0.00227455 0 1.87382e-09 0 0 0 0 0.00207247 0 16.096
0.00240318 0 2.21004e-09 0 0 0 0 0.00217643 0 18.9841
0.00253908 0 2.60659e-09 0 0 0 0 0.00228471 0 22.3904
0.00268267 0 3.07429e-09 0 0 0 0 0.00239737 0 26.408
0.00283438 0 3.62591e-09 0 0 0 0 0.00251449 0 31.1464
0.00299467 6.98453e-06 4.27651e-09 1.90133e-07 12 6.91919e-06 1.88354e-07 0.00263608 0.000865526 36.735
0.00316402 0 5.04385e-09 0 0 0 0 0.00276218 0 43.3263
0.00334295 0 5.94887e-09 0 0 0 0 0.00289278 0 51.1004
0.003532 7.81345e-06 7.01627e-09 1.29642e-07 8 7.98679e-06 1.32518e-07 0.00302786 0.000342532 60.2693
0.00373174 0 8.27521e-09 0 0 0 0 0.00316735 0 71.0835
0.00394278 0 9.76003e-09 0 0 0 0 0.00331119 0 83.838
0.00416575 6.09011e-05 1.15113e-08 6.15902e-07 6 6.11665e-05 6.18586e-07 0.00345926 0.00106827 98.8811
0.00440133 0 1.35767e-08 0 0 0 0 0.00361139 0 116.623
0.00465023 4.4105e-05 1.60128e-08 3.20649e-07 24 4.43428e-05 3.22378e-07 0.00376739 0.00204268 137.549
0.00491321 0 1.8886e-08 0 0 0 0 0.00392704 0 162.23
0.00519106 9.18157e-05 2.22747e-08 4.7986e-07 24 9.10253e-05 4.75729e-07 0.00409003 0.00281579 191.338
0.00548462 0 2.62715e-08 0 0 0 0 0.00425603 0 225.67
0.00579479 0.00015228 3.09854e-08 5.72133e-07 12 0.000154626 5.80946e-07 0.00442465 0.00155167 266.162
0.00612249 0.000146096 3.65451e-08 4.65394e-07 30 0.000148673 4.73602e-07 0.00459545 0.00303818 313.92
0.00646873 0.000191296 4.31024e-08 5.1667e-07 24 0.000194276 5.24721e-07 0.00476791 0.00260074 370.247
0.00683455 0.000131048 5.08363e-08 3.001e-07 24 0.000132409 3.03216e-07 0.00494148 0.00145754 436.68
0.00722105 0.000299079 5.99579e-08 5.80697e-07 8 0.000299951 5.82392e-07 0.00511552 0.000908135 515.034
0.00762942 0.000419696 7.07161e-08 6.90919e-07 72 0.000423864 6.9778e-07 0.00528933 0.009405 607.447
0.00806087 0 8.34047e-08 0 0 0 0 0.00546217 0 716.441
0.00851673 0.000734969 9.837e-08 8.69794e-07 54 0.000738725 8.74239e-07 0.00563323 0.00833782 844.992
0.00899837 0.000608378 1.16021e-07 6.10448e-07 60 0.000608424 6.10494e-07 0.00580162 0.00631321 996.609
0.00950724 0.000647901 1.36838e-07 5.51203e-07 72 0.000648086 5.5136e-07 0.00596643 0.00665166 1175.43
0.0100449 0.000782201 1.61391e-07 5.64221e-07 48 0.000781992 5.64069e-07 0.00612667 0.00442044 1386.34
0.0106129 0.00147564 1.9035e-07 9.0248e-07 134 0.0014791 9.04597e-07 0.00628133 0.0192527 1635.09
0.0112131 0.00150369 2.24504e-07 7.79728e-07 120 0.00151034 7.83179e-07 0.00642937 0.0145531 1928.48
0.0118472 0.00169803 2.64787e-07 7.46549e-07 60 0.00170437 7.49339e-07 0.0065697 0.00681811 2274.5
0.0125172 0.00219239 3.12298e-07 8.17258e-07 150 0.00218925 8.16088e-07 0.00670125 0.0182934 2682.62
0.0132251 0.00258932 3.68333e-07 8.1838e-07 240 0.00259309 8.19571e-07 0.00682292 0.028787 3163.96
0.013973 0.00255686 4.34423e-07 6.85179e-07 168 0.00255863 6.85653e-07 0.00693364 0.0166017 3731.67
0.0147632 0.00322399 5.12372e-07 7.32518e-07 218 0.00322709 7.33222e-07 0.00703238 0.0227077 4401.24
0.0155981 0.00441476 6.04307e-07 8.50471e-07 288 0.00441196 8.49932e-07 0.00711814 0.0344101 5190.96
0.0164802 0.00473928 7.12738e-07 7.74092e-07 342 0.00473847 7.73959e-07 0.00718999 0.0368206 6122.38
0.0174122 0.00573218 8.40625e-07 7.9383e-07 396 0.00572995 7.93522e-07 0.00724706 0.0433771 7220.91
0.0183969 0.00604754 9.91459e-07 7.10091e-07 470 0.0060464 7.09957e-07 0.0072886 0.0457897 8516.57
0.0194372 0.00774559 1.16936e-06 7.71112e-07 672 0.00774604 7.71158e-07 0.00731397 0.070849 10044.7
0.0205364 0.00882561 1.37917e-06 7.44964e-07 594 0.00882462 7.44881e-07 0.00732263 0.0604303 11847
0.0216978 0.0115607 1.62664e-06 8.27376e-07 704 0.0115585 8.27221e-07 0.0073142 0.0796358 13972.7
0.0229249 0.0115059 1.91851e-06 6.9818e-07 990 0.011504 6.98062e-07 0.00728845 0.0948348 16479.9
0.0242213 0.013381 2.26275e-06 6.88435e-07 1044 0.0133756 6.88154e-07 0.00724528 0.0991992 19436.8
0.025591 0.0166918 2.66875e-06 7.28122e-07 1214 0.0166871 7.27919e-07 0.00718478 0.123029 22924.4
0.0270383 0.017836 3.14761e-06 6.59669e-07 1506 0.0178315 6.59505e-07 0.0071072 0.139782 27037.7
0.0285673 0.0222067 3.71238e-06 6.96373e-07 1718 0.0221961 6.9604e-07 0.00701294 0.170595 31889.1
0.0301829 0.0218754 4.3785e-06 5.81623e-07 2100 0.0218771 5.81666e-07 0.00690256 0.17695 37611
0.0318897 0.0265669 5.16413e-06 5.98899e-07 2354 0.0265678 5.98919e-07 0.00677679 0.208035 44359.6
0.0336932 0.029823 6.09073e-06 5.70022e-07 2982 0.0298251 5.70063e-07 0.00663647 0.256131 52319
0.0355986 0.033678 7.1836e-06 5.45776e-07 3386 0.0336665 5.4559e-07 0.00648261 0.28507 61706.6
0.0376117 0.0360234 8.47255e-06 4.94972e-07 3858 0.0360294 4.95055e-07 0.00631629 0.30233 72778.6
0.0397387 0.0430291 9.99278e-06 5.01287e-07 4910 0.0430331 5.01333e-07 0.00613872 0.40095 85837.3
0.041986 0.0465619 1.17858e-05 4.5992e-07 5346 0.046566 4.5996e-07 0.00595116 0.413152 101239
0.0443604 0.0511517 1.39005e-05 4.2839e-07 6698 0.0511728 4.28567e-07 0.00575493 0.498591 119405
0.0468691 0.0599375 1.63947e-05 4.25604e-07 7736 0.0599372 4.25602e-07 0.00555141 0.593088 140829
0.0495196 0.0648395 1.93364e-05 3.90368e-07 9362 0.064818 3.90239e-07 0.00534196 0.684137 166098
0.05232 0.0731218 2.28059e-05 3.73258e-07 10770 0.0730355 3.72818e-07 0.00512796 0.783935 195901
0.0552788 0.0840026 2.6898e-05 3.63566e-07 12632 0.0839502 3.63339e-07 0.00491076 0.935204 231052
0.0584049 0.0937336 3.17243e-05 3.43964e-07 15098 0.093651 3.43661e-07 0.00469167 1.10689 272510
0.0617078 0.106407 3.74166e-05 3.31065e-07 17744 0.106292 3.30709e-07 0.00447196 1.31361 321406
0.0651975 0.12054 4.41303e-05 3.17984e-07 20570 0.120456 3.17762e-07 0.0042528 1.53803 379076
0.0688845 0.137801 5.20486e-05 3.08215e-07 24872 0.137704 3.07997e-07 0.00403532 1.89971 447094
0.0727801 0.152179 6.13877e-05 2.88592e-07 29132 0.152049 2.88346e-07 0.00382053 2.20055 527316
0.0768959 0.165744 7.24025e-05 2.66499e-07 34136 0.165581 2.66236e-07 0.00360937 2.52044 621933
0.0812445 0.179455 8.53937e-05 2.44646e-07 40372 0.179323 2.44467e-07 0.00340268 2.90267 733526
0.085839 0.195091 0.000100716 2.25501e-07 47702 0.194898 2.25279e-07 0.00320119 3.36027 865143
0.0906933 0.209539 0.000118787 2.05355e-07 56252 0.209396 2.05214e-07 0.00300554 3.84345 1.02038e+06
0.0958222 0.225842 0.000140101 1.8766e-07 66082 0.225675 1.87522e-07 0.00281625 4.40335 1.20346e+06
0.101241 0.243907 0.00016524 1.71838e-07 77876 0.24378 1.71749e-07 0.00263378 5.08094 1.4194e+06
0.106966 0.269133 0.000194889 1.60764e-07 92650 0.268923 1.60639e-07 0.00245848 6.05855 1.67408e+06
0.113016 0.300935 0.000229858 1.52413e-07 108490 0.300659 1.52273e-07 0.0022906 7.21878 1.97446e+06
0.119407 0.330234 0.000271101 1.41808e-07 128882 0.329853 1.41644e-07 0.00213033 8.57918 2.32874e+06
0.126159 0.372094 0.000319745 1.35475e-07 150730 0.371703 1.35333e-07 0.00197778 10.3248 2.74659e+06
0.133294 0.411604 0.000377117 1.27061e-07 178516 0.411285 1.26963e-07 0.00183298 12.3746 3.23941e+06
0.140832 0.444499 0.000444783 1.16341e-07 210280 0.444145 1.16248e-07 0.00169593 14.4253 3.82066e+06
0.148796 0.47795 0.000524591 1.06065e-07 247692 0.4776 1.05987e-07 0.00156653 16.7705 4.5062e+06
0.157211 0.512928 0.000618719 9.65103e-08 292948 0.512559 9.64409e-08 0.00144468 19.5701 5.31475e+06
0.166102 0.55891 0.000729735 8.91634e-08 345852 0.558348 8.90737e-08 0.0013302 23.1825 6.26838e+06
0.175495 0.613189 0.000860672 8.29405e-08 406882 0.612483 8.2845e-08 0.0012229 27.5958 7.39312e+06
0.185419 0.67879 0.0010151 7.78459e-08 480198 0.678011 7.77566e-08 0.00112256 33.3001 8.71966e+06
0.195905 0.744569 0.00119724 7.23991e-08 565530 0.743884 7.23325e-08 0.00102893 39.7927 1.02842e+07
0.206984 0.812774 0.00141206 6.70078e-08 668550 0.812025 6.69461e-08 0.000941736 47.5697 1.21295e+07
0.218689 0.882571 0.00166543 6.16926e-08 787620 0.881712 6.16326e-08 0.000860706 56.454 1.43059e+07
0.231057 0.962152 0.00196426 5.70236e-08 930848 0.961084 5.69603e-08 0.00078555 67.5709 1.68729e+07
0.244123 1.05538 0.00231671 5.30333e-08 1.0948e+06 1.05404 5.29659e-08 0.000715973 81.094 1.99004e+07
0.257929 1.16313 0.0027324 4.95557e-08 1.29177e+06 1.1618 4.94991e-08 0.000651679 98.2298 2.34711e+07
0.272515 1.27317 0.00322267 4.59919e-08 1.52529e+06 1.27174 4.59403e-08 0.000592374 118.423 2.76825e+07
0.287926 1.39852 0.00380091 4.28342e-08 1.79673e+06 1.39697 4.27869e-08 0.000537765 143.114 3.26496e+07
0.304209 1.53784 0.00448291 3.99358e-08 2.12289e+06 1.53597 3.9887e-08 0.000487565 173.883 3.85079e+07
0.321413 1.69039 0.00528728 3.7219e-08 2.50053e+06 1.68828 3.71724e-08 0.000441493 210.801 4.54174e+07
0.339589 1.86361 0.00623598 3.47904e-08 2.94969e+06 1.86123 3.4746e-08 0.000399279 257.016 5.35667e+07
0.358793 2.05411 0.00735491 3.25129e-08 3.47889e+06 2.05145 3.24708e-08 0.000360659 313.617 6.31782e+07
0.379084 2.26554 0.0086746 3.04041e-08 4.10369e+06 2.2626 3.03647e-08 0.000325382 383.454 7.45142e+07
0.400522 2.50764 0.0102311 2.85334e-08 4.84176e+06 2.5042 2.84943e-08 0.000293206 471.176 8.78843e+07
0.423172 2.77681 0.0120669 2.67894e-08 5.70705e+06 2.7728 2.67507e-08 0.000263903 579.336 1.03653e+08
0.447103 3.07673 0.014232 2.51671e-08 6.73675e+06 3.07227 2.51306e-08 0.000237253 714.614 1.22252e+08
0.472387 3.41731 0.0167857 2.37004e-08 7.9377e+06 3.41219 2.36649e-08 0.000213051 883.013 1.44188e+08
0.499101 3.79106 0.0197975 2.22926e-08 9.36285e+06 3.78551 2.22599e-08 0.000191102 1092.2 1.70059e+08
0.527327 4.21515 0.0233498 2.10155e-08 1.10478e+07 4.20877 2.09837e-08 0.000171224 1355.98 2.00573e+08
0.557148 4.69395 0.0275395 1.98424e-08 1.30307e+07 4.68666 1.98115e-08 0.000153245 1687.23 2.36562e+08
0.588655 5.22729 0.0324809 1.87353e-08 1.53619e+07 5.21909 1.87058e-08 0.000137005 2100.71 2.79008e+08
0.621945 5.83044 0.0383089 1.77179e-08 1.81296e+07 5.82095 1.7689e-08 0.000122355 2625.29 3.29071e+08
0.657117 6.50399 0.0451827 1.67578e-08 2.13731e+07 6.49315 1.67299e-08 0.000109156 3281.22 3.88116e+08
0.694278 7.25726 0.0532898 1.5854e-08 2.52109e+07 7.2451 1.58274e-08 9.72796e-05 4108.71 4.57756e+08
0.733541 8.11027 0.0628516 1.5022e-08 2.9726e+07 8.09652 1.49966e-08 8.66058e-05 5156.07 5.39891e+08
0.775024 9.06006 0.0741291 1.42283e-08 3.50739e+07 9.04461 1.4204e-08 7.70247e-05 6478.98 6.36764e+08
0.818852 10.1214 0.0874301 1.34769e-08 4.13576e+07 10.1041 1.34538e-08 6.84347e-05 8144.6 7.51019e+08
0.86516 11.3057 0.103118 1.27636e-08 4.87837e+07 11.286 1.27414e-08 6.07424e-05 10250.8 8.85775e+08
0.914086 12.6249 0.12162 1.20846e-08 5.75372e+07 12.6027 1.20633e-08 5.3862e-05 12909.2 1.04471e+09
0.965779 14.0907 0.143443 1.14357e-08 6.78547e+07 14.0658 1.14155e-08 4.77149e-05 16262.6 1.23216e+09
1.0204 15.7238 0.16918 1.08197e-08 8.00386e+07 15.6959 1.08006e-08 4.22291e-05 20507.1 1.45325e+09
1.0781 17.5288 0.199537 1.02268e-08 9.43992e+07 17.4974 1.02085e-08 3.73389e-05 25855.1 1.71401e+09
1.13907 19.5292 0.235339 9.66051e-09 1.11325e+08 19.4941 9.64315e-09 3.29844e-05 32605 2.02155e+09
1.20349 21.7305 0.277566 9.11408e-09 1.31307e+08 21.6913 9.09765e-09 2.91111e-05 41109.6 2.38428e+09
1.27154 24.1665 0.32737 8.59379e-09 1.54867e+08 24.1228 8.57824e-09 2.56695e-05 51847.2 2.81209e+09
1.34345 26.8357 0.38611 8.09116e-09 1.82662e+08 26.7871 8.07651e-09 2.26148e-05 65353.1 3.31666e+09
1.41943 29.7861 0.45539 7.61446e-09 2.15434e+08 29.7317 7.60057e-09 1.99062e-05 82407.5 3.91177e+09
1.4997 33.0632 0.537101 7.16637e-09 2.54082e+08 33.0021 7.15312e-09 1.75069e-05 104007 4.61366e+09
1.58451 36.729 0.633473 6.7498e-09 2.99691e+08 36.6602 6.73715e-09 1.53838e-05 131492 5.4415e+09
1.67412 40.8751 0.747138 6.36895e-09 3.53444e+08 40.7966 6.35672e-09 1.35069e-05 166661 6.41786e+09
1.76879 45.7205 0.881197 6.04016e-09 4.16883e+08 45.6286 6.02801e-09 1.18493e-05 212506 7.56942e+09
1.86882 51.6012 1.03931 5.77996e-09 4.91657e+08 51.4899 5.76749e-09 1.03867e-05 273595 8.92761e+09
1.9745 59.1831 1.22579 5.6207e-09 5.79899e+08 59.0408 5.60718e-09 9.09749e-06 358278 1.05295e+10
2.08616 69.8033 1.44574 5.62078e-09 6.83936e+08 69.6074 5.605e-09 7.96208e-06 482821 1.24188e+10
2.20414 77.6257 1.70515 5.29973e-09 1.99573e+06 83.0006 5.66669e-09 6.96304e-06 1519 1.46471e+10
2.32879 0 2.0111 0 0 0 0 6.08479e-06 0 1.72752e+10
2.46049 0 2.37196 0 0 0 0 5.3134e-06 0 2.03749e+10
2.59963 0 2.79756 0 0 0 0 4.63644e-06 0 2.40308e+10
2.74664 0 3.29952 0 0 0 0 4.04286e-06 0 2.83427e+10
2.90197 0 3.89156 0 0 0 0 3.52282e-06 0 3.34282e+10
3.06608 0 4.58982 0 0 0 0 3.06758e-06 0 3.94263e+10
3.23947 0 5.41337 0 0 0 0 2.66939e-06 0 4.65005e+10
3.42267 0 6.38469 0 0 0 0 2.32136e-06 0 5.48441e+10
3.61623 0 7.5303 0 0 0 0 2.01741e-06 0 6.46848e+10
3.82073 0 8.88147 0 0 0 0 1.75215e-06 0 7.62912e+10
4.0368 0 10.4751 0 0 0 0 1.52084e-06 0 8.99802e+10
4.26509 0 12.3546 0 0 0 0 1.31927e-06 0 1.06125e+11
4.50629 0 14.5714 0 0 0 0 1.14374e-06 0 1.25167e+11
4.76113 0 17.186 0 0 0 0 9.90997e-07 0 1.47626e+11
5.03038 0 20.2696 0 0 0 0 8.58167e-07 0 1.74115e+11
5.31485 0 23.9066 0 0 0 0 7.42731e-07 0 2.05356e+11
5.61542 0 28.1962 0 0 0 0 6.42478e-07 0 2.42204e+11
5.93298 0 33.2555 0 0 0 0 5.55464e-07 0 2.85662e+11
6.2685 0 39.2225 0 0 0 0 4.79988e-07 0 3.36919e+11
6.62299 0 46.2602 0 0 0 0 4.1456e-07 0 3.97372e+11
6.99754 0 54.5607 0 0 0 0 3.57875e-07 0 4.68673e+11
7.39326 0 64.3505 0 0 0 0 3.08793e-07 0 5.52767e+11
7.81136 0 75.8969 0 0 0 0 2.66319e-07 0 6.5195e+11
8.25311 0 89.5151 0 0 0 0 2.29582e-07 0 7.68929e+11
8.71983 0 105.577 0 0 0 0 1.97824e-07 0 9.06898e+11
9.21295 0 124.521 0 0 0 0 1.70386e-07 0 1.06962e+12
9.73396 0 146.863 0 0 0 0 1.46692e-07 0 1.26155e+12
10.2844 0 173.215 0 0 0 0 1.2624e-07 0 1.48791e+12
10.866 0 204.295 0 0 0 0 1.08596e-07 0 1.75488e+12
11.4805 0 240.952 0 0 0 0 9.33817e-08 0 2.06976e+12
12.1298 0 284.186 0 0 0 0 8.02681e-08 0 2.44114e+12
12.8157 0 335.177 0 0 0 0 6.89705e-08 0 2.87915e+12
13.5405 0 395.318 0 0 0 0 5.92414e-08 0 3.39576e+12
14.3062 0 466.25 0 0 0 0 5.08668e-08 0 4.00506e+12
15.1153 0 549.91 0 0 0 0 4.36611e-08 0 4.72369e+12
15.9701 0 648.58 0 0 0 0 3.74635e-08 0 5.57126e+12
16.8732 0 764.955 0 0 0 0 3.21352e-08 0 6.57091e+12
17.8274 0 902.211 0 0 0 0 2.7556e-08 0 7.74994e+12
18.8356 0 1064.1 0 0 0 0 2.3622e-08 0 9.14051e+12
19.9008 0 1255.03 0 0 0 0 2.02435e-08 0 1.07806e+13
21.0262 0 1480.22 0 0 0 0 1.73432e-08 0 1.2715e+13
22.2152 0 1745.81 0 0 0 0 1.48541e-08 0 1.49964e+13
23.4716 0 2059.06 0 0 0 0 1.27187e-08 0 1.76872e+13
24.7989 0 2428.52 0 0 0 0 1.08874e-08 0 2.08608e+13
26.2013 0 2864.27 0 0 0 0 9.31732e-09 0 2.46039e+13
27.6831 0 3378.21 0 0 0 0 7.97161e-09 0 2.90186e+13
29.2486 0 3984.36 0 0 0 0 6.81857e-09 0 3.42254e+13
30.9026 0 4699.28 0 0 0 0 5.83089e-09 0 4.03665e+13
32.6502 0 5542.47 0 0 0 0 4.9851e-09 0 4.76094e+13
34.4967 0 6536.95 0 0 0 0 4.26103e-09 0 5.6152e+13
36.4475 0 7709.88 0 0 0 0 3.64131e-09 0 6.62274e+13
38.5087 0 9093.27 0 0 0 0 3.11104e-09 0 7.81106e+13
40.6864 0 10724.9 0 0 0 0 2.65744e-09 0 9.2126e+13
42.9873 0 12649.2 0 0 0 0 2.26951e-09 0 1.08656e+14
45.4183 0 14918.9 0 0 0 0 1.93782e-09 0 1.28152e+14
47.9868 0 17595.8 0 0 0 0 1.65429e-09 0 1.51147e+14
50.7005 0 20753 0 0 0 0 1.41197e-09 0 1.78267e+14
53.5677 0 24476.7 0 0 0 0 1.20493e-09 0 2.10254e+14
56.5971 0 28868.6 0 0 0 0 1.02806e-09 0 2.47979e+14
59.7977 0 34048.5 0 0 0 0 8.77005e-10 0 2.92474e+14
63.1794 0 40157.8 0 0 0 0 7.48017e-10 0 3.44953e+14
66.7523 0 47363.4 0 0 0 0 6.37895e-10 0 4.06848e+14
70.5272 0 55861.8 0 0 0 0 5.43899e-10 0 4.79849e+14
74.5157 0 65885.1 0 0 0 0 4.63681e-10 0 5.65949e+14
78.7297 0 77706.9 0 0 0 0 3.95235e-10 0 6.67497e+14
83.182 0 91649.8 0 0 0 0 3.36843e-10 0 7.87266e+14
87.8861 0 108095 0 0 0 0 2.87037e-10 0 9.28526e+14
92.8562 0 127490 0 0 0 0 2.44561e-10 0 1.09513e+15
98.1073 0 150366 0 0 0 0 2.08343e-10 0 1.29163e+15
103.655 0 177346 0 0 0 0 1.77465e-10 0 1.52339e+15
109.517 0 209167 0 0 0 0 1.51145e-10 0 1.79673e+15
115.711 0 246698 0 0 0 0 1.28712e-10 0 2.11912e+15
122.254 0 290963 0 0 0 0 1.09595e-10 0 2.49935e+15
