0.204077
200
1.0655e+09
8589934592
0.0129181 0 1.58924e-09 0 0 0 0 0.00677225 0 13.6515
0.0136515 0 1.87554e-09 0 0 0 0 0.00688819 0 16.1108
0.0144264 0 2.21343e-09 0 0 0 0 0.00699249 0 19.0132
0.0152454 0 2.61218e-09 0 0 0 0 0.00708412 0 22.4385
0.0161108 0 3.08278e-09 0 0 0 0 0.00716212 0 26.4808
0.0170254 0 3.63815e-09 0 0 0 0 0.00722559 0 31.2514
0.0179919 0 4.29357e-09 0 0 0 0 0.00727371 0 36.8815
0.0190132 0 5.06707e-09 0 0 0 0 0.00730578 0 43.5258
0.0200925 0 5.97991e-09 0 0 0 0 0.00732122 0 51.367
0.0212331 0 7.05721e-09 0 0 0 0 0.00731958 0 60.621
0.0224385 0 8.32858e-09 0 0 0 0 0.00730056 0 71.542
0.0237123 0 9.829e-09 0 0 0 0 0.00726401 0 84.4305
0.0250583 0 1.15997e-08 0 0 0 0 0.00720995 0 99.6408
0.0264808 0 1.36894e-08 0 0 0 0 0.00713857 0 117.591
0.0279841 0 1.61556e-08 0 0 0 0 0.00705021 0 138.776
0.0295727 0 1.90661e-08 0 0 0 0 0.00694538 0 163.777
0.0312514 0 2.25009e-08 0 0 0 0 0.00682475 0 193.281
0.0330255 0 2.65545e-08 0 0 0 0 0.00668915 0 228.102
0.0349003 0 3.13384e-08 0 0 0 0 0.00653951 0 269.195
0.0368815 0 3.69841e-08 0 0 0 0 0.00637693 0 317.691
0.0389751 0 4.36469e-08 0 0 0 0 0.00620256 0 374.924
0.0411876 0 5.151e-08 0 0 0 0 0.00601767 0 442.467
0.0435258 0 6.07896e-08 0 0 0 0 0.00582358 0 522.179
0.0459966 0 7.1741e-08 0 0 0 0 0.00562166 0 616.251
0.0486077 0 8.46654e-08 0 0 0 0 0.0054133 0 727.27
0.051367 0 9.99181e-08 0 0 0 0 0.00519989 0 858.29
0.054283 0 1.17919e-07 0 0 0 0 0.0049828 0 1012.91
0.0573645 0 1.39162e-07 0 0 0 0 0.00476339 0 1195.39
0.060621 0 1.64232e-07 0 0 0 0 0.00454293 0 1410.75
0.0640622 0 1.93819e-07 0 0 0 0 0.00432265 0 1664.89
0.0676989 0 2.28736e-07 0 0 0 0 0.00410371 0 1964.83
0.071542 0 2.69944e-07 0 0 0 0 0.00388717 0 2318.8
0.0756032 0 3.18575e-07 0 0 0 0 0.00367401 0 2736.54
0.079895 0 3.75967e-07 0 0 0 0 0.0034651 0 3229.53
0.0844305 0 4.43698e-07 0 0 0 0 0.00326121 0 3811.34
0.0892234 0 5.23632e-07 0 0 0 0 0.00306301 0 4497.96
0.0942883 0 6.17966e-07 0 0 0 0 0.00287109 0 5308.28
0.0996408 0 7.29294e-07 0 0 0 0 0.00268591 0 6264.59
0.105297 0 8.60678e-07 0 0 0 0 0.00250785 0 7393.17
0.111275 0 1.01573e-06 0 0 0 0 0.00233721 0 8725.07
0.117591 0 1.19872e-06 0 0 0 0 0.00217419 0 10296.9
0.124267 0 1.41467e-06 0 0 0 0 0.00201893 0 12151.9
0.131321 0 1.66953e-06 0 0 0 0 0.00187147 0 14341.1
0.138776 0 1.9703e-06 0 0 0 0 0.00173182 0 16924.7
0.146654 0 2.32525e-06 0 0 0 0 0.00159991 0 19973.8
0.154979 0 2.74415e-06 0 0 0 0 0.00147563 0 23572.1
0.163777 0 3.23852e-06 0 0 0 0 0.00135884 0 27818.7
0.173074 0 3.82195e-06 0 0 0 0 0.00124933 0 32830.3
0.182899 0 4.51048e-06 0 0 0 0 0.00114689 0 38744.7
0.193281 0 5.32305e-06 0 0 0 0 0.00105127 0 45724.7
0.204254 0 6.28202e-06 0 0 0 0 0.000962209 0 53962.1
0.215848 0 7.41374e-06 0 0 0 0 0.000879423 0 63683.5
0.228102 0 8.74934e-06 0 0 0 0 0.000802624 0 75156.3
0.24105 0 1.03256e-05 0 0 0 0 0.000731515 0 88695.9
0.254734 0 1.21857e-05 0 0 0 0 0.000665798 0 104675
0.269195 0 1.4381e-05 0 0 0 0 0.000605173 0 123532
0.284476 0 1.69718e-05 0 0 0 0 0.000549345 0 145787
0.300625 0 2.00293e-05 0 0 0 0 0.000498021 0 172051
0.317691 0 2.36377e-05 0 0 0 0 0.000450916 0 203046
0.335725 0 2.78961e-05 0 0 0 0 0.000407755 0 239625
0.354784 0 3.29216e-05 0 0 0 0 0.000368269 0 282795
0.374924 0 3.88525e-05 0 0 0 0 0.000332202 0 333741
0.396207 0.544395 4.58519e-05 1.38219e-06 6 0.529259 1.34376e-06 0.000299307 0.0277077 393865
0.418699 0 5.41123e-05 0 0 0 0 0.00026935 0 464821
0.442467 0 6.38607e-05 0 0 0 0 0.000242108 0 548560
0.467585 0 7.53654e-05 0 0 0 0 0.00021737 0 647384
0.494129 0 8.89427e-05 0 0 0 0 0.000194938 0 764012
0.522179 0 0.000104966 0 0 0 0 0.000174625 0 901651
0.551822 0 0.000123876 0 0 0 0 0.000156255 0 1.06409e+06
0.583147 6.66076 0.000146192 5.30407e-06 12 7.01049 5.58256e-06 0.000139664 0.455728 1.25578e+06
0.616251 0 0.000172529 0 0 0 0 0.0001247 0 1.48202e+06
0.651234 0 0.000203611 0 0 0 0 0.00011122 0 1.74901e+06
0.688203 27.1221 0.000240292 1.31399e-05 8 26.4473 1.2813e-05 9.90935e-05 1.06081 2.06409e+06
0.72727 0 0.000283581 0 0 0 0 8.81969e-05 0 2.43595e+06
0.768555 0 0.000334669 0 0 0 0 7.84179e-05 0 2.87479e+06
0.812184 0.276141 0.000394961 8.13929e-08 6 0.282045 8.31331e-08 6.96525e-05 0.00701134 3.39269e+06
0.85829 0 0.000466114 0 0 0 0 6.1805e-05 0 4.00389e+06
0.907013 0.374191 0.000550086 7.91905e-08 24 0.381371 8.071e-08 5.47875e-05 0.0346899 4.7252e+06
0.958501 1.11212 0.000649185 1.9943e-07 24 1.04697 1.87749e-07 4.85194e-05 0.0986477 5.57646e+06
1.01291 0 0.000766138 0 0 0 0 4.29272e-05 0 6.58107e+06
1.07041 0 0.00090416 0 0 0 0 3.79435e-05 0 7.76667e+06
1.13118 1.50467 0.00106705 1.6416e-07 12 1.48618 1.62143e-07 3.3507e-05 0.0587912 9.16586e+06
1.19539 1.11778 0.00125928 1.03335e-07 30 1.09474 1.01204e-07 2.9562e-05 0.104866 1.08171e+07
1.26325 8.38412 0.00148614 6.56762e-07 24 8.25796 6.46879e-07 2.60578e-05 0.604897 1.27658e+07
1.33496 20.2814 0.00175387 1.3462e-06 24 20.326 1.34916e-06 2.29484e-05 1.40789 1.50656e+07
1.41075 6.69296 0.00206984 3.76437e-07 32 6.86335 3.8602e-07 2.01923e-05 0.596563 1.77798e+07
1.49083 0.849668 0.00244272 4.04935e-08 48 0.831554 3.96302e-08 1.77518e-05 0.109493 2.09828e+07
1.57546 0.143738 0.00288279 5.80454e-09 6 0.13687 5.52723e-09 1.55929e-05 0.00223354 2.4763e+07
1.66489 0.846383 0.00340213 2.89618e-08 84 0.82054 2.80775e-08 1.3685e-05 0.177771 2.92241e+07
1.75941 2.86351 0.00401503 8.3027e-08 48 2.87372 8.3323e-08 1.20007e-05 0.332089 3.44889e+07
1.85928 0.514974 0.00473835 1.26523e-08 72 0.516597 1.26921e-08 1.05151e-05 0.0866338 4.07021e+07
1.96483 1.05535 0.00559198 2.19705e-08 54 1.03141 2.14721e-08 9.20606e-06 0.128872 4.80347e+07
2.07637 10.3195 0.00659939 1.8204e-07 104 10.3174 1.82003e-07 8.05366e-06 2.35076 5.66883e+07
2.19424 0.741236 0.00778828 1.10796e-08 120 0.750318 1.12154e-08 7.04008e-06 0.188855 6.69008e+07
2.3188 2.5103 0.00919136 3.17948e-08 156 2.40765 3.04946e-08 6.1494e-06 0.806582 7.89532e+07
2.45043 1.31761 0.0108472 1.41409e-08 126 1.30048 1.39572e-08 5.36741e-06 0.331959 9.31768e+07
2.58954 1.37878 0.0128014 1.25386e-08 192 1.39183 1.26573e-08 4.68145e-06 0.514246 1.09963e+08
2.73654 5.23839 0.0151076 4.03658e-08 152 5.42242 4.17839e-08 4.08023e-06 1.50374 1.29773e+08
2.89188 4.58347 0.0178292 2.99276e-08 378 4.68211 3.05717e-08 3.55373e-06 3.18331 1.53152e+08
3.05605 2.11379 0.0210412 1.1695e-08 264 2.08317 1.15256e-08 3.09304e-06 0.998205 1.80743e+08
3.22953 0.848036 0.0248319 3.97572e-09 366 0.84224 3.94855e-09 2.69025e-06 0.540883 2.13304e+08
3.41286 1.38504 0.0293054 5.50205e-09 428 1.34449 5.34098e-09 2.33837e-06 1.00706 2.51731e+08
3.6066 4.32098 0.0345848 1.45448e-08 486 4.19866 1.4133e-08 2.0312e-06 3.48008 2.97081e+08
3.81134 1.62855 0.0408154 4.64502e-09 600 1.62695 4.64045e-09 1.76327e-06 1.5806 3.50601e+08
4.0277 1.62513 0.0481684 3.92768e-09 738 1.59682 3.85927e-09 1.52972e-06 1.89487 4.13763e+08
4.25634 2.03169 0.056846 4.16072e-09 824 2.06833 4.23574e-09 1.32631e-06 2.58495 4.88304e+08
4.49796 4.08259 0.067087 7.08448e-09 954 4.10021 7.11505e-09 1.14926e-06 5.88084 5.76273e+08
4.7533 1.74845 0.0791729 2.57091e-09 1094 1.73444 2.55031e-09 9.95263e-07 2.82596 6.8009e+08
5.02313 1.76108 0.0934361 2.1942e-09 1332 1.76847 2.2034e-09 8.61414e-07 3.39288 8.0261e+08
5.30828 3.71561 0.110269 3.92272e-09 1614 3.74234 3.95094e-09 7.45152e-07 8.49661 9.47202e+08
5.60962 2.72743 0.130134 2.4399e-09 1850 2.68793 2.40456e-09 6.44232e-07 7.00651 1.11784e+09
5.92807 3.2265 0.153578 2.44576e-09 2238 3.16278 2.39745e-09 5.56685e-07 9.83249 1.31923e+09
6.26459 2.50942 0.181246 1.61182e-09 2546 2.52419 1.62131e-09 4.80786e-07 8.53536 1.55689e+09
6.62021 2.11609 0.213898 1.1517e-09 3264 2.11656 1.15195e-09 4.15026e-07 9.05761 1.83737e+09
6.99602 3.78831 0.252432 1.74708e-09 3506 3.84077 1.77127e-09 3.58083e-07 17.1057 2.16837e+09
7.39317 3.16841 0.297908 1.23814e-09 4506 3.17775 1.24179e-09 3.08803e-07 18.0667 2.55901e+09
7.81286 4.04736 0.351577 1.34017e-09 5018 4.07613 1.3497e-09 2.66181e-07 25.2648 3.02002e+09
8.25637 4.10351 0.414914 1.15135e-09 5852 4.06346 1.14011e-09 2.29336e-07 29.3792 3.56409e+09
8.72507 4.09159 0.489662 9.72759e-10 7362 4.0763 9.69124e-10 1.97503e-07 36.26 4.20617e+09
9.22037 4.56739 0.577876 9.20118e-10 8306 4.54253 9.15109e-10 1.70014e-07 44.9521 4.96392e+09
9.74378 4.29617 0.681982 7.33362e-10 9698 4.29256 7.32746e-10 1.46289e-07 48.6171 5.85818e+09
10.2969 5.29835 0.804843 7.66372e-10 11816 5.30791 7.67755e-10 1.25822e-07 71.9701 6.91355e+09
10.8814 5.45834 0.949838 6.68992e-10 13682 5.4492 6.67872e-10 1.08175e-07 84.6139 8.15905e+09
11.4992 5.91253 1.12095 6.14039e-10 16152 5.8947 6.12187e-10 9.29669e-08 106.683 9.62892e+09
12.1519 6.53718 1.3229 5.75274e-10 19472 6.50382 5.72338e-10 7.98658e-08 140.257 1.13636e+10
12.8418 6.36135 1.56122 4.74346e-10 22670 6.34962 4.73472e-10 6.85852e-08 156.789 1.34108e+10
13.5708 7.46176 1.84248 4.71465e-10 26224 7.46698 4.71794e-10 5.88765e-08 209.994 1.58268e+10
14.3411 7.987 2.17441 4.27615e-10 31640 7.98464 4.27489e-10 5.05241e-08 267.788 1.8678e+10
15.1552 8.69378 2.56613 3.94403e-10 37484 8.68724 3.94106e-10 4.33417e-08 341.099 2.20429e+10
16.0156 9.33483 3.02843 3.58839e-10 43856 9.32063 3.58293e-10 3.71677e-08 423.411 2.6014e+10
16.9247 10.4706 3.574 3.41056e-10 51362 10.4564 3.40595e-10 3.18628e-08 549.773 3.07005e+10
17.8855 11.1741 4.21787 3.0841e-10 61636 11.1452 3.07612e-10 2.73063e-08 696.146 3.62312e+10
18.9008 12.1971 4.97773 2.85256e-10 72218 12.1677 2.84568e-10 2.33941e-08 880.589 4.27584e+10
19.9738 13.3557 5.87448 2.64672e-10 84586 13.3247 2.64056e-10 2.00364e-08 1117.34 5.04614e+10
21.1076 14.538 6.93279 2.44123e-10 100708 14.5054 2.43575e-10 1.71555e-08 1433.07 5.95522e+10
22.3058 15.8639 8.18175 2.25722e-10 118712 15.8288 2.25223e-10 1.46847e-08 1824.75 7.02807e+10
23.5721 17.2085 9.65571 2.07476e-10 140410 17.1681 2.06989e-10 1.25662e-08 2318.27 8.29419e+10
24.9102 18.7776 11.3952 1.91835e-10 164374 18.7358 1.91408e-10 1.07504e-08 2933.17 9.78842e+10
26.3243 20.4419 13.4481 1.76958e-10 194680 20.3989 1.76586e-10 9.19452e-09 3746.81 1.15518e+11
27.8187 22.2887 15.8708 1.63492e-10 230196 22.2416 1.63146e-10 7.86182e-09 4787.08 1.36329e+11
29.3979 24.3873 18.73 1.51578e-10 271156 24.336 1.51259e-10 6.72061e-09 6115.72 1.60889e+11
31.0667 26.6286 22.1042 1.40243e-10 321076 26.5653 1.3991e-10 5.74366e-09 7839.74 1.89874e+11
32.8303 29.1909 26.0864 1.3027e-10 377436 29.1256 1.29978e-10 4.90756e-09 10018.9 2.2408e+11
34.694 32.0929 30.7859 1.21358e-10 447594 32.0158 1.21066e-10 4.19221e-09 12957.1 2.64449e+11
36.6634 35.4676 36.3321 1.13645e-10 525078 35.3804 1.13366e-10 3.58032e-09 16666.8 3.1209e+11
38.7447 39.4001 42.8774 1.06974e-10 621924 39.3019 1.06708e-10 3.05709e-09 21762.5 3.68314e+11
40.9442 43.7924 50.6018 1.00749e-10 732630 43.682 1.00496e-10 2.60976e-09 28283.1 4.34667e+11
43.2685 48.7984 59.7179 9.51287e-11 865596 48.6788 9.48955e-11 2.22743e-09 36967.7 5.12973e+11
45.7247 54.8158 70.4762 9.05468e-11 1.02168e+06 54.6706 9.0307e-11 1.90073e-09 48670.4 6.05386e+11
48.3204 61.5731 83.1727 8.61827e-11 1.20544e+06 61.4064 8.59494e-11 1.62163e-09 64063.7 7.14448e+11
51.0634 69.3792 98.1565 8.2285e-11 1.42103e+06 69.1934 8.20645e-11 1.38326e-09 84532 8.43158e+11
53.9621 78.6582 115.84 7.90491e-11 1.67997e+06 78.4412 7.8831e-11 1.1797e-09 112571 9.95055e+11
57.0254 89.4442 136.709 7.6167e-11 1.98018e+06 89.1872 7.59481e-11 1.00592e-09 149937 1.17432e+12
60.2626 102.195 161.337 7.37407e-11 2.33957e+06 101.894 7.35231e-11 8.57591e-10 201170 1.38587e+12
63.6835 116.977 190.402 7.1522e-11 2.75676e+06 116.644 7.13183e-11 7.3101e-10 269722 1.63554e+12
67.2987 134.638 224.704 6.97539e-11 3.25638e+06 134.245 6.95503e-11 6.23009e-10 364594 1.93019e+12
71.1191 155.067 265.185 6.80738e-11 3.84387e+06 154.593 6.78658e-11 5.30879e-10 492894 2.27792e+12
75.1563 187.694 312.958 6.9819e-11 4.53277e+06 186.537 6.93886e-11 4.52303e-10 699692 2.68829e+12
79.4227 208.45 369.339 6.57032e-11 5.35083e+06 207.824 6.55059e-11 3.85299e-10 912450 3.17259e+12
83.9313 242.239 435.876 6.4698e-11 6.32174e+06 241.484 6.44963e-11 3.28173e-10 1.24631e+06 3.74415e+12
88.6959 282.419 514.4 6.3915e-11 7.44986e+06 281.531 6.3714e-11 2.79476e-10 1.70375e+06 4.41866e+12
93.7309 329.851 607.071 6.32541e-11 8.79764e+06 328.802 6.3053e-11 2.37972e-10 2.33845e+06 5.2147e+12
99.0518 386.286 716.436 6.27684e-11 1.03827e+07 385.052 6.25679e-11 2.02605e-10 3.21663e+06 6.15414e+12
104.675 457.851 845.504 6.30403e-11 1.22515e+07 456.643 6.2874e-11 1.72471e-10 4.47809e+06 7.26283e+12
110.617 531.283 997.824 6.19844e-11 1.44573e+07 529.585 6.17863e-11 1.468e-10 6.10441e+06 8.57124e+12
116.896 624.384 1177.58 6.17262e-11 1.70664e+07 622.362 6.15263e-11 1.24935e-10 8.43195e+06 1.01154e+13
123.532 733.628 1389.73 6.14548e-11 2.0139e+07 731.237 6.12545e-11 1.06313e-10 1.16414e+07 1.19377e+13
130.545 863.892 1640.09 6.13198e-11 2.37643e+07 861.059 6.11188e-11 9.04567e-11 1.61096e+07 1.40883e+13
137.955 1017 1935.56 6.11681e-11 2.80503e+07 1013.67 6.09679e-11 7.69563e-11 2.22956e+07 1.66263e+13
145.787 1197.69 2284.26 6.10392e-11 3.30981e+07 1193.72 6.0837e-11 6.54636e-11 3.08612e+07 1.96216e+13
154.063 1412.08 2695.77 6.09798e-11 3.90634e+07 1407.41 6.07782e-11 5.56812e-11 4.27807e+07 2.31565e+13
162.808 1663.58 3181.42 6.08741e-11 4.61057e+07 1658.04 6.06715e-11 4.73556e-11 5.92674e+07 2.73282e+13
172.051 1962.55 3754.56 6.08515e-11 5.44046e+07 1956.02 6.0649e-11 4.02708e-11 8.22084e+07 3.22515e+13
181.818 2320.13 4430.96 6.09573e-11 6.42064e+07 2312.42 6.07546e-11 3.42426e-11 1.14298e+08 3.80616e+13
192.139 2738.47 5229.21 6.09651e-11 7.57748e+07 2729.26 6.07601e-11 2.91139e-11 1.58674e+08 4.49186e+13
203.046 3237.06 6171.26 6.10643e-11 8.94213e+07 3226.15 6.08584e-11 2.4751e-11 2.20615e+08 5.30108e+13
214.572 3830.41 7283.03 6.1227e-11 1.05538e+08 3817.52 6.10209e-11 2.10401e-11 3.07119e+08 6.25608e+13
226.753 4535.44 8595.09 6.14298e-11 1.24552e+08 4520.06 6.12215e-11 1.78839e-11 4.27825e+08 7.38313e+13
239.625 5378.04 10143.5 6.17228e-11 1.46987e+08 5359.67 6.1512e-11 1.51999e-11 5.96876e+08 8.71322e+13
253.228 6388.52 11970.9 6.21274e-11 1.7347e+08 6366.53 6.19136e-11 1.29176e-11 8.34305e+08 1.02829e+14
267.603 7606.11 14127.5 6.26769e-11 2.04703e+08 7579.67 6.2459e-11 1.09771e-11 1.16881e+09 1.21354e+14
282.795 9081.95 16672.6 6.34141e-11 2.4161e+08 9050 6.3191e-11 9.3274e-12 1.64263e+09 1.43217e+14
298.848 10885.2 19676.2 6.44029e-11 2.85122e+08 10846.2 6.41721e-11 7.925e-12 2.31706e+09 1.69017e+14
315.813 13122 23220.9 6.57857e-11 3.36491e+08 13073.8 6.55441e-11 6.73295e-12 3.28776e+09 1.99466e+14
333.741 15936 27404.3 6.76971e-11 3.97115e+08 15875.4 6.74398e-11 5.71979e-12 4.70009e+09 2.35401e+14
352.686 19561.5 32341.2 7.04135e-11 4.68637e+08 19483.7 7.01336e-11 4.85874e-12 6.79155e+09 2.77809e+14
372.707 24377.9 38167.6 7.43553e-11 5.53074e+08 24275.3 7.40423e-11 4.12703e-12 9.96455e+09 3.27857e+14
393.865 31024.8 45043.5 8.01837e-11 6.52716e+08 30883.9 7.98197e-11 3.50528e-12 1.49309e+10 3.86921e+14
416.224 36610 53158.3 8.01749e-11 2.2184e+08 38729.9 8.48175e-11 2.97701e-12 5.97445e+09 4.56626e+14
439.852 0 62734.9 0 0 0 0 2.52819e-12 0 5.38888e+14
464.821 0 74036.7 0 0 0 0 2.1469e-12 0 6.35971e+14
491.207 0 87374.6 0 0 0 0 1.82301e-12 0 7.50542e+14
519.092 0 103115 0 0 0 0 1.54789e-12 0 8.85755e+14
548.56 0 121692 0 0 0 0 1.31422e-12 0 1.04533e+15
579.7 0 143615 0 0 0 0 1.11576e-12 0 1.23364e+15
612.608 0 169488 0 0 0 0 9.47223e-13 0 1.45589e+15
647.384 0 200021 0 0 0 0 8.041e-13 0 1.71817e+15
684.134 0 236056 0 0 0 0 6.82568e-13 0 2.0277e+15
722.971 0 278582 0 0 0 0 5.79376e-13 0 2.393e+15
764.012 0 328769 0 0 0 0 4.91762e-13 0 2.8241e+15
0.204077
200
1.0655e+09
8589934592
0.0129181 0.000133597 1.58924e-09 9.78628e-06 6 0.000132374 9.69669e-06 0.00677225 0.00867033 13.6515
0.0136515 0 1.87554e-09 0 0 0 0 0.00688819 0 16.1108
0.0144264 0 2.21343e-09 0 0 0 0 0.00699249 0 19.0132
0.0152454 0 2.61218e-09 0 0 0 0 0.00708412 0 22.4385
0.0161108 0 3.08278e-09 0 0 0 0 0.00716212 0 26.4808
0.0170254 0 3.63815e-09 0 0 0 0 0.00722559 0 31.2514
0.0179919 0.000296886 4.29357e-09 8.04974e-06 12 0.000296504 8.03937e-06 0.00727371 0.0132803 36.8815
0.0190132 0 5.06707e-09 0 0 0 0 0.00730578 0 43.5258
0.0200925 0 5.97991e-09 0 0 0 0 0.00732122 0 51.367
0.0212331 0.000280866 7.05721e-09 4.63315e-06 8 0.000280621 4.62912e-06 0.00731958 0.00506384 60.621
0.0224385 0 8.32858e-09 0 0 0 0 0.00730056 0 71.542
0.0237123 0 9.829e-09 0 0 0 0 0.00726401 0 84.4305
0.0250583 0.00180218 1.15997e-08 1.80868e-05 6 0.00180133 1.80783e-05 0.00720995 0.0150515 99.6408
0.0264808 0 1.36894e-08 0 0 0 0 0.00713857 0 117.591
0.0279841 0.00112039 1.61556e-08 8.07337e-06 24 0.00111924 8.06509e-06 0.00705021 0.027483 138.776
0.0295727 0 1.90661e-08 0 0 0 0 0.00694538 0 163.777
0.0312514 0.00200257 2.25009e-08 1.03609e-05 24 0.00201274 1.04135e-05 0.00682475 0.0364353 193.281
0.0330255 0 2.65545e-08 0 0 0 0 0.00668915 0 228.102
0.0349003 0.00283204 3.13384e-08 1.05204e-05 12 0.00280936 1.04362e-05 0.00653951 0.0193049 269.195
0.0368815 0.00242874 3.69841e-08 7.64498e-06 30 0.00240288 7.56357e-06 0.00637693 0.0359655 317.691
0.0389751 0.00287883 4.36469e-08 7.67845e-06 24 0.00284922 7.59946e-06 0.00620256 0.0297108 374.924
0.0411876 0.00182585 5.151e-08 4.12653e-06 24 0.00181345 4.0985e-06 0.00601767 0.0164576 442.467
0.0435258 0.00400809 6.07896e-08 7.67571e-06 8 0.00400778 7.67512e-06 0.00582358 0.0105443 522.179
0.0459966 0.00510088 7.1741e-08 8.27728e-06 72 0.00506055 8.21183e-06 0.00562166 0.106012 616.251
0.0486077 0 8.46654e-08 0 0 0 0 0.0054133 0 727.27
0.051367 0.00755642 9.99181e-08 8.80404e-06 54 0.00753234 8.77599e-06 0.00519989 0.0914286 858.29
0.054283 0.00589937 1.17919e-07 5.82416e-06 60 0.00592421 5.84869e-06 0.0049828 0.0701312 1012.91
0.0573645 0.00582735 1.39162e-07 4.87484e-06 96 0.00581239 4.86233e-06 0.00476339 0.0982463 1195.39
0.060621 0.00674928 1.64232e-07 4.78419e-06 24 0.00665784 4.71938e-06 0.00454293 0.0252746 1410.75
0.0640622 0.011882 1.93819e-07 7.13678e-06 134 0.0118885 7.14066e-06 0.00432265 0.221237 1664.89
0.0676989 0.0114163 2.28736e-07 5.81034e-06 120 0.0113637 5.78357e-06 0.00410371 0.169905 1964.83
0.071542 0.0104665 2.69944e-07 4.51378e-06 108 0.0103531 4.46487e-06 0.00388717 0.125409 2318.8
0.0756032 0.0152473 3.18575e-07 5.57176e-06 174 0.0151672 5.54249e-06 0.00367401 0.263877 2736.54
0.079895 0.0162578 3.75967e-07 5.03411e-06 168 0.0161047 4.98669e-06 0.0034651 0.244071 3229.53
0.0844305 0.0138642 4.43698e-07 3.63762e-06 168 0.0139336 3.65582e-06 0.00326121 0.187391 3811.34
0.0892234 0.0156562 5.23632e-07 3.48072e-06 290 0.01559 3.466e-06 0.00306301 0.329548 4497.96
0.0942883 0.0202435 6.17966e-07 3.81357e-06 288 0.020193 3.80405e-06 0.00287109 0.382541 5308.28
0.0996408 0.0183247 7.29294e-07 2.92513e-06 366 0.0181714 2.90065e-06 0.00268591 0.398597 6264.59
0.105297 0.0200428 8.60678e-07 2.71099e-06 420 0.0199041 2.69223e-06 0.00250785 0.454019 7393.17
0.111275 0.0212677 1.01573e-06 2.43754e-06 398 0.0212076 2.43066e-06 0.00233721 0.415085 8725.07
0.117591 0.0253213 1.19872e-06 2.45912e-06 624 0.0253738 2.46421e-06 0.00217419 0.705774 10296.9
0.124267 0.0281827 1.41467e-06 2.3192e-06 642 0.0281439 2.316e-06 0.00201893 0.737484 12151.9
0.131321 0.0356473 1.66953e-06 2.48567e-06 800 0.03566 2.48656e-06 0.00187147 1.06255 14341.1
0.138776 0.0321732 1.9703e-06 1.90096e-06 858 0.0323272 1.91006e-06 0.00173182 0.941799 16924.7
0.146654 0.035013 2.32525e-06 1.75295e-06 1080 0.0353063 1.76763e-06 0.00159991 1.18331 19973.8
0.154979 0.0415254 2.74415e-06 1.76163e-06 1286 0.0418103 1.77372e-06 0.00147563 1.53525 23572.1
0.163777 0.0392047 3.23852e-06 1.40929e-06 1650 0.0392781 1.41193e-06 0.00135884 1.71127 27818.7
0.173074 0.0461214 3.82195e-06 1.40485e-06 1778 0.0461273 1.40502e-06 0.00124933 1.99932 32830.3
0.182899 0.0450719 4.51048e-06 1.1633e-06 2112 0.045182 1.16615e-06 0.00114689 2.14222 38744.7
0.193281 0.052797 5.32305e-06 1.15467e-06 2570 0.0528716 1.1563e-06 0.00105127 2.82278 45724.7
0.204254 0.0592902 6.28202e-06 1.09874e-06 3030 0.0592609 1.09819e-06 0.000962209 3.45993 53962.1
0.215848 0.0590256 7.41374e-06 9.26858e-07 3434 0.0590099 9.26611e-07 0.000879423 3.61923 63683.5
0.228102 0.0616809 8.74934e-06 8.20702e-07 4218 0.061698 8.20929e-07 0.000802624 4.31301 75156.3
0.24105 0.0695499 1.03256e-05 7.84138e-07 4766 0.0696173 7.84899e-07 0.000731515 5.10885 88695.9
0.254734 0.0748124 1.21857e-05 7.14713e-07 6026 0.0747908 7.14507e-07 0.000665798 6.46872 104675
0.269195 0.0787325 1.4381e-05 6.37344e-07 6480 0.0786869 6.36975e-07 0.000605173 6.82447 123532
0.284476 0.0858317 1.69718e-05 5.88748e-07 8162 0.0860287 5.901e-07 0.000549345 8.74745 145787
0.300625 0.0866741 2.00293e-05 5.03771e-07 9578 0.086781 5.04392e-07 0.000498021 9.68858 172051
0.317691 0.0967385 2.36377e-05 4.76436e-07 11234 0.0966586 4.76043e-07 0.000450916 11.8698 203046
0.335725 0.101436 2.78961e-05 4.23311e-07 13344 0.101373 4.23049e-07 0.000407755 13.8531 239625
0.354784 0.10605 3.29216e-05 3.75006e-07 15464 0.105983 3.74769e-07 0.000368269 15.7469 282795
0.374924 0.113924 3.88525e-05 3.41355e-07 18458 0.113915 3.41329e-07 0.000332202 18.9666 333741
0.396207 0.120299 4.58519e-05 3.05433e-07 22232 0.12013 3.05004e-07 0.000299307 22.687 393865
0.418699 0.130386 5.41123e-05 2.80509e-07 25628 0.130092 2.79875e-07 0.00026935 26.6898 464821
0.442467 0.13772 6.38607e-05 2.51058e-07 30320 0.137455 2.50575e-07 0.000242108 31.4408 548560
0.467585 0.144217 7.53654e-05 2.22769e-07 35452 0.144012 2.22453e-07 0.00021737 36.3325 647384
0.494129 0.151832 8.89427e-05 1.9873e-07 41792 0.151766 1.98644e-07 0.000194938 42.6049 764012
0.522179 0.164096 0.000104966 1.81996e-07 49988 0.164043 1.81936e-07 0.000174625 52.0979 901651
0.551822 0.172745 0.000123876 1.62341e-07 59110 0.172622 1.62226e-07 0.000156255 61.4124 1.06409e+06
0.583147 0.18442 0.000146192 1.46856e-07 69716 0.184169 1.46657e-07 0.000139664 73.3062 1.25578e+06
0.616251 0.19559 0.000172529 1.31975e-07 82210 0.195263 1.31755e-07 0.0001247 87.0064 1.48202e+06
0.651234 0.208546 0.000203611 1.19237e-07 96722 0.208142 1.19006e-07 0.00011122 103.693 1.74901e+06
0.688203 0.221313 0.000240292 1.07221e-07 113098 0.221074 1.07104e-07 9.90935e-05 122.374 2.06409e+06
0.72727 0.233818 0.000283581 9.59867e-08 135190 0.233566 9.58832e-08 8.81969e-05 147.13 2.43595e+06
0.768555 0.249592 0.000334669 8.68211e-08 158170 0.249346 8.67355e-08 7.84179e-05 175.119 2.87479e+06
0.812184 0.263991 0.000394961 7.78117e-08 188560 0.263705 7.77274e-08 6.96525e-05 210.648 3.39269e+06
0.85829 0.280497 0.000466114 7.00561e-08 220444 0.280147 6.99688e-08 6.1805e-05 249.874 4.00389e+06
0.907013 0.296903 0.000550086 6.2834e-08 261388 0.296576 6.27648e-08 5.47875e-05 299.778 4.7252e+06
0.958501 0.317303 0.000649185 5.69005e-08 308244 0.316937 5.68348e-08 4.85194e-05 361.489 5.57646e+06
1.01291 0.33845 0.000766138 5.14278e-08 364396 0.338025 5.13633e-08 4.29272e-05 436.555 6.58107e+06
1.07041 0.358861 0.00090416 4.62052e-08 429162 0.358358 4.61405e-08 3.79435e-05 522.607 7.76667e+06
1.13118 0.383526 0.00106705 4.18429e-08 506358 0.383023 4.1788e-08 3.3507e-05 632.33 9.16586e+06
1.19539 0.408682 0.00125928 3.7781e-08 598590 0.408083 3.77257e-08 2.9562e-05 765.014 1.08171e+07
1.26325 0.435497 0.00148614 3.41142e-08 704844 0.434897 3.40672e-08 2.60578e-05 922.764 1.27658e+07
1.33496 0.463299 0.00175387 3.0752e-08 834620 0.462599 3.07055e-08 2.29484e-05 1118.43 1.50656e+07
1.41075 0.495371 0.00206984 2.78615e-08 981444 0.494644 2.78206e-08 2.01923e-05 1354.21 1.77798e+07
1.49083 0.528978 0.00244272 2.521e-08 1.15998e+06 0.528224 2.51741e-08 1.77518e-05 1647.33 2.09828e+07
1.57546 0.566151 0.00288279 2.28628e-08 1.36931e+06 0.565278 2.28276e-08 1.55929e-05 2007.73 2.4763e+07
1.66489 0.606567 0.00340213 2.07557e-08 1.61652e+06 0.6056 2.07227e-08 1.3685e-05 2451.73 2.92241e+07
1.75941 0.649669 0.00401503 1.88371e-08 1.90601e+06 0.648632 1.8807e-08 1.20007e-05 2991.79 3.44889e+07
1.85928 0.697071 0.00473835 1.71262e-08 2.24913e+06 0.695976 1.70992e-08 1.05151e-05 3663.2 4.07021e+07
1.96483 0.747694 0.00559198 1.55657e-08 2.65744e+06 0.746417 1.55391e-08 9.20606e-06 4493.23 4.80347e+07
2.07637 0.80384 0.00659939 1.418e-08 3.13125e+06 0.802537 1.4157e-08 8.05366e-06 5513.17 5.66883e+07
2.19424 0.865326 0.00778828 1.29345e-08 3.69915e+06 0.863961 1.2914e-08 7.04008e-06 6796.3 6.69008e+07
2.3188 0.931598 0.00919136 1.17994e-08 4.36472e+06 0.930044 1.17797e-08 6.1494e-06 8374.96 7.89532e+07
2.45043 1.0041 0.0108472 1.07763e-08 5.14913e+06 1.00239 1.07579e-08 5.36741e-06 10338 9.31768e+07
2.58954 1.08635 0.0128014 9.87925e-09 6.07894e+06 1.08448 9.86222e-09 4.68145e-06 12828.4 1.09963e+08
2.73654 1.17366 0.0151076 9.04395e-09 7.17304e+06 1.17164 9.02834e-09 4.08023e-06 15899.2 1.29773e+08
2.89188 1.27099 0.0178292 8.2989e-09 8.46557e+06 1.26874 8.28419e-09 3.55373e-06 19769.3 1.53152e+08
3.05605 1.37895 0.0210412 7.62936e-09 9.98773e+06 1.37659 7.61627e-09 3.09304e-06 24636 1.80743e+08
3.22953 1.49528 0.0248319 7.01008e-09 1.1797e+07 1.49256 6.99732e-09 2.69025e-06 30739.9 2.13304e+08
3.41286 1.62369 0.0293054 6.4501e-09 1.39144e+07 1.62069 6.43817e-09 2.33837e-06 38381.1 2.51731e+08
3.6066 1.76641 0.0345848 5.94589e-09 1.64163e+07 1.76312 5.93479e-09 2.0312e-06 48055 2.97081e+08
3.81134 1.92424 0.0408154 5.4884e-09 1.93821e+07 1.92071 5.47834e-09 1.76327e-06 60329.5 3.50601e+08
4.0277 2.09796 0.0481684 5.07044e-09 2.28754e+07 2.09399 5.06084e-09 1.52972e-06 75823.2 4.13763e+08
4.25634 2.28942 0.056846 4.68852e-09 2.69929e+07 2.28501 4.67948e-09 1.32631e-06 95420.5 4.88304e+08
4.49796 2.49877 0.067087 4.33609e-09 3.18542e+07 2.49389 4.32762e-09 1.14926e-06 120185 5.76273e+08
4.7533 2.73257 0.0791729 4.01795e-09 3.75892e+07 2.72723 4.0101e-09 9.95263e-07 151750 6.8009e+08
5.02313 2.98826 0.0934361 3.72318e-09 4.43706e+07 2.98237 3.71584e-09 8.61414e-07 191777 8.0261e+08
5.30828 3.27108 0.110269 3.45341e-09 5.23593e+07 3.26449 3.44645e-09 7.45152e-07 242659 9.47202e+08
5.60962 3.57942 0.130134 3.20208e-09 6.1787e+07 3.57225 3.19566e-09 6.44232e-07 307105 1.11784e+09
5.92807 3.91857 0.153578 2.97036e-09 7.29346e+07 3.91068 2.96437e-09 5.56685e-07 389164 1.31923e+09
6.26459 4.29226 0.181246 2.75695e-09 8.60651e+07 4.2835 2.75132e-09 4.80786e-07 493518 1.55689e+09
6.62021 4.7009 0.213898 2.5585e-09 1.01558e+08 4.69127 2.55326e-09 4.15026e-07 626073 1.83737e+09
6.99602 5.14907 0.252432 2.37462e-09 1.1986e+08 5.13856 2.36978e-09 3.58083e-07 794851 2.16837e+09
7.39317 5.64001 0.297908 2.20398e-09 1.41457e+08 5.62835 2.19943e-09 3.08803e-07 1.0096e+06 2.55901e+09
7.81286 6.17718 0.351577 2.04541e-09 1.66936e+08 6.16447 2.0412e-09 2.66181e-07 1.28278e+06 3.02002e+09
8.25637 6.76818 0.414914 1.89899e-09 1.97025e+08 6.75414 1.89505e-09 2.29336e-07 1.63145e+06 3.56409e+09
8.72507 7.42056 0.489662 1.76421e-09 2.32497e+08 7.40492 1.76049e-09 1.97503e-07 2.07679e+06 4.20617e+09
9.22037 8.14659 0.577876 1.64116e-09 2.74404e+08 8.12927 1.63767e-09 1.70014e-07 2.64885e+06 4.96392e+09
9.74378 8.96483 0.681982 1.53031e-09 3.2382e+08 8.9453 1.52697e-09 1.46289e-07 3.38743e+06 5.85818e+09
10.2969 9.90944 0.804843 1.43334e-09 3.82165e+08 9.88704 1.4301e-09 1.25822e-07 4.35352e+06 6.91355e+09
10.8814 11.0416 0.949838 1.3533e-09 4.51027e+08 11.0151 1.35005e-09 1.08175e-07 5.64243e+06 8.15905e+09
11.4992 12.4715 1.12095 1.29521e-09 5.32251e+08 12.4388 1.29181e-09 9.29669e-08 7.4153e+06 9.62892e+09
12.1519 14.4078 1.3229 1.26789e-09 6.28157e+08 14.3648 1.26411e-09 7.98658e-08 9.97214e+06 1.13636e+10
12.8418 16.4679 1.56122 1.22796e-09 3.82727e+08 17.0428 1.27083e-09 6.85852e-08 6.8524e+06 1.34108e+10
13.5708 0 1.84248 0 0 0 0 5.88765e-08 0 1.58268e+10
14.3411 0 2.17441 0 0 0 0 5.05241e-08 0 1.8678e+10
15.1552 0 2.56613 0 0 0 0 4.33417e-08 0 2.20429e+10
16.0156 0 3.02843 0 0 0 0 3.71677e-08 0 2.6014e+10
16.9247 0 3.574 0 0 0 0 3.18628e-08 0 3.07005e+10
17.8855 0 4.21787 0 0 0 0 2.73063e-08 0 3.62312e+10
18.9008 0 4.97773 0 0 0 0 2.33941e-08 0 4.27584e+10
19.9738 0 5.87448 0 0 0 0 2.00364e-08 0 5.04614e+10
21.1076 0 6.93279 0 0 0 0 1.71555e-08 0 5.95522e+10
22.3058 0 8.18175 0 0 0 0 1.46847e-08 0 7.02807e+10
23.5721 0 9.65571 0 0 0 0 1.25662e-08 0 8.29419e+10
24.9102 0 11.3952 0 0 0 0 1.07504e-08 0 9.78842e+10
26.3243 0 13.4481 0 0 0 0 9.19452e-09 0 1.15518e+11
27.8187 0 15.8708 0 0 0 0 7.86182e-09 0 1.36329e+11
29.3979 0 18.73 0 0 0 0 6.72061e-09 0 1.60889e+11
31.0667 0 22.1042 0 0 0 0 5.74366e-09 0 1.89874e+11
32.8303 0 26.0864 0 0 0 0 4.90756e-09 0 2.2408e+11
34.694 0 30.7859 0 0 0 0 4.19221e-09 0 2.64449e+11
36.6634 0 36.3321 0 0 0 0 3.58032e-09 0 3.1209e+11
38.7447 0 42.8774 0 0 0 0 3.05709e-09 0 3.68314e+11
40.9442 0 50.6018 0 0 0 0 2.60976e-09 0 4.34667e+11
43.2685 0 59.7179 0 0 0 0 2.22743e-09 0 5.12973e+11
45.7247 0 70.4762 0 0 0 0 1.90073e-09 0 6.05386e+11
48.3204 0 83.1727 0 0 0 0 1.62163e-09 0 7.14448e+11
51.0634 0 98.1565 0 0 0 0 1.38326e-09 0 8.43158e+11
53.9621 0 115.84 0 0 0 0 1.1797e-09 0 9.95055e+11
57.0254 0 136.709 0 0 0 0 1.00592e-09 0 1.17432e+12
60.2626 0 161.337 0 0 0 0 8.57591e-10 0 1.38587e+12
63.6835 0 190.402 0 0 0 0 7.3101e-10 0 1.63554e+12
67.2987 0 224.704 0 0 0 0 6.23009e-10 0 1.93019e+12
71.1191 0 265.185 0 0 0 0 5.30879e-10 0 2.27792e+12
75.1563 0 312.958 0 0 0 0 4.52303e-10 0 2.68829e+12
79.4227 0 369.339 0 0 0 0 3.85299e-10 0 3.17259e+12
83.9313 0 435.876 0 0 0 0 3.28173e-10 0 3.74415e+12
88.6959 0 514.4 0 0 0 0 2.79476e-10 0 4.41866e+12
93.7309 0 607.071 0 0 0 0 2.37972e-10 0 5.2147e+12
99.0518 0 716.436 0 0 0 0 2.02605e-10 0 6.15414e+12
104.675 0 845.504 0 0 0 0 1.72471e-10 0 7.26283e+12
110.617 0 997.824 0 0 0 0 1.468e-10 0 8.57124e+12
116.896 0 1177.58 0 0 0 0 1.24935e-10 0 1.01154e+13
123.532 0 1389.73 0 0 0 0 1.06313e-10 0 1.19377e+13
130.545 0 1640.09 0 0 0 0 9.04567e-11 0 1.40883e+13
137.955 0 1935.56 0 0 0 0 7.69563e-11 0 1.66263e+13
145.787 0 2284.26 0 0 0 0 6.54636e-11 0 1.96216e+13
154.063 0 2695.77 0 0 0 0 5.56812e-11 0 2.31565e+13
162.808 0 3181.42 0 0 0 0 4.73556e-11 0 2.73282e+13
172.051 0 3754.56 0 0 0 0 4.02708e-11 0 3.22515e+13
181.818 0 4430.96 0 0 0 0 3.42426e-11 0 3.80616e+13
192.139 0 5229.21 0 0 0 0 2.91139e-11 0 4.49186e+13
203.046 0 6171.26 0 0 0 0 2.4751e-11 0 5.30108e+13
214.572 0 7283.03 0 0 0 0 2.10401e-11 0 6.25608e+13
226.753 0 8595.09 0 0 0 0 1.78839e-11 0 7.38313e+13
239.625 0 10143.5 0 0 0 0 1.51999e-11 0 8.71322e+13
253.228 0 11970.9 0 0 0 0 1.29176e-11 0 1.02829e+14
267.603 0 14127.5 0 0 0 0 1.09771e-11 0 1.21354e+14
282.795 0 16672.6 0 0 0 0 9.3274e-12 0 1.43217e+14
298.848 0 19676.2 0 0 0 0 7.925e-12 0 1.69017e+14
315.813 0 23220.9 0 0 0 0 6.73295e-12 0 1.99466e+14
333.741 0 27404.3 0 0 0 0 5.71979e-12 0 2.35401e+14
352.686 0 32341.2 0 0 0 0 4.85874e-12 0 2.77809e+14
372.707 0 38167.6 0 0 0 0 4.12703e-12 0 3.27857e+14
393.865 0 45043.5 0 0 0 0 3.50528e-12 0 3.86921e+14
416.224 0 53158.3 0 0 0 0 2.97701e-12 0 4.56626e+14
439.852 0 62734.9 0 0 0 0 2.52819e-12 0 5.38888e+14
464.821 0 74036.7 0 0 0 0 2.1469e-12 0 6.35971e+14
491.207 0 87374.6 0 0 0 0 1.82301e-12 0 7.50542e+14
519.092 0 103115 0 0 0 0 1.54789e-12 0 8.85755e+14
548.56 0 121692 0 0 0 0 1.31422e-12 0 1.04533e+15
579.7 0 143615 0 0 0 0 1.11576e-12 0 1.23364e+15
612.608 0 169488 0 0 0 0 9.47223e-13 0 1.45589e+15
647.384 0 200021 0 0 0 0 8.041e-13 0 1.71817e+15
684.134 0 236056 0 0 0 0 6.82568e-13 0 2.0277e+15
722.971 0 278582 0 0 0 0 5.79376e-13 0 2.393e+15
764.012 0 328769 0 0 0 0 4.91762e-13 0 2.8241e+15
