0.852164
200
1.0655e+09
8589934592
0.0129181 0 1.58924e-09 0 0 0 0 0.00677225 0 13.6515
0.0136515 0 1.87554e-09 0 0 0 0 0.00688819 0 16.1108
0.0144264 0 2.21343e-09 0 0 0 0 0.00699249 0 19.0132
0.0152454 0 2.61218e-09 0 0 0 0 0.00708412 0 22.4385
0.0161108 0 3.08278e-09 0 0 0 0 0.00716212 0 26.4808
0.0170254 0 3.63815e-09 0 0 0 0 0.00722559 0 31.2514
0.0179919 0 4.29357e-09 0 0 0 0 0.00727371 0 36.8815
0.0190132 0 5.06707e-09 0 0 0 0 0.00730578 0 43.5258
0.0200925 0 5.97991e-09 0 0 0 0 0.00732122 0 51.367
0.0212331 0 7.05721e-09 0 0 0 0 0.00731958 0 60.621
0.0224385 0 8.32858e-09 0 0 0 0 0.00730056 0 71.542
0.0237123 0 9.829e-09 0 0 0 0 0.00726401 0 84.4305
0.0250583 0 1.15997e-08 0 0 0 0 0.00720995 0 99.6408
0.0264808 0 1.36894e-08 0 0 0 0 0.00713857 0 117.591
0.0279841 0 1.61556e-08 0 0 0 0 0.00705021 0 138.776
0.0295727 0 1.90661e-08 0 0 0 0 0.00694538 0 163.777
0.0312514 0 2.25009e-08 0 0 0 0 0.00682475 0 193.281
0.0330255 0 2.65545e-08 0 0 0 0 0.00668915 0 228.102
0.0349003 0 3.13384e-08 0 0 0 0 0.00653951 0 269.195
0.0368815 0 3.69841e-08 0 0 0 0 0.00637693 0 317.691
0.0389751 0 4.36469e-08 0 0 0 0 0.00620256 0 374.924
0.0411876 0 5.151e-08 0 0 0 0 0.00601767 0 442.467
0.0435258 0 6.07896e-08 0 0 0 0 0.00582358 0 522.179
0.0459966 0 7.1741e-08 0 0 0 0 0.00562166 0 616.251
0.0486077 0 8.46654e-08 0 0 0 0 0.0054133 0 727.27
0.051367 0 9.99181e-08 0 0 0 0 0.00519989 0 858.29
0.054283 0 1.17919e-07 0 0 0 0 0.0049828 0 1012.91
0.0573645 0 1.39162e-07 0 0 0 0 0.00476339 0 1195.39
0.060621 0 1.64232e-07 0 0 0 0 0.00454293 0 1410.75
0.0640622 0 1.93819e-07 0 0 0 0 0.00432265 0 1664.89
0.0676989 0 2.28736e-07 0 0 0 0 0.00410371 0 1964.83
0.071542 0 2.69944e-07 0 0 0 0 0.00388717 0 2318.8
0.0756032 0 3.18575e-07 0 0 0 0 0.00367401 0 2736.54
0.079895 0 3.75967e-07 0 0 0 0 0.0034651 0 3229.53
0.0844305 0 4.43698e-07 0 0 0 0 0.00326121 0 3811.34
0.0892234 0 5.23632e-07 0 0 0 0 0.00306301 0 4497.96
0.0942883 0 6.17966e-07 0 0 0 0 0.00287109 0 5308.28
0.0996408 0 7.29294e-07 0 0 0 0 0.00268591 0 6264.59
0.105297 0 8.60678e-07 0 0 0 0 0.00250785 0 7393.17
0.111275 0 1.01573e-06 0 0 0 0 0.00233721 0 8725.07
0.117591 0 1.19872e-06 0 0 0 0 0.00217419 0 10296.9
0.124267 0 1.41467e-06 0 0 0 0 0.00201893 0 12151.9
0.131321 0 1.66953e-06 0 0 0 0 0.00187147 0 14341.1
0.138776 0 1.9703e-06 0 0 0 0 0.00173182 0 16924.7
0.146654 0 2.32525e-06 0 0 0 0 0.00159991 0 19973.8
0.154979 0 2.74415e-06 0 0 0 0 0.00147563 0 23572.1
0.163777 0 3.23852e-06 0 0 0 0 0.00135884 0 27818.7
0.173074 0 3.82195e-06 0 0 0 0 0.00124933 0 32830.3
0.182899 0 4.51048e-06 0 0 0 0 0.00114689 0 38744.7
0.193281 0 5.32305e-06 0 0 0 0 0.00105127 0 45724.7
0.204254 0 6.28202e-06 0 0 0 0 0.000962209 0 53962.1
0.215848 0 7.41374e-06 0 0 0 0 0.000879423 0 63683.5
0.228102 0 8.74934e-06 0 0 0 0 0.000802624 0 75156.3
0.24105 0 1.03256e-05 0 0 0 0 0.000731515 0 88695.9
0.254734 0 1.21857e-05 0 0 0 0 0.000665798 0 104675
0.269195 0 1.4381e-05 0 0 0 0 0.000605173 0 123532
0.284476 0 1.69718e-05 0 0 0 0 0.000549345 0 145787
0.300625 0 2.00293e-05 0 0 0 0 0.000498021 0 172051
0.317691 0 2.36377e-05 0 0 0 0 0.000450916 0 203046
0.335725 0 2.78961e-05 0 0 0 0 0.000407755 0 239625
0.354784 0 3.29216e-05 0 0 0 0 0.000368269 0 282795
0.374924 0 3.88525e-05 0 0 0 0 0.000332202 0 333741
0.396207 2.25723 4.58519e-05 5.73098e-06 6 2.19448 5.57164e-06 0.000299307 0.114885 393865
0.418699 0 5.41123e-05 0 0 0 0 0.00026935 0 464821
0.442467 0 6.38607e-05 0 0 0 0 0.000242108 0 548560
0.467585 0 7.53654e-05 0 0 0 0 0.00021737 0 647384
0.494129 0 8.89427e-05 0 0 0 0 0.000194938 0 764012
0.522179 0 0.000104966 0 0 0 0 0.000174625 0 901651
0.551822 0 0.000123876 0 0 0 0 0.000156255 0 1.06409e+06
0.583147 6.81263 0.000146192 5.425e-06 12 7.17033 5.70984e-06 0.000139664 0.466119 1.25578e+06
0.616251 0 0.000172529 0 0 0 0 0.0001247 0 1.48202e+06
0.651234 0 0.000203611 0 0 0 0 0.00011122 0 1.74901e+06
0.688203 10.4397 0.000240292 5.05779e-06 8 10.18 4.93196e-06 9.90935e-05 0.408325 2.06409e+06
0.72727 0 0.000283581 0 0 0 0 8.81969e-05 0 2.43595e+06
0.768555 0 0.000334669 0 0 0 0 7.84179e-05 0 2.87479e+06
0.812184 8.20673 0.000394961 2.41895e-06 6 8.38219 2.47066e-06 6.96525e-05 0.208372 3.39269e+06
0.85829 0 0.000466114 0 0 0 0 6.1805e-05 0 4.00389e+06
0.907013 0.957601 0.000550086 2.02658e-07 24 0.975975 2.06547e-07 5.47875e-05 0.0887757 4.7252e+06
0.958501 5.06705 0.000649185 9.0865e-07 24 4.77025 8.55426e-07 4.85194e-05 0.449461 5.57646e+06
1.01291 0 0.000766138 0 0 0 0 4.29272e-05 0 6.58107e+06
1.07041 0 0.00090416 0 0 0 0 3.79435e-05 0 7.76667e+06
1.13118 6.67456 0.00106705 7.28198e-07 12 6.59258 7.19253e-07 3.3507e-05 0.260793 9.16586e+06
1.19539 2.87447 0.00125928 2.65734e-07 30 2.81522 2.60256e-07 2.9562e-05 0.269671 1.08171e+07
1.26325 8.2185 0.00148614 6.43788e-07 24 8.09484 6.34101e-07 2.60578e-05 0.592948 1.27658e+07
1.33496 14.857 0.00175387 9.86149e-07 24 14.8896 9.88317e-07 2.29484e-05 1.03134 1.50656e+07
1.41075 18.1487 0.00206984 1.02075e-06 32 18.4547 1.03796e-06 2.01923e-05 1.61765 1.77798e+07
1.49083 5.47353 0.00244272 2.60857e-07 48 5.35684 2.55296e-07 1.77518e-05 0.705348 2.09828e+07
1.57546 52.3057 0.00288279 2.11226e-06 6 49.8068 2.01134e-06 1.55929e-05 0.812778 2.4763e+07
1.66489 5.15473 0.00340213 1.76387e-07 84 5.05558 1.72994e-07 1.3685e-05 1.08268 2.92241e+07
1.75941 7.67839 0.00401503 2.22634e-07 48 7.57026 2.19499e-07 1.20007e-05 0.890485 3.44889e+07
1.85928 7.32206 0.00473835 1.79894e-07 72 7.3597 1.80819e-07 1.05151e-05 1.23179 4.07021e+07
1.96483 17.5132 0.00559198 3.64595e-07 54 17.1131 3.56265e-07 9.20606e-06 2.1386 4.80347e+07
2.07637 12.1525 0.00659939 2.14375e-07 104 12.2926 2.16846e-07 8.05366e-06 2.7683 5.66883e+07
2.19424 7.8812 0.00778828 1.17804e-07 120 8.01883 1.19861e-07 7.04008e-06 2.00801 6.69008e+07
2.3188 8.47036 0.00919136 1.07283e-07 156 8.36539 1.05954e-07 6.1494e-06 2.7216 7.89532e+07
2.45043 13.1731 0.0108472 1.41377e-07 126 13.1337 1.40954e-07 5.36741e-06 3.31883 9.31768e+07
2.58954 12.8144 0.0128014 1.16534e-07 192 12.8871 1.17195e-07 4.68145e-06 4.7794 1.09963e+08
2.73654 34.9175 0.0151076 2.69066e-07 152 35.5747 2.74131e-07 4.08023e-06 10.0234 1.29773e+08
2.89188 15.1696 0.0178292 9.90495e-08 378 15.324 1.00057e-07 3.55373e-06 10.5356 1.53152e+08
3.05605 17.5626 0.0210412 9.71688e-08 264 17.3757 9.61349e-08 3.09304e-06 8.29365 1.80743e+08
3.22953 17.0167 0.0248319 7.9777e-08 366 16.8877 7.91718e-08 2.69025e-06 10.8534 2.13304e+08
3.41286 16.6583 0.0293054 6.61748e-08 428 16.536 6.56892e-08 2.33837e-06 12.1122 2.51731e+08
3.6066 22.6709 0.0345848 7.63121e-08 486 22.4197 7.54666e-08 2.0312e-06 18.259 2.97081e+08
3.81134 18.8047 0.0408154 5.36356e-08 600 18.8668 5.38125e-08 1.76327e-06 18.251 3.50601e+08
4.0277 24.9783 0.0481684 6.03687e-08 738 24.9327 6.02584e-08 1.52972e-06 29.1243 4.13763e+08
4.25634 23.3791 0.056846 4.78783e-08 824 23.308 4.77325e-08 1.32631e-06 29.7455 4.88304e+08
4.49796 25.9465 0.067087 4.50247e-08 954 25.8326 4.4827e-08 1.14926e-06 37.3751 5.76273e+08
4.7533 24.8117 0.0791729 3.64829e-08 1094 24.6351 3.62233e-08 9.95263e-07 40.1023 6.8009e+08
5.02313 29.2687 0.0934361 3.64669e-08 1332 29.3788 3.66041e-08 8.61414e-07 56.3886 8.0261e+08
5.30828 35.4198 0.110269 3.73942e-08 1614 35.3949 3.73678e-08 7.45152e-07 80.9957 9.47202e+08
5.60962 41.2654 0.130134 3.69152e-08 1850 41.188 3.68459e-08 6.44232e-07 106.007 1.11784e+09
5.92807 38.7485 0.153578 2.93722e-08 2238 38.6275 2.92804e-08 5.56685e-07 118.083 1.31923e+09
6.26459 38.0309 0.181246 2.44275e-08 2546 38.0729 2.44545e-08 4.80786e-07 129.356 1.55689e+09
6.62021 40.7522 0.213898 2.21797e-08 3264 40.8248 2.22192e-08 4.15026e-07 174.434 1.83737e+09
6.99602 43.8851 0.252432 2.02387e-08 3506 43.9434 2.02656e-08 3.58083e-07 198.158 2.16837e+09
7.39317 47.056 0.297908 1.83883e-08 4506 46.9913 1.83631e-08 3.08803e-07 268.319 2.55901e+09
7.81286 52.238 0.351577 1.72972e-08 5018 52.0098 1.72217e-08 2.66181e-07 326.084 3.02002e+09
8.25637 56.1427 0.414914 1.57523e-08 5852 56.1285 1.57483e-08 2.29336e-07 401.954 3.56409e+09
8.72507 57.6908 0.489662 1.37158e-08 7362 57.6552 1.37073e-08 1.97503e-07 511.26 4.20617e+09
9.22037 60.2994 0.577876 1.21475e-08 8306 60.0704 1.21014e-08 1.70014e-07 593.465 4.96392e+09
9.74378 65.1236 0.681982 1.11167e-08 9698 65.0599 1.11058e-08 1.46289e-07 736.964 5.85818e+09
10.2969 68.1192 0.804843 9.85299e-09 11816 68.0499 9.84298e-09 1.25822e-07 925.296 6.91355e+09
10.8814 78.6011 0.949838 9.63361e-09 13682 78.3815 9.6067e-09 1.08175e-07 1218.46 8.15905e+09
11.4992 79.0616 1.12095 8.21085e-09 16152 78.9404 8.19826e-09 9.29669e-08 1426.55 9.62892e+09
12.1519 83.9668 1.3229 7.3891e-09 19472 83.8519 7.37899e-09 7.98658e-08 1801.53 1.13636e+10
12.8418 87.1913 1.56122 6.50159e-09 22670 86.9459 6.48328e-09 6.85852e-08 2149.02 1.34108e+10
13.5708 94.0652 1.84248 5.94343e-09 26224 93.9455 5.93586e-09 5.88765e-08 2647.24 1.58268e+10
14.3411 100.173 2.17441 5.36317e-09 31640 100.035 5.35575e-09 5.05241e-08 3358.6 1.8678e+10
15.1552 105.278 2.56613 4.77607e-09 37484 105.071 4.76665e-09 4.33417e-08 4130.58 2.20429e+10
16.0156 114.595 3.02843 4.40515e-09 43856 114.397 4.39751e-09 3.71677e-08 5197.85 2.6014e+10
16.9247 119.708 3.574 3.89922e-09 51362 119.56 3.89441e-09 3.18628e-08 6285.44 3.07005e+10
17.8855 125.384 4.21787 3.46065e-09 61636 125.193 3.45538e-09 2.73063e-08 7811.41 3.62312e+10
18.9008 132.931 4.97773 3.10888e-09 72218 132.578 3.10064e-09 2.33941e-08 9597.14 4.27584e+10
19.9738 140.99 5.87448 2.79401e-09 84586 140.755 2.78935e-09 2.00364e-08 11795.2 5.04614e+10
21.1076 150.573 6.93279 2.52841e-09 100708 150.346 2.52461e-09 1.71555e-08 14842.5 5.95522e+10
22.3058 159.054 8.18175 2.26312e-09 118712 158.777 2.25918e-09 1.46847e-08 18295.3 7.02807e+10
23.5721 167.244 9.65571 2.0164e-09 140410 166.971 2.01311e-09 1.25662e-08 22530.6 8.29419e+10
24.9102 174.751 11.3952 1.78529e-09 164374 174.394 1.78164e-09 1.07504e-08 27297.2 9.78842e+10
26.3243 184.128 13.4481 1.59393e-09 194680 183.841 1.59145e-09 9.19452e-09 33749 1.15518e+11
27.8187 195.291 15.8708 1.4325e-09 230196 195.011 1.43044e-09 7.86182e-09 41943.8 1.36329e+11
29.3979 206.026 18.73 1.28055e-09 271156 205.707 1.27857e-09 6.72061e-09 51666.1 1.60889e+11
31.0667 217.199 22.1042 1.14391e-09 321076 216.811 1.14187e-09 5.74366e-09 63945.7 1.89874e+11
32.8303 228.398 26.0864 1.01927e-09 377436 227.978 1.0174e-09 4.90756e-09 78391.1 2.2408e+11
34.694 239.718 30.7859 9.06481e-10 447594 239.243 9.04687e-10 4.19221e-09 96783.3 2.64449e+11
36.6634 252.235 36.3321 8.08211e-10 525078 251.772 8.0673e-10 3.58032e-09 118529 3.1209e+11
38.7447 265.585 42.8774 7.21083e-10 621924 265.091 7.19743e-10 3.05709e-09 146695 3.68314e+11
40.9442 280.315 50.6018 6.44897e-10 732630 279.775 6.43654e-10 2.60976e-09 181040 4.34667e+11
43.2685 293.645 59.7179 5.72438e-10 865596 293.147 5.71467e-10 2.22743e-09 222454 5.12973e+11
45.7247 308.925 70.4762 5.10293e-10 1.02168e+06 308.453 5.09514e-10 1.90073e-09 274291 6.05386e+11
48.3204 323.354 83.1727 4.52592e-10 1.20544e+06 322.818 4.51842e-10 1.62163e-09 336433 7.14448e+11
51.0634 338.992 98.1565 4.02051e-10 1.42103e+06 338.454 4.01412e-10 1.38326e-09 413030 8.43158e+11
53.9621 355.975 115.84 3.57744e-10 1.67997e+06 355.358 3.57123e-10 1.1797e-09 509449 9.95055e+11
57.0254 374.238 136.709 3.18685e-10 1.98018e+06 373.557 3.18106e-10 1.00592e-09 627341 1.17432e+12
60.2626 392.87 161.337 2.83482e-10 2.33957e+06 392.167 2.82975e-10 8.57591e-10 773358 1.38587e+12
63.6835 413.811 190.402 2.53011e-10 2.75676e+06 413.094 2.52573e-10 7.3101e-10 954150 1.63554e+12
67.2987 435.99 224.704 2.25879e-10 3.25638e+06 435.237 2.25489e-10 6.23009e-10 1.18064e+06 1.93019e+12
71.1191 459.214 265.185 2.01594e-10 3.84387e+06 458.398 2.01236e-10 5.30879e-10 1.45965e+06 2.27792e+12
75.1563 485.925 312.958 1.80756e-10 4.53277e+06 485.066 1.80437e-10 4.52303e-10 1.81145e+06 2.68829e+12
79.4227 513.8 369.339 1.6195e-10 5.35083e+06 512.872 1.61657e-10 3.85299e-10 2.24907e+06 3.17259e+12
83.9313 545.511 435.876 1.45697e-10 6.32174e+06 544.485 1.45423e-10 3.28173e-10 2.80663e+06 3.74415e+12
88.6959 580.747 514.4 1.31431e-10 7.44986e+06 579.616 1.31175e-10 2.79476e-10 3.50348e+06 4.41866e+12
93.7309 620.347 607.071 1.18961e-10 8.79764e+06 619.135 1.18729e-10 2.37972e-10 4.39789e+06 5.2147e+12
99.0518 665.112 716.436 1.08076e-10 1.03827e+07 663.746 1.07854e-10 2.02605e-10 5.53844e+06 6.15414e+12
104.675 717.431 845.504 9.87812e-11 1.22515e+07 715.915 9.85725e-11 1.72471e-10 7.01695e+06 7.26283e+12
110.617 777.482 997.824 9.07082e-11 1.44573e+07 775.734 9.05043e-11 1.468e-10 8.93322e+06 8.57124e+12
116.896 849.651 1177.58 8.3996e-11 1.70664e+07 847.704 8.38036e-11 1.24935e-10 1.14741e+07 1.01154e+13
123.532 933.111 1389.73 7.81651e-11 2.0139e+07 930.875 7.79778e-11 1.06313e-10 1.48069e+07 1.19377e+13
130.545 1031.41 1640.09 7.32104e-11 2.37643e+07 1028.83 7.30275e-11 9.04567e-11 1.92334e+07 1.40883e+13
137.955 1147.7 1935.56 6.90291e-11 2.80503e+07 1144.74 6.88512e-11 7.69563e-11 2.51608e+07 1.66263e+13
145.787 1286.81 2284.26 6.5581e-11 3.30981e+07 1283.37 6.54059e-11 6.54636e-11 3.31575e+07 1.96216e+13
154.063 1451.23 2695.77 6.26704e-11 3.90634e+07 1447.26 6.24992e-11 5.56812e-11 4.39668e+07 2.31565e+13
162.808 1647.71 3181.42 6.02933e-11 4.61057e+07 1643 6.01208e-11 4.73556e-11 5.87019e+07 2.73282e+13
172.051 1881.35 3754.56 5.83337e-11 5.44046e+07 1875.82 5.81622e-11 4.02708e-11 7.8807e+07 3.22515e+13
181.818 2160.41 4430.96 5.67608e-11 6.42064e+07 2153.93 5.65907e-11 3.42426e-11 1.06429e+08 3.80616e+13
192.139 2492.29 5229.21 5.54847e-11 7.57748e+07 2484.68 5.53153e-11 2.91139e-11 1.4441e+08 4.49186e+13
203.046 2889.42 6171.26 5.45063e-11 8.94213e+07 2880.42 5.43364e-11 2.4751e-11 1.96922e+08 5.30108e+13
214.572 3365.54 7283.03 5.37963e-11 1.05538e+08 3354.83 5.36251e-11 2.10401e-11 2.69846e+08 6.25608e+13
226.753 3934.62 8595.09 5.3292e-11 1.24552e+08 3921.87 5.31194e-11 1.78839e-11 3.7115e+08 7.38313e+13
239.625 4617.14 10143.5 5.299e-11 1.46987e+08 4601.88 5.2815e-11 1.51999e-11 5.12428e+08 8.71322e+13
253.228 5439.5 11970.9 5.28983e-11 1.7347e+08 5421.28 5.27211e-11 1.29176e-11 7.10369e+08 1.02829e+14
267.603 6434.38 14127.5 5.30215e-11 2.04703e+08 6412.52 5.28413e-11 1.09771e-11 9.8875e+08 1.21354e+14
282.795 7646.42 16672.6 5.33906e-11 2.4161e+08 7619.93 5.32057e-11 9.3274e-12 1.38299e+09 1.43217e+14
298.848 9133.85 19676.2 5.40409e-11 2.85122e+08 9101.44 5.38491e-11 7.925e-12 1.94426e+09 1.69017e+14
315.813 10980.9 23220.9 5.50514e-11 3.36491e+08 10940.8 5.48504e-11 6.73295e-12 2.75129e+09 1.99466e+14
333.741 13316.8 27404.3 5.65709e-11 3.97115e+08 13266.4 5.63565e-11 5.71979e-12 3.92762e+09 2.35401e+14
352.686 16336 32341.2 5.88029e-11 4.68637e+08 16271.1 5.85693e-11 4.85874e-12 5.67168e+09 2.77809e+14
372.707 20355.2 38167.6 6.20857e-11 5.53074e+08 20269.5 6.18241e-11 4.12703e-12 8.32027e+09 3.27857e+14
393.865 25915.6 45043.5 6.6979e-11 6.52716e+08 25797.9 6.66749e-11 3.50528e-12 1.24721e+10 3.86921e+14
416.224 30596.8 53158.3 6.70063e-11 2.2184e+08 32368.6 7.08865e-11 2.97701e-12 4.99316e+09 4.56626e+14
439.852 0 62734.9 0 0 0 0 2.52819e-12 0 5.38888e+14
464.821 0 74036.7 0 0 0 0 2.1469e-12 0 6.35971e+14
491.207 0 87374.6 0 0 0 0 1.82301e-12 0 7.50542e+14
519.092 0 103115 0 0 0 0 1.54789e-12 0 8.85755e+14
548.56 0 121692 0 0 0 0 1.31422e-12 0 1.04533e+15
579.7 0 143615 0 0 0 0 1.11576e-12 0 1.23364e+15
612.608 0 169488 0 0 0 0 9.47223e-13 0 1.45589e+15
647.384 0 200021 0 0 0 0 8.041e-13 0 1.71817e+15
684.134 0 236056 0 0 0 0 6.82568e-13 0 2.0277e+15
722.971 0 278582 0 0 0 0 5.79376e-13 0 2.393e+15
764.012 0 328769 0 0 0 0 4.91762e-13 0 2.8241e+15
0.852164
200
1.0655e+09
8589934592
0.0129181 0.00161198 1.58924e-09 0.000118081 6 0.00159722 0.000117 0.00677225 0.104616 13.6515
0.0136515 0 1.87554e-09 0 0 0 0 0.00688819 0 16.1108
0.0144264 0 2.21343e-09 0 0 0 0 0.00699249 0 19.0132
0.0152454 0 2.61218e-09 0 0 0 0 0.00708412 0 22.4385
0.0161108 0 3.08278e-09 0 0 0 0 0.00716212 0 26.4808
0.0170254 0 3.63815e-09 0 0 0 0 0.00722559 0 31.2514
0.0179919 0.00359435 4.29357e-09 9.74567e-05 12 0.00358972 9.73312e-05 0.00727371 0.160782 36.8815
0.0190132 0 5.06707e-09 0 0 0 0 0.00730578 0 43.5258
0.0200925 0 5.97991e-09 0 0 0 0 0.00732122 0 51.367
0.0212331 0.00340591 7.05721e-09 5.61837e-05 8 0.00340295 5.61349e-05 0.00731958 0.0614065 60.621
0.0224385 0 8.32858e-09 0 0 0 0 0.00730056 0 71.542
0.0237123 0 9.829e-09 0 0 0 0 0.00726401 0 84.4305
0.0250583 0.0214962 1.15997e-08 0.000215737 6 0.0214861 0.000215635 0.00720995 0.179533 99.6408
0.0264808 0 1.36894e-08 0 0 0 0 0.00713857 0 117.591
0.0279841 0.0132416 1.61556e-08 9.54175e-05 24 0.013228 9.53195e-05 0.00705021 0.324816 138.776
0.0295727 0 1.90661e-08 0 0 0 0 0.00694538 0 163.777
0.0312514 0.0235188 2.25009e-08 0.000121682 24 0.0236382 0.0001223 0.00682475 0.427908 193.281
0.0330255 0 2.65545e-08 0 0 0 0 0.00668915 0 228.102
0.0349003 0.0356212 3.13384e-08 0.000132325 12 0.0353359 0.000131265 0.00653951 0.242816 269.195
0.0368815 0.0285895 3.69841e-08 8.99915e-05 30 0.028285 8.90332e-05 0.00637693 0.423361 317.691
0.0389751 0.0324271 4.36469e-08 8.649e-05 24 0.0320936 8.56002e-05 0.00620256 0.334662 374.924
0.0411876 0.0208056 5.151e-08 4.70218e-05 24 0.0206643 4.67024e-05 0.00601767 0.187535 442.467
0.0435258 0.0513785 6.07896e-08 9.83926e-05 8 0.0513746 9.8385e-05 0.00582358 0.135164 522.179
0.0459966 0.0630478 7.1741e-08 0.000102309 72 0.0625506 0.000101502 0.00562166 1.31033 616.251
0.0486077 0 8.46654e-08 0 0 0 0 0.0054133 0 727.27
0.051367 0.0867536 9.99181e-08 0.000101077 54 0.0864664 0.000100743 0.00519989 1.04967 858.29
0.054283 0.0700117 1.17919e-07 6.91191e-05 60 0.0703289 6.94323e-05 0.0049828 0.832292 1012.91
0.0573645 0.0655617 1.39162e-07 5.48454e-05 96 0.0653937 5.47048e-05 0.00476339 1.10534 1195.39
0.060621 0.0778596 1.64232e-07 5.51904e-05 24 0.0768047 5.44427e-05 0.00454293 0.291568 1410.75
0.0640622 0.133931 1.93819e-07 8.04439e-05 134 0.133992 8.04807e-05 0.00432265 2.49372 1664.89
0.0676989 0.131035 2.28736e-07 6.66901e-05 120 0.130396 6.63648e-05 0.00410371 1.95014 1964.83
0.071542 0.123326 2.69944e-07 5.31851e-05 108 0.121963 5.25975e-05 0.00388717 1.47768 2318.8
0.0756032 0.182572 3.18575e-07 6.67166e-05 174 0.18156 6.63465e-05 0.00367401 3.15968 2736.54
0.079895 0.191107 3.75967e-07 5.91749e-05 168 0.189311 5.86188e-05 0.0034651 2.86901 3229.53
0.0844305 0.159431 4.43698e-07 4.18307e-05 168 0.160222 4.20381e-05 0.00326121 2.1549 3811.34
0.0892234 0.190411 5.23632e-07 4.23327e-05 290 0.18952 4.21347e-05 0.00306301 4.00797 4497.96
0.0942883 0.23055 6.17966e-07 4.34322e-05 288 0.230051 4.33382e-05 0.00287109 4.3567 5308.28
0.0996408 0.206397 7.29294e-07 3.29466e-05 366 0.204809 3.26931e-05 0.00268591 4.48953 6264.59
0.105297 0.24208 8.60678e-07 3.27438e-05 420 0.240355 3.25104e-05 0.00250785 5.48373 7393.17
0.111275 0.259011 1.01573e-06 2.96858e-05 398 0.258278 2.96019e-05 0.00233721 5.05515 8725.07
0.117591 0.308006 1.19872e-06 2.99125e-05 624 0.308852 2.99946e-05 0.00217419 8.58497 10296.9
0.124267 0.357418 1.41467e-06 2.94125e-05 642 0.35662 2.93468e-05 0.00201893 9.35289 12151.9
0.131321 0.423236 1.66953e-06 2.9512e-05 800 0.423343 2.95195e-05 0.00187147 12.6156 14341.1
0.138776 0.390034 1.9703e-06 2.30452e-05 858 0.391702 2.31438e-05 0.00173182 11.4174 16924.7
0.146654 0.452922 2.32525e-06 2.26758e-05 1080 0.456692 2.28646e-05 0.00159991 15.3071 19973.8
0.154979 0.528316 2.74415e-06 2.24128e-05 1286 0.531657 2.25545e-05 0.00147563 19.5325 23572.1
0.163777 0.516021 3.23852e-06 1.85494e-05 1650 0.517477 1.86018e-05 0.00135884 22.5241 27818.7
0.173074 0.577485 3.82195e-06 1.759e-05 1778 0.577908 1.76029e-05 0.00124933 25.0334 32830.3
0.182899 0.617876 4.51048e-06 1.59474e-05 2112 0.619323 1.59847e-05 0.00114689 29.3671 38744.7
0.193281 0.684115 5.32305e-06 1.49616e-05 2570 0.684664 1.49736e-05 0.00105127 36.576 45724.7
0.204254 0.801958 6.28202e-06 1.48615e-05 3030 0.80144 1.48519e-05 0.000962209 46.7989 53962.1
0.215848 0.83293 7.41374e-06 1.30792e-05 3434 0.832597 1.3074e-05 0.000879423 51.0721 63683.5
0.228102 0.883752 8.74934e-06 1.17589e-05 4218 0.883261 1.17523e-05 0.000802624 61.7959 75156.3
0.24105 0.984596 1.03256e-05 1.11008e-05 4766 0.985189 1.11075e-05 0.000731515 72.3245 88695.9
0.254734 1.07399 1.21857e-05 1.02603e-05 6026 1.07397 1.026e-05 0.000665798 92.8636 104675
0.269195 1.22095 1.4381e-05 9.88369e-06 6480 1.21986 9.87483e-06 0.000605173 105.831 123532
0.284476 1.31821 1.69718e-05 9.04202e-06 8162 1.32061 9.05847e-06 0.000549345 134.344 145787
0.300625 1.45217 2.00293e-05 8.44034e-06 9578 1.45282 8.44415e-06 0.000498021 162.326 172051
0.317691 1.60679 2.36377e-05 7.91342e-06 11234 1.60529 7.90603e-06 0.000450916 197.153 203046
0.335725 1.7318 2.78961e-05 7.22711e-06 13344 1.72858 7.21369e-06 0.000407755 236.511 239625
0.354784 1.94488 3.29216e-05 6.87737e-06 15464 1.9436 6.87285e-06 0.000368269 288.788 282795
0.374924 2.09487 3.88525e-05 6.27695e-06 18458 2.09295 6.27119e-06 0.000332202 348.764 333741
0.396207 2.4217 4.58519e-05 6.14857e-06 22232 2.41799 6.13913e-06 0.000299307 456.705 393865
0.418699 2.60014 5.41123e-05 5.59384e-06 25628 2.59384 5.5803e-06 0.00026935 532.241 464821
0.442467 2.83627 6.38607e-05 5.1704e-06 30320 2.83142 5.16156e-06 0.000242108 647.507 548560
0.467585 3.21131 7.53654e-05 4.96044e-06 35452 3.20551 4.95149e-06 0.00021737 809.023 647384
0.494129 3.54779 8.89427e-05 4.64364e-06 41792 3.54382 4.63844e-06 0.000194938 995.53 764012
0.522179 3.99232 0.000104966 4.42779e-06 49988 3.99185 4.42727e-06 0.000174625 1267.5 901651
0.551822 4.44266 0.000123876 4.1751e-06 59110 4.43663 4.16943e-06 0.000156255 1579.41 1.06409e+06
0.583147 4.93509 0.000146192 3.92989e-06 69716 4.92694 3.9234e-06 0.000139664 1961.68 1.25578e+06
0.616251 5.49994 0.000172529 3.71112e-06 82210 5.4891 3.70381e-06 0.0001247 2446.6 1.48202e+06
0.651234 6.08261 0.000203611 3.47775e-06 96722 6.06878 3.46985e-06 0.00011122 3024.4 1.74901e+06
0.688203 6.89726 0.000240292 3.34154e-06 113098 6.88618 3.33618e-06 9.90935e-05 3813.79 2.06409e+06
0.72727 7.69386 0.000283581 3.15847e-06 135190 7.68267 3.15387e-06 8.81969e-05 4841.37 2.43595e+06
0.768555 8.60072 0.000334669 2.99178e-06 158170 8.58801 2.98736e-06 7.84179e-05 6034.45 2.87479e+06
0.812184 9.62318 0.000394961 2.83645e-06 188560 9.60669 2.83159e-06 6.96525e-05 7678.69 3.39269e+06
0.85829 10.7528 0.000466114 2.68559e-06 220444 10.7351 2.68116e-06 6.1805e-05 9578.86 4.00389e+06
0.907013 12.028 0.000550086 2.54549e-06 261388 12.0073 2.54112e-06 5.47875e-05 12144.4 4.7252e+06
0.958501 13.4568 0.000649185 2.41314e-06 308244 13.4366 2.40953e-06 4.85194e-05 15330.7 5.57646e+06
1.01291 15.1105 0.000766138 2.29605e-06 364396 15.0849 2.29217e-06 4.29272e-05 19490.5 6.58107e+06
1.07041 16.7903 0.00090416 2.16184e-06 429162 16.7591 2.15783e-06 3.79435e-05 24451.6 7.76667e+06
1.13118 18.738 0.00106705 2.04432e-06 506358 18.7062 2.04086e-06 3.3507e-05 30893.8 9.16586e+06
1.19539 20.9686 0.00125928 1.93847e-06 598590 20.9297 1.93487e-06 2.9562e-05 39251.3 1.08171e+07
1.26325 23.3181 0.00148614 1.8266e-06 704844 23.2749 1.82321e-06 2.60578e-05 49408.1 1.27658e+07
1.33496 25.9328 0.00175387 1.72132e-06 834620 25.881 1.71788e-06 2.29484e-05 62603.3 1.50656e+07
1.41075 28.7617 0.00206984 1.61767e-06 981444 28.7063 1.61455e-06 2.01923e-05 78626.5 1.77798e+07
1.49083 31.8303 0.00244272 1.51697e-06 1.15998e+06 31.7725 1.51421e-06 1.77518e-05 99125.3 2.09828e+07
1.57546 35.2456 0.00288279 1.42332e-06 1.36931e+06 35.1811 1.42071e-06 1.55929e-05 124991 2.4763e+07
1.66489 38.972 0.00340213 1.33356e-06 1.61652e+06 38.899 1.33106e-06 1.3685e-05 157524 2.92241e+07
1.75941 43.0024 0.00401503 1.24685e-06 1.90601e+06 42.9235 1.24456e-06 1.20007e-05 198031 3.44889e+07
1.85928 47.2183 0.00473835 1.16009e-06 2.24913e+06 47.1289 1.1579e-06 1.05151e-05 248138 4.07021e+07
1.96483 51.7462 0.00559198 1.07727e-06 2.65744e+06 51.6462 1.07519e-06 9.20606e-06 310966 4.80347e+07
2.07637 56.6264 0.00659939 9.98907e-07 3.13125e+06 56.5208 9.97045e-07 8.05366e-06 388374 5.66883e+07
2.19424 61.8164 0.00778828 9.24e-07 3.69915e+06 61.7028 9.22303e-07 7.04008e-06 485508 6.69008e+07
2.3188 67.2183 0.00919136 8.51369e-07 4.36472e+06 67.1001 8.49872e-07 6.1494e-06 604285 7.89532e+07
2.45043 73.2513 0.0108472 7.86153e-07 5.14913e+06 73.1252 7.848e-07 5.36741e-06 754182 9.31768e+07
2.58954 79.3709 0.0128014 7.21797e-07 6.07894e+06 79.2301 7.20517e-07 4.68145e-06 937264 1.09963e+08
2.73654 86.0501 0.0151076 6.63081e-07 7.17304e+06 85.9 6.61925e-07 4.08023e-06 1.1657e+06 1.29773e+08
2.89188 93.1853 0.0178292 6.0845e-07 8.46557e+06 93.0264 6.07412e-07 3.55373e-06 1.44943e+06 1.53152e+08
3.05605 100.519 0.0210412 5.56143e-07 9.98773e+06 100.35 5.55208e-07 3.09304e-06 1.79584e+06 1.80743e+08
3.22953 108.427 0.0248319 5.0832e-07 1.1797e+07 108.245 5.07469e-07 2.69025e-06 2.22903e+06 2.13304e+08
3.41286 116.574 0.0293054 4.63088e-07 1.39144e+07 116.373 4.6229e-07 2.33837e-06 2.75559e+06 2.51731e+08
3.6066 125.222 0.0345848 4.21506e-07 1.64163e+07 125.012 4.20799e-07 2.0312e-06 3.40663e+06 2.97081e+08
3.81134 134.43 0.0408154 3.83426e-07 1.93821e+07 134.204 3.82783e-07 1.76327e-06 4.21469e+06 3.50601e+08
4.0277 144.086 0.0481684 3.48233e-07 2.28754e+07 143.845 3.4765e-07 1.52972e-06 5.20747e+06 4.13763e+08
4.25634 154.286 0.056846 3.15963e-07 2.69929e+07 154.025 3.15429e-07 1.32631e-06 6.43045e+06 4.88304e+08
4.49796 164.946 0.067087 2.86229e-07 3.18542e+07 164.668 2.85747e-07 1.14926e-06 7.93348e+06 5.76273e+08
4.7533 176.086 0.0791729 2.58916e-07 3.75892e+07 175.793 2.58485e-07 9.95263e-07 9.77876e+06 6.8009e+08
5.02313 187.845 0.0934361 2.34042e-07 4.43706e+07 187.535 2.33656e-07 8.61414e-07 1.20553e+07 8.0261e+08
5.30828 200.248 0.110269 2.1141e-07 5.23593e+07 199.916 2.1106e-07 7.45152e-07 1.48551e+07 9.47202e+08
5.60962 213.132 0.130134 1.90663e-07 6.1787e+07 212.776 1.90345e-07 6.44232e-07 1.82861e+07 1.11784e+09
5.92807 226.807 0.153578 1.71924e-07 7.29346e+07 226.43 1.71639e-07 5.56685e-07 2.25248e+07 1.31923e+09
6.26459 240.954 0.181246 1.54767e-07 8.60651e+07 240.551 1.54507e-07 4.80786e-07 2.77046e+07 1.55689e+09
6.62021 255.765 0.213898 1.39202e-07 1.01558e+08 255.339 1.3897e-07 4.15026e-07 3.40632e+07 1.83737e+09
6.99602 271.426 0.252432 1.25175e-07 1.1986e+08 270.975 1.24967e-07 3.58083e-07 4.18994e+07 2.16837e+09
7.39317 287.816 0.297908 1.12472e-07 1.41457e+08 287.343 1.12287e-07 3.08803e-07 5.1521e+07 2.55901e+09
7.81286 304.868 0.351577 1.00949e-07 1.66936e+08 304.364 1.00782e-07 2.66181e-07 6.33103e+07 3.02002e+09
8.25637 322.896 0.414914 9.0597e-08 1.97025e+08 322.362 9.04474e-08 2.29336e-07 7.78329e+07 3.56409e+09
8.72507 341.955 0.489662 8.12985e-08 2.32497e+08 341.386 8.11632e-08 1.97503e-07 9.57031e+07 4.20617e+09
9.22037 362.201 0.577876 7.29667e-08 2.74404e+08 361.591 7.28439e-08 1.70014e-07 1.17769e+08 4.96392e+09
9.74378 384.454 0.681982 6.56269e-08 3.2382e+08 383.794 6.55141e-08 1.46289e-07 1.45269e+08 5.85818e+09
10.2969 409.092 0.804843 5.91724e-08 3.82165e+08 408.363 5.90671e-08 1.25822e-07 1.79726e+08 6.91355e+09
10.8814 438.365 0.949838 5.37275e-08 4.51027e+08 437.528 5.36249e-08 1.08175e-07 2.24011e+08 8.15905e+09
11.4992 475.926 1.12095 4.94268e-08 5.32251e+08 474.919 4.93221e-08 9.29669e-08 2.82977e+08 9.62892e+09
12.1519 528.508 1.3229 4.65089e-08 6.28157e+08 527.187 4.63926e-08 7.98658e-08 3.658e+08 1.13636e+10
12.8418 587.692 1.56122 4.38224e-08 3.82727e+08 608.284 4.53578e-08 6.85852e-08 2.44542e+08 1.34108e+10
13.5708 0 1.84248 0 0 0 0 5.88765e-08 0 1.58268e+10
14.3411 0 2.17441 0 0 0 0 5.05241e-08 0 1.8678e+10
15.1552 0 2.56613 0 0 0 0 4.33417e-08 0 2.20429e+10
16.0156 0 3.02843 0 0 0 0 3.71677e-08 0 2.6014e+10
16.9247 0 3.574 0 0 0 0 3.18628e-08 0 3.07005e+10
17.8855 0 4.21787 0 0 0 0 2.73063e-08 0 3.62312e+10
18.9008 0 4.97773 0 0 0 0 2.33941e-08 0 4.27584e+10
19.9738 0 5.87448 0 0 0 0 2.00364e-08 0 5.04614e+10
21.1076 0 6.93279 0 0 0 0 1.71555e-08 0 5.95522e+10
22.3058 0 8.18175 0 0 0 0 1.46847e-08 0 7.02807e+10
23.5721 0 9.65571 0 0 0 0 1.25662e-08 0 8.29419e+10
24.9102 0 11.3952 0 0 0 0 1.07504e-08 0 9.78842e+10
26.3243 0 13.4481 0 0 0 0 9.19452e-09 0 1.15518e+11
27.8187 0 15.8708 0 0 0 0 7.86182e-09 0 1.36329e+11
29.3979 0 18.73 0 0 0 0 6.72061e-09 0 1.60889e+11
31.0667 0 22.1042 0 0 0 0 5.74366e-09 0 1.89874e+11
32.8303 0 26.0864 0 0 0 0 4.90756e-09 0 2.2408e+11
34.694 0 30.7859 0 0 0 0 4.19221e-09 0 2.64449e+11
36.6634 0 36.3321 0 0 0 0 3.58032e-09 0 3.1209e+11
38.7447 0 42.8774 0 0 0 0 3.05709e-09 0 3.68314e+11
40.9442 0 50.6018 0 0 0 0 2.60976e-09 0 4.34667e+11
43.2685 0 59.7179 0 0 0 0 2.22743e-09 0 5.12973e+11
45.7247 0 70.4762 0 0 0 0 1.90073e-09 0 6.05386e+11
48.3204 0 83.1727 0 0 0 0 1.62163e-09 0 7.14448e+11
51.0634 0 98.1565 0 0 0 0 1.38326e-09 0 8.43158e+11
53.9621 0 115.84 0 0 0 0 1.1797e-09 0 9.95055e+11
57.0254 0 136.709 0 0 0 0 1.00592e-09 0 1.17432e+12
60.2626 0 161.337 0 0 0 0 8.57591e-10 0 1.38587e+12
63.6835 0 190.402 0 0 0 0 7.3101e-10 0 1.63554e+12
67.2987 0 224.704 0 0 0 0 6.23009e-10 0 1.93019e+12
71.1191 0 265.185 0 0 0 0 5.30879e-10 0 2.27792e+12
75.1563 0 312.958 0 0 0 0 4.52303e-10 0 2.68829e+12
79.4227 0 369.339 0 0 0 0 3.85299e-10 0 3.17259e+12
83.9313 0 435.876 0 0 0 0 3.28173e-10 0 3.74415e+12
88.6959 0 514.4 0 0 0 0 2.79476e-10 0 4.41866e+12
93.7309 0 607.071 0 0 0 0 2.37972e-10 0 5.2147e+12
99.0518 0 716.436 0 0 0 0 2.02605e-10 0 6.15414e+12
104.675 0 845.504 0 0 0 0 1.72471e-10 0 7.26283e+12
110.617 0 997.824 0 0 0 0 1.468e-10 0 8.57124e+12
116.896 0 1177.58 0 0 0 0 1.24935e-10 0 1.01154e+13
123.532 0 1389.73 0 0 0 0 1.06313e-10 0 1.19377e+13
130.545 0 1640.09 0 0 0 0 9.04567e-11 0 1.40883e+13
137.955 0 1935.56 0 0 0 0 7.69563e-11 0 1.66263e+13
145.787 0 2284.26 0 0 0 0 6.54636e-11 0 1.96216e+13
154.063 0 2695.77 0 0 0 0 5.56812e-11 0 2.31565e+13
162.808 0 3181.42 0 0 0 0 4.73556e-11 0 2.73282e+13
172.051 0 3754.56 0 0 0 0 4.02708e-11 0 3.22515e+13
181.818 0 4430.96 0 0 0 0 3.42426e-11 0 3.80616e+13
192.139 0 5229.21 0 0 0 0 2.91139e-11 0 4.49186e+13
203.046 0 6171.26 0 0 0 0 2.4751e-11 0 5.30108e+13
214.572 0 7283.03 0 0 0 0 2.10401e-11 0 6.25608e+13
226.753 0 8595.09 0 0 0 0 1.78839e-11 0 7.38313e+13
239.625 0 10143.5 0 0 0 0 1.51999e-11 0 8.71322e+13
253.228 0 11970.9 0 0 0 0 1.29176e-11 0 1.02829e+14
267.603 0 14127.5 0 0 0 0 1.09771e-11 0 1.21354e+14
282.795 0 16672.6 0 0 0 0 9.3274e-12 0 1.43217e+14
298.848 0 19676.2 0 0 0 0 7.925e-12 0 1.69017e+14
315.813 0 23220.9 0 0 0 0 6.73295e-12 0 1.99466e+14
333.741 0 27404.3 0 0 0 0 5.71979e-12 0 2.35401e+14
352.686 0 32341.2 0 0 0 0 4.85874e-12 0 2.77809e+14
372.707 0 38167.6 0 0 0 0 4.12703e-12 0 3.27857e+14
393.865 0 45043.5 0 0 0 0 3.50528e-12 0 3.86921e+14
416.224 0 53158.3 0 0 0 0 2.97701e-12 0 4.56626e+14
439.852 0 62734.9 0 0 0 0 2.52819e-12 0 5.38888e+14
464.821 0 74036.7 0 0 0 0 2.1469e-12 0 6.35971e+14
491.207 0 87374.6 0 0 0 0 1.82301e-12 0 7.50542e+14
519.092 0 103115 0 0 0 0 1.54789e-12 0 8.85755e+14
548.56 0 121692 0 0 0 0 1.31422e-12 0 1.04533e+15
579.7 0 143615 0 0 0 0 1.11576e-12 0 1.23364e+15
612.608 0 169488 0 0 0 0 9.47223e-13 0 1.45589e+15
647.384 0 200021 0 0 0 0 8.041e-13 0 1.71817e+15
684.134 0 236056 0 0 0 0 6.82568e-13 0 2.0277e+15
722.971 0 278582 0 0 0 0 5.79376e-13 0 2.393e+15
764.012 0 328769 0 0 0 0 4.91762e-13 0 2.8241e+15
