0.502631
200
1.0655e+09
8589934592
0.0129181 0 1.58924e-09 0 0 0 0 0.00677225 0 13.6515
0.0136515 0 1.87554e-09 0 0 0 0 0.00688819 0 16.1108
0.0144264 0 2.21343e-09 0 0 0 0 0.00699249 0 19.0132
0.0152454 0 2.61218e-09 0 0 0 0 0.00708412 0 22.4385
0.0161108 0 3.08278e-09 0 0 0 0 0.00716212 0 26.4808
0.0170254 0 3.63815e-09 0 0 0 0 0.00722559 0 31.2514
0.0179919 0 4.29357e-09 0 0 0 0 0.00727371 0 36.8815
0.0190132 0 5.06707e-09 0 0 0 0 0.00730578 0 43.5258
0.0200925 0 5.97991e-09 0 0 0 0 0.00732122 0 51.367
0.0212331 0 7.05721e-09 0 0 0 0 0.00731958 0 60.621
0.0224385 0 8.32858e-09 0 0 0 0 0.00730056 0 71.542
0.0237123 0 9.829e-09 0 0 0 0 0.00726401 0 84.4305
0.0250583 0 1.15997e-08 0 0 0 0 0.00720995 0 99.6408
0.0264808 0 1.36894e-08 0 0 0 0 0.00713857 0 117.591
0.0279841 0 1.61556e-08 0 0 0 0 0.00705021 0 138.776
0.0295727 0 1.90661e-08 0 0 0 0 0.00694538 0 163.777
0.0312514 0 2.25009e-08 0 0 0 0 0.00682475 0 193.281
0.0330255 0 2.65545e-08 0 0 0 0 0.00668915 0 228.102
0.0349003 0 3.13384e-08 0 0 0 0 0.00653951 0 269.195
0.0368815 0 3.69841e-08 0 0 0 0 0.00637693 0 317.691
0.0389751 0 4.36469e-08 0 0 0 0 0.00620256 0 374.924
0.0411876 0 5.151e-08 0 0 0 0 0.00601767 0 442.467
0.0435258 0 6.07896e-08 0 0 0 0 0.00582358 0 522.179
0.0459966 0 7.1741e-08 0 0 0 0 0.00562166 0 616.251
0.0486077 0 8.46654e-08 0 0 0 0 0.0054133 0 727.27
0.051367 0 9.99181e-08 0 0 0 0 0.00519989 0 858.29
0.054283 0 1.17919e-07 0 0 0 0 0.0049828 0 1012.91
0.0573645 0 1.39162e-07 0 0 0 0 0.00476339 0 1195.39
0.060621 0 1.64232e-07 0 0 0 0 0.00454293 0 1410.75
0.0640622 0 1.93819e-07 0 0 0 0 0.00432265 0 1664.89
0.0676989 0 2.28736e-07 0 0 0 0 0.00410371 0 1964.83
0.071542 0 2.69944e-07 0 0 0 0 0.00388717 0 2318.8
0.0756032 0 3.18575e-07 0 0 0 0 0.00367401 0 2736.54
0.079895 0 3.75967e-07 0 0 0 0 0.0034651 0 3229.53
0.0844305 0 4.43698e-07 0 0 0 0 0.00326121 0 3811.34
0.0892234 0 5.23632e-07 0 0 0 0 0.00306301 0 4497.96
0.0942883 0 6.17966e-07 0 0 0 0 0.00287109 0 5308.28
0.0996408 0 7.29294e-07 0 0 0 0 0.00268591 0 6264.59
0.105297 0 8.60678e-07 0 0 0 0 0.00250785 0 7393.17
0.111275 0 1.01573e-06 0 0 0 0 0.00233721 0 8725.07
0.117591 0 1.19872e-06 0 0 0 0 0.00217419 0 10296.9
0.124267 0 1.41467e-06 0 0 0 0 0.00201893 0 12151.9
0.131321 0 1.66953e-06 0 0 0 0 0.00187147 0 14341.1
0.138776 0 1.9703e-06 0 0 0 0 0.00173182 0 16924.7
0.146654 0 2.32525e-06 0 0 0 0 0.00159991 0 19973.8
0.154979 0 2.74415e-06 0 0 0 0 0.00147563 0 23572.1
0.163777 0 3.23852e-06 0 0 0 0 0.00135884 0 27818.7
0.173074 0 3.82195e-06 0 0 0 0 0.00124933 0 32830.3
0.182899 0 4.51048e-06 0 0 0 0 0.00114689 0 38744.7
0.193281 0 5.32305e-06 0 0 0 0 0.00105127 0 45724.7
0.204254 0 6.28202e-06 0 0 0 0 0.000962209 0 53962.1
0.215848 0 7.41374e-06 0 0 0 0 0.000879423 0 63683.5
0.228102 0 8.74934e-06 0 0 0 0 0.000802624 0 75156.3
0.24105 0 1.03256e-05 0 0 0 0 0.000731515 0 88695.9
0.254734 0 1.21857e-05 0 0 0 0 0.000665798 0 104675
0.269195 0 1.4381e-05 0 0 0 0 0.000605173 0 123532
0.284476 0 1.69718e-05 0 0 0 0 0.000549345 0 145787
0.300625 0 2.00293e-05 0 0 0 0 0.000498021 0 172051
0.317691 0 2.36377e-05 0 0 0 0 0.000450916 0 203046
0.335725 0 2.78961e-05 0 0 0 0 0.000407755 0 239625
0.354784 0 3.29216e-05 0 0 0 0 0.000368269 0 282795
0.374924 0 3.88525e-05 0 0 0 0 0.000332202 0 333741
0.396207 2.14395 4.58519e-05 5.44336e-06 6 2.08435 5.29203e-06 0.000299307 0.109119 393865
0.418699 0 5.41123e-05 0 0 0 0 0.00026935 0 464821
0.442467 0 6.38607e-05 0 0 0 0 0.000242108 0 548560
0.467585 0 7.53654e-05 0 0 0 0 0.00021737 0 647384
0.494129 0 8.89427e-05 0 0 0 0 0.000194938 0 764012
0.522179 0 0.000104966 0 0 0 0 0.000174625 0 901651
0.551822 0 0.000123876 0 0 0 0 0.000156255 0 1.06409e+06
0.583147 5.77979 0.000146192 4.60254e-06 12 6.08326 4.84419e-06 0.000139664 0.395452 1.25578e+06
0.616251 0 0.000172529 0 0 0 0 0.0001247 0 1.48202e+06
0.651234 0 0.000203611 0 0 0 0 0.00011122 0 1.74901e+06
0.688203 19.8032 0.000240292 9.59416e-06 8 19.3106 9.35547e-06 9.90935e-05 0.774554 2.06409e+06
0.72727 0 0.000283581 0 0 0 0 8.81969e-05 0 2.43595e+06
0.768555 0 0.000334669 0 0 0 0 7.84179e-05 0 2.87479e+06
0.812184 3.21925 0.000394961 9.48878e-07 6 3.28808 9.69165e-07 6.96525e-05 0.0817381 3.39269e+06
0.85829 0 0.000466114 0 0 0 0 6.1805e-05 0 4.00389e+06
0.907013 0.866159 0.000550086 1.83306e-07 24 0.882779 1.86823e-07 5.47875e-05 0.0802985 4.7252e+06
0.958501 3.80201 0.000649185 6.81797e-07 24 3.57931 6.41861e-07 4.85194e-05 0.337249 5.57646e+06
1.01291 0 0.000766138 0 0 0 0 4.29272e-05 0 6.58107e+06
1.07041 0 0.00090416 0 0 0 0 3.79435e-05 0 7.76667e+06
1.13118 3.28525 0.00106705 3.58422e-07 12 3.24489 3.54019e-07 3.3507e-05 0.128363 9.16586e+06
1.19539 1.64248 0.00125928 1.51841e-07 30 1.60862 1.48711e-07 2.9562e-05 0.154091 1.08171e+07
1.26325 9.12051 0.00148614 7.14446e-07 24 8.98327 7.03696e-07 2.60578e-05 0.658025 1.27658e+07
1.33496 16.8339 0.00175387 1.11737e-06 24 16.8709 1.11982e-06 2.29484e-05 1.16857 1.50656e+07
1.41075 13.8741 0.00206984 7.80333e-07 32 14.1509 7.95898e-07 2.01923e-05 1.23664 1.77798e+07
1.49083 3.05566 0.00244272 1.45627e-07 48 2.99052 1.42522e-07 1.77518e-05 0.393769 2.09828e+07
1.57546 7.86721 0.00288279 3.17701e-07 6 7.49135 3.02523e-07 1.55929e-05 0.122249 2.4763e+07
1.66489 3.7297 0.00340213 1.27624e-07 84 3.63048 1.24229e-07 1.3685e-05 0.78337 2.92241e+07
1.75941 6.92909 0.00401503 2.00908e-07 48 6.90654 2.00254e-07 1.20007e-05 0.803586 3.44889e+07
1.85928 3.96041 0.00473835 9.73022e-08 72 3.98655 9.79445e-08 1.05151e-05 0.666257 4.07021e+07
1.96483 7.81143 0.00559198 1.6262e-07 54 7.63549 1.58958e-07 9.20606e-06 0.953883 4.80347e+07
2.07637 11.6498 0.00659939 2.05507e-07 104 11.6995 2.06382e-07 8.05366e-06 2.65379 5.66883e+07
2.19424 5.76023 0.00778828 8.6101e-08 120 5.83084 8.71564e-08 7.04008e-06 1.46761 6.69008e+07
2.3188 6.1566 0.00919136 7.79779e-08 156 5.99064 7.58759e-08 6.1494e-06 1.97817 7.89532e+07
2.45043 7.5089 0.0108472 8.05876e-08 126 7.47078 8.01785e-08 5.36741e-06 1.89179 9.31768e+07
2.58954 7.64982 0.0128014 6.95673e-08 192 7.72752 7.02739e-08 4.68145e-06 2.85316 1.09963e+08
2.73654 20.0968 0.0151076 1.54861e-07 152 20.5269 1.58176e-07 4.08023e-06 5.769 1.29773e+08
2.89188 9.15387 0.0178292 5.97699e-08 378 9.22877 6.02589e-08 3.55373e-06 6.35754 1.53152e+08
3.05605 8.86964 0.0210412 4.90733e-08 264 8.6842 4.80473e-08 3.09304e-06 4.18855 1.80743e+08
3.22953 9.27052 0.0248319 4.34615e-08 366 9.20216 4.31411e-08 2.69025e-06 5.9128 2.13304e+08
3.41286 9.6624 0.0293054 3.83838e-08 428 9.53324 3.78707e-08 2.33837e-06 7.0255 2.51731e+08
3.6066 12.678 0.0345848 4.26751e-08 486 12.4358 4.186e-08 2.0312e-06 10.2108 2.97081e+08
3.81134 12.4813 0.0408154 3.55998e-08 600 12.4448 3.54957e-08 1.76327e-06 12.1138 3.50601e+08
4.0277 13.1617 0.0481684 3.18098e-08 738 13.0347 3.15027e-08 1.52972e-06 15.3463 4.13763e+08
4.25634 14.9954 0.056846 3.07091e-08 824 14.9504 3.06169e-08 1.32631e-06 19.0788 4.88304e+08
4.49796 17.572 0.067087 3.04925e-08 954 17.4392 3.02621e-08 1.14926e-06 25.3119 5.76273e+08
4.7533 16.8526 0.0791729 2.478e-08 1094 16.7486 2.4627e-08 9.95263e-07 27.2384 6.8009e+08
5.02313 18.4065 0.0934361 2.29333e-08 1332 18.4353 2.29692e-08 8.61414e-07 35.4617 8.0261e+08
5.30828 21.8861 0.110269 2.3106e-08 1614 21.9125 2.31339e-08 7.45152e-07 50.0477 9.47202e+08
5.60962 22.5433 0.130134 2.01667e-08 1850 22.4616 2.00937e-08 6.44232e-07 57.9115 1.11784e+09
5.92807 21.0379 0.153578 1.59472e-08 2238 21.0161 1.59306e-08 5.56685e-07 64.1111 1.31923e+09
6.26459 22.6392 0.181246 1.45413e-08 2546 22.7494 1.46121e-08 4.80786e-07 77.0034 1.55689e+09
6.62021 23.7091 0.213898 1.29039e-08 3264 23.6933 1.28953e-08 4.15026e-07 101.483 1.83737e+09
6.99602 26.2679 0.252432 1.21141e-08 3506 26.3068 1.21321e-08 3.58083e-07 118.61 2.16837e+09
7.39317 29.3289 0.297908 1.14611e-08 4506 29.3577 1.14723e-08 3.08803e-07 167.237 2.55901e+09
7.81286 30.814 0.351577 1.02032e-08 5018 30.7792 1.01917e-08 2.66181e-07 192.349 3.02002e+09
8.25637 31.7299 0.414914 8.90267e-09 5852 31.6674 8.88514e-09 2.29336e-07 227.171 3.56409e+09
8.72507 33.8497 0.489662 8.04764e-09 7362 33.7984 8.03544e-09 1.97503e-07 299.979 4.20617e+09
9.22037 35.8391 0.577876 7.21993e-09 8306 35.6901 7.18991e-09 1.70014e-07 352.728 4.96392e+09
9.74378 38.6219 0.681982 6.59281e-09 9698 38.5927 6.58782e-09 1.46289e-07 437.06 5.85818e+09
10.2969 40.1721 0.804843 5.81063e-09 11816 40.1342 5.80514e-09 1.25822e-07 545.677 6.91355e+09
10.8814 44.2383 0.949838 5.42199e-09 13682 44.1615 5.41258e-09 1.08175e-07 685.772 8.15905e+09
11.4992 45.3969 1.12095 4.71464e-09 16152 45.3681 4.71165e-09 9.29669e-08 819.119 9.62892e+09
12.1519 48.5494 1.3229 4.27236e-09 19472 48.4719 4.26555e-09 7.98658e-08 1041.64 1.13636e+10
12.8418 50.3391 1.56122 3.75363e-09 22670 50.1989 3.74317e-09 6.85852e-08 1240.72 1.34108e+10
13.5708 53.7755 1.84248 3.39775e-09 26224 53.699 3.39292e-09 5.88765e-08 1513.38 1.58268e+10
14.3411 56.797 2.17441 3.04085e-09 31640 56.7506 3.03836e-09 5.05241e-08 1904.29 1.8678e+10
15.1552 59.2538 2.56613 2.68811e-09 37484 59.1439 2.68313e-09 4.33417e-08 2324.81 2.20429e+10
16.0156 63.978 3.02843 2.45937e-09 43856 63.8705 2.45524e-09 3.71677e-08 2901.93 2.6014e+10
16.9247 67.1481 3.574 2.1872e-09 51362 67.0832 2.18509e-09 3.18628e-08 3525.71 3.07005e+10
17.8855 70.2453 4.21787 1.93881e-09 61636 70.1495 1.93616e-09 2.73063e-08 4376.29 3.62312e+10
18.9008 74.5624 4.97773 1.74381e-09 72218 74.4029 1.74008e-09 2.33941e-08 5383.16 4.27584e+10
19.9738 78.3387 5.87448 1.55245e-09 84586 78.1846 1.54939e-09 2.00364e-08 6553.84 5.04614e+10
21.1076 83.3418 6.93279 1.39948e-09 100708 83.2142 1.39733e-09 1.71555e-08 8215.33 5.95522e+10
22.3058 88.0074 8.18175 1.25223e-09 118712 87.8385 1.24982e-09 1.46847e-08 10123.1 7.02807e+10
23.5721 91.7146 9.65571 1.10577e-09 140410 91.5348 1.1036e-09 1.25662e-08 12355.5 8.29419e+10
24.9102 96.5546 11.3952 9.86417e-10 164374 96.3826 9.8466e-10 1.07504e-08 15082.4 9.78842e+10
26.3243 101.577 13.4481 8.79317e-10 194680 101.458 8.78284e-10 9.19452e-09 18618.2 1.15518e+11
27.8187 106.285 15.8708 7.79622e-10 230196 106.106 7.78305e-10 7.86182e-09 22827.5 1.36329e+11
29.3979 111.421 18.73 6.92532e-10 271156 111.247 6.91449e-10 6.72061e-09 27941.5 1.60889e+11
31.0667 117.45 22.1042 6.18567e-10 321076 117.223 6.17372e-10 5.74366e-09 34578.5 1.89874e+11
32.8303 123.091 26.0864 5.49317e-10 377436 122.873 5.48345e-10 4.90756e-09 42247.4 2.2408e+11
34.694 129.448 30.7859 4.895e-10 447594 129.219 4.88636e-10 4.19221e-09 52263 2.64449e+11
36.6634 135.596 36.3321 4.34478e-10 525078 135.337 4.33647e-10 3.58032e-09 63719 3.1209e+11
38.7447 142.449 42.8774 3.86761e-10 621924 142.177 3.8602e-10 3.05709e-09 78681.5 3.68314e+11
40.9442 149.461 50.6018 3.43852e-10 732630 149.204 3.43261e-10 2.60976e-09 96528.5 4.34667e+11
43.2685 158.013 59.7179 3.08035e-10 865596 157.757 3.07535e-10 2.22743e-09 119705 5.12973e+11
45.7247 166.357 70.4762 2.74795e-10 1.02168e+06 166.08 2.74337e-10 1.90073e-09 147707 6.05386e+11
48.3204 175.324 83.1727 2.45398e-10 1.20544e+06 175.016 2.44967e-10 1.62163e-09 182416 7.14448e+11
51.0634 185.082 98.1565 2.1951e-10 1.42103e+06 184.757 2.19125e-10 1.38326e-09 225504 8.43158e+11
53.9621 195.553 115.84 1.96524e-10 1.67997e+06 195.193 1.96163e-10 1.1797e-09 279862 9.95055e+11
57.0254 208.002 136.709 1.77126e-10 1.98018e+06 207.599 1.76782e-10 1.00592e-09 348677 1.17432e+12
60.2626 221.171 161.337 1.5959e-10 2.33957e+06 220.736 1.59276e-10 8.57591e-10 435372 1.38587e+12
63.6835 236.1 190.402 1.44356e-10 2.75676e+06 235.629 1.44068e-10 7.3101e-10 544390 1.63554e+12
67.2987 253.574 224.704 1.31372e-10 3.25638e+06 253.056 1.31104e-10 6.23009e-10 686665 1.93019e+12
71.1191 273.643 265.185 1.20128e-10 3.84387e+06 273.054 1.1987e-10 5.30879e-10 869799 2.27792e+12
75.1563 296.207 312.958 1.10184e-10 4.53277e+06 295.545 1.09938e-10 4.52303e-10 1.10421e+06 2.68829e+12
79.4227 321.989 369.339 1.01491e-10 5.35083e+06 321.271 1.01264e-10 3.85299e-10 1.40945e+06 3.17259e+12
83.9313 352.981 435.876 9.42754e-11 6.32174e+06 352.157 9.40555e-11 3.28173e-10 1.81607e+06 3.74415e+12
88.6959 388.702 514.4 8.79681e-11 7.44986e+06 387.761 8.77552e-11 2.79476e-10 2.34492e+06 4.41866e+12
93.7309 430.517 607.071 8.25583e-11 8.79764e+06 429.442 8.23523e-11 2.37972e-10 3.05211e+06 5.2147e+12
99.0518 480.559 716.436 7.80872e-11 1.03827e+07 479.304 7.78831e-11 2.02605e-10 4.00166e+06 6.15414e+12
104.675 539.338 845.504 7.42601e-11 1.22515e+07 537.894 7.40612e-11 1.72471e-10 5.27509e+06 7.26283e+12
110.617 608.872 997.824 7.10366e-11 1.44573e+07 607.2 7.08415e-11 1.468e-10 6.9959e+06 8.57124e+12
116.896 691.716 1177.58 6.83827e-11 1.70664e+07 689.771 6.81904e-11 1.24935e-10 9.34124e+06 1.01154e+13
123.532 789.3 1389.73 6.61183e-11 2.0139e+07 787.015 6.59269e-11 1.06313e-10 1.25248e+07 1.19377e+13
130.545 906.44 1640.09 6.43399e-11 2.37643e+07 903.75 6.4149e-11 9.04567e-11 1.6903e+07 1.40883e+13
137.955 1043.82 1935.56 6.27809e-11 2.80503e+07 1040.65 6.25905e-11 7.69563e-11 2.28834e+07 1.66263e+13
145.787 1207.93 2284.26 6.15614e-11 3.30981e+07 1204.21 6.13717e-11 6.54636e-11 3.11252e+07 1.96216e+13
154.063 1402.81 2695.77 6.05794e-11 3.90634e+07 1398.4 6.0389e-11 5.56812e-11 4.24998e+07 2.31565e+13
162.808 1634.03 3181.42 5.97928e-11 4.61057e+07 1628.88 5.96042e-11 4.73556e-11 5.82145e+07 2.73282e+13
172.051 1908.32 3754.56 5.91701e-11 5.44046e+07 1902.16 5.89791e-11 4.02708e-11 7.99369e+07 3.22515e+13
181.818 2233.78 4430.96 5.86885e-11 6.42064e+07 2226.57 5.8499e-11 3.42426e-11 1.10044e+08 3.80616e+13
192.139 2621.41 5229.21 5.83592e-11 7.57748e+07 2612.81 5.81678e-11 2.91139e-11 1.51892e+08 4.49186e+13
203.046 3081.48 6171.26 5.81294e-11 8.94213e+07 3071.41 5.79393e-11 2.4751e-11 2.10012e+08 5.30108e+13
214.572 3628.81 7283.03 5.80045e-11 1.05538e+08 3616.78 5.78122e-11 2.10401e-11 2.90954e+08 6.25608e+13
226.753 4282.77 8595.09 5.80076e-11 1.24552e+08 4268.43 5.78133e-11 1.78839e-11 4.03991e+08 7.38313e+13
239.625 5064.5 10143.5 5.81244e-11 1.46987e+08 5047.4 5.7928e-11 1.51999e-11 5.62078e+08 8.71322e+13
253.228 6002.91 11970.9 5.83775e-11 1.7347e+08 5982.35 5.81775e-11 1.29176e-11 7.83948e+08 1.02829e+14
267.603 7133.1 14127.5 5.87792e-11 2.04703e+08 7108.39 5.85756e-11 1.09771e-11 1.09612e+09 1.21354e+14
282.795 8509.05 16672.6 5.94139e-11 2.4161e+08 8479.19 5.92054e-11 9.3274e-12 1.53901e+09 1.43217e+14
298.848 10193.6 19676.2 6.03108e-11 2.85122e+08 10157.1 6.00947e-11 7.925e-12 2.16984e+09 1.69017e+14
315.813 12282.9 23220.9 6.15788e-11 3.36491e+08 12237.8 6.13527e-11 6.73295e-12 3.07751e+09 1.99466e+14
333.741 14917 27404.3 6.33686e-11 3.97115e+08 14860.3 6.31278e-11 5.71979e-12 4.39957e+09 2.35401e+14
352.686 18317.3 32341.2 6.59351e-11 4.68637e+08 18244.5 6.56728e-11 4.85874e-12 6.35959e+09 2.77809e+14
372.707 22838.6 38167.6 6.96604e-11 5.53074e+08 22742.3 6.93665e-11 4.12703e-12 9.33538e+09 3.27857e+14
393.865 29086.4 45043.5 7.51739e-11 6.52716e+08 28953.9 7.48316e-11 3.50528e-12 1.39981e+10 3.86921e+14
416.224 34348.3 53158.3 7.5222e-11 2.2184e+08 36337.3 7.95778e-11 2.97701e-12 5.60537e+09 4.56626e+14
439.852 0 62734.9 0 0 0 0 2.52819e-12 0 5.38888e+14
464.821 0 74036.7 0 0 0 0 2.1469e-12 0 6.35971e+14
491.207 0 87374.6 0 0 0 0 1.82301e-12 0 7.50542e+14
519.092 0 103115 0 0 0 0 1.54789e-12 0 8.85755e+14
548.56 0 121692 0 0 0 0 1.31422e-12 0 1.04533e+15
579.7 0 143615 0 0 0 0 1.11576e-12 0 1.23364e+15
612.608 0 169488 0 0 0 0 9.47223e-13 0 1.45589e+15
647.384 0 200021 0 0 0 0 8.041e-13 0 1.71817e+15
684.134 0 236056 0 0 0 0 6.82568e-13 0 2.0277e+15
722.971 0 278582 0 0 0 0 5.79376e-13 0 2.393e+15
764.012 0 328769 0 0 0 0 4.91762e-13 0 2.8241e+15
0.502631
200
1.0655e+09
8589934592
0.0129181 0.000729553 1.58924e-09 5.34414e-05 6 0.000722874 5.29522e-05 0.00677225 0.0473474 13.6515
0.0136515 0 1.87554e-09 0 0 0 0 0.00688819 0 16.1108
0.0144264 0 2.21343e-09 0 0 0 0 0.00699249 0 19.0132
0.0152454 0 2.61218e-09 0 0 0 0 0.00708412 0 22.4385
0.0161108 0 3.08278e-09 0 0 0 0 0.00716212 0 26.4808
0.0170254 0 3.63815e-09 0 0 0 0 0.00722559 0 31.2514
0.0179919 0.00162474 4.29357e-09 4.4053e-05 12 0.00162264 4.39962e-05 0.00727371 0.0726776 36.8815
0.0190132 0 5.06707e-09 0 0 0 0 0.00730578 0 43.5258
0.0200925 0 5.97991e-09 0 0 0 0 0.00732122 0 51.367
0.0212331 0.00153865 7.05721e-09 2.53815e-05 8 0.00153731 2.53594e-05 0.00731958 0.0277409 60.621
0.0224385 0 8.32858e-09 0 0 0 0 0.00730056 0 71.542
0.0237123 0 9.829e-09 0 0 0 0 0.00726401 0 84.4305
0.0250583 0.00978966 1.15997e-08 9.82495e-05 6 0.00978505 9.82032e-05 0.00720995 0.0817616 99.6408
0.0264808 0 1.36894e-08 0 0 0 0 0.00713857 0 117.591
0.0279841 0.00605198 1.61556e-08 4.36098e-05 24 0.00604577 4.3565e-05 0.00705021 0.148454 138.776
0.0295727 0 1.90661e-08 0 0 0 0 0.00694538 0 163.777
0.0312514 0.0107885 2.25009e-08 5.58173e-05 24 0.0108432 5.61007e-05 0.00682475 0.196288 193.281
0.0330255 0 2.65545e-08 0 0 0 0 0.00668915 0 228.102
0.0349003 0.0158485 3.13384e-08 5.88738e-05 12 0.0157216 5.84024e-05 0.00653951 0.108033 269.195
0.0368815 0.0131034 3.69841e-08 4.12458e-05 30 0.0129639 4.08066e-05 0.00637693 0.194039 317.691
0.0389751 0.0151765 4.36469e-08 4.04788e-05 24 0.0150203 4.00624e-05 0.00620256 0.156628 374.924
0.0411876 0.00967284 5.151e-08 2.18611e-05 24 0.00960715 2.17127e-05 0.00601767 0.0871878 442.467
0.0435258 0.0226866 6.07896e-08 4.34459e-05 8 0.0226848 4.34426e-05 0.00582358 0.0596828 522.179
0.0459966 0.0282967 7.1741e-08 4.59176e-05 72 0.0280733 4.5555e-05 0.00562166 0.588094 616.251
0.0486077 0 8.46654e-08 0 0 0 0 0.0054133 0 727.27
0.051367 0.0402555 9.99181e-08 4.6902e-05 54 0.0401244 4.67492e-05 0.00519989 0.487069 858.29
0.054283 0.0320151 1.17919e-07 3.1607e-05 60 0.0321555 3.17455e-05 0.0049828 0.380593 1012.91
0.0573645 0.0306885 1.39162e-07 2.56723e-05 96 0.0306097 2.56064e-05 0.00476339 0.517393 1195.39
0.060621 0.0360116 1.64232e-07 2.55266e-05 24 0.0355237 2.51808e-05 0.00454293 0.134856 1410.75
0.0640622 0.0628141 1.93819e-07 3.77286e-05 134 0.0628466 3.77481e-05 0.00432265 1.16957 1664.89
0.0676989 0.0608885 2.28736e-07 3.09892e-05 120 0.0605998 3.08423e-05 0.00410371 0.90618 1964.83
0.071542 0.0565898 2.69944e-07 2.44048e-05 108 0.0559714 2.41381e-05 0.00388717 0.678055 2318.8
0.0756032 0.0832525 3.18575e-07 3.04226e-05 174 0.0828006 3.02574e-05 0.00367401 1.4408 2736.54
0.079895 0.0877998 3.75967e-07 2.71865e-05 168 0.086975 2.69312e-05 0.0034651 1.3181 3229.53
0.0844305 0.0739794 4.43698e-07 1.94103e-05 168 0.074349 1.95073e-05 0.00326121 0.999917 3811.34
0.0892234 0.0856768 5.23632e-07 1.90479e-05 290 0.085297 1.89635e-05 0.00306301 1.80342 4497.96
0.0942883 0.107532 6.17966e-07 2.02574e-05 288 0.107281 2.02101e-05 0.00287109 2.03203 5308.28
0.0996408 0.0960232 7.29294e-07 1.53279e-05 366 0.0952537 1.52051e-05 0.00268591 2.08869 6264.59
0.105297 0.109231 8.60678e-07 1.47746e-05 420 0.108466 1.46711e-05 0.00250785 2.47437 7393.17
0.111275 0.116827 1.01573e-06 1.33898e-05 398 0.116478 1.33499e-05 0.00233721 2.28013 8725.07
0.117591 0.139195 1.19872e-06 1.35182e-05 624 0.139523 1.355e-05 0.00217419 3.87975 10296.9
0.124267 0.158567 1.41467e-06 1.30487e-05 642 0.15827 1.30243e-05 0.00201893 4.14936 12151.9
0.131321 0.194828 1.66953e-06 1.35852e-05 800 0.194894 1.35898e-05 0.00187147 5.80731 14341.1
0.138776 0.175706 1.9703e-06 1.03816e-05 858 0.176504 1.04288e-05 0.00173182 5.14339 16924.7
0.146654 0.198131 2.32525e-06 9.91958e-06 1080 0.199797 1.0003e-05 0.00159991 6.69609 19973.8
0.154979 0.233903 2.74415e-06 9.92288e-06 1286 0.235442 9.98817e-06 0.00147563 8.64768 23572.1
0.163777 0.22309 3.23852e-06 8.01942e-06 1650 0.223625 8.03869e-06 0.00135884 9.73776 27818.7
0.173074 0.256805 3.82195e-06 7.82221e-06 1778 0.256906 7.82529e-06 0.00124933 11.1323 32830.3
0.182899 0.259394 4.51048e-06 6.69496e-06 2112 0.260054 6.71199e-06 0.00114689 12.3288 38744.7
0.193281 0.294583 5.32305e-06 6.44254e-06 2570 0.294911 6.4497e-06 0.00105127 15.7498 45724.7
0.204254 0.342075 6.28202e-06 6.33916e-06 3030 0.341873 6.33542e-06 0.000962209 19.962 53962.1
0.215848 0.347815 7.41374e-06 5.46161e-06 3434 0.347665 5.45926e-06 0.000879423 21.3267 63683.5
0.228102 0.36531 8.74934e-06 4.86067e-06 4218 0.365291 4.86042e-06 0.000802624 25.5441 75156.3
0.24105 0.408223 1.03256e-05 4.6025e-06 4766 0.408526 4.60591e-06 0.000731515 29.9864 88695.9
0.254734 0.44574 1.21857e-05 4.25833e-06 6026 0.445698 4.25794e-06 0.000665798 38.5413 104675
0.269195 0.488493 1.4381e-05 3.95438e-06 6480 0.488061 3.95088e-06 0.000605173 42.3422 123532
0.284476 0.533115 1.69718e-05 3.65681e-06 8162 0.534249 3.66459e-06 0.000549345 54.3318 145787
0.300625 0.563373 2.00293e-05 3.27446e-06 9578 0.563874 3.27737e-06 0.000498021 62.9749 172051
0.317691 0.621611 2.36377e-05 3.06143e-06 11234 0.620895 3.0579e-06 0.000450916 76.2715 203046
0.335725 0.667691 2.78961e-05 2.7864e-06 13344 0.666688 2.78221e-06 0.000407755 91.1863 239625
0.354784 0.723745 3.29216e-05 2.55926e-06 15464 0.723182 2.55727e-06 0.000368269 107.466 282795
0.374924 0.773315 3.88525e-05 2.31711e-06 18458 0.773067 2.31637e-06 0.000332202 128.745 333741
0.396207 0.865768 4.58519e-05 2.19814e-06 22232 0.864667 2.19534e-06 0.000299307 163.274 393865
0.418699 0.926548 5.41123e-05 1.99335e-06 25628 0.924212 1.98832e-06 0.00026935 189.662 464821
0.442467 1.01193 6.38607e-05 1.8447e-06 30320 1.00982 1.84085e-06 0.000242108 231.018 548560
0.467585 1.09878 7.53654e-05 1.69727e-06 35452 1.0971 1.69467e-06 0.00021737 276.815 647384
0.494129 1.2046 8.89427e-05 1.57668e-06 41792 1.20394 1.57582e-06 0.000194938 338.018 764012
0.522179 1.33165 0.000104966 1.4769e-06 49988 1.33146 1.47669e-06 0.000174625 422.778 901651
0.551822 1.44539 0.000123876 1.35834e-06 59110 1.44358 1.35664e-06 0.000156255 513.851 1.06409e+06
0.583147 1.58049 0.000146192 1.25857e-06 69716 1.57772 1.25637e-06 0.000139664 628.239 1.25578e+06
0.616251 1.73359 0.000172529 1.16975e-06 82210 1.72997 1.16731e-06 0.0001247 771.173 1.48202e+06
0.651234 1.89226 0.000203611 1.0819e-06 96722 1.88836 1.07968e-06 0.00011122 940.869 1.74901e+06
0.688203 2.09098 0.000240292 1.01302e-06 113098 2.08751 1.01135e-06 9.90935e-05 1156.19 2.06409e+06
0.72727 2.2894 0.000283581 9.39841e-07 135190 2.28622 9.38536e-07 8.81969e-05 1440.61 2.43595e+06
0.768555 2.51571 0.000334669 8.75095e-07 158170 2.51243 8.73952e-07 7.84179e-05 1765.08 2.87479e+06
0.812184 2.80401 0.000394961 8.26485e-07 188560 2.79947 8.25147e-07 6.96525e-05 2237.42 3.39269e+06
0.85829 3.08295 0.000466114 7.69988e-07 220444 3.07816 7.68792e-07 6.1805e-05 2746.37 4.00389e+06
0.907013 3.40994 0.000550086 7.2165e-07 261388 3.40501 7.20605e-07 5.47875e-05 3442.95 4.7252e+06
0.958501 3.77509 0.000649185 6.76968e-07 308244 3.76934 6.75939e-07 4.85194e-05 4300.78 5.57646e+06
1.01291 4.19978 0.000766138 6.3816e-07 364396 4.19293 6.37119e-07 4.29272e-05 5417.15 6.58107e+06
1.07041 4.65026 0.00090416 5.98746e-07 429162 4.64223 5.97712e-07 3.79435e-05 6772.15 7.76667e+06
1.13118 5.16325 0.00106705 5.63314e-07 506358 5.15455 5.62364e-07 3.3507e-05 8512.8 9.16586e+06
1.19539 5.72596 0.00125928 5.29343e-07 598590 5.71587 5.2841e-07 2.9562e-05 10718.5 1.08171e+07
1.26325 6.36795 0.00148614 4.98827e-07 704844 6.35688 4.9796e-07 2.60578e-05 13492.9 1.27658e+07
1.33496 7.08667 0.00175387 4.70386e-07 834620 7.07287 4.6947e-07 2.29484e-05 17107.6 1.50656e+07
1.41075 7.84549 0.00206984 4.4126e-07 981444 7.82942 4.40356e-07 2.01923e-05 21447.4 1.77798e+07
1.49083 8.73115 0.00244272 4.16109e-07 1.15998e+06 8.71526 4.15352e-07 1.77518e-05 27190.4 2.09828e+07
1.57546 9.67344 0.00288279 3.90642e-07 1.36931e+06 9.65447 3.89876e-07 1.55929e-05 34304.8 2.4763e+07
1.66489 10.757 0.00340213 3.68087e-07 1.61652e+06 10.7355 3.67353e-07 1.3685e-05 43479.5 2.92241e+07
1.75941 11.9322 0.00401503 3.45973e-07 1.90601e+06 11.9096 3.45317e-07 1.20007e-05 54949.2 3.44889e+07
1.85928 13.2377 0.00473835 3.25234e-07 2.24913e+06 13.2128 3.24621e-07 1.05151e-05 69565.9 4.07021e+07
1.96483 14.6706 0.00559198 3.05417e-07 2.65744e+06 14.6413 3.04806e-07 9.20606e-06 88162.3 4.80347e+07
2.07637 16.1973 0.00659939 2.85726e-07 3.13125e+06 16.1668 2.85188e-07 8.05366e-06 111090 5.66883e+07
2.19424 17.87 0.00778828 2.67112e-07 3.69915e+06 17.8359 2.66602e-07 7.04008e-06 140352 6.69008e+07
2.3188 19.7138 0.00919136 2.49689e-07 4.36472e+06 19.6762 2.49213e-07 6.1494e-06 177225 7.89532e+07
2.45043 21.7038 0.0108472 2.32932e-07 5.14913e+06 21.6616 2.32478e-07 5.36741e-06 223459 9.31768e+07
2.58954 23.8247 0.0128014 2.16661e-07 6.07894e+06 23.7797 2.16252e-07 4.68145e-06 281338 1.09963e+08
2.73654 26.095 0.0151076 2.01082e-07 7.17304e+06 26.0463 2.00707e-07 4.08023e-06 353502 1.29773e+08
2.89188 28.5526 0.0178292 1.86433e-07 8.46557e+06 28.4992 1.86084e-07 3.55373e-06 444114 1.53152e+08
3.05605 31.1633 0.0210412 1.72418e-07 9.98773e+06 31.1058 1.721e-07 3.09304e-06 556754 1.80743e+08
3.22953 33.9318 0.0248319 1.59077e-07 1.1797e+07 33.8708 1.58791e-07 2.69025e-06 697570 2.13304e+08
3.41286 36.8869 0.0293054 1.46533e-07 1.39144e+07 36.8203 1.46268e-07 2.33837e-06 871938 2.51731e+08
3.6066 39.9407 0.0345848 1.34444e-07 1.64163e+07 39.8707 1.34208e-07 2.0312e-06 1.08658e+06 2.97081e+08
3.81134 43.1896 0.0408154 1.23187e-07 1.93821e+07 43.1144 1.22973e-07 1.76327e-06 1.3541e+06 3.50601e+08
4.0277 46.5551 0.0481684 1.12516e-07 2.28754e+07 46.4723 1.12316e-07 1.52972e-06 1.68257e+06 4.13763e+08
4.25634 50.0882 0.056846 1.02576e-07 2.69929e+07 50.0008 1.02397e-07 1.32631e-06 2.08762e+06 4.88304e+08
4.49796 53.769 0.067087 9.33047e-08 3.18542e+07 53.6756 9.31427e-08 1.14926e-06 2.58615e+06 5.76273e+08
4.7533 57.6306 0.0791729 8.47396e-08 3.75892e+07 57.5318 8.45944e-08 9.95263e-07 3.20045e+06 6.8009e+08
5.02313 61.6524 0.0934361 7.68149e-08 4.43706e+07 61.5479 7.66847e-08 8.61414e-07 3.95666e+06 8.0261e+08
5.30828 65.829 0.110269 6.94984e-08 5.23593e+07 65.7186 6.93818e-08 7.45152e-07 4.88341e+06 9.47202e+08
5.60962 70.2391 0.130134 6.28344e-08 6.1787e+07 70.1215 6.27292e-08 6.44232e-07 6.02633e+06 1.11784e+09
5.92807 74.8043 0.153578 5.67032e-08 7.29346e+07 74.6789 5.66081e-08 5.56685e-07 7.42902e+06 1.31923e+09
6.26459 79.5685 0.181246 5.11074e-08 8.60651e+07 79.435 5.10216e-08 4.80786e-07 9.14869e+06 1.55689e+09
6.62021 84.4985 0.213898 4.5989e-08 1.01558e+08 84.3585 4.59128e-08 4.15026e-07 1.12536e+07 1.83737e+09
6.99602 89.6055 0.252432 4.13238e-08 1.1986e+08 89.4572 4.12555e-08 3.58083e-07 1.38322e+07 2.16837e+09
7.39317 95.0096 0.297908 3.71275e-08 1.41457e+08 94.8529 3.70663e-08 3.08803e-07 1.70074e+07 2.55901e+09
7.81286 100.642 0.351577 3.3325e-08 1.66936e+08 100.476 3.32699e-08 2.66181e-07 2.08998e+07 3.02002e+09
8.25637 106.567 0.414914 2.99001e-08 1.97025e+08 106.39 2.98506e-08 2.29336e-07 2.56875e+07 3.56409e+09
8.72507 112.834 0.489662 2.68259e-08 2.32497e+08 112.646 2.67811e-08 1.97503e-07 3.15789e+07 4.20617e+09
9.22037 119.599 0.577876 2.40937e-08 2.74404e+08 119.398 2.40531e-08 1.70014e-07 3.88874e+07 4.96392e+09
9.74378 126.953 0.681982 2.1671e-08 3.2382e+08 126.734 2.16336e-08 1.46289e-07 4.79701e+07 5.85818e+09
10.2969 135.291 0.804843 1.9569e-08 3.82165e+08 135.049 1.95339e-08 1.25822e-07 5.94376e+07 6.91355e+09
10.8814 145.222 0.949838 1.7799e-08 4.51027e+08 144.943 1.77647e-08 1.08175e-07 7.4211e+07 8.15905e+09
11.4992 157.891 1.12095 1.63976e-08 5.32251e+08 157.553 1.63625e-08 9.29669e-08 9.38788e+07 9.62892e+09
12.1519 175.641 1.3229 1.54565e-08 6.28157e+08 175.198 1.54175e-08 7.98658e-08 1.21568e+08 1.13636e+10
12.8418 195.544 1.56122 1.45811e-08 3.82727e+08 202.393 1.50918e-08 6.85852e-08 8.13672e+07 1.34108e+10
13.5708 0 1.84248 0 0 0 0 5.88765e-08 0 1.58268e+10
14.3411 0 2.17441 0 0 0 0 5.05241e-08 0 1.8678e+10
15.1552 0 2.56613 0 0 0 0 4.33417e-08 0 2.20429e+10
16.0156 0 3.02843 0 0 0 0 3.71677e-08 0 2.6014e+10
16.9247 0 3.574 0 0 0 0 3.18628e-08 0 3.07005e+10
17.8855 0 4.21787 0 0 0 0 2.73063e-08 0 3.62312e+10
18.9008 0 4.97773 0 0 0 0 2.33941e-08 0 4.27584e+10
19.9738 0 5.87448 0 0 0 0 2.00364e-08 0 5.04614e+10
21.1076 0 6.93279 0 0 0 0 1.71555e-08 0 5.95522e+10
22.3058 0 8.18175 0 0 0 0 1.46847e-08 0 7.02807e+10
23.5721 0 9.65571 0 0 0 0 1.25662e-08 0 8.29419e+10
24.9102 0 11.3952 0 0 0 0 1.07504e-08 0 9.78842e+10
26.3243 0 13.4481 0 0 0 0 9.19452e-09 0 1.15518e+11
27.8187 0 15.8708 0 0 0 0 7.86182e-09 0 1.36329e+11
29.3979 0 18.73 0 0 0 0 6.72061e-09 0 1.60889e+11
31.0667 0 22.1042 0 0 0 0 5.74366e-09 0 1.89874e+11
32.8303 0 26.0864 0 0 0 0 4.90756e-09 0 2.2408e+11
34.694 0 30.7859 0 0 0 0 4.19221e-09 0 2.64449e+11
36.6634 0 36.3321 0 0 0 0 3.58032e-09 0 3.1209e+11
38.7447 0 42.8774 0 0 0 0 3.05709e-09 0 3.68314e+11
40.9442 0 50.6018 0 0 0 0 2.60976e-09 0 4.34667e+11
43.2685 0 59.7179 0 0 0 0 2.22743e-09 0 5.12973e+11
45.7247 0 70.4762 0 0 0 0 1.90073e-09 0 6.05386e+11
48.3204 0 83.1727 0 0 0 0 1.62163e-09 0 7.14448e+11
51.0634 0 98.1565 0 0 0 0 1.38326e-09 0 8.43158e+11
53.9621 0 115.84 0 0 0 0 1.1797e-09 0 9.95055e+11
57.0254 0 136.709 0 0 0 0 1.00592e-09 0 1.17432e+12
60.2626 0 161.337 0 0 0 0 8.57591e-10 0 1.38587e+12
63.6835 0 190.402 0 0 0 0 7.3101e-10 0 1.63554e+12
67.2987 0 224.704 0 0 0 0 6.23009e-10 0 1.93019e+12
71.1191 0 265.185 0 0 0 0 5.30879e-10 0 2.27792e+12
75.1563 0 312.958 0 0 0 0 4.52303e-10 0 2.68829e+12
79.4227 0 369.339 0 0 0 0 3.85299e-10 0 3.17259e+12
83.9313 0 435.876 0 0 0 0 3.28173e-10 0 3.74415e+12
88.6959 0 514.4 0 0 0 0 2.79476e-10 0 4.41866e+12
93.7309 0 607.071 0 0 0 0 2.37972e-10 0 5.2147e+12
99.0518 0 716.436 0 0 0 0 2.02605e-10 0 6.15414e+12
104.675 0 845.504 0 0 0 0 1.72471e-10 0 7.26283e+12
110.617 0 997.824 0 0 0 0 1.468e-10 0 8.57124e+12
116.896 0 1177.58 0 0 0 0 1.24935e-10 0 1.01154e+13
123.532 0 1389.73 0 0 0 0 1.06313e-10 0 1.19377e+13
130.545 0 1640.09 0 0 0 0 9.04567e-11 0 1.40883e+13
137.955 0 1935.56 0 0 0 0 7.69563e-11 0 1.66263e+13
145.787 0 2284.26 0 0 0 0 6.54636e-11 0 1.96216e+13
154.063 0 2695.77 0 0 0 0 5.56812e-11 0 2.31565e+13
162.808 0 3181.42 0 0 0 0 4.73556e-11 0 2.73282e+13
172.051 0 3754.56 0 0 0 0 4.02708e-11 0 3.22515e+13
181.818 0 4430.96 0 0 0 0 3.42426e-11 0 3.80616e+13
192.139 0 5229.21 0 0 0 0 2.91139e-11 0 4.49186e+13
203.046 0 6171.26 0 0 0 0 2.4751e-11 0 5.30108e+13
214.572 0 7283.03 0 0 0 0 2.10401e-11 0 6.25608e+13
226.753 0 8595.09 0 0 0 0 1.78839e-11 0 7.38313e+13
239.625 0 10143.5 0 0 0 0 1.51999e-11 0 8.71322e+13
253.228 0 11970.9 0 0 0 0 1.29176e-11 0 1.02829e+14
267.603 0 14127.5 0 0 0 0 1.09771e-11 0 1.21354e+14
282.795 0 16672.6 0 0 0 0 9.3274e-12 0 1.43217e+14
298.848 0 19676.2 0 0 0 0 7.925e-12 0 1.69017e+14
315.813 0 23220.9 0 0 0 0 6.73295e-12 0 1.99466e+14
333.741 0 27404.3 0 0 0 0 5.71979e-12 0 2.35401e+14
352.686 0 32341.2 0 0 0 0 4.85874e-12 0 2.77809e+14
372.707 0 38167.6 0 0 0 0 4.12703e-12 0 3.27857e+14
393.865 0 45043.5 0 0 0 0 3.50528e-12 0 3.86921e+14
416.224 0 53158.3 0 0 0 0 2.97701e-12 0 4.56626e+14
439.852 0 62734.9 0 0 0 0 2.52819e-12 0 5.38888e+14
464.821 0 74036.7 0 0 0 0 2.1469e-12 0 6.35971e+14
491.207 0 87374.6 0 0 0 0 1.82301e-12 0 7.50542e+14
519.092 0 103115 0 0 0 0 1.54789e-12 0 8.85755e+14
548.56 0 121692 0 0 0 0 1.31422e-12 0 1.04533e+15
579.7 0 143615 0 0 0 0 1.11576e-12 0 1.23364e+15
612.608 0 169488 0 0 0 0 9.47223e-13 0 1.45589e+15
647.384 0 200021 0 0 0 0 8.041e-13 0 1.71817e+15
684.134 0 236056 0 0 0 0 6.82568e-13 0 2.0277e+15
722.971 0 278582 0 0 0 0 5.79376e-13 0 2.393e+15
764.012 0 328769 0 0 0 0 4.91762e-13 0 2.8241e+15
