0.638947
200
1.0655e+09
8589934592
0.0129181 0 1.58924e-09 0 0 0 0 0.00677225 0 13.6515
0.0136515 0 1.87554e-09 0 0 0 0 0.00688819 0 16.1108
0.0144264 0 2.21343e-09 0 0 0 0 0.00699249 0 19.0132
0.0152454 0 2.61218e-09 0 0 0 0 0.00708412 0 22.4385
0.0161108 0 3.08278e-09 0 0 0 0 0.00716212 0 26.4808
0.0170254 0 3.63815e-09 0 0 0 0 0.00722559 0 31.2514
0.0179919 0 4.29357e-09 0 0 0 0 0.00727371 0 36.8815
0.0190132 0 5.06707e-09 0 0 0 0 0.00730578 0 43.5258
0.0200925 0 5.97991e-09 0 0 0 0 0.00732122 0 51.367
0.0212331 0 7.05721e-09 0 0 0 0 0.00731958 0 60.621
0.0224385 0 8.32858e-09 0 0 0 0 0.00730056 0 71.542
0.0237123 0 9.829e-09 0 0 0 0 0.00726401 0 84.4305
0.0250583 0 1.15997e-08 0 0 0 0 0.00720995 0 99.6408
0.0264808 0 1.36894e-08 0 0 0 0 0.00713857 0 117.591
0.0279841 0 1.61556e-08 0 0 0 0 0.00705021 0 138.776
0.0295727 0 1.90661e-08 0 0 0 0 0.00694538 0 163.777
0.0312514 0 2.25009e-08 0 0 0 0 0.00682475 0 193.281
0.0330255 0 2.65545e-08 0 0 0 0 0.00668915 0 228.102
0.0349003 0 3.13384e-08 0 0 0 0 0.00653951 0 269.195
0.0368815 0 3.69841e-08 0 0 0 0 0.00637693 0 317.691
0.0389751 0 4.36469e-08 0 0 0 0 0.00620256 0 374.924
0.0411876 0 5.151e-08 0 0 0 0 0.00601767 0 442.467
0.0435258 0 6.07896e-08 0 0 0 0 0.00582358 0 522.179
0.0459966 0 7.1741e-08 0 0 0 0 0.00562166 0 616.251
0.0486077 0 8.46654e-08 0 0 0 0 0.0054133 0 727.27
0.051367 0 9.99181e-08 0 0 0 0 0.00519989 0 858.29
0.054283 0 1.17919e-07 0 0 0 0 0.0049828 0 1012.91
0.0573645 0 1.39162e-07 0 0 0 0 0.00476339 0 1195.39
0.060621 0 1.64232e-07 0 0 0 0 0.00454293 0 1410.75
0.0640622 0 1.93819e-07 0 0 0 0 0.00432265 0 1664.89
0.0676989 0 2.28736e-07 0 0 0 0 0.00410371 0 1964.83
0.071542 0 2.69944e-07 0 0 0 0 0.00388717 0 2318.8
0.0756032 0 3.18575e-07 0 0 0 0 0.00367401 0 2736.54
0.079895 0 3.75967e-07 0 0 0 0 0.0034651 0 3229.53
0.0844305 0 4.43698e-07 0 0 0 0 0.00326121 0 3811.34
0.0892234 0 5.23632e-07 0 0 0 0 0.00306301 0 4497.96
0.0942883 0 6.17966e-07 0 0 0 0 0.00287109 0 5308.28
0.0996408 0 7.29294e-07 0 0 0 0 0.00268591 0 6264.59
0.105297 0 8.60678e-07 0 0 0 0 0.00250785 0 7393.17
0.111275 0 1.01573e-06 0 0 0 0 0.00233721 0 8725.07
0.117591 0 1.19872e-06 0 0 0 0 0.00217419 0 10296.9
0.124267 0 1.41467e-06 0 0 0 0 0.00201893 0 12151.9
0.131321 0 1.66953e-06 0 0 0 0 0.00187147 0 14341.1
0.138776 0 1.9703e-06 0 0 0 0 0.00173182 0 16924.7
0.146654 0 2.32525e-06 0 0 0 0 0.00159991 0 19973.8
0.154979 0 2.74415e-06 0 0 0 0 0.00147563 0 23572.1
0.163777 0 3.23852e-06 0 0 0 0 0.00135884 0 27818.7
0.173074 0 3.82195e-06 0 0 0 0 0.00124933 0 32830.3
0.182899 0 4.51048e-06 0 0 0 0 0.00114689 0 38744.7
0.193281 0 5.32305e-06 0 0 0 0 0.00105127 0 45724.7
0.204254 0 6.28202e-06 0 0 0 0 0.000962209 0 53962.1
0.215848 0 7.41374e-06 0 0 0 0 0.000879423 0 63683.5
0.228102 0 8.74934e-06 0 0 0 0 0.000802624 0 75156.3
0.24105 0 1.03256e-05 0 0 0 0 0.000731515 0 88695.9
0.254734 0 1.21857e-05 0 0 0 0 0.000665798 0 104675
0.269195 0 1.4381e-05 0 0 0 0 0.000605173 0 123532
0.284476 0 1.69718e-05 0 0 0 0 0.000549345 0 145787
0.300625 0 2.00293e-05 0 0 0 0 0.000498021 0 172051
0.317691 0 2.36377e-05 0 0 0 0 0.000450916 0 203046
0.335725 0 2.78961e-05 0 0 0 0 0.000407755 0 239625
0.354784 0 3.29216e-05 0 0 0 0 0.000368269 0 282795
0.374924 0 3.88525e-05 0 0 0 0 0.000332202 0 333741
0.396207 2.27657 4.58519e-05 5.78008e-06 6 2.21328 5.61938e-06 0.000299307 0.115869 393865
0.418699 0 5.41123e-05 0 0 0 0 0.00026935 0 464821
0.442467 0 6.38607e-05 0 0 0 0 0.000242108 0 548560
0.467585 0 7.53654e-05 0 0 0 0 0.00021737 0 647384
0.494129 0 8.89427e-05 0 0 0 0 0.000194938 0 764012
0.522179 0 0.000104966 0 0 0 0 0.000174625 0 901651
0.551822 0 0.000123876 0 0 0 0 0.000156255 0 1.06409e+06
0.583147 7.41304 0.000146192 5.90312e-06 12 7.80226 6.21306e-06 0.000139664 0.507199 1.25578e+06
0.616251 0 0.000172529 0 0 0 0 0.0001247 0 1.48202e+06
0.651234 0 0.000203611 0 0 0 0 0.00011122 0 1.74901e+06
0.688203 18.242 0.000240292 8.83777e-06 8 17.7881 8.6179e-06 9.90935e-05 0.71349 2.06409e+06
0.72727 0 0.000283581 0 0 0 0 8.81969e-05 0 2.43595e+06
0.768555 0 0.000334669 0 0 0 0 7.84179e-05 0 2.87479e+06
0.812184 5.23328 0.000394961 1.54252e-06 6 5.34517 1.5755e-06 6.96525e-05 0.132875 3.39269e+06
0.85829 0 0.000466114 0 0 0 0 6.1805e-05 0 4.00389e+06
0.907013 1.6766 0.000550086 3.54821e-07 24 1.70877 3.61629e-07 5.47875e-05 0.155431 4.7252e+06
0.958501 3.30728 0.000649185 5.93079e-07 24 3.11356 5.5834e-07 4.85194e-05 0.293365 5.57646e+06
1.01291 0 0.000766138 0 0 0 0 4.29272e-05 0 6.58107e+06
1.07041 0 0.00090416 0 0 0 0 3.79435e-05 0 7.76667e+06
1.13118 5.43883 0.00106705 5.9338e-07 12 5.37203 5.86091e-07 3.3507e-05 0.212509 9.16586e+06
1.19539 3.53111 0.00125928 3.26437e-07 30 3.45832 3.19708e-07 2.9562e-05 0.331274 1.08171e+07
1.26325 9.64197 0.00148614 7.55295e-07 24 9.49689 7.43929e-07 2.60578e-05 0.695648 1.27658e+07
1.33496 14.3675 0.00175387 9.53662e-07 24 14.3991 9.55758e-07 2.29484e-05 0.997361 1.50656e+07
1.41075 13.7929 0.00206984 7.75763e-07 32 14.0887 7.92399e-07 2.01923e-05 1.2294 1.77798e+07
1.49083 5.6411 0.00244272 2.68844e-07 48 5.52084 2.63112e-07 1.77518e-05 0.726942 2.09828e+07
1.57546 15.8938 0.00288279 6.41836e-07 6 15.1344 6.11172e-07 1.55929e-05 0.246973 2.4763e+07
1.66489 3.38307 0.00340213 1.15763e-07 84 3.32997 1.13946e-07 1.3685e-05 0.710567 2.92241e+07
1.75941 6.96318 0.00401503 2.01897e-07 48 6.89721 1.99984e-07 1.20007e-05 0.80754 3.44889e+07
1.85928 4.25265 0.00473835 1.04482e-07 72 4.28162 1.05194e-07 1.05151e-05 0.715421 4.07021e+07
1.96483 6.79272 0.00559198 1.41413e-07 54 6.60725 1.37552e-07 9.20606e-06 0.829486 4.80347e+07
2.07637 13.8605 0.00659939 2.44504e-07 104 13.9978 2.46926e-07 8.05366e-06 3.15737 5.66883e+07
2.19424 6.65767 0.00778828 9.95155e-08 120 6.73458 1.00665e-07 7.04008e-06 1.69627 6.69008e+07
2.3188 7.59155 0.00919136 9.61525e-08 156 7.42001 9.39798e-08 6.1494e-06 2.43923 7.89532e+07
2.45043 8.96537 0.0108472 9.62188e-08 126 8.97252 9.62956e-08 5.36741e-06 2.25874 9.31768e+07
2.58954 7.19159 0.0128014 6.54002e-08 192 7.22156 6.56727e-08 4.68145e-06 2.68225 1.09963e+08
2.73654 27.8753 0.0151076 2.148e-07 152 28.3322 2.18321e-07 4.08023e-06 8.0019 1.29773e+08
2.89188 13.3051 0.0178292 8.68749e-08 378 13.3459 8.71416e-08 3.55373e-06 9.24063 1.53152e+08
3.05605 11.9448 0.0210412 6.60875e-08 264 11.8075 6.53274e-08 3.09304e-06 5.64076 1.80743e+08
3.22953 11.2207 0.0248319 5.26042e-08 366 11.1654 5.2345e-08 2.69025e-06 7.15662 2.13304e+08
3.41286 13.0161 0.0293054 5.17062e-08 428 12.8437 5.10215e-08 2.33837e-06 9.46396 2.51731e+08
3.6066 17.5047 0.0345848 5.89223e-08 486 17.21 5.79301e-08 2.0312e-06 14.0982 2.97081e+08
3.81134 14.313 0.0408154 4.08242e-08 600 14.2695 4.07002e-08 1.76327e-06 13.8916 3.50601e+08
4.0277 19.2685 0.0481684 4.6569e-08 738 19.1253 4.62229e-08 1.52972e-06 22.4668 4.13763e+08
4.25634 18.6556 0.056846 3.8205e-08 824 18.5764 3.80427e-08 1.32631e-06 23.7358 4.88304e+08
4.49796 20.9065 0.067087 3.62789e-08 954 20.7612 3.60268e-08 1.14926e-06 30.1152 5.76273e+08
4.7533 20.9411 0.0791729 3.07917e-08 1094 20.9125 3.07496e-08 9.95263e-07 33.8465 6.8009e+08
5.02313 21.8465 0.0934361 2.72193e-08 1332 21.9347 2.73292e-08 8.61414e-07 42.089 8.0261e+08
5.30828 28.0627 0.110269 2.96269e-08 1614 28.0934 2.96593e-08 7.45152e-07 64.1718 9.47202e+08
5.60962 31.4782 0.130134 2.81598e-08 1850 31.4567 2.81405e-08 6.44232e-07 80.8646 1.11784e+09
5.92807 27.458 0.153578 2.08137e-08 2238 27.4564 2.08125e-08 5.56685e-07 83.6757 1.31923e+09
6.26459 29.1023 0.181246 1.86926e-08 2546 29.1666 1.87339e-08 4.80786e-07 98.9867 1.55689e+09
6.62021 29.9019 0.213898 1.62743e-08 3264 30.0264 1.63421e-08 4.15026e-07 127.991 1.83737e+09
6.99602 33.1457 0.252432 1.5286e-08 3506 33.18 1.53018e-08 3.58083e-07 149.666 2.16837e+09
7.39317 35.2469 0.297908 1.37736e-08 4506 35.2615 1.37793e-08 3.08803e-07 200.982 2.55901e+09
7.81286 40.8164 0.351577 1.35153e-08 5018 40.6309 1.34538e-08 2.66181e-07 254.788 3.02002e+09
8.25637 41.3347 0.414914 1.15976e-08 5852 41.2065 1.15616e-08 2.29336e-07 295.936 3.56409e+09
8.72507 45.1104 0.489662 1.07248e-08 7362 45.0458 1.07095e-08 1.97503e-07 399.772 4.20617e+09
9.22037 45.7845 0.577876 9.22346e-09 8306 45.5931 9.18489e-09 1.70014e-07 450.61 4.96392e+09
9.74378 50.3873 0.681982 8.60119e-09 9698 50.3218 8.59e-09 1.46289e-07 570.202 5.85818e+09
10.2969 52.9752 0.804843 7.66251e-09 11816 52.8804 7.64881e-09 1.25822e-07 719.587 6.91355e+09
10.8814 58.8646 0.949838 7.21464e-09 13682 58.7287 7.19798e-09 1.08175e-07 912.505 8.15905e+09
11.4992 59.8768 1.12095 6.21844e-09 16152 59.8334 6.21392e-09 9.29669e-08 1080.39 9.62892e+09
12.1519 63.0271 1.3229 5.5464e-09 19472 62.9301 5.53787e-09 7.98658e-08 1352.26 1.13636e+10
12.8418 64.8763 1.56122 4.83762e-09 22670 64.6958 4.82416e-09 6.85852e-08 1599.02 1.34108e+10
13.5708 69.3901 1.84248 4.38435e-09 26224 69.294 4.37828e-09 5.88765e-08 1952.82 1.58268e+10
14.3411 75.3484 2.17441 4.03407e-09 31640 75.2868 4.03078e-09 5.05241e-08 2526.28 1.8678e+10
15.1552 78.663 2.56613 3.56863e-09 37484 78.525 3.56237e-09 4.33417e-08 3086.33 2.20429e+10
16.0156 84.7735 3.02843 3.25877e-09 43856 84.6343 3.25342e-09 3.71677e-08 3845.18 2.6014e+10
16.9247 89.3455 3.574 2.91023e-09 51362 89.2005 2.90551e-09 3.18628e-08 4691.22 3.07005e+10
17.8855 93.8797 4.21787 2.59113e-09 61636 93.7329 2.58707e-09 2.73063e-08 5848.71 3.62312e+10
18.9008 99.0683 4.97773 2.31693e-09 72218 98.845 2.31171e-09 2.33941e-08 7152.4 4.27584e+10
19.9738 104.832 5.87448 2.07747e-09 84586 104.664 2.07413e-09 2.00364e-08 8770.28 5.04614e+10
21.1076 110.338 6.93279 1.8528e-09 100708 110.172 1.85e-09 1.71555e-08 10876.5 5.95522e+10
22.3058 117.173 8.18175 1.66722e-09 118712 117.014 1.66495e-09 1.46847e-08 13477.9 7.02807e+10
23.5721 122.751 9.65571 1.47996e-09 140410 122.46 1.47646e-09 1.25662e-08 16536.5 8.29419e+10
24.9102 128.174 11.3952 1.30945e-09 164374 127.915 1.3068e-09 1.07504e-08 20021.6 9.78842e+10
26.3243 135.787 13.4481 1.17546e-09 194680 135.66 1.17436e-09 9.19452e-09 24888.6 1.15518e+11
27.8187 142.614 15.8708 1.0461e-09 230196 142.382 1.0444e-09 7.86182e-09 30630.1 1.36329e+11
29.3979 150 18.73 9.32321e-10 271156 149.743 9.3072e-10 6.72061e-09 37616.3 1.60889e+11
31.0667 157.507 22.1042 8.29534e-10 321076 157.212 8.27982e-10 5.74366e-09 46371.7 1.89874e+11
32.8303 165.741 26.0864 7.39648e-10 377436 165.444 7.38327e-10 4.90756e-09 56885.7 2.2408e+11
34.694 173.564 30.7859 6.56322e-10 447594 173.224 6.55039e-10 4.19221e-09 70074.3 2.64449e+11
36.6634 182.563 36.3321 5.84968e-10 525078 182.239 5.83931e-10 3.58032e-09 85789.3 3.1209e+11
38.7447 191.274 42.8774 5.19324e-10 621924 190.931 5.18391e-10 3.05709e-09 105650 3.68314e+11
40.9442 200.799 50.6018 4.61962e-10 732630 200.446 4.61149e-10 2.60976e-09 129685 4.34667e+11
43.2685 211.23 59.7179 4.11777e-10 865596 210.902 4.11137e-10 2.22743e-09 160020 5.12973e+11
45.7247 221.96 70.4762 3.66641e-10 1.02168e+06 221.587 3.66025e-10 1.90073e-09 197076 6.05386e+11
48.3204 232.596 83.1727 3.2556e-10 1.20544e+06 232.184 3.24984e-10 1.62163e-09 242004 7.14448e+11
51.0634 244.485 98.1565 2.89963e-10 1.42103e+06 244.043 2.89439e-10 1.38326e-09 297882 8.43158e+11
53.9621 256.891 115.84 2.58168e-10 1.67997e+06 256.399 2.57673e-10 1.1797e-09 367646 9.95055e+11
57.0254 270.931 136.709 2.30714e-10 1.98018e+06 270.467 2.30319e-10 1.00592e-09 454166 1.17432e+12
60.2626 286.236 161.337 2.06538e-10 2.33957e+06 285.711 2.06159e-10 8.57591e-10 563451 1.38587e+12
63.6835 302.666 190.402 1.85056e-10 2.75676e+06 302.112 1.84717e-10 7.3101e-10 697877 1.63554e+12
67.2987 321.39 224.704 1.66507e-10 3.25638e+06 320.781 1.66191e-10 6.23009e-10 870309 1.93019e+12
71.1191 341.929 265.185 1.50106e-10 3.84387e+06 341.279 1.49821e-10 5.30879e-10 1.08685e+06 2.27792e+12
75.1563 364.803 312.958 1.35701e-10 4.53277e+06 364.106 1.35441e-10 4.52303e-10 1.35993e+06 2.68829e+12
79.4227 390.662 369.339 1.23137e-10 5.35083e+06 389.892 1.22894e-10 3.85299e-10 1.71005e+06 3.17259e+12
83.9313 421.313 435.876 1.12526e-10 6.32174e+06 420.437 1.12292e-10 3.28173e-10 2.16763e+06 3.74415e+12
88.6959 456.084 514.4 1.03218e-10 7.44986e+06 455.064 1.02987e-10 2.79476e-10 2.75142e+06 4.41866e+12
93.7309 496.175 607.071 9.51492e-11 8.79764e+06 495.078 9.4939e-11 2.37972e-10 3.51759e+06 5.2147e+12
99.0518 542.498 716.436 8.81517e-11 1.03827e+07 541.234 8.79463e-11 2.02605e-10 4.51742e+06 6.15414e+12
104.675 597.336 845.504 8.22456e-11 1.22515e+07 595.891 8.20467e-11 1.72471e-10 5.84234e+06 7.26283e+12
110.617 663.235 997.824 7.73791e-11 1.44573e+07 661.58 7.7186e-11 1.468e-10 7.62053e+06 8.57124e+12
116.896 740.017 1177.58 7.31576e-11 1.70664e+07 738.111 7.29692e-11 1.24935e-10 9.99351e+06 1.01154e+13
123.532 830.428 1389.73 6.95635e-11 2.0139e+07 828.19 6.9376e-11 1.06313e-10 1.31775e+07 1.19377e+13
130.545 939.01 1640.09 6.66518e-11 2.37643e+07 936.398 6.64664e-11 9.04567e-11 1.75104e+07 1.40883e+13
137.955 1068.23 1935.56 6.42491e-11 2.80503e+07 1065.18 6.40657e-11 7.69563e-11 2.34186e+07 1.66263e+13
145.787 1220.51 2284.26 6.22025e-11 3.30981e+07 1216.97 6.20221e-11 6.54636e-11 3.14493e+07 1.96216e+13
154.063 1402.05 2695.77 6.05469e-11 3.90634e+07 1397.85 6.03652e-11 5.56812e-11 4.2477e+07 2.31565e+13
162.808 1618.54 3181.42 5.92258e-11 4.61057e+07 1613.57 5.9044e-11 4.73556e-11 5.76626e+07 2.73282e+13
172.051 1875.55 3754.56 5.81541e-11 5.44046e+07 1869.74 5.79737e-11 4.02708e-11 7.85643e+07 3.22515e+13
181.818 2181.22 4430.96 5.73076e-11 6.42064e+07 2174.36 5.71272e-11 3.42426e-11 1.07454e+08 3.80616e+13
192.139 2545.64 5229.21 5.66724e-11 7.57748e+07 2537.5 5.6491e-11 2.91139e-11 1.47501e+08 4.49186e+13
203.046 2978.14 6171.26 5.618e-11 8.94213e+07 2968.51 5.59983e-11 2.4751e-11 2.02969e+08 5.30108e+13
214.572 3495.11 7283.03 5.58675e-11 1.05538e+08 3483.65 5.56842e-11 2.10401e-11 2.80235e+08 6.25608e+13
226.753 4112.77 8595.09 5.57049e-11 1.24552e+08 4099.11 5.55199e-11 1.78839e-11 3.87955e+08 7.38313e+13
239.625 4852.61 10143.5 5.56925e-11 1.46987e+08 4836.35 5.55059e-11 1.51999e-11 5.38561e+08 8.71322e+13
253.228 5741.1 11970.9 5.58314e-11 1.7347e+08 5721.66 5.56423e-11 1.29176e-11 7.49756e+08 1.02829e+14
267.603 6813.46 14127.5 5.61452e-11 2.04703e+08 6789.98 5.59517e-11 1.09771e-11 1.047e+09 1.21354e+14
282.795 8118.05 16672.6 5.66837e-11 2.4161e+08 8089.66 5.64855e-11 9.3274e-12 1.46829e+09 1.43217e+14
298.848 9715.44 19676.2 5.74819e-11 2.85122e+08 9680.72 5.72765e-11 7.925e-12 2.06806e+09 1.69017e+14
315.813 11699.4 23220.9 5.86535e-11 3.36491e+08 11656.4 5.84381e-11 6.73295e-12 2.93131e+09 1.99466e+14
333.741 14204.7 27404.3 6.03425e-11 3.97115e+08 14150.6 6.01127e-11 5.71979e-12 4.18947e+09 2.35401e+14
352.686 17439.1 32341.2 6.27738e-11 4.68637e+08 17369.8 6.25242e-11 4.85874e-12 6.05469e+09 2.77809e+14
372.707 21742 38167.6 6.63154e-11 5.53074e+08 21650.3 6.60358e-11 4.12703e-12 8.8871e+09 3.27857e+14
393.865 27684.7 45043.5 7.15512e-11 6.52716e+08 27558.7 7.12256e-11 3.50528e-12 1.33235e+10 3.86921e+14
416.224 32694.7 53158.3 7.16005e-11 2.2184e+08 34587.9 7.57467e-11 2.97701e-12 5.3355e+09 4.56626e+14
439.852 0 62734.9 0 0 0 0 2.52819e-12 0 5.38888e+14
464.821 0 74036.7 0 0 0 0 2.1469e-12 0 6.35971e+14
491.207 0 87374.6 0 0 0 0 1.82301e-12 0 7.50542e+14
519.092 0 103115 0 0 0 0 1.54789e-12 0 8.85755e+14
548.56 0 121692 0 0 0 0 1.31422e-12 0 1.04533e+15
579.7 0 143615 0 0 0 0 1.11576e-12 0 1.23364e+15
612.608 0 169488 0 0 0 0 9.47223e-13 0 1.45589e+15
647.384 0 200021 0 0 0 0 8.041e-13 0 1.71817e+15
684.134 0 236056 0 0 0 0 6.82568e-13 0 2.0277e+15
722.971 0 278582 0 0 0 0 5.79376e-13 0 2.393e+15
764.012 0 328769 0 0 0 0 4.91762e-13 0 2.8241e+15
0.638947
200
1.0655e+09
8589934592
0.0129181 0.00107957 1.58924e-09 7.90809e-05 6 0.00106969 7.83569e-05 0.00677225 0.0700631 13.6515
0.0136515 0 1.87554e-09 0 0 0 0 0.00688819 0 16.1108
0.0144264 0 2.21343e-09 0 0 0 0 0.00699249 0 19.0132
0.0152454 0 2.61218e-09 0 0 0 0 0.00708412 0 22.4385
0.0161108 0 3.08278e-09 0 0 0 0 0.00716212 0 26.4808
0.0170254 0 3.63815e-09 0 0 0 0 0.00722559 0 31.2514
0.0179919 0.00240569 4.29357e-09 6.52276e-05 12 0.00240259 6.51436e-05 0.00727371 0.107611 36.8815
0.0190132 0 5.06707e-09 0 0 0 0 0.00730578 0 43.5258
0.0200925 0 5.97991e-09 0 0 0 0 0.00732122 0 51.367
0.0212331 0.00227887 7.05721e-09 3.75922e-05 8 0.00227689 3.75594e-05 0.00731958 0.0410867 60.621
0.0224385 0 8.32858e-09 0 0 0 0 0.00730056 0 71.542
0.0237123 0 9.829e-09 0 0 0 0 0.00726401 0 84.4305
0.0250583 0.0144488 1.15997e-08 0.000145009 6 0.014442 0.000144941 0.00720995 0.120674 99.6408
0.0264808 0 1.36894e-08 0 0 0 0 0.00713857 0 117.591
0.0279841 0.00891678 1.61556e-08 6.42531e-05 24 0.00890763 6.41872e-05 0.00705021 0.218728 138.776
0.0295727 0 1.90661e-08 0 0 0 0 0.00694538 0 163.777
0.0312514 0.0158721 2.25009e-08 8.21191e-05 24 0.0159527 8.2536e-05 0.00682475 0.288781 193.281
0.0330255 0 2.65545e-08 0 0 0 0 0.00668915 0 228.102
0.0349003 0.0236397 3.13384e-08 8.78163e-05 12 0.0234504 8.71131e-05 0.00653951 0.161143 269.195
0.0368815 0.0192863 3.69841e-08 6.07076e-05 30 0.0190809 6.00612e-05 0.00637693 0.285597 317.691
0.0389751 0.0221333 4.36469e-08 5.90342e-05 24 0.0219056 5.84269e-05 0.00620256 0.228425 374.924
0.0411876 0.014144 5.151e-08 3.19661e-05 24 0.0140479 3.17491e-05 0.00601767 0.127489 442.467
0.0435258 0.0339611 6.07896e-08 6.50372e-05 8 0.0339585 6.50322e-05 0.00582358 0.0893433 522.179
0.0459966 0.0420498 7.1741e-08 6.82348e-05 72 0.0417179 6.76963e-05 0.00562166 0.873925 616.251
0.0486077 0 8.46654e-08 0 0 0 0 0.0054133 0 727.27
0.051367 0.0589301 9.99181e-08 6.866e-05 54 0.0587368 6.84347e-05 0.00519989 0.713022 858.29
0.054283 0.0471817 1.17919e-07 4.65802e-05 60 0.0473916 4.67875e-05 0.0049828 0.560892 1012.91
0.0573645 0.044745 1.39162e-07 3.74312e-05 96 0.0446302 3.73352e-05 0.00476339 0.754379 1195.39
0.060621 0.0527794 1.64232e-07 3.74124e-05 24 0.0520643 3.69056e-05 0.00454293 0.197648 1410.75
0.0640622 0.0915548 1.93819e-07 5.49914e-05 134 0.0916001 5.50186e-05 0.00432265 1.7047 1664.89
0.0676989 0.0891021 2.28736e-07 4.53485e-05 120 0.0886745 4.51309e-05 0.00410371 1.32607 1964.83
0.071542 0.0832517 2.69944e-07 3.59029e-05 108 0.0823379 3.55088e-05 0.00388717 0.997515 2318.8
0.0756032 0.122874 3.18575e-07 4.49013e-05 174 0.1222 4.4655e-05 0.00367401 2.12651 2736.54
0.079895 0.129115 3.75967e-07 3.99795e-05 168 0.127902 3.96039e-05 0.0034651 1.93834 3229.53
0.0844305 0.108306 4.43698e-07 2.84168e-05 168 0.108846 2.85584e-05 0.00326121 1.46388 3811.34
0.0892234 0.127061 5.23632e-07 2.82485e-05 290 0.126484 2.81203e-05 0.00306301 2.67451 4497.96
0.0942883 0.157083 6.17966e-07 2.95921e-05 288 0.156728 2.95251e-05 0.00287109 2.9684 5308.28
0.0996408 0.140205 7.29294e-07 2.23805e-05 366 0.139101 2.22043e-05 0.00268591 3.04972 6264.59
0.105297 0.161765 8.60678e-07 2.18803e-05 420 0.160623 2.17259e-05 0.00250785 3.66438 7393.17
0.111275 0.173151 1.01573e-06 1.98452e-05 398 0.17264 1.97867e-05 0.00233721 3.37941 8725.07
0.117591 0.206243 1.19872e-06 2.00296e-05 624 0.206762 2.008e-05 0.00217419 5.74855 10296.9
0.124267 0.236878 1.41467e-06 1.9493e-05 642 0.236394 1.94532e-05 0.00201893 6.1986 12151.9
0.131321 0.286584 1.66953e-06 1.99833e-05 800 0.286673 1.99896e-05 0.00187147 8.54232 14341.1
0.138776 0.260439 1.9703e-06 1.53881e-05 858 0.261593 1.54563e-05 0.00173182 7.62377 16924.7
0.146654 0.297641 2.32525e-06 1.49016e-05 1080 0.300136 1.50265e-05 0.00159991 10.0592 19973.8
0.154979 0.349531 2.74415e-06 1.48282e-05 1286 0.351791 1.4924e-05 0.00147563 12.9226 23572.1
0.163777 0.336708 3.23852e-06 1.21037e-05 1650 0.337588 1.21353e-05 0.00135884 14.6972 27818.7
0.173074 0.382717 3.82195e-06 1.16574e-05 1778 0.382927 1.16638e-05 0.00124933 16.5904 32830.3
0.182899 0.396036 4.51048e-06 1.02217e-05 2112 0.397017 1.0247e-05 0.00114689 18.8232 38744.7
0.193281 0.443845 5.32305e-06 9.70689e-06 2570 0.444281 9.71643e-06 0.00105127 23.73 45724.7
0.204254 0.518755 6.28202e-06 9.61332e-06 3030 0.518443 9.60753e-06 0.000962209 30.2724 53962.1
0.215848 0.532662 7.41374e-06 8.3642e-06 3434 0.532438 8.36068e-06 0.000879423 32.6608 63683.5
0.228102 0.561765 8.74934e-06 7.47462e-06 4218 0.56161 7.47256e-06 0.000802624 39.2811 75156.3
0.24105 0.626243 1.03256e-05 7.06057e-06 4766 0.62665 7.06515e-06 0.000731515 46.0013 88695.9
0.254734 0.684009 1.21857e-05 6.53461e-06 6026 0.683983 6.53437e-06 0.000665798 59.1434 104675
0.269195 0.763098 1.4381e-05 6.17732e-06 6480 0.762411 6.17176e-06 0.000605173 66.1448 123532
0.284476 0.828606 1.69718e-05 5.68368e-06 8162 0.830279 5.69516e-06 0.000549345 84.4465 145787
0.300625 0.894791 2.00293e-05 5.20074e-06 9578 0.89543 5.20446e-06 0.000498021 100.021 172051
0.317691 0.98417 2.36377e-05 4.84703e-06 11234 0.98305 4.84151e-06 0.000450916 120.757 203046
0.335725 1.06257 2.78961e-05 4.4343e-06 13344 1.0607 4.42649e-06 0.000407755 145.115 239625
0.354784 1.17026 3.29216e-05 4.13819e-06 15464 1.16938 4.1351e-06 0.000368269 173.767 282795
0.374924 1.25051 3.88525e-05 3.74695e-06 18458 1.24977 3.74473e-06 0.000332202 208.191 333741
0.396207 1.42663 4.58519e-05 3.62213e-06 22232 1.42475 3.61734e-06 0.000299307 269.045 393865
0.418699 1.52635 5.41123e-05 3.28373e-06 25628 1.52257 3.27561e-06 0.00026935 312.439 464821
0.442467 1.66238 6.38607e-05 3.03044e-06 30320 1.65923 3.02471e-06 0.000242108 379.513 548560
0.467585 1.85035 7.53654e-05 2.85819e-06 35452 1.8472 2.85333e-06 0.00021737 466.156 647384
0.494129 2.03117 8.89427e-05 2.65855e-06 41792 2.02947 2.65634e-06 0.000194938 569.956 764012
0.522179 2.27138 0.000104966 2.51913e-06 49988 2.27123 2.51897e-06 0.000174625 721.125 901651
0.551822 2.49171 0.000123876 2.34164e-06 59110 2.48835 2.33849e-06 0.000156255 885.825 1.06409e+06
0.583147 2.74839 0.000146192 2.18859e-06 69716 2.74347 2.18466e-06 0.000139664 1092.48 1.25578e+06
0.616251 3.03839 0.000172529 2.05017e-06 82210 3.03214 2.04596e-06 0.0001247 1351.6 1.48202e+06
0.651234 3.34505 0.000203611 1.91255e-06 96722 3.3375 1.90823e-06 0.00011122 1663.23 1.74901e+06
0.688203 3.74878 0.000240292 1.81619e-06 113098 3.7429 1.81334e-06 9.90935e-05 2072.86 2.06409e+06
0.72727 4.12502 0.000283581 1.6934e-06 135190 4.11923 1.69102e-06 8.81969e-05 2595.67 2.43595e+06
0.768555 4.56308 0.000334669 1.58727e-06 158170 4.5574 1.5853e-06 7.84179e-05 3201.55 2.87479e+06
0.812184 5.10204 0.000394961 1.50383e-06 188560 5.09349 1.50131e-06 6.96525e-05 4071.11 3.39269e+06
0.85829 5.66097 0.000466114 1.41387e-06 220444 5.65187 1.4116e-06 6.1805e-05 5042.93 4.00389e+06
0.907013 6.29463 0.000550086 1.33214e-06 261388 6.28487 1.33007e-06 5.47875e-05 6355.56 4.7252e+06
0.958501 7.0123 0.000649185 1.25748e-06 308244 7.00245 1.25572e-06 4.85194e-05 7988.78 5.57646e+06
1.01291 7.84648 0.000766138 1.19228e-06 364396 7.83337 1.19029e-06 4.29272e-05 10120.9 6.58107e+06
1.07041 8.71248 0.00090416 1.12178e-06 429162 8.69701 1.11979e-06 3.79435e-05 12687.9 7.76667e+06
1.13118 9.74997 0.00106705 1.06373e-06 506358 9.73325 1.0619e-06 3.3507e-05 16075 9.16586e+06
1.19539 10.8619 0.00125928 1.00414e-06 598590 10.8421 1.00231e-06 2.9562e-05 20332.4 1.08171e+07
1.26325 12.0886 0.00148614 9.46946e-07 704844 12.0662 9.45191e-07 2.60578e-05 25614.2 1.27658e+07
1.33496 13.4823 0.00175387 8.94902e-07 834620 13.4546 8.93064e-07 2.29484e-05 32547 1.50656e+07
1.41075 14.9474 0.00206984 8.40697e-07 981444 14.9168 8.38977e-07 2.01923e-05 40862 1.77798e+07
1.49083 16.6878 0.00244272 7.95306e-07 1.15998e+06 16.6565 7.93815e-07 1.77518e-05 51968.7 2.09828e+07
1.57546 18.5508 0.00288279 7.49133e-07 1.36931e+06 18.5143 7.4766e-07 1.55929e-05 65786.2 2.4763e+07
1.66489 20.5477 0.00340213 7.03109e-07 1.61652e+06 20.5087 7.01775e-07 1.3685e-05 83053.3 2.92241e+07
1.75941 22.6837 0.00401503 6.57711e-07 1.90601e+06 22.6399 6.56441e-07 1.20007e-05 104461 3.44889e+07
1.85928 25.0458 0.00473835 6.15344e-07 2.24913e+06 24.9982 6.14174e-07 1.05151e-05 131619 4.07021e+07
1.96483 27.6351 0.00559198 5.75315e-07 2.65744e+06 27.5817 5.74204e-07 9.20606e-06 166072 4.80347e+07
2.07637 30.5004 0.00659939 5.38038e-07 3.13125e+06 30.4433 5.3703e-07 8.05366e-06 209188 5.66883e+07
2.19424 33.4292 0.00778828 4.99682e-07 3.69915e+06 33.3678 4.98765e-07 7.04008e-06 262554 6.69008e+07
2.3188 36.6489 0.00919136 4.64185e-07 4.36472e+06 36.5804 4.63317e-07 6.1494e-06 329469 7.89532e+07
2.45043 40.0233 0.0108472 4.29541e-07 5.14913e+06 39.9498 4.28752e-07 5.36741e-06 412073 9.31768e+07
2.58954 43.6206 0.0128014 3.96685e-07 6.07894e+06 43.5437 3.95986e-07 4.68145e-06 515102 1.09963e+08
2.73654 47.4339 0.0151076 3.65515e-07 7.17304e+06 47.3495 3.64864e-07 4.08023e-06 642574 1.29773e+08
2.89188 51.5038 0.0178292 3.36292e-07 8.46557e+06 51.4116 3.3569e-07 3.55373e-06 801103 1.53152e+08
3.05605 55.7735 0.0210412 3.08579e-07 9.98773e+06 55.6786 3.08054e-07 3.09304e-06 996433 1.80743e+08
3.22953 60.191 0.0248319 2.82184e-07 1.1797e+07 60.0874 2.81698e-07 2.69025e-06 1.2374e+06 2.13304e+08
3.41286 64.9719 0.0293054 2.581e-07 1.39144e+07 64.8597 2.57655e-07 2.33837e-06 1.53581e+06 2.51731e+08
3.6066 69.8358 0.0345848 2.35073e-07 1.64163e+07 69.7197 2.34682e-07 2.0312e-06 1.89987e+06 2.97081e+08
3.81134 75.1072 0.0408154 2.14224e-07 1.93821e+07 74.9814 2.13865e-07 1.76327e-06 2.35479e+06 3.50601e+08
4.0277 80.5647 0.0481684 1.94712e-07 2.28754e+07 80.4306 1.94388e-07 1.52972e-06 2.91172e+06 4.13763e+08
4.25634 86.1666 0.056846 1.76461e-07 2.69929e+07 86.0223 1.76165e-07 1.32631e-06 3.59132e+06 4.88304e+08
4.49796 92.1594 0.067087 1.59923e-07 3.18542e+07 92.0047 1.59655e-07 1.14926e-06 4.43263e+06 5.76273e+08
4.7533 98.3659 0.0791729 1.44637e-07 3.75892e+07 98.2031 1.44397e-07 9.95263e-07 5.46265e+06 6.8009e+08
5.02313 104.924 0.0934361 1.30728e-07 4.43706e+07 104.751 1.30513e-07 8.61414e-07 6.73368e+06 8.0261e+08
5.30828 111.763 0.110269 1.17993e-07 5.23593e+07 111.578 1.17797e-07 7.45152e-07 8.29095e+06 9.47202e+08
5.60962 118.943 0.130134 1.06404e-07 6.1787e+07 118.746 1.06228e-07 6.44232e-07 1.0205e+07 1.11784e+09
5.92807 126.414 0.153578 9.58241e-08 7.29346e+07 126.206 9.56671e-08 5.56685e-07 1.25545e+07 1.31923e+09
6.26459 134.209 0.181246 8.62033e-08 8.60651e+07 133.985 8.60596e-08 4.80786e-07 1.54312e+07 1.55689e+09
6.62021 142.357 0.213898 7.74788e-08 1.01558e+08 142.122 7.73509e-08 4.15026e-07 1.89593e+07 1.83737e+09
6.99602 150.844 0.252432 6.95656e-08 1.1986e+08 150.598 6.94521e-08 3.58083e-07 2.32855e+07 2.16837e+09
7.39317 159.768 0.297908 6.24334e-08 1.41457e+08 159.505 6.23309e-08 3.08803e-07 2.85995e+07 2.55901e+09
7.81286 169.056 0.351577 5.59784e-08 1.66936e+08 168.778 5.58864e-08 2.66181e-07 3.51069e+07 3.02002e+09
8.25637 178.902 0.414914 5.01957e-08 1.97025e+08 178.609 5.01134e-08 2.29336e-07 4.31237e+07 3.56409e+09
8.72507 189.274 0.489662 4.49991e-08 2.32497e+08 188.961 4.49248e-08 1.97503e-07 5.29721e+07 4.20617e+09
9.22037 200.37 0.577876 4.03653e-08 2.74404e+08 200.033 4.02973e-08 1.70014e-07 6.51499e+07 4.96392e+09
9.74378 212.54 0.681982 3.62808e-08 3.2382e+08 212.177 3.62189e-08 1.46289e-07 8.03098e+07 5.85818e+09
10.2969 226.203 0.804843 3.27188e-08 3.82165e+08 225.801 3.26606e-08 1.25822e-07 9.93781e+07 6.91355e+09
10.8814 242.482 0.949838 2.97194e-08 4.51027e+08 242.019 2.96627e-08 1.08175e-07 1.23912e+08 8.15905e+09
11.4992 263.289 1.12095 2.73436e-08 5.32251e+08 262.729 2.72854e-08 9.29669e-08 1.56546e+08 9.62892e+09
12.1519 292.564 1.3229 2.57458e-08 6.28157e+08 291.829 2.56811e-08 7.98658e-08 2.02495e+08 1.13636e+10
12.8418 325.407 1.56122 2.42646e-08 3.82727e+08 336.809 2.51148e-08 6.85852e-08 1.35404e+08 1.34108e+10
13.5708 0 1.84248 0 0 0 0 5.88765e-08 0 1.58268e+10
14.3411 0 2.17441 0 0 0 0 5.05241e-08 0 1.8678e+10
15.1552 0 2.56613 0 0 0 0 4.33417e-08 0 2.20429e+10
16.0156 0 3.02843 0 0 0 0 3.71677e-08 0 2.6014e+10
16.9247 0 3.574 0 0 0 0 3.18628e-08 0 3.07005e+10
17.8855 0 4.21787 0 0 0 0 2.73063e-08 0 3.62312e+10
18.9008 0 4.97773 0 0 0 0 2.33941e-08 0 4.27584e+10
19.9738 0 5.87448 0 0 0 0 2.00364e-08 0 5.04614e+10
21.1076 0 6.93279 0 0 0 0 1.71555e-08 0 5.95522e+10
22.3058 0 8.18175 0 0 0 0 1.46847e-08 0 7.02807e+10
23.5721 0 9.65571 0 0 0 0 1.25662e-08 0 8.29419e+10
24.9102 0 11.3952 0 0 0 0 1.07504e-08 0 9.78842e+10
26.3243 0 13.4481 0 0 0 0 9.19452e-09 0 1.15518e+11
27.8187 0 15.8708 0 0 0 0 7.86182e-09 0 1.36329e+11
29.3979 0 18.73 0 0 0 0 6.72061e-09 0 1.60889e+11
31.0667 0 22.1042 0 0 0 0 5.74366e-09 0 1.89874e+11
32.8303 0 26.0864 0 0 0 0 4.90756e-09 0 2.2408e+11
34.694 0 30.7859 0 0 0 0 4.19221e-09 0 2.64449e+11
36.6634 0 36.3321 0 0 0 0 3.58032e-09 0 3.1209e+11
38.7447 0 42.8774 0 0 0 0 3.05709e-09 0 3.68314e+11
40.9442 0 50.6018 0 0 0 0 2.60976e-09 0 4.34667e+11
43.2685 0 59.7179 0 0 0 0 2.22743e-09 0 5.12973e+11
45.7247 0 70.4762 0 0 0 0 1.90073e-09 0 6.05386e+11
48.3204 0 83.1727 0 0 0 0 1.62163e-09 0 7.14448e+11
51.0634 0 98.1565 0 0 0 0 1.38326e-09 0 8.43158e+11
53.9621 0 115.84 0 0 0 0 1.1797e-09 0 9.95055e+11
57.0254 0 136.709 0 0 0 0 1.00592e-09 0 1.17432e+12
60.2626 0 161.337 0 0 0 0 8.57591e-10 0 1.38587e+12
63.6835 0 190.402 0 0 0 0 7.3101e-10 0 1.63554e+12
67.2987 0 224.704 0 0 0 0 6.23009e-10 0 1.93019e+12
71.1191 0 265.185 0 0 0 0 5.30879e-10 0 2.27792e+12
75.1563 0 312.958 0 0 0 0 4.52303e-10 0 2.68829e+12
79.4227 0 369.339 0 0 0 0 3.85299e-10 0 3.17259e+12
83.9313 0 435.876 0 0 0 0 3.28173e-10 0 3.74415e+12
88.6959 0 514.4 0 0 0 0 2.79476e-10 0 4.41866e+12
93.7309 0 607.071 0 0 0 0 2.37972e-10 0 5.2147e+12
99.0518 0 716.436 0 0 0 0 2.02605e-10 0 6.15414e+12
104.675 0 845.504 0 0 0 0 1.72471e-10 0 7.26283e+12
110.617 0 997.824 0 0 0 0 1.468e-10 0 8.57124e+12
116.896 0 1177.58 0 0 0 0 1.24935e-10 0 1.01154e+13
123.532 0 1389.73 0 0 0 0 1.06313e-10 0 1.19377e+13
130.545 0 1640.09 0 0 0 0 9.04567e-11 0 1.40883e+13
137.955 0 1935.56 0 0 0 0 7.69563e-11 0 1.66263e+13
145.787 0 2284.26 0 0 0 0 6.54636e-11 0 1.96216e+13
154.063 0 2695.77 0 0 0 0 5.56812e-11 0 2.31565e+13
162.808 0 3181.42 0 0 0 0 4.73556e-11 0 2.73282e+13
172.051 0 3754.56 0 0 0 0 4.02708e-11 0 3.22515e+13
181.818 0 4430.96 0 0 0 0 3.42426e-11 0 3.80616e+13
192.139 0 5229.21 0 0 0 0 2.91139e-11 0 4.49186e+13
203.046 0 6171.26 0 0 0 0 2.4751e-11 0 5.30108e+13
214.572 0 7283.03 0 0 0 0 2.10401e-11 0 6.25608e+13
226.753 0 8595.09 0 0 0 0 1.78839e-11 0 7.38313e+13
239.625 0 10143.5 0 0 0 0 1.51999e-11 0 8.71322e+13
253.228 0 11970.9 0 0 0 0 1.29176e-11 0 1.02829e+14
267.603 0 14127.5 0 0 0 0 1.09771e-11 0 1.21354e+14
282.795 0 16672.6 0 0 0 0 9.3274e-12 0 1.43217e+14
298.848 0 19676.2 0 0 0 0 7.925e-12 0 1.69017e+14
315.813 0 23220.9 0 0 0 0 6.73295e-12 0 1.99466e+14
333.741 0 27404.3 0 0 0 0 5.71979e-12 0 2.35401e+14
352.686 0 32341.2 0 0 0 0 4.85874e-12 0 2.77809e+14
372.707 0 38167.6 0 0 0 0 4.12703e-12 0 3.27857e+14
393.865 0 45043.5 0 0 0 0 3.50528e-12 0 3.86921e+14
416.224 0 53158.3 0 0 0 0 2.97701e-12 0 4.56626e+14
439.852 0 62734.9 0 0 0 0 2.52819e-12 0 5.38888e+14
464.821 0 74036.7 0 0 0 0 2.1469e-12 0 6.35971e+14
491.207 0 87374.6 0 0 0 0 1.82301e-12 0 7.50542e+14
519.092 0 103115 0 0 0 0 1.54789e-12 0 8.85755e+14
548.56 0 121692 0 0 0 0 1.31422e-12 0 1.04533e+15
579.7 0 143615 0 0 0 0 1.11576e-12 0 1.23364e+15
612.608 0 169488 0 0 0 0 9.47223e-13 0 1.45589e+15
647.384 0 200021 0 0 0 0 8.041e-13 0 1.71817e+15
684.134 0 236056 0 0 0 0 6.82568e-13 0 2.0277e+15
722.971 0 278582 0 0 0 0 5.79376e-13 0 2.393e+15
764.012 0 328769 0 0 0 0 4.91762e-13 0 2.8241e+15
