0.191976
200
1.0655e+09
8589934592
0.0129181 0 1.58924e-09 0 0 0 0 0.00677225 0 13.6515
0.0136515 0 1.87554e-09 0 0 0 0 0.00688819 0 16.1108
0.0144264 0 2.21343e-09 0 0 0 0 0.00699249 0 19.0132
0.0152454 0 2.61218e-09 0 0 0 0 0.00708412 0 22.4385
0.0161108 0 3.08278e-09 0 0 0 0 0.00716212 0 26.4808
0.0170254 0 3.63815e-09 0 0 0 0 0.00722559 0 31.2514
0.0179919 0 4.29357e-09 0 0 0 0 0.00727371 0 36.8815
0.0190132 0 5.06707e-09 0 0 0 0 0.00730578 0 43.5258
0.0200925 0 5.97991e-09 0 0 0 0 0.00732122 0 51.367
0.0212331 0 7.05721e-09 0 0 0 0 0.00731958 0 60.621
0.0224385 0 8.32858e-09 0 0 0 0 0.00730056 0 71.542
0.0237123 0 9.829e-09 0 0 0 0 0.00726401 0 84.4305
0.0250583 0 1.15997e-08 0 0 0 0 0.00720995 0 99.6408
0.0264808 0 1.36894e-08 0 0 0 0 0.00713857 0 117.591
0.0279841 0 1.61556e-08 0 0 0 0 0.00705021 0 138.776
0.0295727 0 1.90661e-08 0 0 0 0 0.00694538 0 163.777
0.0312514 0 2.25009e-08 0 0 0 0 0.00682475 0 193.281
0.0330255 0 2.65545e-08 0 0 0 0 0.00668915 0 228.102
0.0349003 0 3.13384e-08 0 0 0 0 0.00653951 0 269.195
0.0368815 0 3.69841e-08 0 0 0 0 0.00637693 0 317.691
0.0389751 0 4.36469e-08 0 0 0 0 0.00620256 0 374.924
0.0411876 0 5.151e-08 0 0 0 0 0.00601767 0 442.467
0.0435258 0 6.07896e-08 0 0 0 0 0.00582358 0 522.179
0.0459966 0 7.1741e-08 0 0 0 0 0.00562166 0 616.251
0.0486077 0 8.46654e-08 0 0 0 0 0.0054133 0 727.27
0.051367 0 9.99181e-08 0 0 0 0 0.00519989 0 858.29
0.054283 0 1.17919e-07 0 0 0 0 0.0049828 0 1012.91
0.0573645 0 1.39162e-07 0 0 0 0 0.00476339 0 1195.39
0.060621 0 1.64232e-07 0 0 0 0 0.00454293 0 1410.75
0.0640622 0 1.93819e-07 0 0 0 0 0.00432265 0 1664.89
0.0676989 0 2.28736e-07 0 0 0 0 0.00410371 0 1964.83
0.071542 0 2.69944e-07 0 0 0 0 0.00388717 0 2318.8
0.0756032 0 3.18575e-07 0 0 0 0 0.00367401 0 2736.54
0.079895 0 3.75967e-07 0 0 0 0 0.0034651 0 3229.53
0.0844305 0 4.43698e-07 0 0 0 0 0.00326121 0 3811.34
0.0892234 0 5.23632e-07 0 0 0 0 0.00306301 0 4497.96
0.0942883 0 6.17966e-07 0 0 0 0 0.00287109 0 5308.28
0.0996408 0 7.29294e-07 0 0 0 0 0.00268591 0 6264.59
0.105297 0 8.60678e-07 0 0 0 0 0.00250785 0 7393.17
0.111275 0 1.01573e-06 0 0 0 0 0.00233721 0 8725.07
0.117591 0 1.19872e-06 0 0 0 0 0.00217419 0 10296.9
0.124267 0 1.41467e-06 0 0 0 0 0.00201893 0 12151.9
0.131321 0 1.66953e-06 0 0 0 0 0.00187147 0 14341.1
0.138776 0 1.9703e-06 0 0 0 0 0.00173182 0 16924.7
0.146654 0 2.32525e-06 0 0 0 0 0.00159991 0 19973.8
0.154979 0 2.74415e-06 0 0 0 0 0.00147563 0 23572.1
0.163777 0 3.23852e-06 0 0 0 0 0.00135884 0 27818.7
0.173074 0 3.82195e-06 0 0 0 0 0.00124933 0 32830.3
0.182899 0 4.51048e-06 0 0 0 0 0.00114689 0 38744.7
0.193281 0 5.32305e-06 0 0 0 0 0.00105127 0 45724.7
0.204254 0 6.28202e-06 0 0 0 0 0.000962209 0 53962.1
0.215848 0 7.41374e-06 0 0 0 0 0.000879423 0 63683.5
0.228102 0 8.74934e-06 0 0 0 0 0.000802624 0 75156.3
0.24105 0 1.03256e-05 0 0 0 0 0.000731515 0 88695.9
0.254734 0 1.21857e-05 0 0 0 0 0.000665798 0 104675
0.269195 0 1.4381e-05 0 0 0 0 0.000605173 0 123532
0.284476 0 1.69718e-05 0 0 0 0 0.000549345 0 145787
0.300625 0 2.00293e-05 0 0 0 0 0.000498021 0 172051
0.317691 0 2.36377e-05 0 0 0 0 0.000450916 0 203046
0.335725 0 2.78961e-05 0 0 0 0 0.000407755 0 239625
0.354784 0 3.29216e-05 0 0 0 0 0.000368269 0 282795
0.374924 0 3.88525e-05 0 0 0 0 0.000332202 0 333741
0.396207 0.58859 4.58519e-05 1.4944e-06 6 0.572227 1.45285e-06 0.000299307 0.0299571 393865
0.418699 0 5.41123e-05 0 0 0 0 0.00026935 0 464821
0.442467 0 6.38607e-05 0 0 0 0 0.000242108 0 548560
0.467585 0 7.53654e-05 0 0 0 0 0.00021737 0 647384
0.494129 0 8.89427e-05 0 0 0 0 0.000194938 0 764012
0.522179 0 0.000104966 0 0 0 0 0.000174625 0 901651
0.551822 0 0.000123876 0 0 0 0 0.000156255 0 1.06409e+06
0.583147 7.18199 0.000146192 5.71913e-06 12 7.55909 6.01942e-06 0.000139664 0.491391 1.25578e+06
0.616251 0 0.000172529 0 0 0 0 0.0001247 0 1.48202e+06
0.651234 0 0.000203611 0 0 0 0 0.00011122 0 1.74901e+06
0.688203 21.0547 0.000240292 1.02004e-05 8 20.5308 9.94666e-06 9.90935e-05 0.8235 2.06409e+06
0.72727 0 0.000283581 0 0 0 0 8.81969e-05 0 2.43595e+06
0.768555 0 0.000334669 0 0 0 0 7.84179e-05 0 2.87479e+06
0.812184 0.382015 0.000394961 1.12599e-07 6 0.390182 1.15007e-07 6.96525e-05 0.00969953 3.39269e+06
0.85829 0 0.000466114 0 0 0 0 6.1805e-05 0 4.00389e+06
0.907013 0.384995 0.000550086 8.1477e-08 24 0.392382 8.30403e-08 5.47875e-05 0.0356915 4.7252e+06
0.958501 1.22614 0.000649185 2.19878e-07 24 1.15432 2.06999e-07 4.85194e-05 0.108762 5.57646e+06
1.01291 0 0.000766138 0 0 0 0 4.29272e-05 0 6.58107e+06
1.07041 0 0.00090416 0 0 0 0 3.79435e-05 0 7.76667e+06
1.13118 1.03973 0.00106705 1.13435e-07 12 1.02696 1.12041e-07 3.3507e-05 0.0406249 9.16586e+06
1.19539 1.05216 0.00125928 9.72677e-08 30 1.03047 9.52625e-08 2.9562e-05 0.0987088 1.08171e+07
1.26325 7.89094 0.00148614 6.18129e-07 24 7.7722 6.08827e-07 2.60578e-05 0.569314 1.27658e+07
1.33496 18.2445 0.00175387 1.211e-06 24 18.2846 1.21366e-06 2.29484e-05 1.26649 1.50656e+07
1.41075 6.90406 0.00206984 3.8831e-07 32 7.09117 3.98834e-07 2.01923e-05 0.615379 1.77798e+07
1.49083 0.698613 0.00244272 3.32945e-08 48 0.683719 3.25847e-08 1.77518e-05 0.0900269 2.09828e+07
1.57546 0.195404 0.00288279 7.89096e-09 6 0.186068 7.51397e-09 1.55929e-05 0.00303638 2.4763e+07
1.66489 0.746379 0.00340213 2.55399e-08 84 0.728212 2.49182e-08 1.3685e-05 0.156766 2.92241e+07
1.75941 2.67062 0.00401503 7.74343e-08 48 2.68564 7.78699e-08 1.20007e-05 0.309719 3.44889e+07
1.85928 0.618648 0.00473835 1.51994e-08 72 0.627042 1.54056e-08 1.05151e-05 0.104075 4.07021e+07
1.96483 1.09096 0.00559198 2.27119e-08 54 1.0669 2.2211e-08 9.20606e-06 0.133221 4.80347e+07
2.07637 9.52862 0.00659939 1.68088e-07 104 9.52947 1.68103e-07 8.05366e-06 2.17059 5.66883e+07
2.19424 0.728076 0.00778828 1.08829e-08 120 0.737915 1.103e-08 7.04008e-06 0.185502 6.69008e+07
2.3188 2.15018 0.00919136 2.72336e-08 156 2.06015 2.60933e-08 6.1494e-06 0.69087 7.89532e+07
2.45043 1.1749 0.0108472 1.26094e-08 126 1.16286 1.24801e-08 5.36741e-06 0.296005 9.31768e+07
2.58954 1.21557 0.0128014 1.10544e-08 192 1.22629 1.11518e-08 4.68145e-06 0.453372 1.09963e+08
2.73654 5.03104 0.0151076 3.8768e-08 152 5.20341 4.00963e-08 4.08023e-06 1.44421 1.29773e+08
2.89188 4.46233 0.0178292 2.91366e-08 378 4.55621 2.97496e-08 3.55373e-06 3.09918 1.53152e+08
3.05605 1.8054 0.0210412 9.9888e-09 264 1.7754 9.82283e-09 3.09304e-06 0.852573 1.80743e+08
3.22953 0.754028 0.0248319 3.53499e-09 366 0.748539 3.50926e-09 2.69025e-06 0.480924 2.13304e+08
3.41286 1.25314 0.0293054 4.97809e-09 428 1.21287 4.8181e-09 2.33837e-06 0.911155 2.51731e+08
3.6066 3.90984 0.0345848 1.31608e-08 486 3.79406 1.27711e-08 2.0312e-06 3.14895 2.97081e+08
3.81134 1.33269 0.0408154 3.80116e-09 600 1.33054 3.79503e-09 1.76327e-06 1.29345 3.50601e+08
4.0277 1.3111 0.0481684 3.16872e-09 738 1.28878 3.11477e-09 1.52972e-06 1.52872 4.13763e+08
4.25634 1.92025 0.056846 3.93248e-09 824 1.96314 4.02033e-09 1.32631e-06 2.44315 4.88304e+08
4.49796 3.50893 0.067087 6.089e-09 954 3.52348 6.11425e-09 1.14926e-06 5.05449 5.76273e+08
4.7533 1.47487 0.0791729 2.16863e-09 1094 1.46199 2.1497e-09 9.95263e-07 2.38378 6.8009e+08
5.02313 1.38546 0.0934361 1.7262e-09 1332 1.39159 1.73383e-09 8.61414e-07 2.66921 8.0261e+08
5.30828 3.33979 0.110269 3.52596e-09 1614 3.36496 3.55253e-09 7.45152e-07 7.63722 9.47202e+08
5.60962 2.35395 0.130134 2.1058e-09 1850 2.31756 2.07324e-09 6.44232e-07 6.04708 1.11784e+09
5.92807 2.74416 0.153578 2.08013e-09 2238 2.68575 2.03585e-09 5.56685e-07 8.36259 1.31923e+09
6.26459 2.09438 0.181246 1.34523e-09 2546 2.11271 1.35701e-09 4.80786e-07 7.12367 1.55689e+09
6.62021 1.78589 0.213898 9.71981e-10 3264 1.78848 9.73392e-10 4.15026e-07 7.64422 1.83737e+09
6.99602 3.02142 0.252432 1.39341e-09 3506 3.06915 1.41541e-09 3.58083e-07 13.6429 2.16837e+09
7.39317 2.65598 0.297908 1.03789e-09 4506 2.66471 1.04131e-09 3.08803e-07 15.1448 2.55901e+09
7.81286 3.25982 0.351577 1.0794e-09 5018 3.29137 1.08985e-09 2.66181e-07 20.3487 3.02002e+09
8.25637 3.33156 0.414914 9.34758e-10 5852 3.29641 9.24895e-10 2.29336e-07 23.8523 3.56409e+09
8.72507 3.31667 0.489662 7.88526e-10 7362 3.30803 7.86471e-10 1.97503e-07 29.3926 4.20617e+09
9.22037 3.72199 0.577876 7.49809e-10 8306 3.70031 7.45442e-10 1.70014e-07 36.6317 4.96392e+09
9.74378 3.35946 0.681982 5.73464e-10 9698 3.35536 5.72765e-10 1.46289e-07 38.0169 5.85818e+09
10.2969 4.34358 0.804843 6.28271e-10 11816 4.35662 6.30156e-10 1.25822e-07 59.001 6.91355e+09
10.8814 4.42003 0.949838 5.41734e-10 13682 4.41976 5.41701e-10 1.08175e-07 68.5183 8.15905e+09
11.4992 4.89524 1.12095 5.08389e-10 16152 4.87933 5.06737e-10 9.29669e-08 88.3271 9.62892e+09
12.1519 5.21839 1.3229 4.5922e-10 19472 5.19279 4.56967e-10 7.98658e-08 111.962 1.13636e+10
12.8418 5.21071 1.56122 3.88546e-10 22670 5.1987 3.87651e-10 6.85852e-08 128.429 1.34108e+10
13.5708 5.93413 1.84248 3.74943e-10 26224 5.93306 3.74875e-10 5.88765e-08 167.002 1.58268e+10
14.3411 6.40585 2.17441 3.42962e-10 31640 6.40994 3.43182e-10 5.05241e-08 214.775 1.8678e+10
15.1552 7.05475 2.56613 3.20046e-10 37484 7.04788 3.19735e-10 4.33417e-08 276.792 2.20429e+10
16.0156 7.62217 3.02843 2.93003e-10 43856 7.61452 2.92709e-10 3.71677e-08 345.728 2.6014e+10
16.9247 8.70359 3.574 2.835e-10 51362 8.68975 2.8305e-10 3.18628e-08 456.995 3.07005e+10
17.8855 9.21473 4.21787 2.54331e-10 61636 9.19757 2.53857e-10 2.73063e-08 574.078 3.62312e+10
18.9008 10.147 4.97773 2.3731e-10 72218 10.1221 2.36727e-10 2.33941e-08 732.579 4.27584e+10
19.9738 11.2868 5.87448 2.23672e-10 84586 11.2557 2.23055e-10 2.00364e-08 944.26 5.04614e+10
21.1076 12.3883 6.93279 2.08024e-10 100708 12.3628 2.07595e-10 1.71555e-08 1221.16 5.95522e+10
22.3058 13.6084 8.18175 1.93629e-10 118712 13.5783 1.93202e-10 1.46847e-08 1565.31 7.02807e+10
23.5721 14.7731 9.65571 1.78114e-10 140410 14.7303 1.77597e-10 1.25662e-08 1990.19 8.29419e+10
24.9102 16.5043 11.3952 1.68611e-10 164374 16.465 1.68209e-10 1.07504e-08 2578.07 9.78842e+10
26.3243 17.9596 13.4481 1.5547e-10 194680 17.915 1.55084e-10 9.19452e-09 3291.84 1.15518e+11
27.8187 19.7736 15.8708 1.45043e-10 230196 19.7269 1.44701e-10 7.86182e-09 4246.9 1.36329e+11
29.3979 21.7504 18.73 1.35189e-10 271156 21.7029 1.34894e-10 6.72061e-09 5454.44 1.60889e+11
31.0667 24.0196 22.1042 1.26503e-10 321076 23.9584 1.26181e-10 5.74366e-09 7071.64 1.89874e+11
32.8303 26.4927 26.0864 1.18229e-10 377436 26.4299 1.17948e-10 4.90756e-09 9092.86 2.2408e+11
34.694 29.4638 30.7859 1.11416e-10 447594 29.3899 1.11136e-10 4.19221e-09 11895.7 2.64449e+11
36.6634 32.7139 36.3321 1.04822e-10 525078 32.6263 1.04541e-10 3.58032e-09 15372.9 3.1209e+11
38.7447 36.601 42.8774 9.93744e-11 621924 36.5042 9.91116e-11 3.05709e-09 20216.4 3.68314e+11
40.9442 40.8792 50.6018 9.40472e-11 732630 40.7696 9.37952e-11 2.60976e-09 26401.6 4.34667e+11
43.2685 45.9062 59.7179 8.94906e-11 865596 45.7831 8.92506e-11 2.22743e-09 34776.7 5.12973e+11
45.7247 51.8751 70.4762 8.56892e-11 1.02168e+06 51.7331 8.54547e-11 1.90073e-09 46059.4 6.05386e+11
48.3204 58.5613 83.1727 8.19671e-11 1.20544e+06 58.395 8.17344e-11 1.62163e-09 60930.1 7.14448e+11
51.0634 66.4434 98.1565 7.8803e-11 1.42103e+06 66.2574 7.85824e-11 1.38326e-09 80954.9 8.43158e+11
53.9621 75.6243 115.84 7.60001e-11 1.67997e+06 75.406 7.57807e-11 1.1797e-09 108229 9.95055e+11
57.0254 86.6103 136.709 7.37538e-11 1.98018e+06 86.359 7.35398e-11 1.00592e-09 145186 1.17432e+12
60.2626 99.1333 161.337 7.15312e-11 2.33957e+06 98.8493 7.13263e-11 8.57591e-10 195142 1.38587e+12
63.6835 114.314 190.402 6.98936e-11 2.75676e+06 113.982 6.96904e-11 7.3101e-10 263581 1.63554e+12
67.2987 131.558 224.704 6.81582e-11 3.25638e+06 131.169 6.79567e-11 6.23009e-10 356253 1.93019e+12
71.1191 152.353 265.185 6.68826e-11 3.84387e+06 151.893 6.66804e-11 5.30879e-10 484269 2.27792e+12
75.1563 186.102 312.958 6.92268e-11 4.53277e+06 184.845 6.87592e-11 4.52303e-10 693757 2.68829e+12
79.4227 205.676 369.339 6.48288e-11 5.35083e+06 205.056 6.46336e-11 3.85299e-10 900307 3.17259e+12
83.9313 239.857 435.876 6.40618e-11 6.32174e+06 239.108 6.38619e-11 3.28173e-10 1.23405e+06 3.74415e+12
88.6959 280.015 514.4 6.33711e-11 7.44986e+06 279.119 6.31683e-11 2.79476e-10 1.68925e+06 4.41866e+12
93.7309 327.826 607.071 6.28658e-11 8.79764e+06 326.771 6.26635e-11 2.37972e-10 2.3241e+06 5.2147e+12
99.0518 384.119 716.436 6.24164e-11 1.03827e+07 382.891 6.22169e-11 2.02605e-10 3.19859e+06 6.15414e+12
104.675 458.346 845.504 6.31085e-11 1.22515e+07 457.248 6.29573e-11 1.72471e-10 4.48293e+06 7.26283e+12
110.617 529.669 997.824 6.1796e-11 1.44573e+07 527.97 6.15979e-11 1.468e-10 6.08586e+06 8.57124e+12
116.896 622.962 1177.58 6.15856e-11 1.70664e+07 620.935 6.13853e-11 1.24935e-10 8.41275e+06 1.01154e+13
123.532 732.678 1389.73 6.13752e-11 2.0139e+07 730.29 6.11752e-11 1.06313e-10 1.16264e+07 1.19377e+13
130.545 862.786 1640.09 6.12413e-11 2.37643e+07 859.941 6.10394e-11 9.04567e-11 1.6089e+07 1.40883e+13
137.955 1015.18 1935.56 6.10585e-11 2.80503e+07 1011.83 6.08572e-11 7.69563e-11 2.22556e+07 1.66263e+13
145.787 1197.39 2284.26 6.10241e-11 3.30981e+07 1193.43 6.08223e-11 6.54636e-11 3.08535e+07 1.96216e+13
154.063 1411.28 2695.77 6.09452e-11 3.90634e+07 1406.63 6.07443e-11 5.56812e-11 4.27564e+07 2.31565e+13
162.808 1663.88 3181.42 6.0885e-11 4.61057e+07 1658.34 6.06822e-11 4.73556e-11 5.9278e+07 2.73282e+13
172.051 1963.2 3754.56 6.08718e-11 5.44046e+07 1956.65 6.06687e-11 4.02708e-11 8.22358e+07 3.22515e+13
181.818 2319.74 4430.96 6.09468e-11 6.42064e+07 2312.05 6.07448e-11 3.42426e-11 1.14278e+08 3.80616e+13
192.139 2740.91 5229.21 6.10196e-11 7.57748e+07 2731.72 6.0815e-11 2.91139e-11 1.58816e+08 4.49186e+13
203.046 3240.75 6171.26 6.11337e-11 8.94213e+07 3229.8 6.09272e-11 2.4751e-11 2.20866e+08 5.30108e+13
214.572 3833.17 7283.03 6.12711e-11 1.05538e+08 3820.26 6.10648e-11 2.10401e-11 3.0734e+08 6.25608e+13
226.753 4539 8595.09 6.1478e-11 1.24552e+08 4523.58 6.12691e-11 1.78839e-11 4.28161e+08 7.38313e+13
239.625 5384.58 10143.5 6.17978e-11 1.46987e+08 5366.2 6.15869e-11 1.51999e-11 5.97602e+08 8.71322e+13
253.228 6395.01 11970.9 6.21906e-11 1.7347e+08 6373.01 6.19766e-11 1.29176e-11 8.35154e+08 1.02829e+14
267.603 7611.34 14127.5 6.272e-11 2.04703e+08 7584.88 6.2502e-11 1.09771e-11 1.16961e+09 1.21354e+14
282.795 9088.71 16672.6 6.34613e-11 2.4161e+08 9056.65 6.32375e-11 9.3274e-12 1.64385e+09 1.43217e+14
298.848 10896.7 19676.2 6.44711e-11 2.85122e+08 10857.6 6.42395e-11 7.925e-12 2.31951e+09 1.69017e+14
315.813 13134.1 23220.9 6.58462e-11 3.36491e+08 13085.9 6.56047e-11 6.73295e-12 3.29078e+09 1.99466e+14
333.741 15949.8 27404.3 6.7756e-11 3.97115e+08 15889.1 6.74979e-11 5.71979e-12 4.70418e+09 2.35401e+14
352.686 19577.5 32341.2 7.04711e-11 4.68637e+08 19499.7 7.01912e-11 4.85874e-12 6.79711e+09 2.77809e+14
372.707 24395.9 38167.6 7.44102e-11 5.53074e+08 24293.2 7.4097e-11 4.12703e-12 9.9719e+09 3.27857e+14
393.865 31043.7 45043.5 8.02326e-11 6.52716e+08 30902.8 7.98685e-11 3.50528e-12 1.49401e+10 3.86921e+14
416.224 36634.9 53158.3 8.02295e-11 2.2184e+08 38756.3 8.48753e-11 2.97701e-12 5.97851e+09 4.56626e+14
439.852 0 62734.9 0 0 0 0 2.52819e-12 0 5.38888e+14
464.821 0 74036.7 0 0 0 0 2.1469e-12 0 6.35971e+14
491.207 0 87374.6 0 0 0 0 1.82301e-12 0 7.50542e+14
519.092 0 103115 0 0 0 0 1.54789e-12 0 8.85755e+14
548.56 0 121692 0 0 0 0 1.31422e-12 0 1.04533e+15
579.7 0 143615 0 0 0 0 1.11576e-12 0 1.23364e+15
612.608 0 169488 0 0 0 0 9.47223e-13 0 1.45589e+15
647.384 0 200021 0 0 0 0 8.041e-13 0 1.71817e+15
684.134 0 236056 0 0 0 0 6.82568e-13 0 2.0277e+15
722.971 0 278582 0 0 0 0 5.79376e-13 0 2.393e+15
764.012 0 328769 0 0 0 0 4.91762e-13 0 2.8241e+15
0.191976
200
1.0655e+09
8589934592
0.0129181 0.000118421 1.58924e-09 8.67458e-06 6 0.000117336 8.59516e-06 0.00677225 0.0076854 13.6515
0.0136515 0 1.87554e-09 0 0 0 0 0.00688819 0 16.1108
0.0144264 0 2.21343e-09 0 0 0 0 0.00699249 0 19.0132
0.0152454 0 2.61218e-09 0 0 0 0 0.00708412 0 22.4385
0.0161108 0 3.08278e-09 0 0 0 0 0.00716212 0 26.4808
0.0170254 0 3.63815e-09 0 0 0 0 0.00722559 0 31.2514
0.0179919 0.000263131 4.29357e-09 7.1345e-06 12 0.000262792 7.12531e-06 0.00727371 0.0117703 36.8815
0.0190132 0 5.06707e-09 0 0 0 0 0.00730578 0 43.5258
0.0200925 0 5.97991e-09 0 0 0 0 0.00732122 0 51.367
0.0212331 0.000248918 7.05721e-09 4.10614e-06 8 0.000248701 4.10257e-06 0.00731958 0.00448784 60.621
0.0224385 0 8.32858e-09 0 0 0 0 0.00730056 0 71.542
0.0237123 0 9.829e-09 0 0 0 0 0.00726401 0 84.4305
0.0250583 0.00159773 1.15997e-08 1.60349e-05 6 0.00159698 1.60274e-05 0.00720995 0.013344 99.6408
0.0264808 0 1.36894e-08 0 0 0 0 0.00713857 0 117.591
0.0279841 0.000993562 1.61556e-08 7.15948e-06 24 0.000992542 7.15213e-06 0.00705021 0.024372 138.776
0.0295727 0 1.90661e-08 0 0 0 0 0.00694538 0 163.777
0.0312514 0.00177602 2.25009e-08 9.18878e-06 24 0.00178504 9.23543e-06 0.00682475 0.0323134 193.281
0.0330255 0 2.65545e-08 0 0 0 0 0.00668915 0 228.102
0.0349003 0.00250734 3.13384e-08 9.31422e-06 12 0.00248726 9.23964e-06 0.00653951 0.0170916 269.195
0.0368815 0.00215382 3.69841e-08 6.77962e-06 30 0.00213089 6.70743e-06 0.00637693 0.0318945 317.691
0.0389751 0.00255545 4.36469e-08 6.81592e-06 24 0.00252916 6.7458e-06 0.00620256 0.0263733 374.924
0.0411876 0.00162051 5.151e-08 3.66245e-06 24 0.00160951 3.63757e-06 0.00601767 0.0146068 442.467
0.0435258 0.0035466 6.07896e-08 6.79193e-06 8 0.00354633 6.79141e-06 0.00582358 0.00933025 522.179
0.0459966 0.00451762 7.1741e-08 7.33081e-06 72 0.00448189 7.27284e-06 0.00562166 0.0938901 616.251
0.0486077 0 8.46654e-08 0 0 0 0 0.0054133 0 727.27
0.051367 0.00670433 9.99181e-08 7.81127e-06 54 0.00668299 7.7864e-06 0.00519989 0.0811187 858.29
0.054283 0.00522981 1.17919e-07 5.16314e-06 60 0.00525179 5.18484e-06 0.0049828 0.0621715 1012.91
0.0573645 0.00517298 1.39162e-07 4.32743e-06 96 0.0051597 4.31632e-06 0.00476339 0.0872139 1195.39
0.060621 0.00598812 1.64232e-07 4.24465e-06 24 0.00590699 4.18714e-06 0.00454293 0.0224242 1410.75
0.0640622 0.0105443 1.93819e-07 6.33332e-06 134 0.01055 6.33677e-06 0.00432265 0.19633 1664.89
0.0676989 0.0101278 2.28736e-07 5.15453e-06 120 0.0100812 5.13082e-06 0.00410371 0.150728 1964.83
0.071542 0.00927949 2.69944e-07 4.00185e-06 108 0.00917897 3.9585e-06 0.00388717 0.111186 2318.8
0.0756032 0.0135123 3.18575e-07 4.93775e-06 174 0.0134414 4.91184e-06 0.00367401 0.23385 2736.54
0.079895 0.0144152 3.75967e-07 4.46356e-06 168 0.0142794 4.4215e-06 0.0034651 0.216409 3229.53
0.0844305 0.0122992 4.43698e-07 3.227e-06 168 0.0123607 3.24314e-06 0.00326121 0.166238 3811.34
0.0892234 0.0138786 5.23632e-07 3.08554e-06 290 0.0138201 3.07251e-06 0.00306301 0.292133 4497.96
0.0942883 0.0179614 6.17966e-07 3.38366e-06 288 0.0179164 3.37518e-06 0.00287109 0.339416 5308.28
0.0996408 0.016275 7.29294e-07 2.59793e-06 366 0.0161386 2.57616e-06 0.00268591 0.354011 6264.59
0.105297 0.0177706 8.60678e-07 2.40365e-06 420 0.0176477 2.38702e-06 0.00250785 0.402549 7393.17
0.111275 0.0188469 1.01573e-06 2.16008e-06 398 0.0187939 2.15401e-06 0.00233721 0.367837 8725.07
0.117591 0.0224382 1.19872e-06 2.17912e-06 624 0.0224845 2.18362e-06 0.00217419 0.625414 10296.9
0.124267 0.0249466 1.41467e-06 2.05289e-06 642 0.0249127 2.0501e-06 0.00201893 0.6528 12151.9
0.131321 0.0315793 1.66953e-06 2.20201e-06 800 0.0315906 2.2028e-06 0.00187147 0.941298 14341.1
0.138776 0.0285257 1.9703e-06 1.68544e-06 858 0.0286624 1.69352e-06 0.00173182 0.835025 16924.7
0.146654 0.030998 2.32525e-06 1.55194e-06 1080 0.0312575 1.56493e-06 0.00159991 1.04762 19973.8
0.154979 0.0367529 2.74415e-06 1.55917e-06 1286 0.0370054 1.56988e-06 0.00147563 1.3588 23572.1
0.163777 0.0347095 3.23852e-06 1.2477e-06 1650 0.0347739 1.25002e-06 0.00135884 1.51505 27818.7
0.173074 0.0408484 3.82195e-06 1.24423e-06 1778 0.0408535 1.24438e-06 0.00124933 1.77074 32830.3
0.182899 0.0399129 4.51048e-06 1.03015e-06 2112 0.04001 1.03266e-06 0.00114689 1.89702 38744.7
0.193281 0.0467941 5.32305e-06 1.02339e-06 2570 0.0468607 1.02484e-06 0.00105127 2.50183 45724.7
0.204254 0.0524504 6.28202e-06 9.71985e-07 3030 0.0524251 9.71516e-07 0.000962209 3.06078 53962.1
0.215848 0.0521972 7.41374e-06 8.19635e-07 3434 0.0521841 8.19429e-07 0.000879423 3.20054 63683.5
0.228102 0.0545458 8.74934e-06 7.25765e-07 4218 0.0545608 7.25964e-07 0.000802624 3.81409 75156.3
0.24105 0.0615267 1.03256e-05 6.93682e-07 4766 0.0615864 6.94355e-07 0.000731515 4.51951 88695.9
0.254734 0.0661119 1.21857e-05 6.31593e-07 6026 0.0660925 6.31408e-07 0.000665798 5.71642 104675
0.269195 0.0694991 1.4381e-05 5.62599e-07 6480 0.0694602 5.62284e-07 0.000605173 6.02413 123532
0.284476 0.0757081 1.69718e-05 5.19307e-07 8162 0.0758821 5.20501e-07 0.000549345 7.71571 145787
0.300625 0.0763942 2.00293e-05 4.44022e-07 9578 0.0764891 4.44573e-07 0.000498021 8.53948 172051
0.317691 0.0852335 2.36377e-05 4.19774e-07 11234 0.0851644 4.19434e-07 0.000450916 10.4581 203046
0.335725 0.0893323 2.78961e-05 3.728e-07 13344 0.0892797 3.72581e-07 0.000407755 12.2001 239625
0.354784 0.0932632 3.29216e-05 3.29791e-07 15464 0.0932049 3.29585e-07 0.000368269 13.8483 282795
0.374924 0.100194 3.88525e-05 3.00214e-07 18458 0.100185 3.00188e-07 0.000332202 16.6807 333741
0.396207 0.105645 4.58519e-05 2.68226e-07 22232 0.105496 2.67847e-07 0.000299307 19.9234 393865
0.418699 0.114507 5.41123e-05 2.46346e-07 25628 0.114252 2.45797e-07 0.00026935 23.4393 464821
0.442467 0.120655 6.38607e-05 2.19949e-07 30320 0.120427 2.19533e-07 0.000242108 27.5449 548560
0.467585 0.126366 7.53654e-05 1.95194e-07 35452 0.126185 1.94916e-07 0.00021737 31.8352 647384
0.494129 0.132658 8.89427e-05 1.73634e-07 41792 0.132602 1.73559e-07 0.000194938 37.2246 764012
0.522179 0.143402 0.000104966 1.59044e-07 49988 0.143356 1.58993e-07 0.000174625 45.5278 901651
0.551822 0.150787 0.000123876 1.41706e-07 59110 0.150682 1.41607e-07 0.000156255 53.6062 1.06409e+06
0.583147 0.160685 0.000146192 1.27956e-07 69716 0.160471 1.27786e-07 0.000139664 63.8715 1.25578e+06
0.616251 0.17024 0.000172529 1.1487e-07 82210 0.169959 1.14681e-07 0.0001247 75.7297 1.48202e+06
0.651234 0.18129 0.000203611 1.03653e-07 96722 0.180941 1.03454e-07 0.00011122 90.141 1.74901e+06
0.688203 0.192091 0.000240292 9.30631e-08 113098 0.191889 9.29654e-08 9.90935e-05 106.215 2.06409e+06
0.72727 0.20235 0.000283581 8.30684e-08 135190 0.202134 8.29796e-08 8.81969e-05 127.329 2.43595e+06
0.768555 0.215808 0.000334669 7.5069e-08 158170 0.215598 7.49961e-08 7.84179e-05 151.415 2.87479e+06
0.812184 0.227822 0.000394961 6.7151e-08 188560 0.22758 6.70796e-08 6.96525e-05 181.788 3.39269e+06
0.85829 0.241441 0.000466114 6.03016e-08 220444 0.241144 6.02275e-08 6.1805e-05 215.082 4.00389e+06
0.907013 0.255272 0.000550086 5.40235e-08 261388 0.254995 5.39648e-08 5.47875e-05 257.743 4.7252e+06
0.958501 0.271911 0.000649185 4.87605e-08 308244 0.271604 4.87054e-08 4.85194e-05 309.776 5.57646e+06
1.01291 0.289634 0.000766138 4.40102e-08 364396 0.289282 4.39566e-08 4.29272e-05 373.589 6.58107e+06
1.07041 0.306262 0.00090416 3.94328e-08 429162 0.30584 3.93786e-08 3.79435e-05 446.008 7.76667e+06
1.13118 0.32664 0.00106705 3.56365e-08 506358 0.326221 3.55908e-08 3.3507e-05 538.539 9.16586e+06
1.19539 0.346926 0.00125928 3.2072e-08 598590 0.34643 3.20261e-08 2.9562e-05 649.413 1.08171e+07
1.26325 0.368762 0.00148614 2.88866e-08 704844 0.368257 2.88471e-08 2.60578e-05 781.361 1.27658e+07
1.33496 0.391208 0.00175387 2.59669e-08 834620 0.39063 2.59285e-08 2.29484e-05 944.399 1.50656e+07
1.41075 0.416887 0.00206984 2.34473e-08 981444 0.416297 2.34141e-08 2.01923e-05 1139.65 1.77798e+07
1.49083 0.443828 0.00244272 2.1152e-08 1.15998e+06 0.443211 2.11226e-08 1.77518e-05 1382.16 2.09828e+07
1.57546 0.473964 0.00288279 1.914e-08 1.36931e+06 0.473251 1.91112e-08 1.55929e-05 1680.81 2.4763e+07
1.66489 0.5059 0.00340213 1.73111e-08 1.61652e+06 0.505108 1.7284e-08 1.3685e-05 2044.84 2.92241e+07
1.75941 0.539957 0.00401503 1.5656e-08 1.90601e+06 0.539113 1.56315e-08 1.20007e-05 2486.56 3.44889e+07
1.85928 0.577631 0.00473835 1.41917e-08 2.24913e+06 0.576747 1.417e-08 1.05151e-05 3035.53 4.07021e+07
1.96483 0.617061 0.00559198 1.28462e-08 2.65744e+06 0.616028 1.28246e-08 9.20606e-06 3708.2 4.80347e+07
2.07637 0.661228 0.00659939 1.16643e-08 3.13125e+06 0.660179 1.16458e-08 8.05366e-06 4535.06 5.66883e+07
2.19424 0.708994 0.00778828 1.05977e-08 3.69915e+06 0.707903 1.05814e-08 7.04008e-06 5568.46 6.69008e+07
2.3188 0.760536 0.00919136 9.63275e-09 4.36472e+06 0.759302 9.61711e-09 6.1494e-06 6837.13 7.89532e+07
2.45043 0.816741 0.0108472 8.76549e-09 5.14913e+06 0.815383 8.75091e-09 5.36741e-06 8409.02 9.31768e+07
2.58954 0.880402 0.0128014 8.00635e-09 6.07894e+06 0.878916 7.99284e-09 4.68145e-06 10396.4 1.09963e+08
2.73654 0.947131 0.0151076 7.29836e-09 7.17304e+06 0.945537 7.28608e-09 4.08023e-06 12830.5 1.29773e+08
2.89188 1.022 0.0178292 6.6731e-09 8.46557e+06 1.02024 6.66161e-09 3.55373e-06 15896.4 1.53152e+08
3.05605 1.10399 0.0210412 6.10806e-09 9.98773e+06 1.10214 6.09787e-09 3.09304e-06 19723.5 1.80743e+08
3.22953 1.19264 0.0248319 5.59127e-09 1.1797e+07 1.19052 5.58132e-09 2.69025e-06 24518.2 2.13304e+08
3.41286 1.29036 0.0293054 5.12594e-09 1.39144e+07 1.28803 5.11668e-09 2.33837e-06 30501.7 2.51731e+08
3.6066 1.39893 0.0345848 4.70892e-09 1.64163e+07 1.39639 4.70035e-09 2.0312e-06 38057.8 2.97081e+08
3.81134 1.51782 0.0408154 4.32919e-09 1.93821e+07 1.51509 4.32142e-09 1.76327e-06 47587.2 3.50601e+08
4.0277 1.64921 0.0481684 3.98588e-09 2.28754e+07 1.64617 3.97853e-09 1.52972e-06 59604.6 4.13763e+08
4.25634 1.79312 0.056846 3.67215e-09 2.69929e+07 1.78975 3.66524e-09 1.32631e-06 74735.3 4.88304e+08
4.49796 1.95182 0.067087 3.38697e-09 3.18542e+07 1.94808 3.38048e-09 1.14926e-06 93877.4 5.76273e+08
4.7533 2.12751 0.0791729 3.12828e-09 3.75892e+07 2.12341 3.12225e-09 9.95263e-07 118149 6.8009e+08
5.02313 2.31998 0.0934361 2.89054e-09 4.43706e+07 2.3155 2.88496e-09 8.61414e-07 148889 8.0261e+08
5.30828 2.53331 0.110269 2.67451e-09 5.23593e+07 2.52831 2.66924e-09 7.45152e-07 187929 9.47202e+08
5.60962 2.76506 0.130134 2.47357e-09 6.1787e+07 2.75958 2.46867e-09 6.44232e-07 237235 1.11784e+09
5.92807 3.02195 0.153578 2.2907e-09 7.29346e+07 3.01594 2.28614e-09 5.56685e-07 300118 1.31923e+09
6.26459 3.3038 0.181246 2.12205e-09 8.60651e+07 3.29713 2.11777e-09 4.80786e-07 379867 1.55689e+09
6.62021 3.61473 0.213898 1.96734e-09 1.01558e+08 3.60736 1.96333e-09 4.15026e-07 481415 1.83737e+09
6.99602 3.95686 0.252432 1.82481e-09 1.1986e+08 3.94881 1.82109e-09 3.58083e-07 610812 2.16837e+09
7.39317 4.33345 0.297908 1.69341e-09 1.41457e+08 4.32453 1.68992e-09 3.08803e-07 775717 2.55901e+09
7.81286 4.74715 0.351577 1.57189e-09 1.66936e+08 4.73732 1.56864e-09 2.66181e-07 985814 3.02002e+09
8.25637 5.20528 0.414914 1.46048e-09 1.97025e+08 5.19442 1.45743e-09 2.29336e-07 1.25472e+06 3.56409e+09
8.72507 5.71376 0.489662 1.35843e-09 2.32497e+08 5.70163 1.35554e-09 1.97503e-07 1.59911e+06 4.20617e+09
9.22037 6.28308 0.577876 1.26575e-09 2.74404e+08 6.26958 1.26303e-09 1.70014e-07 2.04293e+06 4.96392e+09
9.74378 6.9293 0.681982 1.18284e-09 3.2382e+08 6.91399 1.18023e-09 1.46289e-07 2.61829e+06 5.85818e+09
10.2969 7.68304 0.804843 1.1113e-09 3.82165e+08 7.66539 1.10875e-09 1.25822e-07 3.3754e+06 6.91355e+09
10.8814 8.58675 0.949838 1.05242e-09 4.51027e+08 8.56576 1.04985e-09 1.08175e-07 4.38796e+06 8.15905e+09
11.4992 9.73237 1.12095 1.01074e-09 5.32251e+08 9.70642 1.00805e-09 9.29669e-08 5.78668e+06 9.62892e+09
12.1519 11.2813 1.3229 9.9276e-10 6.28157e+08 11.2472 9.89761e-10 7.98658e-08 7.80822e+06 1.13636e+10
12.8418 12.9228 1.56122 9.63611e-10 3.82727e+08 13.3737 9.97237e-10 6.85852e-08 5.37725e+06 1.34108e+10
13.5708 0 1.84248 0 0 0 0 5.88765e-08 0 1.58268e+10
14.3411 0 2.17441 0 0 0 0 5.05241e-08 0 1.8678e+10
15.1552 0 2.56613 0 0 0 0 4.33417e-08 0 2.20429e+10
16.0156 0 3.02843 0 0 0 0 3.71677e-08 0 2.6014e+10
16.9247 0 3.574 0 0 0 0 3.18628e-08 0 3.07005e+10
17.8855 0 4.21787 0 0 0 0 2.73063e-08 0 3.62312e+10
18.9008 0 4.97773 0 0 0 0 2.33941e-08 0 4.27584e+10
19.9738 0 5.87448 0 0 0 0 2.00364e-08 0 5.04614e+10
21.1076 0 6.93279 0 0 0 0 1.71555e-08 0 5.95522e+10
22.3058 0 8.18175 0 0 0 0 1.46847e-08 0 7.02807e+10
23.5721 0 9.65571 0 0 0 0 1.25662e-08 0 8.29419e+10
24.9102 0 11.3952 0 0 0 0 1.07504e-08 0 9.78842e+10
26.3243 0 13.4481 0 0 0 0 9.19452e-09 0 1.15518e+11
27.8187 0 15.8708 0 0 0 0 7.86182e-09 0 1.36329e+11
29.3979 0 18.73 0 0 0 0 6.72061e-09 0 1.60889e+11
31.0667 0 22.1042 0 0 0 0 5.74366e-09 0 1.89874e+11
32.8303 0 26.0864 0 0 0 0 4.90756e-09 0 2.2408e+11
34.694 0 30.7859 0 0 0 0 4.19221e-09 0 2.64449e+11
36.6634 0 36.3321 0 0 0 0 3.58032e-09 0 3.1209e+11
38.7447 0 42.8774 0 0 0 0 3.05709e-09 0 3.68314e+11
40.9442 0 50.6018 0 0 0 0 2.60976e-09 0 4.34667e+11
43.2685 0 59.7179 0 0 0 0 2.22743e-09 0 5.12973e+11
45.7247 0 70.4762 0 0 0 0 1.90073e-09 0 6.05386e+11
48.3204 0 83.1727 0 0 0 0 1.62163e-09 0 7.14448e+11
51.0634 0 98.1565 0 0 0 0 1.38326e-09 0 8.43158e+11
53.9621 0 115.84 0 0 0 0 1.1797e-09 0 9.95055e+11
57.0254 0 136.709 0 0 0 0 1.00592e-09 0 1.17432e+12
60.2626 0 161.337 0 0 0 0 8.57591e-10 0 1.38587e+12
63.6835 0 190.402 0 0 0 0 7.3101e-10 0 1.63554e+12
67.2987 0 224.704 0 0 0 0 6.23009e-10 0 1.93019e+12
71.1191 0 265.185 0 0 0 0 5.30879e-10 0 2.27792e+12
75.1563 0 312.958 0 0 0 0 4.52303e-10 0 2.68829e+12
79.4227 0 369.339 0 0 0 0 3.85299e-10 0 3.17259e+12
83.9313 0 435.876 0 0 0 0 3.28173e-10 0 3.74415e+12
88.6959 0 514.4 0 0 0 0 2.79476e-10 0 4.41866e+12
93.7309 0 607.071 0 0 0 0 2.37972e-10 0 5.2147e+12
99.0518 0 716.436 0 0 0 0 2.02605e-10 0 6.15414e+12
104.675 0 845.504 0 0 0 0 1.72471e-10 0 7.26283e+12
110.617 0 997.824 0 0 0 0 1.468e-10 0 8.57124e+12
116.896 0 1177.58 0 0 0 0 1.24935e-10 0 1.01154e+13
123.532 0 1389.73 0 0 0 0 1.06313e-10 0 1.19377e+13
130.545 0 1640.09 0 0 0 0 9.04567e-11 0 1.40883e+13
137.955 0 1935.56 0 0 0 0 7.69563e-11 0 1.66263e+13
145.787 0 2284.26 0 0 0 0 6.54636e-11 0 1.96216e+13
154.063 0 2695.77 0 0 0 0 5.56812e-11 0 2.31565e+13
162.808 0 3181.42 0 0 0 0 4.73556e-11 0 2.73282e+13
172.051 0 3754.56 0 0 0 0 4.02708e-11 0 3.22515e+13
181.818 0 4430.96 0 0 0 0 3.42426e-11 0 3.80616e+13
192.139 0 5229.21 0 0 0 0 2.91139e-11 0 4.49186e+13
203.046 0 6171.26 0 0 0 0 2.4751e-11 0 5.30108e+13
214.572 0 7283.03 0 0 0 0 2.10401e-11 0 6.25608e+13
226.753 0 8595.09 0 0 0 0 1.78839e-11 0 7.38313e+13
239.625 0 10143.5 0 0 0 0 1.51999e-11 0 8.71322e+13
253.228 0 11970.9 0 0 0 0 1.29176e-11 0 1.02829e+14
267.603 0 14127.5 0 0 0 0 1.09771e-11 0 1.21354e+14
282.795 0 16672.6 0 0 0 0 9.3274e-12 0 1.43217e+14
298.848 0 19676.2 0 0 0 0 7.925e-12 0 1.69017e+14
315.813 0 23220.9 0 0 0 0 6.73295e-12 0 1.99466e+14
333.741 0 27404.3 0 0 0 0 5.71979e-12 0 2.35401e+14
352.686 0 32341.2 0 0 0 0 4.85874e-12 0 2.77809e+14
372.707 0 38167.6 0 0 0 0 4.12703e-12 0 3.27857e+14
393.865 0 45043.5 0 0 0 0 3.50528e-12 0 3.86921e+14
416.224 0 53158.3 0 0 0 0 2.97701e-12 0 4.56626e+14
439.852 0 62734.9 0 0 0 0 2.52819e-12 0 5.38888e+14
464.821 0 74036.7 0 0 0 0 2.1469e-12 0 6.35971e+14
491.207 0 87374.6 0 0 0 0 1.82301e-12 0 7.50542e+14
519.092 0 103115 0 0 0 0 1.54789e-12 0 8.85755e+14
548.56 0 121692 0 0 0 0 1.31422e-12 0 1.04533e+15
579.7 0 143615 0 0 0 0 1.11576e-12 0 1.23364e+15
612.608 0 169488 0 0 0 0 9.47223e-13 0 1.45589e+15
647.384 0 200021 0 0 0 0 8.041e-13 0 1.71817e+15
684.134 0 236056 0 0 0 0 6.82568e-13 0 2.0277e+15
722.971 0 278582 0 0 0 0 5.79376e-13 0 2.393e+15
764.012 0 328769 0 0 0 0 4.91762e-13 0 2.8241e+15
