0.0515821
200
1.0655e+09
8589934592
0.0129181 0 1.58924e-09 0 0 0 0 0.00677225 0 13.6515
0.0136515 0 1.87554e-09 0 0 0 0 0.00688819 0 16.1108
0.0144264 0 2.21343e-09 0 0 0 0 0.00699249 0 19.0132
0.0152454 0 2.61218e-09 0 0 0 0 0.00708412 0 22.4385
0.0161108 0 3.08278e-09 0 0 0 0 0.00716212 0 26.4808
0.0170254 0 3.63815e-09 0 0 0 0 0.00722559 0 31.2514
0.0179919 0 4.29357e-09 0 0 0 0 0.00727371 0 36.8815
0.0190132 0 5.06707e-09 0 0 0 0 0.00730578 0 43.5258
0.0200925 0 5.97991e-09 0 0 0 0 0.00732122 0 51.367
0.0212331 0 7.05721e-09 0 0 0 0 0.00731958 0 60.621
0.0224385 0 8.32858e-09 0 0 0 0 0.00730056 0 71.542
0.0237123 0 9.829e-09 0 0 0 0 0.00726401 0 84.4305
0.0250583 0 1.15997e-08 0 0 0 0 0.00720995 0 99.6408
0.0264808 0 1.36894e-08 0 0 0 0 0.00713857 0 117.591
0.0279841 0 1.61556e-08 0 0 0 0 0.00705021 0 138.776
0.0295727 0 1.90661e-08 0 0 0 0 0.00694538 0 163.777
0.0312514 0 2.25009e-08 0 0 0 0 0.00682475 0 193.281
0.0330255 0 2.65545e-08 0 0 0 0 0.00668915 0 228.102
0.0349003 0 3.13384e-08 0 0 0 0 0.00653951 0 269.195
0.0368815 0 3.69841e-08 0 0 0 0 0.00637693 0 317.691
0.0389751 0 4.36469e-08 0 0 0 0 0.00620256 0 374.924
0.0411876 0 5.151e-08 0 0 0 0 0.00601767 0 442.467
0.0435258 0 6.07896e-08 0 0 0 0 0.00582358 0 522.179
0.0459966 0 7.1741e-08 0 0 0 0 0.00562166 0 616.251
0.0486077 0 8.46654e-08 0 0 0 0 0.0054133 0 727.27
0.051367 0 9.99181e-08 0 0 0 0 0.00519989 0 858.29
0.054283 0 1.17919e-07 0 0 0 0 0.0049828 0 1012.91
0.0573645 0 1.39162e-07 0 0 0 0 0.00476339 0 1195.39
0.060621 0 1.64232e-07 0 0 0 0 0.00454293 0 1410.75
0.0640622 0 1.93819e-07 0 0 0 0 0.00432265 0 1664.89
0.0676989 0 2.28736e-07 0 0 0 0 0.00410371 0 1964.83
0.071542 0 2.69944e-07 0 0 0 0 0.00388717 0 2318.8
0.0756032 0 3.18575e-07 0 0 0 0 0.00367401 0 2736.54
0.079895 0 3.75967e-07 0 0 0 0 0.0034651 0 3229.53
0.0844305 0 4.43698e-07 0 0 0 0 0.00326121 0 3811.34
0.0892234 0 5.23632e-07 0 0 0 0 0.00306301 0 4497.96
0.0942883 0 6.17966e-07 0 0 0 0 0.00287109 0 5308.28
0.0996408 0 7.29294e-07 0 0 0 0 0.00268591 0 6264.59
0.105297 0 8.60678e-07 0 0 0 0 0.00250785 0 7393.17
0.111275 0 1.01573e-06 0 0 0 0 0.00233721 0 8725.07
0.117591 0 1.19872e-06 0 0 0 0 0.00217419 0 10296.9
0.124267 0 1.41467e-06 0 0 0 0 0.00201893 0 12151.9
0.131321 0 1.66953e-06 0 0 0 0 0.00187147 0 14341.1
0.138776 0 1.9703e-06 0 0 0 0 0.00173182 0 16924.7
0.146654 0 2.32525e-06 0 0 0 0 0.00159991 0 19973.8
0.154979 0 2.74415e-06 0 0 0 0 0.00147563 0 23572.1
0.163777 0 3.23852e-06 0 0 0 0 0.00135884 0 27818.7
0.173074 0 3.82195e-06 0 0 0 0 0.00124933 0 32830.3
0.182899 0 4.51048e-06 0 0 0 0 0.00114689 0 38744.7
0.193281 0 5.32305e-06 0 0 0 0 0.00105127 0 45724.7
0.204254 0 6.28202e-06 0 0 0 0 0.000962209 0 53962.1
0.215848 0 7.41374e-06 0 0 0 0 0.000879423 0 63683.5
0.228102 0 8.74934e-06 0 0 0 0 0.000802624 0 75156.3
0.24105 0 1.03256e-05 0 0 0 0 0.000731515 0 88695.9
0.254734 0 1.21857e-05 0 0 0 0 0.000665798 0 104675
0.269195 0 1.4381e-05 0 0 0 0 0.000605173 0 123532
0.284476 0 1.69718e-05 0 0 0 0 0.000549345 0 145787
0.300625 0 2.00293e-05 0 0 0 0 0.000498021 0 172051
0.317691 0 2.36377e-05 0 0 0 0 0.000450916 0 203046
0.335725 0 2.78961e-05 0 0 0 0 0.000407755 0 239625
0.354784 0 3.29216e-05 0 0 0 0 0.000368269 0 282795
0.374924 0 3.88525e-05 0 0 0 0 0.000332202 0 333741
0.396207 0.235031 4.58519e-05 5.96729e-07 6 0.228496 5.80139e-07 0.000299307 0.0119622 393865
0.418699 0 5.41123e-05 0 0 0 0 0.00026935 0 464821
0.442467 0 6.38607e-05 0 0 0 0 0.000242108 0 548560
0.467585 0 7.53654e-05 0 0 0 0 0.00021737 0 647384
0.494129 0 8.89427e-05 0 0 0 0 0.000194938 0 764012
0.522179 0 0.000104966 0 0 0 0 0.000174625 0 901651
0.551822 0 0.000123876 0 0 0 0 0.000156255 0 1.06409e+06
0.583147 4.85923 0.000146192 3.86948e-06 12 5.11436 4.07265e-06 0.000139664 0.332467 1.25578e+06
0.616251 0 0.000172529 0 0 0 0 0.0001247 0 1.48202e+06
0.651234 0 0.000203611 0 0 0 0 0.00011122 0 1.74901e+06
0.688203 26.9317 0.000240292 1.30477e-05 8 26.2616 1.27231e-05 9.90935e-05 1.05336 2.06409e+06
0.72727 0 0.000283581 0 0 0 0 8.81969e-05 0 2.43595e+06
0.768555 0 0.000334669 0 0 0 0 7.84179e-05 0 2.87479e+06
0.812184 0.0400218 0.000394961 1.17965e-08 6 0.0408774 1.20487e-08 6.96525e-05 0.00101617 3.39269e+06
0.85829 0 0.000466114 0 0 0 0 6.1805e-05 0 4.00389e+06
0.907013 0.123546 0.000550086 2.61461e-08 24 0.125916 2.66478e-08 5.47875e-05 0.0114535 4.7252e+06
0.958501 0.765702 0.000649185 1.3731e-07 24 0.720852 1.29267e-07 4.85194e-05 0.0679199 5.57646e+06
1.01291 0 0.000766138 0 0 0 0 4.29272e-05 0 6.58107e+06
1.07041 0 0.00090416 0 0 0 0 3.79435e-05 0 7.76667e+06
1.13118 1.31969 0.00106705 1.43979e-07 12 1.30348 1.4221e-07 3.3507e-05 0.0515636 9.16586e+06
1.19539 0.343569 0.00125928 3.17616e-08 30 0.336486 3.11068e-08 2.9562e-05 0.0322321 1.08171e+07
1.26325 5.64406 0.00148614 4.42122e-07 24 5.55913 4.35469e-07 2.60578e-05 0.407207 1.27658e+07
1.33496 21.5079 0.00175387 1.42761e-06 24 21.5552 1.43075e-06 2.29484e-05 1.49303 1.50656e+07
1.41075 6.53097 0.00206984 3.67326e-07 32 6.72211 3.78076e-07 2.01923e-05 0.582125 1.77798e+07
1.49083 0.344135 0.00244272 1.64008e-08 48 0.336799 1.60511e-08 1.77518e-05 0.0443471 2.09828e+07
1.57546 0.0537342 0.00288279 2.16994e-09 6 0.051167 2.06627e-09 1.55929e-05 0.000834975 2.4763e+07
1.66489 0.348914 0.00340213 1.19393e-08 84 0.335106 1.14668e-08 1.3685e-05 0.0732844 2.92241e+07
1.75941 2.80258 0.00401503 8.12606e-08 48 2.82479 8.19044e-08 1.20007e-05 0.325024 3.44889e+07
1.85928 0.143848 0.00473835 3.53417e-09 72 0.145409 3.57252e-09 1.05151e-05 0.0241995 4.07021e+07
1.96483 0.732704 0.00559198 1.52536e-08 54 0.722481 1.50408e-08 9.20606e-06 0.0894733 4.80347e+07
2.07637 9.01314 0.00659939 1.58995e-07 104 8.97483 1.58319e-07 8.05366e-06 2.05316 5.66883e+07
2.19424 0.220686 0.00778828 3.2987e-09 120 0.222656 3.32815e-09 7.04008e-06 0.0562272 6.69008e+07
2.3188 1.80459 0.00919136 2.28564e-08 156 1.7082 2.16356e-08 6.1494e-06 0.579829 7.89532e+07
2.45043 0.509302 0.0108472 5.46597e-09 126 0.506812 5.43925e-09 5.36741e-06 0.128314 9.31768e+07
2.58954 0.429116 0.0128014 3.90237e-09 192 0.43715 3.97543e-09 4.68145e-06 0.160048 1.09963e+08
2.73654 4.54352 0.0151076 3.50113e-08 152 4.71336 3.63201e-08 4.08023e-06 1.30427 1.29773e+08
2.89188 3.6836 0.0178292 2.40519e-08 378 3.76495 2.45831e-08 3.55373e-06 2.55833 1.53152e+08
3.05605 1.31058 0.0210412 7.25109e-09 264 1.28495 7.10927e-09 3.09304e-06 0.618902 1.80743e+08
3.22953 0.141092 0.0248319 6.6146e-10 366 0.137935 6.46659e-10 2.69025e-06 0.0899894 2.13304e+08
3.41286 0.719644 0.0293054 2.85878e-09 428 0.682611 2.71167e-09 2.33837e-06 0.523251 2.51731e+08
3.6066 3.44989 0.0345848 1.16126e-08 486 3.32837 1.12036e-08 2.0312e-06 2.77851 2.97081e+08
3.81134 0.702778 0.0408154 2.00449e-09 600 0.696817 1.98749e-09 1.76327e-06 0.682084 3.50601e+08
4.0277 0.462854 0.0481684 1.11865e-09 738 0.458402 1.10788e-09 1.52972e-06 0.53968 4.13763e+08
4.25634 1.1672 0.056846 2.39031e-09 824 1.21834 2.49505e-09 1.32631e-06 1.48504 4.88304e+08
4.49796 2.69491 0.067087 4.67645e-09 954 2.71383 4.70927e-09 1.14926e-06 3.88193 5.76273e+08
4.7533 0.473746 0.0791729 6.96593e-10 1094 0.463147 6.81009e-10 9.95263e-07 0.7657 6.8009e+08
5.02313 0.252117 0.0934361 3.14121e-10 1332 0.251581 3.13454e-10 8.61414e-07 0.485724 8.0261e+08
5.30828 2.17146 0.110269 2.2925e-09 1614 2.19689 2.31935e-09 7.45152e-07 4.96556 9.47202e+08
5.60962 1.00237 0.130134 8.96698e-10 1850 0.966272 8.64408e-10 6.44232e-07 2.57499 1.11784e+09
5.92807 1.31546 0.153578 9.97148e-10 2238 1.25225 9.49228e-10 5.56685e-07 4.00876 1.31923e+09
6.26459 0.544564 0.181246 3.49777e-10 2546 0.554208 3.55972e-10 4.80786e-07 1.85224 1.55689e+09
6.62021 0.122214 0.213898 6.6516e-11 3264 0.12233 6.6579e-11 4.15026e-07 0.52312 1.83737e+09
6.99602 1.30492 0.252432 6.01799e-10 3506 1.35352 6.24213e-10 3.58083e-07 5.89224 2.16837e+09
7.39317 0.471082 0.297908 1.84087e-10 4506 0.479297 1.87298e-10 3.08803e-07 2.68617 2.55901e+09
7.81286 1.02707 0.351577 3.40087e-10 5018 1.06509 3.52675e-10 2.66181e-07 6.41127 3.02002e+09
8.25637 0.932337 0.414914 2.61592e-10 5852 0.890327 2.49805e-10 2.29336e-07 6.67508 3.56409e+09
8.72507 0.517928 0.489662 1.23135e-10 7362 0.510812 1.21444e-10 1.97503e-07 4.58992 4.20617e+09
9.22037 0.789957 0.577876 1.5914e-10 8306 0.778835 1.56899e-10 1.70014e-07 7.77473 4.96392e+09
9.74378 0.1923 0.681982 3.28258e-11 9698 0.193265 3.29905e-11 1.46289e-07 2.17614 5.85818e+09
10.2969 0.783331 0.804843 1.13304e-10 11816 0.800784 1.15828e-10 1.25822e-07 10.6404 6.91355e+09
10.8814 0.643527 0.949838 7.88728e-11 13682 0.644991 7.90522e-11 1.08175e-07 9.97581 8.15905e+09
11.4992 0.613973 1.12095 6.37634e-11 16152 0.599762 6.22876e-11 9.29669e-08 11.0782 9.62892e+09
12.1519 0.586376 1.3229 5.16012e-11 19472 0.56876 5.0051e-11 7.98658e-08 12.5809 1.13636e+10
12.8418 0.207927 1.56122 1.55045e-11 22670 0.212677 1.58586e-11 6.85852e-08 5.12481 1.34108e+10
13.5708 0.550482 1.84248 3.47817e-11 26224 0.561677 3.54891e-11 5.88765e-08 15.492 1.58268e+10
14.3411 0.446603 2.17441 2.39106e-11 31640 0.45584 2.44052e-11 5.05241e-08 14.9737 1.8678e+10
15.1552 0.491921 2.56613 2.23165e-11 37484 0.498615 2.26202e-11 4.33417e-08 19.3004 2.20429e+10
16.0156 0.390521 3.02843 1.5012e-11 43856 0.401167 1.54212e-11 3.71677e-08 17.7133 2.6014e+10
16.9247 0.682861 3.574 2.22427e-11 51362 0.684489 2.22957e-11 3.18628e-08 35.8547 3.07005e+10
17.8855 0.50942 4.21787 1.40603e-11 61636 0.50292 1.38808e-11 2.73063e-08 31.7369 3.62312e+10
18.9008 0.693832 4.97773 1.62268e-11 72218 0.693006 1.62075e-11 2.33941e-08 50.0923 4.27584e+10
19.9738 1.00418 5.87448 1.98999e-11 84586 0.994515 1.97084e-11 2.00364e-08 84.0097 5.04614e+10
21.1076 1.52017 6.93279 2.55267e-11 100708 1.51518 2.54428e-11 1.71555e-08 149.849 5.95522e+10
22.3058 3.29019 8.18175 4.68151e-11 118712 3.27718 4.66299e-11 1.46847e-08 378.457 7.02807e+10
23.5721 6.94253 9.65571 8.37034e-11 140410 6.88949 8.3064e-11 1.25662e-08 935.274 8.29419e+10
24.9102 9.04459 11.3952 9.24009e-11 164374 8.9752 9.16921e-11 1.07504e-08 1412.82 9.78842e+10
26.3243 11.0628 13.4481 9.57665e-11 194680 11.0264 9.54512e-11 9.19452e-09 2027.71 1.15518e+11
27.8187 9.33478 15.8708 6.84724e-11 230196 9.3076 6.8273e-11 7.86182e-09 2004.89 1.36329e+11
29.3979 9.26429 18.73 5.75818e-11 271156 9.25234 5.75075e-11 6.72061e-09 2323.25 1.60889e+11
31.0667 10.7116 22.1042 5.64143e-11 321076 10.645 5.60637e-11 5.74366e-09 3153.62 1.89874e+11
32.8303 14.688 26.0864 6.55479e-11 377436 14.5914 6.51168e-11 4.90756e-09 5041.23 2.2408e+11
34.694 19.8288 30.7859 7.49815e-11 447594 19.7332 7.462e-11 4.19221e-09 8005.63 2.64449e+11
36.6634 23.1496 36.3321 7.41759e-11 525078 23.0718 7.39267e-11 3.58032e-09 10878.4 3.1209e+11
38.7447 24.2466 42.8774 6.58313e-11 621924 24.199 6.57021e-11 3.05709e-09 13392.5 3.68314e+11
40.9442 25.8813 50.6018 5.95428e-11 732630 25.8399 5.94477e-11 2.60976e-09 16715.3 4.34667e+11
43.2685 28.0478 59.7179 5.46769e-11 865596 27.9727 5.45305e-11 2.22743e-09 21247.8 5.12973e+11
45.7247 31.6074 70.4762 5.22103e-11 1.02168e+06 31.5073 5.2045e-11 1.90073e-09 28063.9 6.05386e+11
48.3204 38.0015 83.1727 5.31901e-11 1.20544e+06 37.8435 5.29688e-11 1.62163e-09 39538.7 7.14448e+11
51.0634 48.4593 98.1565 5.74736e-11 1.42103e+06 48.2337 5.7206e-11 1.38326e-09 59043.1 8.43158e+11
53.9621 62.0325 115.84 6.23407e-11 1.67997e+06 61.7824 6.20894e-11 1.1797e-09 88776.9 9.95055e+11
57.0254 75.7091 136.709 6.44707e-11 1.98018e+06 75.4695 6.42667e-11 1.00592e-09 126912 1.17432e+12
60.2626 87.6903 161.337 6.32744e-11 2.33957e+06 87.4512 6.31019e-11 8.57591e-10 172617 1.38587e+12
63.6835 98.9703 190.402 6.05122e-11 2.75676e+06 98.7033 6.03489e-11 7.3101e-10 228202 1.63554e+12
67.2987 113.894 224.704 5.90068e-11 3.25638e+06 113.534 5.88201e-11 6.23009e-10 308420 1.93019e+12
71.1191 134.828 265.185 5.91892e-11 3.84387e+06 134.356 5.89818e-11 5.30879e-10 428564 2.27792e+12
75.1563 161.617 312.958 6.01187e-11 4.53277e+06 161.071 5.99158e-11 4.52303e-10 602481 2.68829e+12
79.4227 192.461 369.339 6.06635e-11 5.35083e+06 191.835 6.04662e-11 3.85299e-10 842462 3.17259e+12
83.9313 226.874 435.876 6.05943e-11 6.32174e+06 226.129 6.03953e-11 3.28173e-10 1.16726e+06 3.74415e+12
88.6959 266.409 514.4 6.02917e-11 7.44986e+06 265.54 6.00952e-11 2.79476e-10 1.60717e+06 4.41866e+12
93.7309 314.046 607.071 6.02233e-11 8.79764e+06 313.007 6.0024e-11 2.37972e-10 2.2264e+06 5.2147e+12
99.0518 371.384 716.436 6.03471e-11 1.03827e+07 370.152 6.01468e-11 2.02605e-10 3.09255e+06 6.15414e+12
104.675 438.644 845.504 6.03958e-11 1.22515e+07 437.171 6.0193e-11 1.72471e-10 4.29023e+06 7.26283e+12
110.617 517.599 997.824 6.03878e-11 1.44573e+07 515.9 6.01896e-11 1.468e-10 5.94718e+06 8.57124e+12
116.896 611.102 1177.58 6.04132e-11 1.70664e+07 609.085 6.02138e-11 1.24935e-10 8.25259e+06 1.01154e+13
123.532 721.347 1389.73 6.0426e-11 2.0139e+07 718.948 6.02251e-11 1.06313e-10 1.14465e+07 1.19377e+13
130.545 852.011 1640.09 6.04766e-11 2.37643e+07 849.185 6.02759e-11 9.04567e-11 1.58881e+07 1.40883e+13
137.955 1006.1 1935.56 6.05124e-11 2.80503e+07 1002.74 6.03103e-11 7.69563e-11 2.20565e+07 1.66263e+13
145.787 1188 2284.26 6.05453e-11 3.30981e+07 1184.03 6.03433e-11 6.54636e-11 3.06114e+07 1.96216e+13
154.063 1404.36 2695.77 6.06463e-11 3.90634e+07 1399.67 6.04439e-11 5.56812e-11 4.25468e+07 2.31565e+13
162.808 1658.68 3181.42 6.0695e-11 4.61057e+07 1653.14 6.04919e-11 4.73556e-11 5.90929e+07 2.73282e+13
172.051 1960 3754.56 6.07724e-11 5.44046e+07 1953.42 6.05683e-11 4.02708e-11 8.21015e+07 3.22515e+13
181.818 2317.18 4430.96 6.08796e-11 6.42064e+07 2309.38 6.06747e-11 3.42426e-11 1.14152e+08 3.80616e+13
192.139 2740.17 5229.21 6.10032e-11 7.57748e+07 2730.96 6.07981e-11 2.91139e-11 1.58773e+08 4.49186e+13
203.046 3242 6171.26 6.11574e-11 8.94213e+07 3231.12 6.09522e-11 2.4751e-11 2.20951e+08 5.30108e+13
214.572 3838.52 7283.03 6.13566e-11 1.05538e+08 3825.54 6.11492e-11 2.10401e-11 3.07769e+08 6.25608e+13
226.753 4548.82 8595.09 6.1611e-11 1.24552e+08 4533.32 6.14011e-11 1.78839e-11 4.29087e+08 7.38313e+13
239.625 5396.94 10143.5 6.19396e-11 1.46987e+08 5378.42 6.17272e-11 1.51999e-11 5.98973e+08 8.71322e+13
253.228 6412.69 11970.9 6.23625e-11 1.7347e+08 6390.54 6.21471e-11 1.29176e-11 8.37462e+08 1.02829e+14
267.603 7637.47 14127.5 6.29353e-11 2.04703e+08 7610.85 6.2716e-11 1.09771e-11 1.17362e+09 1.21354e+14
282.795 9119.01 16672.6 6.36728e-11 2.4161e+08 9086.87 6.34485e-11 9.3274e-12 1.64933e+09 1.43217e+14
298.848 10932.6 19676.2 6.46834e-11 2.85122e+08 10893.3 6.4451e-11 7.925e-12 2.32715e+09 1.69017e+14
315.813 13175.8 23220.9 6.60553e-11 3.36491e+08 13127.3 6.58123e-11 6.73295e-12 3.30123e+09 1.99466e+14
333.741 16003.6 27404.3 6.79846e-11 3.97115e+08 15942.7 6.7726e-11 5.71979e-12 4.72005e+09 2.35401e+14
352.686 19654.4 32341.2 7.07481e-11 4.68637e+08 19576.2 7.04663e-11 4.85874e-12 6.82382e+09 2.77809e+14
372.707 24482.5 38167.6 7.46743e-11 5.53074e+08 24379.5 7.43602e-11 4.12703e-12 1.00073e+10 3.27857e+14
393.865 31156.6 45043.5 8.05245e-11 6.52716e+08 31015.3 8.01591e-11 3.50528e-12 1.49944e+10 3.86921e+14
416.224 36765.3 53158.3 8.0515e-11 2.2184e+08 38894.2 8.51775e-11 2.97701e-12 5.99979e+09 4.56626e+14
439.852 0 62734.9 0 0 0 0 2.52819e-12 0 5.38888e+14
464.821 0 74036.7 0 0 0 0 2.1469e-12 0 6.35971e+14
491.207 0 87374.6 0 0 0 0 1.82301e-12 0 7.50542e+14
519.092 0 103115 0 0 0 0 1.54789e-12 0 8.85755e+14
548.56 0 121692 0 0 0 0 1.31422e-12 0 1.04533e+15
579.7 0 143615 0 0 0 0 1.11576e-12 0 1.23364e+15
612.608 0 169488 0 0 0 0 9.47223e-13 0 1.45589e+15
647.384 0 200021 0 0 0 0 8.041e-13 0 1.71817e+15
684.134 0 236056 0 0 0 0 6.82568e-13 0 2.0277e+15
722.971 0 278582 0 0 0 0 5.79376e-13 0 2.393e+15
764.012 0 328769 0 0 0 0 4.91762e-13 0 2.8241e+15
0.0515821
200
1.0655e+09
8589934592
0.0129181 9.48685e-06 1.58924e-09 6.94934e-07 6 9.4e-06 6.88572e-07 0.00677225 0.000615689 13.6515
0.0136515 0 1.87554e-09 0 0 0 0 0.00688819 0 16.1108
0.0144264 0 2.21343e-09 0 0 0 0 0.00699249 0 19.0132
0.0152454 0 2.61218e-09 0 0 0 0 0.00708412 0 22.4385
0.0161108 0 3.08278e-09 0 0 0 0 0.00716212 0 26.4808
0.0170254 0 3.63815e-09 0 0 0 0 0.00722559 0 31.2514
0.0179919 2.10519e-05 4.29357e-09 5.708e-07 12 2.10248e-05 5.70065e-07 0.00727371 0.000941693 36.8815
0.0190132 0 5.06707e-09 0 0 0 0 0.00730578 0 43.5258
0.0200925 0 5.97991e-09 0 0 0 0 0.00732122 0 51.367
0.0212331 1.99018e-05 7.05721e-09 3.28298e-07 8 1.98844e-05 3.28013e-07 0.00731958 0.000358817 60.621
0.0224385 0 8.32858e-09 0 0 0 0 0.00730056 0 71.542
0.0237123 0 9.829e-09 0 0 0 0 0.00726401 0 84.4305
0.0250583 0.000128219 1.15997e-08 1.28681e-06 6 0.000128158 1.2862e-06 0.00720995 0.00107086 99.6408
0.0264808 0 1.36894e-08 0 0 0 0 0.00713857 0 117.591
0.0279841 8.00066e-05 1.61556e-08 5.76517e-07 24 7.99245e-05 5.75925e-07 0.00705021 0.00196255 138.776
0.0295727 0 1.90661e-08 0 0 0 0 0.00694538 0 163.777
0.0312514 0.000143113 2.25009e-08 7.40438e-07 24 0.00014384 7.44198e-07 0.00682475 0.00260383 193.281
0.0330255 0 2.65545e-08 0 0 0 0 0.00668915 0 228.102
0.0349003 0.000198023 3.13384e-08 7.35614e-07 12 0.000196438 7.29723e-07 0.00653951 0.00134985 269.195
0.0368815 0.000173411 3.69841e-08 5.45848e-07 30 0.000171564 5.40035e-07 0.00637693 0.00256792 317.691
0.0389751 0.000208017 4.36469e-08 5.54826e-07 24 0.000205878 5.49118e-07 0.00620256 0.00214683 374.924
0.0411876 0.000131743 5.151e-08 2.97746e-07 24 0.000130848 2.95724e-07 0.00601767 0.00118749 442.467
0.0435258 0.000278284 6.07896e-08 5.32928e-07 8 0.000278262 5.32887e-07 0.00582358 0.000732097 522.179
0.0459966 0.000358163 7.1741e-08 5.81196e-07 72 0.000355328 5.76596e-07 0.00562166 0.00744373 616.251
0.0486077 0 8.46654e-08 0 0 0 0 0.0054133 0 727.27
0.051367 0.000542591 9.99181e-08 6.32177e-07 54 0.000540884 6.30188e-07 0.00519989 0.00656505 858.29
0.054283 0.000419249 1.17919e-07 4.13905e-07 60 0.000420974 4.15607e-07 0.0049828 0.004984 1012.91
0.0573645 0.000421307 1.39162e-07 3.52443e-07 96 0.000420227 3.51539e-07 0.00476339 0.00710304 1195.39
0.060621 0.00048473 1.64232e-07 3.43598e-07 24 0.000478162 3.38943e-07 0.00454293 0.00181521 1410.75
0.0640622 0.000854759 1.93819e-07 5.13401e-07 134 0.000855222 5.13679e-07 0.00432265 0.0159152 1664.89
0.0676989 0.000818336 2.28736e-07 4.16492e-07 120 0.000814615 4.14598e-07 0.00410371 0.012179 1964.83
0.071542 0.000744293 2.69944e-07 3.20982e-07 108 0.000736251 3.17514e-07 0.00388717 0.00891806 2318.8
0.0756032 0.0010788 3.18575e-07 3.94219e-07 174 0.00107324 3.92188e-07 0.00367401 0.0186701 2736.54
0.079895 0.00115784 3.75967e-07 3.58515e-07 168 0.00114689 3.55126e-07 0.0034651 0.0173821 3229.53
0.0844305 0.000993586 4.43698e-07 2.60692e-07 168 0.000998542 2.61992e-07 0.00326121 0.0134295 3811.34
0.0892234 0.00111474 5.23632e-07 2.47833e-07 290 0.0011101 2.46801e-07 0.00306301 0.0234643 4497.96
0.0942883 0.00145382 6.17966e-07 2.73879e-07 288 0.00145009 2.73174e-07 0.00287109 0.0274728 5308.28
0.0996408 0.00133541 7.29294e-07 2.13168e-07 366 0.001324 2.11346e-07 0.00268591 0.0290476 6264.59
0.105297 0.0014307 8.60678e-07 1.93516e-07 420 0.00142082 1.9218e-07 0.00250785 0.0324089 7393.17
0.111275 0.00150744 1.01573e-06 1.72771e-07 398 0.00150349 1.72319e-07 0.00233721 0.0294208 8725.07
0.117591 0.00179406 1.19872e-06 1.74233e-07 624 0.00179769 1.74585e-07 0.00217419 0.0500053 10296.9
0.124267 0.00196945 1.41467e-06 1.62069e-07 642 0.00196723 1.61886e-07 0.00201893 0.0515366 12151.9
0.131321 0.00250824 1.66953e-06 1.74898e-07 800 0.00250911 1.74959e-07 0.00187147 0.074764 14341.1
0.138776 0.00229987 1.9703e-06 1.35888e-07 858 0.00231102 1.36547e-07 0.00173182 0.0673235 16924.7
0.146654 0.00246025 2.32525e-06 1.23174e-07 1080 0.00248075 1.24201e-07 0.00159991 0.0831473 19973.8
0.154979 0.00289675 2.74415e-06 1.22889e-07 1286 0.00291699 1.23748e-07 0.00147563 0.107097 23572.1
0.163777 0.00275963 3.23852e-06 9.92005e-08 1650 0.00276436 9.93706e-08 0.00135884 0.120456 27818.7
0.173074 0.00324994 3.82195e-06 9.89921e-08 1778 0.00325032 9.90039e-08 0.00124933 0.140882 32830.3
0.182899 0.00319445 4.51048e-06 8.24486e-08 2112 0.00320173 8.26366e-08 0.00114689 0.151829 38744.7
0.193281 0.00376796 5.32305e-06 8.24055e-08 2570 0.00377372 8.25313e-08 0.00105127 0.201453 45724.7
0.204254 0.00413222 6.28202e-06 7.65763e-08 3030 0.00413103 7.65542e-08 0.000962209 0.241139 53962.1
0.215848 0.00411731 7.41374e-06 6.46527e-08 3434 0.00411718 6.46506e-08 0.000879423 0.252458 63683.5
0.228102 0.0043105 8.74934e-06 5.73539e-08 4218 0.00431114 5.73624e-08 0.000802624 0.30141 75156.3
0.24105 0.00487611 1.03256e-05 5.49756e-08 4766 0.00488036 5.50235e-08 0.000731515 0.358179 88695.9
0.254734 0.00517831 1.21857e-05 4.94705e-08 6026 0.00517664 4.94546e-08 0.000665798 0.447747 104675
0.269195 0.00540246 1.4381e-05 4.37332e-08 6480 0.00540045 4.3717e-08 0.000605173 0.468281 123532
0.284476 0.0058224 1.69718e-05 3.99378e-08 8162 0.00583584 4.00299e-08 0.000549345 0.593383 145787
0.300625 0.00587779 2.00293e-05 3.41631e-08 9578 0.00588537 3.42072e-08 0.000498021 0.657029 172051
0.317691 0.00649547 2.36377e-05 3.19901e-08 11234 0.0064913 3.19696e-08 0.000450916 0.796993 203046
0.335725 0.00680186 2.78961e-05 2.83854e-08 13344 0.00679974 2.83765e-08 0.000407755 0.928928 239625
0.354784 0.0070241 3.29216e-05 2.48382e-08 15464 0.00702008 2.4824e-08 0.000368269 1.04298 282795
0.374924 0.00755376 3.88525e-05 2.26336e-08 18458 0.00755184 2.26279e-08 0.000332202 1.25758 333741
0.396207 0.0079062 4.58519e-05 2.00734e-08 22232 0.0078948 2.00444e-08 0.000299307 1.49102 393865
0.418699 0.0085335 5.41123e-05 1.83587e-08 25628 0.00851795 1.83252e-08 0.00026935 1.74679 464821
0.442467 0.00880761 6.38607e-05 1.60559e-08 30320 0.00879347 1.60301e-08 0.000242108 2.01073 548560
0.467585 0.00922965 7.53654e-05 1.42568e-08 35452 0.00921664 1.42367e-08 0.00021737 2.32522 647384
0.494129 0.00953436 8.89427e-05 1.24793e-08 41792 0.00953206 1.24763e-08 0.000194938 2.67539 764012
0.522179 0.0102895 0.000104966 1.14118e-08 49988 0.0102875 1.14096e-08 0.000174625 3.26675 901651
0.551822 0.0107136 0.000123876 1.00684e-08 59110 0.0107083 1.00634e-08 0.000156255 3.80879 1.06409e+06
0.583147 0.0112125 0.000146192 8.92865e-09 69716 0.0111998 8.91858e-09 0.000139664 4.45691 1.25578e+06
0.616251 0.0118455 0.000172529 7.99283e-09 82210 0.0118275 7.98071e-09 0.0001247 5.26937 1.48202e+06
0.651234 0.0124436 0.000203611 7.11465e-09 96722 0.0124225 7.10259e-09 0.00011122 6.1872 1.74901e+06
0.688203 0.0129846 0.000240292 6.29073e-09 113098 0.0129741 6.28561e-09 9.90935e-05 7.17977 2.06409e+06
0.72727 0.0133932 0.000283581 5.49816e-09 135190 0.01338 5.49271e-09 8.81969e-05 8.42769 2.43595e+06
0.768555 0.0141738 0.000334669 4.93038e-09 158170 0.0141629 4.92659e-09 7.84179e-05 9.94464 2.87479e+06
0.812184 0.0147228 0.000394961 4.33956e-09 188560 0.0147094 4.33562e-09 6.96525e-05 11.7478 3.39269e+06
0.85829 0.0152781 0.000466114 3.81581e-09 220444 0.0152624 3.81189e-09 6.1805e-05 13.6101 4.00389e+06
0.907013 0.0160402 0.000550086 3.3946e-09 261388 0.0160273 3.39188e-09 5.47875e-05 16.1955 4.7252e+06
0.958501 0.0166091 0.000649185 2.97842e-09 308244 0.0165917 2.9753e-09 4.85194e-05 18.9219 5.57646e+06
1.01291 0.017363 0.000766138 2.63833e-09 364396 0.017343 2.63529e-09 4.29272e-05 22.396 6.58107e+06
1.07041 0.0180303 0.00090416 2.32149e-09 429162 0.0180105 2.31895e-09 3.79435e-05 26.2574 7.76667e+06
1.13118 0.0188037 0.00106705 2.0515e-09 506358 0.0187805 2.04896e-09 3.3507e-05 31.0022 9.16586e+06
1.19539 0.0194833 0.00125928 1.80116e-09 598590 0.0194607 1.79906e-09 2.9562e-05 36.471 1.08171e+07
1.26325 0.0203015 0.00148614 1.5903e-09 704844 0.0202785 1.58849e-09 2.60578e-05 43.0163 1.27658e+07
1.33496 0.0210471 0.00175387 1.39703e-09 834620 0.0210223 1.39538e-09 2.29484e-05 50.809 1.50656e+07
1.41075 0.0218194 0.00206984 1.2272e-09 981444 0.0217949 1.22583e-09 2.01923e-05 59.648 1.77798e+07
1.49083 0.0225765 0.00244272 1.07595e-09 1.15998e+06 0.0225507 1.07472e-09 1.77518e-05 70.3072 2.09828e+07
1.57546 0.0234624 0.00288279 9.47482e-10 1.36931e+06 0.0234352 9.46382e-10 1.55929e-05 83.2045 2.4763e+07
1.66489 0.0243124 0.00340213 8.31932e-10 1.61652e+06 0.0242815 8.30874e-10 1.3685e-05 98.2703 2.92241e+07
1.75941 0.02517 0.00401503 7.29802e-10 1.90601e+06 0.0251392 7.28908e-10 1.20007e-05 115.911 3.44889e+07
1.85928 0.0260446 0.00473835 6.39883e-10 2.24913e+06 0.026014 6.39131e-10 1.05151e-05 136.868 4.07021e+07
1.96483 0.0269805 0.00559198 5.61688e-10 2.65744e+06 0.0269479 5.61008e-10 9.20606e-06 162.138 4.80347e+07
2.07637 0.0278773 0.00659939 4.91764e-10 3.13125e+06 0.0278448 4.91192e-10 8.05366e-06 191.197 5.66883e+07
2.19424 0.0288622 0.00778828 4.31417e-10 3.69915e+06 0.028827 4.30892e-10 7.04008e-06 226.684 6.69008e+07
2.3188 0.0298544 0.00919136 3.78128e-10 4.36472e+06 0.0298182 3.77669e-10 6.1494e-06 268.388 7.89532e+07
2.45043 0.0309001 0.0108472 3.31628e-10 5.14913e+06 0.0308624 3.31224e-10 5.36741e-06 318.142 9.31768e+07
2.58954 0.0319455 0.0128014 2.90512e-10 6.07894e+06 0.0319075 2.90166e-10 4.68145e-06 377.234 1.09963e+08
2.73654 0.0330611 0.0151076 2.54761e-10 7.17304e+06 0.0330211 2.54453e-10 4.08023e-06 447.87 1.29773e+08
2.89188 0.0341421 0.0178292 2.22929e-10 8.46557e+06 0.0340997 2.22653e-10 3.55373e-06 531.054 1.53152e+08
3.05605 0.035305 0.0210412 1.95333e-10 9.98773e+06 0.0352632 1.95102e-10 3.09304e-06 630.749 1.80743e+08
3.22953 0.0365179 0.0248319 1.71201e-10 1.1797e+07 0.0364732 1.70992e-10 2.69025e-06 750.733 2.13304e+08
3.41286 0.0377514 0.0293054 1.49967e-10 1.39144e+07 0.0377033 1.49776e-10 2.33837e-06 892.373 2.51731e+08
3.6066 0.0390388 0.0345848 1.31408e-10 1.64163e+07 0.0389897 1.31243e-10 2.0312e-06 1062.04 2.97081e+08
3.81134 0.0403848 0.0408154 1.15187e-10 1.93821e+07 0.0403349 1.15045e-10 1.76327e-06 1266.16 3.50601e+08
4.0277 0.0417839 0.0481684 1.00985e-10 2.28754e+07 0.0417302 1.00855e-10 1.52972e-06 1510.13 4.13763e+08
4.25634 0.0432427 0.056846 8.85571e-11 2.69929e+07 0.043187 8.8443e-11 1.32631e-06 1802.31 4.88304e+08
4.49796 0.0447671 0.067087 7.76838e-11 3.18542e+07 0.0447093 7.75835e-11 1.14926e-06 2153.18 5.76273e+08
4.7533 0.0463681 0.0791729 6.81793e-11 3.75892e+07 0.0463072 6.80899e-11 9.95263e-07 2575 6.8009e+08
5.02313 0.0480145 0.0934361 5.98229e-11 4.43706e+07 0.0479511 5.9744e-11 8.61414e-07 3081.42 8.0261e+08
5.30828 0.0497444 0.110269 5.25172e-11 5.23593e+07 0.0496781 5.24472e-11 7.45152e-07 3690.2 9.47202e+08
5.60962 0.0515679 0.130134 4.61316e-11 6.1787e+07 0.0514991 4.60701e-11 6.44232e-07 4424.39 1.11784e+09
5.92807 0.0534747 0.153578 4.05349e-11 7.29346e+07 0.0534016 4.04795e-11 5.56685e-07 5310.72 1.31923e+09
6.26459 0.0554703 0.181246 3.5629e-11 8.60651e+07 0.0553936 3.55797e-11 4.80786e-07 6377.9 1.55689e+09
6.62021 0.0575896 0.213898 3.13436e-11 1.01558e+08 0.0575087 3.12995e-11 4.15026e-07 7669.87 1.83737e+09
6.99602 0.0598097 0.252432 2.75828e-11 1.1986e+08 0.0597258 2.75441e-11 3.58083e-07 9232.69 2.16837e+09
7.39317 0.0621824 0.297908 2.42994e-11 1.41457e+08 0.062094 2.42649e-11 3.08803e-07 11131.1 2.55901e+09
7.81286 0.0646965 0.351577 2.14225e-11 1.66936e+08 0.0646037 2.13918e-11 2.66181e-07 13435.2 3.02002e+09
8.25637 0.067396 0.414914 1.89097e-11 1.97025e+08 0.0672974 1.88821e-11 2.29336e-07 16245.6 3.56409e+09
8.72507 0.0702937 0.489662 1.67121e-11 2.32497e+08 0.0701888 1.66871e-11 1.97503e-07 19673.1 4.20617e+09
9.22037 0.0734763 0.577876 1.48021e-11 2.74404e+08 0.0733639 1.47794e-11 1.70014e-07 23890.7 4.96392e+09
9.74378 0.0770868 0.681982 1.31588e-11 3.2382e+08 0.0769645 1.31379e-11 1.46289e-07 29127.9 5.85818e+09
10.2969 0.081243 0.804843 1.17513e-11 3.82165e+08 0.0811071 1.17316e-11 1.25822e-07 35692.5 6.91355e+09
10.8814 0.0863224 0.949838 1.058e-11 4.51027e+08 0.0861676 1.0561e-11 1.08175e-07 44112.1 8.15905e+09
11.4992 0.0928834 1.12095 9.64629e-12 5.32251e+08 0.0926977 9.62701e-12 9.29669e-08 55226.6 9.62892e+09
12.1519 0.102129 1.3229 8.98739e-12 6.28157e+08 0.101888 8.96616e-12 7.98658e-08 70687.3 1.13636e+10
12.8418 0.112618 1.56122 8.3976e-12 3.82727e+08 0.116568 8.69211e-12 6.85852e-08 46861.2 1.34108e+10
13.5708 0 1.84248 0 0 0 0 5.88765e-08 0 1.58268e+10
14.3411 0 2.17441 0 0 0 0 5.05241e-08 0 1.8678e+10
15.1552 0 2.56613 0 0 0 0 4.33417e-08 0 2.20429e+10
16.0156 0 3.02843 0 0 0 0 3.71677e-08 0 2.6014e+10
16.9247 0 3.574 0 0 0 0 3.18628e-08 0 3.07005e+10
17.8855 0 4.21787 0 0 0 0 2.73063e-08 0 3.62312e+10
18.9008 0 4.97773 0 0 0 0 2.33941e-08 0 4.27584e+10
19.9738 0 5.87448 0 0 0 0 2.00364e-08 0 5.04614e+10
21.1076 0 6.93279 0 0 0 0 1.71555e-08 0 5.95522e+10
22.3058 0 8.18175 0 0 0 0 1.46847e-08 0 7.02807e+10
23.5721 0 9.65571 0 0 0 0 1.25662e-08 0 8.29419e+10
24.9102 0 11.3952 0 0 0 0 1.07504e-08 0 9.78842e+10
26.3243 0 13.4481 0 0 0 0 9.19452e-09 0 1.15518e+11
27.8187 0 15.8708 0 0 0 0 7.86182e-09 0 1.36329e+11
29.3979 0 18.73 0 0 0 0 6.72061e-09 0 1.60889e+11
31.0667 0 22.1042 0 0 0 0 5.74366e-09 0 1.89874e+11
32.8303 0 26.0864 0 0 0 0 4.90756e-09 0 2.2408e+11
34.694 0 30.7859 0 0 0 0 4.19221e-09 0 2.64449e+11
36.6634 0 36.3321 0 0 0 0 3.58032e-09 0 3.1209e+11
38.7447 0 42.8774 0 0 0 0 3.05709e-09 0 3.68314e+11
40.9442 0 50.6018 0 0 0 0 2.60976e-09 0 4.34667e+11
43.2685 0 59.7179 0 0 0 0 2.22743e-09 0 5.12973e+11
45.7247 0 70.4762 0 0 0 0 1.90073e-09 0 6.05386e+11
48.3204 0 83.1727 0 0 0 0 1.62163e-09 0 7.14448e+11
51.0634 0 98.1565 0 0 0 0 1.38326e-09 0 8.43158e+11
53.9621 0 115.84 0 0 0 0 1.1797e-09 0 9.95055e+11
57.0254 0 136.709 0 0 0 0 1.00592e-09 0 1.17432e+12
60.2626 0 161.337 0 0 0 0 8.57591e-10 0 1.38587e+12
63.6835 0 190.402 0 0 0 0 7.3101e-10 0 1.63554e+12
67.2987 0 224.704 0 0 0 0 6.23009e-10 0 1.93019e+12
71.1191 0 265.185 0 0 0 0 5.30879e-10 0 2.27792e+12
75.1563 0 312.958 0 0 0 0 4.52303e-10 0 2.68829e+12
79.4227 0 369.339 0 0 0 0 3.85299e-10 0 3.17259e+12
83.9313 0 435.876 0 0 0 0 3.28173e-10 0 3.74415e+12
88.6959 0 514.4 0 0 0 0 2.79476e-10 0 4.41866e+12
93.7309 0 607.071 0 0 0 0 2.37972e-10 0 5.2147e+12
99.0518 0 716.436 0 0 0 0 2.02605e-10 0 6.15414e+12
104.675 0 845.504 0 0 0 0 1.72471e-10 0 7.26283e+12
110.617 0 997.824 0 0 0 0 1.468e-10 0 8.57124e+12
116.896 0 1177.58 0 0 0 0 1.24935e-10 0 1.01154e+13
123.532 0 1389.73 0 0 0 0 1.06313e-10 0 1.19377e+13
130.545 0 1640.09 0 0 0 0 9.04567e-11 0 1.40883e+13
137.955 0 1935.56 0 0 0 0 7.69563e-11 0 1.66263e+13
145.787 0 2284.26 0 0 0 0 6.54636e-11 0 1.96216e+13
154.063 0 2695.77 0 0 0 0 5.56812e-11 0 2.31565e+13
162.808 0 3181.42 0 0 0 0 4.73556e-11 0 2.73282e+13
172.051 0 3754.56 0 0 0 0 4.02708e-11 0 3.22515e+13
181.818 0 4430.96 0 0 0 0 3.42426e-11 0 3.80616e+13
192.139 0 5229.21 0 0 0 0 2.91139e-11 0 4.49186e+13
203.046 0 6171.26 0 0 0 0 2.4751e-11 0 5.30108e+13
214.572 0 7283.03 0 0 0 0 2.10401e-11 0 6.25608e+13
226.753 0 8595.09 0 0 0 0 1.78839e-11 0 7.38313e+13
239.625 0 10143.5 0 0 0 0 1.51999e-11 0 8.71322e+13
253.228 0 11970.9 0 0 0 0 1.29176e-11 0 1.02829e+14
267.603 0 14127.5 0 0 0 0 1.09771e-11 0 1.21354e+14
282.795 0 16672.6 0 0 0 0 9.3274e-12 0 1.43217e+14
298.848 0 19676.2 0 0 0 0 7.925e-12 0 1.69017e+14
315.813 0 23220.9 0 0 0 0 6.73295e-12 0 1.99466e+14
333.741 0 27404.3 0 0 0 0 5.71979e-12 0 2.35401e+14
352.686 0 32341.2 0 0 0 0 4.85874e-12 0 2.77809e+14
372.707 0 38167.6 0 0 0 0 4.12703e-12 0 3.27857e+14
393.865 0 45043.5 0 0 0 0 3.50528e-12 0 3.86921e+14
416.224 0 53158.3 0 0 0 0 2.97701e-12 0 4.56626e+14
439.852 0 62734.9 0 0 0 0 2.52819e-12 0 5.38888e+14
464.821 0 74036.7 0 0 0 0 2.1469e-12 0 6.35971e+14
491.207 0 87374.6 0 0 0 0 1.82301e-12 0 7.50542e+14
519.092 0 103115 0 0 0 0 1.54789e-12 0 8.85755e+14
548.56 0 121692 0 0 0 0 1.31422e-12 0 1.04533e+15
579.7 0 143615 0 0 0 0 1.11576e-12 0 1.23364e+15
612.608 0 169488 0 0 0 0 9.47223e-13 0 1.45589e+15
647.384 0 200021 0 0 0 0 8.041e-13 0 1.71817e+15
684.134 0 236056 0 0 0 0 6.82568e-13 0 2.0277e+15
722.971 0 278582 0 0 0 0 5.79376e-13 0 2.393e+15
764.012 0 328769 0 0 0 0 4.91762e-13 0 2.8241e+15
