0.121381
200
1.0655e+09
8589934592
0.0129181 0 1.58924e-09 0 0 0 0 0.00677225 0 13.6515
0.0136515 0 1.87554e-09 0 0 0 0 0.00688819 0 16.1108
0.0144264 0 2.21343e-09 0 0 0 0 0.00699249 0 19.0132
0.0152454 0 2.61218e-09 0 0 0 0 0.00708412 0 22.4385
0.0161108 0 3.08278e-09 0 0 0 0 0.00716212 0 26.4808
0.0170254 0 3.63815e-09 0 0 0 0 0.00722559 0 31.2514
0.0179919 0 4.29357e-09 0 0 0 0 0.00727371 0 36.8815
0.0190132 0 5.06707e-09 0 0 0 0 0.00730578 0 43.5258
0.0200925 0 5.97991e-09 0 0 0 0 0.00732122 0 51.367
0.0212331 0 7.05721e-09 0 0 0 0 0.00731958 0 60.621
0.0224385 0 8.32858e-09 0 0 0 0 0.00730056 0 71.542
0.0237123 0 9.829e-09 0 0 0 0 0.00726401 0 84.4305
0.0250583 0 1.15997e-08 0 0 0 0 0.00720995 0 99.6408
0.0264808 0 1.36894e-08 0 0 0 0 0.00713857 0 117.591
0.0279841 0 1.61556e-08 0 0 0 0 0.00705021 0 138.776
0.0295727 0 1.90661e-08 0 0 0 0 0.00694538 0 163.777
0.0312514 0 2.25009e-08 0 0 0 0 0.00682475 0 193.281
0.0330255 0 2.65545e-08 0 0 0 0 0.00668915 0 228.102
0.0349003 0 3.13384e-08 0 0 0 0 0.00653951 0 269.195
0.0368815 0 3.69841e-08 0 0 0 0 0.00637693 0 317.691
0.0389751 0 4.36469e-08 0 0 0 0 0.00620256 0 374.924
0.0411876 0 5.151e-08 0 0 0 0 0.00601767 0 442.467
0.0435258 0 6.07896e-08 0 0 0 0 0.00582358 0 522.179
0.0459966 0 7.1741e-08 0 0 0 0 0.00562166 0 616.251
0.0486077 0 8.46654e-08 0 0 0 0 0.0054133 0 727.27
0.051367 0 9.99181e-08 0 0 0 0 0.00519989 0 858.29
0.054283 0 1.17919e-07 0 0 0 0 0.0049828 0 1012.91
0.0573645 0 1.39162e-07 0 0 0 0 0.00476339 0 1195.39
0.060621 0 1.64232e-07 0 0 0 0 0.00454293 0 1410.75
0.0640622 0 1.93819e-07 0 0 0 0 0.00432265 0 1664.89
0.0676989 0 2.28736e-07 0 0 0 0 0.00410371 0 1964.83
0.071542 0 2.69944e-07 0 0 0 0 0.00388717 0 2318.8
0.0756032 0 3.18575e-07 0 0 0 0 0.00367401 0 2736.54
0.079895 0 3.75967e-07 0 0 0 0 0.0034651 0 3229.53
0.0844305 0 4.43698e-07 0 0 0 0 0.00326121 0 3811.34
0.0892234 0 5.23632e-07 0 0 0 0 0.00306301 0 4497.96
0.0942883 0 6.17966e-07 0 0 0 0 0.00287109 0 5308.28
0.0996408 0 7.29294e-07 0 0 0 0 0.00268591 0 6264.59
0.105297 0 8.60678e-07 0 0 0 0 0.00250785 0 7393.17
0.111275 0 1.01573e-06 0 0 0 0 0.00233721 0 8725.07
0.117591 0 1.19872e-06 0 0 0 0 0.00217419 0 10296.9
0.124267 0 1.41467e-06 0 0 0 0 0.00201893 0 12151.9
0.131321 0 1.66953e-06 0 0 0 0 0.00187147 0 14341.1
0.138776 0 1.9703e-06 0 0 0 0 0.00173182 0 16924.7
0.146654 0 2.32525e-06 0 0 0 0 0.00159991 0 19973.8
0.154979 0 2.74415e-06 0 0 0 0 0.00147563 0 23572.1
0.163777 0 3.23852e-06 0 0 0 0 0.00135884 0 27818.7
0.173074 0 3.82195e-06 0 0 0 0 0.00124933 0 32830.3
0.182899 0 4.51048e-06 0 0 0 0 0.00114689 0 38744.7
0.193281 0 5.32305e-06 0 0 0 0 0.00105127 0 45724.7
0.204254 0 6.28202e-06 0 0 0 0 0.000962209 0 53962.1
0.215848 0 7.41374e-06 0 0 0 0 0.000879423 0 63683.5
0.228102 0 8.74934e-06 0 0 0 0 0.000802624 0 75156.3
0.24105 0 1.03256e-05 0 0 0 0 0.000731515 0 88695.9
0.254734 0 1.21857e-05 0 0 0 0 0.000665798 0 104675
0.269195 0 1.4381e-05 0 0 0 0 0.000605173 0 123532
0.284476 0 1.69718e-05 0 0 0 0 0.000549345 0 145787
0.300625 0 2.00293e-05 0 0 0 0 0.000498021 0 172051
0.317691 0 2.36377e-05 0 0 0 0 0.000450916 0 203046
0.335725 0 2.78961e-05 0 0 0 0 0.000407755 0 239625
0.354784 0 3.29216e-05 0 0 0 0 0.000368269 0 282795
0.374924 0 3.88525e-05 0 0 0 0 0.000332202 0 333741
0.396207 0.440131 4.58519e-05 1.11747e-06 6 0.427894 1.0864e-06 0.000299307 0.0224011 393865
0.418699 0 5.41123e-05 0 0 0 0 0.00026935 0 464821
0.442467 0 6.38607e-05 0 0 0 0 0.000242108 0 548560
0.467585 0 7.53654e-05 0 0 0 0 0.00021737 0 647384
0.494129 0 8.89427e-05 0 0 0 0 0.000194938 0 764012
0.522179 0 0.000104966 0 0 0 0 0.000174625 0 901651
0.551822 0 0.000123876 0 0 0 0 0.000156255 0 1.06409e+06
0.583147 4.67003 0.000146192 3.71882e-06 12 4.91523 3.91408e-06 0.000139664 0.319523 1.25578e+06
0.616251 0 0.000172529 0 0 0 0 0.0001247 0 1.48202e+06
0.651234 0 0.000203611 0 0 0 0 0.00011122 0 1.74901e+06
0.688203 21.5726 0.000240292 1.04513e-05 8 21.0359 1.01913e-05 9.90935e-05 0.843757 2.06409e+06
0.72727 0 0.000283581 0 0 0 0 8.81969e-05 0 2.43595e+06
0.768555 0 0.000334669 0 0 0 0 7.84179e-05 0 2.87479e+06
0.812184 0.203069 0.000394961 5.98548e-08 6 0.20741 6.11345e-08 6.96525e-05 0.00515601 3.39269e+06
0.85829 0 0.000466114 0 0 0 0 6.1805e-05 0 4.00389e+06
0.907013 0.24425 0.000550086 5.16908e-08 24 0.248936 5.26827e-08 5.47875e-05 0.0226435 4.7252e+06
0.958501 0.721127 0.000649185 1.29316e-07 24 0.678887 1.21742e-07 4.85194e-05 0.0639659 5.57646e+06
1.01291 0 0.000766138 0 0 0 0 4.29272e-05 0 6.58107e+06
1.07041 0 0.00090416 0 0 0 0 3.79435e-05 0 7.76667e+06
1.13118 1.69598 0.00106705 1.85032e-07 12 1.67515 1.82759e-07 3.3507e-05 0.0662663 9.16586e+06
1.19539 0.656204 0.00125928 6.06635e-08 30 0.642677 5.9413e-08 2.9562e-05 0.0615623 1.08171e+07
1.26325 6.07143 0.00148614 4.75599e-07 24 5.98007 4.68443e-07 2.60578e-05 0.438041 1.27658e+07
1.33496 17.5043 0.00175387 1.16187e-06 24 17.5428 1.16442e-06 2.29484e-05 1.21511 1.50656e+07
1.41075 6.19806 0.00206984 3.48602e-07 32 6.37657 3.58642e-07 2.01923e-05 0.552451 1.77798e+07
1.49083 0.441831 0.00244272 2.10568e-08 48 0.432412 2.06079e-08 1.77518e-05 0.0569367 2.09828e+07
1.57546 0.0599378 0.00288279 2.42046e-09 6 0.0570743 2.30483e-09 1.55929e-05 0.000931374 2.4763e+07
1.66489 0.406408 0.00340213 1.39066e-08 84 0.395343 1.3528e-08 1.3685e-05 0.0853602 2.92241e+07
1.75941 2.3195 0.00401503 6.72536e-08 48 2.33598 6.77314e-08 1.20007e-05 0.268999 3.44889e+07
1.85928 0.298561 0.00473835 7.33528e-09 72 0.301172 7.39941e-09 1.05151e-05 0.0502268 4.07021e+07
1.96483 0.690395 0.00559198 1.43728e-08 54 0.675623 1.40653e-08 9.20606e-06 0.0843067 4.80347e+07
2.07637 7.84839 0.00659939 1.38448e-07 104 7.82872 1.38101e-07 8.05366e-06 1.78784 5.66883e+07
2.19424 0.265177 0.00778828 3.96373e-09 120 0.26798 4.00563e-09 7.04008e-06 0.0675628 6.69008e+07
2.3188 1.63647 0.00919136 2.0727e-08 156 1.56009 1.97596e-08 6.1494e-06 0.52581 7.89532e+07
2.45043 0.558597 0.0108472 5.99502e-09 126 0.555313 5.95978e-09 5.36741e-06 0.140733 9.31768e+07
2.58954 0.601083 0.0128014 5.46624e-09 192 0.611573 5.56163e-09 4.68145e-06 0.224186 1.09963e+08
2.73654 3.97143 0.0151076 3.06029e-08 152 4.12913 3.18181e-08 4.08023e-06 1.14004 1.29773e+08
2.89188 3.30481 0.0178292 2.15787e-08 378 3.38058 2.20734e-08 3.55373e-06 2.29526 1.53152e+08
3.05605 1.17932 0.0210412 6.52487e-09 264 1.15802 6.40702e-09 3.09304e-06 0.556917 1.80743e+08
3.22953 0.248021 0.0248319 1.16276e-09 366 0.245095 1.14904e-09 2.69025e-06 0.158189 2.13304e+08
3.41286 0.711327 0.0293054 2.82574e-09 428 0.682185 2.70997e-09 2.33837e-06 0.517204 2.51731e+08
3.6066 2.95401 0.0345848 9.94343e-09 486 2.85651 9.61525e-09 2.0312e-06 2.37913 2.97081e+08
3.81134 0.767967 0.0408154 2.19043e-09 600 0.763858 2.17871e-09 1.76327e-06 0.745353 3.50601e+08
4.0277 0.550988 0.0481684 1.33165e-09 738 0.540427 1.30613e-09 1.52972e-06 0.642442 4.13763e+08
4.25634 1.17036 0.056846 2.39679e-09 824 1.20984 2.47764e-09 1.32631e-06 1.48906 4.88304e+08
4.49796 2.4142 0.067087 4.18934e-09 954 2.43235 4.22083e-09 1.14926e-06 3.47758 5.76273e+08
4.7533 0.604817 0.0791729 8.89319e-10 1094 0.596387 8.76924e-10 9.95263e-07 0.977546 6.8009e+08
5.02313 0.373195 0.0934361 4.64977e-10 1332 0.373867 4.65814e-10 8.61414e-07 0.718991 8.0261e+08
5.30828 2.04156 0.110269 2.15535e-09 1614 2.06623 2.1814e-09 7.45152e-07 4.6685 9.47202e+08
5.60962 1.04862 0.130134 9.38077e-10 1850 1.01705 9.09831e-10 6.44232e-07 2.69381 1.11784e+09
5.92807 1.40761 0.153578 1.067e-09 2238 1.35524 1.0273e-09 5.56685e-07 4.28957 1.31923e+09
6.26459 0.73202 0.181246 4.70181e-10 2546 0.740467 4.75607e-10 4.80786e-07 2.48984 1.55689e+09
6.62021 0.386849 0.213898 2.10546e-10 3264 0.387273 2.10776e-10 4.15026e-07 1.65585 1.83737e+09
6.99602 1.43296 0.252432 6.60848e-10 3506 1.47561 6.80513e-10 3.58083e-07 6.47039 2.16837e+09
7.39317 0.735337 0.297908 2.87352e-10 4506 0.742276 2.90064e-10 3.08803e-07 4.19298 2.55901e+09
7.81286 1.2553 0.351577 4.15659e-10 5018 1.28856 4.26674e-10 2.66181e-07 7.83593 3.02002e+09
8.25637 1.16356 0.414914 3.26469e-10 5852 1.12823 3.16555e-10 2.29336e-07 8.33054 3.56409e+09
8.72507 0.844763 0.489662 2.00839e-10 7362 0.837726 1.99166e-10 1.97503e-07 7.48636 4.20617e+09
9.22037 1.09696 0.577876 2.20986e-10 8306 1.08642 2.18862e-10 1.70014e-07 10.7962 4.96392e+09
9.74378 0.641676 0.681982 1.09535e-10 9698 0.642394 1.09657e-10 1.46289e-07 7.26145 5.85818e+09
10.2969 1.20495 0.804843 1.74289e-10 11816 1.21603 1.75891e-10 1.25822e-07 16.3675 6.91355e+09
10.8814 1.08476 0.949838 1.32952e-10 13682 1.08492 1.32971e-10 1.08175e-07 16.8157 8.15905e+09
11.4992 1.13636 1.12095 1.18015e-10 16152 1.1226 1.16586e-10 9.29669e-08 20.5038 9.62892e+09
12.1519 1.15036 1.3229 1.01232e-10 19472 1.13371 9.9767e-11 7.98658e-08 24.6813 1.13636e+10
12.8418 0.898548 1.56122 6.7002e-11 22670 0.900372 6.71379e-11 6.85852e-08 22.1467 1.34108e+10
13.5708 1.25557 1.84248 7.9332e-11 26224 1.26394 7.98609e-11 5.88765e-08 35.335 1.58268e+10
14.3411 1.27616 2.17441 6.83242e-11 31640 1.28293 6.86869e-11 5.05241e-08 42.787 1.8678e+10
15.1552 1.45552 2.56613 6.60312e-11 37484 1.45803 6.61451e-11 4.33417e-08 57.107 2.20429e+10
16.0156 1.54274 3.02843 5.93044e-11 43856 1.54771 5.94954e-11 3.71677e-08 69.9761 2.6014e+10
16.9247 2.07606 3.574 6.7623e-11 51362 2.07157 6.74767e-11 3.18628e-08 109.006 3.07005e+10
17.8855 2.2843 4.21787 6.30479e-11 61636 2.27075 6.26738e-11 2.73063e-08 142.312 3.62312e+10
18.9008 2.87628 4.97773 6.72681e-11 72218 2.86359 6.69713e-11 2.33941e-08 207.658 4.27584e+10
19.9738 3.53688 5.87448 7.00907e-11 84586 3.52203 6.97964e-11 2.00364e-08 295.896 5.04614e+10
21.1076 4.3619 6.93279 7.32449e-11 100708 4.34888 7.30264e-11 1.71555e-08 429.969 5.95522e+10
22.3058 5.28485 8.18175 7.51963e-11 118712 5.27234 7.50183e-11 1.46847e-08 607.893 7.02807e+10
23.5721 6.35149 9.65571 7.65776e-11 140410 6.33438 7.63712e-11 1.25662e-08 855.652 8.29419e+10
24.9102 7.49946 11.3952 7.66157e-11 164374 7.47069 7.63217e-11 1.07504e-08 1171.46 9.78842e+10
26.3243 8.81417 13.4481 7.63011e-11 194680 8.78517 7.60501e-11 9.19452e-09 1615.56 1.15518e+11
27.8187 10.2508 15.8708 7.51919e-11 230196 10.2184 7.49539e-11 7.86182e-09 2201.64 1.36329e+11
29.3979 11.8928 18.73 7.39195e-11 271156 11.8543 7.36802e-11 6.72061e-09 2982.42 1.60889e+11
31.0667 13.8605 22.1042 7.29986e-11 321076 13.8165 7.27669e-11 5.74366e-09 4080.69 1.89874e+11
32.8303 15.88 26.0864 7.08673e-11 377436 15.8302 7.06452e-11 4.90756e-09 5450.34 2.2408e+11
34.694 18.326 30.7859 6.9299e-11 447594 18.2675 6.90775e-11 4.19221e-09 7398.92 2.64449e+11
36.6634 21.2305 36.3321 6.80267e-11 525078 21.1645 6.78155e-11 3.58032e-09 9976.56 3.1209e+11
38.7447 24.6634 42.8774 6.69631e-11 621924 24.5818 6.67413e-11 3.05709e-09 13622.8 3.68314e+11
40.9442 28.727 50.6018 6.60897e-11 732630 28.6371 6.58829e-11 2.60976e-09 18553.1 4.34667e+11
43.2685 33.6582 59.7179 6.56141e-11 865596 33.553 6.54088e-11 2.22743e-09 25498.1 5.12973e+11
45.7247 39.4375 70.4762 6.51444e-11 1.02168e+06 39.3125 6.49378e-11 1.90073e-09 35016.2 6.05386e+11
48.3204 46.2409 83.1727 6.47226e-11 1.20544e+06 46.0903 6.45118e-11 1.62163e-09 48111.4 7.14448e+11
51.0634 54.004 98.1565 6.40497e-11 1.42103e+06 53.8332 6.38471e-11 1.38326e-09 65798.8 8.43158e+11
53.9621 63.169 115.84 6.34829e-11 1.67997e+06 62.9692 6.32821e-11 1.1797e-09 90403.5 9.95055e+11
57.0254 74.1446 136.709 6.31385e-11 1.98018e+06 73.9165 6.29442e-11 1.00592e-09 124290 1.17432e+12
60.2626 87.0275 161.337 6.27962e-11 2.33957e+06 86.7462 6.25931e-11 8.57591e-10 171312 1.38587e+12
63.6835 102.17 190.402 6.24686e-11 2.75676e+06 101.836 6.22642e-11 7.3101e-10 235580 1.63554e+12
67.2987 119.801 224.704 6.20669e-11 3.25638e+06 119.416 6.18674e-11 6.23009e-10 324415 1.93019e+12
71.1191 140.888 265.185 6.18494e-11 3.84387e+06 140.433 6.16496e-11 5.30879e-10 447825 2.27792e+12
75.1563 165.538 312.958 6.15776e-11 4.53277e+06 165.008 6.13801e-11 4.52303e-10 617100 2.68829e+12
79.4227 194.588 369.339 6.1334e-11 5.35083e+06 193.965 6.11375e-11 3.85299e-10 851773 3.17259e+12
83.9313 229.172 435.876 6.1208e-11 6.32174e+06 228.428 6.10093e-11 3.28173e-10 1.17908e+06 3.74415e+12
88.6959 269.799 514.4 6.1059e-11 7.44986e+06 268.915 6.08589e-11 2.79476e-10 1.62762e+06 4.41866e+12
93.7309 317.577 607.071 6.09004e-11 8.79764e+06 316.533 6.07002e-11 2.37972e-10 2.25144e+06 5.2147e+12
99.0518 374.534 716.436 6.08589e-11 1.03827e+07 373.307 6.06595e-11 2.02605e-10 3.11877e+06 6.15414e+12
104.675 441.595 845.504 6.0802e-11 1.22515e+07 440.129 6.06002e-11 1.72471e-10 4.31909e+06 7.26283e+12
110.617 520.48 997.824 6.0724e-11 1.44573e+07 518.769 6.05243e-11 1.468e-10 5.98028e+06 8.57124e+12
116.896 613.656 1177.58 6.06657e-11 1.70664e+07 611.624 6.04648e-11 1.24935e-10 8.28708e+06 1.01154e+13
123.532 724.394 1389.73 6.06813e-11 2.0139e+07 722.005 6.04811e-11 1.06313e-10 1.14949e+07 1.19377e+13
130.545 871.938 1640.09 6.18909e-11 2.37643e+07 869.864 6.17437e-11 9.04567e-11 1.62596e+07 1.40883e+13
137.955 1008.3 1935.56 6.06446e-11 2.80503e+07 1004.95 6.04435e-11 7.69563e-11 2.21047e+07 1.66263e+13
145.787 1189.86 2284.26 6.06405e-11 3.30981e+07 1185.9 6.04387e-11 6.54636e-11 3.06596e+07 1.96216e+13
154.063 1412.84 2695.77 6.10126e-11 3.90634e+07 1408.12 6.08088e-11 5.56812e-11 4.28037e+07 2.31565e+13
162.808 1658.78 3181.42 6.06986e-11 4.61057e+07 1653.27 6.0497e-11 4.73556e-11 5.90965e+07 2.73282e+13
172.051 1959.08 3754.56 6.07439e-11 5.44046e+07 1952.51 6.05402e-11 4.02708e-11 8.20631e+07 3.22515e+13
181.818 2321.29 4430.96 6.09875e-11 6.42064e+07 2313.67 6.07875e-11 3.42426e-11 1.14354e+08 3.80616e+13
192.139 2737.16 5229.21 6.0936e-11 7.57748e+07 2727.94 6.07307e-11 2.91139e-11 1.58598e+08 4.49186e+13
203.046 3244.08 6171.26 6.11967e-11 8.94213e+07 3232.92 6.09862e-11 2.4751e-11 2.21093e+08 5.30108e+13
214.572 3832.7 7283.03 6.12637e-11 1.05538e+08 3819.77 6.10569e-11 2.10401e-11 3.07302e+08 6.25608e+13
226.753 4542.54 8595.09 6.1526e-11 1.24552e+08 4527 6.13155e-11 1.78839e-11 4.28495e+08 7.38313e+13
239.625 5384.99 10143.5 6.18025e-11 1.46987e+08 5366.6 6.15915e-11 1.51999e-11 5.97647e+08 8.71322e+13
253.228 6397.83 11970.9 6.2218e-11 1.7347e+08 6375.79 6.20036e-11 1.29176e-11 8.35521e+08 1.02829e+14
267.603 7616.04 14127.5 6.27587e-11 2.04703e+08 7589.59 6.25408e-11 1.09771e-11 1.17033e+09 1.21354e+14
282.795 9094.59 16672.6 6.35024e-11 2.4161e+08 9062.55 6.32786e-11 9.3274e-12 1.64492e+09 1.43217e+14
298.848 10899.8 19676.2 6.44892e-11 2.85122e+08 10860.7 6.42576e-11 7.925e-12 2.32017e+09 1.69017e+14
315.813 13136.7 23220.9 6.58592e-11 3.36491e+08 13088.5 6.56176e-11 6.73295e-12 3.29143e+09 1.99466e+14
333.741 15954.8 27404.3 6.77772e-11 3.97115e+08 15894.1 6.75195e-11 5.71979e-12 4.70565e+09 2.35401e+14
352.686 19575.9 32341.2 7.04653e-11 4.68637e+08 19498.1 7.01853e-11 4.85874e-12 6.79655e+09 2.77809e+14
372.707 24390.2 38167.6 7.43927e-11 5.53074e+08 24287.7 7.40802e-11 4.12703e-12 9.96957e+09 3.27857e+14
393.865 31031.7 45043.5 8.02017e-11 6.52716e+08 30891 7.9838e-11 3.50528e-12 1.49343e+10 3.86921e+14
416.224 36618.6 53158.3 8.01939e-11 2.2184e+08 38739.1 8.48377e-11 2.97701e-12 5.97586e+09 4.56626e+14
439.852 0 62734.9 0 0 0 0 2.52819e-12 0 5.38888e+14
464.821 0 74036.7 0 0 0 0 2.1469e-12 0 6.35971e+14
491.207 0 87374.6 0 0 0 0 1.82301e-12 0 7.50542e+14
519.092 0 103115 0 0 0 0 1.54789e-12 0 8.85755e+14
548.56 0 121692 0 0 0 0 1.31422e-12 0 1.04533e+15
579.7 0 143615 0 0 0 0 1.11576e-12 0 1.23364e+15
612.608 0 169488 0 0 0 0 9.47223e-13 0 1.45589e+15
647.384 0 200021 0 0 0 0 8.041e-13 0 1.71817e+15
684.134 0 236056 0 0 0 0 6.82568e-13 0 2.0277e+15
722.971 0 278582 0 0 0 0 5.79376e-13 0 2.393e+15
764.012 0 328769 0 0 0 0 4.91762e-13 0 2.8241e+15
0.121381
200
1.0655e+09
8589934592
0.0129181 5.2533e-05 1.58924e-09 3.84816e-06 6 5.2052e-05 3.81293e-06 0.00677225 0.00340935 13.6515
0.0136515 0 1.87554e-09 0 0 0 0 0.00688819 0 16.1108
0.0144264 0 2.21343e-09 0 0 0 0 0.00699249 0 19.0132
0.0152454 0 2.61218e-09 0 0 0 0 0.00708412 0 22.4385
0.0161108 0 3.08278e-09 0 0 0 0 0.00716212 0 26.4808
0.0170254 0 3.63815e-09 0 0 0 0 0.00722559 0 31.2514
0.0179919 0.000116664 4.29357e-09 3.16322e-06 12 0.000116514 3.15915e-06 0.00727371 0.00521861 36.8815
0.0190132 0 5.06707e-09 0 0 0 0 0.00730578 0 43.5258
0.0200925 0 5.97991e-09 0 0 0 0 0.00732122 0 51.367
0.0212331 0.000110332 7.05721e-09 1.82003e-06 8 0.000110236 1.81844e-06 0.00731958 0.00198922 60.621
0.0224385 0 8.32858e-09 0 0 0 0 0.00730056 0 71.542
0.0237123 0 9.829e-09 0 0 0 0 0.00726401 0 84.4305
0.0250583 0.000709411 1.15997e-08 7.11968e-06 6 0.000709077 7.11633e-06 0.00720995 0.00592488 99.6408
0.0264808 0 1.36894e-08 0 0 0 0 0.00713857 0 117.591
0.0279841 0.000441854 1.61556e-08 3.18394e-06 24 0.0004414 3.18067e-06 0.00705021 0.0108386 138.776
0.0295727 0 1.90661e-08 0 0 0 0 0.00694538 0 163.777
0.0312514 0.000790125 2.25009e-08 4.08795e-06 24 0.000794137 4.10871e-06 0.00682475 0.0143757 193.281
0.0330255 0 2.65545e-08 0 0 0 0 0.00668915 0 228.102
0.0349003 0.00110516 3.13384e-08 4.10545e-06 12 0.00109632 4.07257e-06 0.00653951 0.00753349 269.195
0.0368815 0.000957826 3.69841e-08 3.01496e-06 30 0.000947627 2.98286e-06 0.00637693 0.0141838 317.691
0.0389751 0.00114237 4.36469e-08 3.04693e-06 24 0.00113062 3.01559e-06 0.00620256 0.0117897 374.924
0.0411876 0.000723907 5.151e-08 1.63607e-06 24 0.00071899 1.62496e-06 0.00601767 0.00652506 442.467
0.0435258 0.00155861 6.07896e-08 2.98481e-06 8 0.00155849 2.98458e-06 0.00582358 0.00410031 522.179
0.0459966 0.00199489 7.1741e-08 3.23715e-06 72 0.00197911 3.21154e-06 0.00562166 0.0414601 616.251
0.0486077 0 8.46654e-08 0 0 0 0 0.0054133 0 727.27
0.051367 0.00298901 9.99181e-08 3.48251e-06 54 0.00297954 3.47149e-06 0.00519989 0.0361653 858.29
0.054283 0.00232144 1.17919e-07 2.29184e-06 60 0.0023311 2.30138e-06 0.0049828 0.027597 1012.91
0.0573645 0.00231296 1.39162e-07 1.93489e-06 96 0.00230702 1.92993e-06 0.00476339 0.0389953 1195.39
0.060621 0.00266966 1.64232e-07 1.89238e-06 24 0.00263349 1.86674e-06 0.00454293 0.0099973 1410.75
0.0640622 0.00470523 1.93819e-07 2.82614e-06 134 0.00470779 2.82768e-06 0.00432265 0.0876089 1664.89
0.0676989 0.00451219 2.28736e-07 2.29648e-06 120 0.00449154 2.28597e-06 0.00410371 0.0671532 1964.83
0.071542 0.00412037 2.69944e-07 1.77694e-06 108 0.0040758 1.75772e-06 0.00388717 0.04937 2318.8
0.0756032 0.00598646 3.18575e-07 2.1876e-06 174 0.00595531 2.17622e-06 0.00367401 0.103604 2736.54
0.079895 0.00640424 3.75967e-07 1.98302e-06 168 0.00634381 1.96431e-06 0.0034651 0.0961439 3229.53
0.0844305 0.00547901 4.43698e-07 1.43755e-06 168 0.00550639 1.44474e-06 0.00326121 0.0740552 3811.34
0.0892234 0.0061622 5.23632e-07 1.37e-06 290 0.00613637 1.36426e-06 0.00306301 0.129709 4497.96
0.0942883 0.00800864 6.17966e-07 1.50871e-06 288 0.00798833 1.50488e-06 0.00287109 0.151339 5308.28
0.0996408 0.00729916 7.29294e-07 1.16515e-06 366 0.00723741 1.15529e-06 0.00268591 0.158771 6264.59
0.105297 0.00789845 8.60678e-07 1.06834e-06 420 0.00784387 1.06096e-06 0.00250785 0.17892 7393.17
0.111275 0.00835211 1.01573e-06 9.57254e-07 398 0.00832934 9.54645e-07 0.00233721 0.163009 8725.07
0.117591 0.00994185 1.19872e-06 9.65517e-07 624 0.00996209 9.67483e-07 0.00217419 0.277106 10296.9
0.124267 0.0109881 1.41467e-06 9.04223e-07 642 0.0109743 9.03095e-07 0.00201893 0.287535 12151.9
0.131321 0.0139592 1.66953e-06 9.73367e-07 800 0.0139641 9.73712e-07 0.00187147 0.416087 14341.1
0.138776 0.0126822 1.9703e-06 7.49327e-07 858 0.0127434 7.52944e-07 0.00173182 0.371242 16924.7
0.146654 0.0136766 2.32525e-06 6.84728e-07 1080 0.0137908 6.90448e-07 0.00159991 0.462217 19973.8
0.154979 0.0161765 2.74415e-06 6.86257e-07 1286 0.0162886 6.91011e-07 0.00147563 0.598066 23572.1
0.163777 0.0153213 3.23852e-06 5.50757e-07 1650 0.0153485 5.51736e-07 0.00135884 0.668769 27818.7
0.173074 0.0180513 3.82195e-06 5.49836e-07 1778 0.0180533 5.49897e-07 0.00124933 0.782505 32830.3
0.182899 0.0176566 4.51048e-06 4.55716e-07 2112 0.0176983 4.56793e-07 0.00114689 0.839201 38744.7
0.193281 0.0207778 5.32305e-06 4.54411e-07 2570 0.0208085 4.55082e-07 0.00105127 1.11088 45724.7
0.204254 0.0230508 6.28202e-06 4.27167e-07 3030 0.0230415 4.26995e-07 0.000962209 1.34515 53962.1
0.215848 0.0229235 7.41374e-06 3.59959e-07 3434 0.0229198 3.59902e-07 0.000879423 1.40558 63683.5
0.228102 0.0239658 8.74934e-06 3.1888e-07 4218 0.0239716 3.18956e-07 0.000802624 1.6758 75156.3
0.24105 0.0270783 1.03256e-05 3.05294e-07 4766 0.027104 3.05583e-07 0.000731515 1.98906 88695.9
0.254734 0.028929 1.21857e-05 2.76371e-07 6026 0.0289199 2.76284e-07 0.000665798 2.50137 104675
0.269195 0.0302678 1.4381e-05 2.4502e-07 6480 0.0302537 2.44906e-07 0.000605173 2.62359 123532
0.284476 0.0328155 1.69718e-05 2.25092e-07 8162 0.0328914 2.25613e-07 0.000549345 3.34435 145787
0.300625 0.0330531 2.00293e-05 1.92113e-07 9578 0.0330953 1.92358e-07 0.000498021 3.69474 172051
0.317691 0.0367503 2.36377e-05 1.80995e-07 11234 0.0367235 1.80863e-07 0.000450916 4.50925 203046
0.335725 0.0384699 2.78961e-05 1.60542e-07 13344 0.0384531 1.60472e-07 0.000407755 5.25382 239625
0.354784 0.039899 3.29216e-05 1.41088e-07 15464 0.0398754 1.41005e-07 0.000368269 5.92445 282795
0.374924 0.0428725 3.88525e-05 1.28461e-07 18458 0.0428658 1.28441e-07 0.000332202 7.1376 333741
0.396207 0.0449631 4.58519e-05 1.14159e-07 22232 0.0448983 1.13994e-07 0.000299307 8.47951 393865
0.418699 0.0486699 5.41123e-05 1.04707e-07 25628 0.0485705 1.04493e-07 0.00026935 9.96262 464821
0.442467 0.0506839 6.38607e-05 9.23946e-08 30320 0.0505968 9.22358e-08 0.000242108 11.5709 548560
0.467585 0.0531366 7.53654e-05 8.20789e-08 35452 0.0530598 8.19602e-08 0.00021737 13.3867 647384
0.494129 0.0551012 8.89427e-05 7.21209e-08 41792 0.0550811 7.20946e-08 0.000194938 15.4617 764012
0.522179 0.0596068 0.000104966 6.61085e-08 49988 0.05959 6.60899e-08 0.000174625 18.9242 901651
0.551822 0.0623248 0.000123876 5.85713e-08 59110 0.0622854 5.85342e-08 0.000156255 22.1571 1.06409e+06
0.583147 0.0657707 0.000146192 5.23742e-08 69716 0.0656921 5.23116e-08 0.000139664 26.1436 1.25578e+06
0.616251 0.0694338 0.000172529 4.68509e-08 82210 0.0693245 4.67772e-08 0.0001247 30.887 1.48202e+06
0.651234 0.0734285 0.000203611 4.1983e-08 96722 0.0732952 4.19068e-08 0.00011122 36.5102 1.74901e+06
0.688203 0.0772004 0.000240292 3.74016e-08 113098 0.0771311 3.7368e-08 9.90935e-05 42.6874 2.06409e+06
0.72727 0.0802192 0.000283581 3.29315e-08 135190 0.0801368 3.28976e-08 8.81969e-05 50.478 2.43595e+06
0.768555 0.085226 0.000334669 2.9646e-08 158170 0.085151 2.96199e-08 7.84179e-05 59.7964 2.87479e+06
0.812184 0.0891608 0.000394961 2.62803e-08 188560 0.089074 2.62547e-08 6.96525e-05 71.1447 3.39269e+06
0.85829 0.093262 0.000466114 2.32928e-08 220444 0.0931563 2.32664e-08 6.1805e-05 83.0801 4.00389e+06
0.907013 0.0982055 0.000550086 2.07834e-08 261388 0.0981077 2.07626e-08 5.47875e-05 99.1562 4.7252e+06
0.958501 0.102834 0.000649185 1.84408e-08 308244 0.102724 1.84211e-08 4.85194e-05 117.154 5.57646e+06
1.01291 0.108584 0.000766138 1.64994e-08 364396 0.108463 1.64811e-08 4.29272e-05 140.059 6.58107e+06
1.07041 0.113462 0.00090416 1.46088e-08 429162 0.113324 1.4591e-08 3.79435e-05 165.234 7.76667e+06
1.13118 0.119666 0.00106705 1.30556e-08 506358 0.119524 1.30401e-08 3.3507e-05 197.297 9.16586e+06
1.19539 0.125041 0.00125928 1.15596e-08 598590 0.124883 1.15449e-08 2.9562e-05 234.066 1.08171e+07
1.26325 0.131393 0.00148614 1.02926e-08 704844 0.131226 1.02795e-08 2.60578e-05 278.406 1.27658e+07
1.33496 0.137532 0.00175387 9.12884e-09 834620 0.137355 9.11707e-09 2.29484e-05 332.01 1.50656e+07
1.41075 0.144104 0.00206984 8.10494e-09 981444 0.143931 8.09523e-09 2.01923e-05 393.94 1.77798e+07
1.49083 0.151192 0.00244272 7.20549e-09 1.15998e+06 0.150995 7.19613e-09 1.77518e-05 470.838 2.09828e+07
1.57546 0.159109 0.00288279 6.42529e-09 1.36931e+06 0.158901 6.41687e-09 1.55929e-05 564.246 2.4763e+07
1.66489 0.166791 0.00340213 5.7073e-09 1.61652e+06 0.166552 5.69912e-09 1.3685e-05 674.164 2.92241e+07
1.75941 0.174865 0.00401503 5.07019e-09 1.90601e+06 0.174623 5.06318e-09 1.20007e-05 805.273 3.44889e+07
1.85928 0.183759 0.00473835 4.51473e-09 2.24913e+06 0.183519 4.50883e-09 1.05151e-05 965.678 4.07021e+07
1.96483 0.19249 0.00559198 4.00731e-09 2.65744e+06 0.192217 4.00162e-09 9.20606e-06 1156.76 4.80347e+07
2.07637 0.202327 0.00659939 3.56912e-09 3.13125e+06 0.202048 3.5642e-09 8.05366e-06 1387.67 5.66883e+07
2.19424 0.212597 0.00778828 3.17779e-09 3.69915e+06 0.212307 3.17346e-09 7.04008e-06 1669.74 6.69008e+07
2.3188 0.223263 0.00919136 2.82779e-09 4.36472e+06 0.222942 2.82372e-09 6.1494e-06 2007.11 7.89532e+07
2.45043 0.234929 0.0108472 2.52132e-09 5.14913e+06 0.234595 2.51774e-09 5.36741e-06 2418.78 9.31768e+07
2.58954 0.247416 0.0128014 2.25e-09 6.07894e+06 0.247055 2.24672e-09 4.68145e-06 2921.65 1.09963e+08
2.73654 0.26028 0.0151076 2.00566e-09 7.17304e+06 0.259905 2.00276e-09 4.08023e-06 3525.94 1.29773e+08
2.89188 0.274002 0.0178292 1.78908e-09 8.46557e+06 0.273604 1.78649e-09 3.55373e-06 4261.89 1.53152e+08
3.05605 0.288822 0.0210412 1.59797e-09 9.98773e+06 0.288422 1.59576e-09 3.09304e-06 5160.01 1.80743e+08
3.22953 0.304605 0.0248319 1.42803e-09 1.1797e+07 0.304163 1.42596e-09 2.69025e-06 6262.06 2.13304e+08
3.41286 0.321704 0.0293054 1.27797e-09 1.39144e+07 0.321213 1.27601e-09 2.33837e-06 7604.49 2.51731e+08
3.6066 0.339557 0.0345848 1.14298e-09 1.64163e+07 0.339053 1.14128e-09 2.0312e-06 9237.59 2.97081e+08
3.81134 0.358966 0.0408154 1.02386e-09 1.93821e+07 0.358424 1.02231e-09 1.76327e-06 11254.4 3.50601e+08
4.0277 0.379847 0.0481684 9.1803e-10 2.28754e+07 0.379263 9.16617e-10 1.52972e-06 13728.2 4.13763e+08
4.25634 0.402123 0.056846 8.2351e-10 2.69929e+07 0.401491 8.22216e-10 1.32631e-06 16760 4.88304e+08
4.49796 0.426447 0.067087 7.40008e-10 3.18542e+07 0.425765 7.38826e-10 1.14926e-06 20511 5.76273e+08
4.7533 0.452596 0.0791729 6.65494e-10 3.75892e+07 0.45187 6.64427e-10 9.95263e-07 25134.4 6.8009e+08
5.02313 0.480638 0.0934361 5.98844e-10 4.43706e+07 0.47986 5.97875e-10 8.61414e-07 30845.9 8.0261e+08
5.30828 0.511082 0.110269 5.3957e-10 5.23593e+07 0.510226 5.38667e-10 7.45152e-07 37913.7 9.47202e+08
5.60962 0.544238 0.130134 4.86864e-10 6.1787e+07 0.543335 4.86057e-10 6.44232e-07 46694.2 1.11784e+09
5.92807 0.58056 0.153578 4.40076e-10 7.29346e+07 0.579564 4.39321e-10 5.56685e-07 57656.9 1.31923e+09
6.26459 0.619793 0.181246 3.98098e-10 8.60651e+07 0.618711 3.97402e-10 4.80786e-07 71263.1 1.55689e+09
6.62021 0.663189 0.213898 3.60945e-10 1.01558e+08 0.662017 3.60308e-10 4.15026e-07 88324.5 1.83737e+09
6.99602 0.710891 0.252432 3.27846e-10 1.1986e+08 0.709621 3.2726e-10 3.58083e-07 109739 2.16837e+09
7.39317 0.763569 0.297908 2.98385e-10 1.41457e+08 0.76218 2.97842e-10 3.08803e-07 136684 2.55901e+09
7.81286 0.821653 0.351577 2.72069e-10 1.66936e+08 0.820124 2.71562e-10 2.66181e-07 170628 3.02002e+09
8.25637 0.886062 0.414914 2.48608e-10 1.97025e+08 0.884389 2.48139e-10 2.29336e-07 213582 3.56409e+09
8.72507 0.957688 0.489662 2.27687e-10 2.32497e+08 0.955838 2.27247e-10 1.97503e-07 268028 4.20617e+09
9.22037 1.03845 0.577876 2.09199e-10 2.74404e+08 1.03638 2.08783e-10 1.70014e-07 337648 4.96392e+09
9.74378 1.12999 0.681982 1.92892e-10 3.2382e+08 1.12768 1.92497e-10 1.46289e-07 426978 5.85818e+09
10.2969 1.23684 0.804843 1.78901e-10 3.82165e+08 1.23419 1.78518e-10 1.25822e-07 543383 6.91355e+09
10.8814 1.36647 0.949838 1.67479e-10 4.51027e+08 1.36333 1.67094e-10 1.08175e-07 698286 8.15905e+09
11.4992 1.53362 1.12095 1.59273e-10 5.32251e+08 1.52969 1.58865e-10 9.29669e-08 911862 9.62892e+09
12.1519 1.76552 1.3229 1.55366e-10 6.28157e+08 1.76027 1.54905e-10 7.98658e-08 1.22198e+06 1.13636e+10
12.8418 2.0183 1.56122 1.50498e-10 3.82727e+08 2.08873 1.5575e-10 6.85852e-08 839826 1.34108e+10
13.5708 0 1.84248 0 0 0 0 5.88765e-08 0 1.58268e+10
14.3411 0 2.17441 0 0 0 0 5.05241e-08 0 1.8678e+10
15.1552 0 2.56613 0 0 0 0 4.33417e-08 0 2.20429e+10
16.0156 0 3.02843 0 0 0 0 3.71677e-08 0 2.6014e+10
16.9247 0 3.574 0 0 0 0 3.18628e-08 0 3.07005e+10
17.8855 0 4.21787 0 0 0 0 2.73063e-08 0 3.62312e+10
18.9008 0 4.97773 0 0 0 0 2.33941e-08 0 4.27584e+10
19.9738 0 5.87448 0 0 0 0 2.00364e-08 0 5.04614e+10
21.1076 0 6.93279 0 0 0 0 1.71555e-08 0 5.95522e+10
22.3058 0 8.18175 0 0 0 0 1.46847e-08 0 7.02807e+10
23.5721 0 9.65571 0 0 0 0 1.25662e-08 0 8.29419e+10
24.9102 0 11.3952 0 0 0 0 1.07504e-08 0 9.78842e+10
26.3243 0 13.4481 0 0 0 0 9.19452e-09 0 1.15518e+11
27.8187 0 15.8708 0 0 0 0 7.86182e-09 0 1.36329e+11
29.3979 0 18.73 0 0 0 0 6.72061e-09 0 1.60889e+11
31.0667 0 22.1042 0 0 0 0 5.74366e-09 0 1.89874e+11
32.8303 0 26.0864 0 0 0 0 4.90756e-09 0 2.2408e+11
34.694 0 30.7859 0 0 0 0 4.19221e-09 0 2.64449e+11
36.6634 0 36.3321 0 0 0 0 3.58032e-09 0 3.1209e+11
38.7447 0 42.8774 0 0 0 0 3.05709e-09 0 3.68314e+11
40.9442 0 50.6018 0 0 0 0 2.60976e-09 0 4.34667e+11
43.2685 0 59.7179 0 0 0 0 2.22743e-09 0 5.12973e+11
45.7247 0 70.4762 0 0 0 0 1.90073e-09 0 6.05386e+11
48.3204 0 83.1727 0 0 0 0 1.62163e-09 0 7.14448e+11
51.0634 0 98.1565 0 0 0 0 1.38326e-09 0 8.43158e+11
53.9621 0 115.84 0 0 0 0 1.1797e-09 0 9.95055e+11
57.0254 0 136.709 0 0 0 0 1.00592e-09 0 1.17432e+12
60.2626 0 161.337 0 0 0 0 8.57591e-10 0 1.38587e+12
63.6835 0 190.402 0 0 0 0 7.3101e-10 0 1.63554e+12
67.2987 0 224.704 0 0 0 0 6.23009e-10 0 1.93019e+12
71.1191 0 265.185 0 0 0 0 5.30879e-10 0 2.27792e+12
75.1563 0 312.958 0 0 0 0 4.52303e-10 0 2.68829e+12
79.4227 0 369.339 0 0 0 0 3.85299e-10 0 3.17259e+12
83.9313 0 435.876 0 0 0 0 3.28173e-10 0 3.74415e+12
88.6959 0 514.4 0 0 0 0 2.79476e-10 0 4.41866e+12
93.7309 0 607.071 0 0 0 0 2.37972e-10 0 5.2147e+12
99.0518 0 716.436 0 0 0 0 2.02605e-10 0 6.15414e+12
104.675 0 845.504 0 0 0 0 1.72471e-10 0 7.26283e+12
110.617 0 997.824 0 0 0 0 1.468e-10 0 8.57124e+12
116.896 0 1177.58 0 0 0 0 1.24935e-10 0 1.01154e+13
123.532 0 1389.73 0 0 0 0 1.06313e-10 0 1.19377e+13
130.545 0 1640.09 0 0 0 0 9.04567e-11 0 1.40883e+13
137.955 0 1935.56 0 0 0 0 7.69563e-11 0 1.66263e+13
145.787 0 2284.26 0 0 0 0 6.54636e-11 0 1.96216e+13
154.063 0 2695.77 0 0 0 0 5.56812e-11 0 2.31565e+13
162.808 0 3181.42 0 0 0 0 4.73556e-11 0 2.73282e+13
172.051 0 3754.56 0 0 0 0 4.02708e-11 0 3.22515e+13
181.818 0 4430.96 0 0 0 0 3.42426e-11 0 3.80616e+13
192.139 0 5229.21 0 0 0 0 2.91139e-11 0 4.49186e+13
203.046 0 6171.26 0 0 0 0 2.4751e-11 0 5.30108e+13
214.572 0 7283.03 0 0 0 0 2.10401e-11 0 6.25608e+13
226.753 0 8595.09 0 0 0 0 1.78839e-11 0 7.38313e+13
239.625 0 10143.5 0 0 0 0 1.51999e-11 0 8.71322e+13
253.228 0 11970.9 0 0 0 0 1.29176e-11 0 1.02829e+14
267.603 0 14127.5 0 0 0 0 1.09771e-11 0 1.21354e+14
282.795 0 16672.6 0 0 0 0 9.3274e-12 0 1.43217e+14
298.848 0 19676.2 0 0 0 0 7.925e-12 0 1.69017e+14
315.813 0 23220.9 0 0 0 0 6.73295e-12 0 1.99466e+14
333.741 0 27404.3 0 0 0 0 5.71979e-12 0 2.35401e+14
352.686 0 32341.2 0 0 0 0 4.85874e-12 0 2.77809e+14
372.707 0 38167.6 0 0 0 0 4.12703e-12 0 3.27857e+14
393.865 0 45043.5 0 0 0 0 3.50528e-12 0 3.86921e+14
416.224 0 53158.3 0 0 0 0 2.97701e-12 0 4.56626e+14
439.852 0 62734.9 0 0 0 0 2.52819e-12 0 5.38888e+14
464.821 0 74036.7 0 0 0 0 2.1469e-12 0 6.35971e+14
491.207 0 87374.6 0 0 0 0 1.82301e-12 0 7.50542e+14
519.092 0 103115 0 0 0 0 1.54789e-12 0 8.85755e+14
548.56 0 121692 0 0 0 0 1.31422e-12 0 1.04533e+15
579.7 0 143615 0 0 0 0 1.11576e-12 0 1.23364e+15
612.608 0 169488 0 0 0 0 9.47223e-13 0 1.45589e+15
647.384 0 200021 0 0 0 0 8.041e-13 0 1.71817e+15
684.134 0 236056 0 0 0 0 6.82568e-13 0 2.0277e+15
722.971 0 278582 0 0 0 0 5.79376e-13 0 2.393e+15
764.012 0 328769 0 0 0 0 4.91762e-13 0 2.8241e+15
