0.456411
200
1.0655e+09
8589934592
0.0129181 0 1.58924e-09 0 0 0 0 0.00677225 0 13.6515
0.0136515 0 1.87554e-09 0 0 0 0 0.00688819 0 16.1108
0.0144264 0 2.21343e-09 0 0 0 0 0.00699249 0 19.0132
0.0152454 0 2.61218e-09 0 0 0 0 0.00708412 0 22.4385
0.0161108 0 3.08278e-09 0 0 0 0 0.00716212 0 26.4808
0.0170254 0 3.63815e-09 0 0 0 0 0.00722559 0 31.2514
0.0179919 0 4.29357e-09 0 0 0 0 0.00727371 0 36.8815
0.0190132 0 5.06707e-09 0 0 0 0 0.00730578 0 43.5258
0.0200925 0 5.97991e-09 0 0 0 0 0.00732122 0 51.367
0.0212331 0 7.05721e-09 0 0 0 0 0.00731958 0 60.621
0.0224385 0 8.32858e-09 0 0 0 0 0.00730056 0 71.542
0.0237123 0 9.829e-09 0 0 0 0 0.00726401 0 84.4305
0.0250583 0 1.15997e-08 0 0 0 0 0.00720995 0 99.6408
0.0264808 0 1.36894e-08 0 0 0 0 0.00713857 0 117.591
0.0279841 0 1.61556e-08 0 0 0 0 0.00705021 0 138.776
0.0295727 0 1.90661e-08 0 0 0 0 0.00694538 0 163.777
0.0312514 0 2.25009e-08 0 0 0 0 0.00682475 0 193.281
0.0330255 0 2.65545e-08 0 0 0 0 0.00668915 0 228.102
0.0349003 0 3.13384e-08 0 0 0 0 0.00653951 0 269.195
0.0368815 0 3.69841e-08 0 0 0 0 0.00637693 0 317.691
0.0389751 0 4.36469e-08 0 0 0 0 0.00620256 0 374.924
0.0411876 0 5.151e-08 0 0 0 0 0.00601767 0 442.467
0.0435258 0 6.07896e-08 0 0 0 0 0.00582358 0 522.179
0.0459966 0 7.1741e-08 0 0 0 0 0.00562166 0 616.251
0.0486077 0 8.46654e-08 0 0 0 0 0.0054133 0 727.27
0.051367 0 9.99181e-08 0 0 0 0 0.00519989 0 858.29
0.054283 0 1.17919e-07 0 0 0 0 0.0049828 0 1012.91
0.0573645 0 1.39162e-07 0 0 0 0 0.00476339 0 1195.39
0.060621 0 1.64232e-07 0 0 0 0 0.00454293 0 1410.75
0.0640622 0 1.93819e-07 0 0 0 0 0.00432265 0 1664.89
0.0676989 0 2.28736e-07 0 0 0 0 0.00410371 0 1964.83
0.071542 0 2.69944e-07 0 0 0 0 0.00388717 0 2318.8
0.0756032 0 3.18575e-07 0 0 0 0 0.00367401 0 2736.54
0.079895 0 3.75967e-07 0 0 0 0 0.0034651 0 3229.53
0.0844305 0 4.43698e-07 0 0 0 0 0.00326121 0 3811.34
0.0892234 0 5.23632e-07 0 0 0 0 0.00306301 0 4497.96
0.0942883 0 6.17966e-07 0 0 0 0 0.00287109 0 5308.28
0.0996408 0 7.29294e-07 0 0 0 0 0.00268591 0 6264.59
0.105297 0 8.60678e-07 0 0 0 0 0.00250785 0 7393.17
0.111275 0 1.01573e-06 0 0 0 0 0.00233721 0 8725.07
0.117591 0 1.19872e-06 0 0 0 0 0.00217419 0 10296.9
0.124267 0 1.41467e-06 0 0 0 0 0.00201893 0 12151.9
0.131321 0 1.66953e-06 0 0 0 0 0.00187147 0 14341.1
0.138776 0 1.9703e-06 0 0 0 0 0.00173182 0 16924.7
0.146654 0 2.32525e-06 0 0 0 0 0.00159991 0 19973.8
0.154979 0 2.74415e-06 0 0 0 0 0.00147563 0 23572.1
0.163777 0 3.23852e-06 0 0 0 0 0.00135884 0 27818.7
0.173074 0 3.82195e-06 0 0 0 0 0.00124933 0 32830.3
0.182899 0 4.51048e-06 0 0 0 0 0.00114689 0 38744.7
0.193281 0 5.32305e-06 0 0 0 0 0.00105127 0 45724.7
0.204254 0 6.28202e-06 0 0 0 0 0.000962209 0 53962.1
0.215848 0 7.41374e-06 0 0 0 0 0.000879423 0 63683.5
0.228102 0 8.74934e-06 0 0 0 0 0.000802624 0 75156.3
0.24105 0 1.03256e-05 0 0 0 0 0.000731515 0 88695.9
0.254734 0 1.21857e-05 0 0 0 0 0.000665798 0 104675
0.269195 0 1.4381e-05 0 0 0 0 0.000605173 0 123532
0.284476 0 1.69718e-05 0 0 0 0 0.000549345 0 145787
0.300625 0 2.00293e-05 0 0 0 0 0.000498021 0 172051
0.317691 0 2.36377e-05 0 0 0 0 0.000450916 0 203046
0.335725 0 2.78961e-05 0 0 0 0 0.000407755 0 239625
0.354784 0 3.29216e-05 0 0 0 0 0.000368269 0 282795
0.374924 0 3.88525e-05 0 0 0 0 0.000332202 0 333741
0.396207 1.92273 4.58519e-05 4.88169e-06 6 1.86927 4.74597e-06 0.000299307 0.0978598 393865
0.418699 0 5.41123e-05 0 0 0 0 0.00026935 0 464821
0.442467 0 6.38607e-05 0 0 0 0 0.000242108 0 548560
0.467585 0 7.53654e-05 0 0 0 0 0.00021737 0 647384
0.494129 0 8.89427e-05 0 0 0 0 0.000194938 0 764012
0.522179 0 0.000104966 0 0 0 0 0.000174625 0 901651
0.551822 0 0.000123876 0 0 0 0 0.000156255 0 1.06409e+06
0.583147 9.01112 0.000146192 7.1757e-06 12 9.48426 7.55246e-06 0.000139664 0.616539 1.25578e+06
0.616251 0 0.000172529 0 0 0 0 0.0001247 0 1.48202e+06
0.651234 0 0.000203611 0 0 0 0 0.00011122 0 1.74901e+06
0.688203 16.5354 0.000240292 8.01098e-06 8 16.124 7.81168e-06 9.90935e-05 0.646741 2.06409e+06
0.72727 0 0.000283581 0 0 0 0 8.81969e-05 0 2.43595e+06
0.768555 0 0.000334669 0 0 0 0 7.84179e-05 0 2.87479e+06
0.812184 3.38555 0.000394961 9.97895e-07 6 3.45793 1.01923e-06 6.96525e-05 0.0859606 3.39269e+06
0.85829 0 0.000466114 0 0 0 0 6.1805e-05 0 4.00389e+06
0.907013 0.951327 0.000550086 2.0133e-07 24 0.969581 2.05193e-07 5.47875e-05 0.0881941 4.7252e+06
0.958501 2.63375 0.000649185 4.72297e-07 24 2.47948 4.44633e-07 4.85194e-05 0.233621 5.57646e+06
1.01291 0 0.000766138 0 0 0 0 4.29272e-05 0 6.58107e+06
1.07041 0 0.00090416 0 0 0 0 3.79435e-05 0 7.76667e+06
1.13118 6.33424 0.00106705 6.91069e-07 12 6.25643 6.8258e-07 3.3507e-05 0.247495 9.16586e+06
1.19539 2.63855 0.00125928 2.43923e-07 30 2.58415 2.38895e-07 2.9562e-05 0.247537 1.08171e+07
1.26325 12.7018 0.00148614 9.94983e-07 24 12.5107 9.80011e-07 2.60578e-05 0.916408 1.27658e+07
1.33496 18.4859 0.00175387 1.22703e-06 24 18.5266 1.22972e-06 2.29484e-05 1.28325 1.50656e+07
1.41075 11.5593 0.00206984 6.50136e-07 32 11.7657 6.61746e-07 2.01923e-05 1.03031 1.77798e+07
1.49083 3.01712 0.00244272 1.4379e-07 48 2.95279 1.40724e-07 1.77518e-05 0.388801 2.09828e+07
1.57546 10.3631 0.00288279 4.18493e-07 6 9.86802 3.98499e-07 1.55929e-05 0.161032 2.4763e+07
1.66489 3.71747 0.00340213 1.27206e-07 84 3.63491 1.24381e-07 1.3685e-05 0.780802 2.92241e+07
1.75941 5.47119 0.00401503 1.58636e-07 48 5.43172 1.57492e-07 1.20007e-05 0.634509 3.44889e+07
1.85928 3.84452 0.00473835 9.4455e-08 72 3.89533 9.57035e-08 1.05151e-05 0.646762 4.07021e+07
1.96483 6.65256 0.00559198 1.38495e-07 54 6.50236 1.35368e-07 9.20606e-06 0.81237 4.80347e+07
2.07637 12.3073 0.00659939 2.17105e-07 104 12.3839 2.18456e-07 8.05366e-06 2.80356 5.66883e+07
2.19424 4.80297 0.00778828 7.17924e-08 120 4.84584 7.24332e-08 7.04008e-06 1.22372 6.69008e+07
2.3188 6.73275 0.00919136 8.52752e-08 156 6.55371 8.30075e-08 6.1494e-06 2.16329 7.89532e+07
2.45043 6.69169 0.0108472 7.18171e-08 126 6.64528 7.13191e-08 5.36741e-06 1.68591 9.31768e+07
2.58954 6.52282 0.0128014 5.93183e-08 192 6.54594 5.95286e-08 4.68145e-06 2.43282 1.09963e+08
2.73654 18.5094 0.0151076 1.42629e-07 152 18.7871 1.44769e-07 4.08023e-06 5.31332 1.29773e+08
2.89188 10.9457 0.0178292 7.14694e-08 378 11.002 7.1837e-08 3.55373e-06 7.60199 1.53152e+08
3.05605 8.80729 0.0210412 4.87283e-08 264 8.68702 4.80629e-08 3.09304e-06 4.15911 1.80743e+08
3.22953 9.34872 0.0248319 4.38282e-08 366 9.29256 4.35649e-08 2.69025e-06 5.96267 2.13304e+08
3.41286 8.5995 0.0293054 3.41614e-08 428 8.48567 3.37092e-08 2.33837e-06 6.25267 2.51731e+08
3.6066 13.1499 0.0345848 4.42637e-08 486 12.9016 4.34277e-08 2.0312e-06 10.5908 2.97081e+08
3.81134 11.4891 0.0408154 3.27696e-08 600 11.4661 3.27041e-08 1.76327e-06 11.1508 3.50601e+08
4.0277 12.8626 0.0481684 3.10869e-08 738 12.7653 3.08517e-08 1.52972e-06 14.9976 4.13763e+08
4.25634 15.353 0.056846 3.14415e-08 824 15.3807 3.14982e-08 1.32631e-06 19.5338 4.88304e+08
4.49796 16.2021 0.067087 2.81154e-08 954 16.073 2.78913e-08 1.14926e-06 23.3386 5.76273e+08
4.7533 15.51 0.0791729 2.28058e-08 1094 15.4398 2.27026e-08 9.95263e-07 25.0683 6.8009e+08
5.02313 17.1303 0.0934361 2.13433e-08 1332 17.2082 2.14403e-08 8.61414e-07 33.003 8.0261e+08
5.30828 21.2945 0.110269 2.24815e-08 1614 21.3168 2.2505e-08 7.45152e-07 48.6949 9.47202e+08
5.60962 20.9238 0.130134 1.8718e-08 1850 20.8341 1.86378e-08 6.44232e-07 53.7512 1.11784e+09
5.92807 21.9408 0.153578 1.66316e-08 2238 21.8753 1.65819e-08 5.56685e-07 66.8626 1.31923e+09
6.26459 20.8807 0.181246 1.34118e-08 2546 20.9699 1.34691e-08 4.80786e-07 71.0222 1.55689e+09
6.62021 22.3664 0.213898 1.21731e-08 3264 22.3504 1.21644e-08 4.15026e-07 95.7362 1.83737e+09
6.99602 25.9471 0.252432 1.19662e-08 3506 25.9797 1.19812e-08 3.58083e-07 117.161 2.16837e+09
7.39317 27.1049 0.297908 1.05919e-08 4506 27.116 1.05963e-08 3.08803e-07 154.555 2.55901e+09
7.81286 29.6758 0.351577 9.82635e-09 5018 29.5821 9.79533e-09 2.66181e-07 185.245 3.02002e+09
8.25637 30.6588 0.414914 8.60213e-09 5852 30.6214 8.59166e-09 2.29336e-07 219.502 3.56409e+09
8.72507 31.7737 0.489662 7.55408e-09 7362 31.7607 7.55098e-09 1.97503e-07 281.581 4.20617e+09
9.22037 34.4874 0.577876 6.94761e-09 8306 34.4124 6.9325e-09 1.70014e-07 339.424 4.96392e+09
9.74378 35.4167 0.681982 6.04568e-09 9698 35.421 6.04641e-09 1.46289e-07 400.789 5.85818e+09
10.2969 37.8566 0.804843 5.47572e-09 11816 37.8125 5.46934e-09 1.25822e-07 514.225 6.91355e+09
10.8814 41.8465 0.949838 5.12885e-09 13682 41.7548 5.11761e-09 1.08175e-07 648.696 8.15905e+09
11.4992 42.9157 1.12095 4.45696e-09 16152 42.8878 4.45406e-09 9.29669e-08 774.349 9.62892e+09
12.1519 46.0181 1.3229 4.04961e-09 19472 45.921 4.04107e-09 7.98658e-08 987.331 1.13636e+10
12.8418 48.5762 1.56122 3.62218e-09 22670 48.4452 3.61241e-09 6.85852e-08 1197.27 1.34108e+10
13.5708 50.6077 1.84248 3.1976e-09 26224 50.5056 3.19115e-09 5.88765e-08 1424.23 1.58268e+10
14.3411 53.3883 2.17441 2.85835e-09 31640 53.3386 2.85569e-09 5.05241e-08 1790 1.8678e+10
15.1552 57.0884 2.56613 2.58988e-09 37484 57.0017 2.58595e-09 4.33417e-08 2239.85 2.20429e+10
16.0156 60.8081 3.02843 2.33751e-09 43856 60.6796 2.33258e-09 3.71677e-08 2758.15 2.6014e+10
16.9247 64.1857 3.574 2.09071e-09 51362 64.1262 2.08877e-09 3.18628e-08 3370.17 3.07005e+10
17.8855 66.9838 4.21787 1.84878e-09 61636 66.8909 1.84622e-09 2.73063e-08 4173.09 3.62312e+10
18.9008 70.2915 4.97773 1.64392e-09 72218 70.1342 1.64024e-09 2.33941e-08 5074.81 4.27584e+10
19.9738 73.815 5.87448 1.4628e-09 84586 73.6997 1.46052e-09 2.00364e-08 6175.38 5.04614e+10
21.1076 78.7221 6.93279 1.3219e-09 100708 78.5976 1.31981e-09 1.71555e-08 7759.95 5.95522e+10
22.3058 82.8348 8.18175 1.17863e-09 118712 82.6944 1.17663e-09 1.46847e-08 9528.13 7.02807e+10
23.5721 86.7169 9.65571 1.04551e-09 140410 86.5539 1.04355e-09 1.25662e-08 11682.2 8.29419e+10
24.9102 90.688 11.3952 9.26483e-10 164374 90.5248 9.24816e-10 1.07504e-08 14166 9.78842e+10
26.3243 95.0231 13.4481 8.22581e-10 194680 94.885 8.21385e-10 9.19452e-09 17416.9 1.15518e+11
27.8187 99.8135 15.8708 7.32151e-10 230196 99.6946 7.31279e-10 7.86182e-09 21437.5 1.36329e+11
29.3979 105.025 18.73 6.52779e-10 271156 104.858 6.51739e-10 6.72061e-09 26337.6 1.60889e+11
31.0667 110.689 22.1042 5.82961e-10 321076 110.498 5.81955e-10 5.74366e-09 32588.1 1.89874e+11
32.8303 115.843 26.0864 5.16972e-10 377436 115.645 5.16088e-10 4.90756e-09 39759.8 2.2408e+11
34.694 121.675 30.7859 4.60109e-10 447594 121.445 4.59237e-10 4.19221e-09 49124.9 2.64449e+11
36.6634 127.576 36.3321 4.08779e-10 525078 127.357 4.08078e-10 3.58032e-09 59950.1 3.1209e+11
38.7447 134.234 42.8774 3.64455e-10 621924 133.98 3.63767e-10 3.05709e-09 74143.6 3.68314e+11
40.9442 141.509 50.6018 3.25558e-10 732630 141.266 3.24999e-10 2.60976e-09 91392.8 4.34667e+11
43.2685 148.978 59.7179 2.90421e-10 865596 148.729 2.89935e-10 2.22743e-09 112860 5.12973e+11
45.7247 157.356 70.4762 2.59927e-10 1.02168e+06 157.082 2.59473e-10 1.90073e-09 139715 6.05386e+11
48.3204 165.207 83.1727 2.31237e-10 1.20544e+06 164.901 2.30809e-10 1.62163e-09 171889 7.14448e+11
51.0634 175.007 98.1565 2.07562e-10 1.42103e+06 174.699 2.07196e-10 1.38326e-09 213230 8.43158e+11
53.9621 185.237 115.84 1.86157e-10 1.67997e+06 184.909 1.85828e-10 1.1797e-09 265099 9.95055e+11
57.0254 197.064 136.709 1.67812e-10 1.98018e+06 196.687 1.67491e-10 1.00592e-09 330342 1.17432e+12
60.2626 210.007 161.337 1.51534e-10 2.33957e+06 209.588 1.51231e-10 8.57591e-10 413395 1.38587e+12
63.6835 225.138 190.402 1.37654e-10 2.75676e+06 224.681 1.37374e-10 7.3101e-10 519115 1.63554e+12
67.2987 242.316 224.704 1.2554e-10 3.25638e+06 241.821 1.25284e-10 6.23009e-10 656179 1.93019e+12
71.1191 261.622 265.185 1.14851e-10 3.84387e+06 261.068 1.14608e-10 5.30879e-10 831589 2.27792e+12
75.1563 284.618 312.958 1.05873e-10 4.53277e+06 283.977 1.05635e-10 4.52303e-10 1.06101e+06 2.68829e+12
79.4227 310.34 369.339 9.78191e-11 5.35083e+06 309.638 9.75976e-11 3.85299e-10 1.35846e+06 3.17259e+12
83.9313 340.779 435.876 9.10164e-11 6.32174e+06 339.957 9.07969e-11 3.28173e-10 1.75329e+06 3.74415e+12
88.6959 377.659 514.4 8.54691e-11 7.44986e+06 376.718 8.52562e-11 2.79476e-10 2.27831e+06 4.41866e+12
93.7309 419.896 607.071 8.05216e-11 8.79764e+06 418.838 8.03188e-11 2.37972e-10 2.97682e+06 5.2147e+12
99.0518 469.7 716.436 7.63227e-11 1.03827e+07 468.489 7.61258e-11 2.02605e-10 3.91123e+06 6.15414e+12
104.675 528.925 845.504 7.28264e-11 1.22515e+07 527.471 7.26261e-11 1.72471e-10 5.17324e+06 7.26283e+12
110.617 599.273 997.824 6.99167e-11 1.44573e+07 597.605 6.9722e-11 1.468e-10 6.88561e+06 8.57124e+12
116.896 682.786 1177.58 6.74998e-11 1.70664e+07 680.828 6.73062e-11 1.24935e-10 9.22065e+06 1.01154e+13
123.532 782.189 1389.73 6.55226e-11 2.0139e+07 779.877 6.5329e-11 1.06313e-10 1.2412e+07 1.19377e+13
130.545 899.344 1640.09 6.38363e-11 2.37643e+07 896.658 6.36456e-11 9.04567e-11 1.67707e+07 1.40883e+13
137.955 1038.3 1935.56 6.24493e-11 2.80503e+07 1035.12 6.22577e-11 7.69563e-11 2.27625e+07 1.66263e+13
145.787 1203.49 2284.26 6.13351e-11 3.30981e+07 1199.75 6.11444e-11 6.54636e-11 3.10108e+07 1.96216e+13
154.063 1400.5 2695.77 6.04797e-11 3.90634e+07 1396.1 6.02896e-11 5.56812e-11 4.24298e+07 2.31565e+13
162.808 1633.39 3181.42 5.97692e-11 4.61057e+07 1628.14 5.95774e-11 4.73556e-11 5.81916e+07 2.73282e+13
172.051 1910.43 3754.56 5.92356e-11 5.44046e+07 1904.28 5.90449e-11 4.02708e-11 8.00254e+07 3.22515e+13
181.818 2238.97 4430.96 5.88248e-11 6.42064e+07 2231.71 5.86341e-11 3.42426e-11 1.10299e+08 3.80616e+13
192.139 2627.98 5229.21 5.85054e-11 7.57748e+07 2619.36 5.83136e-11 2.91139e-11 1.52272e+08 4.49186e+13
203.046 3091.94 6171.26 5.83266e-11 8.94213e+07 3081.74 5.81343e-11 2.4751e-11 2.10724e+08 5.30108e+13
214.572 3643.8 7283.03 5.82442e-11 1.05538e+08 3631.68 5.80504e-11 2.10401e-11 2.92157e+08 6.25608e+13
226.753 4302.57 8595.09 5.82757e-11 1.24552e+08 4288.11 5.80799e-11 1.78839e-11 4.05859e+08 7.38313e+13
239.625 5090.06 10143.5 5.84176e-11 1.46987e+08 5072.83 5.82199e-11 1.51999e-11 5.64914e+08 8.71322e+13
253.228 6034.02 11970.9 5.86799e-11 1.7347e+08 6013.33 5.84788e-11 1.29176e-11 7.8801e+08 1.02829e+14
267.603 7173.07 14127.5 5.91085e-11 2.04703e+08 7148.17 5.89033e-11 1.09771e-11 1.10226e+09 1.21354e+14
282.795 8555.13 16672.6 5.97356e-11 2.4161e+08 8525.1 5.9526e-11 9.3274e-12 1.54735e+09 1.43217e+14
298.848 10248.7 19676.2 6.06372e-11 2.85122e+08 10212 6.042e-11 7.925e-12 2.18158e+09 1.69017e+14
315.813 12349.2 23220.9 6.19113e-11 3.36491e+08 12303.8 6.16836e-11 6.73295e-12 3.09413e+09 1.99466e+14
333.741 15001.3 27404.3 6.37265e-11 3.97115e+08 14944.1 6.34836e-11 5.71979e-12 4.42442e+09 2.35401e+14
352.686 18423.2 32341.2 6.63161e-11 4.68637e+08 18349.9 6.60524e-11 4.85874e-12 6.39634e+09 2.77809e+14
372.707 22967 38167.6 7.0052e-11 5.53074e+08 22870.2 6.97566e-11 4.12703e-12 9.38785e+09 3.27857e+14
393.865 29251.8 45043.5 7.56014e-11 6.52716e+08 29118.7 7.52574e-11 3.50528e-12 1.40777e+10 3.86921e+14
416.224 34539.6 53158.3 7.56408e-11 2.2184e+08 36539.6 8.00209e-11 2.97701e-12 5.63658e+09 4.56626e+14
439.852 0 62734.9 0 0 0 0 2.52819e-12 0 5.38888e+14
464.821 0 74036.7 0 0 0 0 2.1469e-12 0 6.35971e+14
491.207 0 87374.6 0 0 0 0 1.82301e-12 0 7.50542e+14
519.092 0 103115 0 0 0 0 1.54789e-12 0 8.85755e+14
548.56 0 121692 0 0 0 0 1.31422e-12 0 1.04533e+15
579.7 0 143615 0 0 0 0 1.11576e-12 0 1.23364e+15
612.608 0 169488 0 0 0 0 9.47223e-13 0 1.45589e+15
647.384 0 200021 0 0 0 0 8.041e-13 0 1.71817e+15
684.134 0 236056 0 0 0 0 6.82568e-13 0 2.0277e+15
722.971 0 278582 0 0 0 0 5.79376e-13 0 2.393e+15
764.012 0 328769 0 0 0 0 4.91762e-13 0 2.8241e+15
0.456411
200
1.0655e+09
8589934592
0.0129181 0.000694377 1.58924e-09 5.08647e-05 6 0.00068802 5.0399e-05 0.00677225 0.0450645 13.6515
0.0136515 0 1.87554e-09 0 0 0 0 0.00688819 0 16.1108
0.0144264 0 2.21343e-09 0 0 0 0 0.00699249 0 19.0132
0.0152454 0 2.61218e-09 0 0 0 0 0.00708412 0 22.4385
0.0161108 0 3.08278e-09 0 0 0 0 0.00716212 0 26.4808
0.0170254 0 3.63815e-09 0 0 0 0 0.00722559 0 31.2514
0.0179919 0.0015464 4.29357e-09 4.19289e-05 12 0.00154441 4.18749e-05 0.00727371 0.0691734 36.8815
0.0190132 0 5.06707e-09 0 0 0 0 0.00730578 0 43.5258
0.0200925 0 5.97991e-09 0 0 0 0 0.00732122 0 51.367
0.0212331 0.00146445 7.05721e-09 2.41575e-05 8 0.00146318 2.41365e-05 0.00731958 0.0264032 60.621
0.0224385 0 8.32858e-09 0 0 0 0 0.00730056 0 71.542
0.0237123 0 9.829e-09 0 0 0 0 0.00726401 0 84.4305
0.0250583 0.00932037 1.15997e-08 9.35397e-05 6 0.00931598 9.34956e-05 0.00720995 0.0778421 99.6408
0.0264808 0 1.36894e-08 0 0 0 0 0.00713857 0 117.591
0.0279841 0.00576345 1.61556e-08 4.15307e-05 24 0.00575754 4.1488e-05 0.00705021 0.141377 138.776
0.0295727 0 1.90661e-08 0 0 0 0 0.00694538 0 163.777
0.0312514 0.0102758 2.25009e-08 5.3165e-05 24 0.010328 5.34349e-05 0.00682475 0.186961 193.281
0.0330255 0 2.65545e-08 0 0 0 0 0.00668915 0 228.102
0.0349003 0.0150717 3.13384e-08 5.5988e-05 12 0.014951 5.55397e-05 0.00653951 0.102738 269.195
0.0368815 0.0124799 3.69841e-08 3.92833e-05 30 0.0123471 3.8865e-05 0.00637693 0.184807 317.691
0.0389751 0.0144701 4.36469e-08 3.85949e-05 24 0.0143213 3.81979e-05 0.00620256 0.149338 374.924
0.0411876 0.00921989 5.151e-08 2.08375e-05 24 0.00915727 2.06959e-05 0.00601767 0.0831051 442.467
0.0435258 0.0215658 6.07896e-08 4.12996e-05 8 0.0215641 4.12964e-05 0.00582358 0.0567343 522.179
0.0459966 0.0269213 7.1741e-08 4.36857e-05 72 0.0267088 4.33407e-05 0.00562166 0.559509 616.251
0.0486077 0 8.46654e-08 0 0 0 0 0.0054133 0 727.27
0.051367 0.0383636 9.99181e-08 4.46977e-05 54 0.0382388 4.45523e-05 0.00519989 0.464178 858.29
0.054283 0.0304895 1.17919e-07 3.01008e-05 60 0.0306229 3.02325e-05 0.0049828 0.362456 1012.91
0.0573645 0.0292599 1.39162e-07 2.44772e-05 96 0.0291848 2.44144e-05 0.00476339 0.493307 1195.39
0.060621 0.0343139 1.64232e-07 2.43232e-05 24 0.033849 2.39937e-05 0.00454293 0.128498 1410.75
0.0640622 0.0598865 1.93819e-07 3.59701e-05 134 0.0599176 3.59888e-05 0.00432265 1.11506 1664.89
0.0676989 0.0580285 2.28736e-07 2.95336e-05 120 0.0577537 2.93938e-05 0.00410371 0.863616 1964.83
0.071542 0.0539 2.69944e-07 2.32448e-05 108 0.0533113 2.29909e-05 0.00388717 0.645826 2318.8
0.0756032 0.0792619 3.18575e-07 2.89643e-05 174 0.0788322 2.88073e-05 0.00367401 1.37174 2736.54
0.079895 0.0836272 3.75967e-07 2.58945e-05 168 0.0828416 2.56513e-05 0.0034651 1.25546 3229.53
0.0844305 0.0704989 4.43698e-07 1.84971e-05 168 0.0708511 1.85895e-05 0.00326121 0.952874 3811.34
0.0892234 0.081535 5.23632e-07 1.81271e-05 290 0.0811744 1.80469e-05 0.00306301 1.71624 4497.96
0.0942883 0.102497 6.17966e-07 1.93088e-05 288 0.102256 1.92636e-05 0.00287109 1.93687 5308.28
0.0996408 0.0915452 7.29294e-07 1.46131e-05 366 0.0908101 1.44958e-05 0.00268591 1.99128 6264.59
0.105297 0.103965 8.60678e-07 1.40623e-05 420 0.103237 1.39638e-05 0.00250785 2.35507 7393.17
0.111275 0.111176 1.01573e-06 1.27421e-05 398 0.110844 1.27041e-05 0.00233721 2.16984 8725.07
0.117591 0.132463 1.19872e-06 1.28643e-05 624 0.132773 1.28944e-05 0.00217419 3.69209 10296.9
0.124267 0.150753 1.41467e-06 1.24057e-05 642 0.150474 1.23828e-05 0.00201893 3.9449 12151.9
0.131321 0.185526 1.66953e-06 1.29366e-05 800 0.185589 1.2941e-05 0.00187147 5.53004 14341.1
0.138776 0.16721 1.9703e-06 9.87961e-06 858 0.167972 9.92463e-06 0.00173182 4.89469 16924.7
0.146654 0.188258 2.32525e-06 9.42526e-06 1080 0.18984 9.50449e-06 0.00159991 6.36241 19973.8
0.154979 0.222361 2.74415e-06 9.43323e-06 1286 0.223827 9.49541e-06 0.00147563 8.22096 23572.1
0.163777 0.211877 3.23852e-06 7.61637e-06 1650 0.212381 7.63448e-06 0.00135884 9.24834 27818.7
0.173074 0.24422 3.82195e-06 7.43886e-06 1778 0.244312 7.44166e-06 0.00124933 10.5867 32830.3
0.182899 0.246074 4.51048e-06 6.35117e-06 2112 0.246701 6.36735e-06 0.00114689 11.6957 38744.7
0.193281 0.279893 5.32305e-06 6.12126e-06 2570 0.280208 6.12815e-06 0.00105127 14.9644 45724.7
0.204254 0.324698 6.28202e-06 6.01714e-06 3030 0.324506 6.01359e-06 0.000962209 18.948 53962.1
0.215848 0.329764 7.41374e-06 5.17817e-06 3434 0.329623 5.17595e-06 0.000879423 20.2199 63683.5
0.228102 0.346211 8.74934e-06 4.60655e-06 4218 0.346202 4.60643e-06 0.000802624 24.2086 75156.3
0.24105 0.387004 1.03256e-05 4.36327e-06 4766 0.387296 4.36656e-06 0.000731515 28.4278 88695.9
0.254734 0.422478 1.21857e-05 4.0361e-06 6026 0.422435 4.03569e-06 0.000665798 36.5299 104675
0.269195 0.462032 1.4381e-05 3.74017e-06 6480 0.461625 3.73688e-06 0.000605173 40.0486 123532
0.284476 0.504466 1.69718e-05 3.4603e-06 8162 0.505545 3.4677e-06 0.000549345 51.4121 145787
0.300625 0.531722 2.00293e-05 3.09049e-06 9578 0.532204 3.0933e-06 0.000498021 59.4368 172051
0.317691 0.587078 2.36377e-05 2.89135e-06 11234 0.586406 2.88804e-06 0.000450916 72.0343 203046
0.335725 0.629949 2.78961e-05 2.62889e-06 13344 0.629026 2.62504e-06 0.000407755 86.0319 239625
0.354784 0.681672 3.29216e-05 2.41048e-06 15464 0.681141 2.40861e-06 0.000368269 101.219 282795
0.374924 0.728479 3.88525e-05 2.18277e-06 18458 0.728266 2.18213e-06 0.000332202 121.28 333741
0.396207 0.813457 4.58519e-05 2.06532e-06 22232 0.812423 2.06269e-06 0.000299307 153.408 393865
0.418699 0.870755 5.41123e-05 1.87331e-06 25628 0.868558 1.86859e-06 0.00026935 178.241 464821
0.442467 0.950977 6.38607e-05 1.73359e-06 30320 0.948978 1.72994e-06 0.000242108 217.103 548560
0.467585 1.02952 7.53654e-05 1.59027e-06 35452 1.02797 1.58788e-06 0.00021737 259.365 647384
0.494129 1.12832 8.89427e-05 1.47684e-06 41792 1.12773 1.47607e-06 0.000194938 316.613 764012
0.522179 1.24518 0.000104966 1.381e-06 49988 1.24498 1.38078e-06 0.000174625 395.323 901651
0.551822 1.34969 0.000123876 1.2684e-06 59110 1.34803 1.26684e-06 0.000156255 479.827 1.06409e+06
0.583147 1.47427 0.000146192 1.17398e-06 69716 1.4717 1.17194e-06 0.000139664 586.016 1.25578e+06
0.616251 1.61521 0.000172529 1.08987e-06 82210 1.61185 1.0876e-06 0.0001247 718.513 1.48202e+06
0.651234 1.76104 0.000203611 1.00688e-06 96722 1.75745 1.00483e-06 0.00011122 875.625 1.74901e+06
0.688203 1.94254 0.000240292 9.41111e-07 113098 1.93931 9.39548e-07 9.90935e-05 1074.12 2.06409e+06
0.72727 2.12605 0.000283581 8.72782e-07 135190 2.12311 8.71577e-07 8.81969e-05 1337.82 2.43595e+06
0.768555 2.33386 0.000334669 8.11838e-07 158170 2.3308 8.10774e-07 7.84179e-05 1637.49 2.87479e+06
0.812184 2.59743 0.000394961 7.65596e-07 188560 2.59323 7.64358e-07 6.96525e-05 2072.58 3.39269e+06
0.85829 2.85206 0.000466114 7.12321e-07 220444 2.84766 7.11223e-07 6.1805e-05 2540.68 4.00389e+06
0.907013 3.15027 0.000550086 6.66696e-07 261388 3.14574 6.65737e-07 5.47875e-05 3180.77 4.7252e+06
0.958501 3.48426 0.000649185 6.24816e-07 308244 3.47896 6.23866e-07 4.85194e-05 3969.46 5.57646e+06
1.01291 3.87022 0.000766138 5.88084e-07 364396 3.86395 5.87131e-07 4.29272e-05 4992.07 6.58107e+06
1.07041 4.2803 0.00090416 5.51111e-07 429162 4.27292 5.50161e-07 3.79435e-05 6233.38 7.76667e+06
1.13118 4.74584 0.00106705 5.17773e-07 506358 4.73784 5.16901e-07 3.3507e-05 7824.59 9.16586e+06
1.19539 5.25544 0.00125928 4.85845e-07 598590 5.24627 4.84997e-07 2.9562e-05 9837.69 1.08171e+07
1.26325 5.84173 0.00148614 4.57606e-07 704844 5.83163 4.56815e-07 2.60578e-05 12377.9 1.27658e+07
1.33496 6.49141 0.00175387 4.30875e-07 834620 6.47882 4.30039e-07 2.29484e-05 15670.6 1.50656e+07
1.41075 7.18359 0.00206984 4.04032e-07 981444 7.16894 4.03208e-07 2.01923e-05 19637.9 1.77798e+07
1.49083 7.98579 0.00244272 3.80587e-07 1.15998e+06 7.97139 3.799e-07 1.77518e-05 24869.2 2.09828e+07
1.57546 8.84514 0.00288279 3.57192e-07 1.36931e+06 8.82773 3.56489e-07 1.55929e-05 31367.4 2.4763e+07
1.66489 9.83643 0.00340213 3.36587e-07 1.61652e+06 9.81684 3.35916e-07 1.3685e-05 39758.6 2.92241e+07
1.75941 10.9055 0.00401503 3.16202e-07 1.90601e+06 10.8847 3.15602e-07 1.20007e-05 50220.8 3.44889e+07
1.85928 12.0893 0.00473835 2.9702e-07 2.24913e+06 12.0666 2.96461e-07 1.05151e-05 63531.1 4.07021e+07
1.96483 13.4025 0.00559198 2.79018e-07 2.65744e+06 13.3756 2.78456e-07 9.20606e-06 80541.8 4.80347e+07
2.07637 14.7888 0.00659939 2.60879e-07 3.13125e+06 14.7607 2.60383e-07 8.05366e-06 101429 5.66883e+07
2.19424 16.3293 0.00778828 2.44082e-07 3.69915e+06 16.2981 2.43616e-07 7.04008e-06 128251 6.69008e+07
2.3188 18.0167 0.00919136 2.28194e-07 4.36472e+06 17.9823 2.27759e-07 6.1494e-06 161968 7.89532e+07
2.45043 19.8458 0.0108472 2.12991e-07 5.14913e+06 19.807 2.12574e-07 5.36741e-06 204329 9.31768e+07
2.58954 21.7849 0.0128014 1.98112e-07 6.07894e+06 21.7437 1.97736e-07 4.68145e-06 257251 1.09963e+08
2.73654 23.8644 0.0151076 1.83893e-07 7.17304e+06 23.82 1.83551e-07 4.08023e-06 323284 1.29773e+08
2.89188 26.1194 0.0178292 1.70546e-07 8.46557e+06 26.0704 1.70226e-07 3.55373e-06 406267 1.53152e+08
3.05605 28.5128 0.0210412 1.57754e-07 9.98773e+06 28.4603 1.57463e-07 3.09304e-06 509402 1.80743e+08
3.22953 31.054 0.0248319 1.45586e-07 1.1797e+07 30.9978 1.45322e-07 2.69025e-06 638407 2.13304e+08
3.41286 33.7655 0.0293054 1.34133e-07 1.39144e+07 33.7045 1.33891e-07 2.33837e-06 798154 2.51731e+08
3.6066 36.5869 0.0345848 1.23154e-07 1.64163e+07 36.5225 1.22938e-07 2.0312e-06 995340 2.97081e+08
3.81134 39.5688 0.0408154 1.1286e-07 1.93821e+07 39.5005 1.12665e-07 1.76327e-06 1.24058e+06 3.50601e+08
4.0277 42.6654 0.0481684 1.03115e-07 2.28754e+07 42.5893 1.02932e-07 1.52972e-06 1.54198e+06 4.13763e+08
4.25634 45.917 0.056846 9.40337e-08 2.69929e+07 45.8366 9.3869e-08 1.32631e-06 1.91377e+06 4.88304e+08
4.49796 49.309 0.067087 8.55653e-08 3.18542e+07 49.223 8.54161e-08 1.14926e-06 2.37163e+06 5.76273e+08
4.7533 52.8817 0.0791729 7.77569e-08 3.75892e+07 52.7911 7.76236e-08 9.95263e-07 2.93673e+06 6.8009e+08
5.02313 56.5689 0.0934361 7.04812e-08 4.43706e+07 56.4733 7.0362e-08 8.61414e-07 3.63042e+06 8.0261e+08
5.30828 60.4053 0.110269 6.37723e-08 5.23593e+07 60.3035 6.36648e-08 7.45152e-07 4.48106e+06 9.47202e+08
5.60962 64.4202 0.130134 5.7629e-08 6.1787e+07 64.3129 5.7533e-08 6.44232e-07 5.52708e+06 1.11784e+09
5.92807 68.5835 0.153578 5.19877e-08 7.29346e+07 68.4684 5.19004e-08 5.56685e-07 6.81121e+06 1.31923e+09
6.26459 72.9054 0.181246 4.68276e-08 8.60651e+07 72.7831 4.67491e-08 4.80786e-07 8.38257e+06 1.55689e+09
6.62021 77.3529 0.213898 4.20999e-08 1.01558e+08 77.2252 4.20304e-08 4.15026e-07 1.0302e+07 1.83737e+09
6.99602 82.0342 0.252432 3.78322e-08 1.1986e+08 81.8981 3.77694e-08 3.58083e-07 1.26634e+07 2.16837e+09
7.39317 86.9338 0.297908 3.39717e-08 1.41457e+08 86.7915 3.39161e-08 3.08803e-07 1.55617e+07 2.55901e+09
7.81286 92.0666 0.351577 3.04854e-08 1.66936e+08 91.9151 3.04352e-08 2.66181e-07 1.9119e+07 3.02002e+09
8.25637 97.4642 0.414914 2.73462e-08 1.97025e+08 97.3029 2.73009e-08 2.29336e-07 2.34934e+07 3.56409e+09
8.72507 103.182 0.489662 2.4531e-08 2.32497e+08 103.01 2.44902e-08 1.97503e-07 2.88774e+07 4.20617e+09
9.22037 109.308 0.577876 2.20204e-08 2.74404e+08 109.125 2.19835e-08 1.70014e-07 3.55411e+07 4.96392e+09
9.74378 115.992 0.681982 1.97999e-08 3.2382e+08 115.791 1.97657e-08 1.46289e-07 4.38284e+07 5.85818e+09
10.2969 123.607 0.804843 1.78789e-08 3.82165e+08 123.385 1.78468e-08 1.25822e-07 5.43042e+07 6.91355e+09
10.8814 132.6 0.949838 1.62519e-08 4.51027e+08 132.346 1.62208e-08 1.08175e-07 6.77606e+07 8.15905e+09
11.4992 144.067 1.12095 1.49619e-08 5.32251e+08 143.76 1.493e-08 9.29669e-08 8.56596e+07 9.62892e+09
12.1519 160.238 1.3229 1.4101e-08 6.28157e+08 159.834 1.40654e-08 7.98658e-08 1.10907e+08 1.13636e+10
12.8418 178.383 1.56122 1.33015e-08 3.82727e+08 184.632 1.37674e-08 6.85852e-08 7.42264e+07 1.34108e+10
13.5708 0 1.84248 0 0 0 0 5.88765e-08 0 1.58268e+10
14.3411 0 2.17441 0 0 0 0 5.05241e-08 0 1.8678e+10
15.1552 0 2.56613 0 0 0 0 4.33417e-08 0 2.20429e+10
16.0156 0 3.02843 0 0 0 0 3.71677e-08 0 2.6014e+10
16.9247 0 3.574 0 0 0 0 3.18628e-08 0 3.07005e+10
17.8855 0 4.21787 0 0 0 0 2.73063e-08 0 3.62312e+10
18.9008 0 4.97773 0 0 0 0 2.33941e-08 0 4.27584e+10
19.9738 0 5.87448 0 0 0 0 2.00364e-08 0 5.04614e+10
21.1076 0 6.93279 0 0 0 0 1.71555e-08 0 5.95522e+10
22.3058 0 8.18175 0 0 0 0 1.46847e-08 0 7.02807e+10
23.5721 0 9.65571 0 0 0 0 1.25662e-08 0 8.29419e+10
24.9102 0 11.3952 0 0 0 0 1.07504e-08 0 9.78842e+10
26.3243 0 13.4481 0 0 0 0 9.19452e-09 0 1.15518e+11
27.8187 0 15.8708 0 0 0 0 7.86182e-09 0 1.36329e+11
29.3979 0 18.73 0 0 0 0 6.72061e-09 0 1.60889e+11
31.0667 0 22.1042 0 0 0 0 5.74366e-09 0 1.89874e+11
32.8303 0 26.0864 0 0 0 0 4.90756e-09 0 2.2408e+11
34.694 0 30.7859 0 0 0 0 4.19221e-09 0 2.64449e+11
36.6634 0 36.3321 0 0 0 0 3.58032e-09 0 3.1209e+11
38.7447 0 42.8774 0 0 0 0 3.05709e-09 0 3.68314e+11
40.9442 0 50.6018 0 0 0 0 2.60976e-09 0 4.34667e+11
43.2685 0 59.7179 0 0 0 0 2.22743e-09 0 5.12973e+11
45.7247 0 70.4762 0 0 0 0 1.90073e-09 0 6.05386e+11
48.3204 0 83.1727 0 0 0 0 1.62163e-09 0 7.14448e+11
51.0634 0 98.1565 0 0 0 0 1.38326e-09 0 8.43158e+11
53.9621 0 115.84 0 0 0 0 1.1797e-09 0 9.95055e+11
57.0254 0 136.709 0 0 0 0 1.00592e-09 0 1.17432e+12
60.2626 0 161.337 0 0 0 0 8.57591e-10 0 1.38587e+12
63.6835 0 190.402 0 0 0 0 7.3101e-10 0 1.63554e+12
67.2987 0 224.704 0 0 0 0 6.23009e-10 0 1.93019e+12
71.1191 0 265.185 0 0 0 0 5.30879e-10 0 2.27792e+12
75.1563 0 312.958 0 0 0 0 4.52303e-10 0 2.68829e+12
79.4227 0 369.339 0 0 0 0 3.85299e-10 0 3.17259e+12
83.9313 0 435.876 0 0 0 0 3.28173e-10 0 3.74415e+12
88.6959 0 514.4 0 0 0 0 2.79476e-10 0 4.41866e+12
93.7309 0 607.071 0 0 0 0 2.37972e-10 0 5.2147e+12
99.0518 0 716.436 0 0 0 0 2.02605e-10 0 6.15414e+12
104.675 0 845.504 0 0 0 0 1.72471e-10 0 7.26283e+12
110.617 0 997.824 0 0 0 0 1.468e-10 0 8.57124e+12
116.896 0 1177.58 0 0 0 0 1.24935e-10 0 1.01154e+13
123.532 0 1389.73 0 0 0 0 1.06313e-10 0 1.19377e+13
130.545 0 1640.09 0 0 0 0 9.04567e-11 0 1.40883e+13
137.955 0 1935.56 0 0 0 0 7.69563e-11 0 1.66263e+13
145.787 0 2284.26 0 0 0 0 6.54636e-11 0 1.96216e+13
154.063 0 2695.77 0 0 0 0 5.56812e-11 0 2.31565e+13
162.808 0 3181.42 0 0 0 0 4.73556e-11 0 2.73282e+13
172.051 0 3754.56 0 0 0 0 4.02708e-11 0 3.22515e+13
181.818 0 4430.96 0 0 0 0 3.42426e-11 0 3.80616e+13
192.139 0 5229.21 0 0 0 0 2.91139e-11 0 4.49186e+13
203.046 0 6171.26 0 0 0 0 2.4751e-11 0 5.30108e+13
214.572 0 7283.03 0 0 0 0 2.10401e-11 0 6.25608e+13
226.753 0 8595.09 0 0 0 0 1.78839e-11 0 7.38313e+13
239.625 0 10143.5 0 0 0 0 1.51999e-11 0 8.71322e+13
253.228 0 11970.9 0 0 0 0 1.29176e-11 0 1.02829e+14
267.603 0 14127.5 0 0 0 0 1.09771e-11 0 1.21354e+14
282.795 0 16672.6 0 0 0 0 9.3274e-12 0 1.43217e+14
298.848 0 19676.2 0 0 0 0 7.925e-12 0 1.69017e+14
315.813 0 23220.9 0 0 0 0 6.73295e-12 0 1.99466e+14
333.741 0 27404.3 0 0 0 0 5.71979e-12 0 2.35401e+14
352.686 0 32341.2 0 0 0 0 4.85874e-12 0 2.77809e+14
372.707 0 38167.6 0 0 0 0 4.12703e-12 0 3.27857e+14
393.865 0 45043.5 0 0 0 0 3.50528e-12 0 3.86921e+14
416.224 0 53158.3 0 0 0 0 2.97701e-12 0 4.56626e+14
439.852 0 62734.9 0 0 0 0 2.52819e-12 0 5.38888e+14
464.821 0 74036.7 0 0 0 0 2.1469e-12 0 6.35971e+14
491.207 0 87374.6 0 0 0 0 1.82301e-12 0 7.50542e+14
519.092 0 103115 0 0 0 0 1.54789e-12 0 8.85755e+14
548.56 0 121692 0 0 0 0 1.31422e-12 0 1.04533e+15
579.7 0 143615 0 0 0 0 1.11576e-12 0 1.23364e+15
612.608 0 169488 0 0 0 0 9.47223e-13 0 1.45589e+15
647.384 0 200021 0 0 0 0 8.041e-13 0 1.71817e+15
684.134 0 236056 0 0 0 0 6.82568e-13 0 2.0277e+15
722.971 0 278582 0 0 0 0 5.79376e-13 0 2.393e+15
764.012 0 328769 0 0 0 0 4.91762e-13 0 2.8241e+15
