  0.532299E-05  0.197932E+08  0.197932E+08  0.263873E+08  0.263873E+08  0.000000E+00  0.197932E+08
  0.545774E-05  0.197932E+08  0.197932E+08  0.263871E+08  0.263871E+08  0.000000E+00  0.197932E+08
  0.559591E-05  0.197932E+08  0.197932E+08  0.263869E+08  0.263869E+08  0.000000E+00  0.197932E+08
  0.573757E-05  0.197932E+08  0.197932E+08  0.263867E+08  0.263867E+08  0.000000E+00  0.197932E+08
  0.588282E-05  0.197932E+08  0.197932E+08  0.263865E+08  0.263865E+08  0.000000E+00  0.197932E+08
  0.603174E-05  0.197932E+08  0.197932E+08  0.263862E+08  0.263862E+08  0.000000E+00  0.197932E+08
  0.618444E-05  0.197932E+08  0.197932E+08  0.263860E+08  0.263860E+08  0.000000E+00  0.197932E+08
  0.634099E-05  0.197932E+08  0.197932E+08  0.263857E+08  0.263857E+08  0.000000E+00  0.197932E+08
  0.650152E-05  0.197932E+08  0.197932E+08  0.263855E+08  0.263854E+08  0.000000E+00  0.197932E+08
  0.666610E-05  0.197932E+08  0.197932E+08  0.263852E+08  0.263852E+08  0.000000E+00  0.197932E+08
  0.683486E-05  0.197932E+08  0.197932E+08  0.263849E+08  0.263849E+08  0.000000E+00  0.197932E+08
  0.700788E-05  0.197932E+08  0.197932E+08  0.263846E+08  0.263846E+08  0.000000E+00  0.197932E+08
  0.718529E-05  0.197932E+08  0.197932E+08  0.263842E+08  0.263842E+08  0.000000E+00  0.197932E+08
  0.736718E-05  0.197932E+08  0.197932E+08  0.263839E+08  0.263839E+08  0.000000E+00  0.197932E+08
  0.755369E-05  0.197932E+08  0.197932E+08  0.263835E+08  0.263835E+08  0.000000E+00  0.197932E+08
  0.774491E-05  0.197932E+08  0.197932E+08  0.263831E+08  0.263831E+08  0.000000E+00  0.197932E+08
  0.794097E-05  0.197932E+08  0.197932E+08  0.263827E+08  0.263827E+08  0.000000E+00  0.197932E+08
  0.814200E-05  0.197932E+08  0.197932E+08  0.263823E+08  0.263823E+08  0.000000E+00  0.197932E+08
  0.834811E-05  0.197932E+08  0.197932E+08  0.263819E+08  0.263818E+08  0.000000E+00  0.197932E+08
  0.855945E-05  0.197932E+08  0.197932E+08  0.263814E+08  0.263814E+08  0.000000E+00  0.197932E+08
  0.877613E-05  0.197932E+08  0.197932E+08  0.263809E+08  0.263809E+08  0.000000E+00  0.197932E+08
  0.899830E-05  0.197932E+08  0.197932E+08  0.263804E+08  0.263804E+08  0.000000E+00  0.197932E+08
  0.922609E-05  0.197932E+08  0.197932E+08  0.263798E+08  0.263798E+08  0.000000E+00  0.197932E+08
  0.945965E-05  0.197932E+08  0.197932E+08  0.263793E+08  0.263792E+08  0.000000E+00  0.197932E+08
  0.969912E-05  0.197932E+08  0.197932E+08  0.263787E+08  0.263786E+08  0.000000E+00  0.197932E+08
  0.994466E-05  0.197932E+08  0.197932E+08  0.263780E+08  0.263780E+08  0.000000E+00  0.197932E+08
  0.101964E-04  0.197932E+08  0.197932E+08  0.263774E+08  0.263773E+08  0.000000E+00  0.197932E+08
  0.104545E-04  0.197932E+08  0.197932E+08  0.263767E+08  0.263766E+08  0.000000E+00  0.197932E+08
  0.107192E-04  0.197932E+08  0.197932E+08  0.263759E+08  0.263759E+08  0.000000E+00  0.197932E+08
  0.109905E-04  0.197932E+08  0.197932E+08  0.263752E+08  0.263751E+08  0.000000E+00  0.197932E+08
  0.112688E-04  0.197932E+08  0.197932E+08  0.263743E+08  0.263743E+08  0.000000E+00  0.197932E+08
  0.115540E-04  0.197932E+08  0.197932E+08  0.263735E+08  0.263735E+08  0.000000E+00  0.197932E+08
  0.118465E-04  0.197932E+08  0.197932E+08  0.263726E+08  0.263726E+08  0.000000E+00  0.197932E+08
  0.121464E-04  0.197932E+08  0.197932E+08  0.263716E+08  0.263716E+08  0.000000E+00  0.197932E+08
  0.124539E-04  0.197932E+08  0.197932E+08  0.263706E+08  0.263706E+08  0.000000E+00  0.197932E+08
  0.127692E-04  0.197932E+08  0.197932E+08  0.263696E+08  0.263696E+08  0.000000E+00  0.197932E+08
  0.130924E-04  0.197932E+08  0.197932E+08  0.263685E+08  0.263685E+08  0.000000E+00  0.197932E+08
  0.134239E-04  0.197932E+08  0.197932E+08  0.263674E+08  0.263673E+08  0.000000E+00  0.197932E+08
  0.137637E-04  0.197932E+08  0.197932E+08  0.263661E+08  0.263661E+08  0.000000E+00  0.197932E+08
  0.141121E-04  0.197932E+08  0.197932E+08  0.263649E+08  0.263648E+08  0.000000E+00  0.197932E+08
  0.144694E-04  0.197932E+08  0.197932E+08  0.263635E+08  0.263635E+08  0.000000E+00  0.197932E+08
  0.148357E-04  0.197932E+08  0.197932E+08  0.263621E+08  0.263621E+08  0.000000E+00  0.197932E+08
  0.152113E-04  0.197932E+08  0.197932E+08  0.263606E+08  0.263606E+08  0.000000E+00  0.197932E+08
  0.155963E-04  0.197932E+08  0.197932E+08  0.263591E+08  0.263590E+08  0.000000E+00  0.197932E+08
  0.159912E-04  0.197932E+08  0.197932E+08  0.263574E+08  0.263574E+08  0.000000E+00  0.197932E+08
  0.163960E-04  0.197932E+08  0.197932E+08  0.263557E+08  0.263557E+08  0.000000E+00  0.197932E+08
  0.168110E-04  0.197932E+08  0.197932E+08  0.263539E+08  0.263539E+08  0.000000E+00  0.197932E+08
  0.172366E-04  0.197932E+08  0.197932E+08  0.263520E+08  0.263520E+08  0.000000E+00  0.197932E+08
  0.176730E-04  0.197932E+08  0.197932E+08  0.263500E+08  0.263500E+08  0.000000E+00  0.197932E+08
  0.181204E-04  0.197932E+08  0.197932E+08  0.263479E+08  0.263479E+08  0.000000E+00  0.197932E+08
  0.185791E-04  0.197932E+08  0.197932E+08  0.263457E+08  0.263456E+08  0.000000E+00  0.197932E+08
  0.190494E-04  0.197932E+08  0.197932E+08  0.263434E+08  0.263433E+08  0.000000E+00  0.197932E+08
  0.195316E-04  0.197932E+08  0.197932E+08  0.263410E+08  0.263409E+08  0.000000E+00  0.197932E+08
  0.200261E-04  0.197932E+08  0.197932E+08  0.263384E+08  0.263383E+08  0.000000E+00  0.197932E+08
  0.205330E-04  0.197932E+08  0.197932E+08  0.263357E+08  0.263356E+08  0.000000E+00  0.197932E+08
  0.210528E-04  0.197931E+08  0.197931E+08  0.263329E+08  0.263328E+08  0.000000E+00  0.197931E+08
  0.215858E-04  0.197931E+08  0.197931E+08  0.263299E+08  0.263298E+08  0.000000E+00  0.197931E+08
  0.221322E-04  0.197931E+08  0.197931E+08  0.263268E+08  0.263267E+08  0.000000E+00  0.197931E+08
  0.226925E-04  0.197931E+08  0.197931E+08  0.263235E+08  0.263234E+08  0.000000E+00  0.197931E+08
  0.232670E-04  0.197931E+08  0.197931E+08  0.263200E+08  0.263199E+08  0.000000E+00  0.197931E+08
  0.238560E-04  0.197931E+08  0.197931E+08  0.263164E+08  0.263162E+08  0.000000E+00  0.197931E+08
  0.244599E-04  0.197931E+08  0.197931E+08  0.263125E+08  0.263124E+08  0.000000E+00  0.197931E+08
  0.250791E-04  0.197931E+08  0.197931E+08  0.263085E+08  0.263084E+08  0.000000E+00  0.197931E+08
  0.257140E-04  0.197931E+08  0.197931E+08  0.263043E+08  0.263042E+08  0.000000E+00  0.197931E+08
  0.263650E-04  0.197931E+08  0.197931E+08  0.262999E+08  0.262997E+08  0.000000E+00  0.197931E+08
  0.270324E-04  0.197931E+08  0.197931E+08  0.262952E+08  0.262951E+08  0.000000E+00  0.197931E+08
  0.277167E-04  0.197931E+08  0.197931E+08  0.262903E+08  0.262901E+08  0.000000E+00  0.197931E+08
  0.284184E-04  0.197931E+08  0.197931E+08  0.262851E+08  0.262850E+08  0.000000E+00  0.197931E+08
  0.291378E-04  0.197930E+08  0.197930E+08  0.262797E+08  0.262796E+08  0.000000E+00  0.197930E+08
  0.298754E-04  0.197930E+08  0.197930E+08  0.262740E+08  0.262738E+08  0.000000E+00  0.197930E+08
  0.306317E-04  0.197930E+08  0.197930E+08  0.262680E+08  0.262679E+08  0.000000E+00  0.197930E+08
  0.314072E-04  0.197930E+08  0.197930E+08  0.262618E+08  0.262616E+08  0.000000E+00  0.197930E+08
  0.322022E-04  0.197930E+08  0.197930E+08  0.262551E+08  0.262549E+08  0.000000E+00  0.197930E+08
  0.330174E-04  0.197930E+08  0.197930E+08  0.262482E+08  0.262480E+08  0.000000E+00  0.197930E+08
  0.338533E-04  0.197930E+08  0.197930E+08  0.262409E+08  0.262407E+08  0.000000E+00  0.197930E+08
  0.347103E-04  0.197930E+08  0.197930E+08  0.262332E+08  0.262330E+08  0.000000E+00  0.197930E+08
  0.355890E-04  0.197929E+08  0.197929E+08  0.262251E+08  0.262249E+08  0.000000E+00  0.197929E+08
  0.364899E-04  0.197929E+08  0.197929E+08  0.262167E+08  0.262164E+08  0.000000E+00  0.197929E+08
  0.374137E-04  0.197929E+08  0.197929E+08  0.262078E+08  0.262075E+08  0.000000E+00  0.197929E+08
  0.383608E-04  0.197929E+08  0.197929E+08  0.261984E+08  0.261981E+08  0.000000E+00  0.197929E+08
  0.393319E-04  0.197929E+08  0.197929E+08  0.261885E+08  0.261882E+08  0.000000E+00  0.197929E+08
  0.403276E-04  0.197928E+08  0.197928E+08  0.261782E+08  0.261779E+08  0.000000E+00  0.197928E+08
  0.413485E-04  0.197928E+08  0.197928E+08  0.261673E+08  0.261670E+08  0.000000E+00  0.197928E+08
  0.423952E-04  0.197928E+08  0.197928E+08  0.261559E+08  0.261556E+08  0.000000E+00  0.197928E+08
  0.434685E-04  0.197928E+08  0.197928E+08  0.261439E+08  0.261435E+08  0.000000E+00  0.197928E+08
  0.445689E-04  0.197928E+08  0.197928E+08  0.261313E+08  0.261309E+08  0.000000E+00  0.197928E+08
  0.456971E-04  0.197927E+08  0.197927E+08  0.261181E+08  0.261176E+08  0.000000E+00  0.197927E+08
  0.468540E-04  0.197927E+08  0.197927E+08  0.261041E+08  0.261037E+08  0.000000E+00  0.197927E+08
  0.480401E-04  0.197927E+08  0.197927E+08  0.260895E+08  0.260890E+08  0.000000E+00  0.197927E+08
  0.492562E-04  0.197926E+08  0.197926E+08  0.260741E+08  0.260736E+08  0.000000E+00  0.197926E+08
  0.505031E-04  0.197926E+08  0.197926E+08  0.260580E+08  0.260575E+08  0.000000E+00  0.197926E+08
  0.517816E-04  0.197926E+08  0.197926E+08  0.260410E+08  0.260405E+08  0.000000E+00  0.197926E+08
  0.530925E-04  0.197926E+08  0.197926E+08  0.260232E+08  0.260226E+08  0.000000E+00  0.197926E+08
  0.544365E-04  0.197925E+08  0.197925E+08  0.260044E+08  0.260038E+08  0.000000E+00  0.197925E+08
  0.558146E-04  0.197925E+08  0.197925E+08  0.259848E+08  0.259841E+08  0.000000E+00  0.197925E+08
  0.572276E-04  0.197924E+08  0.197924E+08  0.259641E+08  0.259634E+08  0.000000E+00  0.197924E+08
  0.586763E-04  0.197924E+08  0.197924E+08  0.259424E+08  0.259417E+08  0.000000E+00  0.197924E+08
  0.601617E-04  0.197924E+08  0.197924E+08  0.259195E+08  0.259188E+08  0.000000E+00  0.197924E+08
  0.616847E-04  0.197923E+08  0.197923E+08  0.258956E+08  0.258948E+08  0.000000E+00  0.197923E+08
  0.632462E-04  0.197923E+08  0.197923E+08  0.258704E+08  0.258696E+08  0.000000E+00  0.197923E+08
  0.648473E-04  0.197922E+08  0.197922E+08  0.258440E+08  0.258431E+08  0.000000E+00  0.197922E+08
  0.664889E-04  0.197922E+08  0.197922E+08  0.258162E+08  0.258153E+08  0.000000E+00  0.197922E+08
  0.681721E-04  0.197921E+08  0.197921E+08  0.257870E+08  0.257861E+08  0.000000E+00  0.197921E+08
  0.698979E-04  0.197920E+08  0.197920E+08  0.257564E+08  0.257555E+08  0.000000E+00  0.197920E+08
  0.716674E-04  0.197920E+08  0.197920E+08  0.257243E+08  0.257233E+08  0.000000E+00  0.197920E+08
  0.734817E-04  0.197919E+08  0.197919E+08  0.256905E+08  0.256894E+08  0.000000E+00  0.197919E+08
  0.753418E-04  0.197918E+08  0.197918E+08  0.256550E+08  0.256539E+08  0.000000E+00  0.197918E+08
  0.772491E-04  0.197918E+08  0.197918E+08  0.256178E+08  0.256167E+08  0.000000E+00  0.197918E+08
  0.792047E-04  0.197917E+08  0.197917E+08  0.255787E+08  0.255775E+08  0.000000E+00  0.197917E+08
  0.812098E-04  0.197916E+08  0.197916E+08  0.255377E+08  0.255364E+08  0.000000E+00  0.197916E+08
  0.832656E-04  0.197915E+08  0.197915E+08  0.254946E+08  0.254933E+08  0.000000E+00  0.197915E+08
  0.853735E-04  0.197914E+08  0.197914E+08  0.254494E+08  0.254480E+08  0.000000E+00  0.197914E+08
  0.875347E-04  0.197913E+08  0.197913E+08  0.254020E+08  0.254005E+08  0.000000E+00  0.197913E+08
  0.897507E-04  0.197912E+08  0.197912E+08  0.253522E+08  0.253507E+08  0.000000E+00  0.197912E+08
  0.920227E-04  0.197911E+08  0.197911E+08  0.253000E+08  0.252984E+08  0.000000E+00  0.197911E+08
  0.943523E-04  0.197910E+08  0.197910E+08  0.252452E+08  0.252435E+08  0.000000E+00  0.197910E+08
  0.967408E-04  0.197909E+08  0.197909E+08  0.251877E+08  0.251859E+08  0.000000E+00  0.197909E+08
  0.991899E-04  0.197908E+08  0.197908E+08  0.251273E+08  0.251254E+08  0.000000E+00  0.197908E+08
  0.101701E-03  0.197907E+08  0.197907E+08  0.250641E+08  0.250621E+08  0.000000E+00  0.197907E+08
  0.104275E-03  0.197905E+08  0.197905E+08  0.249977E+08  0.249956E+08  0.000000E+00  0.197905E+08
  0.106915E-03  0.197904E+08  0.197904E+08  0.249281E+08  0.249259E+08  0.000000E+00  0.197904E+08
  0.109622E-03  0.197903E+08  0.197903E+08  0.248551E+08  0.248528E+08  0.000000E+00  0.197903E+08
  0.112397E-03  0.197901E+08  0.197901E+08  0.247786E+08  0.247762E+08  0.000000E+00  0.197901E+08
  0.115242E-03  0.197899E+08  0.197899E+08  0.246984E+08  0.246959E+08  0.000000E+00  0.197899E+08
  0.118160E-03  0.197898E+08  0.197898E+08  0.246144E+08  0.246118E+08  0.000000E+00  0.197898E+08
  0.121151E-03  0.197896E+08  0.197896E+08  0.245263E+08  0.245236E+08  0.000000E+00  0.197896E+08
  0.124218E-03  0.197894E+08  0.197894E+08  0.244340E+08  0.244311E+08  0.000000E+00  0.197894E+08
  0.127362E-03  0.197892E+08  0.197892E+08  0.243374E+08  0.243343E+08  0.000000E+00  0.197892E+08
  0.130586E-03  0.197890E+08  0.197890E+08  0.242361E+08  0.242329E+08  0.000000E+00  0.197890E+08
  0.133892E-03  0.197888E+08  0.197888E+08  0.241301E+08  0.241268E+08  0.000000E+00  0.197888E+08
  0.137282E-03  0.197886E+08  0.197886E+08  0.240191E+08  0.240156E+08  0.000000E+00  0.197886E+08
  0.140757E-03  0.197883E+08  0.197883E+08  0.239029E+08  0.238992E+08  0.000000E+00  0.197883E+08
  0.144320E-03  0.197881E+08  0.197881E+08  0.237813E+08  0.237775E+08  0.000000E+00  0.197881E+08
  0.147974E-03  0.197878E+08  0.197878E+08  0.236541E+08  0.236501E+08  0.000000E+00  0.197878E+08
  0.151720E-03  0.197875E+08  0.197875E+08  0.235210E+08  0.235168E+08  0.000000E+00  0.197875E+08
  0.155561E-03  0.197872E+08  0.197872E+08  0.233819E+08  0.233775E+08  0.000000E+00  0.197872E+08
  0.159499E-03  0.197869E+08  0.197869E+08  0.232364E+08  0.232318E+08  0.000000E+00  0.197869E+08
  0.163536E-03  0.197866E+08  0.197866E+08  0.230844E+08  0.230795E+08  0.000000E+00  0.197866E+08
  0.167676E-03  0.197863E+08  0.197863E+08  0.229255E+08  0.229205E+08  0.000000E+00  0.197863E+08
  0.171921E-03  0.197859E+08  0.197859E+08  0.227596E+08  0.227543E+08  0.000000E+00  0.197859E+08
  0.176273E-03  0.197855E+08  0.197855E+08  0.225863E+08  0.225808E+08  0.000000E+00  0.197855E+08
  0.180736E-03  0.197851E+08  0.197851E+08  0.224055E+08  0.223998E+08  0.000000E+00  0.197851E+08
  0.185311E-03  0.197847E+08  0.197847E+08  0.222169E+08  0.222108E+08  0.000000E+00  0.197847E+08
  0.190002E-03  0.197843E+08  0.197843E+08  0.220201E+08  0.220138E+08  0.000000E+00  0.197843E+08
  0.194812E-03  0.197838E+08  0.197838E+08  0.218150E+08  0.218084E+08  0.000000E+00  0.197838E+08
  0.199744E-03  0.197834E+08  0.197834E+08  0.216013E+08  0.215944E+08  0.000000E+00  0.197834E+08
  0.204800E-03  0.197829E+08  0.197829E+08  0.213787E+08  0.213715E+08  0.000000E+00  0.197829E+08
  0.209985E-03  0.197823E+08  0.197823E+08  0.211469E+08  0.211394E+08  0.000000E+00  0.197823E+08
  0.215301E-03  0.197818E+08  0.197818E+08  0.209057E+08  0.208979E+08  0.000000E+00  0.197818E+08
  0.220751E-03  0.197812E+08  0.197812E+08  0.206549E+08  0.206468E+08  0.000000E+00  0.197812E+08
  0.226339E-03  0.197806E+08  0.197806E+08  0.203943E+08  0.203858E+08  0.000000E+00  0.197806E+08
  0.232069E-03  0.197800E+08  0.197800E+08  0.201235E+08  0.201147E+08  0.000000E+00  0.197800E+08
  0.237944E-03  0.197793E+08  0.197793E+08  0.198425E+08  0.198332E+08  0.000000E+00  0.197793E+08
  0.243968E-03  0.197786E+08  0.197786E+08  0.195509E+08  0.195413E+08  0.000000E+00  0.197786E+08
  0.250144E-03  0.197778E+08  0.197778E+08  0.192486E+08  0.192386E+08  0.000000E+00  0.197778E+08
  0.256476E-03  0.197771E+08  0.197771E+08  0.189355E+08  0.189251E+08  0.000000E+00  0.197771E+08
  0.262969E-03  0.197763E+08  0.197762E+08  0.186115E+08  0.186006E+08  0.000000E+00  0.197763E+08
  0.269626E-03  0.197754E+08  0.197754E+08  0.182763E+08  0.182650E+08  0.000000E+00  0.197754E+08
  0.276452E-03  0.197745E+08  0.197745E+08  0.179300E+08  0.179183E+08  0.000000E+00  0.197745E+08
  0.283450E-03  0.197736E+08  0.197736E+08  0.175725E+08  0.175603E+08  0.000000E+00  0.197736E+08
  0.290626E-03  0.197726E+08  0.197726E+08  0.172038E+08  0.171912E+08  0.000000E+00  0.197726E+08
  0.297983E-03  0.197716E+08  0.197715E+08  0.168240E+08  0.168109E+08  0.000000E+00  0.197715E+08
  0.305526E-03  0.197705E+08  0.197705E+08  0.164331E+08  0.164195E+08  0.000000E+00  0.197705E+08
  0.313261E-03  0.197693E+08  0.197693E+08  0.160313E+08  0.160172E+08  0.000000E+00  0.197693E+08
  0.321191E-03  0.197681E+08  0.197681E+08  0.156188E+08  0.156042E+08  0.000000E+00  0.197681E+08
  0.329322E-03  0.197669E+08  0.197669E+08  0.151958E+08  0.151807E+08  0.000000E+00  0.197669E+08
  0.337659E-03  0.197656E+08  0.197656E+08  0.147627E+08  0.147471E+08  0.000000E+00  0.197656E+08
  0.346207E-03  0.197642E+08  0.197642E+08  0.143200E+08  0.143038E+08  0.000000E+00  0.197642E+08
  0.354971E-03  0.197628E+08  0.197628E+08  0.138679E+08  0.138512E+08  0.000000E+00  0.197628E+08
  0.363957E-03  0.197613E+08  0.197613E+08  0.134073E+08  0.133900E+08  0.000000E+00  0.197613E+08
  0.373171E-03  0.197597E+08  0.197597E+08  0.129386E+08  0.129207E+08  0.000000E+00  0.197597E+08
  0.382618E-03  0.197580E+08  0.197580E+08  0.124626E+08  0.124442E+08  0.000000E+00  0.197580E+08
  0.392303E-03  0.197563E+08  0.197563E+08  0.119802E+08  0.119612E+08  0.000000E+00  0.197563E+08
  0.402235E-03  0.197545E+08  0.197545E+08  0.114923E+08  0.114726E+08  0.000000E+00  0.197545E+08
  0.412417E-03  0.197526E+08  0.197526E+08  0.109999E+08  0.109796E+08  0.000000E+00  0.197526E+08
  0.422858E-03  0.197506E+08  0.197506E+08  0.105041E+08  0.104832E+08  0.000000E+00  0.197506E+08
  0.433562E-03  0.197485E+08  0.197485E+08  0.100062E+08  0.998473E+07  0.000000E+00  0.197485E+08
  0.444538E-03  0.197464E+08  0.197464E+08  0.950757E+07  0.948540E+07  0.000000E+00  0.197464E+08
  0.455792E-03  0.197441E+08  0.197441E+08  0.900950E+07  0.898667E+07  0.000000E+00  0.197441E+08
  0.467330E-03  0.197417E+08  0.197417E+08  0.851357E+07  0.849007E+07  0.000000E+00  0.197417E+08
  0.479161E-03  0.197392E+08  0.197392E+08  0.802137E+07  0.799718E+07  0.000000E+00  0.197392E+08
  0.491291E-03  0.197366E+08  0.197366E+08  0.753458E+07  0.750968E+07  0.000000E+00  0.197366E+08
  0.503728E-03  0.197339E+08  0.197339E+08  0.705494E+07  0.702930E+07  0.000000E+00  0.197339E+08
  0.516479E-03  0.197311E+08  0.197311E+08  0.658423E+07  0.655783E+07  0.000000E+00  0.197311E+08
  0.529554E-03  0.197281E+08  0.197281E+08  0.612427E+07  0.609709E+07  0.000000E+00  0.197281E+08
  0.542960E-03  0.197250E+08  0.197250E+08  0.567690E+07  0.564890E+07  0.000000E+00  0.197250E+08
  0.556705E-03  0.197218E+08  0.197218E+08  0.524395E+07  0.521510E+07  0.000000E+00  0.197218E+08
  0.570798E-03  0.197184E+08  0.197184E+08  0.482722E+07  0.479749E+07  0.000000E+00  0.197184E+08
  0.585248E-03  0.197149E+08  0.197149E+08  0.442842E+07  0.439776E+07  0.000000E+00  0.197149E+08
  0.600064E-03  0.197113E+08  0.197112E+08  0.404920E+07  0.401758E+07  0.000000E+00  0.197113E+08
  0.615254E-03  0.197074E+08  0.197074E+08  0.369109E+07  0.365845E+07  0.000000E+00  0.197074E+08
  0.630830E-03  0.197034E+08  0.197034E+08  0.335543E+07  0.332173E+07  0.000000E+00  0.197034E+08
  0.646799E-03  0.196993E+08  0.196992E+08  0.304338E+07  0.300858E+07  0.000000E+00  0.196993E+08
  0.663173E-03  0.196950E+08  0.196949E+08  0.275587E+07  0.271991E+07  0.000000E+00  0.196949E+08
  0.679961E-03  0.196904E+08  0.196904E+08  0.249357E+07  0.245640E+07  0.000000E+00  0.196904E+08
  0.697175E-03  0.196857E+08  0.196857E+08  0.225684E+07  0.221841E+07  0.000000E+00  0.196857E+08
  0.714824E-03  0.196808E+08  0.196808E+08  0.204571E+07  0.200599E+07  0.000000E+00  0.196808E+08
  0.732919E-03  0.196757E+08  0.196757E+08  0.185986E+07  0.181883E+07  0.000000E+00  0.196757E+08
  0.751473E-03  0.196704E+08  0.196704E+08  0.169862E+07  0.165623E+07  0.000000E+00  0.196704E+08
  0.770497E-03  0.196649E+08  0.196648E+08  0.156090E+07  0.151716E+07  0.000000E+00  0.196649E+08
  0.790002E-03  0.196592E+08  0.196591E+08  0.144525E+07  0.140017E+07  0.000000E+00  0.196592E+08
  0.810001E-03  0.196532E+08  0.196531E+08  0.134988E+07  0.130348E+07  0.000000E+00  0.196532E+08
  0.830506E-03  0.196470E+08  0.196469E+08  0.127261E+07  0.122496E+07  0.000000E+00  0.196470E+08
  0.851531E-03  0.196405E+08  0.196405E+08  0.121100E+07  0.116218E+07  0.000000E+00  0.196405E+08
  0.873087E-03  0.196338E+08  0.196337E+08  0.116236E+07  0.111248E+07  0.000000E+00  0.196338E+08
  0.895190E-03  0.196269E+08  0.196268E+08  0.112380E+07  0.107302E+07  0.000000E+00  0.196269E+08
  0.917852E-03  0.196196E+08  0.196195E+08  0.109238E+07  0.104089E+07  0.000000E+00  0.196196E+08
  0.941087E-03  0.196121E+08  0.196120E+08  0.106517E+07  0.101318E+07  0.000000E+00  0.196121E+08
  0.964911E-03  0.196043E+08  0.196042E+08  0.103934E+07  0.987127E+06  0.000000E+00  0.196043E+08
  0.989338E-03  0.195962E+08  0.195961E+08  0.101233E+07  0.960173E+06  0.000000E+00  0.195962E+08
  0.101438E-02  0.195879E+08  0.195877E+08  0.981887E+06  0.930121E+06  0.000000E+00  0.195878E+08
  0.104006E-02  0.195792E+08  0.195790E+08  0.946260E+06  0.895220E+06  0.000000E+00  0.195791E+08
  0.106639E-02  0.195701E+08  0.195700E+08  0.904230E+06  0.854264E+06  0.000000E+00  0.195701E+08
  0.109339E-02  0.195608E+08  0.195606E+08  0.855202E+06  0.806655E+06  0.000000E+00  0.195607E+08
  0.112107E-02  0.195510E+08  0.195509E+08  0.799254E+06  0.752447E+06  0.000000E+00  0.195510E+08
  0.114945E-02  0.195410E+08  0.195408E+08  0.737127E+06  0.692346E+06  0.000000E+00  0.195410E+08
  0.117854E-02  0.195306E+08  0.195304E+08  0.670196E+06  0.627669E+06  0.000000E+00  0.195305E+08
  0.120838E-02  0.195198E+08  0.195196E+08  0.600378E+06  0.560256E+06  0.000000E+00  0.195197E+08
  0.123897E-02  0.195086E+08  0.195084E+08  0.529989E+06  0.492334E+06  0.000000E+00  0.195085E+08
  0.127033E-02  0.194970E+08  0.194968E+08  0.461579E+06  0.426347E+06  0.000000E+00  0.194969E+08
  0.130249E-02  0.194850E+08  0.194848E+08  0.397708E+06  0.364741E+06  0.000000E+00  0.194849E+08
  0.133547E-02  0.194725E+08  0.194723E+08  0.340718E+06  0.309745E+06  0.000000E+00  0.194725E+08
  0.136927E-02  0.194596E+08  0.194594E+08  0.292498E+06  0.263142E+06  0.000000E+00  0.194596E+08
  0.140394E-02  0.194463E+08  0.194461E+08  0.254274E+06  0.226067E+06  0.000000E+00  0.194463E+08
  0.143948E-02  0.194325E+08  0.194323E+08  0.226454E+06  0.198868E+06  0.000000E+00  0.194325E+08
  0.147592E-02  0.194183E+08  0.194180E+08  0.208541E+06  0.181021E+06  0.000000E+00  0.194182E+08
  0.151328E-02  0.194035E+08  0.194032E+08  0.199146E+06  0.171149E+06  0.000000E+00  0.194034E+08
  0.155159E-02  0.193882E+08  0.193879E+08  0.196107E+06  0.167151E+06  0.000000E+00  0.193882E+08
  0.159087E-02  0.193724E+08  0.193721E+08  0.000000E+00  0.000000E+00  0.000000E+00  0.193724E+08
  0.163114E-02  0.193561E+08  0.193558E+08  0.000000E+00  0.000000E+00  0.000000E+00  0.193560E+08
  0.167243E-02  0.193392E+08  0.193389E+08  0.000000E+00  0.000000E+00  0.000000E+00  0.193392E+08
  0.171477E-02  0.193218E+08  0.193214E+08  0.000000E+00  0.000000E+00  0.000000E+00  0.193217E+08
  0.175818E-02  0.193037E+08  0.193034E+08  0.000000E+00  0.000000E+00  0.000000E+00  0.193037E+08
  0.180269E-02  0.192851E+08  0.192847E+08  0.000000E+00  0.000000E+00  0.000000E+00  0.192850E+08
  0.184833E-02  0.192659E+08  0.192655E+08  0.000000E+00  0.000000E+00  0.000000E+00  0.192658E+08
  0.189512E-02  0.192460E+08  0.192456E+08  0.000000E+00  0.000000E+00  0.000000E+00  0.192459E+08
  0.194309E-02  0.192255E+08  0.192250E+08  0.000000E+00  0.000000E+00  0.000000E+00  0.192254E+08
  0.199228E-02  0.192043E+08  0.192038E+08  0.000000E+00  0.000000E+00  0.000000E+00  0.192042E+08
  0.204272E-02  0.191824E+08  0.191819E+08  0.000000E+00  0.000000E+00  0.000000E+00  0.191823E+08
  0.209443E-02  0.191598E+08  0.191593E+08  0.000000E+00  0.000000E+00  0.000000E+00  0.191597E+08
  0.214745E-02  0.191365E+08  0.191360E+08  0.000000E+00  0.000000E+00  0.000000E+00  0.191364E+08
  0.220181E-02  0.191125E+08  0.191119E+08  0.000000E+00  0.000000E+00  0.000000E+00  0.191124E+08
  0.225755E-02  0.190877E+08  0.190871E+08  0.000000E+00  0.000000E+00  0.000000E+00  0.190876E+08
  0.231470E-02  0.190621E+08  0.190615E+08  0.000000E+00  0.000000E+00  0.000000E+00  0.190620E+08
  0.237330E-02  0.190358E+08  0.190351E+08  0.000000E+00  0.000000E+00  0.000000E+00  0.190357E+08
  0.243338E-02  0.190086E+08  0.190079E+08  0.000000E+00  0.000000E+00  0.000000E+00  0.190085E+08
  0.249498E-02  0.189806E+08  0.189799E+08  0.000000E+00  0.000000E+00  0.000000E+00  0.189805E+08
  0.255814E-02  0.189518E+08  0.189510E+08  0.000000E+00  0.000000E+00  0.000000E+00  0.189516E+08
  0.262290E-02  0.189220E+08  0.189212E+08  0.000000E+00  0.000000E+00  0.000000E+00  0.189219E+08
  0.268930E-02  0.188914E+08  0.188906E+08  0.000000E+00  0.000000E+00  0.000000E+00  0.188913E+08
  0.275738E-02  0.188599E+08  0.188590E+08  0.000000E+00  0.000000E+00  0.000000E+00  0.188597E+08
  0.282718E-02  0.188274E+08  0.188265E+08  0.000000E+00  0.000000E+00  0.000000E+00  0.188272E+08
  0.289875E-02  0.187940E+08  0.187930E+08  0.000000E+00  0.000000E+00  0.000000E+00  0.187938E+08
  0.297213E-02  0.187595E+08  0.187586E+08  0.000000E+00  0.000000E+00  0.000000E+00  0.187594E+08
  0.304737E-02  0.187241E+08  0.187231E+08  0.000000E+00  0.000000E+00  0.000000E+00  0.187240E+08
  0.312452E-02  0.186877E+08  0.186866E+08  0.000000E+00  0.000000E+00  0.000000E+00  0.186875E+08
  0.320362E-02  0.186502E+08  0.186491E+08  0.000000E+00  0.000000E+00  0.000000E+00  0.186501E+08
  0.328472E-02  0.186117E+08  0.186105E+08  0.000000E+00  0.000000E+00  0.000000E+00  0.186115E+08
  0.336787E-02  0.185721E+08  0.185708E+08  0.000000E+00  0.000000E+00  0.000000E+00  0.185719E+08
  0.345313E-02  0.185314E+08  0.185300E+08  0.000000E+00  0.000000E+00  0.000000E+00  0.185312E+08
  0.354054E-02  0.184895E+08  0.184881E+08  0.000000E+00  0.000000E+00  0.000000E+00  0.184893E+08
  0.363017E-02  0.184465E+08  0.184450E+08  0.000000E+00  0.000000E+00  0.000000E+00  0.184463E+08
  0.372207E-02  0.184023E+08  0.184008E+08  0.000000E+00  0.000000E+00  0.000000E+00  0.184021E+08
  0.381630E-02  0.183569E+08  0.183553E+08  0.000000E+00  0.000000E+00  0.000000E+00  0.183567E+08
  0.391291E-02  0.183103E+08  0.183087E+08  0.000000E+00  0.000000E+00  0.000000E+00  0.183101E+08
  0.401196E-02  0.182625E+08  0.182607E+08  0.000000E+00  0.000000E+00  0.000000E+00  0.182622E+08
  0.411353E-02  0.182134E+08  0.182115E+08  0.000000E+00  0.000000E+00  0.000000E+00  0.182131E+08
  0.421766E-02  0.181630E+08  0.181610E+08  0.000000E+00  0.000000E+00  0.000000E+00  0.181627E+08
  0.432443E-02  0.181113E+08  0.181092E+08  0.000000E+00  0.000000E+00  0.000000E+00  0.181109E+08
  0.443390E-02  0.180582E+08  0.180561E+08  0.000000E+00  0.000000E+00  0.000000E+00  0.180579E+08
  0.454615E-02  0.180038E+08  0.180016E+08  0.000000E+00  0.000000E+00  0.000000E+00  0.180034E+08
  0.466124E-02  0.179480E+08  0.179457E+08  0.000000E+00  0.000000E+00  0.000000E+00  0.179476E+08
  0.477923E-02  0.178908E+08  0.178883E+08  0.000000E+00  0.000000E+00  0.000000E+00  0.178904E+08
  0.490022E-02  0.178322E+08  0.178296E+08  0.000000E+00  0.000000E+00  0.000000E+00  0.178318E+08
  0.502427E-02  0.177721E+08  0.177694E+08  0.000000E+00  0.000000E+00  0.000000E+00  0.177717E+08
  0.515146E-02  0.177106E+08  0.177077E+08  0.000000E+00  0.000000E+00  0.000000E+00  0.177101E+08
  0.528187E-02  0.176475E+08  0.176445E+08  0.000000E+00  0.000000E+00  0.000000E+00  0.176470E+08
  0.541558E-02  0.175829E+08  0.175798E+08  0.000000E+00  0.000000E+00  0.000000E+00  0.175824E+08
  0.555268E-02  0.175168E+08  0.175135E+08  0.000000E+00  0.000000E+00  0.000000E+00  0.175163E+08
  0.569325E-02  0.174491E+08  0.174457E+08  0.000000E+00  0.000000E+00  0.000000E+00  0.174486E+08
  0.583737E-02  0.173798E+08  0.173762E+08  0.000000E+00  0.000000E+00  0.000000E+00  0.173792E+08
  0.598514E-02  0.173089E+08  0.173052E+08  0.000000E+00  0.000000E+00  0.000000E+00  0.173083E+08
  0.613666E-02  0.172364E+08  0.172325E+08  0.000000E+00  0.000000E+00  0.000000E+00  0.172358E+08
  0.629201E-02  0.171622E+08  0.171581E+08  0.000000E+00  0.000000E+00  0.000000E+00  0.171615E+08
  0.645129E-02  0.170863E+08  0.170820E+08  0.000000E+00  0.000000E+00  0.000000E+00  0.170856E+08
  0.661461E-02  0.170087E+08  0.170042E+08  0.000000E+00  0.000000E+00  0.000000E+00  0.170080E+08
  0.678206E-02  0.169294E+08  0.169246E+08  0.000000E+00  0.000000E+00  0.000000E+00  0.169286E+08
  0.695374E-02  0.168483E+08  0.168433E+08  0.000000E+00  0.000000E+00  0.000000E+00  0.168475E+08
  0.712978E-02  0.167655E+08  0.167603E+08  0.000000E+00  0.000000E+00  0.000000E+00  0.167646E+08
  0.731027E-02  0.166808E+08  0.166754E+08  0.000000E+00  0.000000E+00  0.000000E+00  0.166799E+08
  0.749533E-02  0.165944E+08  0.165886E+08  0.000000E+00  0.000000E+00  0.000000E+00  0.165934E+08
  0.768508E-02  0.165060E+08  0.165000E+08  0.000000E+00  0.000000E+00  0.000000E+00  0.165050E+08
  0.787962E-02  0.164158E+08  0.164095E+08  0.000000E+00  0.000000E+00  0.000000E+00  0.164148E+08
  0.807910E-02  0.163237E+08  0.163172E+08  0.000000E+00  0.000000E+00  0.000000E+00  0.163227E+08
  0.828362E-02  0.162297E+08  0.162228E+08  0.000000E+00  0.000000E+00  0.000000E+00  0.162286E+08
  0.849332E-02  0.161338E+08  0.161266E+08  0.000000E+00  0.000000E+00  0.000000E+00  0.161326E+08
  0.870833E-02  0.160359E+08  0.160283E+08  0.000000E+00  0.000000E+00  0.000000E+00  0.160346E+08
  0.892878E-02  0.159360E+08  0.159281E+08  0.000000E+00  0.000000E+00  0.000000E+00  0.159347E+08
  0.915482E-02  0.158341E+08  0.158258E+08  0.000000E+00  0.000000E+00  0.000000E+00  0.158327E+08
  0.938657E-02  0.157301E+08  0.157215E+08  0.000000E+00  0.000000E+00  0.000000E+00  0.157287E+08
  0.962420E-02  0.156241E+08  0.156151E+08  0.000000E+00  0.000000E+00  0.000000E+00  0.156226E+08
  0.986784E-02  0.155161E+08  0.155066E+08  0.000000E+00  0.000000E+00  0.000000E+00  0.155145E+08
  0.101176E-01  0.154059E+08  0.153960E+08  0.000000E+00  0.000000E+00  0.000000E+00  0.154043E+08
  0.103738E-01  0.152936E+08  0.152833E+08  0.000000E+00  0.000000E+00  0.000000E+00  0.152919E+08
  0.106364E-01  0.151792E+08  0.151684E+08  0.000000E+00  0.000000E+00  0.000000E+00  0.151774E+08
  0.109056E-01  0.150626E+08  0.150513E+08  0.000000E+00  0.000000E+00  0.000000E+00  0.150607E+08
  0.111817E-01  0.149438E+08  0.149321E+08  0.000000E+00  0.000000E+00  0.000000E+00  0.149419E+08
  0.114648E-01  0.148228E+08  0.148106E+08  0.000000E+00  0.000000E+00  0.000000E+00  0.148208E+08
  0.117550E-01  0.146996E+08  0.146868E+08  0.000000E+00  0.000000E+00  0.000000E+00  0.146975E+08
  0.120526E-01  0.145742E+08  0.145608E+08  0.000000E+00  0.000000E+00  0.000000E+00  0.145720E+08
  0.123577E-01  0.144465E+08  0.144325E+08  0.000000E+00  0.000000E+00  0.000000E+00  0.144442E+08
  0.126706E-01  0.143165E+08  0.143019E+08  0.000000E+00  0.000000E+00  0.000000E+00  0.143141E+08
  0.129913E-01  0.141842E+08  0.141690E+08  0.000000E+00  0.000000E+00  0.000000E+00  0.141817E+08
  0.133202E-01  0.140496E+08  0.140338E+08  0.000000E+00  0.000000E+00  0.000000E+00  0.140470E+08
  0.136574E-01  0.139127E+08  0.138962E+08  0.000000E+00  0.000000E+00  0.000000E+00  0.139100E+08
  0.140031E-01  0.137734E+08  0.137563E+08  0.000000E+00  0.000000E+00  0.000000E+00  0.137706E+08
  0.143576E-01  0.136318E+08  0.136140E+08  0.000000E+00  0.000000E+00  0.000000E+00  0.136289E+08
  0.147211E-01  0.135020E+08  0.134835E+08  0.000000E+00  0.000000E+00  0.000000E+00  0.134990E+08
  0.150937E-01  0.133563E+08  0.133370E+08  0.000000E+00  0.000000E+00  0.000000E+00  0.133532E+08
  0.154758E-01  0.132083E+08  0.131882E+08  0.000000E+00  0.000000E+00  0.000000E+00  0.132050E+08
  0.158676E-01  0.130579E+08  0.130370E+08  0.000000E+00  0.000000E+00  0.000000E+00  0.130545E+08
  0.162693E-01  0.129052E+08  0.128835E+08  0.000000E+00  0.000000E+00  0.000000E+00  0.129016E+08
  0.166812E-01  0.127502E+08  0.127277E+08  0.000000E+00  0.000000E+00  0.000000E+00  0.127465E+08
  0.171035E-01  0.125928E+08  0.125695E+08  0.000000E+00  0.000000E+00  0.000000E+00  0.125890E+08
  0.175364E-01  0.124332E+08  0.124090E+08  0.000000E+00  0.000000E+00  0.000000E+00  0.124292E+08
  0.179804E-01  0.122713E+08  0.122462E+08  0.000000E+00  0.000000E+00  0.000000E+00  0.122672E+08
  0.184355E-01  0.121072E+08  0.120812E+08  0.000000E+00  0.000000E+00  0.000000E+00  0.121030E+08
  0.189022E-01  0.119409E+08  0.119140E+08  0.000000E+00  0.000000E+00  0.000000E+00  0.119365E+08
  0.193808E-01  0.117725E+08  0.117446E+08  0.000000E+00  0.000000E+00  0.000000E+00  0.117679E+08
  0.198714E-01  0.116019E+08  0.115731E+08  0.000000E+00  0.000000E+00  0.000000E+00  0.115972E+08
  0.203744E-01  0.114293E+08  0.113996E+08  0.000000E+00  0.000000E+00  0.000000E+00  0.114245E+08
  0.208902E-01  0.112548E+08  0.112240E+08  0.000000E+00  0.000000E+00  0.000000E+00  0.112497E+08
  0.214190E-01  0.110783E+08  0.110466E+08  0.000000E+00  0.000000E+00  0.000000E+00  0.110731E+08
  0.219613E-01  0.109001E+08  0.108674E+08  0.000000E+00  0.000000E+00  0.000000E+00  0.108947E+08
  0.225172E-01  0.107201E+08  0.106865E+08  0.000000E+00  0.000000E+00  0.000000E+00  0.107146E+08
  0.230872E-01  0.105378E+08  0.105032E+08  0.000000E+00  0.000000E+00  0.000000E+00  0.105321E+08
  0.236717E-01  0.103541E+08  0.103186E+08  0.000000E+00  0.000000E+00  0.000000E+00  0.103483E+08
  0.242709E-01  0.101693E+08  0.101328E+08  0.000000E+00  0.000000E+00  0.000000E+00  0.101633E+08
  0.248854E-01  0.997651E+07  0.993915E+07  0.000000E+00  0.000000E+00  0.000000E+00  0.997039E+07
  0.255154E-01  0.978964E+07  0.975138E+07  0.000000E+00  0.000000E+00  0.000000E+00  0.978337E+07
  0.261613E-01  0.960190E+07  0.956278E+07  0.000000E+00  0.000000E+00  0.000000E+00  0.959550E+07
  0.268236E-01  0.941344E+07  0.937348E+07  0.000000E+00  0.000000E+00  0.000000E+00  0.940690E+07
  0.275026E-01  0.922442E+07  0.918367E+07  0.000000E+00  0.000000E+00  0.000000E+00  0.921775E+07
  0.281988E-01  0.903502E+07  0.899352E+07  0.000000E+00  0.000000E+00  0.000000E+00  0.902823E+07
  0.289127E-01  0.884548E+07  0.880328E+07  0.000000E+00  0.000000E+00  0.000000E+00  0.883857E+07
  0.296446E-01  0.865603E+07  0.861320E+07  0.000000E+00  0.000000E+00  0.000000E+00  0.864902E+07
  0.303951E-01  0.846698E+07  0.842357E+07  0.000000E+00  0.000000E+00  0.000000E+00  0.845987E+07
  0.311645E-01  0.827864E+07  0.823473E+07  0.000000E+00  0.000000E+00  0.000000E+00  0.827145E+07
  0.319535E-01  0.809135E+07  0.804702E+07  0.000000E+00  0.000000E+00  0.000000E+00  0.808409E+07
  0.327624E-01  0.790547E+07  0.786080E+07  0.000000E+00  0.000000E+00  0.000000E+00  0.789816E+07
  0.335917E-01  0.772135E+07  0.767645E+07  0.000000E+00  0.000000E+00  0.000000E+00  0.771400E+07
  0.344421E-01  0.753768E+07  0.749265E+07  0.000000E+00  0.000000E+00  0.000000E+00  0.753031E+07
  0.353140E-01  0.735819E+07  0.731313E+07  0.000000E+00  0.000000E+00  0.000000E+00  0.735082E+07
  0.362080E-01  0.718145E+07  0.713647E+07  0.000000E+00  0.000000E+00  0.000000E+00  0.717409E+07
  0.371246E-01  0.700779E+07  0.696302E+07  0.000000E+00  0.000000E+00  0.000000E+00  0.700046E+07
  0.380644E-01  0.683751E+07  0.679306E+07  0.000000E+00  0.000000E+00  0.000000E+00  0.683023E+07
  0.390280E-01  0.667089E+07  0.662691E+07  0.000000E+00  0.000000E+00  0.000000E+00  0.666369E+07
  0.400160E-01  0.650824E+07  0.646485E+07  0.000000E+00  0.000000E+00  0.000000E+00  0.650114E+07
  0.410291E-01  0.634980E+07  0.630714E+07  0.000000E+00  0.000000E+00  0.000000E+00  0.634282E+07
  0.420677E-01  0.619583E+07  0.615403E+07  0.000000E+00  0.000000E+00  0.000000E+00  0.618899E+07
  0.431326E-01  0.604656E+07  0.600575E+07  0.000000E+00  0.000000E+00  0.000000E+00  0.603988E+07
  0.442246E-01  0.590165E+07  0.586196E+07  0.000000E+00  0.000000E+00  0.000000E+00  0.589515E+07
  0.453441E-01  0.576227E+07  0.572382E+07  0.000000E+00  0.000000E+00  0.000000E+00  0.575598E+07
  0.464920E-01  0.562806E+07  0.559098E+07  0.000000E+00  0.000000E+00  0.000000E+00  0.562199E+07
  0.476690E-01  0.549908E+07  0.546347E+07  0.000000E+00  0.000000E+00  0.000000E+00  0.549325E+07
  0.488757E-01  0.537530E+07  0.534126E+07  0.000000E+00  0.000000E+00  0.000000E+00  0.536973E+07
  0.501130E-01  0.525658E+07  0.522419E+07  0.000000E+00  0.000000E+00  0.000000E+00  0.525128E+07
  0.513816E-01  0.514267E+07  0.511200E+07  0.000000E+00  0.000000E+00  0.000000E+00  0.513765E+07
  0.526824E-01  0.503329E+07  0.500438E+07  0.000000E+00  0.000000E+00  0.000000E+00  0.502856E+07
  0.540160E-01  0.492767E+07  0.490056E+07  0.000000E+00  0.000000E+00  0.000000E+00  0.492323E+07
  0.553834E-01  0.482609E+07  0.480077E+07  0.000000E+00  0.000000E+00  0.000000E+00  0.482194E+07
  0.567855E-01  0.472787E+07  0.470432E+07  0.000000E+00  0.000000E+00  0.000000E+00  0.472401E+07
  0.582230E-01  0.463256E+07  0.461074E+07  0.000000E+00  0.000000E+00  0.000000E+00  0.462899E+07
  0.596969E-01  0.453955E+07  0.451938E+07  0.000000E+00  0.000000E+00  0.000000E+00  0.453625E+07
  0.612082E-01  0.444815E+07  0.442954E+07  0.000000E+00  0.000000E+00  0.000000E+00  0.444511E+07
  0.627576E-01  0.435761E+07  0.434043E+07  0.000000E+00  0.000000E+00  0.000000E+00  0.435480E+07
  0.643464E-01  0.426694E+07  0.425103E+07  0.000000E+00  0.000000E+00  0.000000E+00  0.426433E+07
  0.659753E-01  0.417608E+07  0.416128E+07  0.000000E+00  0.000000E+00  0.000000E+00  0.417366E+07
  0.676455E-01  0.408425E+07  0.407038E+07  0.000000E+00  0.000000E+00  0.000000E+00  0.408198E+07
  0.693579E-01  0.399097E+07  0.397782E+07  0.000000E+00  0.000000E+00  0.000000E+00  0.398882E+07
  0.711137E-01  0.389574E+07  0.388311E+07  0.000000E+00  0.000000E+00  0.000000E+00  0.389367E+07
  0.729140E-01  0.379814E+07  0.378582E+07  0.000000E+00  0.000000E+00  0.000000E+00  0.379613E+07
  0.747598E-01  0.369768E+07  0.368546E+07  0.000000E+00  0.000000E+00  0.000000E+00  0.369568E+07
  0.766524E-01  0.359507E+07  0.358275E+07  0.000000E+00  0.000000E+00  0.000000E+00  0.359305E+07
  0.785928E-01  0.349013E+07  0.347756E+07  0.000000E+00  0.000000E+00  0.000000E+00  0.348808E+07
  0.805824E-01  0.338325E+07  0.337028E+07  0.000000E+00  0.000000E+00  0.000000E+00  0.338113E+07
  0.826224E-01  0.327490E+07  0.326143E+07  0.000000E+00  0.000000E+00  0.000000E+00  0.327270E+07
  0.847139E-01  0.316580E+07  0.315175E+07  0.000000E+00  0.000000E+00  0.000000E+00  0.316350E+07
  0.868585E-01  0.305689E+07  0.304226E+07  0.000000E+00  0.000000E+00  0.000000E+00  0.305450E+07
  0.890573E-01  0.294937E+07  0.293417E+07  0.000000E+00  0.000000E+00  0.000000E+00  0.294688E+07
  0.913118E-01  0.284439E+07  0.282872E+07  0.000000E+00  0.000000E+00  0.000000E+00  0.284183E+07
  0.936234E-01  0.274304E+07  0.272701E+07  0.000000E+00  0.000000E+00  0.000000E+00  0.274041E+07
  0.959935E-01  0.264627E+07  0.263005E+07  0.000000E+00  0.000000E+00  0.000000E+00  0.264362E+07
  0.984236E-01  0.255499E+07  0.253878E+07  0.000000E+00  0.000000E+00  0.000000E+00  0.255234E+07
  0.100915E+00  0.246999E+07  0.245401E+07  0.000000E+00  0.000000E+00  0.000000E+00  0.246737E+07
  0.103470E+00  0.239184E+07  0.237632E+07  0.000000E+00  0.000000E+00  0.000000E+00  0.238930E+07
  0.106089E+00  0.232075E+07  0.230590E+07  0.000000E+00  0.000000E+00  0.000000E+00  0.231832E+07
  0.108775E+00  0.225645E+07  0.224247E+07  0.000000E+00  0.000000E+00  0.000000E+00  0.225416E+07
  0.111529E+00  0.219824E+07  0.218528E+07  0.000000E+00  0.000000E+00  0.000000E+00  0.219612E+07
  0.114352E+00  0.214512E+07  0.213328E+07  0.000000E+00  0.000000E+00  0.000000E+00  0.214318E+07
  0.117247E+00  0.209585E+07  0.208516E+07  0.000000E+00  0.000000E+00  0.000000E+00  0.209410E+07
  0.120215E+00  0.204891E+07  0.203934E+07  0.000000E+00  0.000000E+00  0.000000E+00  0.204735E+07
  0.123258E+00  0.200264E+07  0.199407E+07  0.000000E+00  0.000000E+00  0.000000E+00  0.200124E+07
  0.126378E+00  0.195542E+07  0.194770E+07  0.000000E+00  0.000000E+00  0.000000E+00  0.195416E+07
  0.129578E+00  0.190591E+07  0.189881E+07  0.000000E+00  0.000000E+00  0.000000E+00  0.190475E+07
  0.132858E+00  0.185315E+07  0.184644E+07  0.000000E+00  0.000000E+00  0.000000E+00  0.185205E+07
  0.136221E+00  0.179666E+07  0.179010E+07  0.000000E+00  0.000000E+00  0.000000E+00  0.179559E+07
  0.139670E+00  0.173651E+07  0.172986E+07  0.000000E+00  0.000000E+00  0.000000E+00  0.173542E+07
  0.143206E+00  0.167343E+07  0.166653E+07  0.000000E+00  0.000000E+00  0.000000E+00  0.167230E+07
  0.146831E+00  0.160875E+07  0.160150E+07  0.000000E+00  0.000000E+00  0.000000E+00  0.160757E+07
  0.150548E+00  0.154408E+07  0.153646E+07  0.000000E+00  0.000000E+00  0.000000E+00  0.154284E+07
  0.154359E+00  0.148127E+07  0.147333E+07  0.000000E+00  0.000000E+00  0.000000E+00  0.147997E+07
  0.158266E+00  0.142222E+07  0.141410E+07  0.000000E+00  0.000000E+00  0.000000E+00  0.142089E+07
  0.162273E+00  0.136839E+07  0.136028E+07  0.000000E+00  0.000000E+00  0.000000E+00  0.136706E+07
  0.166381E+00  0.132064E+07  0.131275E+07  0.000000E+00  0.000000E+00  0.000000E+00  0.131935E+07
  0.170593E+00  0.127904E+07  0.127158E+07  0.000000E+00  0.000000E+00  0.000000E+00  0.127782E+07
  0.174912E+00  0.124281E+07  0.123593E+07  0.000000E+00  0.000000E+00  0.000000E+00  0.124168E+07
  0.179339E+00  0.121055E+07  0.120433E+07  0.000000E+00  0.000000E+00  0.000000E+00  0.120953E+07
  0.183880E+00  0.118035E+07  0.117478E+07  0.000000E+00  0.000000E+00  0.000000E+00  0.117944E+07
  0.188534E+00  0.115006E+07  0.114505E+07  0.000000E+00  0.000000E+00  0.000000E+00  0.114924E+07
  0.193307E+00  0.111796E+07  0.111335E+07  0.000000E+00  0.000000E+00  0.000000E+00  0.111720E+07
  0.198201E+00  0.108297E+07  0.107857E+07  0.000000E+00  0.000000E+00  0.000000E+00  0.108225E+07
  0.203218E+00  0.104490E+07  0.104052E+07  0.000000E+00  0.000000E+00  0.000000E+00  0.104418E+07
  0.208363E+00  0.100453E+07  0.100004E+07  0.000000E+00  0.000000E+00  0.000000E+00  0.100379E+07
  0.213637E+00  0.963445E+06  0.958796E+06  0.000000E+00  0.000000E+00  0.000000E+00  0.962684E+06
  0.219046E+00  0.923562E+06  0.918783E+06  0.000000E+00  0.000000E+00  0.000000E+00  0.922780E+06
  0.224591E+00  0.886694E+06  0.881890E+06  0.000000E+00  0.000000E+00  0.000000E+00  0.885907E+06
  0.230276E+00  0.853991E+06  0.849305E+06  0.000000E+00  0.000000E+00  0.000000E+00  0.853224E+06
  0.236106E+00  0.825644E+06  0.821213E+06  0.000000E+00  0.000000E+00  0.000000E+00  0.824919E+06
  0.242083E+00  0.800795E+06  0.796708E+06  0.000000E+00  0.000000E+00  0.000000E+00  0.800126E+06
  0.248211E+00  0.777822E+06  0.774095E+06  0.000000E+00  0.000000E+00  0.000000E+00  0.777212E+06
  0.254495E+00  0.754957E+06  0.751531E+06  0.000000E+00  0.000000E+00  0.000000E+00  0.754396E+06
  0.260937E+00  0.730766E+06  0.727532E+06  0.000000E+00  0.000000E+00  0.000000E+00  0.730237E+06
  0.267543E+00  0.704742E+06  0.701581E+06  0.000000E+00  0.000000E+00  0.000000E+00  0.704225E+06
  0.274316E+00  0.677407E+06  0.674237E+06  0.000000E+00  0.000000E+00  0.000000E+00  0.676888E+06
  0.281260E+00  0.650043E+06  0.646840E+06  0.000000E+00  0.000000E+00  0.000000E+00  0.649519E+06
  0.288380E+00  0.624157E+06  0.620963E+06  0.000000E+00  0.000000E+00  0.000000E+00  0.623634E+06
  0.295681E+00  0.600775E+06  0.597668E+06  0.000000E+00  0.000000E+00  0.000000E+00  0.600266E+06
  0.303166E+00  0.580064E+06  0.577120E+06  0.000000E+00  0.000000E+00  0.000000E+00  0.579582E+06
  0.310841E+00  0.561255E+06  0.558511E+06  0.000000E+00  0.000000E+00  0.000000E+00  0.560806E+06
  0.318709E+00  0.543103E+06  0.540541E+06  0.000000E+00  0.000000E+00  0.000000E+00  0.542683E+06
  0.326778E+00  0.524538E+06  0.522103E+06  0.000000E+00  0.000000E+00  0.000000E+00  0.524139E+06
  0.335050E+00  0.505191E+06  0.502818E+06  0.000000E+00  0.000000E+00  0.000000E+00  0.504802E+06
  0.343532E+00  0.485528E+06  0.483183E+06  0.000000E+00  0.000000E+00  0.000000E+00  0.485144E+06
  0.352229E+00  0.466479E+06  0.464167E+06  0.000000E+00  0.000000E+00  0.000000E+00  0.466101E+06
  0.361145E+00  0.448830E+06  0.446586E+06  0.000000E+00  0.000000E+00  0.000000E+00  0.448463E+06
  0.370288E+00  0.432739E+06  0.430601E+06  0.000000E+00  0.000000E+00  0.000000E+00  0.432389E+06
  0.379662E+00  0.417713E+06  0.415693E+06  0.000000E+00  0.000000E+00  0.000000E+00  0.417382E+06
  0.389273E+00  0.402996E+06  0.401076E+06  0.000000E+00  0.000000E+00  0.000000E+00  0.402682E+06
  0.399127E+00  0.388138E+06  0.386287E+06  0.000000E+00  0.000000E+00  0.000000E+00  0.387835E+06
  0.409231E+00  0.373255E+06  0.371450E+06  0.000000E+00  0.000000E+00  0.000000E+00  0.372960E+06
  0.419591E+00  0.358843E+06  0.357084E+06  0.000000E+00  0.000000E+00  0.000000E+00  0.358555E+06
  0.430213E+00  0.345312E+06  0.343616E+06  0.000000E+00  0.000000E+00  0.000000E+00  0.345034E+06
  0.441104E+00  0.332654E+06  0.331035E+06  0.000000E+00  0.000000E+00  0.000000E+00  0.332389E+06
  0.452270E+00  0.320517E+06  0.318973E+06  0.000000E+00  0.000000E+00  0.000000E+00  0.320265E+06
  0.463720E+00  0.308566E+06  0.307081E+06  0.000000E+00  0.000000E+00  0.000000E+00  0.308323E+06
  0.475459E+00  0.296774E+06  0.295338E+06  0.000000E+00  0.000000E+00  0.000000E+00  0.296539E+06
  0.487495E+00  0.285372E+06  0.283982E+06  0.000000E+00  0.000000E+00  0.000000E+00  0.285144E+06
  0.499836E+00  0.274545E+06  0.273208E+06  0.000000E+00  0.000000E+00  0.000000E+00  0.274326E+06
  0.512490E+00  0.264246E+06  0.262966E+06  0.000000E+00  0.000000E+00  0.000000E+00  0.264036E+06
  0.525463E+00  0.254284E+06  0.253055E+06  0.000000E+00  0.000000E+00  0.000000E+00  0.254083E+06
  0.538766E+00  0.244558E+06  0.243375E+06  0.000000E+00  0.000000E+00  0.000000E+00  0.244364E+06
  0.552404E+00  0.235137E+06  0.233996E+06  0.000000E+00  0.000000E+00  0.000000E+00  0.234950E+06
  0.566389E+00  0.226115E+06  0.225017E+06  0.000000E+00  0.000000E+00  0.000000E+00  0.225935E+06
  0.580727E+00  0.217478E+06  0.216424E+06  0.000000E+00  0.000000E+00  0.000000E+00  0.217305E+06
  0.595428E+00  0.209137E+06  0.208125E+06  0.000000E+00  0.000000E+00  0.000000E+00  0.208971E+06
  0.610501E+00  0.201055E+06  0.200081E+06  0.000000E+00  0.000000E+00  0.000000E+00  0.200896E+06
  0.625956E+00  0.193266E+06  0.192329E+06  0.000000E+00  0.000000E+00  0.000000E+00  0.193113E+06
  0.641803E+00  0.185790E+06  0.184889E+06  0.000000E+00  0.000000E+00  0.000000E+00  0.185642E+06
  0.658050E+00  0.178595E+06  0.177730E+06  0.000000E+00  0.000000E+00  0.000000E+00  0.178454E+06
  0.674708E+00  0.171650E+06  0.170819E+06  0.000000E+00  0.000000E+00  0.000000E+00  0.171514E+06
  0.691789E+00  0.164956E+06  0.164157E+06  0.000000E+00  0.000000E+00  0.000000E+00  0.164825E+06
  0.709301E+00  0.158520E+06  0.157752E+06  0.000000E+00  0.000000E+00  0.000000E+00  0.158394E+06
  0.727258E+00  0.152325E+06  0.151587E+06  0.000000E+00  0.000000E+00  0.000000E+00  0.152204E+06
  0.745668E+00  0.146356E+06  0.145647E+06  0.000000E+00  0.000000E+00  0.000000E+00  0.146240E+06
  0.764544E+00  0.140610E+06  0.139929E+06  0.000000E+00  0.000000E+00  0.000000E+00  0.140499E+06
  0.783899E+00  0.135082E+06  0.134428E+06  0.000000E+00  0.000000E+00  0.000000E+00  0.134975E+06
  0.803743E+00  0.129760E+06  0.129132E+06  0.000000E+00  0.000000E+00  0.000000E+00  0.129657E+06
  0.824091E+00  0.124637E+06  0.124034E+06  0.000000E+00  0.000000E+00  0.000000E+00  0.124539E+06
  0.844952E+00  0.119709E+06  0.119129E+06  0.000000E+00  0.000000E+00  0.000000E+00  0.119614E+06
  0.866342E+00  0.114968E+06  0.114411E+06  0.000000E+00  0.000000E+00  0.000000E+00  0.114876E+06
  0.888274E+00  0.110405E+06  0.109871E+06  0.000000E+00  0.000000E+00  0.000000E+00  0.110318E+06
  0.910761E+00  0.106017E+06  0.105503E+06  0.000000E+00  0.000000E+00  0.000000E+00  0.105933E+06
  0.933817E+00  0.101796E+06  0.101303E+06  0.000000E+00  0.000000E+00  0.000000E+00  0.101715E+06
  0.957457E+00  0.977363E+05  0.972632E+05  0.000000E+00  0.000000E+00  0.000000E+00  0.976589E+05
  0.981694E+00  0.938324E+05  0.933782E+05  0.000000E+00  0.000000E+00  0.000000E+00  0.937581E+05
  0.100655E+01  0.900783E+05  0.896423E+05  0.000000E+00  0.000000E+00  0.000000E+00  0.900069E+05
  0.103203E+01  0.864687E+05  0.860501E+05  0.000000E+00  0.000000E+00  0.000000E+00  0.864001E+05
  0.105815E+01  0.829978E+05  0.825961E+05  0.000000E+00  0.000000E+00  0.000000E+00  0.829321E+05
  0.108494E+01  0.796612E+05  0.792756E+05  0.000000E+00  0.000000E+00  0.000000E+00  0.795981E+05
  0.111241E+01  0.764537E+05  0.760836E+05  0.000000E+00  0.000000E+00  0.000000E+00  0.763931E+05
  0.114057E+01  0.733706E+05  0.730154E+05  0.000000E+00  0.000000E+00  0.000000E+00  0.733124E+05
  0.116944E+01  0.704075E+05  0.700667E+05  0.000000E+00  0.000000E+00  0.000000E+00  0.703517E+05
  0.119905E+01  0.675600E+05  0.672330E+05  0.000000E+00  0.000000E+00  0.000000E+00  0.675064E+05
  0.122940E+01  0.648237E+05  0.645100E+05  0.000000E+00  0.000000E+00  0.000000E+00  0.647723E+05
  0.126052E+01  0.621944E+05  0.618934E+05  0.000000E+00  0.000000E+00  0.000000E+00  0.621451E+05
  0.129243E+01  0.596680E+05  0.593792E+05  0.000000E+00  0.000000E+00  0.000000E+00  0.596207E+05
  0.132515E+01  0.572407E+05  0.569637E+05  0.000000E+00  0.000000E+00  0.000000E+00  0.571954E+05
  0.135870E+01  0.549089E+05  0.546432E+05  0.000000E+00  0.000000E+00  0.000000E+00  0.548654E+05
  0.139309E+01  0.526692E+05  0.524143E+05  0.000000E+00  0.000000E+00  0.000000E+00  0.526275E+05
  0.142836E+01  0.505179E+05  0.502735E+05  0.000000E+00  0.000000E+00  0.000000E+00  0.504779E+05
  0.146452E+01  0.484519E+05  0.482174E+05  0.000000E+00  0.000000E+00  0.000000E+00  0.484135E+05
  0.150159E+01  0.464677E+05  0.462428E+05  0.000000E+00  0.000000E+00  0.000000E+00  0.464309E+05
  0.153960E+01  0.445621E+05  0.443465E+05  0.000000E+00  0.000000E+00  0.000000E+00  0.445269E+05
  0.157858E+01  0.427325E+05  0.425257E+05  0.000000E+00  0.000000E+00  0.000000E+00  0.426986E+05
  0.161854E+01  0.409757E+05  0.407774E+05  0.000000E+00  0.000000E+00  0.000000E+00  0.409432E+05
  0.165951E+01  0.392890E+05  0.390989E+05  0.000000E+00  0.000000E+00  0.000000E+00  0.392579E+05
  0.170152E+01  0.376699E+05  0.374876E+05  0.000000E+00  0.000000E+00  0.000000E+00  0.376401E+05
  0.174460E+01  0.361155E+05  0.359408E+05  0.000000E+00  0.000000E+00  0.000000E+00  0.360869E+05
  0.178876E+01  0.346235E+05  0.344559E+05  0.000000E+00  0.000000E+00  0.000000E+00  0.345960E+05
  0.183405E+01  0.331913E+05  0.330307E+05  0.000000E+00  0.000000E+00  0.000000E+00  0.331650E+05
  0.188048E+01  0.318168E+05  0.316628E+05  0.000000E+00  0.000000E+00  0.000000E+00  0.317916E+05
  0.192808E+01  0.304977E+05  0.303501E+05  0.000000E+00  0.000000E+00  0.000000E+00  0.304735E+05
  0.197689E+01  0.292318E+05  0.290903E+05  0.000000E+00  0.000000E+00  0.000000E+00  0.292086E+05
  0.202694E+01  0.280170E+05  0.278815E+05  0.000000E+00  0.000000E+00  0.000000E+00  0.279948E+05
  0.207825E+01  0.268515E+05  0.267215E+05  0.000000E+00  0.000000E+00  0.000000E+00  0.268302E+05
  0.213086E+01  0.257331E+05  0.256086E+05  0.000000E+00  0.000000E+00  0.000000E+00  0.257128E+05
  0.218480E+01  0.246603E+05  0.245409E+05  0.000000E+00  0.000000E+00  0.000000E+00  0.246407E+05
  0.224011E+01  0.236310E+05  0.235166E+05  0.000000E+00  0.000000E+00  0.000000E+00  0.236122E+05
  0.229682E+01  0.226436E+05  0.225340E+05  0.000000E+00  0.000000E+00  0.000000E+00  0.226257E+05
  0.235496E+01  0.216965E+05  0.215915E+05  0.000000E+00  0.000000E+00  0.000000E+00  0.216793E+05
  0.241458E+01  0.207881E+05  0.206875E+05  0.000000E+00  0.000000E+00  0.000000E+00  0.207716E+05
  0.247570E+01  0.199168E+05  0.198204E+05  0.000000E+00  0.000000E+00  0.000000E+00  0.199010E+05
  0.253838E+01  0.190811E+05  0.189888E+05  0.000000E+00  0.000000E+00  0.000000E+00  0.190660E+05
  0.260264E+01  0.182798E+05  0.181913E+05  0.000000E+00  0.000000E+00  0.000000E+00  0.182653E+05
  0.266852E+01  0.175113E+05  0.174265E+05  0.000000E+00  0.000000E+00  0.000000E+00  0.174974E+05
  0.273608E+01  0.167743E+05  0.166932E+05  0.000000E+00  0.000000E+00  0.000000E+00  0.167611E+05
  0.280534E+01  0.160677E+05  0.159900E+05  0.000000E+00  0.000000E+00  0.000000E+00  0.160550E+05
  0.287636E+01  0.153902E+05  0.153157E+05  0.000000E+00  0.000000E+00  0.000000E+00  0.153780E+05
  0.294917E+01  0.147407E+05  0.146694E+05  0.000000E+00  0.000000E+00  0.000000E+00  0.147290E+05
  0.302383E+01  0.141180E+05  0.140497E+05  0.000000E+00  0.000000E+00  0.000000E+00  0.141068E+05
  0.310038E+01  0.135210E+05  0.134556E+05  0.000000E+00  0.000000E+00  0.000000E+00  0.135103E+05
  0.317887E+01  0.129488E+05  0.128861E+05  0.000000E+00  0.000000E+00  0.000000E+00  0.129386E+05
  0.325934E+01  0.124003E+05  0.123403E+05  0.000000E+00  0.000000E+00  0.000000E+00  0.123905E+05
  0.334185E+01  0.118746E+05  0.118171E+05  0.000000E+00  0.000000E+00  0.000000E+00  0.118652E+05
  0.342645E+01  0.113707E+05  0.113156E+05  0.000000E+00  0.000000E+00  0.000000E+00  0.113617E+05
  0.351319E+01  0.108877E+05  0.108350E+05  0.000000E+00  0.000000E+00  0.000000E+00  0.108791E+05
  0.360213E+01  0.104249E+05  0.103744E+05  0.000000E+00  0.000000E+00  0.000000E+00  0.104166E+05
  0.369332E+01  0.998130E+04  0.993297E+04  0.000000E+00  0.000000E+00  0.000000E+00  0.997339E+04
  0.378681E+01  0.955626E+04  0.950999E+04  0.000000E+00  0.000000E+00  0.000000E+00  0.954869E+04
  0.388268E+01  0.914898E+04  0.910468E+04  0.000000E+00  0.000000E+00  0.000000E+00  0.914173E+04
  0.398097E+01  0.875872E+04  0.871631E+04  0.000000E+00  0.000000E+00  0.000000E+00  0.875178E+04
  0.408175E+01  0.838482E+04  0.834421E+04  0.000000E+00  0.000000E+00  0.000000E+00  0.837817E+04
  0.418508E+01  0.802658E+04  0.798770E+04  0.000000E+00  0.000000E+00  0.000000E+00  0.802021E+04
  0.429102E+01  0.768338E+04  0.764616E+04  0.000000E+00  0.000000E+00  0.000000E+00  0.767729E+04
  0.439965E+01  0.735460E+04  0.731897E+04  0.000000E+00  0.000000E+00  0.000000E+00  0.734876E+04
  0.451103E+01  0.703962E+04  0.700551E+04  0.000000E+00  0.000000E+00  0.000000E+00  0.703404E+04
  0.462522E+01  0.673790E+04  0.670526E+04  0.000000E+00  0.000000E+00  0.000000E+00  0.673256E+04
  0.474232E+01  0.644888E+04  0.641763E+04  0.000000E+00  0.000000E+00  0.000000E+00  0.644377E+04
  0.486237E+01  0.617206E+04  0.614215E+04  0.000000E+00  0.000000E+00  0.000000E+00  0.616716E+04
  0.498546E+01  0.590691E+04  0.587828E+04  0.000000E+00  0.000000E+00  0.000000E+00  0.590223E+04
  0.511167E+01  0.565296E+04  0.562556E+04  0.000000E+00  0.000000E+00  0.000000E+00  0.564848E+04
  0.524107E+01  0.540976E+04  0.538354E+04  0.000000E+00  0.000000E+00  0.000000E+00  0.540547E+04
  0.537375E+01  0.517685E+04  0.515175E+04  0.000000E+00  0.000000E+00  0.000000E+00  0.517274E+04
  0.550978E+01  0.495381E+04  0.492979E+04  0.000000E+00  0.000000E+00  0.000000E+00  0.494988E+04
  0.564926E+01  0.474022E+04  0.471723E+04  0.000000E+00  0.000000E+00  0.000000E+00  0.473646E+04
  0.579228E+01  0.453569E+04  0.451369E+04  0.000000E+00  0.000000E+00  0.000000E+00  0.453209E+04
  0.593891E+01  0.433986E+04  0.431880E+04  0.000000E+00  0.000000E+00  0.000000E+00  0.433641E+04
  0.608925E+01  0.415233E+04  0.413218E+04  0.000000E+00  0.000000E+00  0.000000E+00  0.414904E+04
  0.624340E+01  0.397280E+04  0.395352E+04  0.000000E+00  0.000000E+00  0.000000E+00  0.396964E+04
  0.640145E+01  0.380091E+04  0.378246E+04  0.000000E+00  0.000000E+00  0.000000E+00  0.379789E+04
  0.656351E+01  0.363634E+04  0.361869E+04  0.000000E+00  0.000000E+00  0.000000E+00  0.363345E+04
  0.672966E+01  0.347881E+04  0.346191E+04  0.000000E+00  0.000000E+00  0.000000E+00  0.347604E+04
  0.690003E+01  0.332799E+04  0.331182E+04  0.000000E+00  0.000000E+00  0.000000E+00  0.332534E+04
  0.707470E+01  0.318362E+04  0.316815E+04  0.000000E+00  0.000000E+00  0.000000E+00  0.318108E+04
  0.725379E+01  0.304542E+04  0.303062E+04  0.000000E+00  0.000000E+00  0.000000E+00  0.304299E+04
  0.743743E+01  0.291313E+04  0.289896E+04  0.000000E+00  0.000000E+00  0.000000E+00  0.291081E+04
  0.762571E+01  0.278651E+04  0.277295E+04  0.000000E+00  0.000000E+00  0.000000E+00  0.278429E+04
  0.781876E+01  0.266531E+04  0.265234E+04  0.000000E+00  0.000000E+00  0.000000E+00  0.266319E+04
  0.801669E+01  0.254932E+04  0.253691E+04  0.000000E+00  0.000000E+00  0.000000E+00  0.254729E+04
  0.821963E+01  0.243830E+04  0.242643E+04  0.000000E+00  0.000000E+00  0.000000E+00  0.243636E+04
  0.842771E+01  0.233206E+04  0.232070E+04  0.000000E+00  0.000000E+00  0.000000E+00  0.233020E+04
  0.864106E+01  0.223038E+04  0.221952E+04  0.000000E+00  0.000000E+00  0.000000E+00  0.222860E+04
  0.885981E+01  0.213308E+04  0.212268E+04  0.000000E+00  0.000000E+00  0.000000E+00  0.213137E+04
  0.908410E+01  0.203996E+04  0.203002E+04  0.000000E+00  0.000000E+00  0.000000E+00  0.203833E+04
  0.931406E+01  0.195086E+04  0.194134E+04  0.000000E+00  0.000000E+00  0.000000E+00  0.194930E+04
  0.954985E+01  0.186560E+04  0.185649E+04  0.000000E+00  0.000000E+00  0.000000E+00  0.186411E+04
  0.979160E+01  0.178402E+04  0.177531E+04  0.000000E+00  0.000000E+00  0.000000E+00  0.178260E+04
  0.100395E+02  0.170596E+04  0.169763E+04  0.000000E+00  0.000000E+00  0.000000E+00  0.170460E+04
  0.102936E+02  0.163128E+04  0.162331E+04  0.000000E+00  0.000000E+00  0.000000E+00  0.162997E+04
  0.105542E+02  0.155982E+04  0.155220E+04  0.000000E+00  0.000000E+00  0.000000E+00  0.155858E+04
  0.108214E+02  0.149146E+04  0.148416E+04  0.000000E+00  0.000000E+00  0.000000E+00  0.149026E+04
  0.110953E+02  0.142605E+04  0.141907E+04  0.000000E+00  0.000000E+00  0.000000E+00  0.142491E+04
  0.113762E+02  0.136348E+04  0.135680E+04  0.000000E+00  0.000000E+00  0.000000E+00  0.136239E+04
  0.116642E+02  0.130363E+04  0.129724E+04  0.000000E+00  0.000000E+00  0.000000E+00  0.130258E+04
  0.119595E+02  0.124637E+04  0.124025E+04  0.000000E+00  0.000000E+00  0.000000E+00  0.124537E+04
  0.122622E+02  0.119159E+04  0.118574E+04  0.000000E+00  0.000000E+00  0.000000E+00  0.119063E+04
  0.125727E+02  0.113920E+04  0.113360E+04  0.000000E+00  0.000000E+00  0.000000E+00  0.113828E+04
  0.128910E+02  0.108908E+04  0.108372E+04  0.000000E+00  0.000000E+00  0.000000E+00  0.108820E+04
  0.132173E+02  0.104114E+04  0.103602E+04  0.000000E+00  0.000000E+00  0.000000E+00  0.104030E+04
  0.135519E+02  0.995293E+03  0.990389E+03  0.000000E+00  0.000000E+00  0.000000E+00  0.994490E+03
  0.138949E+02  0.951438E+03  0.946745E+03  0.000000E+00  0.000000E+00  0.000000E+00  0.950670E+03
  0.142467E+02  0.909495E+03  0.905004E+03  0.000000E+00  0.000000E+00  0.000000E+00  0.908760E+03
  0.146074E+02  0.869379E+03  0.865082E+03  0.000000E+00  0.000000E+00  0.000000E+00  0.868676E+03
  0.149771E+02  0.831016E+03  0.826903E+03  0.000000E+00  0.000000E+00  0.000000E+00  0.830343E+03
  0.153563E+02  0.794328E+03  0.790392E+03  0.000000E+00  0.000000E+00  0.000000E+00  0.793683E+03
  0.157450E+02  0.759240E+03  0.755474E+03  0.000000E+00  0.000000E+00  0.000000E+00  0.758624E+03
  0.161436E+02  0.725687E+03  0.722083E+03  0.000000E+00  0.000000E+00  0.000000E+00  0.725097E+03
  0.165523E+02  0.693600E+03  0.690150E+03  0.000000E+00  0.000000E+00  0.000000E+00  0.693036E+03
  0.169713E+02  0.662919E+03  0.659616E+03  0.000000E+00  0.000000E+00  0.000000E+00  0.662378E+03
  0.174009E+02  0.633581E+03  0.630419E+03  0.000000E+00  0.000000E+00  0.000000E+00  0.633063E+03
  0.178415E+02  0.605527E+03  0.602501E+03  0.000000E+00  0.000000E+00  0.000000E+00  0.605032E+03
  0.182931E+02  0.578703E+03  0.575806E+03  0.000000E+00  0.000000E+00  0.000000E+00  0.578229E+03
  0.187562E+02  0.553055E+03  0.550281E+03  0.000000E+00  0.000000E+00  0.000000E+00  0.552601E+03
  0.192310E+02  0.528533E+03  0.525877E+03  0.000000E+00  0.000000E+00  0.000000E+00  0.528098E+03
  0.197179E+02  0.505088E+03  0.502545E+03  0.000000E+00  0.000000E+00  0.000000E+00  0.504671E+03
  0.202170E+02  0.482671E+03  0.480237E+03  0.000000E+00  0.000000E+00  0.000000E+00  0.482273E+03
  0.207288E+02  0.461241E+03  0.458909E+03  0.000000E+00  0.000000E+00  0.000000E+00  0.460859E+03
  0.212536E+02  0.440752E+03  0.438519E+03  0.000000E+00  0.000000E+00  0.000000E+00  0.440386E+03
  0.217916E+02  0.421165E+03  0.419026E+03  0.000000E+00  0.000000E+00  0.000000E+00  0.420815E+03
  0.223433E+02  0.402440E+03  0.400391E+03  0.000000E+00  0.000000E+00  0.000000E+00  0.402105E+03
  0.229089E+02  0.384539E+03  0.382577E+03  0.000000E+00  0.000000E+00  0.000000E+00  0.384218E+03
  0.234888E+02  0.367428E+03  0.365547E+03  0.000000E+00  0.000000E+00  0.000000E+00  0.367120E+03
  0.240835E+02  0.351070E+03  0.349268E+03  0.000000E+00  0.000000E+00  0.000000E+00  0.350775E+03
  0.246931E+02  0.335435E+03  0.333708E+03  0.000000E+00  0.000000E+00  0.000000E+00  0.335152E+03
  0.253182E+02  0.320489E+03  0.318834E+03  0.000000E+00  0.000000E+00  0.000000E+00  0.320218E+03
  0.259592E+02  0.306202E+03  0.304616E+03  0.000000E+00  0.000000E+00  0.000000E+00  0.305943E+03
  0.266163E+02  0.292547E+03  0.291026E+03  0.000000E+00  0.000000E+00  0.000000E+00  0.292298E+03
  0.272901E+02  0.279495E+03  0.278037E+03  0.000000E+00  0.000000E+00  0.000000E+00  0.279257E+03
  0.279810E+02  0.267021E+03  0.265622E+03  0.000000E+00  0.000000E+00  0.000000E+00  0.266792E+03
  0.286893E+02  0.255098E+03  0.253757E+03  0.000000E+00  0.000000E+00  0.000000E+00  0.254879E+03
  0.294156E+02  0.243702E+03  0.242415E+03  0.000000E+00  0.000000E+00  0.000000E+00  0.243492E+03
  0.301603E+02  0.232812E+03  0.231577E+03  0.000000E+00  0.000000E+00  0.000000E+00  0.232610E+03
  0.309238E+02  0.222403E+03  0.221218E+03  0.000000E+00  0.000000E+00  0.000000E+00  0.222209E+03
  0.317066E+02  0.212456E+03  0.211319E+03  0.000000E+00  0.000000E+00  0.000000E+00  0.212270E+03
  0.325093E+02  0.202950E+03  0.201858E+03  0.000000E+00  0.000000E+00  0.000000E+00  0.202771E+03
  0.333322E+02  0.193865E+03  0.192817E+03  0.000000E+00  0.000000E+00  0.000000E+00  0.193694E+03
  0.341760E+02  0.185184E+03  0.184177E+03  0.000000E+00  0.000000E+00  0.000000E+00  0.185019E+03
  0.350412E+02  0.176887E+03  0.175920E+03  0.000000E+00  0.000000E+00  0.000000E+00  0.176729E+03
  0.359283E+02  0.168960E+03  0.168030E+03  0.000000E+00  0.000000E+00  0.000000E+00  0.168808E+03
  0.368378E+02  0.161385E+03  0.160491E+03  0.000000E+00  0.000000E+00  0.000000E+00  0.161238E+03
  0.377704E+02  0.154145E+03  0.153287E+03  0.000000E+00  0.000000E+00  0.000000E+00  0.154005E+03
  0.387265E+02  0.147229E+03  0.146403E+03  0.000000E+00  0.000000E+00  0.000000E+00  0.147093E+03
  0.397069E+02  0.140619E+03  0.139825E+03  0.000000E+00  0.000000E+00  0.000000E+00  0.140489E+03
  0.407121E+02  0.134304E+03  0.133540E+03  0.000000E+00  0.000000E+00  0.000000E+00  0.134179E+03
  0.417427E+02  0.128270E+03  0.127535E+03  0.000000E+00  0.000000E+00  0.000000E+00  0.128150E+03
  0.427994E+02  0.122505E+03  0.121797E+03  0.000000E+00  0.000000E+00  0.000000E+00  0.122389E+03
  0.438829E+02  0.116997E+03  0.116315E+03  0.000000E+00  0.000000E+00  0.000000E+00  0.116885E+03
  0.449938E+02  0.111734E+03  0.111077E+03  0.000000E+00  0.000000E+00  0.000000E+00  0.111626E+03
  0.461328E+02  0.106706E+03  0.106072E+03  0.000000E+00  0.000000E+00  0.000000E+00  0.106602E+03
  0.473007E+02  0.101902E+03  0.101292E+03  0.000000E+00  0.000000E+00  0.000000E+00  0.101802E+03
  0.484981E+02  0.973127E+02  0.967238E+02  0.000000E+00  0.000000E+00  0.000000E+00  0.972163E+02
  0.497259E+02  0.929279E+02  0.923598E+02  0.000000E+00  0.000000E+00  0.000000E+00  0.928349E+02
  0.509847E+02  0.887392E+02  0.881909E+02  0.000000E+00  0.000000E+00  0.000000E+00  0.886495E+02
  0.522754E+02  0.847377E+02  0.842083E+02  0.000000E+00  0.000000E+00  0.000000E+00  0.846510E+02
  0.535987E+02  0.809150E+02  0.804036E+02  0.000000E+00  0.000000E+00  0.000000E+00  0.808313E+02
  0.549555E+02  0.772633E+02  0.767691E+02  0.000000E+00  0.000000E+00  0.000000E+00  0.771824E+02
  0.563468E+02  0.737745E+02  0.732968E+02  0.000000E+00  0.000000E+00  0.000000E+00  0.736963E+02
  0.577732E+02  0.704422E+02  0.699802E+02  0.000000E+00  0.000000E+00  0.000000E+00  0.703666E+02
  0.592357E+02  0.672590E+02  0.668119E+02  0.000000E+00  0.000000E+00  0.000000E+00  0.671859E+02
  0.607353E+02  0.642184E+02  0.637855E+02  0.000000E+00  0.000000E+00  0.000000E+00  0.641475E+02
  0.622728E+02  0.613139E+02  0.608947E+02  0.000000E+00  0.000000E+00  0.000000E+00  0.612453E+02
  0.638493E+02  0.585394E+02  0.581331E+02  0.000000E+00  0.000000E+00  0.000000E+00  0.584729E+02
  0.654656E+02  0.558894E+02  0.554955E+02  0.000000E+00  0.000000E+00  0.000000E+00  0.558250E+02
  0.671229E+02  0.533583E+02  0.529762E+02  0.000000E+00  0.000000E+00  0.000000E+00  0.532958E+02
  0.688221E+02  0.509407E+02  0.505699E+02  0.000000E+00  0.000000E+00  0.000000E+00  0.508800E+02
  0.705643E+02  0.486316E+02  0.482715E+02  0.000000E+00  0.000000E+00  0.000000E+00  0.485726E+02
  0.723508E+02  0.464259E+02  0.460761E+02  0.000000E+00  0.000000E+00  0.000000E+00  0.463687E+02
  0.741823E+02  0.443195E+02  0.439794E+02  0.000000E+00  0.000000E+00  0.000000E+00  0.442638E+02
  0.760602E+02  0.423076E+02  0.419769E+02  0.000000E+00  0.000000E+00  0.000000E+00  0.422535E+02
  0.779856E+02  0.403862E+02  0.400643E+02  0.000000E+00  0.000000E+00  0.000000E+00  0.403335E+02
  0.799598E+02  0.385511E+02  0.382377E+02  0.000000E+00  0.000000E+00  0.000000E+00  0.384998E+02
  0.819841E+02  0.367984E+02  0.364930E+02  0.000000E+00  0.000000E+00  0.000000E+00  0.367484E+02
  0.840595E+02  0.351246E+02  0.348270E+02  0.000000E+00  0.000000E+00  0.000000E+00  0.350759E+02
  0.861875E+02  0.335261E+02  0.332359E+02  0.000000E+00  0.000000E+00  0.000000E+00  0.334786E+02
  0.883693E+02  0.319996E+02  0.317163E+02  0.000000E+00  0.000000E+00  0.000000E+00  0.319532E+02
  0.906063E+02  0.305418E+02  0.302652E+02  0.000000E+00  0.000000E+00  0.000000E+00  0.304965E+02
  0.929002E+02  0.291495E+02  0.288793E+02  0.000000E+00  0.000000E+00  0.000000E+00  0.291052E+02
  0.952520E+02  0.278200E+02  0.275559E+02  0.000000E+00  0.000000E+00  0.000000E+00  0.277768E+02
  0.976632E+02  0.265505E+02  0.262921E+02  0.000000E+00  0.000000E+00  0.000000E+00  0.265082E+02
  0.100136E+03  0.253381E+02  0.250853E+02  0.000000E+00  0.000000E+00  0.000000E+00  0.252968E+02
