0.480223
200
1.0655e+09
8589934592
0.0129181 0 1.58924e-09 0 0 0 0 0.00677225 0 13.6515
0.0136515 0 1.87554e-09 0 0 0 0 0.00688819 0 16.1108
0.0144264 0 2.21343e-09 0 0 0 0 0.00699249 0 19.0132
0.0152454 0 2.61218e-09 0 0 0 0 0.00708412 0 22.4385
0.0161108 0 3.08278e-09 0 0 0 0 0.00716212 0 26.4808
0.0170254 0 3.63815e-09 0 0 0 0 0.00722559 0 31.2514
0.0179919 0 4.29357e-09 0 0 0 0 0.00727371 0 36.8815
0.0190132 0 5.06707e-09 0 0 0 0 0.00730578 0 43.5258
0.0200925 0 5.97991e-09 0 0 0 0 0.00732122 0 51.367
0.0212331 0 7.05721e-09 0 0 0 0 0.00731958 0 60.621
0.0224385 0 8.32858e-09 0 0 0 0 0.00730056 0 71.542
0.0237123 0 9.829e-09 0 0 0 0 0.00726401 0 84.4305
0.0250583 0 1.15997e-08 0 0 0 0 0.00720995 0 99.6408
0.0264808 0 1.36894e-08 0 0 0 0 0.00713857 0 117.591
0.0279841 0 1.61556e-08 0 0 0 0 0.00705021 0 138.776
0.0295727 0 1.90661e-08 0 0 0 0 0.00694538 0 163.777
0.0312514 0 2.25009e-08 0 0 0 0 0.00682475 0 193.281
0.0330255 0 2.65545e-08 0 0 0 0 0.00668915 0 228.102
0.0349003 0 3.13384e-08 0 0 0 0 0.00653951 0 269.195
0.0368815 0 3.69841e-08 0 0 0 0 0.00637693 0 317.691
0.0389751 0 4.36469e-08 0 0 0 0 0.00620256 0 374.924
0.0411876 0 5.151e-08 0 0 0 0 0.00601767 0 442.467
0.0435258 0 6.07896e-08 0 0 0 0 0.00582358 0 522.179
0.0459966 0 7.1741e-08 0 0 0 0 0.00562166 0 616.251
0.0486077 0 8.46654e-08 0 0 0 0 0.0054133 0 727.27
0.051367 0 9.99181e-08 0 0 0 0 0.00519989 0 858.29
0.054283 0 1.17919e-07 0 0 0 0 0.0049828 0 1012.91
0.0573645 0 1.39162e-07 0 0 0 0 0.00476339 0 1195.39
0.060621 0 1.64232e-07 0 0 0 0 0.00454293 0 1410.75
0.0640622 0 1.93819e-07 0 0 0 0 0.00432265 0 1664.89
0.0676989 0 2.28736e-07 0 0 0 0 0.00410371 0 1964.83
0.071542 0 2.69944e-07 0 0 0 0 0.00388717 0 2318.8
0.0756032 0 3.18575e-07 0 0 0 0 0.00367401 0 2736.54
0.079895 0 3.75967e-07 0 0 0 0 0.0034651 0 3229.53
0.0844305 0 4.43698e-07 0 0 0 0 0.00326121 0 3811.34
0.0892234 0 5.23632e-07 0 0 0 0 0.00306301 0 4497.96
0.0942883 0 6.17966e-07 0 0 0 0 0.00287109 0 5308.28
0.0996408 0 7.29294e-07 0 0 0 0 0.00268591 0 6264.59
0.105297 0 8.60678e-07 0 0 0 0 0.00250785 0 7393.17
0.111275 0 1.01573e-06 0 0 0 0 0.00233721 0 8725.07
0.117591 0 1.19872e-06 0 0 0 0 0.00217419 0 10296.9
0.124267 0 1.41467e-06 0 0 0 0 0.00201893 0 12151.9
0.131321 0 1.66953e-06 0 0 0 0 0.00187147 0 14341.1
0.138776 0 1.9703e-06 0 0 0 0 0.00173182 0 16924.7
0.146654 0 2.32525e-06 0 0 0 0 0.00159991 0 19973.8
0.154979 0 2.74415e-06 0 0 0 0 0.00147563 0 23572.1
0.163777 0 3.23852e-06 0 0 0 0 0.00135884 0 27818.7
0.173074 0 3.82195e-06 0 0 0 0 0.00124933 0 32830.3
0.182899 0 4.51048e-06 0 0 0 0 0.00114689 0 38744.7
0.193281 0 5.32305e-06 0 0 0 0 0.00105127 0 45724.7
0.204254 0 6.28202e-06 0 0 0 0 0.000962209 0 53962.1
0.215848 0 7.41374e-06 0 0 0 0 0.000879423 0 63683.5
0.228102 0 8.74934e-06 0 0 0 0 0.000802624 0 75156.3
0.24105 0 1.03256e-05 0 0 0 0 0.000731515 0 88695.9
0.254734 0 1.21857e-05 0 0 0 0 0.000665798 0 104675
0.269195 0 1.4381e-05 0 0 0 0 0.000605173 0 123532
0.284476 0 1.69718e-05 0 0 0 0 0.000549345 0 145787
0.300625 0 2.00293e-05 0 0 0 0 0.000498021 0 172051
0.317691 0 2.36377e-05 0 0 0 0 0.000450916 0 203046
0.335725 0 2.78961e-05 0 0 0 0 0.000407755 0 239625
0.354784 0 3.29216e-05 0 0 0 0 0.000368269 0 282795
0.374924 0 3.88525e-05 0 0 0 0 0.000332202 0 333741
0.396207 1.80125 4.58519e-05 4.57327e-06 6 1.75117 4.44613e-06 0.000299307 0.0916773 393865
0.418699 0 5.41123e-05 0 0 0 0 0.00026935 0 464821
0.442467 0 6.38607e-05 0 0 0 0 0.000242108 0 548560
0.467585 0 7.53654e-05 0 0 0 0 0.00021737 0 647384
0.494129 0 8.89427e-05 0 0 0 0 0.000194938 0 764012
0.522179 0 0.000104966 0 0 0 0 0.000174625 0 901651
0.551822 0 0.000123876 0 0 0 0 0.000156255 0 1.06409e+06
0.583147 6.2523 0.000146192 4.97881e-06 12 6.58058 5.24022e-06 0.000139664 0.427781 1.25578e+06
0.616251 0 0.000172529 0 0 0 0 0.0001247 0 1.48202e+06
0.651234 0 0.000203611 0 0 0 0 0.00011122 0 1.74901e+06
0.688203 18.6105 0.000240292 9.01629e-06 8 18.1475 8.79198e-06 9.90935e-05 0.727902 2.06409e+06
0.72727 0 0.000283581 0 0 0 0 8.81969e-05 0 2.43595e+06
0.768555 0 0.000334669 0 0 0 0 7.84179e-05 0 2.87479e+06
0.812184 3.50868 0.000394961 1.03419e-06 6 3.5837 1.0563e-06 6.96525e-05 0.0890871 3.39269e+06
0.85829 0 0.000466114 0 0 0 0 6.1805e-05 0 4.00389e+06
0.907013 0.831096 0.000550086 1.75886e-07 24 0.847043 1.79261e-07 5.47875e-05 0.0770479 4.7252e+06
0.958501 2.29464 0.000649185 4.11488e-07 24 2.16024 3.87385e-07 4.85194e-05 0.203541 5.57646e+06
1.01291 0 0.000766138 0 0 0 0 4.29272e-05 0 6.58107e+06
1.07041 0 0.00090416 0 0 0 0 3.79435e-05 0 7.76667e+06
1.13118 5.58315 0.00106705 6.09124e-07 12 5.51457 6.01642e-07 3.3507e-05 0.218148 9.16586e+06
1.19539 2.18537 0.00125928 2.02029e-07 30 2.14032 1.97864e-07 2.9562e-05 0.205022 1.08171e+07
1.26325 9.73361 0.00148614 7.62473e-07 24 9.58715 7.51e-07 2.60578e-05 0.70226 1.27658e+07
1.33496 14.1214 0.00175387 9.37327e-07 24 14.1525 9.39387e-07 2.29484e-05 0.980277 1.50656e+07
1.41075 14.2188 0.00206984 7.99718e-07 32 14.4564 8.13081e-07 2.01923e-05 1.26736 1.77798e+07
1.49083 3.02066 0.00244272 1.43959e-07 48 2.95627 1.4089e-07 1.77518e-05 0.389259 2.09828e+07
1.57546 5.70407 0.00288279 2.30347e-07 6 5.43156 2.19342e-07 1.55929e-05 0.0886355 2.4763e+07
1.66489 3.91375 0.00340213 1.33922e-07 84 3.8419 1.31464e-07 1.3685e-05 0.822027 2.92241e+07
1.75941 4.10211 0.00401503 1.1894e-07 48 4.07133 1.18048e-07 1.20007e-05 0.475733 3.44889e+07
1.85928 3.44683 0.00473835 8.46843e-08 72 3.4791 8.5477e-08 1.05151e-05 0.579859 4.07021e+07
1.96483 7.12161 0.00559198 1.4826e-07 54 6.98733 1.45464e-07 9.20606e-06 0.869648 4.80347e+07
2.07637 12.7406 0.00659939 2.24748e-07 104 12.7759 2.25371e-07 8.05366e-06 2.90226 5.66883e+07
2.19424 3.94218 0.00778828 5.89257e-08 120 3.99843 5.97664e-08 7.04008e-06 1.0044 6.69008e+07
2.3188 5.53029 0.00919136 7.00451e-08 156 5.35949 6.78818e-08 6.1494e-06 1.77693 7.89532e+07
2.45043 6.97025 0.0108472 7.48066e-08 126 6.92032 7.42708e-08 5.36741e-06 1.75609 9.31768e+07
2.58954 7.01355 0.0128014 6.3781e-08 192 7.09311 6.45045e-08 4.68145e-06 2.61585 1.09963e+08
2.73654 17.7169 0.0151076 1.36522e-07 152 18.1308 1.39711e-07 4.08023e-06 5.08582 1.29773e+08
2.89188 8.8205 0.0178292 5.75931e-08 378 8.86261 5.78681e-08 3.55373e-06 6.12601 1.53152e+08
3.05605 8.03204 0.0210412 4.44391e-08 264 7.89955 4.3706e-08 3.09304e-06 3.79301 1.80743e+08
3.22953 8.6137 0.0248319 4.03823e-08 366 8.57335 4.01931e-08 2.69025e-06 5.49388 2.13304e+08
3.41286 8.37701 0.0293054 3.32776e-08 428 8.26588 3.28361e-08 2.33837e-06 6.09091 2.51731e+08
3.6066 13.0213 0.0345848 4.38308e-08 486 12.8251 4.31705e-08 2.0312e-06 10.4873 2.97081e+08
3.81134 10.856 0.0408154 3.09639e-08 600 10.8175 3.08541e-08 1.76327e-06 10.5363 3.50601e+08
4.0277 12.6809 0.0481684 3.06478e-08 738 12.6101 3.04767e-08 1.52972e-06 14.7857 4.13763e+08
4.25634 14.2271 0.056846 2.91357e-08 824 14.2324 2.91466e-08 1.32631e-06 18.1013 4.88304e+08
4.49796 15.0941 0.067087 2.61927e-08 954 14.9622 2.59637e-08 1.14926e-06 21.7426 5.76273e+08
4.7533 16.1511 0.0791729 2.37485e-08 1094 16.0775 2.36403e-08 9.95263e-07 26.1045 6.8009e+08
5.02313 15.3409 0.0934361 1.91138e-08 1332 15.3563 1.91329e-08 8.61414e-07 29.5556 8.0261e+08
5.30828 20.0431 0.110269 2.11604e-08 1614 20.0655 2.11839e-08 7.45152e-07 45.8333 9.47202e+08
5.60962 20.2972 0.130134 1.81575e-08 1850 20.2183 1.80869e-08 6.44232e-07 52.1417 1.11784e+09
5.92807 20.0273 0.153578 1.51811e-08 2238 19.9721 1.51392e-08 5.56685e-07 61.0314 1.31923e+09
6.26459 20.3709 0.181246 1.30844e-08 2546 20.455 1.31384e-08 4.80786e-07 69.2881 1.55689e+09
6.62021 22.1783 0.213898 1.20707e-08 3264 22.1658 1.20639e-08 4.15026e-07 94.931 1.83737e+09
6.99602 25.1596 0.252432 1.1603e-08 3506 25.2067 1.16247e-08 3.58083e-07 113.605 2.16837e+09
7.39317 25.0519 0.297908 9.78968e-09 4506 25.0406 9.78527e-09 3.08803e-07 142.849 2.55901e+09
7.81286 28.1819 0.351577 9.33169e-09 5018 28.1097 9.30777e-09 2.66181e-07 175.919 3.02002e+09
8.25637 29.5566 0.414914 8.29289e-09 5852 29.5364 8.28722e-09 2.29336e-07 211.611 3.56409e+09
8.72507 30.5743 0.489662 7.26892e-09 7362 30.5331 7.25912e-09 1.97503e-07 270.952 4.20617e+09
9.22037 32.5231 0.577876 6.5519e-09 8306 32.4413 6.53542e-09 1.70014e-07 320.091 4.96392e+09
9.74378 34.7097 0.681982 5.92499e-09 9698 34.6778 5.91954e-09 1.46289e-07 392.788 5.85818e+09
10.2969 36.2598 0.804843 5.24475e-09 11816 36.2244 5.23962e-09 1.25822e-07 492.535 6.91355e+09
10.8814 40.595 0.949838 4.97546e-09 13682 40.5397 4.96868e-09 1.08175e-07 629.295 8.15905e+09
11.4992 41.3124 1.12095 4.29045e-09 16152 41.2814 4.28723e-09 9.29669e-08 745.419 9.62892e+09
12.1519 43.2153 1.3229 3.80296e-09 19472 43.1553 3.79768e-09 7.98658e-08 927.196 1.13636e+10
12.8418 45.6454 1.56122 3.40363e-09 22670 45.5384 3.39565e-09 6.85852e-08 1125.03 1.34108e+10
13.5708 48.8931 1.84248 3.08927e-09 26224 48.8293 3.08524e-09 5.88765e-08 1375.98 1.58268e+10
14.3411 51.2993 2.17441 2.74651e-09 31640 51.2362 2.74313e-09 5.05241e-08 1719.96 1.8678e+10
15.1552 54.2435 2.56613 2.46082e-09 37484 54.19 2.45839e-09 4.33417e-08 2128.23 2.20429e+10
16.0156 57.6397 3.02843 2.21572e-09 43856 57.5368 2.21176e-09 3.71677e-08 2614.43 2.6014e+10
16.9247 61.0576 3.574 1.98882e-09 51362 60.9805 1.9863e-09 3.18628e-08 3205.92 3.07005e+10
17.8855 63.0989 4.21787 1.74156e-09 61636 63.0045 1.73895e-09 2.73063e-08 3931.07 3.62312e+10
18.9008 66.8566 4.97773 1.56359e-09 72218 66.6945 1.5598e-09 2.33941e-08 4826.82 4.27584e+10
19.9738 71.1622 5.87448 1.41023e-09 84586 71.0397 1.4078e-09 2.00364e-08 5953.45 5.04614e+10
21.1076 74.3048 6.93279 1.24773e-09 100708 74.189 1.24578e-09 1.71555e-08 7324.52 5.95522e+10
22.3058 78.5087 8.18175 1.11707e-09 118712 78.3767 1.1152e-09 1.46847e-08 9030.52 7.02807e+10
23.5721 82.9531 9.65571 1.00013e-09 140410 82.7952 9.98231e-10 1.25662e-08 11175.2 8.29419e+10
24.9102 85.9806 11.3952 8.78391e-10 164374 85.8285 8.76838e-10 1.07504e-08 13430.7 9.78842e+10
26.3243 90.7196 13.4481 7.85327e-10 194680 90.5834 7.84148e-10 9.19452e-09 16628.1 1.15518e+11
27.8187 94.703 15.8708 6.94664e-10 230196 94.5683 6.93676e-10 7.86182e-09 20339.9 1.36329e+11
29.3979 99.6077 18.73 6.19107e-10 271156 99.4648 6.18219e-10 6.72061e-09 24979.1 1.60889e+11
31.0667 104.753 22.1042 5.51697e-10 321076 104.56 5.50683e-10 5.74366e-09 30840.4 1.89874e+11
32.8303 109.92 26.0864 4.9054e-10 377436 109.719 4.8964e-10 4.90756e-09 37726.9 2.2408e+11
34.694 115.152 30.7859 4.35441e-10 447594 114.95 4.34679e-10 4.19221e-09 46491.2 2.64449e+11
36.6634 121.029 36.3321 3.87803e-10 525078 120.798 3.87061e-10 3.58032e-09 56873.8 3.1209e+11
38.7447 127.855 42.8774 3.47137e-10 621924 127.618 3.46492e-10 3.05709e-09 70620.5 3.68314e+11
40.9442 134.136 50.6018 3.08595e-10 732630 133.88 3.08006e-10 2.60976e-09 86630.9 4.34667e+11
43.2685 141.513 59.7179 2.75869e-10 865596 141.262 2.7538e-10 2.22743e-09 107205 5.12973e+11
45.7247 148.767 70.4762 2.45739e-10 1.02168e+06 148.496 2.45291e-10 1.90073e-09 132089 6.05386e+11
48.3204 157.276 83.1727 2.20136e-10 1.20544e+06 156.98 2.19721e-10 1.62163e-09 163638 7.14448e+11
51.0634 166.515 98.1565 1.9749e-10 1.42103e+06 166.216 1.97134e-10 1.38326e-09 202883 8.43158e+11
53.9621 176.176 115.84 1.77052e-10 1.67997e+06 175.854 1.76728e-10 1.1797e-09 252132 9.95055e+11
57.0254 188.026 136.709 1.60115e-10 1.98018e+06 187.657 1.59801e-10 1.00592e-09 315191 1.17432e+12
60.2626 200.864 161.337 1.44937e-10 2.33957e+06 200.467 1.4465e-10 8.57591e-10 395398 1.38587e+12
63.6835 215.504 190.402 1.31763e-10 2.75676e+06 215.039 1.31479e-10 7.3101e-10 496901 1.63554e+12
67.2987 232.271 224.704 1.20336e-10 3.25638e+06 231.8 1.20092e-10 6.23009e-10 628977 1.93019e+12
71.1191 251.825 265.185 1.10551e-10 3.84387e+06 251.273 1.10308e-10 5.30879e-10 800451 2.27792e+12
75.1563 274.93 312.958 1.02269e-10 4.53277e+06 274.289 1.02031e-10 4.52303e-10 1.0249e+06 2.68829e+12
79.4227 300.366 369.339 9.46753e-11 5.35083e+06 299.687 9.44612e-11 3.85299e-10 1.3148e+06 3.17259e+12
83.9313 331.518 435.876 8.85431e-11 6.32174e+06 330.716 8.83288e-11 3.28173e-10 1.70565e+06 3.74415e+12
88.6959 367.42 514.4 8.31519e-11 7.44986e+06 366.51 8.2946e-11 2.79476e-10 2.21654e+06 4.41866e+12
93.7309 410.018 607.071 7.86275e-11 8.79764e+06 408.96 7.84245e-11 2.37972e-10 2.90679e+06 5.2147e+12
99.0518 460.009 716.436 7.47479e-11 1.03827e+07 458.774 7.45472e-11 2.02605e-10 3.83053e+06 6.15414e+12
104.675 519.38 845.504 7.15121e-11 1.22515e+07 517.934 7.1313e-11 1.72471e-10 5.07988e+06 7.26283e+12
110.617 589.426 997.824 6.87679e-11 1.44573e+07 587.778 6.85755e-11 1.468e-10 6.77247e+06 8.57124e+12
116.896 673.564 1177.58 6.65882e-11 1.70664e+07 671.602 6.63942e-11 1.24935e-10 9.09611e+06 1.01154e+13
123.532 772.699 1389.73 6.47277e-11 2.0139e+07 770.404 6.45355e-11 1.06313e-10 1.22614e+07 1.19377e+13
130.545 890.459 1640.09 6.32056e-11 2.37643e+07 887.774 6.3015e-11 9.04567e-11 1.6605e+07 1.40883e+13
137.955 1030.11 1935.56 6.19563e-11 2.80503e+07 1026.94 6.17661e-11 7.69563e-11 2.25828e+07 1.66263e+13
145.787 1195.65 2284.26 6.09355e-11 3.30981e+07 1191.93 6.07457e-11 6.54636e-11 3.08087e+07 1.96216e+13
154.063 1392.5 2695.77 6.01342e-11 3.90634e+07 1388.12 5.99451e-11 5.56812e-11 4.21875e+07 2.31565e+13
162.808 1625.15 3181.42 5.94678e-11 4.61057e+07 1619.97 5.92783e-11 4.73556e-11 5.78982e+07 2.73282e+13
172.051 1902.45 3754.56 5.89879e-11 5.44046e+07 1896.27 5.87963e-11 4.02708e-11 7.96907e+07 3.22515e+13
181.818 2231.12 4430.96 5.86186e-11 6.42064e+07 2223.87 5.84281e-11 3.42426e-11 1.09912e+08 3.80616e+13
192.139 2620.92 5229.21 5.83483e-11 7.57748e+07 2612.31 5.81567e-11 2.91139e-11 1.51863e+08 4.49186e+13
203.046 3084.8 6171.26 5.81919e-11 8.94213e+07 3074.63 5.80001e-11 2.4751e-11 2.10237e+08 5.30108e+13
214.572 3636.26 7283.03 5.81236e-11 1.05538e+08 3624.16 5.79303e-11 2.10401e-11 2.91551e+08 6.25608e+13
226.753 4294.99 8595.09 5.8173e-11 1.24552e+08 4280.62 5.79784e-11 1.78839e-11 4.05143e+08 7.38313e+13
239.625 5082.92 10143.5 5.83357e-11 1.46987e+08 5065.62 5.81371e-11 1.51999e-11 5.64122e+08 8.71322e+13
253.228 6028.07 11970.9 5.86221e-11 1.7347e+08 6007.42 5.84212e-11 1.29176e-11 7.87233e+08 1.02829e+14
267.603 7163.55 14127.5 5.90301e-11 2.04703e+08 7138.69 5.88252e-11 1.09771e-11 1.1008e+09 1.21354e+14
282.795 8545.86 16672.6 5.96709e-11 2.4161e+08 8515.78 5.94609e-11 9.3274e-12 1.54567e+09 1.43217e+14
298.848 10241.2 19676.2 6.05928e-11 2.85122e+08 10204.5 6.03752e-11 7.925e-12 2.17998e+09 1.69017e+14
315.813 12343 23220.9 6.188e-11 3.36491e+08 12297.5 6.16519e-11 6.73295e-12 3.09256e+09 1.99466e+14
333.741 14991.6 27404.3 6.36853e-11 3.97115e+08 14934.5 6.34429e-11 5.71979e-12 4.42156e+09 2.35401e+14
352.686 18410.1 32341.2 6.62688e-11 4.68637e+08 18336.7 6.60049e-11 4.85874e-12 6.39179e+09 2.77809e+14
372.707 22952.5 38167.6 7.00077e-11 5.53074e+08 22855.8 6.97127e-11 4.12703e-12 9.38192e+09 3.27857e+14
393.865 29231.4 45043.5 7.55488e-11 6.52716e+08 29098.5 7.52052e-11 3.50528e-12 1.40679e+10 3.86921e+14
416.224 34515.7 53158.3 7.55887e-11 2.2184e+08 36514.5 7.99658e-11 2.97701e-12 5.63269e+09 4.56626e+14
439.852 0 62734.9 0 0 0 0 2.52819e-12 0 5.38888e+14
464.821 0 74036.7 0 0 0 0 2.1469e-12 0 6.35971e+14
491.207 0 87374.6 0 0 0 0 1.82301e-12 0 7.50542e+14
519.092 0 103115 0 0 0 0 1.54789e-12 0 8.85755e+14
548.56 0 121692 0 0 0 0 1.31422e-12 0 1.04533e+15
579.7 0 143615 0 0 0 0 1.11576e-12 0 1.23364e+15
612.608 0 169488 0 0 0 0 9.47223e-13 0 1.45589e+15
647.384 0 200021 0 0 0 0 8.041e-13 0 1.71817e+15
684.134 0 236056 0 0 0 0 6.82568e-13 0 2.0277e+15
722.971 0 278582 0 0 0 0 5.79376e-13 0 2.393e+15
764.012 0 328769 0 0 0 0 4.91762e-13 0 2.8241e+15
0.480223
200
1.0655e+09
8589934592
0.0129181 0.000682109 1.58924e-09 4.9966e-05 6 0.000675865 4.95086e-05 0.00677225 0.0442683 13.6515
0.0136515 0 1.87554e-09 0 0 0 0 0.00688819 0 16.1108
0.0144264 0 2.21343e-09 0 0 0 0 0.00699249 0 19.0132
0.0152454 0 2.61218e-09 0 0 0 0 0.00708412 0 22.4385
0.0161108 0 3.08278e-09 0 0 0 0 0.00716212 0 26.4808
0.0170254 0 3.63815e-09 0 0 0 0 0.00722559 0 31.2514
0.0179919 0.00152742 4.29357e-09 4.14143e-05 12 0.00152545 4.1361e-05 0.00727371 0.0683244 36.8815
0.0190132 0 5.06707e-09 0 0 0 0 0.00730578 0 43.5258
0.0200925 0 5.97991e-09 0 0 0 0 0.00732122 0 51.367
0.0212331 0.00145031 7.05721e-09 2.39242e-05 8 0.00144904 2.39033e-05 0.00731958 0.0261481 60.621
0.0224385 0 8.32858e-09 0 0 0 0 0.00730056 0 71.542
0.0237123 0 9.829e-09 0 0 0 0 0.00726401 0 84.4305
0.0250583 0.00924754 1.15997e-08 9.28087e-05 6 0.00924318 9.2765e-05 0.00720995 0.0772338 99.6408
0.0264808 0 1.36894e-08 0 0 0 0 0.00713857 0 117.591
0.0279841 0.0057257 1.61556e-08 4.12586e-05 24 0.00571982 4.12162e-05 0.00705021 0.140451 138.776
0.0295727 0 1.90661e-08 0 0 0 0 0.00694538 0 163.777
0.0312514 0.0102161 2.25009e-08 5.28563e-05 24 0.010268 5.31247e-05 0.00682475 0.185875 193.281
0.0330255 0 2.65545e-08 0 0 0 0 0.00668915 0 228.102
0.0349003 0.0149953 3.13384e-08 5.57043e-05 12 0.0148752 5.52583e-05 0.00653951 0.102217 269.195
0.0368815 0.0124248 3.69841e-08 3.91097e-05 30 0.0122925 3.86932e-05 0.00637693 0.18399 317.691
0.0389751 0.0144166 4.36469e-08 3.8452e-05 24 0.0142683 3.80564e-05 0.00620256 0.148785 374.924
0.0411876 0.00918677 5.151e-08 2.07626e-05 24 0.00912438 2.06216e-05 0.00601767 0.0828065 442.467
0.0435258 0.0214781 6.07896e-08 4.11317e-05 8 0.0214765 4.11286e-05 0.00582358 0.0565037 522.179
0.0459966 0.0268287 7.1741e-08 4.35354e-05 72 0.0266169 4.31916e-05 0.00562166 0.557584 616.251
0.0486077 0 8.46654e-08 0 0 0 0 0.0054133 0 727.27
0.051367 0.038264 9.99181e-08 4.45816e-05 54 0.0381395 4.44366e-05 0.00519989 0.462973 858.29
0.054283 0.0304122 1.17919e-07 3.00245e-05 60 0.0305452 3.01558e-05 0.0049828 0.361538 1012.91
0.0573645 0.0291933 1.39162e-07 2.44215e-05 96 0.0291183 2.43588e-05 0.00476339 0.492184 1195.39
0.060621 0.0342403 1.64232e-07 2.42711e-05 24 0.0337764 2.39422e-05 0.00454293 0.128223 1410.75
0.0640622 0.0597671 1.93819e-07 3.58984e-05 134 0.0597982 3.59171e-05 0.00432265 1.11283 1664.89
0.0676989 0.0579108 2.28736e-07 2.94737e-05 120 0.0576366 2.93342e-05 0.00410371 0.861864 1964.83
0.071542 0.0537838 2.69944e-07 2.31947e-05 108 0.0531964 2.29414e-05 0.00388717 0.644434 2318.8
0.0756032 0.0790839 3.18575e-07 2.88992e-05 174 0.0786551 2.87426e-05 0.00367401 1.36866 2736.54
0.079895 0.0834604 3.75967e-07 2.58429e-05 168 0.0826764 2.56001e-05 0.0034651 1.25295 3229.53
0.0844305 0.0703536 4.43698e-07 1.8459e-05 168 0.0707052 1.85513e-05 0.00326121 0.950911 3811.34
0.0892234 0.0813601 5.23632e-07 1.80882e-05 290 0.0810003 1.80082e-05 0.00306301 1.71256 4497.96
0.0942883 0.10228 6.17966e-07 1.92679e-05 288 0.10204 1.92228e-05 0.00287109 1.93277 5308.28
0.0996408 0.091334 7.29294e-07 1.45794e-05 366 0.0906006 1.44623e-05 0.00268591 1.98669 6264.59
0.105297 0.103696 8.60678e-07 1.4026e-05 420 0.10297 1.39278e-05 0.00250785 2.34898 7393.17
0.111275 0.110872 1.01573e-06 1.27073e-05 398 0.110541 1.26693e-05 0.00233721 2.16391 8725.07
0.117591 0.132078 1.19872e-06 1.28269e-05 624 0.132387 1.2857e-05 0.00217419 3.68136 10296.9
0.124267 0.150304 1.41467e-06 1.23688e-05 642 0.150027 1.2346e-05 0.00201893 3.93316 12151.9
0.131321 0.184931 1.66953e-06 1.28951e-05 800 0.184994 1.28995e-05 0.00187147 5.5123 14341.1
0.138776 0.166613 1.9703e-06 9.84433e-06 858 0.167373 9.88924e-06 0.00173182 4.87721 16924.7
0.146654 0.187533 2.32525e-06 9.38899e-06 1080 0.18911 9.46793e-06 0.00159991 6.33793 19973.8
0.154979 0.221457 2.74415e-06 9.3949e-06 1286 0.222918 9.45685e-06 0.00147563 8.18755 23572.1
0.163777 0.210927 3.23852e-06 7.58222e-06 1650 0.211428 7.60024e-06 0.00135884 9.20687 27818.7
0.173074 0.243079 3.82195e-06 7.40413e-06 1778 0.243171 7.4069e-06 0.00124933 10.5373 32830.3
0.182899 0.244798 4.51048e-06 6.31823e-06 2112 0.245423 6.33435e-06 0.00114689 11.635 38744.7
0.193281 0.27838 5.32305e-06 6.08818e-06 2570 0.278696 6.09508e-06 0.00105127 14.8835 45724.7
0.204254 0.322841 6.28202e-06 5.98274e-06 3030 0.322652 5.97923e-06 0.000962209 18.8397 53962.1
0.215848 0.327722 7.41374e-06 5.1461e-06 3434 0.327582 5.1439e-06 0.000879423 20.0947 63683.5
0.228102 0.343885 8.74934e-06 4.57559e-06 4218 0.343878 4.5755e-06 0.000802624 24.046 75156.3
0.24105 0.384323 1.03256e-05 4.33305e-06 4766 0.384615 4.33633e-06 0.000731515 28.2308 88695.9
0.254734 0.419375 1.21857e-05 4.00646e-06 6026 0.419334 4.00607e-06 0.000665798 36.2616 104675
0.269195 0.458379 1.4381e-05 3.7106e-06 6480 0.457977 3.70735e-06 0.000605173 39.7319 123532
0.284476 0.500304 1.69718e-05 3.43175e-06 8162 0.501376 3.4391e-06 0.000549345 50.9879 145787
0.300625 0.526987 2.00293e-05 3.06298e-06 9578 0.527468 3.06577e-06 0.000498021 58.9076 172051
0.317691 0.581728 2.36377e-05 2.86501e-06 11234 0.581064 2.86173e-06 0.000450916 71.378 203046
0.335725 0.623791 2.78961e-05 2.60319e-06 13344 0.622882 2.5994e-06 0.000407755 85.1909 239625
0.354784 0.67475 3.29216e-05 2.38601e-06 15464 0.674225 2.38415e-06 0.000368269 100.191 282795
0.374924 0.720735 3.88525e-05 2.15957e-06 18458 0.720527 2.15894e-06 0.000332202 119.991 333741
0.396207 0.804362 4.58519e-05 2.04223e-06 22232 0.803342 2.03964e-06 0.000299307 151.693 393865
0.418699 0.860607 5.41123e-05 1.85148e-06 25628 0.858439 1.84682e-06 0.00026935 176.164 464821
0.442467 0.939457 6.38607e-05 1.71259e-06 30320 0.937485 1.70899e-06 0.000242108 214.473 548560
0.467585 1.0164 7.53654e-05 1.57001e-06 35452 1.01487 1.56765e-06 0.00021737 256.06 647384
0.494129 1.11359 8.89427e-05 1.45755e-06 41792 1.11301 1.4568e-06 0.000194938 312.478 764012
0.522179 1.22811 0.000104966 1.36207e-06 49988 1.22792 1.36186e-06 0.000174625 389.905 901651
0.551822 1.3304 0.000123876 1.25028e-06 59110 1.32877 1.24875e-06 0.000156255 472.971 1.06409e+06
0.583147 1.45253 0.000146192 1.15667e-06 69716 1.45001 1.15467e-06 0.000139664 577.376 1.25578e+06
0.616251 1.59046 0.000172529 1.07317e-06 82210 1.58716 1.07094e-06 0.0001247 707.503 1.48202e+06
0.651234 1.7331 0.000203611 9.90907e-07 96722 1.72959 9.88896e-07 0.00011122 861.734 1.74901e+06
0.688203 1.91076 0.000240292 9.25716e-07 113098 1.90759 9.2418e-07 9.90935e-05 1056.54 2.06409e+06
0.72727 2.0901 0.000283581 8.58025e-07 135190 2.08723 8.56846e-07 8.81969e-05 1315.2 2.43595e+06
0.768555 2.2932 0.000334669 7.97692e-07 158170 2.2902 7.96652e-07 7.84179e-05 1608.96 2.87479e+06
0.812184 2.55073 0.000394961 7.51831e-07 188560 2.54662 7.5062e-07 6.96525e-05 2035.32 3.39269e+06
0.85829 2.79908 0.000466114 6.99089e-07 220444 2.79478 6.98017e-07 6.1805e-05 2493.49 4.00389e+06
0.907013 3.09005 0.000550086 6.5395e-07 261388 3.08561 6.53012e-07 5.47875e-05 3119.96 4.7252e+06
0.958501 3.41555 0.000649185 6.12494e-07 308244 3.41037 6.11566e-07 4.85194e-05 3891.17 5.57646e+06
1.01291 3.79182 0.000766138 5.76171e-07 364396 3.7857 5.75241e-07 4.29272e-05 4890.95 6.58107e+06
1.07041 4.19126 0.00090416 5.39647e-07 429162 4.18405 5.38719e-07 3.79435e-05 6103.71 7.76667e+06
1.13118 4.644 0.00106705 5.06663e-07 506358 4.6362 5.05812e-07 3.3507e-05 7656.69 9.16586e+06
1.19539 5.13969 0.00125928 4.75144e-07 598590 5.13075 4.74318e-07 2.9562e-05 9621.01 1.08171e+07
1.26325 5.7098 0.00148614 4.47272e-07 704844 5.69997 4.46501e-07 2.60578e-05 12098.4 1.27658e+07
1.33496 6.3411 0.00175387 4.20898e-07 834620 6.32884 4.20084e-07 2.29484e-05 15307.8 1.50656e+07
1.41075 7.0134 0.00206984 3.9446e-07 981444 6.99914 3.93658e-07 2.01923e-05 19172.7 1.77798e+07
1.49083 7.79154 0.00244272 3.71329e-07 1.15998e+06 7.77754 3.70662e-07 1.77518e-05 24264.2 2.09828e+07
1.57546 8.62506 0.00288279 3.48305e-07 1.36931e+06 8.60812 3.47621e-07 1.55929e-05 30586.9 2.4763e+07
1.66489 9.58684 0.00340213 3.28046e-07 1.61652e+06 9.56781 3.27395e-07 1.3685e-05 38749.8 2.92241e+07
1.75941 10.6228 0.00401503 3.08007e-07 1.90601e+06 10.6027 3.07424e-07 1.20007e-05 48919.1 3.44889e+07
1.85928 11.769 0.00473835 2.89149e-07 2.24913e+06 11.7469 2.88606e-07 1.05151e-05 61847.5 4.07021e+07
1.96483 13.0402 0.00559198 2.71474e-07 2.65744e+06 13.014 2.7093e-07 9.20606e-06 78364.4 4.80347e+07
2.07637 14.3814 0.00659939 2.53693e-07 3.13125e+06 14.3541 2.53212e-07 8.05366e-06 98635.3 5.66883e+07
2.19424 15.8716 0.00778828 2.3724e-07 3.69915e+06 15.8414 2.36789e-07 7.04008e-06 124656 6.69008e+07
2.3188 17.5022 0.00919136 2.21678e-07 4.36472e+06 17.469 2.21257e-07 6.1494e-06 157343 7.89532e+07
2.45043 19.2702 0.0108472 2.06813e-07 5.14913e+06 19.2327 2.0641e-07 5.36741e-06 198403 9.31768e+07
2.58954 21.1422 0.0128014 1.92266e-07 6.07894e+06 21.1023 1.91903e-07 4.68145e-06 249661 1.09963e+08
2.73654 23.1501 0.0151076 1.78389e-07 7.17304e+06 23.1072 1.78059e-07 4.08023e-06 313608 1.29773e+08
2.89188 25.3261 0.0178292 1.65366e-07 8.46557e+06 25.2787 1.65056e-07 3.55373e-06 393928 1.53152e+08
3.05605 27.6343 0.0210412 1.52893e-07 9.98773e+06 27.5836 1.52612e-07 3.09304e-06 493707 1.80743e+08
3.22953 30.086 0.0248319 1.41048e-07 1.1797e+07 30.0317 1.40793e-07 2.69025e-06 618507 2.13304e+08
3.41286 32.702 0.0293054 1.29908e-07 1.39144e+07 32.643 1.29674e-07 2.33837e-06 773014 2.51731e+08
3.6066 35.4243 0.0345848 1.19241e-07 1.64163e+07 35.3622 1.19032e-07 2.0312e-06 963714 2.97081e+08
3.81134 38.2998 0.0408154 1.0924e-07 1.93821e+07 38.2339 1.09052e-07 1.76327e-06 1.20079e+06 3.50601e+08
4.0277 41.2849 0.0481684 9.9779e-08 2.28754e+07 41.2114 9.96015e-08 1.52972e-06 1.49209e+06 4.13763e+08
4.25634 44.4189 0.056846 9.09657e-08 2.69929e+07 44.3412 9.08066e-08 1.32631e-06 1.85133e+06 4.88304e+08
4.49796 47.6895 0.067087 8.27551e-08 3.18542e+07 47.6065 8.2611e-08 1.14926e-06 2.29374e+06 5.76273e+08
4.7533 51.1341 0.0791729 7.51872e-08 3.75892e+07 51.0465 7.50585e-08 9.95263e-07 2.83968e+06 6.8009e+08
5.02313 54.6869 0.0934361 6.81363e-08 4.43706e+07 54.5946 6.80213e-08 8.61414e-07 3.50963e+06 8.0261e+08
5.30828 58.3806 0.110269 6.16347e-08 5.23593e+07 58.2823 6.1531e-08 7.45152e-07 4.33086e+06 9.47202e+08
5.60962 62.241 0.130134 5.56795e-08 6.1787e+07 62.1376 5.5587e-08 6.44232e-07 5.34011e+06 1.11784e+09
5.92807 66.2474 0.153578 5.02169e-08 7.29346e+07 66.1364 5.01328e-08 5.56685e-07 6.57921e+06 1.31923e+09
6.26459 70.4075 0.181246 4.52232e-08 8.60651e+07 70.2896 4.51475e-08 4.80786e-07 8.09537e+06 1.55689e+09
6.62021 74.6838 0.213898 4.06472e-08 1.01558e+08 74.5607 4.05802e-08 4.15026e-07 9.9465e+06 1.83737e+09
6.99602 79.1869 0.252432 3.6519e-08 1.1986e+08 79.0557 3.64586e-08 3.58083e-07 1.22239e+07 2.16837e+09
7.39317 83.8896 0.297908 3.27821e-08 1.41457e+08 83.7528 3.27286e-08 3.08803e-07 1.50168e+07 2.55901e+09
7.81286 88.8169 0.351577 2.94094e-08 1.66936e+08 88.6711 2.93611e-08 2.66181e-07 1.84441e+07 3.02002e+09
8.25637 93.9934 0.414914 2.63723e-08 1.97025e+08 93.8383 2.63288e-08 2.29336e-07 2.26568e+07 3.56409e+09
8.72507 99.4699 0.489662 2.36486e-08 2.32497e+08 99.3049 2.36094e-08 1.97503e-07 2.78386e+07 4.20617e+09
9.22037 105.334 0.577876 2.12199e-08 2.74404e+08 105.158 2.11845e-08 1.70014e-07 3.42491e+07 4.96392e+09
9.74378 111.747 0.681982 1.90754e-08 3.2382e+08 111.555 1.90425e-08 1.46289e-07 4.22247e+07 5.85818e+09
10.2969 119.031 0.804843 1.72171e-08 3.82165e+08 118.818 1.71863e-08 1.25822e-07 5.22941e+07 6.91355e+09
10.8814 127.631 0.949838 1.56429e-08 4.51027e+08 127.387 1.5613e-08 1.08175e-07 6.52214e+07 8.15905e+09
11.4992 138.616 1.12095 1.43958e-08 5.32251e+08 138.321 1.43651e-08 9.29669e-08 8.24186e+07 9.62892e+09
12.1519 154.118 1.3229 1.35624e-08 6.28157e+08 153.73 1.35283e-08 7.98658e-08 1.06671e+08 1.13636e+10
12.8418 171.53 1.56122 1.27904e-08 3.82727e+08 177.538 1.32385e-08 6.85852e-08 7.13745e+07 1.34108e+10
13.5708 0 1.84248 0 0 0 0 5.88765e-08 0 1.58268e+10
14.3411 0 2.17441 0 0 0 0 5.05241e-08 0 1.8678e+10
15.1552 0 2.56613 0 0 0 0 4.33417e-08 0 2.20429e+10
16.0156 0 3.02843 0 0 0 0 3.71677e-08 0 2.6014e+10
16.9247 0 3.574 0 0 0 0 3.18628e-08 0 3.07005e+10
17.8855 0 4.21787 0 0 0 0 2.73063e-08 0 3.62312e+10
18.9008 0 4.97773 0 0 0 0 2.33941e-08 0 4.27584e+10
19.9738 0 5.87448 0 0 0 0 2.00364e-08 0 5.04614e+10
21.1076 0 6.93279 0 0 0 0 1.71555e-08 0 5.95522e+10
22.3058 0 8.18175 0 0 0 0 1.46847e-08 0 7.02807e+10
23.5721 0 9.65571 0 0 0 0 1.25662e-08 0 8.29419e+10
24.9102 0 11.3952 0 0 0 0 1.07504e-08 0 9.78842e+10
26.3243 0 13.4481 0 0 0 0 9.19452e-09 0 1.15518e+11
27.8187 0 15.8708 0 0 0 0 7.86182e-09 0 1.36329e+11
29.3979 0 18.73 0 0 0 0 6.72061e-09 0 1.60889e+11
31.0667 0 22.1042 0 0 0 0 5.74366e-09 0 1.89874e+11
32.8303 0 26.0864 0 0 0 0 4.90756e-09 0 2.2408e+11
34.694 0 30.7859 0 0 0 0 4.19221e-09 0 2.64449e+11
36.6634 0 36.3321 0 0 0 0 3.58032e-09 0 3.1209e+11
38.7447 0 42.8774 0 0 0 0 3.05709e-09 0 3.68314e+11
40.9442 0 50.6018 0 0 0 0 2.60976e-09 0 4.34667e+11
43.2685 0 59.7179 0 0 0 0 2.22743e-09 0 5.12973e+11
45.7247 0 70.4762 0 0 0 0 1.90073e-09 0 6.05386e+11
48.3204 0 83.1727 0 0 0 0 1.62163e-09 0 7.14448e+11
51.0634 0 98.1565 0 0 0 0 1.38326e-09 0 8.43158e+11
53.9621 0 115.84 0 0 0 0 1.1797e-09 0 9.95055e+11
57.0254 0 136.709 0 0 0 0 1.00592e-09 0 1.17432e+12
60.2626 0 161.337 0 0 0 0 8.57591e-10 0 1.38587e+12
63.6835 0 190.402 0 0 0 0 7.3101e-10 0 1.63554e+12
67.2987 0 224.704 0 0 0 0 6.23009e-10 0 1.93019e+12
71.1191 0 265.185 0 0 0 0 5.30879e-10 0 2.27792e+12
75.1563 0 312.958 0 0 0 0 4.52303e-10 0 2.68829e+12
79.4227 0 369.339 0 0 0 0 3.85299e-10 0 3.17259e+12
83.9313 0 435.876 0 0 0 0 3.28173e-10 0 3.74415e+12
88.6959 0 514.4 0 0 0 0 2.79476e-10 0 4.41866e+12
93.7309 0 607.071 0 0 0 0 2.37972e-10 0 5.2147e+12
99.0518 0 716.436 0 0 0 0 2.02605e-10 0 6.15414e+12
104.675 0 845.504 0 0 0 0 1.72471e-10 0 7.26283e+12
110.617 0 997.824 0 0 0 0 1.468e-10 0 8.57124e+12
116.896 0 1177.58 0 0 0 0 1.24935e-10 0 1.01154e+13
123.532 0 1389.73 0 0 0 0 1.06313e-10 0 1.19377e+13
130.545 0 1640.09 0 0 0 0 9.04567e-11 0 1.40883e+13
137.955 0 1935.56 0 0 0 0 7.69563e-11 0 1.66263e+13
145.787 0 2284.26 0 0 0 0 6.54636e-11 0 1.96216e+13
154.063 0 2695.77 0 0 0 0 5.56812e-11 0 2.31565e+13
162.808 0 3181.42 0 0 0 0 4.73556e-11 0 2.73282e+13
172.051 0 3754.56 0 0 0 0 4.02708e-11 0 3.22515e+13
181.818 0 4430.96 0 0 0 0 3.42426e-11 0 3.80616e+13
192.139 0 5229.21 0 0 0 0 2.91139e-11 0 4.49186e+13
203.046 0 6171.26 0 0 0 0 2.4751e-11 0 5.30108e+13
214.572 0 7283.03 0 0 0 0 2.10401e-11 0 6.25608e+13
226.753 0 8595.09 0 0 0 0 1.78839e-11 0 7.38313e+13
239.625 0 10143.5 0 0 0 0 1.51999e-11 0 8.71322e+13
253.228 0 11970.9 0 0 0 0 1.29176e-11 0 1.02829e+14
267.603 0 14127.5 0 0 0 0 1.09771e-11 0 1.21354e+14
282.795 0 16672.6 0 0 0 0 9.3274e-12 0 1.43217e+14
298.848 0 19676.2 0 0 0 0 7.925e-12 0 1.69017e+14
315.813 0 23220.9 0 0 0 0 6.73295e-12 0 1.99466e+14
333.741 0 27404.3 0 0 0 0 5.71979e-12 0 2.35401e+14
352.686 0 32341.2 0 0 0 0 4.85874e-12 0 2.77809e+14
372.707 0 38167.6 0 0 0 0 4.12703e-12 0 3.27857e+14
393.865 0 45043.5 0 0 0 0 3.50528e-12 0 3.86921e+14
416.224 0 53158.3 0 0 0 0 2.97701e-12 0 4.56626e+14
439.852 0 62734.9 0 0 0 0 2.52819e-12 0 5.38888e+14
464.821 0 74036.7 0 0 0 0 2.1469e-12 0 6.35971e+14
491.207 0 87374.6 0 0 0 0 1.82301e-12 0 7.50542e+14
519.092 0 103115 0 0 0 0 1.54789e-12 0 8.85755e+14
548.56 0 121692 0 0 0 0 1.31422e-12 0 1.04533e+15
579.7 0 143615 0 0 0 0 1.11576e-12 0 1.23364e+15
612.608 0 169488 0 0 0 0 9.47223e-13 0 1.45589e+15
647.384 0 200021 0 0 0 0 8.041e-13 0 1.71817e+15
684.134 0 236056 0 0 0 0 6.82568e-13 0 2.0277e+15
722.971 0 278582 0 0 0 0 5.79376e-13 0 2.393e+15
764.012 0 328769 0 0 0 0 4.91762e-13 0 2.8241e+15
