0.148056
200
1.0655e+09
8589934592
0.0129181 0 1.58924e-09 0 0 0 0 0.00677225 0 13.6515
0.0136515 0 1.87554e-09 0 0 0 0 0.00688819 0 16.1108
0.0144264 0 2.21343e-09 0 0 0 0 0.00699249 0 19.0132
0.0152454 0 2.61218e-09 0 0 0 0 0.00708412 0 22.4385
0.0161108 0 3.08278e-09 0 0 0 0 0.00716212 0 26.4808
0.0170254 0 3.63815e-09 0 0 0 0 0.00722559 0 31.2514
0.0179919 0 4.29357e-09 0 0 0 0 0.00727371 0 36.8815
0.0190132 0 5.06707e-09 0 0 0 0 0.00730578 0 43.5258
0.0200925 0 5.97991e-09 0 0 0 0 0.00732122 0 51.367
0.0212331 0 7.05721e-09 0 0 0 0 0.00731958 0 60.621
0.0224385 0 8.32858e-09 0 0 0 0 0.00730056 0 71.542
0.0237123 0 9.829e-09 0 0 0 0 0.00726401 0 84.4305
0.0250583 0 1.15997e-08 0 0 0 0 0.00720995 0 99.6408
0.0264808 0 1.36894e-08 0 0 0 0 0.00713857 0 117.591
0.0279841 0 1.61556e-08 0 0 0 0 0.00705021 0 138.776
0.0295727 0 1.90661e-08 0 0 0 0 0.00694538 0 163.777
0.0312514 0 2.25009e-08 0 0 0 0 0.00682475 0 193.281
0.0330255 0 2.65545e-08 0 0 0 0 0.00668915 0 228.102
0.0349003 0 3.13384e-08 0 0 0 0 0.00653951 0 269.195
0.0368815 0 3.69841e-08 0 0 0 0 0.00637693 0 317.691
0.0389751 0 4.36469e-08 0 0 0 0 0.00620256 0 374.924
0.0411876 0 5.151e-08 0 0 0 0 0.00601767 0 442.467
0.0435258 0 6.07896e-08 0 0 0 0 0.00582358 0 522.179
0.0459966 0 7.1741e-08 0 0 0 0 0.00562166 0 616.251
0.0486077 0 8.46654e-08 0 0 0 0 0.0054133 0 727.27
0.051367 0 9.99181e-08 0 0 0 0 0.00519989 0 858.29
0.054283 0 1.17919e-07 0 0 0 0 0.0049828 0 1012.91
0.0573645 0 1.39162e-07 0 0 0 0 0.00476339 0 1195.39
0.060621 0 1.64232e-07 0 0 0 0 0.00454293 0 1410.75
0.0640622 0 1.93819e-07 0 0 0 0 0.00432265 0 1664.89
0.0676989 0 2.28736e-07 0 0 0 0 0.00410371 0 1964.83
0.071542 0 2.69944e-07 0 0 0 0 0.00388717 0 2318.8
0.0756032 0 3.18575e-07 0 0 0 0 0.00367401 0 2736.54
0.079895 0 3.75967e-07 0 0 0 0 0.0034651 0 3229.53
0.0844305 0 4.43698e-07 0 0 0 0 0.00326121 0 3811.34
0.0892234 0 5.23632e-07 0 0 0 0 0.00306301 0 4497.96
0.0942883 0 6.17966e-07 0 0 0 0 0.00287109 0 5308.28
0.0996408 0 7.29294e-07 0 0 0 0 0.00268591 0 6264.59
0.105297 0 8.60678e-07 0 0 0 0 0.00250785 0 7393.17
0.111275 0 1.01573e-06 0 0 0 0 0.00233721 0 8725.07
0.117591 0 1.19872e-06 0 0 0 0 0.00217419 0 10296.9
0.124267 0 1.41467e-06 0 0 0 0 0.00201893 0 12151.9
0.131321 0 1.66953e-06 0 0 0 0 0.00187147 0 14341.1
0.138776 0 1.9703e-06 0 0 0 0 0.00173182 0 16924.7
0.146654 0 2.32525e-06 0 0 0 0 0.00159991 0 19973.8
0.154979 0 2.74415e-06 0 0 0 0 0.00147563 0 23572.1
0.163777 0 3.23852e-06 0 0 0 0 0.00135884 0 27818.7
0.173074 0 3.82195e-06 0 0 0 0 0.00124933 0 32830.3
0.182899 0 4.51048e-06 0 0 0 0 0.00114689 0 38744.7
0.193281 0 5.32305e-06 0 0 0 0 0.00105127 0 45724.7
0.204254 0 6.28202e-06 0 0 0 0 0.000962209 0 53962.1
0.215848 0 7.41374e-06 0 0 0 0 0.000879423 0 63683.5
0.228102 0 8.74934e-06 0 0 0 0 0.000802624 0 75156.3
0.24105 0 1.03256e-05 0 0 0 0 0.000731515 0 88695.9
0.254734 0 1.21857e-05 0 0 0 0 0.000665798 0 104675
0.269195 0 1.4381e-05 0 0 0 0 0.000605173 0 123532
0.284476 0 1.69718e-05 0 0 0 0 0.000549345 0 145787
0.300625 0 2.00293e-05 0 0 0 0 0.000498021 0 172051
0.317691 0 2.36377e-05 0 0 0 0 0.000450916 0 203046
0.335725 0 2.78961e-05 0 0 0 0 0.000407755 0 239625
0.354784 0 3.29216e-05 0 0 0 0 0.000368269 0 282795
0.374924 0 3.88525e-05 0 0 0 0 0.000332202 0 333741
0.396207 0.507147 4.58519e-05 1.28762e-06 6 0.493047 1.25182e-06 0.000299307 0.025812 393865
0.418699 0 5.41123e-05 0 0 0 0 0.00026935 0 464821
0.442467 0 6.38607e-05 0 0 0 0 0.000242108 0 548560
0.467585 0 7.53654e-05 0 0 0 0 0.00021737 0 647384
0.494129 0 8.89427e-05 0 0 0 0 0.000194938 0 764012
0.522179 0 0.000104966 0 0 0 0 0.000174625 0 901651
0.551822 0 0.000123876 0 0 0 0 0.000156255 0 1.06409e+06
0.583147 4.91265 0.000146192 3.91202e-06 12 5.17059 4.11743e-06 0.000139664 0.336123 1.25578e+06
0.616251 0 0.000172529 0 0 0 0 0.0001247 0 1.48202e+06
0.651234 0 0.000203611 0 0 0 0 0.00011122 0 1.74901e+06
0.688203 23.0554 0.000240292 1.11697e-05 8 22.4818 1.08918e-05 9.90935e-05 0.901754 2.06409e+06
0.72727 0 0.000283581 0 0 0 0 8.81969e-05 0 2.43595e+06
0.768555 0 0.000334669 0 0 0 0 7.84179e-05 0 2.87479e+06
0.812184 0.18467 0.000394961 5.44318e-08 6 0.188618 5.55955e-08 6.96525e-05 0.00468886 3.39269e+06
0.85829 0 0.000466114 0 0 0 0 6.1805e-05 0 4.00389e+06
0.907013 0.192985 0.000550086 4.08415e-08 24 0.196687 4.16252e-08 5.47875e-05 0.0178909 4.7252e+06
0.958501 0.989083 0.000649185 1.77368e-07 24 0.931149 1.66978e-07 4.85194e-05 0.0877344 5.57646e+06
1.01291 0 0.000766138 0 0 0 0 4.29272e-05 0 6.58107e+06
1.07041 0 0.00090416 0 0 0 0 3.79435e-05 0 7.76667e+06
1.13118 1.29078 0.00106705 1.40825e-07 12 1.27493 1.39095e-07 3.3507e-05 0.0504342 9.16586e+06
1.19539 1.02536 0.00125928 9.47902e-08 30 1.00422 9.28361e-08 2.9562e-05 0.0961946 1.08171e+07
1.26325 5.51703 0.00148614 4.32171e-07 24 5.43401 4.25668e-07 2.60578e-05 0.398042 1.27658e+07
1.33496 18.6688 0.00175387 1.23917e-06 24 18.7099 1.24189e-06 2.29484e-05 1.29595 1.50656e+07
1.41075 6.05137 0.00206984 3.40351e-07 32 6.22238 3.4997e-07 2.01923e-05 0.539376 1.77798e+07
1.49083 0.537552 0.00244272 2.56187e-08 48 0.526092 2.50725e-08 1.77518e-05 0.0692718 2.09828e+07
1.57546 0.10794 0.00288279 4.35892e-09 6 0.102783 4.15067e-09 1.55929e-05 0.00167728 2.4763e+07
1.66489 0.473225 0.00340213 1.6193e-08 84 0.46136 1.5787e-08 1.3685e-05 0.0993942 2.92241e+07
1.75941 2.60253 0.00401503 7.54601e-08 48 2.62159 7.60127e-08 1.20007e-05 0.301823 3.44889e+07
1.85928 0.341001 0.00473835 8.37798e-09 72 0.343403 8.43699e-09 1.05151e-05 0.0573665 4.07021e+07
1.96483 0.620285 0.00559198 1.29133e-08 54 0.60438 1.25821e-08 9.20606e-06 0.0757454 4.80347e+07
2.07637 8.35401 0.00659939 1.47367e-07 104 8.32625 1.46878e-07 8.05366e-06 1.90301 5.66883e+07
2.19424 0.410615 0.00778828 6.13766e-09 120 0.414542 6.19636e-09 7.04008e-06 0.104618 6.69008e+07
2.3188 1.87079 0.00919136 2.36949e-08 156 1.78227 2.25737e-08 6.1494e-06 0.601101 7.89532e+07
2.45043 0.676799 0.0108472 7.2636e-09 126 0.670945 7.20077e-09 5.36741e-06 0.170513 9.31768e+07
2.58954 0.799284 0.0128014 7.26867e-09 192 0.808852 7.35568e-09 4.68145e-06 0.298109 1.09963e+08
2.73654 4.2079 0.0151076 3.24251e-08 152 4.36137 3.36077e-08 4.08023e-06 1.20792 1.29773e+08
2.89188 3.63193 0.0178292 2.37145e-08 378 3.71116 2.42319e-08 3.55373e-06 2.52245 1.53152e+08
3.05605 1.36427 0.0210412 7.54814e-09 264 1.34056 7.41696e-09 3.09304e-06 0.644256 1.80743e+08
3.22953 0.345278 0.0248319 1.61871e-09 366 0.34329 1.60939e-09 2.69025e-06 0.22022 2.13304e+08
3.41286 0.842841 0.0293054 3.34818e-09 428 0.810001 3.21772e-09 2.33837e-06 0.612827 2.51731e+08
3.6066 3.15915 0.0345848 1.0634e-08 486 3.05587 1.02863e-08 2.0312e-06 2.54435 2.97081e+08
3.81134 0.943721 0.0408154 2.69172e-09 600 0.941675 2.68589e-09 1.76327e-06 0.915933 3.50601e+08
4.0277 0.692765 0.0481684 1.6743e-09 738 0.681369 1.64676e-09 1.52972e-06 0.807752 4.13763e+08
4.25634 1.40235 0.056846 2.87188e-09 824 1.44501 2.95924e-09 1.32631e-06 1.78422 4.88304e+08
4.49796 2.77473 0.067087 4.81496e-09 954 2.78979 4.84109e-09 1.14926e-06 3.9969 5.76273e+08
4.7533 0.740257 0.0791729 1.08847e-09 1094 0.73101 1.07487e-09 9.95263e-07 1.19645 6.8009e+08
5.02313 0.54118 0.0934361 6.74275e-10 1332 0.541771 6.75011e-10 8.61414e-07 1.04263 8.0261e+08
5.30828 2.24762 0.110269 2.3729e-09 1614 2.27236 2.39903e-09 7.45152e-07 5.1397 9.47202e+08
5.60962 1.31761 0.130134 1.17871e-09 1850 1.28379 1.14846e-09 6.44232e-07 3.38482 1.11784e+09
5.92807 1.6327 0.153578 1.23762e-09 2238 1.57685 1.19529e-09 5.56685e-07 4.97551 1.31923e+09
6.26459 0.953464 0.181246 6.12416e-10 2546 0.965644 6.2024e-10 4.80786e-07 3.24305 1.55689e+09
6.62021 0.603733 0.213898 3.28586e-10 3264 0.604595 3.29055e-10 4.15026e-07 2.58419 1.83737e+09
6.99602 1.72188 0.252432 7.94089e-10 3506 1.76709 8.14939e-10 3.58083e-07 7.77495 2.16837e+09
7.39317 1.05665 0.297908 4.12913e-10 4506 1.0651 4.16217e-10 3.08803e-07 6.02515 2.55901e+09
7.81286 1.53669 0.351577 5.08836e-10 5018 1.57 5.19863e-10 2.66181e-07 9.59248 3.02002e+09
8.25637 1.48033 0.414914 4.15347e-10 5852 1.44454 4.05304e-10 2.29336e-07 10.5985 3.56409e+09
8.72507 1.22238 0.489662 2.90616e-10 7362 1.21487 2.88831e-10 1.97503e-07 10.8328 4.20617e+09
9.22037 1.50265 0.577876 3.02714e-10 8306 1.49084 3.00336e-10 1.70014e-07 14.789 4.96392e+09
9.74378 1.03494 0.681982 1.76666e-10 9698 1.03547 1.76756e-10 1.46289e-07 11.7118 5.85818e+09
10.2969 1.66511 0.804843 2.40847e-10 11816 1.67638 2.42477e-10 1.25822e-07 22.6179 6.91355e+09
10.8814 1.53929 0.949838 1.88661e-10 13682 1.53808 1.88512e-10 1.08175e-07 23.8617 8.15905e+09
11.4992 1.64277 1.12095 1.70608e-10 16152 1.63032 1.69315e-10 9.29669e-08 29.6413 9.62892e+09
12.1519 1.73958 1.3229 1.53083e-10 19472 1.72148 1.51491e-10 7.98658e-08 37.3232 1.13636e+10
12.8418 1.52121 1.56122 1.13432e-10 22670 1.52215 1.13502e-10 6.85852e-08 37.4936 1.34108e+10
13.5708 1.98652 1.84248 1.25517e-10 26224 1.99424 1.26004e-10 5.88765e-08 55.9061 1.58268e+10
14.3411 2.02747 2.17441 1.08549e-10 31640 2.03259 1.08823e-10 5.05241e-08 67.9769 1.8678e+10
15.1552 2.34693 2.56613 1.06471e-10 37484 2.34752 1.06498e-10 4.33417e-08 92.0813 2.20429e+10
16.0156 2.4908 3.02843 9.57486e-11 43856 2.49343 9.58498e-11 3.71677e-08 112.978 2.6014e+10
16.9247 3.16395 3.574 1.03059e-10 51362 3.15653 1.02817e-10 3.18628e-08 166.128 3.07005e+10
17.8855 3.43523 4.21787 9.4814e-11 61636 3.41964 9.43838e-11 2.73063e-08 214.015 3.62312e+10
18.9008 4.07767 4.97773 9.53655e-11 72218 4.06132 9.49831e-11 2.33941e-08 294.394 4.27584e+10
19.9738 4.78625 5.87448 9.48496e-11 84586 4.77157 9.45587e-11 2.00364e-08 400.419 5.04614e+10
21.1076 5.62564 6.93279 9.44658e-11 100708 5.61145 9.42274e-11 1.71555e-08 554.542 5.95522e+10
22.3058 6.62087 8.18175 9.42061e-11 118712 6.6025 9.39448e-11 1.46847e-08 761.57 7.02807e+10
23.5721 7.77568 9.65571 9.37484e-11 140410 7.74993 9.3438e-11 1.25662e-08 1047.51 8.29419e+10
24.9102 8.95455 11.3952 9.14811e-11 164374 8.92717 9.12013e-11 1.07504e-08 1398.75 9.78842e+10
26.3243 10.25 13.4481 8.87305e-11 194680 10.2167 8.84422e-11 9.19452e-09 1878.73 1.15518e+11
27.8187 11.8467 15.8708 8.68981e-11 230196 11.8074 8.66094e-11 7.86182e-09 2544.4 1.36329e+11
29.3979 13.5663 18.73 8.43207e-11 271156 13.5223 8.40471e-11 6.72061e-09 3402.08 1.60889e+11
31.0667 15.5102 22.1042 8.16866e-11 321076 15.4621 8.14335e-11 5.74366e-09 4566.36 1.89874e+11
32.8303 17.6197 26.0864 7.86311e-11 377436 17.567 7.83959e-11 4.90756e-09 6047.45 2.2408e+11
34.694 20.2272 30.7859 7.64882e-11 447594 20.1684 7.62658e-11 4.19221e-09 8166.5 2.64449e+11
36.6634 23.1454 36.3321 7.41627e-11 525078 23.0788 7.39491e-11 3.58032e-09 10876.5 3.1209e+11
38.7447 26.846 42.8774 7.28889e-11 621924 26.7664 7.26728e-11 3.05709e-09 14828.3 3.68314e+11
40.9442 30.9849 50.6018 7.12843e-11 732630 30.8922 7.10711e-11 2.60976e-09 20011.4 4.34667e+11
43.2685 35.8794 59.7179 6.9944e-11 865596 35.7731 6.97367e-11 2.22743e-09 27180.7 5.12973e+11
45.7247 41.6512 70.4762 6.88011e-11 1.02168e+06 41.5295 6.86e-11 1.90073e-09 36981.8 6.05386e+11
48.3204 48.4042 83.1727 6.77504e-11 1.20544e+06 48.2494 6.75338e-11 1.62163e-09 50362.1 7.14448e+11
51.0634 56.2043 98.1565 6.66593e-11 1.42103e+06 56.0299 6.64524e-11 1.38326e-09 68479.6 8.43158e+11
53.9621 65.5003 115.84 6.58258e-11 1.67997e+06 65.2964 6.56209e-11 1.1797e-09 93739.8 9.95055e+11
57.0254 76.2529 136.709 6.49338e-11 1.98018e+06 76.0187 6.47344e-11 1.00592e-09 127824 1.17432e+12
60.2626 89.0522 161.337 6.42571e-11 2.33957e+06 88.7794 6.40602e-11 8.57591e-10 175298 1.38587e+12
63.6835 104.291 190.402 6.37652e-11 2.75676e+06 103.968 6.35678e-11 7.3101e-10 240470 1.63554e+12
67.2987 121.847 224.704 6.31271e-11 3.25638e+06 121.459 6.29258e-11 6.23009e-10 329956 1.93019e+12
71.1191 142.901 265.185 6.27332e-11 3.84387e+06 142.446 6.25333e-11 5.30879e-10 454225 2.27792e+12
75.1563 167.548 312.958 6.2325e-11 4.53277e+06 167.016 6.2127e-11 4.52303e-10 624591 2.68829e+12
79.4227 196.461 369.339 6.19244e-11 5.35083e+06 195.838 6.1728e-11 3.85299e-10 859973 3.17259e+12
83.9313 230.827 435.876 6.16502e-11 6.32174e+06 230.083 6.14515e-11 3.28173e-10 1.18759e+06 3.74415e+12
88.6959 271.324 514.4 6.14041e-11 7.44986e+06 270.436 6.12032e-11 2.79476e-10 1.63682e+06 4.41866e+12
93.7309 319.086 607.071 6.11898e-11 8.79764e+06 318.053 6.09916e-11 2.37972e-10 2.26213e+06 5.2147e+12
99.0518 375.723 716.436 6.1052e-11 1.03827e+07 374.486 6.08511e-11 2.02605e-10 3.12867e+06 6.15414e+12
104.675 453.093 845.504 6.23852e-11 1.22515e+07 452.152 6.22557e-11 1.72471e-10 4.43155e+06 7.26283e+12
110.617 521.526 997.824 6.0846e-11 1.44573e+07 519.823 6.06474e-11 1.468e-10 5.9923e+06 8.57124e+12
116.896 614.65 1177.58 6.07639e-11 1.70664e+07 612.625 6.05637e-11 1.24935e-10 8.3005e+06 1.01154e+13
123.532 724.969 1389.73 6.07294e-11 2.0139e+07 722.567 6.05282e-11 1.06313e-10 1.1504e+07 1.19377e+13
130.545 861.828 1640.09 6.11733e-11 2.37643e+07 859.319 6.09952e-11 9.04567e-11 1.60711e+07 1.40883e+13
137.955 1008.15 1935.56 6.06358e-11 2.80503e+07 1004.82 6.04355e-11 7.69563e-11 2.21015e+07 1.66263e+13
145.787 1189.09 2284.26 6.06012e-11 3.30981e+07 1185.14 6.03997e-11 6.54636e-11 3.06397e+07 1.96216e+13
154.063 1408.78 2695.77 6.08372e-11 3.90634e+07 1404.09 6.06347e-11 5.56812e-11 4.26807e+07 2.31565e+13
162.808 1657.27 3181.42 6.06432e-11 4.61057e+07 1651.77 6.04419e-11 4.73556e-11 5.90425e+07 2.73282e+13
172.051 1957.02 3754.56 6.06799e-11 5.44046e+07 1950.48 6.04771e-11 4.02708e-11 8.19766e+07 3.22515e+13
181.818 2314.86 4430.96 6.08186e-11 6.42064e+07 2307.17 6.06166e-11 3.42426e-11 1.14038e+08 3.80616e+13
192.139 2733.92 5229.21 6.08638e-11 7.57748e+07 2724.74 6.06595e-11 2.91139e-11 1.5841e+08 4.49186e+13
203.046 3233.56 6171.26 6.09983e-11 8.94213e+07 3222.68 6.07929e-11 2.4751e-11 2.20376e+08 5.30108e+13
214.572 3826.85 7283.03 6.11701e-11 1.05538e+08 3813.92 6.09635e-11 2.10401e-11 3.06833e+08 6.25608e+13
226.753 4533.12 8595.09 6.13984e-11 1.24552e+08 4517.74 6.119e-11 1.78839e-11 4.27607e+08 7.38313e+13
239.625 5375.94 10143.5 6.16987e-11 1.46987e+08 5357.52 6.14872e-11 1.51999e-11 5.96643e+08 8.71322e+13
253.228 6387.82 11970.9 6.21207e-11 1.7347e+08 6365.79 6.19064e-11 1.29176e-11 8.34215e+08 1.02829e+14
267.603 7603.5 14127.5 6.26554e-11 2.04703e+08 7577.08 6.24377e-11 1.09771e-11 1.1684e+09 1.21354e+14
282.795 9081.04 16672.6 6.34078e-11 2.4161e+08 9049.05 6.31844e-11 9.3274e-12 1.64247e+09 1.43217e+14
298.848 10882.6 19676.2 6.43872e-11 2.85122e+08 10843.5 6.4156e-11 7.925e-12 2.3165e+09 1.69017e+14
315.813 13120.5 23220.9 6.57779e-11 3.36491e+08 13072.7 6.55385e-11 6.73295e-12 3.28737e+09 1.99466e+14
333.741 15930.5 27404.3 6.76739e-11 3.97115e+08 15870 6.74168e-11 5.71979e-12 4.69848e+09 2.35401e+14
352.686 19552.6 32341.2 7.03815e-11 4.68637e+08 19474.8 7.01016e-11 4.85874e-12 6.78846e+09 2.77809e+14
372.707 24358.7 38167.6 7.42969e-11 5.53074e+08 24256.3 7.39845e-11 4.12703e-12 9.95672e+09 3.27857e+14
393.865 30992.1 45043.5 8.00992e-11 6.52716e+08 30851.4 7.97358e-11 3.50528e-12 1.49152e+10 3.86921e+14
416.224 36571.7 53158.3 8.00911e-11 2.2184e+08 38689.5 8.4729e-11 2.97701e-12 5.9682e+09 4.56626e+14
439.852 0 62734.9 0 0 0 0 2.52819e-12 0 5.38888e+14
464.821 0 74036.7 0 0 0 0 2.1469e-12 0 6.35971e+14
491.207 0 87374.6 0 0 0 0 1.82301e-12 0 7.50542e+14
519.092 0 103115 0 0 0 0 1.54789e-12 0 8.85755e+14
548.56 0 121692 0 0 0 0 1.31422e-12 0 1.04533e+15
579.7 0 143615 0 0 0 0 1.11576e-12 0 1.23364e+15
612.608 0 169488 0 0 0 0 9.47223e-13 0 1.45589e+15
647.384 0 200021 0 0 0 0 8.041e-13 0 1.71817e+15
684.134 0 236056 0 0 0 0 6.82568e-13 0 2.0277e+15
722.971 0 278582 0 0 0 0 5.79376e-13 0 2.393e+15
764.012 0 328769 0 0 0 0 4.91762e-13 0 2.8241e+15
0.148056
200
1.0655e+09
8589934592
0.0129181 6.98956e-05 1.58924e-09 5.12001e-06 6 6.92557e-05 5.07313e-06 0.00677225 0.00453616 13.6515
0.0136515 0 1.87554e-09 0 0 0 0 0.00688819 0 16.1108
0.0144264 0 2.21343e-09 0 0 0 0 0.00699249 0 19.0132
0.0152454 0 2.61218e-09 0 0 0 0 0.00708412 0 22.4385
0.0161108 0 3.08278e-09 0 0 0 0 0.00716212 0 26.4808
0.0170254 0 3.63815e-09 0 0 0 0 0.00722559 0 31.2514
0.0179919 0.000156109 4.29357e-09 4.23273e-06 12 0.000155908 4.22727e-06 0.00727371 0.00698306 36.8815
0.0190132 0 5.06707e-09 0 0 0 0 0.00730578 0 43.5258
0.0200925 0 5.97991e-09 0 0 0 0 0.00732122 0 51.367
0.0212331 0.000148046 7.05721e-09 2.44217e-06 8 0.000147918 2.44004e-06 0.00731958 0.00266919 60.621
0.0224385 0 8.32858e-09 0 0 0 0 0.00730056 0 71.542
0.0237123 0 9.829e-09 0 0 0 0 0.00726401 0 84.4305
0.0250583 0.00095299 1.15997e-08 9.56425e-06 6 0.000952541 9.55975e-06 0.00720995 0.00795921 99.6408
0.0264808 0 1.36894e-08 0 0 0 0 0.00713857 0 117.591
0.0279841 0.000593968 1.61556e-08 4.28005e-06 24 0.000593358 4.27566e-06 0.00705021 0.01457 138.776
0.0295727 0 1.90661e-08 0 0 0 0 0.00694538 0 163.777
0.0312514 0.00106287 2.25009e-08 5.49907e-06 24 0.00106826 5.52699e-06 0.00682475 0.0193381 193.281
0.0330255 0 2.65545e-08 0 0 0 0 0.00668915 0 228.102
0.0349003 0.00149272 3.13384e-08 5.54512e-06 12 0.00148076 5.50072e-06 0.00653951 0.0101753 269.195
0.0368815 0.00129056 3.69841e-08 4.0623e-06 30 0.00127681 4.01904e-06 0.00637693 0.0191109 317.691
0.0389751 0.00153737 4.36469e-08 4.10049e-06 24 0.00152156 4.05831e-06 0.00620256 0.0158663 374.924
0.0411876 0.000974652 5.151e-08 2.20277e-06 24 0.000968033 2.18781e-06 0.00601767 0.0087852 442.467
0.0435258 0.00210978 6.07896e-08 4.04035e-06 8 0.00210962 4.04004e-06 0.00582358 0.00555033 522.179
0.0459966 0.00269718 7.1741e-08 4.37676e-06 72 0.00267584 4.34213e-06 0.00562166 0.0560558 616.251
0.0486077 0 8.46654e-08 0 0 0 0 0.0054133 0 727.27
0.051367 0.00403096 9.99181e-08 4.6965e-06 54 0.00401817 4.6816e-06 0.00519989 0.0487724 858.29
0.054283 0.00313557 1.17919e-07 3.0956e-06 60 0.00314866 3.10852e-06 0.0049828 0.0372754 1012.91
0.0573645 0.00311736 1.39162e-07 2.60782e-06 96 0.00310936 2.60112e-06 0.00476339 0.0525572 1195.39
0.060621 0.00360189 1.64232e-07 2.55318e-06 24 0.00355309 2.51859e-06 0.00454293 0.0134883 1410.75
0.0640622 0.00634732 1.93819e-07 3.81245e-06 134 0.00635078 3.81452e-06 0.00432265 0.118184 1664.89
0.0676989 0.00609011 2.28736e-07 3.09956e-06 120 0.0060622 3.08536e-06 0.00410371 0.0906368 1964.83
0.071542 0.00556729 2.69944e-07 2.40094e-06 108 0.00550704 2.37495e-06 0.00388717 0.0667069 2318.8
0.0756032 0.00809422 3.18575e-07 2.95783e-06 174 0.00805199 2.9424e-06 0.00367401 0.140082 2736.54
0.079895 0.00865175 3.75967e-07 2.67895e-06 168 0.00857016 2.65368e-06 0.0034651 0.129885 3229.53
0.0844305 0.00739483 4.43698e-07 1.94022e-06 168 0.00743179 1.94992e-06 0.00326121 0.0999496 3811.34
0.0892234 0.0083243 5.23632e-07 1.85068e-06 290 0.00828934 1.84291e-06 0.00306301 0.175219 4497.96
0.0942883 0.0108038 6.17966e-07 2.03528e-06 288 0.0107765 2.03014e-06 0.00287109 0.204159 5308.28
0.0996408 0.00982548 7.29294e-07 1.56842e-06 366 0.00974262 1.55519e-06 0.00268591 0.213723 6264.59
0.105297 0.0106609 8.60678e-07 1.442e-06 420 0.0105872 1.43203e-06 0.00250785 0.241497 7393.17
0.111275 0.011282 1.01573e-06 1.29306e-06 398 0.011251 1.2895e-06 0.00233721 0.220193 8725.07
0.117591 0.0134271 1.19872e-06 1.304e-06 624 0.0134546 1.30666e-06 0.00217419 0.37425 10296.9
0.124267 0.0148655 1.41467e-06 1.2233e-06 642 0.0148465 1.22174e-06 0.00201893 0.388999 12151.9
0.131321 0.0188596 1.66953e-06 1.31507e-06 800 0.0188664 1.31554e-06 0.00187147 0.562156 14341.1
0.138776 0.0170928 1.9703e-06 1.00993e-06 858 0.0171752 1.0148e-06 0.00173182 0.500354 16924.7
0.146654 0.0184726 2.32525e-06 9.24842e-07 1080 0.018627 9.32575e-07 0.00159991 0.624304 19973.8
0.154979 0.0218606 2.74415e-06 9.27392e-07 1286 0.0220117 9.33802e-07 0.00147563 0.808212 23572.1
0.163777 0.0206718 3.23852e-06 7.43091e-07 1650 0.0207091 7.4443e-07 0.00135884 0.902314 27818.7
0.173074 0.0243393 3.82195e-06 7.41368e-07 1778 0.0243421 7.41453e-07 0.00124933 1.05509 32830.3
0.182899 0.0237798 4.51048e-06 6.13756e-07 2112 0.0238366 6.15222e-07 0.00114689 1.13023 38744.7
0.193281 0.0279407 5.32305e-06 6.11065e-07 2570 0.0279817 6.1196e-07 0.00105127 1.49384 45724.7
0.204254 0.0310865 6.28202e-06 5.7608e-07 3030 0.0310732 5.75835e-07 0.000962209 1.81408 53962.1
0.215848 0.0308957 7.41374e-06 4.85144e-07 3434 0.0308899 4.85053e-07 0.000879423 1.89441 63683.5
0.228102 0.0322732 8.74934e-06 4.29414e-07 4218 0.0322816 4.29527e-07 0.000802624 2.25669 75156.3
0.24105 0.0364283 1.03256e-05 4.1071e-07 4766 0.0364634 4.11106e-07 0.000731515 2.67587 88695.9
0.254734 0.0389622 1.21857e-05 3.72222e-07 6026 0.0389504 3.72109e-07 0.000665798 3.3689 104675
0.269195 0.0407925 1.4381e-05 3.30217e-07 6480 0.0407725 3.30056e-07 0.000605173 3.53586 123532
0.284476 0.0442692 1.69718e-05 3.03657e-07 8162 0.0443717 3.0436e-07 0.000549345 4.51165 145787
0.300625 0.044564 2.00293e-05 2.59017e-07 9578 0.0446207 2.59346e-07 0.000498021 4.98144 172051
0.317691 0.0495807 2.36377e-05 2.44184e-07 11234 0.0495436 2.44002e-07 0.000450916 6.08354 203046
0.335725 0.0518692 2.78961e-05 2.1646e-07 13344 0.0518445 2.16357e-07 0.000407755 7.08376 239625
0.354784 0.0538567 3.29216e-05 1.90445e-07 15464 0.0538246 1.90331e-07 0.000368269 7.99697 282795
0.374924 0.0578197 3.88525e-05 1.73247e-07 18458 0.0578126 1.73226e-07 0.000332202 9.62608 333741
0.396207 0.0606629 4.58519e-05 1.54019e-07 22232 0.0605764 1.538e-07 0.000299307 11.4403 393865
0.418699 0.0656516 5.41123e-05 1.41241e-07 25628 0.0655138 1.40944e-07 0.00026935 13.4387 464821
0.442467 0.068543 6.38607e-05 1.24951e-07 30320 0.0684223 1.24731e-07 0.000242108 15.648 548560
0.467585 0.0717729 7.53654e-05 1.10866e-07 35452 0.0716699 1.10707e-07 0.00021737 18.0817 647384
0.494129 0.074599 8.89427e-05 9.76411e-08 41792 0.0745705 9.76038e-08 0.000194938 20.9329 764012
0.522179 0.0806114 0.000104966 8.94042e-08 49988 0.0805881 8.93783e-08 0.000174625 25.5928 901651
0.551822 0.0843411 0.000123876 7.92615e-08 59110 0.0842866 7.92103e-08 0.000156255 29.9841 1.06409e+06
0.583147 0.0891836 0.000146192 7.10183e-08 69716 0.0890748 7.09316e-08 0.000139664 35.4501 1.25578e+06
0.616251 0.0941177 0.000172529 6.35065e-08 82210 0.0939685 6.34058e-08 0.0001247 41.8674 1.48202e+06
0.651234 0.0996445 0.000203611 5.69721e-08 96722 0.0994608 5.68671e-08 0.00011122 49.5453 1.74901e+06
0.688203 0.104894 0.000240292 5.08186e-08 113098 0.104797 5.07714e-08 9.90935e-05 58.0007 2.06409e+06
0.72727 0.109292 0.000283581 4.48664e-08 135190 0.10918 4.48203e-08 8.81969e-05 68.7721 2.43595e+06
0.768555 0.116101 0.000334669 4.03859e-08 158170 0.115996 4.03495e-08 7.84179e-05 81.459 2.87479e+06
0.812184 0.121646 0.000394961 3.58552e-08 188560 0.121525 3.58198e-08 6.96525e-05 97.0656 3.39269e+06
0.85829 0.127567 0.000466114 3.18607e-08 220444 0.12742 3.1824e-08 6.1805e-05 113.64 4.00389e+06
0.907013 0.134293 0.000550086 2.84206e-08 261388 0.134156 2.83917e-08 5.47875e-05 135.593 4.7252e+06
0.958501 0.141153 0.000649185 2.53122e-08 308244 0.141002 2.52853e-08 4.85194e-05 160.809 5.57646e+06
1.01291 0.149312 0.000766138 2.26881e-08 364396 0.149147 2.2663e-08 4.29272e-05 192.593 6.58107e+06
1.07041 0.156281 0.00090416 2.0122e-08 429162 0.156085 2.00967e-08 3.79435e-05 227.591 7.76667e+06
1.13118 0.165194 0.00106705 1.80227e-08 506358 0.164997 1.80013e-08 3.3507e-05 272.359 9.16586e+06
1.19539 0.173171 0.00125928 1.6009e-08 598590 0.172947 1.59883e-08 2.9562e-05 324.16 1.08171e+07
1.26325 0.182317 0.00148614 1.42816e-08 704844 0.182081 1.42631e-08 2.60578e-05 386.308 1.27658e+07
1.33496 0.191262 0.00175387 1.26953e-08 834620 0.191008 1.26784e-08 2.29484e-05 461.719 1.50656e+07
1.41075 0.2011 0.00206984 1.13106e-08 981444 0.200852 1.12967e-08 2.01923e-05 549.752 1.77798e+07
1.49083 0.211589 0.00244272 1.00839e-08 1.15998e+06 0.211313 1.00708e-08 1.77518e-05 658.926 2.09828e+07
1.57546 0.223455 0.00288279 9.02376e-09 1.36931e+06 0.223154 9.0116e-09 1.55929e-05 792.435 2.4763e+07
1.66489 0.234994 0.00340213 8.0411e-09 1.61652e+06 0.234651 8.02937e-09 1.3685e-05 949.839 2.92241e+07
1.75941 0.247305 0.00401503 7.17058e-09 1.90601e+06 0.246954 7.1604e-09 1.20007e-05 1138.87 3.44889e+07
1.85928 0.260947 0.00473835 6.41114e-09 2.24913e+06 0.260595 6.4025e-09 1.05151e-05 1371.31 4.07021e+07
1.96483 0.274357 0.00559198 5.71165e-09 2.65744e+06 0.273951 5.70318e-09 9.20606e-06 1648.74 4.80347e+07
2.07637 0.289719 0.00659939 5.11074e-09 3.13125e+06 0.289306 5.10345e-09 8.05366e-06 1987.05 5.66883e+07
2.19424 0.305658 0.00778828 4.56883e-09 3.69915e+06 0.305231 4.56244e-09 7.04008e-06 2400.65 6.69008e+07
2.3188 0.322564 0.00919136 4.08551e-09 4.36472e+06 0.32209 4.07951e-09 6.1494e-06 2899.81 7.89532e+07
2.45043 0.341017 0.0108472 3.65989e-09 5.14913e+06 0.34051 3.65445e-09 5.36741e-06 3511.05 9.31768e+07
2.58954 0.361082 0.0128014 3.28367e-09 6.07894e+06 0.360533 3.27868e-09 4.68145e-06 4263.9 1.09963e+08
2.73654 0.381698 0.0151076 2.94127e-09 7.17304e+06 0.381124 2.93685e-09 4.08023e-06 5170.75 1.29773e+08
2.89188 0.40434 0.0178292 2.64012e-09 8.46557e+06 0.40373 2.63614e-09 3.55373e-06 6289.21 1.53152e+08
3.05605 0.42879 0.0210412 2.37238e-09 9.98773e+06 0.428164 2.36891e-09 3.09304e-06 7660.64 1.80743e+08
3.22953 0.454776 0.0248319 2.13205e-09 1.1797e+07 0.454075 2.12877e-09 2.69025e-06 9349.26 2.13304e+08
3.41286 0.483308 0.0293054 1.91994e-09 1.39144e+07 0.482533 1.91686e-09 2.33837e-06 11424.5 2.51731e+08
3.6066 0.513605 0.0345848 1.72884e-09 1.64163e+07 0.512803 1.72614e-09 2.0312e-06 13972.6 2.97081e+08
3.81134 0.546732 0.0408154 1.55941e-09 1.93821e+07 0.545857 1.55692e-09 1.76327e-06 17141.4 3.50601e+08
4.0277 0.582494 0.0481684 1.4078e-09 2.28754e+07 0.58155 1.40551e-09 1.52972e-06 21052.1 4.13763e+08
4.25634 0.621162 0.056846 1.27208e-09 2.69929e+07 0.620131 1.26997e-09 1.32631e-06 25889.3 4.88304e+08
4.49796 0.663725 0.067087 1.15176e-09 3.18542e+07 0.662607 1.14981e-09 1.14926e-06 31923.5 5.76273e+08
4.7533 0.709575 0.0791729 1.04335e-09 3.75892e+07 0.708369 1.04158e-09 9.95263e-07 39405.5 6.8009e+08
5.02313 0.759406 0.0934361 9.46171e-10 4.43706e+07 0.758115 9.44562e-10 8.61414e-07 48736.4 8.0261e+08
5.30828 0.813608 0.110269 8.58959e-10 5.23593e+07 0.812185 8.57457e-10 7.45152e-07 60356 9.47202e+08
5.60962 0.873351 0.130134 7.81282e-10 6.1787e+07 0.87182 7.79912e-10 6.44232e-07 74931.2 1.11784e+09
5.92807 0.938392 0.153578 7.1132e-10 7.29346e+07 0.936688 7.10029e-10 5.56685e-07 93194.2 1.31923e+09
6.26459 1.00962 0.181246 6.48484e-10 8.60651e+07 1.00776 6.47293e-10 4.80786e-07 116084 1.55689e+09
6.62021 1.0887 0.213898 5.92532e-10 1.01558e+08 1.08667 5.9143e-10 4.15026e-07 144994 1.83737e+09
6.99602 1.17552 0.252432 5.4212e-10 1.1986e+08 1.17331 5.41101e-10 3.58083e-07 181462 2.16837e+09
7.39317 1.27221 0.297908 4.97151e-10 1.41457e+08 1.26977 4.96197e-10 3.08803e-07 227735 2.55901e+09
7.81286 1.37929 0.351577 4.56714e-10 1.66936e+08 1.37658 4.55819e-10 2.66181e-07 286429 3.02002e+09
8.25637 1.49893 0.414914 4.20566e-10 1.97025e+08 1.49595 4.19729e-10 2.29336e-07 361313 3.56409e+09
8.72507 1.63285 0.489662 3.88203e-10 2.32497e+08 1.62952 3.87413e-10 1.97503e-07 456985 4.20617e+09
9.22037 1.78406 0.577876 3.59406e-10 2.74404e+08 1.78034 3.58656e-10 1.70014e-07 580084 4.96392e+09
9.74378 1.95726 0.681982 3.34107e-10 3.2382e+08 1.95305 3.33389e-10 1.46289e-07 739567 5.85818e+09
10.2969 2.15979 0.804843 3.124e-10 3.82165e+08 2.15494 3.11698e-10 1.25822e-07 948863 6.91355e+09
10.8814 2.40547 0.949838 2.94823e-10 4.51027e+08 2.39971 2.94117e-10 1.08175e-07 1.22923e+06 8.15905e+09
11.4992 2.71891 1.12095 2.8237e-10 5.32251e+08 2.71173 2.81624e-10 9.29669e-08 1.61661e+06 9.62892e+09
12.1519 3.14797 1.3229 2.77023e-10 6.28157e+08 3.13844 2.76184e-10 7.98658e-08 2.17883e+06 1.13636e+10
12.8418 3.60997 1.56122 2.69184e-10 3.82727e+08 3.7359 2.78574e-10 6.85852e-08 1.50213e+06 1.34108e+10
13.5708 0 1.84248 0 0 0 0 5.88765e-08 0 1.58268e+10
14.3411 0 2.17441 0 0 0 0 5.05241e-08 0 1.8678e+10
15.1552 0 2.56613 0 0 0 0 4.33417e-08 0 2.20429e+10
16.0156 0 3.02843 0 0 0 0 3.71677e-08 0 2.6014e+10
16.9247 0 3.574 0 0 0 0 3.18628e-08 0 3.07005e+10
17.8855 0 4.21787 0 0 0 0 2.73063e-08 0 3.62312e+10
18.9008 0 4.97773 0 0 0 0 2.33941e-08 0 4.27584e+10
19.9738 0 5.87448 0 0 0 0 2.00364e-08 0 5.04614e+10
21.1076 0 6.93279 0 0 0 0 1.71555e-08 0 5.95522e+10
22.3058 0 8.18175 0 0 0 0 1.46847e-08 0 7.02807e+10
23.5721 0 9.65571 0 0 0 0 1.25662e-08 0 8.29419e+10
24.9102 0 11.3952 0 0 0 0 1.07504e-08 0 9.78842e+10
26.3243 0 13.4481 0 0 0 0 9.19452e-09 0 1.15518e+11
27.8187 0 15.8708 0 0 0 0 7.86182e-09 0 1.36329e+11
29.3979 0 18.73 0 0 0 0 6.72061e-09 0 1.60889e+11
31.0667 0 22.1042 0 0 0 0 5.74366e-09 0 1.89874e+11
32.8303 0 26.0864 0 0 0 0 4.90756e-09 0 2.2408e+11
34.694 0 30.7859 0 0 0 0 4.19221e-09 0 2.64449e+11
36.6634 0 36.3321 0 0 0 0 3.58032e-09 0 3.1209e+11
38.7447 0 42.8774 0 0 0 0 3.05709e-09 0 3.68314e+11
40.9442 0 50.6018 0 0 0 0 2.60976e-09 0 4.34667e+11
43.2685 0 59.7179 0 0 0 0 2.22743e-09 0 5.12973e+11
45.7247 0 70.4762 0 0 0 0 1.90073e-09 0 6.05386e+11
48.3204 0 83.1727 0 0 0 0 1.62163e-09 0 7.14448e+11
51.0634 0 98.1565 0 0 0 0 1.38326e-09 0 8.43158e+11
53.9621 0 115.84 0 0 0 0 1.1797e-09 0 9.95055e+11
57.0254 0 136.709 0 0 0 0 1.00592e-09 0 1.17432e+12
60.2626 0 161.337 0 0 0 0 8.57591e-10 0 1.38587e+12
63.6835 0 190.402 0 0 0 0 7.3101e-10 0 1.63554e+12
67.2987 0 224.704 0 0 0 0 6.23009e-10 0 1.93019e+12
71.1191 0 265.185 0 0 0 0 5.30879e-10 0 2.27792e+12
75.1563 0 312.958 0 0 0 0 4.52303e-10 0 2.68829e+12
79.4227 0 369.339 0 0 0 0 3.85299e-10 0 3.17259e+12
83.9313 0 435.876 0 0 0 0 3.28173e-10 0 3.74415e+12
88.6959 0 514.4 0 0 0 0 2.79476e-10 0 4.41866e+12
93.7309 0 607.071 0 0 0 0 2.37972e-10 0 5.2147e+12
99.0518 0 716.436 0 0 0 0 2.02605e-10 0 6.15414e+12
104.675 0 845.504 0 0 0 0 1.72471e-10 0 7.26283e+12
110.617 0 997.824 0 0 0 0 1.468e-10 0 8.57124e+12
116.896 0 1177.58 0 0 0 0 1.24935e-10 0 1.01154e+13
123.532 0 1389.73 0 0 0 0 1.06313e-10 0 1.19377e+13
130.545 0 1640.09 0 0 0 0 9.04567e-11 0 1.40883e+13
137.955 0 1935.56 0 0 0 0 7.69563e-11 0 1.66263e+13
145.787 0 2284.26 0 0 0 0 6.54636e-11 0 1.96216e+13
154.063 0 2695.77 0 0 0 0 5.56812e-11 0 2.31565e+13
162.808 0 3181.42 0 0 0 0 4.73556e-11 0 2.73282e+13
172.051 0 3754.56 0 0 0 0 4.02708e-11 0 3.22515e+13
181.818 0 4430.96 0 0 0 0 3.42426e-11 0 3.80616e+13
192.139 0 5229.21 0 0 0 0 2.91139e-11 0 4.49186e+13
203.046 0 6171.26 0 0 0 0 2.4751e-11 0 5.30108e+13
214.572 0 7283.03 0 0 0 0 2.10401e-11 0 6.25608e+13
226.753 0 8595.09 0 0 0 0 1.78839e-11 0 7.38313e+13
239.625 0 10143.5 0 0 0 0 1.51999e-11 0 8.71322e+13
253.228 0 11970.9 0 0 0 0 1.29176e-11 0 1.02829e+14
267.603 0 14127.5 0 0 0 0 1.09771e-11 0 1.21354e+14
282.795 0 16672.6 0 0 0 0 9.3274e-12 0 1.43217e+14
298.848 0 19676.2 0 0 0 0 7.925e-12 0 1.69017e+14
315.813 0 23220.9 0 0 0 0 6.73295e-12 0 1.99466e+14
333.741 0 27404.3 0 0 0 0 5.71979e-12 0 2.35401e+14
352.686 0 32341.2 0 0 0 0 4.85874e-12 0 2.77809e+14
372.707 0 38167.6 0 0 0 0 4.12703e-12 0 3.27857e+14
393.865 0 45043.5 0 0 0 0 3.50528e-12 0 3.86921e+14
416.224 0 53158.3 0 0 0 0 2.97701e-12 0 4.56626e+14
439.852 0 62734.9 0 0 0 0 2.52819e-12 0 5.38888e+14
464.821 0 74036.7 0 0 0 0 2.1469e-12 0 6.35971e+14
491.207 0 87374.6 0 0 0 0 1.82301e-12 0 7.50542e+14
519.092 0 103115 0 0 0 0 1.54789e-12 0 8.85755e+14
548.56 0 121692 0 0 0 0 1.31422e-12 0 1.04533e+15
579.7 0 143615 0 0 0 0 1.11576e-12 0 1.23364e+15
612.608 0 169488 0 0 0 0 9.47223e-13 0 1.45589e+15
647.384 0 200021 0 0 0 0 8.041e-13 0 1.71817e+15
684.134 0 236056 0 0 0 0 6.82568e-13 0 2.0277e+15
722.971 0 278582 0 0 0 0 5.79376e-13 0 2.393e+15
764.012 0 328769 0 0 0 0 4.91762e-13 0 2.8241e+15
