0.381851
200
1.0655e+09
8589934592
0.0129181 0 1.58924e-09 0 0 0 0 0.00677225 0 13.6515
0.0136515 0 1.87554e-09 0 0 0 0 0.00688819 0 16.1108
0.0144264 0 2.21343e-09 0 0 0 0 0.00699249 0 19.0132
0.0152454 0 2.61218e-09 0 0 0 0 0.00708412 0 22.4385
0.0161108 0 3.08278e-09 0 0 0 0 0.00716212 0 26.4808
0.0170254 0 3.63815e-09 0 0 0 0 0.00722559 0 31.2514
0.0179919 0 4.29357e-09 0 0 0 0 0.00727371 0 36.8815
0.0190132 0 5.06707e-09 0 0 0 0 0.00730578 0 43.5258
0.0200925 0 5.97991e-09 0 0 0 0 0.00732122 0 51.367
0.0212331 0 7.05721e-09 0 0 0 0 0.00731958 0 60.621
0.0224385 0 8.32858e-09 0 0 0 0 0.00730056 0 71.542
0.0237123 0 9.829e-09 0 0 0 0 0.00726401 0 84.4305
0.0250583 0 1.15997e-08 0 0 0 0 0.00720995 0 99.6408
0.0264808 0 1.36894e-08 0 0 0 0 0.00713857 0 117.591
0.0279841 0 1.61556e-08 0 0 0 0 0.00705021 0 138.776
0.0295727 0 1.90661e-08 0 0 0 0 0.00694538 0 163.777
0.0312514 0 2.25009e-08 0 0 0 0 0.00682475 0 193.281
0.0330255 0 2.65545e-08 0 0 0 0 0.00668915 0 228.102
0.0349003 0 3.13384e-08 0 0 0 0 0.00653951 0 269.195
0.0368815 0 3.69841e-08 0 0 0 0 0.00637693 0 317.691
0.0389751 0 4.36469e-08 0 0 0 0 0.00620256 0 374.924
0.0411876 0 5.151e-08 0 0 0 0 0.00601767 0 442.467
0.0435258 0 6.07896e-08 0 0 0 0 0.00582358 0 522.179
0.0459966 0 7.1741e-08 0 0 0 0 0.00562166 0 616.251
0.0486077 0 8.46654e-08 0 0 0 0 0.0054133 0 727.27
0.051367 0 9.99181e-08 0 0 0 0 0.00519989 0 858.29
0.054283 0 1.17919e-07 0 0 0 0 0.0049828 0 1012.91
0.0573645 0 1.39162e-07 0 0 0 0 0.00476339 0 1195.39
0.060621 0 1.64232e-07 0 0 0 0 0.00454293 0 1410.75
0.0640622 0 1.93819e-07 0 0 0 0 0.00432265 0 1664.89
0.0676989 0 2.28736e-07 0 0 0 0 0.00410371 0 1964.83
0.071542 0 2.69944e-07 0 0 0 0 0.00388717 0 2318.8
0.0756032 0 3.18575e-07 0 0 0 0 0.00367401 0 2736.54
0.079895 0 3.75967e-07 0 0 0 0 0.0034651 0 3229.53
0.0844305 0 4.43698e-07 0 0 0 0 0.00326121 0 3811.34
0.0892234 0 5.23632e-07 0 0 0 0 0.00306301 0 4497.96
0.0942883 0 6.17966e-07 0 0 0 0 0.00287109 0 5308.28
0.0996408 0 7.29294e-07 0 0 0 0 0.00268591 0 6264.59
0.105297 0 8.60678e-07 0 0 0 0 0.00250785 0 7393.17
0.111275 0 1.01573e-06 0 0 0 0 0.00233721 0 8725.07
0.117591 0 1.19872e-06 0 0 0 0 0.00217419 0 10296.9
0.124267 0 1.41467e-06 0 0 0 0 0.00201893 0 12151.9
0.131321 0 1.66953e-06 0 0 0 0 0.00187147 0 14341.1
0.138776 0 1.9703e-06 0 0 0 0 0.00173182 0 16924.7
0.146654 0 2.32525e-06 0 0 0 0 0.00159991 0 19973.8
0.154979 0 2.74415e-06 0 0 0 0 0.00147563 0 23572.1
0.163777 0 3.23852e-06 0 0 0 0 0.00135884 0 27818.7
0.173074 0 3.82195e-06 0 0 0 0 0.00124933 0 32830.3
0.182899 0 4.51048e-06 0 0 0 0 0.00114689 0 38744.7
0.193281 0 5.32305e-06 0 0 0 0 0.00105127 0 45724.7
0.204254 0 6.28202e-06 0 0 0 0 0.000962209 0 53962.1
0.215848 0 7.41374e-06 0 0 0 0 0.000879423 0 63683.5
0.228102 0 8.74934e-06 0 0 0 0 0.000802624 0 75156.3
0.24105 0 1.03256e-05 0 0 0 0 0.000731515 0 88695.9
0.254734 0 1.21857e-05 0 0 0 0 0.000665798 0 104675
0.269195 0 1.4381e-05 0 0 0 0 0.000605173 0 123532
0.284476 0 1.69718e-05 0 0 0 0 0.000549345 0 145787
0.300625 0 2.00293e-05 0 0 0 0 0.000498021 0 172051
0.317691 0 2.36377e-05 0 0 0 0 0.000450916 0 203046
0.335725 0 2.78961e-05 0 0 0 0 0.000407755 0 239625
0.354784 0 3.29216e-05 0 0 0 0 0.000368269 0 282795
0.374924 0 3.88525e-05 0 0 0 0 0.000332202 0 333741
0.396207 1.47584 4.58519e-05 3.74706e-06 6 1.43481 3.64289e-06 0.000299307 0.0751148 393865
0.418699 0 5.41123e-05 0 0 0 0 0.00026935 0 464821
0.442467 0 6.38607e-05 0 0 0 0 0.000242108 0 548560
0.467585 0 7.53654e-05 0 0 0 0 0.00021737 0 647384
0.494129 0 8.89427e-05 0 0 0 0 0.000194938 0 764012
0.522179 0 0.000104966 0 0 0 0 0.000174625 0 901651
0.551822 0 0.000123876 0 0 0 0 0.000156255 0 1.06409e+06
0.583147 8.94967 0.000146192 7.12676e-06 12 9.41957 7.50095e-06 0.000139664 0.612334 1.25578e+06
0.616251 0 0.000172529 0 0 0 0 0.0001247 0 1.48202e+06
0.651234 0 0.000203611 0 0 0 0 0.00011122 0 1.74901e+06
0.688203 27.2785 0.000240292 1.32158e-05 8 26.5999 1.2887e-05 9.90935e-05 1.06693 2.06409e+06
0.72727 0 0.000283581 0 0 0 0 8.81969e-05 0 2.43595e+06
0.768555 0 0.000334669 0 0 0 0 7.84179e-05 0 2.87479e+06
0.812184 2.74757 0.000394961 8.0985e-07 6 2.80631 8.27165e-07 6.96525e-05 0.069762 3.39269e+06
0.85829 0 0.000466114 0 0 0 0 6.1805e-05 0 4.00389e+06
0.907013 1.19486 0.000550086 2.52869e-07 24 1.21778 2.57721e-07 5.47875e-05 0.110771 4.7252e+06
0.958501 3.5282 0.000649185 6.32695e-07 24 3.32154 5.95635e-07 4.85194e-05 0.312961 5.57646e+06
1.01291 0 0.000766138 0 0 0 0 4.29272e-05 0 6.58107e+06
1.07041 0 0.00090416 0 0 0 0 3.79435e-05 0 7.76667e+06
1.13118 4.56422 0.00106705 4.97959e-07 12 4.50816 4.91842e-07 3.3507e-05 0.178336 9.16586e+06
1.19539 2.30038 0.00125928 2.12661e-07 30 2.25296 2.08277e-07 2.9562e-05 0.215812 1.08171e+07
1.26325 10.3846 0.00148614 8.13471e-07 24 10.2284 8.01231e-07 2.60578e-05 0.749231 1.27658e+07
1.33496 21.547 0.00175387 1.43021e-06 24 21.5944 1.43335e-06 2.29484e-05 1.49575 1.50656e+07
1.41075 11.6659 0.00206984 6.56132e-07 32 11.9474 6.71965e-07 2.01923e-05 1.03981 1.77798e+07
1.49083 1.83941 0.00244272 8.76626e-08 48 1.8002 8.57937e-08 1.77518e-05 0.237036 2.09828e+07
1.57546 2.47295 0.00288279 9.98648e-08 6 2.3548 9.50938e-08 1.55929e-05 0.0384271 2.4763e+07
1.66489 2.94043 0.00340213 1.00617e-07 84 2.86258 9.7953e-08 1.3685e-05 0.617597 2.92241e+07
1.75941 4.78555 0.00401503 1.38757e-07 48 4.78071 1.38616e-07 1.20007e-05 0.554995 3.44889e+07
1.85928 2.56413 0.00473835 6.29974e-08 72 2.58588 6.35319e-08 1.05151e-05 0.431362 4.07021e+07
1.96483 3.64246 0.00559198 7.58298e-08 54 3.55484 7.40057e-08 9.20606e-06 0.444795 4.80347e+07
2.07637 12.738 0.00659939 2.24703e-07 104 12.779 2.25426e-07 8.05366e-06 2.90168 5.66883e+07
2.19424 3.10481 0.00778828 4.64091e-08 120 3.14997 4.70842e-08 7.04008e-06 0.791056 6.69008e+07
2.3188 4.0802 0.00919136 5.16787e-08 156 3.97879 5.03942e-08 6.1494e-06 1.311 7.89532e+07
2.45043 5.21317 0.0108472 5.59492e-08 126 5.17681 5.5559e-08 5.36741e-06 1.31341 9.31768e+07
2.58954 3.87695 0.0128014 3.52569e-08 192 3.89454 3.54169e-08 4.68145e-06 1.44599 1.09963e+08
2.73654 12.8779 0.0151076 9.9234e-08 152 13.179 1.01554e-07 4.08023e-06 3.69674 1.29773e+08
2.89188 8.51068 0.0178292 5.55702e-08 378 8.62703 5.63299e-08 3.55373e-06 5.91084 1.53152e+08
3.05605 6.27749 0.0210412 3.47317e-08 264 6.16941 3.41337e-08 3.09304e-06 2.96445 1.80743e+08
3.22953 5.27221 0.0248319 2.47169e-08 366 5.20352 2.43949e-08 2.69025e-06 3.36265 2.13304e+08
3.41286 6.43943 0.0293054 2.55806e-08 428 6.35701 2.52531e-08 2.33837e-06 4.68209 2.51731e+08
3.6066 9.83846 0.0345848 3.31171e-08 486 9.65138 3.24873e-08 2.0312e-06 7.92382 2.97081e+08
3.81134 7.15532 0.0408154 2.04087e-08 600 7.16278 2.043e-08 1.76327e-06 6.94463 3.50601e+08
4.0277 8.84551 0.0481684 2.13782e-08 738 8.75904 2.11692e-08 1.52972e-06 10.3137 4.13763e+08
4.25634 9.49696 0.056846 1.94489e-08 824 9.50094 1.9457e-08 1.32631e-06 12.0831 4.88304e+08
4.49796 11.8074 0.067087 2.04893e-08 954 11.7885 2.04564e-08 1.14926e-06 17.0082 5.76273e+08
4.7533 10.9251 0.0791729 1.60642e-08 1094 10.9008 1.60285e-08 9.95263e-07 17.6579 6.8009e+08
5.02313 10.1279 0.0934361 1.26187e-08 1332 10.1789 1.26823e-08 8.61414e-07 19.5123 8.0261e+08
5.30828 13.9196 0.110269 1.46955e-08 1614 13.9549 1.47327e-08 7.45152e-07 31.8304 9.47202e+08
5.60962 14.6297 0.130134 1.30874e-08 1850 14.6085 1.30685e-08 6.44232e-07 37.5822 1.11784e+09
5.92807 14.8996 0.153578 1.12942e-08 2238 14.8328 1.12436e-08 5.56685e-07 45.4051 1.31923e+09
6.26459 13.7734 0.181246 8.84677e-09 2546 13.8518 8.89712e-09 4.80786e-07 46.848 1.55689e+09
6.62021 14.7711 0.213898 8.03929e-09 3264 14.7707 8.03907e-09 4.15026e-07 63.2256 1.83737e+09
6.99602 17.8186 0.252432 8.21751e-09 3506 17.866 8.23938e-09 3.58083e-07 80.458 2.16837e+09
7.39317 17.8851 0.297908 6.98906e-09 4506 17.8802 6.98717e-09 3.08803e-07 101.983 2.55901e+09
7.81286 19.5358 0.351577 6.46875e-09 5018 19.5214 6.46401e-09 2.66181e-07 121.948 3.02002e+09
8.25637 21.5344 0.414914 6.04205e-09 5852 21.4878 6.02898e-09 2.29336e-07 154.176 3.56409e+09
8.72507 22.227 0.489662 5.28438e-09 7362 22.1769 5.27246e-09 1.97503e-07 196.977 4.20617e+09
9.22037 22.9741 0.577876 4.62822e-09 8306 22.9275 4.61882e-09 1.70014e-07 226.11 4.96392e+09
9.74378 24.5581 0.681982 4.19209e-09 9698 24.5614 4.19266e-09 1.46289e-07 277.908 5.85818e+09
10.2969 26.3546 0.804843 3.81201e-09 11816 26.3442 3.81051e-09 1.25822e-07 357.987 6.91355e+09
10.8814 28.7074 0.949838 3.51848e-09 13682 28.6539 3.51192e-09 1.08175e-07 445.016 8.15905e+09
11.4992 29.3819 1.12095 3.05142e-09 16152 29.3462 3.04771e-09 9.29669e-08 530.152 9.62892e+09
12.1519 31.306 1.3229 2.75494e-09 19472 31.2429 2.74938e-09 7.98658e-08 671.68 1.13636e+10
12.8418 32.2263 1.56122 2.40301e-09 22670 32.1416 2.3967e-09 6.85852e-08 794.286 1.34108e+10
13.5708 35.1343 1.84248 2.21993e-09 26224 35.1063 2.21816e-09 5.88765e-08 988.773 1.58268e+10
14.3411 36.468 2.17441 1.95245e-09 31640 36.4772 1.95295e-09 5.05241e-08 1222.7 1.8678e+10
15.1552 38.9378 2.56613 1.76646e-09 37484 38.8454 1.76226e-09 4.33417e-08 1527.72 2.20429e+10
16.0156 40.8729 3.02843 1.57119e-09 43856 40.79 1.568e-09 3.71677e-08 1853.92 2.6014e+10
16.9247 43.4085 3.574 1.41394e-09 51362 43.3671 1.41259e-09 3.18628e-08 2279.23 3.07005e+10
17.8855 46.0532 4.21787 1.27109e-09 61636 45.9943 1.26947e-09 2.73063e-08 2869.12 3.62312e+10
18.9008 47.5931 4.97773 1.11307e-09 72218 47.4817 1.11046e-09 2.33941e-08 3436.06 4.27584e+10
19.9738 50.5062 5.87448 1.00089e-09 84586 50.4173 9.99126e-10 2.00364e-08 4225.36 5.04614e+10
21.1076 53.2435 6.93279 8.94065e-10 100708 53.1628 8.92709e-10 1.71555e-08 5248.43 5.95522e+10
22.3058 56.2962 8.18175 8.01019e-10 118712 56.2018 7.99676e-10 1.46847e-08 6475.51 7.02807e+10
23.5721 58.4356 9.65571 7.04536e-10 140410 58.3289 7.03249e-10 1.25662e-08 7872.24 8.29419e+10
24.9102 61.4882 11.3952 6.28173e-10 164374 61.3614 6.26878e-10 1.07504e-08 9604.82 9.78842e+10
26.3243 64.6911 13.4481 5.60008e-10 194680 64.5857 5.59095e-10 9.19452e-09 11857.3 1.15518e+11
27.8187 68.3962 15.8708 5.01699e-10 230196 68.2808 5.00852e-10 7.86182e-09 14689.9 1.36329e+11
29.3979 71.6088 18.73 4.45082e-10 271156 71.4838 4.44304e-10 6.72061e-09 17957.7 1.60889e+11
31.0667 75.49 22.1042 3.9758e-10 321076 75.3467 3.96825e-10 5.74366e-09 22225.1 1.89874e+11
32.8303 79.8085 26.0864 3.56161e-10 377436 79.6685 3.55536e-10 4.90756e-09 27392 2.2408e+11
34.694 83.8796 30.7859 3.17187e-10 447594 83.7153 3.16565e-10 4.19221e-09 33865.4 2.64449e+11
36.6634 88.6428 36.3321 2.8403e-10 525078 88.4892 2.83537e-10 3.58032e-09 41654.8 3.1209e+11
38.7447 93.9595 42.8774 2.55107e-10 621924 93.7769 2.54612e-10 3.05709e-09 51898.2 3.68314e+11
40.9442 99.3601 50.6018 2.28589e-10 732630 99.1736 2.2816e-10 2.60976e-09 64171.2 4.34667e+11
43.2685 105.754 59.7179 2.0616e-10 865596 105.569 2.05798e-10 2.22743e-09 80115.2 5.12973e+11
45.7247 111.889 70.4762 1.84823e-10 1.02168e+06 111.672 1.84464e-10 1.90073e-09 99345.4 6.05386e+11
48.3204 119.862 83.1727 1.67769e-10 1.20544e+06 119.629 1.67443e-10 1.62163e-09 124711 7.14448e+11
51.0634 129.96 98.1565 1.54135e-10 1.42103e+06 129.658 1.53776e-10 1.38326e-09 158344 8.43158e+11
53.9621 137.462 115.84 1.38145e-10 1.67997e+06 137.182 1.37864e-10 1.1797e-09 196727 9.95055e+11
57.0254 148.37 136.709 1.26346e-10 1.98018e+06 148.05 1.26073e-10 1.00592e-09 248715 1.17432e+12
60.2626 161.047 161.337 1.16206e-10 2.33957e+06 160.688 1.15947e-10 8.57591e-10 317018 1.38587e+12
63.6835 175.254 190.402 1.07153e-10 2.75676e+06 174.855 1.06909e-10 7.3101e-10 404094 1.63554e+12
67.2987 192.362 224.704 9.96598e-11 3.25638e+06 191.92 9.94309e-11 6.23009e-10 520908 1.93019e+12
71.1191 211.966 265.185 9.30526e-11 3.84387e+06 211.449 9.28254e-11 5.30879e-10 673755 2.27792e+12
75.1563 234.879 312.958 8.7371e-11 4.53277e+06 234.297 8.71545e-11 4.52303e-10 875590 2.68829e+12
79.4227 262.125 369.339 8.26217e-11 5.35083e+06 261.466 8.24139e-11 3.85299e-10 1.1474e+06 3.17259e+12
83.9313 294.275 435.876 7.8596e-11 6.32174e+06 293.492 7.83868e-11 3.28173e-10 1.51403e+06 3.74415e+12
88.6959 331.914 514.4 7.51165e-11 7.44986e+06 331.006 7.49108e-11 2.79476e-10 2.00234e+06 4.41866e+12
93.7309 376.795 607.071 7.22563e-11 8.79764e+06 375.753 7.20565e-11 2.37972e-10 2.67126e+06 5.2147e+12
99.0518 429.569 716.436 6.98017e-11 1.03827e+07 428.328 6.96e-11 2.02605e-10 3.57706e+06 6.15414e+12
104.675 492.805 845.504 6.78531e-11 1.22515e+07 491.362 6.76544e-11 1.72471e-10 4.81997e+06 7.26283e+12
110.617 566.641 997.824 6.61095e-11 1.44573e+07 564.945 6.59117e-11 1.468e-10 6.51067e+06 8.57124e+12
116.896 654.631 1177.58 6.47165e-11 1.70664e+07 652.625 6.45181e-11 1.24935e-10 8.84043e+06 1.01154e+13
123.532 759.45 1389.73 6.36178e-11 2.0139e+07 757.107 6.34216e-11 1.06313e-10 1.20512e+07 1.19377e+13
130.545 883.283 1640.09 6.26962e-11 2.37643e+07 880.521 6.25002e-11 9.04567e-11 1.64712e+07 1.40883e+13
137.955 1029.66 1935.56 6.19295e-11 2.80503e+07 1026.39 6.17327e-11 7.69563e-11 2.25731e+07 1.66263e+13
145.787 1202.93 2284.26 6.13064e-11 3.30981e+07 1199.07 6.11098e-11 6.54636e-11 3.09963e+07 1.96216e+13
154.063 1408.87 2695.77 6.08412e-11 3.90634e+07 1404.31 6.06445e-11 5.56812e-11 4.26835e+07 2.31565e+13
162.808 1652.36 3181.42 6.04635e-11 4.61057e+07 1646.94 6.02653e-11 4.73556e-11 5.88675e+07 2.73282e+13
172.051 1941.59 3754.56 6.02016e-11 5.44046e+07 1935.2 6.00035e-11 4.02708e-11 8.13304e+07 3.22515e+13
181.818 2284.27 4430.96 6.00151e-11 6.42064e+07 2276.75 5.98173e-11 3.42426e-11 1.12531e+08 3.80616e+13
192.139 2689.84 5229.21 5.98827e-11 7.57748e+07 2680.93 5.96843e-11 2.91139e-11 1.55857e+08 4.49186e+13
203.046 3172.38 6171.26 5.9844e-11 8.94213e+07 3161.82 5.96449e-11 2.4751e-11 2.16206e+08 5.30108e+13
214.572 3746.18 7283.03 5.98806e-11 1.05538e+08 3733.67 5.96806e-11 2.10401e-11 3.00365e+08 6.25608e+13
226.753 4430.52 8595.09 6.00087e-11 1.24552e+08 4415.58 5.98064e-11 1.78839e-11 4.17928e+08 7.38313e+13
239.625 5248.46 10143.5 6.02356e-11 1.46987e+08 5230.61 6.00308e-11 1.51999e-11 5.82494e+08 8.71322e+13
253.228 6228.98 11970.9 6.05759e-11 1.7347e+08 6207.64 6.03684e-11 1.29176e-11 8.13471e+08 1.02829e+14
267.603 7409.69 14127.5 6.10583e-11 2.04703e+08 7383.95 6.08462e-11 1.09771e-11 1.13862e+09 1.21354e+14
282.795 8842.03 16672.6 6.17389e-11 2.4161e+08 8810.89 6.15214e-11 9.3274e-12 1.59924e+09 1.43217e+14
298.848 10598.1 19676.2 6.27042e-11 2.85122e+08 10560 6.24786e-11 7.925e-12 2.25595e+09 1.69017e+14
315.813 12773.3 23220.9 6.40376e-11 3.36491e+08 12726.4 6.38023e-11 6.73295e-12 3.20039e+09 1.99466e+14
333.741 15520.9 27404.3 6.59339e-11 3.97115e+08 15461.9 6.56831e-11 5.71979e-12 4.57768e+09 2.35401e+14
352.686 19058.1 32341.2 6.86015e-11 4.68637e+08 18982.2 6.83283e-11 4.85874e-12 6.61678e+09 2.77809e+14
372.707 23761.8 38167.6 7.24761e-11 5.53074e+08 23661.5 7.21703e-11 4.12703e-12 9.71271e+09 3.27857e+14
393.865 30258.9 45043.5 7.82043e-11 6.52716e+08 30121.3 7.78486e-11 3.50528e-12 1.45624e+10 3.86921e+14
416.224 35719.3 53158.3 7.82244e-11 2.2184e+08 37787.7 8.27542e-11 2.97701e-12 5.8291e+09 4.56626e+14
439.852 0 62734.9 0 0 0 0 2.52819e-12 0 5.38888e+14
464.821 0 74036.7 0 0 0 0 2.1469e-12 0 6.35971e+14
491.207 0 87374.6 0 0 0 0 1.82301e-12 0 7.50542e+14
519.092 0 103115 0 0 0 0 1.54789e-12 0 8.85755e+14
548.56 0 121692 0 0 0 0 1.31422e-12 0 1.04533e+15
579.7 0 143615 0 0 0 0 1.11576e-12 0 1.23364e+15
612.608 0 169488 0 0 0 0 9.47223e-13 0 1.45589e+15
647.384 0 200021 0 0 0 0 8.041e-13 0 1.71817e+15
684.134 0 236056 0 0 0 0 6.82568e-13 0 2.0277e+15
722.971 0 278582 0 0 0 0 5.79376e-13 0 2.393e+15
764.012 0 328769 0 0 0 0 4.91762e-13 0 2.8241e+15
0.381851
200
1.0655e+09
8589934592
0.0129181 0.000448069 1.58924e-09 3.28221e-05 6 0.000443967 3.25216e-05 0.00677225 0.0290793 13.6515
0.0136515 0 1.87554e-09 0 0 0 0 0.00688819 0 16.1108
0.0144264 0 2.21343e-09 0 0 0 0 0.00699249 0 19.0132
0.0152454 0 2.61218e-09 0 0 0 0 0.00708412 0 22.4385
0.0161108 0 3.08278e-09 0 0 0 0 0.00716212 0 26.4808
0.0170254 0 3.63815e-09 0 0 0 0 0.00722559 0 31.2514
0.0179919 0.00100273 4.29357e-09 2.7188e-05 12 0.00100144 2.71529e-05 0.00727371 0.0448541 36.8815
0.0190132 0 5.06707e-09 0 0 0 0 0.00730578 0 43.5258
0.0200925 0 5.97991e-09 0 0 0 0 0.00732122 0 51.367
0.0212331 0.000951841 7.05721e-09 1.57015e-05 8 0.000951013 1.56879e-05 0.00731958 0.0171611 60.621
0.0224385 0 8.32858e-09 0 0 0 0 0.00730056 0 71.542
0.0237123 0 9.829e-09 0 0 0 0 0.00726401 0 84.4305
0.0250583 0.00608623 1.15997e-08 6.10817e-05 6 0.00608337 6.10529e-05 0.00720995 0.0508311 99.6408
0.0264808 0 1.36894e-08 0 0 0 0 0.00713857 0 117.591
0.0279841 0.00377461 1.61556e-08 2.71993e-05 24 0.00377073 2.71714e-05 0.00705021 0.0925908 138.776
0.0295727 0 1.90661e-08 0 0 0 0 0.00694538 0 163.777
0.0312514 0.00674189 2.25009e-08 3.48812e-05 24 0.00677612 3.50583e-05 0.00682475 0.122664 193.281
0.0330255 0 2.65545e-08 0 0 0 0 0.00668915 0 228.102
0.0349003 0.00977792 3.13384e-08 3.63228e-05 12 0.00969962 3.6032e-05 0.00653951 0.0666524 269.195
0.0368815 0.00819615 3.69841e-08 2.57991e-05 30 0.00810887 2.55244e-05 0.00637693 0.121371 317.691
0.0389751 0.0095823 4.36469e-08 2.5558e-05 24 0.00948373 2.52951e-05 0.00620256 0.0988934 374.924
0.0411876 0.00609512 5.151e-08 1.37753e-05 24 0.00605372 1.36817e-05 0.00601767 0.0549394 442.467
0.0435258 0.013958 6.07896e-08 2.67303e-05 8 0.0139569 2.67283e-05 0.00582358 0.0367201 522.179
0.0459966 0.0175462 7.1741e-08 2.84725e-05 72 0.0174076 2.82475e-05 0.00562166 0.364664 616.251
0.0486077 0 8.46654e-08 0 0 0 0 0.0054133 0 727.27
0.051367 0.0253506 9.99181e-08 2.95361e-05 54 0.0252687 2.94407e-05 0.00519989 0.306728 858.29
0.054283 0.0200305 1.17919e-07 1.97751e-05 60 0.0201169 1.98605e-05 0.0049828 0.23812 1012.91
0.0573645 0.0194115 1.39162e-07 1.62386e-05 96 0.0193616 1.61969e-05 0.00476339 0.327268 1195.39
0.060621 0.0226692 1.64232e-07 1.60689e-05 24 0.0223621 1.58512e-05 0.00454293 0.0848913 1410.75
0.0640622 0.039717 1.93819e-07 2.38556e-05 134 0.0397382 2.38683e-05 0.00432265 0.739511 1664.89
0.0676989 0.0383649 2.28736e-07 1.95258e-05 120 0.0381851 1.94343e-05 0.00410371 0.570971 1964.83
0.071542 0.0354761 2.69944e-07 1.52993e-05 108 0.0350899 1.51328e-05 0.00388717 0.425072 2318.8
0.0756032 0.0520019 3.18575e-07 1.90028e-05 174 0.0517228 1.89008e-05 0.00367401 0.899968 2736.54
0.079895 0.0550645 3.75967e-07 1.70503e-05 168 0.0545469 1.689e-05 0.0034651 0.826658 3229.53
0.0844305 0.0465985 4.43698e-07 1.22263e-05 168 0.0468316 1.22874e-05 0.00326121 0.629832 3811.34
0.0892234 0.0533755 5.23632e-07 1.18666e-05 290 0.0531434 1.1815e-05 0.00306301 1.1235 4497.96
0.0942883 0.0678523 6.17966e-07 1.27823e-05 288 0.0676894 1.27517e-05 0.00287109 1.2822 5308.28
0.0996408 0.0607582 7.29294e-07 9.69868e-06 366 0.0602632 9.61967e-06 0.00268591 1.32161 6264.59
0.105297 0.0681198 8.60678e-07 9.21389e-06 420 0.0676454 9.14972e-06 0.00250785 1.54309 7393.17
0.111275 0.0727052 1.01573e-06 8.33291e-06 398 0.0724894 8.30818e-06 0.00233721 1.419 8725.07
0.117591 0.0865937 1.19872e-06 8.40968e-06 624 0.0867867 8.42842e-06 0.00217419 2.4136 10296.9
0.124267 0.0978329 1.41467e-06 8.05082e-06 642 0.0976679 8.03724e-06 0.00201893 2.56009 12151.9
0.131321 0.121726 1.66953e-06 8.4879e-06 800 0.121769 8.4909e-06 0.00187147 3.62834 14341.1
0.138776 0.109345 1.9703e-06 6.46068e-06 858 0.109854 6.49072e-06 0.00173182 3.20084 16924.7
0.146654 0.121648 2.32525e-06 6.09039e-06 1080 0.122671 6.1416e-06 0.00159991 4.11125 19973.8
0.154979 0.144116 2.74415e-06 6.11385e-06 1286 0.14508 6.15475e-06 0.00147563 5.32815 23572.1
0.163777 0.136429 3.23852e-06 4.90422e-06 1650 0.136728 4.91497e-06 0.00135884 5.95506 27818.7
0.173074 0.158664 3.82195e-06 4.83287e-06 1778 0.158706 4.83414e-06 0.00124933 6.87795 32830.3
0.182899 0.157287 4.51048e-06 4.05958e-06 2112 0.157689 4.06994e-06 0.00114689 7.47571 38744.7
0.193281 0.180934 5.32305e-06 3.95704e-06 2570 0.181158 3.96193e-06 0.00105127 9.6736 45724.7
0.204254 0.208 6.28202e-06 3.85456e-06 3030 0.20788 3.85233e-06 0.000962209 12.138 53962.1
0.215848 0.209364 7.41374e-06 3.28757e-06 3434 0.209279 3.28623e-06 0.000879423 12.8374 63683.5
0.228102 0.219137 8.74934e-06 2.91575e-06 4218 0.219167 2.91616e-06 0.000802624 15.323 75156.3
0.24105 0.245574 1.03256e-05 2.76872e-06 4766 0.245784 2.77109e-06 0.000731515 18.0389 88695.9
0.254734 0.267204 1.21857e-05 2.55271e-06 6026 0.26716 2.55228e-06 0.000665798 23.104 104675
0.269195 0.287628 1.4381e-05 2.32836e-06 6480 0.287394 2.32647e-06 0.000605173 24.9314 123532
0.284476 0.314732 1.69718e-05 2.15885e-06 8162 0.315427 2.16362e-06 0.000549345 32.0756 145787
0.300625 0.325372 2.00293e-05 1.89114e-06 9578 0.325711 1.89311e-06 0.000498021 36.3706 172051
0.317691 0.361277 2.36377e-05 1.77929e-06 11234 0.360895 1.77741e-06 0.000450916 44.3286 203046
0.335725 0.38393 2.78961e-05 1.60221e-06 13344 0.383486 1.60036e-06 0.000407755 52.4331 239625
0.354784 0.410311 3.29216e-05 1.45091e-06 15464 0.410002 1.44982e-06 0.000368269 60.9254 282795
0.374924 0.43917 3.88525e-05 1.3159e-06 18458 0.439118 1.31575e-06 0.000332202 73.1149 333741
0.396207 0.479998 4.58519e-05 1.21869e-06 22232 0.479382 1.21712e-06 0.000299307 90.5219 393865
0.418699 0.515476 5.41123e-05 1.10898e-06 25628 0.51419 1.10621e-06 0.00026935 105.517 464821
0.442467 0.560461 6.38607e-05 1.0217e-06 30320 0.559241 1.01947e-06 0.000242108 127.951 548560
0.467585 0.594325 7.53654e-05 9.18042e-07 35452 0.593513 9.16787e-07 0.00021737 149.728 647384
0.494129 0.647701 8.89427e-05 8.47763e-07 41792 0.64743 8.47408e-07 0.000194938 181.748 764012
0.522179 0.705364 0.000104966 7.82302e-07 49988 0.705188 7.82108e-07 0.000174625 223.941 901651
0.551822 0.755981 0.000123876 7.10451e-07 59110 0.755206 7.09723e-07 0.000156255 268.758 1.06409e+06
0.583147 0.820514 0.000146192 6.53388e-07 69716 0.819135 6.5229e-07 0.000139664 326.151 1.25578e+06
0.616251 0.889555 0.000172529 6.00233e-07 82210 0.887776 5.99033e-07 0.0001247 395.711 1.48202e+06
0.651234 0.96158 0.000203611 5.49787e-07 96722 0.959713 5.48719e-07 0.00011122 478.118 1.74901e+06
0.688203 1.04619 0.000240292 5.06854e-07 113098 1.04453 5.06049e-07 9.90935e-05 578.486 2.06409e+06
0.72727 1.13932 0.000283581 4.6771e-07 135190 1.13786 4.67113e-07 8.81969e-05 716.915 2.43595e+06
0.768555 1.23867 0.000334669 4.30874e-07 158170 1.23713 4.30338e-07 7.84179e-05 869.079 2.87479e+06
0.812184 1.35675 0.000394961 3.99904e-07 188560 1.35468 3.99295e-07 6.96525e-05 1082.6 3.39269e+06
0.85829 1.47586 0.000466114 3.68606e-07 220444 1.47373 3.68073e-07 6.1805e-05 1314.73 4.00389e+06
0.907013 1.60669 0.000550086 3.40026e-07 261388 1.60449 3.3956e-07 5.47875e-05 1622.25 4.7252e+06
0.958501 1.7635 0.000649185 3.16239e-07 308244 1.76103 3.15797e-07 4.85194e-05 2009.07 5.57646e+06
1.01291 1.93422 0.000766138 2.93906e-07 364396 1.93119 2.93446e-07 4.29272e-05 2494.88 6.58107e+06
1.07041 2.11551 0.00090416 2.72383e-07 429162 2.11204 2.71936e-07 3.79435e-05 3080.8 7.76667e+06
1.13118 2.32054 0.00106705 2.53173e-07 506358 2.31669 2.52753e-07 3.3507e-05 3825.94 9.16586e+06
1.19539 2.54657 0.00125928 2.35421e-07 598590 2.54211 2.35008e-07 2.9562e-05 4766.94 1.08171e+07
1.26325 2.80883 0.00148614 2.20027e-07 704844 2.8044 2.1968e-07 2.60578e-05 5951.56 1.27658e+07
1.33496 3.09545 0.00175387 2.05464e-07 834620 3.08974 2.05085e-07 2.29484e-05 7472.61 1.50656e+07
1.41075 3.40632 0.00206984 1.91584e-07 981444 3.39979 1.91217e-07 2.01923e-05 9311.92 1.77798e+07
1.49083 3.76123 0.00244272 1.79253e-07 1.15998e+06 3.75465 1.78939e-07 1.77518e-05 11713.1 2.09828e+07
1.57546 4.14674 0.00288279 1.67457e-07 1.36931e+06 4.13878 1.67136e-07 1.55929e-05 14705.5 2.4763e+07
1.66489 4.57967 0.00340213 1.56709e-07 1.61652e+06 4.57086 1.56407e-07 1.3685e-05 18510.9 2.92241e+07
1.75941 5.0692 0.00401503 1.46981e-07 1.90601e+06 5.05955 1.46701e-07 1.20007e-05 23344.2 3.44889e+07
1.85928 5.59381 0.00473835 1.37433e-07 2.24913e+06 5.58283 1.37163e-07 1.05151e-05 29396.2 4.07021e+07
1.96483 6.19643 0.00559198 1.28999e-07 2.65744e+06 6.18379 1.28736e-07 9.20606e-06 37237.1 4.80347e+07
2.07637 6.83693 0.00659939 1.20606e-07 3.13125e+06 6.82353 1.20369e-07 8.05366e-06 46891.3 5.66883e+07
2.19424 7.57498 0.00778828 1.13227e-07 3.69915e+06 7.56016 1.13005e-07 7.04008e-06 59494.2 6.69008e+07
2.3188 8.35585 0.00919136 1.05833e-07 4.36472e+06 8.33957 1.05627e-07 6.1494e-06 75118.2 7.89532e+07
2.45043 9.24344 0.0108472 9.92031e-08 5.14913e+06 9.22519 9.90074e-08 5.36741e-06 95168.8 9.31768e+07
2.58954 10.2033 0.0128014 9.27884e-08 6.07894e+06 10.1834 9.26077e-08 4.68145e-06 120487 1.09963e+08
2.73654 11.2581 0.0151076 8.67524e-08 7.17304e+06 11.236 8.65819e-08 4.08023e-06 152511 1.29773e+08
2.89188 12.412 0.0178292 8.1044e-08 8.46557e+06 12.3881 8.08877e-08 3.55373e-06 193060 1.53152e+08
3.05605 13.6463 0.0210412 7.55013e-08 9.98773e+06 13.6205 7.53583e-08 3.09304e-06 243801 1.80743e+08
3.22953 15.0035 0.0248319 7.03387e-08 1.1797e+07 14.9746 7.02029e-08 2.69025e-06 308442 2.13304e+08
3.41286 16.4461 0.0293054 6.53321e-08 1.39144e+07 16.4142 6.5205e-08 2.33837e-06 388756 2.51731e+08
3.6066 17.9958 0.0345848 6.05752e-08 1.64163e+07 17.962 6.04617e-08 2.0312e-06 489572 2.97081e+08
3.81134 19.6616 0.0408154 5.60796e-08 1.93821e+07 19.6251 5.59755e-08 1.76327e-06 616438 3.50601e+08
4.0277 21.4198 0.0481684 5.17682e-08 2.28754e+07 21.3794 5.16707e-08 1.52972e-06 774139 4.13763e+08
4.25634 23.3012 0.056846 4.77186e-08 2.69929e+07 23.2576 4.76295e-08 1.32631e-06 971165 4.88304e+08
4.49796 25.292 0.067087 4.38889e-08 3.18542e+07 25.2453 4.3808e-08 1.14926e-06 1.21648e+06 5.76273e+08
4.7533 27.3828 0.0791729 4.02634e-08 3.75892e+07 27.3325 4.01895e-08 9.95263e-07 1.52067e+06 6.8009e+08
5.02313 29.5885 0.0934361 3.68654e-08 4.43706e+07 29.5353 3.6799e-08 8.61414e-07 1.8989e+06 8.0261e+08
5.30828 31.9054 0.110269 3.36838e-08 5.23593e+07 31.8481 3.36233e-08 7.45152e-07 2.36685e+06 9.47202e+08
5.60962 34.3122 0.130134 3.0695e-08 6.1787e+07 34.2518 3.0641e-08 6.44232e-07 2.94389e+06 1.11784e+09
5.92807 36.8164 0.153578 2.79076e-08 7.29346e+07 36.7519 2.78587e-08 5.56685e-07 3.65634e+06 1.31923e+09
6.26459 39.4029 0.181246 2.53088e-08 8.60651e+07 39.3335 2.52642e-08 4.80786e-07 4.5305e+06 1.55689e+09
6.62021 42.1136 0.213898 2.29207e-08 1.01558e+08 42.0401 2.28806e-08 4.15026e-07 5.60876e+06 1.83737e+09
6.99602 44.9258 0.252432 2.07187e-08 1.1986e+08 44.8489 2.06832e-08 3.58083e-07 6.9351e+06 2.16837e+09
7.39317 47.855 0.297908 1.87006e-08 1.41457e+08 47.7739 1.86689e-08 3.08803e-07 8.56636e+06 2.55901e+09
7.81286 50.8919 0.351577 1.68515e-08 1.66936e+08 50.8052 1.68228e-08 2.66181e-07 1.05684e+07 3.02002e+09
8.25637 54.0698 0.414914 1.51707e-08 1.97025e+08 53.9783 1.51451e-08 2.29336e-07 1.30333e+07 3.56409e+09
8.72507 57.4107 0.489662 1.36492e-08 2.32497e+08 57.3134 1.3626e-08 1.97503e-07 1.60675e+07 4.20617e+09
9.22037 60.9888 0.577876 1.22864e-08 2.74404e+08 60.8837 1.22653e-08 1.70014e-07 1.98304e+07 4.96392e+09
9.74378 64.8901 0.681982 1.10768e-08 3.2382e+08 64.7765 1.10574e-08 1.46289e-07 2.45193e+07 5.85818e+09
10.2969 69.2837 0.804843 1.00214e-08 3.82165e+08 69.1577 1.00032e-08 1.25822e-07 3.04384e+07 6.91355e+09
10.8814 74.4936 0.949838 9.13018e-09 4.51027e+08 74.3483 9.11237e-09 1.08175e-07 3.80674e+07 8.15905e+09
11.4992 81.1372 1.12095 8.42641e-09 5.32251e+08 80.9618 8.40819e-09 9.29669e-08 4.82426e+07 9.62892e+09
12.1519 90.4629 1.3229 7.96076e-09 6.28157e+08 90.2329 7.94052e-09 7.98658e-08 6.26127e+07 1.13636e+10
12.8418 100.849 1.56122 7.51997e-09 3.82727e+08 104.381 7.78334e-09 6.85852e-08 4.19638e+07 1.34108e+10
13.5708 0 1.84248 0 0 0 0 5.88765e-08 0 1.58268e+10
14.3411 0 2.17441 0 0 0 0 5.05241e-08 0 1.8678e+10
15.1552 0 2.56613 0 0 0 0 4.33417e-08 0 2.20429e+10
16.0156 0 3.02843 0 0 0 0 3.71677e-08 0 2.6014e+10
16.9247 0 3.574 0 0 0 0 3.18628e-08 0 3.07005e+10
17.8855 0 4.21787 0 0 0 0 2.73063e-08 0 3.62312e+10
18.9008 0 4.97773 0 0 0 0 2.33941e-08 0 4.27584e+10
19.9738 0 5.87448 0 0 0 0 2.00364e-08 0 5.04614e+10
21.1076 0 6.93279 0 0 0 0 1.71555e-08 0 5.95522e+10
22.3058 0 8.18175 0 0 0 0 1.46847e-08 0 7.02807e+10
23.5721 0 9.65571 0 0 0 0 1.25662e-08 0 8.29419e+10
24.9102 0 11.3952 0 0 0 0 1.07504e-08 0 9.78842e+10
26.3243 0 13.4481 0 0 0 0 9.19452e-09 0 1.15518e+11
27.8187 0 15.8708 0 0 0 0 7.86182e-09 0 1.36329e+11
29.3979 0 18.73 0 0 0 0 6.72061e-09 0 1.60889e+11
31.0667 0 22.1042 0 0 0 0 5.74366e-09 0 1.89874e+11
32.8303 0 26.0864 0 0 0 0 4.90756e-09 0 2.2408e+11
34.694 0 30.7859 0 0 0 0 4.19221e-09 0 2.64449e+11
36.6634 0 36.3321 0 0 0 0 3.58032e-09 0 3.1209e+11
38.7447 0 42.8774 0 0 0 0 3.05709e-09 0 3.68314e+11
40.9442 0 50.6018 0 0 0 0 2.60976e-09 0 4.34667e+11
43.2685 0 59.7179 0 0 0 0 2.22743e-09 0 5.12973e+11
45.7247 0 70.4762 0 0 0 0 1.90073e-09 0 6.05386e+11
48.3204 0 83.1727 0 0 0 0 1.62163e-09 0 7.14448e+11
51.0634 0 98.1565 0 0 0 0 1.38326e-09 0 8.43158e+11
53.9621 0 115.84 0 0 0 0 1.1797e-09 0 9.95055e+11
57.0254 0 136.709 0 0 0 0 1.00592e-09 0 1.17432e+12
60.2626 0 161.337 0 0 0 0 8.57591e-10 0 1.38587e+12
63.6835 0 190.402 0 0 0 0 7.3101e-10 0 1.63554e+12
67.2987 0 224.704 0 0 0 0 6.23009e-10 0 1.93019e+12
71.1191 0 265.185 0 0 0 0 5.30879e-10 0 2.27792e+12
75.1563 0 312.958 0 0 0 0 4.52303e-10 0 2.68829e+12
79.4227 0 369.339 0 0 0 0 3.85299e-10 0 3.17259e+12
83.9313 0 435.876 0 0 0 0 3.28173e-10 0 3.74415e+12
88.6959 0 514.4 0 0 0 0 2.79476e-10 0 4.41866e+12
93.7309 0 607.071 0 0 0 0 2.37972e-10 0 5.2147e+12
99.0518 0 716.436 0 0 0 0 2.02605e-10 0 6.15414e+12
104.675 0 845.504 0 0 0 0 1.72471e-10 0 7.26283e+12
110.617 0 997.824 0 0 0 0 1.468e-10 0 8.57124e+12
116.896 0 1177.58 0 0 0 0 1.24935e-10 0 1.01154e+13
123.532 0 1389.73 0 0 0 0 1.06313e-10 0 1.19377e+13
130.545 0 1640.09 0 0 0 0 9.04567e-11 0 1.40883e+13
137.955 0 1935.56 0 0 0 0 7.69563e-11 0 1.66263e+13
145.787 0 2284.26 0 0 0 0 6.54636e-11 0 1.96216e+13
154.063 0 2695.77 0 0 0 0 5.56812e-11 0 2.31565e+13
162.808 0 3181.42 0 0 0 0 4.73556e-11 0 2.73282e+13
172.051 0 3754.56 0 0 0 0 4.02708e-11 0 3.22515e+13
181.818 0 4430.96 0 0 0 0 3.42426e-11 0 3.80616e+13
192.139 0 5229.21 0 0 0 0 2.91139e-11 0 4.49186e+13
203.046 0 6171.26 0 0 0 0 2.4751e-11 0 5.30108e+13
214.572 0 7283.03 0 0 0 0 2.10401e-11 0 6.25608e+13
226.753 0 8595.09 0 0 0 0 1.78839e-11 0 7.38313e+13
239.625 0 10143.5 0 0 0 0 1.51999e-11 0 8.71322e+13
253.228 0 11970.9 0 0 0 0 1.29176e-11 0 1.02829e+14
267.603 0 14127.5 0 0 0 0 1.09771e-11 0 1.21354e+14
282.795 0 16672.6 0 0 0 0 9.3274e-12 0 1.43217e+14
298.848 0 19676.2 0 0 0 0 7.925e-12 0 1.69017e+14
315.813 0 23220.9 0 0 0 0 6.73295e-12 0 1.99466e+14
333.741 0 27404.3 0 0 0 0 5.71979e-12 0 2.35401e+14
352.686 0 32341.2 0 0 0 0 4.85874e-12 0 2.77809e+14
372.707 0 38167.6 0 0 0 0 4.12703e-12 0 3.27857e+14
393.865 0 45043.5 0 0 0 0 3.50528e-12 0 3.86921e+14
416.224 0 53158.3 0 0 0 0 2.97701e-12 0 4.56626e+14
439.852 0 62734.9 0 0 0 0 2.52819e-12 0 5.38888e+14
464.821 0 74036.7 0 0 0 0 2.1469e-12 0 6.35971e+14
491.207 0 87374.6 0 0 0 0 1.82301e-12 0 7.50542e+14
519.092 0 103115 0 0 0 0 1.54789e-12 0 8.85755e+14
548.56 0 121692 0 0 0 0 1.31422e-12 0 1.04533e+15
579.7 0 143615 0 0 0 0 1.11576e-12 0 1.23364e+15
612.608 0 169488 0 0 0 0 9.47223e-13 0 1.45589e+15
647.384 0 200021 0 0 0 0 8.041e-13 0 1.71817e+15
684.134 0 236056 0 0 0 0 6.82568e-13 0 2.0277e+15
722.971 0 278582 0 0 0 0 5.79376e-13 0 2.393e+15
764.012 0 328769 0 0 0 0 4.91762e-13 0 2.8241e+15
