0.940705
200
1.0655e+09
8589934592
0.0129181 0 1.58924e-09 0 0 0 0 0.00677225 0 13.6515
0.0136515 0 1.87554e-09 0 0 0 0 0.00688819 0 16.1108
0.0144264 0 2.21343e-09 0 0 0 0 0.00699249 0 19.0132
0.0152454 0 2.61218e-09 0 0 0 0 0.00708412 0 22.4385
0.0161108 0 3.08278e-09 0 0 0 0 0.00716212 0 26.4808
0.0170254 0 3.63815e-09 0 0 0 0 0.00722559 0 31.2514
0.0179919 0 4.29357e-09 0 0 0 0 0.00727371 0 36.8815
0.0190132 0 5.06707e-09 0 0 0 0 0.00730578 0 43.5258
0.0200925 0 5.97991e-09 0 0 0 0 0.00732122 0 51.367
0.0212331 0 7.05721e-09 0 0 0 0 0.00731958 0 60.621
0.0224385 0 8.32858e-09 0 0 0 0 0.00730056 0 71.542
0.0237123 0 9.829e-09 0 0 0 0 0.00726401 0 84.4305
0.0250583 0 1.15997e-08 0 0 0 0 0.00720995 0 99.6408
0.0264808 0 1.36894e-08 0 0 0 0 0.00713857 0 117.591
0.0279841 0 1.61556e-08 0 0 0 0 0.00705021 0 138.776
0.0295727 0 1.90661e-08 0 0 0 0 0.00694538 0 163.777
0.0312514 0 2.25009e-08 0 0 0 0 0.00682475 0 193.281
0.0330255 0 2.65545e-08 0 0 0 0 0.00668915 0 228.102
0.0349003 0 3.13384e-08 0 0 0 0 0.00653951 0 269.195
0.0368815 0 3.69841e-08 0 0 0 0 0.00637693 0 317.691
0.0389751 0 4.36469e-08 0 0 0 0 0.00620256 0 374.924
0.0411876 0 5.151e-08 0 0 0 0 0.00601767 0 442.467
0.0435258 0 6.07896e-08 0 0 0 0 0.00582358 0 522.179
0.0459966 0 7.1741e-08 0 0 0 0 0.00562166 0 616.251
0.0486077 0 8.46654e-08 0 0 0 0 0.0054133 0 727.27
0.051367 0 9.99181e-08 0 0 0 0 0.00519989 0 858.29
0.054283 0 1.17919e-07 0 0 0 0 0.0049828 0 1012.91
0.0573645 0 1.39162e-07 0 0 0 0 0.00476339 0 1195.39
0.060621 0 1.64232e-07 0 0 0 0 0.00454293 0 1410.75
0.0640622 0 1.93819e-07 0 0 0 0 0.00432265 0 1664.89
0.0676989 0 2.28736e-07 0 0 0 0 0.00410371 0 1964.83
0.071542 0 2.69944e-07 0 0 0 0 0.00388717 0 2318.8
0.0756032 0 3.18575e-07 0 0 0 0 0.00367401 0 2736.54
0.079895 0 3.75967e-07 0 0 0 0 0.0034651 0 3229.53
0.0844305 0 4.43698e-07 0 0 0 0 0.00326121 0 3811.34
0.0892234 0 5.23632e-07 0 0 0 0 0.00306301 0 4497.96
0.0942883 0 6.17966e-07 0 0 0 0 0.00287109 0 5308.28
0.0996408 0 7.29294e-07 0 0 0 0 0.00268591 0 6264.59
0.105297 0 8.60678e-07 0 0 0 0 0.00250785 0 7393.17
0.111275 0 1.01573e-06 0 0 0 0 0.00233721 0 8725.07
0.117591 0 1.19872e-06 0 0 0 0 0.00217419 0 10296.9
0.124267 0 1.41467e-06 0 0 0 0 0.00201893 0 12151.9
0.131321 0 1.66953e-06 0 0 0 0 0.00187147 0 14341.1
0.138776 0 1.9703e-06 0 0 0 0 0.00173182 0 16924.7
0.146654 0 2.32525e-06 0 0 0 0 0.00159991 0 19973.8
0.154979 0 2.74415e-06 0 0 0 0 0.00147563 0 23572.1
0.163777 0 3.23852e-06 0 0 0 0 0.00135884 0 27818.7
0.173074 0 3.82195e-06 0 0 0 0 0.00124933 0 32830.3
0.182899 0 4.51048e-06 0 0 0 0 0.00114689 0 38744.7
0.193281 0 5.32305e-06 0 0 0 0 0.00105127 0 45724.7
0.204254 0 6.28202e-06 0 0 0 0 0.000962209 0 53962.1
0.215848 0 7.41374e-06 0 0 0 0 0.000879423 0 63683.5
0.228102 0 8.74934e-06 0 0 0 0 0.000802624 0 75156.3
0.24105 0 1.03256e-05 0 0 0 0 0.000731515 0 88695.9
0.254734 0 1.21857e-05 0 0 0 0 0.000665798 0 104675
0.269195 0 1.4381e-05 0 0 0 0 0.000605173 0 123532
0.284476 0 1.69718e-05 0 0 0 0 0.000549345 0 145787
0.300625 0 2.00293e-05 0 0 0 0 0.000498021 0 172051
0.317691 0 2.36377e-05 0 0 0 0 0.000450916 0 203046
0.335725 0 2.78961e-05 0 0 0 0 0.000407755 0 239625
0.354784 0 3.29216e-05 0 0 0 0 0.000368269 0 282795
0.374924 0 3.88525e-05 0 0 0 0 0.000332202 0 333741
0.396207 1.73028 4.58519e-05 4.39308e-06 6 1.68218 4.27095e-06 0.000299307 0.0880651 393865
0.418699 0 5.41123e-05 0 0 0 0 0.00026935 0 464821
0.442467 0 6.38607e-05 0 0 0 0 0.000242108 0 548560
0.467585 0 7.53654e-05 0 0 0 0 0.00021737 0 647384
0.494129 0 8.89427e-05 0 0 0 0 0.000194938 0 764012
0.522179 0 0.000104966 0 0 0 0 0.000174625 0 901651
0.551822 0 0.000123876 0 0 0 0 0.000156255 0 1.06409e+06
0.583147 7.46269 0.000146192 5.94266e-06 12 7.85453 6.25468e-06 0.000139664 0.510596 1.25578e+06
0.616251 0 0.000172529 0 0 0 0 0.0001247 0 1.48202e+06
0.651234 0 0.000203611 0 0 0 0 0.00011122 0 1.74901e+06
0.688203 14.177 0.000240292 6.86837e-06 8 13.8243 6.6975e-06 9.90935e-05 0.554496 2.06409e+06
0.72727 0 0.000283581 0 0 0 0 8.81969e-05 0 2.43595e+06
0.768555 0 0.000334669 0 0 0 0 7.84179e-05 0 2.87479e+06
0.812184 7.08677 0.000394961 2.08884e-06 6 7.23829 2.1335e-06 6.96525e-05 0.179936 3.39269e+06
0.85829 0 0.000466114 0 0 0 0 6.1805e-05 0 4.00389e+06
0.907013 1.79115 0.000550086 3.79063e-07 24 1.82552 3.86336e-07 5.47875e-05 0.166051 4.7252e+06
0.958501 4.84619 0.000649185 8.69044e-07 24 4.56233 8.1814e-07 4.85194e-05 0.42987 5.57646e+06
1.01291 0 0.000766138 0 0 0 0 4.29272e-05 0 6.58107e+06
1.07041 0 0.00090416 0 0 0 0 3.79435e-05 0 7.76667e+06
1.13118 10.6367 0.00106705 1.16047e-06 12 10.5061 1.14622e-06 3.3507e-05 0.415605 9.16586e+06
1.19539 2.95021 0.00125928 2.72735e-07 30 2.88939 2.67113e-07 2.9562e-05 0.276776 1.08171e+07
1.26325 11.723 0.00148614 9.18306e-07 24 11.5466 9.04488e-07 2.60578e-05 0.845787 1.27658e+07
1.33496 16.1663 0.00175387 1.07306e-06 24 16.2019 1.07542e-06 2.29484e-05 1.12223 1.50656e+07
1.41075 18.5652 0.00206984 1.04418e-06 32 18.6965 1.05156e-06 2.01923e-05 1.65477 1.77798e+07
1.49083 4.67871 0.00244272 2.22978e-07 48 4.57897 2.18225e-07 1.77518e-05 0.602924 2.09828e+07
1.57546 31.2296 0.00288279 1.26114e-06 6 29.7376 1.20089e-06 1.55929e-05 0.485277 2.4763e+07
1.66489 6.89042 0.00340213 2.35779e-07 84 6.7475 2.30888e-07 1.3685e-05 1.44723 2.92241e+07
1.75941 6.52981 0.00401503 1.89331e-07 48 6.44795 1.86957e-07 1.20007e-05 0.757281 3.44889e+07
1.85928 6.72715 0.00473835 1.65278e-07 72 6.74624 1.65747e-07 1.05151e-05 1.1317 4.07021e+07
1.96483 15.2556 0.00559198 3.17596e-07 54 14.9316 3.1085e-07 9.20606e-06 1.86292 4.80347e+07
2.07637 13.7404 0.00659939 2.42385e-07 104 13.9598 2.46255e-07 8.05366e-06 3.13001 5.66883e+07
2.19424 10.2464 0.00778828 1.53158e-07 120 10.4298 1.55899e-07 7.04008e-06 2.61062 6.69008e+07
2.3188 10.7241 0.00919136 1.35829e-07 156 10.4544 1.32412e-07 6.1494e-06 3.44574 7.89532e+07
2.45043 13.553 0.0108472 1.45455e-07 126 13.4409 1.44252e-07 5.36741e-06 3.41454 9.31768e+07
2.58954 11.617 0.0128014 1.05645e-07 192 11.6621 1.06055e-07 4.68145e-06 4.3328 1.09963e+08
2.73654 33.6751 0.0151076 2.59492e-07 152 34.0805 2.62616e-07 4.08023e-06 9.66681 1.29773e+08
2.89188 15.7401 0.0178292 1.02775e-07 378 15.7957 1.03137e-07 3.55373e-06 10.9318 1.53152e+08
3.05605 17.6343 0.0210412 9.7566e-08 264 17.4575 9.65877e-08 3.09304e-06 8.32755 1.80743e+08
3.22953 17.9313 0.0248319 8.40647e-08 366 17.8623 8.37413e-08 2.69025e-06 11.4367 2.13304e+08
3.41286 17.8793 0.0293054 7.10255e-08 428 17.7301 7.04327e-08 2.33837e-06 13 2.51731e+08
3.6066 22.769 0.0345848 7.66424e-08 486 22.4864 7.5691e-08 2.0312e-06 18.338 2.97081e+08
3.81134 22.0956 0.0408154 6.30219e-08 600 22.158 6.32e-08 1.76327e-06 21.445 3.50601e+08
4.0277 25.6862 0.0481684 6.20794e-08 738 25.565 6.17866e-08 1.52972e-06 29.9496 4.13763e+08
4.25634 26.7279 0.056846 5.47363e-08 824 26.6445 5.45655e-08 1.32631e-06 34.0062 4.88304e+08
4.49796 29.7237 0.067087 5.15791e-08 954 29.5105 5.12093e-08 1.14926e-06 42.8159 5.76273e+08
4.7533 30.7136 0.0791729 4.5161e-08 1094 30.6051 4.50015e-08 9.95263e-07 49.6413 6.8009e+08
5.02313 32.4453 0.0934361 4.04248e-08 1332 32.5291 4.05292e-08 8.61414e-07 62.5086 8.0261e+08
5.30828 37.292 0.110269 3.93707e-08 1614 37.3666 3.94495e-08 7.45152e-07 85.2769 9.47202e+08
5.60962 43.3648 0.130134 3.87932e-08 1850 43.4077 3.88316e-08 6.44232e-07 111.4 1.11784e+09
5.92807 39.8951 0.153578 3.02413e-08 2238 39.9504 3.02832e-08 5.56685e-07 121.577 1.31923e+09
6.26459 40.4294 0.181246 2.59681e-08 2546 40.511 2.60205e-08 4.80786e-07 137.514 1.55689e+09
6.62021 42.5578 0.213898 2.31624e-08 3264 42.5579 2.31625e-08 4.15026e-07 182.162 1.83737e+09
6.99602 46.6941 0.252432 2.15342e-08 3506 46.7884 2.15777e-08 3.58083e-07 210.842 2.16837e+09
7.39317 49.8304 0.297908 1.94725e-08 4506 49.7271 1.94322e-08 3.08803e-07 284.139 2.55901e+09
7.81286 56.1776 0.351577 1.86017e-08 5018 55.9438 1.85243e-08 2.66181e-07 350.677 3.02002e+09
8.25637 57.7206 0.414914 1.61951e-08 5852 57.7143 1.61933e-08 2.29336e-07 413.251 3.56409e+09
8.72507 60.7827 0.489662 1.44509e-08 7362 60.7008 1.44314e-08 1.97503e-07 538.661 4.20617e+09
9.22037 63.4425 0.577876 1.27807e-08 8306 63.242 1.27403e-08 1.70014e-07 624.4 4.96392e+09
9.74378 69.972 0.681982 1.19443e-08 9698 69.8774 1.19282e-08 1.46289e-07 791.829 5.85818e+09
10.2969 74.1387 0.804843 1.07237e-08 11816 74.0914 1.07168e-08 1.25822e-07 1007.06 6.91355e+09
10.8814 83.4248 0.949838 1.02248e-08 13682 83.2442 1.02027e-08 1.08175e-07 1293.23 8.15905e+09
11.4992 83.6163 1.12095 8.68387e-09 16152 83.6071 8.68291e-09 9.29669e-08 1508.73 9.62892e+09
12.1519 88.3267 1.3229 7.77278e-09 19472 88.1478 7.75703e-09 7.98658e-08 1895.07 1.13636e+10
12.8418 92.6459 1.56122 6.90831e-09 22670 92.3429 6.88572e-09 6.85852e-08 2283.46 1.34108e+10
13.5708 100.3 1.84248 6.33738e-09 26224 100.153 6.32808e-09 5.88765e-08 2822.71 1.58268e+10
14.3411 107.384 2.17441 5.74921e-09 31640 107.201 5.73944e-09 5.05241e-08 3600.36 1.8678e+10
15.1552 112.235 2.56613 5.09168e-09 37484 112.028 5.08228e-09 4.33417e-08 4403.54 2.20429e+10
16.0156 120.432 3.02843 4.6295e-09 43856 120.246 4.62237e-09 3.71677e-08 5462.57 2.6014e+10
16.9247 127.875 3.574 4.16523e-09 51362 127.706 4.15975e-09 3.18628e-08 6714.25 3.07005e+10
17.8855 134.698 4.21787 3.71773e-09 61636 134.498 3.7122e-09 2.73063e-08 8391.68 3.62312e+10
18.9008 142.537 4.97773 3.33354e-09 72218 142.184 3.32528e-09 2.33941e-08 10290.7 4.27584e+10
19.9738 149.62 5.87448 2.96503e-09 84586 149.334 2.95937e-09 2.00364e-08 12517.2 5.04614e+10
21.1076 159.371 6.93279 2.67616e-09 100708 159.1 2.6716e-09 1.71555e-08 15709.8 5.95522e+10
22.3058 169.966 8.18175 2.41839e-09 118712 169.659 2.41402e-09 1.46847e-08 19550.5 7.02807e+10
23.5721 177.628 9.65571 2.1416e-09 140410 177.33 2.138e-09 1.25662e-08 23929.5 8.29419e+10
24.9102 186.714 11.3952 1.9075e-09 164374 186.354 1.90382e-09 1.07504e-08 29165.8 9.78842e+10
26.3243 197.032 13.4481 1.70564e-09 194680 196.773 1.70339e-09 9.19452e-09 36114.3 1.15518e+11
27.8187 207.354 15.8708 1.52098e-09 230196 206.987 1.51829e-09 7.86182e-09 44534.6 1.36329e+11
29.3979 219.584 18.73 1.36482e-09 271156 219.263 1.36282e-09 6.72061e-09 55066.2 1.60889e+11
31.0667 230.372 22.1042 1.21329e-09 321076 229.938 1.211e-09 5.74366e-09 67824 1.89874e+11
32.8303 242.484 26.0864 1.08213e-09 377436 242.048 1.08018e-09 4.90756e-09 83225.6 2.2408e+11
34.694 255.461 30.7859 9.66015e-10 447594 254.979 9.64192e-10 4.19221e-09 103140 2.64449e+11
36.6634 269.472 36.3321 8.63445e-10 525078 269.009 8.61961e-10 3.58032e-09 126630 3.1209e+11
38.7447 282.748 42.8774 7.67681e-10 621924 282.183 7.66148e-10 3.05709e-09 156175 3.68314e+11
40.9442 298.573 50.6018 6.86902e-10 732630 298.041 6.85676e-10 2.60976e-09 192832 4.34667e+11
43.2685 313.123 59.7179 6.10408e-10 865596 312.62 6.09429e-10 2.22743e-09 237209 5.12973e+11
45.7247 328.869 70.4762 5.43238e-10 1.02168e+06 328.334 5.42354e-10 1.90073e-09 291999 6.05386e+11
48.3204 343.752 83.1727 4.81143e-10 1.20544e+06 343.092 4.8022e-10 1.62163e-09 357657 7.14448e+11
51.0634 360.245 98.1565 4.27257e-10 1.42103e+06 359.644 4.26544e-10 1.38326e-09 438925 8.43158e+11
53.9621 378.248 115.84 3.80128e-10 1.67997e+06 377.621 3.79498e-10 1.1797e-09 541325 9.95055e+11
57.0254 397.236 136.709 3.3827e-10 1.98018e+06 396.554 3.37689e-10 1.00592e-09 665893 1.17432e+12
60.2626 416.942 161.337 3.00851e-10 2.33957e+06 416.179 3.00301e-10 8.57591e-10 820744 1.38587e+12
63.6835 439.465 190.402 2.68697e-10 2.75676e+06 438.693 2.68225e-10 7.3101e-10 1.0133e+06 1.63554e+12
67.2987 461.829 224.704 2.39266e-10 3.25638e+06 461.048 2.38862e-10 6.23009e-10 1.25061e+06 1.93019e+12
71.1191 485.314 265.185 2.13052e-10 3.84387e+06 484.45 2.12672e-10 5.30879e-10 1.54262e+06 2.27792e+12
75.1563 512.477 312.958 1.90633e-10 4.53277e+06 511.551 1.90289e-10 4.52303e-10 1.91043e+06 2.68829e+12
79.4227 540.937 369.339 1.70503e-10 5.35083e+06 539.984 1.70203e-10 3.85299e-10 2.36785e+06 3.17259e+12
83.9313 573.502 435.876 1.53173e-10 6.32174e+06 572.412 1.52882e-10 3.28173e-10 2.95064e+06 3.74415e+12
88.6959 609.165 514.4 1.37862e-10 7.44986e+06 607.978 1.37593e-10 2.79476e-10 3.67491e+06 4.41866e+12
93.7309 647.79 607.071 1.24224e-10 8.79764e+06 646.554 1.23987e-10 2.37972e-10 4.59245e+06 5.2147e+12
99.0518 692.124 716.436 1.12465e-10 1.03827e+07 690.755 1.12242e-10 2.02605e-10 5.76337e+06 6.15414e+12
104.675 743.934 845.504 1.0243e-10 1.22515e+07 742.39 1.02218e-10 1.72471e-10 7.27617e+06 7.26283e+12
110.617 802.528 997.824 9.36303e-11 1.44573e+07 800.816 9.34306e-11 1.468e-10 9.221e+06 8.57124e+12
116.896 872.664 1177.58 8.6271e-11 1.70664e+07 870.708 8.60777e-11 1.24935e-10 1.17848e+07 1.01154e+13
123.532 953.707 1389.73 7.98904e-11 2.0139e+07 951.519 7.97072e-11 1.06313e-10 1.51337e+07 1.19377e+13
130.545 1049.19 1640.09 7.44723e-11 2.37643e+07 1046.66 7.42926e-11 9.04567e-11 1.9565e+07 1.40883e+13
137.955 1163.39 1935.56 6.99726e-11 2.80503e+07 1160.42 6.9794e-11 7.69563e-11 2.55048e+07 1.66263e+13
145.787 1297.17 2284.26 6.61091e-11 3.30981e+07 1293.8 6.59373e-11 6.54636e-11 3.34245e+07 1.96216e+13
154.063 1455.66 2695.77 6.28618e-11 3.90634e+07 1451.72 6.26918e-11 5.56812e-11 4.4101e+07 2.31565e+13
162.808 1646.28 3181.42 6.0241e-11 4.61057e+07 1641.69 6.00731e-11 4.73556e-11 5.86509e+07 2.73282e+13
172.051 1872.06 3754.56 5.80457e-11 5.44046e+07 1866.67 5.78786e-11 4.02708e-11 7.84179e+07 3.22515e+13
181.818 2141.83 4430.96 5.62727e-11 6.42064e+07 2135.51 5.61065e-11 3.42426e-11 1.05514e+08 3.80616e+13
192.139 2463.88 5229.21 5.48522e-11 7.57748e+07 2456.47 5.46872e-11 2.91139e-11 1.42764e+08 4.49186e+13
203.046 2848.37 6171.26 5.3732e-11 8.94213e+07 2839.55 5.35656e-11 2.4751e-11 1.94125e+08 5.30108e+13
214.572 3307.93 7283.03 5.28754e-11 1.05538e+08 3297.51 5.27089e-11 2.10401e-11 2.65227e+08 6.25608e+13
226.753 3861.6 8595.09 5.2303e-11 1.24552e+08 3849.17 5.21347e-11 1.78839e-11 3.64262e+08 7.38313e+13
239.625 4524.93 10143.5 5.19318e-11 1.46987e+08 4510.16 5.17623e-11 1.51999e-11 5.02195e+08 8.71322e+13
253.228 5324.36 11970.9 5.17786e-11 1.7347e+08 5306.6 5.16059e-11 1.29176e-11 6.95333e+08 1.02829e+14
267.603 6292.51 14127.5 5.18524e-11 2.04703e+08 6271.21 5.16769e-11 1.09771e-11 9.66949e+08 1.21354e+14
282.795 7468.49 16672.6 5.21482e-11 2.4161e+08 7442.68 5.1968e-11 9.3274e-12 1.35081e+09 1.43217e+14
298.848 8916.55 19676.2 5.27552e-11 2.85122e+08 8884.94 5.25682e-11 7.925e-12 1.89801e+09 1.69017e+14
315.813 10715.7 23220.9 5.37219e-11 3.36491e+08 10676.6 5.35258e-11 6.73295e-12 2.68485e+09 1.99466e+14
333.741 12989.8 27404.3 5.51817e-11 3.97115e+08 12940.6 5.49727e-11 5.71979e-12 3.83116e+09 2.35401e+14
352.686 15928.9 32341.2 5.73376e-11 4.68637e+08 15865.7 5.711e-11 4.85874e-12 5.53035e+09 2.77809e+14
372.707 19848.5 38167.6 6.05401e-11 5.53074e+08 19765 6.02855e-11 4.12703e-12 8.11314e+09 3.27857e+14
393.865 25262.1 45043.5 6.529e-11 6.52716e+08 25147.2 6.4993e-11 3.50528e-12 1.21576e+10 3.86921e+14
416.224 29829.2 53158.3 6.53252e-11 2.2184e+08 31556.5 6.91081e-11 2.97701e-12 4.86788e+09 4.56626e+14
439.852 0 62734.9 0 0 0 0 2.52819e-12 0 5.38888e+14
464.821 0 74036.7 0 0 0 0 2.1469e-12 0 6.35971e+14
491.207 0 87374.6 0 0 0 0 1.82301e-12 0 7.50542e+14
519.092 0 103115 0 0 0 0 1.54789e-12 0 8.85755e+14
548.56 0 121692 0 0 0 0 1.31422e-12 0 1.04533e+15
579.7 0 143615 0 0 0 0 1.11576e-12 0 1.23364e+15
612.608 0 169488 0 0 0 0 9.47223e-13 0 1.45589e+15
647.384 0 200021 0 0 0 0 8.041e-13 0 1.71817e+15
684.134 0 236056 0 0 0 0 6.82568e-13 0 2.0277e+15
722.971 0 278582 0 0 0 0 5.79376e-13 0 2.393e+15
764.012 0 328769 0 0 0 0 4.91762e-13 0 2.8241e+15
0.940705
200
1.0655e+09
8589934592
0.0129181 0.00185449 1.58924e-09 0.000135845 6 0.00183751 0.000134602 0.00677225 0.120355 13.6515
0.0136515 0 1.87554e-09 0 0 0 0 0.00688819 0 16.1108
0.0144264 0 2.21343e-09 0 0 0 0 0.00699249 0 19.0132
0.0152454 0 2.61218e-09 0 0 0 0 0.00708412 0 22.4385
0.0161108 0 3.08278e-09 0 0 0 0 0.00716212 0 26.4808
0.0170254 0 3.63815e-09 0 0 0 0 0.00722559 0 31.2514
0.0179919 0.00415899 4.29357e-09 0.000112766 12 0.00415363 0.000112621 0.00727371 0.18604 36.8815
0.0190132 0 5.06707e-09 0 0 0 0 0.00730578 0 43.5258
0.0200925 0 5.97991e-09 0 0 0 0 0.00732122 0 51.367
0.0212331 0.00395173 7.05721e-09 6.51875e-05 8 0.00394829 6.51308e-05 0.00731958 0.0712473 60.621
0.0224385 0 8.32858e-09 0 0 0 0 0.00730056 0 71.542
0.0237123 0 9.829e-09 0 0 0 0 0.00726401 0 84.4305
0.0250583 0.0249354 1.15997e-08 0.000250253 6 0.0249236 0.000250135 0.00720995 0.208256 99.6408
0.0264808 0 1.36894e-08 0 0 0 0 0.00713857 0 117.591
0.0279841 0.0153706 1.61556e-08 0.000110758 24 0.0153548 0.000110645 0.00705021 0.377039 138.776
0.0295727 0 1.90661e-08 0 0 0 0 0.00694538 0 163.777
0.0312514 0.0272898 2.25009e-08 0.000141192 24 0.0274284 0.000141909 0.00682475 0.496518 193.281
0.0330255 0 2.65545e-08 0 0 0 0 0.00668915 0 228.102
0.0349003 0.0416607 3.13384e-08 0.00015476 12 0.0413271 0.000153521 0.00653951 0.283985 269.195
0.0368815 0.0332201 3.69841e-08 0.000104567 30 0.0328663 0.000103454 0.00637693 0.491933 317.691
0.0389751 0.037518 4.36469e-08 0.000100068 24 0.037132 9.90388e-05 0.00620256 0.387201 374.924
0.0411876 0.024117 5.151e-08 5.45056e-05 24 0.0239532 5.41355e-05 0.00601767 0.217382 442.467
0.0435258 0.0602358 6.07896e-08 0.000115355 8 0.0602311 0.000115346 0.00582358 0.158466 522.179
0.0459966 0.0736878 7.1741e-08 0.000119574 72 0.0731067 0.000118631 0.00562166 1.53146 616.251
0.0486077 0 8.46654e-08 0 0 0 0 0.0054133 0 727.27
0.051367 0.10068 9.99181e-08 0.000117303 54 0.100346 0.000116913 0.00519989 1.21817 858.29
0.054283 0.0815403 1.17919e-07 8.05007e-05 60 0.0819122 8.08679e-05 0.0049828 0.969343 1012.91
0.0573645 0.075955 1.39162e-07 6.35398e-05 96 0.0757602 6.33768e-05 0.00476339 1.28056 1195.39
0.060621 0.0904883 1.64232e-07 6.41422e-05 24 0.0892623 6.32732e-05 0.00454293 0.338859 1410.75
0.0640622 0.155039 1.93819e-07 9.31221e-05 134 0.155107 9.3163e-05 0.00432265 2.88674 1664.89
0.0676989 0.152045 2.28736e-07 7.73831e-05 120 0.151298 7.70031e-05 0.00410371 2.26282 1964.83
0.071542 0.143581 2.69944e-07 6.19204e-05 108 0.14199 6.12342e-05 0.00388717 1.72038 2318.8
0.0756032 0.212714 3.18575e-07 7.7731e-05 174 0.211529 7.7298e-05 0.00367401 3.68132 2736.54
0.079895 0.222427 3.75967e-07 6.88728e-05 168 0.220336 6.82253e-05 0.0034651 3.3392 3229.53
0.0844305 0.185102 4.43698e-07 4.85661e-05 168 0.186018 4.88064e-05 0.00326121 2.50186 3811.34
0.0892234 0.222913 5.23632e-07 4.95586e-05 290 0.221855 4.93234e-05 0.00306301 4.69211 4497.96
0.0942883 0.267302 6.17966e-07 5.03557e-05 288 0.266736 5.02491e-05 0.00287109 5.05119 5308.28
0.0996408 0.2398 7.29294e-07 3.82787e-05 366 0.237974 3.79871e-05 0.00268591 5.21611 6264.59
0.105297 0.283088 8.60678e-07 3.82905e-05 420 0.281062 3.80165e-05 0.00250785 6.41267 7393.17
0.111275 0.302704 1.01573e-06 3.46936e-05 398 0.30187 3.4598e-05 0.00233721 5.90791 8725.07
0.117591 0.35948 1.19872e-06 3.49114e-05 624 0.360506 3.50111e-05 0.00217419 10.0197 10296.9
0.124267 0.419099 1.41467e-06 3.44882e-05 642 0.418134 3.44089e-05 0.00201893 10.9669 12151.9
0.131321 0.491184 1.66953e-06 3.425e-05 800 0.491289 3.42573e-05 0.00187147 14.6409 14341.1
0.138776 0.455835 1.9703e-06 2.69331e-05 858 0.457757 2.70466e-05 0.00173182 13.3436 16924.7
0.146654 0.532668 2.32525e-06 2.66684e-05 1080 0.537085 2.68895e-05 0.00159991 18.0022 19973.8
0.154979 0.619685 2.74415e-06 2.62889e-05 1286 0.623569 2.64537e-05 0.00147563 22.9105 23572.1
0.163777 0.608705 3.23852e-06 2.18812e-05 1650 0.610464 2.19444e-05 0.00135884 26.5697 27818.7
0.173074 0.677033 3.82195e-06 2.06222e-05 1778 0.677571 2.06386e-05 0.00124933 29.3488 32830.3
0.182899 0.734657 4.51048e-06 1.89615e-05 2112 0.736327 1.90046e-05 0.00114689 34.9176 38744.7
0.193281 0.81054 5.32305e-06 1.77265e-05 2570 0.811128 1.77394e-05 0.00105127 43.3353 45724.7
0.204254 0.949949 6.28202e-06 1.7604e-05 3030 0.949309 1.75921e-05 0.000962209 55.435 53962.1
0.215848 0.991246 7.41374e-06 1.55652e-05 3434 0.990849 1.5559e-05 0.000879423 60.7795 63683.5
0.228102 1.05426 8.74934e-06 1.40276e-05 4218 1.05356 1.40183e-05 0.000802624 73.7187 75156.3
0.24105 1.17488 1.03256e-05 1.32462e-05 4766 1.1756 1.32542e-05 0.000731515 86.3022 88695.9
0.254734 1.2811 1.21857e-05 1.22389e-05 6026 1.28106 1.22385e-05 0.000665798 110.772 104675
0.269195 1.46479 1.4381e-05 1.18576e-05 6480 1.46347 1.18469e-05 0.000605173 126.967 123532
0.284476 1.57886 1.69718e-05 1.08299e-05 8162 1.58156 1.08485e-05 0.000549345 160.907 145787
0.300625 1.74881 2.00293e-05 1.01645e-05 9578 1.74937 1.01678e-05 0.000498021 195.486 172051
0.317691 1.9445 2.36377e-05 9.57666e-06 11234 1.94293 9.56891e-06 0.000450916 238.59 203046
0.335725 2.09027 2.78961e-05 8.72305e-06 13344 2.08646 8.70717e-06 0.000407755 285.467 239625
0.354784 2.36273 3.29216e-05 8.35492e-06 15464 2.36124 8.34965e-06 0.000368269 350.832 282795
0.374924 2.55987 3.88525e-05 7.67025e-06 18458 2.55726 7.66241e-06 0.000332202 426.179 333741
0.396207 2.96618 4.58519e-05 7.53095e-06 22232 2.96125 7.51845e-06 0.000299307 559.386 393865
0.418699 3.19019 5.41123e-05 6.86327e-06 25628 3.18238 6.84647e-06 0.00026935 653.024 464821
0.442467 3.49754 6.38607e-05 6.37586e-06 30320 3.49155 6.36494e-06 0.000242108 798.472 548560
0.467585 3.96135 7.53654e-05 6.11902e-06 35452 3.95406 6.10775e-06 0.00021737 997.981 647384
0.494129 4.39263 8.89427e-05 5.74943e-06 41792 4.38757 5.7428e-06 0.000194938 1232.6 764012
0.522179 4.94692 0.000104966 5.48651e-06 49988 4.94619 5.4857e-06 0.000174625 1570.57 901651
0.551822 5.5381 0.000123876 5.20456e-06 59110 5.53066 5.19757e-06 0.000156255 1968.85 1.06409e+06
0.583147 6.17187 0.000146192 4.91476e-06 69716 6.16202 4.90692e-06 0.000139664 2453.3 1.25578e+06
0.616251 6.90462 0.000172529 4.65894e-06 82210 6.89099 4.64974e-06 0.0001247 3071.46 1.48202e+06
0.651234 7.61676 0.000203611 4.35491e-06 96722 7.59993 4.34528e-06 0.00011122 3787.21 1.74901e+06
0.688203 8.65344 0.000240292 4.19237e-06 113098 8.63932 4.18553e-06 9.90935e-05 4784.86 2.06409e+06
0.72727 9.70484 0.000283581 3.98401e-06 135190 9.69042 3.97809e-06 8.81969e-05 6106.78 2.43595e+06
0.768555 10.8405 0.000334669 3.77089e-06 158170 10.8229 3.76477e-06 7.84179e-05 7605.93 2.87479e+06
0.812184 12.1613 0.000394961 3.58455e-06 188560 12.1415 3.57872e-06 6.96525e-05 9703.93 3.39269e+06
0.85829 13.6068 0.000466114 3.3984e-06 220444 13.5843 3.39278e-06 6.1805e-05 12121.3 4.00389e+06
0.907013 15.2033 0.000550086 3.21749e-06 261388 15.1775 3.21204e-06 5.47875e-05 15350.5 4.7252e+06
0.958501 17.0363 0.000649185 3.05503e-06 308244 17.0099 3.0503e-06 4.85194e-05 19408.6 5.57646e+06
1.01291 19.1178 0.000766138 2.90496e-06 364396 19.085 2.89998e-06 4.29272e-05 24659.3 6.58107e+06
1.07041 21.2735 0.00090416 2.73908e-06 429162 21.2345 2.73405e-06 3.79435e-05 30980.5 7.76667e+06
1.13118 23.7355 0.00106705 2.58956e-06 506358 23.6949 2.58512e-06 3.3507e-05 39133.4 9.16586e+06
1.19539 26.5305 0.00125928 2.45264e-06 598590 26.4809 2.44805e-06 2.9562e-05 49662.6 1.08171e+07
1.26325 29.4627 0.00148614 2.30793e-06 704844 29.4108 2.30386e-06 2.60578e-05 62427.8 1.27658e+07
1.33496 32.7308 0.00175387 2.17255e-06 834620 32.6669 2.1683e-06 2.29484e-05 79014 1.50656e+07
1.41075 36.3065 0.00206984 2.04201e-06 981444 36.2381 2.03816e-06 2.01923e-05 99251.7 1.77798e+07
1.49083 40.0768 0.00244272 1.90998e-06 1.15998e+06 40.0039 1.90651e-06 1.77518e-05 124806 2.09828e+07
1.57546 44.2383 0.00288279 1.78647e-06 1.36931e+06 44.1578 1.78322e-06 1.55929e-05 156881 2.4763e+07
1.66489 48.7107 0.00340213 1.6668e-06 1.61652e+06 48.6215 1.66375e-06 1.3685e-05 196888 2.92241e+07
1.75941 53.6038 0.00401503 1.55424e-06 1.90601e+06 53.5037 1.55133e-06 1.20007e-05 246851 3.44889e+07
1.85928 58.7696 0.00473835 1.4439e-06 2.24913e+06 58.6601 1.44121e-06 1.05151e-05 308842 4.07021e+07
1.96483 64.1274 0.00559198 1.33502e-06 2.65744e+06 64.0104 1.33259e-06 9.20606e-06 385370 4.80347e+07
2.07637 69.9123 0.00659939 1.23328e-06 3.13125e+06 69.7885 1.23109e-06 8.05366e-06 479496 5.66883e+07
2.19424 76.3225 0.00778828 1.14083e-06 3.69915e+06 76.1843 1.13876e-06 7.04008e-06 599439 6.69008e+07
2.3188 82.8273 0.00919136 1.04907e-06 4.36472e+06 82.6838 1.04725e-06 6.1494e-06 744608 7.89532e+07
2.45043 90.0137 0.0108472 9.66053e-07 5.14913e+06 89.8535 9.64333e-07 5.36741e-06 926766 9.31768e+07
2.58954 97.3419 0.0128014 8.85225e-07 6.07894e+06 97.179 8.83744e-07 4.68145e-06 1.14948e+06 1.09963e+08
2.73654 105.389 0.0151076 8.12104e-07 7.17304e+06 105.209 8.10717e-07 4.08023e-06 1.42768e+06 1.29773e+08
2.89188 113.629 0.0178292 7.41936e-07 8.46557e+06 113.439 7.40698e-07 3.55373e-06 1.76741e+06 1.53152e+08
3.05605 122.453 0.0210412 6.77497e-07 9.98773e+06 122.248 6.76364e-07 3.09304e-06 2.1877e+06 1.80743e+08
3.22953 131.678 0.0248319 6.17326e-07 1.1797e+07 131.458 6.16295e-07 2.69025e-06 2.70703e+06 2.13304e+08
3.41286 141.417 0.0293054 5.61779e-07 1.39144e+07 141.178 5.60828e-07 2.33837e-06 3.34284e+06 2.51731e+08
3.6066 151.755 0.0345848 5.1082e-07 1.64163e+07 151.496 5.09949e-07 2.0312e-06 4.12848e+06 2.97081e+08
3.81134 162.789 0.0408154 4.64312e-07 1.93821e+07 162.523 4.63554e-07 1.76327e-06 5.10381e+06 3.50601e+08
4.0277 174.306 0.0481684 4.21269e-07 2.28754e+07 174.016 4.2057e-07 1.52972e-06 6.29964e+06 4.13763e+08
4.25634 186.195 0.056846 3.8131e-07 2.69929e+07 185.881 3.80667e-07 1.32631e-06 7.76038e+06 4.88304e+08
4.49796 198.763 0.067087 3.44912e-07 3.18542e+07 198.434 3.44341e-07 1.14926e-06 9.55999e+06 5.76273e+08
4.7533 212.303 0.0791729 3.12169e-07 3.75892e+07 211.951 3.11652e-07 9.95263e-07 1.179e+07 6.8009e+08
5.02313 226.23 0.0934361 2.81868e-07 4.43706e+07 225.854 2.81399e-07 8.61414e-07 1.45187e+07 8.0261e+08
5.30828 240.923 0.110269 2.54353e-07 5.23593e+07 240.523 2.5393e-07 7.45152e-07 1.78725e+07 9.47202e+08
5.60962 256.311 0.130134 2.29291e-07 6.1787e+07 255.889 2.28913e-07 6.44232e-07 2.19908e+07 1.11784e+09
5.92807 272.68 0.153578 2.06697e-07 7.29346e+07 272.227 2.06354e-07 5.56685e-07 2.70805e+07 1.31923e+09
6.26459 289.545 0.181246 1.85977e-07 8.60651e+07 289.061 1.85666e-07 4.80786e-07 3.32915e+07 1.55689e+09
6.62021 307.353 0.213898 1.67279e-07 1.01558e+08 306.846 1.67003e-07 4.15026e-07 4.09338e+07 1.83737e+09
6.99602 325.964 0.252432 1.50327e-07 1.1986e+08 325.425 1.50078e-07 3.58083e-07 5.03184e+07 2.16837e+09
7.39317 345.591 0.297908 1.35049e-07 1.41457e+08 345.02 1.34826e-07 3.08803e-07 6.18631e+07 2.55901e+09
7.81286 365.888 0.351577 1.21154e-07 1.66936e+08 365.29 1.20956e-07 2.66181e-07 7.5982e+07 3.02002e+09
8.25637 387.487 0.414914 1.0872e-07 1.97025e+08 386.844 1.0854e-07 2.29336e-07 9.34023e+07 3.56409e+09
8.72507 410.158 0.489662 9.75135e-08 2.32497e+08 409.477 9.73515e-08 1.97503e-07 1.14791e+08 4.20617e+09
9.22037 434.326 0.577876 8.74966e-08 2.74404e+08 433.594 8.73491e-08 1.70014e-07 1.4122e+08 4.96392e+09
9.74378 460.782 0.681982 7.86561e-08 3.2382e+08 459.987 7.85205e-08 1.46289e-07 1.7411e+08 5.85818e+09
10.2969 490.31 0.804843 7.09201e-08 3.82165e+08 489.439 7.07942e-08 1.25822e-07 2.15408e+08 6.91355e+09
10.8814 525.276 0.949838 6.43795e-08 4.51027e+08 524.28 6.42575e-08 1.08175e-07 2.68424e+08 8.15905e+09
11.4992 569.838 1.12095 5.91798e-08 5.32251e+08 568.63 5.90544e-08 9.29669e-08 3.38814e+08 9.62892e+09
12.1519 632.907 1.3229 5.5696e-08 6.28157e+08 631.325 5.55568e-08 7.98658e-08 4.38058e+08 1.13636e+10
12.8418 703.801 1.56122 5.24802e-08 3.82727e+08 728.457 5.43188e-08 6.85852e-08 2.92856e+08 1.34108e+10
13.5708 0 1.84248 0 0 0 0 5.88765e-08 0 1.58268e+10
14.3411 0 2.17441 0 0 0 0 5.05241e-08 0 1.8678e+10
15.1552 0 2.56613 0 0 0 0 4.33417e-08 0 2.20429e+10
16.0156 0 3.02843 0 0 0 0 3.71677e-08 0 2.6014e+10
16.9247 0 3.574 0 0 0 0 3.18628e-08 0 3.07005e+10
17.8855 0 4.21787 0 0 0 0 2.73063e-08 0 3.62312e+10
18.9008 0 4.97773 0 0 0 0 2.33941e-08 0 4.27584e+10
19.9738 0 5.87448 0 0 0 0 2.00364e-08 0 5.04614e+10
21.1076 0 6.93279 0 0 0 0 1.71555e-08 0 5.95522e+10
22.3058 0 8.18175 0 0 0 0 1.46847e-08 0 7.02807e+10
23.5721 0 9.65571 0 0 0 0 1.25662e-08 0 8.29419e+10
24.9102 0 11.3952 0 0 0 0 1.07504e-08 0 9.78842e+10
26.3243 0 13.4481 0 0 0 0 9.19452e-09 0 1.15518e+11
27.8187 0 15.8708 0 0 0 0 7.86182e-09 0 1.36329e+11
29.3979 0 18.73 0 0 0 0 6.72061e-09 0 1.60889e+11
31.0667 0 22.1042 0 0 0 0 5.74366e-09 0 1.89874e+11
32.8303 0 26.0864 0 0 0 0 4.90756e-09 0 2.2408e+11
34.694 0 30.7859 0 0 0 0 4.19221e-09 0 2.64449e+11
36.6634 0 36.3321 0 0 0 0 3.58032e-09 0 3.1209e+11
38.7447 0 42.8774 0 0 0 0 3.05709e-09 0 3.68314e+11
40.9442 0 50.6018 0 0 0 0 2.60976e-09 0 4.34667e+11
43.2685 0 59.7179 0 0 0 0 2.22743e-09 0 5.12973e+11
45.7247 0 70.4762 0 0 0 0 1.90073e-09 0 6.05386e+11
48.3204 0 83.1727 0 0 0 0 1.62163e-09 0 7.14448e+11
51.0634 0 98.1565 0 0 0 0 1.38326e-09 0 8.43158e+11
53.9621 0 115.84 0 0 0 0 1.1797e-09 0 9.95055e+11
57.0254 0 136.709 0 0 0 0 1.00592e-09 0 1.17432e+12
60.2626 0 161.337 0 0 0 0 8.57591e-10 0 1.38587e+12
63.6835 0 190.402 0 0 0 0 7.3101e-10 0 1.63554e+12
67.2987 0 224.704 0 0 0 0 6.23009e-10 0 1.93019e+12
71.1191 0 265.185 0 0 0 0 5.30879e-10 0 2.27792e+12
75.1563 0 312.958 0 0 0 0 4.52303e-10 0 2.68829e+12
79.4227 0 369.339 0 0 0 0 3.85299e-10 0 3.17259e+12
83.9313 0 435.876 0 0 0 0 3.28173e-10 0 3.74415e+12
88.6959 0 514.4 0 0 0 0 2.79476e-10 0 4.41866e+12
93.7309 0 607.071 0 0 0 0 2.37972e-10 0 5.2147e+12
99.0518 0 716.436 0 0 0 0 2.02605e-10 0 6.15414e+12
104.675 0 845.504 0 0 0 0 1.72471e-10 0 7.26283e+12
110.617 0 997.824 0 0 0 0 1.468e-10 0 8.57124e+12
116.896 0 1177.58 0 0 0 0 1.24935e-10 0 1.01154e+13
123.532 0 1389.73 0 0 0 0 1.06313e-10 0 1.19377e+13
130.545 0 1640.09 0 0 0 0 9.04567e-11 0 1.40883e+13
137.955 0 1935.56 0 0 0 0 7.69563e-11 0 1.66263e+13
145.787 0 2284.26 0 0 0 0 6.54636e-11 0 1.96216e+13
154.063 0 2695.77 0 0 0 0 5.56812e-11 0 2.31565e+13
162.808 0 3181.42 0 0 0 0 4.73556e-11 0 2.73282e+13
172.051 0 3754.56 0 0 0 0 4.02708e-11 0 3.22515e+13
181.818 0 4430.96 0 0 0 0 3.42426e-11 0 3.80616e+13
192.139 0 5229.21 0 0 0 0 2.91139e-11 0 4.49186e+13
203.046 0 6171.26 0 0 0 0 2.4751e-11 0 5.30108e+13
214.572 0 7283.03 0 0 0 0 2.10401e-11 0 6.25608e+13
226.753 0 8595.09 0 0 0 0 1.78839e-11 0 7.38313e+13
239.625 0 10143.5 0 0 0 0 1.51999e-11 0 8.71322e+13
253.228 0 11970.9 0 0 0 0 1.29176e-11 0 1.02829e+14
267.603 0 14127.5 0 0 0 0 1.09771e-11 0 1.21354e+14
282.795 0 16672.6 0 0 0 0 9.3274e-12 0 1.43217e+14
298.848 0 19676.2 0 0 0 0 7.925e-12 0 1.69017e+14
315.813 0 23220.9 0 0 0 0 6.73295e-12 0 1.99466e+14
333.741 0 27404.3 0 0 0 0 5.71979e-12 0 2.35401e+14
352.686 0 32341.2 0 0 0 0 4.85874e-12 0 2.77809e+14
372.707 0 38167.6 0 0 0 0 4.12703e-12 0 3.27857e+14
393.865 0 45043.5 0 0 0 0 3.50528e-12 0 3.86921e+14
416.224 0 53158.3 0 0 0 0 2.97701e-12 0 4.56626e+14
439.852 0 62734.9 0 0 0 0 2.52819e-12 0 5.38888e+14
464.821 0 74036.7 0 0 0 0 2.1469e-12 0 6.35971e+14
491.207 0 87374.6 0 0 0 0 1.82301e-12 0 7.50542e+14
519.092 0 103115 0 0 0 0 1.54789e-12 0 8.85755e+14
548.56 0 121692 0 0 0 0 1.31422e-12 0 1.04533e+15
579.7 0 143615 0 0 0 0 1.11576e-12 0 1.23364e+15
612.608 0 169488 0 0 0 0 9.47223e-13 0 1.45589e+15
647.384 0 200021 0 0 0 0 8.041e-13 0 1.71817e+15
684.134 0 236056 0 0 0 0 6.82568e-13 0 2.0277e+15
722.971 0 278582 0 0 0 0 5.79376e-13 0 2.393e+15
764.012 0 328769 0 0 0 0 4.91762e-13 0 2.8241e+15
