0.807398
200
1.0655e+09
8589934592
0.0129181 0 1.58924e-09 0 0 0 0 0.00677225 0 13.6515
0.0136515 0 1.87554e-09 0 0 0 0 0.00688819 0 16.1108
0.0144264 0 2.21343e-09 0 0 0 0 0.00699249 0 19.0132
0.0152454 0 2.61218e-09 0 0 0 0 0.00708412 0 22.4385
0.0161108 0 3.08278e-09 0 0 0 0 0.00716212 0 26.4808
0.0170254 0 3.63815e-09 0 0 0 0 0.00722559 0 31.2514
0.0179919 0 4.29357e-09 0 0 0 0 0.00727371 0 36.8815
0.0190132 0 5.06707e-09 0 0 0 0 0.00730578 0 43.5258
0.0200925 0 5.97991e-09 0 0 0 0 0.00732122 0 51.367
0.0212331 0 7.05721e-09 0 0 0 0 0.00731958 0 60.621
0.0224385 0 8.32858e-09 0 0 0 0 0.00730056 0 71.542
0.0237123 0 9.829e-09 0 0 0 0 0.00726401 0 84.4305
0.0250583 0 1.15997e-08 0 0 0 0 0.00720995 0 99.6408
0.0264808 0 1.36894e-08 0 0 0 0 0.00713857 0 117.591
0.0279841 0 1.61556e-08 0 0 0 0 0.00705021 0 138.776
0.0295727 0 1.90661e-08 0 0 0 0 0.00694538 0 163.777
0.0312514 0 2.25009e-08 0 0 0 0 0.00682475 0 193.281
0.0330255 0 2.65545e-08 0 0 0 0 0.00668915 0 228.102
0.0349003 0 3.13384e-08 0 0 0 0 0.00653951 0 269.195
0.0368815 0 3.69841e-08 0 0 0 0 0.00637693 0 317.691
0.0389751 0 4.36469e-08 0 0 0 0 0.00620256 0 374.924
0.0411876 0 5.151e-08 0 0 0 0 0.00601767 0 442.467
0.0435258 0 6.07896e-08 0 0 0 0 0.00582358 0 522.179
0.0459966 0 7.1741e-08 0 0 0 0 0.00562166 0 616.251
0.0486077 0 8.46654e-08 0 0 0 0 0.0054133 0 727.27
0.051367 0 9.99181e-08 0 0 0 0 0.00519989 0 858.29
0.054283 0 1.17919e-07 0 0 0 0 0.0049828 0 1012.91
0.0573645 0 1.39162e-07 0 0 0 0 0.00476339 0 1195.39
0.060621 0 1.64232e-07 0 0 0 0 0.00454293 0 1410.75
0.0640622 0 1.93819e-07 0 0 0 0 0.00432265 0 1664.89
0.0676989 0 2.28736e-07 0 0 0 0 0.00410371 0 1964.83
0.071542 0 2.69944e-07 0 0 0 0 0.00388717 0 2318.8
0.0756032 0 3.18575e-07 0 0 0 0 0.00367401 0 2736.54
0.079895 0 3.75967e-07 0 0 0 0 0.0034651 0 3229.53
0.0844305 0 4.43698e-07 0 0 0 0 0.00326121 0 3811.34
0.0892234 0 5.23632e-07 0 0 0 0 0.00306301 0 4497.96
0.0942883 0 6.17966e-07 0 0 0 0 0.00287109 0 5308.28
0.0996408 0 7.29294e-07 0 0 0 0 0.00268591 0 6264.59
0.105297 0 8.60678e-07 0 0 0 0 0.00250785 0 7393.17
0.111275 0 1.01573e-06 0 0 0 0 0.00233721 0 8725.07
0.117591 0 1.19872e-06 0 0 0 0 0.00217419 0 10296.9
0.124267 0 1.41467e-06 0 0 0 0 0.00201893 0 12151.9
0.131321 0 1.66953e-06 0 0 0 0 0.00187147 0 14341.1
0.138776 0 1.9703e-06 0 0 0 0 0.00173182 0 16924.7
0.146654 0 2.32525e-06 0 0 0 0 0.00159991 0 19973.8
0.154979 0 2.74415e-06 0 0 0 0 0.00147563 0 23572.1
0.163777 0 3.23852e-06 0 0 0 0 0.00135884 0 27818.7
0.173074 0 3.82195e-06 0 0 0 0 0.00124933 0 32830.3
0.182899 0 4.51048e-06 0 0 0 0 0.00114689 0 38744.7
0.193281 0 5.32305e-06 0 0 0 0 0.00105127 0 45724.7
0.204254 0 6.28202e-06 0 0 0 0 0.000962209 0 53962.1
0.215848 0 7.41374e-06 0 0 0 0 0.000879423 0 63683.5
0.228102 0 8.74934e-06 0 0 0 0 0.000802624 0 75156.3
0.24105 0 1.03256e-05 0 0 0 0 0.000731515 0 88695.9
0.254734 0 1.21857e-05 0 0 0 0 0.000665798 0 104675
0.269195 0 1.4381e-05 0 0 0 0 0.000605173 0 123532
0.284476 0 1.69718e-05 0 0 0 0 0.000549345 0 145787
0.300625 0 2.00293e-05 0 0 0 0 0.000498021 0 172051
0.317691 0 2.36377e-05 0 0 0 0 0.000450916 0 203046
0.335725 0 2.78961e-05 0 0 0 0 0.000407755 0 239625
0.354784 0 3.29216e-05 0 0 0 0 0.000368269 0 282795
0.374924 0 3.88525e-05 0 0 0 0 0.000332202 0 333741
0.396207 1.93754 4.58519e-05 4.91931e-06 6 1.88368 4.78254e-06 0.000299307 0.098614 393865
0.418699 0 5.41123e-05 0 0 0 0 0.00026935 0 464821
0.442467 0 6.38607e-05 0 0 0 0 0.000242108 0 548560
0.467585 0 7.53654e-05 0 0 0 0 0.00021737 0 647384
0.494129 0 8.89427e-05 0 0 0 0 0.000194938 0 764012
0.522179 0 0.000104966 0 0 0 0 0.000174625 0 901651
0.551822 0 0.000123876 0 0 0 0 0.000156255 0 1.06409e+06
0.583147 5.59791 0.000146192 4.45771e-06 12 5.89183 4.69176e-06 0.000139664 0.383008 1.25578e+06
0.616251 0 0.000172529 0 0 0 0 0.0001247 0 1.48202e+06
0.651234 0 0.000203611 0 0 0 0 0.00011122 0 1.74901e+06
0.688203 15.483 0.000240292 7.50109e-06 8 15.0978 7.31447e-06 9.90935e-05 0.605577 2.06409e+06
0.72727 0 0.000283581 0 0 0 0 8.81969e-05 0 2.43595e+06
0.768555 0 0.000334669 0 0 0 0 7.84179e-05 0 2.87479e+06
0.812184 8.28956 0.000394961 2.44336e-06 6 8.46679 2.4956e-06 6.96525e-05 0.210476 3.39269e+06
0.85829 0 0.000466114 0 0 0 0 6.1805e-05 0 4.00389e+06
0.907013 2.31218 0.000550086 4.8933e-07 24 2.35655 4.98719e-07 5.47875e-05 0.214354 4.7252e+06
0.958501 4.55728 0.000649185 8.17236e-07 24 4.29034 7.69367e-07 4.85194e-05 0.404244 5.57646e+06
1.01291 0 0.000766138 0 0 0 0 4.29272e-05 0 6.58107e+06
1.07041 0 0.00090416 0 0 0 0 3.79435e-05 0 7.76667e+06
1.13118 3.01871 0.00106705 3.29342e-07 12 2.98162 3.25297e-07 3.3507e-05 0.117949 9.16586e+06
1.19539 4.02019 0.00125928 3.71651e-07 30 3.93731 3.63989e-07 2.9562e-05 0.377157 1.08171e+07
1.26325 10.3222 0.00148614 8.0858e-07 24 10.1669 7.96413e-07 2.60578e-05 0.744725 1.27658e+07
1.33496 12.7275 0.00175387 8.44803e-07 24 12.7555 8.4666e-07 2.29484e-05 0.883514 1.50656e+07
1.41075 17.3797 0.00206984 9.77497e-07 32 17.5679 9.88083e-07 2.01923e-05 1.5491 1.77798e+07
1.49083 5.27933 0.00244272 2.51602e-07 48 5.16678 2.46238e-07 1.77518e-05 0.680322 2.09828e+07
1.57546 28.7683 0.00288279 1.16175e-06 6 27.3939 1.10624e-06 1.55929e-05 0.44703 2.4763e+07
1.66489 5.37973 0.00340213 1.84086e-07 84 5.24022 1.79312e-07 1.3685e-05 1.12994 2.92241e+07
1.75941 10.4362 0.00401503 3.02598e-07 48 10.3235 2.99328e-07 1.20007e-05 1.21032 3.44889e+07
1.85928 7.17758 0.00473835 1.76344e-07 72 7.22931 1.77615e-07 1.05151e-05 1.20748 4.07021e+07
1.96483 21.3479 0.00559198 4.44426e-07 54 20.9415 4.35966e-07 9.20606e-06 2.60687 4.80347e+07
2.07637 13.3202 0.00659939 2.34973e-07 104 13.4493 2.3725e-07 8.05366e-06 3.0343 5.66883e+07
2.19424 8.373 0.00778828 1.25155e-07 120 8.56823 1.28074e-07 7.04008e-06 2.13331 6.69008e+07
2.3188 11.3888 0.00919136 1.44248e-07 156 11.1154 1.40785e-07 6.1494e-06 3.65933 7.89532e+07
2.45043 11.092 0.0108472 1.19043e-07 126 10.9855 1.17899e-07 5.36741e-06 2.79453 9.31768e+07
2.58954 10.7399 0.0128014 9.76684e-08 192 10.8355 9.85381e-08 4.68145e-06 4.00567 1.09963e+08
2.73654 34.862 0.0151076 2.68638e-07 152 35.1952 2.71206e-07 4.08023e-06 10.0075 1.29773e+08
2.89188 13.9631 0.0178292 9.11718e-08 378 13.9239 9.09155e-08 3.55373e-06 9.69767 1.53152e+08
3.05605 14.218 0.0210412 7.8664e-08 264 14.0778 7.78885e-08 3.09304e-06 6.71421 1.80743e+08
3.22953 15.5507 0.0248319 7.29039e-08 366 15.3737 7.2074e-08 2.69025e-06 9.91833 2.13304e+08
3.41286 14.3667 0.0293054 5.70714e-08 428 14.1955 5.63916e-08 2.33837e-06 10.446 2.51731e+08
3.6066 20.1766 0.0345848 6.79161e-08 486 19.9155 6.70374e-08 2.0312e-06 16.2501 2.97081e+08
3.81134 17.2275 0.0408154 4.91371e-08 600 17.2504 4.92024e-08 1.76327e-06 16.7203 3.50601e+08
4.0277 24.7048 0.0481684 5.97077e-08 738 24.7368 5.9785e-08 1.52972e-06 28.8054 4.13763e+08
4.25634 24.1634 0.056846 4.94844e-08 824 24.0944 4.93431e-08 1.32631e-06 30.7434 4.88304e+08
4.49796 26.1179 0.067087 4.53222e-08 954 25.941 4.50151e-08 1.14926e-06 37.622 5.76273e+08
4.7533 25.1563 0.0791729 3.69896e-08 1094 24.9662 3.67101e-08 9.95263e-07 40.6593 6.8009e+08
5.02313 28.7309 0.0934361 3.57969e-08 1332 28.7896 3.587e-08 8.61414e-07 55.3525 8.0261e+08
5.30828 34.0631 0.110269 3.59618e-08 1614 34.0091 3.59048e-08 7.45152e-07 77.8932 9.47202e+08
5.60962 39.2778 0.130134 3.51372e-08 1850 39.3106 3.51664e-08 6.44232e-07 100.901 1.11784e+09
5.92807 32.8857 0.153578 2.4928e-08 2238 32.8869 2.49289e-08 5.56685e-07 100.216 1.31923e+09
6.26459 35.852 0.181246 2.3028e-08 2546 35.9546 2.30939e-08 4.80786e-07 121.945 1.55689e+09
6.62021 37.859 0.213898 2.06051e-08 3264 37.8896 2.06217e-08 4.15026e-07 162.05 1.83737e+09
6.99602 41.3774 0.252432 1.90822e-08 3506 41.4156 1.90999e-08 3.58083e-07 186.835 2.16837e+09
7.39317 45.0196 0.297908 1.75926e-08 4506 45.0019 1.75857e-08 3.08803e-07 256.708 2.55901e+09
7.81286 49.564 0.351577 1.64118e-08 5018 49.3596 1.63441e-08 2.66181e-07 309.393 3.02002e+09
8.25637 51.712 0.414914 1.45092e-08 5852 51.6802 1.45003e-08 2.29336e-07 370.233 3.56409e+09
8.72507 54.6215 0.489662 1.2986e-08 7362 54.5004 1.29573e-08 1.97503e-07 484.06 4.20617e+09
9.22037 57.6611 0.577876 1.1616e-08 8306 57.5335 1.15903e-08 1.70014e-07 567.499 4.96392e+09
9.74378 62.258 0.681982 1.06275e-08 9698 62.2662 1.06289e-08 1.46289e-07 704.535 5.85818e+09
10.2969 65.2961 0.804843 9.44466e-09 11816 65.2107 9.4323e-09 1.25822e-07 886.949 6.91355e+09
10.8814 75.1266 0.949838 9.20777e-09 13682 74.8501 9.17388e-09 1.08175e-07 1164.6 8.15905e+09
11.4992 73.8275 1.12095 7.66727e-09 16152 73.7612 7.66038e-09 9.29669e-08 1332.11 9.62892e+09
12.1519 78.6404 1.3229 6.92038e-09 19472 78.5 6.90802e-09 7.98658e-08 1687.25 1.13636e+10
12.8418 82.9239 1.56122 6.18338e-09 22670 82.717 6.16795e-09 6.85852e-08 2043.84 1.34108e+10
13.5708 89.6097 1.84248 5.66191e-09 26224 89.4695 5.65305e-09 5.88765e-08 2521.85 1.58268e+10
14.3411 95.6694 2.17441 5.12204e-09 31640 95.637 5.1203e-09 5.05241e-08 3207.6 1.8678e+10
15.1552 98.8635 2.56613 4.48505e-09 37484 98.7024 4.47774e-09 4.33417e-08 3878.89 2.20429e+10
16.0156 107.254 3.02843 4.12294e-09 43856 107.107 4.11729e-09 3.71677e-08 4864.85 2.6014e+10
16.9247 112.449 3.574 3.66279e-09 51362 112.327 3.65882e-09 3.18628e-08 5904.33 3.07005e+10
17.8855 119.493 4.21787 3.29807e-09 61636 119.29 3.29246e-09 2.73063e-08 7444.44 3.62312e+10
18.9008 125.549 4.97773 2.93625e-09 72218 125.286 2.93009e-09 2.33941e-08 9064.23 4.27584e+10
19.9738 131.706 5.87448 2.61002e-09 84586 131.509 2.60613e-09 2.00364e-08 11018.5 5.04614e+10
21.1076 142.123 6.93279 2.38653e-09 100708 141.837 2.38172e-09 1.71555e-08 14009.6 5.95522e+10
22.3058 149.253 8.18175 2.12367e-09 118712 149.024 2.12041e-09 1.46847e-08 17167.9 7.02807e+10
23.5721 156.016 9.65571 1.88103e-09 140410 155.691 1.87711e-09 1.25662e-08 21018 8.29419e+10
24.9102 164.405 11.3952 1.67959e-09 164374 164.081 1.67628e-09 1.07504e-08 25681 9.78842e+10
26.3243 173.512 13.4481 1.50203e-09 194680 173.236 1.49964e-09 9.19452e-09 31803.1 1.15518e+11
27.8187 181.872 15.8708 1.33406e-09 230196 181.572 1.33186e-09 7.86182e-09 39061.7 1.36329e+11
29.3979 192.391 18.73 1.1958e-09 271156 192.049 1.19367e-09 6.72061e-09 48246.7 1.60889e+11
31.0667 202.704 22.1042 1.06757e-09 321076 202.355 1.06573e-09 5.74366e-09 59678.4 1.89874e+11
32.8303 214.019 26.0864 9.551e-10 377436 213.593 9.53201e-10 4.90756e-09 73455.9 2.2408e+11
34.694 224.586 30.7859 8.49259e-10 447594 224.139 8.4757e-10 4.19221e-09 90673.8 2.64449e+11
36.6634 235.17 36.3321 7.53532e-10 525078 234.711 7.52063e-10 3.58032e-09 110510 3.1209e+11
38.7447 247.61 42.8774 6.72281e-10 621924 247.135 6.70989e-10 3.05709e-09 136767 3.68314e+11
40.9442 260.559 50.6018 5.99446e-10 732630 260.085 5.98354e-10 2.60976e-09 168281 4.34667e+11
43.2685 273.672 59.7179 5.33502e-10 865596 273.229 5.32638e-10 2.22743e-09 207323 5.12973e+11
45.7247 287.647 70.4762 4.75147e-10 1.02168e+06 287.166 4.74351e-10 1.90073e-09 255399 6.05386e+11
48.3204 301.207 83.1727 4.21594e-10 1.20544e+06 300.671 4.20843e-10 1.62163e-09 313391 7.14448e+11
51.0634 315.371 98.1565 3.74036e-10 1.42103e+06 314.822 3.73384e-10 1.38326e-09 384250 8.43158e+11
53.9621 330.923 115.84 3.32567e-10 1.67997e+06 330.354 3.31996e-10 1.1797e-09 473595 9.95055e+11
57.0254 348.953 136.709 2.97154e-10 1.98018e+06 348.359 2.96648e-10 1.00592e-09 584956 1.17432e+12
60.2626 365.77 161.337 2.63928e-10 2.33957e+06 365.12 2.63459e-10 8.57591e-10 720013 1.38587e+12
63.6835 384.951 190.402 2.35366e-10 2.75676e+06 384.249 2.34937e-10 7.3101e-10 887605 1.63554e+12
67.2987 406.769 224.704 2.10741e-10 3.25638e+06 406.064 2.10375e-10 6.23009e-10 1.10151e+06 1.93019e+12
71.1191 428.961 265.185 1.88313e-10 3.84387e+06 428.203 1.8798e-10 5.30879e-10 1.36349e+06 2.27792e+12
75.1563 453.445 312.958 1.68674e-10 4.53277e+06 452.595 1.68358e-10 4.52303e-10 1.69037e+06 2.68829e+12
79.4227 480.544 369.339 1.51467e-10 5.35083e+06 479.672 1.51192e-10 3.85299e-10 2.10349e+06 3.17259e+12
83.9313 511.825 435.876 1.367e-10 6.32174e+06 510.806 1.36428e-10 3.28173e-10 2.63331e+06 3.74415e+12
88.6959 546.412 514.4 1.2366e-10 7.44986e+06 545.316 1.23412e-10 2.79476e-10 3.29634e+06 4.41866e+12
93.7309 585.563 607.071 1.12291e-10 8.79764e+06 584.384 1.12065e-10 2.37972e-10 4.1513e+06 5.2147e+12
99.0518 629.598 716.436 1.02305e-10 1.03827e+07 628.281 1.02091e-10 2.02605e-10 5.24271e+06 6.15414e+12
104.675 681.403 845.504 9.38207e-11 1.22515e+07 679.924 9.3617e-11 1.72471e-10 6.66458e+06 7.26283e+12
110.617 742.006 997.824 8.65692e-11 1.44573e+07 740.334 8.63742e-11 1.468e-10 8.5256e+06 8.57124e+12
116.896 813.38 1177.58 8.04102e-11 1.70664e+07 811.46 8.02204e-11 1.24935e-10 1.09842e+07 1.01154e+13
123.532 897.244 1389.73 7.51606e-11 2.0139e+07 895.023 7.49746e-11 1.06313e-10 1.42377e+07 1.19377e+13
130.545 996.505 1640.09 7.07329e-11 2.37643e+07 993.95 7.05515e-11 9.04567e-11 1.85826e+07 1.40883e+13
137.955 1114.6 1935.56 6.70382e-11 2.80503e+07 1111.65 6.68607e-11 7.69563e-11 2.44352e+07 1.66263e+13
145.787 1255.08 2284.26 6.39639e-11 3.30981e+07 1251.65 6.37894e-11 6.54636e-11 3.23399e+07 1.96216e+13
154.063 1419.72 2695.77 6.13098e-11 3.90634e+07 1415.74 6.1138e-11 5.56812e-11 4.30123e+07 2.31565e+13
162.808 1618.75 3181.42 5.92335e-11 4.61057e+07 1614.04 5.90613e-11 4.73556e-11 5.767e+07 2.73282e+13
172.051 1854.76 3754.56 5.75092e-11 5.44046e+07 1849.26 5.73389e-11 4.02708e-11 7.76931e+07 3.22515e+13
181.818 2136.13 4430.96 5.61229e-11 6.42064e+07 2129.61 5.59517e-11 3.42426e-11 1.05233e+08 3.80616e+13
192.139 2470.96 5229.21 5.50097e-11 7.57748e+07 2463.34 5.48401e-11 2.91139e-11 1.43174e+08 4.49186e+13
203.046 2870.41 6171.26 5.41477e-11 8.94213e+07 2861.37 5.39771e-11 2.4751e-11 1.95626e+08 5.30108e+13
214.572 3350.37 7283.03 5.35538e-11 1.05538e+08 3339.62 5.3382e-11 2.10401e-11 2.68629e+08 6.25608e+13
226.753 3922.83 8595.09 5.31323e-11 1.24552e+08 3910.05 5.29592e-11 1.78839e-11 3.70038e+08 7.38313e+13
239.625 4611.41 10143.5 5.29243e-11 1.46987e+08 4596.17 5.27494e-11 1.51999e-11 5.11792e+08 8.71322e+13
253.228 5438.34 11970.9 5.2887e-11 1.7347e+08 5420.07 5.27094e-11 1.29176e-11 7.10217e+08 1.02829e+14
267.603 6437.15 14127.5 5.30443e-11 2.04703e+08 6415.21 5.28635e-11 1.09771e-11 9.89176e+08 1.21354e+14
282.795 7655.71 16672.6 5.34555e-11 2.4161e+08 7629.08 5.32695e-11 9.3274e-12 1.38467e+09 1.43217e+14
298.848 9148.48 19676.2 5.41275e-11 2.85122e+08 9115.96 5.3935e-11 7.925e-12 1.94738e+09 1.69017e+14
315.813 11004.5 23220.9 5.51698e-11 3.36491e+08 10964.3 5.4968e-11 6.73295e-12 2.75721e+09 1.99466e+14
333.741 13350.2 27404.3 5.67128e-11 3.97115e+08 13299.6 5.64979e-11 5.71979e-12 3.93747e+09 2.35401e+14
352.686 16379.8 32341.2 5.89607e-11 4.68637e+08 16314.8 5.87267e-11 4.85874e-12 5.6869e+09 2.77809e+14
372.707 20413.5 38167.6 6.22634e-11 5.53074e+08 20327.5 6.2001e-11 4.12703e-12 8.34408e+09 3.27857e+14
393.865 25993 45043.5 6.71791e-11 6.52716e+08 25874.8 6.68737e-11 3.50528e-12 1.25094e+10 3.86921e+14
416.224 30692.5 53158.3 6.72158e-11 2.2184e+08 32469.7 7.11079e-11 2.97701e-12 5.00876e+09 4.56626e+14
439.852 0 62734.9 0 0 0 0 2.52819e-12 0 5.38888e+14
464.821 0 74036.7 0 0 0 0 2.1469e-12 0 6.35971e+14
491.207 0 87374.6 0 0 0 0 1.82301e-12 0 7.50542e+14
519.092 0 103115 0 0 0 0 1.54789e-12 0 8.85755e+14
548.56 0 121692 0 0 0 0 1.31422e-12 0 1.04533e+15
579.7 0 143615 0 0 0 0 1.11576e-12 0 1.23364e+15
612.608 0 169488 0 0 0 0 9.47223e-13 0 1.45589e+15
647.384 0 200021 0 0 0 0 8.041e-13 0 1.71817e+15
684.134 0 236056 0 0 0 0 6.82568e-13 0 2.0277e+15
722.971 0 278582 0 0 0 0 5.79376e-13 0 2.393e+15
764.012 0 328769 0 0 0 0 4.91762e-13 0 2.8241e+15
0.807398
200
1.0655e+09
8589934592
0.0129181 0.00154931 1.58924e-09 0.00011349 6 0.00153512 0.000112451 0.00677225 0.100549 13.6515
0.0136515 0 1.87554e-09 0 0 0 0 0.00688819 0 16.1108
0.0144264 0 2.21343e-09 0 0 0 0 0.00699249 0 19.0132
0.0152454 0 2.61218e-09 0 0 0 0 0.00708412 0 22.4385
0.0161108 0 3.08278e-09 0 0 0 0 0.00716212 0 26.4808
0.0170254 0 3.63815e-09 0 0 0 0 0.00722559 0 31.2514
0.0179919 0.00283616 4.29357e-09 7.68994e-05 12 0.00283251 7.68003e-05 0.00727371 0.126867 36.8815
0.0190132 0 5.06707e-09 0 0 0 0 0.00730578 0 43.5258
0.0200925 0 5.97991e-09 0 0 0 0 0.00732122 0 51.367
0.0212331 0.0128946 7.05721e-09 0.000212709 8 0.0128834 0.000212524 0.00731958 0.232482 60.621
0.0224385 0 8.32858e-09 0 0 0 0 0.00730056 0 71.542
0.0237123 0 9.829e-09 0 0 0 0 0.00726401 0 84.4305
0.0250583 0.0104022 1.15997e-08 0.000104397 6 0.0103973 0.000104348 0.00720995 0.0868776 99.6408
0.0264808 0 1.36894e-08 0 0 0 0 0.00713857 0 117.591
0.0279841 0.0212612 1.61556e-08 0.000153206 24 0.0212394 0.000153048 0.00705021 0.521536 138.776
0.0295727 0 1.90661e-08 0 0 0 0 0.00694538 0 163.777
0.0312514 0.0381499 2.25009e-08 0.00019738 24 0.0383436 0.000198382 0.00682475 0.694109 193.281
0.0330255 0 2.65545e-08 0 0 0 0 0.00668915 0 228.102
0.0349003 0.0140633 3.13384e-08 5.22422e-05 12 0.0139507 5.18239e-05 0.00653951 0.0958644 269.195
0.0368815 0.0445408 3.69841e-08 0.000140202 30 0.0440665 0.000138709 0.00637693 0.659574 317.691
0.0389751 0.0511458 4.36469e-08 0.000136416 24 0.0506196 0.000135013 0.00620256 0.527846 374.924
0.0411876 0.0533265 5.151e-08 0.000120521 24 0.0529643 0.000119702 0.00601767 0.480668 442.467
0.0435258 0.0294611 6.07896e-08 5.64195e-05 8 0.0294588 5.64151e-05 0.00582358 0.0775048 522.179
0.0459966 0.0445933 7.1741e-08 7.23623e-05 72 0.0444202 7.20813e-05 0.00562166 0.926787 616.251
0.0486077 0 8.46654e-08 0 0 0 0 0.0054133 0 727.27
0.051367 0.0862757 9.99181e-08 0.00010052 54 0.085831 0.000100002 0.00519989 1.04389 858.29
0.054283 0.096382 1.17919e-07 9.51533e-05 60 0.0968597 9.56249e-05 0.0049828 1.14578 1012.91
0.0573645 0.137065 1.39162e-07 0.000114661 96 0.136386 0.000114093 0.00476339 2.31085 1195.39
0.060621 0.102425 1.64232e-07 7.26034e-05 24 0.101037 7.16197e-05 0.00454293 0.383559 1410.75
0.0640622 0.108924 1.93819e-07 6.5424e-05 134 0.108766 6.53288e-05 0.00432265 2.02811 1664.89
0.0676989 0.115135 2.28736e-07 5.85978e-05 120 0.114321 5.81836e-05 0.00410371 1.71351 1964.83
0.071542 0.150696 2.69944e-07 6.49889e-05 108 0.148421 6.40077e-05 0.00388717 1.80563 2318.8
0.0756032 0.151217 3.18575e-07 5.52584e-05 174 0.150628 5.50432e-05 0.00367401 2.61702 2736.54
0.079895 0.174326 3.75967e-07 5.39788e-05 168 0.172589 5.3441e-05 0.0034651 2.61708 3229.53
0.0844305 0.184191 4.43698e-07 4.83272e-05 168 0.185064 4.85562e-05 0.00326121 2.48956 3811.34
0.0892234 0.175967 5.23632e-07 3.91215e-05 290 0.175384 3.89919e-05 0.00306301 3.70394 4497.96
0.0942883 0.215359 6.17966e-07 4.05704e-05 288 0.215149 4.05308e-05 0.00287109 4.06963 5308.28
0.0996408 0.198121 7.29294e-07 3.16255e-05 366 0.196792 3.14134e-05 0.00268591 4.30951 6264.59
0.105297 0.291486 8.60678e-07 3.94263e-05 420 0.288596 3.90355e-05 0.00250785 6.60288 7393.17
0.111275 0.279754 1.01573e-06 3.20632e-05 398 0.27976 3.20639e-05 0.00233721 5.45999 8725.07
0.117591 0.331054 1.19872e-06 3.21508e-05 624 0.331901 3.22331e-05 0.00217419 9.22738 10296.9
0.124267 0.408202 1.41467e-06 3.35915e-05 642 0.40664 3.3463e-05 0.00201893 10.6818 12151.9
0.131321 0.384688 1.66953e-06 2.68241e-05 800 0.384668 2.68227e-05 0.00187147 11.4666 14341.1
0.138776 0.387601 1.9703e-06 2.29014e-05 858 0.38877 2.29705e-05 0.00173182 11.3461 16924.7
0.146654 0.489531 2.32525e-06 2.45087e-05 1080 0.492975 2.46811e-05 0.00159991 16.5443 19973.8
0.154979 0.468339 2.74415e-06 1.98684e-05 1286 0.471552 2.00047e-05 0.00147563 17.3151 23572.1
0.163777 0.536218 3.23852e-06 1.92755e-05 1650 0.536825 1.92973e-05 0.00135884 23.4057 27818.7
0.173074 0.578396 3.82195e-06 1.76178e-05 1778 0.578842 1.76313e-05 0.00124933 25.0729 32830.3
0.182899 0.648637 4.51048e-06 1.67413e-05 2112 0.649993 1.67763e-05 0.00114689 30.8291 38744.7
0.193281 0.721556 5.32305e-06 1.57804e-05 2570 0.722211 1.57948e-05 0.00105127 38.5778 45724.7
0.204254 0.771297 6.28202e-06 1.42933e-05 3030 0.7718 1.43026e-05 0.000962209 45.0097 53962.1
0.215848 0.826541 7.41374e-06 1.29789e-05 3434 0.826427 1.29771e-05 0.000879423 50.6804 63683.5
0.228102 0.888939 8.74934e-06 1.18279e-05 4218 0.889265 1.18322e-05 0.000802624 62.1586 75156.3
0.24105 0.984475 1.03256e-05 1.10994e-05 4766 0.98471 1.11021e-05 0.000731515 72.3156 88695.9
0.254734 1.10264 1.21857e-05 1.0534e-05 6026 1.10204 1.05283e-05 0.000665798 95.341 104675
0.269195 1.22997 1.4381e-05 9.95667e-06 6480 1.22965 9.95406e-06 0.000605173 106.613 123532
0.284476 1.28364 1.69718e-05 8.80489e-06 8162 1.28447 8.8106e-06 0.000549345 130.82 145787
0.300625 1.47169 2.00293e-05 8.55382e-06 9578 1.47155 8.55298e-06 0.000498021 164.508 172051
0.317691 1.59093 2.36377e-05 7.83533e-06 11234 1.58988 7.83016e-06 0.000450916 195.207 203046
0.335725 1.76679 2.78961e-05 7.37312e-06 13344 1.76501 7.36571e-06 0.000407755 241.289 239625
0.354784 1.9196 3.29216e-05 6.78796e-06 15464 1.91818 6.78293e-06 0.000368269 285.033 282795
0.374924 2.10328 3.88525e-05 6.30213e-06 18458 2.10208 6.29855e-06 0.000332202 350.163 333741
0.396207 2.36929 4.58519e-05 6.0155e-06 22232 2.36472 6.00388e-06 0.000299307 446.821 393865
0.418699 2.62144 5.41123e-05 5.63969e-06 25628 2.61471 5.62521e-06 0.00026935 536.603 464821
0.442467 2.91291 6.38607e-05 5.3101e-06 30320 2.90772 5.30065e-06 0.000242108 665.002 548560
0.467585 3.21399 7.53654e-05 4.96458e-06 35452 3.20745 4.95447e-06 0.00021737 809.697 647384
0.494129 3.56831 8.89427e-05 4.67048e-06 41792 3.56646 4.66807e-06 0.000194938 1001.29 764012
0.522179 3.92848 0.000104966 4.35698e-06 49988 3.92591 4.35413e-06 0.000174625 1247.23 901651
0.551822 4.40955 0.000123876 4.14398e-06 59110 4.40446 4.13919e-06 0.000156255 1567.64 1.06409e+06
0.583147 4.93156 0.000146192 3.92708e-06 69716 4.923 3.92026e-06 0.000139664 1960.28 1.25578e+06
0.616251 5.49783 0.000172529 3.70969e-06 82210 5.48729 3.70259e-06 0.0001247 2445.66 1.48202e+06
0.651234 6.09369 0.000203611 3.48409e-06 96722 6.07893 3.47565e-06 0.00011122 3029.91 1.74901e+06
0.688203 6.78101 0.000240292 3.28523e-06 113098 6.76883 3.27932e-06 9.90935e-05 3749.52 2.06409e+06
0.72727 7.58068 0.000283581 3.11201e-06 135190 7.56878 3.10712e-06 8.81969e-05 4770.15 2.43595e+06
0.768555 8.45859 0.000334669 2.94233e-06 158170 8.44374 2.93717e-06 7.84179e-05 5934.73 2.87479e+06
0.812184 9.51304 0.000394961 2.80398e-06 188560 9.49833 2.79965e-06 6.96525e-05 7590.81 3.39269e+06
0.85829 10.5089 0.000466114 2.62468e-06 220444 10.4929 2.62067e-06 6.1805e-05 9361.63 4.00389e+06
0.907013 11.7178 0.000550086 2.47986e-06 261388 11.6999 2.47606e-06 5.47875e-05 11831.3 4.7252e+06
0.958501 13.1139 0.000649185 2.35166e-06 308244 13.0907 2.34749e-06 4.85194e-05 14940.1 5.57646e+06
1.01291 14.6223 0.000766138 2.22187e-06 364396 14.5954 2.21778e-06 4.29272e-05 18860.8 6.58107e+06
1.07041 16.2472 0.00090416 2.09191e-06 429162 16.2198 2.08838e-06 3.79435e-05 23660.7 7.76667e+06
1.13118 18.1585 0.00106705 1.9811e-06 506358 18.1264 1.9776e-06 3.3507e-05 29938.4 9.16586e+06
1.19539 20.2272 0.00125928 1.86993e-06 598590 20.1922 1.86669e-06 2.9562e-05 37863.4 1.08171e+07
1.26325 22.3719 0.00148614 1.75248e-06 704844 22.3313 1.7493e-06 2.60578e-05 47403.2 1.27658e+07
1.33496 24.8371 0.00175387 1.64859e-06 834620 24.7904 1.64549e-06 2.29484e-05 59958.2 1.50656e+07
1.41075 27.5725 0.00206984 1.55078e-06 981444 27.5192 1.54778e-06 2.01923e-05 75375.4 1.77798e+07
1.49083 30.565 0.00244272 1.45667e-06 1.15998e+06 30.5126 1.45417e-06 1.77518e-05 95185 2.09828e+07
1.57546 33.6331 0.00288279 1.3582e-06 1.36931e+06 33.5718 1.35573e-06 1.55929e-05 119273 2.4763e+07
1.66489 37.1499 0.00340213 1.27121e-06 1.61652e+06 37.0782 1.26876e-06 1.3685e-05 150159 2.92241e+07
1.75941 40.9154 0.00401503 1.18634e-06 1.90601e+06 40.8377 1.18408e-06 1.20007e-05 188420 3.44889e+07
1.85928 44.7929 0.00473835 1.1005e-06 2.24913e+06 44.7093 1.09845e-06 1.05151e-05 235392 4.07021e+07
1.96483 49.008 0.00559198 1.02026e-06 2.65744e+06 48.9175 1.01838e-06 9.20606e-06 294511 4.80347e+07
2.07637 53.6337 0.00659939 9.46116e-07 3.13125e+06 53.5367 9.44404e-07 8.05366e-06 367849 5.66883e+07
2.19424 58.4807 0.00778828 8.74139e-07 3.69915e+06 58.3771 8.72591e-07 7.04008e-06 459309 6.69008e+07
2.3188 63.4854 0.00919136 8.04089e-07 4.36472e+06 63.3724 8.02658e-07 6.1494e-06 570726 7.89532e+07
2.45043 68.9505 0.0108472 7.39996e-07 5.14913e+06 68.8316 7.3872e-07 5.36741e-06 709902 9.31768e+07
2.58954 74.7013 0.0128014 6.79331e-07 6.07894e+06 74.5728 6.78163e-07 4.68145e-06 882123 1.09963e+08
2.73654 80.8345 0.0151076 6.22891e-07 7.17304e+06 80.6961 6.21825e-07 4.08023e-06 1.09504e+06 1.29773e+08
2.89188 87.0894 0.0178292 5.68647e-07 8.46557e+06 86.942 5.67684e-07 3.55373e-06 1.35461e+06 1.53152e+08
3.05605 93.868 0.0210412 5.19346e-07 9.98773e+06 93.7135 5.18491e-07 3.09304e-06 1.67702e+06 1.80743e+08
3.22953 100.912 0.0248319 4.7309e-07 1.1797e+07 100.742 4.72295e-07 2.69025e-06 2.07454e+06 2.13304e+08
3.41286 108.352 0.0293054 4.30428e-07 1.39144e+07 108.17 4.29703e-07 2.33837e-06 2.56124e+06 2.51731e+08
3.6066 116.105 0.0345848 3.90819e-07 1.64163e+07 115.912 3.90168e-07 2.0312e-06 3.15862e+06 2.97081e+08
3.81134 124.505 0.0408154 3.55118e-07 1.93821e+07 124.3 3.54533e-07 1.76327e-06 3.90352e+06 3.50601e+08
4.0277 133.296 0.0481684 3.22156e-07 2.28754e+07 133.077 3.21626e-07 1.52972e-06 4.81751e+06 4.13763e+08
4.25634 142.401 0.056846 2.91624e-07 2.69929e+07 142.164 2.91138e-07 1.32631e-06 5.93511e+06 4.88304e+08
4.49796 152.167 0.067087 2.64053e-07 3.18542e+07 151.913 2.63614e-07 1.14926e-06 7.31881e+06 5.76273e+08
4.7533 162.191 0.0791729 2.38484e-07 3.75892e+07 161.926 2.38095e-07 9.95263e-07 9.00708e+06 6.8009e+08
5.02313 172.877 0.0934361 2.15394e-07 4.43706e+07 172.594 2.1504e-07 8.61414e-07 1.10947e+07 8.0261e+08
5.30828 184.076 0.110269 1.94336e-07 5.23593e+07 183.771 1.94014e-07 7.45152e-07 1.36553e+07 9.47202e+08
5.60962 195.641 0.130134 1.75017e-07 6.1787e+07 195.324 1.74733e-07 6.44232e-07 1.67855e+07 1.11784e+09
5.92807 207.866 0.153578 1.57567e-07 7.29346e+07 207.524 1.57308e-07 5.56685e-07 2.06438e+07 1.31923e+09
6.26459 220.647 0.181246 1.41723e-07 8.60651e+07 220.279 1.41487e-07 4.80786e-07 2.53698e+07 1.55689e+09
6.62021 233.878 0.213898 1.2729e-07 1.01558e+08 233.495 1.27082e-07 4.15026e-07 3.11482e+07 1.83737e+09
6.99602 247.84 0.252432 1.14298e-07 1.1986e+08 247.434 1.1411e-07 3.58083e-07 3.82586e+07 2.16837e+09
7.39317 262.383 0.297908 1.02533e-07 1.41457e+08 261.952 1.02364e-07 3.08803e-07 4.69682e+07 2.55901e+09
7.81286 277.699 0.351577 9.19525e-08 1.66936e+08 277.242 9.18012e-08 2.66181e-07 5.76681e+07 3.02002e+09
8.25637 293.899 0.414914 8.24613e-08 1.97025e+08 293.413 8.2325e-08 2.29336e-07 7.08434e+07 3.56409e+09
8.72507 310.962 0.489662 7.393e-08 2.32497e+08 310.448 7.38078e-08 1.97503e-07 8.70289e+07 4.20617e+09
9.22037 329.147 0.577876 6.63078e-08 2.74404e+08 328.596 6.61969e-08 1.70014e-07 1.07021e+08 4.96392e+09
9.74378 349.024 0.681982 5.95789e-08 3.2382e+08 348.425 5.94767e-08 1.46289e-07 1.31882e+08 5.85818e+09
10.2969 371.484 0.804843 5.37327e-08 3.82165e+08 370.823 5.36372e-08 1.25822e-07 1.63204e+08 6.91355e+09
10.8814 397.982 0.949838 4.8778e-08 4.51027e+08 397.224 4.86851e-08 1.08175e-07 2.03375e+08 8.15905e+09
11.4992 431.911 1.12095 4.48556e-08 5.32251e+08 430.996 4.47606e-08 9.29669e-08 2.56806e+08 9.62892e+09
12.1519 479.698 1.3229 4.22135e-08 6.28157e+08 478.499 4.21081e-08 7.98658e-08 3.32016e+08 1.13636e+10
12.8418 533.165 1.56122 3.97565e-08 3.82727e+08 551.845 4.11494e-08 6.85852e-08 2.21853e+08 1.34108e+10
13.5708 0 1.84248 0 0 0 0 5.88765e-08 0 1.58268e+10
14.3411 0 2.17441 0 0 0 0 5.05241e-08 0 1.8678e+10
15.1552 0 2.56613 0 0 0 0 4.33417e-08 0 2.20429e+10
16.0156 0 3.02843 0 0 0 0 3.71677e-08 0 2.6014e+10
16.9247 0 3.574 0 0 0 0 3.18628e-08 0 3.07005e+10
17.8855 0 4.21787 0 0 0 0 2.73063e-08 0 3.62312e+10
18.9008 0 4.97773 0 0 0 0 2.33941e-08 0 4.27584e+10
19.9738 0 5.87448 0 0 0 0 2.00364e-08 0 5.04614e+10
21.1076 0 6.93279 0 0 0 0 1.71555e-08 0 5.95522e+10
22.3058 0 8.18175 0 0 0 0 1.46847e-08 0 7.02807e+10
23.5721 0 9.65571 0 0 0 0 1.25662e-08 0 8.29419e+10
24.9102 0 11.3952 0 0 0 0 1.07504e-08 0 9.78842e+10
26.3243 0 13.4481 0 0 0 0 9.19452e-09 0 1.15518e+11
27.8187 0 15.8708 0 0 0 0 7.86182e-09 0 1.36329e+11
29.3979 0 18.73 0 0 0 0 6.72061e-09 0 1.60889e+11
31.0667 0 22.1042 0 0 0 0 5.74366e-09 0 1.89874e+11
32.8303 0 26.0864 0 0 0 0 4.90756e-09 0 2.2408e+11
34.694 0 30.7859 0 0 0 0 4.19221e-09 0 2.64449e+11
36.6634 0 36.3321 0 0 0 0 3.58032e-09 0 3.1209e+11
38.7447 0 42.8774 0 0 0 0 3.05709e-09 0 3.68314e+11
40.9442 0 50.6018 0 0 0 0 2.60976e-09 0 4.34667e+11
43.2685 0 59.7179 0 0 0 0 2.22743e-09 0 5.12973e+11
45.7247 0 70.4762 0 0 0 0 1.90073e-09 0 6.05386e+11
48.3204 0 83.1727 0 0 0 0 1.62163e-09 0 7.14448e+11
51.0634 0 98.1565 0 0 0 0 1.38326e-09 0 8.43158e+11
53.9621 0 115.84 0 0 0 0 1.1797e-09 0 9.95055e+11
57.0254 0 136.709 0 0 0 0 1.00592e-09 0 1.17432e+12
60.2626 0 161.337 0 0 0 0 8.57591e-10 0 1.38587e+12
63.6835 0 190.402 0 0 0 0 7.3101e-10 0 1.63554e+12
67.2987 0 224.704 0 0 0 0 6.23009e-10 0 1.93019e+12
71.1191 0 265.185 0 0 0 0 5.30879e-10 0 2.27792e+12
75.1563 0 312.958 0 0 0 0 4.52303e-10 0 2.68829e+12
79.4227 0 369.339 0 0 0 0 3.85299e-10 0 3.17259e+12
83.9313 0 435.876 0 0 0 0 3.28173e-10 0 3.74415e+12
88.6959 0 514.4 0 0 0 0 2.79476e-10 0 4.41866e+12
93.7309 0 607.071 0 0 0 0 2.37972e-10 0 5.2147e+12
99.0518 0 716.436 0 0 0 0 2.02605e-10 0 6.15414e+12
104.675 0 845.504 0 0 0 0 1.72471e-10 0 7.26283e+12
110.617 0 997.824 0 0 0 0 1.468e-10 0 8.57124e+12
116.896 0 1177.58 0 0 0 0 1.24935e-10 0 1.01154e+13
123.532 0 1389.73 0 0 0 0 1.06313e-10 0 1.19377e+13
130.545 0 1640.09 0 0 0 0 9.04567e-11 0 1.40883e+13
137.955 0 1935.56 0 0 0 0 7.69563e-11 0 1.66263e+13
145.787 0 2284.26 0 0 0 0 6.54636e-11 0 1.96216e+13
154.063 0 2695.77 0 0 0 0 5.56812e-11 0 2.31565e+13
162.808 0 3181.42 0 0 0 0 4.73556e-11 0 2.73282e+13
172.051 0 3754.56 0 0 0 0 4.02708e-11 0 3.22515e+13
181.818 0 4430.96 0 0 0 0 3.42426e-11 0 3.80616e+13
192.139 0 5229.21 0 0 0 0 2.91139e-11 0 4.49186e+13
203.046 0 6171.26 0 0 0 0 2.4751e-11 0 5.30108e+13
214.572 0 7283.03 0 0 0 0 2.10401e-11 0 6.25608e+13
226.753 0 8595.09 0 0 0 0 1.78839e-11 0 7.38313e+13
239.625 0 10143.5 0 0 0 0 1.51999e-11 0 8.71322e+13
253.228 0 11970.9 0 0 0 0 1.29176e-11 0 1.02829e+14
267.603 0 14127.5 0 0 0 0 1.09771e-11 0 1.21354e+14
282.795 0 16672.6 0 0 0 0 9.3274e-12 0 1.43217e+14
298.848 0 19676.2 0 0 0 0 7.925e-12 0 1.69017e+14
315.813 0 23220.9 0 0 0 0 6.73295e-12 0 1.99466e+14
333.741 0 27404.3 0 0 0 0 5.71979e-12 0 2.35401e+14
352.686 0 32341.2 0 0 0 0 4.85874e-12 0 2.77809e+14
372.707 0 38167.6 0 0 0 0 4.12703e-12 0 3.27857e+14
393.865 0 45043.5 0 0 0 0 3.50528e-12 0 3.86921e+14
416.224 0 53158.3 0 0 0 0 2.97701e-12 0 4.56626e+14
439.852 0 62734.9 0 0 0 0 2.52819e-12 0 5.38888e+14
464.821 0 74036.7 0 0 0 0 2.1469e-12 0 6.35971e+14
491.207 0 87374.6 0 0 0 0 1.82301e-12 0 7.50542e+14
519.092 0 103115 0 0 0 0 1.54789e-12 0 8.85755e+14
548.56 0 121692 0 0 0 0 1.31422e-12 0 1.04533e+15
579.7 0 143615 0 0 0 0 1.11576e-12 0 1.23364e+15
612.608 0 169488 0 0 0 0 9.47223e-13 0 1.45589e+15
647.384 0 200021 0 0 0 0 8.041e-13 0 1.71817e+15
684.134 0 236056 0 0 0 0 6.82568e-13 0 2.0277e+15
722.971 0 278582 0 0 0 0 5.79376e-13 0 2.393e+15
764.012 0 328769 0 0 0 0 4.91762e-13 0 2.8241e+15
