0.642005
200
1.0655e+09
8589934592
0.0129181 0 1.58924e-09 0 0 0 0 0.00677225 0 13.6515
0.0136515 0 1.87554e-09 0 0 0 0 0.00688819 0 16.1108
0.0144264 0 2.21343e-09 0 0 0 0 0.00699249 0 19.0132
0.0152454 0 2.61218e-09 0 0 0 0 0.00708412 0 22.4385
0.0161108 0 3.08278e-09 0 0 0 0 0.00716212 0 26.4808
0.0170254 0 3.63815e-09 0 0 0 0 0.00722559 0 31.2514
0.0179919 0 4.29357e-09 0 0 0 0 0.00727371 0 36.8815
0.0190132 0 5.06707e-09 0 0 0 0 0.00730578 0 43.5258
0.0200925 0 5.97991e-09 0 0 0 0 0.00732122 0 51.367
0.0212331 0 7.05721e-09 0 0 0 0 0.00731958 0 60.621
0.0224385 0 8.32858e-09 0 0 0 0 0.00730056 0 71.542
0.0237123 0 9.829e-09 0 0 0 0 0.00726401 0 84.4305
0.0250583 0 1.15997e-08 0 0 0 0 0.00720995 0 99.6408
0.0264808 0 1.36894e-08 0 0 0 0 0.00713857 0 117.591
0.0279841 0 1.61556e-08 0 0 0 0 0.00705021 0 138.776
0.0295727 0 1.90661e-08 0 0 0 0 0.00694538 0 163.777
0.0312514 0 2.25009e-08 0 0 0 0 0.00682475 0 193.281
0.0330255 0 2.65545e-08 0 0 0 0 0.00668915 0 228.102
0.0349003 0 3.13384e-08 0 0 0 0 0.00653951 0 269.195
0.0368815 0 3.69841e-08 0 0 0 0 0.00637693 0 317.691
0.0389751 0 4.36469e-08 0 0 0 0 0.00620256 0 374.924
0.0411876 0 5.151e-08 0 0 0 0 0.00601767 0 442.467
0.0435258 0 6.07896e-08 0 0 0 0 0.00582358 0 522.179
0.0459966 0 7.1741e-08 0 0 0 0 0.00562166 0 616.251
0.0486077 0 8.46654e-08 0 0 0 0 0.0054133 0 727.27
0.051367 0 9.99181e-08 0 0 0 0 0.00519989 0 858.29
0.054283 0 1.17919e-07 0 0 0 0 0.0049828 0 1012.91
0.0573645 0 1.39162e-07 0 0 0 0 0.00476339 0 1195.39
0.060621 0 1.64232e-07 0 0 0 0 0.00454293 0 1410.75
0.0640622 0 1.93819e-07 0 0 0 0 0.00432265 0 1664.89
0.0676989 0 2.28736e-07 0 0 0 0 0.00410371 0 1964.83
0.071542 0 2.69944e-07 0 0 0 0 0.00388717 0 2318.8
0.0756032 0 3.18575e-07 0 0 0 0 0.00367401 0 2736.54
0.079895 0 3.75967e-07 0 0 0 0 0.0034651 0 3229.53
0.0844305 0 4.43698e-07 0 0 0 0 0.00326121 0 3811.34
0.0892234 0 5.23632e-07 0 0 0 0 0.00306301 0 4497.96
0.0942883 0 6.17966e-07 0 0 0 0 0.00287109 0 5308.28
0.0996408 0 7.29294e-07 0 0 0 0 0.00268591 0 6264.59
0.105297 0 8.60678e-07 0 0 0 0 0.00250785 0 7393.17
0.111275 0 1.01573e-06 0 0 0 0 0.00233721 0 8725.07
0.117591 0 1.19872e-06 0 0 0 0 0.00217419 0 10296.9
0.124267 0 1.41467e-06 0 0 0 0 0.00201893 0 12151.9
0.131321 0 1.66953e-06 0 0 0 0 0.00187147 0 14341.1
0.138776 0 1.9703e-06 0 0 0 0 0.00173182 0 16924.7
0.146654 0 2.32525e-06 0 0 0 0 0.00159991 0 19973.8
0.154979 0 2.74415e-06 0 0 0 0 0.00147563 0 23572.1
0.163777 0 3.23852e-06 0 0 0 0 0.00135884 0 27818.7
0.173074 0 3.82195e-06 0 0 0 0 0.00124933 0 32830.3
0.182899 0 4.51048e-06 0 0 0 0 0.00114689 0 38744.7
0.193281 0 5.32305e-06 0 0 0 0 0.00105127 0 45724.7
0.204254 0 6.28202e-06 0 0 0 0 0.000962209 0 53962.1
0.215848 0 7.41374e-06 0 0 0 0 0.000879423 0 63683.5
0.228102 0 8.74934e-06 0 0 0 0 0.000802624 0 75156.3
0.24105 0 1.03256e-05 0 0 0 0 0.000731515 0 88695.9
0.254734 0 1.21857e-05 0 0 0 0 0.000665798 0 104675
0.269195 0 1.4381e-05 0 0 0 0 0.000605173 0 123532
0.284476 0 1.69718e-05 0 0 0 0 0.000549345 0 145787
0.300625 0 2.00293e-05 0 0 0 0 0.000498021 0 172051
0.317691 0 2.36377e-05 0 0 0 0 0.000450916 0 203046
0.335725 0 2.78961e-05 0 0 0 0 0.000407755 0 239625
0.354784 0 3.29216e-05 0 0 0 0 0.000368269 0 282795
0.374924 0 3.88525e-05 0 0 0 0 0.000332202 0 333741
0.396207 1.72872 4.58519e-05 4.38911e-06 6 1.68066 4.26709e-06 0.000299307 0.0879855 393865
0.418699 0 5.41123e-05 0 0 0 0 0.00026935 0 464821
0.442467 0 6.38607e-05 0 0 0 0 0.000242108 0 548560
0.467585 0 7.53654e-05 0 0 0 0 0.00021737 0 647384
0.494129 0 8.89427e-05 0 0 0 0 0.000194938 0 764012
0.522179 0 0.000104966 0 0 0 0 0.000174625 0 901651
0.551822 0 0.000123876 0 0 0 0 0.000156255 0 1.06409e+06
0.583147 5.91669 0.000146192 4.71156e-06 12 6.22735 4.95894e-06 0.000139664 0.404819 1.25578e+06
0.616251 0 0.000172529 0 0 0 0 0.0001247 0 1.48202e+06
0.651234 0 0.000203611 0 0 0 0 0.00011122 0 1.74901e+06
0.688203 15.7822 0.000240292 7.64606e-06 8 15.3895 7.45583e-06 9.90935e-05 0.61728 2.06409e+06
0.72727 0 0.000283581 0 0 0 0 8.81969e-05 0 2.43595e+06
0.768555 0 0.000334669 0 0 0 0 7.84179e-05 0 2.87479e+06
0.812184 9.05929 0.000394961 2.67024e-06 6 9.25298 2.72733e-06 6.96525e-05 0.23002 3.39269e+06
0.85829 0 0.000466114 0 0 0 0 6.1805e-05 0 4.00389e+06
0.907013 2.47216 0.000550086 5.23185e-07 24 2.51959 5.33224e-07 5.47875e-05 0.229185 4.7252e+06
0.958501 3.88799 0.000649185 6.97215e-07 24 3.66026 6.56377e-07 4.85194e-05 0.344876 5.57646e+06
1.01291 0 0.000766138 0 0 0 0 4.29272e-05 0 6.58107e+06
1.07041 0 0.00090416 0 0 0 0 3.79435e-05 0 7.76667e+06
1.13118 2.66803 0.00106705 2.91083e-07 12 2.63525 2.87507e-07 3.3507e-05 0.104247 9.16586e+06
1.19539 2.9154 0.00125928 2.69517e-07 30 2.8553 2.63961e-07 2.9562e-05 0.27351 1.08171e+07
1.26325 11.4088 0.00148614 8.93696e-07 24 11.2371 8.80248e-07 2.60578e-05 0.82312 1.27658e+07
1.33496 13.5546 0.00175387 8.99702e-07 24 13.5844 9.0168e-07 2.29484e-05 0.940929 1.50656e+07
1.41075 18.9357 0.00206984 1.06502e-06 32 19.2443 1.08237e-06 2.01923e-05 1.6878 1.77798e+07
1.49083 6.98661 0.00244272 3.32968e-07 48 6.83766 3.25869e-07 1.77518e-05 0.900331 2.09828e+07
1.57546 18.8814 0.00288279 7.62488e-07 6 17.9794 7.2606e-07 1.55929e-05 0.293399 2.4763e+07
1.66489 5.43783 0.00340213 1.86074e-07 84 5.31736 1.81952e-07 1.3685e-05 1.14214 2.92241e+07
1.75941 6.0083 0.00401503 1.7421e-07 48 5.85016 1.69625e-07 1.20007e-05 0.6968 3.44889e+07
1.85928 7.11923 0.00473835 1.74911e-07 72 7.18172 1.76446e-07 1.05151e-05 1.19766 4.07021e+07
1.96483 9.18773 0.00559198 1.91273e-07 54 8.95715 1.86472e-07 9.20606e-06 1.12195 4.80347e+07
2.07637 10.715 0.00659939 1.89016e-07 104 10.8206 1.90878e-07 8.05366e-06 2.44083 5.66883e+07
2.19424 6.95489 0.00778828 1.03958e-07 120 7.04777 1.05346e-07 7.04008e-06 1.772 6.69008e+07
2.3188 9.67163 0.00919136 1.22498e-07 156 9.43794 1.19538e-07 6.1494e-06 3.10757 7.89532e+07
2.45043 10.5744 0.0108472 1.13488e-07 126 10.5237 1.12943e-07 5.36741e-06 2.66412 9.31768e+07
2.58954 9.34641 0.0128014 8.4996e-08 192 9.38724 8.53674e-08 4.68145e-06 3.48593 1.09963e+08
2.73654 29.0294 0.0151076 2.23694e-07 152 29.5625 2.27802e-07 4.08023e-06 8.33322 1.29773e+08
2.89188 12.294 0.0178292 8.02733e-08 378 12.3525 8.06554e-08 3.55373e-06 8.53843 1.53152e+08
3.05605 13.2045 0.0210412 7.3057e-08 264 13.0045 7.19504e-08 3.09304e-06 6.23563 1.80743e+08
3.22953 10.4884 0.0248319 4.91712e-08 366 10.3677 4.86052e-08 2.69025e-06 6.68958 2.13304e+08
3.41286 13.6452 0.0293054 5.42055e-08 428 13.5501 5.38278e-08 2.33837e-06 9.92141 2.51731e+08
3.6066 16.8363 0.0345848 5.66722e-08 486 16.6295 5.59762e-08 2.0312e-06 13.5598 2.97081e+08
3.81134 14.2531 0.0408154 4.06532e-08 600 14.222 4.05646e-08 1.76327e-06 13.8334 3.50601e+08
4.0277 18.8086 0.0481684 4.54575e-08 738 18.8262 4.55001e-08 1.52972e-06 21.9306 4.13763e+08
4.25634 20.5345 0.056846 4.20527e-08 824 20.4843 4.19499e-08 1.32631e-06 26.1262 4.88304e+08
4.49796 21.3324 0.067087 3.70179e-08 954 21.1421 3.66876e-08 1.14926e-06 30.7286 5.76273e+08
4.7533 20.1748 0.0791729 2.96649e-08 1094 20.0363 2.94613e-08 9.95263e-07 32.6079 6.8009e+08
5.02313 22.6054 0.0934361 2.81649e-08 1332 22.7322 2.83228e-08 8.61414e-07 43.5512 8.0261e+08
5.30828 26.4181 0.110269 2.78907e-08 1614 26.393 2.78641e-08 7.45152e-07 60.4112 9.47202e+08
5.60962 31.1058 0.130134 2.78266e-08 1850 31.0487 2.77755e-08 6.44232e-07 79.9078 1.11784e+09
5.92807 27.8428 0.153578 2.11054e-08 2238 27.9157 2.11607e-08 5.56685e-07 84.8484 1.31923e+09
6.26459 29.1546 0.181246 1.87262e-08 2546 29.2752 1.88037e-08 4.80786e-07 99.1646 1.55689e+09
6.62021 31.6721 0.213898 1.72378e-08 3264 31.6667 1.72348e-08 4.15026e-07 135.568 1.83737e+09
6.99602 33.8104 0.252432 1.55925e-08 3506 33.837 1.56048e-08 3.58083e-07 152.667 2.16837e+09
7.39317 36.3667 0.297908 1.42113e-08 4506 36.3901 1.42204e-08 3.08803e-07 207.368 2.55901e+09
7.81286 39.9547 0.351577 1.32299e-08 5018 39.8776 1.32044e-08 2.66181e-07 249.408 3.02002e+09
8.25637 42.3402 0.414914 1.18797e-08 5852 42.3104 1.18713e-08 2.29336e-07 303.135 3.56409e+09
8.72507 43.4348 0.489662 1.03264e-08 7362 43.3795 1.03133e-08 1.97503e-07 384.922 4.20617e+09
9.22037 45.5087 0.577876 9.1679e-09 8306 45.3601 9.13795e-09 1.70014e-07 447.895 4.96392e+09
9.74378 48.8658 0.681982 8.34145e-09 9698 48.8207 8.33376e-09 1.46289e-07 552.984 5.85818e+09
10.2969 53.0211 0.804843 7.66915e-09 11816 52.9281 7.6557e-09 1.25822e-07 720.211 6.91355e+09
10.8814 59.723 0.949838 7.31985e-09 13682 59.5763 7.30188e-09 1.08175e-07 925.813 8.15905e+09
11.4992 60.2014 1.12095 6.25215e-09 16152 60.1122 6.24288e-09 9.29669e-08 1086.24 9.62892e+09
12.1519 63.6754 1.3229 5.60346e-09 19472 63.5798 5.59504e-09 7.98658e-08 1366.17 1.13636e+10
12.8418 66.5625 1.56122 4.96336e-09 22670 66.4119 4.95213e-09 6.85852e-08 1640.58 1.34108e+10
13.5708 69.7125 1.84248 4.40472e-09 26224 69.5653 4.39542e-09 5.88765e-08 1961.89 1.58268e+10
14.3411 75.3494 2.17441 4.03412e-09 31640 75.2559 4.02912e-09 5.05241e-08 2526.31 1.8678e+10
15.1552 78.8461 2.56613 3.57694e-09 37484 78.6813 3.56946e-09 4.33417e-08 3093.51 2.20429e+10
16.0156 84.9174 3.02843 3.2643e-09 43856 84.7868 3.25928e-09 3.71677e-08 3851.7 2.6014e+10
16.9247 89.2967 3.574 2.90864e-09 51362 89.2151 2.90598e-09 3.18628e-08 4688.66 3.07005e+10
17.8855 93.3243 4.21787 2.5758e-09 61636 93.2126 2.57271e-09 2.73063e-08 5814.11 3.62312e+10
18.9008 98.5308 4.97773 2.30436e-09 72218 98.3175 2.29937e-09 2.33941e-08 7113.59 4.27584e+10
19.9738 104.399 5.87448 2.06889e-09 84586 104.246 2.06586e-09 2.00364e-08 8734.08 5.04614e+10
21.1076 110.557 6.93279 1.85646e-09 100708 110.397 1.85378e-09 1.71555e-08 10898 5.95522e+10
22.3058 116.851 8.18175 1.66264e-09 118712 116.664 1.65997e-09 1.46847e-08 13440.9 7.02807e+10
23.5721 121.646 9.65571 1.46663e-09 140410 121.401 1.46369e-09 1.25662e-08 16387.7 8.29419e+10
24.9102 128.46 11.3952 1.31237e-09 164374 128.189 1.3096e-09 1.07504e-08 20066.2 9.78842e+10
26.3243 134.98 13.4481 1.16847e-09 194680 134.841 1.16727e-09 9.19452e-09 24740.6 1.15518e+11
27.8187 141.787 15.8708 1.04004e-09 230196 141.572 1.03846e-09 7.86182e-09 30452.5 1.36329e+11
29.3979 149.761 18.73 9.30832e-10 271156 149.477 9.29067e-10 6.72061e-09 37556.2 1.60889e+11
31.0667 157.466 22.1042 8.2932e-10 321076 157.205 8.27946e-10 5.74366e-09 46359.7 1.89874e+11
32.8303 164.892 26.0864 7.35861e-10 377436 164.578 7.34459e-10 4.90756e-09 56594.4 2.2408e+11
34.694 172.273 30.7859 6.51444e-10 447594 171.974 6.50312e-10 4.19221e-09 69553.4 2.64449e+11
36.6634 181.868 36.3321 5.82742e-10 525078 181.513 5.81603e-10 3.58032e-09 85462.9 3.1209e+11
38.7447 191.03 42.8774 5.18662e-10 621924 190.681 5.17714e-10 3.05709e-09 105515 3.68314e+11
40.9442 199.864 50.6018 4.5981e-10 732630 199.508 4.58991e-10 2.60976e-09 129081 4.34667e+11
43.2685 210.218 59.7179 4.09803e-10 865596 209.875 4.09135e-10 2.22743e-09 159253 5.12973e+11
45.7247 221.01 70.4762 3.65072e-10 1.02168e+06 220.638 3.64458e-10 1.90073e-09 196232 6.05386e+11
48.3204 231.668 83.1727 3.24261e-10 1.20544e+06 231.236 3.23657e-10 1.62163e-09 241039 7.14448e+11
51.0634 243.595 98.1565 2.88908e-10 1.42103e+06 243.155 2.88386e-10 1.38326e-09 296798 8.43158e+11
53.9621 255.609 115.84 2.56879e-10 1.67997e+06 255.172 2.5644e-10 1.1797e-09 365811 9.95055e+11
57.0254 269.736 136.709 2.29696e-10 1.98018e+06 269.245 2.29278e-10 1.00592e-09 452163 1.17432e+12
60.2626 284.934 161.337 2.05599e-10 2.33957e+06 284.414 2.05224e-10 8.57591e-10 560889 1.38587e+12
63.6835 301.246 190.402 1.84187e-10 2.75676e+06 300.69 1.83847e-10 7.3101e-10 694601 1.63554e+12
67.2987 319.271 224.704 1.65409e-10 3.25638e+06 318.696 1.65111e-10 6.23009e-10 864571 1.93019e+12
71.1191 339.786 265.185 1.49165e-10 3.84387e+06 339.139 1.48881e-10 5.30879e-10 1.08004e+06 2.27792e+12
75.1563 362.277 312.958 1.34761e-10 4.53277e+06 361.564 1.34496e-10 4.52303e-10 1.35051e+06 2.68829e+12
79.4227 387.976 369.339 1.2229e-10 5.35083e+06 387.209 1.22048e-10 3.85299e-10 1.6983e+06 3.17259e+12
83.9313 418.761 435.876 1.11844e-10 6.32174e+06 417.878 1.11608e-10 3.28173e-10 2.1545e+06 3.74415e+12
88.6959 452.841 514.4 1.02484e-10 7.44986e+06 451.843 1.02258e-10 2.79476e-10 2.73186e+06 4.41866e+12
93.7309 492.445 607.071 9.4434e-11 8.79764e+06 491.341 9.42223e-11 2.37972e-10 3.49114e+06 5.2147e+12
99.0518 538.848 716.436 8.75586e-11 1.03827e+07 537.57 8.73509e-11 2.02605e-10 4.48703e+06 6.15414e+12
104.675 593.298 845.504 8.16898e-11 1.22515e+07 591.852 8.14906e-11 1.72471e-10 5.80285e+06 7.26283e+12
110.617 657.999 997.824 7.67682e-11 1.44573e+07 656.348 7.65756e-11 1.468e-10 7.56036e+06 8.57124e+12
116.896 734.767 1177.58 7.26386e-11 1.70664e+07 732.875 7.24516e-11 1.24935e-10 9.92262e+06 1.01154e+13
123.532 824.901 1389.73 6.91005e-11 2.0139e+07 822.684 6.89148e-11 1.06313e-10 1.30898e+07 1.19377e+13
130.545 931.441 1640.09 6.61145e-11 2.37643e+07 928.865 6.59317e-11 9.04567e-11 1.73693e+07 1.40883e+13
137.955 1059.28 1935.56 6.37112e-11 2.80503e+07 1056.24 6.35283e-11 7.69563e-11 2.32225e+07 1.66263e+13
145.787 1210.95 2284.26 6.1715e-11 3.30981e+07 1207.4 6.15344e-11 6.54636e-11 3.12028e+07 1.96216e+13
154.063 1391.03 2695.77 6.00709e-11 3.90634e+07 1386.89 5.98921e-11 5.56812e-11 4.21431e+07 2.31565e+13
162.808 1605.3 3181.42 5.87416e-11 4.61057e+07 1600.4 5.85622e-11 4.73556e-11 5.71912e+07 2.73282e+13
172.051 1860.42 3754.56 5.76848e-11 5.44046e+07 1854.65 5.75059e-11 4.02708e-11 7.79303e+07 3.22515e+13
181.818 2162.95 4430.96 5.68274e-11 6.42064e+07 2156.11 5.66478e-11 3.42426e-11 1.06554e+08 3.80616e+13
192.139 2524.47 5229.21 5.62009e-11 7.57748e+07 2516.39 5.60212e-11 2.91139e-11 1.46274e+08 4.49186e+13
203.046 2954.6 6171.26 5.57359e-11 8.94213e+07 2945.07 5.5556e-11 2.4751e-11 2.01364e+08 5.30108e+13
214.572 3466.57 7283.03 5.54112e-11 1.05538e+08 3455.22 5.52299e-11 2.10401e-11 2.77946e+08 6.25608e+13
226.753 4079.33 8595.09 5.52521e-11 1.24552e+08 4065.8 5.50688e-11 1.78839e-11 3.84801e+08 7.38313e+13
239.625 4813.56 10143.5 5.52443e-11 1.46987e+08 4797.39 5.50587e-11 1.51999e-11 5.34228e+08 8.71322e+13
253.228 5693.27 11970.9 5.53662e-11 1.7347e+08 5673.93 5.51781e-11 1.29176e-11 7.4351e+08 1.02829e+14
267.603 6758 14127.5 5.56882e-11 2.04703e+08 6734.73 5.54964e-11 1.09771e-11 1.03848e+09 1.21354e+14
282.795 8050.52 16672.6 5.62122e-11 2.4161e+08 8022.33 5.60154e-11 9.3274e-12 1.45608e+09 1.43217e+14
298.848 9635.21 19676.2 5.70072e-11 2.85122e+08 9600.78 5.68035e-11 7.925e-12 2.05098e+09 1.69017e+14
315.813 11603.6 23220.9 5.81734e-11 3.36491e+08 11561 5.79598e-11 6.73295e-12 2.90732e+09 1.99466e+14
333.741 14090 27404.3 5.98554e-11 3.97115e+08 14036.5 5.9628e-11 5.71979e-12 4.15565e+09 2.35401e+14
352.686 17297.2 32341.2 6.22628e-11 4.68637e+08 17228.4 6.20152e-11 4.85874e-12 6.0054e+09 2.77809e+14
372.707 21562.5 38167.6 6.57679e-11 5.53074e+08 21471.6 6.54906e-11 4.12703e-12 8.81373e+09 3.27857e+14
393.865 27459.6 45043.5 7.09696e-11 6.52716e+08 27334.7 7.06467e-11 3.50528e-12 1.32152e+10 3.86921e+14
416.224 32424.9 53158.3 7.10098e-11 2.2184e+08 34302.7 7.5122e-11 2.97701e-12 5.29149e+09 4.56626e+14
439.852 0 62734.9 0 0 0 0 2.52819e-12 0 5.38888e+14
464.821 0 74036.7 0 0 0 0 2.1469e-12 0 6.35971e+14
491.207 0 87374.6 0 0 0 0 1.82301e-12 0 7.50542e+14
519.092 0 103115 0 0 0 0 1.54789e-12 0 8.85755e+14
548.56 0 121692 0 0 0 0 1.31422e-12 0 1.04533e+15
579.7 0 143615 0 0 0 0 1.11576e-12 0 1.23364e+15
612.608 0 169488 0 0 0 0 9.47223e-13 0 1.45589e+15
647.384 0 200021 0 0 0 0 8.041e-13 0 1.71817e+15
684.134 0 236056 0 0 0 0 6.82568e-13 0 2.0277e+15
722.971 0 278582 0 0 0 0 5.79376e-13 0 2.393e+15
764.012 0 328769 0 0 0 0 4.91762e-13 0 2.8241e+15
0.642005
200
1.0655e+09
8589934592
0.0129181 0.00111827 1.58924e-09 8.19155e-05 6 0.00110803 8.11656e-05 0.00677225 0.0725746 13.6515
0.0136515 0 1.87554e-09 0 0 0 0 0.00688819 0 16.1108
0.0144264 0 2.21343e-09 0 0 0 0 0.00699249 0 19.0132
0.0152454 0 2.61218e-09 0 0 0 0 0.00708412 0 22.4385
0.0161108 0 3.08278e-09 0 0 0 0 0.00716212 0 26.4808
0.0170254 0 3.63815e-09 0 0 0 0 0.00722559 0 31.2514
0.0179919 0.00204613 4.29357e-09 5.54785e-05 12 0.00204349 5.5407e-05 0.00727371 0.0915272 36.8815
0.0190132 0 5.06707e-09 0 0 0 0 0.00730578 0 43.5258
0.0200925 0 5.97991e-09 0 0 0 0 0.00732122 0 51.367
0.0212331 0.00930142 7.05721e-09 0.000153436 8 0.00929333 0.000153302 0.00731958 0.167699 60.621
0.0224385 0 8.32858e-09 0 0 0 0 0.00730056 0 71.542
0.0237123 0 9.829e-09 0 0 0 0 0.00726401 0 84.4305
0.0250583 0.00754562 1.15997e-08 7.57282e-05 6 0.00754207 7.56925e-05 0.00720995 0.0630197 99.6408
0.0264808 0 1.36894e-08 0 0 0 0 0.00713857 0 117.591
0.0279841 0.015366 1.61556e-08 0.000110725 24 0.0153502 0.000110612 0.00705021 0.376927 138.776
0.0295727 0 1.90661e-08 0 0 0 0 0.00694538 0 163.777
0.0312514 0.0276271 2.25009e-08 0.000142937 24 0.0277673 0.000143663 0.00682475 0.502654 193.281
0.0330255 0 2.65545e-08 0 0 0 0 0.00668915 0 228.102
0.0349003 0.00997362 3.13384e-08 3.70498e-05 12 0.00989376 3.67532e-05 0.00653951 0.0679864 269.195
0.0368815 0.0323511 3.69841e-08 0.000101832 30 0.0320066 0.000100748 0.00637693 0.479065 317.691
0.0389751 0.0369507 4.36469e-08 9.85554e-05 24 0.0365706 9.75415e-05 0.00620256 0.381347 374.924
0.0411876 0.0384944 5.151e-08 8.69994e-05 24 0.038233 8.64085e-05 0.00601767 0.346976 442.467
0.0435258 0.0217357 6.07896e-08 4.16249e-05 8 0.021734 4.16217e-05 0.00582358 0.0571812 522.179
0.0459966 0.0324556 7.1741e-08 5.26661e-05 72 0.032331 5.2464e-05 0.00562166 0.674527 616.251
0.0486077 0 8.46654e-08 0 0 0 0 0.0054133 0 727.27
0.051367 0.0629256 9.99181e-08 7.33151e-05 54 0.0625986 7.29341e-05 0.00519989 0.761365 858.29
0.054283 0.0692621 1.17919e-07 6.83791e-05 60 0.0696057 6.87184e-05 0.0049828 0.823381 1012.91
0.0573645 0.0978927 1.39162e-07 8.18917e-05 96 0.0973995 8.14791e-05 0.00476339 1.65042 1195.39
0.060621 0.0736011 1.64232e-07 5.21718e-05 24 0.0726039 5.1465e-05 0.00454293 0.27562 1410.75
0.0640622 0.0785527 1.93819e-07 4.71818e-05 134 0.0784555 4.71234e-05 0.00432265 1.46261 1664.89
0.0676989 0.0838271 2.28736e-07 4.26638e-05 120 0.0832385 4.23642e-05 0.00410371 1.24757 1964.83
0.071542 0.109065 2.69944e-07 4.70352e-05 108 0.10741 4.63214e-05 0.00388717 1.30681 2318.8
0.0756032 0.108721 3.18575e-07 3.97292e-05 174 0.108292 3.95727e-05 0.00367401 1.88156 2736.54
0.079895 0.125502 3.75967e-07 3.88606e-05 168 0.12426 3.84761e-05 0.0034651 1.8841 3229.53
0.0844305 0.135047 4.43698e-07 3.54329e-05 168 0.135694 3.56027e-05 0.00326121 1.82532 3811.34
0.0892234 0.127922 5.23632e-07 2.84399e-05 290 0.12751 2.83484e-05 0.00306301 2.69263 4497.96
0.0942883 0.152705 6.17966e-07 2.87674e-05 288 0.152548 2.87377e-05 0.00287109 2.88567 5308.28
0.0996408 0.142745 7.29294e-07 2.27861e-05 366 0.141793 2.26341e-05 0.00268591 3.10498 6264.59
0.105297 0.210403 8.60678e-07 2.84591e-05 420 0.208323 2.81777e-05 0.00250785 4.76615 7393.17
0.111275 0.20054 1.01573e-06 2.29844e-05 398 0.200538 2.29841e-05 0.00233721 3.91397 8725.07
0.117591 0.23622 1.19872e-06 2.29409e-05 624 0.236758 2.29932e-05 0.00217419 6.58411 10296.9
0.124267 0.289779 1.41467e-06 2.38463e-05 642 0.288702 2.37577e-05 0.00201893 7.58291 12151.9
0.131321 0.278258 1.66953e-06 1.94028e-05 800 0.278202 1.93989e-05 0.00187147 8.29416 14341.1
0.138776 0.277629 1.9703e-06 1.64037e-05 858 0.278451 1.64523e-05 0.00173182 8.12696 16924.7
0.146654 0.348081 2.32525e-06 1.74269e-05 1080 0.350532 1.75496e-05 0.00159991 11.7639 19973.8
0.154979 0.334679 2.74415e-06 1.41981e-05 1286 0.336956 1.42947e-05 0.00147563 12.3735 23572.1
0.163777 0.375651 3.23852e-06 1.35036e-05 1650 0.376147 1.35214e-05 0.00135884 16.397 27818.7
0.173074 0.406834 3.82195e-06 1.2392e-05 1778 0.407115 1.24006e-05 0.00124933 17.6359 32830.3
0.182899 0.453453 4.51048e-06 1.17036e-05 2112 0.454407 1.17282e-05 0.00114689 21.5522 38744.7
0.193281 0.505451 5.32305e-06 1.10542e-05 2570 0.505851 1.1063e-05 0.00105127 27.0238 45724.7
0.204254 0.536649 6.28202e-06 9.94491e-06 3030 0.537105 9.95337e-06 0.000962209 31.3166 53962.1
0.215848 0.568398 7.41374e-06 8.92536e-06 3434 0.568384 8.92513e-06 0.000879423 34.852 63683.5
0.228102 0.610002 8.74934e-06 8.11645e-06 4218 0.610155 8.11849e-06 0.000802624 42.6541 75156.3
0.24105 0.673425 1.03256e-05 7.59252e-06 4766 0.673522 7.59361e-06 0.000731515 49.4671 88695.9
0.254734 0.744184 1.21857e-05 7.10949e-06 6026 0.743662 7.10451e-06 0.000665798 64.3465 104675
0.269195 0.836358 1.4381e-05 6.77037e-06 6480 0.836257 6.76955e-06 0.000605173 72.4949 123532
0.284476 0.868666 1.69718e-05 5.95847e-06 8162 0.869262 5.96255e-06 0.000549345 88.5291 145787
0.300625 0.980515 2.00293e-05 5.69899e-06 9578 0.980372 5.69816e-06 0.000498021 109.604 172051
0.317691 1.05203 2.36377e-05 5.18126e-06 11234 1.05113 5.17682e-06 0.000450916 129.084 203046
0.335725 1.1582 2.78961e-05 4.8334e-06 13344 1.15713 4.82893e-06 0.000407755 158.176 239625
0.354784 1.2539 3.29216e-05 4.43397e-06 15464 1.25305 4.43096e-06 0.000368269 186.187 282795
0.374924 1.35834 3.88525e-05 4.07006e-06 18458 1.35736 4.06711e-06 0.000332202 226.143 333741
0.396207 1.53162 4.58519e-05 3.88871e-06 22232 1.5291 3.8823e-06 0.000299307 288.846 393865
0.418699 1.67241 5.41123e-05 3.59798e-06 25628 1.66811 3.58872e-06 0.00026935 342.339 464821
0.442467 1.85032 6.38607e-05 3.37306e-06 30320 1.84729 3.36752e-06 0.000242108 422.419 548560
0.467585 2.02122 7.53654e-05 3.12214e-06 35452 2.0175 3.11639e-06 0.00021737 509.205 647384
0.494129 2.23004 8.89427e-05 2.91885e-06 41792 2.22926 2.91784e-06 0.000194938 625.76 764012
0.522179 2.43789 0.000104966 2.70381e-06 49988 2.43621 2.70194e-06 0.000174625 773.991 901651
0.551822 2.72063 0.000123876 2.55678e-06 59110 2.718 2.5543e-06 0.000156255 967.211 1.06409e+06
0.583147 3.01621 0.000146192 2.40186e-06 69716 3.0111 2.39779e-06 0.000139664 1198.93 1.25578e+06
0.616251 3.33451 0.000172529 2.24998e-06 82210 3.32839 2.24585e-06 0.0001247 1483.33 1.48202e+06
0.651234 3.6667 0.000203611 2.09645e-06 96722 3.65807 2.09151e-06 0.00011122 1823.16 1.74901e+06
0.688203 4.07361 0.000240292 1.97356e-06 113098 4.06615 1.96995e-06 9.90935e-05 2252.47 2.06409e+06
0.72727 4.50881 0.000283581 1.85095e-06 135190 4.50151 1.84795e-06 8.81969e-05 2837.17 2.43595e+06
0.768555 5.02601 0.000334669 1.74831e-06 158170 5.0174 1.74531e-06 7.84179e-05 3526.36 2.87479e+06
0.812184 5.61272 0.000394961 1.65436e-06 188560 5.60494 1.65206e-06 6.96525e-05 4478.6 3.39269e+06
0.85829 6.2159 0.000466114 1.55247e-06 220444 6.20581 1.54994e-06 6.1805e-05 5537.28 4.00389e+06
0.907013 6.92967 0.000550086 1.46653e-06 261388 6.91978 1.46444e-06 5.47875e-05 6996.76 4.7252e+06
0.958501 7.77137 0.000649185 1.3936e-06 308244 7.7587 1.39133e-06 4.85194e-05 8853.57 5.57646e+06
1.01291 8.64615 0.000766138 1.31379e-06 364396 8.63115 1.31151e-06 4.29272e-05 11152.4 6.58107e+06
1.07041 9.63978 0.00090416 1.24117e-06 429162 9.62187 1.23887e-06 3.79435e-05 14038.4 7.76667e+06
1.13118 10.7225 0.00106705 1.16983e-06 506358 10.7036 1.16777e-06 3.3507e-05 17678.5 9.16586e+06
1.19539 11.9482 0.00125928 1.10456e-06 598590 11.9265 1.10256e-06 2.9562e-05 22365.9 1.08171e+07
1.26325 13.3194 0.00148614 1.04336e-06 704844 13.2941 1.04138e-06 2.60578e-05 28222.2 1.27658e+07
1.33496 14.8122 0.00175387 9.83175e-07 834620 14.7847 9.81354e-07 2.29484e-05 35757.4 1.50656e+07
1.41075 16.4885 0.00206984 9.27376e-07 981444 16.4554 9.25512e-07 2.01923e-05 45075 1.77798e+07
1.49083 18.2474 0.00244272 8.69636e-07 1.15998e+06 18.2136 8.68025e-07 1.77518e-05 56825.8 2.09828e+07
1.57546 20.1928 0.00288279 8.15443e-07 1.36931e+06 20.1557 8.13946e-07 1.55929e-05 71609.3 2.4763e+07
1.66489 22.323 0.00340213 7.63857e-07 1.61652e+06 22.2787 7.62341e-07 1.3685e-05 90229.1 2.92241e+07
1.75941 24.6826 0.00401503 7.15669e-07 1.90601e+06 24.6364 7.14329e-07 1.20007e-05 113666 3.44889e+07
1.85928 27.1407 0.00473835 6.66812e-07 2.24913e+06 27.0908 6.65587e-07 1.05151e-05 142628 4.07021e+07
1.96483 29.9035 0.00559198 6.2254e-07 2.65744e+06 29.8468 6.21358e-07 9.20606e-06 179704 4.80347e+07
2.07637 32.8012 0.00659939 5.78623e-07 3.13125e+06 32.7389 5.77526e-07 8.05366e-06 224968 5.66883e+07
2.19424 35.887 0.00778828 5.36421e-07 3.69915e+06 35.8247 5.35489e-07 7.04008e-06 281858 6.69008e+07
2.3188 39.2186 0.00919136 4.96732e-07 4.36472e+06 39.1472 4.95827e-07 6.1494e-06 352571 7.89532e+07
2.45043 42.735 0.0108472 4.58644e-07 5.14913e+06 42.6601 4.57841e-07 5.36741e-06 439992 9.31768e+07
2.58954 46.4207 0.0128014 4.22149e-07 6.07894e+06 46.3381 4.21397e-07 4.68145e-06 548167 1.09963e+08
2.73654 50.3275 0.0151076 3.87812e-07 7.17304e+06 50.2396 3.87134e-07 4.08023e-06 681772 1.29773e+08
2.89188 54.5146 0.0178292 3.55951e-07 8.46557e+06 54.4202 3.55335e-07 3.55373e-06 847933 1.53152e+08
3.05605 58.8238 0.0210412 3.25456e-07 9.98773e+06 58.7255 3.24912e-07 3.09304e-06 1.05093e+06 1.80743e+08
3.22953 63.4323 0.0248319 2.9738e-07 1.1797e+07 63.3229 2.96867e-07 2.69025e-06 1.30404e+06 2.13304e+08
3.41286 68.2032 0.0293054 2.70937e-07 1.39144e+07 68.0894 2.70484e-07 2.33837e-06 1.6122e+06 2.51731e+08
3.6066 73.324 0.0345848 2.46815e-07 1.64163e+07 73.1988 2.46393e-07 2.0312e-06 1.99477e+06 2.97081e+08
3.81134 78.4992 0.0408154 2.23899e-07 1.93821e+07 78.3708 2.23532e-07 1.76327e-06 2.46114e+06 3.50601e+08
4.0277 84.0342 0.0481684 2.03097e-07 2.28754e+07 83.8963 2.02764e-07 1.52972e-06 3.03711e+06 4.13763e+08
4.25634 89.8217 0.056846 1.83946e-07 2.69929e+07 89.6702 1.83636e-07 1.32631e-06 3.74366e+06 4.88304e+08
4.49796 95.8712 0.067087 1.66364e-07 3.18542e+07 95.7116 1.66087e-07 1.14926e-06 4.61116e+06 5.76273e+08
4.7533 102.238 0.0791729 1.5033e-07 3.75892e+07 102.071 1.50085e-07 9.95263e-07 5.6777e+06 6.8009e+08
5.02313 108.839 0.0934361 1.35606e-07 4.43706e+07 108.661 1.35384e-07 8.61414e-07 6.98493e+06 8.0261e+08
5.30828 115.723 0.110269 1.22174e-07 5.23593e+07 115.534 1.21974e-07 7.45152e-07 8.58473e+06 9.47202e+08
5.60962 122.867 0.130134 1.09915e-07 6.1787e+07 122.665 1.09734e-07 6.44232e-07 1.05417e+07 1.11784e+09
5.92807 130.447 0.153578 9.88818e-08 7.29346e+07 130.234 9.87204e-08 5.56685e-07 1.29551e+07 1.31923e+09
6.26459 138.325 0.181246 8.88471e-08 8.60651e+07 138.099 8.87019e-08 4.80786e-07 1.59044e+07 1.55689e+09
6.62021 146.534 0.213898 7.97524e-08 1.01558e+08 146.295 7.9622e-08 4.15026e-07 1.95157e+07 1.83737e+09
6.99602 155.166 0.252432 7.15587e-08 1.1986e+08 154.915 7.1443e-08 3.58083e-07 2.39526e+07 2.16837e+09
7.39317 164.153 0.297908 6.41472e-08 1.41457e+08 163.887 6.40433e-08 3.08803e-07 2.93846e+07 2.55901e+09
7.81286 173.632 0.351577 5.74937e-08 1.66936e+08 173.35 5.74004e-08 2.66181e-07 3.60572e+07 3.02002e+09
8.25637 183.54 0.414914 5.14971e-08 1.97025e+08 183.242 5.14133e-08 2.29336e-07 4.42417e+07 3.56409e+09
8.72507 193.997 0.489662 4.61219e-08 2.32497e+08 193.677 4.6046e-08 1.97503e-07 5.42938e+07 4.20617e+09
9.22037 205.236 0.577876 4.13455e-08 2.74404e+08 204.892 4.12762e-08 1.70014e-07 6.6732e+07 4.96392e+09
9.74378 217.493 0.681982 3.71263e-08 3.2382e+08 217.124 3.70633e-08 1.46289e-07 8.21815e+07 5.85818e+09
10.2969 231.271 0.804843 3.34518e-08 3.82165e+08 230.862 3.33926e-08 1.25822e-07 1.01604e+08 6.91355e+09
10.8814 247.616 0.949838 3.03487e-08 4.51027e+08 247.147 3.02912e-08 1.08175e-07 1.26536e+08 8.15905e+09
11.4992 268.605 1.12095 2.78956e-08 5.32251e+08 268.036 2.78365e-08 9.29669e-08 1.59707e+08 9.62892e+09
12.1519 298.231 1.3229 2.62444e-08 6.28157e+08 297.486 2.61789e-08 7.98658e-08 2.06417e+08 1.13636e+10
12.8418 331.43 1.56122 2.47137e-08 3.82727e+08 343.044 2.55797e-08 6.85852e-08 1.3791e+08 1.34108e+10
13.5708 0 1.84248 0 0 0 0 5.88765e-08 0 1.58268e+10
14.3411 0 2.17441 0 0 0 0 5.05241e-08 0 1.8678e+10
15.1552 0 2.56613 0 0 0 0 4.33417e-08 0 2.20429e+10
16.0156 0 3.02843 0 0 0 0 3.71677e-08 0 2.6014e+10
16.9247 0 3.574 0 0 0 0 3.18628e-08 0 3.07005e+10
17.8855 0 4.21787 0 0 0 0 2.73063e-08 0 3.62312e+10
18.9008 0 4.97773 0 0 0 0 2.33941e-08 0 4.27584e+10
19.9738 0 5.87448 0 0 0 0 2.00364e-08 0 5.04614e+10
21.1076 0 6.93279 0 0 0 0 1.71555e-08 0 5.95522e+10
22.3058 0 8.18175 0 0 0 0 1.46847e-08 0 7.02807e+10
23.5721 0 9.65571 0 0 0 0 1.25662e-08 0 8.29419e+10
24.9102 0 11.3952 0 0 0 0 1.07504e-08 0 9.78842e+10
26.3243 0 13.4481 0 0 0 0 9.19452e-09 0 1.15518e+11
27.8187 0 15.8708 0 0 0 0 7.86182e-09 0 1.36329e+11
29.3979 0 18.73 0 0 0 0 6.72061e-09 0 1.60889e+11
31.0667 0 22.1042 0 0 0 0 5.74366e-09 0 1.89874e+11
32.8303 0 26.0864 0 0 0 0 4.90756e-09 0 2.2408e+11
34.694 0 30.7859 0 0 0 0 4.19221e-09 0 2.64449e+11
36.6634 0 36.3321 0 0 0 0 3.58032e-09 0 3.1209e+11
38.7447 0 42.8774 0 0 0 0 3.05709e-09 0 3.68314e+11
40.9442 0 50.6018 0 0 0 0 2.60976e-09 0 4.34667e+11
43.2685 0 59.7179 0 0 0 0 2.22743e-09 0 5.12973e+11
45.7247 0 70.4762 0 0 0 0 1.90073e-09 0 6.05386e+11
48.3204 0 83.1727 0 0 0 0 1.62163e-09 0 7.14448e+11
51.0634 0 98.1565 0 0 0 0 1.38326e-09 0 8.43158e+11
53.9621 0 115.84 0 0 0 0 1.1797e-09 0 9.95055e+11
57.0254 0 136.709 0 0 0 0 1.00592e-09 0 1.17432e+12
60.2626 0 161.337 0 0 0 0 8.57591e-10 0 1.38587e+12
63.6835 0 190.402 0 0 0 0 7.3101e-10 0 1.63554e+12
67.2987 0 224.704 0 0 0 0 6.23009e-10 0 1.93019e+12
71.1191 0 265.185 0 0 0 0 5.30879e-10 0 2.27792e+12
75.1563 0 312.958 0 0 0 0 4.52303e-10 0 2.68829e+12
79.4227 0 369.339 0 0 0 0 3.85299e-10 0 3.17259e+12
83.9313 0 435.876 0 0 0 0 3.28173e-10 0 3.74415e+12
88.6959 0 514.4 0 0 0 0 2.79476e-10 0 4.41866e+12
93.7309 0 607.071 0 0 0 0 2.37972e-10 0 5.2147e+12
99.0518 0 716.436 0 0 0 0 2.02605e-10 0 6.15414e+12
104.675 0 845.504 0 0 0 0 1.72471e-10 0 7.26283e+12
110.617 0 997.824 0 0 0 0 1.468e-10 0 8.57124e+12
116.896 0 1177.58 0 0 0 0 1.24935e-10 0 1.01154e+13
123.532 0 1389.73 0 0 0 0 1.06313e-10 0 1.19377e+13
130.545 0 1640.09 0 0 0 0 9.04567e-11 0 1.40883e+13
137.955 0 1935.56 0 0 0 0 7.69563e-11 0 1.66263e+13
145.787 0 2284.26 0 0 0 0 6.54636e-11 0 1.96216e+13
154.063 0 2695.77 0 0 0 0 5.56812e-11 0 2.31565e+13
162.808 0 3181.42 0 0 0 0 4.73556e-11 0 2.73282e+13
172.051 0 3754.56 0 0 0 0 4.02708e-11 0 3.22515e+13
181.818 0 4430.96 0 0 0 0 3.42426e-11 0 3.80616e+13
192.139 0 5229.21 0 0 0 0 2.91139e-11 0 4.49186e+13
203.046 0 6171.26 0 0 0 0 2.4751e-11 0 5.30108e+13
214.572 0 7283.03 0 0 0 0 2.10401e-11 0 6.25608e+13
226.753 0 8595.09 0 0 0 0 1.78839e-11 0 7.38313e+13
239.625 0 10143.5 0 0 0 0 1.51999e-11 0 8.71322e+13
253.228 0 11970.9 0 0 0 0 1.29176e-11 0 1.02829e+14
267.603 0 14127.5 0 0 0 0 1.09771e-11 0 1.21354e+14
282.795 0 16672.6 0 0 0 0 9.3274e-12 0 1.43217e+14
298.848 0 19676.2 0 0 0 0 7.925e-12 0 1.69017e+14
315.813 0 23220.9 0 0 0 0 6.73295e-12 0 1.99466e+14
333.741 0 27404.3 0 0 0 0 5.71979e-12 0 2.35401e+14
352.686 0 32341.2 0 0 0 0 4.85874e-12 0 2.77809e+14
372.707 0 38167.6 0 0 0 0 4.12703e-12 0 3.27857e+14
393.865 0 45043.5 0 0 0 0 3.50528e-12 0 3.86921e+14
416.224 0 53158.3 0 0 0 0 2.97701e-12 0 4.56626e+14
439.852 0 62734.9 0 0 0 0 2.52819e-12 0 5.38888e+14
464.821 0 74036.7 0 0 0 0 2.1469e-12 0 6.35971e+14
491.207 0 87374.6 0 0 0 0 1.82301e-12 0 7.50542e+14
519.092 0 103115 0 0 0 0 1.54789e-12 0 8.85755e+14
548.56 0 121692 0 0 0 0 1.31422e-12 0 1.04533e+15
579.7 0 143615 0 0 0 0 1.11576e-12 0 1.23364e+15
612.608 0 169488 0 0 0 0 9.47223e-13 0 1.45589e+15
647.384 0 200021 0 0 0 0 8.041e-13 0 1.71817e+15
684.134 0 236056 0 0 0 0 6.82568e-13 0 2.0277e+15
722.971 0 278582 0 0 0 0 5.79376e-13 0 2.393e+15
764.012 0 328769 0 0 0 0 4.91762e-13 0 2.8241e+15
