0.418518
200
1.0655e+09
8589934592
0.0129181 0 1.58924e-09 0 0 0 0 0.00677225 0 13.6515
0.0136515 0 1.87554e-09 0 0 0 0 0.00688819 0 16.1108
0.0144264 0 2.21343e-09 0 0 0 0 0.00699249 0 19.0132
0.0152454 0 2.61218e-09 0 0 0 0 0.00708412 0 22.4385
0.0161108 0 3.08278e-09 0 0 0 0 0.00716212 0 26.4808
0.0170254 0 3.63815e-09 0 0 0 0 0.00722559 0 31.2514
0.0179919 0 4.29357e-09 0 0 0 0 0.00727371 0 36.8815
0.0190132 0 5.06707e-09 0 0 0 0 0.00730578 0 43.5258
0.0200925 0 5.97991e-09 0 0 0 0 0.00732122 0 51.367
0.0212331 0 7.05721e-09 0 0 0 0 0.00731958 0 60.621
0.0224385 0 8.32858e-09 0 0 0 0 0.00730056 0 71.542
0.0237123 0 9.829e-09 0 0 0 0 0.00726401 0 84.4305
0.0250583 0 1.15997e-08 0 0 0 0 0.00720995 0 99.6408
0.0264808 0 1.36894e-08 0 0 0 0 0.00713857 0 117.591
0.0279841 0 1.61556e-08 0 0 0 0 0.00705021 0 138.776
0.0295727 0 1.90661e-08 0 0 0 0 0.00694538 0 163.777
0.0312514 0 2.25009e-08 0 0 0 0 0.00682475 0 193.281
0.0330255 0 2.65545e-08 0 0 0 0 0.00668915 0 228.102
0.0349003 0 3.13384e-08 0 0 0 0 0.00653951 0 269.195
0.0368815 0 3.69841e-08 0 0 0 0 0.00637693 0 317.691
0.0389751 0 4.36469e-08 0 0 0 0 0.00620256 0 374.924
0.0411876 0 5.151e-08 0 0 0 0 0.00601767 0 442.467
0.0435258 0 6.07896e-08 0 0 0 0 0.00582358 0 522.179
0.0459966 0 7.1741e-08 0 0 0 0 0.00562166 0 616.251
0.0486077 0 8.46654e-08 0 0 0 0 0.0054133 0 727.27
0.051367 0 9.99181e-08 0 0 0 0 0.00519989 0 858.29
0.054283 0 1.17919e-07 0 0 0 0 0.0049828 0 1012.91
0.0573645 0 1.39162e-07 0 0 0 0 0.00476339 0 1195.39
0.060621 0 1.64232e-07 0 0 0 0 0.00454293 0 1410.75
0.0640622 0 1.93819e-07 0 0 0 0 0.00432265 0 1664.89
0.0676989 0 2.28736e-07 0 0 0 0 0.00410371 0 1964.83
0.071542 0 2.69944e-07 0 0 0 0 0.00388717 0 2318.8
0.0756032 0 3.18575e-07 0 0 0 0 0.00367401 0 2736.54
0.079895 0 3.75967e-07 0 0 0 0 0.0034651 0 3229.53
0.0844305 0 4.43698e-07 0 0 0 0 0.00326121 0 3811.34
0.0892234 0 5.23632e-07 0 0 0 0 0.00306301 0 4497.96
0.0942883 0 6.17966e-07 0 0 0 0 0.00287109 0 5308.28
0.0996408 0 7.29294e-07 0 0 0 0 0.00268591 0 6264.59
0.105297 0 8.60678e-07 0 0 0 0 0.00250785 0 7393.17
0.111275 0 1.01573e-06 0 0 0 0 0.00233721 0 8725.07
0.117591 0 1.19872e-06 0 0 0 0 0.00217419 0 10296.9
0.124267 0 1.41467e-06 0 0 0 0 0.00201893 0 12151.9
0.131321 0 1.66953e-06 0 0 0 0 0.00187147 0 14341.1
0.138776 0 1.9703e-06 0 0 0 0 0.00173182 0 16924.7
0.146654 0 2.32525e-06 0 0 0 0 0.00159991 0 19973.8
0.154979 0 2.74415e-06 0 0 0 0 0.00147563 0 23572.1
0.163777 0 3.23852e-06 0 0 0 0 0.00135884 0 27818.7
0.173074 0 3.82195e-06 0 0 0 0 0.00124933 0 32830.3
0.182899 0 4.51048e-06 0 0 0 0 0.00114689 0 38744.7
0.193281 0 5.32305e-06 0 0 0 0 0.00105127 0 45724.7
0.204254 0 6.28202e-06 0 0 0 0 0.000962209 0 53962.1
0.215848 0 7.41374e-06 0 0 0 0 0.000879423 0 63683.5
0.228102 0 8.74934e-06 0 0 0 0 0.000802624 0 75156.3
0.24105 0 1.03256e-05 0 0 0 0 0.000731515 0 88695.9
0.254734 0 1.21857e-05 0 0 0 0 0.000665798 0 104675
0.269195 0 1.4381e-05 0 0 0 0 0.000605173 0 123532
0.284476 0 1.69718e-05 0 0 0 0 0.000549345 0 145787
0.300625 0 2.00293e-05 0 0 0 0 0.000498021 0 172051
0.317691 0 2.36377e-05 0 0 0 0 0.000450916 0 203046
0.335725 0 2.78961e-05 0 0 0 0 0.000407755 0 239625
0.354784 0 3.29216e-05 0 0 0 0 0.000368269 0 282795
0.374924 0 3.88525e-05 0 0 0 0 0.000332202 0 333741
0.396207 0.913325 4.58519e-05 2.31888e-06 6 0.887933 2.25441e-06 0.000299307 0.046485 393865
0.418699 0 5.41123e-05 0 0 0 0 0.00026935 0 464821
0.442467 0 6.38607e-05 0 0 0 0 0.000242108 0 548560
0.467585 0 7.53654e-05 0 0 0 0 0.00021737 0 647384
0.494129 0 8.89427e-05 0 0 0 0 0.000194938 0 764012
0.522179 0 0.000104966 0 0 0 0 0.000174625 0 901651
0.551822 0 0.000123876 0 0 0 0 0.000156255 0 1.06409e+06
0.583147 7.27417 0.000146192 5.79253e-06 12 7.6561 6.09667e-06 0.000139664 0.497697 1.25578e+06
0.616251 0 0.000172529 0 0 0 0 0.0001247 0 1.48202e+06
0.651234 0 0.000203611 0 0 0 0 0.00011122 0 1.74901e+06
0.688203 24.8323 0.000240292 1.20306e-05 8 24.2145 1.17313e-05 9.90935e-05 0.971253 2.06409e+06
0.72727 0 0.000283581 0 0 0 0 8.81969e-05 0 2.43595e+06
0.768555 0 0.000334669 0 0 0 0 7.84179e-05 0 2.87479e+06
0.812184 2.94161 0.000394961 8.67044e-07 6 3.0045 8.85582e-07 6.96525e-05 0.0746888 3.39269e+06
0.85829 0 0.000466114 0 0 0 0 6.1805e-05 0 4.00389e+06
0.907013 0.952993 0.000550086 2.01683e-07 24 0.971278 2.05553e-07 5.47875e-05 0.0883485 4.7252e+06
0.958501 2.6955 0.000649185 4.83372e-07 24 2.53762 4.55059e-07 4.85194e-05 0.239099 5.57646e+06
1.01291 0 0.000766138 0 0 0 0 4.29272e-05 0 6.58107e+06
1.07041 0 0.00090416 0 0 0 0 3.79435e-05 0 7.76667e+06
1.13118 1.96454 0.00106705 2.14332e-07 12 1.94041 2.117e-07 3.3507e-05 0.0767597 9.16586e+06
1.19539 2.74448 0.00125928 2.53716e-07 30 2.6879 2.48486e-07 2.9562e-05 0.257475 1.08171e+07
1.26325 9.6514 0.00148614 7.56033e-07 24 9.50618 7.44657e-07 2.60578e-05 0.696328 1.27658e+07
1.33496 19.0572 0.00175387 1.26495e-06 24 19.0991 1.26773e-06 2.29484e-05 1.32291 1.50656e+07
1.41075 16.1607 0.00206984 9.08938e-07 32 16.5002 9.28034e-07 2.01923e-05 1.44045 1.77798e+07
1.49083 2.31633 0.00244272 1.10391e-07 48 2.26694 1.08038e-07 1.77518e-05 0.298494 2.09828e+07
1.57546 4.80765 0.00288279 1.94147e-07 6 4.57797 1.84872e-07 1.55929e-05 0.0747061 2.4763e+07
1.66489 2.16867 0.00340213 7.42084e-08 84 2.09797 7.17892e-08 1.3685e-05 0.455499 2.92241e+07
1.75941 3.67789 0.00401503 1.0664e-07 48 3.66068 1.06141e-07 1.20007e-05 0.426535 3.44889e+07
1.85928 2.38078 0.00473835 5.84928e-08 72 2.39219 5.87731e-08 1.05151e-05 0.400518 4.07021e+07
1.96483 5.54996 0.00559198 1.15541e-07 54 5.42995 1.13042e-07 9.20606e-06 0.677727 4.80347e+07
2.07637 11.8526 0.00659939 2.09084e-07 104 11.9401 2.10628e-07 8.05366e-06 2.69998 5.66883e+07
2.19424 4.19741 0.00778828 6.27407e-08 120 4.27366 6.38805e-08 7.04008e-06 1.06943 6.69008e+07
2.3188 5.19606 0.00919136 6.58118e-08 156 5.02528 6.36488e-08 6.1494e-06 1.66954 7.89532e+07
2.45043 5.95043 0.0108472 6.38616e-08 126 5.87953 6.31007e-08 5.36741e-06 1.49915 9.31768e+07
2.58954 4.65623 0.0128014 4.23437e-08 192 4.69387 4.2686e-08 4.68145e-06 1.73664 1.09963e+08
2.73654 16.3624 0.0151076 1.26085e-07 152 16.6789 1.28524e-07 4.08023e-06 4.697 1.29773e+08
2.89188 8.39044 0.0178292 5.4785e-08 378 8.46099 5.52457e-08 3.55373e-06 5.82732 1.53152e+08
3.05605 7.09823 0.0210412 3.92726e-08 264 7.01592 3.88171e-08 3.09304e-06 3.35203 1.80743e+08
3.22953 7.33548 0.0248319 3.43898e-08 366 7.28645 3.41599e-08 2.69025e-06 4.67862 2.13304e+08
3.41286 8.24187 0.0293054 3.27408e-08 428 8.1569 3.24032e-08 2.33837e-06 5.99264 2.51731e+08
3.6066 10.8482 0.0345848 3.65161e-08 486 10.6635 3.58943e-08 2.0312e-06 8.73709 2.97081e+08
3.81134 8.819 0.0408154 2.51539e-08 600 8.84348 2.52237e-08 1.76327e-06 8.55932 3.50601e+08
4.0277 10.1137 0.0481684 2.44431e-08 738 10.0138 2.42017e-08 1.52972e-06 11.7923 4.13763e+08
4.25634 11.6236 0.056846 2.3804e-08 824 11.6031 2.37621e-08 1.32631e-06 14.7888 4.88304e+08
4.49796 14.0542 0.067087 2.4388e-08 954 13.981 2.42611e-08 1.14926e-06 20.2446 5.76273e+08
4.7533 13.1418 0.0791729 1.93236e-08 1094 13.0584 1.9201e-08 9.95263e-07 21.2406 6.8009e+08
5.02313 12.7387 0.0934361 1.58716e-08 1332 12.7974 1.59447e-08 8.61414e-07 24.5421 8.0261e+08
5.30828 16.7931 0.110269 1.77291e-08 1614 16.8435 1.77824e-08 7.45152e-07 38.4013 9.47202e+08
5.60962 17.382 0.130134 1.55496e-08 1850 17.33 1.55031e-08 6.44232e-07 44.6528 1.11784e+09
5.92807 16.9068 0.153578 1.28157e-08 2238 16.8818 1.27967e-08 5.56685e-07 51.5221 1.31923e+09
6.26459 17.1703 0.181246 1.10286e-08 2546 17.2303 1.10672e-08 4.80786e-07 58.4019 1.55689e+09
6.62021 18.6769 0.213898 1.01651e-08 3264 18.7159 1.01863e-08 4.15026e-07 79.9438 1.83737e+09
6.99602 20.6131 0.252432 9.50627e-09 3506 20.6516 9.524e-09 3.58083e-07 93.0763 2.16837e+09
7.39317 22.2015 0.297908 8.6758e-09 4506 22.2109 8.6795e-09 3.08803e-07 126.596 2.55901e+09
7.81286 24.293 0.351577 8.04399e-09 5018 24.2698 8.03629e-09 2.66181e-07 151.644 3.02002e+09
8.25637 25.5486 0.414914 7.16833e-09 5852 25.5094 7.15733e-09 2.29336e-07 182.915 3.56409e+09
8.72507 26.4357 0.489662 6.28499e-09 7362 26.3887 6.2738e-09 1.97503e-07 234.275 4.20617e+09
9.22037 28.1261 0.577876 5.6661e-09 8306 28.0133 5.64339e-09 1.70014e-07 276.816 4.96392e+09
9.74378 29.3665 0.681982 5.01291e-09 9698 29.3555 5.01103e-09 1.46289e-07 332.323 5.85818e+09
10.2969 31.7358 0.804843 4.59037e-09 11816 31.698 4.58491e-09 1.25822e-07 431.082 6.91355e+09
10.8814 34.647 0.949838 4.24645e-09 13682 34.5812 4.23839e-09 1.08175e-07 537.09 8.15905e+09
11.4992 35.634 1.12095 3.70073e-09 16152 35.6087 3.6981e-09 9.29669e-08 642.962 9.62892e+09
12.1519 38.0546 1.3229 3.34881e-09 19472 38 3.34401e-09 7.98658e-08 816.472 1.13636e+10
12.8418 38.968 1.56122 2.90572e-09 22670 38.8705 2.89845e-09 6.85852e-08 960.45 1.34108e+10
13.5708 42.6007 1.84248 2.69169e-09 26224 42.551 2.68855e-09 5.88765e-08 1198.9 1.58268e+10
14.3411 44.9992 2.17441 2.40921e-09 31640 44.9855 2.40847e-09 5.05241e-08 1508.73 1.8678e+10
15.1552 46.8956 2.56613 2.12747e-09 37484 46.8154 2.12383e-09 4.33417e-08 1839.94 2.20429e+10
16.0156 49.3855 3.02843 1.89842e-09 43856 49.3147 1.8957e-09 3.71677e-08 2240.04 2.6014e+10
16.9247 51.9264 3.574 1.69139e-09 51362 51.8503 1.68891e-09 3.18628e-08 2726.47 3.07005e+10
17.8855 54.5729 4.21787 1.50624e-09 61636 54.4763 1.50357e-09 2.73063e-08 3399.89 3.62312e+10
18.9008 58.5307 4.97773 1.36887e-09 72218 58.4077 1.36599e-09 2.33941e-08 4225.72 4.27584e+10
19.9738 61.1152 5.87448 1.21113e-09 84586 61.0121 1.20908e-09 2.00364e-08 5112.92 5.04614e+10
21.1076 64.3688 6.93279 1.08088e-09 100708 64.2858 1.07949e-09 1.71555e-08 6345.09 5.95522e+10
22.3058 68.1122 8.18175 9.69145e-10 118712 67.9853 9.6734e-10 1.46847e-08 7834.65 7.02807e+10
23.5721 70.7867 9.65571 8.53448e-10 140410 70.6421 8.51705e-10 1.25662e-08 9536.14 8.29419e+10
24.9102 74.8561 11.3952 7.64742e-10 164374 74.7195 7.63347e-10 1.07504e-08 11693 9.78842e+10
26.3243 78.1595 13.4481 6.76598e-10 194680 78.0306 6.75483e-10 9.19452e-09 14325.9 1.15518e+11
27.8187 82.5497 15.8708 6.05517e-10 230196 82.421 6.04573e-10 7.86182e-09 17729.7 1.36329e+11
29.3979 86.4658 18.73 5.37424e-10 271156 86.3326 5.36596e-10 6.72061e-09 21683.4 1.60889e+11
31.0667 90.6249 22.1042 4.7729e-10 321076 90.4876 4.76567e-10 5.74366e-09 26681 1.89874e+11
32.8303 96.0284 26.0864 4.28545e-10 377436 95.8597 4.27792e-10 4.90756e-09 32959 2.2408e+11
34.694 100.889 30.7859 3.81506e-10 447594 100.705 3.8081e-10 4.19221e-09 40732.6 2.64449e+11
36.6634 105.776 36.3321 3.38929e-10 525078 105.587 3.38323e-10 3.58032e-09 49706.2 3.1209e+11
38.7447 111.528 42.8774 3.02807e-10 621924 111.334 3.02281e-10 3.05709e-09 61602.1 3.68314e+11
40.9442 117.654 50.6018 2.70676e-10 732630 117.44 2.70184e-10 2.60976e-09 75986.1 4.34667e+11
43.2685 124.484 59.7179 2.42672e-10 865596 124.264 2.42243e-10 2.22743e-09 94304.1 5.12973e+11
45.7247 131.836 70.4762 2.17772e-10 1.02168e+06 131.595 2.17373e-10 1.90073e-09 117056 6.05386e+11
48.3204 140.063 83.1727 1.96044e-10 1.20544e+06 139.79 1.95662e-10 1.62163e-09 145729 7.14448e+11
51.0634 149.148 98.1565 1.76892e-10 1.42103e+06 148.857 1.76547e-10 1.38326e-09 181723 8.43158e+11
53.9621 158.555 115.84 1.59343e-10 1.67997e+06 158.259 1.59046e-10 1.1797e-09 226914 9.95055e+11
57.0254 169.658 136.709 1.44474e-10 1.98018e+06 169.32 1.44186e-10 1.00592e-09 284400 1.17432e+12
60.2626 182.401 161.337 1.31614e-10 2.33957e+06 182.013 1.31335e-10 8.57591e-10 359053 1.38587e+12
63.6835 197.248 190.402 1.20601e-10 2.75676e+06 196.817 1.20337e-10 7.3101e-10 454807 1.63554e+12
67.2987 214.127 224.704 1.10936e-10 3.25638e+06 213.666 1.10697e-10 6.23009e-10 579846 1.93019e+12
71.1191 233.58 265.185 1.02541e-10 3.84387e+06 233.051 1.02309e-10 5.30879e-10 742455 2.27792e+12
75.1563 256.697 312.958 9.54871e-11 4.53277e+06 256.076 9.52562e-11 4.52303e-10 956925 2.68829e+12
79.4227 282.999 369.339 8.92012e-11 5.35083e+06 282.328 8.89896e-11 3.85299e-10 1.23878e+06 3.17259e+12
83.9313 314.657 435.876 8.40397e-11 6.32174e+06 313.859 8.38265e-11 3.28173e-10 1.61889e+06 3.74415e+12
88.6959 351.42 514.4 7.95309e-11 7.44986e+06 350.508 7.93244e-11 2.79476e-10 2.12002e+06 4.41866e+12
93.7309 395.28 607.071 7.58011e-11 8.79764e+06 394.224 7.55987e-11 2.37972e-10 2.8023e+06 5.2147e+12
99.0518 447.052 716.436 7.26425e-11 1.03827e+07 445.826 7.24432e-11 2.02605e-10 3.72264e+06 6.15414e+12
104.675 507.972 845.504 6.99414e-11 1.22515e+07 506.529 6.97427e-11 1.72471e-10 4.9683e+06 7.26283e+12
110.617 580.371 997.824 6.77114e-11 1.44573e+07 578.682 6.75144e-11 1.468e-10 6.66843e+06 8.57124e+12
116.896 666.36 1177.58 6.5876e-11 1.70664e+07 664.374 6.56796e-11 1.24935e-10 8.99882e+06 1.01154e+13
123.532 768.599 1389.73 6.43842e-11 2.0139e+07 766.266 6.41888e-11 1.06313e-10 1.21964e+07 1.19377e+13
130.545 889.619 1640.09 6.3146e-11 2.37643e+07 886.876 6.29513e-11 9.04567e-11 1.65894e+07 1.40883e+13
137.955 1033.02 1935.56 6.21318e-11 2.80503e+07 1029.81 6.19386e-11 7.69563e-11 2.26468e+07 1.66263e+13
145.787 1203.32 2284.26 6.13262e-11 3.30981e+07 1199.53 6.11329e-11 6.54636e-11 3.10063e+07 1.96216e+13
154.063 1404.68 2695.77 6.06605e-11 3.90634e+07 1400.22 6.04678e-11 5.56812e-11 4.25567e+07 2.31565e+13
162.808 1643.25 3181.42 6.01303e-11 4.61057e+07 1637.97 5.99368e-11 4.73556e-11 5.85432e+07 2.73282e+13
172.051 1926.51 3754.56 5.9734e-11 5.44046e+07 1920.26 5.95403e-11 4.02708e-11 8.06987e+07 3.22515e+13
181.818 2262.91 4430.96 5.94539e-11 6.42064e+07 2255.49 5.9259e-11 3.42426e-11 1.11479e+08 3.80616e+13
192.139 2661.71 5229.21 5.92563e-11 7.57748e+07 2652.88 5.90598e-11 2.91139e-11 1.54227e+08 4.49186e+13
203.046 3136.21 6171.26 5.91617e-11 8.94213e+07 3125.8 5.89654e-11 2.4751e-11 2.13741e+08 5.30108e+13
214.572 3700.47 7283.03 5.91499e-11 1.05538e+08 3688.08 5.8952e-11 2.10401e-11 2.967e+08 6.25608e+13
226.753 4373.43 8595.09 5.92354e-11 1.24552e+08 4358.75 5.90366e-11 1.78839e-11 4.12542e+08 7.38313e+13
239.625 5176.38 10143.5 5.94084e-11 1.46987e+08 5158.76 5.92062e-11 1.51999e-11 5.74495e+08 8.71322e+13
253.228 6141.04 11970.9 5.97207e-11 1.7347e+08 6120.04 5.95165e-11 1.29176e-11 8.01986e+08 1.02829e+14
267.603 7303.28 14127.5 6.01815e-11 2.04703e+08 7278 5.99731e-11 1.09771e-11 1.12227e+09 1.21354e+14
282.795 8713.86 16672.6 6.0844e-11 2.4161e+08 8683.24 6.06301e-11 9.3274e-12 1.57606e+09 1.43217e+14
298.848 10441.8 19676.2 6.17794e-11 2.85122e+08 10404.3 6.15577e-11 7.925e-12 2.22268e+09 1.69017e+14
315.813 12585.3 23220.9 6.30949e-11 3.36491e+08 12539 6.28626e-11 6.73295e-12 3.15328e+09 1.99466e+14
333.741 15286.5 27404.3 6.49382e-11 3.97115e+08 15228.2 6.46907e-11 5.71979e-12 4.50855e+09 2.35401e+14
352.686 18771.1 32341.2 6.75685e-11 4.68637e+08 18696.4 6.72996e-11 4.85874e-12 6.51714e+09 2.77809e+14
372.707 23405.2 38167.6 7.13884e-11 5.53074e+08 23306.5 7.10873e-11 4.12703e-12 9.56695e+09 3.27857e+14
393.865 29806.5 45043.5 7.7035e-11 6.52716e+08 29670.9 7.66847e-11 3.50528e-12 1.43446e+10 3.86921e+14
416.224 35184 53158.3 7.70522e-11 2.2184e+08 37221.4 8.15141e-11 2.97701e-12 5.74175e+09 4.56626e+14
439.852 0 62734.9 0 0 0 0 2.52819e-12 0 5.38888e+14
464.821 0 74036.7 0 0 0 0 2.1469e-12 0 6.35971e+14
491.207 0 87374.6 0 0 0 0 1.82301e-12 0 7.50542e+14
519.092 0 103115 0 0 0 0 1.54789e-12 0 8.85755e+14
548.56 0 121692 0 0 0 0 1.31422e-12 0 1.04533e+15
579.7 0 143615 0 0 0 0 1.11576e-12 0 1.23364e+15
612.608 0 169488 0 0 0 0 9.47223e-13 0 1.45589e+15
647.384 0 200021 0 0 0 0 8.041e-13 0 1.71817e+15
684.134 0 236056 0 0 0 0 6.82568e-13 0 2.0277e+15
722.971 0 278582 0 0 0 0 5.79376e-13 0 2.393e+15
764.012 0 328769 0 0 0 0 4.91762e-13 0 2.8241e+15
0.418518
200
1.0655e+09
8589934592
0.0129181 0.000538297 1.58924e-09 3.94315e-05 6 0.000533369 3.90705e-05 0.00677225 0.034935 13.6515
0.0136515 0 1.87554e-09 0 0 0 0 0.00688819 0 16.1108
0.0144264 0 2.21343e-09 0 0 0 0 0.00699249 0 19.0132
0.0152454 0 2.61218e-09 0 0 0 0 0.00708412 0 22.4385
0.0161108 0 3.08278e-09 0 0 0 0 0.00716212 0 26.4808
0.0170254 0 3.63815e-09 0 0 0 0 0.00722559 0 31.2514
0.0179919 0.000983901 4.29357e-09 2.66774e-05 12 0.000982634 2.6643e-05 0.00727371 0.0440118 36.8815
0.0190132 0 5.06707e-09 0 0 0 0 0.00730578 0 43.5258
0.0200925 0 5.97991e-09 0 0 0 0 0.00732122 0 51.367
0.0212331 0.00447142 7.05721e-09 7.37603e-05 8 0.00446753 7.36961e-05 0.00731958 0.080617 60.621
0.0224385 0 8.32858e-09 0 0 0 0 0.00730056 0 71.542
0.0237123 0 9.829e-09 0 0 0 0 0.00726401 0 84.4305
0.0250583 0.0036625 1.15997e-08 3.67571e-05 6 0.00366078 3.67398e-05 0.00720995 0.0305886 99.6408
0.0264808 0 1.36894e-08 0 0 0 0 0.00713857 0 117.591
0.0279841 0.00740554 1.61556e-08 5.33633e-05 24 0.00739794 5.33085e-05 0.00705021 0.181657 138.776
0.0295727 0 1.90661e-08 0 0 0 0 0.00694538 0 163.777
0.0312514 0.0133646 2.25009e-08 6.91458e-05 24 0.0134325 6.94969e-05 0.00682475 0.243159 193.281
0.0330255 0 2.65545e-08 0 0 0 0 0.00668915 0 228.102
0.0349003 0.00465855 3.13384e-08 1.73055e-05 12 0.00462125 1.71669e-05 0.00653951 0.0317556 269.195
0.0368815 0.0157207 3.69841e-08 4.94842e-05 30 0.0155533 4.89573e-05 0.00637693 0.232797 317.691
0.0389751 0.0177982 4.36469e-08 4.74716e-05 24 0.0176151 4.69833e-05 0.00620256 0.183685 374.924
0.0411876 0.0184651 5.151e-08 4.1732e-05 24 0.0183397 4.14486e-05 0.00601767 0.166438 442.467
0.0435258 0.010864 6.07896e-08 2.0805e-05 8 0.0108631 2.08035e-05 0.00582358 0.0285804 522.179
0.0459966 0.0158469 7.1741e-08 2.5715e-05 72 0.0157871 2.5618e-05 0.00562166 0.329347 616.251
0.0486077 0 8.46654e-08 0 0 0 0 0.0054133 0 727.27
0.051367 0.0307906 9.99181e-08 3.58744e-05 54 0.0306285 3.56855e-05 0.00519989 0.372549 858.29
0.054283 0.0330422 1.17919e-07 3.2621e-05 60 0.0332069 3.27836e-05 0.0049828 0.392803 1012.91
0.0573645 0.046138 1.39162e-07 3.85966e-05 96 0.0458991 3.83967e-05 0.00476339 0.777865 1195.39
0.060621 0.0351382 1.64232e-07 2.49076e-05 24 0.0346622 2.45701e-05 0.00454293 0.131585 1410.75
0.0640622 0.0377718 1.93819e-07 2.26872e-05 134 0.037739 2.26675e-05 0.00432265 0.703292 1664.89
0.0676989 0.0409674 2.28736e-07 2.08503e-05 120 0.0406829 2.07056e-05 0.00410371 0.609702 1964.83
0.071542 0.0526005 2.69944e-07 2.26844e-05 108 0.0517961 2.23375e-05 0.00388717 0.630255 2318.8
0.0756032 0.0520358 3.18575e-07 1.90152e-05 174 0.0518246 1.8938e-05 0.00367401 0.900555 2736.54
0.079895 0.0602514 3.75967e-07 1.86564e-05 168 0.0596623 1.8474e-05 0.0034651 0.904527 3229.53
0.0844305 0.0665841 4.43698e-07 1.747e-05 168 0.0669094 1.75553e-05 0.00326121 0.899961 3811.34
0.0892234 0.0622814 5.23632e-07 1.38466e-05 290 0.0620896 1.38039e-05 0.00306301 1.31097 4497.96
0.0942883 0.071648 6.17966e-07 1.34974e-05 288 0.0715686 1.34824e-05 0.00287109 1.35393 5308.28
0.0996408 0.0689763 7.29294e-07 1.10105e-05 366 0.0685243 1.09384e-05 0.00268591 1.50037 6264.59
0.105297 0.100744 8.60678e-07 1.36266e-05 420 0.0997523 1.34925e-05 0.00250785 2.28211 7393.17
0.111275 0.09513 1.01573e-06 1.09031e-05 398 0.0951193 1.09018e-05 0.00233721 1.85666 8725.07
0.117591 0.111238 1.19872e-06 1.0803e-05 624 0.111436 1.08223e-05 0.00217419 3.10051 10296.9
0.124267 0.135569 1.41467e-06 1.11562e-05 642 0.135093 1.1117e-05 0.00201893 3.54757 12151.9
0.131321 0.133744 1.66953e-06 9.32594e-06 800 0.133696 9.32257e-06 0.00187147 3.98658 14341.1
0.138776 0.133109 1.9703e-06 7.86476e-06 858 0.133471 7.88618e-06 0.00173182 3.89647 16924.7
0.146654 0.163697 2.32525e-06 8.1956e-06 1080 0.16484 8.25282e-06 0.00159991 5.53234 19973.8
0.154979 0.159381 2.74415e-06 6.76143e-06 1286 0.160457 6.80707e-06 0.00147563 5.89251 23572.1
0.163777 0.171574 3.23852e-06 6.1676e-06 1650 0.171861 6.1779e-06 0.00135884 7.48914 27818.7
0.173074 0.188385 3.82195e-06 5.73815e-06 1778 0.188447 5.74004e-06 0.00124933 8.16632 32830.3
0.182899 0.208048 4.51048e-06 5.36971e-06 2112 0.208492 5.38118e-06 0.00114689 9.88831 38744.7
0.193281 0.229621 5.32305e-06 5.02182e-06 2570 0.229764 5.02494e-06 0.00105127 12.2766 45724.7
0.204254 0.243541 6.28202e-06 4.51319e-06 3030 0.243806 4.51809e-06 0.000962209 14.2121 53962.1
0.215848 0.252626 7.41374e-06 3.9669e-06 3434 0.252684 3.96781e-06 0.000879423 15.4901 63683.5
0.228102 0.271419 8.74934e-06 3.61139e-06 4218 0.271459 3.61192e-06 0.000802624 18.9788 75156.3
0.24105 0.294266 1.03256e-05 3.3177e-06 4766 0.29429 3.31796e-06 0.000731515 21.6156 88695.9
0.254734 0.322533 1.21857e-05 3.08129e-06 6026 0.322219 3.07829e-06 0.000665798 27.8881 104675
0.269195 0.36569 1.4381e-05 2.96029e-06 6480 0.365721 2.96053e-06 0.000605173 31.6978 123532
0.284476 0.374822 1.69718e-05 2.57103e-06 8162 0.375248 2.57395e-06 0.000549345 38.1996 145787
0.300625 0.411623 2.00293e-05 2.39245e-06 9578 0.411569 2.39214e-06 0.000498021 46.012 172051
0.317691 0.438996 2.36377e-05 2.16205e-06 11234 0.438528 2.15975e-06 0.000450916 53.8647 203046
0.335725 0.470741 2.78961e-05 1.96449e-06 13344 0.470303 1.96266e-06 0.000407755 64.2888 239625
0.354784 0.50828 3.29216e-05 1.79735e-06 15464 0.507974 1.79627e-06 0.000368269 75.4725 282795
0.374924 0.549038 3.88525e-05 1.6451e-06 18458 0.548518 1.64354e-06 0.000332202 91.4062 333741
0.396207 0.604019 4.58519e-05 1.53357e-06 22232 0.603127 1.5313e-06 0.000299307 113.911 393865
0.418699 0.659399 5.41123e-05 1.41861e-06 25628 0.657894 1.41537e-06 0.00026935 134.977 464821
0.442467 0.713294 6.38607e-05 1.3003e-06 30320 0.712153 1.29822e-06 0.000242108 162.842 548560
0.467585 0.765804 7.53654e-05 1.18292e-06 35452 0.764667 1.18116e-06 0.00021737 192.928 647384
0.494129 0.829401 8.89427e-05 1.08559e-06 41792 0.829337 1.0855e-06 0.000194938 232.734 764012
0.522179 0.895155 0.000104966 9.92795e-07 49988 0.894449 9.92012e-07 0.000174625 284.197 901651
0.551822 0.988302 0.000123876 9.28781e-07 59110 0.987598 9.28119e-07 0.000156255 351.351 1.06409e+06
0.583147 1.06173 0.000146192 8.45469e-07 69716 1.06017 8.44226e-07 0.000139664 422.032 1.25578e+06
0.616251 1.17003 0.000172529 7.89485e-07 82210 1.16815 7.88214e-07 0.0001247 520.478 1.48202e+06
0.651234 1.26306 0.000203611 7.22161e-07 96722 1.26036 7.20616e-07 0.00011122 628.022 1.74901e+06
0.688203 1.37298 0.000240292 6.65175e-07 113098 1.37084 6.64134e-07 9.90935e-05 759.182 2.06409e+06
0.72727 1.50598 0.000283581 6.18233e-07 135190 1.50361 6.1726e-07 8.81969e-05 947.639 2.43595e+06
0.768555 1.65394 0.000334669 5.75328e-07 158170 1.65148 5.74471e-07 7.84179e-05 1160.44 2.87479e+06
0.812184 1.8168 0.000394961 5.35505e-07 188560 1.81437 5.3479e-07 6.96525e-05 1449.69 3.39269e+06
0.85829 1.98009 0.000466114 4.94541e-07 220444 1.97698 4.93764e-07 6.1805e-05 1763.91 4.00389e+06
0.907013 2.17428 0.000550086 4.60144e-07 261388 2.17137 4.59529e-07 5.47875e-05 2195.32 4.7252e+06
0.958501 2.38887 0.000649185 4.28384e-07 308244 2.38536 4.27756e-07 4.85194e-05 2721.53 5.57646e+06
1.01291 2.63326 0.000766138 4.00126e-07 364396 2.62867 3.99429e-07 4.29272e-05 3396.55 6.58107e+06
1.07041 2.89028 0.00090416 3.72139e-07 429162 2.88508 3.71469e-07 3.79435e-05 4209.1 7.76667e+06
1.13118 3.19646 0.00106705 3.48735e-07 506358 3.19099 3.48138e-07 3.3507e-05 5270.08 9.16586e+06
1.19539 3.52663 0.00125928 3.26023e-07 598590 3.5205 3.25457e-07 2.9562e-05 6601.52 1.08171e+07
1.26325 3.90059 0.00148614 3.05549e-07 704844 3.89399 3.05032e-07 2.60578e-05 8264.86 1.27658e+07
1.33496 4.31842 0.00175387 2.8664e-07 834620 4.3103 2.86101e-07 2.29484e-05 10424.9 1.50656e+07
1.41075 4.76076 0.00206984 2.67763e-07 981444 4.75163 2.6725e-07 2.01923e-05 13014.6 1.77798e+07
1.49083 5.27693 0.00244272 2.51488e-07 1.15998e+06 5.2672 2.51024e-07 1.77518e-05 16433.3 2.09828e+07
1.57546 5.8485 0.00288279 2.36179e-07 1.36931e+06 5.838 2.35755e-07 1.55929e-05 20740.4 2.4763e+07
1.66489 6.47914 0.00340213 2.21706e-07 1.61652e+06 6.46651 2.21274e-07 1.3685e-05 26188.5 2.92241e+07
1.75941 7.1608 0.00401503 2.07626e-07 1.90601e+06 7.14662 2.07215e-07 1.20007e-05 32976.2 3.44889e+07
1.85928 7.94148 0.00473835 1.95112e-07 2.24913e+06 7.92617 1.94736e-07 1.05151e-05 41733.5 4.07021e+07
1.96483 8.79282 0.00559198 1.83051e-07 2.65744e+06 8.77548 1.8269e-07 9.20606e-06 52840 4.80347e+07
2.07637 9.72496 0.00659939 1.71551e-07 3.13125e+06 9.70518 1.71203e-07 8.05366e-06 66699 5.66883e+07
2.19424 10.758 0.00778828 1.60805e-07 3.69915e+06 10.7372 1.60494e-07 7.04008e-06 84493.5 6.69008e+07
2.3188 11.8867 0.00919136 1.50553e-07 4.36472e+06 11.8631 1.50254e-07 6.1494e-06 106860 7.89532e+07
2.45043 13.0931 0.0108472 1.40519e-07 5.14913e+06 13.0681 1.4025e-07 5.36741e-06 134804 9.31768e+07
2.58954 14.4435 0.0128014 1.31349e-07 6.07894e+06 14.4159 1.31098e-07 4.68145e-06 170559 1.09963e+08
2.73654 15.907 0.0151076 1.22576e-07 7.17304e+06 15.8767 1.22342e-07 4.08023e-06 215488 1.29773e+08
2.89188 17.4674 0.0178292 1.14053e-07 8.46557e+06 17.4341 1.13835e-07 3.55373e-06 271692 1.53152e+08
3.05605 19.1495 0.0210412 1.05949e-07 9.98773e+06 19.114 1.05753e-07 3.09304e-06 342119 1.80743e+08
3.22953 20.9623 0.0248319 9.82741e-08 1.1797e+07 20.9232 9.80912e-08 2.69025e-06 430941 2.13304e+08
3.41286 22.8971 0.0293054 9.09586e-08 1.39144e+07 22.8536 9.07857e-08 2.33837e-06 541245 2.51731e+08
3.6066 24.9553 0.0345848 8.40016e-08 1.64163e+07 24.9096 8.38476e-08 2.0312e-06 678905 2.97081e+08
3.81134 27.1513 0.0408154 7.7442e-08 1.93821e+07 27.1021 7.73017e-08 1.76327e-06 851256 3.50601e+08
4.0277 29.4342 0.0481684 7.11378e-08 2.28754e+07 29.381 7.10092e-08 1.52972e-06 1.06379e+06 4.13763e+08
4.25634 31.8799 0.056846 6.52871e-08 2.69929e+07 31.822 6.51684e-08 1.32631e-06 1.32872e+06 4.88304e+08
4.49796 34.4096 0.067087 5.97106e-08 3.18542e+07 34.3487 5.9605e-08 1.14926e-06 1.65501e+06 5.76273e+08
4.7533 37.0735 0.0791729 5.45127e-08 3.75892e+07 37.0073 5.44153e-08 9.95263e-07 2.05884e+06 6.8009e+08
5.02313 39.8712 0.0934361 4.96769e-08 4.43706e+07 39.8003 4.95886e-08 8.61414e-07 2.55881e+06 8.0261e+08
5.30828 42.771 0.110269 4.51551e-08 5.23593e+07 42.6968 4.50767e-08 7.45152e-07 3.17289e+06 9.47202e+08
5.60962 45.8156 0.130134 4.09857e-08 6.1787e+07 45.7367 4.09151e-08 6.44232e-07 3.93086e+06 1.11784e+09
5.92807 48.9706 0.153578 3.71207e-08 7.29346e+07 48.8864 3.70569e-08 5.56685e-07 4.8634e+06 1.31923e+09
6.26459 52.2406 0.181246 3.35545e-08 8.60651e+07 52.1508 3.34968e-08 4.80786e-07 6.00656e+06 1.55689e+09
6.62021 55.6528 0.213898 3.02895e-08 1.01558e+08 55.5584 3.02381e-08 4.15026e-07 7.41193e+06 1.83737e+09
6.99602 59.1992 0.252432 2.73012e-08 1.1986e+08 59.0998 2.72554e-08 3.58083e-07 9.13846e+06 2.16837e+09
7.39317 62.881 0.297908 2.45724e-08 1.41457e+08 62.7756 2.45312e-08 3.08803e-07 1.12561e+07 2.55901e+09
7.81286 66.7468 0.351577 2.21014e-08 1.66936e+08 66.6356 2.20646e-08 2.66181e-07 1.38609e+07 3.02002e+09
8.25637 70.7957 0.414914 1.98636e-08 1.97025e+08 70.6773 1.98304e-08 2.29336e-07 1.70651e+07 3.56409e+09
8.72507 75.0853 0.489662 1.78512e-08 2.32497e+08 74.9588 1.78212e-08 1.97503e-07 2.10141e+07 4.20617e+09
9.22037 79.6567 0.577876 1.60471e-08 2.74404e+08 79.5217 1.60199e-08 1.70014e-07 2.59002e+07 4.96392e+09
9.74378 84.6585 0.681982 1.44513e-08 3.2382e+08 84.511 1.44261e-08 1.46289e-07 3.19889e+07 5.85818e+09
10.2969 90.2793 0.804843 1.30583e-08 3.82165e+08 90.1159 1.30347e-08 1.25822e-07 3.96624e+07 6.91355e+09
10.8814 96.9927 0.949838 1.18878e-08 4.51027e+08 96.8049 1.18647e-08 1.08175e-07 4.95648e+07 8.15905e+09
11.4992 105.519 1.12095 1.09585e-08 5.32251e+08 105.292 1.0935e-08 9.29669e-08 6.27393e+07 9.62892e+09
12.1519 117.505 1.3229 1.03404e-08 6.28157e+08 117.208 1.03143e-08 7.98658e-08 8.13293e+07 1.13636e+10
12.8418 130.934 1.56122 9.76333e-09 3.82727e+08 135.519 1.01053e-08 6.85852e-08 5.44824e+07 1.34108e+10
13.5708 0 1.84248 0 0 0 0 5.88765e-08 0 1.58268e+10
14.3411 0 2.17441 0 0 0 0 5.05241e-08 0 1.8678e+10
15.1552 0 2.56613 0 0 0 0 4.33417e-08 0 2.20429e+10
16.0156 0 3.02843 0 0 0 0 3.71677e-08 0 2.6014e+10
16.9247 0 3.574 0 0 0 0 3.18628e-08 0 3.07005e+10
17.8855 0 4.21787 0 0 0 0 2.73063e-08 0 3.62312e+10
18.9008 0 4.97773 0 0 0 0 2.33941e-08 0 4.27584e+10
19.9738 0 5.87448 0 0 0 0 2.00364e-08 0 5.04614e+10
21.1076 0 6.93279 0 0 0 0 1.71555e-08 0 5.95522e+10
22.3058 0 8.18175 0 0 0 0 1.46847e-08 0 7.02807e+10
23.5721 0 9.65571 0 0 0 0 1.25662e-08 0 8.29419e+10
24.9102 0 11.3952 0 0 0 0 1.07504e-08 0 9.78842e+10
26.3243 0 13.4481 0 0 0 0 9.19452e-09 0 1.15518e+11
27.8187 0 15.8708 0 0 0 0 7.86182e-09 0 1.36329e+11
29.3979 0 18.73 0 0 0 0 6.72061e-09 0 1.60889e+11
31.0667 0 22.1042 0 0 0 0 5.74366e-09 0 1.89874e+11
32.8303 0 26.0864 0 0 0 0 4.90756e-09 0 2.2408e+11
34.694 0 30.7859 0 0 0 0 4.19221e-09 0 2.64449e+11
36.6634 0 36.3321 0 0 0 0 3.58032e-09 0 3.1209e+11
38.7447 0 42.8774 0 0 0 0 3.05709e-09 0 3.68314e+11
40.9442 0 50.6018 0 0 0 0 2.60976e-09 0 4.34667e+11
43.2685 0 59.7179 0 0 0 0 2.22743e-09 0 5.12973e+11
45.7247 0 70.4762 0 0 0 0 1.90073e-09 0 6.05386e+11
48.3204 0 83.1727 0 0 0 0 1.62163e-09 0 7.14448e+11
51.0634 0 98.1565 0 0 0 0 1.38326e-09 0 8.43158e+11
53.9621 0 115.84 0 0 0 0 1.1797e-09 0 9.95055e+11
57.0254 0 136.709 0 0 0 0 1.00592e-09 0 1.17432e+12
60.2626 0 161.337 0 0 0 0 8.57591e-10 0 1.38587e+12
63.6835 0 190.402 0 0 0 0 7.3101e-10 0 1.63554e+12
67.2987 0 224.704 0 0 0 0 6.23009e-10 0 1.93019e+12
71.1191 0 265.185 0 0 0 0 5.30879e-10 0 2.27792e+12
75.1563 0 312.958 0 0 0 0 4.52303e-10 0 2.68829e+12
79.4227 0 369.339 0 0 0 0 3.85299e-10 0 3.17259e+12
83.9313 0 435.876 0 0 0 0 3.28173e-10 0 3.74415e+12
88.6959 0 514.4 0 0 0 0 2.79476e-10 0 4.41866e+12
93.7309 0 607.071 0 0 0 0 2.37972e-10 0 5.2147e+12
99.0518 0 716.436 0 0 0 0 2.02605e-10 0 6.15414e+12
104.675 0 845.504 0 0 0 0 1.72471e-10 0 7.26283e+12
110.617 0 997.824 0 0 0 0 1.468e-10 0 8.57124e+12
116.896 0 1177.58 0 0 0 0 1.24935e-10 0 1.01154e+13
123.532 0 1389.73 0 0 0 0 1.06313e-10 0 1.19377e+13
130.545 0 1640.09 0 0 0 0 9.04567e-11 0 1.40883e+13
137.955 0 1935.56 0 0 0 0 7.69563e-11 0 1.66263e+13
145.787 0 2284.26 0 0 0 0 6.54636e-11 0 1.96216e+13
154.063 0 2695.77 0 0 0 0 5.56812e-11 0 2.31565e+13
162.808 0 3181.42 0 0 0 0 4.73556e-11 0 2.73282e+13
172.051 0 3754.56 0 0 0 0 4.02708e-11 0 3.22515e+13
181.818 0 4430.96 0 0 0 0 3.42426e-11 0 3.80616e+13
192.139 0 5229.21 0 0 0 0 2.91139e-11 0 4.49186e+13
203.046 0 6171.26 0 0 0 0 2.4751e-11 0 5.30108e+13
214.572 0 7283.03 0 0 0 0 2.10401e-11 0 6.25608e+13
226.753 0 8595.09 0 0 0 0 1.78839e-11 0 7.38313e+13
239.625 0 10143.5 0 0 0 0 1.51999e-11 0 8.71322e+13
253.228 0 11970.9 0 0 0 0 1.29176e-11 0 1.02829e+14
267.603 0 14127.5 0 0 0 0 1.09771e-11 0 1.21354e+14
282.795 0 16672.6 0 0 0 0 9.3274e-12 0 1.43217e+14
298.848 0 19676.2 0 0 0 0 7.925e-12 0 1.69017e+14
315.813 0 23220.9 0 0 0 0 6.73295e-12 0 1.99466e+14
333.741 0 27404.3 0 0 0 0 5.71979e-12 0 2.35401e+14
352.686 0 32341.2 0 0 0 0 4.85874e-12 0 2.77809e+14
372.707 0 38167.6 0 0 0 0 4.12703e-12 0 3.27857e+14
393.865 0 45043.5 0 0 0 0 3.50528e-12 0 3.86921e+14
416.224 0 53158.3 0 0 0 0 2.97701e-12 0 4.56626e+14
439.852 0 62734.9 0 0 0 0 2.52819e-12 0 5.38888e+14
464.821 0 74036.7 0 0 0 0 2.1469e-12 0 6.35971e+14
491.207 0 87374.6 0 0 0 0 1.82301e-12 0 7.50542e+14
519.092 0 103115 0 0 0 0 1.54789e-12 0 8.85755e+14
548.56 0 121692 0 0 0 0 1.31422e-12 0 1.04533e+15
579.7 0 143615 0 0 0 0 1.11576e-12 0 1.23364e+15
612.608 0 169488 0 0 0 0 9.47223e-13 0 1.45589e+15
647.384 0 200021 0 0 0 0 8.041e-13 0 1.71817e+15
684.134 0 236056 0 0 0 0 6.82568e-13 0 2.0277e+15
722.971 0 278582 0 0 0 0 5.79376e-13 0 2.393e+15
764.012 0 328769 0 0 0 0 4.91762e-13 0 2.8241e+15
