0.277029
200
1.0655e+09
8589934592
0.0129181 0 1.58924e-09 0 0 0 0 0.00677225 0 13.6515
0.0136515 0 1.87554e-09 0 0 0 0 0.00688819 0 16.1108
0.0144264 0 2.21343e-09 0 0 0 0 0.00699249 0 19.0132
0.0152454 0 2.61218e-09 0 0 0 0 0.00708412 0 22.4385
0.0161108 0 3.08278e-09 0 0 0 0 0.00716212 0 26.4808
0.0170254 0 3.63815e-09 0 0 0 0 0.00722559 0 31.2514
0.0179919 0 4.29357e-09 0 0 0 0 0.00727371 0 36.8815
0.0190132 0 5.06707e-09 0 0 0 0 0.00730578 0 43.5258
0.0200925 0 5.97991e-09 0 0 0 0 0.00732122 0 51.367
0.0212331 0 7.05721e-09 0 0 0 0 0.00731958 0 60.621
0.0224385 0 8.32858e-09 0 0 0 0 0.00730056 0 71.542
0.0237123 0 9.829e-09 0 0 0 0 0.00726401 0 84.4305
0.0250583 0 1.15997e-08 0 0 0 0 0.00720995 0 99.6408
0.0264808 0 1.36894e-08 0 0 0 0 0.00713857 0 117.591
0.0279841 0 1.61556e-08 0 0 0 0 0.00705021 0 138.776
0.0295727 0 1.90661e-08 0 0 0 0 0.00694538 0 163.777
0.0312514 0 2.25009e-08 0 0 0 0 0.00682475 0 193.281
0.0330255 0 2.65545e-08 0 0 0 0 0.00668915 0 228.102
0.0349003 0 3.13384e-08 0 0 0 0 0.00653951 0 269.195
0.0368815 0 3.69841e-08 0 0 0 0 0.00637693 0 317.691
0.0389751 0 4.36469e-08 0 0 0 0 0.00620256 0 374.924
0.0411876 0 5.151e-08 0 0 0 0 0.00601767 0 442.467
0.0435258 0 6.07896e-08 0 0 0 0 0.00582358 0 522.179
0.0459966 0 7.1741e-08 0 0 0 0 0.00562166 0 616.251
0.0486077 0 8.46654e-08 0 0 0 0 0.0054133 0 727.27
0.051367 0 9.99181e-08 0 0 0 0 0.00519989 0 858.29
0.054283 0 1.17919e-07 0 0 0 0 0.0049828 0 1012.91
0.0573645 0 1.39162e-07 0 0 0 0 0.00476339 0 1195.39
0.060621 0 1.64232e-07 0 0 0 0 0.00454293 0 1410.75
0.0640622 0 1.93819e-07 0 0 0 0 0.00432265 0 1664.89
0.0676989 0 2.28736e-07 0 0 0 0 0.00410371 0 1964.83
0.071542 0 2.69944e-07 0 0 0 0 0.00388717 0 2318.8
0.0756032 0 3.18575e-07 0 0 0 0 0.00367401 0 2736.54
0.079895 0 3.75967e-07 0 0 0 0 0.0034651 0 3229.53
0.0844305 0 4.43698e-07 0 0 0 0 0.00326121 0 3811.34
0.0892234 0 5.23632e-07 0 0 0 0 0.00306301 0 4497.96
0.0942883 0 6.17966e-07 0 0 0 0 0.00287109 0 5308.28
0.0996408 0 7.29294e-07 0 0 0 0 0.00268591 0 6264.59
0.105297 0 8.60678e-07 0 0 0 0 0.00250785 0 7393.17
0.111275 0 1.01573e-06 0 0 0 0 0.00233721 0 8725.07
0.117591 0 1.19872e-06 0 0 0 0 0.00217419 0 10296.9
0.124267 0 1.41467e-06 0 0 0 0 0.00201893 0 12151.9
0.131321 0 1.66953e-06 0 0 0 0 0.00187147 0 14341.1
0.138776 0 1.9703e-06 0 0 0 0 0.00173182 0 16924.7
0.146654 0 2.32525e-06 0 0 0 0 0.00159991 0 19973.8
0.154979 0 2.74415e-06 0 0 0 0 0.00147563 0 23572.1
0.163777 0 3.23852e-06 0 0 0 0 0.00135884 0 27818.7
0.173074 0 3.82195e-06 0 0 0 0 0.00124933 0 32830.3
0.182899 0 4.51048e-06 0 0 0 0 0.00114689 0 38744.7
0.193281 0 5.32305e-06 0 0 0 0 0.00105127 0 45724.7
0.204254 0 6.28202e-06 0 0 0 0 0.000962209 0 53962.1
0.215848 0 7.41374e-06 0 0 0 0 0.000879423 0 63683.5
0.228102 0 8.74934e-06 0 0 0 0 0.000802624 0 75156.3
0.24105 0 1.03256e-05 0 0 0 0 0.000731515 0 88695.9
0.254734 0 1.21857e-05 0 0 0 0 0.000665798 0 104675
0.269195 0 1.4381e-05 0 0 0 0 0.000605173 0 123532
0.284476 0 1.69718e-05 0 0 0 0 0.000549345 0 145787
0.300625 0 2.00293e-05 0 0 0 0 0.000498021 0 172051
0.317691 0 2.36377e-05 0 0 0 0 0.000450916 0 203046
0.335725 0 2.78961e-05 0 0 0 0 0.000407755 0 239625
0.354784 0 3.29216e-05 0 0 0 0 0.000368269 0 282795
0.374924 0 3.88525e-05 0 0 0 0 0.000332202 0 333741
0.396207 0.993278 4.58519e-05 2.52187e-06 6 0.965663 2.45176e-06 0.000299307 0.0505543 393865
0.418699 0 5.41123e-05 0 0 0 0 0.00026935 0 464821
0.442467 0 6.38607e-05 0 0 0 0 0.000242108 0 548560
0.467585 0 7.53654e-05 0 0 0 0 0.00021737 0 647384
0.494129 0 8.89427e-05 0 0 0 0 0.000194938 0 764012
0.522179 0 0.000104966 0 0 0 0 0.000174625 0 901651
0.551822 0 0.000123876 0 0 0 0 0.000156255 0 1.06409e+06
0.583147 5.53696 0.000146192 4.40917e-06 12 5.82768 4.64067e-06 0.000139664 0.378838 1.25578e+06
0.616251 0 0.000172529 0 0 0 0 0.0001247 0 1.48202e+06
0.651234 0 0.000203611 0 0 0 0 0.00011122 0 1.74901e+06
0.688203 24.0331 0.000240292 1.16434e-05 8 23.4352 1.13537e-05 9.90935e-05 0.939995 2.06409e+06
0.72727 0 0.000283581 0 0 0 0 8.81969e-05 0 2.43595e+06
0.768555 0 0.000334669 0 0 0 0 7.84179e-05 0 2.87479e+06
0.812184 0.76411 0.000394961 2.25222e-07 6 0.780446 2.30038e-07 6.96525e-05 0.0194011 3.39269e+06
0.85829 0 0.000466114 0 0 0 0 6.1805e-05 0 4.00389e+06
0.907013 0.570775 0.000550086 1.20794e-07 24 0.581727 1.23112e-07 5.47875e-05 0.0529145 4.7252e+06
0.958501 2.55758 0.000649185 4.58639e-07 24 2.40778 4.31775e-07 4.85194e-05 0.226865 5.57646e+06
1.01291 0 0.000766138 0 0 0 0 4.29272e-05 0 6.58107e+06
1.07041 0 0.00090416 0 0 0 0 3.79435e-05 0 7.76667e+06
1.13118 2.40748 0.00106705 2.62657e-07 12 2.37791 2.59431e-07 3.3507e-05 0.0940665 9.16586e+06
1.19539 1.75559 0.00125928 1.62297e-07 30 1.71939 1.58951e-07 2.9562e-05 0.164702 1.08171e+07
1.26325 7.17368 0.00148614 5.61943e-07 24 7.06573 5.53487e-07 2.60578e-05 0.517566 1.27658e+07
1.33496 20.6382 0.00175387 1.36989e-06 24 20.6836 1.3729e-06 2.29484e-05 1.43266 1.50656e+07
1.41075 8.83607 0.00206984 4.96974e-07 32 9.04886 5.08942e-07 2.01923e-05 0.787585 1.77798e+07
1.49083 1.80846 0.00244272 8.61878e-08 48 1.76991 8.43504e-08 1.77518e-05 0.233048 2.09828e+07
1.57546 1.62677 0.00288279 6.56938e-08 6 1.54905 6.25553e-08 1.55929e-05 0.0252784 2.4763e+07
1.66489 1.29581 0.00340213 4.43407e-08 84 1.25952 4.30988e-08 1.3685e-05 0.272167 2.92241e+07
1.75941 2.85661 0.00401503 8.2827e-08 48 2.85973 8.29176e-08 1.20007e-05 0.331289 3.44889e+07
1.85928 1.73328 0.00473835 4.25845e-08 72 1.74502 4.28731e-08 1.05151e-05 0.291589 4.07021e+07
1.96483 2.96495 0.00559198 6.17252e-08 54 2.89003 6.01655e-08 9.20606e-06 0.362061 4.80347e+07
2.07637 9.07067 0.00659939 1.6001e-07 104 9.02157 1.59143e-07 8.05366e-06 2.06627 5.66883e+07
2.19424 1.51461 0.00778828 2.26397e-08 120 1.53197 2.28991e-08 7.04008e-06 0.385899 6.69008e+07
2.3188 2.77328 0.00919136 3.51256e-08 156 2.67695 3.39055e-08 6.1494e-06 0.891078 7.89532e+07
2.45043 2.62955 0.0108472 2.8221e-08 126 2.60201 2.79255e-08 5.36741e-06 0.662489 9.31768e+07
2.58954 2.28199 0.0128014 2.07524e-08 192 2.30232 2.09372e-08 4.68145e-06 0.851117 1.09963e+08
2.73654 7.65962 0.0151076 5.90232e-08 152 7.89268 6.08191e-08 4.08023e-06 2.19878 1.29773e+08
2.89188 5.31454 0.0178292 3.47011e-08 378 5.385 3.51611e-08 3.55373e-06 3.69106 1.53152e+08
3.05605 2.82201 0.0210412 1.56134e-08 264 2.77425 1.53492e-08 3.09304e-06 1.33265 1.80743e+08
3.22953 2.34823 0.0248319 1.10089e-08 366 2.3246 1.08981e-08 2.69025e-06 1.49772 2.13304e+08
3.41286 3.15751 0.0293054 1.25432e-08 428 3.09991 1.23144e-08 2.33837e-06 2.29582 2.51731e+08
3.6066 5.90988 0.0345848 1.98931e-08 486 5.78341 1.94674e-08 2.0312e-06 4.75977 2.97081e+08
3.81134 3.30755 0.0408154 9.43392e-09 600 3.3148 9.45461e-09 1.76327e-06 3.21015 3.50601e+08
4.0277 3.91826 0.0481684 9.46982e-09 738 3.86644 9.34458e-09 1.52972e-06 4.56863 4.13763e+08
4.25634 4.84318 0.056846 9.91838e-09 824 4.86185 9.95662e-09 1.32631e-06 6.16204 4.88304e+08
4.49796 6.59994 0.067087 1.14528e-08 954 6.59539 1.14449e-08 1.14926e-06 9.50699 5.76273e+08
4.7533 4.82511 0.0791729 7.09481e-09 1094 4.79846 7.05562e-09 9.95263e-07 7.79866 6.8009e+08
5.02313 4.64418 0.0934361 5.78634e-09 1332 4.66348 5.8104e-09 8.61414e-07 8.94739 8.0261e+08
5.30828 7.54247 0.110269 7.96289e-09 1614 7.58197 8.00459e-09 7.45152e-07 17.2476 9.47202e+08
5.60962 6.57793 0.130134 5.88448e-09 1850 6.53346 5.8447e-09 6.44232e-07 16.8981 1.11784e+09
5.92807 7.50871 0.153578 5.69176e-09 2238 7.45654 5.65221e-09 5.56685e-07 22.8821 1.31923e+09
6.26459 6.99859 0.181246 4.49524e-09 2546 7.03116 4.51616e-09 4.80786e-07 23.8045 1.55689e+09
6.62021 7.17045 0.213898 3.90257e-09 3264 7.16234 3.89816e-09 4.15026e-07 30.6921 1.83737e+09
6.99602 8.69418 0.252432 4.00954e-09 3506 8.75048 4.03551e-09 3.58083e-07 39.2576 2.16837e+09
7.39317 8.73709 0.297908 3.41425e-09 4506 8.73968 3.41526e-09 3.08803e-07 49.82 2.55901e+09
7.81286 9.96624 0.351577 3.30005e-09 5018 9.98175 3.30519e-09 2.66181e-07 62.2121 3.02002e+09
8.25637 10.6581 0.414914 2.99041e-09 5852 10.6208 2.97994e-09 2.29336e-07 76.3067 3.56409e+09
8.72507 11.1273 0.489662 2.64547e-09 7362 11.0961 2.63805e-09 1.97503e-07 98.6109 4.20617e+09
9.22037 12.5194 0.577876 2.52208e-09 8306 12.4808 2.51431e-09 1.70014e-07 123.216 4.96392e+09
9.74378 12.6764 0.681982 2.16388e-09 9698 12.6683 2.1625e-09 1.46289e-07 143.451 5.85818e+09
10.2969 14.0356 0.804843 2.03016e-09 11816 14.023 2.02834e-09 1.25822e-07 190.653 6.91355e+09
10.8814 14.4872 0.949838 1.7756e-09 13682 14.4549 1.77164e-09 1.08175e-07 224.578 8.15905e+09
11.4992 15.9826 1.12095 1.65985e-09 16152 15.9756 1.65913e-09 9.29669e-08 288.381 9.62892e+09
12.1519 16.7751 1.3229 1.47621e-09 19472 16.7313 1.47236e-09 7.98658e-08 359.914 1.13636e+10
12.8418 17.4226 1.56122 1.29915e-09 22670 17.3788 1.29589e-09 6.85852e-08 429.417 1.34108e+10
13.5708 19.1624 1.84248 1.21076e-09 26224 19.1339 1.20896e-09 5.88765e-08 539.281 1.58268e+10
14.3411 20.0371 2.17441 1.07276e-09 31640 20.0374 1.07278e-09 5.05241e-08 671.803 1.8678e+10
15.1552 21.3683 2.56613 9.69397e-10 37484 21.3415 9.6818e-10 4.33417e-08 838.382 2.20429e+10
16.0156 22.8423 3.02843 8.78078e-10 43856 22.7953 8.7627e-10 3.71677e-08 1036.09 2.6014e+10
16.9247 24.0587 3.574 7.83658e-10 51362 24.0245 7.82543e-10 3.18628e-08 1263.24 3.07005e+10
17.8855 25.3451 4.21787 6.99537e-10 61636 25.2978 6.98233e-10 2.73063e-08 1579 3.62312e+10
18.9008 27.1124 4.97773 6.34083e-10 72218 27.0577 6.32804e-10 2.33941e-08 1957.42 4.27584e+10
19.9738 29.1812 5.87448 5.78287e-10 84586 29.1325 5.77322e-10 2.00364e-08 2441.31 5.04614e+10
21.1076 30.3396 6.93279 5.09463e-10 100708 30.2873 5.08584e-10 1.71555e-08 2990.7 5.95522e+10
22.3058 32.3263 8.18175 4.5996e-10 118712 32.2689 4.59144e-10 1.46847e-08 3718.36 7.02807e+10
23.5721 34.1818 9.65571 4.12117e-10 140410 34.1113 4.11267e-10 1.25662e-08 4604.86 8.29419e+10
24.9102 36.5282 11.3952 3.73178e-10 164374 36.4487 3.72366e-10 1.07504e-08 5705.92 9.78842e+10
26.3243 38.5123 13.4481 3.33387e-10 194680 38.4482 3.32832e-10 9.19452e-09 7058.97 1.15518e+11
27.8187 40.9279 15.8708 3.00214e-10 230196 40.8504 2.99646e-10 7.86182e-09 8790.33 1.36329e+11
29.3979 43.6172 18.73 2.71101e-10 271156 43.5392 2.70616e-10 6.72061e-09 10938.1 1.60889e+11
31.0667 46.6425 22.1042 2.4565e-10 321076 46.5517 2.45171e-10 5.74366e-09 13732.1 1.89874e+11
32.8303 49.5912 26.0864 2.2131e-10 377436 49.4907 2.20862e-10 4.90756e-09 17020.8 2.2408e+11
34.694 53.0703 30.7859 2.00683e-10 447594 52.9563 2.00252e-10 4.19221e-09 21426.5 2.64449e+11
36.6634 57.0557 36.3321 1.82818e-10 525078 56.9244 1.82398e-10 3.58032e-09 26811.5 3.1209e+11
38.7447 61.1537 42.8774 1.66037e-10 621924 61.0228 1.65682e-10 3.05709e-09 33778.1 3.68314e+11
40.9442 65.8226 50.6018 1.51432e-10 732630 65.6903 1.51128e-10 2.60976e-09 42511.2 4.34667e+11
43.2685 71.4668 59.7179 1.39319e-10 865596 71.3199 1.39032e-10 2.22743e-09 54140.3 5.12973e+11
45.7247 77.3723 70.4762 1.27806e-10 1.02168e+06 77.196 1.27515e-10 1.90073e-09 68698.1 6.05386e+11
48.3204 84.5406 83.1727 1.1833e-10 1.20544e+06 84.351 1.18065e-10 1.62163e-09 87960.2 7.14448e+11
51.0634 103.604 98.1565 1.22876e-10 1.42103e+06 103.142 1.22328e-10 1.38326e-09 126231 8.43158e+11
53.9621 101.753 115.84 1.02259e-10 1.67997e+06 101.517 1.02021e-10 1.1797e-09 145623 9.95055e+11
57.0254 112.74 136.709 9.60051e-11 1.98018e+06 112.458 9.57646e-11 1.00592e-09 188989 1.17432e+12
60.2626 125.213 161.337 9.03497e-11 2.33957e+06 124.896 9.01211e-11 8.57591e-10 246480 1.38587e+12
63.6835 139.911 190.402 8.5544e-11 2.75676e+06 139.553 8.53255e-11 7.3101e-10 322601 1.63554e+12
67.2987 157.13 224.704 8.14064e-11 3.25638e+06 156.726 8.11971e-11 6.23009e-10 425500 1.93019e+12
71.1191 177.235 265.185 7.78057e-11 3.84387e+06 176.746 7.75912e-11 5.30879e-10 563358 2.27792e+12
75.1563 201.461 312.958 7.49401e-11 4.53277e+06 200.879 7.47237e-11 4.52303e-10 751014 2.68829e+12
79.4227 229.036 369.339 7.21921e-11 5.35083e+06 228.392 7.1989e-11 3.85299e-10 1.00256e+06 3.17259e+12
83.9313 262.546 435.876 7.01218e-11 6.32174e+06 261.776 6.99162e-11 3.28173e-10 1.35079e+06 3.74415e+12
88.6959 302.009 514.4 6.83484e-11 7.44986e+06 301.094 6.81414e-11 2.79476e-10 1.82193e+06 4.41866e+12
93.7309 348.491 607.071 6.68286e-11 8.79764e+06 347.429 6.6625e-11 2.37972e-10 2.4706e+06 5.2147e+12
99.0518 403.634 716.436 6.55873e-11 1.03827e+07 402.392 6.53856e-11 2.02605e-10 3.36109e+06 6.15414e+12
104.675 468.817 845.504 6.45502e-11 1.22515e+07 467.374 6.43515e-11 1.72471e-10 4.58534e+06 7.26283e+12
110.617 545.616 997.824 6.36566e-11 1.44573e+07 543.883 6.34544e-11 1.468e-10 6.26909e+06 8.57124e+12
116.896 637.469 1177.58 6.30198e-11 1.70664e+07 635.445 6.28197e-11 1.24935e-10 8.60866e+06 1.01154e+13
123.532 745.756 1389.73 6.24707e-11 2.0139e+07 743.368 6.22706e-11 1.06313e-10 1.18339e+07 1.19377e+13
130.545 874.287 1640.09 6.20577e-11 2.37643e+07 871.525 6.18617e-11 9.04567e-11 1.63035e+07 1.40883e+13
137.955 1024.22 1935.56 6.16025e-11 2.80503e+07 1020.89 6.14019e-11 7.69563e-11 2.24539e+07 1.66263e+13
145.787 1202.54 2284.26 6.12864e-11 3.30981e+07 1198.61 6.10862e-11 6.54636e-11 3.09861e+07 1.96216e+13
154.063 1415.64 2695.77 6.11337e-11 3.90634e+07 1410.99 6.09326e-11 5.56812e-11 4.28887e+07 2.31565e+13
162.808 1664.24 3181.42 6.08983e-11 4.61057e+07 1658.78 6.06985e-11 4.73556e-11 5.92909e+07 2.73282e+13
172.051 1960.82 3754.56 6.07978e-11 5.44046e+07 1954.33 6.05965e-11 4.02708e-11 8.21359e+07 3.22515e+13
181.818 2312.71 4430.96 6.07623e-11 6.42064e+07 2305.02 6.05601e-11 3.42426e-11 1.13932e+08 3.80616e+13
192.139 2729.29 5229.21 6.07607e-11 7.57748e+07 2720.18 6.05581e-11 2.91139e-11 1.58142e+08 4.49186e+13
203.046 3222.69 6171.26 6.07931e-11 8.94213e+07 3211.89 6.05895e-11 2.4751e-11 2.19635e+08 5.30108e+13
214.572 3809.99 7283.03 6.09006e-11 1.05538e+08 3797.18 6.06958e-11 2.10401e-11 3.05481e+08 6.25608e+13
226.753 4510.81 8595.09 6.10961e-11 1.24552e+08 4495.53 6.08893e-11 1.78839e-11 4.25501e+08 7.38313e+13
239.625 5346.59 10143.5 6.13618e-11 1.46987e+08 5328.35 6.11524e-11 1.51999e-11 5.93385e+08 8.71322e+13
253.228 6348.83 11970.9 6.17415e-11 1.7347e+08 6326.98 6.1529e-11 1.29176e-11 8.29123e+08 1.02829e+14
267.603 7553.61 14127.5 6.22443e-11 2.04703e+08 7527.27 6.20272e-11 1.09771e-11 1.16074e+09 1.21354e+14
282.795 9019.8 16672.6 6.29801e-11 2.4161e+08 8988.04 6.27584e-11 9.3274e-12 1.63139e+09 1.43217e+14
298.848 10810.2 19676.2 6.3959e-11 2.85122e+08 10771.3 6.37292e-11 7.925e-12 2.30109e+09 1.69017e+14
315.813 13030.5 23220.9 6.5327e-11 3.36491e+08 12982.7 6.50869e-11 6.73295e-12 3.26483e+09 1.99466e+14
333.741 15828.4 27404.3 6.72401e-11 3.97115e+08 15768.1 6.6984e-11 5.71979e-12 4.66836e+09 2.35401e+14
352.686 19433.3 32341.2 6.99522e-11 4.68637e+08 19356.1 6.96741e-11 4.85874e-12 6.74706e+09 2.77809e+14
372.707 24225.1 38167.6 7.38891e-11 5.53074e+08 24123.1 7.35782e-11 4.12703e-12 9.90208e+09 3.27857e+14
393.865 30834.4 45043.5 7.96916e-11 6.52716e+08 30694.1 7.93291e-11 3.50528e-12 1.48393e+10 3.86921e+14
416.224 36390.4 53158.3 7.96942e-11 2.2184e+08 38497.7 8.43091e-11 2.97701e-12 5.93862e+09 4.56626e+14
439.852 0 62734.9 0 0 0 0 2.52819e-12 0 5.38888e+14
464.821 0 74036.7 0 0 0 0 2.1469e-12 0 6.35971e+14
491.207 0 87374.6 0 0 0 0 1.82301e-12 0 7.50542e+14
519.092 0 103115 0 0 0 0 1.54789e-12 0 8.85755e+14
548.56 0 121692 0 0 0 0 1.31422e-12 0 1.04533e+15
579.7 0 143615 0 0 0 0 1.11576e-12 0 1.23364e+15
612.608 0 169488 0 0 0 0 9.47223e-13 0 1.45589e+15
647.384 0 200021 0 0 0 0 8.041e-13 0 1.71817e+15
684.134 0 236056 0 0 0 0 6.82568e-13 0 2.0277e+15
722.971 0 278582 0 0 0 0 5.79376e-13 0 2.393e+15
764.012 0 328769 0 0 0 0 4.91762e-13 0 2.8241e+15
0.277029
200
1.0655e+09
8589934592
0.0129181 0.000245577 1.58924e-09 1.79891e-05 6 0.000243329 1.78244e-05 0.00677225 0.0159378 13.6515
0.0136515 0 1.87554e-09 0 0 0 0 0.00688819 0 16.1108
0.0144264 0 2.21343e-09 0 0 0 0 0.00699249 0 19.0132
0.0152454 0 2.61218e-09 0 0 0 0 0.00708412 0 22.4385
0.0161108 0 3.08278e-09 0 0 0 0 0.00716212 0 26.4808
0.0170254 0 3.63815e-09 0 0 0 0 0.00722559 0 31.2514
0.0179919 0.00044843 4.29357e-09 1.21587e-05 12 0.000447852 1.2143e-05 0.00727371 0.0200591 36.8815
0.0190132 0 5.06707e-09 0 0 0 0 0.00730578 0 43.5258
0.0200925 0 5.97991e-09 0 0 0 0 0.00732122 0 51.367
0.0212331 0.00203735 7.05721e-09 3.3608e-05 8 0.00203558 3.35788e-05 0.00731958 0.0367322 60.621
0.0224385 0 8.32858e-09 0 0 0 0 0.00730056 0 71.542
0.0237123 0 9.829e-09 0 0 0 0 0.00726401 0 84.4305
0.0250583 0.00168065 1.15997e-08 1.68671e-05 6 0.00167986 1.68591e-05 0.00720995 0.0140365 99.6408
0.0264808 0 1.36894e-08 0 0 0 0 0.00713857 0 117.591
0.0279841 0.00337859 1.61556e-08 2.43457e-05 24 0.00337512 2.43207e-05 0.00705021 0.0828765 138.776
0.0295727 0 1.90661e-08 0 0 0 0 0.00694538 0 163.777
0.0312514 0.00611505 2.25009e-08 3.1638e-05 24 0.00614609 3.17987e-05 0.00682475 0.111259 193.281
0.0330255 0 2.65545e-08 0 0 0 0 0.00668915 0 228.102
0.0349003 0.00207924 3.13384e-08 7.72394e-06 12 0.00206259 7.66209e-06 0.00653951 0.0141734 269.195
0.0368815 0.00721296 3.69841e-08 2.27043e-05 30 0.00713615 2.24626e-05 0.00637693 0.106812 317.691
0.0389751 0.00811637 4.36469e-08 2.16481e-05 24 0.00803288 2.14254e-05 0.00620256 0.0837644 374.924
0.0411876 0.00837544 5.151e-08 1.89289e-05 24 0.00831856 1.88004e-05 0.00601767 0.0754935 442.467
0.0435258 0.0050938 6.07896e-08 9.7549e-06 8 0.00509341 9.75415e-06 0.00582358 0.0134006 522.179
0.0459966 0.00730237 7.1741e-08 1.18497e-05 72 0.0072751 1.18054e-05 0.00562166 0.151766 616.251
0.0486077 0 8.46654e-08 0 0 0 0 0.0054133 0 727.27
0.051367 0.014196 9.99181e-08 1.65399e-05 54 0.0141207 1.64521e-05 0.00519989 0.171764 858.29
0.054283 0.0149556 1.17919e-07 1.4765e-05 60 0.0150306 1.4839e-05 0.0049828 0.177791 1012.91
0.0573645 0.020672 1.39162e-07 1.72931e-05 96 0.020563 1.72019e-05 0.00476339 0.34852 1195.39
0.060621 0.0159256 1.64232e-07 1.12888e-05 24 0.0157099 1.11359e-05 0.00454293 0.0596381 1410.75
0.0640622 0.017208 1.93819e-07 1.03358e-05 134 0.0171975 1.03295e-05 0.00432265 0.320404 1664.89
0.0676989 0.0188821 2.28736e-07 9.61006e-06 120 0.018752 9.54385e-06 0.00410371 0.281016 1964.83
0.071542 0.0239683 2.69944e-07 1.03365e-05 108 0.0236001 1.01777e-05 0.00388717 0.287186 2318.8
0.0756032 0.0236396 3.18575e-07 8.6385e-06 174 0.0235407 8.60238e-06 0.00367401 0.409117 2736.54
0.079895 0.0274468 3.75967e-07 8.49868e-06 168 0.0271807 8.41629e-06 0.0034651 0.412046 3229.53
0.0844305 0.0307905 4.43698e-07 8.07866e-06 168 0.0309431 8.11869e-06 0.00326121 0.41617 3811.34
0.0892234 0.0285954 5.23632e-07 6.35741e-06 290 0.0285098 6.33837e-06 0.00306301 0.601907 4497.96
0.0942883 0.0322029 6.17966e-07 6.06654e-06 288 0.0321663 6.05965e-06 0.00287109 0.608537 5308.28
0.0996408 0.0317122 7.29294e-07 5.06214e-06 366 0.0315086 5.02963e-06 0.00268591 0.689801 6264.59
0.105297 0.0456028 8.60678e-07 6.16823e-06 420 0.0451558 6.10778e-06 0.00250785 1.03302 7393.17
0.111275 0.0427981 1.01573e-06 4.90519e-06 398 0.0427878 4.90401e-06 0.00233721 0.835296 8725.07
0.117591 0.0498577 1.19872e-06 4.84201e-06 624 0.0499294 4.84897e-06 0.00217419 1.38967 10296.9
0.124267 0.0606713 1.41467e-06 4.99273e-06 642 0.060467 4.97592e-06 0.00201893 1.58764 12151.9
0.131321 0.0606935 1.66953e-06 4.23212e-06 800 0.0606704 4.23052e-06 0.00187147 1.80911 14341.1
0.138776 0.0607479 1.9703e-06 3.5893e-06 858 0.0608988 3.59821e-06 0.00173182 1.77826 16924.7
0.146654 0.0736887 2.32525e-06 3.68928e-06 1080 0.0741924 3.7145e-06 0.00159991 2.4904 19973.8
0.154979 0.0723441 2.74415e-06 3.06906e-06 1286 0.0728321 3.08976e-06 0.00147563 2.67465 23572.1
0.163777 0.0754252 3.23852e-06 2.71132e-06 1650 0.0755718 2.71659e-06 0.00135884 3.29228 27818.7
0.173074 0.0838828 3.82195e-06 2.55505e-06 1778 0.0838768 2.55486e-06 0.00124933 3.63624 32830.3
0.182899 0.0922782 4.51048e-06 2.3817e-06 2112 0.0924781 2.38686e-06 0.00114689 4.38589 38744.7
0.193281 0.100278 5.32305e-06 2.19307e-06 2570 0.100335 2.19432e-06 0.00105127 5.36131 45724.7
0.204254 0.106886 6.28202e-06 1.98076e-06 3030 0.107016 1.98316e-06 0.000962209 6.2374 53962.1
0.215848 0.109932 7.41374e-06 1.72623e-06 3434 0.109985 1.72705e-06 0.000879423 6.74063 63683.5
0.228102 0.117684 8.74934e-06 1.56585e-06 4218 0.117711 1.56622e-06 0.000802624 8.22896 75156.3
0.24105 0.125409 1.03256e-05 1.41392e-06 4766 0.125426 1.41411e-06 0.000731515 9.21205 88695.9
0.254734 0.138331 1.21857e-05 1.32153e-06 6026 0.138175 1.32004e-06 0.000665798 11.9609 104675
0.269195 0.156792 1.4381e-05 1.26924e-06 6480 0.156836 1.2696e-06 0.000605173 13.5906 123532
0.284476 0.157834 1.69718e-05 1.08264e-06 8162 0.158091 1.0844e-06 0.000549345 16.0855 145787
0.300625 0.171078 2.00293e-05 9.94344e-07 9578 0.171068 9.94286e-07 0.000498021 19.1234 172051
0.317691 0.182812 2.36377e-05 9.00348e-07 11234 0.182615 8.99377e-07 0.000450916 22.431 203046
0.335725 0.192341 2.78961e-05 8.02676e-07 13344 0.192171 8.01966e-07 0.000407755 26.268 239625
0.354784 0.206751 3.29216e-05 7.31102e-07 15464 0.206646 7.3073e-07 0.000368269 30.6997 282795
0.374924 0.22428 3.88525e-05 6.72017e-07 18458 0.224096 6.71468e-07 0.000332202 37.339 333741
0.396207 0.239252 4.58519e-05 6.07447e-07 22232 0.238869 6.06476e-07 0.000299307 45.1202 393865
0.418699 0.259469 5.41123e-05 5.58213e-07 25628 0.25895 5.57097e-07 0.00026935 53.1127 464821
0.442467 0.275163 6.38607e-05 5.01609e-07 30320 0.274718 5.008e-07 0.000242108 62.8183 548560
0.467585 0.292613 7.53654e-05 4.51992e-07 35452 0.29223 4.51401e-07 0.00021737 73.7177 647384
0.494129 0.310056 8.89427e-05 4.05826e-07 41792 0.310083 4.05862e-07 0.000194938 87.0034 764012
0.522179 0.33417 0.000104966 3.7062e-07 49988 0.333973 3.70402e-07 0.000174625 106.093 901651
0.551822 0.359015 0.000123876 3.37393e-07 59110 0.358851 3.37239e-07 0.000156255 127.633 1.06409e+06
0.583147 0.381964 0.000146192 3.04164e-07 69716 0.381503 3.03797e-07 0.000139664 151.829 1.25578e+06
0.616251 0.414045 0.000172529 2.79379e-07 82210 0.413389 2.78937e-07 0.0001247 184.184 1.48202e+06
0.651234 0.440914 0.000203611 2.52094e-07 96722 0.440047 2.51599e-07 0.00011122 219.232 1.74901e+06
0.688203 0.468561 0.000240292 2.27006e-07 113098 0.467882 2.26677e-07 9.90935e-05 259.087 2.06409e+06
0.72727 0.507734 0.000283581 2.08434e-07 135190 0.507156 2.08197e-07 8.81969e-05 319.492 2.43595e+06
0.768555 0.544847 0.000334669 1.89526e-07 158170 0.544148 1.89283e-07 7.84179e-05 382.276 2.87479e+06
0.812184 0.585499 0.000394961 1.72577e-07 188560 0.584761 1.72359e-07 6.96525e-05 467.192 3.39269e+06
0.85829 0.62585 0.000466114 1.56311e-07 220444 0.624982 1.56094e-07 6.1805e-05 557.523 4.00389e+06
0.907013 0.679757 0.000550086 1.43858e-07 261388 0.678933 1.43683e-07 5.47875e-05 686.338 4.7252e+06
0.958501 0.726541 0.000649185 1.30287e-07 308244 0.725584 1.30116e-07 4.85194e-05 827.715 5.57646e+06
1.01291 0.789466 0.000766138 1.1996e-07 364396 0.788316 1.19785e-07 4.29272e-05 1018.31 6.58107e+06
1.07041 0.848314 0.00090416 1.09225e-07 429162 0.84707 1.09065e-07 3.79435e-05 1235.39 7.76667e+06
1.13118 0.918436 0.00106705 1.00202e-07 506358 0.917109 1.00057e-07 3.3507e-05 1514.25 9.16586e+06
1.19539 0.997309 0.00125928 9.21974e-08 598590 0.995738 9.20521e-08 2.9562e-05 1866.87 1.08171e+07
1.26325 1.07592 0.00148614 8.42808e-08 704844 1.07423 8.41488e-08 2.60578e-05 2279.73 1.27658e+07
1.33496 1.16812 0.00175387 7.75352e-08 834620 1.16628 7.74132e-08 2.29484e-05 2819.91 1.50656e+07
1.41075 1.27123 0.00206984 7.14986e-08 981444 1.26911 7.13797e-08 2.01923e-05 3475.18 1.77798e+07
1.49083 1.37742 0.00244272 6.56451e-08 1.15998e+06 1.37512 6.55355e-08 1.77518e-05 4289.54 2.09828e+07
1.57546 1.50125 0.00288279 6.06247e-08 1.36931e+06 1.49863 6.05191e-08 1.55929e-05 5323.84 2.4763e+07
1.66489 1.6314 0.00340213 5.5824e-08 1.61652e+06 1.6285 5.57245e-08 1.3685e-05 6594.1 2.92241e+07
1.75941 1.78408 0.00401503 5.17292e-08 1.90601e+06 1.78079 5.16337e-08 1.20007e-05 8215.88 3.44889e+07
1.85928 1.94144 0.00473835 4.76988e-08 2.24913e+06 1.93788 4.76112e-08 1.05151e-05 10202.5 4.07021e+07
1.96483 2.12696 0.00559198 4.42795e-08 2.65744e+06 2.1231 4.41992e-08 9.20606e-06 12781.8 4.80347e+07
2.07637 2.32669 0.00659939 4.10436e-08 3.13125e+06 2.32242 4.09682e-08 8.05366e-06 15957.7 5.66883e+07
2.19424 2.54718 0.00778828 3.80739e-08 3.69915e+06 2.54257 3.80051e-08 7.04008e-06 20005.6 6.69008e+07
2.3188 2.7943 0.00919136 3.53919e-08 4.36472e+06 2.78894 3.5324e-08 6.1494e-06 25120.5 7.89532e+07
2.45043 3.06922 0.0108472 3.29397e-08 5.14913e+06 3.06345 3.28778e-08 5.36741e-06 31600.1 9.31768e+07
2.58954 3.37231 0.0128014 3.06677e-08 6.07894e+06 3.36597 3.06101e-08 4.68145e-06 39822.5 1.09963e+08
2.73654 3.7066 0.0151076 2.85622e-08 7.17304e+06 3.69952 2.85076e-08 4.08023e-06 50212.2 1.29773e+08
2.89188 4.07595 0.0178292 2.66138e-08 8.46557e+06 4.06809 2.65624e-08 3.55373e-06 63398.4 1.53152e+08
3.05605 4.48435 0.0210412 2.48107e-08 9.98773e+06 4.47597 2.47643e-08 3.09304e-06 80116.1 1.80743e+08
3.22953 4.9317 0.0248319 2.31205e-08 1.1797e+07 4.92193 2.30747e-08 2.69025e-06 101386 2.13304e+08
3.41286 5.42729 0.0293054 2.15599e-08 1.39144e+07 5.41653 2.15171e-08 2.33837e-06 128291 2.51731e+08
3.6066 5.97241 0.0345848 2.01036e-08 1.64163e+07 5.96066 2.00641e-08 2.0312e-06 162479 2.97081e+08
3.81134 6.57137 0.0408154 1.87431e-08 1.93821e+07 6.55857 1.87066e-08 1.76327e-06 206028 3.50601e+08
4.0277 7.2289 0.0481684 1.74711e-08 2.28754e+07 7.21445 1.74362e-08 1.52972e-06 261262 4.13763e+08
4.25634 7.94448 0.056846 1.62695e-08 2.69929e+07 7.92851 1.62368e-08 1.32631e-06 331117 4.88304e+08
4.49796 8.7259 0.067087 1.5142e-08 3.18542e+07 8.70831 1.51114e-08 1.14926e-06 419693 5.76273e+08
4.7533 9.57943 0.0791729 1.40855e-08 3.75892e+07 9.56035 1.40575e-08 9.95263e-07 531984 6.8009e+08
5.02313 10.4924 0.0934361 1.30728e-08 4.43706e+07 10.4717 1.3047e-08 8.61414e-07 673369 8.0261e+08
5.30828 11.4877 0.110269 1.21281e-08 5.23593e+07 11.4651 1.21042e-08 7.45152e-07 852197 9.47202e+08
5.60962 12.551 0.130134 1.12279e-08 6.1787e+07 12.5262 1.12057e-08 6.44232e-07 1.07684e+06 1.11784e+09
5.92807 13.6945 0.153578 1.03807e-08 7.29346e+07 13.6676 1.03603e-08 5.56685e-07 1.36004e+06 1.31923e+09
6.26459 14.917 0.181246 9.58128e-09 8.60651e+07 14.8874 9.56228e-09 4.80786e-07 1.71513e+06 1.55689e+09
6.62021 16.2133 0.213898 8.8242e-09 1.01558e+08 16.1818 8.80707e-09 4.15026e-07 2.15931e+06 1.83737e+09
6.99602 17.5942 0.252432 8.114e-09 1.1986e+08 17.5605 8.09845e-09 3.58083e-07 2.71597e+06 2.16837e+09
7.39317 19.0588 0.297908 7.44773e-09 1.41457e+08 19.0224 7.43349e-09 3.08803e-07 3.41166e+06 2.55901e+09
7.81286 20.6165 0.351577 6.82661e-09 1.66936e+08 20.5774 6.81367e-09 2.66181e-07 4.28132e+06 3.02002e+09
8.25637 22.2606 0.414914 6.2458e-09 1.97025e+08 22.2185 6.23398e-09 2.29336e-07 5.36583e+06 3.56409e+09
8.72507 24.0118 0.489662 5.7087e-09 2.32497e+08 23.9662 5.69788e-09 1.97503e-07 6.72018e+06 4.20617e+09
9.22037 25.8955 0.577876 5.21674e-09 2.74404e+08 25.846 5.20678e-09 1.70014e-07 8.41986e+06 4.96392e+09
9.74378 27.9497 0.681982 4.77105e-09 3.2382e+08 27.8957 4.76184e-09 1.46289e-07 1.0561e+07 5.85818e+09
10.2969 30.2631 0.804843 4.37736e-09 3.82165e+08 30.2029 4.36865e-09 1.25822e-07 1.32955e+07 6.91355e+09
10.8814 33.0019 0.949838 4.04483e-09 4.51027e+08 32.932 4.03625e-09 1.08175e-07 1.68645e+07 8.15905e+09
11.4992 36.4456 1.12095 3.78501e-09 5.32251e+08 36.3607 3.7762e-09 9.29669e-08 2.16698e+07 9.62892e+09
12.1519 41.1858 1.3229 3.62436e-09 6.28157e+08 41.0741 3.61454e-09 7.98658e-08 2.85062e+07 1.13636e+10
12.8418 46.3529 1.56122 3.45639e-09 3.82727e+08 47.9742 3.57729e-09 6.85852e-08 1.92877e+07 1.34108e+10
13.5708 0 1.84248 0 0 0 0 5.88765e-08 0 1.58268e+10
14.3411 0 2.17441 0 0 0 0 5.05241e-08 0 1.8678e+10
15.1552 0 2.56613 0 0 0 0 4.33417e-08 0 2.20429e+10
16.0156 0 3.02843 0 0 0 0 3.71677e-08 0 2.6014e+10
16.9247 0 3.574 0 0 0 0 3.18628e-08 0 3.07005e+10
17.8855 0 4.21787 0 0 0 0 2.73063e-08 0 3.62312e+10
18.9008 0 4.97773 0 0 0 0 2.33941e-08 0 4.27584e+10
19.9738 0 5.87448 0 0 0 0 2.00364e-08 0 5.04614e+10
21.1076 0 6.93279 0 0 0 0 1.71555e-08 0 5.95522e+10
22.3058 0 8.18175 0 0 0 0 1.46847e-08 0 7.02807e+10
23.5721 0 9.65571 0 0 0 0 1.25662e-08 0 8.29419e+10
24.9102 0 11.3952 0 0 0 0 1.07504e-08 0 9.78842e+10
26.3243 0 13.4481 0 0 0 0 9.19452e-09 0 1.15518e+11
27.8187 0 15.8708 0 0 0 0 7.86182e-09 0 1.36329e+11
29.3979 0 18.73 0 0 0 0 6.72061e-09 0 1.60889e+11
31.0667 0 22.1042 0 0 0 0 5.74366e-09 0 1.89874e+11
32.8303 0 26.0864 0 0 0 0 4.90756e-09 0 2.2408e+11
34.694 0 30.7859 0 0 0 0 4.19221e-09 0 2.64449e+11
36.6634 0 36.3321 0 0 0 0 3.58032e-09 0 3.1209e+11
38.7447 0 42.8774 0 0 0 0 3.05709e-09 0 3.68314e+11
40.9442 0 50.6018 0 0 0 0 2.60976e-09 0 4.34667e+11
43.2685 0 59.7179 0 0 0 0 2.22743e-09 0 5.12973e+11
45.7247 0 70.4762 0 0 0 0 1.90073e-09 0 6.05386e+11
48.3204 0 83.1727 0 0 0 0 1.62163e-09 0 7.14448e+11
51.0634 0 98.1565 0 0 0 0 1.38326e-09 0 8.43158e+11
53.9621 0 115.84 0 0 0 0 1.1797e-09 0 9.95055e+11
57.0254 0 136.709 0 0 0 0 1.00592e-09 0 1.17432e+12
60.2626 0 161.337 0 0 0 0 8.57591e-10 0 1.38587e+12
63.6835 0 190.402 0 0 0 0 7.3101e-10 0 1.63554e+12
67.2987 0 224.704 0 0 0 0 6.23009e-10 0 1.93019e+12
71.1191 0 265.185 0 0 0 0 5.30879e-10 0 2.27792e+12
75.1563 0 312.958 0 0 0 0 4.52303e-10 0 2.68829e+12
79.4227 0 369.339 0 0 0 0 3.85299e-10 0 3.17259e+12
83.9313 0 435.876 0 0 0 0 3.28173e-10 0 3.74415e+12
88.6959 0 514.4 0 0 0 0 2.79476e-10 0 4.41866e+12
93.7309 0 607.071 0 0 0 0 2.37972e-10 0 5.2147e+12
99.0518 0 716.436 0 0 0 0 2.02605e-10 0 6.15414e+12
104.675 0 845.504 0 0 0 0 1.72471e-10 0 7.26283e+12
110.617 0 997.824 0 0 0 0 1.468e-10 0 8.57124e+12
116.896 0 1177.58 0 0 0 0 1.24935e-10 0 1.01154e+13
123.532 0 1389.73 0 0 0 0 1.06313e-10 0 1.19377e+13
130.545 0 1640.09 0 0 0 0 9.04567e-11 0 1.40883e+13
137.955 0 1935.56 0 0 0 0 7.69563e-11 0 1.66263e+13
145.787 0 2284.26 0 0 0 0 6.54636e-11 0 1.96216e+13
154.063 0 2695.77 0 0 0 0 5.56812e-11 0 2.31565e+13
162.808 0 3181.42 0 0 0 0 4.73556e-11 0 2.73282e+13
172.051 0 3754.56 0 0 0 0 4.02708e-11 0 3.22515e+13
181.818 0 4430.96 0 0 0 0 3.42426e-11 0 3.80616e+13
192.139 0 5229.21 0 0 0 0 2.91139e-11 0 4.49186e+13
203.046 0 6171.26 0 0 0 0 2.4751e-11 0 5.30108e+13
214.572 0 7283.03 0 0 0 0 2.10401e-11 0 6.25608e+13
226.753 0 8595.09 0 0 0 0 1.78839e-11 0 7.38313e+13
239.625 0 10143.5 0 0 0 0 1.51999e-11 0 8.71322e+13
253.228 0 11970.9 0 0 0 0 1.29176e-11 0 1.02829e+14
267.603 0 14127.5 0 0 0 0 1.09771e-11 0 1.21354e+14
282.795 0 16672.6 0 0 0 0 9.3274e-12 0 1.43217e+14
298.848 0 19676.2 0 0 0 0 7.925e-12 0 1.69017e+14
315.813 0 23220.9 0 0 0 0 6.73295e-12 0 1.99466e+14
333.741 0 27404.3 0 0 0 0 5.71979e-12 0 2.35401e+14
352.686 0 32341.2 0 0 0 0 4.85874e-12 0 2.77809e+14
372.707 0 38167.6 0 0 0 0 4.12703e-12 0 3.27857e+14
393.865 0 45043.5 0 0 0 0 3.50528e-12 0 3.86921e+14
416.224 0 53158.3 0 0 0 0 2.97701e-12 0 4.56626e+14
439.852 0 62734.9 0 0 0 0 2.52819e-12 0 5.38888e+14
464.821 0 74036.7 0 0 0 0 2.1469e-12 0 6.35971e+14
491.207 0 87374.6 0 0 0 0 1.82301e-12 0 7.50542e+14
519.092 0 103115 0 0 0 0 1.54789e-12 0 8.85755e+14
548.56 0 121692 0 0 0 0 1.31422e-12 0 1.04533e+15
579.7 0 143615 0 0 0 0 1.11576e-12 0 1.23364e+15
612.608 0 169488 0 0 0 0 9.47223e-13 0 1.45589e+15
647.384 0 200021 0 0 0 0 8.041e-13 0 1.71817e+15
684.134 0 236056 0 0 0 0 6.82568e-13 0 2.0277e+15
722.971 0 278582 0 0 0 0 5.79376e-13 0 2.393e+15
764.012 0 328769 0 0 0 0 4.91762e-13 0 2.8241e+15
