0.260603
200
1.0655e+09
8589934592
0.0129181 0 1.58924e-09 0 0 0 0 0.00677225 0 13.6515
0.0136515 0 1.87554e-09 0 0 0 0 0.00688819 0 16.1108
0.0144264 0 2.21343e-09 0 0 0 0 0.00699249 0 19.0132
0.0152454 0 2.61218e-09 0 0 0 0 0.00708412 0 22.4385
0.0161108 0 3.08278e-09 0 0 0 0 0.00716212 0 26.4808
0.0170254 0 3.63815e-09 0 0 0 0 0.00722559 0 31.2514
0.0179919 0 4.29357e-09 0 0 0 0 0.00727371 0 36.8815
0.0190132 0 5.06707e-09 0 0 0 0 0.00730578 0 43.5258
0.0200925 0 5.97991e-09 0 0 0 0 0.00732122 0 51.367
0.0212331 0 7.05721e-09 0 0 0 0 0.00731958 0 60.621
0.0224385 0 8.32858e-09 0 0 0 0 0.00730056 0 71.542
0.0237123 0 9.829e-09 0 0 0 0 0.00726401 0 84.4305
0.0250583 0 1.15997e-08 0 0 0 0 0.00720995 0 99.6408
0.0264808 0 1.36894e-08 0 0 0 0 0.00713857 0 117.591
0.0279841 0 1.61556e-08 0 0 0 0 0.00705021 0 138.776
0.0295727 0 1.90661e-08 0 0 0 0 0.00694538 0 163.777
0.0312514 0 2.25009e-08 0 0 0 0 0.00682475 0 193.281
0.0330255 0 2.65545e-08 0 0 0 0 0.00668915 0 228.102
0.0349003 0 3.13384e-08 0 0 0 0 0.00653951 0 269.195
0.0368815 0 3.69841e-08 0 0 0 0 0.00637693 0 317.691
0.0389751 0 4.36469e-08 0 0 0 0 0.00620256 0 374.924
0.0411876 0 5.151e-08 0 0 0 0 0.00601767 0 442.467
0.0435258 0 6.07896e-08 0 0 0 0 0.00582358 0 522.179
0.0459966 0 7.1741e-08 0 0 0 0 0.00562166 0 616.251
0.0486077 0 8.46654e-08 0 0 0 0 0.0054133 0 727.27
0.051367 0 9.99181e-08 0 0 0 0 0.00519989 0 858.29
0.054283 0 1.17919e-07 0 0 0 0 0.0049828 0 1012.91
0.0573645 0 1.39162e-07 0 0 0 0 0.00476339 0 1195.39
0.060621 0 1.64232e-07 0 0 0 0 0.00454293 0 1410.75
0.0640622 0 1.93819e-07 0 0 0 0 0.00432265 0 1664.89
0.0676989 0 2.28736e-07 0 0 0 0 0.00410371 0 1964.83
0.071542 0 2.69944e-07 0 0 0 0 0.00388717 0 2318.8
0.0756032 0 3.18575e-07 0 0 0 0 0.00367401 0 2736.54
0.079895 0 3.75967e-07 0 0 0 0 0.0034651 0 3229.53
0.0844305 0 4.43698e-07 0 0 0 0 0.00326121 0 3811.34
0.0892234 0 5.23632e-07 0 0 0 0 0.00306301 0 4497.96
0.0942883 0 6.17966e-07 0 0 0 0 0.00287109 0 5308.28
0.0996408 0 7.29294e-07 0 0 0 0 0.00268591 0 6264.59
0.105297 0 8.60678e-07 0 0 0 0 0.00250785 0 7393.17
0.111275 0 1.01573e-06 0 0 0 0 0.00233721 0 8725.07
0.117591 0 1.19872e-06 0 0 0 0 0.00217419 0 10296.9
0.124267 0 1.41467e-06 0 0 0 0 0.00201893 0 12151.9
0.131321 0 1.66953e-06 0 0 0 0 0.00187147 0 14341.1
0.138776 0 1.9703e-06 0 0 0 0 0.00173182 0 16924.7
0.146654 0 2.32525e-06 0 0 0 0 0.00159991 0 19973.8
0.154979 0 2.74415e-06 0 0 0 0 0.00147563 0 23572.1
0.163777 0 3.23852e-06 0 0 0 0 0.00135884 0 27818.7
0.173074 0 3.82195e-06 0 0 0 0 0.00124933 0 32830.3
0.182899 0 4.51048e-06 0 0 0 0 0.00114689 0 38744.7
0.193281 0 5.32305e-06 0 0 0 0 0.00105127 0 45724.7
0.204254 0 6.28202e-06 0 0 0 0 0.000962209 0 53962.1
0.215848 0 7.41374e-06 0 0 0 0 0.000879423 0 63683.5
0.228102 0 8.74934e-06 0 0 0 0 0.000802624 0 75156.3
0.24105 0 1.03256e-05 0 0 0 0 0.000731515 0 88695.9
0.254734 0 1.21857e-05 0 0 0 0 0.000665798 0 104675
0.269195 0 1.4381e-05 0 0 0 0 0.000605173 0 123532
0.284476 0 1.69718e-05 0 0 0 0 0.000549345 0 145787
0.300625 0 2.00293e-05 0 0 0 0 0.000498021 0 172051
0.317691 0 2.36377e-05 0 0 0 0 0.000450916 0 203046
0.335725 0 2.78961e-05 0 0 0 0 0.000407755 0 239625
0.354784 0 3.29216e-05 0 0 0 0 0.000368269 0 282795
0.374924 0 3.88525e-05 0 0 0 0 0.000332202 0 333741
0.396207 0.622323 4.58519e-05 1.58004e-06 6 0.605021 1.53611e-06 0.000299307 0.031674 393865
0.418699 0 5.41123e-05 0 0 0 0 0.00026935 0 464821
0.442467 0 6.38607e-05 0 0 0 0 0.000242108 0 548560
0.467585 0 7.53654e-05 0 0 0 0 0.00021737 0 647384
0.494129 0 8.89427e-05 0 0 0 0 0.000194938 0 764012
0.522179 0 0.000104966 0 0 0 0 0.000174625 0 901651
0.551822 0 0.000123876 0 0 0 0 0.000156255 0 1.06409e+06
0.583147 6.56367 0.000146192 5.22676e-06 12 6.9083 5.50119e-06 0.000139664 0.449085 1.25578e+06
0.616251 0 0.000172529 0 0 0 0 0.0001247 0 1.48202e+06
0.651234 0 0.000203611 0 0 0 0 0.00011122 0 1.74901e+06
0.688203 22.0157 0.000240292 1.0666e-05 8 21.468 1.04007e-05 9.90935e-05 0.861089 2.06409e+06
0.72727 0 0.000283581 0 0 0 0 8.81969e-05 0 2.43595e+06
0.768555 0 0.000334669 0 0 0 0 7.84179e-05 0 2.87479e+06
0.812184 0.759422 0.000394961 2.23841e-07 6 0.775659 2.28627e-07 6.96525e-05 0.0192821 3.39269e+06
0.85829 0 0.000466114 0 0 0 0 6.1805e-05 0 4.00389e+06
0.907013 0.455226 0.000550086 9.634e-08 24 0.46396 9.81885e-08 5.47875e-05 0.0422023 4.7252e+06
0.958501 2.39008 0.000649185 4.28601e-07 24 2.25008 4.03496e-07 4.85194e-05 0.212006 5.57646e+06
1.01291 0 0.000766138 0 0 0 0 4.29272e-05 0 6.58107e+06
1.07041 0 0.00090416 0 0 0 0 3.79435e-05 0 7.76667e+06
1.13118 2.32716 0.00106705 2.53895e-07 12 2.29858 2.50776e-07 3.3507e-05 0.0909283 9.16586e+06
1.19539 1.54117 0.00125928 1.42475e-07 30 1.5094 1.39538e-07 2.9562e-05 0.144586 1.08171e+07
1.26325 11.468 0.00148614 8.98336e-07 24 11.2954 8.84818e-07 2.60578e-05 0.827393 1.27658e+07
1.33496 18.5715 0.00175387 1.23271e-06 24 18.6123 1.23542e-06 2.29484e-05 1.28919 1.50656e+07
1.41075 7.3947 0.00206984 4.15905e-07 32 7.58367 4.26534e-07 2.01923e-05 0.659111 1.77798e+07
1.49083 1.74014 0.00244272 8.29314e-08 48 1.70304 8.11634e-08 1.77518e-05 0.224243 2.09828e+07
1.57546 0.939282 0.00288279 3.7931e-08 6 0.894408 3.61188e-08 1.55929e-05 0.0145955 2.4763e+07
1.66489 1.25021 0.00340213 4.27803e-08 84 1.20865 4.13582e-08 1.3685e-05 0.26259 2.92241e+07
1.75941 2.34016 0.00401503 6.78526e-08 48 2.33763 6.77792e-08 1.20007e-05 0.271395 3.44889e+07
1.85928 1.39261 0.00473835 3.42146e-08 72 1.40453 3.45075e-08 1.05151e-05 0.234278 4.07021e+07
1.96483 2.16517 0.00559198 4.5075e-08 54 2.10687 4.38613e-08 9.20606e-06 0.264397 4.80347e+07
2.07637 9.35463 0.00659939 1.65019e-07 104 9.35959 1.65106e-07 8.05366e-06 2.13095 5.66883e+07
2.19424 1.44986 0.00778828 2.16718e-08 120 1.46181 2.18504e-08 7.04008e-06 0.369402 6.69008e+07
2.3188 2.54989 0.00919136 3.22962e-08 156 2.45741 3.11249e-08 6.1494e-06 0.819302 7.89532e+07
2.45043 2.65768 0.0108472 2.8523e-08 126 2.62167 2.81365e-08 5.36741e-06 0.669576 9.31768e+07
2.58954 1.71861 0.0128014 1.5629e-08 192 1.7276 1.57107e-08 4.68145e-06 0.640991 1.09963e+08
2.73654 8.11904 0.0151076 6.25634e-08 152 8.35422 6.43756e-08 4.08023e-06 2.33066 1.29773e+08
2.89188 5.49678 0.0178292 3.5891e-08 378 5.59448 3.6529e-08 3.55373e-06 3.81762 1.53152e+08
3.05605 2.46661 0.0210412 1.36471e-08 264 2.42402 1.34114e-08 3.09304e-06 1.16482 1.80743e+08
3.22953 1.88396 0.0248319 8.8323e-09 366 1.87126 8.77274e-09 2.69025e-06 1.2016 2.13304e+08
3.41286 2.86142 0.0293054 1.1367e-08 428 2.80761 1.11532e-08 2.33837e-06 2.08053 2.51731e+08
3.6066 5.41781 0.0345848 1.82368e-08 486 5.27497 1.7756e-08 2.0312e-06 4.36346 2.97081e+08
3.81134 2.98636 0.0408154 8.51783e-09 600 3.0007 8.55873e-09 1.76327e-06 2.89843 3.50601e+08
4.0277 3.42845 0.0481684 8.28602e-09 738 3.37979 8.16841e-09 1.52972e-06 3.99751 4.13763e+08
4.25634 4.35418 0.056846 8.91695e-09 824 4.38082 8.9715e-09 1.32631e-06 5.53987 4.88304e+08
4.49796 5.84864 0.067087 1.01491e-08 954 5.84524 1.01432e-08 1.14926e-06 8.42477 5.76273e+08
4.7533 3.85385 0.0791729 5.66668e-09 1094 3.82958 5.63098e-09 9.95263e-07 6.22885 6.8009e+08
5.02313 4.02388 0.0934361 5.01349e-09 1332 4.0358 5.02834e-09 8.61414e-07 7.75233 8.0261e+08
5.30828 6.42136 0.110269 6.77929e-09 1614 6.44935 6.80884e-09 7.45152e-07 14.6839 9.47202e+08
5.60962 5.67534 0.130134 5.07704e-09 1850 5.62568 5.03262e-09 6.44232e-07 14.5794 1.11784e+09
5.92807 6.1751 0.153578 4.68085e-09 2238 6.14946 4.66142e-09 5.56685e-07 18.8181 1.31923e+09
6.26459 5.81657 0.181246 3.73602e-09 2546 5.85031 3.7577e-09 4.80786e-07 19.7841 1.55689e+09
6.62021 5.89151 0.213898 3.2065e-09 3264 5.89428 3.20801e-09 4.15026e-07 25.2178 1.83737e+09
6.99602 7.38292 0.252432 3.40482e-09 3506 7.43967 3.43099e-09 3.58083e-07 33.3368 2.16837e+09
7.39317 7.18641 0.297908 2.80828e-09 4506 7.19291 2.81082e-09 3.08803e-07 40.9778 2.55901e+09
7.81286 8.75817 0.351577 2.90003e-09 5018 8.77654 2.90612e-09 2.66181e-07 54.671 3.02002e+09
8.25637 9.48236 0.414914 2.66053e-09 5852 9.44765 2.65079e-09 2.29336e-07 67.8891 3.56409e+09
8.72507 9.28882 0.489662 2.20838e-09 7362 9.2627 2.20217e-09 1.97503e-07 82.3183 4.20617e+09
9.22037 10.4989 0.577876 2.11505e-09 8306 10.4481 2.10481e-09 1.70014e-07 103.33 4.96392e+09
9.74378 10.1075 0.681982 1.72537e-09 9698 10.0919 1.7227e-09 1.46289e-07 114.381 5.85818e+09
10.2969 11.8623 0.804843 1.71581e-09 11816 11.8558 1.71486e-09 1.25822e-07 161.132 6.91355e+09
10.8814 12.7618 0.949838 1.56413e-09 13682 12.749 1.56256e-09 1.08175e-07 197.831 8.15905e+09
11.4992 13.2045 1.12095 1.37133e-09 16152 13.1922 1.37006e-09 9.29669e-08 238.255 9.62892e+09
12.1519 14.3125 1.3229 1.25951e-09 19472 14.2656 1.25538e-09 7.98658e-08 307.079 1.13636e+10
12.8418 14.7701 1.56122 1.10136e-09 22670 14.7439 1.0994e-09 6.85852e-08 364.042 1.34108e+10
13.5708 16.1606 1.84248 1.0211e-09 26224 16.1422 1.01993e-09 5.88765e-08 454.803 1.58268e+10
14.3411 17.187 2.17441 9.20171e-10 31640 17.1812 9.19865e-10 5.05241e-08 576.243 1.8678e+10
15.1552 18.5847 2.56613 8.43117e-10 37484 18.5592 8.41961e-10 4.33417e-08 729.169 2.20429e+10
16.0156 19.3225 3.02843 7.42774e-10 43856 19.2829 7.41251e-10 3.71677e-08 876.434 2.6014e+10
16.9247 21.2898 3.574 6.93469e-10 51362 21.2656 6.92679e-10 3.18628e-08 1117.85 3.07005e+10
17.8855 22.0346 4.21787 6.08165e-10 61636 22.0023 6.07274e-10 2.73063e-08 1372.75 3.62312e+10
18.9008 23.6226 4.97773 5.52467e-10 72218 23.5719 5.51282e-10 2.33941e-08 1705.47 4.27584e+10
19.9738 25.3586 5.87448 5.02535e-10 84586 25.2923 5.0122e-10 2.00364e-08 2121.51 5.04614e+10
21.1076 26.7535 6.93279 4.49245e-10 100708 26.7133 4.48569e-10 1.71555e-08 2637.2 5.95522e+10
22.3058 28.3693 8.18175 4.03657e-10 118712 28.3136 4.02865e-10 1.46847e-08 3263.19 7.02807e+10
23.5721 30.1722 9.65571 3.63775e-10 140410 30.1059 3.62976e-10 1.25662e-08 4064.7 8.29419e+10
24.9102 32.1666 11.3952 3.28619e-10 164374 32.1057 3.27997e-10 1.07504e-08 5024.61 9.78842e+10
26.3243 34.2425 13.4481 2.96425e-10 194680 34.1729 2.95823e-10 9.19452e-09 6276.34 1.15518e+11
27.8187 36.6431 15.8708 2.68784e-10 230196 36.5719 2.68262e-10 7.86182e-09 7870.07 1.36329e+11
29.3979 39.0608 18.73 2.42781e-10 271156 38.9835 2.423e-10 6.72061e-09 9795.46 1.60889e+11
31.0667 42.1359 22.1042 2.21915e-10 321076 42.0497 2.21461e-10 5.74366e-09 12405.3 1.89874e+11
32.8303 44.7252 26.0864 1.99595e-10 377436 44.6399 1.99214e-10 4.90756e-09 15350.7 2.2408e+11
34.694 48.0937 30.7859 1.81864e-10 447594 47.9931 1.81483e-10 4.19221e-09 19417.3 2.64449e+11
36.6634 51.8222 36.3321 1.66049e-10 525078 51.705 1.65673e-10 3.58032e-09 24352.2 3.1209e+11
38.7447 56.021 42.8774 1.52101e-10 621924 55.9003 1.51774e-10 3.05709e-09 30943 3.68314e+11
40.9442 60.5981 50.6018 1.39413e-10 732630 60.4759 1.39132e-10 2.60976e-09 39136.9 4.34667e+11
43.2685 65.9844 59.7179 1.28631e-10 865596 65.8392 1.28348e-10 2.22743e-09 49987 5.12973e+11
45.7247 71.9968 70.4762 1.18927e-10 1.02168e+06 71.8285 1.18649e-10 1.90073e-09 63925.3 6.05386e+11
48.3204 78.9719 83.1727 1.10536e-10 1.20544e+06 78.7759 1.10261e-10 1.62163e-09 82166.3 7.14448e+11
51.0634 91.8176 98.1565 1.08897e-10 1.42103e+06 91.4986 1.08519e-10 1.38326e-09 111871 8.43158e+11
53.9621 96.2967 115.84 9.67752e-11 1.67997e+06 96.0698 9.65472e-11 1.1797e-09 137814 9.95055e+11
57.0254 106.873 136.709 9.10087e-11 1.98018e+06 106.595 9.07722e-11 1.00592e-09 179153 1.17432e+12
60.2626 119.798 161.337 8.6442e-11 2.33957e+06 119.482 8.62142e-11 8.57591e-10 235820 1.38587e+12
63.6835 134.279 190.402 8.21008e-11 2.75676e+06 133.921 8.18819e-11 7.3101e-10 309617 1.63554e+12
67.2987 151.554 224.704 7.85179e-11 3.25638e+06 151.143 7.83046e-11 6.23009e-10 410402 1.93019e+12
71.1191 171.919 265.185 7.5472e-11 3.84387e+06 171.447 7.5265e-11 5.30879e-10 546461 2.27792e+12
75.1563 196.665 312.958 7.31563e-11 4.53277e+06 196.048 7.29266e-11 4.52303e-10 733137 2.68829e+12
79.4227 224.303 369.339 7.07003e-11 5.35083e+06 223.67 7.05005e-11 3.85299e-10 981847 3.17259e+12
83.9313 257.84 435.876 6.88648e-11 6.32174e+06 257.066 6.86582e-11 3.28173e-10 1.32657e+06 3.74415e+12
88.6959 297.379 514.4 6.73006e-11 7.44986e+06 296.483 6.70979e-11 2.79476e-10 1.794e+06 4.41866e+12
93.7309 344.402 607.071 6.60444e-11 8.79764e+06 343.351 6.5843e-11 2.37972e-10 2.44161e+06 5.2147e+12
99.0518 399.669 716.436 6.49432e-11 1.03827e+07 398.442 6.47437e-11 2.02605e-10 3.32808e+06 6.15414e+12
104.675 466.01 845.504 6.41637e-11 1.22515e+07 464.582 6.39672e-11 1.72471e-10 4.55789e+06 7.26283e+12
110.617 542.738 997.824 6.33208e-11 1.44573e+07 541.027 6.31212e-11 1.468e-10 6.23603e+06 8.57124e+12
116.896 634.633 1177.58 6.27395e-11 1.70664e+07 632.615 6.25399e-11 1.24935e-10 8.57037e+06 1.01154e+13
123.532 743.821 1389.73 6.23086e-11 2.0139e+07 741.431 6.21084e-11 1.06313e-10 1.18032e+07 1.19377e+13
130.545 872.869 1640.09 6.1957e-11 2.37643e+07 870.074 6.17586e-11 9.04567e-11 1.6277e+07 1.40883e+13
137.955 1023.69 1935.56 6.15701e-11 2.80503e+07 1020.34 6.13686e-11 7.69563e-11 2.24421e+07 1.66263e+13
145.787 1203.04 2284.26 6.13119e-11 3.30981e+07 1199.1 6.11111e-11 6.54636e-11 3.0999e+07 1.96216e+13
154.063 1418.11 2695.77 6.12404e-11 3.90634e+07 1413.48 6.10404e-11 5.56812e-11 4.29635e+07 2.31565e+13
162.808 1666.18 3181.42 6.09694e-11 4.61057e+07 1660.67 6.07678e-11 4.73556e-11 5.93601e+07 2.73282e+13
172.051 1964.09 3754.56 6.08993e-11 5.44046e+07 1957.58 6.06975e-11 4.02708e-11 8.2273e+07 3.22515e+13
181.818 2315.22 4430.96 6.08282e-11 6.42064e+07 2307.52 6.06258e-11 3.42426e-11 1.14056e+08 3.80616e+13
192.139 2733.39 5229.21 6.08522e-11 7.57748e+07 2724.23 6.06483e-11 2.91139e-11 1.5838e+08 4.49186e+13
203.046 3230.42 6171.26 6.0939e-11 8.94213e+07 3219.56 6.0734e-11 2.4751e-11 2.20162e+08 5.30108e+13
214.572 3820.85 7283.03 6.10743e-11 1.05538e+08 3807.97 6.08684e-11 2.10401e-11 3.06352e+08 6.25608e+13
226.753 4521.34 8595.09 6.12388e-11 1.24552e+08 4506.05 6.10317e-11 1.78839e-11 4.26495e+08 7.38313e+13
239.625 5359.67 10143.5 6.1512e-11 1.46987e+08 5341.4 6.13023e-11 1.51999e-11 5.94837e+08 8.71322e+13
253.228 6365.98 11970.9 6.19083e-11 1.7347e+08 6344.13 6.16957e-11 1.29176e-11 8.31363e+08 1.02829e+14
267.603 7575.98 14127.5 6.24286e-11 2.04703e+08 7549.68 6.22119e-11 1.09771e-11 1.16418e+09 1.21354e+14
282.795 9044.96 16672.6 6.31558e-11 2.4161e+08 9013.1 6.29333e-11 9.3274e-12 1.63594e+09 1.43217e+14
298.848 10842.4 19676.2 6.41496e-11 2.85122e+08 10803.5 6.39192e-11 7.925e-12 2.30795e+09 1.69017e+14
315.813 13071.6 23220.9 6.55328e-11 3.36491e+08 13023.6 6.5292e-11 6.73295e-12 3.27512e+09 1.99466e+14
333.741 15878.7 27404.3 6.74541e-11 3.97115e+08 15818.2 6.7197e-11 5.71979e-12 4.68322e+09 2.35401e+14
352.686 19494.1 32341.2 7.01711e-11 4.68637e+08 19416.5 6.98917e-11 4.85874e-12 6.76817e+09 2.77809e+14
372.707 24295.8 38167.6 7.41051e-11 5.53074e+08 24193.6 7.37931e-11 4.12703e-12 9.93101e+09 3.27857e+14
393.865 30923.8 45043.5 7.99227e-11 6.52716e+08 30783.3 7.95596e-11 3.50528e-12 1.48824e+10 3.86921e+14
416.224 36504.4 53158.3 7.99437e-11 2.2184e+08 38618.3 8.45731e-11 2.97701e-12 5.95722e+09 4.56626e+14
439.852 0 62734.9 0 0 0 0 2.52819e-12 0 5.38888e+14
464.821 0 74036.7 0 0 0 0 2.1469e-12 0 6.35971e+14
491.207 0 87374.6 0 0 0 0 1.82301e-12 0 7.50542e+14
519.092 0 103115 0 0 0 0 1.54789e-12 0 8.85755e+14
548.56 0 121692 0 0 0 0 1.31422e-12 0 1.04533e+15
579.7 0 143615 0 0 0 0 1.11576e-12 0 1.23364e+15
612.608 0 169488 0 0 0 0 9.47223e-13 0 1.45589e+15
647.384 0 200021 0 0 0 0 8.041e-13 0 1.71817e+15
684.134 0 236056 0 0 0 0 6.82568e-13 0 2.0277e+15
722.971 0 278582 0 0 0 0 5.79376e-13 0 2.393e+15
764.012 0 328769 0 0 0 0 4.91762e-13 0 2.8241e+15
0.260603
200
1.0655e+09
8589934592
0.0129181 0.000217952 1.58924e-09 1.59655e-05 6 0.000215956 1.58193e-05 0.00677225 0.0141449 13.6515
0.0136515 0 1.87554e-09 0 0 0 0 0.00688819 0 16.1108
0.0144264 0 2.21343e-09 0 0 0 0 0.00699249 0 19.0132
0.0152454 0 2.61218e-09 0 0 0 0 0.00708412 0 22.4385
0.0161108 0 3.08278e-09 0 0 0 0 0.00716212 0 26.4808
0.0170254 0 3.63815e-09 0 0 0 0 0.00722559 0 31.2514
0.0179919 0.000397933 4.29357e-09 1.07895e-05 12 0.000397421 1.07756e-05 0.00727371 0.0178003 36.8815
0.0190132 0 5.06707e-09 0 0 0 0 0.00730578 0 43.5258
0.0200925 0 5.97991e-09 0 0 0 0 0.00732122 0 51.367
0.0212331 0.00180786 7.05721e-09 2.98223e-05 8 0.00180628 2.97964e-05 0.00731958 0.0325946 60.621
0.0224385 0 8.32858e-09 0 0 0 0 0.00730056 0 71.542
0.0237123 0 9.829e-09 0 0 0 0 0.00726401 0 84.4305
0.0250583 0.00149261 1.15997e-08 1.49799e-05 6 0.00149191 1.49729e-05 0.00720995 0.0124661 99.6408
0.0264808 0 1.36894e-08 0 0 0 0 0.00713857 0 117.591
0.0279841 0.00299839 1.61556e-08 2.1606e-05 24 0.00299531 2.15838e-05 0.00705021 0.0735502 138.776
0.0295727 0 1.90661e-08 0 0 0 0 0.00694538 0 163.777
0.0312514 0.00542886 2.25009e-08 2.80878e-05 24 0.00545642 2.82305e-05 0.00682475 0.098774 193.281
0.0330255 0 2.65545e-08 0 0 0 0 0.00668915 0 228.102
0.0349003 0.0018405 3.13384e-08 6.83707e-06 12 0.00182577 6.78232e-06 0.00653951 0.012546 269.195
0.0368815 0.00640549 3.69841e-08 2.01626e-05 30 0.00633728 1.99479e-05 0.00637693 0.0948543 317.691
0.0389751 0.00720261 4.36469e-08 1.92109e-05 24 0.00712852 1.90133e-05 0.00620256 0.074334 374.924
0.0411876 0.00742671 5.151e-08 1.67848e-05 24 0.00737627 1.66708e-05 0.00601767 0.0669419 442.467
0.0435258 0.00453557 6.07896e-08 8.68585e-06 8 0.00453522 8.68518e-06 0.00582358 0.011932 522.179
0.0459966 0.00648852 7.1741e-08 1.0529e-05 72 0.00646432 1.04897e-05 0.00562166 0.134852 616.251
0.0486077 0 8.46654e-08 0 0 0 0 0.0054133 0 727.27
0.051367 0.012614 9.99181e-08 1.46967e-05 54 0.012547 1.46186e-05 0.00519989 0.152622 858.29
0.054283 0.0132596 1.17919e-07 1.30906e-05 60 0.0133262 1.31563e-05 0.0049828 0.157629 1012.91
0.0573645 0.0183041 1.39162e-07 1.53122e-05 96 0.0182074 1.52313e-05 0.00476339 0.308598 1195.39
0.060621 0.0141227 1.64232e-07 1.00108e-05 24 0.0139313 9.87516e-06 0.00454293 0.0528864 1410.75
0.0640622 0.0152688 1.93819e-07 9.17103e-06 134 0.01526 9.16574e-06 0.00432265 0.284297 1664.89
0.0676989 0.0167773 2.28736e-07 8.53881e-06 120 0.0166618 8.48003e-06 0.00410371 0.24969 1964.83
0.071542 0.0212659 2.69944e-07 9.1711e-06 108 0.0209391 9.03016e-06 0.00388717 0.254807 2318.8
0.0756032 0.0209694 3.18575e-07 7.66276e-06 174 0.0208814 7.63059e-06 0.00367401 0.362906 2736.54
0.079895 0.0243549 3.75967e-07 7.54131e-06 168 0.024119 7.46828e-06 0.0034651 0.365629 3229.53
0.0844305 0.0273644 4.43698e-07 7.17974e-06 168 0.0275002 7.21537e-06 0.00326121 0.369862 3811.34
0.0892234 0.0253949 5.23632e-07 5.64587e-06 290 0.0253191 5.62901e-06 0.00306301 0.534539 4497.96
0.0942883 0.0285357 6.17966e-07 5.3757e-06 288 0.0285033 5.36959e-06 0.00287109 0.539238 5308.28
0.0996408 0.028179 7.29294e-07 4.49815e-06 366 0.0279986 4.46934e-06 0.00268591 0.612948 6264.59
0.105297 0.0404281 8.60678e-07 5.46831e-06 420 0.0400322 5.41475e-06 0.00250785 0.915799 7393.17
0.111275 0.0379141 1.01573e-06 4.34542e-06 398 0.0379042 4.34429e-06 0.00233721 0.739975 8725.07
0.117591 0.0441534 1.19872e-06 4.28802e-06 624 0.0442151 4.29402e-06 0.00217419 1.23068 10296.9
0.124267 0.0537316 1.41467e-06 4.42165e-06 642 0.0535516 4.40684e-06 0.00201893 1.40605 12151.9
0.131321 0.0538231 1.66953e-06 3.75306e-06 800 0.0538029 3.75165e-06 0.00187147 1.60433 14341.1
0.138776 0.0539187 1.9703e-06 3.1858e-06 858 0.0540511 3.19362e-06 0.00173182 1.57835 16924.7
0.146654 0.0653155 2.32525e-06 3.27007e-06 1080 0.0657604 3.29234e-06 0.00159991 2.20742 19973.8
0.154979 0.0641725 2.74415e-06 2.72239e-06 1286 0.0646054 2.74076e-06 0.00147563 2.37254 23572.1
0.163777 0.066666 3.23852e-06 2.39645e-06 1650 0.0667978 2.40119e-06 0.00135884 2.90994 27818.7
0.173074 0.0742484 3.82195e-06 2.26158e-06 1778 0.0742392 2.2613e-06 0.00124933 3.2186 32830.3
0.182899 0.0816635 4.51048e-06 2.10773e-06 2112 0.0818407 2.1123e-06 0.00114689 3.88139 38744.7
0.193281 0.0885552 5.32305e-06 1.9367e-06 2570 0.0886057 1.93781e-06 0.00105127 4.73458 45724.7
0.204254 0.0944634 6.28202e-06 1.75055e-06 3030 0.0945799 1.75271e-06 0.000962209 5.51249 53962.1
0.215848 0.0971196 7.41374e-06 1.52504e-06 3434 0.097169 1.52581e-06 0.000879423 5.95501 63683.5
0.228102 0.103866 8.74934e-06 1.382e-06 4218 0.103893 1.38236e-06 0.000802624 7.26279 75156.3
0.24105 0.110471 1.03256e-05 1.24551e-06 4766 0.110488 1.24569e-06 0.000731515 8.11478 88695.9
0.254734 0.122003 1.21857e-05 1.16554e-06 6026 0.121864 1.16422e-06 0.000665798 10.5491 104675
0.269195 0.138219 1.4381e-05 1.11889e-06 6480 0.138262 1.11924e-06 0.000605173 11.9807 123532
0.284476 0.138804 1.69718e-05 9.52102e-07 8162 0.139037 9.53704e-07 0.000549345 14.146 145787
0.300625 0.150319 2.00293e-05 8.73688e-07 9578 0.150311 8.73644e-07 0.000498021 16.8029 172051
0.317691 0.16065 2.36377e-05 7.91198e-07 11234 0.160477 7.90348e-07 0.000450916 19.7117 203046
0.335725 0.168762 2.78961e-05 7.04275e-07 13344 0.168616 7.03665e-07 0.000407755 23.0478 239625
0.354784 0.181252 3.29216e-05 6.40931e-07 15464 0.181162 6.40612e-07 0.000368269 26.9133 282795
0.374924 0.196644 3.88525e-05 5.89212e-07 18458 0.196488 5.88745e-07 0.000332202 32.7381 333741
0.396207 0.209033 4.58519e-05 5.30722e-07 22232 0.208695 5.29865e-07 0.000299307 39.4211 393865
0.418699 0.226244 5.41123e-05 4.86733e-07 25628 0.225798 4.85773e-07 0.00026935 46.3115 464821
0.442467 0.23957 6.38607e-05 4.36726e-07 30320 0.239182 4.36018e-07 0.000242108 54.6927 548560
0.467585 0.254496 7.53654e-05 3.93115e-07 35452 0.254171 3.92612e-07 0.00021737 64.115 647384
0.494129 0.269053 8.89427e-05 3.52158e-07 41792 0.269078 3.52191e-07 0.000194938 75.4976 764012
0.522179 0.289845 0.000104966 3.2146e-07 49988 0.289685 3.21283e-07 0.000174625 92.021 901651
0.551822 0.310343 0.000123876 2.91652e-07 59110 0.310208 2.91526e-07 0.000156255 110.33 1.06409e+06
0.583147 0.33016 0.000146192 2.62911e-07 69716 0.329764 2.62596e-07 0.000139664 131.237 1.25578e+06
0.616251 0.356632 0.000172529 2.4064e-07 82210 0.356066 2.40258e-07 0.0001247 158.645 1.48202e+06
0.651234 0.37921 0.000203611 2.16815e-07 96722 0.378467 2.1639e-07 0.00011122 188.551 1.74901e+06
0.688203 0.402049 0.000240292 1.94783e-07 113098 0.401475 1.94504e-07 9.90935e-05 222.311 2.06409e+06
0.72727 0.434649 0.000283581 1.78431e-07 135190 0.434171 1.78235e-07 8.81969e-05 273.503 2.43595e+06
0.768555 0.464953 0.000334669 1.61735e-07 158170 0.464375 1.61534e-07 7.84179e-05 326.221 2.87479e+06
0.812184 0.498264 0.000394961 1.46864e-07 188560 0.497642 1.46681e-07 6.96525e-05 397.583 3.39269e+06
0.85829 0.531246 0.000466114 1.32682e-07 220444 0.530522 1.32502e-07 6.1805e-05 473.247 4.00389e+06
0.907013 0.576064 0.000550086 1.21913e-07 261388 0.575385 1.21769e-07 5.47875e-05 581.641 4.7252e+06
0.958501 0.613548 0.000649185 1.10025e-07 308244 0.612747 1.09881e-07 4.85194e-05 698.987 5.57646e+06
1.01291 0.664273 0.000766138 1.00937e-07 364396 0.663351 1.00797e-07 4.29272e-05 856.823 6.58107e+06
1.07041 0.711963 0.00090416 9.1669e-08 429162 0.710959 9.15397e-08 3.79435e-05 1036.83 7.76667e+06
1.13118 0.768464 0.00106705 8.38398e-08 506358 0.767379 8.37215e-08 3.3507e-05 1266.99 9.16586e+06
1.19539 0.831694 0.00125928 7.68869e-08 598590 0.830402 7.67674e-08 2.9562e-05 1556.85 1.08171e+07
1.26325 0.89422 0.00148614 7.00479e-08 704844 0.892843 6.994e-08 2.60578e-05 1894.74 1.27658e+07
1.33496 0.967688 0.00175387 6.42314e-08 834620 0.966205 6.4133e-08 2.29484e-05 2336.05 1.50656e+07
1.41075 1.04937 0.00206984 5.90207e-08 981444 1.04765 5.89237e-08 2.01923e-05 2868.69 1.77798e+07
1.49083 1.13267 0.00244272 5.39809e-08 1.15998e+06 1.13082 5.38924e-08 1.77518e-05 3527.34 2.09828e+07
1.57546 1.23101 0.00288279 4.97118e-08 1.36931e+06 1.22892 4.96273e-08 1.55929e-05 4365.52 2.4763e+07
1.66489 1.33292 0.00340213 4.56105e-08 1.61652e+06 1.33063 4.55322e-08 1.3685e-05 5387.65 2.92241e+07
1.75941 1.45271 0.00401503 4.21211e-08 1.90601e+06 1.45011 4.20459e-08 1.20007e-05 6689.87 3.44889e+07
1.85928 1.57553 0.00473835 3.87087e-08 2.24913e+06 1.57265 3.8638e-08 1.05151e-05 8279.59 4.07021e+07
1.96483 1.72008 0.00559198 3.58092e-08 2.65744e+06 1.71699 3.57449e-08 9.20606e-06 10336.8 4.80347e+07
2.07637 1.87557 0.00659939 3.30856e-08 3.13125e+06 1.8722 3.30263e-08 8.05366e-06 12863.7 5.66883e+07
2.19424 2.0477 0.00778828 3.06079e-08 3.69915e+06 2.04404 3.05532e-08 7.04008e-06 16082.7 6.69008e+07
2.3188 2.24018 0.00919136 2.83736e-08 4.36472e+06 2.23594 2.83198e-08 6.1494e-06 20139 7.89532e+07
2.45043 2.45383 0.0108472 2.63352e-08 5.14913e+06 2.44931 2.62866e-08 5.36741e-06 25264.3 9.31768e+07
2.58954 2.68856 0.0128014 2.44497e-08 6.07894e+06 2.68355 2.44042e-08 4.68145e-06 31748.4 1.09963e+08
2.73654 2.9468 0.0151076 2.27073e-08 7.17304e+06 2.94122 2.26644e-08 4.08023e-06 39919.4 1.29773e+08
2.89188 3.23217 0.0178292 2.11044e-08 8.46557e+06 3.22601 2.10641e-08 3.55373e-06 50274 1.53152e+08
3.05605 3.54866 0.0210412 1.96338e-08 9.98773e+06 3.54213 1.95976e-08 3.09304e-06 63399.4 1.80743e+08
3.22953 3.89769 0.0248319 1.82729e-08 1.1797e+07 3.89004 1.82371e-08 2.69025e-06 80128.5 2.13304e+08
3.41286 4.28426 0.0293054 1.70192e-08 1.39144e+07 4.27586 1.69858e-08 2.33837e-06 101272 2.51731e+08
3.6066 4.71434 0.0345848 1.58688e-08 1.64163e+07 4.70508 1.58377e-08 2.0312e-06 128253 2.97081e+08
3.81134 5.18262 0.0408154 1.47821e-08 1.93821e+07 5.17252 1.47533e-08 1.76327e-06 162487 3.50601e+08
4.0277 5.69884 0.0481684 1.37732e-08 2.28754e+07 5.6875 1.37458e-08 1.52972e-06 205964 4.13763e+08
4.25634 6.26526 0.056846 1.28307e-08 2.69929e+07 6.25268 1.28049e-08 1.32631e-06 261129 4.88304e+08
4.49796 6.88614 0.067087 1.19494e-08 3.18542e+07 6.87219 1.19252e-08 1.14926e-06 331206 5.76273e+08
4.7533 7.56259 0.0791729 1.112e-08 3.75892e+07 7.54743 1.10977e-08 9.95263e-07 419981 6.8009e+08
5.02313 8.29302 0.0934361 1.03326e-08 4.43706e+07 8.27631 1.03117e-08 8.61414e-07 532220 8.0261e+08
5.30828 9.09586 0.110269 9.60286e-09 5.23593e+07 9.07772 9.58372e-09 7.45152e-07 674760 9.47202e+08
5.60962 9.9571 0.130134 8.90742e-09 6.1787e+07 9.93732 8.88973e-09 6.44232e-07 854293 1.11784e+09
5.92807 10.8917 0.153578 8.25613e-09 7.29346e+07 10.87 8.23966e-09 5.56685e-07 1.08168e+06 1.31923e+09
6.26459 11.8977 0.181246 7.64198e-09 8.60651e+07 11.8738 7.62665e-09 4.80786e-07 1.36798e+06 1.55689e+09
6.62021 12.9671 0.213898 7.05746e-09 1.01558e+08 12.9413 7.04338e-09 4.15026e-07 1.72698e+06 1.83737e+09
6.99602 14.1181 0.252432 6.5109e-09 1.1986e+08 14.0905 6.49819e-09 3.58083e-07 2.17937e+06 2.16837e+09
7.39317 15.3464 0.297908 5.99702e-09 1.41457e+08 15.3164 5.98528e-09 3.08803e-07 2.74712e+06 2.55901e+09
7.81286 16.6602 0.351577 5.51657e-09 1.66936e+08 16.6279 5.50588e-09 2.66181e-07 3.45973e+06 3.02002e+09
8.25637 18.0524 0.414914 5.06508e-09 1.97025e+08 18.0174 5.05527e-09 2.29336e-07 4.35146e+06 3.56409e+09
8.72507 19.5411 0.489662 4.64582e-09 2.32497e+08 19.5033 4.63682e-09 1.97503e-07 5.46897e+06 4.20617e+09
9.22037 21.1539 0.577876 4.26153e-09 2.74404e+08 21.1127 4.25323e-09 1.70014e-07 6.87815e+06 4.96392e+09
9.74378 22.926 0.681982 3.91351e-09 3.2382e+08 22.8805 3.90573e-09 1.46289e-07 8.6628e+06 5.85818e+09
10.2969 24.9312 0.804843 3.60613e-09 3.82165e+08 24.8801 3.59874e-09 1.25822e-07 1.0953e+07 6.91355e+09
10.8814 27.3005 0.949838 3.34605e-09 4.51027e+08 27.2413 3.33878e-09 1.08175e-07 1.3951e+07 8.15905e+09
11.4992 30.2725 1.12095 3.14392e-09 5.32251e+08 30.2003 3.13642e-09 9.29669e-08 1.79994e+07 9.62892e+09
12.1519 34.3432 1.3229 3.02221e-09 6.28157e+08 34.2485 3.01388e-09 7.98658e-08 2.37702e+07 1.13636e+10
12.8418 38.7543 1.56122 2.88979e-09 3.82727e+08 40.1094 2.99083e-09 6.85852e-08 1.61259e+07 1.34108e+10
13.5708 0 1.84248 0 0 0 0 5.88765e-08 0 1.58268e+10
14.3411 0 2.17441 0 0 0 0 5.05241e-08 0 1.8678e+10
15.1552 0 2.56613 0 0 0 0 4.33417e-08 0 2.20429e+10
16.0156 0 3.02843 0 0 0 0 3.71677e-08 0 2.6014e+10
16.9247 0 3.574 0 0 0 0 3.18628e-08 0 3.07005e+10
17.8855 0 4.21787 0 0 0 0 2.73063e-08 0 3.62312e+10
18.9008 0 4.97773 0 0 0 0 2.33941e-08 0 4.27584e+10
19.9738 0 5.87448 0 0 0 0 2.00364e-08 0 5.04614e+10
21.1076 0 6.93279 0 0 0 0 1.71555e-08 0 5.95522e+10
22.3058 0 8.18175 0 0 0 0 1.46847e-08 0 7.02807e+10
23.5721 0 9.65571 0 0 0 0 1.25662e-08 0 8.29419e+10
24.9102 0 11.3952 0 0 0 0 1.07504e-08 0 9.78842e+10
26.3243 0 13.4481 0 0 0 0 9.19452e-09 0 1.15518e+11
27.8187 0 15.8708 0 0 0 0 7.86182e-09 0 1.36329e+11
29.3979 0 18.73 0 0 0 0 6.72061e-09 0 1.60889e+11
31.0667 0 22.1042 0 0 0 0 5.74366e-09 0 1.89874e+11
32.8303 0 26.0864 0 0 0 0 4.90756e-09 0 2.2408e+11
34.694 0 30.7859 0 0 0 0 4.19221e-09 0 2.64449e+11
36.6634 0 36.3321 0 0 0 0 3.58032e-09 0 3.1209e+11
38.7447 0 42.8774 0 0 0 0 3.05709e-09 0 3.68314e+11
40.9442 0 50.6018 0 0 0 0 2.60976e-09 0 4.34667e+11
43.2685 0 59.7179 0 0 0 0 2.22743e-09 0 5.12973e+11
45.7247 0 70.4762 0 0 0 0 1.90073e-09 0 6.05386e+11
48.3204 0 83.1727 0 0 0 0 1.62163e-09 0 7.14448e+11
51.0634 0 98.1565 0 0 0 0 1.38326e-09 0 8.43158e+11
53.9621 0 115.84 0 0 0 0 1.1797e-09 0 9.95055e+11
57.0254 0 136.709 0 0 0 0 1.00592e-09 0 1.17432e+12
60.2626 0 161.337 0 0 0 0 8.57591e-10 0 1.38587e+12
63.6835 0 190.402 0 0 0 0 7.3101e-10 0 1.63554e+12
67.2987 0 224.704 0 0 0 0 6.23009e-10 0 1.93019e+12
71.1191 0 265.185 0 0 0 0 5.30879e-10 0 2.27792e+12
75.1563 0 312.958 0 0 0 0 4.52303e-10 0 2.68829e+12
79.4227 0 369.339 0 0 0 0 3.85299e-10 0 3.17259e+12
83.9313 0 435.876 0 0 0 0 3.28173e-10 0 3.74415e+12
88.6959 0 514.4 0 0 0 0 2.79476e-10 0 4.41866e+12
93.7309 0 607.071 0 0 0 0 2.37972e-10 0 5.2147e+12
99.0518 0 716.436 0 0 0 0 2.02605e-10 0 6.15414e+12
104.675 0 845.504 0 0 0 0 1.72471e-10 0 7.26283e+12
110.617 0 997.824 0 0 0 0 1.468e-10 0 8.57124e+12
116.896 0 1177.58 0 0 0 0 1.24935e-10 0 1.01154e+13
123.532 0 1389.73 0 0 0 0 1.06313e-10 0 1.19377e+13
130.545 0 1640.09 0 0 0 0 9.04567e-11 0 1.40883e+13
137.955 0 1935.56 0 0 0 0 7.69563e-11 0 1.66263e+13
145.787 0 2284.26 0 0 0 0 6.54636e-11 0 1.96216e+13
154.063 0 2695.77 0 0 0 0 5.56812e-11 0 2.31565e+13
162.808 0 3181.42 0 0 0 0 4.73556e-11 0 2.73282e+13
172.051 0 3754.56 0 0 0 0 4.02708e-11 0 3.22515e+13
181.818 0 4430.96 0 0 0 0 3.42426e-11 0 3.80616e+13
192.139 0 5229.21 0 0 0 0 2.91139e-11 0 4.49186e+13
203.046 0 6171.26 0 0 0 0 2.4751e-11 0 5.30108e+13
214.572 0 7283.03 0 0 0 0 2.10401e-11 0 6.25608e+13
226.753 0 8595.09 0 0 0 0 1.78839e-11 0 7.38313e+13
239.625 0 10143.5 0 0 0 0 1.51999e-11 0 8.71322e+13
253.228 0 11970.9 0 0 0 0 1.29176e-11 0 1.02829e+14
267.603 0 14127.5 0 0 0 0 1.09771e-11 0 1.21354e+14
282.795 0 16672.6 0 0 0 0 9.3274e-12 0 1.43217e+14
298.848 0 19676.2 0 0 0 0 7.925e-12 0 1.69017e+14
315.813 0 23220.9 0 0 0 0 6.73295e-12 0 1.99466e+14
333.741 0 27404.3 0 0 0 0 5.71979e-12 0 2.35401e+14
352.686 0 32341.2 0 0 0 0 4.85874e-12 0 2.77809e+14
372.707 0 38167.6 0 0 0 0 4.12703e-12 0 3.27857e+14
393.865 0 45043.5 0 0 0 0 3.50528e-12 0 3.86921e+14
416.224 0 53158.3 0 0 0 0 2.97701e-12 0 4.56626e+14
439.852 0 62734.9 0 0 0 0 2.52819e-12 0 5.38888e+14
464.821 0 74036.7 0 0 0 0 2.1469e-12 0 6.35971e+14
491.207 0 87374.6 0 0 0 0 1.82301e-12 0 7.50542e+14
519.092 0 103115 0 0 0 0 1.54789e-12 0 8.85755e+14
548.56 0 121692 0 0 0 0 1.31422e-12 0 1.04533e+15
579.7 0 143615 0 0 0 0 1.11576e-12 0 1.23364e+15
612.608 0 169488 0 0 0 0 9.47223e-13 0 1.45589e+15
647.384 0 200021 0 0 0 0 8.041e-13 0 1.71817e+15
684.134 0 236056 0 0 0 0 6.82568e-13 0 2.0277e+15
722.971 0 278582 0 0 0 0 5.79376e-13 0 2.393e+15
764.012 0 328769 0 0 0 0 4.91762e-13 0 2.8241e+15
