0.682472
200
1.0655e+09
8589934592
0.0129181 0 1.58924e-09 0 0 0 0 0.00677225 0 13.6515
0.0136515 0 1.87554e-09 0 0 0 0 0.00688819 0 16.1108
0.0144264 0 2.21343e-09 0 0 0 0 0.00699249 0 19.0132
0.0152454 0 2.61218e-09 0 0 0 0 0.00708412 0 22.4385
0.0161108 0 3.08278e-09 0 0 0 0 0.00716212 0 26.4808
0.0170254 0 3.63815e-09 0 0 0 0 0.00722559 0 31.2514
0.0179919 0 4.29357e-09 0 0 0 0 0.00727371 0 36.8815
0.0190132 0 5.06707e-09 0 0 0 0 0.00730578 0 43.5258
0.0200925 0 5.97991e-09 0 0 0 0 0.00732122 0 51.367
0.0212331 0 7.05721e-09 0 0 0 0 0.00731958 0 60.621
0.0224385 0 8.32858e-09 0 0 0 0 0.00730056 0 71.542
0.0237123 0 9.829e-09 0 0 0 0 0.00726401 0 84.4305
0.0250583 0 1.15997e-08 0 0 0 0 0.00720995 0 99.6408
0.0264808 0 1.36894e-08 0 0 0 0 0.00713857 0 117.591
0.0279841 0 1.61556e-08 0 0 0 0 0.00705021 0 138.776
0.0295727 0 1.90661e-08 0 0 0 0 0.00694538 0 163.777
0.0312514 0 2.25009e-08 0 0 0 0 0.00682475 0 193.281
0.0330255 0 2.65545e-08 0 0 0 0 0.00668915 0 228.102
0.0349003 0 3.13384e-08 0 0 0 0 0.00653951 0 269.195
0.0368815 0 3.69841e-08 0 0 0 0 0.00637693 0 317.691
0.0389751 0 4.36469e-08 0 0 0 0 0.00620256 0 374.924
0.0411876 0 5.151e-08 0 0 0 0 0.00601767 0 442.467
0.0435258 0 6.07896e-08 0 0 0 0 0.00582358 0 522.179
0.0459966 0 7.1741e-08 0 0 0 0 0.00562166 0 616.251
0.0486077 0 8.46654e-08 0 0 0 0 0.0054133 0 727.27
0.051367 0 9.99181e-08 0 0 0 0 0.00519989 0 858.29
0.054283 0 1.17919e-07 0 0 0 0 0.0049828 0 1012.91
0.0573645 0 1.39162e-07 0 0 0 0 0.00476339 0 1195.39
0.060621 0 1.64232e-07 0 0 0 0 0.00454293 0 1410.75
0.0640622 0 1.93819e-07 0 0 0 0 0.00432265 0 1664.89
0.0676989 0 2.28736e-07 0 0 0 0 0.00410371 0 1964.83
0.071542 0 2.69944e-07 0 0 0 0 0.00388717 0 2318.8
0.0756032 0 3.18575e-07 0 0 0 0 0.00367401 0 2736.54
0.079895 0 3.75967e-07 0 0 0 0 0.0034651 0 3229.53
0.0844305 0 4.43698e-07 0 0 0 0 0.00326121 0 3811.34
0.0892234 0 5.23632e-07 0 0 0 0 0.00306301 0 4497.96
0.0942883 0 6.17966e-07 0 0 0 0 0.00287109 0 5308.28
0.0996408 0 7.29294e-07 0 0 0 0 0.00268591 0 6264.59
0.105297 0 8.60678e-07 0 0 0 0 0.00250785 0 7393.17
0.111275 0 1.01573e-06 0 0 0 0 0.00233721 0 8725.07
0.117591 0 1.19872e-06 0 0 0 0 0.00217419 0 10296.9
0.124267 0 1.41467e-06 0 0 0 0 0.00201893 0 12151.9
0.131321 0 1.66953e-06 0 0 0 0 0.00187147 0 14341.1
0.138776 0 1.9703e-06 0 0 0 0 0.00173182 0 16924.7
0.146654 0 2.32525e-06 0 0 0 0 0.00159991 0 19973.8
0.154979 0 2.74415e-06 0 0 0 0 0.00147563 0 23572.1
0.163777 0 3.23852e-06 0 0 0 0 0.00135884 0 27818.7
0.173074 0 3.82195e-06 0 0 0 0 0.00124933 0 32830.3
0.182899 0 4.51048e-06 0 0 0 0 0.00114689 0 38744.7
0.193281 0 5.32305e-06 0 0 0 0 0.00105127 0 45724.7
0.204254 0 6.28202e-06 0 0 0 0 0.000962209 0 53962.1
0.215848 0 7.41374e-06 0 0 0 0 0.000879423 0 63683.5
0.228102 0 8.74934e-06 0 0 0 0 0.000802624 0 75156.3
0.24105 0 1.03256e-05 0 0 0 0 0.000731515 0 88695.9
0.254734 0 1.21857e-05 0 0 0 0 0.000665798 0 104675
0.269195 0 1.4381e-05 0 0 0 0 0.000605173 0 123532
0.284476 0 1.69718e-05 0 0 0 0 0.000549345 0 145787
0.300625 0 2.00293e-05 0 0 0 0 0.000498021 0 172051
0.317691 0 2.36377e-05 0 0 0 0 0.000450916 0 203046
0.335725 0 2.78961e-05 0 0 0 0 0.000407755 0 239625
0.354784 0 3.29216e-05 0 0 0 0 0.000368269 0 282795
0.374924 0 3.88525e-05 0 0 0 0 0.000332202 0 333741
0.396207 1.8154 4.58519e-05 4.6092e-06 6 1.76493 4.48106e-06 0.000299307 0.0923975 393865
0.418699 0 5.41123e-05 0 0 0 0 0.00026935 0 464821
0.442467 0 6.38607e-05 0 0 0 0 0.000242108 0 548560
0.467585 0 7.53654e-05 0 0 0 0 0.00021737 0 647384
0.494129 0 8.89427e-05 0 0 0 0 0.000194938 0 764012
0.522179 0 0.000104966 0 0 0 0 0.000174625 0 901651
0.551822 0 0.000123876 0 0 0 0 0.000156255 0 1.06409e+06
0.583147 5.63966 0.000146192 4.49095e-06 12 5.93577 4.72675e-06 0.000139664 0.385864 1.25578e+06
0.616251 0 0.000172529 0 0 0 0 0.0001247 0 1.48202e+06
0.651234 0 0.000203611 0 0 0 0 0.00011122 0 1.74901e+06
0.688203 18.7555 0.000240292 9.08654e-06 8 18.2889 8.86048e-06 9.90935e-05 0.733573 2.06409e+06
0.72727 0 0.000283581 0 0 0 0 8.81969e-05 0 2.43595e+06
0.768555 0 0.000334669 0 0 0 0 7.84179e-05 0 2.87479e+06
0.812184 7.07524 0.000394961 2.08544e-06 6 7.22651 2.13003e-06 6.96525e-05 0.179644 3.39269e+06
0.85829 0 0.000466114 0 0 0 0 6.1805e-05 0 4.00389e+06
0.907013 1.22306 0.000550086 2.58837e-07 24 1.24653 2.63804e-07 5.47875e-05 0.113385 4.7252e+06
0.958501 3.88048 0.000649185 6.95868e-07 24 3.65318 6.55108e-07 4.85194e-05 0.344209 5.57646e+06
1.01291 0 0.000766138 0 0 0 0 4.29272e-05 0 6.58107e+06
1.07041 0 0.00090416 0 0 0 0 3.79435e-05 0 7.76667e+06
1.13118 2.61326 0.00106705 2.85108e-07 12 2.58116 2.81606e-07 3.3507e-05 0.102107 9.16586e+06
1.19539 4.24617 0.00125928 3.92542e-07 30 4.15863 3.84449e-07 2.9562e-05 0.398357 1.08171e+07
1.26325 8.88233 0.00148614 6.95789e-07 24 8.74868 6.85319e-07 2.60578e-05 0.640842 1.27658e+07
1.33496 15.6579 0.00175387 1.03931e-06 24 15.6923 1.0416e-06 2.29484e-05 1.08694 1.50656e+07
1.41075 19.3473 0.00206984 1.08816e-06 32 19.6163 1.10329e-06 2.01923e-05 1.72448 1.77798e+07
1.49083 6.506 0.00244272 3.10063e-07 48 6.3673 3.03453e-07 1.77518e-05 0.838398 2.09828e+07
1.57546 23.8554 0.00288279 9.63349e-07 6 22.7157 9.17325e-07 1.55929e-05 0.370689 2.4763e+07
1.66489 5.59508 0.00340213 1.91454e-07 84 5.48126 1.8756e-07 1.3685e-05 1.17517 2.92241e+07
1.75941 6.50089 0.00401503 1.88492e-07 48 6.38163 1.85035e-07 1.20007e-05 0.753927 3.44889e+07
1.85928 6.33216 0.00473835 1.55573e-07 72 6.36644 1.56415e-07 1.05151e-05 1.06526 4.07021e+07
1.96483 18.0221 0.00559198 3.7519e-07 54 17.6162 3.66738e-07 9.20606e-06 2.20075 4.80347e+07
2.07637 12.6235 0.00659939 2.22683e-07 104 12.7739 2.25337e-07 8.05366e-06 2.8756 5.66883e+07
2.19424 8.32552 0.00778828 1.24446e-07 120 8.43098 1.26022e-07 7.04008e-06 2.12121 6.69008e+07
2.3188 8.81983 0.00919136 1.1171e-07 156 8.57316 1.08585e-07 6.1494e-06 2.83388 7.89532e+07
2.45043 12.8952 0.0108472 1.38395e-07 126 12.8846 1.38281e-07 5.36741e-06 3.24882 9.31768e+07
2.58954 11.4494 0.0128014 1.04121e-07 192 11.5195 1.04758e-07 4.68145e-06 4.27031 1.09963e+08
2.73654 29.7505 0.0151076 2.2925e-07 152 30.0315 2.31415e-07 4.08023e-06 8.54019 1.29773e+08
2.89188 15.4108 0.0178292 1.00624e-07 378 15.4726 1.01028e-07 3.55373e-06 10.7031 1.53152e+08
3.05605 11.3297 0.0210412 6.26842e-08 264 11.1279 6.15674e-08 3.09304e-06 5.35028 1.80743e+08
3.22953 11.2091 0.0248319 5.255e-08 366 11.1374 5.22135e-08 2.69025e-06 7.14925 2.13304e+08
3.41286 13.3973 0.0293054 5.32205e-08 428 13.2486 5.263e-08 2.33837e-06 9.74112 2.51731e+08
3.6066 17.4597 0.0345848 5.87706e-08 486 17.1732 5.78065e-08 2.0312e-06 14.0619 2.97081e+08
3.81134 14.4765 0.0408154 4.12905e-08 600 14.5058 4.1374e-08 1.76327e-06 14.0502 3.50601e+08
4.0277 19.9811 0.0481684 4.8291e-08 738 19.8307 4.79276e-08 1.52972e-06 23.2976 4.13763e+08
4.25634 21.3384 0.056846 4.3699e-08 824 21.3497 4.37222e-08 1.32631e-06 27.1491 4.88304e+08
4.49796 21.7626 0.067087 3.77644e-08 954 21.5583 3.74099e-08 1.14926e-06 31.3483 5.76273e+08
4.7533 21.0687 0.0791729 3.09792e-08 1094 21.0262 3.09168e-08 9.95263e-07 34.0526 6.8009e+08
5.02313 24.597 0.0934361 3.06462e-08 1332 24.6912 3.07636e-08 8.61414e-07 47.3881 8.0261e+08
5.30828 29.0756 0.110269 3.06963e-08 1614 29.0616 3.06815e-08 7.45152e-07 66.4881 9.47202e+08
5.60962 32.7083 0.130134 2.92602e-08 1850 32.592 2.91561e-08 6.44232e-07 84.0245 1.11784e+09
5.92807 28.9397 0.153578 2.19369e-08 2238 28.9475 2.19428e-08 5.56685e-07 88.1912 1.31923e+09
6.26459 31.0787 0.181246 1.99621e-08 2546 31.1462 2.00054e-08 4.80786e-07 105.709 1.55689e+09
6.62021 32.8884 0.213898 1.78998e-08 3264 32.893 1.79023e-08 4.15026e-07 140.774 1.83737e+09
6.99602 38.1605 0.252432 1.75987e-08 3506 38.2055 1.76194e-08 3.58083e-07 172.309 2.16837e+09
7.39317 38.5876 0.297908 1.50791e-08 4506 38.5558 1.50667e-08 3.08803e-07 220.031 2.55901e+09
7.81286 41.8962 0.351577 1.38728e-08 5018 41.7712 1.38314e-08 2.66181e-07 261.528 3.02002e+09
8.25637 44.3484 0.414914 1.24431e-08 5852 44.3473 1.24428e-08 2.29336e-07 317.513 3.56409e+09
8.72507 47.42 0.489662 1.12739e-08 7362 47.2774 1.124e-08 1.97503e-07 420.24 4.20617e+09
9.22037 46.4274 0.577876 9.35298e-09 8306 46.2492 9.31706e-09 1.70014e-07 456.937 4.96392e+09
9.74378 52.0249 0.681982 8.88072e-09 9698 51.9136 8.86173e-09 1.46289e-07 588.734 5.85818e+09
10.2969 55.5406 0.804843 8.03359e-09 11816 55.4897 8.02623e-09 1.25822e-07 754.435 6.91355e+09
10.8814 62.204 0.949838 7.62394e-09 13682 62.0619 7.60651e-09 1.08175e-07 964.273 8.15905e+09
11.4992 63.8029 1.12095 6.62617e-09 16152 63.7715 6.62291e-09 9.29669e-08 1151.23 9.62892e+09
12.1519 67.6622 1.3229 5.95429e-09 19472 67.5297 5.94263e-09 7.98658e-08 1451.71 1.13636e+10
12.8418 70.0174 1.56122 5.22098e-09 22670 69.8365 5.20749e-09 6.85852e-08 1725.73 1.34108e+10
13.5708 75.1474 1.84248 4.74812e-09 26224 75.05 4.74197e-09 5.88765e-08 2114.85 1.58268e+10
14.3411 79.7062 2.17441 4.26738e-09 31640 79.6123 4.26236e-09 5.05241e-08 2672.39 1.8678e+10
15.1552 83.1488 2.56613 3.77213e-09 37484 82.9937 3.7651e-09 4.33417e-08 3262.33 2.20429e+10
16.0156 90.33 3.02843 3.47236e-09 43856 90.1787 3.46655e-09 3.71677e-08 4097.21 2.6014e+10
16.9247 96.463 3.574 3.14207e-09 51362 96.3237 3.13753e-09 3.18628e-08 5064.93 3.07005e+10
17.8855 100.045 4.21787 2.76128e-09 61636 99.8746 2.75659e-09 2.73063e-08 6232.78 3.62312e+10
18.9008 105.124 4.97773 2.45856e-09 72218 104.915 2.45367e-09 2.33941e-08 7589.62 4.27584e+10
19.9738 110.72 5.87448 2.19415e-09 84586 110.523 2.19025e-09 2.00364e-08 9262.87 5.04614e+10
21.1076 117.829 6.93279 1.97858e-09 100708 117.625 1.97516e-09 1.71555e-08 11614.8 5.95522e+10
22.3058 124.505 8.18175 1.77154e-09 118712 124.312 1.7688e-09 1.46847e-08 14321.3 7.02807e+10
23.5721 130.774 9.65571 1.5767e-09 140410 130.526 1.5737e-09 1.25662e-08 17617.5 8.29419e+10
24.9102 137.385 11.3952 1.40355e-09 164374 137.111 1.40075e-09 1.07504e-08 21460.4 9.78842e+10
26.3243 143.582 13.4481 1.24293e-09 194680 143.371 1.24111e-09 9.19452e-09 26317.3 1.15518e+11
27.8187 152.19 15.8708 1.11635e-09 230196 151.978 1.11478e-09 7.86182e-09 32686.9 1.36329e+11
29.3979 158.761 18.73 9.86771e-10 271156 158.523 9.85292e-10 6.72061e-09 39813.2 1.60889e+11
31.0667 168.07 22.1042 8.85169e-10 321076 167.742 8.83437e-10 5.74366e-09 49481.8 1.89874e+11
32.8303 176.898 26.0864 7.8944e-10 377436 176.568 7.87967e-10 4.90756e-09 60715.1 2.2408e+11
34.694 184.47 30.7859 6.97563e-10 447594 184.125 6.96259e-10 4.19221e-09 74477.5 2.64449e+11
36.6634 194.719 36.3321 6.23921e-10 525078 194.383 6.22844e-10 3.58032e-09 91502 3.1209e+11
38.7447 204.784 42.8774 5.56004e-10 621924 204.405 5.54974e-10 3.05709e-09 113112 3.68314e+11
40.9442 214.736 50.6018 4.94025e-10 732630 214.382 4.9321e-10 2.60976e-09 138686 4.34667e+11
43.2685 225.323 59.7179 4.39248e-10 865596 224.983 4.38586e-10 2.22743e-09 170695 5.12973e+11
45.7247 237.168 70.4762 3.91764e-10 1.02168e+06 236.795 3.91147e-10 1.90073e-09 210580 6.05386e+11
48.3204 247.287 83.1727 3.46123e-10 1.20544e+06 246.835 3.4549e-10 1.62163e-09 257289 7.14448e+11
51.0634 260.233 98.1565 3.08641e-10 1.42103e+06 259.756 3.08075e-10 1.38326e-09 317069 8.43158e+11
53.9621 273.675 115.84 2.75035e-10 1.67997e+06 273.176 2.74533e-10 1.1797e-09 391667 9.95055e+11
57.0254 288.074 136.709 2.45312e-10 1.98018e+06 287.564 2.44877e-10 1.00592e-09 482904 1.17432e+12
60.2626 303.538 161.337 2.19023e-10 2.33957e+06 302.957 2.18604e-10 8.57591e-10 597509 1.38587e+12
63.6835 320.46 190.402 1.95935e-10 2.75676e+06 319.893 1.95588e-10 7.3101e-10 738905 1.63554e+12
67.2987 339.356 224.704 1.75815e-10 3.25638e+06 338.724 1.75488e-10 6.23009e-10 918959 1.93019e+12
71.1191 360.359 265.185 1.58197e-10 3.84387e+06 359.693 1.57904e-10 5.30879e-10 1.14543e+06 2.27792e+12
75.1563 383.357 312.958 1.42603e-10 4.53277e+06 382.619 1.42328e-10 4.52303e-10 1.42909e+06 2.68829e+12
79.4227 409.612 369.339 1.2911e-10 5.35083e+06 408.82 1.2886e-10 3.85299e-10 1.793e+06 3.17259e+12
83.9313 439.817 435.876 1.17468e-10 6.32174e+06 438.917 1.17228e-10 3.28173e-10 2.26284e+06 3.74415e+12
88.6959 473.41 514.4 1.07139e-10 7.44986e+06 472.412 1.06913e-10 2.79476e-10 2.85594e+06 4.41866e+12
93.7309 512.844 607.071 9.83459e-11 8.79764e+06 511.747 9.81355e-11 2.37972e-10 3.63577e+06 5.2147e+12
99.0518 559.18 716.436 9.08624e-11 1.03827e+07 557.911 9.06562e-11 2.02605e-10 4.65633e+06 6.15414e+12
104.675 612.394 845.504 8.43189e-11 1.22515e+07 610.948 8.41198e-11 1.72471e-10 5.98962e+06 7.26283e+12
110.617 676.017 997.824 7.88703e-11 1.44573e+07 674.383 7.86797e-11 1.468e-10 7.76739e+06 8.57124e+12
116.896 750.475 1177.58 7.41915e-11 1.70664e+07 748.571 7.40033e-11 1.24935e-10 1.01347e+07 1.01154e+13
123.532 839.265 1389.73 7.03039e-11 2.0139e+07 837.055 7.01187e-11 1.06313e-10 1.33177e+07 1.19377e+13
130.545 943.746 1640.09 6.6988e-11 2.37643e+07 941.184 6.68061e-11 9.04567e-11 1.75987e+07 1.40883e+13
137.955 1068.47 1935.56 6.42634e-11 2.80503e+07 1065.48 6.4084e-11 7.69563e-11 2.34238e+07 1.66263e+13
145.787 1216.94 2284.26 6.20206e-11 3.30981e+07 1213.44 6.18418e-11 6.54636e-11 3.13573e+07 1.96216e+13
154.063 1393.45 2695.77 6.01755e-11 3.90634e+07 1389.33 5.99974e-11 5.56812e-11 4.22165e+07 2.31565e+13
162.808 1602.81 3181.42 5.86505e-11 4.61057e+07 1597.95 5.84727e-11 4.73556e-11 5.71025e+07 2.73282e+13
172.051 1852.7 3754.56 5.74454e-11 5.44046e+07 1846.99 5.72685e-11 4.02708e-11 7.76069e+07 3.22515e+13
181.818 2150.64 4430.96 5.6504e-11 6.42064e+07 2143.91 5.63274e-11 3.42426e-11 1.05948e+08 3.80616e+13
192.139 2503.54 5229.21 5.57351e-11 7.57748e+07 2495.58 5.5558e-11 2.91139e-11 1.45062e+08 4.49186e+13
203.046 2925.62 6171.26 5.51892e-11 8.94213e+07 2916.25 5.50123e-11 2.4751e-11 1.99389e+08 5.30108e+13
214.572 3428.48 7283.03 5.48025e-11 1.05538e+08 3417.32 5.4624e-11 2.10401e-11 2.74892e+08 6.25608e+13
226.753 4030.5 8595.09 5.45907e-11 1.24552e+08 4017.21 5.44106e-11 1.78839e-11 3.80195e+08 7.38313e+13
239.625 4750.56 10143.5 5.45213e-11 1.46987e+08 4734.63 5.43385e-11 1.51999e-11 5.27236e+08 8.71322e+13
253.228 5616.41 11970.9 5.46188e-11 1.7347e+08 5597.32 5.44332e-11 1.29176e-11 7.33472e+08 1.02829e+14
267.603 6663.12 14127.5 5.49064e-11 2.04703e+08 6640.26 5.47179e-11 1.09771e-11 1.0239e+09 1.21354e+14
282.795 7935.95 16672.6 5.54122e-11 2.4161e+08 7908.14 5.52181e-11 9.3274e-12 1.43536e+09 1.43217e+14
298.848 9492.48 19676.2 5.61627e-11 2.85122e+08 9458.54 5.59619e-11 7.925e-12 2.0206e+09 1.69017e+14
315.813 11430 23220.9 5.73027e-11 3.36491e+08 11388 5.70924e-11 6.73295e-12 2.86381e+09 1.99466e+14
333.741 13874.7 27404.3 5.89407e-11 3.97115e+08 13822 5.87167e-11 5.71979e-12 4.09215e+09 2.35401e+14
352.686 17032.9 32341.2 6.13117e-11 4.68637e+08 16965.3 6.10682e-11 4.85874e-12 5.91366e+09 2.77809e+14
372.707 21231.8 38167.6 6.47592e-11 5.53074e+08 21142.1 6.44859e-11 4.12703e-12 8.67855e+09 3.27857e+14
393.865 27036.5 45043.5 6.98761e-11 6.52716e+08 26913.5 6.95582e-11 3.50528e-12 1.30116e+10 3.86921e+14
416.224 31927.9 53158.3 6.99214e-11 2.2184e+08 33776.8 7.39704e-11 2.97701e-12 5.21038e+09 4.56626e+14
439.852 0 62734.9 0 0 0 0 2.52819e-12 0 5.38888e+14
464.821 0 74036.7 0 0 0 0 2.1469e-12 0 6.35971e+14
491.207 0 87374.6 0 0 0 0 1.82301e-12 0 7.50542e+14
519.092 0 103115 0 0 0 0 1.54789e-12 0 8.85755e+14
548.56 0 121692 0 0 0 0 1.31422e-12 0 1.04533e+15
579.7 0 143615 0 0 0 0 1.11576e-12 0 1.23364e+15
612.608 0 169488 0 0 0 0 9.47223e-13 0 1.45589e+15
647.384 0 200021 0 0 0 0 8.041e-13 0 1.71817e+15
684.134 0 236056 0 0 0 0 6.82568e-13 0 2.0277e+15
722.971 0 278582 0 0 0 0 5.79376e-13 0 2.393e+15
764.012 0 328769 0 0 0 0 4.91762e-13 0 2.8241e+15
0.682472
200
1.0655e+09
8589934592
0.0129181 0.00122656 1.58924e-09 8.9848e-05 6 0.00121533 8.90255e-05 0.00677225 0.0796025 13.6515
0.0136515 0 1.87554e-09 0 0 0 0 0.00688819 0 16.1108
0.0144264 0 2.21343e-09 0 0 0 0 0.00699249 0 19.0132
0.0152454 0 2.61218e-09 0 0 0 0 0.00708412 0 22.4385
0.0161108 0 3.08278e-09 0 0 0 0 0.00716212 0 26.4808
0.0170254 0 3.63815e-09 0 0 0 0 0.00722559 0 31.2514
0.0179919 0.00224457 4.29357e-09 6.0859e-05 12 0.00224168 6.07806e-05 0.00727371 0.100404 36.8815
0.0190132 0 5.06707e-09 0 0 0 0 0.00730578 0 43.5258
0.0200925 0 5.97991e-09 0 0 0 0 0.00732122 0 51.367
0.0212331 0.0102039 7.05721e-09 0.000168323 8 0.010195 0.000168177 0.00731958 0.18397 60.621
0.0224385 0 8.32858e-09 0 0 0 0 0.00730056 0 71.542
0.0237123 0 9.829e-09 0 0 0 0 0.00726401 0 84.4305
0.0250583 0.00826541 1.15997e-08 8.2952e-05 6 0.00826152 8.2913e-05 0.00720995 0.0690313 99.6408
0.0264808 0 1.36894e-08 0 0 0 0 0.00713857 0 117.591
0.0279841 0.0168488 1.61556e-08 0.000121411 24 0.0168315 0.000121286 0.00705021 0.4133 138.776
0.0295727 0 1.90661e-08 0 0 0 0 0.00694538 0 163.777
0.0312514 0.0302766 2.25009e-08 0.000156645 24 0.0304303 0.00015744 0.00682475 0.550859 193.281
0.0330255 0 2.65545e-08 0 0 0 0 0.00668915 0 228.102
0.0349003 0.0109908 3.13384e-08 4.08284e-05 12 0.0109028 4.05015e-05 0.00653951 0.0749201 269.195
0.0368815 0.0354263 3.69841e-08 0.000111512 30 0.0350491 0.000110324 0.00637693 0.524604 317.691
0.0389751 0.0405203 4.36469e-08 0.000108076 24 0.0401034 0.000106964 0.00620256 0.418186 374.924
0.0411876 0.0422271 5.151e-08 9.54355e-05 24 0.0419403 9.47873e-05 0.00601767 0.380621 442.467
0.0435258 0.023702 6.07896e-08 4.53905e-05 8 0.0237001 4.5387e-05 0.00582358 0.0623541 522.179
0.0459966 0.0355192 7.1741e-08 5.76376e-05 72 0.0353825 5.74157e-05 0.00562166 0.738199 616.251
0.0486077 0 8.46654e-08 0 0 0 0 0.0054133 0 727.27
0.051367 0.0688311 9.99181e-08 8.01956e-05 54 0.0684741 7.97797e-05 0.00519989 0.832818 858.29
0.054283 0.0760626 1.17919e-07 7.5093e-05 60 0.0764399 7.54654e-05 0.0049828 0.904225 1012.91
0.0573645 0.107687 1.39162e-07 9.0085e-05 96 0.107147 8.96331e-05 0.00476339 1.81555 1195.39
0.060621 0.0808245 1.64232e-07 5.7292e-05 24 0.0797294 5.65158e-05 0.00454293 0.30267 1410.75
0.0640622 0.0861748 1.93819e-07 5.17599e-05 134 0.0860632 5.16929e-05 0.00432265 1.60453 1664.89
0.0676989 0.0917279 2.28736e-07 4.66849e-05 120 0.0910827 4.63565e-05 0.00410371 1.36515 1964.83
0.071542 0.119552 2.69944e-07 5.15576e-05 108 0.11774 5.07762e-05 0.00388717 1.43246 2318.8
0.0756032 0.119365 3.18575e-07 4.3619e-05 174 0.118896 4.34477e-05 0.00367401 2.06578 2736.54
0.079895 0.137736 3.75967e-07 4.26488e-05 168 0.13637 4.2226e-05 0.0034651 2.06776 3229.53
0.0844305 0.147516 4.43698e-07 3.87045e-05 168 0.148221 3.88894e-05 0.00326121 1.99385 3811.34
0.0892234 0.140042 5.23632e-07 3.11346e-05 290 0.139589 3.10337e-05 0.00306301 2.94777 4497.96
0.0942883 0.168251 6.17966e-07 3.1696e-05 288 0.16808 3.16637e-05 0.00287109 3.17944 5308.28
0.0996408 0.156594 7.29294e-07 2.49967e-05 366 0.155547 2.48296e-05 0.00268591 3.40621 6264.59
0.105297 0.230827 8.60678e-07 3.12216e-05 420 0.228543 3.09128e-05 0.00250785 5.22881 7393.17
0.111275 0.220375 1.01573e-06 2.52577e-05 398 0.220375 2.52576e-05 0.00233721 4.30109 8725.07
0.117591 0.25991 1.19872e-06 2.52415e-05 624 0.260522 2.5301e-05 0.00217419 7.2444 10296.9
0.124267 0.319261 1.41467e-06 2.62724e-05 642 0.318065 2.61741e-05 0.00201893 8.3544 12151.9
0.131321 0.305075 1.66953e-06 2.12727e-05 800 0.305024 2.12692e-05 0.00187147 9.09349 14341.1
0.138776 0.304984 1.9703e-06 1.802e-05 858 0.305894 1.80738e-05 0.00173182 8.92772 16924.7
0.146654 0.383284 2.32525e-06 1.91894e-05 1080 0.385982 1.93245e-05 0.00159991 12.9536 19973.8
0.154979 0.36795 2.74415e-06 1.56096e-05 1286 0.370458 1.5716e-05 0.00147563 13.6036 23572.1
0.163777 0.41533 3.23852e-06 1.49299e-05 1650 0.415857 1.49488e-05 0.00135884 18.129 27818.7
0.173074 0.449202 3.82195e-06 1.36825e-05 1778 0.449526 1.36924e-05 0.00124933 19.4725 32830.3
0.182899 0.501474 4.51048e-06 1.2943e-05 2112 0.502527 1.29702e-05 0.00114689 23.8346 38744.7
0.193281 0.558987 5.32305e-06 1.22251e-05 2570 0.559447 1.22351e-05 0.00105127 29.8861 45724.7
0.204254 0.594258 6.28202e-06 1.10125e-05 3030 0.594735 1.10213e-05 0.000962209 34.6784 53962.1
0.215848 0.631535 7.41374e-06 9.91677e-06 3434 0.631499 9.9162e-06 0.000879423 38.7233 63683.5
0.228102 0.6779 8.74934e-06 9.01986e-06 4218 0.67809 9.0224e-06 0.000802624 47.4018 75156.3
0.24105 0.749439 1.03256e-05 8.44953e-06 4766 0.749564 8.45094e-06 0.000731515 55.0508 88695.9
0.254734 0.830742 1.21857e-05 7.93642e-06 6026 0.830197 7.9312e-06 0.000665798 71.8309 104675
0.269195 0.931828 1.4381e-05 7.5432e-06 6480 0.93168 7.54201e-06 0.000605173 80.7701 123532
0.284476 0.969073 1.69718e-05 6.64719e-06 8162 0.969714 6.65159e-06 0.000549345 98.762 145787
0.300625 1.09858 2.00293e-05 6.3852e-06 9578 1.09843 6.38433e-06 0.000498021 122.801 172051
0.317691 1.18105 2.36377e-05 5.81668e-06 11234 1.1801 5.81199e-06 0.000450916 144.915 203046
0.335725 1.30369 2.78961e-05 5.44054e-06 13344 1.30246 5.43542e-06 0.000407755 178.045 239625
0.354784 1.4126 3.29216e-05 4.99515e-06 15464 1.41162 4.9917e-06 0.000368269 209.752 282795
0.374924 1.53414 3.88525e-05 4.5968e-06 18458 1.5331 4.59369e-06 0.000332202 255.41 333741
0.396207 1.73078 4.58519e-05 4.39434e-06 22232 1.72781 4.3868e-06 0.000299307 326.404 393865
0.418699 1.89474 5.41123e-05 4.07629e-06 25628 1.88985 4.06576e-06 0.00026935 387.849 464821
0.442467 2.09861 6.38607e-05 3.82567e-06 30320 2.09512 3.81931e-06 0.000242108 479.102 548560
0.467585 2.29929 7.53654e-05 3.55166e-06 35452 2.29491 3.5449e-06 0.00021737 579.257 647384
0.494129 2.5412 8.89427e-05 3.32612e-06 41792 2.54021 3.32483e-06 0.000194938 713.074 764012
0.522179 2.78442 0.000104966 3.08814e-06 49988 2.78257 3.08609e-06 0.000174625 884.009 901651
0.551822 3.10931 0.000123876 2.92205e-06 59110 3.10613 2.91906e-06 0.000156255 1105.39 1.06409e+06
0.583147 3.45925 0.000146192 2.75466e-06 69716 3.45339 2.74998e-06 0.000139664 1375.04 1.25578e+06
0.616251 3.82925 0.000172529 2.58381e-06 82210 3.82209 2.57898e-06 0.0001247 1703.41 1.48202e+06
0.651234 4.21553 0.000203611 2.41025e-06 96722 4.20551 2.40452e-06 0.00011122 2096.05 1.74901e+06
0.688203 4.68869 0.000240292 2.27155e-06 113098 4.68011 2.26739e-06 9.90935e-05 2592.58 2.06409e+06
0.72727 5.20435 0.000283581 2.13648e-06 135190 5.1961 2.13309e-06 8.81969e-05 3274.84 2.43595e+06
0.768555 5.79842 0.000334669 2.01699e-06 158170 5.78837 2.01349e-06 7.84179e-05 4068.3 2.87479e+06
0.812184 6.48371 0.000394961 1.91108e-06 188560 6.47445 1.90835e-06 6.96525e-05 5173.59 3.39269e+06
0.85829 7.17276 0.000466114 1.79145e-06 220444 7.16132 1.78859e-06 6.1805e-05 6389.68 4.00389e+06
0.907013 8.00346 0.000550086 1.69378e-06 261388 7.99171 1.6913e-06 5.47875e-05 8080.94 4.7252e+06
0.958501 8.9921 0.000649185 1.61251e-06 308244 8.97723 1.60984e-06 4.85194e-05 10244.3 5.57646e+06
1.01291 10.0028 0.000766138 1.51994e-06 364396 9.98529 1.51727e-06 4.29272e-05 12902.3 6.58107e+06
1.07041 11.1601 0.00090416 1.43692e-06 429162 11.14 1.43433e-06 3.79435e-05 16252.4 7.76667e+06
1.13118 12.4279 0.00106705 1.35589e-06 506358 12.4061 1.35351e-06 3.3507e-05 20490.2 9.16586e+06
1.19539 13.852 0.00125928 1.28056e-06 598590 13.8272 1.27827e-06 2.9562e-05 25929.6 1.08171e+07
1.26325 15.4123 0.00148614 1.20731e-06 704844 15.3827 1.20499e-06 2.60578e-05 32656.7 1.27658e+07
1.33496 17.1431 0.00175387 1.13789e-06 834620 17.1115 1.1358e-06 2.29484e-05 41384.4 1.50656e+07
1.41075 19.079 0.00206984 1.07308e-06 981444 19.0411 1.07094e-06 2.01923e-05 52156.8 1.77798e+07
1.49083 21.1242 0.00244272 1.00674e-06 1.15998e+06 21.0861 1.00492e-06 1.77518e-05 65784.6 2.09828e+07
1.57546 23.3641 0.00288279 9.4351e-07 1.36931e+06 23.3214 9.41788e-07 1.55929e-05 82855.7 2.4763e+07
1.66489 25.7844 0.00340213 8.82301e-07 1.61652e+06 25.7334 8.80554e-07 1.3685e-05 104220 2.92241e+07
1.75941 28.4745 0.00401503 8.25615e-07 1.90601e+06 28.4214 8.24075e-07 1.20007e-05 131128 3.44889e+07
1.85928 31.2608 0.00473835 7.68039e-07 2.24913e+06 31.2026 7.66609e-07 1.05151e-05 164280 4.07021e+07
1.96483 34.3497 0.00559198 7.15102e-07 2.65744e+06 34.2843 7.1374e-07 9.20606e-06 206423 4.80347e+07
2.07637 37.6482 0.00659939 6.64126e-07 3.13125e+06 37.5785 6.62898e-07 8.05366e-06 258211 5.66883e+07
2.19424 41.1024 0.00778828 6.14378e-07 3.69915e+06 41.0312 6.13313e-07 7.04008e-06 322820 6.69008e+07
2.3188 44.8757 0.00919136 5.68384e-07 4.36472e+06 44.7941 5.67349e-07 6.1494e-06 403428 7.89532e+07
2.45043 48.8 0.0108472 5.23736e-07 5.14913e+06 48.7141 5.22814e-07 5.36741e-06 502436 9.31768e+07
2.58954 52.9022 0.0128014 4.81091e-07 6.07894e+06 52.8105 4.80258e-07 4.68145e-06 624704 1.09963e+08
2.73654 57.3227 0.0151076 4.41715e-07 7.17304e+06 57.2241 4.40955e-07 4.08023e-06 776534 1.29773e+08
2.89188 61.9572 0.0178292 4.04547e-07 8.46557e+06 61.851 4.03854e-07 3.55373e-06 963697 1.53152e+08
3.05605 66.7859 0.0210412 3.69508e-07 9.98773e+06 66.6748 3.68893e-07 3.09304e-06 1.19318e+06 1.80743e+08
3.22953 71.8987 0.0248319 3.37071e-07 1.1797e+07 71.7759 3.36496e-07 2.69025e-06 1.47809e+06 2.13304e+08
3.41286 77.2983 0.0293054 3.07067e-07 1.39144e+07 77.1678 3.06548e-07 2.33837e-06 1.82719e+06 2.51731e+08
3.6066 82.974 0.0345848 2.79297e-07 1.64163e+07 82.8327 2.78821e-07 2.0312e-06 2.25729e+06 2.97081e+08
3.81134 88.8971 0.0408154 2.53556e-07 1.93821e+07 88.7523 2.53143e-07 1.76327e-06 2.78714e+06 3.50601e+08
4.0277 95.1482 0.0481684 2.29958e-07 2.28754e+07 94.9906 2.29577e-07 1.52972e-06 3.43879e+06 4.13763e+08
4.25634 101.636 0.056846 2.08142e-07 2.69929e+07 101.466 2.07793e-07 1.32631e-06 4.23608e+06 4.88304e+08
4.49796 108.4 0.067087 1.88105e-07 3.18542e+07 108.222 1.87796e-07 1.14926e-06 5.21376e+06 5.76273e+08
4.7533 115.508 0.0791729 1.69843e-07 3.75892e+07 115.319 1.69564e-07 9.95263e-07 6.41464e+06 6.8009e+08
5.02313 122.988 0.0934361 1.53235e-07 4.43706e+07 122.785 1.52982e-07 8.61414e-07 7.89297e+06 8.0261e+08
5.30828 130.778 0.110269 1.38068e-07 5.23593e+07 130.562 1.37839e-07 7.45152e-07 9.70154e+06 9.47202e+08
5.60962 138.937 0.130134 1.2429e-07 6.1787e+07 138.71 1.24087e-07 6.44232e-07 1.19204e+07 1.11784e+09
5.92807 147.41 0.153578 1.1174e-07 7.29346e+07 147.169 1.11557e-07 5.56685e-07 1.46397e+07 1.31923e+09
6.26459 156.317 0.181246 1.00404e-07 8.60651e+07 156.064 1.00241e-07 4.80786e-07 1.79732e+07 1.55689e+09
6.62021 165.634 0.213898 9.01477e-08 1.01558e+08 165.364 9.00008e-08 4.15026e-07 2.20594e+07 1.83737e+09
6.99602 175.359 0.252432 8.08711e-08 1.1986e+08 175.073 8.07392e-08 3.58083e-07 2.70697e+07 2.16837e+09
7.39317 185.555 0.297908 7.25104e-08 1.41457e+08 185.252 7.23921e-08 3.08803e-07 3.32156e+07 2.55901e+09
7.81286 196.309 0.351577 6.50026e-08 1.66936e+08 195.988 6.48961e-08 2.66181e-07 4.07665e+07 3.02002e+09
8.25637 207.652 0.414914 5.82623e-08 1.97025e+08 207.311 5.81667e-08 2.29336e-07 5.00537e+07 3.56409e+09
8.72507 219.658 0.489662 5.22228e-08 2.32497e+08 219.294 5.21363e-08 1.97503e-07 6.14757e+07 4.20617e+09
9.22037 232.452 0.577876 4.68283e-08 2.74404e+08 232.064 4.67501e-08 1.70014e-07 7.55812e+07 4.96392e+09
9.74378 246.426 0.681982 4.20652e-08 3.2382e+08 246.005 4.19934e-08 1.46289e-07 9.31141e+07 5.85818e+09
10.2969 262.135 0.804843 3.79161e-08 3.82165e+08 261.669 3.78487e-08 1.25822e-07 1.15164e+08 6.91355e+09
10.8814 280.804 0.949838 3.44163e-08 4.51027e+08 280.271 3.43509e-08 1.08175e-07 1.43495e+08 8.15905e+09
11.4992 304.643 1.12095 3.16383e-08 5.32251e+08 304 3.15716e-08 9.29669e-08 1.81135e+08 9.62892e+09
12.1519 338.378 1.3229 2.97773e-08 6.28157e+08 337.531 2.97029e-08 7.98658e-08 2.34204e+08 1.13636e+10
12.8418 376.239 1.56122 2.8055e-08 3.82727e+08 389.42 2.90378e-08 6.85852e-08 1.56555e+08 1.34108e+10
13.5708 0 1.84248 0 0 0 0 5.88765e-08 0 1.58268e+10
14.3411 0 2.17441 0 0 0 0 5.05241e-08 0 1.8678e+10
15.1552 0 2.56613 0 0 0 0 4.33417e-08 0 2.20429e+10
16.0156 0 3.02843 0 0 0 0 3.71677e-08 0 2.6014e+10
16.9247 0 3.574 0 0 0 0 3.18628e-08 0 3.07005e+10
17.8855 0 4.21787 0 0 0 0 2.73063e-08 0 3.62312e+10
18.9008 0 4.97773 0 0 0 0 2.33941e-08 0 4.27584e+10
19.9738 0 5.87448 0 0 0 0 2.00364e-08 0 5.04614e+10
21.1076 0 6.93279 0 0 0 0 1.71555e-08 0 5.95522e+10
22.3058 0 8.18175 0 0 0 0 1.46847e-08 0 7.02807e+10
23.5721 0 9.65571 0 0 0 0 1.25662e-08 0 8.29419e+10
24.9102 0 11.3952 0 0 0 0 1.07504e-08 0 9.78842e+10
26.3243 0 13.4481 0 0 0 0 9.19452e-09 0 1.15518e+11
27.8187 0 15.8708 0 0 0 0 7.86182e-09 0 1.36329e+11
29.3979 0 18.73 0 0 0 0 6.72061e-09 0 1.60889e+11
31.0667 0 22.1042 0 0 0 0 5.74366e-09 0 1.89874e+11
32.8303 0 26.0864 0 0 0 0 4.90756e-09 0 2.2408e+11
34.694 0 30.7859 0 0 0 0 4.19221e-09 0 2.64449e+11
36.6634 0 36.3321 0 0 0 0 3.58032e-09 0 3.1209e+11
38.7447 0 42.8774 0 0 0 0 3.05709e-09 0 3.68314e+11
40.9442 0 50.6018 0 0 0 0 2.60976e-09 0 4.34667e+11
43.2685 0 59.7179 0 0 0 0 2.22743e-09 0 5.12973e+11
45.7247 0 70.4762 0 0 0 0 1.90073e-09 0 6.05386e+11
48.3204 0 83.1727 0 0 0 0 1.62163e-09 0 7.14448e+11
51.0634 0 98.1565 0 0 0 0 1.38326e-09 0 8.43158e+11
53.9621 0 115.84 0 0 0 0 1.1797e-09 0 9.95055e+11
57.0254 0 136.709 0 0 0 0 1.00592e-09 0 1.17432e+12
60.2626 0 161.337 0 0 0 0 8.57591e-10 0 1.38587e+12
63.6835 0 190.402 0 0 0 0 7.3101e-10 0 1.63554e+12
67.2987 0 224.704 0 0 0 0 6.23009e-10 0 1.93019e+12
71.1191 0 265.185 0 0 0 0 5.30879e-10 0 2.27792e+12
75.1563 0 312.958 0 0 0 0 4.52303e-10 0 2.68829e+12
79.4227 0 369.339 0 0 0 0 3.85299e-10 0 3.17259e+12
83.9313 0 435.876 0 0 0 0 3.28173e-10 0 3.74415e+12
88.6959 0 514.4 0 0 0 0 2.79476e-10 0 4.41866e+12
93.7309 0 607.071 0 0 0 0 2.37972e-10 0 5.2147e+12
99.0518 0 716.436 0 0 0 0 2.02605e-10 0 6.15414e+12
104.675 0 845.504 0 0 0 0 1.72471e-10 0 7.26283e+12
110.617 0 997.824 0 0 0 0 1.468e-10 0 8.57124e+12
116.896 0 1177.58 0 0 0 0 1.24935e-10 0 1.01154e+13
123.532 0 1389.73 0 0 0 0 1.06313e-10 0 1.19377e+13
130.545 0 1640.09 0 0 0 0 9.04567e-11 0 1.40883e+13
137.955 0 1935.56 0 0 0 0 7.69563e-11 0 1.66263e+13
145.787 0 2284.26 0 0 0 0 6.54636e-11 0 1.96216e+13
154.063 0 2695.77 0 0 0 0 5.56812e-11 0 2.31565e+13
162.808 0 3181.42 0 0 0 0 4.73556e-11 0 2.73282e+13
172.051 0 3754.56 0 0 0 0 4.02708e-11 0 3.22515e+13
181.818 0 4430.96 0 0 0 0 3.42426e-11 0 3.80616e+13
192.139 0 5229.21 0 0 0 0 2.91139e-11 0 4.49186e+13
203.046 0 6171.26 0 0 0 0 2.4751e-11 0 5.30108e+13
214.572 0 7283.03 0 0 0 0 2.10401e-11 0 6.25608e+13
226.753 0 8595.09 0 0 0 0 1.78839e-11 0 7.38313e+13
239.625 0 10143.5 0 0 0 0 1.51999e-11 0 8.71322e+13
253.228 0 11970.9 0 0 0 0 1.29176e-11 0 1.02829e+14
267.603 0 14127.5 0 0 0 0 1.09771e-11 0 1.21354e+14
282.795 0 16672.6 0 0 0 0 9.3274e-12 0 1.43217e+14
298.848 0 19676.2 0 0 0 0 7.925e-12 0 1.69017e+14
315.813 0 23220.9 0 0 0 0 6.73295e-12 0 1.99466e+14
333.741 0 27404.3 0 0 0 0 5.71979e-12 0 2.35401e+14
352.686 0 32341.2 0 0 0 0 4.85874e-12 0 2.77809e+14
372.707 0 38167.6 0 0 0 0 4.12703e-12 0 3.27857e+14
393.865 0 45043.5 0 0 0 0 3.50528e-12 0 3.86921e+14
416.224 0 53158.3 0 0 0 0 2.97701e-12 0 4.56626e+14
439.852 0 62734.9 0 0 0 0 2.52819e-12 0 5.38888e+14
464.821 0 74036.7 0 0 0 0 2.1469e-12 0 6.35971e+14
491.207 0 87374.6 0 0 0 0 1.82301e-12 0 7.50542e+14
519.092 0 103115 0 0 0 0 1.54789e-12 0 8.85755e+14
548.56 0 121692 0 0 0 0 1.31422e-12 0 1.04533e+15
579.7 0 143615 0 0 0 0 1.11576e-12 0 1.23364e+15
612.608 0 169488 0 0 0 0 9.47223e-13 0 1.45589e+15
647.384 0 200021 0 0 0 0 8.041e-13 0 1.71817e+15
684.134 0 236056 0 0 0 0 6.82568e-13 0 2.0277e+15
722.971 0 278582 0 0 0 0 5.79376e-13 0 2.393e+15
764.012 0 328769 0 0 0 0 4.91762e-13 0 2.8241e+15
