0.0610242
200
1.0655e+09
8589934592
0.0129181 0 1.58924e-09 0 0 0 0 0.00677225 0 13.6515
0.0136515 0 1.87554e-09 0 0 0 0 0.00688819 0 16.1108
0.0144264 0 2.21343e-09 0 0 0 0 0.00699249 0 19.0132
0.0152454 0 2.61218e-09 0 0 0 0 0.00708412 0 22.4385
0.0161108 0 3.08278e-09 0 0 0 0 0.00716212 0 26.4808
0.0170254 0 3.63815e-09 0 0 0 0 0.00722559 0 31.2514
0.0179919 0 4.29357e-09 0 0 0 0 0.00727371 0 36.8815
0.0190132 0 5.06707e-09 0 0 0 0 0.00730578 0 43.5258
0.0200925 0 5.97991e-09 0 0 0 0 0.00732122 0 51.367
0.0212331 0 7.05721e-09 0 0 0 0 0.00731958 0 60.621
0.0224385 0 8.32858e-09 0 0 0 0 0.00730056 0 71.542
0.0237123 0 9.829e-09 0 0 0 0 0.00726401 0 84.4305
0.0250583 0 1.15997e-08 0 0 0 0 0.00720995 0 99.6408
0.0264808 0 1.36894e-08 0 0 0 0 0.00713857 0 117.591
0.0279841 0 1.61556e-08 0 0 0 0 0.00705021 0 138.776
0.0295727 0 1.90661e-08 0 0 0 0 0.00694538 0 163.777
0.0312514 0 2.25009e-08 0 0 0 0 0.00682475 0 193.281
0.0330255 0 2.65545e-08 0 0 0 0 0.00668915 0 228.102
0.0349003 0 3.13384e-08 0 0 0 0 0.00653951 0 269.195
0.0368815 0 3.69841e-08 0 0 0 0 0.00637693 0 317.691
0.0389751 0 4.36469e-08 0 0 0 0 0.00620256 0 374.924
0.0411876 0 5.151e-08 0 0 0 0 0.00601767 0 442.467
0.0435258 0 6.07896e-08 0 0 0 0 0.00582358 0 522.179
0.0459966 0 7.1741e-08 0 0 0 0 0.00562166 0 616.251
0.0486077 0 8.46654e-08 0 0 0 0 0.0054133 0 727.27
0.051367 0 9.99181e-08 0 0 0 0 0.00519989 0 858.29
0.054283 0 1.17919e-07 0 0 0 0 0.0049828 0 1012.91
0.0573645 0 1.39162e-07 0 0 0 0 0.00476339 0 1195.39
0.060621 0 1.64232e-07 0 0 0 0 0.00454293 0 1410.75
0.0640622 0 1.93819e-07 0 0 0 0 0.00432265 0 1664.89
0.0676989 0 2.28736e-07 0 0 0 0 0.00410371 0 1964.83
0.071542 0 2.69944e-07 0 0 0 0 0.00388717 0 2318.8
0.0756032 0 3.18575e-07 0 0 0 0 0.00367401 0 2736.54
0.079895 0 3.75967e-07 0 0 0 0 0.0034651 0 3229.53
0.0844305 0 4.43698e-07 0 0 0 0 0.00326121 0 3811.34
0.0892234 0 5.23632e-07 0 0 0 0 0.00306301 0 4497.96
0.0942883 0 6.17966e-07 0 0 0 0 0.00287109 0 5308.28
0.0996408 0 7.29294e-07 0 0 0 0 0.00268591 0 6264.59
0.105297 0 8.60678e-07 0 0 0 0 0.00250785 0 7393.17
0.111275 0 1.01573e-06 0 0 0 0 0.00233721 0 8725.07
0.117591 0 1.19872e-06 0 0 0 0 0.00217419 0 10296.9
0.124267 0 1.41467e-06 0 0 0 0 0.00201893 0 12151.9
0.131321 0 1.66953e-06 0 0 0 0 0.00187147 0 14341.1
0.138776 0 1.9703e-06 0 0 0 0 0.00173182 0 16924.7
0.146654 0 2.32525e-06 0 0 0 0 0.00159991 0 19973.8
0.154979 0 2.74415e-06 0 0 0 0 0.00147563 0 23572.1
0.163777 0 3.23852e-06 0 0 0 0 0.00135884 0 27818.7
0.173074 0 3.82195e-06 0 0 0 0 0.00124933 0 32830.3
0.182899 0 4.51048e-06 0 0 0 0 0.00114689 0 38744.7
0.193281 0 5.32305e-06 0 0 0 0 0.00105127 0 45724.7
0.204254 0 6.28202e-06 0 0 0 0 0.000962209 0 53962.1
0.215848 0 7.41374e-06 0 0 0 0 0.000879423 0 63683.5
0.228102 0 8.74934e-06 0 0 0 0 0.000802624 0 75156.3
0.24105 0 1.03256e-05 0 0 0 0 0.000731515 0 88695.9
0.254734 0 1.21857e-05 0 0 0 0 0.000665798 0 104675
0.269195 0 1.4381e-05 0 0 0 0 0.000605173 0 123532
0.284476 0 1.69718e-05 0 0 0 0 0.000549345 0 145787
0.300625 0 2.00293e-05 0 0 0 0 0.000498021 0 172051
0.317691 0 2.36377e-05 0 0 0 0 0.000450916 0 203046
0.335725 0 2.78961e-05 0 0 0 0 0.000407755 0 239625
0.354784 0 3.29216e-05 0 0 0 0 0.000368269 0 282795
0.374924 0 3.88525e-05 0 0 0 0 0.000332202 0 333741
0.396207 0.458737 4.58519e-05 1.16471e-06 6 0.445983 1.13232e-06 0.000299307 0.023348 393865
0.418699 0 5.41123e-05 0 0 0 0 0.00026935 0 464821
0.442467 0 6.38607e-05 0 0 0 0 0.000242108 0 548560
0.467585 0 7.53654e-05 0 0 0 0 0.00021737 0 647384
0.494129 0 8.89427e-05 0 0 0 0 0.000194938 0 764012
0.522179 0 0.000104966 0 0 0 0 0.000174625 0 901651
0.551822 0 0.000123876 0 0 0 0 0.000156255 0 1.06409e+06
0.583147 4.36023 0.000146192 3.47212e-06 12 4.58917 3.65443e-06 0.000139664 0.298326 1.25578e+06
0.616251 0 0.000172529 0 0 0 0 0.0001247 0 1.48202e+06
0.651234 0 0.000203611 0 0 0 0 0.00011122 0 1.74901e+06
0.688203 23.5525 0.000240292 1.14106e-05 8 22.9665 1.11267e-05 9.90935e-05 0.921196 2.06409e+06
0.72727 0 0.000283581 0 0 0 0 8.81969e-05 0 2.43595e+06
0.768555 0 0.000334669 0 0 0 0 7.84179e-05 0 2.87479e+06
0.812184 0.071044 0.000394961 2.09403e-08 6 0.0725629 2.1388e-08 6.96525e-05 0.00180384 3.39269e+06
0.85829 0 0.000466114 0 0 0 0 6.1805e-05 0 4.00389e+06
0.907013 0.104119 0.000550086 2.20347e-08 24 0.106116 2.24575e-08 5.47875e-05 0.00965245 4.7252e+06
0.958501 0.755648 0.000649185 1.35507e-07 24 0.711387 1.2757e-07 4.85194e-05 0.0670281 5.57646e+06
1.01291 0 0.000766138 0 0 0 0 4.29272e-05 0 6.58107e+06
1.07041 0 0.00090416 0 0 0 0 3.79435e-05 0 7.76667e+06
1.13118 1.39772 0.00106705 1.52492e-07 12 1.38055 1.50619e-07 3.3507e-05 0.0546127 9.16586e+06
1.19539 0.610359 0.00125928 5.64253e-08 30 0.597776 5.52621e-08 2.9562e-05 0.0572613 1.08171e+07
1.26325 5.45914 0.00148614 4.27636e-07 24 5.37699 4.21202e-07 2.60578e-05 0.393865 1.27658e+07
1.33496 18.5757 0.00175387 1.23299e-06 24 18.6166 1.2357e-06 2.29484e-05 1.28948 1.50656e+07
1.41075 5.46639 0.00206984 3.0745e-07 32 5.62688 3.16476e-07 2.01923e-05 0.487235 1.77798e+07
1.49083 0.288097 0.00244272 1.37301e-08 48 0.281956 1.34374e-08 1.77518e-05 0.0371257 2.09828e+07
1.57546 0.0191744 0.00288279 7.74319e-10 6 0.0182584 7.37326e-10 1.55929e-05 0.000297951 2.4763e+07
1.66489 0.335185 0.00340213 1.14695e-08 84 0.321773 1.10106e-08 1.3685e-05 0.0704008 2.92241e+07
1.75941 2.41449 0.00401503 7.00078e-08 48 2.43404 7.05747e-08 1.20007e-05 0.280015 3.44889e+07
1.85928 0.171289 0.00473835 4.20836e-09 72 0.174003 4.27504e-09 1.05151e-05 0.0288159 4.07021e+07
1.96483 0.756524 0.00559198 1.57495e-08 54 0.738737 1.53792e-08 9.20606e-06 0.092382 4.80347e+07
2.07637 8.02475 0.00659939 1.41559e-07 104 7.99191 1.4098e-07 8.05366e-06 1.82801 5.66883e+07
2.19424 0.210957 0.00778828 3.15328e-09 120 0.212644 3.1785e-09 7.04008e-06 0.0537485 6.69008e+07
2.3188 1.56421 0.00919136 1.98119e-08 156 1.48236 1.87752e-08 6.1494e-06 0.502595 7.89532e+07
2.45043 0.485306 0.0108472 5.20844e-09 126 0.483805 5.19233e-09 5.36741e-06 0.122268 9.31768e+07
2.58954 0.437018 0.0128014 3.97423e-09 192 0.44456 4.04282e-09 4.68145e-06 0.162995 1.09963e+08
2.73654 4.04296 0.0151076 3.11541e-08 152 4.18805 3.22721e-08 4.08023e-06 1.16058 1.29773e+08
2.89188 3.29055 0.0178292 2.14855e-08 378 3.36681 2.19835e-08 3.55373e-06 2.28535 1.53152e+08
3.05605 1.17806 0.0210412 6.51789e-09 264 1.15587 6.39514e-09 3.09304e-06 0.556321 1.80743e+08
3.22953 0.135793 0.0248319 6.36619e-10 366 0.132607 6.21682e-10 2.69025e-06 0.0866098 2.13304e+08
3.41286 0.636881 0.0293054 2.53e-09 428 0.604752 2.40237e-09 2.33837e-06 0.463075 2.51731e+08
3.6066 2.9633 0.0345848 9.97471e-09 486 2.86025 9.62783e-09 2.0312e-06 2.38662 2.97081e+08
3.81134 0.596375 0.0408154 1.70101e-09 600 0.591623 1.68745e-09 1.76327e-06 0.578814 3.50601e+08
4.0277 0.419575 0.0481684 1.01405e-09 738 0.414404 1.00155e-09 1.52972e-06 0.489217 4.13763e+08
4.25634 0.991059 0.056846 2.0296e-09 824 1.03385 2.11722e-09 1.32631e-06 1.26094 4.88304e+08
4.49796 2.41638 0.067087 4.19312e-09 954 2.43201 4.22024e-09 1.14926e-06 3.48072 5.76273e+08
4.7533 0.440999 0.0791729 6.48442e-10 1094 0.431361 6.3427e-10 9.95263e-07 0.712772 6.8009e+08
5.02313 0.231236 0.0934361 2.88105e-10 1332 0.230879 2.8766e-10 8.61414e-07 0.445495 8.0261e+08
5.30828 1.95858 0.110269 2.06775e-09 1614 1.98207 2.09255e-09 7.45152e-07 4.47875 9.47202e+08
5.60962 0.903022 0.130134 8.07825e-10 1850 0.870732 7.78939e-10 6.44232e-07 2.31978 1.11784e+09
5.92807 1.1943 0.153578 9.05303e-10 2238 1.13823 8.62803e-10 5.56685e-07 3.63952 1.31923e+09
6.26459 0.497932 0.181246 3.19825e-10 2546 0.506621 3.25406e-10 4.80786e-07 1.69363 1.55689e+09
6.62021 0.116071 0.213898 6.31726e-11 3264 0.116176 6.32294e-11 4.15026e-07 0.496826 1.83737e+09
6.99602 1.16341 0.252432 5.36536e-10 3506 1.20588 5.56121e-10 3.58083e-07 5.25324 2.16837e+09
7.39317 0.437303 0.297908 1.70887e-10 4506 0.444734 1.73791e-10 3.08803e-07 2.49356 2.55901e+09
7.81286 0.962263 0.351577 3.18628e-10 5018 0.997969 3.30451e-10 2.66181e-07 6.00672 3.02002e+09
8.25637 0.844437 0.414914 2.36929e-10 5852 0.807359 2.26526e-10 2.29336e-07 6.04576 3.56409e+09
8.72507 0.486342 0.489662 1.15626e-10 7362 0.479587 1.1402e-10 1.97503e-07 4.31 4.20617e+09
9.22037 0.711626 0.577876 1.4336e-10 8306 0.701518 1.41323e-10 1.70014e-07 7.0038 4.96392e+09
9.74378 0.182992 0.681982 3.12369e-11 9698 0.184037 3.14153e-11 1.46289e-07 2.0708 5.85818e+09
10.2969 0.721451 0.804843 1.04353e-10 11816 0.736496 1.06529e-10 1.25822e-07 9.79982 6.91355e+09
10.8814 0.594608 0.949838 7.28771e-11 13682 0.595944 7.30409e-11 1.08175e-07 9.21748 8.15905e+09
11.4992 0.543331 1.12095 5.6427e-11 16152 0.531279 5.51753e-11 9.29669e-08 9.80359 9.62892e+09
12.1519 0.53496 1.3229 4.70766e-11 19472 0.519385 4.57061e-11 7.98658e-08 11.4777 1.13636e+10
12.8418 0.203345 1.56122 1.51628e-11 22670 0.207526 1.54745e-11 6.85852e-08 5.01187 1.34108e+10
13.5708 0.50972 1.84248 3.22062e-11 26224 0.519849 3.28462e-11 5.88765e-08 14.3449 1.58268e+10
14.3411 0.411438 2.17441 2.20279e-11 31640 0.419448 2.24568e-11 5.05241e-08 13.7947 1.8678e+10
15.1552 0.465009 2.56613 2.10956e-11 37484 0.470789 2.13579e-11 4.33417e-08 18.2445 2.20429e+10
16.0156 0.377368 3.02843 1.45064e-11 43856 0.386664 1.48637e-11 3.71677e-08 17.1168 2.6014e+10
16.9247 0.637025 3.574 2.07497e-11 51362 0.637745 2.07731e-11 3.18628e-08 33.448 3.07005e+10
17.8855 0.519126 4.21787 1.43281e-11 61636 0.513443 1.41713e-11 2.73063e-08 32.3416 3.62312e+10
18.9008 0.729291 4.97773 1.70561e-11 72218 0.726137 1.69823e-11 2.33941e-08 52.6524 4.27584e+10
19.9738 1.15966 5.87448 2.29812e-11 84586 1.14779 2.27459e-11 2.00364e-08 97.0177 5.04614e+10
21.1076 1.88019 6.93279 3.15722e-11 100708 1.87334 3.14571e-11 1.71555e-08 185.338 5.95522e+10
22.3058 3.6671 8.18175 5.21779e-11 118712 3.65831 5.20528e-11 1.46847e-08 421.811 7.02807e+10
23.5721 6.81152 9.65571 8.2124e-11 140410 6.75105 8.13948e-11 1.25662e-08 917.626 8.29419e+10
24.9102 8.40769 11.3952 8.58943e-11 164374 8.35006 8.53055e-11 1.07504e-08 1313.33 9.78842e+10
26.3243 9.59195 13.4481 8.3034e-11 194680 9.55436 8.27086e-11 9.19452e-09 1758.12 1.15518e+11
27.8187 9.29951 15.8708 6.82136e-11 230196 9.28069 6.80756e-11 7.86182e-09 1997.31 1.36329e+11
29.3979 9.71776 18.73 6.04003e-11 271156 9.68803 6.02155e-11 6.72061e-09 2436.97 1.60889e+11
31.0667 11.7684 22.1042 6.19802e-11 321076 11.7118 6.16819e-11 5.74366e-09 3464.75 1.89874e+11
32.8303 15.0692 26.0864 6.72493e-11 377436 14.9765 6.68354e-11 4.90756e-09 5172.08 2.2408e+11
34.694 19.0027 30.7859 7.18577e-11 447594 18.9242 7.15609e-11 4.19221e-09 7672.11 2.64449e+11
36.6634 21.6996 36.3321 6.95299e-11 525078 21.629 6.93037e-11 3.58032e-09 10197 3.1209e+11
38.7447 23.6036 42.8774 6.40854e-11 621924 23.5409 6.39155e-11 3.05709e-09 13037.3 3.68314e+11
40.9442 25.7624 50.6018 5.92694e-11 732630 25.7067 5.91413e-11 2.60976e-09 16638.5 4.34667e+11
43.2685 28.5859 59.7179 5.5726e-11 865596 28.5088 5.55756e-11 2.22743e-09 21655.5 5.12973e+11
45.7247 32.6833 70.4762 5.39875e-11 1.02168e+06 32.5747 5.38082e-11 1.90073e-09 29019.2 6.05386e+11
48.3204 39.7859 83.1727 5.56876e-11 1.20544e+06 39.6282 5.54669e-11 1.62163e-09 41395.3 7.14448e+11
51.0634 49.5316 98.1565 5.87454e-11 1.42103e+06 49.3319 5.85085e-11 1.38326e-09 60349.6 8.43158e+11
53.9621 61.6107 115.84 6.19169e-11 1.67997e+06 61.3843 6.16893e-11 1.1797e-09 88173.3 9.95055e+11
57.0254 73.5353 136.709 6.26196e-11 1.98018e+06 73.3035 6.24223e-11 1.00592e-09 123268 1.17432e+12
60.2626 85.439 161.337 6.16499e-11 2.33957e+06 85.1952 6.1474e-11 8.57591e-10 168185 1.38587e+12
63.6835 98.6027 190.402 6.02874e-11 2.75676e+06 98.2968 6.01005e-11 7.3101e-10 227354 1.63554e+12
67.2987 114.958 224.704 5.95577e-11 3.25638e+06 114.592 5.93684e-11 6.23009e-10 311300 1.93019e+12
71.1191 136.244 265.185 5.98105e-11 3.84387e+06 135.785 5.96094e-11 5.30879e-10 433063 2.27792e+12
75.1563 161.768 312.958 6.0175e-11 4.53277e+06 161.227 5.99739e-11 4.52303e-10 603045 2.68829e+12
79.4227 191.182 369.339 6.02604e-11 5.35083e+06 190.569 6.00673e-11 3.85299e-10 836863 3.17259e+12
83.9313 225.98 435.876 6.03555e-11 6.32174e+06 225.234 6.01563e-11 3.28173e-10 1.16265e+06 3.74415e+12
88.6959 266.048 514.4 6.021e-11 7.44986e+06 265.174 6.00124e-11 2.79476e-10 1.60499e+06 4.41866e+12
93.7309 314.245 607.071 6.02614e-11 8.79764e+06 313.218 6.00645e-11 2.37972e-10 2.22781e+06 5.2147e+12
99.0518 371.065 716.436 6.02952e-11 1.03827e+07 369.833 6.0095e-11 2.02605e-10 3.08989e+06 6.15414e+12
104.675 437.796 845.504 6.02791e-11 1.22515e+07 436.33 6.00772e-11 1.72471e-10 4.28194e+06 7.26283e+12
110.617 517.24 997.824 6.0346e-11 1.44573e+07 515.541 6.01477e-11 1.468e-10 5.94306e+06 8.57124e+12
116.896 609.877 1177.58 6.02921e-11 1.70664e+07 607.875 6.00941e-11 1.24935e-10 8.23605e+06 1.01154e+13
123.532 720.18 1389.73 6.03283e-11 2.0139e+07 717.794 6.01284e-11 1.06313e-10 1.1428e+07 1.19377e+13
130.545 851.038 1640.09 6.04075e-11 2.37643e+07 848.212 6.02069e-11 9.04567e-11 1.58699e+07 1.40883e+13
137.955 1004.82 1935.56 6.04352e-11 2.80503e+07 1001.48 6.02346e-11 7.69563e-11 2.20284e+07 1.66263e+13
145.787 1186.3 2284.26 6.04591e-11 3.30981e+07 1182.37 6.02585e-11 6.54636e-11 3.05678e+07 1.96216e+13
154.063 1401.94 2695.77 6.05418e-11 3.90634e+07 1397.24 6.03391e-11 5.56812e-11 4.24735e+07 2.31565e+13
162.808 1656.54 3181.42 6.06165e-11 4.61057e+07 1651.01 6.0414e-11 4.73556e-11 5.90165e+07 2.73282e+13
172.051 1957.43 3754.56 6.06926e-11 5.44046e+07 1950.84 6.04883e-11 4.02708e-11 8.19938e+07 3.22515e+13
181.818 2313.2 4430.96 6.07751e-11 6.42064e+07 2305.46 6.05717e-11 3.42426e-11 1.13956e+08 3.80616e+13
192.139 2736.71 5229.21 6.0926e-11 7.57748e+07 2727.51 6.07212e-11 2.91139e-11 1.58572e+08 4.49186e+13
203.046 3237.11 6171.26 6.10652e-11 8.94213e+07 3226.24 6.08601e-11 2.4751e-11 2.20618e+08 5.30108e+13
214.572 3832.4 7283.03 6.12588e-11 1.05538e+08 3819.44 6.10516e-11 2.10401e-11 3.07278e+08 6.25608e+13
226.753 4542.89 8595.09 6.15307e-11 1.24552e+08 4527.45 6.13215e-11 1.78839e-11 4.28528e+08 7.38313e+13
239.625 5389.36 10143.5 6.18527e-11 1.46987e+08 5370.93 6.16411e-11 1.51999e-11 5.98132e+08 8.71322e+13
253.228 6402.79 11970.9 6.22662e-11 1.7347e+08 6380.7 6.20513e-11 1.29176e-11 8.36169e+08 1.02829e+14
267.603 7623.1 14127.5 6.28169e-11 2.04703e+08 7596.59 6.25985e-11 1.09771e-11 1.17142e+09 1.21354e+14
282.795 9102.14 16672.6 6.35551e-11 2.4161e+08 9070.02 6.33308e-11 9.3274e-12 1.64628e+09 1.43217e+14
298.848 10911.9 19676.2 6.45606e-11 2.85122e+08 10872.7 6.43287e-11 7.925e-12 2.32274e+09 1.69017e+14
315.813 13152.3 23220.9 6.59372e-11 3.36491e+08 13103.9 6.56948e-11 6.73295e-12 3.29533e+09 1.99466e+14
333.741 15979.5 27404.3 6.78823e-11 3.97115e+08 15918.6 6.76236e-11 5.71979e-12 4.71295e+09 2.35401e+14
352.686 19611.3 32341.2 7.05926e-11 4.68637e+08 19533.1 7.03114e-11 4.85874e-12 6.80883e+09 2.77809e+14
372.707 24429.8 38167.6 7.45136e-11 5.53074e+08 24327 7.42001e-11 4.12703e-12 9.98576e+09 3.27857e+14
393.865 31084.2 45043.5 8.03373e-11 6.52716e+08 30943.1 7.99725e-11 3.50528e-12 1.49596e+10 3.86921e+14
416.224 36689.2 53158.3 8.03486e-11 2.2184e+08 38813.8 8.50014e-11 2.97701e-12 5.98739e+09 4.56626e+14
439.852 0 62734.9 0 0 0 0 2.52819e-12 0 5.38888e+14
464.821 0 74036.7 0 0 0 0 2.1469e-12 0 6.35971e+14
491.207 0 87374.6 0 0 0 0 1.82301e-12 0 7.50542e+14
519.092 0 103115 0 0 0 0 1.54789e-12 0 8.85755e+14
548.56 0 121692 0 0 0 0 1.31422e-12 0 1.04533e+15
579.7 0 143615 0 0 0 0 1.11576e-12 0 1.23364e+15
612.608 0 169488 0 0 0 0 9.47223e-13 0 1.45589e+15
647.384 0 200021 0 0 0 0 8.041e-13 0 1.71817e+15
684.134 0 236056 0 0 0 0 6.82568e-13 0 2.0277e+15
722.971 0 278582 0 0 0 0 5.79376e-13 0 2.393e+15
764.012 0 328769 0 0 0 0 4.91762e-13 0 2.8241e+15
0.0610242
200
1.0655e+09
8589934592
0.0129181 1.21311e-05 1.58924e-09 8.8863e-07 6 1.202e-05 8.80495e-07 0.00677225 0.000787298 13.6515
0.0136515 0 1.87554e-09 0 0 0 0 0.00688819 0 16.1108
0.0144264 0 2.21343e-09 0 0 0 0 0.00699249 0 19.0132
0.0152454 0 2.61218e-09 0 0 0 0 0.00708412 0 22.4385
0.0161108 0 3.08278e-09 0 0 0 0 0.00716212 0 26.4808
0.0170254 0 3.63815e-09 0 0 0 0 0.00722559 0 31.2514
0.0179919 2.21096e-05 4.29357e-09 5.99476e-07 12 2.20811e-05 5.98704e-07 0.00727371 0.000989002 36.8815
0.0190132 0 5.06707e-09 0 0 0 0 0.00730578 0 43.5258
0.0200925 0 5.97991e-09 0 0 0 0 0.00732122 0 51.367
0.0212331 0.000100387 7.05721e-09 1.65598e-06 8 0.0001003 1.65454e-06 0.00731958 0.00180992 60.621
0.0224385 0 8.32858e-09 0 0 0 0 0.00730056 0 71.542
0.0237123 0 9.829e-09 0 0 0 0 0.00726401 0 84.4305
0.0250583 8.37727e-05 1.15997e-08 8.40747e-07 6 8.37333e-05 8.40351e-07 0.00720995 0.000699655 99.6408
0.0264808 0 1.36894e-08 0 0 0 0 0.00713857 0 117.591
0.0279841 0.00016667 1.61556e-08 1.201e-06 24 0.000166499 1.19977e-06 0.00705021 0.00408839 138.776
0.0295727 0 1.90661e-08 0 0 0 0 0.00694538 0 163.777
0.0312514 0.000303165 2.25009e-08 1.56851e-06 24 0.000304704 1.57648e-06 0.00682475 0.00551585 193.281
0.0330255 0 2.65545e-08 0 0 0 0 0.00668915 0 228.102
0.0349003 9.91982e-05 3.13384e-08 3.685e-07 12 9.84039e-05 3.65549e-07 0.00653951 0.000676197 269.195
0.0368815 0.000358828 3.69841e-08 1.12949e-06 30 0.000355007 1.11746e-06 0.00637693 0.00531363 317.691
0.0389751 0.000400102 4.36469e-08 1.06716e-06 24 0.000395987 1.05618e-06 0.00620256 0.00412923 374.924
0.0411876 0.000407553 5.151e-08 9.21093e-07 24 0.000404786 9.14837e-07 0.00601767 0.00367355 442.467
0.0435258 0.00026275 6.07896e-08 5.0318e-07 8 0.00026273 5.03141e-07 0.00582358 0.000691231 522.179
0.0459966 0.000366258 7.1741e-08 5.94332e-07 72 0.000364906 5.92138e-07 0.00562166 0.00761197 616.251
0.0486077 0 8.46654e-08 0 0 0 0 0.0054133 0 727.27
0.051367 0.000711516 9.99181e-08 8.28992e-07 54 0.0007077 8.24547e-07 0.00519989 0.00860895 858.29
0.054283 0.000727999 1.17919e-07 7.18718e-07 60 0.0007317 7.22372e-07 0.0049828 0.00865438 1012.91
0.0573645 0.000987732 1.39162e-07 8.26282e-07 96 0.000982397 8.2182e-07 0.00476339 0.0166527 1195.39
0.060621 0.00077838 1.64232e-07 5.51751e-07 24 0.000767834 5.44276e-07 0.00454293 0.00291487 1410.75
0.0640622 0.00084671 1.93819e-07 5.08567e-07 134 0.000846528 5.08457e-07 0.00432265 0.0157653 1664.89
0.0676989 0.00094558 2.28736e-07 4.81253e-07 120 0.00093914 4.77975e-07 0.00410371 0.0140727 1964.83
0.071542 0.00117729 2.69944e-07 5.07713e-07 108 0.00115911 4.99875e-07 0.00388717 0.0141061 2318.8
0.0756032 0.00115994 3.18575e-07 4.23873e-07 174 0.0011548 4.21991e-07 0.00367401 0.0200745 2736.54
0.079895 0.00135302 3.75967e-07 4.18951e-07 168 0.00134008 4.14944e-07 0.0034651 0.0203122 3229.53
0.0844305 0.00154255 4.43698e-07 4.04725e-07 168 0.00155036 4.06776e-07 0.00326121 0.0208493 3811.34
0.0892234 0.0014224 5.23632e-07 3.16232e-07 290 0.00141831 3.15322e-07 0.00306301 0.0299402 4497.96
0.0942883 0.00156545 6.17966e-07 2.94907e-07 288 0.00156367 2.94572e-07 0.00287109 0.0295822 5308.28
0.0996408 0.00160111 7.29294e-07 2.55582e-07 366 0.00159127 2.5401e-07 0.00268591 0.0348272 6264.59
0.105297 0.00221822 8.60678e-07 3.00037e-07 420 0.00219677 2.97135e-07 0.00250785 0.0502483 7393.17
0.111275 0.00206144 1.01573e-06 2.36266e-07 398 0.00206023 2.36127e-07 0.00233721 0.0402333 8725.07
0.117591 0.00239674 1.19872e-06 2.32763e-07 624 0.0023991 2.32993e-07 0.00217419 0.0668036 10296.9
0.124267 0.0029294 1.41467e-06 2.41064e-07 642 0.00292026 2.40313e-07 0.00201893 0.0766563 12151.9
0.131321 0.00296779 1.66953e-06 2.06942e-07 800 0.00296709 2.06894e-07 0.00187147 0.0884621 14341.1
0.138776 0.00300477 1.9703e-06 1.77537e-07 858 0.00301112 1.77912e-07 0.00173182 0.087958 16924.7
0.146654 0.00360872 2.32525e-06 1.80673e-07 1080 0.00363203 1.8184e-07 0.00159991 0.121961 19973.8
0.154979 0.00355913 2.74415e-06 1.50989e-07 1286 0.00358321 1.52011e-07 0.00147563 0.131586 23572.1
0.163777 0.0035743 3.23852e-06 1.28486e-07 1650 0.00358292 1.28796e-07 0.00135884 0.156017 27818.7
0.173074 0.00402863 3.82195e-06 1.22711e-07 1778 0.00402563 1.22619e-07 0.00124933 0.174638 32830.3
0.182899 0.00444919 4.51048e-06 1.14834e-07 2112 0.00445873 1.1508e-07 0.00114689 0.211466 38744.7
0.193281 0.00470288 5.32305e-06 1.02852e-07 2570 0.00470623 1.02925e-07 0.00105127 0.251438 45724.7
0.204254 0.00506683 6.28202e-06 9.3896e-08 3030 0.005074 9.4029e-08 0.000962209 0.295679 53962.1
0.215848 0.00525784 7.41374e-06 8.25621e-08 3434 0.00526214 8.26295e-08 0.000879423 0.322391 63683.5
0.228102 0.00550899 8.74934e-06 7.33004e-08 4218 0.00551191 7.33394e-08 0.000802624 0.385213 75156.3
0.24105 0.00575279 1.03256e-05 6.48597e-08 4766 0.00575531 6.48882e-08 0.000731515 0.422577 88695.9
0.254734 0.00645893 1.21857e-05 6.17048e-08 6026 0.00645256 6.16439e-08 0.000665798 0.558477 104675
0.269195 0.00724989 1.4381e-05 5.86883e-08 6480 0.0072542 5.87232e-08 0.000605173 0.628415 123532
0.284476 0.00712029 1.69718e-05 4.88404e-08 8162 0.00713434 4.89368e-08 0.000549345 0.725657 145787
0.300625 0.00770796 2.00293e-05 4.48005e-08 9578 0.00770848 4.48036e-08 0.000498021 0.86161 172051
0.317691 0.00819463 2.36377e-05 4.03585e-08 11234 0.00818674 4.03196e-08 0.000450916 1.00548 203046
0.335725 0.00858777 2.78961e-05 3.58383e-08 13344 0.00858288 3.58179e-08 0.000407755 1.17283 239625
0.354784 0.00916715 3.29216e-05 3.24163e-08 15464 0.00916301 3.24016e-08 0.000368269 1.36119 282795
0.374924 0.00984133 3.88525e-05 2.94879e-08 18458 0.00983502 2.94691e-08 0.000332202 1.63843 333741
0.396207 0.0101644 4.58519e-05 2.58068e-08 22232 0.0101485 2.57665e-08 0.000299307 1.91689 393865
0.418699 0.0107112 5.41123e-05 2.30438e-08 25628 0.0106923 2.30031e-08 0.00026935 2.19256 464821
0.442467 0.0112357 6.38607e-05 2.04822e-08 30320 0.0112157 2.04458e-08 0.000242108 2.56505 548560
0.467585 0.0118573 7.53654e-05 1.83157e-08 35452 0.0118483 1.83018e-08 0.00021737 2.9872 647384
0.494129 0.0123029 8.89427e-05 1.61031e-08 41792 0.0123041 1.61045e-08 0.000194938 3.45227 764012
0.522179 0.0131055 0.000104966 1.4535e-08 49988 0.0131041 1.45335e-08 0.000174625 4.16079 901651
0.551822 0.0137288 0.000123876 1.2902e-08 59110 0.0137217 1.28953e-08 0.000156255 4.88071 1.06409e+06
0.583147 0.0145267 0.000146192 1.15678e-08 69716 0.0145083 1.15532e-08 0.000139664 5.7743 1.25578e+06
0.616251 0.0151247 0.000172529 1.02055e-08 82210 0.0151029 1.01908e-08 0.0001247 6.72808 1.48202e+06
0.651234 0.0158349 0.000203611 9.05367e-09 96722 0.0158034 9.03565e-09 0.00011122 7.87345 1.74901e+06
0.688203 0.0164924 0.000240292 7.99016e-09 113098 0.016476 7.9822e-09 9.90935e-05 9.11938 2.06409e+06
0.72727 0.0172712 0.000283581 7.09015e-09 135190 0.017254 7.08309e-09 8.81969e-05 10.8679 2.43595e+06
0.768555 0.0179721 0.000334669 6.25161e-09 158170 0.0179602 6.24748e-09 7.84179e-05 12.6096 2.87479e+06
0.812184 0.0187925 0.000394961 5.53913e-09 188560 0.0187751 5.53398e-09 6.96525e-05 14.9953 3.39269e+06
0.85829 0.0196062 0.000466114 4.89679e-09 220444 0.0195868 4.89195e-09 6.1805e-05 17.4657 4.00389e+06
0.907013 0.0205609 0.000550086 4.35133e-09 261388 0.0205449 4.34795e-09 5.47875e-05 20.7599 4.7252e+06
0.958501 0.021389 0.000649185 3.83559e-09 308244 0.0213653 3.83134e-09 4.85194e-05 24.3675 5.57646e+06
1.01291 0.0223133 0.000766138 3.39052e-09 364396 0.0222908 3.3871e-09 4.29272e-05 28.7811 6.58107e+06
1.07041 0.0231413 0.00090416 2.97957e-09 429162 0.0231165 2.97637e-09 3.79435e-05 33.7006 7.76667e+06
1.13118 0.024072 0.00106705 2.62626e-09 506358 0.024047 2.62354e-09 3.3507e-05 39.6881 9.16586e+06
1.19539 0.0250369 0.00125928 2.31456e-09 598590 0.0250106 2.31213e-09 2.9562e-05 46.8666 1.08171e+07
1.26325 0.0260408 0.00148614 2.03988e-09 704844 0.0260138 2.03776e-09 2.60578e-05 55.1772 1.27658e+07
1.33496 0.026966 0.00175387 1.7899e-09 834620 0.0269351 1.78785e-09 2.29484e-05 65.0974 1.50656e+07
1.41075 0.0280647 0.00206984 1.57846e-09 981444 0.0280302 1.57652e-09 2.01923e-05 76.7209 1.77798e+07
1.49083 0.0291057 0.00244272 1.38712e-09 1.15998e+06 0.0290744 1.38563e-09 1.77518e-05 90.6404 2.09828e+07
1.57546 0.0301755 0.00288279 1.21857e-09 1.36931e+06 0.0301429 1.21726e-09 1.55929e-05 107.011 2.4763e+07
1.66489 0.031295 0.00340213 1.07086e-09 1.61652e+06 0.0312552 1.0695e-09 1.3685e-05 126.494 2.92241e+07
1.75941 0.0324272 0.00401503 9.40222e-10 1.90601e+06 0.0323855 9.39013e-10 1.20007e-05 149.331 3.44889e+07
1.85928 0.0336406 0.00473835 8.26508e-10 2.24913e+06 0.0335987 8.25478e-10 1.05151e-05 176.786 4.07021e+07
1.96483 0.0347151 0.00559198 7.22708e-10 2.65744e+06 0.0346706 7.21782e-10 9.20606e-06 208.619 4.80347e+07
2.07637 0.0360625 0.00659939 6.36155e-10 3.13125e+06 0.0360189 6.35386e-10 8.05366e-06 247.336 5.66883e+07
2.19424 0.0373559 0.00778828 5.58377e-10 3.69915e+06 0.0373109 5.57705e-10 7.04008e-06 293.395 6.69008e+07
2.3188 0.0386223 0.00919136 4.8918e-10 4.36472e+06 0.0385765 4.88599e-10 6.1494e-06 347.211 7.89532e+07
2.45043 0.0399931 0.0108472 4.29217e-10 5.14913e+06 0.0399446 4.28697e-10 5.36741e-06 411.762 9.31768e+07
2.58954 0.0413942 0.0128014 3.76438e-10 6.07894e+06 0.0413427 3.7597e-10 4.68145e-06 488.81 1.09963e+08
2.73654 0.0427631 0.0151076 3.29522e-10 7.17304e+06 0.0427105 3.29117e-10 4.08023e-06 579.299 1.29773e+08
2.89188 0.0442853 0.0178292 2.89159e-10 8.46557e+06 0.044232 2.88811e-10 3.55373e-06 688.825 1.53152e+08
3.05605 0.0458413 0.0210412 2.53628e-10 9.98773e+06 0.0457858 2.5332e-10 3.09304e-06 818.989 1.80743e+08
3.22953 0.0474453 0.0248319 2.22431e-10 1.1797e+07 0.0473868 2.22156e-10 2.69025e-06 975.38 2.13304e+08
3.41286 0.0490917 0.0293054 1.95016e-10 1.39144e+07 0.0490285 1.94765e-10 2.33837e-06 1160.44 2.51731e+08
3.6066 0.0507738 0.0345848 1.70909e-10 1.64163e+07 0.0507092 1.70691e-10 2.0312e-06 1381.29 2.97081e+08
3.81134 0.0525836 0.0408154 1.49981e-10 1.93821e+07 0.0525177 1.49793e-10 1.76327e-06 1648.62 3.50601e+08
4.0277 0.0544957 0.0481684 1.31707e-10 2.28754e+07 0.0544251 1.31537e-10 1.52972e-06 1969.55 4.13763e+08
4.25634 0.0564411 0.056846 1.15586e-10 2.69929e+07 0.0563669 1.15434e-10 1.32631e-06 2352.4 4.88304e+08
4.49796 0.0584923 0.067087 1.01501e-10 3.18542e+07 0.0584147 1.01366e-10 1.14926e-06 2813.33 5.76273e+08
4.7533 0.0606556 0.0791729 8.91876e-11 3.75892e+07 0.0605749 8.9069e-11 9.95263e-07 3368.45 6.8009e+08
5.02313 0.0629009 0.0934361 7.83704e-11 4.43706e+07 0.0628176 7.82667e-11 8.61414e-07 4036.79 8.0261e+08
5.30828 0.0652418 0.110269 6.88784e-11 5.23593e+07 0.0651532 6.87849e-11 7.45152e-07 4839.85 9.47202e+08
5.60962 0.067704 0.130134 6.05666e-11 6.1787e+07 0.0676131 6.04853e-11 6.44232e-07 5808.83 1.11784e+09
5.92807 0.0702912 0.153578 5.32821e-11 7.29346e+07 0.0701941 5.32086e-11 5.56685e-07 6980.81 1.31923e+09
6.26459 0.0730015 0.181246 4.68893e-11 8.60651e+07 0.0728988 4.68234e-11 4.80786e-07 8393.61 1.55689e+09
6.62021 0.0758633 0.213898 4.12892e-11 1.01558e+08 0.075756 4.12308e-11 4.15026e-07 10103.6 1.83737e+09
6.99602 0.0788886 0.252432 3.63815e-11 1.1986e+08 0.0787772 3.63301e-11 3.58083e-07 12177.9 2.16837e+09
7.39317 0.0820481 0.297908 3.20624e-11 1.41457e+08 0.0819305 3.20165e-11 3.08803e-07 14687.2 2.55901e+09
7.81286 0.0854141 0.351577 2.82826e-11 1.66936e+08 0.0852909 2.82418e-11 2.66181e-07 17737.5 3.02002e+09
8.25637 0.0890177 0.414914 2.49763e-11 1.97025e+08 0.0888884 2.494e-11 2.29336e-07 21457.4 3.56409e+09
8.72507 0.092866 0.489662 2.20785e-11 2.32497e+08 0.0927274 2.20456e-11 1.97503e-07 25990.4 4.20617e+09
9.22037 0.0971149 0.577876 1.95641e-11 2.74404e+08 0.0969662 1.95342e-11 1.70014e-07 31576.7 4.96392e+09
9.74378 0.101891 0.681982 1.7393e-11 3.2382e+08 0.10173 1.73654e-11 1.46289e-07 38500.5 5.85818e+09
10.2969 0.107463 0.804843 1.55438e-11 3.82165e+08 0.107283 1.55178e-11 1.25822e-07 47211.8 6.91355e+09
10.8814 0.114279 0.949838 1.40064e-11 4.51027e+08 0.114071 1.3981e-11 1.08175e-07 58398.3 8.15905e+09
11.4992 0.123245 1.12095 1.27995e-11 5.32251e+08 0.122993 1.27733e-11 9.29669e-08 73279.1 9.62892e+09
12.1519 0.136077 1.3229 1.19749e-11 6.28157e+08 0.135747 1.19458e-11 7.98658e-08 94184.2 1.13636e+10
12.8418 0.150743 1.56122 1.12404e-11 3.82727e+08 0.156026 1.16344e-11 6.85852e-08 62725.1 1.34108e+10
13.5708 0 1.84248 0 0 0 0 5.88765e-08 0 1.58268e+10
14.3411 0 2.17441 0 0 0 0 5.05241e-08 0 1.8678e+10
15.1552 0 2.56613 0 0 0 0 4.33417e-08 0 2.20429e+10
16.0156 0 3.02843 0 0 0 0 3.71677e-08 0 2.6014e+10
16.9247 0 3.574 0 0 0 0 3.18628e-08 0 3.07005e+10
17.8855 0 4.21787 0 0 0 0 2.73063e-08 0 3.62312e+10
18.9008 0 4.97773 0 0 0 0 2.33941e-08 0 4.27584e+10
19.9738 0 5.87448 0 0 0 0 2.00364e-08 0 5.04614e+10
21.1076 0 6.93279 0 0 0 0 1.71555e-08 0 5.95522e+10
22.3058 0 8.18175 0 0 0 0 1.46847e-08 0 7.02807e+10
23.5721 0 9.65571 0 0 0 0 1.25662e-08 0 8.29419e+10
24.9102 0 11.3952 0 0 0 0 1.07504e-08 0 9.78842e+10
26.3243 0 13.4481 0 0 0 0 9.19452e-09 0 1.15518e+11
27.8187 0 15.8708 0 0 0 0 7.86182e-09 0 1.36329e+11
29.3979 0 18.73 0 0 0 0 6.72061e-09 0 1.60889e+11
31.0667 0 22.1042 0 0 0 0 5.74366e-09 0 1.89874e+11
32.8303 0 26.0864 0 0 0 0 4.90756e-09 0 2.2408e+11
34.694 0 30.7859 0 0 0 0 4.19221e-09 0 2.64449e+11
36.6634 0 36.3321 0 0 0 0 3.58032e-09 0 3.1209e+11
38.7447 0 42.8774 0 0 0 0 3.05709e-09 0 3.68314e+11
40.9442 0 50.6018 0 0 0 0 2.60976e-09 0 4.34667e+11
43.2685 0 59.7179 0 0 0 0 2.22743e-09 0 5.12973e+11
45.7247 0 70.4762 0 0 0 0 1.90073e-09 0 6.05386e+11
48.3204 0 83.1727 0 0 0 0 1.62163e-09 0 7.14448e+11
51.0634 0 98.1565 0 0 0 0 1.38326e-09 0 8.43158e+11
53.9621 0 115.84 0 0 0 0 1.1797e-09 0 9.95055e+11
57.0254 0 136.709 0 0 0 0 1.00592e-09 0 1.17432e+12
60.2626 0 161.337 0 0 0 0 8.57591e-10 0 1.38587e+12
63.6835 0 190.402 0 0 0 0 7.3101e-10 0 1.63554e+12
67.2987 0 224.704 0 0 0 0 6.23009e-10 0 1.93019e+12
71.1191 0 265.185 0 0 0 0 5.30879e-10 0 2.27792e+12
75.1563 0 312.958 0 0 0 0 4.52303e-10 0 2.68829e+12
79.4227 0 369.339 0 0 0 0 3.85299e-10 0 3.17259e+12
83.9313 0 435.876 0 0 0 0 3.28173e-10 0 3.74415e+12
88.6959 0 514.4 0 0 0 0 2.79476e-10 0 4.41866e+12
93.7309 0 607.071 0 0 0 0 2.37972e-10 0 5.2147e+12
99.0518 0 716.436 0 0 0 0 2.02605e-10 0 6.15414e+12
104.675 0 845.504 0 0 0 0 1.72471e-10 0 7.26283e+12
110.617 0 997.824 0 0 0 0 1.468e-10 0 8.57124e+12
116.896 0 1177.58 0 0 0 0 1.24935e-10 0 1.01154e+13
123.532 0 1389.73 0 0 0 0 1.06313e-10 0 1.19377e+13
130.545 0 1640.09 0 0 0 0 9.04567e-11 0 1.40883e+13
137.955 0 1935.56 0 0 0 0 7.69563e-11 0 1.66263e+13
145.787 0 2284.26 0 0 0 0 6.54636e-11 0 1.96216e+13
154.063 0 2695.77 0 0 0 0 5.56812e-11 0 2.31565e+13
162.808 0 3181.42 0 0 0 0 4.73556e-11 0 2.73282e+13
172.051 0 3754.56 0 0 0 0 4.02708e-11 0 3.22515e+13
181.818 0 4430.96 0 0 0 0 3.42426e-11 0 3.80616e+13
192.139 0 5229.21 0 0 0 0 2.91139e-11 0 4.49186e+13
203.046 0 6171.26 0 0 0 0 2.4751e-11 0 5.30108e+13
214.572 0 7283.03 0 0 0 0 2.10401e-11 0 6.25608e+13
226.753 0 8595.09 0 0 0 0 1.78839e-11 0 7.38313e+13
239.625 0 10143.5 0 0 0 0 1.51999e-11 0 8.71322e+13
253.228 0 11970.9 0 0 0 0 1.29176e-11 0 1.02829e+14
267.603 0 14127.5 0 0 0 0 1.09771e-11 0 1.21354e+14
282.795 0 16672.6 0 0 0 0 9.3274e-12 0 1.43217e+14
298.848 0 19676.2 0 0 0 0 7.925e-12 0 1.69017e+14
315.813 0 23220.9 0 0 0 0 6.73295e-12 0 1.99466e+14
333.741 0 27404.3 0 0 0 0 5.71979e-12 0 2.35401e+14
352.686 0 32341.2 0 0 0 0 4.85874e-12 0 2.77809e+14
372.707 0 38167.6 0 0 0 0 4.12703e-12 0 3.27857e+14
393.865 0 45043.5 0 0 0 0 3.50528e-12 0 3.86921e+14
416.224 0 53158.3 0 0 0 0 2.97701e-12 0 4.56626e+14
439.852 0 62734.9 0 0 0 0 2.52819e-12 0 5.38888e+14
464.821 0 74036.7 0 0 0 0 2.1469e-12 0 6.35971e+14
491.207 0 87374.6 0 0 0 0 1.82301e-12 0 7.50542e+14
519.092 0 103115 0 0 0 0 1.54789e-12 0 8.85755e+14
548.56 0 121692 0 0 0 0 1.31422e-12 0 1.04533e+15
579.7 0 143615 0 0 0 0 1.11576e-12 0 1.23364e+15
612.608 0 169488 0 0 0 0 9.47223e-13 0 1.45589e+15
647.384 0 200021 0 0 0 0 8.041e-13 0 1.71817e+15
684.134 0 236056 0 0 0 0 6.82568e-13 0 2.0277e+15
722.971 0 278582 0 0 0 0 5.79376e-13 0 2.393e+15
764.012 0 328769 0 0 0 0 4.91762e-13 0 2.8241e+15
