0.682472
200
1.0655e+09
8589934592
0.0129181 0 1.58924e-09 0 0 0 0 0.00677225 0 13.6515
0.0136515 0 1.87554e-09 0 0 0 0 0.00688819 0 16.1108
0.0144264 0 2.21343e-09 0 0 0 0 0.00699249 0 19.0132
0.0152454 0 2.61218e-09 0 0 0 0 0.00708412 0 22.4385
0.0161108 0 3.08278e-09 0 0 0 0 0.00716212 0 26.4808
0.0170254 0 3.63815e-09 0 0 0 0 0.00722559 0 31.2514
0.0179919 0 4.29357e-09 0 0 0 0 0.00727371 0 36.8815
0.0190132 0 5.06707e-09 0 0 0 0 0.00730578 0 43.5258
0.0200925 0 5.97991e-09 0 0 0 0 0.00732122 0 51.367
0.0212331 0 7.05721e-09 0 0 0 0 0.00731958 0 60.621
0.0224385 0 8.32858e-09 0 0 0 0 0.00730056 0 71.542
0.0237123 0 9.829e-09 0 0 0 0 0.00726401 0 84.4305
0.0250583 0 1.15997e-08 0 0 0 0 0.00720995 0 99.6408
0.0264808 0 1.36894e-08 0 0 0 0 0.00713857 0 117.591
0.0279841 0 1.61556e-08 0 0 0 0 0.00705021 0 138.776
0.0295727 0 1.90661e-08 0 0 0 0 0.00694538 0 163.777
0.0312514 0 2.25009e-08 0 0 0 0 0.00682475 0 193.281
0.0330255 0 2.65545e-08 0 0 0 0 0.00668915 0 228.102
0.0349003 0 3.13384e-08 0 0 0 0 0.00653951 0 269.195
0.0368815 0 3.69841e-08 0 0 0 0 0.00637693 0 317.691
0.0389751 0 4.36469e-08 0 0 0 0 0.00620256 0 374.924
0.0411876 0 5.151e-08 0 0 0 0 0.00601767 0 442.467
0.0435258 0 6.07896e-08 0 0 0 0 0.00582358 0 522.179
0.0459966 0 7.1741e-08 0 0 0 0 0.00562166 0 616.251
0.0486077 0 8.46654e-08 0 0 0 0 0.0054133 0 727.27
0.051367 0 9.99181e-08 0 0 0 0 0.00519989 0 858.29
0.054283 0 1.17919e-07 0 0 0 0 0.0049828 0 1012.91
0.0573645 0 1.39162e-07 0 0 0 0 0.00476339 0 1195.39
0.060621 0 1.64232e-07 0 0 0 0 0.00454293 0 1410.75
0.0640622 0 1.93819e-07 0 0 0 0 0.00432265 0 1664.89
0.0676989 0 2.28736e-07 0 0 0 0 0.00410371 0 1964.83
0.071542 0 2.69944e-07 0 0 0 0 0.00388717 0 2318.8
0.0756032 0 3.18575e-07 0 0 0 0 0.00367401 0 2736.54
0.079895 0 3.75967e-07 0 0 0 0 0.0034651 0 3229.53
0.0844305 0 4.43698e-07 0 0 0 0 0.00326121 0 3811.34
0.0892234 0 5.23632e-07 0 0 0 0 0.00306301 0 4497.96
0.0942883 0 6.17966e-07 0 0 0 0 0.00287109 0 5308.28
0.0996408 0 7.29294e-07 0 0 0 0 0.00268591 0 6264.59
0.105297 0 8.60678e-07 0 0 0 0 0.00250785 0 7393.17
0.111275 0 1.01573e-06 0 0 0 0 0.00233721 0 8725.07
0.117591 0 1.19872e-06 0 0 0 0 0.00217419 0 10296.9
0.124267 0 1.41467e-06 0 0 0 0 0.00201893 0 12151.9
0.131321 0 1.66953e-06 0 0 0 0 0.00187147 0 14341.1
0.138776 0 1.9703e-06 0 0 0 0 0.00173182 0 16924.7
0.146654 0 2.32525e-06 0 0 0 0 0.00159991 0 19973.8
0.154979 0 2.74415e-06 0 0 0 0 0.00147563 0 23572.1
0.163777 0 3.23852e-06 0 0 0 0 0.00135884 0 27818.7
0.173074 0 3.82195e-06 0 0 0 0 0.00124933 0 32830.3
0.182899 0 4.51048e-06 0 0 0 0 0.00114689 0 38744.7
0.193281 0 5.32305e-06 0 0 0 0 0.00105127 0 45724.7
0.204254 0 6.28202e-06 0 0 0 0 0.000962209 0 53962.1
0.215848 0 7.41374e-06 0 0 0 0 0.000879423 0 63683.5
0.228102 0 8.74934e-06 0 0 0 0 0.000802624 0 75156.3
0.24105 0 1.03256e-05 0 0 0 0 0.000731515 0 88695.9
0.254734 0 1.21857e-05 0 0 0 0 0.000665798 0 104675
0.269195 0 1.4381e-05 0 0 0 0 0.000605173 0 123532
0.284476 0 1.69718e-05 0 0 0 0 0.000549345 0 145787
0.300625 0 2.00293e-05 0 0 0 0 0.000498021 0 172051
0.317691 0 2.36377e-05 0 0 0 0 0.000450916 0 203046
0.335725 0 2.78961e-05 0 0 0 0 0.000407755 0 239625
0.354784 0 3.29216e-05 0 0 0 0 0.000368269 0 282795
0.374924 0 3.88525e-05 0 0 0 0 0.000332202 0 333741
0.396207 2.71483 4.58519e-05 6.8928e-06 6 2.63935 6.70116e-06 0.000299307 0.138175 393865
0.418699 0 5.41123e-05 0 0 0 0 0.00026935 0 464821
0.442467 0 6.38607e-05 0 0 0 0 0.000242108 0 548560
0.467585 0 7.53654e-05 0 0 0 0 0.00021737 0 647384
0.494129 0 8.89427e-05 0 0 0 0 0.000194938 0 764012
0.522179 0 0.000104966 0 0 0 0 0.000174625 0 901651
0.551822 0 0.000123876 0 0 0 0 0.000156255 0 1.06409e+06
0.583147 7.37926 0.000146192 5.87622e-06 12 7.76672 6.18476e-06 0.000139664 0.504888 1.25578e+06
0.616251 0 0.000172529 0 0 0 0 0.0001247 0 1.48202e+06
0.651234 0 0.000203611 0 0 0 0 0.00011122 0 1.74901e+06
0.688203 15.6726 0.000240292 7.59299e-06 8 15.2827 7.40409e-06 9.90935e-05 0.612996 2.06409e+06
0.72727 0 0.000283581 0 0 0 0 8.81969e-05 0 2.43595e+06
0.768555 0 0.000334669 0 0 0 0 7.84179e-05 0 2.87479e+06
0.812184 8.04603 0.000394961 2.37158e-06 6 8.21805 2.42228e-06 6.96525e-05 0.204292 3.39269e+06
0.85829 0 0.000466114 0 0 0 0 6.1805e-05 0 4.00389e+06
0.907013 1.80923 0.000550086 3.82888e-07 24 1.84394 3.90235e-07 5.47875e-05 0.167727 4.7252e+06
0.958501 3.20772 0.000649185 5.75224e-07 24 3.01983 5.41531e-07 4.85194e-05 0.284533 5.57646e+06
1.01291 0 0.000766138 0 0 0 0 4.29272e-05 0 6.58107e+06
1.07041 0 0.00090416 0 0 0 0 3.79435e-05 0 7.76667e+06
1.13118 7.52122 0.00106705 8.20569e-07 12 7.42883 8.10489e-07 3.3507e-05 0.293874 9.16586e+06
1.19539 3.69235 0.00125928 3.41343e-07 30 3.61623 3.34306e-07 2.9562e-05 0.3464 1.08171e+07
1.26325 11.5199 0.00148614 9.02403e-07 24 11.3466 8.88824e-07 2.60578e-05 0.831139 1.27658e+07
1.33496 14.305 0.00175387 9.49512e-07 24 14.3365 9.51599e-07 2.29484e-05 0.993021 1.50656e+07
1.41075 15.8417 0.00206984 8.90996e-07 32 16.1442 9.08012e-07 2.01923e-05 1.41202 1.77798e+07
1.49083 3.11801 0.00244272 1.48598e-07 48 3.05153 1.4543e-07 1.77518e-05 0.401803 2.09828e+07
1.57546 23.6822 0.00288279 9.56354e-07 6 22.5507 9.10664e-07 1.55929e-05 0.367997 2.4763e+07
1.66489 3.87419 0.00340213 1.32569e-07 84 3.77849 1.29294e-07 1.3685e-05 0.813719 2.92241e+07
1.75941 7.81768 0.00401503 2.26673e-07 48 7.7006 2.23278e-07 1.20007e-05 0.906639 3.44889e+07
1.85928 4.09361 0.00473835 1.00575e-07 72 4.10467 1.00847e-07 1.05151e-05 0.688667 4.07021e+07
1.96483 11.3903 0.00559198 2.37127e-07 54 11.1152 2.314e-07 9.20606e-06 1.39092 4.80347e+07
2.07637 13.9121 0.00659939 2.45415e-07 104 14.0071 2.4709e-07 8.05366e-06 3.16913 5.66883e+07
2.19424 6.4419 0.00778828 9.62903e-08 120 6.55274 9.7947e-08 7.04008e-06 1.64129 6.69008e+07
2.3188 8.4193 0.00919136 1.06637e-07 156 8.22141 1.0413e-07 6.1494e-06 2.70519 7.89532e+07
2.45043 10.6831 0.0108472 1.14654e-07 126 10.5941 1.13699e-07 5.36741e-06 2.6915 9.31768e+07
2.58954 10.9387 0.0128014 9.94761e-08 192 10.9848 9.98954e-08 4.68145e-06 4.0798 1.09963e+08
2.73654 29.7912 0.0151076 2.29564e-07 152 30.1071 2.31998e-07 4.08023e-06 8.55189 1.29773e+08
2.89188 13.7295 0.0178292 8.96465e-08 378 13.7817 8.99871e-08 3.55373e-06 9.53543 1.53152e+08
3.05605 10.8126 0.0210412 5.98233e-08 264 10.702 5.92111e-08 3.09304e-06 5.1061 1.80743e+08
3.22953 13.9315 0.0248319 6.53129e-08 366 13.733 6.43824e-08 2.69025e-06 8.88561 2.13304e+08
3.41286 15.6095 0.0293054 6.20088e-08 428 15.4195 6.12538e-08 2.33837e-06 11.3497 2.51731e+08
3.6066 18.7758 0.0345848 6.3201e-08 486 18.4921 6.22458e-08 2.0312e-06 15.1219 2.97081e+08
3.81134 15.9031 0.0408154 4.53595e-08 600 15.8764 4.52834e-08 1.76327e-06 15.4348 3.50601e+08
4.0277 20.6536 0.0481684 4.99166e-08 738 20.6054 4.98e-08 1.52972e-06 24.0818 4.13763e+08
4.25634 19.6292 0.056846 4.01988e-08 824 19.5685 4.00745e-08 1.32631e-06 24.9745 4.88304e+08
4.49796 22.0839 0.067087 3.8322e-08 954 21.9853 3.81508e-08 1.14926e-06 31.8112 5.76273e+08
4.7533 21.8816 0.0791729 3.21746e-08 1094 21.734 3.19576e-08 9.95263e-07 35.3666 6.8009e+08
5.02313 25.5039 0.0934361 3.17762e-08 1332 25.6504 3.19587e-08 8.61414e-07 49.1353 8.0261e+08
5.30828 29.8211 0.110269 3.14833e-08 1614 29.8469 3.15106e-08 7.45152e-07 68.1929 9.47202e+08
5.60962 30.8006 0.130134 2.75536e-08 1850 30.8142 2.75658e-08 6.44232e-07 79.1238 1.11784e+09
5.92807 30.8038 0.153578 2.33499e-08 2238 30.8273 2.33678e-08 5.56685e-07 93.8718 1.31923e+09
6.26459 30.7417 0.181246 1.97456e-08 2546 30.8647 1.98246e-08 4.80786e-07 104.563 1.55689e+09
6.62021 32.1907 0.213898 1.752e-08 3264 32.2623 1.7559e-08 4.15026e-07 137.788 1.83737e+09
6.99602 35.2035 0.252432 1.6235e-08 3506 35.2691 1.62652e-08 3.58083e-07 158.957 2.16837e+09
7.39317 37.7001 0.297908 1.47323e-08 4506 37.7116 1.47368e-08 3.08803e-07 214.971 2.55901e+09
7.81286 43.273 0.351577 1.43287e-08 5018 43.1755 1.42964e-08 2.66181e-07 270.123 3.02002e+09
8.25637 44.1448 0.414914 1.2386e-08 5852 44.0763 1.23668e-08 2.29336e-07 316.055 3.56409e+09
8.72507 47.8355 0.489662 1.13727e-08 7362 47.7649 1.13559e-08 1.97503e-07 423.922 4.20617e+09
9.22037 49.5048 0.577876 9.97293e-09 8306 49.3739 9.94656e-09 1.70014e-07 487.225 4.96392e+09
9.74378 54.5644 0.681982 9.31422e-09 9698 54.4822 9.30019e-09 1.46289e-07 617.471 5.85818e+09
10.2969 55.5777 0.804843 8.03896e-09 11816 55.5121 8.02947e-09 1.25822e-07 754.939 6.91355e+09
10.8814 64.3386 0.949838 7.88555e-09 13682 64.1199 7.85875e-09 1.08175e-07 997.362 8.15905e+09
11.4992 63.7332 1.12095 6.61893e-09 16152 63.6693 6.6123e-09 9.29669e-08 1149.97 9.62892e+09
12.1519 66.6001 1.3229 5.86083e-09 19472 66.4941 5.8515e-09 7.98658e-08 1428.92 1.13636e+10
12.8418 70.5358 1.56122 5.25963e-09 22670 70.3525 5.24597e-09 6.85852e-08 1738.51 1.34108e+10
13.5708 76.5195 1.84248 4.83481e-09 26224 76.4151 4.82822e-09 5.88765e-08 2153.46 1.58268e+10
14.3411 81.5978 2.17441 4.36866e-09 31640 81.4653 4.36156e-09 5.05241e-08 2735.81 1.8678e+10
15.1552 85.1977 2.56613 3.86509e-09 37484 85.0382 3.85785e-09 4.33417e-08 3342.72 2.20429e+10
16.0156 91.7224 3.02843 3.52589e-09 43856 91.6007 3.52121e-09 3.71677e-08 4160.37 2.6014e+10
16.9247 96.6277 3.574 3.14743e-09 51362 96.526 3.14412e-09 3.18628e-08 5073.58 3.07005e+10
17.8855 101.25 4.21787 2.79455e-09 61636 101.093 2.79021e-09 2.73063e-08 6307.88 3.62312e+10
18.9008 107.609 4.97773 2.51667e-09 72218 107.33 2.51015e-09 2.33941e-08 7768.99 4.27584e+10
19.9738 112.624 5.87448 2.23188e-09 84586 112.451 2.22846e-09 2.00364e-08 9422.14 5.04614e+10
21.1076 119.822 6.93279 2.01206e-09 100708 119.651 2.00917e-09 1.71555e-08 11811.4 5.95522e+10
22.3058 126.054 8.18175 1.79358e-09 118712 125.846 1.79062e-09 1.46847e-08 14499.4 7.02807e+10
23.5721 131.63 9.65571 1.58702e-09 140410 131.333 1.58344e-09 1.25662e-08 17732.8 8.29419e+10
24.9102 138.339 11.3952 1.41329e-09 164374 138.097 1.41082e-09 1.07504e-08 21609.3 9.78842e+10
26.3243 147.172 13.4481 1.27401e-09 194680 146.964 1.27221e-09 9.19452e-09 26975.3 1.15518e+11
27.8187 154.505 15.8708 1.13332e-09 230196 154.293 1.13177e-09 7.86182e-09 33183.9 1.36329e+11
29.3979 161.737 18.73 1.00527e-09 271156 161.47 1.00361e-09 6.72061e-09 40559.5 1.60889e+11
31.0667 170.101 22.1042 8.95861e-10 321076 169.769 8.94114e-10 5.74366e-09 50079.5 1.89874e+11
32.8303 180.075 26.0864 8.03618e-10 377436 179.744 8.02141e-10 4.90756e-09 61805.6 2.2408e+11
34.694 188.019 30.7859 7.10984e-10 447594 187.664 7.09641e-10 4.19221e-09 75910.4 2.64449e+11
36.6634 197.272 36.3321 6.32101e-10 525078 196.907 6.30929e-10 3.58032e-09 92701.7 3.1209e+11
38.7447 207.241 42.8774 5.62675e-10 621924 206.882 5.617e-10 3.05709e-09 114469 3.68314e+11
40.9442 217.972 50.6018 5.01469e-10 732630 217.565 5.00533e-10 2.60976e-09 140776 4.34667e+11
43.2685 229.214 59.7179 4.46834e-10 865596 228.831 4.46089e-10 2.22743e-09 173643 5.12973e+11
45.7247 239.934 70.4762 3.96332e-10 1.02168e+06 239.563 3.95719e-10 1.90073e-09 213035 6.05386e+11
48.3204 251.248 83.1727 3.51666e-10 1.20544e+06 250.821 3.51069e-10 1.62163e-09 261410 7.14448e+11
51.0634 263.765 98.1565 3.12829e-10 1.42103e+06 263.323 3.12305e-10 1.38326e-09 321372 8.43158e+11
53.9621 277.604 115.84 2.78984e-10 1.67997e+06 277.132 2.78509e-10 1.1797e-09 397289 9.95055e+11
57.0254 292.101 136.709 2.48741e-10 1.98018e+06 291.57 2.48289e-10 1.00592e-09 489654 1.17432e+12
60.2626 307.565 161.337 2.21929e-10 2.33957e+06 307.005 2.21525e-10 8.57591e-10 605438 1.38587e+12
63.6835 324.819 190.402 1.986e-10 2.75676e+06 324.228 1.98239e-10 7.3101e-10 748956 1.63554e+12
67.2987 343.954 224.704 1.78197e-10 3.25638e+06 343.335 1.77876e-10 6.23009e-10 931410 1.93019e+12
71.1191 364.66 265.185 1.60085e-10 3.84387e+06 363.987 1.59789e-10 5.30879e-10 1.1591e+06 2.27792e+12
75.1563 387.926 312.958 1.44302e-10 4.53277e+06 387.188 1.44028e-10 4.52303e-10 1.44613e+06 2.68829e+12
79.4227 414.23 369.339 1.30565e-10 5.35083e+06 413.453 1.3032e-10 3.85299e-10 1.81322e+06 3.17259e+12
83.9313 444.511 435.876 1.18722e-10 6.32174e+06 443.587 1.18475e-10 3.28173e-10 2.28699e+06 3.74415e+12
88.6959 478.588 514.4 1.08311e-10 7.44986e+06 477.558 1.08077e-10 2.79476e-10 2.88718e+06 4.41866e+12
93.7309 518.164 607.071 9.93661e-11 8.79764e+06 517.046 9.91516e-11 2.37972e-10 3.67348e+06 5.2147e+12
99.0518 563.751 716.436 9.16051e-11 1.03827e+07 562.477 9.13981e-11 2.02605e-10 4.69439e+06 6.15414e+12
104.675 617.121 845.504 8.49699e-11 1.22515e+07 615.68 8.47714e-11 1.72471e-10 6.03586e+06 7.26283e+12
110.617 681.412 997.824 7.94997e-11 1.44573e+07 679.77 7.93082e-11 1.468e-10 7.82938e+06 8.57124e+12
116.896 755.146 1177.58 7.46533e-11 1.70664e+07 753.237 7.44646e-11 1.24935e-10 1.01978e+07 1.01154e+13
123.532 844.019 1389.73 7.07021e-11 2.0139e+07 841.817 7.05176e-11 1.06313e-10 1.33932e+07 1.19377e+13
130.545 949.072 1640.09 6.7366e-11 2.37643e+07 946.5 6.71835e-11 9.04567e-11 1.7698e+07 1.40883e+13
137.955 1073.78 1935.56 6.45829e-11 2.80503e+07 1070.78 6.44024e-11 7.69563e-11 2.35402e+07 1.66263e+13
145.787 1222.3 2284.26 6.22933e-11 3.30981e+07 1218.78 6.21143e-11 6.54636e-11 3.14952e+07 1.96216e+13
154.063 1398.26 2695.77 6.0383e-11 3.90634e+07 1394.17 6.02062e-11 5.56812e-11 4.2362e+07 2.31565e+13
162.808 1608.15 3181.42 5.88459e-11 4.61057e+07 1603.31 5.86686e-11 4.73556e-11 5.72926e+07 2.73282e+13
172.051 1858.21 3754.56 5.76163e-11 5.44046e+07 1852.48 5.74386e-11 4.02708e-11 7.78377e+07 3.22515e+13
181.818 2155.63 4430.96 5.66352e-11 6.42064e+07 2148.9 5.64584e-11 3.42426e-11 1.06194e+08 3.80616e+13
192.139 2508.01 5229.21 5.58346e-11 7.57748e+07 2500.04 5.56572e-11 2.91139e-11 1.45321e+08 4.49186e+13
203.046 2931.5 6171.26 5.53002e-11 8.94213e+07 2922.09 5.51227e-11 2.4751e-11 1.9979e+08 5.30108e+13
214.572 3434.27 7283.03 5.48949e-11 1.05538e+08 3423.1 5.47165e-11 2.10401e-11 2.75356e+08 6.25608e+13
226.753 4036.5 8595.09 5.46719e-11 1.24552e+08 4023.18 5.44916e-11 1.78839e-11 3.8076e+08 7.38313e+13
239.625 4756.62 10143.5 5.45909e-11 1.46987e+08 4740.75 5.44088e-11 1.51999e-11 5.27909e+08 8.71322e+13
253.228 5624.04 11970.9 5.4693e-11 1.7347e+08 5604.93 5.45071e-11 1.29176e-11 7.34469e+08 1.02829e+14
267.603 6669.6 14127.5 5.49598e-11 2.04703e+08 6646.7 5.4771e-11 1.09771e-11 1.0249e+09 1.21354e+14
282.795 7942.26 16672.6 5.54563e-11 2.4161e+08 7914.52 5.52626e-11 9.3274e-12 1.4365e+09 1.43217e+14
298.848 9502.61 19676.2 5.62227e-11 2.85122e+08 9468.66 5.60218e-11 7.925e-12 2.02276e+09 1.69017e+14
315.813 11441.5 23220.9 5.73604e-11 3.36491e+08 11399.5 5.71498e-11 6.73295e-12 2.86669e+09 1.99466e+14
333.741 13887.9 27404.3 5.89967e-11 3.97115e+08 13835.1 5.87725e-11 5.71979e-12 4.09603e+09 2.35401e+14
352.686 17047.2 32341.2 6.13631e-11 4.68637e+08 16979.4 6.1119e-11 4.85874e-12 5.91862e+09 2.77809e+14
372.707 21251.3 38167.6 6.4819e-11 5.53074e+08 21161.7 6.45456e-11 4.12703e-12 8.68656e+09 3.27857e+14
393.865 27065.1 45043.5 6.99499e-11 6.52716e+08 26942 6.96317e-11 3.50528e-12 1.30253e+10 3.86921e+14
416.224 31953.8 53158.3 6.99781e-11 2.2184e+08 33804.1 7.40303e-11 2.97701e-12 5.2146e+09 4.56626e+14
439.852 0 62734.9 0 0 0 0 2.52819e-12 0 5.38888e+14
464.821 0 74036.7 0 0 0 0 2.1469e-12 0 6.35971e+14
491.207 0 87374.6 0 0 0 0 1.82301e-12 0 7.50542e+14
519.092 0 103115 0 0 0 0 1.54789e-12 0 8.85755e+14
548.56 0 121692 0 0 0 0 1.31422e-12 0 1.04533e+15
579.7 0 143615 0 0 0 0 1.11576e-12 0 1.23364e+15
612.608 0 169488 0 0 0 0 9.47223e-13 0 1.45589e+15
647.384 0 200021 0 0 0 0 8.041e-13 0 1.71817e+15
684.134 0 236056 0 0 0 0 6.82568e-13 0 2.0277e+15
722.971 0 278582 0 0 0 0 5.79376e-13 0 2.393e+15
764.012 0 328769 0 0 0 0 4.91762e-13 0 2.8241e+15
0.682472
200
1.0655e+09
8589934592
0.0129181 0.00123435 1.58924e-09 9.04192e-05 6 0.00122305 8.95915e-05 0.00677225 0.0801086 13.6515
0.0136515 0 1.87554e-09 0 0 0 0 0.00688819 0 16.1108
0.0144264 0 2.21343e-09 0 0 0 0 0.00699249 0 19.0132
0.0152454 0 2.61218e-09 0 0 0 0 0.00708412 0 22.4385
0.0161108 0 3.08278e-09 0 0 0 0 0.00716212 0 26.4808
0.0170254 0 3.63815e-09 0 0 0 0 0.00722559 0 31.2514
0.0179919 0.00275265 4.29357e-09 7.46352e-05 12 0.00274911 7.4539e-05 0.00727371 0.123131 36.8815
0.0190132 0 5.06707e-09 0 0 0 0 0.00730578 0 43.5258
0.0200925 0 5.97991e-09 0 0 0 0 0.00732122 0 51.367
0.0212331 0.0026102 7.05721e-09 4.30578e-05 8 0.00260793 4.30203e-05 0.00731958 0.0470604 60.621
0.0224385 0 8.32858e-09 0 0 0 0 0.00730056 0 71.542
0.0237123 0 9.829e-09 0 0 0 0 0.00726401 0 84.4305
0.0250583 0.0165475 1.15997e-08 0.000166071 6 0.0165397 0.000165993 0.00720995 0.138202 99.6408
0.0264808 0 1.36894e-08 0 0 0 0 0.00713857 0 117.591
0.0279841 0.0102222 1.61556e-08 7.36598e-05 24 0.0102117 7.35842e-05 0.00705021 0.250749 138.776
0.0295727 0 1.90661e-08 0 0 0 0 0.00694538 0 163.777
0.0312514 0.0182078 2.25009e-08 9.42037e-05 24 0.0183003 9.4682e-05 0.00682475 0.331278 193.281
0.0330255 0 2.65545e-08 0 0 0 0 0.00668915 0 228.102
0.0349003 0.0273408 3.13384e-08 0.000101565 12 0.0271218 0.000100752 0.00653951 0.186372 269.195
0.0368815 0.0222188 3.69841e-08 6.99384e-05 30 0.0219822 6.91936e-05 0.00637693 0.329022 317.691
0.0389751 0.0254439 4.36469e-08 6.78643e-05 24 0.0251822 6.71662e-05 0.00620256 0.262592 374.924
0.0411876 0.0162875 5.151e-08 3.68107e-05 24 0.0161769 3.65607e-05 0.00601767 0.14681 442.467
0.0435258 0.0394868 6.07896e-08 7.56193e-05 8 0.0394838 7.56135e-05 0.00582358 0.10388 522.179
0.0459966 0.0488381 7.1741e-08 7.92504e-05 72 0.0484526 7.86248e-05 0.00562166 1.01501 616.251
0.0486077 0 8.46654e-08 0 0 0 0 0.0054133 0 727.27
0.051367 0.0681304 9.99181e-08 7.93793e-05 54 0.0679062 7.9118e-05 0.00519989 0.824341 858.29
0.054283 0.0547019 1.17919e-07 5.40046e-05 60 0.0549467 5.42462e-05 0.0049828 0.650291 1012.91
0.0573645 0.0516373 1.39162e-07 4.31969e-05 96 0.0515048 4.30861e-05 0.00476339 0.870579 1195.39
0.060621 0.0610027 1.64232e-07 4.32415e-05 24 0.0601762 4.26556e-05 0.00454293 0.228442 1410.75
0.0640622 0.105448 1.93819e-07 6.3336e-05 134 0.105499 6.33668e-05 0.00432265 1.96339 1664.89
0.0676989 0.102694 2.28736e-07 5.22662e-05 120 0.102199 5.20141e-05 0.00410371 1.52836 1964.83
0.071542 0.0960759 2.69944e-07 4.14335e-05 108 0.0950193 4.09778e-05 0.00388717 1.15117 2318.8
0.0756032 0.141869 3.18575e-07 5.18425e-05 174 0.141088 5.15571e-05 0.00367401 2.45524 2736.54
0.079895 0.148872 3.75967e-07 4.60971e-05 168 0.147473 4.5664e-05 0.0034651 2.23495 3229.53
0.0844305 0.124683 4.43698e-07 3.27136e-05 168 0.125303 3.28763e-05 0.00326121 1.68523 3811.34
0.0892234 0.147389 5.23632e-07 3.27679e-05 290 0.146712 3.26175e-05 0.00306301 3.1024 4497.96
0.0942883 0.181327 6.17966e-07 3.41592e-05 288 0.180919 3.40824e-05 0.00287109 3.42652 5308.28
0.0996408 0.162326 7.29294e-07 2.59117e-05 366 0.161055 2.57089e-05 0.00268591 3.5309 6264.59
0.105297 0.18868 8.60678e-07 2.55209e-05 420 0.187343 2.534e-05 0.00250785 4.27409 7393.17
0.111275 0.202119 1.01573e-06 2.31653e-05 398 0.201528 2.30976e-05 0.00233721 3.94478 8725.07
0.117591 0.240583 1.19872e-06 2.33646e-05 624 0.241207 2.34252e-05 0.00217419 6.7057 10296.9
0.124267 0.276789 1.41467e-06 2.27774e-05 642 0.27621 2.27297e-05 0.00201893 7.24301 12151.9
0.131321 0.331864 1.66953e-06 2.31407e-05 800 0.331965 2.31477e-05 0.00187147 9.89201 14341.1
0.138776 0.302444 1.9703e-06 1.787e-05 858 0.30377 1.79483e-05 0.00173182 8.85338 16924.7
0.146654 0.347568 2.32525e-06 1.74012e-05 1080 0.350474 1.75467e-05 0.00159991 11.7465 19973.8
0.154979 0.407867 2.74415e-06 1.7303e-05 1286 0.410477 1.74137e-05 0.00147563 15.0793 23572.1
0.163777 0.395649 3.23852e-06 1.42224e-05 1650 0.396707 1.42605e-05 0.00135884 17.2699 27818.7
0.173074 0.447947 3.82195e-06 1.36443e-05 1778 0.44822 1.36526e-05 0.00124933 19.4181 32830.3
0.182899 0.468474 4.51048e-06 1.20913e-05 2112 0.469621 1.21209e-05 0.00114689 22.2661 38744.7
0.193281 0.5216 5.32305e-06 1.14074e-05 2570 0.522091 1.14181e-05 0.00105127 27.8872 45724.7
0.204254 0.610023 6.28202e-06 1.13047e-05 3030 0.609651 1.12978e-05 0.000962209 35.5984 53962.1
0.215848 0.629342 7.41374e-06 9.88233e-06 3434 0.629078 9.87818e-06 0.000879423 38.5889 63683.5
0.228102 0.666026 8.74934e-06 8.86188e-06 4218 0.665772 8.8585e-06 0.000802624 46.5715 75156.3
0.24105 0.742344 1.03256e-05 8.36954e-06 4766 0.74281 8.3748e-06 0.000731515 54.5296 88695.9
0.254734 0.810094 1.21857e-05 7.73916e-06 6026 0.81008 7.73902e-06 0.000665798 70.0455 104675
0.269195 0.909728 1.4381e-05 7.3643e-06 6480 0.90891 7.35768e-06 0.000605173 78.8545 123532
0.284476 0.986012 1.69718e-05 6.76338e-06 8162 0.987937 6.77659e-06 0.000549345 100.488 145787
0.300625 1.07353 2.00293e-05 6.23963e-06 9578 1.07421 6.24359e-06 0.000498021 120.001 172051
0.317691 1.18203 2.36377e-05 5.8215e-06 11234 1.18074 5.81514e-06 0.000450916 145.035 203046
0.335725 1.27598 2.78961e-05 5.32488e-06 13344 1.27364 5.31514e-06 0.000407755 174.26 239625
0.354784 1.41575 3.29216e-05 5.00627e-06 15464 1.41472 5.00264e-06 0.000368269 210.218 282795
0.374924 1.51544 3.88525e-05 4.54078e-06 18458 1.51436 4.53754e-06 0.000332202 252.297 333741
0.396207 1.73888 4.58519e-05 4.41491e-06 22232 1.73649 4.40885e-06 0.000299307 327.932 393865
0.418699 1.86192 5.41123e-05 4.00568e-06 25628 1.85737 3.99588e-06 0.00026935 381.131 464821
0.442467 2.02617 6.38607e-05 3.69361e-06 30320 2.0225 3.68693e-06 0.000242108 462.563 548560
0.467585 2.27415 7.53654e-05 3.51282e-06 35452 2.27017 3.50668e-06 0.00021737 572.924 647384
0.494129 2.50033 8.89427e-05 3.27263e-06 41792 2.49793 3.26949e-06 0.000194938 701.605 764012
0.522179 2.80389 0.000104966 3.10973e-06 49988 2.8037 3.10952e-06 0.000174625 890.19 901651
0.551822 3.09024 0.000123876 2.90413e-06 59110 3.08606 2.9002e-06 0.000156255 1098.61 1.06409e+06
0.583147 3.41808 0.000146192 2.72187e-06 69716 3.41205 2.71707e-06 0.000139664 1358.68 1.25578e+06
0.616251 3.78833 0.000172529 2.5562e-06 82210 3.78069 2.55104e-06 0.0001247 1685.21 1.48202e+06
0.651234 4.18221 0.000203611 2.39119e-06 96722 4.17258 2.38569e-06 0.00011122 2079.48 1.74901e+06
0.688203 4.7106 0.000240292 2.28216e-06 113098 4.70325 2.2786e-06 9.90935e-05 2604.69 2.06409e+06
0.72727 5.20526 0.000283581 2.13685e-06 135190 5.19787 2.13382e-06 8.81969e-05 3275.41 2.43595e+06
0.768555 5.78048 0.000334669 2.01075e-06 158170 5.77311 2.00819e-06 7.84179e-05 4055.71 2.87479e+06
0.812184 6.45827 0.000394961 1.90358e-06 188560 6.44716 1.90031e-06 6.96525e-05 5153.29 3.39269e+06
0.85829 7.18418 0.000466114 1.7943e-06 220444 7.17247 1.79137e-06 6.1805e-05 6399.85 4.00389e+06
0.907013 7.99654 0.000550086 1.69232e-06 261388 7.9836 1.68958e-06 5.47875e-05 8073.95 4.7252e+06
0.958501 8.92207 0.000649185 1.59995e-06 308244 8.90944 1.59769e-06 4.85194e-05 10164.5 5.57646e+06
1.01291 9.98289 0.000766138 1.51691e-06 364396 9.96607 1.51435e-06 4.29272e-05 12876.6 6.58107e+06
1.07041 11.0756 0.00090416 1.42604e-06 429162 11.0555 1.42345e-06 3.79435e-05 16129.3 7.76667e+06
1.13118 12.387 0.00106705 1.35142e-06 506358 12.3655 1.34908e-06 3.3507e-05 20422.7 9.16586e+06
1.19539 13.8262 0.00125928 1.27818e-06 598590 13.801 1.27585e-06 2.9562e-05 25881.4 1.08171e+07
1.26325 15.3799 0.00148614 1.20477e-06 704844 15.3507 1.20248e-06 2.60578e-05 32588.1 1.27658e+07
1.33496 17.0971 0.00175387 1.13484e-06 834620 17.0622 1.13252e-06 2.29484e-05 41273.4 1.50656e+07
1.41075 18.9463 0.00206984 1.06561e-06 981444 18.9083 1.06347e-06 2.01923e-05 51794 1.77798e+07
1.49083 21.0811 0.00244272 1.00468e-06 1.15998e+06 21.0423 1.00284e-06 1.77518e-05 65650.4 2.09828e+07
1.57546 23.3826 0.00288279 9.44259e-07 1.36931e+06 23.3381 9.42461e-07 1.55929e-05 82921.5 2.4763e+07
1.66489 25.9087 0.00340213 8.86553e-07 1.61652e+06 25.8595 8.84869e-07 1.3685e-05 104722 2.92241e+07
1.75941 28.5314 0.00401503 8.27266e-07 1.90601e+06 28.4774 8.25699e-07 1.20007e-05 131390 3.44889e+07
1.85928 31.3759 0.00473835 7.70866e-07 2.24913e+06 31.3183 7.69452e-07 1.05151e-05 164884 4.07021e+07
1.96483 34.4254 0.00559198 7.16677e-07 2.65744e+06 34.361 7.15338e-07 9.20606e-06 206877 4.80347e+07
2.07637 37.8482 0.00659939 6.67654e-07 3.13125e+06 37.7765 6.6639e-07 8.05366e-06 259583 5.66883e+07
2.19424 41.3664 0.00778828 6.18324e-07 3.69915e+06 41.2911 6.17198e-07 7.04008e-06 324893 6.69008e+07
2.3188 45.1724 0.00919136 5.72142e-07 4.36472e+06 45.089 5.71085e-07 6.1494e-06 406095 7.89532e+07
2.45043 49.1845 0.0108472 5.27861e-07 5.14913e+06 49.0976 5.2693e-07 5.36741e-06 506395 9.31768e+07
2.58954 53.4573 0.0128014 4.86139e-07 6.07894e+06 53.3629 4.85281e-07 4.68145e-06 631260 1.09963e+08
2.73654 57.8784 0.0151076 4.45997e-07 7.17304e+06 57.7805 4.45243e-07 4.08023e-06 784063 1.29773e+08
2.89188 62.6097 0.0178292 4.08808e-07 8.46557e+06 62.5013 4.081e-07 3.55373e-06 973847 1.53152e+08
3.05605 67.5654 0.0210412 3.73821e-07 9.98773e+06 67.4522 3.73195e-07 3.09304e-06 1.2071e+06 1.80743e+08
3.22953 72.721 0.0248319 3.40926e-07 1.1797e+07 72.596 3.40341e-07 2.69025e-06 1.495e+06 2.13304e+08
3.41286 78.3094 0.0293054 3.11083e-07 1.39144e+07 78.1759 3.10553e-07 2.33837e-06 1.85109e+06 2.51731e+08
3.6066 84.1192 0.0345848 2.83152e-07 1.64163e+07 83.9799 2.82683e-07 2.0312e-06 2.28845e+06 2.97081e+08
3.81134 90.1815 0.0408154 2.5722e-07 1.93821e+07 90.0318 2.56793e-07 1.76327e-06 2.82741e+06 3.50601e+08
4.0277 96.5204 0.0481684 2.33274e-07 2.28754e+07 96.36 2.32887e-07 1.52972e-06 3.48838e+06 4.13763e+08
4.25634 103.123 0.056846 2.11186e-07 2.69929e+07 102.949 2.1083e-07 1.32631e-06 4.29804e+06 4.88304e+08
4.49796 110.103 0.067087 1.9106e-07 3.18542e+07 109.92 1.90743e-07 1.14926e-06 5.29565e+06 5.76273e+08
4.7533 117.406 0.0791729 1.72633e-07 3.75892e+07 117.211 1.72346e-07 9.95263e-07 6.52002e+06 6.8009e+08
5.02313 125.078 0.0934361 1.55839e-07 4.43706e+07 124.874 1.55585e-07 8.61414e-07 8.02713e+06 8.0261e+08
5.30828 133.07 0.110269 1.40487e-07 5.23593e+07 132.851 1.40256e-07 7.45152e-07 9.87153e+06 9.47202e+08
5.60962 141.469 0.130134 1.26555e-07 6.1787e+07 141.238 1.26349e-07 6.44232e-07 1.21376e+07 1.11784e+09
5.92807 150.246 0.153578 1.13889e-07 7.29346e+07 149.998 1.13701e-07 5.56685e-07 1.49213e+07 1.31923e+09
6.26459 159.414 0.181246 1.02393e-07 8.60651e+07 159.151 1.02224e-07 4.80786e-07 1.83293e+07 1.55689e+09
6.62021 168.936 0.213898 9.19445e-08 1.01558e+08 168.657 9.17927e-08 4.15026e-07 2.24991e+07 1.83737e+09
6.99602 179.01 0.252432 8.2555e-08 1.1986e+08 178.716 8.24197e-08 3.58083e-07 2.76334e+07 2.16837e+09
7.39317 189.563 0.297908 7.40768e-08 1.41457e+08 189.256 7.39568e-08 3.08803e-07 3.39331e+07 2.55901e+09
7.81286 200.548 0.351577 6.64062e-08 1.66936e+08 200.219 6.62972e-08 2.66181e-07 4.16467e+07 3.02002e+09
8.25637 212.128 0.414914 5.95181e-08 1.97025e+08 211.779 5.94203e-08 2.29336e-07 5.11326e+07 3.56409e+09
8.72507 224.345 0.489662 5.33372e-08 2.32497e+08 223.975 5.32491e-08 1.97503e-07 6.27875e+07 4.20617e+09
9.22037 237.431 0.577876 4.78313e-08 2.74404e+08 237.035 4.77515e-08 1.70014e-07 7.72001e+07 4.96392e+09
9.74378 251.617 0.681982 4.29513e-08 3.2382e+08 251.188 4.28782e-08 1.46289e-07 9.50755e+07 5.85818e+09
10.2969 267.713 0.804843 3.87229e-08 3.82165e+08 267.239 3.86543e-08 1.25822e-07 1.17614e+08 6.91355e+09
10.8814 286.666 0.949838 3.51347e-08 4.51027e+08 286.124 3.50683e-08 1.08175e-07 1.46491e+08 8.15905e+09
11.4992 311 1.12095 3.22985e-08 5.32251e+08 310.342 3.22301e-08 9.29669e-08 1.84914e+08 9.62892e+09
12.1519 345.305 1.3229 3.03869e-08 6.28157e+08 344.445 3.03113e-08 7.98658e-08 2.38998e+08 1.13636e+10
12.8418 383.876 1.56122 2.86244e-08 3.82727e+08 397.325 2.96273e-08 6.85852e-08 1.59733e+08 1.34108e+10
13.5708 0 1.84248 0 0 0 0 5.88765e-08 0 1.58268e+10
14.3411 0 2.17441 0 0 0 0 5.05241e-08 0 1.8678e+10
15.1552 0 2.56613 0 0 0 0 4.33417e-08 0 2.20429e+10
16.0156 0 3.02843 0 0 0 0 3.71677e-08 0 2.6014e+10
16.9247 0 3.574 0 0 0 0 3.18628e-08 0 3.07005e+10
17.8855 0 4.21787 0 0 0 0 2.73063e-08 0 3.62312e+10
18.9008 0 4.97773 0 0 0 0 2.33941e-08 0 4.27584e+10
19.9738 0 5.87448 0 0 0 0 2.00364e-08 0 5.04614e+10
21.1076 0 6.93279 0 0 0 0 1.71555e-08 0 5.95522e+10
22.3058 0 8.18175 0 0 0 0 1.46847e-08 0 7.02807e+10
23.5721 0 9.65571 0 0 0 0 1.25662e-08 0 8.29419e+10
24.9102 0 11.3952 0 0 0 0 1.07504e-08 0 9.78842e+10
26.3243 0 13.4481 0 0 0 0 9.19452e-09 0 1.15518e+11
27.8187 0 15.8708 0 0 0 0 7.86182e-09 0 1.36329e+11
29.3979 0 18.73 0 0 0 0 6.72061e-09 0 1.60889e+11
31.0667 0 22.1042 0 0 0 0 5.74366e-09 0 1.89874e+11
32.8303 0 26.0864 0 0 0 0 4.90756e-09 0 2.2408e+11
34.694 0 30.7859 0 0 0 0 4.19221e-09 0 2.64449e+11
36.6634 0 36.3321 0 0 0 0 3.58032e-09 0 3.1209e+11
38.7447 0 42.8774 0 0 0 0 3.05709e-09 0 3.68314e+11
40.9442 0 50.6018 0 0 0 0 2.60976e-09 0 4.34667e+11
43.2685 0 59.7179 0 0 0 0 2.22743e-09 0 5.12973e+11
45.7247 0 70.4762 0 0 0 0 1.90073e-09 0 6.05386e+11
48.3204 0 83.1727 0 0 0 0 1.62163e-09 0 7.14448e+11
51.0634 0 98.1565 0 0 0 0 1.38326e-09 0 8.43158e+11
53.9621 0 115.84 0 0 0 0 1.1797e-09 0 9.95055e+11
57.0254 0 136.709 0 0 0 0 1.00592e-09 0 1.17432e+12
60.2626 0 161.337 0 0 0 0 8.57591e-10 0 1.38587e+12
63.6835 0 190.402 0 0 0 0 7.3101e-10 0 1.63554e+12
67.2987 0 224.704 0 0 0 0 6.23009e-10 0 1.93019e+12
71.1191 0 265.185 0 0 0 0 5.30879e-10 0 2.27792e+12
75.1563 0 312.958 0 0 0 0 4.52303e-10 0 2.68829e+12
79.4227 0 369.339 0 0 0 0 3.85299e-10 0 3.17259e+12
83.9313 0 435.876 0 0 0 0 3.28173e-10 0 3.74415e+12
88.6959 0 514.4 0 0 0 0 2.79476e-10 0 4.41866e+12
93.7309 0 607.071 0 0 0 0 2.37972e-10 0 5.2147e+12
99.0518 0 716.436 0 0 0 0 2.02605e-10 0 6.15414e+12
104.675 0 845.504 0 0 0 0 1.72471e-10 0 7.26283e+12
110.617 0 997.824 0 0 0 0 1.468e-10 0 8.57124e+12
116.896 0 1177.58 0 0 0 0 1.24935e-10 0 1.01154e+13
123.532 0 1389.73 0 0 0 0 1.06313e-10 0 1.19377e+13
130.545 0 1640.09 0 0 0 0 9.04567e-11 0 1.40883e+13
137.955 0 1935.56 0 0 0 0 7.69563e-11 0 1.66263e+13
145.787 0 2284.26 0 0 0 0 6.54636e-11 0 1.96216e+13
154.063 0 2695.77 0 0 0 0 5.56812e-11 0 2.31565e+13
162.808 0 3181.42 0 0 0 0 4.73556e-11 0 2.73282e+13
172.051 0 3754.56 0 0 0 0 4.02708e-11 0 3.22515e+13
181.818 0 4430.96 0 0 0 0 3.42426e-11 0 3.80616e+13
192.139 0 5229.21 0 0 0 0 2.91139e-11 0 4.49186e+13
203.046 0 6171.26 0 0 0 0 2.4751e-11 0 5.30108e+13
214.572 0 7283.03 0 0 0 0 2.10401e-11 0 6.25608e+13
226.753 0 8595.09 0 0 0 0 1.78839e-11 0 7.38313e+13
239.625 0 10143.5 0 0 0 0 1.51999e-11 0 8.71322e+13
253.228 0 11970.9 0 0 0 0 1.29176e-11 0 1.02829e+14
267.603 0 14127.5 0 0 0 0 1.09771e-11 0 1.21354e+14
282.795 0 16672.6 0 0 0 0 9.3274e-12 0 1.43217e+14
298.848 0 19676.2 0 0 0 0 7.925e-12 0 1.69017e+14
315.813 0 23220.9 0 0 0 0 6.73295e-12 0 1.99466e+14
333.741 0 27404.3 0 0 0 0 5.71979e-12 0 2.35401e+14
352.686 0 32341.2 0 0 0 0 4.85874e-12 0 2.77809e+14
372.707 0 38167.6 0 0 0 0 4.12703e-12 0 3.27857e+14
393.865 0 45043.5 0 0 0 0 3.50528e-12 0 3.86921e+14
416.224 0 53158.3 0 0 0 0 2.97701e-12 0 4.56626e+14
439.852 0 62734.9 0 0 0 0 2.52819e-12 0 5.38888e+14
464.821 0 74036.7 0 0 0 0 2.1469e-12 0 6.35971e+14
491.207 0 87374.6 0 0 0 0 1.82301e-12 0 7.50542e+14
519.092 0 103115 0 0 0 0 1.54789e-12 0 8.85755e+14
548.56 0 121692 0 0 0 0 1.31422e-12 0 1.04533e+15
579.7 0 143615 0 0 0 0 1.11576e-12 0 1.23364e+15
612.608 0 169488 0 0 0 0 9.47223e-13 0 1.45589e+15
647.384 0 200021 0 0 0 0 8.041e-13 0 1.71817e+15
684.134 0 236056 0 0 0 0 6.82568e-13 0 2.0277e+15
722.971 0 278582 0 0 0 0 5.79376e-13 0 2.393e+15
764.012 0 328769 0 0 0 0 4.91762e-13 0 2.8241e+15
