0.129031
200
1.0655e+09
8589934592
0.0129181 0 1.58924e-09 0 0 0 0 0.00677225 0 13.6515
0.0136515 0 1.87554e-09 0 0 0 0 0.00688819 0 16.1108
0.0144264 0 2.21343e-09 0 0 0 0 0.00699249 0 19.0132
0.0152454 0 2.61218e-09 0 0 0 0 0.00708412 0 22.4385
0.0161108 0 3.08278e-09 0 0 0 0 0.00716212 0 26.4808
0.0170254 0 3.63815e-09 0 0 0 0 0.00722559 0 31.2514
0.0179919 0 4.29357e-09 0 0 0 0 0.00727371 0 36.8815
0.0190132 0 5.06707e-09 0 0 0 0 0.00730578 0 43.5258
0.0200925 0 5.97991e-09 0 0 0 0 0.00732122 0 51.367
0.0212331 0 7.05721e-09 0 0 0 0 0.00731958 0 60.621
0.0224385 0 8.32858e-09 0 0 0 0 0.00730056 0 71.542
0.0237123 0 9.829e-09 0 0 0 0 0.00726401 0 84.4305
0.0250583 0 1.15997e-08 0 0 0 0 0.00720995 0 99.6408
0.0264808 0 1.36894e-08 0 0 0 0 0.00713857 0 117.591
0.0279841 0 1.61556e-08 0 0 0 0 0.00705021 0 138.776
0.0295727 0 1.90661e-08 0 0 0 0 0.00694538 0 163.777
0.0312514 0 2.25009e-08 0 0 0 0 0.00682475 0 193.281
0.0330255 0 2.65545e-08 0 0 0 0 0.00668915 0 228.102
0.0349003 0 3.13384e-08 0 0 0 0 0.00653951 0 269.195
0.0368815 0 3.69841e-08 0 0 0 0 0.00637693 0 317.691
0.0389751 0 4.36469e-08 0 0 0 0 0.00620256 0 374.924
0.0411876 0 5.151e-08 0 0 0 0 0.00601767 0 442.467
0.0435258 0 6.07896e-08 0 0 0 0 0.00582358 0 522.179
0.0459966 0 7.1741e-08 0 0 0 0 0.00562166 0 616.251
0.0486077 0 8.46654e-08 0 0 0 0 0.0054133 0 727.27
0.051367 0 9.99181e-08 0 0 0 0 0.00519989 0 858.29
0.054283 0 1.17919e-07 0 0 0 0 0.0049828 0 1012.91
0.0573645 0 1.39162e-07 0 0 0 0 0.00476339 0 1195.39
0.060621 0 1.64232e-07 0 0 0 0 0.00454293 0 1410.75
0.0640622 0 1.93819e-07 0 0 0 0 0.00432265 0 1664.89
0.0676989 0 2.28736e-07 0 0 0 0 0.00410371 0 1964.83
0.071542 0 2.69944e-07 0 0 0 0 0.00388717 0 2318.8
0.0756032 0 3.18575e-07 0 0 0 0 0.00367401 0 2736.54
0.079895 0 3.75967e-07 0 0 0 0 0.0034651 0 3229.53
0.0844305 0 4.43698e-07 0 0 0 0 0.00326121 0 3811.34
0.0892234 0 5.23632e-07 0 0 0 0 0.00306301 0 4497.96
0.0942883 0 6.17966e-07 0 0 0 0 0.00287109 0 5308.28
0.0996408 0 7.29294e-07 0 0 0 0 0.00268591 0 6264.59
0.105297 0 8.60678e-07 0 0 0 0 0.00250785 0 7393.17
0.111275 0 1.01573e-06 0 0 0 0 0.00233721 0 8725.07
0.117591 0 1.19872e-06 0 0 0 0 0.00217419 0 10296.9
0.124267 0 1.41467e-06 0 0 0 0 0.00201893 0 12151.9
0.131321 0 1.66953e-06 0 0 0 0 0.00187147 0 14341.1
0.138776 0 1.9703e-06 0 0 0 0 0.00173182 0 16924.7
0.146654 0 2.32525e-06 0 0 0 0 0.00159991 0 19973.8
0.154979 0 2.74415e-06 0 0 0 0 0.00147563 0 23572.1
0.163777 0 3.23852e-06 0 0 0 0 0.00135884 0 27818.7
0.173074 0 3.82195e-06 0 0 0 0 0.00124933 0 32830.3
0.182899 0 4.51048e-06 0 0 0 0 0.00114689 0 38744.7
0.193281 0 5.32305e-06 0 0 0 0 0.00105127 0 45724.7
0.204254 0 6.28202e-06 0 0 0 0 0.000962209 0 53962.1
0.215848 0 7.41374e-06 0 0 0 0 0.000879423 0 63683.5
0.228102 0 8.74934e-06 0 0 0 0 0.000802624 0 75156.3
0.24105 0 1.03256e-05 0 0 0 0 0.000731515 0 88695.9
0.254734 0 1.21857e-05 0 0 0 0 0.000665798 0 104675
0.269195 0 1.4381e-05 0 0 0 0 0.000605173 0 123532
0.284476 0 1.69718e-05 0 0 0 0 0.000549345 0 145787
0.300625 0 2.00293e-05 0 0 0 0 0.000498021 0 172051
0.317691 0 2.36377e-05 0 0 0 0 0.000450916 0 203046
0.335725 0 2.78961e-05 0 0 0 0 0.000407755 0 239625
0.354784 0 3.29216e-05 0 0 0 0 0.000368269 0 282795
0.374924 0 3.88525e-05 0 0 0 0 0.000332202 0 333741
0.396207 0.525458 4.58519e-05 1.33411e-06 6 0.51085 1.29702e-06 0.000299307 0.026744 393865
0.418699 0 5.41123e-05 0 0 0 0 0.00026935 0 464821
0.442467 0 6.38607e-05 0 0 0 0 0.000242108 0 548560
0.467585 0 7.53654e-05 0 0 0 0 0.00021737 0 647384
0.494129 0 8.89427e-05 0 0 0 0 0.000194938 0 764012
0.522179 0 0.000104966 0 0 0 0 0.000174625 0 901651
0.551822 0 0.000123876 0 0 0 0 0.000156255 0 1.06409e+06
0.583147 5.64029 0.000146192 4.49145e-06 12 5.93644 4.72728e-06 0.000139664 0.385908 1.25578e+06
0.616251 0 0.000172529 0 0 0 0 0.0001247 0 1.48202e+06
0.651234 0 0.000203611 0 0 0 0 0.00011122 0 1.74901e+06
0.688203 23.8795 0.000240292 1.1569e-05 8 23.2854 1.12812e-05 9.90935e-05 0.933987 2.06409e+06
0.72727 0 0.000283581 0 0 0 0 8.81969e-05 0 2.43595e+06
0.768555 0 0.000334669 0 0 0 0 7.84179e-05 0 2.87479e+06
0.812184 0.145166 0.000394961 4.27878e-08 6 0.148269 4.37026e-08 6.96525e-05 0.00368582 3.39269e+06
0.85829 0 0.000466114 0 0 0 0 6.1805e-05 0 4.00389e+06
0.907013 0.228861 0.000550086 4.84341e-08 24 0.233252 4.93634e-08 5.47875e-05 0.0212169 4.7252e+06
0.958501 0.883441 0.000649185 1.58423e-07 24 0.831695 1.49144e-07 4.85194e-05 0.0783637 5.57646e+06
1.01291 0 0.000766138 0 0 0 0 4.29272e-05 0 6.58107e+06
1.07041 0 0.00090416 0 0 0 0 3.79435e-05 0 7.76667e+06
1.13118 1.26014 0.00106705 1.37482e-07 12 1.24466 1.35793e-07 3.3507e-05 0.0492369 9.16586e+06
1.19539 0.850475 0.00125928 7.86231e-08 30 0.832943 7.70023e-08 2.9562e-05 0.0797879 1.08171e+07
1.26325 7.07204 0.00148614 5.53981e-07 24 6.96563 5.45646e-07 2.60578e-05 0.510233 1.27658e+07
1.33496 18.7322 0.00175387 1.24337e-06 24 18.7734 1.24611e-06 2.29484e-05 1.30035 1.50656e+07
1.41075 5.81881 0.00206984 3.27272e-07 32 5.97895 3.36278e-07 2.01923e-05 0.518648 1.77798e+07
1.49083 0.498604 0.00244272 2.37625e-08 48 0.487974 2.32559e-08 1.77518e-05 0.0642527 2.09828e+07
1.57546 0.0725784 0.00288279 2.93093e-09 6 0.069111 2.7909e-09 1.55929e-05 0.0011278 2.4763e+07
1.66489 0.485253 0.00340213 1.66046e-08 84 0.468318 1.60251e-08 1.3685e-05 0.10192 2.92241e+07
1.75941 2.5381 0.00401503 7.35919e-08 48 2.55671 7.41316e-08 1.20007e-05 0.294351 3.44889e+07
1.85928 0.309809 0.00473835 7.61162e-09 72 0.311639 7.65657e-09 1.05151e-05 0.0521191 4.07021e+07
1.96483 0.820892 0.00559198 1.70896e-08 54 0.803081 1.67188e-08 9.20606e-06 0.100242 4.80347e+07
2.07637 8.70664 0.00659939 1.53588e-07 104 8.69979 1.53467e-07 8.05366e-06 1.98334 5.66883e+07
2.19424 0.348066 0.00778828 5.20272e-09 120 0.351352 5.25183e-09 7.04008e-06 0.0886817 6.69008e+07
2.3188 1.85345 0.00919136 2.34753e-08 156 1.76501 2.23551e-08 6.1494e-06 0.59553 7.89532e+07
2.45043 0.652111 0.0108472 6.99864e-09 126 0.645803 6.93094e-09 5.36741e-06 0.164293 9.31768e+07
2.58954 0.66196 0.0128014 6.01985e-09 192 0.670807 6.10031e-09 4.68145e-06 0.246892 1.09963e+08
2.73654 3.97522 0.0151076 3.06321e-08 152 4.13492 3.18627e-08 4.08023e-06 1.14113 1.29773e+08
2.89188 3.73746 0.0178292 2.44036e-08 378 3.82301 2.49622e-08 3.55373e-06 2.59574 1.53152e+08
3.05605 1.37915 0.0210412 7.63043e-09 264 1.35425 7.4927e-09 3.09304e-06 0.65128 1.80743e+08
3.22953 0.309125 0.0248319 1.44922e-09 366 0.306006 1.4346e-09 2.69025e-06 0.197162 2.13304e+08
3.41286 0.77565 0.0293054 3.08126e-09 428 0.743429 2.95326e-09 2.33837e-06 0.563973 2.51731e+08
3.6066 3.49036 0.0345848 1.17488e-08 486 3.37455 1.1359e-08 2.0312e-06 2.81111 2.97081e+08
3.81134 0.824899 0.0408154 2.35281e-09 600 0.821716 2.34373e-09 1.76327e-06 0.800609 3.50601e+08
4.0277 0.608983 0.0481684 1.47182e-09 738 0.59901 1.44771e-09 1.52972e-06 0.710064 4.13763e+08
4.25634 1.20612 0.056846 2.47002e-09 824 1.24727 2.55429e-09 1.32631e-06 1.53456 4.88304e+08
4.49796 2.66683 0.067087 4.62773e-09 954 2.68834 4.66504e-09 1.14926e-06 3.84149 5.76273e+08
4.7533 0.647774 0.0791729 9.52483e-10 1094 0.638164 9.38352e-10 9.95263e-07 1.04698 6.8009e+08
5.02313 0.44069 0.0934361 5.49072e-10 1332 0.441487 5.50065e-10 8.61414e-07 0.849026 8.0261e+08
5.30828 2.27004 0.110269 2.39657e-09 1614 2.29731 2.42537e-09 7.45152e-07 5.19097 9.47202e+08
5.60962 1.15961 0.130134 1.03737e-09 1850 1.12685 1.00805e-09 6.44232e-07 2.97894 1.11784e+09
5.92807 1.55813 0.153578 1.1811e-09 2238 1.49888 1.13618e-09 5.56685e-07 4.74827 1.31923e+09
6.26459 0.794556 0.181246 5.10349e-10 2546 0.80436 5.16646e-10 4.80786e-07 2.70255 1.55689e+09
6.62021 0.432841 0.213898 2.35577e-10 3264 0.432962 2.35643e-10 4.15026e-07 1.85271 1.83737e+09
6.99602 1.606 0.252432 7.40649e-10 3506 1.65347 7.6254e-10 3.58083e-07 7.25172 2.16837e+09
7.39317 0.822093 0.297908 3.21254e-10 4506 0.830385 3.24494e-10 3.08803e-07 4.68768 2.55901e+09
7.81286 1.38936 0.351577 4.60048e-10 5018 1.42739 4.72644e-10 2.66181e-07 8.67275 3.02002e+09
8.25637 1.26322 0.414914 3.54429e-10 5852 1.22421 3.43484e-10 2.29336e-07 9.04402 3.56409e+09
8.72507 0.957264 0.489662 2.27586e-10 7362 0.9493 2.25692e-10 1.97503e-07 8.48335 4.20617e+09
9.22037 1.23861 0.577876 2.49523e-10 8306 1.22735 2.47253e-10 1.70014e-07 12.1904 4.96392e+09
9.74378 0.700712 0.681982 1.19612e-10 9698 0.701032 1.19667e-10 1.46289e-07 7.92952 5.85818e+09
10.2969 1.30921 0.804843 1.89369e-10 11816 1.32226 1.91256e-10 1.25822e-07 17.7837 6.91355e+09
10.8814 1.21418 0.949838 1.48814e-10 13682 1.2145 1.48853e-10 1.08175e-07 18.8219 8.15905e+09
11.4992 1.24434 1.12095 1.2923e-10 16152 1.22994 1.27734e-10 9.29669e-08 22.4523 9.62892e+09
12.1519 1.30952 1.3229 1.15238e-10 19472 1.28875 1.13411e-10 7.98658e-08 28.096 1.13636e+10
12.8418 1.0031 1.56122 7.47981e-11 22670 1.00438 7.48934e-11 6.85852e-08 24.7236 1.34108e+10
13.5708 1.39475 1.84248 8.81261e-11 26224 1.40392 8.87053e-11 5.88765e-08 39.252 1.58268e+10
14.3411 1.44535 2.17441 7.73824e-11 31640 1.45375 7.78324e-11 5.05241e-08 48.4596 1.8678e+10
15.1552 1.59927 2.56613 7.25525e-11 37484 1.60286 7.27157e-11 4.33417e-08 62.747 2.20429e+10
16.0156 1.68433 3.02843 6.47472e-11 43856 1.68886 6.49212e-11 3.71677e-08 76.3983 2.6014e+10
16.9247 2.26339 3.574 7.37248e-11 51362 2.25967 7.36037e-11 3.18628e-08 118.842 3.07005e+10
17.8855 2.43706 4.21787 6.72641e-11 61636 2.42327 6.68834e-11 2.73063e-08 151.829 3.62312e+10
18.9008 3.12138 4.97773 7.30004e-11 72218 3.10975 7.27283e-11 2.33941e-08 225.353 4.27584e+10
19.9738 3.78787 5.87448 7.50646e-11 84586 3.7735 7.47799e-11 2.00364e-08 316.894 5.04614e+10
21.1076 4.56977 6.93279 7.67356e-11 100708 4.55634 7.651e-11 1.71555e-08 450.461 5.95522e+10
22.3058 5.52456 8.18175 7.86071e-11 118712 5.51423 7.84601e-11 1.46847e-08 635.466 7.02807e+10
23.5721 6.56505 9.65571 7.91523e-11 140410 6.54401 7.88987e-11 1.25662e-08 884.421 8.29419e+10
24.9102 7.76959 11.3952 7.93753e-11 164374 7.73901 7.9063e-11 1.07504e-08 1213.66 9.78842e+10
26.3243 9.05775 13.4481 7.84097e-11 194680 9.02844 7.8156e-11 9.19452e-09 1660.21 1.15518e+11
27.8187 10.5133 15.8708 7.71169e-11 230196 10.4787 7.68632e-11 7.86182e-09 2258 1.36329e+11
29.3979 12.2308 18.73 7.60198e-11 271156 12.1919 7.57781e-11 6.72061e-09 3067.16 1.60889e+11
31.0667 14.0824 22.1042 7.41672e-11 321076 14.0346 7.39154e-11 5.74366e-09 4146.02 1.89874e+11
32.8303 16.21 26.0864 7.234e-11 377436 16.1616 7.21243e-11 4.90756e-09 5563.61 2.2408e+11
34.694 18.6222 30.7859 7.04187e-11 447594 18.5666 7.02086e-11 4.19221e-09 7518.48 2.64449e+11
36.6634 21.5718 36.3321 6.91204e-11 525078 21.5007 6.88926e-11 3.58032e-09 10137 3.1209e+11
38.7447 25.0251 42.8774 6.7945e-11 621924 24.9463 6.77311e-11 3.05709e-09 13822.5 3.68314e+11
40.9442 29.1848 50.6018 6.7143e-11 732630 29.0924 6.69303e-11 2.60976e-09 18848.8 4.34667e+11
43.2685 34.1578 59.7179 6.65879e-11 865596 34.0502 6.63783e-11 2.22743e-09 25876.5 5.12973e+11
45.7247 39.9089 70.4762 6.5923e-11 1.02168e+06 39.7836 6.57161e-11 1.90073e-09 35434.7 6.05386e+11
48.3204 46.5438 83.1727 6.51465e-11 1.20544e+06 46.3985 6.49432e-11 1.62163e-09 48426.5 7.14448e+11
51.0634 54.3537 98.1565 6.44644e-11 1.42103e+06 54.1808 6.42594e-11 1.38326e-09 66224.8 8.43158e+11
53.9621 63.5501 115.84 6.38659e-11 1.67997e+06 63.3458 6.36606e-11 1.1797e-09 90948.8 9.95055e+11
57.0254 74.5436 136.709 6.34783e-11 1.98018e+06 74.31 6.32793e-11 1.00592e-09 124959 1.17432e+12
60.2626 87.3631 161.337 6.30383e-11 2.33957e+06 87.0815 6.28351e-11 8.57591e-10 171973 1.38587e+12
63.6835 102.567 190.402 6.2711e-11 2.75676e+06 102.232 6.25065e-11 7.3101e-10 236494 1.63554e+12
67.2987 120.042 224.704 6.21917e-11 3.25638e+06 119.656 6.19917e-11 6.23009e-10 325067 1.93019e+12
71.1191 141.13 265.185 6.19558e-11 3.84387e+06 140.67 6.17538e-11 5.30879e-10 448596 2.27792e+12
75.1563 165.799 312.958 6.16744e-11 4.53277e+06 165.271 6.1478e-11 4.52303e-10 618071 2.68829e+12
79.4227 194.976 369.339 6.14563e-11 5.35083e+06 194.353 6.12599e-11 3.85299e-10 853471 3.17259e+12
83.9313 229.572 435.876 6.13148e-11 6.32174e+06 228.823 6.11149e-11 3.28173e-10 1.18113e+06 3.74415e+12
88.6959 270.035 514.4 6.11124e-11 7.44986e+06 269.163 6.09149e-11 2.79476e-10 1.62904e+06 4.41866e+12
93.7309 318.005 607.071 6.09824e-11 8.79764e+06 316.967 6.07834e-11 2.37972e-10 2.25447e+06 5.2147e+12
99.0518 374.718 716.436 6.08887e-11 1.03827e+07 373.499 6.06907e-11 2.02605e-10 3.1203e+06 6.15414e+12
104.675 441.687 845.504 6.08147e-11 1.22515e+07 440.227 6.06137e-11 1.72471e-10 4.31999e+06 7.26283e+12
110.617 520.717 997.824 6.07516e-11 1.44573e+07 519 6.05513e-11 1.468e-10 5.983e+06 8.57124e+12
116.896 614.309 1177.58 6.07302e-11 1.70664e+07 612.287 6.05304e-11 1.24935e-10 8.2959e+06 1.01154e+13
123.532 724.443 1389.73 6.06853e-11 2.0139e+07 722.045 6.04845e-11 1.06313e-10 1.14957e+07 1.19377e+13
130.545 870.344 1640.09 6.17778e-11 2.37643e+07 868.176 6.16239e-11 9.04567e-11 1.62299e+07 1.40883e+13
137.955 1008.42 1935.56 6.06522e-11 2.80503e+07 1005.08 6.04509e-11 7.69563e-11 2.21075e+07 1.66263e+13
145.787 1189.89 2284.26 6.0642e-11 3.30981e+07 1185.91 6.04392e-11 6.54636e-11 3.06603e+07 1.96216e+13
154.063 1407.43 2695.77 6.0779e-11 3.90634e+07 1402.72 6.05756e-11 5.56812e-11 4.26399e+07 2.31565e+13
162.808 1658.88 3181.42 6.07022e-11 4.61057e+07 1653.34 6.04993e-11 4.73556e-11 5.91e+07 2.73282e+13
172.051 1959.16 3754.56 6.07465e-11 5.44046e+07 1952.61 6.05433e-11 4.02708e-11 8.20666e+07 3.22515e+13
181.818 2319.76 4430.96 6.09475e-11 6.42064e+07 2312.14 6.07474e-11 3.42426e-11 1.14279e+08 3.80616e+13
192.139 2736.31 5229.21 6.09171e-11 7.57748e+07 2727.14 6.0713e-11 2.91139e-11 1.58549e+08 4.49186e+13
203.046 3242.13 6171.26 6.11598e-11 8.94213e+07 3231 6.095e-11 2.4751e-11 2.2096e+08 5.30108e+13
214.572 3829.97 7283.03 6.12199e-11 1.05538e+08 3817.02 6.1013e-11 2.10401e-11 3.07083e+08 6.25608e+13
226.753 4539.94 8595.09 6.14907e-11 1.24552e+08 4524.47 6.12812e-11 1.78839e-11 4.28249e+08 7.38313e+13
239.625 5382.96 10143.5 6.17792e-11 1.46987e+08 5364.58 6.15683e-11 1.51999e-11 5.97422e+08 8.71322e+13
253.228 6394.76 11970.9 6.21881e-11 1.7347e+08 6372.79 6.19744e-11 1.29176e-11 8.35121e+08 1.02829e+14
267.603 7614.22 14127.5 6.27437e-11 2.04703e+08 7587.69 6.25251e-11 1.09771e-11 1.17005e+09 1.21354e+14
282.795 9091.48 16672.6 6.34806e-11 2.4161e+08 9059.43 6.32569e-11 9.3274e-12 1.64435e+09 1.43217e+14
298.848 10893.9 19676.2 6.44542e-11 2.85122e+08 10854.8 6.42229e-11 7.925e-12 2.31891e+09 1.69017e+14
315.813 13133.2 23220.9 6.58418e-11 3.36491e+08 13085.3 6.56016e-11 6.73295e-12 3.29056e+09 1.99466e+14
333.741 15946 27404.3 6.77399e-11 3.97115e+08 15885.4 6.74825e-11 5.71979e-12 4.70306e+09 2.35401e+14
352.686 19569.4 32341.2 7.0442e-11 4.68637e+08 19491.6 7.01621e-11 4.85874e-12 6.7943e+09 2.77809e+14
372.707 24379.4 38167.6 7.43599e-11 5.53074e+08 24276.9 7.40474e-11 4.12703e-12 9.96516e+09 3.27857e+14
393.865 31014.4 45043.5 8.01568e-11 6.52716e+08 30873.7 7.97933e-11 3.50528e-12 1.49259e+10 3.86921e+14
416.224 36604.7 53158.3 8.01634e-11 2.2184e+08 38724.4 8.48056e-11 2.97701e-12 5.97359e+09 4.56626e+14
439.852 0 62734.9 0 0 0 0 2.52819e-12 0 5.38888e+14
464.821 0 74036.7 0 0 0 0 2.1469e-12 0 6.35971e+14
491.207 0 87374.6 0 0 0 0 1.82301e-12 0 7.50542e+14
519.092 0 103115 0 0 0 0 1.54789e-12 0 8.85755e+14
548.56 0 121692 0 0 0 0 1.31422e-12 0 1.04533e+15
579.7 0 143615 0 0 0 0 1.11576e-12 0 1.23364e+15
612.608 0 169488 0 0 0 0 9.47223e-13 0 1.45589e+15
647.384 0 200021 0 0 0 0 8.041e-13 0 1.71817e+15
684.134 0 236056 0 0 0 0 6.82568e-13 0 2.0277e+15
722.971 0 278582 0 0 0 0 5.79376e-13 0 2.393e+15
764.012 0 328769 0 0 0 0 4.91762e-13 0 2.8241e+15
0.129031
200
1.0655e+09
8589934592
0.0129181 5.38547e-05 1.58924e-09 3.94498e-06 6 5.33616e-05 3.90886e-06 0.00677225 0.00349512 13.6515
0.0136515 0 1.87554e-09 0 0 0 0 0.00688819 0 16.1108
0.0144264 0 2.21343e-09 0 0 0 0 0.00699249 0 19.0132
0.0152454 0 2.61218e-09 0 0 0 0 0.00708412 0 22.4385
0.0161108 0 3.08278e-09 0 0 0 0 0.00716212 0 26.4808
0.0170254 0 3.63815e-09 0 0 0 0 0.00722559 0 31.2514
0.0179919 0.000119656 4.29357e-09 3.24433e-06 12 0.000119502 3.24015e-06 0.00727371 0.00535242 36.8815
0.0190132 0 5.06707e-09 0 0 0 0 0.00730578 0 43.5258
0.0200925 0 5.97991e-09 0 0 0 0 0.00732122 0 51.367
0.0212331 0.000113278 7.05721e-09 1.86862e-06 8 0.000113179 1.867e-06 0.00731958 0.00204233 60.621
0.0224385 0 8.32858e-09 0 0 0 0 0.00730056 0 71.542
0.0237123 0 9.829e-09 0 0 0 0 0.00726401 0 84.4305
0.0250583 0.000729282 1.15997e-08 7.31911e-06 6 0.000728939 7.31566e-06 0.00720995 0.00609084 99.6408
0.0264808 0 1.36894e-08 0 0 0 0 0.00713857 0 117.591
0.0279841 0.000454864 1.61556e-08 3.27769e-06 24 0.000454397 3.27432e-06 0.00705021 0.0111578 138.776
0.0295727 0 1.90661e-08 0 0 0 0 0.00694538 0 163.777
0.0312514 0.000814559 2.25009e-08 4.21436e-06 24 0.000818694 4.23576e-06 0.00682475 0.0148203 193.281
0.0330255 0 2.65545e-08 0 0 0 0 0.00668915 0 228.102
0.0349003 0.00114296 3.13384e-08 4.24585e-06 12 0.00113381 4.21186e-06 0.00653951 0.00779114 269.195
0.0368815 0.000991692 3.69841e-08 3.12156e-06 30 0.000981131 3.08832e-06 0.00637693 0.0146853 317.691
0.0389751 0.00118413 4.36469e-08 3.15831e-06 24 0.00117195 3.12582e-06 0.00620256 0.0122207 374.924
0.0411876 0.000751104 5.151e-08 1.69754e-06 24 0.000746003 1.68601e-06 0.00601767 0.00677021 442.467
0.0435258 0.00161933 6.07896e-08 3.1011e-06 8 0.0016192 3.10086e-06 0.00582358 0.00426006 522.179
0.0459966 0.00207526 7.1741e-08 3.36755e-06 72 0.00205883 3.3409e-06 0.00562166 0.0431302 616.251
0.0486077 0 8.46654e-08 0 0 0 0 0.0054133 0 727.27
0.051367 0.00311259 9.99181e-08 3.6265e-06 54 0.00310273 3.61502e-06 0.00519989 0.0376606 858.29
0.054283 0.00241808 1.17919e-07 2.38725e-06 60 0.00242814 2.39719e-06 0.0049828 0.0287459 1012.91
0.0573645 0.00240813 1.39162e-07 2.01451e-06 96 0.00240196 2.00935e-06 0.00476339 0.0405999 1195.39
0.060621 0.00277789 1.64232e-07 1.96909e-06 24 0.00274025 1.94242e-06 0.00454293 0.0104026 1410.75
0.0640622 0.0048922 1.93819e-07 2.93845e-06 134 0.00489488 2.94005e-06 0.00432265 0.0910904 1664.89
0.0676989 0.00468632 2.28736e-07 2.3851e-06 120 0.00466488 2.37419e-06 0.00410371 0.0697447 1964.83
0.071542 0.00427526 2.69944e-07 1.84374e-06 108 0.00422901 1.82379e-06 0.00388717 0.0512258 2318.8
0.0756032 0.00620819 3.18575e-07 2.26863e-06 174 0.0061759 2.25683e-06 0.00367401 0.107442 2736.54
0.079895 0.00664013 3.75967e-07 2.05606e-06 168 0.00657747 2.03666e-06 0.0034651 0.0996852 3229.53
0.0844305 0.00568253 4.43698e-07 1.49095e-06 168 0.00571091 1.4984e-06 0.00326121 0.076806 3811.34
0.0892234 0.0064029 5.23632e-07 1.42351e-06 290 0.00637601 1.41753e-06 0.00306301 0.134775 4497.96
0.0942883 0.0083389 6.17966e-07 1.57092e-06 288 0.00831763 1.56692e-06 0.00287109 0.15758 5308.28
0.0996408 0.00762065 7.29294e-07 1.21646e-06 366 0.00755609 1.20616e-06 0.00268591 0.165764 6264.59
0.105297 0.00826695 8.60678e-07 1.11819e-06 420 0.00820973 1.11045e-06 0.00250785 0.187267 7393.17
0.111275 0.00875136 1.01573e-06 1.00301e-06 398 0.00872747 1.00028e-06 0.00233721 0.170802 8725.07
0.117591 0.0104123 1.19872e-06 1.0112e-06 624 0.0104336 1.01327e-06 0.00217419 0.290219 10296.9
0.124267 0.0114859 1.41467e-06 9.4519e-07 642 0.0114717 9.44023e-07 0.00201893 0.300562 12151.9
0.131321 0.0145514 1.66953e-06 1.01467e-06 800 0.0145568 1.01504e-06 0.00187147 0.433741 14341.1
0.138776 0.0131913 1.9703e-06 7.79411e-07 858 0.0132551 7.83178e-07 0.00173182 0.386146 16924.7
0.146654 0.0142287 2.32525e-06 7.12368e-07 1080 0.0143475 7.18315e-07 0.00159991 0.480876 19973.8
0.154979 0.0168703 2.74415e-06 7.15689e-07 1286 0.0169868 7.20631e-07 0.00147563 0.623715 23572.1
0.163777 0.0160385 3.23852e-06 5.76539e-07 1650 0.0160666 5.77549e-07 0.00135884 0.700075 27818.7
0.173074 0.0189399 3.82195e-06 5.76902e-07 1778 0.0189419 5.76963e-07 0.00124933 0.821025 32830.3
0.182899 0.0185074 4.51048e-06 4.77675e-07 2112 0.0185515 4.78814e-07 0.00114689 0.879638 38744.7
0.193281 0.0217053 5.32305e-06 4.74695e-07 2570 0.0217379 4.75408e-07 0.00105127 1.16047 45724.7
0.204254 0.0240344 6.28202e-06 4.45394e-07 3030 0.0240248 4.45216e-07 0.000962209 1.40255 53962.1
0.215848 0.0239326 7.41374e-06 3.75805e-07 3434 0.0239282 3.75737e-07 0.000879423 1.46746 63683.5
0.228102 0.0251082 8.74934e-06 3.3408e-07 4218 0.0251137 3.34153e-07 0.000802624 1.75568 75156.3
0.24105 0.02841 1.03256e-05 3.20308e-07 4766 0.0284371 3.20613e-07 0.000731515 2.08688 88695.9
0.254734 0.0302873 1.21857e-05 2.89346e-07 6026 0.0302786 2.89264e-07 0.000665798 2.61882 104675
0.269195 0.0316296 1.4381e-05 2.56043e-07 6480 0.0316148 2.55924e-07 0.000605173 2.74163 123532
0.284476 0.0343519 1.69718e-05 2.35631e-07 8162 0.0344305 2.3617e-07 0.000549345 3.50094 145787
0.300625 0.0346786 2.00293e-05 2.0156e-07 9578 0.0347225 2.01816e-07 0.000498021 3.87643 172051
0.317691 0.0385272 2.36377e-05 1.89746e-07 11234 0.0384998 1.89611e-07 0.000450916 4.72728 203046
0.335725 0.0402784 2.78961e-05 1.68089e-07 13344 0.0402605 1.68014e-07 0.000407755 5.50081 239625
0.354784 0.0418416 3.29216e-05 1.47957e-07 15464 0.0418161 1.47867e-07 0.000368269 6.21289 282795
0.374924 0.0449861 3.88525e-05 1.34794e-07 18458 0.0449796 1.34774e-07 0.000332202 7.48949 333741
0.396207 0.0471403 4.58519e-05 1.19686e-07 22232 0.0470726 1.19515e-07 0.000299307 8.89011 393865
0.418699 0.0510615 5.41123e-05 1.09852e-07 25628 0.0509563 1.09626e-07 0.00026935 10.4522 464821
0.442467 0.0532152 6.38607e-05 9.7009e-08 30320 0.0531236 9.68421e-08 0.000242108 12.1488 548560
0.467585 0.0557706 7.53654e-05 8.61476e-08 35452 0.0556898 8.60229e-08 0.00021737 14.0502 647384
0.494129 0.0578806 8.89427e-05 7.57588e-08 41792 0.0578591 7.57307e-08 0.000194938 16.2416 764012
0.522179 0.0626095 0.000104966 6.94387e-08 49988 0.0625918 6.94191e-08 0.000174625 19.8775 901651
0.551822 0.0654877 0.000123876 6.15436e-08 59110 0.0654458 6.15043e-08 0.000156255 23.2815 1.06409e+06
0.583147 0.0691421 0.000146192 5.50589e-08 69716 0.0690593 5.4993e-08 0.000139664 27.4837 1.25578e+06
0.616251 0.0730052 0.000172529 4.92608e-08 82210 0.0728901 4.91831e-08 0.0001247 32.4758 1.48202e+06
0.651234 0.077237 0.000203611 4.41605e-08 96722 0.0770964 4.40802e-08 0.00011122 38.4039 1.74901e+06
0.688203 0.0812341 0.000240292 3.93558e-08 113098 0.0811606 3.93202e-08 9.90935e-05 44.9178 2.06409e+06
0.72727 0.0844617 0.000283581 3.46731e-08 135190 0.0843747 3.46374e-08 8.81969e-05 53.1476 2.43595e+06
0.768555 0.0897522 0.000334669 3.12205e-08 158170 0.0896728 3.11928e-08 7.84179e-05 62.9721 2.87479e+06
0.812184 0.0939386 0.000394961 2.76886e-08 188560 0.0938467 2.76614e-08 6.96525e-05 74.9571 3.39269e+06
0.85829 0.098315 0.000466114 2.45549e-08 220444 0.0982031 2.45269e-08 6.1805e-05 87.5815 4.00389e+06
0.907013 0.10355 0.000550086 2.19144e-08 261388 0.103446 2.18924e-08 5.47875e-05 104.552 4.7252e+06
0.958501 0.108509 0.000649185 1.94585e-08 308244 0.108393 1.94376e-08 4.85194e-05 123.62 5.57646e+06
1.01291 0.114635 0.000766138 1.74189e-08 364396 0.114508 1.73995e-08 4.29272e-05 147.864 6.58107e+06
1.07041 0.11984 0.00090416 1.543e-08 429162 0.119693 1.54111e-08 3.79435e-05 174.522 7.76667e+06
1.13118 0.126465 0.00106705 1.37974e-08 506358 0.126314 1.3781e-08 3.3507e-05 208.507 9.16586e+06
1.19539 0.132233 0.00125928 1.22244e-08 598590 0.132064 1.22088e-08 2.9562e-05 247.527 1.08171e+07
1.26325 0.139025 0.00148614 1.08904e-08 704844 0.138848 1.08765e-08 2.60578e-05 294.577 1.27658e+07
1.33496 0.145601 0.00175387 9.66441e-09 834620 0.145412 9.65188e-09 2.29484e-05 351.488 1.50656e+07
1.41075 0.152668 0.00206984 8.58664e-09 981444 0.152484 8.57629e-09 2.01923e-05 417.353 1.77798e+07
1.49083 0.160286 0.00244272 7.63893e-09 1.15998e+06 0.160078 7.62898e-09 1.77518e-05 499.161 2.09828e+07
1.57546 0.168811 0.00288279 6.81708e-09 1.36931e+06 0.168589 6.8081e-09 1.55929e-05 598.652 2.4763e+07
1.66489 0.177081 0.00340213 6.05943e-09 1.61652e+06 0.176826 6.0507e-09 1.3685e-05 715.758 2.92241e+07
1.75941 0.185803 0.00401503 5.38733e-09 1.90601e+06 0.185544 5.37983e-09 1.20007e-05 855.641 3.44889e+07
1.85928 0.195424 0.00473835 4.80131e-09 2.24913e+06 0.195167 4.795e-09 1.05151e-05 1026.98 4.07021e+07
1.96483 0.204869 0.00559198 4.26501e-09 2.65744e+06 0.204575 4.25891e-09 9.20606e-06 1231.15 4.80347e+07
2.07637 0.215546 0.00659939 3.8023e-09 3.13125e+06 0.215246 3.79702e-09 8.05366e-06 1478.33 5.66883e+07
2.19424 0.226678 0.00778828 3.38827e-09 3.69915e+06 0.226367 3.38362e-09 7.04008e-06 1780.34 6.69008e+07
2.3188 0.238287 0.00919136 3.01808e-09 4.36472e+06 0.237942 3.01372e-09 6.1494e-06 2142.17 7.89532e+07
2.45043 0.250977 0.0108472 2.69356e-09 5.14913e+06 0.250617 2.6897e-09 5.36741e-06 2584.02 9.31768e+07
2.58954 0.2646 0.0128014 2.40626e-09 6.07894e+06 0.26421 2.40272e-09 4.68145e-06 3124.57 1.09963e+08
2.73654 0.278636 0.0151076 2.1471e-09 7.17304e+06 0.278231 2.14398e-09 4.08023e-06 3774.6 1.29773e+08
2.89188 0.293675 0.0178292 1.91754e-09 8.46557e+06 0.293245 1.91473e-09 3.55373e-06 4567.9 1.53152e+08
3.05605 0.309928 0.0210412 1.71475e-09 9.98773e+06 0.309495 1.71235e-09 3.09304e-06 5537.1 1.80743e+08
3.22953 0.32723 0.0248319 1.5341e-09 1.1797e+07 0.32675 1.53185e-09 2.69025e-06 6727.18 2.13304e+08
3.41286 0.346041 0.0293054 1.37464e-09 1.39144e+07 0.345507 1.37252e-09 2.33837e-06 8179.76 2.51731e+08
3.6066 0.365706 0.0345848 1.231e-09 1.64163e+07 0.365158 1.22915e-09 2.0312e-06 9948.98 2.97081e+08
3.81134 0.387149 0.0408154 1.10424e-09 1.93821e+07 0.386558 1.10256e-09 1.76327e-06 12138 3.50601e+08
4.0277 0.410212 0.0481684 9.91417e-10 2.28754e+07 0.409574 9.89875e-10 1.52972e-06 14825.6 4.13763e+08
4.25634 0.434873 0.056846 8.90579e-10 2.69929e+07 0.434182 8.89164e-10 1.32631e-06 18125 4.88304e+08
4.49796 0.46186 0.067087 8.01461e-10 3.18542e+07 0.461115 8.00168e-10 1.14926e-06 22214.3 5.76273e+08
4.7533 0.490889 0.0791729 7.21801e-10 3.75892e+07 0.490093 7.20629e-10 9.95263e-07 27261 6.8009e+08
5.02313 0.522078 0.0934361 6.50475e-10 4.43706e+07 0.521224 6.49411e-10 8.61414e-07 33505.3 8.0261e+08
5.30828 0.555964 0.110269 5.86954e-10 5.23593e+07 0.555024 5.85961e-10 7.45152e-07 41243.2 9.47202e+08
5.60962 0.592971 0.130134 5.3046e-10 6.1787e+07 0.591977 5.2957e-10 6.44232e-07 50875.3 1.11784e+09
5.92807 0.633464 0.153578 4.80178e-10 7.29346e+07 0.632364 4.79345e-10 5.56685e-07 62911 1.31923e+09
6.26459 0.677296 0.181246 4.35032e-10 8.60651e+07 0.676101 4.34264e-10 4.80786e-07 77874.6 1.55689e+09
6.62021 0.725864 0.213898 3.95057e-10 1.01558e+08 0.724568 3.94352e-10 4.15026e-07 96671.6 1.83737e+09
6.99602 0.779225 0.252432 3.59359e-10 1.1986e+08 0.777817 3.5871e-10 3.58083e-07 120287 2.16837e+09
7.39317 0.838301 0.297908 3.27588e-10 1.41457e+08 0.83676 3.26986e-10 3.08803e-07 150062 2.55901e+09
7.81286 0.903504 0.351577 2.99171e-10 1.66936e+08 0.901802 2.98608e-10 2.66181e-07 187626 3.02002e+09
8.25637 0.975976 0.414914 2.73836e-10 1.97025e+08 0.97411 2.73313e-10 2.29336e-07 235255 3.56409e+09
8.72507 1.05674 0.489662 2.51235e-10 2.32497e+08 1.05467 2.50744e-10 1.97503e-07 295749 4.20617e+09
9.22037 1.14785 0.577876 2.31239e-10 2.74404e+08 1.14554 2.30773e-10 1.70014e-07 373221 4.96392e+09
9.74378 1.25148 0.681982 2.1363e-10 3.2382e+08 1.24889 2.13187e-10 1.46289e-07 472884 5.85818e+09
10.2969 1.37252 0.804843 1.98527e-10 3.82165e+08 1.36954 1.98095e-10 1.25822e-07 602992 6.91355e+09
10.8814 1.51935 0.949838 1.86216e-10 4.51027e+08 1.51582 1.85783e-10 1.08175e-07 776411 8.15905e+09
11.4992 1.7083 1.12095 1.77413e-10 5.32251e+08 1.70389 1.76955e-10 9.29669e-08 1.01572e+06 9.62892e+09
12.1519 1.96983 1.3229 1.73346e-10 6.28157e+08 1.96395 1.72828e-10 7.98658e-08 1.36339e+06 1.13636e+10
12.8418 2.2543 1.56122 1.68096e-10 3.82727e+08 2.33295 1.73961e-10 6.85852e-08 938027 1.34108e+10
13.5708 0 1.84248 0 0 0 0 5.88765e-08 0 1.58268e+10
14.3411 0 2.17441 0 0 0 0 5.05241e-08 0 1.8678e+10
15.1552 0 2.56613 0 0 0 0 4.33417e-08 0 2.20429e+10
16.0156 0 3.02843 0 0 0 0 3.71677e-08 0 2.6014e+10
16.9247 0 3.574 0 0 0 0 3.18628e-08 0 3.07005e+10
17.8855 0 4.21787 0 0 0 0 2.73063e-08 0 3.62312e+10
18.9008 0 4.97773 0 0 0 0 2.33941e-08 0 4.27584e+10
19.9738 0 5.87448 0 0 0 0 2.00364e-08 0 5.04614e+10
21.1076 0 6.93279 0 0 0 0 1.71555e-08 0 5.95522e+10
22.3058 0 8.18175 0 0 0 0 1.46847e-08 0 7.02807e+10
23.5721 0 9.65571 0 0 0 0 1.25662e-08 0 8.29419e+10
24.9102 0 11.3952 0 0 0 0 1.07504e-08 0 9.78842e+10
26.3243 0 13.4481 0 0 0 0 9.19452e-09 0 1.15518e+11
27.8187 0 15.8708 0 0 0 0 7.86182e-09 0 1.36329e+11
29.3979 0 18.73 0 0 0 0 6.72061e-09 0 1.60889e+11
31.0667 0 22.1042 0 0 0 0 5.74366e-09 0 1.89874e+11
32.8303 0 26.0864 0 0 0 0 4.90756e-09 0 2.2408e+11
34.694 0 30.7859 0 0 0 0 4.19221e-09 0 2.64449e+11
36.6634 0 36.3321 0 0 0 0 3.58032e-09 0 3.1209e+11
38.7447 0 42.8774 0 0 0 0 3.05709e-09 0 3.68314e+11
40.9442 0 50.6018 0 0 0 0 2.60976e-09 0 4.34667e+11
43.2685 0 59.7179 0 0 0 0 2.22743e-09 0 5.12973e+11
45.7247 0 70.4762 0 0 0 0 1.90073e-09 0 6.05386e+11
48.3204 0 83.1727 0 0 0 0 1.62163e-09 0 7.14448e+11
51.0634 0 98.1565 0 0 0 0 1.38326e-09 0 8.43158e+11
53.9621 0 115.84 0 0 0 0 1.1797e-09 0 9.95055e+11
57.0254 0 136.709 0 0 0 0 1.00592e-09 0 1.17432e+12
60.2626 0 161.337 0 0 0 0 8.57591e-10 0 1.38587e+12
63.6835 0 190.402 0 0 0 0 7.3101e-10 0 1.63554e+12
67.2987 0 224.704 0 0 0 0 6.23009e-10 0 1.93019e+12
71.1191 0 265.185 0 0 0 0 5.30879e-10 0 2.27792e+12
75.1563 0 312.958 0 0 0 0 4.52303e-10 0 2.68829e+12
79.4227 0 369.339 0 0 0 0 3.85299e-10 0 3.17259e+12
83.9313 0 435.876 0 0 0 0 3.28173e-10 0 3.74415e+12
88.6959 0 514.4 0 0 0 0 2.79476e-10 0 4.41866e+12
93.7309 0 607.071 0 0 0 0 2.37972e-10 0 5.2147e+12
99.0518 0 716.436 0 0 0 0 2.02605e-10 0 6.15414e+12
104.675 0 845.504 0 0 0 0 1.72471e-10 0 7.26283e+12
110.617 0 997.824 0 0 0 0 1.468e-10 0 8.57124e+12
116.896 0 1177.58 0 0 0 0 1.24935e-10 0 1.01154e+13
123.532 0 1389.73 0 0 0 0 1.06313e-10 0 1.19377e+13
130.545 0 1640.09 0 0 0 0 9.04567e-11 0 1.40883e+13
137.955 0 1935.56 0 0 0 0 7.69563e-11 0 1.66263e+13
145.787 0 2284.26 0 0 0 0 6.54636e-11 0 1.96216e+13
154.063 0 2695.77 0 0 0 0 5.56812e-11 0 2.31565e+13
162.808 0 3181.42 0 0 0 0 4.73556e-11 0 2.73282e+13
172.051 0 3754.56 0 0 0 0 4.02708e-11 0 3.22515e+13
181.818 0 4430.96 0 0 0 0 3.42426e-11 0 3.80616e+13
192.139 0 5229.21 0 0 0 0 2.91139e-11 0 4.49186e+13
203.046 0 6171.26 0 0 0 0 2.4751e-11 0 5.30108e+13
214.572 0 7283.03 0 0 0 0 2.10401e-11 0 6.25608e+13
226.753 0 8595.09 0 0 0 0 1.78839e-11 0 7.38313e+13
239.625 0 10143.5 0 0 0 0 1.51999e-11 0 8.71322e+13
253.228 0 11970.9 0 0 0 0 1.29176e-11 0 1.02829e+14
267.603 0 14127.5 0 0 0 0 1.09771e-11 0 1.21354e+14
282.795 0 16672.6 0 0 0 0 9.3274e-12 0 1.43217e+14
298.848 0 19676.2 0 0 0 0 7.925e-12 0 1.69017e+14
315.813 0 23220.9 0 0 0 0 6.73295e-12 0 1.99466e+14
333.741 0 27404.3 0 0 0 0 5.71979e-12 0 2.35401e+14
352.686 0 32341.2 0 0 0 0 4.85874e-12 0 2.77809e+14
372.707 0 38167.6 0 0 0 0 4.12703e-12 0 3.27857e+14
393.865 0 45043.5 0 0 0 0 3.50528e-12 0 3.86921e+14
416.224 0 53158.3 0 0 0 0 2.97701e-12 0 4.56626e+14
439.852 0 62734.9 0 0 0 0 2.52819e-12 0 5.38888e+14
464.821 0 74036.7 0 0 0 0 2.1469e-12 0 6.35971e+14
491.207 0 87374.6 0 0 0 0 1.82301e-12 0 7.50542e+14
519.092 0 103115 0 0 0 0 1.54789e-12 0 8.85755e+14
548.56 0 121692 0 0 0 0 1.31422e-12 0 1.04533e+15
579.7 0 143615 0 0 0 0 1.11576e-12 0 1.23364e+15
612.608 0 169488 0 0 0 0 9.47223e-13 0 1.45589e+15
647.384 0 200021 0 0 0 0 8.041e-13 0 1.71817e+15
684.134 0 236056 0 0 0 0 6.82568e-13 0 2.0277e+15
722.971 0 278582 0 0 0 0 5.79376e-13 0 2.393e+15
764.012 0 328769 0 0 0 0 4.91762e-13 0 2.8241e+15
