0.148056
200
1.0655e+09
8589934592
0.0129181 0 1.58924e-09 0 0 0 0 0.00677225 0 13.6515
0.0136515 0 1.87554e-09 0 0 0 0 0.00688819 0 16.1108
0.0144264 0 2.21343e-09 0 0 0 0 0.00699249 0 19.0132
0.0152454 0 2.61218e-09 0 0 0 0 0.00708412 0 22.4385
0.0161108 0 3.08278e-09 0 0 0 0 0.00716212 0 26.4808
0.0170254 0 3.63815e-09 0 0 0 0 0.00722559 0 31.2514
0.0179919 0 4.29357e-09 0 0 0 0 0.00727371 0 36.8815
0.0190132 0 5.06707e-09 0 0 0 0 0.00730578 0 43.5258
0.0200925 0 5.97991e-09 0 0 0 0 0.00732122 0 51.367
0.0212331 0 7.05721e-09 0 0 0 0 0.00731958 0 60.621
0.0224385 0 8.32858e-09 0 0 0 0 0.00730056 0 71.542
0.0237123 0 9.829e-09 0 0 0 0 0.00726401 0 84.4305
0.0250583 0 1.15997e-08 0 0 0 0 0.00720995 0 99.6408
0.0264808 0 1.36894e-08 0 0 0 0 0.00713857 0 117.591
0.0279841 0 1.61556e-08 0 0 0 0 0.00705021 0 138.776
0.0295727 0 1.90661e-08 0 0 0 0 0.00694538 0 163.777
0.0312514 0 2.25009e-08 0 0 0 0 0.00682475 0 193.281
0.0330255 0 2.65545e-08 0 0 0 0 0.00668915 0 228.102
0.0349003 0 3.13384e-08 0 0 0 0 0.00653951 0 269.195
0.0368815 0 3.69841e-08 0 0 0 0 0.00637693 0 317.691
0.0389751 0 4.36469e-08 0 0 0 0 0.00620256 0 374.924
0.0411876 0 5.151e-08 0 0 0 0 0.00601767 0 442.467
0.0435258 0 6.07896e-08 0 0 0 0 0.00582358 0 522.179
0.0459966 0 7.1741e-08 0 0 0 0 0.00562166 0 616.251
0.0486077 0 8.46654e-08 0 0 0 0 0.0054133 0 727.27
0.051367 0 9.99181e-08 0 0 0 0 0.00519989 0 858.29
0.054283 0 1.17919e-07 0 0 0 0 0.0049828 0 1012.91
0.0573645 0 1.39162e-07 0 0 0 0 0.00476339 0 1195.39
0.060621 0 1.64232e-07 0 0 0 0 0.00454293 0 1410.75
0.0640622 0 1.93819e-07 0 0 0 0 0.00432265 0 1664.89
0.0676989 0 2.28736e-07 0 0 0 0 0.00410371 0 1964.83
0.071542 0 2.69944e-07 0 0 0 0 0.00388717 0 2318.8
0.0756032 0 3.18575e-07 0 0 0 0 0.00367401 0 2736.54
0.079895 0 3.75967e-07 0 0 0 0 0.0034651 0 3229.53
0.0844305 0 4.43698e-07 0 0 0 0 0.00326121 0 3811.34
0.0892234 0 5.23632e-07 0 0 0 0 0.00306301 0 4497.96
0.0942883 0 6.17966e-07 0 0 0 0 0.00287109 0 5308.28
0.0996408 0 7.29294e-07 0 0 0 0 0.00268591 0 6264.59
0.105297 0 8.60678e-07 0 0 0 0 0.00250785 0 7393.17
0.111275 0 1.01573e-06 0 0 0 0 0.00233721 0 8725.07
0.117591 0 1.19872e-06 0 0 0 0 0.00217419 0 10296.9
0.124267 0 1.41467e-06 0 0 0 0 0.00201893 0 12151.9
0.131321 0 1.66953e-06 0 0 0 0 0.00187147 0 14341.1
0.138776 0 1.9703e-06 0 0 0 0 0.00173182 0 16924.7
0.146654 0 2.32525e-06 0 0 0 0 0.00159991 0 19973.8
0.154979 0 2.74415e-06 0 0 0 0 0.00147563 0 23572.1
0.163777 0 3.23852e-06 0 0 0 0 0.00135884 0 27818.7
0.173074 0 3.82195e-06 0 0 0 0 0.00124933 0 32830.3
0.182899 0 4.51048e-06 0 0 0 0 0.00114689 0 38744.7
0.193281 0 5.32305e-06 0 0 0 0 0.00105127 0 45724.7
0.204254 0 6.28202e-06 0 0 0 0 0.000962209 0 53962.1
0.215848 0 7.41374e-06 0 0 0 0 0.000879423 0 63683.5
0.228102 0 8.74934e-06 0 0 0 0 0.000802624 0 75156.3
0.24105 0 1.03256e-05 0 0 0 0 0.000731515 0 88695.9
0.254734 0 1.21857e-05 0 0 0 0 0.000665798 0 104675
0.269195 0 1.4381e-05 0 0 0 0 0.000605173 0 123532
0.284476 0 1.69718e-05 0 0 0 0 0.000549345 0 145787
0.300625 0 2.00293e-05 0 0 0 0 0.000498021 0 172051
0.317691 0 2.36377e-05 0 0 0 0 0.000450916 0 203046
0.335725 0 2.78961e-05 0 0 0 0 0.000407755 0 239625
0.354784 0 3.29216e-05 0 0 0 0 0.000368269 0 282795
0.374924 0 3.88525e-05 0 0 0 0 0.000332202 0 333741
0.396207 0.682887 4.58519e-05 1.73381e-06 6 0.663901 1.68561e-06 0.000299307 0.0347565 393865
0.418699 0 5.41123e-05 0 0 0 0 0.00026935 0 464821
0.442467 0 6.38607e-05 0 0 0 0 0.000242108 0 548560
0.467585 0 7.53654e-05 0 0 0 0 0.00021737 0 647384
0.494129 0 8.89427e-05 0 0 0 0 0.000194938 0 764012
0.522179 0 0.000104966 0 0 0 0 0.000174625 0 901651
0.551822 0 0.000123876 0 0 0 0 0.000156255 0 1.06409e+06
0.583147 5.64757 0.000146192 4.49725e-06 12 5.9441 4.73338e-06 0.000139664 0.386406 1.25578e+06
0.616251 0 0.000172529 0 0 0 0 0.0001247 0 1.48202e+06
0.651234 0 0.000203611 0 0 0 0 0.00011122 0 1.74901e+06
0.688203 24.622 0.000240292 1.19287e-05 8 24.0095 1.1632e-05 9.90935e-05 0.963029 2.06409e+06
0.72727 0 0.000283581 0 0 0 0 8.81969e-05 0 2.43595e+06
0.768555 0 0.000334669 0 0 0 0 7.84179e-05 0 2.87479e+06
0.812184 0.248877 0.000394961 7.33569e-08 6 0.254198 7.49252e-08 6.96525e-05 0.0063191 3.39269e+06
0.85829 0 0.000466114 0 0 0 0 6.1805e-05 0 4.00389e+06
0.907013 0.293248 0.000550086 6.20605e-08 24 0.298875 6.32513e-08 5.47875e-05 0.027186 4.7252e+06
0.958501 0.815548 0.000649185 1.46248e-07 24 0.767778 1.37682e-07 4.85194e-05 0.0723413 5.57646e+06
1.01291 0 0.000766138 0 0 0 0 4.29272e-05 0 6.58107e+06
1.07041 0 0.00090416 0 0 0 0 3.79435e-05 0 7.76667e+06
1.13118 1.06264 0.00106705 1.15934e-07 12 1.04958 1.1451e-07 3.3507e-05 0.04152 9.16586e+06
1.19539 0.991071 0.00125928 9.16206e-08 30 0.97064 8.97319e-08 2.9562e-05 0.0929781 1.08171e+07
1.26325 6.14203 0.00148614 4.8113e-07 24 6.04961 4.7389e-07 2.60578e-05 0.443134 1.27658e+07
1.33496 20.5116 0.00175387 1.36148e-06 24 20.5567 1.36447e-06 2.29484e-05 1.42387 1.50656e+07
1.41075 5.98023 0.00206984 3.3635e-07 32 6.14634 3.45693e-07 2.01923e-05 0.533035 1.77798e+07
1.49083 0.44911 0.00244272 2.14037e-08 48 0.439536 2.09474e-08 1.77518e-05 0.0578747 2.09828e+07
1.57546 0.159974 0.00288279 6.4602e-09 6 0.152331 6.15156e-09 1.55929e-05 0.00248583 2.4763e+07
1.66489 0.436841 0.00340213 1.4948e-08 84 0.424841 1.45374e-08 1.3685e-05 0.0917523 2.92241e+07
1.75941 2.64879 0.00401503 7.68013e-08 48 2.66826 7.73659e-08 1.20007e-05 0.307188 3.44889e+07
1.85928 0.439343 0.00473835 1.07941e-08 72 0.442224 1.08649e-08 1.05151e-05 0.0739104 4.07021e+07
1.96483 0.969448 0.00559198 2.01822e-08 54 0.947011 1.97151e-08 9.20606e-06 0.118383 4.80347e+07
2.07637 9.07007 0.00659939 1.59999e-07 104 9.04915 1.5963e-07 8.05366e-06 2.06613 5.66883e+07
2.19424 0.380653 0.00778828 5.68981e-09 120 0.384982 5.75451e-09 7.04008e-06 0.0969844 6.69008e+07
2.3188 1.85896 0.00919136 2.3545e-08 156 1.77028 2.24218e-08 6.1494e-06 0.597298 7.89532e+07
2.45043 0.643945 0.0108472 6.911e-09 126 0.638187 6.84921e-09 5.36741e-06 0.162236 9.31768e+07
2.58954 0.734276 0.0128014 6.67748e-09 192 0.741776 6.74569e-09 4.68145e-06 0.273863 1.09963e+08
2.73654 4.36023 0.0151076 3.35989e-08 152 4.52241 3.48486e-08 4.08023e-06 1.25165 1.29773e+08
2.89188 3.99996 0.0178292 2.61176e-08 378 4.08611 2.66801e-08 3.55373e-06 2.77805 1.53152e+08
3.05605 1.41658 0.0210412 7.83756e-09 264 1.39199 7.70151e-09 3.09304e-06 0.668959 1.80743e+08
3.22953 0.404828 0.0248319 1.89789e-09 366 0.401431 1.88197e-09 2.69025e-06 0.258202 2.13304e+08
3.41286 0.906678 0.0293054 3.60177e-09 428 0.872581 3.46632e-09 2.33837e-06 0.659243 2.51731e+08
3.6066 3.51881 0.0345848 1.18446e-08 486 3.40537 1.14627e-08 2.0312e-06 2.83402 2.97081e+08
3.81134 1.01381 0.0408154 2.89164e-09 600 1.01056 2.88236e-09 1.76327e-06 0.98396 3.50601e+08
4.0277 0.727516 0.0481684 1.75829e-09 738 0.717329 1.73367e-09 1.52972e-06 0.848271 4.13763e+08
4.25634 1.46935 0.056846 3.00909e-09 824 1.51443 3.1014e-09 1.32631e-06 1.86947 4.88304e+08
4.49796 2.99287 0.067087 5.1935e-09 954 3.01182 5.22637e-09 1.14926e-06 4.31114 5.76273e+08
4.7533 0.809019 0.0791729 1.18958e-09 1094 0.797656 1.17287e-09 9.95263e-07 1.30759 6.8009e+08
5.02313 0.593478 0.0934361 7.39435e-10 1332 0.593502 7.39465e-10 8.61414e-07 1.14338 8.0261e+08
5.30828 2.44137 0.110269 2.57745e-09 1614 2.4669 2.60441e-09 7.45152e-07 5.58276 9.47202e+08
5.60962 1.34325 0.130134 1.20165e-09 1850 1.30985 1.17176e-09 6.44232e-07 3.45069 1.11784e+09
5.92807 1.80951 0.153578 1.37164e-09 2238 1.74795 1.32498e-09 5.56685e-07 5.51431 1.31923e+09
6.26459 1.0483 0.181246 6.73333e-10 2546 1.05883 6.80096e-10 4.80786e-07 3.56563 1.55689e+09
6.62021 0.681014 0.213898 3.70647e-10 3264 0.681806 3.71078e-10 4.15026e-07 2.91498 1.83737e+09
6.99602 1.82751 0.252432 8.42801e-10 3506 1.87068 8.6271e-10 3.58083e-07 8.2519 2.16837e+09
7.39317 1.1443 0.297908 4.47165e-10 4506 1.15196 4.50157e-10 3.08803e-07 6.52494 2.55901e+09
7.81286 1.73898 0.351577 5.75816e-10 5018 1.77422 5.87486e-10 2.66181e-07 10.8552 3.02002e+09
8.25637 1.67778 0.414914 4.70746e-10 5852 1.63992 4.60123e-10 2.29336e-07 12.0121 3.56409e+09
8.72507 1.34932 0.489662 3.20795e-10 7362 1.34143 3.18919e-10 1.97503e-07 11.9578 4.20617e+09
9.22037 1.67733 0.577876 3.37904e-10 8306 1.66518 3.35456e-10 1.70014e-07 16.5082 4.96392e+09
9.74378 1.19986 0.681982 2.04818e-10 9698 1.2008 2.04978e-10 1.46289e-07 13.5781 5.85818e+09
10.2969 1.89666 0.804843 2.7434e-10 11816 1.90938 2.7618e-10 1.25822e-07 25.7633 6.91355e+09
10.8814 1.74849 0.949838 2.14301e-10 13682 1.74682 2.14096e-10 1.08175e-07 27.1048 8.15905e+09
11.4992 1.94384 1.12095 2.01875e-10 16152 1.92986 2.00423e-10 9.29669e-08 35.0737 9.62892e+09
12.1519 2.03154 1.3229 1.78776e-10 19472 2.01244 1.77095e-10 7.98658e-08 43.5873 1.13636e+10
12.8418 1.83915 1.56122 1.3714e-10 22670 1.83833 1.37079e-10 6.85852e-08 45.3299 1.34108e+10
13.5708 2.29597 1.84248 1.45069e-10 26224 2.30228 1.45468e-10 5.88765e-08 64.6146 1.58268e+10
14.3411 2.38457 2.17441 1.27667e-10 31640 2.39017 1.27967e-10 5.05241e-08 79.9498 1.8678e+10
15.1552 2.73129 2.56613 1.23908e-10 37484 2.73194 1.23937e-10 4.33417e-08 107.162 2.20429e+10
16.0156 2.91315 3.02843 1.11984e-10 43856 2.91521 1.12063e-10 3.71677e-08 132.135 2.6014e+10
16.9247 3.62578 3.574 1.18102e-10 51362 3.61869 1.17871e-10 3.18628e-08 190.377 3.07005e+10
17.8855 3.93847 4.21787 1.08704e-10 61636 3.92111 1.08225e-10 2.73063e-08 245.367 3.62312e+10
18.9008 4.59414 4.97773 1.07444e-10 72218 4.57964 1.07105e-10 2.33941e-08 331.682 4.27584e+10
19.9738 5.53467 5.87448 1.09681e-10 84586 5.51221 1.09236e-10 2.00364e-08 463.032 5.04614e+10
21.1076 6.2028 6.93279 1.04157e-10 100708 6.18844 1.03916e-10 1.71555e-08 611.434 5.95522e+10
22.3058 7.35812 8.18175 1.04696e-10 118712 7.33674 1.04392e-10 1.46847e-08 846.373 7.02807e+10
23.5721 8.46021 9.65571 1.02002e-10 140410 8.43352 1.0168e-10 1.25662e-08 1139.73 8.29419e+10
24.9102 9.69134 11.3952 9.90082e-11 164374 9.6621 9.87095e-11 1.07504e-08 1513.84 9.78842e+10
26.3243 11.1243 13.4481 9.62991e-11 194680 11.0927 9.60251e-11 9.19452e-09 2038.99 1.15518e+11
27.8187 12.5622 15.8708 9.21463e-11 230196 12.5212 9.18451e-11 7.86182e-09 2698.06 1.36329e+11
29.3979 14.28 18.73 8.87567e-11 271156 14.2395 8.85047e-11 6.72061e-09 3581.06 1.60889e+11
31.0667 16.3456 22.1042 8.60865e-11 321076 16.2963 8.58271e-11 5.74366e-09 4812.32 1.89874e+11
32.8303 18.5434 26.0864 8.27534e-11 377436 18.489 8.25107e-11 4.90756e-09 6364.49 2.2408e+11
34.694 21.2042 30.7859 8.01825e-11 447594 21.1422 7.99482e-11 4.19221e-09 8560.94 2.64449e+11
36.6634 24.2616 36.3321 7.77391e-11 525078 24.1924 7.75172e-11 3.58032e-09 11400.9 3.1209e+11
38.7447 27.8684 42.8774 7.56647e-11 621924 27.7838 7.5435e-11 3.05709e-09 15393 3.68314e+11
40.9442 32.0716 50.6018 7.37843e-11 732630 31.9764 7.35654e-11 2.60976e-09 20713.2 4.34667e+11
43.2685 37.0632 59.7179 7.22518e-11 865596 36.951 7.20331e-11 2.22743e-09 28077.6 5.12973e+11
45.7247 42.7695 70.4762 7.06482e-11 1.02168e+06 42.6421 7.04378e-11 1.90073e-09 37974.6 6.05386e+11
48.3204 49.6018 83.1727 6.94267e-11 1.20544e+06 49.4461 6.92088e-11 1.62163e-09 51608.1 7.14448e+11
51.0634 57.482 98.1565 6.81746e-11 1.42103e+06 57.3061 6.7966e-11 1.38326e-09 70036.3 8.43158e+11
53.9621 66.7169 115.84 6.70484e-11 1.67997e+06 66.5144 6.68449e-11 1.1797e-09 95481 9.95055e+11
57.0254 77.6543 136.709 6.61272e-11 1.98018e+06 77.4096 6.59188e-11 1.00592e-09 130173 1.17432e+12
60.2626 90.387 161.337 6.52202e-11 2.33957e+06 90.1098 6.50202e-11 8.57591e-10 177925 1.38587e+12
63.6835 105.531 190.402 6.45235e-11 2.75676e+06 105.205 6.43242e-11 7.3101e-10 243329 1.63554e+12
67.2987 123.149 224.704 6.38014e-11 3.25638e+06 122.768 6.36043e-11 6.23009e-10 333481 1.93019e+12
71.1191 143.93 265.185 6.31847e-11 3.84387e+06 143.485 6.29895e-11 5.30879e-10 457494 2.27792e+12
75.1563 169.016 312.958 6.2871e-11 4.53277e+06 168.48 6.26717e-11 4.52303e-10 630063 2.68829e+12
79.4227 197.674 369.339 6.23067e-11 5.35083e+06 197.047 6.21092e-11 3.85299e-10 865281 3.17259e+12
83.9313 232.264 435.876 6.20339e-11 6.32174e+06 231.51 6.18325e-11 3.28173e-10 1.19499e+06 3.74415e+12
88.6959 272.843 514.4 6.17479e-11 7.44986e+06 271.949 6.15455e-11 2.79476e-10 1.64598e+06 4.41866e+12
93.7309 320.906 607.071 6.15388e-11 8.79764e+06 319.877 6.13414e-11 2.37972e-10 2.27504e+06 5.2147e+12
99.0518 377.034 716.436 6.12651e-11 1.03827e+07 375.798 6.10642e-11 2.02605e-10 3.13959e+06 6.15414e+12
104.675 457.899 845.504 6.3047e-11 1.22515e+07 457.123 6.29402e-11 1.72471e-10 4.47856e+06 7.26283e+12
110.617 523.183 997.824 6.10393e-11 1.44573e+07 521.476 6.08402e-11 1.468e-10 6.01134e+06 8.57124e+12
116.896 616.838 1177.58 6.09802e-11 1.70664e+07 614.813 6.07801e-11 1.24935e-10 8.33005e+06 1.01154e+13
123.532 726.65 1389.73 6.08702e-11 2.0139e+07 724.241 6.06684e-11 1.06313e-10 1.15307e+07 1.19377e+13
130.545 865.252 1640.09 6.14164e-11 2.37643e+07 862.758 6.12393e-11 9.04567e-11 1.6135e+07 1.40883e+13
137.955 1010.35 1935.56 6.07683e-11 2.80503e+07 1007.02 6.05675e-11 7.69563e-11 2.21498e+07 1.66263e+13
145.787 1192.42 2284.26 6.07705e-11 3.30981e+07 1188.45 6.05684e-11 6.54636e-11 3.07253e+07 1.96216e+13
154.063 1410.58 2695.77 6.09149e-11 3.90634e+07 1405.88 6.07122e-11 5.56812e-11 4.27352e+07 2.31565e+13
162.808 1660.36 3181.42 6.07564e-11 4.61057e+07 1654.82 6.05537e-11 4.73556e-11 5.91527e+07 2.73282e+13
172.051 1960.92 3754.56 6.08009e-11 5.44046e+07 1954.33 6.05966e-11 4.02708e-11 8.21401e+07 3.22515e+13
181.818 2318.56 4430.96 6.0916e-11 6.42064e+07 2310.85 6.07134e-11 3.42426e-11 1.1422e+08 3.80616e+13
192.139 2738.91 5229.21 6.09751e-11 7.57748e+07 2729.67 6.07693e-11 2.91139e-11 1.587e+08 4.49186e+13
203.046 3238.05 6171.26 6.10828e-11 8.94213e+07 3227.15 6.08773e-11 2.4751e-11 2.20682e+08 5.30108e+13
214.572 3833.66 7283.03 6.1279e-11 1.05538e+08 3820.73 6.10723e-11 2.10401e-11 3.07379e+08 6.25608e+13
226.753 4541.48 8595.09 6.15117e-11 1.24552e+08 4526.05 6.13026e-11 1.78839e-11 4.28395e+08 7.38313e+13
239.625 5386.49 10143.5 6.18197e-11 1.46987e+08 5368.05 6.16081e-11 1.51999e-11 5.97813e+08 8.71322e+13
253.228 6400.91 11970.9 6.22479e-11 1.7347e+08 6378.83 6.20333e-11 1.29176e-11 8.35924e+08 1.02829e+14
267.603 7618.56 14127.5 6.27795e-11 2.04703e+08 7592.05 6.2561e-11 1.09771e-11 1.17072e+09 1.21354e+14
282.795 9098.21 16672.6 6.35277e-11 2.4161e+08 9066.16 6.33039e-11 9.3274e-12 1.64557e+09 1.43217e+14
298.848 10901.6 19676.2 6.44998e-11 2.85122e+08 10862.4 6.4268e-11 7.925e-12 2.32055e+09 1.69017e+14
315.813 13142.8 23220.9 6.58896e-11 3.36491e+08 13094.6 6.56483e-11 6.73295e-12 3.29295e+09 1.99466e+14
333.741 15955.9 27404.3 6.77819e-11 3.97115e+08 15895.3 6.75243e-11 5.71979e-12 4.70598e+09 2.35401e+14
352.686 19583.1 32341.2 7.04914e-11 4.68637e+08 19505.3 7.02113e-11 4.85874e-12 6.79906e+09 2.77809e+14
372.707 24399.8 38167.6 7.44221e-11 5.53074e+08 24297.1 7.4109e-11 4.12703e-12 9.9735e+09 3.27857e+14
393.865 31046.6 45043.5 8.02402e-11 6.52716e+08 30905.7 7.98759e-11 3.50528e-12 1.49415e+10 3.86921e+14
416.224 36638.8 53158.3 8.0238e-11 2.2184e+08 38760.5 8.48846e-11 2.97701e-12 5.97915e+09 4.56626e+14
439.852 0 62734.9 0 0 0 0 2.52819e-12 0 5.38888e+14
464.821 0 74036.7 0 0 0 0 2.1469e-12 0 6.35971e+14
491.207 0 87374.6 0 0 0 0 1.82301e-12 0 7.50542e+14
519.092 0 103115 0 0 0 0 1.54789e-12 0 8.85755e+14
548.56 0 121692 0 0 0 0 1.31422e-12 0 1.04533e+15
579.7 0 143615 0 0 0 0 1.11576e-12 0 1.23364e+15
612.608 0 169488 0 0 0 0 9.47223e-13 0 1.45589e+15
647.384 0 200021 0 0 0 0 8.041e-13 0 1.71817e+15
684.134 0 236056 0 0 0 0 6.82568e-13 0 2.0277e+15
722.971 0 278582 0 0 0 0 5.79376e-13 0 2.393e+15
764.012 0 328769 0 0 0 0 4.91762e-13 0 2.8241e+15
0.148056
200
1.0655e+09
8589934592
0.0129181 7.08676e-05 1.58924e-09 5.19121e-06 6 7.02188e-05 5.14368e-06 0.00677225 0.00459925 13.6515
0.0136515 0 1.87554e-09 0 0 0 0 0.00688819 0 16.1108
0.0144264 0 2.21343e-09 0 0 0 0 0.00699249 0 19.0132
0.0152454 0 2.61218e-09 0 0 0 0 0.00708412 0 22.4385
0.0161108 0 3.08278e-09 0 0 0 0 0.00716212 0 26.4808
0.0170254 0 3.63815e-09 0 0 0 0 0.00722559 0 31.2514
0.0179919 0.000157486 4.29357e-09 4.27005e-06 12 0.000157283 4.26455e-06 0.00727371 0.00704464 36.8815
0.0190132 0 5.06707e-09 0 0 0 0 0.00730578 0 43.5258
0.0200925 0 5.97991e-09 0 0 0 0 0.00732122 0 51.367
0.0212331 0.000149105 7.05721e-09 2.45962e-06 8 0.000148975 2.45748e-06 0.00731958 0.00268827 60.621
0.0224385 0 8.32858e-09 0 0 0 0 0.00730056 0 71.542
0.0237123 0 9.829e-09 0 0 0 0 0.00726401 0 84.4305
0.0250583 0.000959432 1.15997e-08 9.6289e-06 6 0.00095898 9.62437e-06 0.00720995 0.00801301 99.6408
0.0264808 0 1.36894e-08 0 0 0 0 0.00713857 0 117.591
0.0279841 0.000598138 1.61556e-08 4.3101e-06 24 0.000597524 4.30568e-06 0.00705021 0.0146723 138.776
0.0295727 0 1.90661e-08 0 0 0 0 0.00694538 0 163.777
0.0312514 0.00107102 2.25009e-08 5.54124e-06 24 0.00107646 5.56938e-06 0.00682475 0.0194864 193.281
0.0330255 0 2.65545e-08 0 0 0 0 0.00668915 0 228.102
0.0349003 0.001507 3.13384e-08 5.59816e-06 12 0.00149493 5.55334e-06 0.00653951 0.0102726 269.195
0.0368815 0.00130407 3.69841e-08 4.10483e-06 30 0.00129018 4.06112e-06 0.00637693 0.019311 317.691
0.0389751 0.00155476 4.36469e-08 4.14688e-06 24 0.00153877 4.10422e-06 0.00620256 0.0160458 374.924
0.0411876 0.000986375 5.151e-08 2.22926e-06 24 0.000979676 2.21412e-06 0.00601767 0.00889086 442.467
0.0435258 0.00213697 6.07896e-08 4.09242e-06 8 0.00213681 4.0921e-06 0.00582358 0.00562185 522.179
0.0459966 0.00273476 7.1741e-08 4.43773e-06 72 0.00271312 4.40262e-06 0.00562166 0.0568367 616.251
0.0486077 0 8.46654e-08 0 0 0 0 0.0054133 0 727.27
0.051367 0.00409006 9.99181e-08 4.76536e-06 54 0.00407708 4.75024e-06 0.00519989 0.0494874 858.29
0.054283 0.00318168 1.17919e-07 3.14112e-06 60 0.00319496 3.15423e-06 0.0049828 0.0378235 1012.91
0.0573645 0.00316162 1.39162e-07 2.64484e-06 96 0.00315351 2.63805e-06 0.00476339 0.0533033 1195.39
0.060621 0.00365019 1.64232e-07 2.58742e-06 24 0.00360074 2.55237e-06 0.00454293 0.0136692 1410.75
0.0640622 0.00642687 1.93819e-07 3.86023e-06 134 0.00643039 3.86234e-06 0.00432265 0.119665 1664.89
0.0676989 0.00615933 2.28736e-07 3.13479e-06 120 0.00613111 3.12043e-06 0.00410371 0.091667 1964.83
0.071542 0.00562478 2.69944e-07 2.42573e-06 108 0.00556392 2.39948e-06 0.00388717 0.0673957 2318.8
0.0756032 0.00817317 3.18575e-07 2.98668e-06 174 0.00813055 2.97111e-06 0.00367401 0.141448 2736.54
0.079895 0.00873459 3.75967e-07 2.7046e-06 168 0.00865221 2.67909e-06 0.0034651 0.131128 3229.53
0.0844305 0.00746886 4.43698e-07 1.95964e-06 168 0.00750618 1.96943e-06 0.00326121 0.10095 3811.34
0.0892234 0.00842325 5.23632e-07 1.87268e-06 290 0.00838779 1.8648e-06 0.00306301 0.177302 4497.96
0.0942883 0.0109574 6.17966e-07 2.0642e-06 288 0.0109295 2.05895e-06 0.00287109 0.20706 5308.28
0.0996408 0.0099952 7.29294e-07 1.59551e-06 366 0.00991075 1.58203e-06 0.00268591 0.217415 6264.59
0.105297 0.0108718 8.60678e-07 1.47052e-06 420 0.0107965 1.46033e-06 0.00250785 0.246273 7393.17
0.111275 0.0115191 1.01573e-06 1.32024e-06 398 0.0114874 1.3166e-06 0.00233721 0.224821 8725.07
0.117591 0.0137062 1.19872e-06 1.33109e-06 624 0.0137343 1.33382e-06 0.00217419 0.382028 10296.9
0.124267 0.0151463 1.41467e-06 1.24641e-06 642 0.0151272 1.24484e-06 0.00201893 0.396349 12151.9
0.131321 0.0191709 1.66953e-06 1.33678e-06 800 0.019178 1.33728e-06 0.00187147 0.571435 14341.1
0.138776 0.0173458 1.9703e-06 1.02488e-06 858 0.0174295 1.02982e-06 0.00173182 0.507759 16924.7
0.146654 0.0187519 2.32525e-06 9.38826e-07 1080 0.0189085 9.46668e-07 0.00159991 0.633743 19973.8
0.154979 0.0222519 2.74415e-06 9.43996e-07 1286 0.0224052 9.50499e-07 0.00147563 0.822682 23572.1
0.163777 0.0211321 3.23852e-06 7.59636e-07 1650 0.0211695 7.60983e-07 0.00135884 0.922404 27818.7
0.173074 0.0249494 3.82195e-06 7.59952e-07 1778 0.0249521 7.60034e-07 0.00124933 1.08153 32830.3
0.182899 0.0243651 4.51048e-06 6.28862e-07 2112 0.0244237 6.30375e-07 0.00114689 1.15805 38744.7
0.193281 0.0285486 5.32305e-06 6.24358e-07 2570 0.028591 6.25286e-07 0.00105127 1.52634 45724.7
0.204254 0.0317106 6.28202e-06 5.87646e-07 3030 0.0316971 5.87396e-07 0.000962209 1.8505 53962.1
0.215848 0.0315762 7.41374e-06 4.95831e-07 3434 0.0315696 4.95726e-07 0.000879423 1.93614 63683.5
0.228102 0.0331191 8.74934e-06 4.4067e-07 4218 0.0331268 4.40772e-07 0.000802624 2.31584 75156.3
0.24105 0.0374568 1.03256e-05 4.22306e-07 4766 0.0374929 4.22713e-07 0.000731515 2.75143 88695.9
0.254734 0.0400021 1.21857e-05 3.82156e-07 6026 0.0399908 3.82049e-07 0.000665798 3.45882 104675
0.269195 0.0418278 1.4381e-05 3.38598e-07 6480 0.0418071 3.38431e-07 0.000605173 3.6256 123532
0.284476 0.0454949 1.69718e-05 3.12065e-07 8162 0.0455989 3.12778e-07 0.000549345 4.63656 145787
0.300625 0.0459337 2.00293e-05 2.66978e-07 9578 0.0459916 2.67314e-07 0.000498021 5.13455 172051
0.317691 0.0510973 2.36377e-05 2.51654e-07 11234 0.0510597 2.51468e-07 0.000450916 6.26963 203046
0.335725 0.0534333 2.78961e-05 2.22987e-07 13344 0.0534073 2.22878e-07 0.000407755 7.29736 239625
0.354784 0.0556039 3.29216e-05 1.96623e-07 15464 0.0555696 1.96502e-07 0.000368269 8.2564 282795
0.374924 0.0597776 3.88525e-05 1.79114e-07 18458 0.0597702 1.79092e-07 0.000332202 9.95204 333741
0.396207 0.0627198 4.58519e-05 1.59242e-07 22232 0.0626302 1.59014e-07 0.000299307 11.8282 393865
0.418699 0.0679769 5.41123e-05 1.46243e-07 25628 0.0678329 1.45933e-07 0.00026935 13.9147 464821
0.442467 0.0710746 6.38607e-05 1.29566e-07 30320 0.0709489 1.29337e-07 0.000242108 16.226 548560
0.467585 0.0744707 7.53654e-05 1.15033e-07 35452 0.074363 1.14867e-07 0.00021737 18.7614 647384
0.494129 0.0775239 8.89427e-05 1.0147e-07 41792 0.0774934 1.0143e-07 0.000194938 21.7536 764012
0.522179 0.0838521 0.000104966 9.29984e-08 49988 0.0838271 9.29707e-08 0.000174625 26.6217 901651
0.551822 0.0878452 0.000123876 8.25547e-08 59110 0.0877872 8.25001e-08 0.000156255 31.2298 1.06409e+06
0.583147 0.0930122 0.000146192 7.40671e-08 69716 0.0928977 7.39759e-08 0.000139664 36.972 1.25578e+06
0.616251 0.0982827 0.000172529 6.63169e-08 82210 0.0981256 6.62109e-08 0.0001247 43.7202 1.48202e+06
0.651234 0.104195 0.000203611 5.95738e-08 96722 0.104002 5.94632e-08 0.00011122 51.8079 1.74901e+06
0.688203 0.109834 0.000240292 5.32116e-08 113098 0.10973 5.31614e-08 9.90935e-05 60.7318 2.06409e+06
0.72727 0.114614 0.000283581 4.70513e-08 135190 0.114495 4.70023e-08 8.81969e-05 72.1212 2.43595e+06
0.768555 0.121923 0.000334669 4.2411e-08 158170 0.121811 4.23722e-08 7.84179e-05 85.5436 2.87479e+06
0.812184 0.127937 0.000394961 3.77096e-08 188560 0.127809 3.76718e-08 6.96525e-05 102.086 3.39269e+06
0.85829 0.13438 0.000466114 3.35625e-08 220444 0.134224 3.35233e-08 6.1805e-05 119.709 4.00389e+06
0.907013 0.141676 0.000550086 2.9983e-08 261388 0.141529 2.9952e-08 5.47875e-05 143.047 4.7252e+06
0.958501 0.149175 0.000649185 2.67509e-08 308244 0.149015 2.67221e-08 4.85194e-05 169.949 5.57646e+06
1.01291 0.158057 0.000766138 2.40169e-08 364396 0.157879 2.39899e-08 4.29272e-05 203.873 6.58107e+06
1.07041 0.165721 0.00090416 2.13375e-08 429162 0.16551 2.13103e-08 3.79435e-05 241.339 7.76667e+06
1.13118 0.17548 0.00106705 1.9145e-08 506358 0.175268 1.91218e-08 3.3507e-05 289.318 9.16586e+06
1.19539 0.184299 0.00125928 1.70378e-08 598590 0.184057 1.70154e-08 2.9562e-05 344.991 1.08171e+07
1.26325 0.194393 0.00148614 1.52276e-08 704844 0.194138 1.52076e-08 2.60578e-05 411.895 1.27658e+07
1.33496 0.204318 0.00175387 1.35618e-08 834620 0.204042 1.35435e-08 2.29484e-05 493.235 1.50656e+07
1.41075 0.215258 0.00206984 1.21069e-08 981444 0.214988 1.20917e-08 2.01923e-05 588.456 1.77798e+07
1.49083 0.226947 0.00244272 1.08158e-08 1.15998e+06 0.226647 1.08015e-08 1.77518e-05 706.754 2.09828e+07
1.57546 0.240174 0.00288279 9.69894e-09 1.36931e+06 0.239845 9.68565e-09 1.55929e-05 851.727 2.4763e+07
1.66489 0.253117 0.00340213 8.66127e-09 1.61652e+06 0.252742 8.64843e-09 1.3685e-05 1023.1 2.92241e+07
1.75941 0.266968 0.00401503 7.7407e-09 1.90601e+06 0.266582 7.72952e-09 1.20007e-05 1229.42 3.44889e+07
1.85928 0.282336 0.00473835 6.93663e-09 2.24913e+06 0.281948 6.92711e-09 1.05151e-05 1483.71 4.07021e+07
1.96483 0.297535 0.00559198 6.19417e-09 2.65744e+06 0.297086 6.18482e-09 9.20606e-06 1788.02 4.80347e+07
2.07637 0.314943 0.00659939 5.5557e-09 3.13125e+06 0.314485 5.54762e-09 8.05366e-06 2160.05 5.66883e+07
2.19424 0.333072 0.00778828 4.9786e-09 3.69915e+06 0.332598 4.97151e-09 7.04008e-06 2615.96 6.69008e+07
2.3188 0.352375 0.00919136 4.46309e-09 4.36472e+06 0.351849 4.45642e-09 6.1494e-06 3167.81 7.89532e+07
2.45043 0.373475 0.0108472 4.00824e-09 5.14913e+06 0.37291 4.00217e-09 5.36741e-06 3845.23 9.31768e+07
2.58954 0.396495 0.0128014 3.60572e-09 6.07894e+06 0.395881 3.60013e-09 4.68145e-06 4682.08 1.09963e+08
2.73654 0.42023 0.0151076 3.23819e-09 7.17304e+06 0.419586 3.23323e-09 4.08023e-06 5692.73 1.29773e+08
2.89188 0.446404 0.0178292 2.91478e-09 8.46557e+06 0.445717 2.91029e-09 3.55373e-06 6943.48 1.53152e+08
3.05605 0.474709 0.0210412 2.62644e-09 9.98773e+06 0.474001 2.62252e-09 3.09304e-06 8481.02 1.80743e+08
3.22953 0.504888 0.0248319 2.36699e-09 1.1797e+07 0.504093 2.36326e-09 2.69025e-06 10379.5 2.13304e+08
3.41286 0.538094 0.0293054 2.13757e-09 1.39144e+07 0.537213 2.13407e-09 2.33837e-06 12719.5 2.51731e+08
3.6066 0.57351 0.0345848 1.93048e-09 1.64163e+07 0.572594 1.9274e-09 2.0312e-06 15602.3 2.97081e+08
3.81134 0.61232 0.0408154 1.74649e-09 1.93821e+07 0.611318 1.74363e-09 1.76327e-06 19197.7 3.50601e+08
4.0277 0.654319 0.0481684 1.58138e-09 2.28754e+07 0.653235 1.57877e-09 1.52972e-06 23648 4.13763e+08
4.25634 0.699865 0.056846 1.43326e-09 2.69929e+07 0.698679 1.43083e-09 1.32631e-06 29169.6 4.88304e+08
4.49796 0.750131 0.067087 1.30169e-09 3.18542e+07 0.74884 1.29945e-09 1.14926e-06 36079.4 5.76273e+08
4.7533 0.804392 0.0791729 1.18277e-09 3.75892e+07 0.802995 1.18072e-09 9.95263e-07 44671.1 6.8009e+08
5.02313 0.863556 0.0934361 1.07594e-09 4.43706e+07 0.862056 1.07407e-09 8.61414e-07 55420.4 8.0261e+08
5.30828 0.928022 0.110269 9.7975e-10 5.23593e+07 0.926366 9.78003e-10 7.45152e-07 68843.6 9.47202e+08
5.60962 0.999225 0.130134 8.93886e-10 6.1787e+07 0.997434 8.92284e-10 6.44232e-07 85730.9 1.11784e+09
5.92807 1.07684 0.153578 8.16268e-10 7.29346e+07 1.07485 8.14757e-10 5.56685e-07 106944 1.31923e+09
6.26459 1.16206 0.181246 7.46397e-10 8.60651e+07 1.15988 7.45e-10 4.80786e-07 133612 1.55689e+09
6.62021 1.25674 0.213898 6.83988e-10 1.01558e+08 1.25435 6.82692e-10 4.15026e-07 167374 1.83737e+09
6.99602 1.36079 0.252432 6.27561e-10 1.1986e+08 1.35818 6.2636e-10 3.58083e-07 210062 2.16837e+09
7.39317 1.47676 0.297908 5.77083e-10 1.41457e+08 1.47388 5.75956e-10 3.08803e-07 264350 2.55901e+09
7.81286 1.60543 0.351577 5.31594e-10 1.66936e+08 1.60223 5.30535e-10 2.66181e-07 333390 3.02002e+09
8.25637 1.74945 0.414914 4.90856e-10 1.97025e+08 1.74591 4.89863e-10 2.29336e-07 421699 3.56409e+09
8.72507 1.91105 0.489662 4.54345e-10 2.32497e+08 1.90709 4.53404e-10 1.97503e-07 534846 4.20617e+09
9.22037 2.09404 0.577876 4.21852e-10 2.74404e+08 2.0896 4.20957e-10 1.70014e-07 680873 4.96392e+09
9.74378 2.30406 0.681982 3.93306e-10 3.2382e+08 2.29902 3.92446e-10 1.46289e-07 870608 5.85818e+09
10.2969 2.55045 0.804843 3.68905e-10 3.82165e+08 2.54462 3.68062e-10 1.25822e-07 1.12049e+06 6.91355e+09
10.8814 2.8502 0.949838 3.4933e-10 4.51027e+08 2.84325 3.48479e-10 1.08175e-07 1.4565e+06 8.15905e+09
11.4992 3.23209 1.12095 3.35665e-10 5.32251e+08 3.22342 3.34765e-10 9.29669e-08 1.92174e+06 9.62892e+09
12.1519 3.75336 1.3229 3.30296e-10 6.28157e+08 3.74187 3.29286e-10 7.98658e-08 2.59784e+06 1.13636e+10
12.8418 4.31196 1.56122 3.2153e-10 3.82727e+08 4.46234 3.32743e-10 6.85852e-08 1.79423e+06 1.34108e+10
13.5708 0 1.84248 0 0 0 0 5.88765e-08 0 1.58268e+10
14.3411 0 2.17441 0 0 0 0 5.05241e-08 0 1.8678e+10
15.1552 0 2.56613 0 0 0 0 4.33417e-08 0 2.20429e+10
16.0156 0 3.02843 0 0 0 0 3.71677e-08 0 2.6014e+10
16.9247 0 3.574 0 0 0 0 3.18628e-08 0 3.07005e+10
17.8855 0 4.21787 0 0 0 0 2.73063e-08 0 3.62312e+10
18.9008 0 4.97773 0 0 0 0 2.33941e-08 0 4.27584e+10
19.9738 0 5.87448 0 0 0 0 2.00364e-08 0 5.04614e+10
21.1076 0 6.93279 0 0 0 0 1.71555e-08 0 5.95522e+10
22.3058 0 8.18175 0 0 0 0 1.46847e-08 0 7.02807e+10
23.5721 0 9.65571 0 0 0 0 1.25662e-08 0 8.29419e+10
24.9102 0 11.3952 0 0 0 0 1.07504e-08 0 9.78842e+10
26.3243 0 13.4481 0 0 0 0 9.19452e-09 0 1.15518e+11
27.8187 0 15.8708 0 0 0 0 7.86182e-09 0 1.36329e+11
29.3979 0 18.73 0 0 0 0 6.72061e-09 0 1.60889e+11
31.0667 0 22.1042 0 0 0 0 5.74366e-09 0 1.89874e+11
32.8303 0 26.0864 0 0 0 0 4.90756e-09 0 2.2408e+11
34.694 0 30.7859 0 0 0 0 4.19221e-09 0 2.64449e+11
36.6634 0 36.3321 0 0 0 0 3.58032e-09 0 3.1209e+11
38.7447 0 42.8774 0 0 0 0 3.05709e-09 0 3.68314e+11
40.9442 0 50.6018 0 0 0 0 2.60976e-09 0 4.34667e+11
43.2685 0 59.7179 0 0 0 0 2.22743e-09 0 5.12973e+11
45.7247 0 70.4762 0 0 0 0 1.90073e-09 0 6.05386e+11
48.3204 0 83.1727 0 0 0 0 1.62163e-09 0 7.14448e+11
51.0634 0 98.1565 0 0 0 0 1.38326e-09 0 8.43158e+11
53.9621 0 115.84 0 0 0 0 1.1797e-09 0 9.95055e+11
57.0254 0 136.709 0 0 0 0 1.00592e-09 0 1.17432e+12
60.2626 0 161.337 0 0 0 0 8.57591e-10 0 1.38587e+12
63.6835 0 190.402 0 0 0 0 7.3101e-10 0 1.63554e+12
67.2987 0 224.704 0 0 0 0 6.23009e-10 0 1.93019e+12
71.1191 0 265.185 0 0 0 0 5.30879e-10 0 2.27792e+12
75.1563 0 312.958 0 0 0 0 4.52303e-10 0 2.68829e+12
79.4227 0 369.339 0 0 0 0 3.85299e-10 0 3.17259e+12
83.9313 0 435.876 0 0 0 0 3.28173e-10 0 3.74415e+12
88.6959 0 514.4 0 0 0 0 2.79476e-10 0 4.41866e+12
93.7309 0 607.071 0 0 0 0 2.37972e-10 0 5.2147e+12
99.0518 0 716.436 0 0 0 0 2.02605e-10 0 6.15414e+12
104.675 0 845.504 0 0 0 0 1.72471e-10 0 7.26283e+12
110.617 0 997.824 0 0 0 0 1.468e-10 0 8.57124e+12
116.896 0 1177.58 0 0 0 0 1.24935e-10 0 1.01154e+13
123.532 0 1389.73 0 0 0 0 1.06313e-10 0 1.19377e+13
130.545 0 1640.09 0 0 0 0 9.04567e-11 0 1.40883e+13
137.955 0 1935.56 0 0 0 0 7.69563e-11 0 1.66263e+13
145.787 0 2284.26 0 0 0 0 6.54636e-11 0 1.96216e+13
154.063 0 2695.77 0 0 0 0 5.56812e-11 0 2.31565e+13
162.808 0 3181.42 0 0 0 0 4.73556e-11 0 2.73282e+13
172.051 0 3754.56 0 0 0 0 4.02708e-11 0 3.22515e+13
181.818 0 4430.96 0 0 0 0 3.42426e-11 0 3.80616e+13
192.139 0 5229.21 0 0 0 0 2.91139e-11 0 4.49186e+13
203.046 0 6171.26 0 0 0 0 2.4751e-11 0 5.30108e+13
214.572 0 7283.03 0 0 0 0 2.10401e-11 0 6.25608e+13
226.753 0 8595.09 0 0 0 0 1.78839e-11 0 7.38313e+13
239.625 0 10143.5 0 0 0 0 1.51999e-11 0 8.71322e+13
253.228 0 11970.9 0 0 0 0 1.29176e-11 0 1.02829e+14
267.603 0 14127.5 0 0 0 0 1.09771e-11 0 1.21354e+14
282.795 0 16672.6 0 0 0 0 9.3274e-12 0 1.43217e+14
298.848 0 19676.2 0 0 0 0 7.925e-12 0 1.69017e+14
315.813 0 23220.9 0 0 0 0 6.73295e-12 0 1.99466e+14
333.741 0 27404.3 0 0 0 0 5.71979e-12 0 2.35401e+14
352.686 0 32341.2 0 0 0 0 4.85874e-12 0 2.77809e+14
372.707 0 38167.6 0 0 0 0 4.12703e-12 0 3.27857e+14
393.865 0 45043.5 0 0 0 0 3.50528e-12 0 3.86921e+14
416.224 0 53158.3 0 0 0 0 2.97701e-12 0 4.56626e+14
439.852 0 62734.9 0 0 0 0 2.52819e-12 0 5.38888e+14
464.821 0 74036.7 0 0 0 0 2.1469e-12 0 6.35971e+14
491.207 0 87374.6 0 0 0 0 1.82301e-12 0 7.50542e+14
519.092 0 103115 0 0 0 0 1.54789e-12 0 8.85755e+14
548.56 0 121692 0 0 0 0 1.31422e-12 0 1.04533e+15
579.7 0 143615 0 0 0 0 1.11576e-12 0 1.23364e+15
612.608 0 169488 0 0 0 0 9.47223e-13 0 1.45589e+15
647.384 0 200021 0 0 0 0 8.041e-13 0 1.71817e+15
684.134 0 236056 0 0 0 0 6.82568e-13 0 2.0277e+15
722.971 0 278582 0 0 0 0 5.79376e-13 0 2.393e+15
764.012 0 328769 0 0 0 0 4.91762e-13 0 2.8241e+15
