0.642005
200
1.0655e+09
8589934592
0.0129181 0 1.58924e-09 0 0 0 0 0.00677225 0 13.6515
0.0136515 0 1.87554e-09 0 0 0 0 0.00688819 0 16.1108
0.0144264 0 2.21343e-09 0 0 0 0 0.00699249 0 19.0132
0.0152454 0 2.61218e-09 0 0 0 0 0.00708412 0 22.4385
0.0161108 0 3.08278e-09 0 0 0 0 0.00716212 0 26.4808
0.0170254 0 3.63815e-09 0 0 0 0 0.00722559 0 31.2514
0.0179919 0 4.29357e-09 0 0 0 0 0.00727371 0 36.8815
0.0190132 0 5.06707e-09 0 0 0 0 0.00730578 0 43.5258
0.0200925 0 5.97991e-09 0 0 0 0 0.00732122 0 51.367
0.0212331 0 7.05721e-09 0 0 0 0 0.00731958 0 60.621
0.0224385 0 8.32858e-09 0 0 0 0 0.00730056 0 71.542
0.0237123 0 9.829e-09 0 0 0 0 0.00726401 0 84.4305
0.0250583 0 1.15997e-08 0 0 0 0 0.00720995 0 99.6408
0.0264808 0 1.36894e-08 0 0 0 0 0.00713857 0 117.591
0.0279841 0 1.61556e-08 0 0 0 0 0.00705021 0 138.776
0.0295727 0 1.90661e-08 0 0 0 0 0.00694538 0 163.777
0.0312514 0 2.25009e-08 0 0 0 0 0.00682475 0 193.281
0.0330255 0 2.65545e-08 0 0 0 0 0.00668915 0 228.102
0.0349003 0 3.13384e-08 0 0 0 0 0.00653951 0 269.195
0.0368815 0 3.69841e-08 0 0 0 0 0.00637693 0 317.691
0.0389751 0 4.36469e-08 0 0 0 0 0.00620256 0 374.924
0.0411876 0 5.151e-08 0 0 0 0 0.00601767 0 442.467
0.0435258 0 6.07896e-08 0 0 0 0 0.00582358 0 522.179
0.0459966 0 7.1741e-08 0 0 0 0 0.00562166 0 616.251
0.0486077 0 8.46654e-08 0 0 0 0 0.0054133 0 727.27
0.051367 0 9.99181e-08 0 0 0 0 0.00519989 0 858.29
0.054283 0 1.17919e-07 0 0 0 0 0.0049828 0 1012.91
0.0573645 0 1.39162e-07 0 0 0 0 0.00476339 0 1195.39
0.060621 0 1.64232e-07 0 0 0 0 0.00454293 0 1410.75
0.0640622 0 1.93819e-07 0 0 0 0 0.00432265 0 1664.89
0.0676989 0 2.28736e-07 0 0 0 0 0.00410371 0 1964.83
0.071542 0 2.69944e-07 0 0 0 0 0.00388717 0 2318.8
0.0756032 0 3.18575e-07 0 0 0 0 0.00367401 0 2736.54
0.079895 0 3.75967e-07 0 0 0 0 0.0034651 0 3229.53
0.0844305 0 4.43698e-07 0 0 0 0 0.00326121 0 3811.34
0.0892234 0 5.23632e-07 0 0 0 0 0.00306301 0 4497.96
0.0942883 0 6.17966e-07 0 0 0 0 0.00287109 0 5308.28
0.0996408 0 7.29294e-07 0 0 0 0 0.00268591 0 6264.59
0.105297 0 8.60678e-07 0 0 0 0 0.00250785 0 7393.17
0.111275 0 1.01573e-06 0 0 0 0 0.00233721 0 8725.07
0.117591 0 1.19872e-06 0 0 0 0 0.00217419 0 10296.9
0.124267 0 1.41467e-06 0 0 0 0 0.00201893 0 12151.9
0.131321 0 1.66953e-06 0 0 0 0 0.00187147 0 14341.1
0.138776 0 1.9703e-06 0 0 0 0 0.00173182 0 16924.7
0.146654 0 2.32525e-06 0 0 0 0 0.00159991 0 19973.8
0.154979 0 2.74415e-06 0 0 0 0 0.00147563 0 23572.1
0.163777 0 3.23852e-06 0 0 0 0 0.00135884 0 27818.7
0.173074 0 3.82195e-06 0 0 0 0 0.00124933 0 32830.3
0.182899 0 4.51048e-06 0 0 0 0 0.00114689 0 38744.7
0.193281 0 5.32305e-06 0 0 0 0 0.00105127 0 45724.7
0.204254 0 6.28202e-06 0 0 0 0 0.000962209 0 53962.1
0.215848 0 7.41374e-06 0 0 0 0 0.000879423 0 63683.5
0.228102 0 8.74934e-06 0 0 0 0 0.000802624 0 75156.3
0.24105 0 1.03256e-05 0 0 0 0 0.000731515 0 88695.9
0.254734 0 1.21857e-05 0 0 0 0 0.000665798 0 104675
0.269195 0 1.4381e-05 0 0 0 0 0.000605173 0 123532
0.284476 0 1.69718e-05 0 0 0 0 0.000549345 0 145787
0.300625 0 2.00293e-05 0 0 0 0 0.000498021 0 172051
0.317691 0 2.36377e-05 0 0 0 0 0.000450916 0 203046
0.335725 0 2.78961e-05 0 0 0 0 0.000407755 0 239625
0.354784 0 3.29216e-05 0 0 0 0 0.000368269 0 282795
0.374924 0 3.88525e-05 0 0 0 0 0.000332202 0 333741
0.396207 2.11631 4.58519e-05 5.37319e-06 6 2.05748 5.22381e-06 0.000299307 0.107713 393865
0.418699 0 5.41123e-05 0 0 0 0 0.00026935 0 464821
0.442467 0 6.38607e-05 0 0 0 0 0.000242108 0 548560
0.467585 0 7.53654e-05 0 0 0 0 0.00021737 0 647384
0.494129 0 8.89427e-05 0 0 0 0 0.000194938 0 764012
0.522179 0 0.000104966 0 0 0 0 0.000174625 0 901651
0.551822 0 0.000123876 0 0 0 0 0.000156255 0 1.06409e+06
0.583147 6.18501 0.000146192 4.92522e-06 12 6.50975 5.18382e-06 0.000139664 0.423177 1.25578e+06
0.616251 0 0.000172529 0 0 0 0 0.0001247 0 1.48202e+06
0.651234 0 0.000203611 0 0 0 0 0.00011122 0 1.74901e+06
0.688203 20.1481 0.000240292 9.76126e-06 8 19.6469 9.51841e-06 9.90935e-05 0.788044 2.06409e+06
0.72727 0 0.000283581 0 0 0 0 8.81969e-05 0 2.43595e+06
0.768555 0 0.000334669 0 0 0 0 7.84179e-05 0 2.87479e+06
0.812184 6.74056 0.000394961 1.98679e-06 6 6.88467 2.02927e-06 6.96525e-05 0.171146 3.39269e+06
0.85829 0 0.000466114 0 0 0 0 6.1805e-05 0 4.00389e+06
0.907013 1.56471 0.000550086 3.31142e-07 24 1.59473 3.37496e-07 5.47875e-05 0.145059 4.7252e+06
0.958501 2.88289 0.000649185 5.16975e-07 24 2.71403 4.86694e-07 4.85194e-05 0.25572 5.57646e+06
1.01291 0 0.000766138 0 0 0 0 4.29272e-05 0 6.58107e+06
1.07041 0 0.00090416 0 0 0 0 3.79435e-05 0 7.76667e+06
1.13118 4.39034 0.00106705 4.78988e-07 12 4.33641 4.73105e-07 3.3507e-05 0.171542 9.16586e+06
1.19539 1.89755 0.00125928 1.75421e-07 30 1.85844 1.71805e-07 2.9562e-05 0.17802 1.08171e+07
1.26325 10.0936 0.00148614 7.90676e-07 24 9.94177 7.78778e-07 2.60578e-05 0.728235 1.27658e+07
1.33496 16.309 0.00175387 1.08253e-06 24 16.3449 1.08491e-06 2.29484e-05 1.13214 1.50656e+07
1.41075 18.9512 0.00206984 1.06589e-06 32 19.3592 1.08883e-06 2.01923e-05 1.68918 1.77798e+07
1.49083 4.00293 0.00244272 1.90772e-07 48 3.91759 1.86705e-07 1.77518e-05 0.515838 2.09828e+07
1.57546 17.9653 0.00288279 7.25491e-07 6 17.107 6.90831e-07 1.55929e-05 0.279163 2.4763e+07
1.66489 4.12589 0.00340213 1.41181e-07 84 4.06485 1.39093e-07 1.3685e-05 0.866584 2.92241e+07
1.75941 5.37425 0.00401503 1.55826e-07 48 5.3255 1.54412e-07 1.20007e-05 0.623267 3.44889e+07
1.85928 6.40183 0.00473835 1.57285e-07 72 6.41711 1.5766e-07 1.05151e-05 1.07698 4.07021e+07
1.96483 8.7214 0.00559198 1.81565e-07 54 8.50608 1.77082e-07 9.20606e-06 1.065 4.80347e+07
2.07637 13.8104 0.00659939 2.43621e-07 104 13.9399 2.45905e-07 8.05366e-06 3.14597 5.66883e+07
2.19424 6.64275 0.00778828 9.92925e-08 120 6.75056 1.00904e-07 7.04008e-06 1.69247 6.69008e+07
2.3188 10.4043 0.00919136 1.31778e-07 156 10.1013 1.27941e-07 6.1494e-06 3.343 7.89532e+07
2.45043 8.83232 0.0108472 9.47909e-08 126 8.78563 9.42898e-08 5.36741e-06 2.22522 9.31768e+07
2.58954 7.58191 0.0128014 6.89497e-08 192 7.63702 6.94509e-08 4.68145e-06 2.82783 1.09963e+08
2.73654 29.3474 0.0151076 2.26144e-07 152 29.7531 2.29271e-07 4.08023e-06 8.4245 1.29773e+08
2.89188 13.8336 0.0178292 9.03258e-08 378 13.8735 9.05862e-08 3.55373e-06 9.60769 1.53152e+08
3.05605 11.2494 0.0210412 6.22396e-08 264 11.1562 6.17243e-08 3.09304e-06 5.31233 1.80743e+08
3.22953 13.2586 0.0248319 6.2158e-08 366 13.1907 6.18398e-08 2.69025e-06 8.45639 2.13304e+08
3.41286 15.1168 0.0293054 6.00515e-08 428 14.9723 5.94774e-08 2.33837e-06 10.9914 2.51731e+08
3.6066 18.3553 0.0345848 6.17854e-08 486 18.0939 6.09055e-08 2.0312e-06 14.7832 2.97081e+08
3.81134 15.7877 0.0408154 4.50304e-08 600 15.8128 4.5102e-08 1.76327e-06 15.3228 3.50601e+08
4.0277 21.1194 0.0481684 5.10423e-08 738 20.928 5.05797e-08 1.52972e-06 24.6249 4.13763e+08
4.25634 19.0433 0.056846 3.89989e-08 824 18.9846 3.88787e-08 1.32631e-06 24.229 4.88304e+08
4.49796 22.6049 0.067087 3.92261e-08 954 22.3961 3.88637e-08 1.14926e-06 32.5616 5.76273e+08
4.7533 21.4926 0.0791729 3.16026e-08 1094 21.3019 3.13221e-08 9.95263e-07 34.7378 6.8009e+08
5.02313 25.5858 0.0934361 3.18782e-08 1332 25.5901 3.18836e-08 8.61414e-07 49.2932 8.0261e+08
5.30828 27.3204 0.110269 2.88433e-08 1614 27.3608 2.88859e-08 7.45152e-07 62.4745 9.47202e+08
5.60962 32.5897 0.130134 2.91541e-08 1850 32.5498 2.91184e-08 6.44232e-07 83.7199 1.11784e+09
5.92807 29.0418 0.153578 2.20142e-08 2238 28.9937 2.19778e-08 5.56685e-07 88.5022 1.31923e+09
6.26459 29.976 0.181246 1.92538e-08 2546 30.0853 1.9324e-08 4.80786e-07 101.958 1.55689e+09
6.62021 29.6182 0.213898 1.61199e-08 3264 29.6176 1.61196e-08 4.15026e-07 126.776 1.83737e+09
6.99602 36.1736 0.252432 1.66824e-08 3506 36.2359 1.67111e-08 3.58083e-07 163.338 2.16837e+09
7.39317 36.3463 0.297908 1.42033e-08 4506 36.3634 1.42099e-08 3.08803e-07 207.251 2.55901e+09
7.81286 40.6109 0.351577 1.34472e-08 5018 40.4831 1.34049e-08 2.66181e-07 253.504 3.02002e+09
8.25637 44.2474 0.414914 1.24148e-08 5852 44.2498 1.24154e-08 2.29336e-07 316.79 3.56409e+09
8.72507 44.1465 0.489662 1.04957e-08 7362 44.0134 1.0464e-08 1.97503e-07 391.23 4.20617e+09
9.22037 47.4823 0.577876 9.56549e-09 8306 47.3242 9.53364e-09 1.70014e-07 467.32 4.96392e+09
9.74378 49.4492 0.681982 8.44105e-09 9698 49.4104 8.43442e-09 1.46289e-07 559.586 5.85818e+09
10.2969 52.912 0.804843 7.65337e-09 11816 52.8179 7.63977e-09 1.25822e-07 718.729 6.91355e+09
10.8814 60.4303 0.949838 7.40653e-09 13682 60.2924 7.38964e-09 1.08175e-07 936.776 8.15905e+09
11.4992 59.9127 1.12095 6.22216e-09 16152 59.8806 6.21883e-09 9.29669e-08 1081.03 9.62892e+09
12.1519 62.8928 1.3229 5.53459e-09 19472 62.8305 5.52911e-09 7.98658e-08 1349.38 1.13636e+10
12.8418 65.918 1.56122 4.9153e-09 22670 65.7623 4.90369e-09 6.85852e-08 1624.69 1.34108e+10
13.5708 70.9239 1.84248 4.48126e-09 26224 70.7575 4.47075e-09 5.88765e-08 1995.99 1.58268e+10
14.3411 75.5104 2.17441 4.04275e-09 31640 75.4762 4.04091e-09 5.05241e-08 2531.71 1.8678e+10
15.1552 80.0433 2.56613 3.63125e-09 37484 79.9018 3.62483e-09 4.33417e-08 3140.49 2.20429e+10
16.0156 86.0826 3.02843 3.30909e-09 43856 85.9212 3.30288e-09 3.71677e-08 3904.56 2.6014e+10
16.9247 91.0228 3.574 2.96487e-09 51362 90.9335 2.96196e-09 3.18628e-08 4779.29 3.07005e+10
17.8855 95.4729 4.21787 2.6351e-09 61636 95.3578 2.63192e-09 2.73063e-08 5947.96 3.62312e+10
18.9008 99.1465 4.97773 2.31876e-09 72218 98.9678 2.31458e-09 2.33941e-08 7158.05 4.27584e+10
19.9738 106.263 5.87448 2.10582e-09 84586 106.064 2.10188e-09 2.00364e-08 8889.96 5.04614e+10
21.1076 112.486 6.93279 1.88886e-09 100708 112.303 1.88579e-09 1.71555e-08 11088.2 5.95522e+10
22.3058 118.798 8.18175 1.69033e-09 118712 118.591 1.68739e-09 1.46847e-08 13664.8 7.02807e+10
23.5721 124.021 9.65571 1.49527e-09 140410 123.816 1.49281e-09 1.25662e-08 16707.6 8.29419e+10
24.9102 129.959 11.3952 1.32768e-09 164374 129.668 1.32471e-09 1.07504e-08 20300.3 9.78842e+10
26.3243 137.456 13.4481 1.18991e-09 194680 137.319 1.18872e-09 9.19452e-09 25194.6 1.15518e+11
27.8187 144.747 15.8708 1.06175e-09 230196 144.549 1.0603e-09 7.86182e-09 31088.3 1.36329e+11
29.3979 151.901 18.73 9.44135e-10 271156 151.633 9.42466e-10 6.72061e-09 38092.9 1.60889e+11
31.0667 158.51 22.1042 8.34817e-10 321076 158.242 8.33407e-10 5.74366e-09 46667.1 1.89874e+11
32.8303 167.391 26.0864 7.47015e-10 377436 167.088 7.45663e-10 4.90756e-09 57452.2 2.2408e+11
34.694 175.881 30.7859 6.65087e-10 447594 175.548 6.63824e-10 4.19221e-09 71010.1 2.64449e+11
36.6634 184.4 36.3321 5.90854e-10 525078 184.07 5.89798e-10 3.58032e-09 86652.6 3.1209e+11
38.7447 193.806 42.8774 5.26199e-10 621924 193.472 5.25291e-10 3.05709e-09 107048 3.68314e+11
40.9442 202.959 50.6018 4.6693e-10 732630 202.607 4.6612e-10 2.60976e-09 131080 4.34667e+11
43.2685 213.851 59.7179 4.16886e-10 865596 213.486 4.16173e-10 2.22743e-09 162005 5.12973e+11
45.7247 224.529 70.4762 3.70886e-10 1.02168e+06 224.154 3.70266e-10 1.90073e-09 199358 6.05386e+11
48.3204 235.135 83.1727 3.29115e-10 1.20544e+06 234.702 3.28508e-10 1.62163e-09 244647 7.14448e+11
51.0634 246.776 98.1565 2.9268e-10 1.42103e+06 246.35 2.92176e-10 1.38326e-09 300673 8.43158e+11
53.9621 259.47 115.84 2.60759e-10 1.67997e+06 259.005 2.60292e-10 1.1797e-09 371337 9.95055e+11
57.0254 273.79 136.709 2.33148e-10 1.98018e+06 273.301 2.32732e-10 1.00592e-09 458958 1.17432e+12
60.2626 288.495 161.337 2.08169e-10 2.33957e+06 287.956 2.0778e-10 8.57591e-10 567899 1.38587e+12
63.6835 305.408 190.402 1.86732e-10 2.75676e+06 304.845 1.86387e-10 7.3101e-10 704198 1.63554e+12
67.2987 323.021 224.704 1.67352e-10 3.25638e+06 322.42 1.6704e-10 6.23009e-10 874726 1.93019e+12
71.1191 343.813 265.185 1.50933e-10 3.84387e+06 343.148 1.50641e-10 5.30879e-10 1.09284e+06 2.27792e+12
75.1563 367.058 312.958 1.36539e-10 4.53277e+06 366.325 1.36267e-10 4.52303e-10 1.36833e+06 2.68829e+12
79.4227 392.204 369.339 1.23622e-10 5.35083e+06 391.42 1.23375e-10 3.85299e-10 1.7168e+06 3.17259e+12
83.9313 422.819 435.876 1.12928e-10 6.32174e+06 421.915 1.12687e-10 3.28173e-10 2.17538e+06 3.74415e+12
88.6959 456.924 514.4 1.03408e-10 7.44986e+06 455.929 1.03182e-10 2.79476e-10 2.75649e+06 4.41866e+12
93.7309 497.088 607.071 9.53244e-11 8.79764e+06 495.987 9.51132e-11 2.37972e-10 3.52406e+06 5.2147e+12
99.0518 543.702 716.436 8.83474e-11 1.03827e+07 542.444 8.8143e-11 2.02605e-10 4.52745e+06 6.15414e+12
104.675 598.007 845.504 8.2338e-11 1.22515e+07 596.558 8.21385e-11 1.72471e-10 5.8489e+06 7.26283e+12
110.617 662.817 997.824 7.73303e-11 1.44573e+07 661.154 7.71363e-11 1.468e-10 7.61572e+06 8.57124e+12
116.896 739.439 1177.58 7.31005e-11 1.70664e+07 737.543 7.2913e-11 1.24935e-10 9.98571e+06 1.01154e+13
123.532 829.361 1389.73 6.94742e-11 2.0139e+07 827.127 6.92871e-11 1.06313e-10 1.31605e+07 1.19377e+13
130.545 936.698 1640.09 6.64877e-11 2.37643e+07 934.092 6.63027e-11 9.04567e-11 1.74673e+07 1.40883e+13
137.955 1064.15 1935.56 6.40041e-11 2.80503e+07 1061.12 6.38217e-11 7.69563e-11 2.33293e+07 1.66263e+13
145.787 1216.29 2284.26 6.1987e-11 3.30981e+07 1212.69 6.1804e-11 6.54636e-11 3.13404e+07 1.96216e+13
154.063 1395.72 2695.77 6.02735e-11 3.90634e+07 1391.56 6.00935e-11 5.56812e-11 4.22852e+07 2.31565e+13
162.808 1610.05 3181.42 5.89152e-11 4.61057e+07 1605.13 5.87351e-11 4.73556e-11 5.73601e+07 2.73282e+13
172.051 1865.69 3754.56 5.78481e-11 5.44046e+07 1859.9 5.76687e-11 4.02708e-11 7.81509e+07 3.22515e+13
181.818 2169.25 4430.96 5.6993e-11 6.42064e+07 2162.4 5.68131e-11 3.42426e-11 1.06864e+08 3.80616e+13
192.139 2530.21 5229.21 5.63288e-11 7.57748e+07 2522.09 5.6148e-11 2.91139e-11 1.46607e+08 4.49186e+13
203.046 2959.74 6171.26 5.58329e-11 8.94213e+07 2950.18 5.56524e-11 2.4751e-11 2.01715e+08 5.30108e+13
214.572 3473.62 7283.03 5.55239e-11 1.05538e+08 3462.2 5.53414e-11 2.10401e-11 2.78511e+08 6.25608e+13
226.753 4086.06 8595.09 5.53432e-11 1.24552e+08 4072.5 5.51595e-11 1.78839e-11 3.85435e+08 7.38313e+13
239.625 4820.4 10143.5 5.53228e-11 1.46987e+08 4804.22 5.51372e-11 1.51999e-11 5.34986e+08 8.71322e+13
253.228 5702.86 11970.9 5.54595e-11 1.7347e+08 5683.49 5.52711e-11 1.29176e-11 7.44762e+08 1.02829e+14
267.603 6768.76 14127.5 5.57769e-11 2.04703e+08 6745.46 5.55849e-11 1.09771e-11 1.04013e+09 1.21354e+14
282.795 8063.14 16672.6 5.63004e-11 2.4161e+08 8034.92 5.61033e-11 9.3274e-12 1.45836e+09 1.43217e+14
298.848 9649.07 19676.2 5.70892e-11 2.85122e+08 9614.59 5.68852e-11 7.925e-12 2.05393e+09 1.69017e+14
315.813 11620.5 23220.9 5.82582e-11 3.36491e+08 11577.9 5.80442e-11 6.73295e-12 2.91156e+09 1.99466e+14
333.741 14107.7 27404.3 5.99306e-11 3.97115e+08 14054.1 5.97029e-11 5.71979e-12 4.16088e+09 2.35401e+14
352.686 17320.7 32341.2 6.23476e-11 4.68637e+08 17251.7 6.20993e-11 4.85874e-12 6.01357e+09 2.77809e+14
372.707 21591.1 38167.6 6.58553e-11 5.53074e+08 21500 6.55775e-11 4.12703e-12 8.82544e+09 3.27857e+14
393.865 27496.5 45043.5 7.1065e-11 6.52716e+08 27371.4 7.07416e-11 3.50528e-12 1.3233e+10 3.86921e+14
416.224 32463.6 53158.3 7.10946e-11 2.2184e+08 34343.5 7.52114e-11 2.97701e-12 5.2978e+09 4.56626e+14
439.852 0 62734.9 0 0 0 0 2.52819e-12 0 5.38888e+14
464.821 0 74036.7 0 0 0 0 2.1469e-12 0 6.35971e+14
491.207 0 87374.6 0 0 0 0 1.82301e-12 0 7.50542e+14
519.092 0 103115 0 0 0 0 1.54789e-12 0 8.85755e+14
548.56 0 121692 0 0 0 0 1.31422e-12 0 1.04533e+15
579.7 0 143615 0 0 0 0 1.11576e-12 0 1.23364e+15
612.608 0 169488 0 0 0 0 9.47223e-13 0 1.45589e+15
647.384 0 200021 0 0 0 0 8.041e-13 0 1.71817e+15
684.134 0 236056 0 0 0 0 6.82568e-13 0 2.0277e+15
722.971 0 278582 0 0 0 0 5.79376e-13 0 2.393e+15
764.012 0 328769 0 0 0 0 4.91762e-13 0 2.8241e+15
0.642005
200
1.0655e+09
8589934592
0.0129181 0.0011246 1.58924e-09 8.23793e-05 6 0.0011143 8.16251e-05 0.00677225 0.0729854 13.6515
0.0136515 0 1.87554e-09 0 0 0 0 0.00688819 0 16.1108
0.0144264 0 2.21343e-09 0 0 0 0 0.00699249 0 19.0132
0.0152454 0 2.61218e-09 0 0 0 0 0.00708412 0 22.4385
0.0161108 0 3.08278e-09 0 0 0 0 0.00716212 0 26.4808
0.0170254 0 3.63815e-09 0 0 0 0 0.00722559 0 31.2514
0.0179919 0.00250754 4.29357e-09 6.7989e-05 12 0.00250431 6.79015e-05 0.00727371 0.112167 36.8815
0.0190132 0 5.06707e-09 0 0 0 0 0.00730578 0 43.5258
0.0200925 0 5.97991e-09 0 0 0 0 0.00732122 0 51.367
0.0212331 0.00237763 7.05721e-09 3.92212e-05 8 0.00237556 3.9187e-05 0.00731958 0.0428672 60.621
0.0224385 0 8.32858e-09 0 0 0 0 0.00730056 0 71.542
0.0237123 0 9.829e-09 0 0 0 0 0.00726401 0 84.4305
0.0250583 0.0150879 1.15997e-08 0.000151423 6 0.0150808 0.000151352 0.00720995 0.126012 99.6408
0.0264808 0 1.36894e-08 0 0 0 0 0.00713857 0 117.591
0.0279841 0.00932444 1.61556e-08 6.71906e-05 24 0.00931486 6.71217e-05 0.00705021 0.228727 138.776
0.0295727 0 1.90661e-08 0 0 0 0 0.00694538 0 163.777
0.0312514 0.0166165 2.25009e-08 8.59703e-05 24 0.0167008 8.64068e-05 0.00682475 0.302324 193.281
0.0330255 0 2.65545e-08 0 0 0 0 0.00668915 0 228.102
0.0349003 0.0248592 3.13384e-08 9.23464e-05 12 0.0246601 9.1607e-05 0.00653951 0.169456 269.195
0.0368815 0.0202752 3.69841e-08 6.38204e-05 30 0.0200593 6.31408e-05 0.00637693 0.300241 317.691
0.0389751 0.0232773 4.36469e-08 6.20853e-05 24 0.0230378 6.14466e-05 0.00620256 0.240231 374.924
0.0411876 0.0148887 5.151e-08 3.36492e-05 24 0.0147875 3.34207e-05 0.00601767 0.134202 442.467
0.0435258 0.0358716 6.07896e-08 6.8696e-05 8 0.0358688 6.86907e-05 0.00582358 0.0943694 522.179
0.0459966 0.0444536 7.1741e-08 7.21355e-05 72 0.0441026 7.1566e-05 0.00562166 0.923883 616.251
0.0486077 0 8.46654e-08 0 0 0 0 0.0054133 0 727.27
0.051367 0.0622656 9.99181e-08 7.25462e-05 54 0.0620611 7.23079e-05 0.00519989 0.75338 858.29
0.054283 0.0499047 1.17919e-07 4.92685e-05 60 0.0501271 4.94881e-05 0.0049828 0.593262 1012.91
0.0573645 0.0472426 1.39162e-07 3.95206e-05 96 0.0471214 3.94192e-05 0.00476339 0.796488 1195.39
0.060621 0.0557291 1.64232e-07 3.95033e-05 24 0.054974 3.89681e-05 0.00454293 0.208693 1410.75
0.0640622 0.0965007 1.93819e-07 5.7962e-05 134 0.0965483 5.79907e-05 0.00432265 1.79679 1664.89
0.0676989 0.0938731 2.28736e-07 4.77767e-05 120 0.093422 4.75471e-05 0.00410371 1.39708 1964.83
0.071542 0.0876877 2.69944e-07 3.7816e-05 108 0.0867247 3.74007e-05 0.00388717 1.05067 2318.8
0.0756032 0.129386 3.18575e-07 4.72809e-05 174 0.128676 4.70213e-05 0.00367401 2.23921 2736.54
0.079895 0.135895 3.75967e-07 4.20789e-05 168 0.134619 4.16836e-05 0.0034651 2.04013 3229.53
0.0844305 0.113953 4.43698e-07 2.98985e-05 168 0.114521 3.00473e-05 0.00326121 1.54021 3811.34
0.0892234 0.134191 5.23632e-07 2.98337e-05 290 0.133579 2.96977e-05 0.00306301 2.82459 4497.96
0.0942883 0.165833 6.17966e-07 3.12405e-05 288 0.165457 3.11696e-05 0.00287109 3.13375 5308.28
0.0996408 0.148401 7.29294e-07 2.36888e-05 366 0.147233 2.35024e-05 0.00268591 3.22799 6264.59
0.105297 0.171861 8.60678e-07 2.32459e-05 420 0.170645 2.30814e-05 0.00250785 3.89308 7393.17
0.111275 0.184106 1.01573e-06 2.11008e-05 398 0.183564 2.10386e-05 0.00233721 3.59322 8725.07
0.117591 0.219199 1.19872e-06 2.12878e-05 624 0.219757 2.13421e-05 0.00217419 6.10968 10296.9
0.124267 0.251612 1.41467e-06 2.07055e-05 642 0.251096 2.0663e-05 0.00201893 6.58416 12151.9
0.131321 0.303054 1.66953e-06 2.11318e-05 800 0.303149 2.11384e-05 0.00187147 9.03325 14341.1
0.138776 0.275396 1.9703e-06 1.62718e-05 858 0.276613 1.63437e-05 0.00173182 8.0616 16924.7
0.146654 0.315359 2.32525e-06 1.57887e-05 1080 0.317998 1.59208e-05 0.00159991 10.6579 19973.8
0.154979 0.370652 2.74415e-06 1.57242e-05 1286 0.373036 1.58253e-05 0.00147563 13.7035 23572.1
0.163777 0.3585 3.23852e-06 1.2887e-05 1650 0.359439 1.29208e-05 0.00135884 15.6483 27818.7
0.173074 0.407353 3.82195e-06 1.24079e-05 1778 0.407584 1.24149e-05 0.00124933 17.6584 32830.3
0.182899 0.42291 4.51048e-06 1.09153e-05 2112 0.423957 1.09423e-05 0.00114689 20.1005 38744.7
0.193281 0.472266 5.32305e-06 1.03285e-05 2570 0.472729 1.03386e-05 0.00105127 25.2496 45724.7
0.204254 0.551743 6.28202e-06 1.02246e-05 3030 0.551411 1.02185e-05 0.000962209 32.1974 53962.1
0.215848 0.567798 7.41374e-06 8.91593e-06 3434 0.567556 8.91213e-06 0.000879423 34.8152 63683.5
0.228102 0.600167 8.74934e-06 7.98558e-06 4218 0.599976 7.98304e-06 0.000802624 41.9663 75156.3
0.24105 0.669213 1.03256e-05 7.54503e-06 4766 0.669644 7.54989e-06 0.000731515 49.1577 88695.9
0.254734 0.730416 1.21857e-05 6.97796e-06 6026 0.730398 6.97779e-06 0.000665798 63.156 104675
0.269195 0.816551 1.4381e-05 6.61003e-06 6480 0.815816 6.60408e-06 0.000605173 70.778 123532
0.284476 0.886302 1.69718e-05 6.07944e-06 8162 0.888068 6.09155e-06 0.000549345 90.3265 145787
0.300625 0.960259 2.00293e-05 5.58125e-06 9578 0.96092 5.5851e-06 0.000498021 107.339 172051
0.317691 1.0565 2.36377e-05 5.20326e-06 11234 1.05531 5.19741e-06 0.000450916 129.633 203046
0.335725 1.14052 2.78961e-05 4.75959e-06 13344 1.13848 4.75106e-06 0.000407755 155.76 239625
0.354784 1.25979 3.29216e-05 4.45479e-06 15464 1.25885 4.45147e-06 0.000368269 187.061 282795
0.374924 1.34689 3.88525e-05 4.03574e-06 18458 1.34604 4.03318e-06 0.000332202 224.237 333741
0.396207 1.53991 4.58519e-05 3.90975e-06 22232 1.53786 3.90453e-06 0.000299307 290.409 393865
0.418699 1.64798 5.41123e-05 3.5454e-06 25628 1.64392 3.53668e-06 0.00026935 337.337 464821
0.442467 1.79429 6.38607e-05 3.27091e-06 30320 1.79095 3.26482e-06 0.000242108 409.627 548560
0.467585 2.00367 7.53654e-05 3.09503e-06 35452 2.00023 3.08971e-06 0.00021737 504.784 647384
0.494129 2.20055 8.89427e-05 2.88026e-06 41792 2.19862 2.87773e-06 0.000194938 617.487 764012
0.522179 2.46351 0.000104966 2.73222e-06 49988 2.46335 2.73205e-06 0.000174625 782.125 901651
0.551822 2.70691 0.000123876 2.54388e-06 59110 2.70325 2.54044e-06 0.000156255 962.331 1.06409e+06
0.583147 2.98875 0.000146192 2.37999e-06 69716 2.98341 2.37574e-06 0.000139664 1188.02 1.25578e+06
0.616251 3.30715 0.000172529 2.23152e-06 82210 3.3004 2.22696e-06 0.0001247 1471.16 1.48202e+06
0.651234 3.64463 0.000203611 2.08383e-06 96722 3.63632 2.07908e-06 0.00011122 1812.18 1.74901e+06
0.688203 4.09228 0.000240292 1.98261e-06 113098 4.08589 1.97951e-06 9.90935e-05 2262.8 2.06409e+06
0.72727 4.50869 0.000283581 1.8509e-06 135190 4.50234 1.84829e-06 8.81969e-05 2837.09 2.43595e+06
0.768555 4.9933 0.000334669 1.73693e-06 158170 4.98708 1.73477e-06 7.84179e-05 3503.41 2.87479e+06
0.812184 5.58047 0.000394961 1.64485e-06 188560 5.57103 1.64207e-06 6.96525e-05 4452.86 3.39269e+06
0.85829 6.19637 0.000466114 1.54759e-06 220444 6.18637 1.54509e-06 6.1805e-05 5519.88 4.00389e+06
0.907013 6.89026 0.000550086 1.45819e-06 261388 6.87944 1.4559e-06 5.47875e-05 6956.96 4.7252e+06
0.958501 7.67988 0.000649185 1.3772e-06 308244 7.66912 1.37527e-06 4.85194e-05 8749.33 5.57646e+06
1.01291 8.59 0.000766138 1.30526e-06 364396 8.57564 1.30308e-06 4.29272e-05 11080 6.58107e+06
1.07041 9.5323 0.00090416 1.22733e-06 429162 9.51525 1.22514e-06 3.79435e-05 13881.8 7.76667e+06
1.13118 10.6648 0.00106705 1.16354e-06 506358 10.6464 1.16153e-06 3.3507e-05 17583.4 9.16586e+06
1.19539 11.8833 0.00125928 1.09856e-06 598590 11.8617 1.09657e-06 2.9562e-05 22244.4 1.08171e+07
1.26325 13.2166 0.00148614 1.03531e-06 704844 13.192 1.03338e-06 2.60578e-05 28004.4 1.27658e+07
1.33496 14.7132 0.00175387 9.76603e-07 834620 14.683 9.74604e-07 2.29484e-05 35518.4 1.50656e+07
1.41075 16.2995 0.00206984 9.16747e-07 981444 16.2665 9.14889e-07 2.01923e-05 44558.4 1.77798e+07
1.49083 18.1673 0.00244272 8.65817e-07 1.15998e+06 18.1335 8.64208e-07 1.77518e-05 56576.2 2.09828e+07
1.57546 20.1741 0.00288279 8.14688e-07 1.36931e+06 20.1347 8.13096e-07 1.55929e-05 71543 2.4763e+07
1.66489 22.3372 0.00340213 7.64342e-07 1.61652e+06 22.2949 7.62896e-07 1.3685e-05 90286.4 2.92241e+07
1.75941 24.6084 0.00401503 7.13518e-07 1.90601e+06 24.5613 7.12152e-07 1.20007e-05 113324 3.44889e+07
1.85928 27.0942 0.00473835 6.6567e-07 2.24913e+06 27.0435 6.64425e-07 1.05151e-05 142383 4.07021e+07
1.96483 29.811 0.00559198 6.20614e-07 2.65744e+06 29.7545 6.19438e-07 9.20606e-06 179148 4.80347e+07
2.07637 32.8435 0.00659939 5.79371e-07 3.13125e+06 32.7823 5.78291e-07 8.05366e-06 225259 5.66883e+07
2.19424 35.9238 0.00778828 5.36971e-07 3.69915e+06 35.8585 5.35994e-07 7.04008e-06 282147 6.69008e+07
2.3188 39.2927 0.00919136 4.97671e-07 4.36472e+06 39.2201 4.96751e-07 6.1494e-06 353237 7.89532e+07
2.45043 42.8208 0.0108472 4.59564e-07 5.14913e+06 42.7433 4.58733e-07 5.36741e-06 440875 9.31768e+07
2.58954 46.5986 0.0128014 4.23766e-07 6.07894e+06 46.517 4.23025e-07 4.68145e-06 550267 1.09963e+08
2.73654 50.5176 0.0151076 3.89276e-07 7.17304e+06 50.4295 3.88598e-07 4.08023e-06 684347 1.29773e+08
2.89188 54.7495 0.0178292 3.57485e-07 8.46557e+06 54.6527 3.56853e-07 3.55373e-06 851587 1.53152e+08
3.05605 59.1793 0.0210412 3.27423e-07 9.98773e+06 59.0798 3.26872e-07 3.09304e-06 1.05728e+06 1.80743e+08
3.22953 63.7676 0.0248319 2.98952e-07 1.1797e+07 63.6586 2.98441e-07 2.69025e-06 1.31093e+06 2.13304e+08
3.41286 68.7241 0.0293054 2.73006e-07 1.39144e+07 68.6068 2.7254e-07 2.33837e-06 1.62451e+06 2.51731e+08
3.6066 73.7809 0.0345848 2.48353e-07 1.64163e+07 73.6599 2.47945e-07 2.0312e-06 2.0072e+06 2.97081e+08
3.81134 79.157 0.0408154 2.25775e-07 1.93821e+07 79.0256 2.254e-07 1.76327e-06 2.48176e+06 3.50601e+08
4.0277 84.8267 0.0481684 2.05013e-07 2.28754e+07 84.6856 2.04672e-07 1.52972e-06 3.06575e+06 4.13763e+08
4.25634 90.6896 0.056846 1.85724e-07 2.69929e+07 90.5387 1.85415e-07 1.32631e-06 3.77984e+06 4.88304e+08
4.49796 96.8463 0.067087 1.68056e-07 3.18542e+07 96.6852 1.67777e-07 1.14926e-06 4.65805e+06 5.76273e+08
4.7533 103.324 0.0791729 1.51926e-07 3.75892e+07 103.154 1.51677e-07 9.95263e-07 5.73798e+06 6.8009e+08
5.02313 110.08 0.0934361 1.37153e-07 4.43706e+07 109.9 1.36928e-07 8.61414e-07 7.06461e+06 8.0261e+08
5.30828 117.096 0.110269 1.23623e-07 5.23593e+07 116.903 1.2342e-07 7.45152e-07 8.68655e+06 9.47202e+08
5.60962 124.505 0.130134 1.1138e-07 6.1787e+07 124.3 1.11197e-07 6.44232e-07 1.06822e+07 1.11784e+09
5.92807 132.295 0.153578 1.00282e-07 7.29346e+07 132.079 1.00118e-07 5.56685e-07 1.31385e+07 1.31923e+09
6.26459 140.327 0.181246 9.01332e-08 8.60651e+07 140.094 8.99831e-08 4.80786e-07 1.61346e+07 1.55689e+09
6.62021 148.719 0.213898 8.09416e-08 1.01558e+08 148.475 8.08088e-08 4.15026e-07 1.98067e+07 1.83737e+09
6.99602 157.571 0.252432 7.26677e-08 1.1986e+08 157.312 7.25486e-08 3.58083e-07 2.43238e+07 2.16837e+09
7.39317 166.775 0.297908 6.51716e-08 1.41457e+08 166.502 6.50652e-08 3.08803e-07 2.98538e+07 2.55901e+09
7.81286 176.459 0.351577 5.84296e-08 1.66936e+08 176.17 5.83339e-08 2.66181e-07 3.66442e+07 3.02002e+09
8.25637 186.61 0.414914 5.23585e-08 1.97025e+08 186.304 5.22725e-08 2.29336e-07 4.49818e+07 3.56409e+09
8.72507 197.41 0.489662 4.69335e-08 2.32497e+08 197.083 4.68558e-08 1.97503e-07 5.52493e+07 4.20617e+09
9.22037 208.811 0.577876 4.20658e-08 2.74404e+08 208.464 4.19959e-08 1.70014e-07 6.78946e+07 4.96392e+09
9.74378 221.393 0.681982 3.7792e-08 3.2382e+08 221.015 3.77275e-08 1.46289e-07 8.3655e+07 5.85818e+09
10.2969 235.589 0.804843 3.40765e-08 3.82165e+08 235.173 3.40162e-08 1.25822e-07 1.03502e+08 6.91355e+09
10.8814 252.418 0.949838 3.09371e-08 4.51027e+08 251.937 3.08782e-08 1.08175e-07 1.28989e+08 8.15905e+09
11.4992 273.895 1.12095 2.84451e-08 5.32251e+08 273.316 2.83849e-08 9.29669e-08 1.62853e+08 9.62892e+09
12.1519 304.214 1.3229 2.6771e-08 6.28157e+08 303.453 2.6704e-08 7.98658e-08 2.10558e+08 1.13636e+10
12.8418 338.266 1.56122 2.52234e-08 3.82727e+08 350.116 2.61071e-08 6.85852e-08 1.40754e+08 1.34108e+10
13.5708 0 1.84248 0 0 0 0 5.88765e-08 0 1.58268e+10
14.3411 0 2.17441 0 0 0 0 5.05241e-08 0 1.8678e+10
15.1552 0 2.56613 0 0 0 0 4.33417e-08 0 2.20429e+10
16.0156 0 3.02843 0 0 0 0 3.71677e-08 0 2.6014e+10
16.9247 0 3.574 0 0 0 0 3.18628e-08 0 3.07005e+10
17.8855 0 4.21787 0 0 0 0 2.73063e-08 0 3.62312e+10
18.9008 0 4.97773 0 0 0 0 2.33941e-08 0 4.27584e+10
19.9738 0 5.87448 0 0 0 0 2.00364e-08 0 5.04614e+10
21.1076 0 6.93279 0 0 0 0 1.71555e-08 0 5.95522e+10
22.3058 0 8.18175 0 0 0 0 1.46847e-08 0 7.02807e+10
23.5721 0 9.65571 0 0 0 0 1.25662e-08 0 8.29419e+10
24.9102 0 11.3952 0 0 0 0 1.07504e-08 0 9.78842e+10
26.3243 0 13.4481 0 0 0 0 9.19452e-09 0 1.15518e+11
27.8187 0 15.8708 0 0 0 0 7.86182e-09 0 1.36329e+11
29.3979 0 18.73 0 0 0 0 6.72061e-09 0 1.60889e+11
31.0667 0 22.1042 0 0 0 0 5.74366e-09 0 1.89874e+11
32.8303 0 26.0864 0 0 0 0 4.90756e-09 0 2.2408e+11
34.694 0 30.7859 0 0 0 0 4.19221e-09 0 2.64449e+11
36.6634 0 36.3321 0 0 0 0 3.58032e-09 0 3.1209e+11
38.7447 0 42.8774 0 0 0 0 3.05709e-09 0 3.68314e+11
40.9442 0 50.6018 0 0 0 0 2.60976e-09 0 4.34667e+11
43.2685 0 59.7179 0 0 0 0 2.22743e-09 0 5.12973e+11
45.7247 0 70.4762 0 0 0 0 1.90073e-09 0 6.05386e+11
48.3204 0 83.1727 0 0 0 0 1.62163e-09 0 7.14448e+11
51.0634 0 98.1565 0 0 0 0 1.38326e-09 0 8.43158e+11
53.9621 0 115.84 0 0 0 0 1.1797e-09 0 9.95055e+11
57.0254 0 136.709 0 0 0 0 1.00592e-09 0 1.17432e+12
60.2626 0 161.337 0 0 0 0 8.57591e-10 0 1.38587e+12
63.6835 0 190.402 0 0 0 0 7.3101e-10 0 1.63554e+12
67.2987 0 224.704 0 0 0 0 6.23009e-10 0 1.93019e+12
71.1191 0 265.185 0 0 0 0 5.30879e-10 0 2.27792e+12
75.1563 0 312.958 0 0 0 0 4.52303e-10 0 2.68829e+12
79.4227 0 369.339 0 0 0 0 3.85299e-10 0 3.17259e+12
83.9313 0 435.876 0 0 0 0 3.28173e-10 0 3.74415e+12
88.6959 0 514.4 0 0 0 0 2.79476e-10 0 4.41866e+12
93.7309 0 607.071 0 0 0 0 2.37972e-10 0 5.2147e+12
99.0518 0 716.436 0 0 0 0 2.02605e-10 0 6.15414e+12
104.675 0 845.504 0 0 0 0 1.72471e-10 0 7.26283e+12
110.617 0 997.824 0 0 0 0 1.468e-10 0 8.57124e+12
116.896 0 1177.58 0 0 0 0 1.24935e-10 0 1.01154e+13
123.532 0 1389.73 0 0 0 0 1.06313e-10 0 1.19377e+13
130.545 0 1640.09 0 0 0 0 9.04567e-11 0 1.40883e+13
137.955 0 1935.56 0 0 0 0 7.69563e-11 0 1.66263e+13
145.787 0 2284.26 0 0 0 0 6.54636e-11 0 1.96216e+13
154.063 0 2695.77 0 0 0 0 5.56812e-11 0 2.31565e+13
162.808 0 3181.42 0 0 0 0 4.73556e-11 0 2.73282e+13
172.051 0 3754.56 0 0 0 0 4.02708e-11 0 3.22515e+13
181.818 0 4430.96 0 0 0 0 3.42426e-11 0 3.80616e+13
192.139 0 5229.21 0 0 0 0 2.91139e-11 0 4.49186e+13
203.046 0 6171.26 0 0 0 0 2.4751e-11 0 5.30108e+13
214.572 0 7283.03 0 0 0 0 2.10401e-11 0 6.25608e+13
226.753 0 8595.09 0 0 0 0 1.78839e-11 0 7.38313e+13
239.625 0 10143.5 0 0 0 0 1.51999e-11 0 8.71322e+13
253.228 0 11970.9 0 0 0 0 1.29176e-11 0 1.02829e+14
267.603 0 14127.5 0 0 0 0 1.09771e-11 0 1.21354e+14
282.795 0 16672.6 0 0 0 0 9.3274e-12 0 1.43217e+14
298.848 0 19676.2 0 0 0 0 7.925e-12 0 1.69017e+14
315.813 0 23220.9 0 0 0 0 6.73295e-12 0 1.99466e+14
333.741 0 27404.3 0 0 0 0 5.71979e-12 0 2.35401e+14
352.686 0 32341.2 0 0 0 0 4.85874e-12 0 2.77809e+14
372.707 0 38167.6 0 0 0 0 4.12703e-12 0 3.27857e+14
393.865 0 45043.5 0 0 0 0 3.50528e-12 0 3.86921e+14
416.224 0 53158.3 0 0 0 0 2.97701e-12 0 4.56626e+14
439.852 0 62734.9 0 0 0 0 2.52819e-12 0 5.38888e+14
464.821 0 74036.7 0 0 0 0 2.1469e-12 0 6.35971e+14
491.207 0 87374.6 0 0 0 0 1.82301e-12 0 7.50542e+14
519.092 0 103115 0 0 0 0 1.54789e-12 0 8.85755e+14
548.56 0 121692 0 0 0 0 1.31422e-12 0 1.04533e+15
579.7 0 143615 0 0 0 0 1.11576e-12 0 1.23364e+15
612.608 0 169488 0 0 0 0 9.47223e-13 0 1.45589e+15
647.384 0 200021 0 0 0 0 8.041e-13 0 1.71817e+15
684.134 0 236056 0 0 0 0 6.82568e-13 0 2.0277e+15
722.971 0 278582 0 0 0 0 5.79376e-13 0 2.393e+15
764.012 0 328769 0 0 0 0 4.91762e-13 0 2.8241e+15
