0.121381
200
1.0655e+09
8589934592
0.0129181 0 1.58924e-09 0 0 0 0 0.00677225 0 13.6515
0.0136515 0 1.87554e-09 0 0 0 0 0.00688819 0 16.1108
0.0144264 0 2.21343e-09 0 0 0 0 0.00699249 0 19.0132
0.0152454 0 2.61218e-09 0 0 0 0 0.00708412 0 22.4385
0.0161108 0 3.08278e-09 0 0 0 0 0.00716212 0 26.4808
0.0170254 0 3.63815e-09 0 0 0 0 0.00722559 0 31.2514
0.0179919 0 4.29357e-09 0 0 0 0 0.00727371 0 36.8815
0.0190132 0 5.06707e-09 0 0 0 0 0.00730578 0 43.5258
0.0200925 0 5.97991e-09 0 0 0 0 0.00732122 0 51.367
0.0212331 0 7.05721e-09 0 0 0 0 0.00731958 0 60.621
0.0224385 0 8.32858e-09 0 0 0 0 0.00730056 0 71.542
0.0237123 0 9.829e-09 0 0 0 0 0.00726401 0 84.4305
0.0250583 0 1.15997e-08 0 0 0 0 0.00720995 0 99.6408
0.0264808 0 1.36894e-08 0 0 0 0 0.00713857 0 117.591
0.0279841 0 1.61556e-08 0 0 0 0 0.00705021 0 138.776
0.0295727 0 1.90661e-08 0 0 0 0 0.00694538 0 163.777
0.0312514 0 2.25009e-08 0 0 0 0 0.00682475 0 193.281
0.0330255 0 2.65545e-08 0 0 0 0 0.00668915 0 228.102
0.0349003 0 3.13384e-08 0 0 0 0 0.00653951 0 269.195
0.0368815 0 3.69841e-08 0 0 0 0 0.00637693 0 317.691
0.0389751 0 4.36469e-08 0 0 0 0 0.00620256 0 374.924
0.0411876 0 5.151e-08 0 0 0 0 0.00601767 0 442.467
0.0435258 0 6.07896e-08 0 0 0 0 0.00582358 0 522.179
0.0459966 0 7.1741e-08 0 0 0 0 0.00562166 0 616.251
0.0486077 0 8.46654e-08 0 0 0 0 0.0054133 0 727.27
0.051367 0 9.99181e-08 0 0 0 0 0.00519989 0 858.29
0.054283 0 1.17919e-07 0 0 0 0 0.0049828 0 1012.91
0.0573645 0 1.39162e-07 0 0 0 0 0.00476339 0 1195.39
0.060621 0 1.64232e-07 0 0 0 0 0.00454293 0 1410.75
0.0640622 0 1.93819e-07 0 0 0 0 0.00432265 0 1664.89
0.0676989 0 2.28736e-07 0 0 0 0 0.00410371 0 1964.83
0.071542 0 2.69944e-07 0 0 0 0 0.00388717 0 2318.8
0.0756032 0 3.18575e-07 0 0 0 0 0.00367401 0 2736.54
0.079895 0 3.75967e-07 0 0 0 0 0.0034651 0 3229.53
0.0844305 0 4.43698e-07 0 0 0 0 0.00326121 0 3811.34
0.0892234 0 5.23632e-07 0 0 0 0 0.00306301 0 4497.96
0.0942883 0 6.17966e-07 0 0 0 0 0.00287109 0 5308.28
0.0996408 0 7.29294e-07 0 0 0 0 0.00268591 0 6264.59
0.105297 0 8.60678e-07 0 0 0 0 0.00250785 0 7393.17
0.111275 0 1.01573e-06 0 0 0 0 0.00233721 0 8725.07
0.117591 0 1.19872e-06 0 0 0 0 0.00217419 0 10296.9
0.124267 0 1.41467e-06 0 0 0 0 0.00201893 0 12151.9
0.131321 0 1.66953e-06 0 0 0 0 0.00187147 0 14341.1
0.138776 0 1.9703e-06 0 0 0 0 0.00173182 0 16924.7
0.146654 0 2.32525e-06 0 0 0 0 0.00159991 0 19973.8
0.154979 0 2.74415e-06 0 0 0 0 0.00147563 0 23572.1
0.163777 0 3.23852e-06 0 0 0 0 0.00135884 0 27818.7
0.173074 0 3.82195e-06 0 0 0 0 0.00124933 0 32830.3
0.182899 0 4.51048e-06 0 0 0 0 0.00114689 0 38744.7
0.193281 0 5.32305e-06 0 0 0 0 0.00105127 0 45724.7
0.204254 0 6.28202e-06 0 0 0 0 0.000962209 0 53962.1
0.215848 0 7.41374e-06 0 0 0 0 0.000879423 0 63683.5
0.228102 0 8.74934e-06 0 0 0 0 0.000802624 0 75156.3
0.24105 0 1.03256e-05 0 0 0 0 0.000731515 0 88695.9
0.254734 0 1.21857e-05 0 0 0 0 0.000665798 0 104675
0.269195 0 1.4381e-05 0 0 0 0 0.000605173 0 123532
0.284476 0 1.69718e-05 0 0 0 0 0.000549345 0 145787
0.300625 0 2.00293e-05 0 0 0 0 0.000498021 0 172051
0.317691 0 2.36377e-05 0 0 0 0 0.000450916 0 203046
0.335725 0 2.78961e-05 0 0 0 0 0.000407755 0 239625
0.354784 0 3.29216e-05 0 0 0 0 0.000368269 0 282795
0.374924 0 3.88525e-05 0 0 0 0 0.000332202 0 333741
0.396207 0.478866 4.58519e-05 1.21581e-06 6 0.465553 1.18201e-06 0.000299307 0.0243726 393865
0.418699 0 5.41123e-05 0 0 0 0 0.00026935 0 464821
0.442467 0 6.38607e-05 0 0 0 0 0.000242108 0 548560
0.467585 0 7.53654e-05 0 0 0 0 0.00021737 0 647384
0.494129 0 8.89427e-05 0 0 0 0 0.000194938 0 764012
0.522179 0 0.000104966 0 0 0 0 0.000174625 0 901651
0.551822 0 0.000123876 0 0 0 0 0.000156255 0 1.06409e+06
0.583147 5.04357 0.000146192 4.01627e-06 12 5.30838 4.22715e-06 0.000139664 0.34508 1.25578e+06
0.616251 0 0.000172529 0 0 0 0 0.0001247 0 1.48202e+06
0.651234 0 0.000203611 0 0 0 0 0.00011122 0 1.74901e+06
0.688203 22.4213 0.000240292 1.08626e-05 8 21.8635 1.05923e-05 9.90935e-05 0.876955 2.06409e+06
0.72727 0 0.000283581 0 0 0 0 8.81969e-05 0 2.43595e+06
0.768555 0 0.000334669 0 0 0 0 7.84179e-05 0 2.87479e+06
0.812184 0.150459 0.000394961 4.4348e-08 6 0.153676 4.52961e-08 6.96525e-05 0.00382022 3.39269e+06
0.85829 0 0.000466114 0 0 0 0 6.1805e-05 0 4.00389e+06
0.907013 0.160178 0.000550086 3.38986e-08 24 0.163251 3.4549e-08 5.47875e-05 0.0148495 4.7252e+06
0.958501 1.0016 0.000649185 1.79613e-07 24 0.942937 1.69092e-07 4.85194e-05 0.0888451 5.57646e+06
1.01291 0 0.000766138 0 0 0 0 4.29272e-05 0 6.58107e+06
1.07041 0 0.00090416 0 0 0 0 3.79435e-05 0 7.76667e+06
1.13118 1.63275 0.00106705 1.78134e-07 12 1.6127 1.75946e-07 3.3507e-05 0.0637959 9.16586e+06
1.19539 0.748185 0.00125928 6.91668e-08 30 0.732761 6.77409e-08 2.9562e-05 0.0701916 1.08171e+07
1.26325 6.07011 0.00148614 4.75496e-07 24 5.97877 4.68341e-07 2.60578e-05 0.437946 1.27658e+07
1.33496 17.7148 0.00175387 1.17584e-06 24 17.7538 1.17843e-06 2.29484e-05 1.22972 1.50656e+07
1.41075 5.91648 0.00206984 3.32765e-07 32 6.08701 3.42356e-07 2.01923e-05 0.527353 1.77798e+07
1.49083 0.435306 0.00244272 2.07458e-08 48 0.426026 2.03035e-08 1.77518e-05 0.0560958 2.09828e+07
1.57546 0.0427835 0.00288279 1.72772e-09 6 0.0407395 1.64518e-09 1.55929e-05 0.000664813 2.4763e+07
1.66489 0.47211 0.00340213 1.61548e-08 84 0.4558 1.55967e-08 1.3685e-05 0.0991599 2.92241e+07
1.75941 2.31739 0.00401503 6.71925e-08 48 2.33505 6.77045e-08 1.20007e-05 0.268755 3.44889e+07
1.85928 0.262415 0.00473835 6.44721e-09 72 0.263948 6.48486e-09 1.05151e-05 0.0441459 4.07021e+07
1.96483 0.725886 0.00559198 1.51117e-08 54 0.711664 1.48156e-08 9.20606e-06 0.0886407 4.80347e+07
2.07637 8.02835 0.00659939 1.41623e-07 104 8.01275 1.41348e-07 8.05366e-06 1.82883 5.66883e+07
2.19424 0.306682 0.00778828 4.58412e-09 120 0.308539 4.61189e-09 7.04008e-06 0.0781376 6.69008e+07
2.3188 1.66068 0.00919136 2.10337e-08 156 1.57953 2.00059e-08 6.1494e-06 0.53359 7.89532e+07
2.45043 0.647614 0.0108472 6.95038e-09 126 0.642963 6.90046e-09 5.36741e-06 0.16316 9.31768e+07
2.58954 0.626175 0.0128014 5.69442e-09 192 0.636046 5.78419e-09 4.68145e-06 0.233545 1.09963e+08
2.73654 3.97321 0.0151076 3.06166e-08 152 4.12496 3.1786e-08 4.08023e-06 1.14055 1.29773e+08
2.89188 3.33577 0.0178292 2.17808e-08 378 3.41076 2.22704e-08 3.55373e-06 2.31676 1.53152e+08
3.05605 1.21722 0.0210412 6.73454e-09 264 1.19535 6.61354e-09 3.09304e-06 0.574813 1.80743e+08
3.22953 0.243224 0.0248319 1.14027e-09 366 0.240652 1.12821e-09 2.69025e-06 0.15513 2.13304e+08
3.41286 0.735797 0.0293054 2.92295e-09 428 0.704415 2.79828e-09 2.33837e-06 0.534996 2.51731e+08
3.6066 2.97029 0.0345848 9.99823e-09 486 2.87138 9.66528e-09 2.0312e-06 2.39225 2.97081e+08
3.81134 0.780013 0.0408154 2.22479e-09 600 0.776762 2.21551e-09 1.76327e-06 0.757045 3.50601e+08
4.0277 0.565626 0.0481684 1.36703e-09 738 0.555068 1.34151e-09 1.52972e-06 0.65951 4.13763e+08
4.25634 1.14211 0.056846 2.33894e-09 824 1.18383 2.42437e-09 1.32631e-06 1.45312 4.88304e+08
4.49796 2.44716 0.067087 4.24653e-09 954 2.46476 4.27707e-09 1.14926e-06 3.52505 5.76273e+08
4.7533 0.577706 0.0791729 8.49456e-10 1094 0.56832 8.35654e-10 9.95263e-07 0.933728 6.8009e+08
5.02313 0.349976 0.0934361 4.36047e-10 1332 0.350682 4.36926e-10 8.61414e-07 0.674258 8.0261e+08
5.30828 2.07462 0.110269 2.19026e-09 1614 2.0989 2.2159e-09 7.45152e-07 4.74411 9.47202e+08
5.60962 1.06358 0.130134 9.51455e-10 1850 1.03251 9.23659e-10 6.44232e-07 2.73223 1.11784e+09
5.92807 1.37998 0.153578 1.04605e-09 2238 1.3257 1.0049e-09 5.56685e-07 4.20535 1.31923e+09
6.26459 0.728511 0.181246 4.67927e-10 2546 0.738223 4.74166e-10 4.80786e-07 2.47791 1.55689e+09
6.62021 0.347686 0.213898 1.89231e-10 3264 0.347161 1.88945e-10 4.15026e-07 1.48822 1.83737e+09
6.99602 1.39854 0.252432 6.44972e-10 3506 1.44015 6.64162e-10 3.58083e-07 6.31494 2.16837e+09
7.39317 0.736476 0.297908 2.87797e-10 4506 0.744642 2.90988e-10 3.08803e-07 4.19948 2.55901e+09
7.81286 1.18139 0.351577 3.91184e-10 5018 1.21412 4.02022e-10 2.66181e-07 7.37455 3.02002e+09
8.25637 1.1001 0.414914 3.08662e-10 5852 1.06322 2.98314e-10 2.29336e-07 7.87617 3.56409e+09
8.72507 0.802067 0.489662 1.90688e-10 7362 0.794969 1.89001e-10 1.97503e-07 7.10798 4.20617e+09
9.22037 1.0802 0.577876 2.1761e-10 8306 1.06869 2.15292e-10 1.70014e-07 10.6313 4.96392e+09
9.74378 0.551677 0.681982 9.4172e-11 9698 0.552053 9.42361e-11 1.46289e-07 6.24298 5.85818e+09
10.2969 1.12673 0.804843 1.62973e-10 11816 1.13857 1.64686e-10 1.25822e-07 15.3049 6.91355e+09
10.8814 1.01794 0.949838 1.24762e-10 13682 1.01801 1.24771e-10 1.08175e-07 15.7799 8.15905e+09
11.4992 1.01287 1.12095 1.0519e-10 16152 1.00092 1.03949e-10 9.29669e-08 18.2757 9.62892e+09
12.1519 1.0625 1.3229 9.35006e-11 19472 1.04631 9.2076e-11 7.98658e-08 22.7963 1.13636e+10
12.8418 0.774216 1.56122 5.77309e-11 22670 0.77666 5.79131e-11 6.85852e-08 19.0822 1.34108e+10
13.5708 1.13124 1.84248 7.14765e-11 26224 1.13946 7.19957e-11 5.88765e-08 31.8361 1.58268e+10
14.3411 1.13141 2.17441 6.05747e-11 31640 1.13911 6.09867e-11 5.05241e-08 37.934 1.8678e+10
15.1552 1.28722 2.56613 5.83962e-11 37484 1.29008 5.85261e-11 4.33417e-08 50.5039 2.20429e+10
16.0156 1.32549 3.02843 5.09528e-11 43856 1.33055 5.11474e-11 3.71677e-08 60.1217 2.6014e+10
16.9247 1.83873 3.574 5.98926e-11 51362 1.83581 5.97975e-11 3.18628e-08 96.5452 3.07005e+10
17.8855 1.99112 4.21787 5.49559e-11 61636 1.97859 5.46101e-11 2.73063e-08 124.047 3.62312e+10
18.9008 2.58787 4.97773 6.05232e-11 72218 2.57527 6.02283e-11 2.33941e-08 186.836 4.27584e+10
19.9738 3.30698 5.87448 6.55348e-11 84586 3.28945 6.51874e-11 2.00364e-08 276.663 5.04614e+10
21.1076 4.12033 6.93279 6.91885e-11 100708 4.11115 6.90344e-11 1.71555e-08 406.157 5.95522e+10
22.3058 5.0415 8.18175 7.17338e-11 118712 5.03324 7.16163e-11 1.46847e-08 579.902 7.02807e+10
23.5721 6.19776 9.65571 7.4724e-11 140410 6.18226 7.45373e-11 1.25662e-08 834.941 8.29419e+10
24.9102 7.21575 11.3952 7.37172e-11 164374 7.18894 7.34434e-11 1.07504e-08 1127.14 9.78842e+10
26.3243 8.49409 13.4481 7.35303e-11 194680 8.46112 7.32449e-11 9.19452e-09 1556.89 1.15518e+11
27.8187 9.9062 15.8708 7.26638e-11 230196 9.87412 7.24285e-11 7.86182e-09 2127.61 1.36329e+11
29.3979 11.6219 18.73 7.22355e-11 271156 11.5833 7.19955e-11 6.72061e-09 2914.48 1.60889e+11
31.0667 13.4677 22.1042 7.09297e-11 321076 13.4236 7.06974e-11 5.74366e-09 3965.04 1.89874e+11
32.8303 15.5159 26.0864 6.92424e-11 377436 15.4679 6.90286e-11 4.90756e-09 5325.37 2.2408e+11
34.694 18.0094 30.7859 6.81017e-11 447594 17.9532 6.78892e-11 4.19221e-09 7271.09 2.64449e+11
36.6634 20.8312 36.3321 6.67476e-11 525078 20.7642 6.65329e-11 3.58032e-09 9788.97 3.1209e+11
38.7447 24.1588 42.8774 6.55931e-11 621924 24.0853 6.53934e-11 3.05709e-09 13344.1 3.68314e+11
40.9442 28.2327 50.6018 6.49525e-11 732630 28.1464 6.4754e-11 2.60976e-09 18233.9 4.34667e+11
43.2685 33.1288 59.7179 6.45819e-11 865596 33.0226 6.4375e-11 2.22743e-09 25097 5.12973e+11
45.7247 38.8706 70.4762 6.42078e-11 1.02168e+06 38.7448 6.40001e-11 1.90073e-09 34512.8 6.05386e+11
48.3204 45.5679 83.1727 6.37806e-11 1.20544e+06 45.422 6.35764e-11 1.62163e-09 47411.1 7.14448e+11
51.0634 53.4526 98.1565 6.33957e-11 1.42103e+06 53.2803 6.31913e-11 1.38326e-09 65126.9 8.43158e+11
53.9621 62.7232 115.84 6.30349e-11 1.67997e+06 62.5211 6.28318e-11 1.1797e-09 89765.5 9.95055e+11
57.0254 73.6476 136.709 6.27152e-11 1.98018e+06 73.4115 6.25142e-11 1.00592e-09 123457 1.17432e+12
60.2626 86.3772 161.337 6.23269e-11 2.33957e+06 86.0992 6.21263e-11 8.57591e-10 170032 1.38587e+12
63.6835 101.496 190.402 6.20564e-11 2.75676e+06 101.165 6.18539e-11 7.3101e-10 234025 1.63554e+12
67.2987 119.237 224.704 6.17746e-11 3.25638e+06 118.862 6.15803e-11 6.23009e-10 322887 1.93019e+12
71.1191 140.339 265.185 6.16083e-11 3.84387e+06 139.89 6.14112e-11 5.30879e-10 446080 2.27792e+12
75.1563 165.099 312.958 6.14139e-11 4.53277e+06 164.559 6.12131e-11 4.52303e-10 615461 2.68829e+12
79.4227 194.084 369.339 6.11751e-11 5.35083e+06 193.457 6.09775e-11 3.85299e-10 849566 3.17259e+12
83.9313 228.603 435.876 6.10562e-11 6.32174e+06 227.852 6.08556e-11 3.28173e-10 1.17615e+06 3.74415e+12
88.6959 269.365 514.4 6.09606e-11 7.44986e+06 268.485 6.07616e-11 2.79476e-10 1.625e+06 4.41866e+12
93.7309 317.223 607.071 6.08324e-11 8.79764e+06 316.184 6.06333e-11 2.37972e-10 2.24892e+06 5.2147e+12
99.0518 373.848 716.436 6.07474e-11 1.03827e+07 372.625 6.05486e-11 2.02605e-10 3.11306e+06 6.15414e+12
104.675 440.773 845.504 6.06889e-11 1.22515e+07 439.32 6.04889e-11 1.72471e-10 4.31105e+06 7.26283e+12
110.617 519.56 997.824 6.06166e-11 1.44573e+07 517.861 6.04184e-11 1.468e-10 5.96971e+06 8.57124e+12
116.896 613.35 1177.58 6.06354e-11 1.70664e+07 611.33 6.04357e-11 1.24935e-10 8.28295e+06 1.01154e+13
123.532 723.955 1389.73 6.06445e-11 2.0139e+07 721.546 6.04427e-11 1.06313e-10 1.14879e+07 1.19377e+13
130.545 871.204 1640.09 6.18388e-11 2.37643e+07 869.097 6.16893e-11 9.04567e-11 1.6246e+07 1.40883e+13
137.955 1007.74 1935.56 6.06113e-11 2.80503e+07 1004.39 6.04095e-11 7.69563e-11 2.20926e+07 1.66263e+13
145.787 1189.1 2284.26 6.06014e-11 3.30981e+07 1185.16 6.04007e-11 6.54636e-11 3.06398e+07 1.96216e+13
154.063 1407.41 2695.77 6.07782e-11 3.90634e+07 1402.71 6.05753e-11 5.56812e-11 4.26393e+07 2.31565e+13
162.808 1657.91 3181.42 6.06666e-11 4.61057e+07 1652.36 6.04635e-11 4.73556e-11 5.90653e+07 2.73282e+13
172.051 1958.41 3754.56 6.07232e-11 5.44046e+07 1951.88 6.05206e-11 4.02708e-11 8.20351e+07 3.22515e+13
181.818 2323.3 4430.96 6.10405e-11 6.42064e+07 2315.72 6.08413e-11 3.42426e-11 1.14454e+08 3.80616e+13
192.139 2736.86 5229.21 6.09294e-11 7.57748e+07 2727.67 6.07248e-11 2.91139e-11 1.58581e+08 4.49186e+13
203.046 3244.74 6171.26 6.1209e-11 8.94213e+07 3233.59 6.09987e-11 2.4751e-11 2.21138e+08 5.30108e+13
214.572 3832.65 7283.03 6.12628e-11 1.05538e+08 3819.69 6.10557e-11 2.10401e-11 3.07298e+08 6.25608e+13
226.753 4544.7 8595.09 6.15552e-11 1.24552e+08 4529.05 6.13433e-11 1.78839e-11 4.28699e+08 7.38313e+13
239.625 5385.65 10143.5 6.18101e-11 1.46987e+08 5367.2 6.15983e-11 1.51999e-11 5.9772e+08 8.71322e+13
253.228 6398.23 11970.9 6.22218e-11 1.7347e+08 6376.22 6.20078e-11 1.29176e-11 8.35574e+08 1.02829e+14
267.603 7616.77 14127.5 6.27647e-11 2.04703e+08 7590.27 6.25464e-11 1.09771e-11 1.17044e+09 1.21354e+14
282.795 9094.88 16672.6 6.35044e-11 2.4161e+08 9062.87 6.32809e-11 9.3274e-12 1.64497e+09 1.43217e+14
298.848 10900.9 19676.2 6.44956e-11 2.85122e+08 10861.8 6.42644e-11 7.925e-12 2.32039e+09 1.69017e+14
315.813 13140.9 23220.9 6.58803e-11 3.36491e+08 13092.8 6.56394e-11 6.73295e-12 3.29249e+09 1.99466e+14
333.741 15954.6 27404.3 6.77763e-11 3.97115e+08 15893.9 6.75186e-11 5.71979e-12 4.70559e+09 2.35401e+14
352.686 19583.4 32341.2 7.04922e-11 4.68637e+08 19505.4 7.02118e-11 4.85874e-12 6.79914e+09 2.77809e+14
372.707 24396.6 38167.6 7.44122e-11 5.53074e+08 24294 7.40994e-11 4.12703e-12 9.97218e+09 3.27857e+14
393.865 31039.9 45043.5 8.02229e-11 6.52716e+08 30899.1 7.98589e-11 3.50528e-12 1.49382e+10 3.86921e+14
416.224 36627.3 53158.3 8.02128e-11 2.2184e+08 38748.3 8.48578e-11 2.97701e-12 5.97727e+09 4.56626e+14
439.852 0 62734.9 0 0 0 0 2.52819e-12 0 5.38888e+14
464.821 0 74036.7 0 0 0 0 2.1469e-12 0 6.35971e+14
491.207 0 87374.6 0 0 0 0 1.82301e-12 0 7.50542e+14
519.092 0 103115 0 0 0 0 1.54789e-12 0 8.85755e+14
548.56 0 121692 0 0 0 0 1.31422e-12 0 1.04533e+15
579.7 0 143615 0 0 0 0 1.11576e-12 0 1.23364e+15
612.608 0 169488 0 0 0 0 9.47223e-13 0 1.45589e+15
647.384 0 200021 0 0 0 0 8.041e-13 0 1.71817e+15
684.134 0 236056 0 0 0 0 6.82568e-13 0 2.0277e+15
722.971 0 278582 0 0 0 0 5.79376e-13 0 2.393e+15
764.012 0 328769 0 0 0 0 4.91762e-13 0 2.8241e+15
0.121381
200
1.0655e+09
8589934592
0.0129181 4.76647e-05 1.58924e-09 3.49155e-06 6 4.72283e-05 3.45958e-06 0.00677225 0.0030934 13.6515
0.0136515 0 1.87554e-09 0 0 0 0 0.00688819 0 16.1108
0.0144264 0 2.21343e-09 0 0 0 0 0.00699249 0 19.0132
0.0152454 0 2.61218e-09 0 0 0 0 0.00708412 0 22.4385
0.0161108 0 3.08278e-09 0 0 0 0 0.00716212 0 26.4808
0.0170254 0 3.63815e-09 0 0 0 0 0.00722559 0 31.2514
0.0179919 0.000105894 4.29357e-09 2.87121e-06 12 0.000105758 2.86751e-06 0.00727371 0.00473685 36.8815
0.0190132 0 5.06707e-09 0 0 0 0 0.00730578 0 43.5258
0.0200925 0 5.97991e-09 0 0 0 0 0.00732122 0 51.367
0.0212331 0.000100246 7.05721e-09 1.65366e-06 8 0.000100159 1.65222e-06 0.00731958 0.00180738 60.621
0.0224385 0 8.32858e-09 0 0 0 0 0.00730056 0 71.542
0.0237123 0 9.829e-09 0 0 0 0 0.00726401 0 84.4305
0.0250583 0.000645521 1.15997e-08 6.47848e-06 6 0.000645217 6.47543e-06 0.00720995 0.00539128 99.6408
0.0264808 0 1.36894e-08 0 0 0 0 0.00713857 0 117.591
0.0279841 0.000402695 1.61556e-08 2.90177e-06 24 0.000402281 2.89879e-06 0.00705021 0.00987806 138.776
0.0295727 0 1.90661e-08 0 0 0 0 0.00694538 0 163.777
0.0312514 0.000721165 2.25009e-08 3.73116e-06 24 0.000724826 3.75011e-06 0.00682475 0.0131211 193.281
0.0330255 0 2.65545e-08 0 0 0 0 0.00668915 0 228.102
0.0349003 0.00101078 3.13384e-08 3.75484e-06 12 0.00100269 3.72477e-06 0.00653951 0.00689012 269.195
0.0368815 0.000877949 3.69841e-08 2.76353e-06 30 0.0008686 2.7341e-06 0.00637693 0.0130009 317.691
0.0389751 0.00104895 4.36469e-08 2.79777e-06 24 0.00103816 2.76898e-06 0.00620256 0.0108256 374.924
0.0411876 0.000665316 5.151e-08 1.50365e-06 24 0.000660797 1.49344e-06 0.00601767 0.00599694 442.467
0.0435258 0.00143155 6.07896e-08 2.74149e-06 8 0.00143144 2.74127e-06 0.00582358 0.00376605 522.179
0.0459966 0.00183565 7.1741e-08 2.97874e-06 72 0.00182112 2.95517e-06 0.00562166 0.0381506 616.251
0.0486077 0 8.46654e-08 0 0 0 0 0.0054133 0 727.27
0.051367 0.00275638 9.99181e-08 3.21148e-06 54 0.00274766 3.20132e-06 0.00519989 0.0333507 858.29
0.054283 0.00214021 1.17919e-07 2.11292e-06 60 0.0021491 2.12171e-06 0.0049828 0.0254426 1012.91
0.0573645 0.0021333 1.39162e-07 1.7846e-06 96 0.00212783 1.78002e-06 0.00476339 0.0359664 1195.39
0.060621 0.00246001 1.64232e-07 1.74377e-06 24 0.00242668 1.72014e-06 0.00454293 0.00921223 1410.75
0.0640622 0.00433276 1.93819e-07 2.60242e-06 134 0.00433513 2.60385e-06 0.00432265 0.0806738 1664.89
0.0676989 0.00414964 2.28736e-07 2.11196e-06 120 0.00413067 2.1023e-06 0.00410371 0.0617575 1964.83
0.071542 0.0037841 2.69944e-07 1.63192e-06 108 0.00374317 1.61427e-06 0.00388717 0.0453407 2318.8
0.0756032 0.00549355 3.18575e-07 2.00748e-06 174 0.005465 1.99705e-06 0.00367401 0.0950737 2736.54
0.079895 0.00587772 3.75967e-07 1.81999e-06 168 0.00582226 1.80282e-06 0.0034651 0.0882396 3229.53
0.0844305 0.00503172 4.43698e-07 1.3202e-06 168 0.00505685 1.32679e-06 0.00326121 0.0680095 3811.34
0.0892234 0.00566769 5.23632e-07 1.26006e-06 290 0.00564391 1.25477e-06 0.00306301 0.1193 4497.96
0.0942883 0.00738465 6.17966e-07 1.39116e-06 288 0.00736579 1.3876e-06 0.00287109 0.139547 5308.28
0.0996408 0.00675373 7.29294e-07 1.07808e-06 366 0.00669645 1.06894e-06 0.00268591 0.146906 6264.59
0.105297 0.00731871 8.60678e-07 9.89929e-07 420 0.00726806 9.83078e-07 0.00250785 0.165787 7393.17
0.111275 0.00774473 1.01573e-06 8.87641e-07 398 0.00772367 8.85227e-07 0.00233721 0.151155 8725.07
0.117591 0.00921439 1.19872e-06 8.9487e-07 624 0.0092332 8.96696e-07 0.00217419 0.25683 10296.9
0.124267 0.0101572 1.41467e-06 8.35851e-07 642 0.0101448 8.34829e-07 0.00201893 0.265793 12151.9
0.131321 0.0128726 1.66953e-06 8.97598e-07 800 0.0128773 8.9793e-07 0.00187147 0.383698 14341.1
0.138776 0.011679 1.9703e-06 6.90055e-07 858 0.0117355 6.93392e-07 0.00173182 0.341876 16924.7
0.146654 0.0125862 2.32525e-06 6.30137e-07 1080 0.0126913 6.35396e-07 0.00159991 0.425367 19973.8
0.154979 0.0149173 2.74415e-06 6.32837e-07 1286 0.0150204 6.37211e-07 0.00147563 0.551511 23572.1
0.163777 0.0141887 3.23852e-06 5.10044e-07 1650 0.0142135 5.10932e-07 0.00135884 0.619331 27818.7
0.173074 0.0167562 3.82195e-06 5.1039e-07 1778 0.016758 5.10444e-07 0.00124933 0.726367 32830.3
0.182899 0.0163788 4.51048e-06 4.22737e-07 2112 0.0164177 4.23741e-07 0.00114689 0.77847 38744.7
0.193281 0.0192154 5.32305e-06 4.20241e-07 2570 0.0192444 4.20875e-07 0.00105127 1.02735 45724.7
0.204254 0.0212508 6.28202e-06 3.93809e-07 3030 0.0212425 3.93656e-07 0.000962209 1.24011 53962.1
0.215848 0.021162 7.41374e-06 3.32299e-07 3434 0.0211584 3.32242e-07 0.000879423 1.29757 63683.5
0.228102 0.022204 8.74934e-06 2.95438e-07 4218 0.0222087 2.955e-07 0.000802624 1.55261 75156.3
0.24105 0.0251282 1.03256e-05 2.83308e-07 4766 0.0251521 2.83577e-07 0.000731515 1.84582 88695.9
0.254734 0.0267701 1.21857e-05 2.55745e-07 6026 0.0267624 2.55672e-07 0.000665798 2.3147 104675
0.269195 0.0279438 1.4381e-05 2.26207e-07 6480 0.027931 2.26103e-07 0.000605173 2.42215 123532
0.284476 0.0303304 1.69718e-05 2.08047e-07 8162 0.0303998 2.08523e-07 0.000549345 3.09109 145787
0.300625 0.0306199 2.00293e-05 1.7797e-07 9578 0.0306588 1.78196e-07 0.000498021 3.42275 172051
0.317691 0.0339988 2.36377e-05 1.67444e-07 11234 0.0339749 1.67326e-07 0.000450916 4.17165 203046
0.335725 0.0355421 2.78961e-05 1.48323e-07 13344 0.0355268 1.4826e-07 0.000407755 4.85397 239625
0.354784 0.0368978 3.29216e-05 1.30476e-07 15464 0.0368754 1.30396e-07 0.000368269 5.4788 282795
0.374924 0.0396725 3.88525e-05 1.18872e-07 18458 0.0396663 1.18854e-07 0.000332202 6.60485 333741
0.396207 0.0415549 4.58519e-05 1.05505e-07 22232 0.0414951 1.05354e-07 0.000299307 7.83676 393865
0.418699 0.0449991 5.41123e-05 9.68096e-08 25628 0.0449075 9.66124e-08 0.00026935 9.2112 464821
0.442467 0.04684 6.38607e-05 8.53872e-08 30320 0.0467602 8.52418e-08 0.000242108 10.6933 548560
0.467585 0.0490921 7.53654e-05 7.58315e-08 35452 0.049021 7.57217e-08 0.00021737 12.3677 647384
0.494129 0.0508977 8.89427e-05 6.66189e-08 41792 0.0508793 6.65949e-08 0.000194938 14.2822 764012
0.522179 0.055054 0.000104966 6.10591e-08 49988 0.0550389 6.10423e-08 0.000174625 17.4787 901651
0.551822 0.0575506 0.000123876 5.40846e-08 59110 0.0575144 5.40505e-08 0.000156255 20.4598 1.06409e+06
0.583147 0.0606956 0.000146192 4.83329e-08 69716 0.0606237 4.82756e-08 0.000139664 24.1263 1.25578e+06
0.616251 0.0640737 0.000172529 4.32341e-08 82210 0.0639731 4.31663e-08 0.0001247 28.5026 1.48202e+06
0.651234 0.0677328 0.000203611 3.87265e-08 96722 0.0676105 3.86566e-08 0.00011122 33.6782 1.74901e+06
0.688203 0.0711752 0.000240292 3.44826e-08 113098 0.0711119 3.44519e-08 9.90935e-05 39.3559 2.06409e+06
0.72727 0.0739072 0.000283581 3.03403e-08 135190 0.0738315 3.03092e-08 8.81969e-05 46.5062 2.43595e+06
0.768555 0.0785045 0.000334669 2.73079e-08 158170 0.078436 2.72841e-08 7.84179e-05 55.0804 2.87479e+06
0.812184 0.0820851 0.000394961 2.41947e-08 188560 0.0820055 2.41712e-08 6.96525e-05 65.4987 3.39269e+06
0.85829 0.0857974 0.000466114 2.14285e-08 220444 0.0857008 2.14044e-08 6.1805e-05 76.4305 4.00389e+06
0.907013 0.0903337 0.000550086 1.91174e-08 261388 0.0902445 1.90985e-08 5.47875e-05 91.2082 4.7252e+06
0.958501 0.0944926 0.000649185 1.69449e-08 308244 0.0943917 1.69268e-08 4.85194e-05 107.651 5.57646e+06
1.01291 0.0997048 0.000766138 1.51502e-08 364396 0.099594 1.51334e-08 4.29272e-05 128.606 6.58107e+06
1.07041 0.104128 0.00090416 1.3407e-08 429162 0.104002 1.33908e-08 3.79435e-05 151.641 7.76667e+06
1.13118 0.109735 0.00106705 1.19722e-08 506358 0.109604 1.19579e-08 3.3507e-05 180.923 9.16586e+06
1.19539 0.114557 0.00125928 1.05904e-08 598590 0.114413 1.05771e-08 2.9562e-05 214.441 1.08171e+07
1.26325 0.120295 0.00148614 9.42316e-09 704844 0.120143 9.41129e-09 2.60578e-05 254.889 1.27658e+07
1.33496 0.125822 0.00175387 8.35156e-09 834620 0.125661 8.34087e-09 2.29484e-05 303.741 1.50656e+07
1.41075 0.131696 0.00206984 7.4071e-09 981444 0.13154 7.39828e-09 2.01923e-05 360.021 1.77798e+07
1.49083 0.138039 0.00244272 6.57864e-09 1.15998e+06 0.13786 6.57013e-09 1.77518e-05 429.877 2.09828e+07
1.57546 0.145102 0.00288279 5.85965e-09 1.36931e+06 0.144914 5.85205e-09 1.55929e-05 514.574 2.4763e+07
1.66489 0.151962 0.00340213 5.19988e-09 1.61652e+06 0.151746 5.19249e-09 1.3685e-05 614.226 2.92241e+07
1.75941 0.159133 0.00401503 4.61403e-09 1.90601e+06 0.158914 4.6077e-09 1.20007e-05 732.822 3.44889e+07
1.85928 0.167014 0.00473835 4.10334e-09 2.24913e+06 0.166798 4.09802e-09 1.05151e-05 877.683 4.07021e+07
1.96483 0.174758 0.00559198 3.63816e-09 2.65744e+06 0.174513 3.63306e-09 9.20606e-06 1050.2 4.80347e+07
2.07637 0.183422 0.00659939 3.23563e-09 3.13125e+06 0.183172 3.23122e-09 8.05366e-06 1258.01 5.66883e+07
2.19424 0.192497 0.00778828 2.87734e-09 3.69915e+06 0.192236 2.87345e-09 7.04008e-06 1511.87 6.69008e+07
2.3188 0.201851 0.00919136 2.55659e-09 4.36472e+06 0.201563 2.55295e-09 6.1494e-06 1814.62 7.89532e+07
2.45043 0.212089 0.0108472 2.2762e-09 5.14913e+06 0.211792 2.27301e-09 5.36741e-06 2183.63 9.31768e+07
2.58954 0.223011 0.0128014 2.02806e-09 6.07894e+06 0.222691 2.02514e-09 4.68145e-06 2633.46 1.09963e+08
2.73654 0.234251 0.0151076 1.80508e-09 7.17304e+06 0.233918 1.80252e-09 4.08023e-06 3173.33 1.29773e+08
2.89188 0.246155 0.0178292 1.60726e-09 8.46557e+06 0.245802 1.60495e-09 3.55373e-06 3828.75 1.53152e+08
3.05605 0.258996 0.0210412 1.43296e-09 9.98773e+06 0.258643 1.431e-09 3.09304e-06 4627.15 1.80743e+08
3.22953 0.272704 0.0248319 1.27848e-09 1.1797e+07 0.272315 1.27665e-09 2.69025e-06 5606.25 2.13304e+08
3.41286 0.287432 0.0293054 1.14182e-09 1.39144e+07 0.287 1.14011e-09 2.33837e-06 6794.36 2.51731e+08
3.6066 0.302818 0.0345848 1.01931e-09 1.64163e+07 0.302376 1.01782e-09 2.0312e-06 8238.12 2.97081e+08
3.81134 0.319451 0.0408154 9.11151e-10 1.93821e+07 0.318977 9.09799e-10 1.76327e-06 10015.5 3.50601e+08
4.0277 0.337352 0.0481684 8.15325e-10 2.28754e+07 0.336842 8.14093e-10 1.52972e-06 12192.3 4.13763e+08
4.25634 0.356405 0.056846 7.29884e-10 2.69929e+07 0.355854 7.28756e-10 1.32631e-06 14854.5 4.88304e+08
4.49796 0.377103 0.067087 6.54383e-10 3.18542e+07 0.37651 6.53353e-10 1.14926e-06 18137.7 5.76273e+08
4.7533 0.39936 0.0791729 5.87216e-10 3.75892e+07 0.398731 5.86292e-10 9.95263e-07 22178 6.8009e+08
5.02313 0.423149 0.0934361 5.27216e-10 4.43706e+07 0.422475 5.26377e-10 8.61414e-07 27156.4 8.0261e+08
5.30828 0.448942 0.110269 4.73966e-10 5.23593e+07 0.448202 4.73185e-10 7.45152e-07 33303.9 9.47202e+08
5.60962 0.476924 0.130134 4.26646e-10 6.1787e+07 0.476145 4.25949e-10 6.44232e-07 40918.8 1.11784e+09
5.92807 0.507612 0.153578 3.8478e-10 7.29346e+07 0.506758 3.84133e-10 5.56685e-07 50412.3 1.31923e+09
6.26459 0.540656 0.181246 3.47267e-10 8.60651e+07 0.539727 3.4667e-10 4.80786e-07 62164 1.55689e+09
6.62021 0.577117 0.213898 3.141e-10 1.01558e+08 0.576112 3.13553e-10 4.15026e-07 76861.3 1.83737e+09
6.99602 0.617176 0.252432 2.84627e-10 1.1986e+08 0.616092 2.84127e-10 3.58083e-07 95272.1 2.16837e+09
7.39317 0.661178 0.297908 2.58372e-10 1.41457e+08 0.659994 2.5791e-10 3.08803e-07 118355 2.55901e+09
7.81286 0.709571 0.351577 2.34955e-10 1.66936e+08 0.708275 2.34526e-10 2.66181e-07 147353 3.02002e+09
8.25637 0.76313 0.414914 2.14117e-10 1.97025e+08 0.761717 2.1372e-10 2.29336e-07 183950 3.56409e+09
8.72507 0.822315 0.489662 1.95502e-10 2.32497e+08 0.820757 1.95132e-10 1.97503e-07 230141 4.20617e+09
9.22037 0.888876 0.577876 1.79067e-10 2.74404e+08 0.887146 1.78719e-10 1.70014e-07 289016 4.96392e+09
9.74378 0.964035 0.681982 1.64562e-10 3.2382e+08 0.962102 1.64232e-10 1.46289e-07 364269 5.85818e+09
10.2969 1.05163 0.804843 1.52111e-10 3.82165e+08 1.04942 1.51791e-10 1.25822e-07 462011 6.91355e+09
10.8814 1.15808 0.949838 1.41938e-10 4.51027e+08 1.15546 1.41618e-10 1.08175e-07 591796 8.15905e+09
11.4992 1.29584 1.12095 1.34577e-10 5.32251e+08 1.29256 1.34238e-10 9.29669e-08 770478 9.62892e+09
12.1519 1.48803 1.3229 1.30947e-10 6.28157e+08 1.48365 1.30562e-10 7.98658e-08 1.02992e+06 1.13636e+10
12.8418 1.69842 1.56122 1.26646e-10 3.82727e+08 1.7577 1.31066e-10 6.85852e-08 706725 1.34108e+10
13.5708 0 1.84248 0 0 0 0 5.88765e-08 0 1.58268e+10
14.3411 0 2.17441 0 0 0 0 5.05241e-08 0 1.8678e+10
15.1552 0 2.56613 0 0 0 0 4.33417e-08 0 2.20429e+10
16.0156 0 3.02843 0 0 0 0 3.71677e-08 0 2.6014e+10
16.9247 0 3.574 0 0 0 0 3.18628e-08 0 3.07005e+10
17.8855 0 4.21787 0 0 0 0 2.73063e-08 0 3.62312e+10
18.9008 0 4.97773 0 0 0 0 2.33941e-08 0 4.27584e+10
19.9738 0 5.87448 0 0 0 0 2.00364e-08 0 5.04614e+10
21.1076 0 6.93279 0 0 0 0 1.71555e-08 0 5.95522e+10
22.3058 0 8.18175 0 0 0 0 1.46847e-08 0 7.02807e+10
23.5721 0 9.65571 0 0 0 0 1.25662e-08 0 8.29419e+10
24.9102 0 11.3952 0 0 0 0 1.07504e-08 0 9.78842e+10
26.3243 0 13.4481 0 0 0 0 9.19452e-09 0 1.15518e+11
27.8187 0 15.8708 0 0 0 0 7.86182e-09 0 1.36329e+11
29.3979 0 18.73 0 0 0 0 6.72061e-09 0 1.60889e+11
31.0667 0 22.1042 0 0 0 0 5.74366e-09 0 1.89874e+11
32.8303 0 26.0864 0 0 0 0 4.90756e-09 0 2.2408e+11
34.694 0 30.7859 0 0 0 0 4.19221e-09 0 2.64449e+11
36.6634 0 36.3321 0 0 0 0 3.58032e-09 0 3.1209e+11
38.7447 0 42.8774 0 0 0 0 3.05709e-09 0 3.68314e+11
40.9442 0 50.6018 0 0 0 0 2.60976e-09 0 4.34667e+11
43.2685 0 59.7179 0 0 0 0 2.22743e-09 0 5.12973e+11
45.7247 0 70.4762 0 0 0 0 1.90073e-09 0 6.05386e+11
48.3204 0 83.1727 0 0 0 0 1.62163e-09 0 7.14448e+11
51.0634 0 98.1565 0 0 0 0 1.38326e-09 0 8.43158e+11
53.9621 0 115.84 0 0 0 0 1.1797e-09 0 9.95055e+11
57.0254 0 136.709 0 0 0 0 1.00592e-09 0 1.17432e+12
60.2626 0 161.337 0 0 0 0 8.57591e-10 0 1.38587e+12
63.6835 0 190.402 0 0 0 0 7.3101e-10 0 1.63554e+12
67.2987 0 224.704 0 0 0 0 6.23009e-10 0 1.93019e+12
71.1191 0 265.185 0 0 0 0 5.30879e-10 0 2.27792e+12
75.1563 0 312.958 0 0 0 0 4.52303e-10 0 2.68829e+12
79.4227 0 369.339 0 0 0 0 3.85299e-10 0 3.17259e+12
83.9313 0 435.876 0 0 0 0 3.28173e-10 0 3.74415e+12
88.6959 0 514.4 0 0 0 0 2.79476e-10 0 4.41866e+12
93.7309 0 607.071 0 0 0 0 2.37972e-10 0 5.2147e+12
99.0518 0 716.436 0 0 0 0 2.02605e-10 0 6.15414e+12
104.675 0 845.504 0 0 0 0 1.72471e-10 0 7.26283e+12
110.617 0 997.824 0 0 0 0 1.468e-10 0 8.57124e+12
116.896 0 1177.58 0 0 0 0 1.24935e-10 0 1.01154e+13
123.532 0 1389.73 0 0 0 0 1.06313e-10 0 1.19377e+13
130.545 0 1640.09 0 0 0 0 9.04567e-11 0 1.40883e+13
137.955 0 1935.56 0 0 0 0 7.69563e-11 0 1.66263e+13
145.787 0 2284.26 0 0 0 0 6.54636e-11 0 1.96216e+13
154.063 0 2695.77 0 0 0 0 5.56812e-11 0 2.31565e+13
162.808 0 3181.42 0 0 0 0 4.73556e-11 0 2.73282e+13
172.051 0 3754.56 0 0 0 0 4.02708e-11 0 3.22515e+13
181.818 0 4430.96 0 0 0 0 3.42426e-11 0 3.80616e+13
192.139 0 5229.21 0 0 0 0 2.91139e-11 0 4.49186e+13
203.046 0 6171.26 0 0 0 0 2.4751e-11 0 5.30108e+13
214.572 0 7283.03 0 0 0 0 2.10401e-11 0 6.25608e+13
226.753 0 8595.09 0 0 0 0 1.78839e-11 0 7.38313e+13
239.625 0 10143.5 0 0 0 0 1.51999e-11 0 8.71322e+13
253.228 0 11970.9 0 0 0 0 1.29176e-11 0 1.02829e+14
267.603 0 14127.5 0 0 0 0 1.09771e-11 0 1.21354e+14
282.795 0 16672.6 0 0 0 0 9.3274e-12 0 1.43217e+14
298.848 0 19676.2 0 0 0 0 7.925e-12 0 1.69017e+14
315.813 0 23220.9 0 0 0 0 6.73295e-12 0 1.99466e+14
333.741 0 27404.3 0 0 0 0 5.71979e-12 0 2.35401e+14
352.686 0 32341.2 0 0 0 0 4.85874e-12 0 2.77809e+14
372.707 0 38167.6 0 0 0 0 4.12703e-12 0 3.27857e+14
393.865 0 45043.5 0 0 0 0 3.50528e-12 0 3.86921e+14
416.224 0 53158.3 0 0 0 0 2.97701e-12 0 4.56626e+14
439.852 0 62734.9 0 0 0 0 2.52819e-12 0 5.38888e+14
464.821 0 74036.7 0 0 0 0 2.1469e-12 0 6.35971e+14
491.207 0 87374.6 0 0 0 0 1.82301e-12 0 7.50542e+14
519.092 0 103115 0 0 0 0 1.54789e-12 0 8.85755e+14
548.56 0 121692 0 0 0 0 1.31422e-12 0 1.04533e+15
579.7 0 143615 0 0 0 0 1.11576e-12 0 1.23364e+15
612.608 0 169488 0 0 0 0 9.47223e-13 0 1.45589e+15
647.384 0 200021 0 0 0 0 8.041e-13 0 1.71817e+15
684.134 0 236056 0 0 0 0 6.82568e-13 0 2.0277e+15
722.971 0 278582 0 0 0 0 5.79376e-13 0 2.393e+15
764.012 0 328769 0 0 0 0 4.91762e-13 0 2.8241e+15
