0.919827
200
1.0655e+09
8589934592
0.0129181 0 1.58924e-09 0 0 0 0 0.00677225 0 13.6515
0.0136515 0 1.87554e-09 0 0 0 0 0.00688819 0 16.1108
0.0144264 0 2.21343e-09 0 0 0 0 0.00699249 0 19.0132
0.0152454 0 2.61218e-09 0 0 0 0 0.00708412 0 22.4385
0.0161108 0 3.08278e-09 0 0 0 0 0.00716212 0 26.4808
0.0170254 0 3.63815e-09 0 0 0 0 0.00722559 0 31.2514
0.0179919 0 4.29357e-09 0 0 0 0 0.00727371 0 36.8815
0.0190132 0 5.06707e-09 0 0 0 0 0.00730578 0 43.5258
0.0200925 0 5.97991e-09 0 0 0 0 0.00732122 0 51.367
0.0212331 0 7.05721e-09 0 0 0 0 0.00731958 0 60.621
0.0224385 0 8.32858e-09 0 0 0 0 0.00730056 0 71.542
0.0237123 0 9.829e-09 0 0 0 0 0.00726401 0 84.4305
0.0250583 0 1.15997e-08 0 0 0 0 0.00720995 0 99.6408
0.0264808 0 1.36894e-08 0 0 0 0 0.00713857 0 117.591
0.0279841 0 1.61556e-08 0 0 0 0 0.00705021 0 138.776
0.0295727 0 1.90661e-08 0 0 0 0 0.00694538 0 163.777
0.0312514 0 2.25009e-08 0 0 0 0 0.00682475 0 193.281
0.0330255 0 2.65545e-08 0 0 0 0 0.00668915 0 228.102
0.0349003 0 3.13384e-08 0 0 0 0 0.00653951 0 269.195
0.0368815 0 3.69841e-08 0 0 0 0 0.00637693 0 317.691
0.0389751 0 4.36469e-08 0 0 0 0 0.00620256 0 374.924
0.0411876 0 5.151e-08 0 0 0 0 0.00601767 0 442.467
0.0435258 0 6.07896e-08 0 0 0 0 0.00582358 0 522.179
0.0459966 0 7.1741e-08 0 0 0 0 0.00562166 0 616.251
0.0486077 0 8.46654e-08 0 0 0 0 0.0054133 0 727.27
0.051367 0 9.99181e-08 0 0 0 0 0.00519989 0 858.29
0.054283 0 1.17919e-07 0 0 0 0 0.0049828 0 1012.91
0.0573645 0 1.39162e-07 0 0 0 0 0.00476339 0 1195.39
0.060621 0 1.64232e-07 0 0 0 0 0.00454293 0 1410.75
0.0640622 0 1.93819e-07 0 0 0 0 0.00432265 0 1664.89
0.0676989 0 2.28736e-07 0 0 0 0 0.00410371 0 1964.83
0.071542 0 2.69944e-07 0 0 0 0 0.00388717 0 2318.8
0.0756032 0 3.18575e-07 0 0 0 0 0.00367401 0 2736.54
0.079895 0 3.75967e-07 0 0 0 0 0.0034651 0 3229.53
0.0844305 0 4.43698e-07 0 0 0 0 0.00326121 0 3811.34
0.0892234 0 5.23632e-07 0 0 0 0 0.00306301 0 4497.96
0.0942883 0 6.17966e-07 0 0 0 0 0.00287109 0 5308.28
0.0996408 0 7.29294e-07 0 0 0 0 0.00268591 0 6264.59
0.105297 0 8.60678e-07 0 0 0 0 0.00250785 0 7393.17
0.111275 0 1.01573e-06 0 0 0 0 0.00233721 0 8725.07
0.117591 0 1.19872e-06 0 0 0 0 0.00217419 0 10296.9
0.124267 0 1.41467e-06 0 0 0 0 0.00201893 0 12151.9
0.131321 0 1.66953e-06 0 0 0 0 0.00187147 0 14341.1
0.138776 0 1.9703e-06 0 0 0 0 0.00173182 0 16924.7
0.146654 0 2.32525e-06 0 0 0 0 0.00159991 0 19973.8
0.154979 0 2.74415e-06 0 0 0 0 0.00147563 0 23572.1
0.163777 0 3.23852e-06 0 0 0 0 0.00135884 0 27818.7
0.173074 0 3.82195e-06 0 0 0 0 0.00124933 0 32830.3
0.182899 0 4.51048e-06 0 0 0 0 0.00114689 0 38744.7
0.193281 0 5.32305e-06 0 0 0 0 0.00105127 0 45724.7
0.204254 0 6.28202e-06 0 0 0 0 0.000962209 0 53962.1
0.215848 0 7.41374e-06 0 0 0 0 0.000879423 0 63683.5
0.228102 0 8.74934e-06 0 0 0 0 0.000802624 0 75156.3
0.24105 0 1.03256e-05 0 0 0 0 0.000731515 0 88695.9
0.254734 0 1.21857e-05 0 0 0 0 0.000665798 0 104675
0.269195 0 1.4381e-05 0 0 0 0 0.000605173 0 123532
0.284476 0 1.69718e-05 0 0 0 0 0.000549345 0 145787
0.300625 0 2.00293e-05 0 0 0 0 0.000498021 0 172051
0.317691 0 2.36377e-05 0 0 0 0 0.000450916 0 203046
0.335725 0 2.78961e-05 0 0 0 0 0.000407755 0 239625
0.354784 0 3.29216e-05 0 0 0 0 0.000368269 0 282795
0.374924 0 3.88525e-05 0 0 0 0 0.000332202 0 333741
0.396207 1.66462 4.58519e-05 4.22638e-06 6 1.61834 4.10888e-06 0.000299307 0.0847234 393865
0.418699 0 5.41123e-05 0 0 0 0 0.00026935 0 464821
0.442467 0 6.38607e-05 0 0 0 0 0.000242108 0 548560
0.467585 0 7.53654e-05 0 0 0 0 0.00021737 0 647384
0.494129 0 8.89427e-05 0 0 0 0 0.000194938 0 764012
0.522179 0 0.000104966 0 0 0 0 0.000174625 0 901651
0.551822 0 0.000123876 0 0 0 0 0.000156255 0 1.06409e+06
0.583147 5.08528 0.000146192 4.04949e-06 12 5.35228 4.26211e-06 0.000139664 0.347934 1.25578e+06
0.616251 0 0.000172529 0 0 0 0 0.0001247 0 1.48202e+06
0.651234 0 0.000203611 0 0 0 0 0.00011122 0 1.74901e+06
0.688203 11.0838 0.000240292 5.3698e-06 8 10.808 5.23621e-06 9.90935e-05 0.433514 2.06409e+06
0.72727 0 0.000283581 0 0 0 0 8.81969e-05 0 2.43595e+06
0.768555 0 0.000334669 0 0 0 0 7.84179e-05 0 2.87479e+06
0.812184 10.7851 0.000394961 3.17891e-06 6 11.0156 3.24688e-06 6.96525e-05 0.273837 3.39269e+06
0.85829 0 0.000466114 0 0 0 0 6.1805e-05 0 4.00389e+06
0.907013 1.60435 0.000550086 3.39531e-07 24 1.63513 3.46045e-07 5.47875e-05 0.148734 4.7252e+06
0.958501 4.99536 0.000649185 8.95794e-07 24 4.70276 8.43324e-07 4.85194e-05 0.443102 5.57646e+06
1.01291 0 0.000766138 0 0 0 0 4.29272e-05 0 6.58107e+06
1.07041 0 0.00090416 0 0 0 0 3.79435e-05 0 7.76667e+06
1.13118 9.51245 0.00106705 1.03781e-06 12 9.39561 1.02507e-06 3.3507e-05 0.371676 9.16586e+06
1.19539 4.92956 0.00125928 4.55718e-07 30 4.82793 4.46324e-07 2.9562e-05 0.46247 1.08171e+07
1.26325 7.52759 0.00148614 5.89666e-07 24 7.41432 5.80793e-07 2.60578e-05 0.543099 1.27658e+07
1.33496 11.8376 0.00175387 7.85735e-07 24 11.8636 7.87462e-07 2.29484e-05 0.821739 1.50656e+07
1.41075 17.3311 0.00206984 9.74764e-07 32 17.4587 9.81941e-07 2.01923e-05 1.54477 1.77798e+07
1.49083 5.27054 0.00244272 2.51184e-07 48 5.15818 2.45829e-07 1.77518e-05 0.67919 2.09828e+07
1.57546 44.0075 0.00288279 1.77715e-06 6 41.9051 1.69225e-06 1.55929e-05 0.683833 2.4763e+07
1.66489 6.29299 0.00340213 2.15336e-07 84 6.1587 2.10741e-07 1.3685e-05 1.32175 2.92241e+07
1.75941 7.07333 0.00401503 2.0509e-07 48 6.97498 2.02239e-07 1.20007e-05 0.820315 3.44889e+07
1.85928 5.2666 0.00473835 1.29394e-07 72 5.30077 1.30233e-07 1.05151e-05 0.885998 4.07021e+07
1.96483 20.2039 0.00559198 4.20611e-07 54 19.6833 4.09772e-07 9.20606e-06 2.46718 4.80347e+07
2.07637 12.1599 0.00659939 2.14505e-07 104 12.3044 2.17054e-07 8.05366e-06 2.76999 5.66883e+07
2.19424 10.4262 0.00778828 1.55846e-07 120 10.5696 1.57988e-07 7.04008e-06 2.65643 6.69008e+07
2.3188 10.936 0.00919136 1.38512e-07 156 10.681 1.35282e-07 6.1494e-06 3.51381 7.89532e+07
2.45043 13.6102 0.0108472 1.46068e-07 126 13.4446 1.44291e-07 5.36741e-06 3.42895 9.31768e+07
2.58954 12.7008 0.0128014 1.15501e-07 192 12.7404 1.15861e-07 4.68145e-06 4.73704 1.09963e+08
2.73654 32.2118 0.0151076 2.48216e-07 152 32.5422 2.50762e-07 4.08023e-06 9.24674 1.29773e+08
2.89188 16.9797 0.0178292 1.10868e-07 378 17.0085 1.11057e-07 3.55373e-06 11.7927 1.53152e+08
3.05605 19.5551 0.0210412 1.08193e-07 264 19.3423 1.07016e-07 3.09304e-06 9.23462 1.80743e+08
3.22953 21.2922 0.0248319 9.98209e-08 366 21.1936 9.93585e-08 2.69025e-06 13.5803 2.13304e+08
3.41286 16.4101 0.0293054 6.51889e-08 428 16.291 6.47158e-08 2.33837e-06 11.9317 2.51731e+08
3.6066 20.4307 0.0345848 6.87713e-08 486 20.0946 6.764e-08 2.0312e-06 16.4547 2.97081e+08
3.81134 21.5107 0.0408154 6.13536e-08 600 21.5778 6.1545e-08 1.76327e-06 20.8773 3.50601e+08
4.0277 27.6018 0.0481684 6.67091e-08 738 27.4385 6.63145e-08 1.52972e-06 32.1832 4.13763e+08
4.25634 29.2496 0.056846 5.99004e-08 824 29.1297 5.96549e-08 1.32631e-06 37.2146 4.88304e+08
4.49796 29.2018 0.067087 5.06736e-08 954 28.8873 5.01278e-08 1.14926e-06 42.0643 5.76273e+08
4.7533 30.2015 0.0791729 4.44081e-08 1094 30.002 4.41148e-08 9.95263e-07 48.8137 6.8009e+08
5.02313 31.5472 0.0934361 3.93058e-08 1332 31.6694 3.9458e-08 8.61414e-07 60.7783 8.0261e+08
5.30828 38.4004 0.110269 4.05409e-08 1614 38.4214 4.0563e-08 7.45152e-07 87.8116 9.47202e+08
5.60962 41.6888 0.130134 3.7294e-08 1850 41.7587 3.73565e-08 6.44232e-07 107.095 1.11784e+09
5.92807 37.4472 0.153578 2.83858e-08 2238 37.4561 2.83925e-08 5.56685e-07 114.117 1.31923e+09
6.26459 41.5703 0.181246 2.67009e-08 2546 41.6545 2.6755e-08 4.80786e-07 141.394 1.55689e+09
6.62021 41.4988 0.213898 2.2586e-08 3264 41.5202 2.25977e-08 4.15026e-07 177.63 1.83737e+09
6.99602 49.6007 0.252432 2.28746e-08 3506 49.7017 2.29212e-08 3.58083e-07 223.967 2.16837e+09
7.39317 50.6126 0.297908 1.97782e-08 4506 50.5408 1.97501e-08 3.08803e-07 288.6 2.55901e+09
7.81286 58.4843 0.351577 1.93655e-08 5018 58.1933 1.92692e-08 2.66181e-07 365.076 3.02002e+09
8.25637 59.5352 0.414914 1.67042e-08 5852 59.4479 1.66797e-08 2.29336e-07 426.243 3.56409e+09
8.72507 62.7236 0.489662 1.49123e-08 7362 62.5719 1.48762e-08 1.97503e-07 555.862 4.20617e+09
9.22037 64.1999 0.577876 1.29333e-08 8306 64.0147 1.2896e-08 1.70014e-07 631.854 4.96392e+09
9.74378 71.5972 0.681982 1.22217e-08 9698 71.4425 1.21953e-08 1.46289e-07 810.221 5.85818e+09
10.2969 74.3958 0.804843 1.07609e-08 11816 74.2179 1.07351e-08 1.25822e-07 1010.55 6.91355e+09
10.8814 85.2582 0.949838 1.04495e-08 13682 85.0673 1.04261e-08 1.08175e-07 1321.65 8.15905e+09
11.4992 83.5985 1.12095 8.68202e-09 16152 83.6049 8.68269e-09 9.29669e-08 1508.41 9.62892e+09
12.1519 89.7233 1.3229 7.89568e-09 19472 89.5822 7.88326e-09 7.98658e-08 1925.04 1.13636e+10
12.8418 94.5664 1.56122 7.05152e-09 22670 94.3466 7.03513e-09 6.85852e-08 2330.8 1.34108e+10
13.5708 101.235 1.84248 6.39644e-09 26224 101.063 6.3856e-09 5.88765e-08 2849.02 1.58268e+10
14.3411 108.114 2.17441 5.78828e-09 31640 107.978 5.78105e-09 5.05241e-08 3624.83 1.8678e+10
15.1552 113.456 2.56613 5.14705e-09 37484 113.207 5.13578e-09 4.33417e-08 4451.42 2.20429e+10
16.0156 123.866 3.02843 4.76152e-09 43856 123.663 4.75372e-09 3.71677e-08 5618.35 2.6014e+10
16.9247 130.446 3.574 4.249e-09 51362 130.259 4.24289e-09 3.18628e-08 6849.28 3.07005e+10
17.8855 138.248 4.21787 3.8157e-09 61636 138.098 3.81157e-09 2.73063e-08 8612.83 3.62312e+10
18.9008 145.102 4.97773 3.39354e-09 72218 144.731 3.38485e-09 2.33941e-08 10475.9 4.27584e+10
19.9738 155.258 5.87448 3.07676e-09 84586 155.02 3.07206e-09 2.00364e-08 12988.9 5.04614e+10
21.1076 165.242 6.93279 2.77474e-09 100708 164.98 2.77034e-09 1.71555e-08 16288.5 5.95522e+10
22.3058 173.565 8.18175 2.4696e-09 118712 173.291 2.4657e-09 1.46847e-08 19964.5 7.02807e+10
23.5721 181.836 9.65571 2.19232e-09 140410 181.521 2.18854e-09 1.25662e-08 24496.3 8.29419e+10
24.9102 190.845 11.3952 1.9497e-09 164374 190.434 1.94551e-09 1.07504e-08 29811.1 9.78842e+10
26.3243 203.947 13.4481 1.76549e-09 194680 203.607 1.76255e-09 9.19452e-09 37381.7 1.15518e+11
27.8187 213.6 15.8708 1.5668e-09 230196 213.334 1.56485e-09 7.86182e-09 45876.2 1.36329e+11
29.3979 225.705 18.73 1.40286e-09 271156 225.379 1.40083e-09 6.72061e-09 56601.2 1.60889e+11
31.0667 238.194 22.1042 1.25449e-09 321076 237.73 1.25204e-09 5.74366e-09 70127 1.89874e+11
32.8303 251.382 26.0864 1.12184e-09 377436 250.879 1.11959e-09 4.90756e-09 86279.7 2.2408e+11
34.694 263.964 30.7859 9.98168e-10 447594 263.495 9.96393e-10 4.19221e-09 106573 2.64449e+11
36.6634 279.521 36.3321 8.95641e-10 525078 278.978 8.93904e-10 3.58032e-09 131352 3.1209e+11
38.7447 293.014 42.8774 7.95556e-10 621924 292.465 7.94065e-10 3.05709e-09 161845 3.68314e+11
40.9442 308.071 50.6018 7.08753e-10 732630 307.518 7.0748e-10 2.60976e-09 198966 4.34667e+11
43.2685 324.963 59.7179 6.33489e-10 865596 324.443 6.32475e-10 2.22743e-09 246178 5.12973e+11
45.7247 340.039 70.4762 5.6169e-10 1.02168e+06 339.511 5.60817e-10 1.90073e-09 301918 6.05386e+11
48.3204 356.241 83.1727 4.98624e-10 1.20544e+06 355.597 4.97722e-10 1.62163e-09 370651 7.14448e+11
51.0634 373.962 98.1565 4.43526e-10 1.42103e+06 373.302 4.42742e-10 1.38326e-09 455637 8.43158e+11
53.9621 392.766 115.84 3.94717e-10 1.67997e+06 392.066 3.94015e-10 1.1797e-09 562101 9.95055e+11
57.0254 412.42 136.709 3.512e-10 1.98018e+06 411.666 3.50558e-10 1.00592e-09 691347 1.17432e+12
60.2626 432.295 161.337 3.11929e-10 2.33957e+06 431.54 3.11385e-10 8.57591e-10 850966 1.38587e+12
63.6835 454.221 190.402 2.77719e-10 2.75676e+06 453.441 2.77242e-10 7.3101e-10 1.04733e+06 1.63554e+12
67.2987 478.184 224.704 2.4774e-10 3.25638e+06 477.367 2.47316e-10 6.23009e-10 1.2949e+06 1.93019e+12
71.1191 503.207 265.185 2.20906e-10 3.84387e+06 502.308 2.20512e-10 5.30879e-10 1.59949e+06 2.27792e+12
75.1563 530.302 312.958 1.97264e-10 4.53277e+06 529.369 1.96917e-10 4.52303e-10 1.97688e+06 2.68829e+12
79.4227 559.149 369.339 1.76243e-10 5.35083e+06 558.193 1.75942e-10 3.85299e-10 2.44757e+06 3.17259e+12
83.9313 592.264 435.876 1.58184e-10 6.32174e+06 591.163 1.5789e-10 3.28173e-10 3.04717e+06 3.74415e+12
88.6959 628.028 514.4 1.42131e-10 7.44986e+06 626.816 1.41856e-10 2.79476e-10 3.78871e+06 4.41866e+12
93.7309 667.683 607.071 1.28039e-10 8.79764e+06 666.4 1.27793e-10 2.37972e-10 4.73348e+06 5.2147e+12
99.0518 712.457 716.436 1.15769e-10 1.03827e+07 711.066 1.15543e-10 2.02605e-10 5.93269e+06 6.15414e+12
104.675 763.359 845.504 1.05105e-10 1.22515e+07 761.793 1.04889e-10 1.72471e-10 7.46616e+06 7.26283e+12
110.617 823.385 997.824 9.60637e-11 1.44573e+07 821.634 9.58594e-11 1.468e-10 9.46064e+06 8.57124e+12
116.896 892.531 1177.58 8.82351e-11 1.70664e+07 890.555 8.80398e-11 1.24935e-10 1.20531e+07 1.01154e+13
123.532 973.749 1389.73 8.15693e-11 2.0139e+07 971.502 8.13811e-11 1.06313e-10 1.54517e+07 1.19377e+13
130.545 1069.17 1640.09 7.58909e-11 2.37643e+07 1066.62 7.57098e-11 9.04567e-11 1.99376e+07 1.40883e+13
137.955 1181.87 1935.56 7.10845e-11 2.80503e+07 1178.93 7.09074e-11 7.69563e-11 2.591e+07 1.66263e+13
145.787 1315.48 2284.26 6.70422e-11 3.30981e+07 1312.06 6.68681e-11 6.54636e-11 3.38962e+07 1.96216e+13
154.063 1473.93 2695.77 6.36509e-11 3.90634e+07 1469.97 6.34799e-11 5.56812e-11 4.46547e+07 2.31565e+13
162.808 1663.13 3181.42 6.08578e-11 4.61057e+07 1658.53 6.06894e-11 4.73556e-11 5.92514e+07 2.73282e+13
172.051 1888.98 3754.56 5.85705e-11 5.44046e+07 1883.58 5.84031e-11 4.02708e-11 7.91269e+07 3.22515e+13
181.818 2157.26 4430.96 5.66781e-11 6.42064e+07 2150.89 5.65106e-11 3.42426e-11 1.06274e+08 3.80616e+13
192.139 2477.17 5229.21 5.51481e-11 7.57748e+07 2469.75 5.49828e-11 2.91139e-11 1.43534e+08 4.49186e+13
203.046 2861.85 6171.26 5.39863e-11 8.94213e+07 2853.04 5.382e-11 2.4751e-11 1.95043e+08 5.30108e+13
214.572 3320.23 7283.03 5.30721e-11 1.05538e+08 3309.82 5.29057e-11 2.10401e-11 2.66213e+08 6.25608e+13
226.753 3871.56 8595.09 5.2438e-11 1.24552e+08 3859.13 5.22695e-11 1.78839e-11 3.65202e+08 7.38313e+13
239.625 4534.01 10143.5 5.2036e-11 1.46987e+08 4519.17 5.18657e-11 1.51999e-11 5.03202e+08 8.71322e+13
253.228 5332.08 11970.9 5.18537e-11 1.7347e+08 5314.33 5.16811e-11 1.29176e-11 6.96341e+08 1.02829e+14
267.603 6297.92 14127.5 5.1897e-11 2.04703e+08 6276.62 5.17214e-11 1.09771e-11 9.67781e+08 1.21354e+14
282.795 7476.59 16672.6 5.22048e-11 2.4161e+08 7450.77 5.20245e-11 9.3274e-12 1.35227e+09 1.43217e+14
298.848 8921.31 19676.2 5.27834e-11 2.85122e+08 8889.73 5.25965e-11 7.925e-12 1.89902e+09 1.69017e+14
315.813 10718.6 23220.9 5.37365e-11 3.36491e+08 10679.6 5.35408e-11 6.73295e-12 2.68558e+09 1.99466e+14
333.741 12992.6 27404.3 5.51935e-11 3.97115e+08 12943.4 5.49845e-11 5.71979e-12 3.83199e+09 2.35401e+14
352.686 15932 32341.2 5.73486e-11 4.68637e+08 15868.8 5.71212e-11 4.85874e-12 5.53141e+09 2.77809e+14
372.707 19848.8 38167.6 6.0541e-11 5.53074e+08 19765.3 6.02864e-11 4.12703e-12 8.11325e+09 3.27857e+14
393.865 25261.9 45043.5 6.52896e-11 6.52716e+08 25147 6.49926e-11 3.50528e-12 1.21575e+10 3.86921e+14
416.224 29823.6 53158.3 6.53129e-11 2.2184e+08 31550.6 6.9095e-11 2.97701e-12 4.86696e+09 4.56626e+14
439.852 0 62734.9 0 0 0 0 2.52819e-12 0 5.38888e+14
464.821 0 74036.7 0 0 0 0 2.1469e-12 0 6.35971e+14
491.207 0 87374.6 0 0 0 0 1.82301e-12 0 7.50542e+14
519.092 0 103115 0 0 0 0 1.54789e-12 0 8.85755e+14
548.56 0 121692 0 0 0 0 1.31422e-12 0 1.04533e+15
579.7 0 143615 0 0 0 0 1.11576e-12 0 1.23364e+15
612.608 0 169488 0 0 0 0 9.47223e-13 0 1.45589e+15
647.384 0 200021 0 0 0 0 8.041e-13 0 1.71817e+15
684.134 0 236056 0 0 0 0 6.82568e-13 0 2.0277e+15
722.971 0 278582 0 0 0 0 5.79376e-13 0 2.393e+15
764.012 0 328769 0 0 0 0 4.91762e-13 0 2.8241e+15
0.919827
200
1.0655e+09
8589934592
0.0129181 0.00183179 1.58924e-09 0.000134183 6 0.00181502 0.000132955 0.00677225 0.118882 13.6515
0.0136515 0 1.87554e-09 0 0 0 0 0.00688819 0 16.1108
0.0144264 0 2.21343e-09 0 0 0 0 0.00699249 0 19.0132
0.0152454 0 2.61218e-09 0 0 0 0 0.00708412 0 22.4385
0.0161108 0 3.08278e-09 0 0 0 0 0.00716212 0 26.4808
0.0170254 0 3.63815e-09 0 0 0 0 0.00722559 0 31.2514
0.0179919 0.00408741 4.29357e-09 0.000110826 12 0.00408214 0.000110683 0.00727371 0.182838 36.8815
0.0190132 0 5.06707e-09 0 0 0 0 0.00730578 0 43.5258
0.0200925 0 5.97991e-09 0 0 0 0 0.00732122 0 51.367
0.0212331 0.00387684 7.05721e-09 6.39522e-05 8 0.00387347 6.38965e-05 0.00731958 0.0698971 60.621
0.0224385 0 8.32858e-09 0 0 0 0 0.00730056 0 71.542
0.0237123 0 9.829e-09 0 0 0 0 0.00726401 0 84.4305
0.0250583 0.0244577 1.15997e-08 0.000245459 6 0.0244462 0.000245343 0.00720995 0.204267 99.6408
0.0264808 0 1.36894e-08 0 0 0 0 0.00713857 0 117.591
0.0279841 0.015082 1.61556e-08 0.000108679 24 0.0150665 0.000108567 0.00705021 0.369959 138.776
0.0295727 0 1.90661e-08 0 0 0 0 0.00694538 0 163.777
0.0312514 0.0267972 2.25009e-08 0.000138643 24 0.0269333 0.000139347 0.00682475 0.487555 193.281
0.0330255 0 2.65545e-08 0 0 0 0 0.00668915 0 228.102
0.0349003 0.0409465 3.13384e-08 0.000152107 12 0.0406186 0.000150889 0.00653951 0.279117 269.195
0.0368815 0.0327109 3.69841e-08 0.000102964 30 0.0323626 0.000101868 0.00637693 0.484392 317.691
0.0389751 0.036999 4.36469e-08 9.86842e-05 24 0.0366184 9.7669e-05 0.00620256 0.381846 374.924
0.0411876 0.0237876 5.151e-08 5.37612e-05 24 0.023626 5.33961e-05 0.00601767 0.214414 442.467
0.0435258 0.0593622 6.07896e-08 0.000113682 8 0.0593576 0.000113673 0.00582358 0.156167 522.179
0.0459966 0.0727453 7.1741e-08 0.000118045 72 0.0721715 0.000117114 0.00562166 1.51187 616.251
0.0486077 0 8.46654e-08 0 0 0 0 0.0054133 0 727.27
0.051367 0.0995632 9.99181e-08 0.000116002 54 0.0992325 0.000115617 0.00519989 1.20466 858.29
0.054283 0.0805939 1.17919e-07 7.95665e-05 60 0.0809615 7.99293e-05 0.0049828 0.958093 1012.91
0.0573645 0.0750956 1.39162e-07 6.28209e-05 96 0.0749031 6.26598e-05 0.00476339 1.26608 1195.39
0.060621 0.0893577 1.64232e-07 6.33408e-05 24 0.0881471 6.24826e-05 0.00454293 0.334625 1410.75
0.0640622 0.15301 1.93819e-07 9.19037e-05 134 0.153078 9.19443e-05 0.00432265 2.84897 1664.89
0.0676989 0.149863 2.28736e-07 7.62729e-05 120 0.149128 7.58987e-05 0.00410371 2.23036 1964.83
0.071542 0.141345 2.69944e-07 6.09561e-05 108 0.139779 6.0281e-05 0.00388717 1.69358 2318.8
0.0756032 0.209262 3.18575e-07 7.64696e-05 174 0.208097 7.60439e-05 0.00367401 3.62157 2736.54
0.079895 0.218786 3.75967e-07 6.77455e-05 168 0.216729 6.71086e-05 0.0034651 3.28454 3229.53
0.0844305 0.182195 4.43698e-07 4.78034e-05 168 0.183096 4.80398e-05 0.00326121 2.46258 3811.34
0.0892234 0.219587 5.23632e-07 4.88192e-05 290 0.218545 4.85876e-05 0.00306301 4.6221 4497.96
0.0942883 0.264073 6.17966e-07 4.97474e-05 288 0.263509 4.96411e-05 0.00287109 4.99018 5308.28
0.0996408 0.237419 7.29294e-07 3.78986e-05 366 0.235605 3.76091e-05 0.00268591 5.16432 6264.59
0.105297 0.280558 8.60678e-07 3.79482e-05 420 0.278547 3.76763e-05 0.00250785 6.35534 7393.17
0.111275 0.300248 1.01573e-06 3.44121e-05 398 0.299417 3.43169e-05 0.00233721 5.85999 8725.07
0.117591 0.35656 1.19872e-06 3.46279e-05 624 0.357574 3.47263e-05 0.00217419 9.9383 10296.9
0.124267 0.414795 1.41467e-06 3.41341e-05 642 0.413849 3.40562e-05 0.00201893 10.8543 12151.9
0.131321 0.485977 1.66953e-06 3.38869e-05 800 0.486085 3.38945e-05 0.00187147 14.4857 14341.1
0.138776 0.450243 1.9703e-06 2.66027e-05 858 0.452144 2.6715e-05 0.00173182 13.1799 16924.7
0.146654 0.52593 2.32525e-06 2.6331e-05 1080 0.530289 2.65493e-05 0.00159991 17.7745 19973.8
0.154979 0.612923 2.74415e-06 2.60021e-05 1286 0.61676 2.61649e-05 0.00147563 22.6605 23572.1
0.163777 0.602908 3.23852e-06 2.16728e-05 1650 0.604639 2.1735e-05 0.00135884 26.3167 27818.7
0.173074 0.671954 3.82195e-06 2.04675e-05 1778 0.672483 2.04836e-05 0.00124933 29.1286 32830.3
0.182899 0.727949 4.51048e-06 1.87884e-05 2112 0.729613 1.88313e-05 0.00114689 34.5987 38744.7
0.193281 0.802538 5.32305e-06 1.75515e-05 2570 0.803132 1.75645e-05 0.00105127 42.9075 45724.7
0.204254 0.940146 6.28202e-06 1.74223e-05 3030 0.939517 1.74107e-05 0.000962209 54.863 53962.1
0.215848 0.98138 7.41374e-06 1.54103e-05 3434 0.98098 1.5404e-05 0.000879423 60.1745 63683.5
0.228102 1.04483 8.74934e-06 1.3902e-05 4218 1.04414 1.38929e-05 0.000802624 73.0589 75156.3
0.24105 1.16469 1.03256e-05 1.31313e-05 4766 1.1654 1.31393e-05 0.000731515 85.5538 88695.9
0.254734 1.26998 1.21857e-05 1.21326e-05 6026 1.26994 1.21322e-05 0.000665798 109.81 104675
0.269195 1.45167 1.4381e-05 1.17514e-05 6480 1.45037 1.17408e-05 0.000605173 125.83 123532
0.284476 1.56559 1.69718e-05 1.07389e-05 8162 1.56829 1.07574e-05 0.000549345 159.555 145787
0.300625 1.73381 2.00293e-05 1.00773e-05 9578 1.73439 1.00807e-05 0.000498021 193.808 172051
0.317691 1.92755 2.36377e-05 9.49318e-06 11234 1.92596 9.48535e-06 0.000450916 236.51 203046
0.335725 2.07298 2.78961e-05 8.65092e-06 13344 2.06918 8.63506e-06 0.000407755 283.106 239625
0.354784 2.34287 3.29216e-05 8.28471e-06 15464 2.34138 8.27942e-06 0.000368269 347.883 282795
0.374924 2.53757 3.88525e-05 7.60341e-06 18458 2.53499 7.59569e-06 0.000332202 422.465 333741
0.396207 2.94045 4.58519e-05 7.46563e-06 22232 2.9356 7.45333e-06 0.000299307 554.534 393865
0.418699 3.1629 5.41123e-05 6.80455e-06 25628 3.15517 6.78792e-06 0.00026935 647.437 464821
0.442467 3.46662 6.38607e-05 6.3195e-06 30320 3.46067 6.30866e-06 0.000242108 791.412 548560
0.467585 3.92826 7.53654e-05 6.06789e-06 35452 3.92102 6.05672e-06 0.00021737 989.642 647384
0.494129 4.3551 8.89427e-05 5.70031e-06 41792 4.35007 5.69372e-06 0.000194938 1222.07 764012
0.522179 4.90519 0.000104966 5.44023e-06 49988 4.90446 5.43943e-06 0.000174625 1557.32 901651
0.551822 5.49057 0.000123876 5.15989e-06 59110 5.48316 5.15293e-06 0.000156255 1951.95 1.06409e+06
0.583147 6.11702 0.000146192 4.87108e-06 69716 6.10724 4.86329e-06 0.000139664 2431.49 1.25578e+06
0.616251 6.84251 0.000172529 4.61703e-06 82210 6.82901 4.60792e-06 0.0001247 3043.83 1.48202e+06
0.651234 7.55119 0.000203611 4.31742e-06 96722 7.53446 4.30785e-06 0.00011122 3754.61 1.74901e+06
0.688203 8.58006 0.000240292 4.15682e-06 113098 8.56607 4.15004e-06 9.90935e-05 4744.29 2.06409e+06
0.72727 9.6181 0.000283581 3.9484e-06 135190 9.60384 3.94255e-06 8.81969e-05 6052.19 2.43595e+06
0.768555 10.7481 0.000334669 3.73874e-06 158170 10.7308 3.73271e-06 7.84179e-05 7541.09 2.87479e+06
0.812184 12.0545 0.000394961 3.55309e-06 188560 12.0348 3.54727e-06 6.96525e-05 9618.74 3.39269e+06
0.85829 13.4857 0.000466114 3.36815e-06 220444 13.4634 3.36259e-06 6.1805e-05 12013.4 4.00389e+06
0.907013 15.0723 0.000550086 3.18976e-06 261388 15.0466 3.18433e-06 5.47875e-05 15218.2 4.7252e+06
0.958501 16.8903 0.000649185 3.02885e-06 308244 16.8642 3.02417e-06 4.85194e-05 19242.3 5.57646e+06
1.01291 18.9588 0.000766138 2.88081e-06 364396 18.9264 2.87588e-06 4.29272e-05 24454.3 6.58107e+06
1.07041 21.0928 0.00090416 2.71581e-06 429162 21.0541 2.71083e-06 3.79435e-05 30717.4 7.76667e+06
1.13118 23.5327 0.00106705 2.56743e-06 506358 23.4925 2.56304e-06 3.3507e-05 38799 9.16586e+06
1.19539 26.3075 0.00125928 2.43203e-06 598590 26.2583 2.42748e-06 2.9562e-05 49245.2 1.08171e+07
1.26325 29.2116 0.00148614 2.28826e-06 704844 29.1599 2.28421e-06 2.60578e-05 61895.8 1.27658e+07
1.33496 32.4562 0.00175387 2.15432e-06 834620 32.3928 2.15011e-06 2.29484e-05 78351.3 1.50656e+07
1.41075 36.0001 0.00206984 2.02478e-06 981444 35.9321 2.02096e-06 2.01923e-05 98414.2 1.77798e+07
1.49083 39.7454 0.00244272 1.89419e-06 1.15998e+06 39.6731 1.89074e-06 1.77518e-05 123774 2.09828e+07
1.57546 43.8792 0.00288279 1.77197e-06 1.36931e+06 43.7992 1.76874e-06 1.55929e-05 155608 2.4763e+07
1.66489 48.3222 0.00340213 1.65351e-06 1.61652e+06 48.2336 1.65047e-06 1.3685e-05 195317 2.92241e+07
1.75941 53.1955 0.00401503 1.5424e-06 1.90601e+06 53.0962 1.53952e-06 1.20007e-05 244971 3.44889e+07
1.85928 58.3232 0.00473835 1.43293e-06 2.24913e+06 58.2142 1.43025e-06 1.05151e-05 306496 4.07021e+07
1.96483 63.6578 0.00559198 1.32525e-06 2.65744e+06 63.541 1.32281e-06 9.20606e-06 382548 4.80347e+07
2.07637 69.441 0.00659939 1.22496e-06 3.13125e+06 69.3171 1.22278e-06 8.05366e-06 476263 5.66883e+07
2.19424 75.8415 0.00778828 1.13364e-06 3.69915e+06 75.7039 1.13158e-06 7.04008e-06 595662 6.69008e+07
2.3188 82.3287 0.00919136 1.04275e-06 4.36472e+06 82.1858 1.04094e-06 6.1494e-06 740126 7.89532e+07
2.45043 89.4945 0.0108472 9.6048e-07 5.14913e+06 89.3354 9.58773e-07 5.36741e-06 921419 9.31768e+07
2.58954 96.7888 0.0128014 8.80195e-07 6.07894e+06 96.626 8.78714e-07 4.68145e-06 1.14295e+06 1.09963e+08
2.73654 104.791 0.0151076 8.07491e-07 7.17304e+06 104.612 8.06118e-07 4.08023e-06 1.41957e+06 1.29773e+08
2.89188 112.997 0.0178292 7.37812e-07 8.46557e+06 112.808 7.36576e-07 3.55373e-06 1.75759e+06 1.53152e+08
3.05605 121.838 0.0210412 6.74096e-07 9.98773e+06 121.634 6.7297e-07 3.09304e-06 2.17672e+06 1.80743e+08
3.22953 131.071 0.0248319 6.14482e-07 1.1797e+07 130.851 6.1345e-07 2.69025e-06 2.69456e+06 2.13304e+08
3.41286 140.79 0.0293054 5.59288e-07 1.39144e+07 140.552 5.58341e-07 2.33837e-06 3.32802e+06 2.51731e+08
3.6066 151.164 0.0345848 5.08831e-07 1.64163e+07 150.906 5.07961e-07 2.0312e-06 4.1124e+06 2.97081e+08
3.81134 162.145 0.0408154 4.62476e-07 1.93821e+07 161.879 4.61717e-07 1.76327e-06 5.08362e+06 3.50601e+08
4.0277 173.63 0.0481684 4.19636e-07 2.28754e+07 173.343 4.18942e-07 1.52972e-06 6.27522e+06 4.13763e+08
4.25634 185.551 0.056846 3.79991e-07 2.69929e+07 185.237 3.79349e-07 1.32631e-06 7.73354e+06 4.88304e+08
4.49796 198.125 0.067087 3.43804e-07 3.18542e+07 197.796 3.43233e-07 1.14926e-06 9.52928e+06 5.76273e+08
4.7533 211.655 0.0791729 3.11217e-07 3.75892e+07 211.306 3.10703e-07 9.95263e-07 1.17541e+07 6.8009e+08
5.02313 225.582 0.0934361 2.8106e-07 4.43706e+07 225.208 2.80594e-07 8.61414e-07 1.44772e+07 8.0261e+08
5.30828 240.291 0.110269 2.53684e-07 5.23593e+07 239.89 2.53261e-07 7.45152e-07 1.78255e+07 9.47202e+08
5.60962 255.78 0.130134 2.28816e-07 6.1787e+07 255.356 2.28436e-07 6.44232e-07 2.19453e+07 1.11784e+09
5.92807 272.18 0.153578 2.06318e-07 7.29346e+07 271.728 2.05975e-07 5.56685e-07 2.70309e+07 1.31923e+09
6.26459 289.077 0.181246 1.85676e-07 8.60651e+07 288.594 1.85366e-07 4.80786e-07 3.32377e+07 1.55689e+09
6.62021 306.933 0.213898 1.6705e-07 1.01558e+08 306.424 1.66773e-07 4.15026e-07 4.08778e+07 1.83737e+09
6.99602 325.651 0.252432 1.50182e-07 1.1986e+08 325.112 1.49934e-07 3.58083e-07 5.02701e+07 2.16837e+09
7.39317 345.368 0.297908 1.34962e-07 1.41457e+08 344.797 1.34738e-07 3.08803e-07 6.18232e+07 2.55901e+09
7.81286 365.853 0.351577 1.21142e-07 1.66936e+08 365.252 1.20943e-07 2.66181e-07 7.59746e+07 3.02002e+09
8.25637 387.647 0.414914 1.08765e-07 1.97025e+08 387.004 1.08584e-07 2.29336e-07 9.34409e+07 3.56409e+09
8.72507 410.525 0.489662 9.76008e-08 2.32497e+08 409.839 9.74377e-08 1.97503e-07 1.14894e+08 4.20617e+09
9.22037 434.998 0.577876 8.76319e-08 2.74404e+08 434.263 8.74839e-08 1.70014e-07 1.41439e+08 4.96392e+09
9.74378 461.777 0.681982 7.88259e-08 3.2382e+08 460.977 7.86893e-08 1.46289e-07 1.74486e+08 5.85818e+09
10.2969 491.778 0.804843 7.11325e-08 3.82165e+08 490.899 7.10053e-08 1.25822e-07 2.16053e+08 6.91355e+09
10.8814 527.228 0.949838 6.46188e-08 4.51027e+08 526.222 6.44955e-08 1.08175e-07 2.69422e+08 8.15905e+09
11.4992 572.563 1.12095 5.94629e-08 5.32251e+08 571.344 5.93362e-08 9.29669e-08 3.40435e+08 9.62892e+09
12.1519 636.404 1.3229 5.60037e-08 6.28157e+08 634.809 5.58634e-08 7.98658e-08 4.40478e+08 1.13636e+10
12.8418 708.055 1.56122 5.27974e-08 3.82727e+08 732.86 5.46471e-08 6.85852e-08 2.94626e+08 1.34108e+10
13.5708 0 1.84248 0 0 0 0 5.88765e-08 0 1.58268e+10
14.3411 0 2.17441 0 0 0 0 5.05241e-08 0 1.8678e+10
15.1552 0 2.56613 0 0 0 0 4.33417e-08 0 2.20429e+10
16.0156 0 3.02843 0 0 0 0 3.71677e-08 0 2.6014e+10
16.9247 0 3.574 0 0 0 0 3.18628e-08 0 3.07005e+10
17.8855 0 4.21787 0 0 0 0 2.73063e-08 0 3.62312e+10
18.9008 0 4.97773 0 0 0 0 2.33941e-08 0 4.27584e+10
19.9738 0 5.87448 0 0 0 0 2.00364e-08 0 5.04614e+10
21.1076 0 6.93279 0 0 0 0 1.71555e-08 0 5.95522e+10
22.3058 0 8.18175 0 0 0 0 1.46847e-08 0 7.02807e+10
23.5721 0 9.65571 0 0 0 0 1.25662e-08 0 8.29419e+10
24.9102 0 11.3952 0 0 0 0 1.07504e-08 0 9.78842e+10
26.3243 0 13.4481 0 0 0 0 9.19452e-09 0 1.15518e+11
27.8187 0 15.8708 0 0 0 0 7.86182e-09 0 1.36329e+11
29.3979 0 18.73 0 0 0 0 6.72061e-09 0 1.60889e+11
31.0667 0 22.1042 0 0 0 0 5.74366e-09 0 1.89874e+11
32.8303 0 26.0864 0 0 0 0 4.90756e-09 0 2.2408e+11
34.694 0 30.7859 0 0 0 0 4.19221e-09 0 2.64449e+11
36.6634 0 36.3321 0 0 0 0 3.58032e-09 0 3.1209e+11
38.7447 0 42.8774 0 0 0 0 3.05709e-09 0 3.68314e+11
40.9442 0 50.6018 0 0 0 0 2.60976e-09 0 4.34667e+11
43.2685 0 59.7179 0 0 0 0 2.22743e-09 0 5.12973e+11
45.7247 0 70.4762 0 0 0 0 1.90073e-09 0 6.05386e+11
48.3204 0 83.1727 0 0 0 0 1.62163e-09 0 7.14448e+11
51.0634 0 98.1565 0 0 0 0 1.38326e-09 0 8.43158e+11
53.9621 0 115.84 0 0 0 0 1.1797e-09 0 9.95055e+11
57.0254 0 136.709 0 0 0 0 1.00592e-09 0 1.17432e+12
60.2626 0 161.337 0 0 0 0 8.57591e-10 0 1.38587e+12
63.6835 0 190.402 0 0 0 0 7.3101e-10 0 1.63554e+12
67.2987 0 224.704 0 0 0 0 6.23009e-10 0 1.93019e+12
71.1191 0 265.185 0 0 0 0 5.30879e-10 0 2.27792e+12
75.1563 0 312.958 0 0 0 0 4.52303e-10 0 2.68829e+12
79.4227 0 369.339 0 0 0 0 3.85299e-10 0 3.17259e+12
83.9313 0 435.876 0 0 0 0 3.28173e-10 0 3.74415e+12
88.6959 0 514.4 0 0 0 0 2.79476e-10 0 4.41866e+12
93.7309 0 607.071 0 0 0 0 2.37972e-10 0 5.2147e+12
99.0518 0 716.436 0 0 0 0 2.02605e-10 0 6.15414e+12
104.675 0 845.504 0 0 0 0 1.72471e-10 0 7.26283e+12
110.617 0 997.824 0 0 0 0 1.468e-10 0 8.57124e+12
116.896 0 1177.58 0 0 0 0 1.24935e-10 0 1.01154e+13
123.532 0 1389.73 0 0 0 0 1.06313e-10 0 1.19377e+13
130.545 0 1640.09 0 0 0 0 9.04567e-11 0 1.40883e+13
137.955 0 1935.56 0 0 0 0 7.69563e-11 0 1.66263e+13
145.787 0 2284.26 0 0 0 0 6.54636e-11 0 1.96216e+13
154.063 0 2695.77 0 0 0 0 5.56812e-11 0 2.31565e+13
162.808 0 3181.42 0 0 0 0 4.73556e-11 0 2.73282e+13
172.051 0 3754.56 0 0 0 0 4.02708e-11 0 3.22515e+13
181.818 0 4430.96 0 0 0 0 3.42426e-11 0 3.80616e+13
192.139 0 5229.21 0 0 0 0 2.91139e-11 0 4.49186e+13
203.046 0 6171.26 0 0 0 0 2.4751e-11 0 5.30108e+13
214.572 0 7283.03 0 0 0 0 2.10401e-11 0 6.25608e+13
226.753 0 8595.09 0 0 0 0 1.78839e-11 0 7.38313e+13
239.625 0 10143.5 0 0 0 0 1.51999e-11 0 8.71322e+13
253.228 0 11970.9 0 0 0 0 1.29176e-11 0 1.02829e+14
267.603 0 14127.5 0 0 0 0 1.09771e-11 0 1.21354e+14
282.795 0 16672.6 0 0 0 0 9.3274e-12 0 1.43217e+14
298.848 0 19676.2 0 0 0 0 7.925e-12 0 1.69017e+14
315.813 0 23220.9 0 0 0 0 6.73295e-12 0 1.99466e+14
333.741 0 27404.3 0 0 0 0 5.71979e-12 0 2.35401e+14
352.686 0 32341.2 0 0 0 0 4.85874e-12 0 2.77809e+14
372.707 0 38167.6 0 0 0 0 4.12703e-12 0 3.27857e+14
393.865 0 45043.5 0 0 0 0 3.50528e-12 0 3.86921e+14
416.224 0 53158.3 0 0 0 0 2.97701e-12 0 4.56626e+14
439.852 0 62734.9 0 0 0 0 2.52819e-12 0 5.38888e+14
464.821 0 74036.7 0 0 0 0 2.1469e-12 0 6.35971e+14
491.207 0 87374.6 0 0 0 0 1.82301e-12 0 7.50542e+14
519.092 0 103115 0 0 0 0 1.54789e-12 0 8.85755e+14
548.56 0 121692 0 0 0 0 1.31422e-12 0 1.04533e+15
579.7 0 143615 0 0 0 0 1.11576e-12 0 1.23364e+15
612.608 0 169488 0 0 0 0 9.47223e-13 0 1.45589e+15
647.384 0 200021 0 0 0 0 8.041e-13 0 1.71817e+15
684.134 0 236056 0 0 0 0 6.82568e-13 0 2.0277e+15
722.971 0 278582 0 0 0 0 5.79376e-13 0 2.393e+15
764.012 0 328769 0 0 0 0 4.91762e-13 0 2.8241e+15
