0.876934
200
1.0655e+09
8589934592
0.0129181 0 1.58924e-09 0 0 0 0 0.00677225 0 13.6515
0.0136515 0 1.87554e-09 0 0 0 0 0.00688819 0 16.1108
0.0144264 0 2.21343e-09 0 0 0 0 0.00699249 0 19.0132
0.0152454 0 2.61218e-09 0 0 0 0 0.00708412 0 22.4385
0.0161108 0 3.08278e-09 0 0 0 0 0.00716212 0 26.4808
0.0170254 0 3.63815e-09 0 0 0 0 0.00722559 0 31.2514
0.0179919 0 4.29357e-09 0 0 0 0 0.00727371 0 36.8815
0.0190132 0 5.06707e-09 0 0 0 0 0.00730578 0 43.5258
0.0200925 0 5.97991e-09 0 0 0 0 0.00732122 0 51.367
0.0212331 0 7.05721e-09 0 0 0 0 0.00731958 0 60.621
0.0224385 0 8.32858e-09 0 0 0 0 0.00730056 0 71.542
0.0237123 0 9.829e-09 0 0 0 0 0.00726401 0 84.4305
0.0250583 0 1.15997e-08 0 0 0 0 0.00720995 0 99.6408
0.0264808 0 1.36894e-08 0 0 0 0 0.00713857 0 117.591
0.0279841 0 1.61556e-08 0 0 0 0 0.00705021 0 138.776
0.0295727 0 1.90661e-08 0 0 0 0 0.00694538 0 163.777
0.0312514 0 2.25009e-08 0 0 0 0 0.00682475 0 193.281
0.0330255 0 2.65545e-08 0 0 0 0 0.00668915 0 228.102
0.0349003 0 3.13384e-08 0 0 0 0 0.00653951 0 269.195
0.0368815 0 3.69841e-08 0 0 0 0 0.00637693 0 317.691
0.0389751 0 4.36469e-08 0 0 0 0 0.00620256 0 374.924
0.0411876 0 5.151e-08 0 0 0 0 0.00601767 0 442.467
0.0435258 0 6.07896e-08 0 0 0 0 0.00582358 0 522.179
0.0459966 0 7.1741e-08 0 0 0 0 0.00562166 0 616.251
0.0486077 0 8.46654e-08 0 0 0 0 0.0054133 0 727.27
0.051367 0 9.99181e-08 0 0 0 0 0.00519989 0 858.29
0.054283 0 1.17919e-07 0 0 0 0 0.0049828 0 1012.91
0.0573645 0 1.39162e-07 0 0 0 0 0.00476339 0 1195.39
0.060621 0 1.64232e-07 0 0 0 0 0.00454293 0 1410.75
0.0640622 0 1.93819e-07 0 0 0 0 0.00432265 0 1664.89
0.0676989 0 2.28736e-07 0 0 0 0 0.00410371 0 1964.83
0.071542 0 2.69944e-07 0 0 0 0 0.00388717 0 2318.8
0.0756032 0 3.18575e-07 0 0 0 0 0.00367401 0 2736.54
0.079895 0 3.75967e-07 0 0 0 0 0.0034651 0 3229.53
0.0844305 0 4.43698e-07 0 0 0 0 0.00326121 0 3811.34
0.0892234 0 5.23632e-07 0 0 0 0 0.00306301 0 4497.96
0.0942883 0 6.17966e-07 0 0 0 0 0.00287109 0 5308.28
0.0996408 0 7.29294e-07 0 0 0 0 0.00268591 0 6264.59
0.105297 0 8.60678e-07 0 0 0 0 0.00250785 0 7393.17
0.111275 0 1.01573e-06 0 0 0 0 0.00233721 0 8725.07
0.117591 0 1.19872e-06 0 0 0 0 0.00217419 0 10296.9
0.124267 0 1.41467e-06 0 0 0 0 0.00201893 0 12151.9
0.131321 0 1.66953e-06 0 0 0 0 0.00187147 0 14341.1
0.138776 0 1.9703e-06 0 0 0 0 0.00173182 0 16924.7
0.146654 0 2.32525e-06 0 0 0 0 0.00159991 0 19973.8
0.154979 0 2.74415e-06 0 0 0 0 0.00147563 0 23572.1
0.163777 0 3.23852e-06 0 0 0 0 0.00135884 0 27818.7
0.173074 0 3.82195e-06 0 0 0 0 0.00124933 0 32830.3
0.182899 0 4.51048e-06 0 0 0 0 0.00114689 0 38744.7
0.193281 0 5.32305e-06 0 0 0 0 0.00105127 0 45724.7
0.204254 0 6.28202e-06 0 0 0 0 0.000962209 0 53962.1
0.215848 0 7.41374e-06 0 0 0 0 0.000879423 0 63683.5
0.228102 0 8.74934e-06 0 0 0 0 0.000802624 0 75156.3
0.24105 0 1.03256e-05 0 0 0 0 0.000731515 0 88695.9
0.254734 0 1.21857e-05 0 0 0 0 0.000665798 0 104675
0.269195 0 1.4381e-05 0 0 0 0 0.000605173 0 123532
0.284476 0 1.69718e-05 0 0 0 0 0.000549345 0 145787
0.300625 0 2.00293e-05 0 0 0 0 0.000498021 0 172051
0.317691 0 2.36377e-05 0 0 0 0 0.000450916 0 203046
0.335725 0 2.78961e-05 0 0 0 0 0.000407755 0 239625
0.354784 0 3.29216e-05 0 0 0 0 0.000368269 0 282795
0.374924 0 3.88525e-05 0 0 0 0 0.000332202 0 333741
0.396207 1.91084 4.58519e-05 4.8515e-06 6 1.85771 4.71662e-06 0.000299307 0.0972548 393865
0.418699 0 5.41123e-05 0 0 0 0 0.00026935 0 464821
0.442467 0 6.38607e-05 0 0 0 0 0.000242108 0 548560
0.467585 0 7.53654e-05 0 0 0 0 0.00021737 0 647384
0.494129 0 8.89427e-05 0 0 0 0 0.000194938 0 764012
0.522179 0 0.000104966 0 0 0 0 0.000174625 0 901651
0.551822 0 0.000123876 0 0 0 0 0.000156255 0 1.06409e+06
0.583147 6.30767 0.000146192 5.0229e-06 12 6.63886 5.28663e-06 0.000139664 0.43157 1.25578e+06
0.616251 0 0.000172529 0 0 0 0 0.0001247 0 1.48202e+06
0.651234 0 0.000203611 0 0 0 0 0.00011122 0 1.74901e+06
0.688203 9.17101 0.000240292 4.44312e-06 8 8.94284 4.33258e-06 9.90935e-05 0.358701 2.06409e+06
0.72727 0 0.000283581 0 0 0 0 8.81969e-05 0 2.43595e+06
0.768555 0 0.000334669 0 0 0 0 7.84179e-05 0 2.87479e+06
0.812184 9.95168 0.000394961 2.93327e-06 6 10.1645 2.99599e-06 6.96525e-05 0.252678 3.39269e+06
0.85829 0 0.000466114 0 0 0 0 6.1805e-05 0 4.00389e+06
0.907013 2.29056 0.000550086 4.84754e-07 24 2.33451 4.94056e-07 5.47875e-05 0.21235 4.7252e+06
0.958501 6.54989 0.000649185 1.17456e-06 24 6.16624 1.10576e-06 4.85194e-05 0.580993 5.57646e+06
1.01291 0 0.000766138 0 0 0 0 4.29272e-05 0 6.58107e+06
1.07041 0 0.00090416 0 0 0 0 3.79435e-05 0 7.76667e+06
1.13118 6.95098 0.00106705 7.58356e-07 12 6.8656 7.4904e-07 3.3507e-05 0.271593 9.16586e+06
1.19539 3.93706 0.00125928 3.63966e-07 30 3.8559 3.56463e-07 2.9562e-05 0.369359 1.08171e+07
1.26325 11.5757 0.00148614 9.06768e-07 24 11.4015 8.93123e-07 2.60578e-05 0.835159 1.27658e+07
1.33496 15.5624 0.00175387 1.03297e-06 24 15.5966 1.03524e-06 2.29484e-05 1.0803 1.50656e+07
1.41075 16.6598 0.00206984 9.37009e-07 32 16.7223 9.40527e-07 2.01923e-05 1.48494 1.77798e+07
1.49083 6.16494 0.00244272 2.93809e-07 48 6.03351 2.87545e-07 1.77518e-05 0.794447 2.09828e+07
1.57546 41.2426 0.00288279 1.6655e-06 6 39.2723 1.58593e-06 1.55929e-05 0.640869 2.4763e+07
1.66489 5.89903 0.00340213 2.01855e-07 84 5.7199 1.95726e-07 1.3685e-05 1.23901 2.92241e+07
1.75941 8.37153 0.00401503 2.42732e-07 48 8.26569 2.39663e-07 1.20007e-05 0.970871 3.44889e+07
1.85928 6.00512 0.00473835 1.47538e-07 72 6.04958 1.4863e-07 1.05151e-05 1.01024 4.07021e+07
1.96483 13.9898 0.00559198 2.91243e-07 54 13.6366 2.83891e-07 9.20606e-06 1.70834 4.80347e+07
2.07637 13.6534 0.00659939 2.4085e-07 104 13.8127 2.4366e-07 8.05366e-06 3.11019 5.66883e+07
2.19424 10.1908 0.00778828 1.52328e-07 120 10.3605 1.54864e-07 7.04008e-06 2.59647 6.69008e+07
2.3188 9.59883 0.00919136 1.21576e-07 156 9.35046 1.1843e-07 6.1494e-06 3.08419 7.89532e+07
2.45043 15.2298 0.0108472 1.63451e-07 126 15.0476 1.61495e-07 5.36741e-06 3.837 9.31768e+07
2.58954 10.4864 0.0128014 9.53633e-08 192 10.5215 9.56827e-08 4.68145e-06 3.91113 1.09963e+08
2.73654 32.7017 0.0151076 2.51992e-07 152 33.2052 2.55871e-07 4.08023e-06 9.38739 1.29773e+08
2.89188 13.4923 0.0178292 8.80978e-08 378 13.5646 8.85693e-08 3.55373e-06 9.3707 1.53152e+08
3.05605 19.0224 0.0210412 1.05245e-07 264 18.7446 1.03709e-07 3.09304e-06 8.98301 1.80743e+08
3.22953 19.4252 0.0248319 9.10681e-08 366 19.3328 9.06348e-08 2.69025e-06 12.3895 2.13304e+08
3.41286 19.0241 0.0293054 7.55731e-08 428 18.8146 7.47409e-08 2.33837e-06 13.8324 2.51731e+08
3.6066 20.9281 0.0345848 7.04458e-08 486 20.632 6.94489e-08 2.0312e-06 16.8553 2.97081e+08
3.81134 20.5392 0.0408154 5.85828e-08 600 20.4724 5.83923e-08 1.76327e-06 19.9344 3.50601e+08
4.0277 23.9992 0.0481684 5.80021e-08 738 23.9872 5.79732e-08 1.52972e-06 27.9826 4.13763e+08
4.25634 26.6929 0.056846 5.46646e-08 824 26.6173 5.45098e-08 1.32631e-06 33.9617 4.88304e+08
4.49796 26.9485 0.067087 4.67634e-08 954 26.7964 4.64994e-08 1.14926e-06 38.8184 5.76273e+08
4.7533 28.7371 0.0791729 4.22548e-08 1094 28.4891 4.18902e-08 9.95263e-07 46.4468 6.8009e+08
5.02313 29.6679 0.0934361 3.69643e-08 1332 29.7981 3.71265e-08 8.61414e-07 57.1577 8.0261e+08
5.30828 36.956 0.110269 3.9016e-08 1614 37.0424 3.91072e-08 7.45152e-07 84.5086 9.47202e+08
5.60962 41.7322 0.130134 3.73328e-08 1850 41.7666 3.73636e-08 6.44232e-07 107.206 1.11784e+09
5.92807 36.6866 0.153578 2.78092e-08 2238 36.6577 2.77873e-08 5.56685e-07 111.799 1.31923e+09
6.26459 38.1894 0.181246 2.45293e-08 2546 38.2712 2.45819e-08 4.80786e-07 129.895 1.55689e+09
6.62021 39.8942 0.213898 2.17127e-08 3264 39.9619 2.17496e-08 4.15026e-07 170.761 1.83737e+09
6.99602 45.135 0.252432 2.08152e-08 3506 45.2451 2.08659e-08 3.58083e-07 203.802 2.16837e+09
7.39317 48.2817 0.297908 1.88673e-08 4506 48.293 1.88718e-08 3.08803e-07 275.309 2.55901e+09
7.81286 55.8062 0.351577 1.84787e-08 5018 55.6776 1.84362e-08 2.66181e-07 348.358 3.02002e+09
8.25637 56.6152 0.414914 1.58849e-08 5852 56.5765 1.5874e-08 2.29336e-07 405.338 3.56409e+09
8.72507 58.9586 0.489662 1.40172e-08 7362 58.8634 1.39945e-08 1.97503e-07 522.495 4.20617e+09
9.22037 63.5561 0.577876 1.28036e-08 8306 63.379 1.27679e-08 1.70014e-07 625.518 4.96392e+09
9.74378 67.1349 0.681982 1.146e-08 9698 67.0182 1.14401e-08 1.46289e-07 759.724 5.85818e+09
10.2969 70.8673 0.804843 1.02505e-08 11816 70.8228 1.0244e-08 1.25822e-07 962.625 6.91355e+09
10.8814 80.3607 0.949838 9.84927e-09 13682 80.1616 9.82487e-09 1.08175e-07 1245.73 8.15905e+09
11.4992 79.9175 1.12095 8.29974e-09 16152 79.8972 8.29762e-09 9.29669e-08 1441.99 9.62892e+09
12.1519 85.8994 1.3229 7.55917e-09 19472 85.7668 7.54751e-09 7.98658e-08 1842.99 1.13636e+10
12.8418 90.5783 1.56122 6.75414e-09 22670 90.3615 6.73797e-09 6.85852e-08 2232.5 1.34108e+10
13.5708 96.7736 1.84248 6.11455e-09 26224 96.6242 6.10511e-09 5.88765e-08 2723.47 1.58268e+10
14.3411 101.789 2.17441 5.44966e-09 31640 101.682 5.44392e-09 5.05241e-08 3412.77 1.8678e+10
15.1552 109.072 2.56613 4.94817e-09 37484 108.834 4.93739e-09 4.33417e-08 4279.42 2.20429e+10
16.0156 115.831 3.02843 4.45266e-09 43856 115.706 4.44784e-09 3.71677e-08 5253.9 2.6014e+10
16.9247 122.875 3.574 4.00239e-09 51362 122.725 3.99748e-09 3.18628e-08 6451.74 3.07005e+10
17.8855 128.369 4.21787 3.54305e-09 61636 128.176 3.53773e-09 2.73063e-08 7997.39 3.62312e+10
18.9008 138.131 4.97773 3.2305e-09 72218 137.812 3.22304e-09 2.33941e-08 9972.59 4.27584e+10
19.9738 145.319 5.87448 2.8798e-09 84586 145.134 2.87614e-09 2.00364e-08 12157.4 5.04614e+10
21.1076 154.17 6.93279 2.58882e-09 100708 153.954 2.5852e-09 1.71555e-08 15197.1 5.95522e+10
22.3058 164.438 8.18175 2.33973e-09 118712 164.169 2.33591e-09 1.46847e-08 18914.6 7.02807e+10
23.5721 171.331 9.65571 2.06568e-09 140410 171.048 2.06226e-09 1.25662e-08 23081.2 8.29419e+10
24.9102 179.75 11.3952 1.83636e-09 164374 179.417 1.83295e-09 1.07504e-08 28078 9.78842e+10
26.3243 190.186 13.4481 1.64638e-09 194680 189.907 1.64396e-09 9.19452e-09 34859.5 1.15518e+11
27.8187 200.761 15.8708 1.47262e-09 230196 200.407 1.47003e-09 7.86182e-09 43118.6 1.36329e+11
29.3979 211.634 18.73 1.3154e-09 271156 211.304 1.31335e-09 6.72061e-09 53072.4 1.60889e+11
31.0667 224.064 22.1042 1.18007e-09 321076 223.64 1.17784e-09 5.74366e-09 65966.8 1.89874e+11
32.8303 235.013 26.0864 1.04879e-09 377436 234.579 1.04686e-09 4.90756e-09 80661.5 2.2408e+11
34.694 247.861 30.7859 9.37273e-10 447594 247.36 9.35378e-10 4.19221e-09 100071 2.64449e+11
36.6634 259.955 36.3321 8.32949e-10 525078 259.482 8.31435e-10 3.58032e-09 122157 3.1209e+11
38.7447 274.398 42.8774 7.45011e-10 621924 273.867 7.4357e-10 3.05709e-09 151563 3.68314e+11
40.9442 288.904 50.6018 6.64657e-10 732630 288.372 6.63433e-10 2.60976e-09 186587 4.34667e+11
43.2685 304.189 59.7179 5.92992e-10 865596 303.656 5.91952e-10 2.22743e-09 230441 5.12973e+11
45.7247 319.265 70.4762 5.27375e-10 1.02168e+06 318.761 5.26542e-10 1.90073e-09 283473 6.05386e+11
48.3204 334.54 83.1727 4.6825e-10 1.20544e+06 333.919 4.6738e-10 1.62163e-09 348072 7.14448e+11
51.0634 350.745 98.1565 4.1599e-10 1.42103e+06 350.179 4.15319e-10 1.38326e-09 427350 8.43158e+11
53.9621 366.855 115.84 3.68678e-10 1.67997e+06 366.226 3.68046e-10 1.1797e-09 525020 9.95055e+11
57.0254 386.517 136.709 3.29142e-10 1.98018e+06 385.844 3.28569e-10 1.00592e-09 647924 1.17432e+12
60.2626 405.51 161.337 2.92603e-10 2.33957e+06 404.82 2.92105e-10 8.57591e-10 798241 1.38587e+12
63.6835 426.175 190.402 2.60571e-10 2.75676e+06 425.397 2.60096e-10 7.3101e-10 982659 1.63554e+12
67.2987 449.158 224.704 2.32701e-10 3.25638e+06 448.387 2.32302e-10 6.23009e-10 1.2163e+06 1.93019e+12
71.1191 472.595 265.185 2.07468e-10 3.84387e+06 471.728 2.07087e-10 5.30879e-10 1.50219e+06 2.27792e+12
75.1563 499.92 312.958 1.85962e-10 4.53277e+06 499.02 1.85627e-10 4.52303e-10 1.86362e+06 2.68829e+12
79.4227 527.314 369.339 1.66209e-10 5.35083e+06 526.372 1.65912e-10 3.85299e-10 2.30822e+06 3.17259e+12
83.9313 559.627 435.876 1.49467e-10 6.32174e+06 558.572 1.49186e-10 3.28173e-10 2.87925e+06 3.74415e+12
88.6959 594.474 514.4 1.34537e-10 7.44986e+06 593.305 1.34272e-10 2.79476e-10 3.58629e+06 4.41866e+12
93.7309 634.397 607.071 1.21655e-10 8.79764e+06 633.159 1.21418e-10 2.37972e-10 4.4975e+06 5.2147e+12
99.0518 679.248 716.436 1.10373e-10 1.03827e+07 677.884 1.10151e-10 2.02605e-10 5.65615e+06 6.15414e+12
104.675 730.261 845.504 1.00548e-10 1.22515e+07 728.745 1.00339e-10 1.72471e-10 7.14244e+06 7.26283e+12
110.617 789.933 997.824 9.21608e-11 1.44573e+07 788.236 9.19629e-11 1.468e-10 9.07628e+06 8.57124e+12
116.896 860.196 1177.58 8.50385e-11 1.70664e+07 858.247 8.48458e-11 1.24935e-10 1.16165e+07 1.01154e+13
123.532 941.843 1389.73 7.88966e-11 2.0139e+07 939.623 7.87106e-11 1.06313e-10 1.49455e+07 1.19377e+13
130.545 1038.52 1640.09 7.37151e-11 2.37643e+07 1035.97 7.35338e-11 9.04567e-11 1.9366e+07 1.40883e+13
137.955 1152.94 1935.56 6.93443e-11 2.80503e+07 1150.03 6.9169e-11 7.69563e-11 2.52757e+07 1.66263e+13
145.787 1288.56 2284.26 6.56706e-11 3.30981e+07 1285.17 6.54977e-11 6.54636e-11 3.32028e+07 1.96216e+13
154.063 1449.41 2695.77 6.25921e-11 3.90634e+07 1445.5 6.24231e-11 5.56812e-11 4.39118e+07 2.31565e+13
162.808 1641.22 3181.42 6.00557e-11 4.61057e+07 1636.58 5.9886e-11 4.73556e-11 5.84705e+07 2.73282e+13
172.051 1870.42 3754.56 5.79949e-11 5.44046e+07 1865.01 5.78271e-11 4.02708e-11 7.83492e+07 3.22515e+13
181.818 2143.22 4430.96 5.63092e-11 6.42064e+07 2136.84 5.61416e-11 3.42426e-11 1.05582e+08 3.80616e+13
192.139 2469.44 5229.21 5.4976e-11 7.57748e+07 2461.9 5.48081e-11 2.91139e-11 1.43086e+08 4.49186e+13
203.046 2857.51 6171.26 5.39044e-11 8.94213e+07 2848.64 5.3737e-11 2.4751e-11 1.94748e+08 5.30108e+13
214.572 3323.08 7283.03 5.31177e-11 1.05538e+08 3312.59 5.29499e-11 2.10401e-11 2.66441e+08 6.25608e+13
226.753 3880.95 8595.09 5.25651e-11 1.24552e+08 3868.43 5.23955e-11 1.78839e-11 3.66087e+08 7.38313e+13
239.625 4550.52 10143.5 5.22255e-11 1.46987e+08 4535.55 5.20537e-11 1.51999e-11 5.05034e+08 8.71322e+13
253.228 5358.43 11970.9 5.211e-11 1.7347e+08 5340.5 5.19356e-11 1.29176e-11 6.99782e+08 1.02829e+14
267.603 6335.97 14127.5 5.22105e-11 2.04703e+08 6314.46 5.20333e-11 1.09771e-11 9.73628e+08 1.21354e+14
282.795 7525.04 16672.6 5.25431e-11 2.4161e+08 7499.02 5.23614e-11 9.3274e-12 1.36104e+09 1.43217e+14
298.848 8984.46 19676.2 5.3157e-11 2.85122e+08 8952.61 5.29686e-11 7.925e-12 1.91246e+09 1.69017e+14
315.813 10800.7 23220.9 5.41481e-11 3.36491e+08 10761.4 5.39508e-11 6.73295e-12 2.70615e+09 1.99466e+14
333.741 13095.1 27404.3 5.5629e-11 3.97115e+08 13045.4 5.5418e-11 5.71979e-12 3.86222e+09 2.35401e+14
352.686 16061.6 32341.2 5.78152e-11 4.68637e+08 15997.8 5.75858e-11 4.85874e-12 5.57641e+09 2.77809e+14
372.707 20012.8 38167.6 6.10412e-11 5.53074e+08 19928.5 6.07842e-11 4.12703e-12 8.18029e+09 3.27857e+14
393.865 25475.6 45043.5 6.58419e-11 6.52716e+08 25359.8 6.55424e-11 3.50528e-12 1.22604e+10 3.86921e+14
416.224 30080 53158.3 6.58744e-11 2.2184e+08 31821.7 6.96888e-11 2.97701e-12 4.90881e+09 4.56626e+14
439.852 0 62734.9 0 0 0 0 2.52819e-12 0 5.38888e+14
464.821 0 74036.7 0 0 0 0 2.1469e-12 0 6.35971e+14
491.207 0 87374.6 0 0 0 0 1.82301e-12 0 7.50542e+14
519.092 0 103115 0 0 0 0 1.54789e-12 0 8.85755e+14
548.56 0 121692 0 0 0 0 1.31422e-12 0 1.04533e+15
579.7 0 143615 0 0 0 0 1.11576e-12 0 1.23364e+15
612.608 0 169488 0 0 0 0 9.47223e-13 0 1.45589e+15
647.384 0 200021 0 0 0 0 8.041e-13 0 1.71817e+15
684.134 0 236056 0 0 0 0 6.82568e-13 0 2.0277e+15
722.971 0 278582 0 0 0 0 5.79376e-13 0 2.393e+15
764.012 0 328769 0 0 0 0 4.91762e-13 0 2.8241e+15
0.876934
200
1.0655e+09
8589934592
0.0129181 0.00173184 1.58924e-09 0.000126861 6 0.00171599 0.0001257 0.00677225 0.112395 13.6515
0.0136515 0 1.87554e-09 0 0 0 0 0.00688819 0 16.1108
0.0144264 0 2.21343e-09 0 0 0 0 0.00699249 0 19.0132
0.0152454 0 2.61218e-09 0 0 0 0 0.00708412 0 22.4385
0.0161108 0 3.08278e-09 0 0 0 0 0.00716212 0 26.4808
0.0170254 0 3.63815e-09 0 0 0 0 0.00722559 0 31.2514
0.0179919 0.00386405 4.29357e-09 0.00010477 12 0.00385908 0.000104635 0.00727371 0.172846 36.8815
0.0190132 0 5.06707e-09 0 0 0 0 0.00730578 0 43.5258
0.0200925 0 5.97991e-09 0 0 0 0 0.00732122 0 51.367
0.0212331 0.00366489 7.05721e-09 6.04558e-05 8 0.0036617 6.04032e-05 0.00731958 0.0660757 60.621
0.0224385 0 8.32858e-09 0 0 0 0 0.00730056 0 71.542
0.0237123 0 9.829e-09 0 0 0 0 0.00726401 0 84.4305
0.0250583 0.0231382 1.15997e-08 0.000232216 6 0.0231273 0.000232107 0.00720995 0.193247 99.6408
0.0264808 0 1.36894e-08 0 0 0 0 0.00713857 0 117.591
0.0279841 0.0142719 1.61556e-08 0.000102841 24 0.0142572 0.000102736 0.00705021 0.350088 138.776
0.0295727 0 1.90661e-08 0 0 0 0 0.00694538 0 163.777
0.0312514 0.0253684 2.25009e-08 0.000131251 24 0.0254972 0.000131917 0.00682475 0.461559 193.281
0.0330255 0 2.65545e-08 0 0 0 0 0.00668915 0 228.102
0.0349003 0.0386598 3.13384e-08 0.000143613 12 0.0383503 0.000142463 0.00653951 0.263529 269.195
0.0368815 0.0309653 3.69841e-08 9.74699e-05 30 0.0306356 9.6432e-05 0.00637693 0.458543 317.691
0.0389751 0.0350919 4.36469e-08 9.35975e-05 24 0.0347309 9.26346e-05 0.00620256 0.362163 374.924
0.0411876 0.0225452 5.151e-08 5.09535e-05 24 0.0223921 5.06074e-05 0.00601767 0.203216 442.467
0.0435258 0.0560166 6.07896e-08 0.000107275 8 0.0560123 0.000107266 0.00582358 0.147366 522.179
0.0459966 0.0687425 7.1741e-08 0.000111549 72 0.0682002 0.000110669 0.00562166 1.42868 616.251
0.0486077 0 8.46654e-08 0 0 0 0 0.0054133 0 727.27
0.051367 0.0943586 9.99181e-08 0.000109938 54 0.0940456 0.000109573 0.00519989 1.14169 858.29
0.054283 0.076287 1.17919e-07 7.53145e-05 60 0.0766339 7.56569e-05 0.0049828 0.906893 1012.91
0.0573645 0.0712206 1.39162e-07 5.95793e-05 96 0.071038 5.94265e-05 0.00476339 1.20074 1195.39
0.060621 0.0846502 1.64232e-07 6.00039e-05 24 0.0835033 5.91909e-05 0.00454293 0.316997 1410.75
0.0640622 0.145177 1.93819e-07 8.71989e-05 134 0.145242 8.72382e-05 0.00432265 2.70312 1664.89
0.0676989 0.142065 2.28736e-07 7.23041e-05 120 0.14137 7.19503e-05 0.00410371 2.1143 1964.83
0.071542 0.133812 2.69944e-07 5.77073e-05 108 0.132331 5.70688e-05 0.00388717 1.60332 2318.8
0.0756032 0.19805 3.18575e-07 7.23724e-05 174 0.196949 7.19703e-05 0.00367401 3.42754 2736.54
0.079895 0.207167 3.75967e-07 6.41476e-05 168 0.205219 6.35446e-05 0.0034651 3.1101 3229.53
0.0844305 0.172665 4.43698e-07 4.53029e-05 168 0.17352 4.55272e-05 0.00326121 2.33376 3811.34
0.0892234 0.207461 5.23632e-07 4.61234e-05 290 0.206483 4.59058e-05 0.00306301 4.36687 4497.96
0.0942883 0.250394 6.17966e-07 4.71705e-05 288 0.249855 4.70689e-05 0.00287109 4.73168 5308.28
0.0996408 0.224916 7.29294e-07 3.59027e-05 366 0.223191 3.56274e-05 0.00268591 4.89235 6264.59
0.105297 0.265136 8.60678e-07 3.58624e-05 420 0.26324 3.56058e-05 0.00250785 6.00601 7393.17
0.111275 0.283811 1.01573e-06 3.25283e-05 398 0.283018 3.24373e-05 0.00233721 5.53918 8725.07
0.117591 0.337206 1.19872e-06 3.27482e-05 624 0.338151 3.284e-05 0.00217419 9.39884 10296.9
0.124267 0.391596 1.41467e-06 3.2225e-05 642 0.390712 3.21523e-05 0.00201893 10.2473 12151.9
0.131321 0.460484 1.66953e-06 3.21093e-05 800 0.460594 3.2117e-05 0.00187147 13.7258 14341.1
0.138776 0.425436 1.9703e-06 2.51369e-05 858 0.427243 2.52437e-05 0.00173182 12.4537 16924.7
0.146654 0.495764 2.32525e-06 2.48208e-05 1080 0.49988 2.50268e-05 0.00159991 16.755 19973.8
0.154979 0.578299 2.74415e-06 2.45332e-05 1286 0.581931 2.46873e-05 0.00147563 21.3804 23572.1
0.163777 0.567659 3.23852e-06 2.04057e-05 1650 0.569275 2.04638e-05 0.00135884 24.7781 27818.7
0.173074 0.634062 3.82195e-06 1.93133e-05 1778 0.634546 1.93281e-05 0.00124933 27.486 32830.3
0.182899 0.683252 4.51048e-06 1.76347e-05 2112 0.684833 1.76755e-05 0.00114689 32.4743 38744.7
0.193281 0.754041 5.32305e-06 1.64909e-05 2570 0.754624 1.65036e-05 0.00105127 40.3146 45724.7
0.204254 0.883354 6.28202e-06 1.63699e-05 3030 0.882773 1.63591e-05 0.000962209 51.5488 53962.1
0.215848 0.920454 7.41374e-06 1.44536e-05 3434 0.92008 1.44477e-05 0.000879423 56.4388 63683.5
0.228102 0.978987 8.74934e-06 1.3026e-05 4218 0.978381 1.30179e-05 0.000802624 68.4551 75156.3
0.24105 1.09109 1.03256e-05 1.23014e-05 4766 1.09175 1.23089e-05 0.000731515 80.1468 88695.9
0.254734 1.18966 1.21857e-05 1.13653e-05 6026 1.18964 1.13651e-05 0.000665798 102.865 104675
0.269195 1.35689 1.4381e-05 1.09841e-05 6480 1.35568 1.09743e-05 0.000605173 117.615 123532
0.284476 1.46393 1.69718e-05 1.00416e-05 8162 1.46651 1.00593e-05 0.000549345 149.195 145787
0.300625 1.61803 2.00293e-05 9.40436e-06 9578 1.61865 9.40797e-06 0.000498021 180.866 172051
0.317691 1.79532 2.36377e-05 8.84194e-06 11234 1.79376 8.83423e-06 0.000450916 220.286 203046
0.335725 1.93225 2.78961e-05 8.06362e-06 13344 1.92867 8.0487e-06 0.000407755 263.886 239625
0.354784 2.17866 3.29216e-05 7.70406e-06 15464 2.17726 7.69909e-06 0.000368269 323.501 282795
0.374924 2.35404 3.88525e-05 7.05349e-06 18458 2.35173 7.04659e-06 0.000332202 391.911 333741
0.396207 2.7253 4.58519e-05 6.91937e-06 22232 2.72094 6.90831e-06 0.000299307 513.959 393865
0.418699 2.92907 5.41123e-05 6.3015e-06 25628 2.92195 6.28618e-06 0.00026935 599.573 464821
0.442467 3.20288 6.38607e-05 5.8387e-06 30320 3.19741 5.82874e-06 0.000242108 731.201 548560
0.467585 3.62971 7.53654e-05 5.60674e-06 35452 3.62309 5.59651e-06 0.00021737 914.431 647384
0.494129 4.0176 8.89427e-05 5.25855e-06 41792 4.01299 5.25252e-06 0.000194938 1127.36 764012
0.522179 4.52282 0.000104966 5.01616e-06 49988 4.5222 5.01547e-06 0.000174625 1435.92 901651
0.551822 5.05076 0.000123876 4.74657e-06 59110 5.04393 4.74015e-06 0.000156255 1795.59 1.06409e+06
0.583147 5.61833 0.000146192 4.47397e-06 69716 5.60926 4.46674e-06 0.000139664 2233.27 1.25578e+06
0.616251 6.27397 0.000172529 4.2334e-06 82210 6.26163 4.22508e-06 0.0001247 2790.92 1.48202e+06
0.651234 6.92912 0.000203611 3.96175e-06 96722 6.91361 3.95288e-06 0.00011122 3445.3 1.74901e+06
0.688203 7.86648 0.000240292 3.81111e-06 113098 7.85376 3.80495e-06 9.90935e-05 4349.72 2.06409e+06
0.72727 8.79881 0.000283581 3.61207e-06 135190 8.78591 3.60678e-06 8.81969e-05 5536.66 2.43595e+06
0.768555 9.83542 0.000334669 3.42127e-06 158170 9.82011 3.41594e-06 7.84179e-05 6900.74 2.87479e+06
0.812184 11.015 0.000394961 3.24668e-06 188560 10.9966 3.24127e-06 6.96525e-05 8789.26 3.39269e+06
0.85829 12.3127 0.000466114 3.07517e-06 220444 12.2924 3.07011e-06 6.1805e-05 10968.4 4.00389e+06
0.907013 13.7653 0.000550086 2.91317e-06 261388 13.7418 2.90818e-06 5.47875e-05 13898.6 4.7252e+06
0.958501 15.4133 0.000649185 2.76399e-06 308244 15.3899 2.7598e-06 4.85194e-05 17559.7 5.57646e+06
1.01291 17.3038 0.000766138 2.62933e-06 364396 17.2744 2.62486e-06 4.29272e-05 22319.6 6.58107e+06
1.07041 19.2302 0.00090416 2.47599e-06 429162 19.1948 2.47144e-06 3.79435e-05 28004.9 7.76667e+06
1.13118 21.446 0.00106705 2.33976e-06 506358 21.4096 2.3358e-06 3.3507e-05 35358.5 9.16586e+06
1.19539 23.9745 0.00125928 2.21635e-06 598590 23.9299 2.21222e-06 2.9562e-05 44878.1 1.08171e+07
1.26325 26.6195 0.00148614 2.08521e-06 704844 26.5717 2.08147e-06 2.60578e-05 56403.4 1.27658e+07
1.33496 29.5772 0.00175387 1.96322e-06 834620 29.5191 1.95936e-06 2.29484e-05 71401.1 1.50656e+07
1.41075 32.7979 0.00206984 1.84467e-06 981444 32.7355 1.84116e-06 2.01923e-05 89660.1 1.77798e+07
1.49083 36.2185 0.00244272 1.7261e-06 1.15998e+06 36.1527 1.72297e-06 1.77518e-05 112791 2.09828e+07
1.57546 39.9999 0.00288279 1.61531e-06 1.36931e+06 39.9269 1.61237e-06 1.55929e-05 141851 2.4763e+07
1.66489 44.0774 0.00340213 1.50826e-06 1.61652e+06 43.9963 1.50548e-06 1.3685e-05 178160 2.92241e+07
1.75941 48.5667 0.00401503 1.40819e-06 1.90601e+06 48.477 1.40558e-06 1.20007e-05 223655 3.44889e+07
1.85928 53.2247 0.00473835 1.30766e-06 2.24913e+06 53.1248 1.30521e-06 1.05151e-05 279702 4.07021e+07
1.96483 58.1665 0.00559198 1.21093e-06 2.65744e+06 58.0571 1.20865e-06 9.20606e-06 349549 4.80347e+07
2.07637 63.5492 0.00659939 1.12103e-06 3.13125e+06 63.4332 1.11898e-06 8.05366e-06 435855 5.66883e+07
2.19424 69.3844 0.00778828 1.03712e-06 3.69915e+06 69.2579 1.03523e-06 7.04008e-06 544947 6.69008e+07
2.3188 75.2947 0.00919136 9.53663e-07 4.36472e+06 75.1646 9.52014e-07 6.1494e-06 676891 7.89532e+07
2.45043 81.8851 0.0108472 8.78814e-07 5.14913e+06 81.7419 8.77277e-07 5.36741e-06 843075 9.31768e+07
2.58954 88.5192 0.0128014 8.04992e-07 6.07894e+06 88.3677 8.03614e-07 4.68145e-06 1.04529e+06 1.09963e+08
2.73654 95.7385 0.0151076 7.37738e-07 7.17304e+06 95.5767 7.36492e-07 4.08023e-06 1.29694e+06 1.29773e+08
2.89188 103.379 0.0178292 6.75011e-07 8.46557e+06 103.204 6.73865e-07 3.55373e-06 1.60799e+06 1.53152e+08
3.05605 111.459 0.0210412 6.16672e-07 9.98773e+06 111.275 6.15656e-07 3.09304e-06 1.9913e+06 1.80743e+08
3.22953 119.944 0.0248319 5.62314e-07 1.1797e+07 119.743 5.61374e-07 2.69025e-06 2.4658e+06 2.13304e+08
3.41286 128.782 0.0293054 5.11584e-07 1.39144e+07 128.562 5.10712e-07 2.33837e-06 3.04416e+06 2.51731e+08
3.6066 138.289 0.0345848 4.65492e-07 1.64163e+07 138.057 4.64711e-07 2.0312e-06 3.76213e+06 2.97081e+08
3.81134 148.136 0.0408154 4.22519e-07 1.93821e+07 147.893 4.21828e-07 1.76327e-06 4.64441e+06 3.50601e+08
4.0277 158.489 0.0481684 3.83043e-07 2.28754e+07 158.229 3.82415e-07 1.52972e-06 5.72801e+06 4.13763e+08
4.25634 169.471 0.056846 3.4706e-07 2.69929e+07 169.189 3.46483e-07 1.32631e-06 7.06334e+06 4.88304e+08
4.49796 180.938 0.067087 3.1398e-07 3.18542e+07 180.636 3.13456e-07 1.14926e-06 8.70266e+06 5.76273e+08
4.7533 193.062 0.0791729 2.83877e-07 3.75892e+07 192.745 2.83411e-07 9.95263e-07 1.07215e+07 6.8009e+08
5.02313 205.734 0.0934361 2.56331e-07 4.43706e+07 205.395 2.55909e-07 8.61414e-07 1.32034e+07 8.0261e+08
5.30828 219.175 0.110269 2.31391e-07 5.23593e+07 218.811 2.31008e-07 7.45152e-07 1.62591e+07 9.47202e+08
5.60962 233.165 0.130134 2.08585e-07 6.1787e+07 232.781 2.08241e-07 6.44232e-07 2.0005e+07 1.11784e+09
5.92807 247.816 0.153578 1.8785e-07 7.29346e+07 247.406 1.87539e-07 5.56685e-07 2.46113e+07 1.31923e+09
6.26459 263.163 0.181246 1.69032e-07 8.60651e+07 262.728 1.68752e-07 4.80786e-07 3.02582e+07 1.55689e+09
6.62021 279.267 0.213898 1.51993e-07 1.01558e+08 278.806 1.51742e-07 4.15026e-07 3.71932e+07 1.83737e+09
6.99602 296.208 0.252432 1.36604e-07 1.1986e+08 295.719 1.36378e-07 3.58083e-07 4.57249e+07 2.16837e+09
7.39317 313.826 0.297908 1.22636e-07 1.41457e+08 313.312 1.22435e-07 3.08803e-07 5.6177e+07 2.55901e+09
7.81286 332.232 0.351577 1.1001e-07 1.66936e+08 331.683 1.09828e-07 2.66181e-07 6.89928e+07 3.02002e+09
8.25637 351.891 0.414914 9.87324e-08 1.97025e+08 351.315 9.85708e-08 2.29336e-07 8.48221e+07 3.56409e+09
8.72507 372.322 0.489662 8.85181e-08 2.32497e+08 371.705 8.83714e-08 1.97503e-07 1.04202e+08 4.20617e+09
9.22037 394.344 0.577876 7.94421e-08 2.74404e+08 393.681 7.93085e-08 1.70014e-07 1.2822e+08 4.96392e+09
9.74378 418.45 0.681982 7.143e-08 3.2382e+08 417.731 7.13072e-08 1.46289e-07 1.58115e+08 5.85818e+09
10.2969 445.412 0.804843 6.44259e-08 3.82165e+08 444.622 6.43116e-08 1.25822e-07 1.95683e+08 6.91355e+09
10.8814 477.184 0.949838 5.84853e-08 4.51027e+08 476.275 5.83739e-08 1.08175e-07 2.43849e+08 8.15905e+09
11.4992 518.017 1.12095 5.37981e-08 5.32251e+08 516.915 5.36836e-08 9.29669e-08 3.08003e+08 9.62892e+09
12.1519 575.473 1.3229 5.06418e-08 6.28157e+08 574.031 5.05149e-08 7.98658e-08 3.98306e+08 1.13636e+10
12.8418 640.093 1.56122 4.77297e-08 3.82727e+08 662.52 4.94021e-08 6.85852e-08 2.66347e+08 1.34108e+10
13.5708 0 1.84248 0 0 0 0 5.88765e-08 0 1.58268e+10
14.3411 0 2.17441 0 0 0 0 5.05241e-08 0 1.8678e+10
15.1552 0 2.56613 0 0 0 0 4.33417e-08 0 2.20429e+10
16.0156 0 3.02843 0 0 0 0 3.71677e-08 0 2.6014e+10
16.9247 0 3.574 0 0 0 0 3.18628e-08 0 3.07005e+10
17.8855 0 4.21787 0 0 0 0 2.73063e-08 0 3.62312e+10
18.9008 0 4.97773 0 0 0 0 2.33941e-08 0 4.27584e+10
19.9738 0 5.87448 0 0 0 0 2.00364e-08 0 5.04614e+10
21.1076 0 6.93279 0 0 0 0 1.71555e-08 0 5.95522e+10
22.3058 0 8.18175 0 0 0 0 1.46847e-08 0 7.02807e+10
23.5721 0 9.65571 0 0 0 0 1.25662e-08 0 8.29419e+10
24.9102 0 11.3952 0 0 0 0 1.07504e-08 0 9.78842e+10
26.3243 0 13.4481 0 0 0 0 9.19452e-09 0 1.15518e+11
27.8187 0 15.8708 0 0 0 0 7.86182e-09 0 1.36329e+11
29.3979 0 18.73 0 0 0 0 6.72061e-09 0 1.60889e+11
31.0667 0 22.1042 0 0 0 0 5.74366e-09 0 1.89874e+11
32.8303 0 26.0864 0 0 0 0 4.90756e-09 0 2.2408e+11
34.694 0 30.7859 0 0 0 0 4.19221e-09 0 2.64449e+11
36.6634 0 36.3321 0 0 0 0 3.58032e-09 0 3.1209e+11
38.7447 0 42.8774 0 0 0 0 3.05709e-09 0 3.68314e+11
40.9442 0 50.6018 0 0 0 0 2.60976e-09 0 4.34667e+11
43.2685 0 59.7179 0 0 0 0 2.22743e-09 0 5.12973e+11
45.7247 0 70.4762 0 0 0 0 1.90073e-09 0 6.05386e+11
48.3204 0 83.1727 0 0 0 0 1.62163e-09 0 7.14448e+11
51.0634 0 98.1565 0 0 0 0 1.38326e-09 0 8.43158e+11
53.9621 0 115.84 0 0 0 0 1.1797e-09 0 9.95055e+11
57.0254 0 136.709 0 0 0 0 1.00592e-09 0 1.17432e+12
60.2626 0 161.337 0 0 0 0 8.57591e-10 0 1.38587e+12
63.6835 0 190.402 0 0 0 0 7.3101e-10 0 1.63554e+12
67.2987 0 224.704 0 0 0 0 6.23009e-10 0 1.93019e+12
71.1191 0 265.185 0 0 0 0 5.30879e-10 0 2.27792e+12
75.1563 0 312.958 0 0 0 0 4.52303e-10 0 2.68829e+12
79.4227 0 369.339 0 0 0 0 3.85299e-10 0 3.17259e+12
83.9313 0 435.876 0 0 0 0 3.28173e-10 0 3.74415e+12
88.6959 0 514.4 0 0 0 0 2.79476e-10 0 4.41866e+12
93.7309 0 607.071 0 0 0 0 2.37972e-10 0 5.2147e+12
99.0518 0 716.436 0 0 0 0 2.02605e-10 0 6.15414e+12
104.675 0 845.504 0 0 0 0 1.72471e-10 0 7.26283e+12
110.617 0 997.824 0 0 0 0 1.468e-10 0 8.57124e+12
116.896 0 1177.58 0 0 0 0 1.24935e-10 0 1.01154e+13
123.532 0 1389.73 0 0 0 0 1.06313e-10 0 1.19377e+13
130.545 0 1640.09 0 0 0 0 9.04567e-11 0 1.40883e+13
137.955 0 1935.56 0 0 0 0 7.69563e-11 0 1.66263e+13
145.787 0 2284.26 0 0 0 0 6.54636e-11 0 1.96216e+13
154.063 0 2695.77 0 0 0 0 5.56812e-11 0 2.31565e+13
162.808 0 3181.42 0 0 0 0 4.73556e-11 0 2.73282e+13
172.051 0 3754.56 0 0 0 0 4.02708e-11 0 3.22515e+13
181.818 0 4430.96 0 0 0 0 3.42426e-11 0 3.80616e+13
192.139 0 5229.21 0 0 0 0 2.91139e-11 0 4.49186e+13
203.046 0 6171.26 0 0 0 0 2.4751e-11 0 5.30108e+13
214.572 0 7283.03 0 0 0 0 2.10401e-11 0 6.25608e+13
226.753 0 8595.09 0 0 0 0 1.78839e-11 0 7.38313e+13
239.625 0 10143.5 0 0 0 0 1.51999e-11 0 8.71322e+13
253.228 0 11970.9 0 0 0 0 1.29176e-11 0 1.02829e+14
267.603 0 14127.5 0 0 0 0 1.09771e-11 0 1.21354e+14
282.795 0 16672.6 0 0 0 0 9.3274e-12 0 1.43217e+14
298.848 0 19676.2 0 0 0 0 7.925e-12 0 1.69017e+14
315.813 0 23220.9 0 0 0 0 6.73295e-12 0 1.99466e+14
333.741 0 27404.3 0 0 0 0 5.71979e-12 0 2.35401e+14
352.686 0 32341.2 0 0 0 0 4.85874e-12 0 2.77809e+14
372.707 0 38167.6 0 0 0 0 4.12703e-12 0 3.27857e+14
393.865 0 45043.5 0 0 0 0 3.50528e-12 0 3.86921e+14
416.224 0 53158.3 0 0 0 0 2.97701e-12 0 4.56626e+14
439.852 0 62734.9 0 0 0 0 2.52819e-12 0 5.38888e+14
464.821 0 74036.7 0 0 0 0 2.1469e-12 0 6.35971e+14
491.207 0 87374.6 0 0 0 0 1.82301e-12 0 7.50542e+14
519.092 0 103115 0 0 0 0 1.54789e-12 0 8.85755e+14
548.56 0 121692 0 0 0 0 1.31422e-12 0 1.04533e+15
579.7 0 143615 0 0 0 0 1.11576e-12 0 1.23364e+15
612.608 0 169488 0 0 0 0 9.47223e-13 0 1.45589e+15
647.384 0 200021 0 0 0 0 8.041e-13 0 1.71817e+15
684.134 0 236056 0 0 0 0 6.82568e-13 0 2.0277e+15
722.971 0 278582 0 0 0 0 5.79376e-13 0 2.393e+15
764.012 0 328769 0 0 0 0 4.91762e-13 0 2.8241e+15
