0.826119
200
1.0655e+09
8589934592
0.0129181 0 1.58924e-09 0 0 0 0 0.00677225 0 13.6515
0.0136515 0 1.87554e-09 0 0 0 0 0.00688819 0 16.1108
0.0144264 0 2.21343e-09 0 0 0 0 0.00699249 0 19.0132
0.0152454 0 2.61218e-09 0 0 0 0 0.00708412 0 22.4385
0.0161108 0 3.08278e-09 0 0 0 0 0.00716212 0 26.4808
0.0170254 0 3.63815e-09 0 0 0 0 0.00722559 0 31.2514
0.0179919 0 4.29357e-09 0 0 0 0 0.00727371 0 36.8815
0.0190132 0 5.06707e-09 0 0 0 0 0.00730578 0 43.5258
0.0200925 0 5.97991e-09 0 0 0 0 0.00732122 0 51.367
0.0212331 0 7.05721e-09 0 0 0 0 0.00731958 0 60.621
0.0224385 0 8.32858e-09 0 0 0 0 0.00730056 0 71.542
0.0237123 0 9.829e-09 0 0 0 0 0.00726401 0 84.4305
0.0250583 0 1.15997e-08 0 0 0 0 0.00720995 0 99.6408
0.0264808 0 1.36894e-08 0 0 0 0 0.00713857 0 117.591
0.0279841 0 1.61556e-08 0 0 0 0 0.00705021 0 138.776
0.0295727 0 1.90661e-08 0 0 0 0 0.00694538 0 163.777
0.0312514 0 2.25009e-08 0 0 0 0 0.00682475 0 193.281
0.0330255 0 2.65545e-08 0 0 0 0 0.00668915 0 228.102
0.0349003 0 3.13384e-08 0 0 0 0 0.00653951 0 269.195
0.0368815 0 3.69841e-08 0 0 0 0 0.00637693 0 317.691
0.0389751 0 4.36469e-08 0 0 0 0 0.00620256 0 374.924
0.0411876 0 5.151e-08 0 0 0 0 0.00601767 0 442.467
0.0435258 0 6.07896e-08 0 0 0 0 0.00582358 0 522.179
0.0459966 0 7.1741e-08 0 0 0 0 0.00562166 0 616.251
0.0486077 0 8.46654e-08 0 0 0 0 0.0054133 0 727.27
0.051367 0 9.99181e-08 0 0 0 0 0.00519989 0 858.29
0.054283 0 1.17919e-07 0 0 0 0 0.0049828 0 1012.91
0.0573645 0 1.39162e-07 0 0 0 0 0.00476339 0 1195.39
0.060621 0 1.64232e-07 0 0 0 0 0.00454293 0 1410.75
0.0640622 0 1.93819e-07 0 0 0 0 0.00432265 0 1664.89
0.0676989 0 2.28736e-07 0 0 0 0 0.00410371 0 1964.83
0.071542 0 2.69944e-07 0 0 0 0 0.00388717 0 2318.8
0.0756032 0 3.18575e-07 0 0 0 0 0.00367401 0 2736.54
0.079895 0 3.75967e-07 0 0 0 0 0.0034651 0 3229.53
0.0844305 0 4.43698e-07 0 0 0 0 0.00326121 0 3811.34
0.0892234 0 5.23632e-07 0 0 0 0 0.00306301 0 4497.96
0.0942883 0 6.17966e-07 0 0 0 0 0.00287109 0 5308.28
0.0996408 0 7.29294e-07 0 0 0 0 0.00268591 0 6264.59
0.105297 0 8.60678e-07 0 0 0 0 0.00250785 0 7393.17
0.111275 0 1.01573e-06 0 0 0 0 0.00233721 0 8725.07
0.117591 0 1.19872e-06 0 0 0 0 0.00217419 0 10296.9
0.124267 0 1.41467e-06 0 0 0 0 0.00201893 0 12151.9
0.131321 0 1.66953e-06 0 0 0 0 0.00187147 0 14341.1
0.138776 0 1.9703e-06 0 0 0 0 0.00173182 0 16924.7
0.146654 0 2.32525e-06 0 0 0 0 0.00159991 0 19973.8
0.154979 0 2.74415e-06 0 0 0 0 0.00147563 0 23572.1
0.163777 0 3.23852e-06 0 0 0 0 0.00135884 0 27818.7
0.173074 0 3.82195e-06 0 0 0 0 0.00124933 0 32830.3
0.182899 0 4.51048e-06 0 0 0 0 0.00114689 0 38744.7
0.193281 0 5.32305e-06 0 0 0 0 0.00105127 0 45724.7
0.204254 0 6.28202e-06 0 0 0 0 0.000962209 0 53962.1
0.215848 0 7.41374e-06 0 0 0 0 0.000879423 0 63683.5
0.228102 0 8.74934e-06 0 0 0 0 0.000802624 0 75156.3
0.24105 0 1.03256e-05 0 0 0 0 0.000731515 0 88695.9
0.254734 0 1.21857e-05 0 0 0 0 0.000665798 0 104675
0.269195 0 1.4381e-05 0 0 0 0 0.000605173 0 123532
0.284476 0 1.69718e-05 0 0 0 0 0.000549345 0 145787
0.300625 0 2.00293e-05 0 0 0 0 0.000498021 0 172051
0.317691 0 2.36377e-05 0 0 0 0 0.000450916 0 203046
0.335725 0 2.78961e-05 0 0 0 0 0.000407755 0 239625
0.354784 0 3.29216e-05 0 0 0 0 0.000368269 0 282795
0.374924 0 3.88525e-05 0 0 0 0 0.000332202 0 333741
0.396207 2.44541 4.58519e-05 6.20875e-06 6 2.37742 6.03613e-06 0.000299307 0.124463 393865
0.418699 0 5.41123e-05 0 0 0 0 0.00026935 0 464821
0.442467 0 6.38607e-05 0 0 0 0 0.000242108 0 548560
0.467585 0 7.53654e-05 0 0 0 0 0.00021737 0 647384
0.494129 0 8.89427e-05 0 0 0 0 0.000194938 0 764012
0.522179 0 0.000104966 0 0 0 0 0.000174625 0 901651
0.551822 0 0.000123876 0 0 0 0 0.000156255 0 1.06409e+06
0.583147 5.7099 0.000146192 4.54688e-06 12 6.0097 4.78561e-06 0.000139664 0.39067 1.25578e+06
0.616251 0 0.000172529 0 0 0 0 0.0001247 0 1.48202e+06
0.651234 0 0.000203611 0 0 0 0 0.00011122 0 1.74901e+06
0.688203 12.8755 0.000240292 6.23784e-06 8 12.5552 6.08265e-06 9.90935e-05 0.503593 2.06409e+06
0.72727 0 0.000283581 0 0 0 0 8.81969e-05 0 2.43595e+06
0.768555 0 0.000334669 0 0 0 0 7.84179e-05 0 2.87479e+06
0.812184 9.31638 0.000394961 2.74602e-06 6 9.51557 2.80473e-06 6.96525e-05 0.236547 3.39269e+06
0.85829 0 0.000466114 0 0 0 0 6.1805e-05 0 4.00389e+06
0.907013 1.84816 0.000550086 3.91128e-07 24 1.88362 3.98633e-07 5.47875e-05 0.171336 4.7252e+06
0.958501 4.44816 0.000649185 7.97667e-07 24 4.18761 7.50945e-07 4.85194e-05 0.394564 5.57646e+06
1.01291 0 0.000766138 0 0 0 0 4.29272e-05 0 6.58107e+06
1.07041 0 0.00090416 0 0 0 0 3.79435e-05 0 7.76667e+06
1.13118 9.76716 0.00106705 1.0656e-06 12 9.64718 1.05251e-06 3.3507e-05 0.381628 9.16586e+06
1.19539 3.11018 0.00125928 2.87524e-07 30 3.04607 2.81597e-07 2.9562e-05 0.291784 1.08171e+07
1.26325 11.0887 0.00148614 8.68625e-07 24 10.9219 8.55554e-07 2.60578e-05 0.800028 1.27658e+07
1.33496 12.2182 0.00175387 8.10999e-07 24 12.2451 8.12782e-07 2.29484e-05 0.848161 1.50656e+07
1.41075 16.8272 0.00206984 9.46423e-07 32 17.1829 9.6643e-07 2.01923e-05 1.49986 1.77798e+07
1.49083 4.70888 0.00244272 2.24416e-07 48 4.60849 2.19631e-07 1.77518e-05 0.606811 2.09828e+07
1.57546 32.4693 0.00288279 1.3112e-06 6 30.918 1.24856e-06 1.55929e-05 0.50454 2.4763e+07
1.66489 6.76067 0.00340213 2.31339e-07 84 6.53397 2.23582e-07 1.3685e-05 1.41998 2.92241e+07
1.75941 6.44872 0.00401503 1.8698e-07 48 6.32546 1.83406e-07 1.20007e-05 0.747877 3.44889e+07
1.85928 7.91778 0.00473835 1.9453e-07 72 7.9212 1.94614e-07 1.05151e-05 1.332 4.07021e+07
1.96483 14.1003 0.00559198 2.93544e-07 54 13.7213 2.85653e-07 9.20606e-06 1.72184 4.80347e+07
2.07637 14.743 0.00659939 2.60071e-07 104 14.925 2.63282e-07 8.05366e-06 3.3584 5.66883e+07
2.19424 9.67418 0.00778828 1.44605e-07 120 9.87108 1.47548e-07 7.04008e-06 2.46483 6.69008e+07
2.3188 10.4437 0.00919136 1.32277e-07 156 10.1809 1.28948e-07 6.1494e-06 3.35564 7.89532e+07
2.45043 10.7289 0.0108472 1.15146e-07 126 10.6104 1.13874e-07 5.36741e-06 2.70304 9.31768e+07
2.58954 10.8218 0.0128014 9.84128e-08 192 10.9172 9.92812e-08 4.68145e-06 4.0362 1.09963e+08
2.73654 34.7739 0.0151076 2.67959e-07 152 35.267 2.71759e-07 4.08023e-06 9.98222 1.29773e+08
2.89188 16.3225 0.0178292 1.06577e-07 378 16.5396 1.07995e-07 3.55373e-06 11.3363 1.53152e+08
3.05605 15.1077 0.0210412 8.35865e-08 264 15.0486 8.326e-08 3.09304e-06 7.13436 1.80743e+08
3.22953 20.0261 0.0248319 9.38851e-08 366 19.9126 9.33534e-08 2.69025e-06 12.7727 2.13304e+08
3.41286 18.8176 0.0293054 7.47529e-08 428 18.6855 7.42278e-08 2.33837e-06 13.6823 2.51731e+08
3.6066 21.8338 0.0345848 7.34944e-08 486 21.5201 7.24386e-08 2.0312e-06 17.5848 2.97081e+08
3.81134 19.0849 0.0408154 5.44346e-08 600 19.0906 5.4451e-08 1.76327e-06 18.5229 3.50601e+08
4.0277 24.5261 0.0481684 5.92756e-08 738 24.48 5.91644e-08 1.52972e-06 28.5969 4.13763e+08
4.25634 23.8468 0.056846 4.8836e-08 824 23.7956 4.87311e-08 1.32631e-06 30.3406 4.88304e+08
4.49796 26.6497 0.067087 4.62449e-08 954 26.5397 4.6054e-08 1.14926e-06 38.388 5.76273e+08
4.7533 26.0092 0.0791729 3.82437e-08 1094 25.8408 3.79961e-08 9.95263e-07 42.0378 6.8009e+08
5.02313 28.1273 0.0934361 3.50448e-08 1332 28.3098 3.52722e-08 8.61414e-07 54.1895 8.0261e+08
5.30828 34.5861 0.110269 3.65139e-08 1614 34.5684 3.64953e-08 7.45152e-07 79.0891 9.47202e+08
5.60962 38.4224 0.130134 3.43719e-08 1850 38.4336 3.43819e-08 6.44232e-07 98.7036 1.11784e+09
5.92807 36.1355 0.153578 2.73915e-08 2238 36.069 2.7341e-08 5.56685e-07 110.12 1.31923e+09
6.26459 35.963 0.181246 2.30993e-08 2546 36.057 2.31597e-08 4.80786e-07 122.322 1.55689e+09
6.62021 38.4538 0.213898 2.09288e-08 3264 38.4116 2.09058e-08 4.15026e-07 164.596 1.83737e+09
6.99602 41.7399 0.252432 1.92494e-08 3506 41.7529 1.92554e-08 3.58083e-07 188.472 2.16837e+09
7.39317 46.2203 0.297908 1.80618e-08 4506 46.2077 1.80569e-08 3.08803e-07 263.554 2.55901e+09
7.81286 52.7566 0.351577 1.74689e-08 5018 52.6332 1.74281e-08 2.66181e-07 329.322 3.02002e+09
8.25637 54.0954 0.414914 1.51779e-08 5852 53.9943 1.51495e-08 2.29336e-07 387.297 3.56409e+09
8.72507 54.6589 0.489662 1.29949e-08 7362 54.5082 1.29591e-08 1.97503e-07 484.391 4.20617e+09
9.22037 59.4442 0.577876 1.19753e-08 8306 59.2433 1.19348e-08 1.70014e-07 585.048 4.96392e+09
9.74378 63.004 0.681982 1.07549e-08 9698 62.9528 1.07461e-08 1.46289e-07 712.977 5.85818e+09
10.2969 66.4638 0.804843 9.61356e-09 11816 66.3567 9.59806e-09 1.25822e-07 902.81 6.91355e+09
10.8814 77.0733 0.949838 9.44636e-09 13682 76.8506 9.41907e-09 1.08175e-07 1194.77 8.15905e+09
11.4992 75.0845 1.12095 7.79781e-09 16152 75.0516 7.79439e-09 9.29669e-08 1354.79 9.62892e+09
12.1519 79.4258 1.3229 6.98949e-09 19472 79.2731 6.97606e-09 7.98658e-08 1704.1 1.13636e+10
12.8418 85.2603 1.56122 6.35759e-09 22670 85.0389 6.34108e-09 6.85852e-08 2101.42 1.34108e+10
13.5708 90.5054 1.84248 5.7185e-09 26224 90.4336 5.71396e-09 5.88765e-08 2547.06 1.58268e+10
14.3411 98.367 2.17441 5.26646e-09 31640 98.1924 5.25712e-09 5.05241e-08 3298.04 1.8678e+10
15.1552 102.852 2.56613 4.666e-09 37484 102.657 4.65713e-09 4.33417e-08 4035.38 2.20429e+10
16.0156 109.975 3.02843 4.22755e-09 43856 109.76 4.21925e-09 3.71677e-08 4988.29 2.6014e+10
16.9247 115.157 3.574 3.75099e-09 51362 115.038 3.74711e-09 3.18628e-08 6046.51 3.07005e+10
17.8855 122.346 4.21787 3.3768e-09 61636 122.172 3.37202e-09 2.73063e-08 7622.15 3.62312e+10
18.9008 128.741 4.97773 3.01089e-09 72218 128.404 3.00301e-09 2.33941e-08 9294.65 4.27584e+10
19.9738 136.509 5.87448 2.70521e-09 84586 136.209 2.69928e-09 2.00364e-08 11420.4 5.04614e+10
21.1076 146.108 6.93279 2.45345e-09 100708 145.84 2.44894e-09 1.71555e-08 14402.5 5.95522e+10
22.3058 153.254 8.18175 2.1806e-09 118712 153.009 2.17711e-09 1.46847e-08 17628.2 7.02807e+10
23.5721 161.535 9.65571 1.94757e-09 140410 161.214 1.9437e-09 1.25662e-08 21761.5 8.29419e+10
24.9102 170.653 11.3952 1.74342e-09 164374 170.37 1.74053e-09 1.07504e-08 26657 9.78842e+10
26.3243 179.334 13.4481 1.55243e-09 194680 179.049 1.54996e-09 9.19452e-09 32870.4 1.15518e+11
27.8187 189.863 15.8708 1.39268e-09 230196 189.588 1.39067e-09 7.86182e-09 40778.1 1.36329e+11
29.3979 199.671 18.73 1.24105e-09 271156 199.33 1.23893e-09 6.72061e-09 50072.5 1.60889e+11
31.0667 210.408 22.1042 1.10815e-09 321076 210.005 1.10602e-09 5.74366e-09 61946.4 1.89874e+11
32.8303 220.602 26.0864 9.84479e-10 377436 220.197 9.8267e-10 4.90756e-09 75715.4 2.2408e+11
34.694 232.528 30.7859 8.79295e-10 447594 232.111 8.77716e-10 4.19221e-09 93880.7 2.64449e+11
36.6634 245.583 36.3321 7.86897e-10 525078 245.131 7.8545e-10 3.58032e-09 115404 3.1209e+11
38.7447 257.045 42.8774 6.97898e-10 621924 256.592 6.96667e-10 3.05709e-09 141978 3.68314e+11
40.9442 270.331 50.6018 6.21927e-10 732630 269.864 6.20853e-10 2.60976e-09 174592 4.34667e+11
43.2685 283.747 59.7179 5.53142e-10 865596 283.301 5.52273e-10 2.22743e-09 214955 5.12973e+11
45.7247 298.715 70.4762 4.93429e-10 1.02168e+06 298.243 4.92649e-10 1.90073e-09 265226 6.05386e+11
48.3204 311.878 83.1727 4.36529e-10 1.20544e+06 311.353 4.35795e-10 1.62163e-09 324493 7.14448e+11
51.0634 327.347 98.1565 3.88239e-10 1.42103e+06 326.795 3.87584e-10 1.38326e-09 398841 8.43158e+11
53.9621 343.931 115.84 3.4564e-10 1.67997e+06 343.342 3.45048e-10 1.1797e-09 492212 9.95055e+11
57.0254 361.476 136.709 3.07818e-10 1.98018e+06 360.86 3.07294e-10 1.00592e-09 605948 1.17432e+12
60.2626 379.335 161.337 2.73716e-10 2.33957e+06 378.645 2.73218e-10 8.57591e-10 746716 1.38587e+12
63.6835 399.267 190.402 2.44119e-10 2.75676e+06 398.6 2.43711e-10 7.3101e-10 920615 1.63554e+12
67.2987 420.917 224.704 2.1807e-10 3.25638e+06 420.169 2.17683e-10 6.23009e-10 1.13982e+06 1.93019e+12
71.1191 444.432 265.185 1.95104e-10 3.84387e+06 443.632 1.94753e-10 5.30879e-10 1.41267e+06 2.27792e+12
75.1563 469.468 312.958 1.74634e-10 4.53277e+06 468.586 1.74306e-10 4.52303e-10 1.7501e+06 2.68829e+12
79.4227 497.112 369.339 1.5669e-10 5.35083e+06 496.204 1.56403e-10 3.85299e-10 2.17602e+06 3.17259e+12
83.9313 528.178 435.876 1.41068e-10 6.32174e+06 527.142 1.40791e-10 3.28173e-10 2.71745e+06 3.74415e+12
88.6959 563.433 514.4 1.27512e-10 7.44986e+06 562.29 1.27253e-10 2.79476e-10 3.39903e+06 4.41866e+12
93.7309 601.882 607.071 1.1542e-10 8.79764e+06 600.678 1.15189e-10 2.37972e-10 4.26699e+06 5.2147e+12
99.0518 647.486 716.436 1.05211e-10 1.03827e+07 646.156 1.04995e-10 2.02605e-10 5.39166e+06 6.15414e+12
104.675 698.723 845.504 9.62054e-11 1.22515e+07 697.219 9.59983e-11 1.72471e-10 6.83398e+06 7.26283e+12
110.617 759.492 997.824 8.86093e-11 1.44573e+07 757.796 8.84115e-11 1.468e-10 8.72651e+06 8.57124e+12
116.896 830.144 1177.58 8.20675e-11 1.70664e+07 828.213 8.18767e-11 1.24935e-10 1.12106e+07 1.01154e+13
123.532 913.394 1389.73 7.65135e-11 2.0139e+07 911.169 7.63271e-11 1.06313e-10 1.4494e+07 1.19377e+13
130.545 1012.5 1640.09 7.18684e-11 2.37643e+07 1009.97 7.16885e-11 9.04567e-11 1.88809e+07 1.40883e+13
137.955 1128.99 1935.56 6.79038e-11 2.80503e+07 1126.05 6.77268e-11 7.69563e-11 2.47507e+07 1.66263e+13
145.787 1268.05 2284.26 6.46253e-11 3.30981e+07 1264.64 6.44513e-11 6.54636e-11 3.26743e+07 1.96216e+13
154.063 1432.07 2695.77 6.18431e-11 3.90634e+07 1428.09 6.16712e-11 5.56812e-11 4.33863e+07 2.31565e+13
162.808 1629.34 3181.42 5.96211e-11 4.61057e+07 1624.65 5.94497e-11 4.73556e-11 5.80475e+07 2.73282e+13
172.051 1862.94 3754.56 5.77628e-11 5.44046e+07 1857.47 5.75933e-11 4.02708e-11 7.80357e+07 3.22515e+13
181.818 2141.4 4430.96 5.62614e-11 6.42064e+07 2134.95 5.60918e-11 3.42426e-11 1.05493e+08 3.80616e+13
192.139 2474.81 5229.21 5.50955e-11 7.57748e+07 2467.17 5.49254e-11 2.91139e-11 1.43397e+08 4.49186e+13
203.046 2871.09 6171.26 5.41606e-11 8.94213e+07 2862.13 5.39914e-11 2.4751e-11 1.95673e+08 5.30108e+13
214.572 3347.27 7283.03 5.35042e-11 1.05538e+08 3336.59 5.33336e-11 2.10401e-11 2.6838e+08 6.25608e+13
226.753 3916.26 8595.09 5.30434e-11 1.24552e+08 3903.54 5.2871e-11 1.78839e-11 3.69418e+08 7.38313e+13
239.625 4598.6 10143.5 5.27773e-11 1.46987e+08 4583.39 5.26027e-11 1.51999e-11 5.10371e+08 8.71322e+13
253.228 5421.09 11970.9 5.27193e-11 1.7347e+08 5402.9 5.25424e-11 1.29176e-11 7.07964e+08 1.02829e+14
267.603 6416.85 14127.5 5.2877e-11 2.04703e+08 6395.05 5.26974e-11 1.09771e-11 9.86056e+08 1.21354e+14
282.795 7625.84 16672.6 5.32469e-11 2.4161e+08 7599.36 5.3062e-11 9.3274e-12 1.37927e+09 1.43217e+14
298.848 9110.81 19676.2 5.39046e-11 2.85122e+08 9078.41 5.37129e-11 7.925e-12 1.93936e+09 1.69017e+14
315.813 10957.6 23220.9 5.49344e-11 3.36491e+08 10917.5 5.47335e-11 6.73295e-12 2.74545e+09 1.99466e+14
333.741 13290.5 27404.3 5.64589e-11 3.97115e+08 13240.1 5.62449e-11 5.71979e-12 3.91984e+09 2.35401e+14
352.686 16307 32341.2 5.86988e-11 4.68637e+08 16242.3 5.84659e-11 4.85874e-12 5.66164e+09 2.77809e+14
372.707 20322 38167.6 6.19844e-11 5.53074e+08 20236.4 6.17233e-11 4.12703e-12 8.30669e+09 3.27857e+14
393.865 25873.5 45043.5 6.68703e-11 6.52716e+08 25755.9 6.65662e-11 3.50528e-12 1.24519e+10 3.86921e+14
416.224 30550.5 53158.3 6.69049e-11 2.2184e+08 32319.5 7.0779e-11 2.97701e-12 4.98559e+09 4.56626e+14
439.852 0 62734.9 0 0 0 0 2.52819e-12 0 5.38888e+14
464.821 0 74036.7 0 0 0 0 2.1469e-12 0 6.35971e+14
491.207 0 87374.6 0 0 0 0 1.82301e-12 0 7.50542e+14
519.092 0 103115 0 0 0 0 1.54789e-12 0 8.85755e+14
548.56 0 121692 0 0 0 0 1.31422e-12 0 1.04533e+15
579.7 0 143615 0 0 0 0 1.11576e-12 0 1.23364e+15
612.608 0 169488 0 0 0 0 9.47223e-13 0 1.45589e+15
647.384 0 200021 0 0 0 0 8.041e-13 0 1.71817e+15
684.134 0 236056 0 0 0 0 6.82568e-13 0 2.0277e+15
722.971 0 278582 0 0 0 0 5.79376e-13 0 2.393e+15
764.012 0 328769 0 0 0 0 4.91762e-13 0 2.8241e+15
0.826119
200
1.0655e+09
8589934592
0.0129181 0.00160827 1.58924e-09 0.00011781 6 0.00159355 0.000116731 0.00677225 0.104375 13.6515
0.0136515 0 1.87554e-09 0 0 0 0 0.00688819 0 16.1108
0.0144264 0 2.21343e-09 0 0 0 0 0.00699249 0 19.0132
0.0152454 0 2.61218e-09 0 0 0 0 0.00708412 0 22.4385
0.0161108 0 3.08278e-09 0 0 0 0 0.00716212 0 26.4808
0.0170254 0 3.63815e-09 0 0 0 0 0.00722559 0 31.2514
0.0179919 0.00358794 4.29357e-09 9.7283e-05 12 0.00358332 9.71577e-05 0.00727371 0.160495 36.8815
0.0190132 0 5.06707e-09 0 0 0 0 0.00730578 0 43.5258
0.0200925 0 5.97991e-09 0 0 0 0 0.00732122 0 51.367
0.0212331 0.00340285 7.05721e-09 5.61333e-05 8 0.00339989 5.60844e-05 0.00731958 0.0613514 60.621
0.0224385 0 8.32858e-09 0 0 0 0 0.00730056 0 71.542
0.0237123 0 9.829e-09 0 0 0 0 0.00726401 0 84.4305
0.0250583 0.0215048 1.15997e-08 0.000215823 6 0.0214947 0.000215721 0.00720995 0.179604 99.6408
0.0264808 0 1.36894e-08 0 0 0 0 0.00713857 0 117.591
0.0279841 0.0132688 1.61556e-08 9.5613e-05 24 0.0132552 9.55149e-05 0.00705021 0.325482 138.776
0.0295727 0 1.90661e-08 0 0 0 0 0.00694538 0 163.777
0.0312514 0.0235975 2.25009e-08 0.000122089 24 0.0237173 0.000122708 0.00682475 0.429338 193.281
0.0330255 0 2.65545e-08 0 0 0 0 0.00668915 0 228.102
0.0349003 0.0358382 3.13384e-08 0.000133131 12 0.0355513 0.000132065 0.00653951 0.244296 269.195
0.0368815 0.028802 3.69841e-08 9.06604e-05 30 0.0284953 8.9695e-05 0.00637693 0.426508 317.691
0.0389751 0.0327203 4.36469e-08 8.72718e-05 24 0.0323837 8.6374e-05 0.00620256 0.337687 374.924
0.0411876 0.0210027 5.151e-08 4.74672e-05 24 0.0208601 4.71449e-05 0.00601767 0.189312 442.467
0.0435258 0.0518909 6.07896e-08 9.93737e-05 8 0.0518869 9.93661e-05 0.00582358 0.136512 522.179
0.0459966 0.0637948 7.1741e-08 0.000103521 72 0.0632915 0.000102704 0.00562166 1.32585 616.251
0.0486077 0 8.46654e-08 0 0 0 0 0.0054133 0 727.27
0.051367 0.087895 9.99181e-08 0.000102407 54 0.087604 0.000102068 0.00519989 1.06348 858.29
0.054283 0.0709486 1.17919e-07 7.00442e-05 60 0.0712701 7.03615e-05 0.0049828 0.843431 1012.91
0.0573645 0.0664037 1.39162e-07 5.55497e-05 96 0.0662334 5.54073e-05 0.00476339 1.11953 1195.39
0.060621 0.0788109 1.64232e-07 5.58647e-05 24 0.0777432 5.51079e-05 0.00454293 0.29513 1410.75
0.0640622 0.135427 1.93819e-07 8.13427e-05 134 0.135489 8.13801e-05 0.00432265 2.52158 1664.89
0.0676989 0.132374 2.28736e-07 6.73719e-05 120 0.131729 6.70434e-05 0.00410371 1.97008 1964.83
0.071542 0.124477 2.69944e-07 5.36818e-05 108 0.123102 5.30887e-05 0.00388717 1.49148 2318.8
0.0756032 0.184154 3.18575e-07 6.72947e-05 174 0.183133 6.69215e-05 0.00367401 3.18705 2736.54
0.079895 0.192759 3.75967e-07 5.96864e-05 168 0.190947 5.91254e-05 0.0034651 2.8938 3229.53
0.0844305 0.160835 4.43698e-07 4.2199e-05 168 0.161632 4.24082e-05 0.00326121 2.17387 3811.34
0.0892234 0.192497 5.23632e-07 4.27964e-05 290 0.191594 4.25958e-05 0.00306301 4.05188 4497.96
0.0942883 0.233397 6.17966e-07 4.39684e-05 288 0.232889 4.38727e-05 0.00287109 4.41049 5308.28
0.0996408 0.20943 7.29294e-07 3.34308e-05 366 0.207816 3.31732e-05 0.00268591 4.55551 6264.59
0.105297 0.246101 8.60678e-07 3.32877e-05 420 0.244344 3.305e-05 0.00250785 5.57481 7393.17
0.111275 0.263503 1.01573e-06 3.02006e-05 398 0.262757 3.01151e-05 0.00233721 5.14282 8725.07
0.117591 0.313247 1.19872e-06 3.04214e-05 624 0.314109 3.05052e-05 0.00217419 8.73104 10296.9
0.124267 0.362969 1.41467e-06 2.98692e-05 642 0.362163 2.9803e-05 0.00201893 9.49815 12151.9
0.131321 0.42881 1.66953e-06 2.99007e-05 800 0.42892 2.99084e-05 0.00187147 12.7817 14341.1
0.138776 0.394809 1.9703e-06 2.33274e-05 858 0.396499 2.34272e-05 0.00173182 11.5572 16924.7
0.146654 0.458635 2.32525e-06 2.29619e-05 1080 0.462449 2.31528e-05 0.00159991 15.5001 19973.8
0.154979 0.535667 2.74415e-06 2.27246e-05 1286 0.539046 2.2868e-05 0.00147563 19.8043 23572.1
0.163777 0.524384 3.23852e-06 1.88501e-05 1650 0.525859 1.89031e-05 0.00135884 22.8891 27818.7
0.173074 0.587454 3.82195e-06 1.78937e-05 1778 0.587884 1.79068e-05 0.00124933 25.4656 32830.3
0.182899 0.628674 4.51048e-06 1.6226e-05 2112 0.63015 1.62641e-05 0.00114689 29.8803 38744.7
0.193281 0.694901 5.32305e-06 1.51975e-05 2570 0.695466 1.52099e-05 0.00105127 37.1527 45724.7
0.204254 0.813998 6.28202e-06 1.50846e-05 3030 0.813473 1.50749e-05 0.000962209 47.5015 53962.1
0.215848 0.846236 7.41374e-06 1.32881e-05 3434 0.845891 1.32827e-05 0.000879423 51.888 63683.5
0.228102 0.898951 8.74934e-06 1.19611e-05 4218 0.898442 1.19543e-05 0.000802624 62.8586 75156.3
0.24105 1.0017 1.03256e-05 1.12936e-05 4766 1.00231 1.13005e-05 0.000731515 73.5807 88695.9
0.254734 1.09228 1.21857e-05 1.0435e-05 6026 1.09227 1.04349e-05 0.000665798 94.4453 104675
0.269195 1.24195 1.4381e-05 1.00536e-05 6480 1.24083 1.00446e-05 0.000605173 107.651 123532
0.284476 1.34092 1.69718e-05 9.19783e-06 8162 1.34335 9.21448e-06 0.000549345 136.659 145787
0.300625 1.47782 2.00293e-05 8.58947e-06 9578 1.47849 8.59332e-06 0.000498021 165.194 172051
0.317691 1.63594 2.36377e-05 8.05697e-06 11234 1.63441 8.04948e-06 0.000450916 200.729 203046
0.335725 1.7624 2.78961e-05 7.35482e-06 13344 1.75912 7.34113e-06 0.000407755 240.69 239625
0.354784 1.98058 3.29216e-05 7.0036e-06 15464 1.97927 6.99898e-06 0.000368269 294.088 282795
0.374924 2.13393 3.88525e-05 6.39398e-06 18458 2.13196 6.38806e-06 0.000332202 355.266 333741
0.396207 2.46705 4.58519e-05 6.26368e-06 22232 2.46325 6.25405e-06 0.000299307 465.256 393865
0.418699 2.64875 5.41123e-05 5.69844e-06 25628 2.64234 5.68464e-06 0.00026935 542.193 464821
0.442467 2.88968 6.38607e-05 5.26777e-06 30320 2.88475 5.25877e-06 0.000242108 659.7 548560
0.467585 3.27232 7.53654e-05 5.05468e-06 35452 3.26641 5.04555e-06 0.00021737 824.392 647384
0.494129 3.61518 8.89427e-05 4.73183e-06 41792 3.61112 4.72652e-06 0.000194938 1014.44 764012
0.522179 4.06722 0.000104966 4.51085e-06 49988 4.06673 4.51031e-06 0.000174625 1291.27 901651
0.551822 4.52748 0.000123876 4.25481e-06 59110 4.52134 4.24904e-06 0.000156255 1609.56 1.06409e+06
0.583147 5.02833 0.000146192 4.00414e-06 69716 5.02006 3.99755e-06 0.000139664 1998.74 1.25578e+06
0.616251 5.60366 0.000172529 3.78111e-06 82210 5.59266 3.77368e-06 0.0001247 2492.74 1.48202e+06
0.651234 6.19407 0.000203611 3.54148e-06 96722 6.18004 3.53346e-06 0.00011122 3079.82 1.74901e+06
0.688203 7.02246 0.000240292 3.4022e-06 113098 7.01121 3.39675e-06 9.90935e-05 3883.02 2.06409e+06
0.72727 7.83218 0.000283581 3.21525e-06 135190 7.82082 3.21059e-06 8.81969e-05 4928.41 2.43595e+06
0.768555 8.75204 0.000334669 3.04441e-06 158170 8.73908 3.03991e-06 7.84179e-05 6140.62 2.87479e+06
0.812184 9.78816 0.000394961 2.88507e-06 188560 9.77148 2.88016e-06 6.96525e-05 7810.33 3.39269e+06
0.85829 10.9298 0.000466114 2.72979e-06 220444 10.9118 2.7253e-06 6.1805e-05 9736.54 4.00389e+06
0.907013 12.2176 0.000550086 2.58563e-06 261388 12.1967 2.58121e-06 5.47875e-05 12335.9 4.7252e+06
0.958501 13.6627 0.000649185 2.45006e-06 308244 13.6423 2.44641e-06 4.85194e-05 15565.2 5.57646e+06
1.01291 15.3298 0.000766138 2.32937e-06 364396 15.3039 2.32545e-06 4.29272e-05 19773.3 6.58107e+06
1.07041 17.0203 0.00090416 2.19145e-06 429162 16.9888 2.1874e-06 3.79435e-05 24786.5 7.76667e+06
1.13118 18.9741 0.00106705 2.07009e-06 506358 18.9421 2.06659e-06 3.3507e-05 31283.1 9.16586e+06
1.19539 21.2117 0.00125928 1.96094e-06 598590 21.1725 1.95732e-06 2.9562e-05 39706.3 1.08171e+07
1.26325 23.5601 0.00148614 1.84556e-06 704844 23.5169 1.84217e-06 2.60578e-05 49920.9 1.27658e+07
1.33496 26.1717 0.00175387 1.73718e-06 834620 26.1198 1.73373e-06 2.29484e-05 63180.1 1.50656e+07
1.41075 28.9954 0.00206984 1.63081e-06 981444 28.9399 1.62769e-06 2.01923e-05 79265.3 1.77798e+07
1.49083 32.041 0.00244272 1.52701e-06 1.15998e+06 31.9832 1.52425e-06 1.77518e-05 99781.4 2.09828e+07
1.57546 35.4227 0.00288279 1.43047e-06 1.36931e+06 35.3583 1.42787e-06 1.55929e-05 125619 2.4763e+07
1.66489 39.104 0.00340213 1.33808e-06 1.61652e+06 39.0314 1.33559e-06 1.3685e-05 158058 2.92241e+07
1.75941 43.0923 0.00401503 1.24945e-06 1.90601e+06 43.0137 1.24718e-06 1.20007e-05 198444 3.44889e+07
1.85928 47.2437 0.00473835 1.16072e-06 2.24913e+06 47.155 1.15854e-06 1.05151e-05 248272 4.07021e+07
1.96483 51.6975 0.00559198 1.07625e-06 2.65744e+06 51.5986 1.07419e-06 9.20606e-06 310673 4.80347e+07
2.07637 56.4883 0.00659939 9.96472e-07 3.13125e+06 56.3839 9.94631e-07 8.05366e-06 387427 5.66883e+07
2.19424 61.5839 0.00778828 9.20525e-07 3.69915e+06 61.4718 9.18849e-07 7.04008e-06 483682 6.69008e+07
2.3188 66.8524 0.00919136 8.46735e-07 4.36472e+06 66.7362 8.45263e-07 6.1494e-06 600996 7.89532e+07
2.45043 72.7462 0.0108472 7.80732e-07 5.14913e+06 72.6219 7.79399e-07 5.36741e-06 748982 9.31768e+07
2.58954 78.6897 0.0128014 7.15603e-07 6.07894e+06 78.5519 7.14349e-07 4.68145e-06 929221 1.09963e+08
2.73654 85.1822 0.0151076 6.56393e-07 7.17304e+06 85.0352 6.55261e-07 4.08023e-06 1.15394e+06 1.29773e+08
2.89188 92.1126 0.0178292 6.01445e-07 8.46557e+06 91.9568 6.00429e-07 3.55373e-06 1.43274e+06 1.53152e+08
3.05605 99.2206 0.0210412 5.4896e-07 9.98773e+06 99.0558 5.48049e-07 3.09304e-06 1.77265e+06 1.80743e+08
3.22953 106.897 0.0248319 5.01148e-07 1.1797e+07 106.719 5.00316e-07 2.69025e-06 2.19758e+06 2.13304e+08
3.41286 114.787 0.0293054 4.55988e-07 1.39144e+07 114.59 4.55208e-07 2.33837e-06 2.71334e+06 2.51731e+08
3.6066 123.167 0.0345848 4.14589e-07 1.64163e+07 122.962 4.13901e-07 2.0312e-06 3.35073e+06 2.97081e+08
3.81134 132.041 0.0408154 3.76613e-07 1.93821e+07 131.822 3.75987e-07 1.76327e-06 4.1398e+06 3.50601e+08
4.0277 141.352 0.0481684 3.41626e-07 2.28754e+07 141.118 3.4106e-07 1.52972e-06 5.10866e+06 4.13763e+08
4.25634 151.201 0.056846 3.09645e-07 2.69929e+07 150.947 3.09126e-07 1.32631e-06 6.30187e+06 4.88304e+08
4.49796 161.49 0.067087 2.80231e-07 3.18542e+07 161.22 2.79763e-07 1.14926e-06 7.76723e+06 5.76273e+08
4.7533 172.233 0.0791729 2.5325e-07 3.75892e+07 171.949 2.52833e-07 9.95263e-07 9.56479e+06 6.8009e+08
5.02313 183.531 0.0934361 2.28668e-07 4.43706e+07 183.231 2.28293e-07 8.61414e-07 1.17785e+07 8.0261e+08
5.30828 195.451 0.110269 2.06345e-07 5.23593e+07 195.129 2.06005e-07 7.45152e-07 1.44992e+07 9.47202e+08
5.60962 207.831 0.130134 1.85921e-07 6.1787e+07 207.487 1.85614e-07 6.44232e-07 1.78313e+07 1.11784e+09
5.92807 220.997 0.153578 1.6752e-07 7.29346e+07 220.631 1.67243e-07 5.56685e-07 2.19478e+07 1.31923e+09
6.26459 234.572 0.181246 1.50667e-07 8.60651e+07 234.18 1.50416e-07 4.80786e-07 2.69708e+07 1.55689e+09
6.62021 248.809 0.213898 1.35416e-07 1.01558e+08 248.397 1.35192e-07 4.15026e-07 3.31367e+07 1.83737e+09
6.99602 263.755 0.252432 1.21637e-07 1.1986e+08 263.32 1.21437e-07 3.58083e-07 4.07153e+07 2.16837e+09
7.39317 279.485 0.297908 1.09216e-07 1.41457e+08 279.027 1.09037e-07 3.08803e-07 5.00298e+07 2.55901e+09
7.81286 295.843 0.351577 9.79605e-08 1.66936e+08 295.356 9.77993e-08 2.66181e-07 6.14361e+07 3.02002e+09
8.25637 313.057 0.414914 8.78364e-08 1.97025e+08 312.542 8.76921e-08 2.29336e-07 7.54612e+07 3.56409e+09
8.72507 331.278 0.489662 7.87601e-08 2.32497e+08 330.729 7.86295e-08 1.97503e-07 9.27149e+07 4.20617e+09
9.22037 350.686 0.577876 7.06471e-08 2.74404e+08 350.097 7.05284e-08 1.70014e-07 1.14025e+08 4.96392e+09
9.74378 371.971 0.681982 6.34959e-08 3.2382e+08 371.333 6.3387e-08 1.46289e-07 1.40552e+08 5.85818e+09
10.2969 395.718 0.804843 5.7238e-08 3.82165e+08 395.015 5.71363e-08 1.25822e-07 1.73851e+08 6.91355e+09
10.8814 423.809 0.949838 5.19435e-08 4.51027e+08 423.004 5.18448e-08 1.08175e-07 2.16573e+08 8.15905e+09
11.4992 459.73 1.12095 4.77447e-08 5.32251e+08 458.76 4.76439e-08 9.29669e-08 2.73346e+08 9.62892e+09
12.1519 510.267 1.3229 4.49037e-08 6.28157e+08 508.996 4.47918e-08 7.98658e-08 3.53175e+08 1.13636e+10
12.8418 567.015 1.56122 4.22806e-08 3.82727e+08 586.885 4.37622e-08 6.85852e-08 2.35939e+08 1.34108e+10
13.5708 0 1.84248 0 0 0 0 5.88765e-08 0 1.58268e+10
14.3411 0 2.17441 0 0 0 0 5.05241e-08 0 1.8678e+10
15.1552 0 2.56613 0 0 0 0 4.33417e-08 0 2.20429e+10
16.0156 0 3.02843 0 0 0 0 3.71677e-08 0 2.6014e+10
16.9247 0 3.574 0 0 0 0 3.18628e-08 0 3.07005e+10
17.8855 0 4.21787 0 0 0 0 2.73063e-08 0 3.62312e+10
18.9008 0 4.97773 0 0 0 0 2.33941e-08 0 4.27584e+10
19.9738 0 5.87448 0 0 0 0 2.00364e-08 0 5.04614e+10
21.1076 0 6.93279 0 0 0 0 1.71555e-08 0 5.95522e+10
22.3058 0 8.18175 0 0 0 0 1.46847e-08 0 7.02807e+10
23.5721 0 9.65571 0 0 0 0 1.25662e-08 0 8.29419e+10
24.9102 0 11.3952 0 0 0 0 1.07504e-08 0 9.78842e+10
26.3243 0 13.4481 0 0 0 0 9.19452e-09 0 1.15518e+11
27.8187 0 15.8708 0 0 0 0 7.86182e-09 0 1.36329e+11
29.3979 0 18.73 0 0 0 0 6.72061e-09 0 1.60889e+11
31.0667 0 22.1042 0 0 0 0 5.74366e-09 0 1.89874e+11
32.8303 0 26.0864 0 0 0 0 4.90756e-09 0 2.2408e+11
34.694 0 30.7859 0 0 0 0 4.19221e-09 0 2.64449e+11
36.6634 0 36.3321 0 0 0 0 3.58032e-09 0 3.1209e+11
38.7447 0 42.8774 0 0 0 0 3.05709e-09 0 3.68314e+11
40.9442 0 50.6018 0 0 0 0 2.60976e-09 0 4.34667e+11
43.2685 0 59.7179 0 0 0 0 2.22743e-09 0 5.12973e+11
45.7247 0 70.4762 0 0 0 0 1.90073e-09 0 6.05386e+11
48.3204 0 83.1727 0 0 0 0 1.62163e-09 0 7.14448e+11
51.0634 0 98.1565 0 0 0 0 1.38326e-09 0 8.43158e+11
53.9621 0 115.84 0 0 0 0 1.1797e-09 0 9.95055e+11
57.0254 0 136.709 0 0 0 0 1.00592e-09 0 1.17432e+12
60.2626 0 161.337 0 0 0 0 8.57591e-10 0 1.38587e+12
63.6835 0 190.402 0 0 0 0 7.3101e-10 0 1.63554e+12
67.2987 0 224.704 0 0 0 0 6.23009e-10 0 1.93019e+12
71.1191 0 265.185 0 0 0 0 5.30879e-10 0 2.27792e+12
75.1563 0 312.958 0 0 0 0 4.52303e-10 0 2.68829e+12
79.4227 0 369.339 0 0 0 0 3.85299e-10 0 3.17259e+12
83.9313 0 435.876 0 0 0 0 3.28173e-10 0 3.74415e+12
88.6959 0 514.4 0 0 0 0 2.79476e-10 0 4.41866e+12
93.7309 0 607.071 0 0 0 0 2.37972e-10 0 5.2147e+12
99.0518 0 716.436 0 0 0 0 2.02605e-10 0 6.15414e+12
104.675 0 845.504 0 0 0 0 1.72471e-10 0 7.26283e+12
110.617 0 997.824 0 0 0 0 1.468e-10 0 8.57124e+12
116.896 0 1177.58 0 0 0 0 1.24935e-10 0 1.01154e+13
123.532 0 1389.73 0 0 0 0 1.06313e-10 0 1.19377e+13
130.545 0 1640.09 0 0 0 0 9.04567e-11 0 1.40883e+13
137.955 0 1935.56 0 0 0 0 7.69563e-11 0 1.66263e+13
145.787 0 2284.26 0 0 0 0 6.54636e-11 0 1.96216e+13
154.063 0 2695.77 0 0 0 0 5.56812e-11 0 2.31565e+13
162.808 0 3181.42 0 0 0 0 4.73556e-11 0 2.73282e+13
172.051 0 3754.56 0 0 0 0 4.02708e-11 0 3.22515e+13
181.818 0 4430.96 0 0 0 0 3.42426e-11 0 3.80616e+13
192.139 0 5229.21 0 0 0 0 2.91139e-11 0 4.49186e+13
203.046 0 6171.26 0 0 0 0 2.4751e-11 0 5.30108e+13
214.572 0 7283.03 0 0 0 0 2.10401e-11 0 6.25608e+13
226.753 0 8595.09 0 0 0 0 1.78839e-11 0 7.38313e+13
239.625 0 10143.5 0 0 0 0 1.51999e-11 0 8.71322e+13
253.228 0 11970.9 0 0 0 0 1.29176e-11 0 1.02829e+14
267.603 0 14127.5 0 0 0 0 1.09771e-11 0 1.21354e+14
282.795 0 16672.6 0 0 0 0 9.3274e-12 0 1.43217e+14
298.848 0 19676.2 0 0 0 0 7.925e-12 0 1.69017e+14
315.813 0 23220.9 0 0 0 0 6.73295e-12 0 1.99466e+14
333.741 0 27404.3 0 0 0 0 5.71979e-12 0 2.35401e+14
352.686 0 32341.2 0 0 0 0 4.85874e-12 0 2.77809e+14
372.707 0 38167.6 0 0 0 0 4.12703e-12 0 3.27857e+14
393.865 0 45043.5 0 0 0 0 3.50528e-12 0 3.86921e+14
416.224 0 53158.3 0 0 0 0 2.97701e-12 0 4.56626e+14
439.852 0 62734.9 0 0 0 0 2.52819e-12 0 5.38888e+14
464.821 0 74036.7 0 0 0 0 2.1469e-12 0 6.35971e+14
491.207 0 87374.6 0 0 0 0 1.82301e-12 0 7.50542e+14
519.092 0 103115 0 0 0 0 1.54789e-12 0 8.85755e+14
548.56 0 121692 0 0 0 0 1.31422e-12 0 1.04533e+15
579.7 0 143615 0 0 0 0 1.11576e-12 0 1.23364e+15
612.608 0 169488 0 0 0 0 9.47223e-13 0 1.45589e+15
647.384 0 200021 0 0 0 0 8.041e-13 0 1.71817e+15
684.134 0 236056 0 0 0 0 6.82568e-13 0 2.0277e+15
722.971 0 278582 0 0 0 0 5.79376e-13 0 2.393e+15
764.012 0 328769 0 0 0 0 4.91762e-13 0 2.8241e+15
