0.0565352
200
1.0655e+09
8589934592
0.0129181 0 1.58924e-09 0 0 0 0 0.00677225 0 13.6515
0.0136515 0 1.87554e-09 0 0 0 0 0.00688819 0 16.1108
0.0144264 0 2.21343e-09 0 0 0 0 0.00699249 0 19.0132
0.0152454 0 2.61218e-09 0 0 0 0 0.00708412 0 22.4385
0.0161108 0 3.08278e-09 0 0 0 0 0.00716212 0 26.4808
0.0170254 0 3.63815e-09 0 0 0 0 0.00722559 0 31.2514
0.0179919 0 4.29357e-09 0 0 0 0 0.00727371 0 36.8815
0.0190132 0 5.06707e-09 0 0 0 0 0.00730578 0 43.5258
0.0200925 0 5.97991e-09 0 0 0 0 0.00732122 0 51.367
0.0212331 0 7.05721e-09 0 0 0 0 0.00731958 0 60.621
0.0224385 0 8.32858e-09 0 0 0 0 0.00730056 0 71.542
0.0237123 0 9.829e-09 0 0 0 0 0.00726401 0 84.4305
0.0250583 0 1.15997e-08 0 0 0 0 0.00720995 0 99.6408
0.0264808 0 1.36894e-08 0 0 0 0 0.00713857 0 117.591
0.0279841 0 1.61556e-08 0 0 0 0 0.00705021 0 138.776
0.0295727 0 1.90661e-08 0 0 0 0 0.00694538 0 163.777
0.0312514 0 2.25009e-08 0 0 0 0 0.00682475 0 193.281
0.0330255 0 2.65545e-08 0 0 0 0 0.00668915 0 228.102
0.0349003 0 3.13384e-08 0 0 0 0 0.00653951 0 269.195
0.0368815 0 3.69841e-08 0 0 0 0 0.00637693 0 317.691
0.0389751 0 4.36469e-08 0 0 0 0 0.00620256 0 374.924
0.0411876 0 5.151e-08 0 0 0 0 0.00601767 0 442.467
0.0435258 0 6.07896e-08 0 0 0 0 0.00582358 0 522.179
0.0459966 0 7.1741e-08 0 0 0 0 0.00562166 0 616.251
0.0486077 0 8.46654e-08 0 0 0 0 0.0054133 0 727.27
0.051367 0 9.99181e-08 0 0 0 0 0.00519989 0 858.29
0.054283 0 1.17919e-07 0 0 0 0 0.0049828 0 1012.91
0.0573645 0 1.39162e-07 0 0 0 0 0.00476339 0 1195.39
0.060621 0 1.64232e-07 0 0 0 0 0.00454293 0 1410.75
0.0640622 0 1.93819e-07 0 0 0 0 0.00432265 0 1664.89
0.0676989 0 2.28736e-07 0 0 0 0 0.00410371 0 1964.83
0.071542 0 2.69944e-07 0 0 0 0 0.00388717 0 2318.8
0.0756032 0 3.18575e-07 0 0 0 0 0.00367401 0 2736.54
0.079895 0 3.75967e-07 0 0 0 0 0.0034651 0 3229.53
0.0844305 0 4.43698e-07 0 0 0 0 0.00326121 0 3811.34
0.0892234 0 5.23632e-07 0 0 0 0 0.00306301 0 4497.96
0.0942883 0 6.17966e-07 0 0 0 0 0.00287109 0 5308.28
0.0996408 0 7.29294e-07 0 0 0 0 0.00268591 0 6264.59
0.105297 0 8.60678e-07 0 0 0 0 0.00250785 0 7393.17
0.111275 0 1.01573e-06 0 0 0 0 0.00233721 0 8725.07
0.117591 0 1.19872e-06 0 0 0 0 0.00217419 0 10296.9
0.124267 0 1.41467e-06 0 0 0 0 0.00201893 0 12151.9
0.131321 0 1.66953e-06 0 0 0 0 0.00187147 0 14341.1
0.138776 0 1.9703e-06 0 0 0 0 0.00173182 0 16924.7
0.146654 0 2.32525e-06 0 0 0 0 0.00159991 0 19973.8
0.154979 0 2.74415e-06 0 0 0 0 0.00147563 0 23572.1
0.163777 0 3.23852e-06 0 0 0 0 0.00135884 0 27818.7
0.173074 0 3.82195e-06 0 0 0 0 0.00124933 0 32830.3
0.182899 0 4.51048e-06 0 0 0 0 0.00114689 0 38744.7
0.193281 0 5.32305e-06 0 0 0 0 0.00105127 0 45724.7
0.204254 0 6.28202e-06 0 0 0 0 0.000962209 0 53962.1
0.215848 0 7.41374e-06 0 0 0 0 0.000879423 0 63683.5
0.228102 0 8.74934e-06 0 0 0 0 0.000802624 0 75156.3
0.24105 0 1.03256e-05 0 0 0 0 0.000731515 0 88695.9
0.254734 0 1.21857e-05 0 0 0 0 0.000665798 0 104675
0.269195 0 1.4381e-05 0 0 0 0 0.000605173 0 123532
0.284476 0 1.69718e-05 0 0 0 0 0.000549345 0 145787
0.300625 0 2.00293e-05 0 0 0 0 0.000498021 0 172051
0.317691 0 2.36377e-05 0 0 0 0 0.000450916 0 203046
0.335725 0 2.78961e-05 0 0 0 0 0.000407755 0 239625
0.354784 0 3.29216e-05 0 0 0 0 0.000368269 0 282795
0.374924 0 3.88525e-05 0 0 0 0 0.000332202 0 333741
0.396207 0.242941 4.58519e-05 6.16813e-07 6 0.236187 5.99664e-07 0.000299307 0.0123648 393865
0.418699 0 5.41123e-05 0 0 0 0 0.00026935 0 464821
0.442467 0 6.38607e-05 0 0 0 0 0.000242108 0 548560
0.467585 0 7.53654e-05 0 0 0 0 0.00021737 0 647384
0.494129 0 8.89427e-05 0 0 0 0 0.000194938 0 764012
0.522179 0 0.000104966 0 0 0 0 0.000174625 0 901651
0.551822 0 0.000123876 0 0 0 0 0.000156255 0 1.06409e+06
0.583147 3.54438 0.000146192 2.82245e-06 12 3.73048 2.97064e-06 0.000139664 0.242506 1.25578e+06
0.616251 0 0.000172529 0 0 0 0 0.0001247 0 1.48202e+06
0.651234 0 0.000203611 0 0 0 0 0.00011122 0 1.74901e+06
0.688203 25.2129 0.000240292 1.2215e-05 8 24.5857 1.19111e-05 9.90935e-05 0.986141 2.06409e+06
0.72727 0 0.000283581 0 0 0 0 8.81969e-05 0 2.43595e+06
0.768555 0 0.000334669 0 0 0 0 7.84179e-05 0 2.87479e+06
0.812184 0.0220835 0.000394961 6.50916e-09 6 0.0225557 6.64832e-09 6.96525e-05 0.000560711 3.39269e+06
0.85829 0 0.000466114 0 0 0 0 6.1805e-05 0 4.00389e+06
0.907013 0.113916 0.000550086 2.41081e-08 24 0.116102 2.45707e-08 5.47875e-05 0.0105607 4.7252e+06
0.958501 0.658379 0.000649185 1.18064e-07 24 0.619815 1.11148e-07 4.85194e-05 0.0584 5.57646e+06
1.01291 0 0.000766138 0 0 0 0 4.29272e-05 0 6.58107e+06
1.07041 0 0.00090416 0 0 0 0 3.79435e-05 0 7.76667e+06
1.13118 1.30888 0.00106705 1.42799e-07 12 1.2928 1.41045e-07 3.3507e-05 0.0511413 9.16586e+06
1.19539 0.303999 0.00125928 2.81035e-08 30 0.297732 2.75241e-08 2.9562e-05 0.0285199 1.08171e+07
1.26325 4.57952 0.00148614 3.58733e-07 24 4.51061 3.53335e-07 2.60578e-05 0.330403 1.27658e+07
1.33496 20.2217 0.00175387 1.34224e-06 24 20.2661 1.34519e-06 2.29484e-05 1.40374 1.50656e+07
1.41075 5.94136 0.00206984 3.34164e-07 32 6.11511 3.43937e-07 2.01923e-05 0.529571 1.77798e+07
1.49083 0.262105 0.00244272 1.24914e-08 48 0.256517 1.22251e-08 1.77518e-05 0.0337762 2.09828e+07
1.57546 0.0380552 0.00288279 1.53678e-09 6 0.0362371 1.46336e-09 1.55929e-05 0.000591339 2.4763e+07
1.66489 0.25688 0.00340213 8.79001e-09 84 0.247759 8.47793e-09 1.3685e-05 0.053954 2.92241e+07
1.75941 2.48823 0.00401503 7.21458e-08 48 2.50798 7.27187e-08 1.20007e-05 0.288567 3.44889e+07
1.85928 0.154603 0.00473835 3.7984e-09 72 0.156655 3.84882e-09 1.05151e-05 0.0260088 4.07021e+07
1.96483 0.665431 0.00559198 1.38531e-08 54 0.655444 1.36452e-08 9.20606e-06 0.0812584 4.80347e+07
2.07637 8.09328 0.00659939 1.42768e-07 104 8.04518 1.4192e-07 8.05366e-06 1.84362 5.66883e+07
2.19424 0.193941 0.00778828 2.89893e-09 120 0.195399 2.92072e-09 7.04008e-06 0.0494131 6.69008e+07
2.3188 1.62214 0.00919136 2.05456e-08 156 1.53573 1.94512e-08 6.1494e-06 0.521206 7.89532e+07
2.45043 0.513022 0.0108472 5.5059e-09 126 0.51243 5.49954e-09 5.36741e-06 0.129251 9.31768e+07
2.58954 0.428171 0.0128014 3.89378e-09 192 0.436313 3.96782e-09 4.68145e-06 0.159695 1.09963e+08
2.73654 4.3278 0.0151076 3.3349e-08 152 4.48598 3.45679e-08 4.08023e-06 1.24234 1.29773e+08
2.89188 3.30554 0.0178292 2.15834e-08 378 3.37657 2.20472e-08 3.55373e-06 2.29576 1.53152e+08
3.05605 1.18838 0.0210412 6.57496e-09 264 1.16513 6.44634e-09 3.09304e-06 0.561192 1.80743e+08
3.22953 0.125565 0.0248319 5.88666e-10 366 0.12241 5.73875e-10 2.69025e-06 0.0800861 2.13304e+08
3.41286 0.685676 0.0293054 2.72384e-09 428 0.650545 2.58428e-09 2.33837e-06 0.498554 2.51731e+08
3.6066 3.07033 0.0345848 1.0335e-08 486 2.96095 9.96678e-09 2.0312e-06 2.47282 2.97081e+08
3.81134 0.623893 0.0408154 1.77949e-09 600 0.618192 1.76323e-09 1.76327e-06 0.605522 3.50601e+08
4.0277 0.407345 0.0481684 9.84489e-10 738 0.404714 9.78129e-10 1.52972e-06 0.474957 4.13763e+08
4.25634 1.08205 0.056846 2.21594e-09 824 1.12969 2.3135e-09 1.32631e-06 1.3767 4.88304e+08
4.49796 2.44577 0.067087 4.24412e-09 954 2.4625 4.27315e-09 1.14926e-06 3.52305 5.76273e+08
4.7533 0.437521 0.0791729 6.43327e-10 1094 0.427746 6.28955e-10 9.95263e-07 0.70715 6.8009e+08
5.02313 0.239467 0.0934361 2.9836e-10 1332 0.238728 2.9744e-10 8.61414e-07 0.461353 8.0261e+08
5.30828 1.98714 0.110269 2.0979e-09 1614 2.00958 2.12159e-09 7.45152e-07 4.54405 9.47202e+08
5.60962 0.963355 0.130134 8.61798e-10 1850 0.927953 8.30128e-10 6.44232e-07 2.47477 1.11784e+09
5.92807 1.20947 0.153578 9.16804e-10 2238 1.15158 8.72918e-10 5.56685e-07 3.68576 1.31923e+09
6.26459 0.499107 0.181246 3.2058e-10 2546 0.507954 3.26262e-10 4.80786e-07 1.69763 1.55689e+09
6.62021 0.113131 0.213898 6.15726e-11 3264 0.113059 6.15331e-11 4.15026e-07 0.484242 1.83737e+09
6.99602 1.18493 0.252432 5.46461e-10 3506 1.22794 5.66294e-10 3.58083e-07 5.35042 2.16837e+09
7.39317 0.45236 0.297908 1.76772e-10 4506 0.460259 1.79858e-10 3.08803e-07 2.57942 2.55901e+09
7.81286 0.97197 0.351577 3.21842e-10 5018 1.00812 3.33811e-10 2.66181e-07 6.06731 3.02002e+09
8.25637 0.835788 0.414914 2.34503e-10 5852 0.799088 2.24206e-10 2.29336e-07 5.98383 3.56409e+09
8.72507 0.492519 0.489662 1.17094e-10 7362 0.4854 1.15402e-10 1.97503e-07 4.36474 4.20617e+09
9.22037 0.728801 0.577876 1.4682e-10 8306 0.718636 1.44772e-10 1.70014e-07 7.17284 4.96392e+09
9.74378 0.184412 0.681982 3.14794e-11 9698 0.185276 3.16269e-11 1.46289e-07 2.08688 5.85818e+09
10.2969 0.727059 0.804843 1.05164e-10 11816 0.741498 1.07253e-10 1.25822e-07 9.876 6.91355e+09
10.8814 0.602741 0.949838 7.3874e-11 13682 0.604098 7.40403e-11 1.08175e-07 9.34356 8.15905e+09
11.4992 0.550967 1.12095 5.722e-11 16152 0.538777 5.59541e-11 9.29669e-08 9.94136 9.62892e+09
12.1519 0.554102 1.3229 4.87612e-11 19472 0.537698 4.73176e-11 7.98658e-08 11.8884 1.13636e+10
12.8418 0.19897 1.56122 1.48366e-11 22670 0.203319 1.51609e-11 6.85852e-08 4.90405 1.34108e+10
13.5708 0.514242 1.84248 3.24919e-11 26224 0.524453 3.31371e-11 5.88765e-08 14.4721 1.58268e+10
14.3411 0.4102 2.17441 2.19617e-11 31640 0.418446 2.24031e-11 5.05241e-08 13.7532 1.8678e+10
15.1552 0.464746 2.56613 2.10837e-11 37484 0.470511 2.13453e-11 4.33417e-08 18.2342 2.20429e+10
16.0156 0.366473 3.02843 1.40876e-11 43856 0.375804 1.44462e-11 3.71677e-08 16.6226 2.6014e+10
16.9247 0.642688 3.574 2.09342e-11 51362 0.644156 2.09819e-11 3.18628e-08 33.7453 3.07005e+10
17.8855 0.475038 4.21787 1.31113e-11 61636 0.469634 1.29621e-11 2.73063e-08 29.5949 3.62312e+10
18.9008 0.688472 4.97773 1.61014e-11 72218 0.686682 1.60596e-11 2.33941e-08 49.7054 4.27584e+10
19.9738 1.05934 5.87448 2.0993e-11 84586 1.04764 2.07611e-11 2.00364e-08 88.6246 5.04614e+10
21.1076 1.59362 6.93279 2.67601e-11 100708 1.58732 2.66543e-11 1.71555e-08 157.09 5.95522e+10
22.3058 3.41332 8.18175 4.85669e-11 118712 3.40185 4.84037e-11 1.46847e-08 392.619 7.02807e+10
23.5721 6.76889 9.65571 8.161e-11 140410 6.71866 8.10044e-11 1.25662e-08 911.883 8.29419e+10
24.9102 8.98133 11.3952 9.17547e-11 164374 8.92754 9.12051e-11 1.07504e-08 1402.94 9.78842e+10
26.3243 10.3487 13.4481 8.95846e-11 194680 10.3082 8.92342e-11 9.19452e-09 1896.82 1.15518e+11
27.8187 9.50455 15.8708 6.97177e-11 230196 9.47686 6.95146e-11 7.86182e-09 2041.35 1.36329e+11
29.3979 9.4964 18.73 5.90244e-11 271156 9.474 5.88852e-11 6.72061e-09 2381.45 1.60889e+11
31.0667 11.1573 22.1042 5.87617e-11 321076 11.0875 5.83938e-11 5.74366e-09 3284.83 1.89874e+11
32.8303 14.9066 26.0864 6.65237e-11 377436 14.8141 6.61105e-11 4.90756e-09 5116.28 2.2408e+11
34.694 19.6775 30.7859 7.44093e-11 447594 19.5774 7.40308e-11 4.19221e-09 7944.54 2.64449e+11
36.6634 22.6183 36.3321 7.24738e-11 525078 22.5463 7.22429e-11 3.58032e-09 10628.8 3.1209e+11
38.7447 24.1555 42.8774 6.55841e-11 621924 24.1101 6.54609e-11 3.05709e-09 13342.2 3.68314e+11
40.9442 25.9663 50.6018 5.97385e-11 732630 25.9153 5.96211e-11 2.60976e-09 16770.2 4.34667e+11
43.2685 28.4195 59.7179 5.54016e-11 865596 28.3479 5.5262e-11 2.22743e-09 21529.5 5.12973e+11
45.7247 31.967 70.4762 5.28042e-11 1.02168e+06 31.8661 5.26376e-11 1.90073e-09 28383.2 6.05386e+11
48.3204 38.8285 83.1727 5.43475e-11 1.20544e+06 38.6645 5.4118e-11 1.62163e-09 40399.1 7.14448e+11
51.0634 48.7973 98.1565 5.78745e-11 1.42103e+06 48.5862 5.76241e-11 1.38326e-09 59454.9 8.43158e+11
53.9621 61.8219 115.84 6.21291e-11 1.67997e+06 61.574 6.188e-11 1.1797e-09 88475.5 9.95055e+11
57.0254 74.8954 136.709 6.37778e-11 1.98018e+06 74.6542 6.35724e-11 1.00592e-09 125548 1.17432e+12
60.2626 86.9835 161.337 6.27644e-11 2.33957e+06 86.7469 6.25936e-11 8.57591e-10 171226 1.38587e+12
63.6835 98.5886 190.402 6.02789e-11 2.75676e+06 98.3033 6.01044e-11 7.3101e-10 227322 1.63554e+12
67.2987 114.524 224.704 5.93329e-11 3.25638e+06 114.164 5.91463e-11 6.23009e-10 310125 1.93019e+12
71.1191 135.744 265.185 5.95914e-11 3.84387e+06 135.282 5.93885e-11 5.30879e-10 431476 2.27792e+12
75.1563 161.775 312.958 6.01778e-11 4.53277e+06 161.239 5.99784e-11 4.52303e-10 603073 2.68829e+12
79.4227 191.948 369.339 6.05019e-11 5.35083e+06 191.319 6.03037e-11 3.85299e-10 840217 3.17259e+12
83.9313 226.505 435.876 6.04959e-11 6.32174e+06 225.772 6.03e-11 3.28173e-10 1.16536e+06 3.74415e+12
88.6959 266.589 514.4 6.03324e-11 7.44986e+06 265.721 6.01361e-11 2.79476e-10 1.60825e+06 4.41866e+12
93.7309 314.267 607.071 6.02657e-11 8.79764e+06 313.247 6.007e-11 2.37972e-10 2.22797e+06 5.2147e+12
99.0518 371.48 716.436 6.03625e-11 1.03827e+07 370.252 6.01631e-11 2.02605e-10 3.09334e+06 6.15414e+12
104.675 438.612 845.504 6.03913e-11 1.22515e+07 437.164 6.0192e-11 1.72471e-10 4.28992e+06 7.26283e+12
110.617 517.547 997.824 6.03817e-11 1.44573e+07 515.851 6.01839e-11 1.468e-10 5.94658e+06 8.57124e+12
116.896 611.163 1177.58 6.04192e-11 1.70664e+07 609.146 6.02198e-11 1.24935e-10 8.25341e+06 1.01154e+13
123.532 721.742 1389.73 6.04591e-11 2.0139e+07 719.351 6.02588e-11 1.06313e-10 1.14528e+07 1.19377e+13
130.545 852.361 1640.09 6.05014e-11 2.37643e+07 849.514 6.02992e-11 9.04567e-11 1.58946e+07 1.40883e+13
137.955 1005.68 1935.56 6.04869e-11 2.80503e+07 1002.31 6.02848e-11 7.69563e-11 2.20473e+07 1.66263e+13
145.787 1188.28 2284.26 6.05596e-11 3.30981e+07 1184.3 6.0357e-11 6.54636e-11 3.06187e+07 1.96216e+13
154.063 1404.05 2695.77 6.06332e-11 3.90634e+07 1399.39 6.04317e-11 5.56812e-11 4.25375e+07 2.31565e+13
162.808 1658.16 3181.42 6.06758e-11 4.61057e+07 1652.59 6.04719e-11 4.73556e-11 5.90742e+07 2.73282e+13
172.051 1959.55 3754.56 6.07586e-11 5.44046e+07 1952.97 6.05546e-11 4.02708e-11 8.20829e+07 3.22515e+13
181.818 2317.45 4430.96 6.08869e-11 6.42064e+07 2309.65 6.06818e-11 3.42426e-11 1.14166e+08 3.80616e+13
192.139 2739.64 5229.21 6.09912e-11 7.57748e+07 2730.4 6.07857e-11 2.91139e-11 1.58742e+08 4.49186e+13
203.046 3242.1 6171.26 6.11593e-11 8.94213e+07 3231.21 6.09538e-11 2.4751e-11 2.20958e+08 5.30108e+13
214.572 3839.04 7283.03 6.1365e-11 1.05538e+08 3826.05 6.11573e-11 2.10401e-11 3.07811e+08 6.25608e+13
226.753 4548.66 8595.09 6.16088e-11 1.24552e+08 4533.19 6.13993e-11 1.78839e-11 4.29072e+08 7.38313e+13
239.625 5396.35 10143.5 6.19329e-11 1.46987e+08 5377.86 6.17207e-11 1.51999e-11 5.98908e+08 8.71322e+13
253.228 6411.53 11970.9 6.23512e-11 1.7347e+08 6389.44 6.21364e-11 1.29176e-11 8.37311e+08 1.02829e+14
267.603 7635.35 14127.5 6.29179e-11 2.04703e+08 7608.77 6.26988e-11 1.09771e-11 1.1733e+09 1.21354e+14
282.795 9116.51 16672.6 6.36554e-11 2.4161e+08 9084.29 6.34305e-11 9.3274e-12 1.64888e+09 1.43217e+14
298.848 10929.3 19676.2 6.46637e-11 2.85122e+08 10890 6.44313e-11 7.925e-12 2.32644e+09 1.69017e+14
315.813 13172.9 23220.9 6.60407e-11 3.36491e+08 13124.5 6.57978e-11 6.73295e-12 3.3005e+09 1.99466e+14
333.741 16002.2 27404.3 6.79784e-11 3.97115e+08 15941.3 6.77199e-11 5.71979e-12 4.71962e+09 2.35401e+14
352.686 19642.7 32341.2 7.07058e-11 4.68637e+08 19564.5 7.04245e-11 4.85874e-12 6.81974e+09 2.77809e+14
372.707 24474.2 38167.6 7.46492e-11 5.53074e+08 24371.3 7.43353e-11 4.12703e-12 1.00039e+10 3.27857e+14
393.865 31148.4 45043.5 8.05031e-11 6.52716e+08 31007.1 8.01381e-11 3.50528e-12 1.49904e+10 3.86921e+14
416.224 36754.2 53158.3 8.04908e-11 2.2184e+08 38882.5 8.51516e-11 2.97701e-12 5.99799e+09 4.56626e+14
439.852 0 62734.9 0 0 0 0 2.52819e-12 0 5.38888e+14
464.821 0 74036.7 0 0 0 0 2.1469e-12 0 6.35971e+14
491.207 0 87374.6 0 0 0 0 1.82301e-12 0 7.50542e+14
519.092 0 103115 0 0 0 0 1.54789e-12 0 8.85755e+14
548.56 0 121692 0 0 0 0 1.31422e-12 0 1.04533e+15
579.7 0 143615 0 0 0 0 1.11576e-12 0 1.23364e+15
612.608 0 169488 0 0 0 0 9.47223e-13 0 1.45589e+15
647.384 0 200021 0 0 0 0 8.041e-13 0 1.71817e+15
684.134 0 236056 0 0 0 0 6.82568e-13 0 2.0277e+15
722.971 0 278582 0 0 0 0 5.79376e-13 0 2.393e+15
764.012 0 328769 0 0 0 0 4.91762e-13 0 2.8241e+15
0.0565352
200
1.0655e+09
8589934592
0.0129181 8.18658e-06 1.58924e-09 5.99685e-07 6 8.11163e-06 5.94195e-07 0.00677225 0.000531302 13.6515
0.0136515 0 1.87554e-09 0 0 0 0 0.00688819 0 16.1108
0.0144264 0 2.21343e-09 0 0 0 0 0.00699249 0 19.0132
0.0152454 0 2.61218e-09 0 0 0 0 0.00708412 0 22.4385
0.0161108 0 3.08278e-09 0 0 0 0 0.00716212 0 26.4808
0.0170254 0 3.63815e-09 0 0 0 0 0.00722559 0 31.2514
0.0179919 2.24942e-05 4.29357e-09 6.09904e-07 12 2.24652e-05 6.09118e-07 0.00727371 0.00100621 36.8815
0.0190132 0 5.06707e-09 0 0 0 0 0.00730578 0 43.5258
0.0200925 0 5.97991e-09 0 0 0 0 0.00732122 0 51.367
0.0212331 4.98963e-05 7.05721e-09 8.23087e-07 8 4.98529e-05 8.22371e-07 0.00731958 0.000899601 60.621
0.0224385 0 8.32858e-09 0 0 0 0 0.00730056 0 71.542
0.0237123 0 9.829e-09 0 0 0 0 0.00726401 0 84.4305
0.0250583 0.000106272 1.15997e-08 1.06655e-06 6 0.000106222 1.06605e-06 0.00720995 0.000887565 99.6408
0.0264808 0 1.36894e-08 0 0 0 0 0.00713857 0 117.591
0.0279841 5.82019e-05 1.61556e-08 4.19395e-07 24 5.81422e-05 4.18965e-07 0.00705021 0.00142769 138.776
0.0295727 0 1.90661e-08 0 0 0 0 0.00694538 0 163.777
0.0312514 9.03675e-05 2.25009e-08 4.67543e-07 24 9.08263e-05 4.69917e-07 0.00682475 0.00164417 193.281
0.0330255 0 2.65545e-08 0 0 0 0 0.00668915 0 228.102
0.0349003 0.000162333 3.13384e-08 6.03032e-07 12 0.000161033 5.98203e-07 0.00653951 0.00110656 269.195
0.0368815 0.000310652 3.69841e-08 9.77844e-07 30 0.000307344 9.67431e-07 0.00637693 0.00460023 317.691
0.0389751 0.000264106 4.36469e-08 7.04425e-07 24 0.000261389 6.97179e-07 0.00620256 0.00272568 374.924
0.0411876 0.000293005 5.151e-08 6.62207e-07 24 0.000291015 6.5771e-07 0.00601767 0.00264105 442.467
0.0435258 0.000258431 6.07896e-08 4.9491e-07 8 0.000258411 4.94872e-07 0.00582358 0.00067987 522.179
0.0459966 0.000354087 7.1741e-08 5.74583e-07 72 0.000351318 5.7009e-07 0.00562166 0.00735903 616.251
0.0486077 0 8.46654e-08 0 0 0 0 0.0054133 0 727.27
0.051367 0.000648981 9.99181e-08 7.56133e-07 54 0.000645725 7.52339e-07 0.00519989 0.00785232 858.29
0.054283 0.000521445 1.17919e-07 5.14797e-07 60 0.000522208 5.15551e-07 0.0049828 0.00619888 1012.91
0.0573645 0.000540387 1.39162e-07 4.52058e-07 96 0.000537233 4.4942e-07 0.00476339 0.00911066 1195.39
0.060621 0.000633707 1.64232e-07 4.492e-07 24 0.000625122 4.43115e-07 0.00454293 0.0023731 1410.75
0.0640622 0.00069086 1.93819e-07 4.14957e-07 134 0.000692776 4.16108e-07 0.00432265 0.0128635 1664.89
0.0676989 0.000797599 2.28736e-07 4.05938e-07 120 0.000793394 4.03798e-07 0.00410371 0.0118704 1964.83
0.071542 0.000863389 2.69944e-07 3.72343e-07 108 0.000849581 3.66388e-07 0.00388717 0.0103451 2318.8
0.0756032 0.00121334 3.18575e-07 4.43386e-07 174 0.00120561 4.40562e-07 0.00367401 0.0209986 2736.54
0.079895 0.00103848 3.75967e-07 3.21558e-07 168 0.00103079 3.19177e-07 0.0034651 0.0155902 3229.53
0.0844305 0.00140411 4.43698e-07 3.68403e-07 168 0.00140821 3.69478e-07 0.00326121 0.0189781 3811.34
0.0892234 0.00147164 5.23632e-07 3.27179e-07 290 0.00146765 3.26292e-07 0.00306301 0.0309767 4497.96
0.0942883 0.00154663 6.17966e-07 2.91362e-07 288 0.00154709 2.91448e-07 0.00287109 0.0292266 5308.28
0.0996408 0.00155721 7.29294e-07 2.48573e-07 366 0.00154304 2.46311e-07 0.00268591 0.0338722 6264.59
0.105297 0.00151077 8.60678e-07 2.04346e-07 420 0.00150101 2.03027e-07 0.00250785 0.0342227 7393.17
0.111275 0.00182929 1.01573e-06 2.09659e-07 398 0.00182698 2.09395e-07 0.00233721 0.0357025 8725.07
0.117591 0.00204334 1.19872e-06 1.98442e-07 624 0.00204729 1.98825e-07 0.00217419 0.0569533 10296.9
0.124267 0.00221501 1.41467e-06 1.82276e-07 642 0.0022104 1.81897e-07 0.00201893 0.0579622 12151.9
0.131321 0.00250794 1.66953e-06 1.74878e-07 800 0.00250525 1.7469e-07 0.00187147 0.0747553 14341.1
0.138776 0.00275353 1.9703e-06 1.62693e-07 858 0.00276205 1.63196e-07 0.00173182 0.0806035 16924.7
0.146654 0.00269115 2.32525e-06 1.34735e-07 1080 0.00271588 1.35973e-07 0.00159991 0.090951 19973.8
0.154979 0.00295494 2.74415e-06 1.25358e-07 1286 0.00297595 1.26249e-07 0.00147563 0.109248 23572.1
0.163777 0.00308761 3.23852e-06 1.10991e-07 1650 0.00309855 1.11384e-07 0.00135884 0.134773 27818.7
0.173074 0.0031334 3.82195e-06 9.54424e-08 1778 0.00313942 9.56259e-08 0.00124933 0.13583 32830.3
0.182899 0.0037894 4.51048e-06 9.78044e-08 2112 0.00379432 9.79313e-08 0.00114689 0.180107 38744.7
0.193281 0.00404647 5.32305e-06 8.84963e-08 2570 0.00405353 8.86507e-08 0.00105127 0.216343 45724.7
0.204254 0.0043697 6.28202e-06 8.09772e-08 3030 0.00436976 8.09784e-08 0.000962209 0.254997 53962.1
0.215848 0.00452351 7.41374e-06 7.10311e-08 3434 0.00452088 7.09898e-08 0.000879423 0.277365 63683.5
0.228102 0.00466005 8.74934e-06 6.20048e-08 4218 0.00465791 6.19763e-08 0.000802624 0.325851 75156.3
0.24105 0.00511149 1.03256e-05 5.76294e-08 4766 0.0051169 5.76904e-08 0.000731515 0.375469 88695.9
0.254734 0.00559317 1.21857e-05 5.34338e-08 6026 0.00559056 5.34089e-08 0.000665798 0.483619 104675
0.269195 0.00589419 1.4381e-05 4.77138e-08 6480 0.00589352 4.77084e-08 0.000605173 0.510904 123532
0.284476 0.00618027 1.69718e-05 4.23925e-08 8162 0.00619156 4.24699e-08 0.000549345 0.629856 145787
0.300625 0.00665745 2.00293e-05 3.86947e-08 9578 0.00666066 3.87134e-08 0.000498021 0.744182 172051
0.317691 0.00691538 2.36377e-05 3.40582e-08 11234 0.00691369 3.40499e-08 0.000450916 0.848516 203046
0.335725 0.00745088 2.78961e-05 3.10939e-08 13344 0.00744823 3.10828e-08 0.000407755 1.01756 239625
0.354784 0.00771838 3.29216e-05 2.72933e-08 15464 0.00771287 2.72738e-08 0.000368269 1.14607 282795
0.374924 0.00827957 3.88525e-05 2.48084e-08 18458 0.00827632 2.47987e-08 0.000332202 1.37842 333741
0.396207 0.00871219 4.58519e-05 2.21197e-08 22232 0.00869788 2.20834e-08 0.000299307 1.64302 393865
0.418699 0.00920269 5.41123e-05 1.97984e-08 25628 0.00918289 1.97558e-08 0.00026935 1.88377 464821
0.442467 0.0097018 6.38607e-05 1.7686e-08 30320 0.00968189 1.76497e-08 0.000242108 2.21487 548560
0.467585 0.0102995 7.53654e-05 1.59094e-08 35452 0.0102839 1.58853e-08 0.00021737 2.59475 647384
0.494129 0.0106763 8.89427e-05 1.3974e-08 41792 0.0106748 1.39721e-08 0.000194938 2.99582 764012
0.522179 0.0111722 0.000104966 1.23908e-08 49988 0.0111692 1.23875e-08 0.000174625 3.54698 901651
0.551822 0.0117365 0.000123876 1.10297e-08 59110 0.011732 1.10254e-08 0.000156255 4.17245 1.06409e+06
0.583147 0.0123286 0.000146192 9.81748e-09 69716 0.0123188 9.80963e-09 0.000139664 4.90058 1.25578e+06
0.616251 0.0129206 0.000172529 8.71824e-09 82210 0.0129032 8.70649e-09 0.0001247 5.74761 1.48202e+06
0.651234 0.013446 0.000203611 7.6878e-09 96722 0.0134218 7.67398e-09 0.00011122 6.68564 1.74901e+06
0.688203 0.0140524 0.000240292 6.80803e-09 113098 0.014034 6.79912e-09 9.90935e-05 7.77019 2.06409e+06
0.72727 0.0148051 0.000283581 6.07776e-09 135190 0.0147923 6.0725e-09 8.81969e-05 9.31612 2.43595e+06
0.768555 0.0154155 0.000334669 5.36231e-09 158170 0.0154048 5.35857e-09 7.84179e-05 10.8158 2.87479e+06
0.812184 0.0161539 0.000394961 4.76139e-09 188560 0.0161432 4.75824e-09 6.96525e-05 12.8898 3.39269e+06
0.85829 0.0167645 0.000466114 4.18706e-09 220444 0.0167438 4.18188e-09 6.1805e-05 14.9343 4.00389e+06
0.907013 0.0175295 0.000550086 3.70979e-09 261388 0.0175131 3.70632e-09 5.47875e-05 17.6992 4.7252e+06
0.958501 0.0181925 0.000649185 3.26237e-09 308244 0.0181741 3.25908e-09 4.85194e-05 20.7259 5.57646e+06
1.01291 0.0189821 0.000766138 2.88435e-09 364396 0.0189628 2.88141e-09 4.29272e-05 24.4844 6.58107e+06
1.07041 0.019777 0.00090416 2.54639e-09 429162 0.0197539 2.54342e-09 3.79435e-05 28.8011 7.76667e+06
1.13118 0.0204948 0.00106705 2.236e-09 506358 0.0204735 2.23367e-09 3.3507e-05 33.7904 9.16586e+06
1.19539 0.0212979 0.00125928 1.96891e-09 598590 0.0212758 1.96686e-09 2.9562e-05 39.8677 1.08171e+07
1.26325 0.0222255 0.00148614 1.74101e-09 704844 0.0221995 1.73898e-09 2.60578e-05 47.093 1.27658e+07
1.33496 0.0230352 0.00175387 1.52899e-09 834620 0.0230089 1.52724e-09 2.29484e-05 55.6083 1.50656e+07
1.41075 0.0238463 0.00206984 1.3412e-09 981444 0.0238187 1.33965e-09 2.01923e-05 65.1891 1.77798e+07
1.49083 0.024761 0.00244272 1.18006e-09 1.15998e+06 0.0247341 1.17878e-09 1.77518e-05 77.11 2.09828e+07
1.57546 0.025668 0.00288279 1.03655e-09 1.36931e+06 0.0256384 1.03535e-09 1.55929e-05 91.0261 2.4763e+07
1.66489 0.0266526 0.00340213 9.12009e-10 1.61652e+06 0.02662 9.10893e-10 1.3685e-05 107.729 2.92241e+07
1.75941 0.0276126 0.00401503 8.00624e-10 1.90601e+06 0.0275782 7.99626e-10 1.20007e-05 127.159 3.44889e+07
1.85928 0.0285749 0.00473835 7.0205e-10 2.24913e+06 0.0285405 7.01204e-10 1.05151e-05 150.165 4.07021e+07
1.96483 0.0296106 0.00559198 6.16442e-10 2.65744e+06 0.0295753 6.15707e-10 9.20606e-06 177.944 4.80347e+07
2.07637 0.0306101 0.00659939 5.39972e-10 3.13125e+06 0.0305743 5.39341e-10 8.05366e-06 209.94 5.66883e+07
2.19424 0.0317122 0.00778828 4.74018e-10 3.69915e+06 0.0316723 4.73422e-10 7.04008e-06 249.069 6.69008e+07
2.3188 0.0328087 0.00919136 4.15546e-10 4.36472e+06 0.0327679 4.15029e-10 6.1494e-06 294.947 7.89532e+07
2.45043 0.0339138 0.0108472 3.63973e-10 5.14913e+06 0.0338713 3.63516e-10 5.36741e-06 349.171 9.31768e+07
2.58954 0.0350638 0.0128014 3.18869e-10 6.07894e+06 0.0350211 3.18481e-10 4.68145e-06 414.056 1.09963e+08
2.73654 0.0362735 0.0151076 2.79515e-10 7.17304e+06 0.0362303 2.79182e-10 4.08023e-06 491.386 1.29773e+08
2.89188 0.0374817 0.0178292 2.44736e-10 8.46557e+06 0.0374365 2.4444e-10 3.55373e-06 583 1.53152e+08
3.05605 0.0387936 0.0210412 2.14634e-10 9.98773e+06 0.0387483 2.14384e-10 3.09304e-06 693.075 1.80743e+08
3.22953 0.0401271 0.0248319 1.88122e-10 1.1797e+07 0.0400779 1.87891e-10 2.69025e-06 824.931 2.13304e+08
3.41286 0.041506 0.0293054 1.64882e-10 1.39144e+07 0.0414534 1.64673e-10 2.33837e-06 981.124 2.51731e+08
3.6066 0.0429043 0.0345848 1.44419e-10 1.64163e+07 0.0428498 1.44236e-10 2.0312e-06 1167.21 2.97081e+08
3.81134 0.0443669 0.0408154 1.26545e-10 1.93821e+07 0.0443106 1.26385e-10 1.76327e-06 1391.01 3.50601e+08
4.0277 0.0459421 0.0481684 1.11035e-10 2.28754e+07 0.0458829 1.10892e-10 1.52972e-06 1660.41 4.13763e+08
4.25634 0.0475667 0.056846 9.74121e-11 2.69929e+07 0.0475045 9.72848e-11 1.32631e-06 1982.52 4.88304e+08
4.49796 0.0492719 0.067087 8.5501e-11 3.18542e+07 0.0492068 8.5388e-11 1.14926e-06 2369.85 5.76273e+08
4.7533 0.0510336 0.0791729 7.50395e-11 3.75892e+07 0.0509662 7.49404e-11 9.95263e-07 2834.1 6.8009e+08
5.02313 0.0528649 0.0934361 6.58662e-11 4.43706e+07 0.0527955 6.57797e-11 8.61414e-07 3392.7 8.0261e+08
5.30828 0.0548053 0.110269 5.78602e-11 5.23593e+07 0.054732 5.77827e-11 7.45152e-07 4065.64 9.47202e+08
5.60962 0.0568241 0.130134 5.08337e-11 6.1787e+07 0.0567476 5.07652e-11 6.44232e-07 4875.36 1.11784e+09
5.92807 0.0589406 0.153578 4.46782e-11 7.29346e+07 0.0588598 4.46169e-11 5.56685e-07 5853.55 1.31923e+09
6.26459 0.0611515 0.181246 3.9278e-11 8.60651e+07 0.0610671 3.92238e-11 4.80786e-07 7031.12 1.55689e+09
6.62021 0.0634989 0.213898 3.45598e-11 1.01558e+08 0.0634099 3.45113e-11 4.15026e-07 8456.88 1.83737e+09
6.99602 0.0659556 0.252432 3.04171e-11 1.1986e+08 0.065863 3.03744e-11 3.58083e-07 10181.4 2.16837e+09
7.39317 0.0685623 0.297908 2.67925e-11 1.41457e+08 0.0684651 2.67545e-11 3.08803e-07 12273.1 2.55901e+09
7.81286 0.0713391 0.351577 2.3622e-11 1.66936e+08 0.0712363 2.3588e-11 2.66181e-07 14814.6 3.02002e+09
8.25637 0.0742864 0.414914 2.0843e-11 1.97025e+08 0.0741782 2.08127e-11 2.29336e-07 17906.5 3.56409e+09
8.72507 0.0774611 0.489662 1.84161e-11 2.32497e+08 0.0773462 1.83888e-11 1.97503e-07 21679.1 4.20617e+09
9.22037 0.0809626 0.577876 1.63102e-11 2.74404e+08 0.0808395 1.62854e-11 1.70014e-07 26324.8 4.96392e+09
9.74378 0.084885 0.681982 1.449e-11 3.2382e+08 0.0847509 1.44671e-11 1.46289e-07 32074.5 5.85818e+09
10.2969 0.0894643 0.804843 1.29404e-11 3.82165e+08 0.0893161 1.2919e-11 1.25822e-07 39304.4 6.91355e+09
10.8814 0.0950537 0.949838 1.16501e-11 4.51027e+08 0.0948826 1.16291e-11 1.08175e-07 48573.9 8.15905e+09
11.4992 0.102345 1.12095 1.06289e-11 5.32251e+08 0.102139 1.06076e-11 9.29669e-08 60852.3 9.62892e+09
12.1519 0.11266 1.3229 9.91412e-12 6.28157e+08 0.112392 9.89052e-12 7.98658e-08 77976.2 1.13636e+10
12.8418 0.124445 1.56122 9.27951e-12 3.82727e+08 0.12881 9.60494e-12 6.85852e-08 51782.5 1.34108e+10
13.5708 0 1.84248 0 0 0 0 5.88765e-08 0 1.58268e+10
14.3411 0 2.17441 0 0 0 0 5.05241e-08 0 1.8678e+10
15.1552 0 2.56613 0 0 0 0 4.33417e-08 0 2.20429e+10
16.0156 0 3.02843 0 0 0 0 3.71677e-08 0 2.6014e+10
16.9247 0 3.574 0 0 0 0 3.18628e-08 0 3.07005e+10
17.8855 0 4.21787 0 0 0 0 2.73063e-08 0 3.62312e+10
18.9008 0 4.97773 0 0 0 0 2.33941e-08 0 4.27584e+10
19.9738 0 5.87448 0 0 0 0 2.00364e-08 0 5.04614e+10
21.1076 0 6.93279 0 0 0 0 1.71555e-08 0 5.95522e+10
22.3058 0 8.18175 0 0 0 0 1.46847e-08 0 7.02807e+10
23.5721 0 9.65571 0 0 0 0 1.25662e-08 0 8.29419e+10
24.9102 0 11.3952 0 0 0 0 1.07504e-08 0 9.78842e+10
26.3243 0 13.4481 0 0 0 0 9.19452e-09 0 1.15518e+11
27.8187 0 15.8708 0 0 0 0 7.86182e-09 0 1.36329e+11
29.3979 0 18.73 0 0 0 0 6.72061e-09 0 1.60889e+11
31.0667 0 22.1042 0 0 0 0 5.74366e-09 0 1.89874e+11
32.8303 0 26.0864 0 0 0 0 4.90756e-09 0 2.2408e+11
34.694 0 30.7859 0 0 0 0 4.19221e-09 0 2.64449e+11
36.6634 0 36.3321 0 0 0 0 3.58032e-09 0 3.1209e+11
38.7447 0 42.8774 0 0 0 0 3.05709e-09 0 3.68314e+11
40.9442 0 50.6018 0 0 0 0 2.60976e-09 0 4.34667e+11
43.2685 0 59.7179 0 0 0 0 2.22743e-09 0 5.12973e+11
45.7247 0 70.4762 0 0 0 0 1.90073e-09 0 6.05386e+11
48.3204 0 83.1727 0 0 0 0 1.62163e-09 0 7.14448e+11
51.0634 0 98.1565 0 0 0 0 1.38326e-09 0 8.43158e+11
53.9621 0 115.84 0 0 0 0 1.1797e-09 0 9.95055e+11
57.0254 0 136.709 0 0 0 0 1.00592e-09 0 1.17432e+12
60.2626 0 161.337 0 0 0 0 8.57591e-10 0 1.38587e+12
63.6835 0 190.402 0 0 0 0 7.3101e-10 0 1.63554e+12
67.2987 0 224.704 0 0 0 0 6.23009e-10 0 1.93019e+12
71.1191 0 265.185 0 0 0 0 5.30879e-10 0 2.27792e+12
75.1563 0 312.958 0 0 0 0 4.52303e-10 0 2.68829e+12
79.4227 0 369.339 0 0 0 0 3.85299e-10 0 3.17259e+12
83.9313 0 435.876 0 0 0 0 3.28173e-10 0 3.74415e+12
88.6959 0 514.4 0 0 0 0 2.79476e-10 0 4.41866e+12
93.7309 0 607.071 0 0 0 0 2.37972e-10 0 5.2147e+12
99.0518 0 716.436 0 0 0 0 2.02605e-10 0 6.15414e+12
104.675 0 845.504 0 0 0 0 1.72471e-10 0 7.26283e+12
110.617 0 997.824 0 0 0 0 1.468e-10 0 8.57124e+12
116.896 0 1177.58 0 0 0 0 1.24935e-10 0 1.01154e+13
123.532 0 1389.73 0 0 0 0 1.06313e-10 0 1.19377e+13
130.545 0 1640.09 0 0 0 0 9.04567e-11 0 1.40883e+13
137.955 0 1935.56 0 0 0 0 7.69563e-11 0 1.66263e+13
145.787 0 2284.26 0 0 0 0 6.54636e-11 0 1.96216e+13
154.063 0 2695.77 0 0 0 0 5.56812e-11 0 2.31565e+13
162.808 0 3181.42 0 0 0 0 4.73556e-11 0 2.73282e+13
172.051 0 3754.56 0 0 0 0 4.02708e-11 0 3.22515e+13
181.818 0 4430.96 0 0 0 0 3.42426e-11 0 3.80616e+13
192.139 0 5229.21 0 0 0 0 2.91139e-11 0 4.49186e+13
203.046 0 6171.26 0 0 0 0 2.4751e-11 0 5.30108e+13
214.572 0 7283.03 0 0 0 0 2.10401e-11 0 6.25608e+13
226.753 0 8595.09 0 0 0 0 1.78839e-11 0 7.38313e+13
239.625 0 10143.5 0 0 0 0 1.51999e-11 0 8.71322e+13
253.228 0 11970.9 0 0 0 0 1.29176e-11 0 1.02829e+14
267.603 0 14127.5 0 0 0 0 1.09771e-11 0 1.21354e+14
282.795 0 16672.6 0 0 0 0 9.3274e-12 0 1.43217e+14
298.848 0 19676.2 0 0 0 0 7.925e-12 0 1.69017e+14
315.813 0 23220.9 0 0 0 0 6.73295e-12 0 1.99466e+14
333.741 0 27404.3 0 0 0 0 5.71979e-12 0 2.35401e+14
352.686 0 32341.2 0 0 0 0 4.85874e-12 0 2.77809e+14
372.707 0 38167.6 0 0 0 0 4.12703e-12 0 3.27857e+14
393.865 0 45043.5 0 0 0 0 3.50528e-12 0 3.86921e+14
416.224 0 53158.3 0 0 0 0 2.97701e-12 0 4.56626e+14
439.852 0 62734.9 0 0 0 0 2.52819e-12 0 5.38888e+14
464.821 0 74036.7 0 0 0 0 2.1469e-12 0 6.35971e+14
491.207 0 87374.6 0 0 0 0 1.82301e-12 0 7.50542e+14
519.092 0 103115 0 0 0 0 1.54789e-12 0 8.85755e+14
548.56 0 121692 0 0 0 0 1.31422e-12 0 1.04533e+15
579.7 0 143615 0 0 0 0 1.11576e-12 0 1.23364e+15
612.608 0 169488 0 0 0 0 9.47223e-13 0 1.45589e+15
647.384 0 200021 0 0 0 0 8.041e-13 0 1.71817e+15
684.134 0 236056 0 0 0 0 6.82568e-13 0 2.0277e+15
722.971 0 278582 0 0 0 0 5.79376e-13 0 2.393e+15
764.012 0 328769 0 0 0 0 4.91762e-13 0 2.8241e+15
