0.0477877
200
1.0655e+09
8589934592
0.0129181 0 1.58924e-09 0 0 0 0 0.00677225 0 13.6515
0.0136515 0 1.87554e-09 0 0 0 0 0.00688819 0 16.1108
0.0144264 0 2.21343e-09 0 0 0 0 0.00699249 0 19.0132
0.0152454 0 2.61218e-09 0 0 0 0 0.00708412 0 22.4385
0.0161108 0 3.08278e-09 0 0 0 0 0.00716212 0 26.4808
0.0170254 0 3.63815e-09 0 0 0 0 0.00722559 0 31.2514
0.0179919 0 4.29357e-09 0 0 0 0 0.00727371 0 36.8815
0.0190132 0 5.06707e-09 0 0 0 0 0.00730578 0 43.5258
0.0200925 0 5.97991e-09 0 0 0 0 0.00732122 0 51.367
0.0212331 0 7.05721e-09 0 0 0 0 0.00731958 0 60.621
0.0224385 0 8.32858e-09 0 0 0 0 0.00730056 0 71.542
0.0237123 0 9.829e-09 0 0 0 0 0.00726401 0 84.4305
0.0250583 0 1.15997e-08 0 0 0 0 0.00720995 0 99.6408
0.0264808 0 1.36894e-08 0 0 0 0 0.00713857 0 117.591
0.0279841 0 1.61556e-08 0 0 0 0 0.00705021 0 138.776
0.0295727 0 1.90661e-08 0 0 0 0 0.00694538 0 163.777
0.0312514 0 2.25009e-08 0 0 0 0 0.00682475 0 193.281
0.0330255 0 2.65545e-08 0 0 0 0 0.00668915 0 228.102
0.0349003 0 3.13384e-08 0 0 0 0 0.00653951 0 269.195
0.0368815 0 3.69841e-08 0 0 0 0 0.00637693 0 317.691
0.0389751 0 4.36469e-08 0 0 0 0 0.00620256 0 374.924
0.0411876 0 5.151e-08 0 0 0 0 0.00601767 0 442.467
0.0435258 0 6.07896e-08 0 0 0 0 0.00582358 0 522.179
0.0459966 0 7.1741e-08 0 0 0 0 0.00562166 0 616.251
0.0486077 0 8.46654e-08 0 0 0 0 0.0054133 0 727.27
0.051367 0 9.99181e-08 0 0 0 0 0.00519989 0 858.29
0.054283 0 1.17919e-07 0 0 0 0 0.0049828 0 1012.91
0.0573645 0 1.39162e-07 0 0 0 0 0.00476339 0 1195.39
0.060621 0 1.64232e-07 0 0 0 0 0.00454293 0 1410.75
0.0640622 0 1.93819e-07 0 0 0 0 0.00432265 0 1664.89
0.0676989 0 2.28736e-07 0 0 0 0 0.00410371 0 1964.83
0.071542 0 2.69944e-07 0 0 0 0 0.00388717 0 2318.8
0.0756032 0 3.18575e-07 0 0 0 0 0.00367401 0 2736.54
0.079895 0 3.75967e-07 0 0 0 0 0.0034651 0 3229.53
0.0844305 0 4.43698e-07 0 0 0 0 0.00326121 0 3811.34
0.0892234 0 5.23632e-07 0 0 0 0 0.00306301 0 4497.96
0.0942883 0 6.17966e-07 0 0 0 0 0.00287109 0 5308.28
0.0996408 0 7.29294e-07 0 0 0 0 0.00268591 0 6264.59
0.105297 0 8.60678e-07 0 0 0 0 0.00250785 0 7393.17
0.111275 0 1.01573e-06 0 0 0 0 0.00233721 0 8725.07
0.117591 0 1.19872e-06 0 0 0 0 0.00217419 0 10296.9
0.124267 0 1.41467e-06 0 0 0 0 0.00201893 0 12151.9
0.131321 0 1.66953e-06 0 0 0 0 0.00187147 0 14341.1
0.138776 0 1.9703e-06 0 0 0 0 0.00173182 0 16924.7
0.146654 0 2.32525e-06 0 0 0 0 0.00159991 0 19973.8
0.154979 0 2.74415e-06 0 0 0 0 0.00147563 0 23572.1
0.163777 0 3.23852e-06 0 0 0 0 0.00135884 0 27818.7
0.173074 0 3.82195e-06 0 0 0 0 0.00124933 0 32830.3
0.182899 0 4.51048e-06 0 0 0 0 0.00114689 0 38744.7
0.193281 0 5.32305e-06 0 0 0 0 0.00105127 0 45724.7
0.204254 0 6.28202e-06 0 0 0 0 0.000962209 0 53962.1
0.215848 0 7.41374e-06 0 0 0 0 0.000879423 0 63683.5
0.228102 0 8.74934e-06 0 0 0 0 0.000802624 0 75156.3
0.24105 0 1.03256e-05 0 0 0 0 0.000731515 0 88695.9
0.254734 0 1.21857e-05 0 0 0 0 0.000665798 0 104675
0.269195 0 1.4381e-05 0 0 0 0 0.000605173 0 123532
0.284476 0 1.69718e-05 0 0 0 0 0.000549345 0 145787
0.300625 0 2.00293e-05 0 0 0 0 0.000498021 0 172051
0.317691 0 2.36377e-05 0 0 0 0 0.000450916 0 203046
0.335725 0 2.78961e-05 0 0 0 0 0.000407755 0 239625
0.354784 0 3.29216e-05 0 0 0 0 0.000368269 0 282795
0.374924 0 3.88525e-05 0 0 0 0 0.000332202 0 333741
0.396207 0.445098 4.58519e-05 1.13008e-06 6 0.432724 1.09866e-06 0.000299307 0.0226539 393865
0.418699 0 5.41123e-05 0 0 0 0 0.00026935 0 464821
0.442467 0 6.38607e-05 0 0 0 0 0.000242108 0 548560
0.467585 0 7.53654e-05 0 0 0 0 0.00021737 0 647384
0.494129 0 8.89427e-05 0 0 0 0 0.000194938 0 764012
0.522179 0 0.000104966 0 0 0 0 0.000174625 0 901651
0.551822 0 0.000123876 0 0 0 0 0.000156255 0 1.06409e+06
0.583147 3.22964 0.000146192 2.57181e-06 12 3.39921 2.70684e-06 0.000139664 0.220971 1.25578e+06
0.616251 0 0.000172529 0 0 0 0 0.0001247 0 1.48202e+06
0.651234 0 0.000203611 0 0 0 0 0.00011122 0 1.74901e+06
0.688203 24.7991 0.000240292 1.20145e-05 8 24.1821 1.17156e-05 9.90935e-05 0.969954 2.06409e+06
0.72727 0 0.000283581 0 0 0 0 8.81969e-05 0 2.43595e+06
0.768555 0 0.000334669 0 0 0 0 7.84179e-05 0 2.87479e+06
0.812184 0.0473744 0.000394961 1.39637e-08 6 0.0483872 1.42622e-08 6.96525e-05 0.00120286 3.39269e+06
0.85829 0 0.000466114 0 0 0 0 6.1805e-05 0 4.00389e+06
0.907013 0.145065 0.000550086 3.07002e-08 24 0.147848 3.12892e-08 5.47875e-05 0.0134484 4.7252e+06
0.958501 0.686392 0.000649185 1.23087e-07 24 0.646187 1.15878e-07 4.85194e-05 0.0608849 5.57646e+06
1.01291 0 0.000766138 0 0 0 0 4.29272e-05 0 6.58107e+06
1.07041 0 0.00090416 0 0 0 0 3.79435e-05 0 7.76667e+06
1.13118 1.24794 0.00106705 1.36151e-07 12 1.23261 1.34479e-07 3.3507e-05 0.0487604 9.16586e+06
1.19539 0.41519 0.00125928 3.83827e-08 30 0.406631 3.75915e-08 2.9562e-05 0.0389514 1.08171e+07
1.26325 4.04295 0.00148614 3.16701e-07 24 3.98211 3.11935e-07 2.60578e-05 0.29169 1.27658e+07
1.33496 20.0921 0.00175387 1.33364e-06 24 20.1363 1.33657e-06 2.29484e-05 1.39475 1.50656e+07
1.41075 6.67011 0.00206984 3.75152e-07 32 6.86426 3.86071e-07 2.01923e-05 0.594526 1.77798e+07
1.49083 0.275038 0.00244272 1.31078e-08 48 0.269174 1.28283e-08 1.77518e-05 0.0354428 2.09828e+07
1.57546 0.0922492 0.00288279 3.72529e-09 6 0.087842 3.54732e-09 1.55929e-05 0.00143346 2.4763e+07
1.66489 0.251691 0.00340213 8.61245e-09 84 0.242855 8.31012e-09 1.3685e-05 0.0528641 2.92241e+07
1.75941 2.65469 0.00401503 7.69723e-08 48 2.67588 7.75868e-08 1.20007e-05 0.307872 3.44889e+07
1.85928 0.209145 0.00473835 5.13843e-09 72 0.212499 5.22083e-09 1.05151e-05 0.0351843 4.07021e+07
1.96483 1.00532 0.00559198 2.0929e-08 54 0.987238 2.05526e-08 9.20606e-06 0.122763 4.80347e+07
2.07637 7.88188 0.00659939 1.39039e-07 104 7.82729 1.38076e-07 8.05366e-06 1.79547 5.66883e+07
2.19424 0.207476 0.00778828 3.10125e-09 120 0.20931 3.12866e-09 7.04008e-06 0.0528616 6.69008e+07
2.3188 1.68452 0.00919136 2.13356e-08 156 1.59387 2.01875e-08 6.1494e-06 0.541249 7.89532e+07
2.45043 0.565711 0.0108472 6.07137e-09 126 0.565551 6.06965e-09 5.36741e-06 0.142525 9.31768e+07
2.58954 0.388474 0.0128014 3.53277e-09 192 0.394722 3.58959e-09 4.68145e-06 0.144889 1.09963e+08
2.73654 4.88325 0.0151076 3.76292e-08 152 5.05266 3.89346e-08 4.08023e-06 1.40179 1.29773e+08
2.89188 3.28262 0.0178292 2.14337e-08 378 3.35279 2.18919e-08 3.55373e-06 2.27984 1.53152e+08
3.05605 1.23376 0.0210412 6.82608e-09 264 1.21077 6.69887e-09 3.09304e-06 0.582626 1.80743e+08
3.22953 0.142522 0.0248319 6.68165e-10 366 0.138993 6.51618e-10 2.69025e-06 0.0909016 2.13304e+08
3.41286 0.707584 0.0293054 2.81087e-09 428 0.670825 2.66485e-09 2.33837e-06 0.514483 2.51731e+08
3.6066 3.02273 0.0345848 1.01747e-08 486 2.91522 9.81287e-09 2.0312e-06 2.43448 2.97081e+08
3.81134 0.641978 0.0408154 1.83108e-09 600 0.636093 1.81429e-09 1.76327e-06 0.623074 3.50601e+08
4.0277 0.471121 0.0481684 1.13862e-09 738 0.469096 1.13373e-09 1.52972e-06 0.549319 4.13763e+08
4.25634 1.20975 0.056846 2.47745e-09 824 1.26279 2.58607e-09 1.32631e-06 1.53918 4.88304e+08
4.49796 2.40414 0.067087 4.17188e-09 954 2.42039 4.20007e-09 1.14926e-06 3.46309 5.76273e+08
4.7533 0.475915 0.0791729 6.99783e-10 1094 0.465661 6.84705e-10 9.95263e-07 0.769206 6.8009e+08
5.02313 0.276249 0.0934361 3.44188e-10 1332 0.276073 3.4397e-10 8.61414e-07 0.532216 8.0261e+08
5.30828 2.02665 0.110269 2.13961e-09 1614 2.04764 2.16177e-09 7.45152e-07 4.6344 9.47202e+08
5.60962 1.03139 0.130134 9.22662e-10 1850 0.994665 8.89807e-10 6.44232e-07 2.64955 1.11784e+09
5.92807 1.20378 0.153578 9.12488e-10 2238 1.14735 8.69714e-10 5.56685e-07 3.66841 1.31923e+09
6.26459 0.506302 0.181246 3.25201e-10 2546 0.515585 3.31164e-10 4.80786e-07 1.7221 1.55689e+09
6.62021 0.11079 0.213898 6.02983e-11 3264 0.110989 6.04064e-11 4.15026e-07 0.474221 1.83737e+09
6.99602 1.18443 0.252432 5.46231e-10 3506 1.22756 5.66121e-10 3.58083e-07 5.34817 2.16837e+09
7.39317 0.473898 0.297908 1.85188e-10 4506 0.482222 1.88441e-10 3.08803e-07 2.70222 2.55901e+09
7.81286 0.983912 0.351577 3.25796e-10 5018 1.0199 3.37714e-10 2.66181e-07 6.14186 3.02002e+09
8.25637 0.884745 0.414914 2.48239e-10 5852 0.846782 2.37587e-10 2.29336e-07 6.33434 3.56409e+09
8.72507 0.506648 0.489662 1.20454e-10 7362 0.498092 1.18419e-10 1.97503e-07 4.48995 4.20617e+09
9.22037 0.730857 0.577876 1.47234e-10 8306 0.720742 1.45196e-10 1.70014e-07 7.19307 4.96392e+09
9.74378 0.191873 0.681982 3.2753e-11 9698 0.192815 3.29138e-11 1.46289e-07 2.17131 5.85818e+09
10.2969 0.730593 0.804843 1.05675e-10 11816 0.743891 1.07599e-10 1.25822e-07 9.924 6.91355e+09
10.8814 0.615296 0.949838 7.54127e-11 13682 0.616907 7.56102e-11 1.08175e-07 9.53817 8.15905e+09
11.4992 0.566079 1.12095 5.87895e-11 16152 0.554163 5.75519e-11 9.29669e-08 10.214 9.62892e+09
12.1519 0.554307 1.3229 4.87792e-11 19472 0.538504 4.73885e-11 7.98658e-08 11.8928 1.13636e+10
12.8418 0.193193 1.56122 1.44058e-11 22670 0.197566 1.47319e-11 6.85852e-08 4.76165 1.34108e+10
13.5708 0.513756 1.84248 3.24612e-11 26224 0.523288 3.30635e-11 5.88765e-08 14.4585 1.58268e+10
14.3411 0.42378 2.17441 2.26887e-11 31640 0.43181 2.31187e-11 5.05241e-08 14.2085 1.8678e+10
15.1552 0.466605 2.56613 2.1168e-11 37484 0.472293 2.14261e-11 4.33417e-08 18.3071 2.20429e+10
16.0156 0.353442 3.02843 1.35866e-11 43856 0.36252 1.39356e-11 3.71677e-08 16.0315 2.6014e+10
16.9247 0.631536 3.574 2.05709e-11 51362 0.632394 2.05988e-11 3.18628e-08 33.1597 3.07005e+10
17.8855 0.45111 4.21787 1.24509e-11 61636 0.445992 1.23096e-11 2.73063e-08 28.1042 3.62312e+10
18.9008 0.599123 4.97773 1.40118e-11 72218 0.598673 1.40013e-11 2.33941e-08 43.2547 4.27584e+10
19.9738 0.869508 5.87448 1.72311e-11 84586 0.85993 1.70413e-11 2.00364e-08 72.7433 5.04614e+10
21.1076 1.26706 6.93279 2.12765e-11 100708 1.26177 2.11877e-11 1.71555e-08 124.9 5.95522e+10
22.3058 2.94792 8.18175 4.1945e-11 118712 2.93832 4.18084e-11 1.46847e-08 339.086 7.02807e+10
23.5721 6.78576 9.65571 8.18134e-11 140410 6.69327 8.06983e-11 1.25662e-08 914.155 8.29419e+10
24.9102 10.4786 11.3952 1.07051e-10 164374 10.3928 1.06175e-10 1.07504e-08 1636.82 9.78842e+10
26.3243 13.3375 13.4481 1.15458e-10 194680 13.3056 1.15182e-10 9.19452e-09 2444.64 1.15518e+11
27.8187 9.84492 15.8708 7.22143e-11 230196 9.83304 7.21272e-11 7.86182e-09 2114.45 1.36329e+11
29.3979 8.55025 18.73 5.31437e-11 271156 8.5425 5.30955e-11 6.72061e-09 2144.18 1.60889e+11
31.0667 9.34216 22.1042 4.92019e-11 321076 9.28202 4.88852e-11 5.74366e-09 2750.43 1.89874e+11
32.8303 13.8661 26.0864 6.18803e-11 377436 13.7563 6.13899e-11 4.90756e-09 4759.15 2.2408e+11
34.694 21.1729 30.7859 8.00643e-11 447594 21.0314 7.95291e-11 4.19221e-09 8548.32 2.64449e+11
36.6634 25.0252 36.3321 8.01858e-11 525078 24.9407 7.9915e-11 3.58032e-09 11759.8 3.1209e+11
38.7447 24.6533 42.8774 6.69355e-11 621924 24.6113 6.68216e-11 3.05709e-09 13617.2 3.68314e+11
40.9442 25.5434 50.6018 5.87655e-11 732630 25.507 5.86818e-11 2.60976e-09 16497.1 4.34667e+11
43.2685 27.4991 59.7179 5.36073e-11 865596 27.424 5.34608e-11 2.22743e-09 20832.2 5.12973e+11
45.7247 30.2629 70.4762 4.99894e-11 1.02168e+06 30.1788 4.98506e-11 1.90073e-09 26870.2 6.05386e+11
48.3204 35.9112 83.1727 5.02642e-11 1.20544e+06 35.7618 5.00551e-11 1.62163e-09 37363.8 7.14448e+11
51.0634 46.3131 98.1565 5.49282e-11 1.42103e+06 46.0835 5.46558e-11 1.38326e-09 56428.2 8.43158e+11
53.9621 62.3674 115.84 6.26774e-11 1.67997e+06 62.0721 6.23806e-11 1.1797e-09 89256.3 9.95055e+11
57.0254 78.0904 136.709 6.64986e-11 1.98018e+06 77.8263 6.62736e-11 1.00592e-09 130904 1.17432e+12
60.2626 90.7421 161.337 6.54765e-11 2.33957e+06 90.5255 6.53202e-11 8.57591e-10 178624 1.38587e+12
63.6835 99.1812 190.402 6.06412e-11 2.75676e+06 98.9453 6.04969e-11 7.3101e-10 228688 1.63554e+12
67.2987 111.763 224.704 5.79025e-11 3.25638e+06 111.436 5.77329e-11 6.23009e-10 302648 1.93019e+12
71.1191 132.373 265.185 5.81113e-11 3.84387e+06 131.889 5.7899e-11 5.30879e-10 420760 2.27792e+12
75.1563 161.423 312.958 6.00469e-11 4.53277e+06 160.847 5.98324e-11 4.52303e-10 601761 2.68829e+12
79.4227 193.346 369.339 6.09425e-11 5.35083e+06 192.71 6.07422e-11 3.85299e-10 846336 3.17259e+12
83.9313 227.433 435.876 6.07437e-11 6.32174e+06 226.702 6.05484e-11 3.28173e-10 1.17013e+06 3.74415e+12
88.6959 266.5 514.4 6.03123e-11 7.44986e+06 265.638 6.01172e-11 2.79476e-10 1.60771e+06 4.41866e+12
93.7309 313.336 607.071 6.0087e-11 8.79764e+06 312.314 5.98911e-11 2.37972e-10 2.22137e+06 5.2147e+12
99.0518 370.209 716.436 6.01562e-11 1.03827e+07 368.948 5.99513e-11 2.02605e-10 3.08276e+06 6.15414e+12
104.675 438.244 845.504 6.03408e-11 1.22515e+07 436.786 6.01399e-11 1.72471e-10 4.28632e+06 7.26283e+12
110.617 517.172 997.824 6.03381e-11 1.44573e+07 515.475 6.01401e-11 1.468e-10 5.94228e+06 8.57124e+12
116.896 610.381 1177.58 6.03419e-11 1.70664e+07 608.373 6.01434e-11 1.24935e-10 8.24286e+06 1.01154e+13
123.532 720.461 1389.73 6.03518e-11 2.0139e+07 718.061 6.01508e-11 1.06313e-10 1.14325e+07 1.19377e+13
130.545 851.229 1640.09 6.0421e-11 2.37643e+07 848.409 6.02208e-11 9.04567e-11 1.58735e+07 1.40883e+13
137.955 1004.77 1935.56 6.04323e-11 2.80503e+07 1001.43 6.02318e-11 7.69563e-11 2.20274e+07 1.66263e+13
145.787 1187.19 2284.26 6.05042e-11 3.30981e+07 1183.23 6.03021e-11 6.54636e-11 3.05907e+07 1.96216e+13
154.063 1402.18 2695.77 6.05522e-11 3.90634e+07 1397.54 6.03518e-11 5.56812e-11 4.24808e+07 2.31565e+13
162.808 1656.62 3181.42 6.06194e-11 4.61057e+07 1651.08 6.04166e-11 4.73556e-11 5.90193e+07 2.73282e+13
172.051 1958.46 3754.56 6.07247e-11 5.44046e+07 1951.88 6.05207e-11 4.02708e-11 8.20372e+07 3.22515e+13
181.818 2314.93 4430.96 6.08204e-11 6.42064e+07 2307.15 6.06162e-11 3.42426e-11 1.14041e+08 3.80616e+13
192.139 2738.08 5229.21 6.09564e-11 7.57748e+07 2728.85 6.07511e-11 2.91139e-11 1.58651e+08 4.49186e+13
203.046 3239.04 6171.26 6.11015e-11 8.94213e+07 3228.12 6.08955e-11 2.4751e-11 2.20749e+08 5.30108e+13
214.572 3835.8 7283.03 6.13132e-11 1.05538e+08 3822.81 6.11055e-11 2.10401e-11 3.07551e+08 6.25608e+13
226.753 4545.81 8595.09 6.15702e-11 1.24552e+08 4530.35 6.13608e-11 1.78839e-11 4.28803e+08 7.38313e+13
239.625 5393.35 10143.5 6.18985e-11 1.46987e+08 5374.92 6.16869e-11 1.51999e-11 5.98575e+08 8.71322e+13
253.228 6409.2 11970.9 6.23286e-11 1.7347e+08 6387.06 6.21132e-11 1.29176e-11 8.37007e+08 1.02829e+14
267.603 7633.61 14127.5 6.29035e-11 2.04703e+08 7607.03 6.26845e-11 1.09771e-11 1.17303e+09 1.21354e+14
282.795 9114.92 16672.6 6.36443e-11 2.4161e+08 9082.84 6.34203e-11 9.3274e-12 1.64859e+09 1.43217e+14
298.848 10929.3 19676.2 6.46638e-11 2.85122e+08 10890 6.44315e-11 7.925e-12 2.32645e+09 1.69017e+14
315.813 13175 23220.9 6.60515e-11 3.36491e+08 13126.5 6.58082e-11 6.73295e-12 3.30104e+09 1.99466e+14
333.741 16002.8 27404.3 6.79812e-11 3.97115e+08 15941.9 6.77225e-11 5.71979e-12 4.71981e+09 2.35401e+14
352.686 19648.3 32341.2 7.07258e-11 4.68637e+08 19570.1 7.04446e-11 4.85874e-12 6.82168e+09 2.77809e+14
372.707 24489.5 38167.6 7.46958e-11 5.53074e+08 24386.4 7.43813e-11 4.12703e-12 1.00102e+10 3.27857e+14
393.865 31163 45043.5 8.05409e-11 6.52716e+08 31021.4 8.01749e-11 3.50528e-12 1.49975e+10 3.86921e+14
416.224 36780.8 53158.3 8.05492e-11 2.2184e+08 38910.7 8.52135e-11 2.97701e-12 6.00234e+09 4.56626e+14
439.852 0 62734.9 0 0 0 0 2.52819e-12 0 5.38888e+14
464.821 0 74036.7 0 0 0 0 2.1469e-12 0 6.35971e+14
491.207 0 87374.6 0 0 0 0 1.82301e-12 0 7.50542e+14
519.092 0 103115 0 0 0 0 1.54789e-12 0 8.85755e+14
548.56 0 121692 0 0 0 0 1.31422e-12 0 1.04533e+15
579.7 0 143615 0 0 0 0 1.11576e-12 0 1.23364e+15
612.608 0 169488 0 0 0 0 9.47223e-13 0 1.45589e+15
647.384 0 200021 0 0 0 0 8.041e-13 0 1.71817e+15
684.134 0 236056 0 0 0 0 6.82568e-13 0 2.0277e+15
722.971 0 278582 0 0 0 0 5.79376e-13 0 2.393e+15
764.012 0 328769 0 0 0 0 4.91762e-13 0 2.8241e+15
0.0477877
200
1.0655e+09
8589934592
0.0129181 5.84924e-06 1.58924e-09 4.2847e-07 6 5.79569e-06 4.24548e-07 0.00677225 0.000379611 13.6515
0.0136515 0 1.87554e-09 0 0 0 0 0.00688819 0 16.1108
0.0144264 0 2.21343e-09 0 0 0 0 0.00699249 0 19.0132
0.0152454 0 2.61218e-09 0 0 0 0 0.00708412 0 22.4385
0.0161108 0 3.08278e-09 0 0 0 0 0.00716212 0 26.4808
0.0170254 0 3.63815e-09 0 0 0 0 0.00722559 0 31.2514
0.0179919 1.60742e-05 4.29357e-09 4.35835e-07 12 1.60535e-05 4.35274e-07 0.00727371 0.000719031 36.8815
0.0190132 0 5.06707e-09 0 0 0 0 0.00730578 0 43.5258
0.0200925 0 5.97991e-09 0 0 0 0 0.00732122 0 51.367
0.0212331 3.56548e-05 7.05721e-09 5.8816e-07 8 3.56238e-05 5.87648e-07 0.00731958 0.000642834 60.621
0.0224385 0 8.32858e-09 0 0 0 0 0.00730056 0 71.542
0.0237123 0 9.829e-09 0 0 0 0 0.00726401 0 84.4305
0.0250583 7.59605e-05 1.15997e-08 7.62343e-07 6 7.59247e-05 7.61984e-07 0.00720995 0.000634409 99.6408
0.0264808 0 1.36894e-08 0 0 0 0 0.00713857 0 117.591
0.0279841 4.15676e-05 1.61556e-08 2.99531e-07 24 4.15249e-05 2.99223e-07 0.00705021 0.00101965 138.776
0.0295727 0 1.90661e-08 0 0 0 0 0.00694538 0 163.777
0.0312514 6.45427e-05 2.25009e-08 3.33931e-07 24 6.48704e-05 3.35627e-07 0.00682475 0.00117431 193.281
0.0330255 0 2.65545e-08 0 0 0 0 0.00668915 0 228.102
0.0349003 0.000116091 3.13384e-08 4.31251e-07 12 0.000115161 4.27798e-07 0.00653951 0.000791346 269.195
0.0368815 0.000221885 3.69841e-08 6.9843e-07 30 0.000219522 6.90993e-07 0.00637693 0.00328574 317.691
0.0389751 0.000188668 4.36469e-08 5.03218e-07 24 0.000186727 4.98041e-07 0.00620256 0.00194714 374.924
0.0411876 0.000209367 5.151e-08 4.7318e-07 24 0.000207945 4.69967e-07 0.00601767 0.00188716 442.467
0.0435258 0.000184763 6.07896e-08 3.5383e-07 8 0.000184749 3.53803e-07 0.00582358 0.000486066 522.179
0.0459966 0.000253018 7.1741e-08 4.10576e-07 72 0.00025104 4.07366e-07 0.00562166 0.00525849 616.251
0.0486077 0 8.46654e-08 0 0 0 0 0.0054133 0 727.27
0.051367 0.00046342 9.99181e-08 5.39934e-07 54 0.000461095 5.37225e-07 0.00519989 0.00560713 858.29
0.054283 0.000372807 1.17919e-07 3.68055e-07 60 0.000373353 3.68594e-07 0.0049828 0.0044319 1012.91
0.0573645 0.000386253 1.39162e-07 3.23118e-07 96 0.000383993 3.21228e-07 0.00476339 0.00651204 1195.39
0.060621 0.000453277 1.64232e-07 3.21303e-07 24 0.000447136 3.1695e-07 0.00454293 0.00169742 1410.75
0.0640622 0.000493108 1.93819e-07 2.9618e-07 134 0.000494478 2.97003e-07 0.00432265 0.00918143 1664.89
0.0676989 0.000570281 2.28736e-07 2.90245e-07 120 0.000567276 2.88715e-07 0.00410371 0.00848728 1964.83
0.071542 0.000617721 2.69944e-07 2.66397e-07 108 0.00060785 2.6214e-07 0.00388717 0.00740149 2318.8
0.0756032 0.000866955 3.18575e-07 3.16807e-07 174 0.000861439 3.14791e-07 0.00367401 0.0150039 2736.54
0.079895 0.000743001 3.75967e-07 2.30065e-07 168 0.000737503 2.28362e-07 0.0034651 0.0111543 3229.53
0.0844305 0.00100358 4.43698e-07 2.63315e-07 168 0.00100651 2.64084e-07 0.00326121 0.0135646 3811.34
0.0892234 0.00105232 5.23632e-07 2.33954e-07 290 0.00104947 2.33321e-07 0.00306301 0.0221503 4497.96
0.0942883 0.00110492 6.17966e-07 2.0815e-07 288 0.00110526 2.08213e-07 0.00287109 0.0208796 5308.28
0.0996408 0.00111226 7.29294e-07 1.77547e-07 366 0.00110212 1.75929e-07 0.00268591 0.0241937 6264.59
0.105297 0.00107753 8.60678e-07 1.45747e-07 420 0.00107056 1.44805e-07 0.00250785 0.0244088 7393.17
0.111275 0.00130639 1.01573e-06 1.49728e-07 398 0.00130476 1.49541e-07 0.00233721 0.0254969 8725.07
0.117591 0.00145929 1.19872e-06 1.41721e-07 624 0.0014621 1.41994e-07 0.00217419 0.0406745 10296.9
0.124267 0.00158223 1.41467e-06 1.30204e-07 642 0.00157897 1.29936e-07 0.00201893 0.0414037 12151.9
0.131321 0.0017922 1.66953e-06 1.24969e-07 800 0.00179026 1.24834e-07 0.00187147 0.0534207 14341.1
0.138776 0.00196764 1.9703e-06 1.16258e-07 858 0.00197371 1.16617e-07 0.00173182 0.0575982 16924.7
0.146654 0.00192318 2.32525e-06 9.62853e-08 1080 0.00194088 9.71714e-08 0.00159991 0.0649963 19973.8
0.154979 0.00211024 2.74415e-06 8.95227e-08 1286 0.00212527 9.01606e-08 0.00147563 0.0780181 23572.1
0.163777 0.00220639 3.23852e-06 7.93134e-08 1650 0.0022142 7.95941e-08 0.00135884 0.096308 27818.7
0.173074 0.00223646 3.82195e-06 6.81219e-08 1778 0.00224074 6.82523e-08 0.00124933 0.0969485 32830.3
0.182899 0.00270551 4.51048e-06 6.98291e-08 2112 0.00270896 6.99182e-08 0.00114689 0.12859 38744.7
0.193281 0.00288963 5.32305e-06 6.31963e-08 2570 0.00289467 6.33065e-08 0.00105127 0.154493 45724.7
0.204254 0.00312163 6.28202e-06 5.78485e-08 3030 0.00312168 5.78494e-08 0.000962209 0.182165 53962.1
0.215848 0.00323016 7.41374e-06 5.07221e-08 3434 0.00322826 5.06923e-08 0.000879423 0.198061 63683.5
0.228102 0.00332955 8.74934e-06 4.43017e-08 4218 0.00332801 4.42812e-08 0.000802624 0.232817 75156.3
0.24105 0.00364987 1.03256e-05 4.11503e-08 4766 0.00365368 4.11933e-08 0.000731515 0.268105 88695.9
0.254734 0.00399027 1.21857e-05 3.81207e-08 6026 0.00398835 3.81023e-08 0.000665798 0.345023 104675
0.269195 0.00420565 1.4381e-05 3.4045e-08 6480 0.0042052 3.40413e-08 0.000605173 0.364543 123532
0.284476 0.00441216 1.69718e-05 3.02645e-08 8162 0.00442023 3.03198e-08 0.000549345 0.44966 145787
0.300625 0.0047541 2.00293e-05 2.7632e-08 9578 0.00475635 2.76451e-08 0.000498021 0.531421 172051
0.317691 0.0049376 2.36377e-05 2.43176e-08 11234 0.00493632 2.43113e-08 0.000450916 0.605842 203046
0.335725 0.00531229 2.78961e-05 2.21691e-08 13344 0.00531048 2.21616e-08 0.000407755 0.725497 239625
0.354784 0.00550487 3.29216e-05 1.9466e-08 15464 0.00550083 1.94517e-08 0.000368269 0.817396 282795
0.374924 0.00590847 3.88525e-05 1.77038e-08 18458 0.0059061 1.76967e-08 0.000332202 0.983668 333741
0.396207 0.00621165 4.58519e-05 1.5771e-08 22232 0.00620149 1.57452e-08 0.000299307 1.17144 393865
0.418699 0.00656135 5.41123e-05 1.41159e-08 25628 0.00654719 1.40854e-08 0.00026935 1.34309 464821
0.442467 0.00691394 6.38607e-05 1.26038e-08 30320 0.00689984 1.25781e-08 0.000242108 1.57842 548560
0.467585 0.00734256 7.53654e-05 1.13419e-08 35452 0.00733149 1.13248e-08 0.00021737 1.8498 647384
0.494129 0.00760561 8.89427e-05 9.95483e-09 41792 0.00760459 9.95349e-09 0.000194938 2.13417 764012
0.522179 0.00795676 0.000104966 8.82466e-09 49988 0.00795468 8.82235e-09 0.000174625 2.52614 901651
0.551822 0.00835326 0.000123876 7.85018e-09 59110 0.00835018 7.84728e-09 0.000156255 2.96966 1.06409e+06
0.583147 0.00877918 0.000146192 6.99099e-09 69716 0.00877212 6.98538e-09 0.000139664 3.48969 1.25578e+06
0.616251 0.00919456 0.000172529 6.20409e-09 82210 0.00918215 6.19571e-09 0.0001247 4.09012 1.48202e+06
0.651234 0.00956691 0.000203611 5.46991e-09 96722 0.00954976 5.46011e-09 0.00011122 4.75687 1.74901e+06
0.688203 0.00999309 0.000240292 4.8414e-09 113098 0.00998006 4.83508e-09 9.90935e-05 5.52561 2.06409e+06
0.72727 0.0105231 0.000283581 4.31993e-09 135190 0.0105141 4.31624e-09 8.81969e-05 6.62167 2.43595e+06
0.768555 0.0109488 0.000334669 3.80857e-09 158170 0.0109413 3.80595e-09 7.84179e-05 7.68193 2.87479e+06
0.812184 0.0114717 0.000394961 3.38129e-09 188560 0.0114643 3.37911e-09 6.96525e-05 9.15367 3.39269e+06
0.85829 0.0118994 0.000466114 2.97195e-09 220444 0.0118848 2.96832e-09 6.1805e-05 10.6003 4.00389e+06
0.907013 0.012435 0.000550086 2.63164e-09 261388 0.0124235 2.6292e-09 5.47875e-05 12.5554 4.7252e+06
0.958501 0.0128993 0.000649185 2.31317e-09 308244 0.0128865 2.31087e-09 4.85194e-05 14.6956 5.57646e+06
1.01291 0.0134532 0.000766138 2.04423e-09 364396 0.0134396 2.04216e-09 4.29272e-05 17.3529 6.58107e+06
1.07041 0.0140074 0.00090416 1.80352e-09 429162 0.0139911 1.80142e-09 3.79435e-05 20.3988 7.76667e+06
1.13118 0.0145109 0.00106705 1.58315e-09 506358 0.0144959 1.58151e-09 3.3507e-05 23.9246 9.16586e+06
1.19539 0.0150719 0.00125928 1.39334e-09 598590 0.0150563 1.3919e-09 2.9562e-05 28.2131 1.08171e+07
1.26325 0.0157217 0.00148614 1.23155e-09 704844 0.0157034 1.23011e-09 2.60578e-05 33.3124 1.27658e+07
1.33496 0.0162766 0.00175387 1.08038e-09 834620 0.0162581 1.07915e-09 2.29484e-05 39.2927 1.50656e+07
1.41075 0.0168426 0.00206984 9.47289e-10 981444 0.0168232 9.46199e-10 2.01923e-05 46.0429 1.77798e+07
1.49083 0.0174733 0.00244272 8.32744e-10 1.15998e+06 0.0174545 8.31849e-10 1.77518e-05 54.4151 2.09828e+07
1.57546 0.0181015 0.00288279 7.30989e-10 1.36931e+06 0.0180806 7.30148e-10 1.55929e-05 64.1929 2.4763e+07
1.66489 0.0187885 0.00340213 6.42911e-10 1.61652e+06 0.0187656 6.4213e-10 1.3685e-05 75.9426 2.92241e+07
1.75941 0.0194484 0.00401503 5.63903e-10 1.90601e+06 0.0194243 5.63206e-10 1.20007e-05 89.5618 3.44889e+07
1.85928 0.0201128 0.00473835 4.94147e-10 2.24913e+06 0.0200887 4.93553e-10 1.05151e-05 105.696 4.07021e+07
1.96483 0.0208289 0.00559198 4.33622e-10 2.65744e+06 0.0208042 4.33108e-10 9.20606e-06 125.17 4.80347e+07
2.07637 0.0215169 0.00659939 3.79564e-10 3.13125e+06 0.0214917 3.79121e-10 8.05366e-06 147.574 5.66883e+07
2.19424 0.0222679 0.00778828 3.32849e-10 3.69915e+06 0.0222401 3.32433e-10 7.04008e-06 174.892 6.69008e+07
2.3188 0.0230292 0.00919136 2.91682e-10 4.36472e+06 0.023001 2.91324e-10 6.1494e-06 207.03 7.89532e+07
2.45043 0.0237821 0.0108472 2.55236e-10 5.14913e+06 0.0237522 2.54916e-10 5.36741e-06 244.856 9.31768e+07
2.58954 0.0245793 0.0128014 2.23524e-10 6.07894e+06 0.0245497 2.23254e-10 4.68145e-06 290.249 1.09963e+08
2.73654 0.0254049 0.0151076 1.95764e-10 7.17304e+06 0.0253749 1.95533e-10 4.08023e-06 344.152 1.29773e+08
2.89188 0.026226 0.0178292 1.71242e-10 8.46557e+06 0.0261944 1.71035e-10 3.55373e-06 407.925 1.53152e+08
3.05605 0.0271265 0.0210412 1.50083e-10 9.98773e+06 0.0270951 1.4991e-10 3.09304e-06 484.634 1.80743e+08
3.22953 0.0280341 0.0248319 1.31428e-10 1.1797e+07 0.0280001 1.31269e-10 2.69025e-06 576.324 2.13304e+08
3.41286 0.0289622 0.0293054 1.15052e-10 1.39144e+07 0.028926 1.14908e-10 2.33837e-06 684.613 2.51731e+08
3.6066 0.0299097 0.0345848 1.00678e-10 1.64163e+07 0.029872 1.00552e-10 2.0312e-06 813.688 2.97081e+08
3.81134 0.0308927 0.0408154 8.81135e-11 1.93821e+07 0.0308541 8.80033e-11 1.76327e-06 968.56 3.50601e+08
4.0277 0.0319553 0.0481684 7.7231e-11 2.28754e+07 0.0319149 7.71333e-11 1.52972e-06 1154.91 4.13763e+08
4.25634 0.033044 0.056846 6.76709e-11 2.69929e+07 0.0330014 6.75837e-11 1.32631e-06 1377.23 4.88304e+08
4.49796 0.0341806 0.067087 5.93133e-11 3.18542e+07 0.0341361 5.92359e-11 1.14926e-06 1644 5.76273e+08
4.7533 0.0353417 0.0791729 5.19662e-11 3.75892e+07 0.0352955 5.18983e-11 9.95263e-07 1962.67 6.8009e+08
5.02313 0.0365709 0.0934361 4.5565e-11 4.43706e+07 0.0365237 4.55062e-11 8.61414e-07 2347.01 8.0261e+08
5.30828 0.0378511 0.110269 3.99609e-11 5.23593e+07 0.0378011 3.99082e-11 7.45152e-07 2807.92 9.47202e+08
5.60962 0.0392035 0.130134 3.50706e-11 6.1787e+07 0.0391511 3.50238e-11 6.44232e-07 3363.55 1.11784e+09
5.92807 0.0406094 0.153578 3.07827e-11 7.29346e+07 0.0405544 3.07411e-11 5.56685e-07 4033.03 1.31923e+09
6.26459 0.042083 0.181246 2.70302e-11 8.60651e+07 0.0420256 2.69933e-11 4.80786e-07 4838.65 1.55689e+09
6.62021 0.04366 0.213898 2.37623e-11 1.01558e+08 0.0435992 2.37292e-11 4.15026e-07 5814.71 1.83737e+09
6.99602 0.0452988 0.252432 2.08907e-11 1.1986e+08 0.0452358 2.08616e-11 3.58083e-07 6992.67 2.16837e+09
7.39317 0.047058 0.297908 1.83891e-11 1.41457e+08 0.0469918 1.83633e-11 3.08803e-07 8423.7 2.55901e+09
7.81286 0.0489155 0.351577 1.61971e-11 1.66936e+08 0.0488457 1.61739e-11 2.66181e-07 10158 3.02002e+09
8.25637 0.050901 0.414914 1.42816e-11 1.97025e+08 0.0508275 1.4261e-11 2.29336e-07 12269.5 3.56409e+09
8.72507 0.0530484 0.489662 1.2612e-11 2.32497e+08 0.0529702 1.25935e-11 1.97503e-07 14846.7 4.20617e+09
9.22037 0.0554072 0.577876 1.1162e-11 2.74404e+08 0.0553235 1.11451e-11 1.70014e-07 18015.5 4.96392e+09
9.74378 0.0580511 0.681982 9.90941e-12 3.2382e+08 0.0579599 9.89384e-12 1.46289e-07 21935.1 5.85818e+09
10.2969 0.0611116 0.804843 8.83939e-12 3.82165e+08 0.0610112 8.82487e-12 1.25822e-07 26848.2 6.91355e+09
10.8814 0.0648168 0.949838 7.94416e-12 4.51027e+08 0.0647018 7.93007e-12 1.08175e-07 33122.4 8.15905e+09
11.4992 0.0695657 1.12095 7.22466e-12 5.32251e+08 0.0694294 7.2105e-12 9.29669e-08 41362.4 9.62892e+09
12.1519 0.076158 1.3229 6.70193e-12 6.28157e+08 0.0759831 6.68654e-12 7.98658e-08 52711.8 1.13636e+10
12.8418 0.0836036 1.56122 6.23406e-12 3.82727e+08 0.0865379 6.45286e-12 6.85852e-08 34788 1.34108e+10
13.5708 0 1.84248 0 0 0 0 5.88765e-08 0 1.58268e+10
14.3411 0 2.17441 0 0 0 0 5.05241e-08 0 1.8678e+10
15.1552 0 2.56613 0 0 0 0 4.33417e-08 0 2.20429e+10
16.0156 0 3.02843 0 0 0 0 3.71677e-08 0 2.6014e+10
16.9247 0 3.574 0 0 0 0 3.18628e-08 0 3.07005e+10
17.8855 0 4.21787 0 0 0 0 2.73063e-08 0 3.62312e+10
18.9008 0 4.97773 0 0 0 0 2.33941e-08 0 4.27584e+10
19.9738 0 5.87448 0 0 0 0 2.00364e-08 0 5.04614e+10
21.1076 0 6.93279 0 0 0 0 1.71555e-08 0 5.95522e+10
22.3058 0 8.18175 0 0 0 0 1.46847e-08 0 7.02807e+10
23.5721 0 9.65571 0 0 0 0 1.25662e-08 0 8.29419e+10
24.9102 0 11.3952 0 0 0 0 1.07504e-08 0 9.78842e+10
26.3243 0 13.4481 0 0 0 0 9.19452e-09 0 1.15518e+11
27.8187 0 15.8708 0 0 0 0 7.86182e-09 0 1.36329e+11
29.3979 0 18.73 0 0 0 0 6.72061e-09 0 1.60889e+11
31.0667 0 22.1042 0 0 0 0 5.74366e-09 0 1.89874e+11
32.8303 0 26.0864 0 0 0 0 4.90756e-09 0 2.2408e+11
34.694 0 30.7859 0 0 0 0 4.19221e-09 0 2.64449e+11
36.6634 0 36.3321 0 0 0 0 3.58032e-09 0 3.1209e+11
38.7447 0 42.8774 0 0 0 0 3.05709e-09 0 3.68314e+11
40.9442 0 50.6018 0 0 0 0 2.60976e-09 0 4.34667e+11
43.2685 0 59.7179 0 0 0 0 2.22743e-09 0 5.12973e+11
45.7247 0 70.4762 0 0 0 0 1.90073e-09 0 6.05386e+11
48.3204 0 83.1727 0 0 0 0 1.62163e-09 0 7.14448e+11
51.0634 0 98.1565 0 0 0 0 1.38326e-09 0 8.43158e+11
53.9621 0 115.84 0 0 0 0 1.1797e-09 0 9.95055e+11
57.0254 0 136.709 0 0 0 0 1.00592e-09 0 1.17432e+12
60.2626 0 161.337 0 0 0 0 8.57591e-10 0 1.38587e+12
63.6835 0 190.402 0 0 0 0 7.3101e-10 0 1.63554e+12
67.2987 0 224.704 0 0 0 0 6.23009e-10 0 1.93019e+12
71.1191 0 265.185 0 0 0 0 5.30879e-10 0 2.27792e+12
75.1563 0 312.958 0 0 0 0 4.52303e-10 0 2.68829e+12
79.4227 0 369.339 0 0 0 0 3.85299e-10 0 3.17259e+12
83.9313 0 435.876 0 0 0 0 3.28173e-10 0 3.74415e+12
88.6959 0 514.4 0 0 0 0 2.79476e-10 0 4.41866e+12
93.7309 0 607.071 0 0 0 0 2.37972e-10 0 5.2147e+12
99.0518 0 716.436 0 0 0 0 2.02605e-10 0 6.15414e+12
104.675 0 845.504 0 0 0 0 1.72471e-10 0 7.26283e+12
110.617 0 997.824 0 0 0 0 1.468e-10 0 8.57124e+12
116.896 0 1177.58 0 0 0 0 1.24935e-10 0 1.01154e+13
123.532 0 1389.73 0 0 0 0 1.06313e-10 0 1.19377e+13
130.545 0 1640.09 0 0 0 0 9.04567e-11 0 1.40883e+13
137.955 0 1935.56 0 0 0 0 7.69563e-11 0 1.66263e+13
145.787 0 2284.26 0 0 0 0 6.54636e-11 0 1.96216e+13
154.063 0 2695.77 0 0 0 0 5.56812e-11 0 2.31565e+13
162.808 0 3181.42 0 0 0 0 4.73556e-11 0 2.73282e+13
172.051 0 3754.56 0 0 0 0 4.02708e-11 0 3.22515e+13
181.818 0 4430.96 0 0 0 0 3.42426e-11 0 3.80616e+13
192.139 0 5229.21 0 0 0 0 2.91139e-11 0 4.49186e+13
203.046 0 6171.26 0 0 0 0 2.4751e-11 0 5.30108e+13
214.572 0 7283.03 0 0 0 0 2.10401e-11 0 6.25608e+13
226.753 0 8595.09 0 0 0 0 1.78839e-11 0 7.38313e+13
239.625 0 10143.5 0 0 0 0 1.51999e-11 0 8.71322e+13
253.228 0 11970.9 0 0 0 0 1.29176e-11 0 1.02829e+14
267.603 0 14127.5 0 0 0 0 1.09771e-11 0 1.21354e+14
282.795 0 16672.6 0 0 0 0 9.3274e-12 0 1.43217e+14
298.848 0 19676.2 0 0 0 0 7.925e-12 0 1.69017e+14
315.813 0 23220.9 0 0 0 0 6.73295e-12 0 1.99466e+14
333.741 0 27404.3 0 0 0 0 5.71979e-12 0 2.35401e+14
352.686 0 32341.2 0 0 0 0 4.85874e-12 0 2.77809e+14
372.707 0 38167.6 0 0 0 0 4.12703e-12 0 3.27857e+14
393.865 0 45043.5 0 0 0 0 3.50528e-12 0 3.86921e+14
416.224 0 53158.3 0 0 0 0 2.97701e-12 0 4.56626e+14
439.852 0 62734.9 0 0 0 0 2.52819e-12 0 5.38888e+14
464.821 0 74036.7 0 0 0 0 2.1469e-12 0 6.35971e+14
491.207 0 87374.6 0 0 0 0 1.82301e-12 0 7.50542e+14
519.092 0 103115 0 0 0 0 1.54789e-12 0 8.85755e+14
548.56 0 121692 0 0 0 0 1.31422e-12 0 1.04533e+15
579.7 0 143615 0 0 0 0 1.11576e-12 0 1.23364e+15
612.608 0 169488 0 0 0 0 9.47223e-13 0 1.45589e+15
647.384 0 200021 0 0 0 0 8.041e-13 0 1.71817e+15
684.134 0 236056 0 0 0 0 6.82568e-13 0 2.0277e+15
722.971 0 278582 0 0 0 0 5.79376e-13 0 2.393e+15
764.012 0 328769 0 0 0 0 4.91762e-13 0 2.8241e+15
