0.112452
200
1.0655e+09
8589934592
0.0129181 0 1.58924e-09 0 0 0 0 0.00677225 0 13.6515
0.0136515 0 1.87554e-09 0 0 0 0 0.00688819 0 16.1108
0.0144264 0 2.21343e-09 0 0 0 0 0.00699249 0 19.0132
0.0152454 0 2.61218e-09 0 0 0 0 0.00708412 0 22.4385
0.0161108 0 3.08278e-09 0 0 0 0 0.00716212 0 26.4808
0.0170254 0 3.63815e-09 0 0 0 0 0.00722559 0 31.2514
0.0179919 0 4.29357e-09 0 0 0 0 0.00727371 0 36.8815
0.0190132 0 5.06707e-09 0 0 0 0 0.00730578 0 43.5258
0.0200925 0 5.97991e-09 0 0 0 0 0.00732122 0 51.367
0.0212331 0 7.05721e-09 0 0 0 0 0.00731958 0 60.621
0.0224385 0 8.32858e-09 0 0 0 0 0.00730056 0 71.542
0.0237123 0 9.829e-09 0 0 0 0 0.00726401 0 84.4305
0.0250583 0 1.15997e-08 0 0 0 0 0.00720995 0 99.6408
0.0264808 0 1.36894e-08 0 0 0 0 0.00713857 0 117.591
0.0279841 0 1.61556e-08 0 0 0 0 0.00705021 0 138.776
0.0295727 0 1.90661e-08 0 0 0 0 0.00694538 0 163.777
0.0312514 0 2.25009e-08 0 0 0 0 0.00682475 0 193.281
0.0330255 0 2.65545e-08 0 0 0 0 0.00668915 0 228.102
0.0349003 0 3.13384e-08 0 0 0 0 0.00653951 0 269.195
0.0368815 0 3.69841e-08 0 0 0 0 0.00637693 0 317.691
0.0389751 0 4.36469e-08 0 0 0 0 0.00620256 0 374.924
0.0411876 0 5.151e-08 0 0 0 0 0.00601767 0 442.467
0.0435258 0 6.07896e-08 0 0 0 0 0.00582358 0 522.179
0.0459966 0 7.1741e-08 0 0 0 0 0.00562166 0 616.251
0.0486077 0 8.46654e-08 0 0 0 0 0.0054133 0 727.27
0.051367 0 9.99181e-08 0 0 0 0 0.00519989 0 858.29
0.054283 0 1.17919e-07 0 0 0 0 0.0049828 0 1012.91
0.0573645 0 1.39162e-07 0 0 0 0 0.00476339 0 1195.39
0.060621 0 1.64232e-07 0 0 0 0 0.00454293 0 1410.75
0.0640622 0 1.93819e-07 0 0 0 0 0.00432265 0 1664.89
0.0676989 0 2.28736e-07 0 0 0 0 0.00410371 0 1964.83
0.071542 0 2.69944e-07 0 0 0 0 0.00388717 0 2318.8
0.0756032 0 3.18575e-07 0 0 0 0 0.00367401 0 2736.54
0.079895 0 3.75967e-07 0 0 0 0 0.0034651 0 3229.53
0.0844305 0 4.43698e-07 0 0 0 0 0.00326121 0 3811.34
0.0892234 0 5.23632e-07 0 0 0 0 0.00306301 0 4497.96
0.0942883 0 6.17966e-07 0 0 0 0 0.00287109 0 5308.28
0.0996408 0 7.29294e-07 0 0 0 0 0.00268591 0 6264.59
0.105297 0 8.60678e-07 0 0 0 0 0.00250785 0 7393.17
0.111275 0 1.01573e-06 0 0 0 0 0.00233721 0 8725.07
0.117591 0 1.19872e-06 0 0 0 0 0.00217419 0 10296.9
0.124267 0 1.41467e-06 0 0 0 0 0.00201893 0 12151.9
0.131321 0 1.66953e-06 0 0 0 0 0.00187147 0 14341.1
0.138776 0 1.9703e-06 0 0 0 0 0.00173182 0 16924.7
0.146654 0 2.32525e-06 0 0 0 0 0.00159991 0 19973.8
0.154979 0 2.74415e-06 0 0 0 0 0.00147563 0 23572.1
0.163777 0 3.23852e-06 0 0 0 0 0.00135884 0 27818.7
0.173074 0 3.82195e-06 0 0 0 0 0.00124933 0 32830.3
0.182899 0 4.51048e-06 0 0 0 0 0.00114689 0 38744.7
0.193281 0 5.32305e-06 0 0 0 0 0.00105127 0 45724.7
0.204254 0 6.28202e-06 0 0 0 0 0.000962209 0 53962.1
0.215848 0 7.41374e-06 0 0 0 0 0.000879423 0 63683.5
0.228102 0 8.74934e-06 0 0 0 0 0.000802624 0 75156.3
0.24105 0 1.03256e-05 0 0 0 0 0.000731515 0 88695.9
0.254734 0 1.21857e-05 0 0 0 0 0.000665798 0 104675
0.269195 0 1.4381e-05 0 0 0 0 0.000605173 0 123532
0.284476 0 1.69718e-05 0 0 0 0 0.000549345 0 145787
0.300625 0 2.00293e-05 0 0 0 0 0.000498021 0 172051
0.317691 0 2.36377e-05 0 0 0 0 0.000450916 0 203046
0.335725 0 2.78961e-05 0 0 0 0 0.000407755 0 239625
0.354784 0 3.29216e-05 0 0 0 0 0.000368269 0 282795
0.374924 0 3.88525e-05 0 0 0 0 0.000332202 0 333741
0.396207 0.905504 4.58519e-05 2.29902e-06 6 0.880329 2.2351e-06 0.000299307 0.0460869 393865
0.418699 0 5.41123e-05 0 0 0 0 0.00026935 0 464821
0.442467 0 6.38607e-05 0 0 0 0 0.000242108 0 548560
0.467585 0 7.53654e-05 0 0 0 0 0.00021737 0 647384
0.494129 0 8.89427e-05 0 0 0 0 0.000194938 0 764012
0.522179 0 0.000104966 0 0 0 0 0.000174625 0 901651
0.551822 0 0.000123876 0 0 0 0 0.000156255 0 1.06409e+06
0.583147 4.46888 0.000146192 3.55864e-06 12 4.70352 3.74549e-06 0.000139664 0.30576 1.25578e+06
0.616251 0 0.000172529 0 0 0 0 0.0001247 0 1.48202e+06
0.651234 0 0.000203611 0 0 0 0 0.00011122 0 1.74901e+06
0.688203 21.8932 0.000240292 1.06067e-05 8 21.3485 1.03428e-05 9.90935e-05 0.856298 2.06409e+06
0.72727 0 0.000283581 0 0 0 0 8.81969e-05 0 2.43595e+06
0.768555 0 0.000334669 0 0 0 0 7.84179e-05 0 2.87479e+06
0.812184 0.129986 0.000394961 3.83134e-08 6 0.132765 3.91326e-08 6.96525e-05 0.00330039 3.39269e+06
0.85829 0 0.000466114 0 0 0 0 6.1805e-05 0 4.00389e+06
0.907013 0.186457 0.000550086 3.94602e-08 24 0.190035 4.02173e-08 5.47875e-05 0.0172858 4.7252e+06
0.958501 0.900452 0.000649185 1.61474e-07 24 0.847709 1.52016e-07 4.85194e-05 0.0798726 5.57646e+06
1.01291 0 0.000766138 0 0 0 0 4.29272e-05 0 6.58107e+06
1.07041 0 0.00090416 0 0 0 0 3.79435e-05 0 7.76667e+06
1.13118 1.23273 0.00106705 1.34492e-07 12 1.21759 1.3284e-07 3.3507e-05 0.048166 9.16586e+06
1.19539 0.95768 0.00125928 8.85338e-08 30 0.937938 8.67087e-08 2.9562e-05 0.0898455 1.08171e+07
1.26325 5.63031 0.00148614 4.41045e-07 24 5.54558 4.34408e-07 2.60578e-05 0.406215 1.27658e+07
1.33496 16.8027 0.00175387 1.1153e-06 24 16.8397 1.11775e-06 2.29484e-05 1.16641 1.50656e+07
1.41075 5.37406 0.00206984 3.02257e-07 32 5.52643 3.10827e-07 2.01923e-05 0.479006 1.77798e+07
1.49083 0.380375 0.00244272 1.81279e-08 48 0.372266 1.77415e-08 1.77518e-05 0.0490172 2.09828e+07
1.57546 0.0487926 0.00288279 1.97039e-09 6 0.0464615 1.87625e-09 1.55929e-05 0.000758188 2.4763e+07
1.66489 0.29033 0.00340213 9.93462e-09 84 0.281121 9.61952e-09 1.3685e-05 0.0609797 2.92241e+07
1.75941 2.21603 0.00401503 6.42535e-08 48 2.23022 6.46648e-08 1.20007e-05 0.256999 3.44889e+07
1.85928 0.208299 0.00473835 5.11765e-09 72 0.210841 5.18009e-09 1.05151e-05 0.035042 4.07021e+07
1.96483 0.950509 0.00559198 1.9788e-08 54 0.92464 1.92494e-08 9.20606e-06 0.11607 4.80347e+07
2.07637 7.1381 0.00659939 1.25918e-07 104 7.11655 1.25538e-07 8.05366e-06 1.62603 5.66883e+07
2.19424 0.267442 0.00778828 3.99759e-09 120 0.26939 4.0267e-09 7.04008e-06 0.0681401 6.69008e+07
2.3188 1.53686 0.00919136 1.94655e-08 156 1.45971 1.84883e-08 6.1494e-06 0.493807 7.89532e+07
2.45043 0.591929 0.0108472 6.35275e-09 126 0.589644 6.32823e-09 5.36741e-06 0.149131 9.31768e+07
2.58954 0.582143 0.0128014 5.294e-09 192 0.591202 5.37638e-09 4.68145e-06 0.217122 1.09963e+08
2.73654 4.10862 0.0151076 3.166e-08 152 4.26451 3.28613e-08 4.08023e-06 1.17942 1.29773e+08
2.89188 3.12707 0.0178292 2.04181e-08 378 3.20063 2.08984e-08 3.55373e-06 2.17181 1.53152e+08
3.05605 1.14443 0.0210412 6.33184e-09 264 1.12396 6.21854e-09 3.09304e-06 0.540441 1.80743e+08
3.22953 0.207584 0.0248319 9.73186e-10 366 0.203732 9.55127e-10 2.69025e-06 0.132399 2.13304e+08
3.41286 0.644862 0.0293054 2.56171e-09 428 0.615012 2.44313e-09 2.33837e-06 0.468878 2.51731e+08
3.6066 2.96991 0.0345848 9.99696e-09 486 2.87133 9.66514e-09 2.0312e-06 2.39194 2.97081e+08
3.81134 0.683245 0.0408154 1.94878e-09 600 0.680269 1.94029e-09 1.76327e-06 0.663127 3.50601e+08
4.0277 0.51094 0.0481684 1.23486e-09 738 0.501647 1.2124e-09 1.52972e-06 0.595747 4.13763e+08
4.25634 1.08491 0.056846 2.2218e-09 824 1.12703 2.30806e-09 1.32631e-06 1.38035 4.88304e+08
4.49796 2.41397 0.067087 4.18893e-09 954 2.4323 4.22075e-09 1.14926e-06 3.47724 5.76273e+08
4.7533 0.503725 0.0791729 7.40675e-10 1094 0.495867 7.29119e-10 9.95263e-07 0.814155 6.8009e+08
5.02313 0.336928 0.0934361 4.1979e-10 1332 0.336232 4.18924e-10 8.61414e-07 0.649119 8.0261e+08
5.30828 1.95341 0.110269 2.0623e-09 1614 1.97722 2.08743e-09 7.45152e-07 4.46693 9.47202e+08
5.60962 0.936227 0.130134 8.3753e-10 1850 0.905672 8.10195e-10 6.44232e-07 2.40508 1.11784e+09
5.92807 1.29681 0.153578 9.83011e-10 2238 1.24285 9.42104e-10 5.56685e-07 3.95192 1.31923e+09
6.26459 0.618536 0.181246 3.9729e-10 2546 0.627798 4.03239e-10 4.80786e-07 2.10385 1.55689e+09
6.62021 0.276778 0.213898 1.50639e-10 3264 0.276564 1.50522e-10 4.15026e-07 1.18471 1.83737e+09
6.99602 1.30025 0.252432 5.99646e-10 3506 1.34253 6.1914e-10 3.58083e-07 5.87115 2.16837e+09
7.39317 0.608708 0.297908 2.37869e-10 4506 0.616289 2.40831e-10 3.08803e-07 3.47093 2.55901e+09
7.81286 1.10741 0.351577 3.66689e-10 5018 1.14116 3.77864e-10 2.66181e-07 6.91276 3.02002e+09
8.25637 0.98134 0.414914 2.75341e-10 5852 0.946151 2.65468e-10 2.29336e-07 7.02592 3.56409e+09
8.72507 0.688354 0.489662 1.63653e-10 7362 0.681375 1.61994e-10 1.97503e-07 6.10024 4.20617e+09
9.22037 0.93239 0.577876 1.87833e-10 8306 0.922904 1.85922e-10 1.70014e-07 9.17655 4.96392e+09
9.74378 0.421798 0.681982 7.20015e-11 9698 0.421949 7.20273e-11 1.46289e-07 4.77323 5.85818e+09
10.2969 0.960775 0.804843 1.3897e-10 11816 0.974862 1.41007e-10 1.25822e-07 13.0507 6.91355e+09
10.8814 0.841129 0.949838 1.03092e-10 13682 0.842365 1.03243e-10 1.08175e-07 13.039 8.15905e+09
11.4992 0.84755 1.12095 8.80213e-11 16152 0.835391 8.67585e-11 9.29669e-08 15.2928 9.62892e+09
12.1519 0.861754 1.3229 7.58346e-11 19472 0.846459 7.44887e-11 7.98658e-08 18.4892 1.13636e+10
12.8418 0.566613 1.56122 4.22506e-11 22670 0.569659 4.24777e-11 6.85852e-08 13.9654 1.34108e+10
13.5708 0.91696 1.84248 5.79373e-11 26224 0.926586 5.85455e-11 5.88765e-08 25.8057 1.58268e+10
14.3411 0.851933 2.17441 4.56116e-11 31640 0.859501 4.60168e-11 5.05241e-08 28.5636 1.8678e+10
15.1552 0.962914 2.56613 4.36836e-11 37484 0.966229 4.3834e-11 4.33417e-08 37.7798 2.20429e+10
16.0156 0.988685 3.02843 3.80059e-11 43856 0.995614 3.82723e-11 3.71677e-08 44.845 2.6014e+10
16.9247 1.45935 3.574 4.75351e-11 51362 1.45454 4.73784e-11 3.18628e-08 76.6254 3.07005e+10
17.8855 1.52685 4.21787 4.21419e-11 61636 1.5161 4.1845e-11 2.73063e-08 95.1229 3.62312e+10
18.9008 2.12973 4.97773 4.98084e-11 72218 2.11936 4.95658e-11 2.33941e-08 153.759 4.27584e+10
19.9738 2.84915 5.87448 5.64619e-11 84586 2.83158 5.61137e-11 2.00364e-08 238.361 5.04614e+10
21.1076 3.58761 6.93279 6.02432e-11 100708 3.57976 6.01113e-11 1.71555e-08 353.645 5.95522e+10
22.3058 4.52019 8.18175 6.43162e-11 118712 4.51557 6.42505e-11 1.46847e-08 519.937 7.02807e+10
23.5721 5.65243 9.65571 6.81492e-11 140410 5.63528 6.79424e-11 1.25662e-08 761.476 8.29419e+10
24.9102 6.77666 11.3952 6.92315e-11 164374 6.75851 6.9046e-11 1.07504e-08 1058.56 9.78842e+10
26.3243 7.92419 13.4481 6.85969e-11 194680 7.88891 6.82914e-11 9.19452e-09 1452.43 1.15518e+11
27.8187 9.37352 15.8708 6.87565e-11 230196 9.34351 6.85364e-11 7.86182e-09 2013.21 1.36329e+11
29.3979 11.0115 18.73 6.84415e-11 271156 10.9718 6.81944e-11 6.72061e-09 2761.4 1.60889e+11
31.0667 12.9605 22.1042 6.82585e-11 321076 12.9183 6.8036e-11 5.74366e-09 3815.71 1.89874e+11
32.8303 14.9499 26.0864 6.67168e-11 377436 14.9025 6.65051e-11 4.90756e-09 5131.12 2.2408e+11
34.694 17.3865 30.7859 6.57461e-11 447594 17.3346 6.555e-11 4.19221e-09 7019.59 2.64449e+11
36.6634 19.9985 36.3321 6.40794e-11 525078 19.9386 6.38874e-11 3.58032e-09 9397.66 3.1209e+11
38.7447 23.2027 42.8774 6.29972e-11 621924 23.1312 6.2803e-11 3.05709e-09 12816 3.68314e+11
40.9442 27.1757 50.6018 6.25208e-11 732630 27.0931 6.23307e-11 2.60976e-09 17551.3 4.34667e+11
43.2685 32.0589 59.7179 6.24963e-11 865596 31.9545 6.22928e-11 2.22743e-09 24286.5 5.12973e+11
45.7247 37.6048 70.4762 6.21171e-11 1.02168e+06 37.4772 6.19063e-11 1.90073e-09 33389 6.05386e+11
48.3204 44.4804 83.1727 6.22584e-11 1.20544e+06 44.33 6.20479e-11 1.62163e-09 46279.6 7.14448e+11
51.0634 52.2787 98.1565 6.20035e-11 1.42103e+06 52.1086 6.18017e-11 1.38326e-09 63696.7 8.43158e+11
53.9621 61.6243 115.84 6.19305e-11 1.67997e+06 61.4266 6.17319e-11 1.1797e-09 88192.7 9.95055e+11
57.0254 72.455 136.709 6.16997e-11 1.98018e+06 72.2163 6.14964e-11 1.00592e-09 121458 1.17432e+12
60.2626 85.0906 161.337 6.13985e-11 2.33957e+06 84.8089 6.11953e-11 8.57591e-10 167500 1.38587e+12
63.6835 100.199 190.402 6.12634e-11 2.75676e+06 99.8772 6.10667e-11 7.3101e-10 231035 1.63554e+12
67.2987 118.174 224.704 6.12238e-11 3.25638e+06 117.792 6.10261e-11 6.23009e-10 320008 1.93019e+12
71.1191 138.79 265.185 6.09285e-11 3.84387e+06 138.346 6.07337e-11 5.30879e-10 441158 2.27792e+12
75.1563 163.708 312.958 6.08967e-11 4.53277e+06 163.179 6.07001e-11 4.52303e-10 610277 2.68829e+12
79.4227 193.011 369.339 6.08371e-11 5.35083e+06 192.393 6.06423e-11 3.85299e-10 844872 3.17259e+12
83.9313 227.283 435.876 6.07036e-11 6.32174e+06 226.549 6.05076e-11 3.28173e-10 1.16936e+06 3.74415e+12
88.6959 267.919 514.4 6.06335e-11 7.44986e+06 267.034 6.04332e-11 2.79476e-10 1.61628e+06 4.41866e+12
93.7309 315.77 607.071 6.05539e-11 8.79764e+06 314.733 6.0355e-11 2.37972e-10 2.23863e+06 5.2147e+12
99.0518 372.573 716.436 6.05402e-11 1.03827e+07 371.348 6.03412e-11 2.02605e-10 3.10245e+06 6.15414e+12
104.675 439.31 845.504 6.04874e-11 1.22515e+07 437.867 6.02887e-11 1.72471e-10 4.29674e+06 7.26283e+12
110.617 518.491 997.824 6.0492e-11 1.44573e+07 516.777 6.02919e-11 1.468e-10 5.95743e+06 8.57124e+12
116.896 611.76 1177.58 6.04782e-11 1.70664e+07 609.747 6.02792e-11 1.24935e-10 8.26147e+06 1.01154e+13
123.532 721.862 1389.73 6.04692e-11 2.0139e+07 719.478 6.02695e-11 1.06313e-10 1.14547e+07 1.19377e+13
130.545 852.261 1640.09 6.04943e-11 2.37643e+07 849.445 6.02944e-11 9.04567e-11 1.58927e+07 1.40883e+13
137.955 1005.64 1935.56 6.04845e-11 2.80503e+07 1002.29 6.02831e-11 7.69563e-11 2.20464e+07 1.66263e+13
145.787 1187.36 2284.26 6.0513e-11 3.30981e+07 1183.41 6.03116e-11 6.54636e-11 3.05951e+07 1.96216e+13
154.063 1407.58 2695.77 6.07854e-11 3.90634e+07 1402.87 6.05823e-11 5.56812e-11 4.26444e+07 2.31565e+13
162.808 1655.38 3181.42 6.05739e-11 4.61057e+07 1649.85 6.03716e-11 4.73556e-11 5.8975e+07 2.73282e+13
172.051 1955.98 3754.56 6.06478e-11 5.44046e+07 1949.43 6.04447e-11 4.02708e-11 8.19332e+07 3.22515e+13
181.818 2314.01 4430.96 6.07963e-11 6.42064e+07 2306.31 6.05939e-11 3.42426e-11 1.13996e+08 3.80616e+13
192.139 2732.6 5229.21 6.08345e-11 7.57748e+07 2723.43 6.06304e-11 2.91139e-11 1.58334e+08 4.49186e+13
203.046 3241.99 6171.26 6.11573e-11 8.94213e+07 3230.69 6.09441e-11 2.4751e-11 2.20951e+08 5.30108e+13
214.572 3826.27 7283.03 6.11609e-11 1.05538e+08 3813.33 6.0954e-11 2.10401e-11 3.06787e+08 6.25608e+13
226.753 4540.02 8595.09 6.14918e-11 1.24552e+08 4524.3 6.12788e-11 1.78839e-11 4.28257e+08 7.38313e+13
239.625 5377.52 10143.5 6.17168e-11 1.46987e+08 5359.09 6.15053e-11 1.51999e-11 5.96818e+08 8.71322e+13
253.228 6388.95 11970.9 6.21316e-11 1.7347e+08 6366.94 6.19176e-11 1.29176e-11 8.34362e+08 1.02829e+14
267.603 7607.13 14127.5 6.26853e-11 2.04703e+08 7580.68 6.24674e-11 1.09771e-11 1.16896e+09 1.21354e+14
282.795 9080.57 16672.6 6.34045e-11 2.4161e+08 9048.62 6.31814e-11 9.3274e-12 1.64238e+09 1.43217e+14
298.848 10884.2 19676.2 6.4397e-11 2.85122e+08 10845.2 6.41661e-11 7.925e-12 2.31685e+09 1.69017e+14
315.813 13117 23220.9 6.57605e-11 3.36491e+08 13068.9 6.55193e-11 6.73295e-12 3.2865e+09 1.99466e+14
333.741 15930.9 27404.3 6.76755e-11 3.97115e+08 15870.3 6.74184e-11 5.71979e-12 4.69859e+09 2.35401e+14
352.686 19548.8 32341.2 7.03679e-11 4.68637e+08 19471 7.00878e-11 4.85874e-12 6.78716e+09 2.77809e+14
372.707 24348.5 38167.6 7.42656e-11 5.53074e+08 24246 7.39531e-11 4.12703e-12 9.95252e+09 3.27857e+14
393.865 30976.7 45043.5 8.00594e-11 6.52716e+08 30836.3 7.96967e-11 3.50528e-12 1.49078e+10 3.86921e+14
416.224 36556.8 53158.3 8.00585e-11 2.2184e+08 38673.7 8.46944e-11 2.97701e-12 5.96578e+09 4.56626e+14
439.852 0 62734.9 0 0 0 0 2.52819e-12 0 5.38888e+14
464.821 0 74036.7 0 0 0 0 2.1469e-12 0 6.35971e+14
491.207 0 87374.6 0 0 0 0 1.82301e-12 0 7.50542e+14
519.092 0 103115 0 0 0 0 1.54789e-12 0 8.85755e+14
548.56 0 121692 0 0 0 0 1.31422e-12 0 1.04533e+15
579.7 0 143615 0 0 0 0 1.11576e-12 0 1.23364e+15
612.608 0 169488 0 0 0 0 9.47223e-13 0 1.45589e+15
647.384 0 200021 0 0 0 0 8.041e-13 0 1.71817e+15
684.134 0 236056 0 0 0 0 6.82568e-13 0 2.0277e+15
722.971 0 278582 0 0 0 0 5.79376e-13 0 2.393e+15
764.012 0 328769 0 0 0 0 4.91762e-13 0 2.8241e+15
0.112452
200
1.0655e+09
8589934592
0.0129181 3.23674e-05 1.58924e-09 2.37098e-06 6 3.20711e-05 2.34928e-06 0.00677225 0.00210062 13.6515
0.0136515 0 1.87554e-09 0 0 0 0 0.00688819 0 16.1108
0.0144264 0 2.21343e-09 0 0 0 0 0.00699249 0 19.0132
0.0152454 0 2.61218e-09 0 0 0 0 0.00708412 0 22.4385
0.0161108 0 3.08278e-09 0 0 0 0 0.00716212 0 26.4808
0.0170254 0 3.63815e-09 0 0 0 0 0.00722559 0 31.2514
0.0179919 8.88507e-05 4.29357e-09 2.40909e-06 12 8.87363e-05 2.40599e-06 0.00727371 0.00397446 36.8815
0.0190132 0 5.06707e-09 0 0 0 0 0.00730578 0 43.5258
0.0200925 0 5.97991e-09 0 0 0 0 0.00732122 0 51.367
0.0212331 0.00019712 7.05721e-09 3.25169e-06 8 0.000196949 3.24886e-06 0.00731958 0.00355396 60.621
0.0224385 0 8.32858e-09 0 0 0 0 0.00730056 0 71.542
0.0237123 0 9.829e-09 0 0 0 0 0.00726401 0 84.4305
0.0250583 0.000419079 1.15997e-08 4.2059e-06 6 0.000418882 4.20392e-06 0.00720995 0.00350008 99.6408
0.0264808 0 1.36894e-08 0 0 0 0 0.00713857 0 117.591
0.0279841 0.000230713 1.61556e-08 1.66249e-06 24 0.000230476 1.66078e-06 0.00705021 0.00565936 138.776
0.0295727 0 1.90661e-08 0 0 0 0 0.00694538 0 163.777
0.0312514 0.000358121 2.25009e-08 1.85285e-06 24 0.00035994 1.86226e-06 0.00682475 0.00651575 193.281
0.0330255 0 2.65545e-08 0 0 0 0 0.00668915 0 228.102
0.0349003 0.000638048 3.13384e-08 2.37021e-06 12 0.000632939 2.35123e-06 0.00653951 0.00434933 269.195
0.0368815 0.00123067 3.69841e-08 3.87379e-06 30 0.00121756 3.83253e-06 0.00637693 0.0182241 317.691
0.0389751 0.00104526 4.36469e-08 2.78792e-06 24 0.0010345 2.75924e-06 0.00620256 0.0107875 374.924
0.0411876 0.00115774 5.151e-08 2.61657e-06 24 0.00114988 2.5988e-06 0.00601767 0.0104355 442.467
0.0435258 0.00101758 6.07896e-08 1.94872e-06 8 0.0010175 1.94857e-06 0.00582358 0.00267701 522.179
0.0459966 0.00139889 7.1741e-08 2.27e-06 72 0.00138793 2.25222e-06 0.00562166 0.0290732 616.251
0.0486077 0 8.46654e-08 0 0 0 0 0.0054133 0 727.27
0.051367 0.0025751 9.99181e-08 3.00027e-06 54 0.00256217 2.98521e-06 0.00519989 0.0311573 858.29
0.054283 0.00205295 1.17919e-07 2.02678e-06 60 0.00205597 2.02976e-06 0.0049828 0.0244053 1012.91
0.0573645 0.00213091 1.39162e-07 1.78261e-06 96 0.00211869 1.77238e-06 0.00476339 0.0359261 1195.39
0.060621 0.00248788 1.64232e-07 1.76352e-06 24 0.00245418 1.73963e-06 0.00454293 0.00931659 1410.75
0.0640622 0.00274899 1.93819e-07 1.65115e-06 134 0.00275656 1.6557e-06 0.00432265 0.0511849 1664.89
0.0676989 0.00313879 2.28736e-07 1.59749e-06 120 0.00312222 1.58905e-06 0.00410371 0.0467135 1964.83
0.071542 0.0033839 2.69944e-07 1.45933e-06 108 0.00332953 1.43588e-06 0.00388717 0.0405456 2318.8
0.0756032 0.00479489 3.18575e-07 1.75217e-06 174 0.00476413 1.74093e-06 0.00367401 0.0829823 2736.54
0.079895 0.00406989 3.75967e-07 1.26021e-06 168 0.00403963 1.25084e-06 0.0034651 0.0610995 3229.53
0.0844305 0.00553705 4.43698e-07 1.45278e-06 168 0.00555316 1.45701e-06 0.00326121 0.0748396 3811.34
0.0892234 0.00578875 5.23632e-07 1.28697e-06 290 0.0057729 1.28345e-06 0.00306301 0.121848 4497.96
0.0942883 0.00612091 6.17966e-07 1.15309e-06 288 0.00612243 1.15337e-06 0.00287109 0.115667 5308.28
0.0996408 0.00616997 7.29294e-07 9.84897e-07 366 0.00611429 9.76009e-07 0.00268591 0.134209 6264.59
0.105297 0.00604264 8.60678e-07 8.17327e-07 420 0.00600389 8.12086e-07 0.00250785 0.136881 7393.17
0.111275 0.00725714 1.01573e-06 8.31758e-07 398 0.00724738 8.30639e-07 0.00233721 0.141639 8725.07
0.117591 0.00810804 1.19872e-06 7.87425e-07 624 0.00812404 7.88979e-07 0.00217419 0.225993 10296.9
0.124267 0.00877496 1.41467e-06 7.22104e-07 642 0.00875582 7.2053e-07 0.00201893 0.229623 12151.9
0.131321 0.00991171 1.66953e-06 6.91139e-07 800 0.00990143 6.90422e-07 0.00187147 0.295442 14341.1
0.138776 0.0108805 1.9703e-06 6.42878e-07 858 0.0109145 6.44887e-07 0.00173182 0.318503 16924.7
0.146654 0.0106342 2.32525e-06 5.32406e-07 1080 0.0107308 5.37246e-07 0.00159991 0.359395 19973.8
0.154979 0.0117339 2.74415e-06 4.97787e-07 1286 0.0118161 5.01275e-07 0.00147563 0.433816 23572.1
0.163777 0.0122147 3.23852e-06 4.39082e-07 1650 0.0122582 4.40647e-07 0.00135884 0.533164 27818.7
0.173074 0.0124899 3.82195e-06 3.80438e-07 1778 0.0125145 3.81187e-07 0.00124933 0.541424 32830.3
0.182899 0.0150729 4.51048e-06 3.8903e-07 2112 0.0150945 3.89588e-07 0.00114689 0.716398 38744.7
0.193281 0.016079 5.32305e-06 3.51648e-07 2570 0.016107 3.5226e-07 0.00105127 0.859659 45724.7
0.204254 0.0173254 6.28202e-06 3.21066e-07 3030 0.0173256 3.2107e-07 0.000962209 1.01104 53962.1
0.215848 0.0179857 7.41374e-06 2.82424e-07 3434 0.0179761 2.82272e-07 0.000879423 1.10282 63683.5
0.228102 0.0184788 8.74934e-06 2.45872e-07 4218 0.0184711 2.45769e-07 0.000802624 1.29212 75156.3
0.24105 0.0203464 1.03256e-05 2.29395e-07 4766 0.0203698 2.29659e-07 0.000731515 1.49457 88695.9
0.254734 0.0224029 1.21857e-05 2.14024e-07 6026 0.0223946 2.13945e-07 0.000665798 1.93709 104675
0.269195 0.0236111 1.4381e-05 1.91133e-07 6480 0.0236084 1.91111e-07 0.000605173 2.04659 123532
0.284476 0.0246781 1.69718e-05 1.69276e-07 8162 0.0247226 1.6958e-07 0.000549345 2.51504 145787
0.300625 0.0265408 2.00293e-05 1.54262e-07 9578 0.0265548 1.54343e-07 0.000498021 2.96678 172051
0.317691 0.0276368 2.36377e-05 1.36111e-07 11234 0.0276328 1.36091e-07 0.000450916 3.39103 203046
0.335725 0.0300336 2.78961e-05 1.25336e-07 13344 0.0300193 1.25276e-07 0.000407755 4.10168 239625
0.354784 0.0310898 3.29216e-05 1.09938e-07 15464 0.0310708 1.09871e-07 0.000368269 4.6164 282795
0.374924 0.0332438 3.88525e-05 9.96097e-08 18458 0.0332327 9.95763e-08 0.000332202 5.53458 333741
0.396207 0.0351745 4.58519e-05 8.93061e-08 22232 0.0351157 8.91567e-08 0.000299307 6.6335 393865
0.418699 0.0372365 5.41123e-05 8.01094e-08 25628 0.0371575 7.99394e-08 0.00026935 7.62222 464821
0.442467 0.0393777 6.38607e-05 7.17839e-08 30320 0.0392937 7.16307e-08 0.000242108 8.98975 548560
0.467585 0.0417519 7.53654e-05 6.44932e-08 35452 0.0416871 6.43931e-08 0.00021737 10.5185 647384
0.494129 0.0435479 8.89427e-05 5.6999e-08 41792 0.0435407 5.69896e-08 0.000194938 12.2198 764012
0.522179 0.0456944 0.000104966 5.06786e-08 49988 0.0456814 5.06641e-08 0.000174625 14.5072 901651
0.551822 0.0483016 0.000123876 4.53925e-08 59110 0.0482761 4.53686e-08 0.000156255 17.1717 1.06409e+06
0.583147 0.0506379 0.000146192 4.03237e-08 69716 0.0505983 4.02922e-08 0.000139664 20.1284 1.25578e+06
0.616251 0.0533494 0.000172529 3.59978e-08 82210 0.0532771 3.59491e-08 0.0001247 23.732 1.48202e+06
0.651234 0.0556531 0.000203611 3.18199e-08 96722 0.0555526 3.17624e-08 0.00011122 27.6719 1.74901e+06
0.688203 0.0584513 0.000240292 2.83182e-08 113098 0.0583705 2.8279e-08 9.90935e-05 32.3203 2.06409e+06
0.72727 0.0618894 0.000283581 2.54067e-08 135190 0.0618289 2.53819e-08 8.81969e-05 38.9439 2.43595e+06
0.768555 0.0648434 0.000334669 2.25559e-08 158170 0.0647941 2.25387e-08 7.84179e-05 45.4955 2.87479e+06
0.812184 0.0681003 0.000394961 2.00727e-08 188560 0.0680445 2.00562e-08 6.96525e-05 54.3398 3.39269e+06
0.85829 0.0710712 0.000466114 1.77505e-08 220444 0.0709808 1.7728e-08 6.1805e-05 63.312 4.00389e+06
0.907013 0.0748532 0.000550086 1.58413e-08 261388 0.0747776 1.58253e-08 5.47875e-05 75.5778 4.7252e+06
0.958501 0.0781194 0.000649185 1.40088e-08 308244 0.0780321 1.39931e-08 4.85194e-05 88.9978 5.57646e+06
1.01291 0.0817866 0.000766138 1.24275e-08 364396 0.0816964 1.24138e-08 4.29272e-05 105.494 6.58107e+06
1.07041 0.0858499 0.00090416 1.10536e-08 429162 0.0857462 1.10403e-08 3.79435e-05 125.023 7.76667e+06
1.13118 0.0896016 0.00106705 9.77558e-09 506358 0.0894973 9.76421e-09 3.3507e-05 147.729 9.16586e+06
1.19539 0.0936392 0.00125928 8.65658e-09 598590 0.0935341 8.64687e-09 2.9562e-05 175.284 1.08171e+07
1.26325 0.0981837 0.00148614 7.69113e-09 704844 0.0980646 7.68179e-09 2.60578e-05 208.039 1.27658e+07
1.33496 0.102733 0.00175387 6.81905e-09 834620 0.102613 6.81104e-09 2.29484e-05 248.004 1.50656e+07
1.41075 0.107158 0.00206984 6.02695e-09 981444 0.107027 6.01957e-09 2.01923e-05 292.939 1.77798e+07
1.49083 0.112259 0.00244272 5.35002e-09 1.15998e+06 0.112125 5.34365e-09 1.77518e-05 349.593 2.09828e+07
1.57546 0.117425 0.00288279 4.74197e-09 1.36931e+06 0.117278 4.73602e-09 1.55929e-05 416.423 2.4763e+07
1.66489 0.122833 0.00340213 4.20314e-09 1.61652e+06 0.122667 4.19747e-09 1.3685e-05 496.487 2.92241e+07
1.75941 0.128447 0.00401503 3.72432e-09 1.90601e+06 0.128273 3.71925e-09 1.20007e-05 591.514 3.44889e+07
1.85928 0.134372 0.00473835 3.30134e-09 2.24913e+06 0.134193 3.29694e-09 1.05151e-05 706.14 4.07021e+07
1.96483 0.140515 0.00559198 2.92527e-09 2.65744e+06 0.14033 2.92144e-09 9.20606e-06 844.416 4.80347e+07
2.07637 0.146837 0.00659939 2.59025e-09 3.13125e+06 0.146646 2.58688e-09 8.05366e-06 1007.08 5.66883e+07
2.19424 0.153816 0.00778828 2.29917e-09 3.69915e+06 0.153604 2.296e-09 7.04008e-06 1208.08 6.69008e+07
2.3188 0.160974 0.00919136 2.03886e-09 4.36472e+06 0.16075 2.03601e-09 6.1494e-06 1447.14 7.89532e+07
2.45043 0.168456 0.0108472 1.80792e-09 5.14913e+06 0.168225 1.80544e-09 5.36741e-06 1734.39 9.31768e+07
2.58954 0.176211 0.0128014 1.60246e-09 6.07894e+06 0.175973 1.6003e-09 4.68145e-06 2080.82 1.09963e+08
2.73654 0.184702 0.0151076 1.42327e-09 7.17304e+06 0.184447 1.42131e-09 4.08023e-06 2502.11 1.29773e+08
2.89188 0.193404 0.0178292 1.26283e-09 8.46557e+06 0.193145 1.26113e-09 3.55373e-06 3008.26 1.53152e+08
3.05605 0.202608 0.0210412 1.12097e-09 9.98773e+06 0.202332 1.11945e-09 3.09304e-06 3619.73 1.80743e+08
3.22953 0.212552 0.0248319 9.96475e-10 1.1797e+07 0.212258 9.95098e-10 2.69025e-06 4369.64 2.13304e+08
3.41286 0.223107 0.0293054 8.86292e-10 1.39144e+07 0.222786 8.85016e-10 2.33837e-06 5273.84 2.51731e+08
3.6066 0.234091 0.0345848 7.87968e-10 1.64163e+07 0.233757 7.86844e-10 2.0312e-06 6368.4 2.97081e+08
3.81134 0.24586 0.0408154 7.01251e-10 1.93821e+07 0.245512 7.00259e-10 1.76327e-06 7708.28 3.50601e+08
4.0277 0.258466 0.0481684 6.24671e-10 2.28754e+07 0.258082 6.23743e-10 1.52972e-06 9341.3 4.13763e+08
4.25634 0.271844 0.056846 5.5671e-10 2.69929e+07 0.27144 5.55883e-10 1.32631e-06 11330.1 4.88304e+08
4.49796 0.28625 0.067087 4.96727e-10 3.18542e+07 0.285818 4.95977e-10 1.14926e-06 13767.9 5.76273e+08
4.7533 0.301696 0.0791729 4.43612e-10 3.75892e+07 0.301236 4.42935e-10 9.95263e-07 16754.4 6.8009e+08
5.02313 0.318277 0.0934361 3.96553e-10 4.43706e+07 0.317782 3.95936e-10 8.61414e-07 20426.1 8.0261e+08
5.30828 0.336173 0.110269 3.54911e-10 5.23593e+07 0.335644 3.54353e-10 7.45152e-07 24938.4 9.47202e+08
5.60962 0.355161 0.130134 3.1772e-10 6.1787e+07 0.354598 3.17216e-10 6.44232e-07 30471.9 1.11784e+09
5.92807 0.376127 0.153578 2.85112e-10 7.29346e+07 0.375515 2.84648e-10 5.56685e-07 37354.1 1.31923e+09
6.26459 0.398563 0.181246 2.56e-10 8.60651e+07 0.397902 2.55575e-10 4.80786e-07 45826.2 1.55689e+09
6.62021 0.423227 0.213898 2.30345e-10 1.01558e+08 0.422517 2.29958e-10 4.15026e-07 56366 1.83737e+09
6.99602 0.450125 0.252432 2.07587e-10 1.1986e+08 0.449361 2.07234e-10 3.58083e-07 69484.8 2.16837e+09
7.39317 0.479308 0.297908 1.87302e-10 1.41457e+08 0.478479 1.86978e-10 3.08803e-07 85799.4 2.55901e+09
7.81286 0.511388 0.351577 1.69333e-10 1.66936e+08 0.510495 1.69037e-10 2.66181e-07 106197 3.02002e+09
8.25637 0.546308 0.414914 1.53281e-10 1.97025e+08 0.54534 1.5301e-10 2.29336e-07 131686 3.56409e+09
8.72507 0.584612 0.489662 1.38989e-10 2.32497e+08 0.583554 1.38738e-10 1.97503e-07 163615 4.20617e+09
9.22037 0.627207 0.577876 1.26353e-10 2.74404e+08 0.626045 1.26119e-10 1.70014e-07 203935 4.96392e+09
9.74378 0.674949 0.681982 1.15215e-10 3.2382e+08 0.673663 1.14995e-10 1.46289e-07 255035 5.85818e+09
10.2969 0.730511 0.804843 1.05664e-10 3.82165e+08 0.729048 1.05452e-10 1.25822e-07 320936 6.91355e+09
10.8814 0.798248 0.949838 9.78359e-11 4.51027e+08 0.796523 9.76246e-11 1.08175e-07 407917 8.15905e+09
11.4992 0.886559 1.12095 9.20726e-11 5.32251e+08 0.884406 9.18489e-11 9.29669e-08 527131 9.62892e+09
12.1519 1.01127 1.3229 8.89925e-11 6.28157e+08 1.00838 8.87381e-11 7.98658e-08 699940 1.13636e+10
12.8418 1.14932 1.56122 8.57009e-11 3.82727e+08 1.18945 8.86938e-11 6.85852e-08 478237 1.34108e+10
13.5708 0 1.84248 0 0 0 0 5.88765e-08 0 1.58268e+10
14.3411 0 2.17441 0 0 0 0 5.05241e-08 0 1.8678e+10
15.1552 0 2.56613 0 0 0 0 4.33417e-08 0 2.20429e+10
16.0156 0 3.02843 0 0 0 0 3.71677e-08 0 2.6014e+10
16.9247 0 3.574 0 0 0 0 3.18628e-08 0 3.07005e+10
17.8855 0 4.21787 0 0 0 0 2.73063e-08 0 3.62312e+10
18.9008 0 4.97773 0 0 0 0 2.33941e-08 0 4.27584e+10
19.9738 0 5.87448 0 0 0 0 2.00364e-08 0 5.04614e+10
21.1076 0 6.93279 0 0 0 0 1.71555e-08 0 5.95522e+10
22.3058 0 8.18175 0 0 0 0 1.46847e-08 0 7.02807e+10
23.5721 0 9.65571 0 0 0 0 1.25662e-08 0 8.29419e+10
24.9102 0 11.3952 0 0 0 0 1.07504e-08 0 9.78842e+10
26.3243 0 13.4481 0 0 0 0 9.19452e-09 0 1.15518e+11
27.8187 0 15.8708 0 0 0 0 7.86182e-09 0 1.36329e+11
29.3979 0 18.73 0 0 0 0 6.72061e-09 0 1.60889e+11
31.0667 0 22.1042 0 0 0 0 5.74366e-09 0 1.89874e+11
32.8303 0 26.0864 0 0 0 0 4.90756e-09 0 2.2408e+11
34.694 0 30.7859 0 0 0 0 4.19221e-09 0 2.64449e+11
36.6634 0 36.3321 0 0 0 0 3.58032e-09 0 3.1209e+11
38.7447 0 42.8774 0 0 0 0 3.05709e-09 0 3.68314e+11
40.9442 0 50.6018 0 0 0 0 2.60976e-09 0 4.34667e+11
43.2685 0 59.7179 0 0 0 0 2.22743e-09 0 5.12973e+11
45.7247 0 70.4762 0 0 0 0 1.90073e-09 0 6.05386e+11
48.3204 0 83.1727 0 0 0 0 1.62163e-09 0 7.14448e+11
51.0634 0 98.1565 0 0 0 0 1.38326e-09 0 8.43158e+11
53.9621 0 115.84 0 0 0 0 1.1797e-09 0 9.95055e+11
57.0254 0 136.709 0 0 0 0 1.00592e-09 0 1.17432e+12
60.2626 0 161.337 0 0 0 0 8.57591e-10 0 1.38587e+12
63.6835 0 190.402 0 0 0 0 7.3101e-10 0 1.63554e+12
67.2987 0 224.704 0 0 0 0 6.23009e-10 0 1.93019e+12
71.1191 0 265.185 0 0 0 0 5.30879e-10 0 2.27792e+12
75.1563 0 312.958 0 0 0 0 4.52303e-10 0 2.68829e+12
79.4227 0 369.339 0 0 0 0 3.85299e-10 0 3.17259e+12
83.9313 0 435.876 0 0 0 0 3.28173e-10 0 3.74415e+12
88.6959 0 514.4 0 0 0 0 2.79476e-10 0 4.41866e+12
93.7309 0 607.071 0 0 0 0 2.37972e-10 0 5.2147e+12
99.0518 0 716.436 0 0 0 0 2.02605e-10 0 6.15414e+12
104.675 0 845.504 0 0 0 0 1.72471e-10 0 7.26283e+12
110.617 0 997.824 0 0 0 0 1.468e-10 0 8.57124e+12
116.896 0 1177.58 0 0 0 0 1.24935e-10 0 1.01154e+13
123.532 0 1389.73 0 0 0 0 1.06313e-10 0 1.19377e+13
130.545 0 1640.09 0 0 0 0 9.04567e-11 0 1.40883e+13
137.955 0 1935.56 0 0 0 0 7.69563e-11 0 1.66263e+13
145.787 0 2284.26 0 0 0 0 6.54636e-11 0 1.96216e+13
154.063 0 2695.77 0 0 0 0 5.56812e-11 0 2.31565e+13
162.808 0 3181.42 0 0 0 0 4.73556e-11 0 2.73282e+13
172.051 0 3754.56 0 0 0 0 4.02708e-11 0 3.22515e+13
181.818 0 4430.96 0 0 0 0 3.42426e-11 0 3.80616e+13
192.139 0 5229.21 0 0 0 0 2.91139e-11 0 4.49186e+13
203.046 0 6171.26 0 0 0 0 2.4751e-11 0 5.30108e+13
214.572 0 7283.03 0 0 0 0 2.10401e-11 0 6.25608e+13
226.753 0 8595.09 0 0 0 0 1.78839e-11 0 7.38313e+13
239.625 0 10143.5 0 0 0 0 1.51999e-11 0 8.71322e+13
253.228 0 11970.9 0 0 0 0 1.29176e-11 0 1.02829e+14
267.603 0 14127.5 0 0 0 0 1.09771e-11 0 1.21354e+14
282.795 0 16672.6 0 0 0 0 9.3274e-12 0 1.43217e+14
298.848 0 19676.2 0 0 0 0 7.925e-12 0 1.69017e+14
315.813 0 23220.9 0 0 0 0 6.73295e-12 0 1.99466e+14
333.741 0 27404.3 0 0 0 0 5.71979e-12 0 2.35401e+14
352.686 0 32341.2 0 0 0 0 4.85874e-12 0 2.77809e+14
372.707 0 38167.6 0 0 0 0 4.12703e-12 0 3.27857e+14
393.865 0 45043.5 0 0 0 0 3.50528e-12 0 3.86921e+14
416.224 0 53158.3 0 0 0 0 2.97701e-12 0 4.56626e+14
439.852 0 62734.9 0 0 0 0 2.52819e-12 0 5.38888e+14
464.821 0 74036.7 0 0 0 0 2.1469e-12 0 6.35971e+14
491.207 0 87374.6 0 0 0 0 1.82301e-12 0 7.50542e+14
519.092 0 103115 0 0 0 0 1.54789e-12 0 8.85755e+14
548.56 0 121692 0 0 0 0 1.31422e-12 0 1.04533e+15
579.7 0 143615 0 0 0 0 1.11576e-12 0 1.23364e+15
612.608 0 169488 0 0 0 0 9.47223e-13 0 1.45589e+15
647.384 0 200021 0 0 0 0 8.041e-13 0 1.71817e+15
684.134 0 236056 0 0 0 0 6.82568e-13 0 2.0277e+15
722.971 0 278582 0 0 0 0 5.79376e-13 0 2.393e+15
764.012 0 328769 0 0 0 0 4.91762e-13 0 2.8241e+15
