0.958847
200
1.0655e+09
8589934592
0.0129181 0 1.58924e-09 0 0 0 0 0.00677225 0 13.6515
0.0136515 0 1.87554e-09 0 0 0 0 0.00688819 0 16.1108
0.0144264 0 2.21343e-09 0 0 0 0 0.00699249 0 19.0132
0.0152454 0 2.61218e-09 0 0 0 0 0.00708412 0 22.4385
0.0161108 0 3.08278e-09 0 0 0 0 0.00716212 0 26.4808
0.0170254 0 3.63815e-09 0 0 0 0 0.00722559 0 31.2514
0.0179919 0 4.29357e-09 0 0 0 0 0.00727371 0 36.8815
0.0190132 0 5.06707e-09 0 0 0 0 0.00730578 0 43.5258
0.0200925 0 5.97991e-09 0 0 0 0 0.00732122 0 51.367
0.0212331 0 7.05721e-09 0 0 0 0 0.00731958 0 60.621
0.0224385 0 8.32858e-09 0 0 0 0 0.00730056 0 71.542
0.0237123 0 9.829e-09 0 0 0 0 0.00726401 0 84.4305
0.0250583 0 1.15997e-08 0 0 0 0 0.00720995 0 99.6408
0.0264808 0 1.36894e-08 0 0 0 0 0.00713857 0 117.591
0.0279841 0 1.61556e-08 0 0 0 0 0.00705021 0 138.776
0.0295727 0 1.90661e-08 0 0 0 0 0.00694538 0 163.777
0.0312514 0 2.25009e-08 0 0 0 0 0.00682475 0 193.281
0.0330255 0 2.65545e-08 0 0 0 0 0.00668915 0 228.102
0.0349003 0 3.13384e-08 0 0 0 0 0.00653951 0 269.195
0.0368815 0 3.69841e-08 0 0 0 0 0.00637693 0 317.691
0.0389751 0 4.36469e-08 0 0 0 0 0.00620256 0 374.924
0.0411876 0 5.151e-08 0 0 0 0 0.00601767 0 442.467
0.0435258 0 6.07896e-08 0 0 0 0 0.00582358 0 522.179
0.0459966 0 7.1741e-08 0 0 0 0 0.00562166 0 616.251
0.0486077 0 8.46654e-08 0 0 0 0 0.0054133 0 727.27
0.051367 0 9.99181e-08 0 0 0 0 0.00519989 0 858.29
0.054283 0 1.17919e-07 0 0 0 0 0.0049828 0 1012.91
0.0573645 0 1.39162e-07 0 0 0 0 0.00476339 0 1195.39
0.060621 0 1.64232e-07 0 0 0 0 0.00454293 0 1410.75
0.0640622 0 1.93819e-07 0 0 0 0 0.00432265 0 1664.89
0.0676989 0 2.28736e-07 0 0 0 0 0.00410371 0 1964.83
0.071542 0 2.69944e-07 0 0 0 0 0.00388717 0 2318.8
0.0756032 0 3.18575e-07 0 0 0 0 0.00367401 0 2736.54
0.079895 0 3.75967e-07 0 0 0 0 0.0034651 0 3229.53
0.0844305 0 4.43698e-07 0 0 0 0 0.00326121 0 3811.34
0.0892234 0 5.23632e-07 0 0 0 0 0.00306301 0 4497.96
0.0942883 0 6.17966e-07 0 0 0 0 0.00287109 0 5308.28
0.0996408 0 7.29294e-07 0 0 0 0 0.00268591 0 6264.59
0.105297 0 8.60678e-07 0 0 0 0 0.00250785 0 7393.17
0.111275 0 1.01573e-06 0 0 0 0 0.00233721 0 8725.07
0.117591 0 1.19872e-06 0 0 0 0 0.00217419 0 10296.9
0.124267 0 1.41467e-06 0 0 0 0 0.00201893 0 12151.9
0.131321 0 1.66953e-06 0 0 0 0 0.00187147 0 14341.1
0.138776 0 1.9703e-06 0 0 0 0 0.00173182 0 16924.7
0.146654 0 2.32525e-06 0 0 0 0 0.00159991 0 19973.8
0.154979 0 2.74415e-06 0 0 0 0 0.00147563 0 23572.1
0.163777 0 3.23852e-06 0 0 0 0 0.00135884 0 27818.7
0.173074 0 3.82195e-06 0 0 0 0 0.00124933 0 32830.3
0.182899 0 4.51048e-06 0 0 0 0 0.00114689 0 38744.7
0.193281 0 5.32305e-06 0 0 0 0 0.00105127 0 45724.7
0.204254 0 6.28202e-06 0 0 0 0 0.000962209 0 53962.1
0.215848 0 7.41374e-06 0 0 0 0 0.000879423 0 63683.5
0.228102 0 8.74934e-06 0 0 0 0 0.000802624 0 75156.3
0.24105 0 1.03256e-05 0 0 0 0 0.000731515 0 88695.9
0.254734 0 1.21857e-05 0 0 0 0 0.000665798 0 104675
0.269195 0 1.4381e-05 0 0 0 0 0.000605173 0 123532
0.284476 0 1.69718e-05 0 0 0 0 0.000549345 0 145787
0.300625 0 2.00293e-05 0 0 0 0 0.000498021 0 172051
0.317691 0 2.36377e-05 0 0 0 0 0.000450916 0 203046
0.335725 0 2.78961e-05 0 0 0 0 0.000407755 0 239625
0.354784 0 3.29216e-05 0 0 0 0 0.000368269 0 282795
0.374924 0 3.88525e-05 0 0 0 0 0.000332202 0 333741
0.396207 1.44064 4.58519e-05 3.6577e-06 6 1.40059 3.55601e-06 0.000299307 0.0733235 393865
0.418699 0 5.41123e-05 0 0 0 0 0.00026935 0 464821
0.442467 0 6.38607e-05 0 0 0 0 0.000242108 0 548560
0.467585 0 7.53654e-05 0 0 0 0 0.00021737 0 647384
0.494129 0 8.89427e-05 0 0 0 0 0.000194938 0 764012
0.522179 0 0.000104966 0 0 0 0 0.000174625 0 901651
0.551822 0 0.000123876 0 0 0 0 0.000156255 0 1.06409e+06
0.583147 3.63746 0.000146192 2.89656e-06 12 3.82844 3.04865e-06 0.000139664 0.248874 1.25578e+06
0.616251 0 0.000172529 0 0 0 0 0.0001247 0 1.48202e+06
0.651234 0 0.000203611 0 0 0 0 0.00011122 0 1.74901e+06
0.688203 16.3922 0.000240292 7.94161e-06 8 15.9844 7.74403e-06 9.90935e-05 0.641141 2.06409e+06
0.72727 0 0.000283581 0 0 0 0 8.81969e-05 0 2.43595e+06
0.768555 0 0.000334669 0 0 0 0 7.84179e-05 0 2.87479e+06
0.812184 11.0577 0.000394961 3.25929e-06 6 11.2942 3.32897e-06 6.96525e-05 0.280761 3.39269e+06
0.85829 0 0.000466114 0 0 0 0 6.1805e-05 0 4.00389e+06
0.907013 1.77094 0.000550086 3.74786e-07 24 1.80492 3.81977e-07 5.47875e-05 0.164177 4.7252e+06
0.958501 4.30744 0.000649185 7.72433e-07 24 4.05514 7.27188e-07 4.85194e-05 0.382082 5.57646e+06
1.01291 0 0.000766138 0 0 0 0 4.29272e-05 0 6.58107e+06
1.07041 0 0.00090416 0 0 0 0 3.79435e-05 0 7.76667e+06
1.13118 8.83509 0.00106705 9.63913e-07 12 8.72657 9.52073e-07 3.3507e-05 0.34521 9.16586e+06
1.19539 3.01671 0.00125928 2.78883e-07 30 2.95452 2.73134e-07 2.9562e-05 0.283015 1.08171e+07
1.26325 7.25046 0.00148614 5.67958e-07 24 7.14136 5.59411e-07 2.60578e-05 0.523105 1.27658e+07
1.33496 11.8421 0.00175387 7.86031e-07 24 11.8681 7.87759e-07 2.29484e-05 0.822049 1.50656e+07
1.41075 20.9131 0.00206984 1.17623e-06 32 21.2939 1.19765e-06 2.01923e-05 1.86405 1.77798e+07
1.49083 5.37344 0.00244272 2.56088e-07 48 5.25889 2.50628e-07 1.77518e-05 0.69245 2.09828e+07
1.57546 32.2672 0.00288279 1.30304e-06 6 30.7256 1.24079e-06 1.55929e-05 0.5014 2.4763e+07
1.66489 5.34732 0.00340213 1.82977e-07 84 5.25722 1.79893e-07 1.3685e-05 1.12313 2.92241e+07
1.75941 7.55801 0.00401503 2.19143e-07 48 7.47963 2.16871e-07 1.20007e-05 0.876524 3.44889e+07
1.85928 11.1092 0.00473835 2.72939e-07 72 11.2341 2.76008e-07 1.05151e-05 1.86889 4.07021e+07
1.96483 17.3456 0.00559198 3.61105e-07 54 16.9502 3.52875e-07 9.20606e-06 2.11814 4.80347e+07
2.07637 17.2701 0.00659939 3.04649e-07 104 17.3438 3.0595e-07 8.05366e-06 3.93406 5.66883e+07
2.19424 9.80728 0.00778828 1.46594e-07 120 9.93856 1.48557e-07 7.04008e-06 2.49874 6.69008e+07
2.3188 11.9189 0.00919136 1.50961e-07 156 11.5726 1.46575e-07 6.1494e-06 3.82963 7.89532e+07
2.45043 14.5195 0.0108472 1.55827e-07 126 14.401 1.54556e-07 5.36741e-06 3.65804 9.31768e+07
2.58954 11.9608 0.0128014 1.08771e-07 192 12.08 1.09855e-07 4.68145e-06 4.46102 1.09963e+08
2.73654 42.1151 0.0151076 3.24529e-07 152 42.7546 3.29457e-07 4.08023e-06 12.0896 1.29773e+08
2.89188 16.2261 0.0178292 1.05948e-07 378 16.3129 1.06514e-07 3.55373e-06 11.2693 1.53152e+08
3.05605 16.9615 0.0210412 9.38436e-08 264 16.7795 9.28366e-08 3.09304e-06 8.00982 1.80743e+08
3.22953 19.4361 0.0248319 9.11194e-08 366 19.261 9.02984e-08 2.69025e-06 12.3965 2.13304e+08
3.41286 19.1079 0.0293054 7.5906e-08 428 18.988 7.54296e-08 2.33837e-06 13.8933 2.51731e+08
3.6066 23.3345 0.0345848 7.85459e-08 486 22.9934 7.73975e-08 2.0312e-06 18.7935 2.97081e+08
3.81134 20.0294 0.0408154 5.71288e-08 600 19.9702 5.69597e-08 1.76327e-06 19.4397 3.50601e+08
4.0277 27.018 0.0481684 6.52983e-08 738 26.9766 6.51981e-08 1.52972e-06 31.5026 4.13763e+08
4.25634 31.1435 0.056846 6.37789e-08 824 31.084 6.36572e-08 1.32631e-06 39.6242 4.88304e+08
4.49796 31.9336 0.067087 5.54141e-08 954 31.6392 5.49031e-08 1.14926e-06 45.9993 5.76273e+08
4.7533 33.7419 0.0791729 4.96139e-08 1094 33.4936 4.92488e-08 9.95263e-07 54.536 6.8009e+08
5.02313 32.3162 0.0934361 4.02638e-08 1332 32.3675 4.03278e-08 8.61414e-07 62.2598 8.0261e+08
5.30828 36.5469 0.110269 3.85841e-08 1614 36.4355 3.84664e-08 7.45152e-07 83.5731 9.47202e+08
5.60962 46.5664 0.130134 4.16574e-08 1850 46.5751 4.16651e-08 6.44232e-07 119.625 1.11784e+09
5.92807 39.7435 0.153578 3.01264e-08 2238 39.8117 3.01781e-08 5.56685e-07 121.115 1.31923e+09
6.26459 43.2312 0.181246 2.77677e-08 2546 43.3229 2.78266e-08 4.80786e-07 147.044 1.55689e+09
6.62021 44.5449 0.213898 2.42439e-08 3264 44.6131 2.4281e-08 4.15026e-07 190.668 1.83737e+09
6.99602 46.8807 0.252432 2.16202e-08 3506 46.9041 2.1631e-08 3.58083e-07 211.685 2.16837e+09
7.39317 53.7984 0.297908 2.10231e-08 4506 53.7468 2.10029e-08 3.08803e-07 306.766 2.55901e+09
7.81286 57.9311 0.351577 1.91823e-08 5018 57.7079 1.91084e-08 2.66181e-07 361.622 3.02002e+09
8.25637 62.7596 0.414914 1.76089e-08 5852 62.7517 1.76067e-08 2.29336e-07 449.328 3.56409e+09
8.72507 65.1537 0.489662 1.549e-08 7362 64.9969 1.54528e-08 1.97503e-07 577.398 4.20617e+09
9.22037 68.7175 0.577876 1.38434e-08 8306 68.5363 1.38069e-08 1.70014e-07 676.315 4.96392e+09
9.74378 72.04 0.681982 1.22973e-08 9698 71.9121 1.22755e-08 1.46289e-07 815.232 5.85818e+09
10.2969 76.5163 0.804843 1.10676e-08 11816 76.3759 1.10473e-08 1.25822e-07 1039.36 6.91355e+09
10.8814 89.7747 0.949838 1.10031e-08 13682 89.5048 1.097e-08 1.08175e-07 1391.67 8.15905e+09
11.4992 88.8258 1.12095 9.22489e-09 16152 88.7708 9.21918e-09 9.29669e-08 1602.73 9.62892e+09
12.1519 93.202 1.3229 8.2018e-09 19472 93.078 8.19089e-09 7.98658e-08 1999.67 1.13636e+10
12.8418 98.7849 1.56122 7.36608e-09 22670 98.6234 7.35404e-09 6.85852e-08 2434.77 1.34108e+10
13.5708 105.587 1.84248 6.67143e-09 26224 105.488 6.66517e-09 5.88765e-08 2971.5 1.58268e+10
14.3411 110.344 2.17441 5.90768e-09 31640 110.236 5.90191e-09 5.05241e-08 3699.6 1.8678e+10
15.1552 117.517 2.56613 5.33127e-09 37484 117.315 5.32212e-09 4.33417e-08 4610.74 2.20429e+10
16.0156 128.266 3.02843 4.93065e-09 43856 128.064 4.92291e-09 3.71677e-08 5817.91 2.6014e+10
16.9247 136.175 3.574 4.43558e-09 51362 135.986 4.42944e-09 3.18628e-08 7150.05 3.07005e+10
17.8855 141.393 4.21787 3.90253e-09 61636 141.134 3.89537e-09 2.73063e-08 8808.81 3.62312e+10
18.9008 151.474 4.97773 3.54255e-09 72218 151.165 3.53533e-09 2.33941e-08 10935.9 4.27584e+10
19.9738 160.08 5.87448 3.17232e-09 84586 159.813 3.16703e-09 2.00364e-08 13392.3 5.04614e+10
21.1076 170.918 6.93279 2.87005e-09 100708 170.626 2.86515e-09 1.71555e-08 16848 5.95522e+10
22.3058 181.831 8.18175 2.58721e-09 118712 181.565 2.58342e-09 1.46847e-08 20915.3 7.02807e+10
23.5721 188.868 9.65571 2.27711e-09 140410 188.527 2.273e-09 1.25662e-08 25443.7 8.29419e+10
24.9102 199.629 11.3952 2.03944e-09 164374 199.249 2.03556e-09 1.07504e-08 31183.2 9.78842e+10
26.3243 211.849 13.4481 1.8339e-09 194680 211.519 1.83104e-09 9.19452e-09 38830.1 1.15518e+11
27.8187 220.549 15.8708 1.61777e-09 230196 220.198 1.61519e-09 7.86182e-09 47368.5 1.36329e+11
29.3979 234.351 18.73 1.4566e-09 271156 233.953 1.45413e-09 6.72061e-09 58769.3 1.60889e+11
31.0667 246.171 22.1042 1.2965e-09 321076 245.743 1.29424e-09 5.74366e-09 72475.3 1.89874e+11
32.8303 259.365 26.0864 1.15747e-09 377436 258.909 1.15543e-09 4.90756e-09 89019.6 2.2408e+11
34.694 273.702 30.7859 1.03499e-09 447594 273.187 1.03304e-09 4.19221e-09 110504 2.64449e+11
36.6634 287.82 36.3321 9.22234e-10 525078 287.308 9.20595e-10 3.58032e-09 135252 3.1209e+11
38.7447 304.41 42.8774 8.26498e-10 621924 303.844 8.24961e-10 3.05709e-09 168140 3.68314e+11
40.9442 319.508 50.6018 7.35066e-10 732630 318.905 7.33677e-10 2.60976e-09 206353 4.34667e+11
43.2685 336.505 59.7179 6.55989e-10 865596 335.992 6.5499e-10 2.22743e-09 254922 5.12973e+11
45.7247 352.826 70.4762 5.82811e-10 1.02168e+06 352.295 5.81934e-10 1.90073e-09 313271 6.05386e+11
48.3204 369.536 83.1727 5.17233e-10 1.20544e+06 368.901 5.16344e-10 1.62163e-09 384484 7.14448e+11
51.0634 387.201 98.1565 4.59227e-10 1.42103e+06 386.534 4.58435e-10 1.38326e-09 471768 8.43158e+11
53.9621 406.724 115.84 4.08745e-10 1.67997e+06 406.024 4.08042e-10 1.1797e-09 582077 9.95055e+11
57.0254 427.185 136.709 3.63773e-10 1.98018e+06 426.429 3.63129e-10 1.00592e-09 716097 1.17432e+12
60.2626 448.458 161.337 3.23592e-10 2.33957e+06 447.649 3.23009e-10 8.57591e-10 882783 1.38587e+12
63.6835 471.788 190.402 2.88459e-10 2.75676e+06 470.95 2.87947e-10 7.3101e-10 1.08783e+06 1.63554e+12
67.2987 494.828 224.704 2.56362e-10 3.25638e+06 493.989 2.55927e-10 6.23009e-10 1.33997e+06 1.93019e+12
71.1191 522.206 265.185 2.29247e-10 3.84387e+06 521.253 2.28828e-10 5.30879e-10 1.65988e+06 2.27792e+12
75.1563 548.956 312.958 2.04202e-10 4.53277e+06 547.98 2.0384e-10 4.52303e-10 2.04642e+06 2.68829e+12
79.4227 578.999 369.339 1.825e-10 5.35083e+06 577.976 1.82178e-10 3.85299e-10 2.53446e+06 3.17259e+12
83.9313 611.888 435.876 1.63425e-10 6.32174e+06 610.757 1.63123e-10 3.28173e-10 3.14813e+06 3.74415e+12
88.6959 648.477 514.4 1.46759e-10 7.44986e+06 647.24 1.46479e-10 2.79476e-10 3.91207e+06 4.41866e+12
93.7309 688.607 607.071 1.32051e-10 8.79764e+06 687.334 1.31807e-10 2.37972e-10 4.88182e+06 5.2147e+12
99.0518 733.211 716.436 1.19141e-10 1.03827e+07 731.785 1.18909e-10 2.02605e-10 6.1055e+06 6.15414e+12
104.675 784.078 845.504 1.07958e-10 1.22515e+07 782.494 1.0774e-10 1.72471e-10 7.6688e+06 7.26283e+12
110.617 843.586 997.824 9.84205e-11 1.44573e+07 841.828 9.82154e-11 1.468e-10 9.69275e+06 8.57124e+12
116.896 912.628 1177.58 9.02218e-11 1.70664e+07 910.655 9.00268e-11 1.24935e-10 1.23245e+07 1.01154e+13
123.532 993.68 1389.73 8.32389e-11 2.0139e+07 991.398 8.30477e-11 1.06313e-10 1.5768e+07 1.19377e+13
130.545 1088 1640.09 7.72269e-11 2.37643e+07 1085.43 7.7045e-11 9.04567e-11 2.02886e+07 1.40883e+13
137.955 1199.54 1935.56 7.21468e-11 2.80503e+07 1196.58 7.1969e-11 7.69563e-11 2.62972e+07 1.66263e+13
145.787 1332.29 2284.26 6.78993e-11 3.30981e+07 1328.9 6.77261e-11 6.54636e-11 3.43296e+07 1.96216e+13
154.063 1488.98 2695.77 6.43009e-11 3.90634e+07 1485.06 6.41316e-11 5.56812e-11 4.51106e+07 2.31565e+13
162.808 1676.34 3181.42 6.13411e-11 4.61057e+07 1671.73 6.11725e-11 4.73556e-11 5.9722e+07 2.73282e+13
172.051 1899.66 3754.56 5.89014e-11 5.44046e+07 1894.3 5.87354e-11 4.02708e-11 7.9574e+07 3.22515e+13
181.818 2165 4430.96 5.68815e-11 6.42064e+07 2158.73 5.67166e-11 3.42426e-11 1.06655e+08 3.80616e+13
192.139 2481.61 5229.21 5.5247e-11 7.57748e+07 2474.21 5.50821e-11 2.91139e-11 1.43791e+08 4.49186e+13
203.046 2861.04 6171.26 5.39709e-11 8.94213e+07 2852.31 5.38062e-11 2.4751e-11 1.94988e+08 5.30108e+13
214.572 3315.11 7283.03 5.29902e-11 1.05538e+08 3304.77 5.28249e-11 2.10401e-11 2.65802e+08 6.25608e+13
226.753 3861.84 8595.09 5.23063e-11 1.24552e+08 3849.51 5.21393e-11 1.78839e-11 3.64285e+08 7.38313e+13
239.625 4517.33 10143.5 5.18446e-11 1.46987e+08 4502.67 5.16763e-11 1.51999e-11 5.01351e+08 8.71322e+13
253.228 5307.43 11970.9 5.1614e-11 1.7347e+08 5289.88 5.14434e-11 1.29176e-11 6.93121e+08 1.02829e+14
267.603 6263.49 14127.5 5.16132e-11 2.04703e+08 6242.35 5.14391e-11 1.09771e-11 9.62489e+08 1.21354e+14
282.795 7430.07 16672.6 5.18799e-11 2.4161e+08 7404.44 5.1701e-11 9.3274e-12 1.34386e+09 1.43217e+14
298.848 8864.42 19676.2 5.24468e-11 2.85122e+08 8833.06 5.22613e-11 7.925e-12 1.88691e+09 1.69017e+14
315.813 10646.6 23220.9 5.33755e-11 3.36491e+08 10607.9 5.31813e-11 6.73295e-12 2.66754e+09 1.99466e+14
333.741 12901 27404.3 5.48045e-11 3.97115e+08 12852.3 5.45974e-11 5.71979e-12 3.80498e+09 2.35401e+14
352.686 15818.9 32341.2 5.69418e-11 4.68637e+08 15756.2 5.6716e-11 4.85874e-12 5.49217e+09 2.77809e+14
372.707 19700.1 38167.6 6.00874e-11 5.53074e+08 19617.2 5.98347e-11 4.12703e-12 8.05247e+09 3.27857e+14
393.865 25076.9 45043.5 6.48115e-11 6.52716e+08 24962.8 6.45166e-11 3.50528e-12 1.20685e+10 3.86921e+14
416.224 29605.6 53158.3 6.48355e-11 2.2184e+08 31320 6.859e-11 2.97701e-12 4.83139e+09 4.56626e+14
439.852 0 62734.9 0 0 0 0 2.52819e-12 0 5.38888e+14
464.821 0 74036.7 0 0 0 0 2.1469e-12 0 6.35971e+14
491.207 0 87374.6 0 0 0 0 1.82301e-12 0 7.50542e+14
519.092 0 103115 0 0 0 0 1.54789e-12 0 8.85755e+14
548.56 0 121692 0 0 0 0 1.31422e-12 0 1.04533e+15
579.7 0 143615 0 0 0 0 1.11576e-12 0 1.23364e+15
612.608 0 169488 0 0 0 0 9.47223e-13 0 1.45589e+15
647.384 0 200021 0 0 0 0 8.041e-13 0 1.71817e+15
684.134 0 236056 0 0 0 0 6.82568e-13 0 2.0277e+15
722.971 0 278582 0 0 0 0 5.79376e-13 0 2.393e+15
764.012 0 328769 0 0 0 0 4.91762e-13 0 2.8241e+15
0.958847
200
1.0655e+09
8589934592
0.0129181 0.00150623 1.58924e-09 0.000110335 6 0.00149244 0.000109325 0.00677225 0.0977533 13.6515
0.0136515 0 1.87554e-09 0 0 0 0 0.00688819 0 16.1108
0.0144264 0 2.21343e-09 0 0 0 0 0.00699249 0 19.0132
0.0152454 0 2.61218e-09 0 0 0 0 0.00708412 0 22.4385
0.0161108 0 3.08278e-09 0 0 0 0 0.00716212 0 26.4808
0.0170254 0 3.63815e-09 0 0 0 0 0.00722559 0 31.2514
0.0179919 0.00407936 4.29357e-09 0.000110607 12 0.0040741 0.000110465 0.00727371 0.182477 36.8815
0.0190132 0 5.06707e-09 0 0 0 0 0.00730578 0 43.5258
0.0200925 0 5.97991e-09 0 0 0 0 0.00732122 0 51.367
0.0212331 0.00906195 7.05721e-09 0.000149485 8 0.00905406 0.000149355 0.00731958 0.163381 60.621
0.0224385 0 8.32858e-09 0 0 0 0 0.00730056 0 71.542
0.0237123 0 9.829e-09 0 0 0 0 0.00726401 0 84.4305
0.0250583 0.018765 1.15997e-08 0.000188327 6 0.0187562 0.000188238 0.00720995 0.156722 99.6408
0.0264808 0 1.36894e-08 0 0 0 0 0.00713857 0 117.591
0.0279841 0.0110116 1.61556e-08 7.93484e-05 24 0.0110003 7.92669e-05 0.00705021 0.270114 138.776
0.0295727 0 1.90661e-08 0 0 0 0 0.00694538 0 163.777
0.0312514 0.01699 2.25009e-08 8.7903e-05 24 0.0170763 8.83493e-05 0.00682475 0.309121 193.281
0.0330255 0 2.65545e-08 0 0 0 0 0.00668915 0 228.102
0.0349003 0.0272816 3.13384e-08 0.000101345 12 0.0270632 0.000100534 0.00653951 0.185968 269.195
0.0368815 0.0575493 3.69841e-08 0.000181149 30 0.0569364 0.00017922 0.00637693 0.852207 317.691
0.0389751 0.0483868 4.36469e-08 0.000129058 24 0.0478891 0.00012773 0.00620256 0.499373 374.924
0.0411876 0.0527496 5.151e-08 0.000119217 24 0.0523914 0.000118407 0.00601767 0.475468 442.467
0.0435258 0.0444778 6.07896e-08 8.51773e-05 8 0.0444744 8.51708e-05 0.00582358 0.11701 522.179
0.0459966 0.0632203 7.1741e-08 0.000102589 72 0.0627183 0.000101774 0.00562166 1.31391 616.251
0.0486077 0 8.46654e-08 0 0 0 0 0.0054133 0 727.27
0.051367 0.12186 9.99181e-08 0.00014198 54 0.121244 0.000141262 0.00519989 1.47444 858.29
0.054283 0.0892061 1.17919e-07 8.80689e-05 60 0.0893518 8.82127e-05 0.0049828 1.06047 1012.91
0.0573645 0.0940998 1.39162e-07 7.87187e-05 96 0.0936708 7.83599e-05 0.00476339 1.58648 1195.39
0.060621 0.105786 1.64232e-07 7.49857e-05 24 0.104352 7.39698e-05 0.00454293 0.396145 1410.75
0.0640622 0.133671 1.93819e-07 8.02881e-05 134 0.133993 8.04815e-05 0.00432265 2.48889 1664.89
0.0676989 0.134952 2.28736e-07 6.86839e-05 120 0.134233 6.83177e-05 0.00410371 2.00844 1964.83
0.071542 0.140581 2.69944e-07 6.06266e-05 108 0.138224 5.96103e-05 0.00388717 1.68443 2318.8
0.0756032 0.213228 3.18575e-07 7.79189e-05 174 0.211771 7.73863e-05 0.00367401 3.69021 2736.54
0.079895 0.168742 3.75967e-07 5.22496e-05 168 0.167377 5.18269e-05 0.0034651 2.53324 3229.53
0.0844305 0.238507 4.43698e-07 6.25782e-05 168 0.239179 6.27545e-05 0.00326121 3.2237 3811.34
0.0892234 0.250348 5.23632e-07 5.56581e-05 290 0.249606 5.54931e-05 0.00306301 5.2696 4497.96
0.0942883 0.286876 6.17966e-07 5.4043e-05 288 0.286658 5.40021e-05 0.00287109 5.42108 5308.28
0.0996408 0.292332 7.29294e-07 4.66641e-05 366 0.290042 4.62987e-05 0.00268591 6.35877 6264.59
0.105297 0.319284 8.60678e-07 4.31864e-05 420 0.317385 4.29296e-05 0.00250785 7.23259 7393.17
0.111275 0.349083 1.01573e-06 4.00093e-05 398 0.348478 3.99399e-05 0.00233721 6.81311 8725.07
0.117591 0.407446 1.19872e-06 3.95697e-05 624 0.40815 3.96381e-05 0.00217419 11.3566 10296.9
0.124267 0.426935 1.41467e-06 3.51331e-05 642 0.425744 3.50351e-05 0.00201893 11.172 12151.9
0.131321 0.472655 1.66953e-06 3.2958e-05 800 0.472353 3.2937e-05 0.00187147 14.0886 14341.1
0.138776 0.507992 1.9703e-06 3.00148e-05 858 0.509413 3.00987e-05 0.00173182 14.8703 16924.7
0.146654 0.520524 2.32525e-06 2.60604e-05 1080 0.524609 2.62649e-05 0.00159991 17.5918 19973.8
0.154979 0.610426 2.74415e-06 2.58961e-05 1286 0.614046 2.60497e-05 0.00147563 22.5682 23572.1
0.163777 0.625029 3.23852e-06 2.2468e-05 1650 0.627194 2.25458e-05 0.00135884 27.2822 27818.7
0.173074 0.689473 3.82195e-06 2.10011e-05 1778 0.690413 2.10298e-05 0.00124933 29.888 32830.3
0.182899 0.789205 4.51048e-06 2.03694e-05 2112 0.790223 2.03956e-05 0.00114689 37.5102 38744.7
0.193281 0.857654 5.32305e-06 1.87569e-05 2570 0.858909 1.87844e-05 0.00105127 45.8542 45724.7
0.204254 0.942845 6.28202e-06 1.74723e-05 3030 0.942678 1.74693e-05 0.000962209 55.0205 53962.1
0.215848 0.99882 7.41374e-06 1.56841e-05 3434 0.999124 1.56889e-05 0.000879423 61.2439 63683.5
0.228102 1.09257 8.74934e-06 1.45373e-05 4218 1.09283 1.45407e-05 0.000802624 76.3974 75156.3
0.24105 1.22651 1.03256e-05 1.38282e-05 4766 1.22834 1.38489e-05 0.000731515 90.0944 88695.9
0.254734 1.37643 1.21857e-05 1.31496e-05 6026 1.37557 1.31414e-05 0.000665798 119.015 104675
0.269195 1.51941 1.4381e-05 1.22997e-05 6480 1.52081 1.2311e-05 0.000605173 131.701 123532
0.284476 1.66288 1.69718e-05 1.14063e-05 8162 1.66599 1.14276e-05 0.000549345 169.471 145787
0.300625 1.85841 2.00293e-05 1.08015e-05 9578 1.85885 1.08041e-05 0.000498021 207.737 172051
0.317691 2.0049 2.36377e-05 9.87412e-06 11234 2.00283 9.86394e-06 0.000450916 246.001 203046
0.335725 2.24092 2.78961e-05 9.35176e-06 13344 2.23685 9.33479e-06 0.000407755 306.041 239625
0.354784 2.47877 3.29216e-05 8.76526e-06 15464 2.47561 8.75411e-06 0.000368269 368.062 282795
0.374924 2.78174 3.88525e-05 8.33503e-06 18458 2.7788 8.32624e-06 0.000332202 463.116 333741
0.396207 2.9954 4.58519e-05 7.60515e-06 22232 2.98869 7.5881e-06 0.000299307 564.898 393865
0.418699 3.4317 5.41123e-05 7.38285e-06 25628 3.42318 7.36452e-06 0.00026935 702.461 464821
0.442467 3.76666 6.38607e-05 6.86645e-06 30320 3.75916 6.85279e-06 0.000242108 859.91 548560
0.467585 4.19565 7.53654e-05 6.48093e-06 35452 4.18877 6.4703e-06 0.00021737 1057.01 647384
0.494129 4.69876 8.89427e-05 6.15011e-06 41792 4.69525 6.14552e-06 0.000194938 1318.5 764012
0.522179 5.23909 0.000104966 5.81056e-06 49988 5.23566 5.80674e-06 0.000174625 1663.33 901651
0.551822 5.81967 0.000123876 5.46917e-06 59110 5.8126 5.46253e-06 0.000156255 2068.95 1.06409e+06
0.583147 6.65926 0.000146192 5.30288e-06 69716 6.64919 5.29486e-06 0.000139664 2647.03 1.25578e+06
0.616251 7.38814 0.000172529 4.9852e-06 82210 7.37078 4.97348e-06 0.0001247 3286.55 1.48202e+06
0.651234 8.20687 0.000203611 4.69231e-06 96722 8.18955 4.68241e-06 0.00011122 4080.63 1.74901e+06
0.688203 9.18554 0.000240292 4.45015e-06 113098 9.17002 4.44264e-06 9.90935e-05 5079.08 2.06409e+06
0.72727 10.3506 0.000283581 4.24909e-06 135190 10.3345 4.24251e-06 8.81969e-05 6513.09 2.43595e+06
0.768555 11.5987 0.000334669 4.03461e-06 158170 11.5849 4.02983e-06 7.84179e-05 8137.87 2.87479e+06
0.812184 12.8912 0.000394961 3.79969e-06 188560 12.8682 3.79292e-06 6.96525e-05 10286.3 3.39269e+06
0.85829 14.4482 0.000466114 3.60854e-06 220444 14.4228 3.60218e-06 6.1805e-05 12870.8 4.00389e+06
0.907013 16.3059 0.000550086 3.45084e-06 261388 16.2803 3.44541e-06 5.47875e-05 16463.7 4.7252e+06
0.958501 18.0755 0.000649185 3.2414e-06 308244 18.0464 3.23618e-06 4.85194e-05 20592.6 5.57646e+06
1.01291 20.2072 0.000766138 3.0705e-06 364396 20.1715 3.06508e-06 4.29272e-05 26064.5 6.58107e+06
1.07041 22.6579 0.00090416 2.91732e-06 429162 22.6146 2.91175e-06 3.79435e-05 32996.5 7.76667e+06
1.13118 25.2686 0.00106705 2.75682e-06 506358 25.2229 2.75183e-06 3.3507e-05 41661 9.16586e+06
1.19539 28.1687 0.00125928 2.60409e-06 598590 28.1186 2.59945e-06 2.9562e-05 52729.2 1.08171e+07
1.26325 31.2946 0.00148614 2.45143e-06 704844 31.2376 2.44696e-06 2.60578e-05 66309.3 1.27658e+07
1.33496 34.6884 0.00175387 2.30248e-06 834620 34.6227 2.29812e-06 2.29484e-05 83739.7 1.50656e+07
1.41075 38.5041 0.00206984 2.16561e-06 981444 38.4304 2.16147e-06 2.01923e-05 105259 1.77798e+07
1.49083 42.562 0.00244272 2.02842e-06 1.15998e+06 42.4855 2.02478e-06 1.77518e-05 132546 2.09828e+07
1.57546 47.0347 0.00288279 1.8994e-06 1.36931e+06 46.9515 1.89604e-06 1.55929e-05 166798 2.4763e+07
1.66489 51.5842 0.00340213 1.76513e-06 1.61652e+06 51.4876 1.76182e-06 1.3685e-05 208502 2.92241e+07
1.75941 56.8158 0.00401503 1.64737e-06 1.90601e+06 56.712 1.64436e-06 1.20007e-05 261643 3.44889e+07
1.85928 62.0448 0.00473835 1.52436e-06 2.24913e+06 61.9326 1.52161e-06 1.05151e-05 326054 4.07021e+07
1.96483 67.8194 0.00559198 1.41188e-06 2.65744e+06 67.6977 1.40935e-06 9.20606e-06 407557 4.80347e+07
2.07637 73.9764 0.00659939 1.30497e-06 3.13125e+06 73.8438 1.30263e-06 8.05366e-06 507370 5.66883e+07
2.19424 80.7155 0.00778828 1.2065e-06 3.69915e+06 80.5725 1.20436e-06 7.04008e-06 633943 6.69008e+07
2.3188 87.6765 0.00919136 1.11049e-06 4.36472e+06 87.5232 1.10855e-06 6.1494e-06 788202 7.89532e+07
2.45043 95.166 0.0108472 1.02135e-06 5.14913e+06 94.9997 1.01956e-06 5.36741e-06 979813 9.31768e+07
2.58954 103.031 0.0128014 9.36963e-07 6.07894e+06 102.855 9.35364e-07 4.68145e-06 1.21666e+06 1.09963e+08
2.73654 111.337 0.0151076 8.57936e-07 7.17304e+06 111.144 8.56452e-07 4.08023e-06 1.50825e+06 1.29773e+08
2.89188 120.061 0.0178292 7.83936e-07 8.46557e+06 119.863 7.82642e-07 3.55373e-06 1.86746e+06 1.53152e+08
3.05605 129.378 0.0210412 7.15814e-07 9.98773e+06 129.164 7.14632e-07 3.09304e-06 2.31144e+06 1.80743e+08
3.22953 139.163 0.0248319 6.52416e-07 1.1797e+07 138.924 6.51297e-07 2.69025e-06 2.8609e+06 2.13304e+08
3.41286 149.771 0.0293054 5.94963e-07 1.39144e+07 149.512 5.93935e-07 2.33837e-06 3.5403e+06 2.51731e+08
3.6066 160.796 0.0345848 5.41254e-07 1.64163e+07 160.527 5.40347e-07 2.0312e-06 4.37444e+06 2.97081e+08
3.81134 172.179 0.0408154 4.91095e-07 1.93821e+07 171.893 4.90282e-07 1.76327e-06 5.39821e+06 3.50601e+08
4.0277 184.569 0.0481684 4.46075e-07 2.28754e+07 184.258 4.45323e-07 1.52972e-06 6.67059e+06 4.13763e+08
4.25634 197.548 0.056846 4.0456e-07 2.69929e+07 197.216 4.0388e-07 1.32631e-06 8.23358e+06 4.88304e+08
4.49796 211.207 0.067087 3.66506e-07 3.18542e+07 210.855 3.65895e-07 1.14926e-06 1.01585e+07 5.76273e+08
4.7533 225.551 0.0791729 3.31649e-07 3.75892e+07 225.178 3.311e-07 9.95263e-07 1.25258e+07 6.8009e+08
5.02313 240.542 0.0934361 2.997e-07 4.43706e+07 240.144 2.99204e-07 8.61414e-07 1.54372e+07 8.0261e+08
5.30828 256.125 0.110269 2.70401e-07 5.23593e+07 255.702 2.69955e-07 7.45152e-07 1.90002e+07 9.47202e+08
5.60962 272.678 0.130134 2.43932e-07 6.1787e+07 272.231 2.43532e-07 6.44232e-07 2.33951e+07 1.11784e+09
5.92807 290.01 0.153578 2.19834e-07 7.29346e+07 289.526 2.19467e-07 5.56685e-07 2.88017e+07 1.31923e+09
6.26459 308.288 0.181246 1.98015e-07 8.60651e+07 307.773 1.97685e-07 4.80786e-07 3.54466e+07 1.55689e+09
6.62021 327.443 0.213898 1.78213e-07 1.01558e+08 326.898 1.77917e-07 4.15026e-07 4.36093e+07 1.83737e+09
6.99602 347.54 0.252432 1.60277e-07 1.1986e+08 346.965 1.60012e-07 3.58083e-07 5.36491e+07 2.16837e+09
7.39317 368.348 0.297908 1.43942e-07 1.41457e+08 367.739 1.43704e-07 3.08803e-07 6.59369e+07 2.55901e+09
7.81286 390.336 0.351577 1.29249e-07 1.66936e+08 389.692 1.29036e-07 2.66181e-07 8.10589e+07 3.02002e+09
8.25637 413.159 0.414914 1.15923e-07 1.97025e+08 412.475 1.15731e-07 2.29336e-07 9.95904e+07 3.56409e+09
8.72507 437.416 0.489662 1.03994e-07 2.32497e+08 436.688 1.03821e-07 1.97503e-07 1.2242e+08 4.20617e+09
9.22037 463.412 0.577876 9.33561e-08 2.74404e+08 462.633 9.3199e-08 1.70014e-07 1.50678e+08 4.96392e+09
9.74378 491.868 0.681982 8.39625e-08 3.2382e+08 491.019 8.38176e-08 1.46289e-07 1.85856e+08 5.85818e+09
10.2969 523.638 0.804843 7.57409e-08 3.82165e+08 522.709 7.56065e-08 1.25822e-07 2.3005e+08 6.91355e+09
10.8814 561.206 0.949838 6.87833e-08 4.51027e+08 560.137 6.86522e-08 1.08175e-07 2.86785e+08 8.15905e+09
11.4992 609.22 1.12095 6.32698e-08 5.32251e+08 607.934 6.31363e-08 9.29669e-08 3.6223e+08 9.62892e+09
12.1519 676.747 1.3229 5.95539e-08 6.28157e+08 675.054 5.9405e-08 7.98658e-08 4.68401e+08 1.13636e+10
12.8418 752.492 1.56122 5.6111e-08 3.82727e+08 778.856 5.80769e-08 6.85852e-08 3.13117e+08 1.34108e+10
13.5708 0 1.84248 0 0 0 0 5.88765e-08 0 1.58268e+10
14.3411 0 2.17441 0 0 0 0 5.05241e-08 0 1.8678e+10
15.1552 0 2.56613 0 0 0 0 4.33417e-08 0 2.20429e+10
16.0156 0 3.02843 0 0 0 0 3.71677e-08 0 2.6014e+10
16.9247 0 3.574 0 0 0 0 3.18628e-08 0 3.07005e+10
17.8855 0 4.21787 0 0 0 0 2.73063e-08 0 3.62312e+10
18.9008 0 4.97773 0 0 0 0 2.33941e-08 0 4.27584e+10
19.9738 0 5.87448 0 0 0 0 2.00364e-08 0 5.04614e+10
21.1076 0 6.93279 0 0 0 0 1.71555e-08 0 5.95522e+10
22.3058 0 8.18175 0 0 0 0 1.46847e-08 0 7.02807e+10
23.5721 0 9.65571 0 0 0 0 1.25662e-08 0 8.29419e+10
24.9102 0 11.3952 0 0 0 0 1.07504e-08 0 9.78842e+10
26.3243 0 13.4481 0 0 0 0 9.19452e-09 0 1.15518e+11
27.8187 0 15.8708 0 0 0 0 7.86182e-09 0 1.36329e+11
29.3979 0 18.73 0 0 0 0 6.72061e-09 0 1.60889e+11
31.0667 0 22.1042 0 0 0 0 5.74366e-09 0 1.89874e+11
32.8303 0 26.0864 0 0 0 0 4.90756e-09 0 2.2408e+11
34.694 0 30.7859 0 0 0 0 4.19221e-09 0 2.64449e+11
36.6634 0 36.3321 0 0 0 0 3.58032e-09 0 3.1209e+11
38.7447 0 42.8774 0 0 0 0 3.05709e-09 0 3.68314e+11
40.9442 0 50.6018 0 0 0 0 2.60976e-09 0 4.34667e+11
43.2685 0 59.7179 0 0 0 0 2.22743e-09 0 5.12973e+11
45.7247 0 70.4762 0 0 0 0 1.90073e-09 0 6.05386e+11
48.3204 0 83.1727 0 0 0 0 1.62163e-09 0 7.14448e+11
51.0634 0 98.1565 0 0 0 0 1.38326e-09 0 8.43158e+11
53.9621 0 115.84 0 0 0 0 1.1797e-09 0 9.95055e+11
57.0254 0 136.709 0 0 0 0 1.00592e-09 0 1.17432e+12
60.2626 0 161.337 0 0 0 0 8.57591e-10 0 1.38587e+12
63.6835 0 190.402 0 0 0 0 7.3101e-10 0 1.63554e+12
67.2987 0 224.704 0 0 0 0 6.23009e-10 0 1.93019e+12
71.1191 0 265.185 0 0 0 0 5.30879e-10 0 2.27792e+12
75.1563 0 312.958 0 0 0 0 4.52303e-10 0 2.68829e+12
79.4227 0 369.339 0 0 0 0 3.85299e-10 0 3.17259e+12
83.9313 0 435.876 0 0 0 0 3.28173e-10 0 3.74415e+12
88.6959 0 514.4 0 0 0 0 2.79476e-10 0 4.41866e+12
93.7309 0 607.071 0 0 0 0 2.37972e-10 0 5.2147e+12
99.0518 0 716.436 0 0 0 0 2.02605e-10 0 6.15414e+12
104.675 0 845.504 0 0 0 0 1.72471e-10 0 7.26283e+12
110.617 0 997.824 0 0 0 0 1.468e-10 0 8.57124e+12
116.896 0 1177.58 0 0 0 0 1.24935e-10 0 1.01154e+13
123.532 0 1389.73 0 0 0 0 1.06313e-10 0 1.19377e+13
130.545 0 1640.09 0 0 0 0 9.04567e-11 0 1.40883e+13
137.955 0 1935.56 0 0 0 0 7.69563e-11 0 1.66263e+13
145.787 0 2284.26 0 0 0 0 6.54636e-11 0 1.96216e+13
154.063 0 2695.77 0 0 0 0 5.56812e-11 0 2.31565e+13
162.808 0 3181.42 0 0 0 0 4.73556e-11 0 2.73282e+13
172.051 0 3754.56 0 0 0 0 4.02708e-11 0 3.22515e+13
181.818 0 4430.96 0 0 0 0 3.42426e-11 0 3.80616e+13
192.139 0 5229.21 0 0 0 0 2.91139e-11 0 4.49186e+13
203.046 0 6171.26 0 0 0 0 2.4751e-11 0 5.30108e+13
214.572 0 7283.03 0 0 0 0 2.10401e-11 0 6.25608e+13
226.753 0 8595.09 0 0 0 0 1.78839e-11 0 7.38313e+13
239.625 0 10143.5 0 0 0 0 1.51999e-11 0 8.71322e+13
253.228 0 11970.9 0 0 0 0 1.29176e-11 0 1.02829e+14
267.603 0 14127.5 0 0 0 0 1.09771e-11 0 1.21354e+14
282.795 0 16672.6 0 0 0 0 9.3274e-12 0 1.43217e+14
298.848 0 19676.2 0 0 0 0 7.925e-12 0 1.69017e+14
315.813 0 23220.9 0 0 0 0 6.73295e-12 0 1.99466e+14
333.741 0 27404.3 0 0 0 0 5.71979e-12 0 2.35401e+14
352.686 0 32341.2 0 0 0 0 4.85874e-12 0 2.77809e+14
372.707 0 38167.6 0 0 0 0 4.12703e-12 0 3.27857e+14
393.865 0 45043.5 0 0 0 0 3.50528e-12 0 3.86921e+14
416.224 0 53158.3 0 0 0 0 2.97701e-12 0 4.56626e+14
439.852 0 62734.9 0 0 0 0 2.52819e-12 0 5.38888e+14
464.821 0 74036.7 0 0 0 0 2.1469e-12 0 6.35971e+14
491.207 0 87374.6 0 0 0 0 1.82301e-12 0 7.50542e+14
519.092 0 103115 0 0 0 0 1.54789e-12 0 8.85755e+14
548.56 0 121692 0 0 0 0 1.31422e-12 0 1.04533e+15
579.7 0 143615 0 0 0 0 1.11576e-12 0 1.23364e+15
612.608 0 169488 0 0 0 0 9.47223e-13 0 1.45589e+15
647.384 0 200021 0 0 0 0 8.041e-13 0 1.71817e+15
684.134 0 236056 0 0 0 0 6.82568e-13 0 2.0277e+15
722.971 0 278582 0 0 0 0 5.79376e-13 0 2.393e+15
764.012 0 328769 0 0 0 0 4.91762e-13 0 2.8241e+15
