0.191976
200
1.0655e+09
8589934592
0.0129181 0 1.58924e-09 0 0 0 0 0.00677225 0 13.6515
0.0136515 0 1.87554e-09 0 0 0 0 0.00688819 0 16.1108
0.0144264 0 2.21343e-09 0 0 0 0 0.00699249 0 19.0132
0.0152454 0 2.61218e-09 0 0 0 0 0.00708412 0 22.4385
0.0161108 0 3.08278e-09 0 0 0 0 0.00716212 0 26.4808
0.0170254 0 3.63815e-09 0 0 0 0 0.00722559 0 31.2514
0.0179919 0 4.29357e-09 0 0 0 0 0.00727371 0 36.8815
0.0190132 0 5.06707e-09 0 0 0 0 0.00730578 0 43.5258
0.0200925 0 5.97991e-09 0 0 0 0 0.00732122 0 51.367
0.0212331 0 7.05721e-09 0 0 0 0 0.00731958 0 60.621
0.0224385 0 8.32858e-09 0 0 0 0 0.00730056 0 71.542
0.0237123 0 9.829e-09 0 0 0 0 0.00726401 0 84.4305
0.0250583 0 1.15997e-08 0 0 0 0 0.00720995 0 99.6408
0.0264808 0 1.36894e-08 0 0 0 0 0.00713857 0 117.591
0.0279841 0 1.61556e-08 0 0 0 0 0.00705021 0 138.776
0.0295727 0 1.90661e-08 0 0 0 0 0.00694538 0 163.777
0.0312514 0 2.25009e-08 0 0 0 0 0.00682475 0 193.281
0.0330255 0 2.65545e-08 0 0 0 0 0.00668915 0 228.102
0.0349003 0 3.13384e-08 0 0 0 0 0.00653951 0 269.195
0.0368815 0 3.69841e-08 0 0 0 0 0.00637693 0 317.691
0.0389751 0 4.36469e-08 0 0 0 0 0.00620256 0 374.924
0.0411876 0 5.151e-08 0 0 0 0 0.00601767 0 442.467
0.0435258 0 6.07896e-08 0 0 0 0 0.00582358 0 522.179
0.0459966 0 7.1741e-08 0 0 0 0 0.00562166 0 616.251
0.0486077 0 8.46654e-08 0 0 0 0 0.0054133 0 727.27
0.051367 0 9.99181e-08 0 0 0 0 0.00519989 0 858.29
0.054283 0 1.17919e-07 0 0 0 0 0.0049828 0 1012.91
0.0573645 0 1.39162e-07 0 0 0 0 0.00476339 0 1195.39
0.060621 0 1.64232e-07 0 0 0 0 0.00454293 0 1410.75
0.0640622 0 1.93819e-07 0 0 0 0 0.00432265 0 1664.89
0.0676989 0 2.28736e-07 0 0 0 0 0.00410371 0 1964.83
0.071542 0 2.69944e-07 0 0 0 0 0.00388717 0 2318.8
0.0756032 0 3.18575e-07 0 0 0 0 0.00367401 0 2736.54
0.079895 0 3.75967e-07 0 0 0 0 0.0034651 0 3229.53
0.0844305 0 4.43698e-07 0 0 0 0 0.00326121 0 3811.34
0.0892234 0 5.23632e-07 0 0 0 0 0.00306301 0 4497.96
0.0942883 0 6.17966e-07 0 0 0 0 0.00287109 0 5308.28
0.0996408 0 7.29294e-07 0 0 0 0 0.00268591 0 6264.59
0.105297 0 8.60678e-07 0 0 0 0 0.00250785 0 7393.17
0.111275 0 1.01573e-06 0 0 0 0 0.00233721 0 8725.07
0.117591 0 1.19872e-06 0 0 0 0 0.00217419 0 10296.9
0.124267 0 1.41467e-06 0 0 0 0 0.00201893 0 12151.9
0.131321 0 1.66953e-06 0 0 0 0 0.00187147 0 14341.1
0.138776 0 1.9703e-06 0 0 0 0 0.00173182 0 16924.7
0.146654 0 2.32525e-06 0 0 0 0 0.00159991 0 19973.8
0.154979 0 2.74415e-06 0 0 0 0 0.00147563 0 23572.1
0.163777 0 3.23852e-06 0 0 0 0 0.00135884 0 27818.7
0.173074 0 3.82195e-06 0 0 0 0 0.00124933 0 32830.3
0.182899 0 4.51048e-06 0 0 0 0 0.00114689 0 38744.7
0.193281 0 5.32305e-06 0 0 0 0 0.00105127 0 45724.7
0.204254 0 6.28202e-06 0 0 0 0 0.000962209 0 53962.1
0.215848 0 7.41374e-06 0 0 0 0 0.000879423 0 63683.5
0.228102 0 8.74934e-06 0 0 0 0 0.000802624 0 75156.3
0.24105 0 1.03256e-05 0 0 0 0 0.000731515 0 88695.9
0.254734 0 1.21857e-05 0 0 0 0 0.000665798 0 104675
0.269195 0 1.4381e-05 0 0 0 0 0.000605173 0 123532
0.284476 0 1.69718e-05 0 0 0 0 0.000549345 0 145787
0.300625 0 2.00293e-05 0 0 0 0 0.000498021 0 172051
0.317691 0 2.36377e-05 0 0 0 0 0.000450916 0 203046
0.335725 0 2.78961e-05 0 0 0 0 0.000407755 0 239625
0.354784 0 3.29216e-05 0 0 0 0 0.000368269 0 282795
0.374924 0 3.88525e-05 0 0 0 0 0.000332202 0 333741
0.396207 0.679996 4.58519e-05 1.72647e-06 6 0.661091 1.67847e-06 0.000299307 0.0346094 393865
0.418699 0 5.41123e-05 0 0 0 0 0.00026935 0 464821
0.442467 0 6.38607e-05 0 0 0 0 0.000242108 0 548560
0.467585 0 7.53654e-05 0 0 0 0 0.00021737 0 647384
0.494129 0 8.89427e-05 0 0 0 0 0.000194938 0 764012
0.522179 0 0.000104966 0 0 0 0 0.000174625 0 901651
0.551822 0 0.000123876 0 0 0 0 0.000156255 0 1.06409e+06
0.583147 4.31624 0.000146192 3.43709e-06 12 4.54286 3.61755e-06 0.000139664 0.295316 1.25578e+06
0.616251 0 0.000172529 0 0 0 0 0.0001247 0 1.48202e+06
0.651234 0 0.000203611 0 0 0 0 0.00011122 0 1.74901e+06
0.688203 24.6339 0.000240292 1.19345e-05 8 24.021 1.16376e-05 9.90935e-05 0.963492 2.06409e+06
0.72727 0 0.000283581 0 0 0 0 8.81969e-05 0 2.43595e+06
0.768555 0 0.000334669 0 0 0 0 7.84179e-05 0 2.87479e+06
0.812184 0.331139 0.000394961 9.76039e-08 6 0.338219 9.96906e-08 6.96525e-05 0.00840778 3.39269e+06
0.85829 0 0.000466114 0 0 0 0 6.1805e-05 0 4.00389e+06
0.907013 0.588534 0.000550086 1.24552e-07 24 0.599826 1.26942e-07 5.47875e-05 0.0545608 4.7252e+06
0.958501 1.51437 0.000649185 2.71565e-07 24 1.42567 2.55659e-07 4.85194e-05 0.134329 5.57646e+06
1.01291 0 0.000766138 0 0 0 0 4.29272e-05 0 6.58107e+06
1.07041 0 0.00090416 0 0 0 0 3.79435e-05 0 7.76667e+06
1.13118 1.53495 0.00106705 1.67463e-07 12 1.51609 1.65406e-07 3.3507e-05 0.0599743 9.16586e+06
1.19539 1.34842 0.00125928 1.24656e-07 30 1.32062 1.22086e-07 2.9562e-05 0.126503 1.08171e+07
1.26325 6.13248 0.00148614 4.80382e-07 24 6.0402 4.73153e-07 2.60578e-05 0.442445 1.27658e+07
1.33496 17.9921 0.00175387 1.19425e-06 24 18.0316 1.19687e-06 2.29484e-05 1.24897 1.50656e+07
1.41075 7.58384 0.00206984 4.26543e-07 32 7.7872 4.37981e-07 2.01923e-05 0.67597 1.77798e+07
1.49083 0.827655 0.00244272 3.94444e-08 48 0.810011 3.86035e-08 1.77518e-05 0.106656 2.09828e+07
1.57546 0.296756 0.00288279 1.19839e-08 6 0.282578 1.14113e-08 1.55929e-05 0.00461128 2.4763e+07
1.66489 0.548093 0.00340213 1.87548e-08 84 0.534401 1.82863e-08 1.3685e-05 0.115119 2.92241e+07
1.75941 2.63148 0.00401503 7.62994e-08 48 2.64267 7.66237e-08 1.20007e-05 0.30518 3.44889e+07
1.85928 0.71788 0.00473835 1.76374e-08 72 0.721419 1.77244e-08 1.05151e-05 0.120769 4.07021e+07
1.96483 1.34246 0.00559198 2.79477e-08 54 1.31315 2.73374e-08 9.20606e-06 0.163933 4.80347e+07
2.07637 8.95608 0.00659939 1.57988e-07 104 8.92931 1.57516e-07 8.05366e-06 2.04016 5.66883e+07
2.19424 0.687241 0.00778828 1.02725e-08 120 0.69423 1.0377e-08 7.04008e-06 0.175098 6.69008e+07
2.3188 2.24801 0.00919136 2.84726e-08 156 2.15185 2.72547e-08 6.1494e-06 0.722303 7.89532e+07
2.45043 1.33585 0.0108472 1.43367e-08 126 1.32264 1.4195e-08 5.36741e-06 0.336554 9.31768e+07
2.58954 1.10058 0.0128014 1.00087e-08 192 1.11148 1.01077e-08 4.68145e-06 0.410485 1.09963e+08
2.73654 5.30152 0.0151076 4.08522e-08 152 5.51032 4.24612e-08 4.08023e-06 1.52186 1.29773e+08
2.89188 4.06702 0.0178292 2.65554e-08 378 4.1479 2.70836e-08 3.55373e-06 2.82462 1.53152e+08
3.05605 1.6711 0.0210412 9.24574e-09 264 1.64402 9.09589e-09 3.09304e-06 0.789151 1.80743e+08
3.22953 0.678404 0.0248319 3.18046e-09 366 0.67482 3.16366e-09 2.69025e-06 0.432691 2.13304e+08
3.41286 1.36964 0.0293054 5.4409e-09 428 1.3292 5.28022e-09 2.33837e-06 0.995865 2.51731e+08
3.6066 4.05067 0.0345848 1.36349e-08 486 3.92737 1.32198e-08 2.0312e-06 3.26238 2.97081e+08
3.81134 1.4905 0.0408154 4.25127e-09 600 1.48748 4.24264e-09 1.76327e-06 1.44661 3.50601e+08
4.0277 1.33063 0.0481684 3.21593e-09 738 1.30986 3.16573e-09 1.52972e-06 1.55149 4.13763e+08
4.25634 2.01004 0.056846 4.11636e-09 824 2.04632 4.19066e-09 1.32631e-06 2.55739 4.88304e+08
4.49796 3.59606 0.067087 6.2402e-09 954 3.60845 6.26171e-09 1.14926e-06 5.18 5.76273e+08
4.7533 1.45956 0.0791729 2.14613e-09 1094 1.44666 2.12717e-09 9.95263e-07 2.35904 6.8009e+08
5.02313 1.34015 0.0934361 1.66974e-09 1332 1.34269 1.67291e-09 8.61414e-07 2.5819 8.0261e+08
5.30828 3.34816 0.110269 3.53479e-09 1614 3.37016 3.55801e-09 7.45152e-07 7.65635 9.47202e+08
5.60962 2.34932 0.130134 2.10165e-09 1850 2.31562 2.0715e-09 6.44232e-07 6.03517 1.11784e+09
5.92807 2.7939 0.153578 2.11783e-09 2238 2.73401 2.07243e-09 5.56685e-07 8.51416 1.31923e+09
6.26459 2.17272 0.181246 1.39555e-09 2546 2.19381 1.4091e-09 4.80786e-07 7.39013 1.55689e+09
6.62021 1.80453 0.213898 9.82129e-10 3264 1.80486 9.8231e-10 4.15026e-07 7.72403 1.83737e+09
6.99602 3.21348 0.252432 1.48198e-09 3506 3.26237 1.50452e-09 3.58083e-07 14.5101 2.16837e+09
7.39317 2.64462 0.297908 1.03345e-09 4506 2.65282 1.03666e-09 3.08803e-07 15.08 2.55901e+09
7.81286 3.39375 0.351577 1.12375e-09 5018 3.42228 1.1332e-09 2.66181e-07 21.1848 3.02002e+09
8.25637 3.50393 0.414914 9.8312e-10 5852 3.46135 9.71175e-10 2.29336e-07 25.0864 3.56409e+09
8.72507 3.38418 0.489662 8.04575e-10 7362 3.374 8.02155e-10 1.97503e-07 29.9909 4.20617e+09
9.22037 3.778 0.577876 7.61092e-10 8306 3.75505 7.56469e-10 1.70014e-07 37.1829 4.96392e+09
9.74378 3.3511 0.681982 5.72038e-10 9698 3.34949 5.71762e-10 1.46289e-07 37.9224 5.85818e+09
10.2969 4.30665 0.804843 6.22929e-10 11816 4.31469 6.24091e-10 1.25822e-07 58.4993 6.91355e+09
10.8814 4.47167 0.949838 5.48063e-10 13682 4.46834 5.47655e-10 1.08175e-07 69.3189 8.15905e+09
11.4992 4.91818 1.12095 5.10772e-10 16152 4.90016 5.089e-10 9.29669e-08 88.7412 9.62892e+09
12.1519 5.07619 1.3229 4.46707e-10 19472 5.05278 4.44646e-10 7.98658e-08 108.911 1.13636e+10
12.8418 5.21804 1.56122 3.89093e-10 22670 5.20475 3.88102e-10 6.85852e-08 128.61 1.34108e+10
13.5708 6.17885 1.84248 3.90405e-10 26224 6.1776 3.90326e-10 5.88765e-08 173.889 1.58268e+10
14.3411 6.56272 2.17441 3.51361e-10 31640 6.56529 3.51499e-10 5.05241e-08 220.035 1.8678e+10
15.1552 7.09104 2.56613 3.21693e-10 37484 7.08323 3.21339e-10 4.33417e-08 278.216 2.20429e+10
16.0156 7.68382 3.02843 2.95373e-10 43856 7.68076 2.95255e-10 3.71677e-08 348.524 2.6014e+10
16.9247 8.71401 3.574 2.8384e-10 51362 8.6959 2.8325e-10 3.18628e-08 457.542 3.07005e+10
17.8855 9.29976 4.21787 2.56678e-10 61636 9.2755 2.56008e-10 2.73063e-08 579.376 3.62312e+10
18.9008 10.2811 4.97773 2.40445e-10 72218 10.2564 2.39868e-10 2.33941e-08 742.258 4.27584e+10
19.9738 11.4672 5.87448 2.27247e-10 84586 11.4357 2.26622e-10 2.00364e-08 959.351 5.04614e+10
21.1076 12.4424 6.93279 2.08932e-10 100708 12.4116 2.08416e-10 1.71555e-08 1226.49 5.95522e+10
22.3058 13.6357 8.18175 1.94018e-10 118712 13.6018 1.93536e-10 1.46847e-08 1568.46 7.02807e+10
23.5721 14.9185 9.65571 1.79866e-10 140410 14.8853 1.79467e-10 1.25662e-08 2009.77 8.29419e+10
24.9102 16.6106 11.3952 1.69696e-10 164374 16.5711 1.69293e-10 1.07504e-08 2594.67 9.78842e+10
26.3243 18.0506 13.4481 1.56258e-10 194680 18.011 1.55914e-10 9.19452e-09 3308.52 1.15518e+11
27.8187 19.8045 15.8708 1.4527e-10 230196 19.7614 1.44953e-10 7.86182e-09 4253.53 1.36329e+11
29.3979 21.9295 18.73 1.36302e-10 271156 21.8749 1.35963e-10 6.72061e-09 5499.37 1.60889e+11
31.0667 23.9919 22.1042 1.26357e-10 321076 23.9358 1.26062e-10 5.74366e-09 7063.48 1.89874e+11
32.8303 26.5265 26.0864 1.1838e-10 377436 26.4559 1.18064e-10 4.90756e-09 9104.46 2.2408e+11
34.694 29.4744 30.7859 1.11456e-10 447594 29.4004 1.11176e-10 4.19221e-09 11899.9 2.64449e+11
36.6634 32.7436 36.3321 1.04917e-10 525078 32.6586 1.04645e-10 3.58032e-09 15386.8 3.1209e+11
38.7447 36.5695 42.8774 9.92891e-11 621924 36.4726 9.90259e-11 3.05709e-09 20199.1 3.68314e+11
40.9442 40.9577 50.6018 9.42279e-11 732630 40.8513 9.3983e-11 2.60976e-09 26452.3 4.34667e+11
43.2685 46.1064 59.7179 8.98807e-11 865596 45.9901 8.96541e-11 2.22743e-09 34928.3 5.12973e+11
45.7247 51.7894 70.4762 8.55477e-11 1.02168e+06 51.6497 8.53169e-11 1.90073e-09 45983.3 6.05386e+11
48.3204 58.6582 83.1727 8.21029e-11 1.20544e+06 58.4923 8.18706e-11 1.62163e-09 61031 7.14448e+11
51.0634 66.3293 98.1565 7.86676e-11 1.42103e+06 66.1402 7.84434e-11 1.38326e-09 80815.9 8.43158e+11
53.9621 75.6819 115.84 7.6058e-11 1.67997e+06 75.4736 7.58486e-11 1.1797e-09 108311 9.95055e+11
57.0254 86.541 136.709 7.36947e-11 1.98018e+06 86.2939 7.34844e-11 1.00592e-09 145070 1.17432e+12
60.2626 99.3249 161.337 7.16695e-11 2.33957e+06 99.0265 7.14542e-11 8.57591e-10 195519 1.38587e+12
63.6835 114.148 190.402 6.97922e-11 2.75676e+06 113.811 6.9586e-11 7.3101e-10 263199 1.63554e+12
67.2987 131.815 224.704 6.82913e-11 3.25638e+06 131.427 6.809e-11 6.23009e-10 356949 1.93019e+12
71.1191 152.436 265.185 6.69192e-11 3.84387e+06 151.968 6.67137e-11 5.30879e-10 484534 2.27792e+12
75.1563 180.289 312.958 6.70645e-11 4.53277e+06 179.495 6.67691e-11 4.52303e-10 672088 2.68829e+12
79.4227 205.855 369.339 6.48855e-11 5.35083e+06 205.222 6.4686e-11 3.85299e-10 901094 3.17259e+12
83.9313 239.496 435.876 6.39655e-11 6.32174e+06 238.741 6.37638e-11 3.28173e-10 1.2322e+06 3.74415e+12
88.6959 280.074 514.4 6.33843e-11 7.44986e+06 279.176 6.3181e-11 2.79476e-10 1.6896e+06 4.41866e+12
93.7309 327.554 607.071 6.28136e-11 8.79764e+06 326.515 6.26143e-11 2.37972e-10 2.32217e+06 5.2147e+12
99.0518 383.957 716.436 6.239e-11 1.03827e+07 382.729 6.21905e-11 2.02605e-10 3.19724e+06 6.15414e+12
104.675 455.785 845.504 6.27559e-11 1.22515e+07 454.59 6.25914e-11 1.72471e-10 4.45788e+06 7.26283e+12
110.617 529.521 997.824 6.17788e-11 1.44573e+07 527.793 6.15772e-11 1.468e-10 6.08416e+06 8.57124e+12
116.896 622.861 1177.58 6.15756e-11 1.70664e+07 620.836 6.13755e-11 1.24935e-10 8.41138e+06 1.01154e+13
123.532 732.219 1389.73 6.13367e-11 2.0139e+07 729.83 6.11366e-11 1.06313e-10 1.16191e+07 1.19377e+13
130.545 862.256 1640.09 6.12037e-11 2.37643e+07 859.431 6.10032e-11 9.04567e-11 1.60791e+07 1.40883e+13
137.955 1015.1 1935.56 6.10536e-11 2.80503e+07 1011.74 6.08516e-11 7.69563e-11 2.22538e+07 1.66263e+13
145.787 1195.3 2284.26 6.09175e-11 3.30981e+07 1191.33 6.07153e-11 6.54636e-11 3.07996e+07 1.96216e+13
154.063 1414.23 2695.77 6.10727e-11 3.90634e+07 1409.51 6.08691e-11 5.56812e-11 4.28459e+07 2.31565e+13
162.808 1663.54 3181.42 6.08724e-11 4.61057e+07 1657.98 6.06693e-11 4.73556e-11 5.92657e+07 2.73282e+13
172.051 1963.19 3754.56 6.08713e-11 5.44046e+07 1956.63 6.0668e-11 4.02708e-11 8.22351e+07 3.22515e+13
181.818 2319.53 4430.96 6.09414e-11 6.42064e+07 2311.84 6.07392e-11 3.42426e-11 1.14268e+08 3.80616e+13
192.139 2738.29 5229.21 6.09612e-11 7.57748e+07 2729.13 6.07573e-11 2.91139e-11 1.58664e+08 4.49186e+13
203.046 3239.06 6171.26 6.1102e-11 8.94213e+07 3228.08 6.08949e-11 2.4751e-11 2.20751e+08 5.30108e+13
214.572 3831.8 7283.03 6.12492e-11 1.05538e+08 3818.85 6.10423e-11 2.10401e-11 3.0723e+08 6.25608e+13
226.753 4538.72 8595.09 6.14743e-11 1.24552e+08 4523.35 6.1266e-11 1.78839e-11 4.28135e+08 7.38313e+13
239.625 5381.97 10143.5 6.17679e-11 1.46987e+08 5363.57 6.15567e-11 1.51999e-11 5.97313e+08 8.71322e+13
253.228 6391.02 11970.9 6.21517e-11 1.7347e+08 6368.97 6.19373e-11 1.29176e-11 8.34632e+08 1.02829e+14
267.603 7608.99 14127.5 6.27006e-11 2.04703e+08 7582.46 6.24821e-11 1.09771e-11 1.16925e+09 1.21354e+14
282.795 9084.4 16672.6 6.34312e-11 2.4161e+08 9052.35 6.32074e-11 9.3274e-12 1.64307e+09 1.43217e+14
298.848 10890.7 19676.2 6.44353e-11 2.85122e+08 10851.6 6.42038e-11 7.925e-12 2.31823e+09 1.69017e+14
315.813 13128.5 23220.9 6.58183e-11 3.36491e+08 13080.4 6.55771e-11 6.73295e-12 3.28939e+09 1.99466e+14
333.741 15942.9 27404.3 6.77267e-11 3.97115e+08 15882.3 6.7469e-11 5.71979e-12 4.70215e+09 2.35401e+14
352.686 19566.6 32341.2 7.0432e-11 4.68637e+08 19488.9 7.01521e-11 4.85874e-12 6.79334e+09 2.77809e+14
372.707 24383.9 38167.6 7.43737e-11 5.53074e+08 24281.4 7.4061e-11 4.12703e-12 9.96701e+09 3.27857e+14
393.865 31028.8 45043.5 8.01942e-11 6.52716e+08 30888 7.98303e-11 3.50528e-12 1.49329e+10 3.86921e+14
416.224 36615.6 53158.3 8.01873e-11 2.2184e+08 38735.9 8.48307e-11 2.97701e-12 5.97537e+09 4.56626e+14
439.852 0 62734.9 0 0 0 0 2.52819e-12 0 5.38888e+14
464.821 0 74036.7 0 0 0 0 2.1469e-12 0 6.35971e+14
491.207 0 87374.6 0 0 0 0 1.82301e-12 0 7.50542e+14
519.092 0 103115 0 0 0 0 1.54789e-12 0 8.85755e+14
548.56 0 121692 0 0 0 0 1.31422e-12 0 1.04533e+15
579.7 0 143615 0 0 0 0 1.11576e-12 0 1.23364e+15
612.608 0 169488 0 0 0 0 9.47223e-13 0 1.45589e+15
647.384 0 200021 0 0 0 0 8.041e-13 0 1.71817e+15
684.134 0 236056 0 0 0 0 6.82568e-13 0 2.0277e+15
722.971 0 278582 0 0 0 0 5.79376e-13 0 2.393e+15
764.012 0 328769 0 0 0 0 4.91762e-13 0 2.8241e+15
0.191976
200
1.0655e+09
8589934592
0.0129181 9.39472e-05 1.58924e-09 6.88184e-06 6 9.30871e-05 6.81884e-06 0.00677225 0.00609709 13.6515
0.0136515 0 1.87554e-09 0 0 0 0 0.00688819 0 16.1108
0.0144264 0 2.21343e-09 0 0 0 0 0.00699249 0 19.0132
0.0152454 0 2.61218e-09 0 0 0 0 0.00708412 0 22.4385
0.0161108 0 3.08278e-09 0 0 0 0 0.00716212 0 26.4808
0.0170254 0 3.63815e-09 0 0 0 0 0.00722559 0 31.2514
0.0179919 0.000257531 4.29357e-09 6.98266e-06 12 0.000257199 6.97366e-06 0.00727371 0.0115198 36.8815
0.0190132 0 5.06707e-09 0 0 0 0 0.00730578 0 43.5258
0.0200925 0 5.97991e-09 0 0 0 0 0.00732122 0 51.367
0.0212331 0.000571472 7.05721e-09 9.42697e-06 8 0.000570974 9.41876e-06 0.00731958 0.0103033 60.621
0.0224385 0 8.32858e-09 0 0 0 0 0.00730056 0 71.542
0.0237123 0 9.829e-09 0 0 0 0 0.00726401 0 84.4305
0.0250583 0.00121171 1.15997e-08 1.21608e-05 6 0.00121114 1.2155e-05 0.00720995 0.01012 99.6408
0.0264808 0 1.36894e-08 0 0 0 0 0.00713857 0 117.591
0.0279841 0.000672043 1.61556e-08 4.84265e-06 24 0.000671353 4.83768e-06 0.00705021 0.0164851 138.776
0.0295727 0 1.90661e-08 0 0 0 0 0.00694538 0 163.777
0.0312514 0.00104272 2.25009e-08 5.39483e-06 24 0.00104802 5.42223e-06 0.00682475 0.0189715 193.281
0.0330255 0 2.65545e-08 0 0 0 0 0.00668915 0 228.102
0.0349003 0.00183595 3.13384e-08 6.82015e-06 12 0.00182125 6.76554e-06 0.00653951 0.012515 269.195
0.0368815 0.00358065 3.69841e-08 1.12709e-05 30 0.00354252 1.11508e-05 0.00637693 0.0530233 317.691
0.0389751 0.00303715 4.36469e-08 8.10073e-06 24 0.00300591 8.01739e-06 0.00620256 0.0313447 374.924
0.0411876 0.00335646 5.151e-08 7.58579e-06 24 0.00333367 7.53427e-06 0.00601767 0.0302541 442.467
0.0435258 0.00293549 6.07896e-08 5.62162e-06 8 0.00293527 5.62119e-06 0.00582358 0.00772257 522.179
0.0459966 0.00405423 7.1741e-08 6.57887e-06 72 0.00402241 6.52723e-06 0.00562166 0.0842595 616.251
0.0486077 0 8.46654e-08 0 0 0 0 0.0054133 0 727.27
0.051367 0.00750836 9.99181e-08 8.74805e-06 54 0.00747067 8.70413e-06 0.00519989 0.0908471 858.29
0.054283 0.00592091 1.17919e-07 5.84543e-06 60 0.00592966 5.85406e-06 0.0049828 0.0703872 1012.91
0.0573645 0.00615934 1.39162e-07 5.15257e-06 96 0.00612488 5.12374e-06 0.00476339 0.103844 1195.39
0.060621 0.00714852 1.64232e-07 5.06719e-06 24 0.00705167 4.99854e-06 0.00454293 0.0267697 1410.75
0.0640622 0.00804747 1.93819e-07 4.83362e-06 134 0.00806935 4.84676e-06 0.00432265 0.14984 1664.89
0.0676989 0.0090459 2.28736e-07 4.60391e-06 120 0.00899803 4.57955e-06 0.00410371 0.134627 1964.83
0.071542 0.00969839 2.69944e-07 4.1825e-06 108 0.00954155 4.11487e-06 0.00388717 0.116205 2318.8
0.0756032 0.0138964 3.18575e-07 5.07808e-06 174 0.0138064 5.04521e-06 0.00367401 0.240496 2736.54
0.079895 0.0116633 3.75967e-07 3.61146e-06 168 0.011576 3.58443e-06 0.0034651 0.175096 3229.53
0.0844305 0.015996 4.43698e-07 4.19695e-06 168 0.0160423 4.2091e-06 0.00326121 0.216204 3811.34
0.0892234 0.0166783 5.23632e-07 3.70796e-06 290 0.016632 3.69768e-06 0.00306301 0.351062 4497.96
0.0942883 0.0177977 6.17966e-07 3.35281e-06 288 0.0178006 3.35337e-06 0.00287109 0.336322 5308.28
0.0996408 0.0179654 7.29294e-07 2.86777e-06 366 0.0178053 2.84222e-06 0.00268591 0.390781 6264.59
0.105297 0.0178396 8.60678e-07 2.41298e-06 420 0.0177263 2.39766e-06 0.00250785 0.404111 7393.17
0.111275 0.0211802 1.01573e-06 2.42751e-06 398 0.0211494 2.42398e-06 0.00233721 0.413377 8725.07
0.117591 0.0236984 1.19872e-06 2.30151e-06 624 0.0237461 2.30614e-06 0.00217419 0.66054 10296.9
0.124267 0.0255693 1.41467e-06 2.10414e-06 642 0.0255101 2.09926e-06 0.00201893 0.669097 12151.9
0.131321 0.0287975 1.66953e-06 2.00804e-06 800 0.028769 2.00605e-06 0.00187147 0.858378 14341.1
0.138776 0.0315742 1.9703e-06 1.86557e-06 858 0.0316738 1.87145e-06 0.00173182 0.924266 16924.7
0.146654 0.030895 2.32525e-06 1.54678e-06 1080 0.0311711 1.5606e-06 0.00159991 1.04414 19973.8
0.154979 0.0343696 2.74415e-06 1.45807e-06 1286 0.0346052 1.46806e-06 0.00147563 1.27069 23572.1
0.163777 0.0356185 3.23852e-06 1.28038e-06 1650 0.0357467 1.28499e-06 0.00135884 1.55473 27818.7
0.173074 0.0368062 3.82195e-06 1.1211e-06 1778 0.0368804 1.12336e-06 0.00124933 1.59551 32830.3
0.182899 0.0442629 4.51048e-06 1.14242e-06 2112 0.044334 1.14426e-06 0.00114689 2.10377 38744.7
0.193281 0.0471922 5.32305e-06 1.03209e-06 2570 0.0472728 1.03386e-06 0.00105127 2.52311 45724.7
0.204254 0.050727 6.28202e-06 9.40049e-07 3030 0.0507278 9.40063e-07 0.000962209 2.96022 53962.1
0.215848 0.0528754 7.41374e-06 8.30284e-07 3434 0.0528506 8.29894e-07 0.000879423 3.24212 63683.5
0.228102 0.0542781 8.74934e-06 7.22203e-07 4218 0.0542616 7.21983e-07 0.000802624 3.79537 75156.3
0.24105 0.060046 1.03256e-05 6.76987e-07 4766 0.0601216 6.7784e-07 0.000731515 4.41074 88695.9
0.254734 0.0667794 1.21857e-05 6.37971e-07 6026 0.0667618 6.37802e-07 0.000665798 5.77414 104675
0.269195 0.0705651 1.4381e-05 5.71228e-07 6480 0.0705632 5.71213e-07 0.000605173 6.11653 123532
0.284476 0.0735379 1.69718e-05 5.04421e-07 8162 0.0736692 5.05321e-07 0.000549345 7.49453 145787
0.300625 0.078942 2.00293e-05 4.5883e-07 9578 0.0789872 4.59093e-07 0.000498021 8.82428 172051
0.317691 0.0828141 2.36377e-05 4.07858e-07 11234 0.0828112 4.07845e-07 0.000450916 10.1613 203046
0.335725 0.0908687 2.78961e-05 3.79212e-07 13344 0.0908079 3.78958e-07 0.000407755 12.4099 239625
0.354784 0.0943212 3.29216e-05 3.33533e-07 15464 0.094273 3.33362e-07 0.000368269 14.0054 282795
0.374924 0.100635 3.88525e-05 3.01536e-07 18458 0.100611 3.01465e-07 0.000332202 16.7541 333741
0.396207 0.107126 4.58519e-05 2.71988e-07 22232 0.106945 2.71526e-07 0.000299307 20.2028 393865
0.418699 0.114362 5.41123e-05 2.46036e-07 25628 0.114123 2.4552e-07 0.00026935 23.4097 464821
0.442467 0.12139 6.38607e-05 2.21288e-07 30320 0.12112 2.20797e-07 0.000242108 27.7127 548560
0.467585 0.129096 7.53654e-05 1.99412e-07 35452 0.128901 1.9911e-07 0.00021737 32.523 647384
0.494129 0.136145 8.89427e-05 1.78198e-07 41792 0.136104 1.78144e-07 0.000194938 38.2031 764012
0.522179 0.143721 0.000104966 1.59397e-07 49988 0.143686 1.59359e-07 0.000174625 45.6289 901651
0.551822 0.153777 0.000123876 1.44516e-07 59110 0.153664 1.44409e-07 0.000156255 54.6692 1.06409e+06
0.583147 0.16166 0.000146192 1.28733e-07 69716 0.161527 1.28626e-07 0.000139664 64.2593 1.25578e+06
0.616251 0.171859 0.000172529 1.15963e-07 82210 0.171614 1.15797e-07 0.0001247 76.4501 1.48202e+06
0.651234 0.180663 0.000203611 1.03295e-07 96722 0.180351 1.03117e-07 0.00011122 89.8294 1.74901e+06
0.688203 0.191449 0.000240292 9.2752e-08 113098 0.191155 9.26094e-08 9.90935e-05 105.86 2.06409e+06
0.72727 0.205057 0.000283581 8.41795e-08 135190 0.204825 8.40843e-08 8.81969e-05 129.032 2.43595e+06
0.768555 0.217062 0.000334669 7.55054e-08 158170 0.216885 7.54437e-08 7.84179e-05 152.295 2.87479e+06
0.812184 0.230034 0.000394961 6.78029e-08 188560 0.229795 6.77324e-08 6.96525e-05 183.553 3.39269e+06
0.85829 0.242984 0.000466114 6.06869e-08 220444 0.24267 6.06086e-08 6.1805e-05 216.456 4.00389e+06
0.907013 0.25984 0.000550086 5.49903e-08 261388 0.259549 5.49287e-08 5.47875e-05 262.356 4.7252e+06
0.958501 0.274935 0.000649185 4.93027e-08 308244 0.274581 4.92393e-08 4.85194e-05 313.22 5.57646e+06
1.01291 0.290725 0.000766138 4.4176e-08 364396 0.290347 4.41185e-08 4.29272e-05 374.997 6.58107e+06
1.07041 0.309214 0.00090416 3.98129e-08 429162 0.308793 3.97587e-08 3.79435e-05 450.306 7.76667e+06
1.13118 0.329363 0.00106705 3.59336e-08 506358 0.328893 3.58824e-08 3.3507e-05 543.029 9.16586e+06
1.19539 0.349336 0.00125928 3.22947e-08 598590 0.348885 3.22531e-08 2.9562e-05 653.924 1.08171e+07
1.26325 0.371767 0.00148614 2.9122e-08 704844 0.371274 2.90834e-08 2.60578e-05 787.729 1.27658e+07
1.33496 0.395672 0.00175387 2.62632e-08 834620 0.395101 2.62253e-08 2.29484e-05 955.174 1.50656e+07
1.41075 0.421142 0.00206984 2.36866e-08 981444 0.420519 2.36516e-08 2.01923e-05 1151.28 1.77798e+07
1.49083 0.447934 0.00244272 2.13477e-08 1.15998e+06 0.447286 2.13167e-08 1.77518e-05 1394.95 2.09828e+07
1.57546 0.478421 0.00288279 1.93201e-08 1.36931e+06 0.477711 1.92913e-08 1.55929e-05 1696.62 2.4763e+07
1.66489 0.510334 0.00340213 1.74628e-08 1.61652e+06 0.50953 1.74353e-08 1.3685e-05 2062.76 2.92241e+07
1.75941 0.545854 0.00401503 1.5827e-08 1.90601e+06 0.544967 1.58012e-08 1.20007e-05 2513.72 3.44889e+07
1.85928 0.58359 0.00473835 1.43381e-08 2.24913e+06 0.582683 1.43158e-08 1.05151e-05 3066.84 4.07021e+07
1.96483 0.624361 0.00559198 1.29981e-08 2.65744e+06 0.623355 1.29772e-08 9.20606e-06 3752.07 4.80347e+07
2.07637 0.668611 0.00659939 1.17945e-08 3.13125e+06 0.667537 1.17756e-08 8.05366e-06 4585.69 5.66883e+07
2.19424 0.718385 0.00778828 1.07381e-08 3.69915e+06 0.717244 1.0721e-08 7.04008e-06 5642.22 6.69008e+07
2.3188 0.770789 0.00919136 9.7626e-09 4.36472e+06 0.769502 9.74631e-09 6.1494e-06 6929.3 7.89532e+07
2.45043 0.827636 0.0108472 8.88242e-09 5.14913e+06 0.826268 8.86774e-09 5.36741e-06 8521.19 9.31768e+07
2.58954 0.890285 0.0128014 8.09623e-09 6.07894e+06 0.888774 8.08249e-09 4.68145e-06 10513.1 1.09963e+08
2.73654 0.960422 0.0151076 7.40078e-09 7.17304e+06 0.958818 7.38842e-09 4.08023e-06 13010.6 1.29773e+08
2.89188 1.03535 0.0178292 6.7603e-09 8.46557e+06 1.03358 6.74874e-09 3.55373e-06 16104.1 1.53152e+08
3.05605 1.11815 0.0210412 6.1864e-09 9.98773e+06 1.11625 6.17589e-09 3.09304e-06 19976.5 1.80743e+08
3.22953 1.20895 0.0248319 5.66775e-09 1.1797e+07 1.20685 5.65789e-09 2.69025e-06 24853.6 2.13304e+08
3.41286 1.30902 0.0293054 5.20006e-09 1.39144e+07 1.30666 5.19069e-09 2.33837e-06 30942.7 2.51731e+08
3.6066 1.41939 0.0345848 4.77779e-09 1.64163e+07 1.41685 4.76925e-09 2.0312e-06 38614.4 2.97081e+08
3.81134 1.5404 0.0408154 4.3936e-09 1.93821e+07 1.5376 4.38561e-09 1.76327e-06 48295.2 3.50601e+08
4.0277 1.67322 0.0481684 4.0439e-09 2.28754e+07 1.6701 4.03637e-09 1.52972e-06 60472.3 4.13763e+08
4.25634 1.81935 0.056846 3.72586e-09 2.69929e+07 1.81595 3.7189e-09 1.32631e-06 75828.5 4.88304e+08
4.49796 1.98102 0.067087 3.43764e-09 3.18542e+07 1.97725 3.4311e-09 1.14926e-06 95281.9 5.76273e+08
4.7533 2.15805 0.0791729 3.17319e-09 3.75892e+07 2.15392 3.16711e-09 9.95263e-07 119845 6.8009e+08
5.02313 2.35295 0.0934361 2.93163e-09 4.43706e+07 2.3484 2.92596e-09 8.61414e-07 151005 8.0261e+08
5.30828 2.56894 0.110269 2.71214e-09 5.23593e+07 2.56386 2.70677e-09 7.45152e-07 190572 9.47202e+08
5.60962 2.80666 0.130134 2.51078e-09 6.1787e+07 2.80112 2.50583e-09 6.44232e-07 240804 1.11784e+09
5.92807 3.06794 0.153578 2.32556e-09 7.29346e+07 3.06181 2.32092e-09 5.56685e-07 304685 1.31923e+09
6.26459 3.35303 0.181246 2.15367e-09 8.60651e+07 3.3462 2.14929e-09 4.80786e-07 385527 1.55689e+09
6.62021 3.66958 0.213898 1.9972e-09 1.01558e+08 3.66216 1.99316e-09 4.15026e-07 488720 1.83737e+09
6.99602 4.01703 0.252432 1.85256e-09 1.1986e+08 4.00881 1.84877e-09 3.58083e-07 620100 2.16837e+09
7.39317 4.39943 0.297908 1.71919e-09 1.41457e+08 4.39038 1.71566e-09 3.08803e-07 787527 2.55901e+09
7.81286 4.81953 0.351577 1.59586e-09 1.66936e+08 4.80953 1.59255e-09 2.66181e-07 1.00084e+06 3.02002e+09
8.25637 5.28145 0.414914 1.48185e-09 1.97025e+08 5.27042 1.47876e-09 2.29336e-07 1.27308e+06 3.56409e+09
8.72507 5.79611 0.489662 1.378e-09 2.32497e+08 5.78383 1.37508e-09 1.97503e-07 1.62216e+06 4.20617e+09
9.22037 6.37285 0.577876 1.28384e-09 2.74404e+08 6.35912 1.28107e-09 1.70014e-07 2.07212e+06 4.96392e+09
9.74378 7.02769 0.681982 1.19964e-09 3.2382e+08 7.01216 1.19698e-09 1.46289e-07 2.65547e+06 5.85818e+09
10.2969 7.78828 0.804843 1.12652e-09 3.82165e+08 7.77044 1.12394e-09 1.25822e-07 3.42163e+06 6.91355e+09
10.8814 8.70204 0.949838 1.06655e-09 4.51027e+08 8.68085 1.06395e-09 1.08175e-07 4.44688e+06 8.15905e+09
11.4992 9.85836 1.12095 1.02383e-09 5.32251e+08 9.83207 1.0211e-09 9.29669e-08 5.86159e+06 9.62892e+09
12.1519 11.4241 1.3229 1.00533e-09 6.28157e+08 11.3896 1.00229e-09 7.98658e-08 7.90707e+06 1.13636e+10
12.8418 13.0855 1.56122 9.75743e-10 3.82727e+08 13.5421 1.00979e-09 6.85852e-08 5.44495e+06 1.34108e+10
13.5708 0 1.84248 0 0 0 0 5.88765e-08 0 1.58268e+10
14.3411 0 2.17441 0 0 0 0 5.05241e-08 0 1.8678e+10
15.1552 0 2.56613 0 0 0 0 4.33417e-08 0 2.20429e+10
16.0156 0 3.02843 0 0 0 0 3.71677e-08 0 2.6014e+10
16.9247 0 3.574 0 0 0 0 3.18628e-08 0 3.07005e+10
17.8855 0 4.21787 0 0 0 0 2.73063e-08 0 3.62312e+10
18.9008 0 4.97773 0 0 0 0 2.33941e-08 0 4.27584e+10
19.9738 0 5.87448 0 0 0 0 2.00364e-08 0 5.04614e+10
21.1076 0 6.93279 0 0 0 0 1.71555e-08 0 5.95522e+10
22.3058 0 8.18175 0 0 0 0 1.46847e-08 0 7.02807e+10
23.5721 0 9.65571 0 0 0 0 1.25662e-08 0 8.29419e+10
24.9102 0 11.3952 0 0 0 0 1.07504e-08 0 9.78842e+10
26.3243 0 13.4481 0 0 0 0 9.19452e-09 0 1.15518e+11
27.8187 0 15.8708 0 0 0 0 7.86182e-09 0 1.36329e+11
29.3979 0 18.73 0 0 0 0 6.72061e-09 0 1.60889e+11
31.0667 0 22.1042 0 0 0 0 5.74366e-09 0 1.89874e+11
32.8303 0 26.0864 0 0 0 0 4.90756e-09 0 2.2408e+11
34.694 0 30.7859 0 0 0 0 4.19221e-09 0 2.64449e+11
36.6634 0 36.3321 0 0 0 0 3.58032e-09 0 3.1209e+11
38.7447 0 42.8774 0 0 0 0 3.05709e-09 0 3.68314e+11
40.9442 0 50.6018 0 0 0 0 2.60976e-09 0 4.34667e+11
43.2685 0 59.7179 0 0 0 0 2.22743e-09 0 5.12973e+11
45.7247 0 70.4762 0 0 0 0 1.90073e-09 0 6.05386e+11
48.3204 0 83.1727 0 0 0 0 1.62163e-09 0 7.14448e+11
51.0634 0 98.1565 0 0 0 0 1.38326e-09 0 8.43158e+11
53.9621 0 115.84 0 0 0 0 1.1797e-09 0 9.95055e+11
57.0254 0 136.709 0 0 0 0 1.00592e-09 0 1.17432e+12
60.2626 0 161.337 0 0 0 0 8.57591e-10 0 1.38587e+12
63.6835 0 190.402 0 0 0 0 7.3101e-10 0 1.63554e+12
67.2987 0 224.704 0 0 0 0 6.23009e-10 0 1.93019e+12
71.1191 0 265.185 0 0 0 0 5.30879e-10 0 2.27792e+12
75.1563 0 312.958 0 0 0 0 4.52303e-10 0 2.68829e+12
79.4227 0 369.339 0 0 0 0 3.85299e-10 0 3.17259e+12
83.9313 0 435.876 0 0 0 0 3.28173e-10 0 3.74415e+12
88.6959 0 514.4 0 0 0 0 2.79476e-10 0 4.41866e+12
93.7309 0 607.071 0 0 0 0 2.37972e-10 0 5.2147e+12
99.0518 0 716.436 0 0 0 0 2.02605e-10 0 6.15414e+12
104.675 0 845.504 0 0 0 0 1.72471e-10 0 7.26283e+12
110.617 0 997.824 0 0 0 0 1.468e-10 0 8.57124e+12
116.896 0 1177.58 0 0 0 0 1.24935e-10 0 1.01154e+13
123.532 0 1389.73 0 0 0 0 1.06313e-10 0 1.19377e+13
130.545 0 1640.09 0 0 0 0 9.04567e-11 0 1.40883e+13
137.955 0 1935.56 0 0 0 0 7.69563e-11 0 1.66263e+13
145.787 0 2284.26 0 0 0 0 6.54636e-11 0 1.96216e+13
154.063 0 2695.77 0 0 0 0 5.56812e-11 0 2.31565e+13
162.808 0 3181.42 0 0 0 0 4.73556e-11 0 2.73282e+13
172.051 0 3754.56 0 0 0 0 4.02708e-11 0 3.22515e+13
181.818 0 4430.96 0 0 0 0 3.42426e-11 0 3.80616e+13
192.139 0 5229.21 0 0 0 0 2.91139e-11 0 4.49186e+13
203.046 0 6171.26 0 0 0 0 2.4751e-11 0 5.30108e+13
214.572 0 7283.03 0 0 0 0 2.10401e-11 0 6.25608e+13
226.753 0 8595.09 0 0 0 0 1.78839e-11 0 7.38313e+13
239.625 0 10143.5 0 0 0 0 1.51999e-11 0 8.71322e+13
253.228 0 11970.9 0 0 0 0 1.29176e-11 0 1.02829e+14
267.603 0 14127.5 0 0 0 0 1.09771e-11 0 1.21354e+14
282.795 0 16672.6 0 0 0 0 9.3274e-12 0 1.43217e+14
298.848 0 19676.2 0 0 0 0 7.925e-12 0 1.69017e+14
315.813 0 23220.9 0 0 0 0 6.73295e-12 0 1.99466e+14
333.741 0 27404.3 0 0 0 0 5.71979e-12 0 2.35401e+14
352.686 0 32341.2 0 0 0 0 4.85874e-12 0 2.77809e+14
372.707 0 38167.6 0 0 0 0 4.12703e-12 0 3.27857e+14
393.865 0 45043.5 0 0 0 0 3.50528e-12 0 3.86921e+14
416.224 0 53158.3 0 0 0 0 2.97701e-12 0 4.56626e+14
439.852 0 62734.9 0 0 0 0 2.52819e-12 0 5.38888e+14
464.821 0 74036.7 0 0 0 0 2.1469e-12 0 6.35971e+14
491.207 0 87374.6 0 0 0 0 1.82301e-12 0 7.50542e+14
519.092 0 103115 0 0 0 0 1.54789e-12 0 8.85755e+14
548.56 0 121692 0 0 0 0 1.31422e-12 0 1.04533e+15
579.7 0 143615 0 0 0 0 1.11576e-12 0 1.23364e+15
612.608 0 169488 0 0 0 0 9.47223e-13 0 1.45589e+15
647.384 0 200021 0 0 0 0 8.041e-13 0 1.71817e+15
684.134 0 236056 0 0 0 0 6.82568e-13 0 2.0277e+15
722.971 0 278582 0 0 0 0 5.79376e-13 0 2.393e+15
764.012 0 328769 0 0 0 0 4.91762e-13 0 2.8241e+15
