0.526336
200
1.0655e+09
8589934592
0.0129181 0 1.58924e-09 0 0 0 0 0.00677225 0 13.6515
0.0136515 0 1.87554e-09 0 0 0 0 0.00688819 0 16.1108
0.0144264 0 2.21343e-09 0 0 0 0 0.00699249 0 19.0132
0.0152454 0 2.61218e-09 0 0 0 0 0.00708412 0 22.4385
0.0161108 0 3.08278e-09 0 0 0 0 0.00716212 0 26.4808
0.0170254 0 3.63815e-09 0 0 0 0 0.00722559 0 31.2514
0.0179919 0 4.29357e-09 0 0 0 0 0.00727371 0 36.8815
0.0190132 0 5.06707e-09 0 0 0 0 0.00730578 0 43.5258
0.0200925 0 5.97991e-09 0 0 0 0 0.00732122 0 51.367
0.0212331 0 7.05721e-09 0 0 0 0 0.00731958 0 60.621
0.0224385 0 8.32858e-09 0 0 0 0 0.00730056 0 71.542
0.0237123 0 9.829e-09 0 0 0 0 0.00726401 0 84.4305
0.0250583 0 1.15997e-08 0 0 0 0 0.00720995 0 99.6408
0.0264808 0 1.36894e-08 0 0 0 0 0.00713857 0 117.591
0.0279841 0 1.61556e-08 0 0 0 0 0.00705021 0 138.776
0.0295727 0 1.90661e-08 0 0 0 0 0.00694538 0 163.777
0.0312514 0 2.25009e-08 0 0 0 0 0.00682475 0 193.281
0.0330255 0 2.65545e-08 0 0 0 0 0.00668915 0 228.102
0.0349003 0 3.13384e-08 0 0 0 0 0.00653951 0 269.195
0.0368815 0 3.69841e-08 0 0 0 0 0.00637693 0 317.691
0.0389751 0 4.36469e-08 0 0 0 0 0.00620256 0 374.924
0.0411876 0 5.151e-08 0 0 0 0 0.00601767 0 442.467
0.0435258 0 6.07896e-08 0 0 0 0 0.00582358 0 522.179
0.0459966 0 7.1741e-08 0 0 0 0 0.00562166 0 616.251
0.0486077 0 8.46654e-08 0 0 0 0 0.0054133 0 727.27
0.051367 0 9.99181e-08 0 0 0 0 0.00519989 0 858.29
0.054283 0 1.17919e-07 0 0 0 0 0.0049828 0 1012.91
0.0573645 0 1.39162e-07 0 0 0 0 0.00476339 0 1195.39
0.060621 0 1.64232e-07 0 0 0 0 0.00454293 0 1410.75
0.0640622 0 1.93819e-07 0 0 0 0 0.00432265 0 1664.89
0.0676989 0 2.28736e-07 0 0 0 0 0.00410371 0 1964.83
0.071542 0 2.69944e-07 0 0 0 0 0.00388717 0 2318.8
0.0756032 0 3.18575e-07 0 0 0 0 0.00367401 0 2736.54
0.079895 0 3.75967e-07 0 0 0 0 0.0034651 0 3229.53
0.0844305 0 4.43698e-07 0 0 0 0 0.00326121 0 3811.34
0.0892234 0 5.23632e-07 0 0 0 0 0.00306301 0 4497.96
0.0942883 0 6.17966e-07 0 0 0 0 0.00287109 0 5308.28
0.0996408 0 7.29294e-07 0 0 0 0 0.00268591 0 6264.59
0.105297 0 8.60678e-07 0 0 0 0 0.00250785 0 7393.17
0.111275 0 1.01573e-06 0 0 0 0 0.00233721 0 8725.07
0.117591 0 1.19872e-06 0 0 0 0 0.00217419 0 10296.9
0.124267 0 1.41467e-06 0 0 0 0 0.00201893 0 12151.9
0.131321 0 1.66953e-06 0 0 0 0 0.00187147 0 14341.1
0.138776 0 1.9703e-06 0 0 0 0 0.00173182 0 16924.7
0.146654 0 2.32525e-06 0 0 0 0 0.00159991 0 19973.8
0.154979 0 2.74415e-06 0 0 0 0 0.00147563 0 23572.1
0.163777 0 3.23852e-06 0 0 0 0 0.00135884 0 27818.7
0.173074 0 3.82195e-06 0 0 0 0 0.00124933 0 32830.3
0.182899 0 4.51048e-06 0 0 0 0 0.00114689 0 38744.7
0.193281 0 5.32305e-06 0 0 0 0 0.00105127 0 45724.7
0.204254 0 6.28202e-06 0 0 0 0 0.000962209 0 53962.1
0.215848 0 7.41374e-06 0 0 0 0 0.000879423 0 63683.5
0.228102 0 8.74934e-06 0 0 0 0 0.000802624 0 75156.3
0.24105 0 1.03256e-05 0 0 0 0 0.000731515 0 88695.9
0.254734 0 1.21857e-05 0 0 0 0 0.000665798 0 104675
0.269195 0 1.4381e-05 0 0 0 0 0.000605173 0 123532
0.284476 0 1.69718e-05 0 0 0 0 0.000549345 0 145787
0.300625 0 2.00293e-05 0 0 0 0 0.000498021 0 172051
0.317691 0 2.36377e-05 0 0 0 0 0.000450916 0 203046
0.335725 0 2.78961e-05 0 0 0 0 0.000407755 0 239625
0.354784 0 3.29216e-05 0 0 0 0 0.000368269 0 282795
0.374924 0 3.88525e-05 0 0 0 0 0.000332202 0 333741
0.396207 1.98844 4.58519e-05 5.04854e-06 6 1.93316 4.90819e-06 0.000299307 0.101205 393865
0.418699 0 5.41123e-05 0 0 0 0 0.00026935 0 464821
0.442467 0 6.38607e-05 0 0 0 0 0.000242108 0 548560
0.467585 0 7.53654e-05 0 0 0 0 0.00021737 0 647384
0.494129 0 8.89427e-05 0 0 0 0 0.000194938 0 764012
0.522179 0 0.000104966 0 0 0 0 0.000174625 0 901651
0.551822 0 0.000123876 0 0 0 0 0.000156255 0 1.06409e+06
0.583147 5.85396 0.000146192 4.6616e-06 12 6.16133 4.90636e-06 0.000139664 0.400527 1.25578e+06
0.616251 0 0.000172529 0 0 0 0 0.0001247 0 1.48202e+06
0.651234 0 0.000203611 0 0 0 0 0.00011122 0 1.74901e+06
0.688203 18.4525 0.000240292 8.93978e-06 8 17.9935 8.71737e-06 9.90935e-05 0.721725 2.06409e+06
0.72727 0 0.000283581 0 0 0 0 8.81969e-05 0 2.43595e+06
0.768555 0 0.000334669 0 0 0 0 7.84179e-05 0 2.87479e+06
0.812184 3.32066 0.000394961 9.7877e-07 6 3.39166 9.99697e-07 6.96525e-05 0.0843131 3.39269e+06
0.85829 0 0.000466114 0 0 0 0 6.1805e-05 0 4.00389e+06
0.907013 1.25737 0.000550086 2.66098e-07 24 1.28149 2.71204e-07 5.47875e-05 0.116566 4.7252e+06
0.958501 3.94844 0.000649185 7.08056e-07 24 3.71717 6.66582e-07 4.85194e-05 0.350238 5.57646e+06
1.01291 0 0.000766138 0 0 0 0 4.29272e-05 0 6.58107e+06
1.07041 0 0.00090416 0 0 0 0 3.79435e-05 0 7.76667e+06
1.13118 3.76429 0.00106705 4.10686e-07 12 3.71805 4.05642e-07 3.3507e-05 0.147081 9.16586e+06
1.19539 2.85048 0.00125928 2.63516e-07 30 2.79172 2.58083e-07 2.9562e-05 0.26742 1.08171e+07
1.26325 9.21729 0.00148614 7.22027e-07 24 9.07859 7.11163e-07 2.60578e-05 0.665008 1.27658e+07
1.33496 19.2916 0.00175387 1.2805e-06 24 19.334 1.28332e-06 2.29484e-05 1.33918 1.50656e+07
1.41075 14.737 0.00206984 8.28866e-07 32 15.0039 8.43874e-07 2.01923e-05 1.31356 1.77798e+07
1.49083 3.43325 0.00244272 1.63622e-07 48 3.36005 1.60133e-07 1.77518e-05 0.442426 2.09828e+07
1.57546 12.1585 0.00288279 4.90996e-07 6 11.5776 4.67539e-07 1.55929e-05 0.188931 2.4763e+07
1.66489 3.13106 0.00340213 1.0714e-07 84 3.04751 1.04281e-07 1.3685e-05 0.657635 2.92241e+07
1.75941 5.75719 0.00401503 1.66929e-07 48 5.66718 1.64319e-07 1.20007e-05 0.667678 3.44889e+07
1.85928 3.48993 0.00473835 8.57432e-08 72 3.5081 8.61895e-08 1.05151e-05 0.587109 4.07021e+07
1.96483 8.24492 0.00559198 1.71645e-07 54 8.10488 1.6873e-07 9.20606e-06 1.00682 4.80347e+07
2.07637 10.0516 0.00659939 1.77314e-07 104 10.1108 1.78358e-07 8.05366e-06 2.28972 5.66883e+07
2.19424 5.8707 0.00778828 8.77522e-08 120 5.96443 8.91533e-08 7.04008e-06 1.49576 6.69008e+07
2.3188 7.17494 0.00919136 9.08759e-08 156 6.99972 8.86566e-08 6.1494e-06 2.30537 7.89532e+07
2.45043 7.20546 0.0108472 7.7331e-08 126 7.16894 7.69391e-08 5.36741e-06 1.81534 9.31768e+07
2.58954 8.04808 0.0128014 7.3189e-08 192 8.086 7.35339e-08 4.68145e-06 3.0017 1.09963e+08
2.73654 19.9672 0.0151076 1.53863e-07 152 20.2664 1.56168e-07 4.08023e-06 5.73182 1.29773e+08
2.89188 11.5013 0.0178292 7.50974e-08 378 11.597 7.57224e-08 3.55373e-06 7.98789 1.53152e+08
3.05605 10.0737 0.0210412 5.57349e-08 264 9.86135 5.45601e-08 3.09304e-06 4.75714 1.80743e+08
3.22953 10.0738 0.0248319 4.72274e-08 366 9.98747 4.68227e-08 2.69025e-06 6.42513 2.13304e+08
3.41286 10.2268 0.0293054 4.06258e-08 428 10.1193 4.01987e-08 2.33837e-06 7.43586 2.51731e+08
3.6066 15.2235 0.0345848 5.12435e-08 486 15.0016 5.04967e-08 2.0312e-06 12.2609 2.97081e+08
3.81134 11.5882 0.0408154 3.30524e-08 600 11.6117 3.31195e-08 1.76327e-06 11.247 3.50601e+08
4.0277 14.1476 0.0481684 3.41926e-08 738 14.0484 3.39527e-08 1.52972e-06 16.4959 4.13763e+08
4.25634 15.5219 0.056846 3.17874e-08 824 15.5064 3.17557e-08 1.32631e-06 19.7487 4.88304e+08
4.49796 18.1612 0.067087 3.15149e-08 954 18.0613 3.13415e-08 1.14926e-06 26.1606 5.76273e+08
4.7533 18.2837 0.0791729 2.68842e-08 1094 18.1954 2.67543e-08 9.95263e-07 29.5514 6.8009e+08
5.02313 19.8714 0.0934361 2.47585e-08 1332 19.9741 2.48864e-08 8.61414e-07 38.2839 8.0261e+08
5.30828 21.6602 0.110269 2.28676e-08 1614 21.6872 2.28961e-08 7.45152e-07 49.5311 9.47202e+08
5.60962 23.3745 0.130134 2.09103e-08 1850 23.402 2.0935e-08 6.44232e-07 60.0468 1.11784e+09
5.92807 21.8304 0.153578 1.65479e-08 2238 21.8104 1.65327e-08 5.56685e-07 66.5263 1.31923e+09
6.26459 23.4439 0.181246 1.50582e-08 2546 23.5866 1.51498e-08 4.80786e-07 79.7405 1.55689e+09
6.62021 24.8303 0.213898 1.35141e-08 3264 24.8578 1.3529e-08 4.15026e-07 106.283 1.83737e+09
6.99602 26.8996 0.252432 1.24054e-08 3506 26.9186 1.24142e-08 3.58083e-07 121.462 2.16837e+09
7.39317 30.4587 0.297908 1.19025e-08 4506 30.4141 1.18851e-08 3.08803e-07 173.679 2.55901e+09
7.81286 31.2546 0.351577 1.03491e-08 5018 31.2162 1.03364e-08 2.66181e-07 195.1 3.02002e+09
8.25637 34.3915 0.414914 9.64945e-09 5852 34.3386 9.6346e-09 2.29336e-07 246.226 3.56409e+09
8.72507 35.8807 0.489662 8.53051e-09 7362 35.8696 8.52785e-09 1.97503e-07 317.978 4.20617e+09
9.22037 37.678 0.577876 7.59036e-09 8306 37.5271 7.55998e-09 1.70014e-07 370.825 4.96392e+09
9.74378 39.6708 0.681982 6.77187e-09 9698 39.6259 6.7642e-09 1.46289e-07 448.93 5.85818e+09
10.2969 42.1347 0.804843 6.09451e-09 11816 42.0888 6.08786e-09 1.25822e-07 572.336 6.91355e+09
10.8814 46.9234 0.949838 5.75109e-09 13682 46.8261 5.73916e-09 1.08175e-07 727.396 8.15905e+09
11.4992 48.2103 1.12095 5.00682e-09 16152 48.1846 5.00415e-09 9.29669e-08 869.882 9.62892e+09
12.1519 49.4657 1.3229 4.353e-09 19472 49.3483 4.34266e-09 7.98658e-08 1061.3 1.13636e+10
12.8418 52.6522 1.56122 3.92611e-09 22670 52.5045 3.91509e-09 6.85852e-08 1297.73 1.34108e+10
13.5708 56.7414 1.84248 3.58515e-09 26224 56.6923 3.58205e-09 5.88765e-08 1596.85 1.58268e+10
14.3411 60.4078 2.17441 3.23417e-09 31640 60.3452 3.23082e-09 5.05241e-08 2025.35 1.8678e+10
15.1552 62.9762 2.56613 2.85698e-09 37484 62.8607 2.85174e-09 4.33417e-08 2470.86 2.20429e+10
16.0156 66.0698 3.02843 2.53978e-09 43856 65.9126 2.53374e-09 3.71677e-08 2996.81 2.6014e+10
16.9247 70.5788 3.574 2.29895e-09 51362 70.491 2.29609e-09 3.18628e-08 3705.85 3.07005e+10
17.8855 74.5192 4.21787 2.05677e-09 61636 74.416 2.05392e-09 2.73063e-08 4642.55 3.62312e+10
18.9008 77.9703 4.97773 1.82351e-09 72218 77.8131 1.81983e-09 2.33941e-08 5629.19 4.27584e+10
19.9738 82.5368 5.87448 1.63564e-09 84586 82.4235 1.6334e-09 2.00364e-08 6905.05 5.04614e+10
21.1076 88.2169 6.93279 1.48134e-09 100708 88.0349 1.47828e-09 1.71555e-08 8695.89 5.95522e+10
22.3058 92.1047 8.18175 1.31053e-09 118712 91.9752 1.30868e-09 1.46847e-08 10594.4 7.02807e+10
23.5721 96.6911 9.65571 1.16577e-09 140410 96.5063 1.16354e-09 1.25662e-08 13025.9 8.29419e+10
24.9102 101.493 11.3952 1.03687e-09 164374 101.322 1.03512e-09 1.07504e-08 15853.8 9.78842e+10
26.3243 110.518 13.4481 9.56716e-10 194680 110.626 9.5765e-10 9.19452e-09 20257 1.15518e+11
27.8187 111.612 15.8708 8.18698e-10 230196 111.429 8.17354e-10 7.86182e-09 23971.7 1.36329e+11
29.3979 117.785 18.73 7.32088e-10 271156 117.612 7.31012e-10 6.72061e-09 29537.5 1.60889e+11
31.0667 123.923 22.1042 6.52658e-10 321076 123.699 6.5148e-10 5.74366e-09 36484.2 1.89874e+11
32.8303 130.341 26.0864 5.81673e-10 377436 130.09 5.80553e-10 4.90756e-09 44735.9 2.2408e+11
34.694 136.218 30.7859 5.15103e-10 447594 135.958 5.1412e-10 4.19221e-09 54996.5 2.64449e+11
36.6634 142.948 36.3321 4.58036e-10 525078 142.654 4.57092e-10 3.58032e-09 67173.9 3.1209e+11
38.7447 150.698 42.8774 4.09157e-10 621924 150.431 4.0843e-10 3.05709e-09 83237.7 3.68314e+11
40.9442 158.032 50.6018 3.6357e-10 732630 157.736 3.6289e-10 2.60976e-09 102064 4.34667e+11
43.2685 165.959 59.7179 3.23525e-10 865596 165.694 3.23008e-10 2.22743e-09 125724 5.12973e+11
45.7247 174.915 70.4762 2.88931e-10 1.02168e+06 174.622 2.88448e-10 1.90073e-09 155305 6.05386e+11
48.3204 184.406 83.1727 2.58109e-10 1.20544e+06 184.075 2.57647e-10 1.62163e-09 191865 7.14448e+11
51.0634 193.415 98.1565 2.29394e-10 1.42103e+06 193.064 2.28978e-10 1.38326e-09 235658 8.43158e+11
53.9621 204.909 115.84 2.05927e-10 1.67997e+06 204.545 2.05561e-10 1.1797e-09 293253 9.95055e+11
57.0254 216.76 136.709 1.84584e-10 1.98018e+06 216.354 1.84238e-10 1.00592e-09 363359 1.17432e+12
60.2626 230.845 161.337 1.6657e-10 2.33957e+06 230.378 1.66233e-10 8.57591e-10 454414 1.38587e+12
63.6835 245.843 190.402 1.50313e-10 2.75676e+06 245.364 1.5002e-10 7.3101e-10 566857 1.63554e+12
67.2987 262.704 224.704 1.36103e-10 3.25638e+06 262.193 1.35838e-10 6.23009e-10 711390 1.93019e+12
71.1191 282.604 265.185 1.24062e-10 3.84387e+06 282.037 1.23813e-10 5.30879e-10 898284 2.27792e+12
75.1563 304.733 312.958 1.13356e-10 4.53277e+06 304.087 1.13115e-10 4.52303e-10 1.13599e+06 2.68829e+12
79.4227 330.902 369.339 1.043e-10 5.35083e+06 330.195 1.04077e-10 3.85299e-10 1.44846e+06 3.17259e+12
83.9313 361.564 435.876 9.65678e-11 6.32174e+06 360.72 9.63423e-11 3.28173e-10 1.86023e+06 3.74415e+12
88.6959 397.158 514.4 8.98819e-11 7.44986e+06 396.201 8.96653e-11 2.79476e-10 2.39594e+06 4.41866e+12
93.7309 438.246 607.071 8.40404e-11 8.79764e+06 437.18 8.38361e-11 2.37972e-10 3.1069e+06 5.2147e+12
99.0518 487.068 716.436 7.91447e-11 1.03827e+07 485.823 7.89425e-11 2.02605e-10 4.05585e+06 6.15414e+12
104.675 544.727 845.504 7.50021e-11 1.22515e+07 543.288 7.48039e-11 1.72471e-10 5.32779e+06 7.26283e+12
110.617 613.045 997.824 7.15235e-11 1.44573e+07 611.401 7.13317e-11 1.468e-10 7.04385e+06 8.57124e+12
116.896 694.391 1177.58 6.8647e-11 1.70664e+07 692.438 6.8454e-11 1.24935e-10 9.37736e+06 1.01154e+13
123.532 790.855 1389.73 6.62486e-11 2.0139e+07 788.575 6.60576e-11 1.06313e-10 1.25495e+07 1.19377e+13
130.545 904.806 1640.09 6.4224e-11 2.37643e+07 902.145 6.40351e-11 9.04567e-11 1.68726e+07 1.40883e+13
137.955 1040.74 1935.56 6.25961e-11 2.80503e+07 1037.62 6.24079e-11 7.69563e-11 2.2816e+07 1.66263e+13
145.787 1201.78 2284.26 6.1248e-11 3.30981e+07 1198.14 6.1062e-11 6.54636e-11 3.09667e+07 1.96216e+13
154.063 1392.93 2695.77 6.0153e-11 3.90634e+07 1388.6 5.9966e-11 5.56812e-11 4.22007e+07 2.31565e+13
162.808 1620.58 3181.42 5.93005e-11 4.61057e+07 1615.43 5.9112e-11 4.73556e-11 5.77352e+07 2.73282e+13
172.051 1890.21 3754.56 5.86086e-11 5.44046e+07 1884.16 5.84208e-11 4.02708e-11 7.91784e+07 3.22515e+13
181.818 2210.79 4430.96 5.80843e-11 6.42064e+07 2203.65 5.78968e-11 3.42426e-11 1.08911e+08 3.80616e+13
192.139 2591.77 5229.21 5.76992e-11 7.57748e+07 2583.34 5.75116e-11 2.91139e-11 1.50174e+08 4.49186e+13
203.046 3045.05 6171.26 5.74421e-11 8.94213e+07 3035.06 5.72536e-11 2.4751e-11 2.07528e+08 5.30108e+13
214.572 3585.1 7283.03 5.73059e-11 1.05538e+08 3573.21 5.71159e-11 2.10401e-11 2.8745e+08 6.25608e+13
226.753 4229.95 8595.09 5.72921e-11 1.24552e+08 4215.82 5.71007e-11 1.78839e-11 3.99008e+08 7.38313e+13
239.625 5000.63 10143.5 5.73913e-11 1.46987e+08 4983.76 5.71977e-11 1.51999e-11 5.54989e+08 8.71322e+13
253.228 5924.31 11970.9 5.76131e-11 1.7347e+08 5904.04 5.74159e-11 1.29176e-11 7.73682e+08 1.02829e+14
267.603 7038.96 14127.5 5.80034e-11 2.04703e+08 7014.63 5.78029e-11 1.09771e-11 1.08165e+09 1.21354e+14
282.795 8394.16 16672.6 5.86117e-11 2.4161e+08 8364.7 5.84059e-11 9.3274e-12 1.51823e+09 1.43217e+14
298.848 10053 19676.2 5.94793e-11 2.85122e+08 10016.9 5.92658e-11 7.925e-12 2.13992e+09 1.69017e+14
315.813 12115.2 23220.9 6.0738e-11 3.36491e+08 12070.7 6.05148e-11 6.73295e-12 3.03549e+09 1.99466e+14
333.741 14712.9 27404.3 6.25015e-11 3.97115e+08 14656.9 6.22636e-11 5.71979e-12 4.33937e+09 2.35401e+14
352.686 18064.9 32341.2 6.50265e-11 4.68637e+08 17993.1 6.47678e-11 4.85874e-12 6.27196e+09 2.77809e+14
372.707 22523.7 38167.6 6.86998e-11 5.53074e+08 22428.6 6.84099e-11 4.12703e-12 9.20664e+09 3.27857e+14
393.865 28684.5 45043.5 7.41352e-11 6.52716e+08 28553.9 7.37977e-11 3.50528e-12 1.38047e+10 3.86921e+14
416.224 33875.9 53158.3 7.41875e-11 2.2184e+08 35837.5 7.84833e-11 2.97701e-12 5.52828e+09 4.56626e+14
439.852 0 62734.9 0 0 0 0 2.52819e-12 0 5.38888e+14
464.821 0 74036.7 0 0 0 0 2.1469e-12 0 6.35971e+14
491.207 0 87374.6 0 0 0 0 1.82301e-12 0 7.50542e+14
519.092 0 103115 0 0 0 0 1.54789e-12 0 8.85755e+14
548.56 0 121692 0 0 0 0 1.31422e-12 0 1.04533e+15
579.7 0 143615 0 0 0 0 1.11576e-12 0 1.23364e+15
612.608 0 169488 0 0 0 0 9.47223e-13 0 1.45589e+15
647.384 0 200021 0 0 0 0 8.041e-13 0 1.71817e+15
684.134 0 236056 0 0 0 0 6.82568e-13 0 2.0277e+15
722.971 0 278582 0 0 0 0 5.79376e-13 0 2.393e+15
764.012 0 328769 0 0 0 0 4.91762e-13 0 2.8241e+15
0.526336
200
1.0655e+09
8589934592
0.0129181 0.000639206 1.58924e-09 4.68233e-05 6 0.000633354 4.63946e-05 0.00677225 0.0414839 13.6515
0.0136515 0 1.87554e-09 0 0 0 0 0.00688819 0 16.1108
0.0144264 0 2.21343e-09 0 0 0 0 0.00699249 0 19.0132
0.0152454 0 2.61218e-09 0 0 0 0 0.00708412 0 22.4385
0.0161108 0 3.08278e-09 0 0 0 0 0.00716212 0 26.4808
0.0170254 0 3.63815e-09 0 0 0 0 0.00722559 0 31.2514
0.0179919 0.00174158 4.29357e-09 4.72209e-05 12 0.00173933 4.71601e-05 0.00727371 0.077904 36.8815
0.0190132 0 5.06707e-09 0 0 0 0 0.00730578 0 43.5258
0.0200925 0 5.97991e-09 0 0 0 0 0.00732122 0 51.367
0.0212331 0.00386732 7.05721e-09 6.37951e-05 8 0.00386395 6.37396e-05 0.00731958 0.0697254 60.621
0.0224385 0 8.32858e-09 0 0 0 0 0.00730056 0 71.542
0.0237123 0 9.829e-09 0 0 0 0 0.00726401 0 84.4305
0.0250583 0.0081042 1.15997e-08 8.13341e-05 6 0.00810038 8.12958e-05 0.00720995 0.0676849 99.6408
0.0264808 0 1.36894e-08 0 0 0 0 0.00713857 0 117.591
0.0279841 0.00462977 1.61556e-08 3.33615e-05 24 0.00462501 3.33272e-05 0.00705021 0.113568 138.776
0.0295727 0 1.90661e-08 0 0 0 0 0.00694538 0 163.777
0.0312514 0.00716614 2.25009e-08 3.70762e-05 24 0.00720253 3.72645e-05 0.00682475 0.130383 193.281
0.0330255 0 2.65545e-08 0 0 0 0 0.00668915 0 228.102
0.0349003 0.0120265 3.13384e-08 4.46757e-05 12 0.0119302 4.43179e-05 0.00653951 0.0819798 269.195
0.0368815 0.0244725 3.69841e-08 7.70324e-05 30 0.0242119 7.62121e-05 0.00637693 0.362396 317.691
0.0389751 0.0206564 4.36469e-08 5.50948e-05 24 0.0204439 5.45281e-05 0.00620256 0.213182 374.924
0.0411876 0.022649 5.151e-08 5.11879e-05 24 0.0224952 5.08403e-05 0.00601767 0.20415 442.467
0.0435258 0.0194168 6.07896e-08 3.71842e-05 8 0.0194153 3.71814e-05 0.00582358 0.0510809 522.179
0.0459966 0.027274 7.1741e-08 4.4258e-05 72 0.0270584 4.39081e-05 0.00562166 0.566839 616.251
0.0486077 0 8.46654e-08 0 0 0 0 0.0054133 0 727.27
0.051367 0.0516489 9.99181e-08 6.01765e-05 54 0.0513889 5.98736e-05 0.00519989 0.624923 858.29
0.054283 0.0390939 1.17919e-07 3.85955e-05 60 0.0391541 3.86549e-05 0.0049828 0.464744 1012.91
0.0573645 0.0409922 1.39162e-07 3.42918e-05 96 0.0407857 3.41191e-05 0.00476339 0.691108 1195.39
0.060621 0.0466546 1.64232e-07 3.30709e-05 24 0.0460225 3.26228e-05 0.00454293 0.174712 1410.75
0.0640622 0.056149 1.93819e-07 3.37252e-05 134 0.0562929 3.38117e-05 0.00432265 1.04547 1664.89
0.0676989 0.0594497 2.28736e-07 3.02569e-05 120 0.0591331 3.00958e-05 0.00410371 0.884768 1964.83
0.071542 0.0625758 2.69944e-07 2.69863e-05 108 0.0615415 2.65403e-05 0.00388717 0.749778 2318.8
0.0756032 0.0929717 3.18575e-07 3.39742e-05 174 0.0923508 3.37473e-05 0.00367401 1.60901 2736.54
0.079895 0.0751879 3.75967e-07 2.32814e-05 168 0.0746043 2.31007e-05 0.0034651 1.12876 3229.53
0.0844305 0.105498 4.43698e-07 2.768e-05 168 0.105799 2.77589e-05 0.00326121 1.42593 3811.34
0.0892234 0.109794 5.23632e-07 2.44096e-05 290 0.109475 2.43389e-05 0.00306301 2.31105 4497.96
0.0942883 0.121782 6.17966e-07 2.29419e-05 288 0.121749 2.29356e-05 0.00287109 2.30131 5308.28
0.0996408 0.12345 7.29294e-07 1.97061e-05 366 0.122419 1.95415e-05 0.00268591 2.68528 6264.59
0.105297 0.12941 8.60678e-07 1.75041e-05 420 0.128618 1.73969e-05 0.00250785 2.93147 7393.17
0.111275 0.147006 1.01573e-06 1.68487e-05 398 0.14675 1.68194e-05 0.00233721 2.86914 8725.07
0.117591 0.167247 1.19872e-06 1.62424e-05 624 0.167572 1.6274e-05 0.00217419 4.66162 10296.9
0.124267 0.177549 1.41467e-06 1.46108e-05 642 0.17707 1.45713e-05 0.00201893 4.64609 12151.9
0.131321 0.198231 1.66953e-06 1.38226e-05 800 0.198068 1.38112e-05 0.00187147 5.90876 14341.1
0.138776 0.21485 1.9703e-06 1.26945e-05 858 0.215503 1.27331e-05 0.00173182 6.28927 16924.7
0.146654 0.213889 2.32525e-06 1.07085e-05 1080 0.215669 1.07976e-05 0.00159991 7.22865 19973.8
0.154979 0.246146 2.74415e-06 1.04423e-05 1286 0.24769 1.05078e-05 0.00147563 9.10031 23572.1
0.163777 0.252565 3.23852e-06 9.07897e-06 1650 0.25349 9.11223e-06 0.00135884 11.0243 27818.7
0.173074 0.271013 3.82195e-06 8.25498e-06 1778 0.271522 8.27049e-06 0.00124933 11.7482 32830.3
0.182899 0.318636 4.51048e-06 8.224e-06 2112 0.319193 8.23837e-06 0.00114689 15.1445 38744.7
0.193281 0.342651 5.32305e-06 7.49378e-06 2570 0.343161 7.50494e-06 0.00105127 18.3197 45724.7
0.204254 0.368687 6.28202e-06 6.83232e-06 3030 0.368676 6.83213e-06 0.000962209 21.515 53962.1
0.215848 0.388399 7.41374e-06 6.09889e-06 3434 0.388381 6.0986e-06 0.000879423 23.8152 63683.5
0.228102 0.409522 8.74934e-06 5.44893e-06 4218 0.409604 5.45003e-06 0.000802624 28.6356 75156.3
0.24105 0.456176 1.03256e-05 5.14315e-06 4766 0.456832 5.15054e-06 0.000731515 33.5089 88695.9
0.254734 0.520961 1.21857e-05 4.97695e-06 6026 0.520768 4.97511e-06 0.000665798 45.0453 104675
0.269195 0.563302 1.4381e-05 4.55997e-06 6480 0.563684 4.56305e-06 0.000605173 48.8266 123532
0.284476 0.595921 1.69718e-05 4.08762e-06 8162 0.597061 4.09544e-06 0.000549345 60.7327 145787
0.300625 0.646033 2.00293e-05 3.7549e-06 9578 0.646342 3.75669e-06 0.000498021 72.2147 172051
0.317691 0.699284 2.36377e-05 3.44397e-06 11234 0.69896 3.44237e-06 0.000450916 85.802 203046
0.335725 0.775504 2.78961e-05 3.23632e-06 13344 0.774342 3.23147e-06 0.000407755 105.91 239625
0.354784 0.836528 3.29216e-05 2.95808e-06 15464 0.83593 2.95596e-06 0.000368269 124.213 282795
0.374924 0.905108 3.88525e-05 2.71201e-06 18458 0.90483 2.71118e-06 0.000332202 150.686 333741
0.396207 0.973653 4.58519e-05 2.47205e-06 22232 0.971769 2.46726e-06 0.000299307 183.62 393865
0.418699 1.09215 5.41123e-05 2.34961e-06 25628 1.08983 2.34463e-06 0.00026935 223.56 464821
0.442467 1.1653 6.38607e-05 2.12429e-06 30320 1.16317 2.1204e-06 0.000242108 266.032 548560
0.467585 1.28472 7.53654e-05 1.98447e-06 35452 1.28286 1.98161e-06 0.00021737 323.657 647384
0.494129 1.39732 8.89427e-05 1.82893e-06 41792 1.39606 1.82727e-06 0.000194938 392.096 764012
0.522179 1.53717 0.000104966 1.70483e-06 49988 1.53657 1.70417e-06 0.000174625 488.025 901651
0.551822 1.69354 0.000123876 1.59154e-06 59110 1.69202 1.59012e-06 0.000156255 602.069 1.06409e+06
0.583147 1.84264 0.000146192 1.46732e-06 69716 1.83975 1.46502e-06 0.000139664 732.443 1.25578e+06
0.616251 2.04574 0.000172529 1.38038e-06 82210 2.04173 1.37767e-06 0.0001247 910.031 1.48202e+06
0.651234 2.22255 0.000203611 1.27075e-06 96722 2.21797 1.26813e-06 0.00011122 1105.1 1.74901e+06
0.688203 2.45652 0.000240292 1.19012e-06 113098 2.45239 1.18812e-06 9.90935e-05 1358.32 2.06409e+06
0.72727 2.71695 0.000283581 1.11536e-06 135190 2.71262 1.11358e-06 8.81969e-05 1709.64 2.43595e+06
0.768555 2.99709 0.000334669 1.04254e-06 158170 2.99277 1.04104e-06 7.84179e-05 2102.83 2.87479e+06
0.812184 3.32544 0.000394961 9.80178e-07 188560 3.321 9.7887e-07 6.96525e-05 2653.49 3.39269e+06
0.85829 3.68966 0.000466114 9.21519e-07 220444 3.68342 9.19959e-07 6.1805e-05 3286.84 4.00389e+06
0.907013 4.08606 0.000550086 8.64737e-07 261388 4.07991 8.63436e-07 5.47875e-05 4125.61 4.7252e+06
0.958501 4.52587 0.000649185 8.11602e-07 308244 4.51896 8.10363e-07 4.85194e-05 5156.11 5.57646e+06
1.01291 5.04689 0.000766138 7.6688e-07 364396 5.03773 7.65487e-07 4.29272e-05 6509.82 6.58107e+06
1.07041 5.59752 0.00090416 7.2071e-07 429162 5.58758 7.1943e-07 3.79435e-05 8151.64 7.76667e+06
1.13118 6.21777 0.00106705 6.78362e-07 506358 6.20685 6.7717e-07 3.3507e-05 10251.4 9.16586e+06
1.19539 6.88751 0.00125928 6.36724e-07 598590 6.87501 6.35568e-07 2.9562e-05 12892.8 1.08171e+07
1.26325 7.64705 0.00148614 5.99024e-07 704844 7.6328 5.97908e-07 2.60578e-05 16203.1 1.27658e+07
1.33496 8.49774 0.00175387 5.64047e-07 834620 8.4824 5.63029e-07 2.29484e-05 20514 1.50656e+07
1.41075 9.4449 0.00206984 5.31216e-07 981444 9.4264 5.30176e-07 2.01923e-05 25819.7 1.77798e+07
1.49083 10.5022 0.00244272 5.00513e-07 1.15998e+06 10.4822 4.99562e-07 1.77518e-05 32705.7 2.09828e+07
1.57546 11.6127 0.00288279 4.68954e-07 1.36931e+06 11.5905 4.68058e-07 1.55929e-05 41181.9 2.4763e+07
1.66489 12.8767 0.00340213 4.4062e-07 1.61652e+06 12.8517 4.39764e-07 1.3685e-05 52047.4 2.92241e+07
1.75941 14.2564 0.00401503 4.13364e-07 1.90601e+06 14.2292 4.12575e-07 1.20007e-05 65652.5 3.44889e+07
1.85928 15.7934 0.00473835 3.88024e-07 2.24913e+06 15.7631 3.87279e-07 1.05151e-05 82996.4 4.07021e+07
1.96483 17.4147 0.00559198 3.62545e-07 2.65744e+06 17.3814 3.61851e-07 9.20606e-06 104653 4.80347e+07
2.07637 19.2538 0.00659939 3.39644e-07 3.13125e+06 19.2161 3.38979e-07 8.05366e-06 132053 5.66883e+07
2.19424 21.2103 0.00778828 3.17041e-07 3.69915e+06 21.1699 3.16437e-07 7.04008e-06 166587 6.69008e+07
2.3188 23.2419 0.00919136 2.94375e-07 4.36472e+06 23.1979 2.93818e-07 6.1494e-06 208942 7.89532e+07
2.45043 25.4957 0.0108472 2.73627e-07 5.14913e+06 25.4476 2.73111e-07 5.36741e-06 262499 9.31768e+07
2.58954 27.9524 0.0128014 2.54198e-07 6.07894e+06 27.9009 2.53731e-07 4.68145e-06 330080 1.09963e+08
2.73654 30.5523 0.0151076 2.35428e-07 7.17304e+06 30.4954 2.3499e-07 4.08023e-06 413883 1.29773e+08
2.89188 33.3033 0.0178292 2.17453e-07 8.46557e+06 33.2433 2.17061e-07 3.55373e-06 518008 1.53152e+08
3.05605 36.2056 0.0210412 2.00315e-07 9.98773e+06 36.1409 1.99958e-07 3.09304e-06 646838 1.80743e+08
3.22953 39.2403 0.0248319 1.83964e-07 1.1797e+07 39.1717 1.83643e-07 2.69025e-06 806701 2.13304e+08
3.41286 42.4801 0.0293054 1.68752e-07 1.39144e+07 42.4045 1.68451e-07 2.33837e-06 1.00415e+06 2.51731e+08
3.6066 45.9219 0.0345848 1.54577e-07 1.64163e+07 45.8425 1.54309e-07 2.0312e-06 1.2493e+06 2.97081e+08
3.81134 49.4471 0.0408154 1.41035e-07 1.93821e+07 49.3616 1.40791e-07 1.76327e-06 1.55028e+06 3.50601e+08
4.0277 53.1596 0.0481684 1.28478e-07 2.28754e+07 53.0683 1.28258e-07 1.52972e-06 1.92126e+06 4.13763e+08
4.25634 57.0384 0.056846 1.16809e-07 2.69929e+07 56.9405 1.16609e-07 1.32631e-06 2.37729e+06 4.88304e+08
4.49796 61.0618 0.067087 1.0596e-07 3.18542e+07 60.9584 1.0578e-07 1.14926e-06 2.93691e+06 5.76273e+08
4.7533 65.28 0.0791729 9.59873e-08 3.75892e+07 65.1712 9.58273e-08 9.95263e-07 3.62526e+06 6.8009e+08
5.02313 69.7025 0.0934361 8.68448e-08 4.43706e+07 69.5865 8.67003e-08 8.61414e-07 4.47329e+06 8.0261e+08
5.30828 74.2924 0.110269 7.84335e-08 5.23593e+07 74.1678 7.8302e-08 7.45152e-07 5.51125e+06 9.47202e+08
5.60962 79.1046 0.130134 7.07654e-08 6.1787e+07 78.9733 7.06479e-08 6.44232e-07 6.78697e+06 1.11784e+09
5.92807 84.0761 0.153578 6.37314e-08 7.29346e+07 83.9384 6.3627e-08 5.56685e-07 8.34982e+06 1.31923e+09
6.26459 89.3199 0.181246 5.73708e-08 8.60651e+07 89.1704 5.72748e-08 4.80786e-07 1.02699e+07 1.55689e+09
6.62021 94.7888 0.213898 5.15895e-08 1.01558e+08 94.6327 5.15046e-08 4.15026e-07 1.26241e+07 1.83737e+09
6.99602 100.407 0.252432 4.63053e-08 1.1986e+08 100.243 4.62297e-08 3.58083e-07 1.54996e+07 2.16837e+09
7.39317 106.389 0.297908 4.15741e-08 1.41457e+08 106.214 4.15059e-08 3.08803e-07 1.90443e+07 2.55901e+09
7.81286 112.57 0.351577 3.72746e-08 1.66936e+08 112.386 3.72137e-08 2.66181e-07 2.33768e+07 3.02002e+09
8.25637 119.068 0.414914 3.34078e-08 1.97025e+08 118.873 3.3353e-08 2.29336e-07 2.8701e+07 3.56409e+09
8.72507 125.963 0.489662 2.99471e-08 2.32497e+08 125.754 2.98975e-08 1.97503e-07 3.52532e+07 4.20617e+09
9.22037 133.362 0.577876 2.68662e-08 2.74404e+08 133.138 2.68211e-08 1.70014e-07 4.33623e+07 4.96392e+09
9.74378 141.496 0.681982 2.41535e-08 3.2382e+08 141.253 2.41122e-08 1.46289e-07 5.34654e+07 5.85818e+09
10.2969 150.64 0.804843 2.17891e-08 3.82165e+08 150.372 2.17503e-08 1.25822e-07 6.61807e+07 6.91355e+09
10.8814 161.498 0.949838 1.97938e-08 4.51027e+08 161.19 1.9756e-08 1.08175e-07 8.25282e+07 8.15905e+09
11.4992 175.359 1.12095 1.82117e-08 5.32251e+08 174.986 1.8173e-08 9.29669e-08 1.04265e+08 9.62892e+09
12.1519 194.871 1.3229 1.71487e-08 6.28157e+08 194.381 1.71056e-08 7.98658e-08 1.34877e+08 1.13636e+10
12.8418 216.793 1.56122 1.61656e-08 3.82727e+08 224.388 1.67319e-08 6.85852e-08 9.02089e+07 1.34108e+10
13.5708 0 1.84248 0 0 0 0 5.88765e-08 0 1.58268e+10
14.3411 0 2.17441 0 0 0 0 5.05241e-08 0 1.8678e+10
15.1552 0 2.56613 0 0 0 0 4.33417e-08 0 2.20429e+10
16.0156 0 3.02843 0 0 0 0 3.71677e-08 0 2.6014e+10
16.9247 0 3.574 0 0 0 0 3.18628e-08 0 3.07005e+10
17.8855 0 4.21787 0 0 0 0 2.73063e-08 0 3.62312e+10
18.9008 0 4.97773 0 0 0 0 2.33941e-08 0 4.27584e+10
19.9738 0 5.87448 0 0 0 0 2.00364e-08 0 5.04614e+10
21.1076 0 6.93279 0 0 0 0 1.71555e-08 0 5.95522e+10
22.3058 0 8.18175 0 0 0 0 1.46847e-08 0 7.02807e+10
23.5721 0 9.65571 0 0 0 0 1.25662e-08 0 8.29419e+10
24.9102 0 11.3952 0 0 0 0 1.07504e-08 0 9.78842e+10
26.3243 0 13.4481 0 0 0 0 9.19452e-09 0 1.15518e+11
27.8187 0 15.8708 0 0 0 0 7.86182e-09 0 1.36329e+11
29.3979 0 18.73 0 0 0 0 6.72061e-09 0 1.60889e+11
31.0667 0 22.1042 0 0 0 0 5.74366e-09 0 1.89874e+11
32.8303 0 26.0864 0 0 0 0 4.90756e-09 0 2.2408e+11
34.694 0 30.7859 0 0 0 0 4.19221e-09 0 2.64449e+11
36.6634 0 36.3321 0 0 0 0 3.58032e-09 0 3.1209e+11
38.7447 0 42.8774 0 0 0 0 3.05709e-09 0 3.68314e+11
40.9442 0 50.6018 0 0 0 0 2.60976e-09 0 4.34667e+11
43.2685 0 59.7179 0 0 0 0 2.22743e-09 0 5.12973e+11
45.7247 0 70.4762 0 0 0 0 1.90073e-09 0 6.05386e+11
48.3204 0 83.1727 0 0 0 0 1.62163e-09 0 7.14448e+11
51.0634 0 98.1565 0 0 0 0 1.38326e-09 0 8.43158e+11
53.9621 0 115.84 0 0 0 0 1.1797e-09 0 9.95055e+11
57.0254 0 136.709 0 0 0 0 1.00592e-09 0 1.17432e+12
60.2626 0 161.337 0 0 0 0 8.57591e-10 0 1.38587e+12
63.6835 0 190.402 0 0 0 0 7.3101e-10 0 1.63554e+12
67.2987 0 224.704 0 0 0 0 6.23009e-10 0 1.93019e+12
71.1191 0 265.185 0 0 0 0 5.30879e-10 0 2.27792e+12
75.1563 0 312.958 0 0 0 0 4.52303e-10 0 2.68829e+12
79.4227 0 369.339 0 0 0 0 3.85299e-10 0 3.17259e+12
83.9313 0 435.876 0 0 0 0 3.28173e-10 0 3.74415e+12
88.6959 0 514.4 0 0 0 0 2.79476e-10 0 4.41866e+12
93.7309 0 607.071 0 0 0 0 2.37972e-10 0 5.2147e+12
99.0518 0 716.436 0 0 0 0 2.02605e-10 0 6.15414e+12
104.675 0 845.504 0 0 0 0 1.72471e-10 0 7.26283e+12
110.617 0 997.824 0 0 0 0 1.468e-10 0 8.57124e+12
116.896 0 1177.58 0 0 0 0 1.24935e-10 0 1.01154e+13
123.532 0 1389.73 0 0 0 0 1.06313e-10 0 1.19377e+13
130.545 0 1640.09 0 0 0 0 9.04567e-11 0 1.40883e+13
137.955 0 1935.56 0 0 0 0 7.69563e-11 0 1.66263e+13
145.787 0 2284.26 0 0 0 0 6.54636e-11 0 1.96216e+13
154.063 0 2695.77 0 0 0 0 5.56812e-11 0 2.31565e+13
162.808 0 3181.42 0 0 0 0 4.73556e-11 0 2.73282e+13
172.051 0 3754.56 0 0 0 0 4.02708e-11 0 3.22515e+13
181.818 0 4430.96 0 0 0 0 3.42426e-11 0 3.80616e+13
192.139 0 5229.21 0 0 0 0 2.91139e-11 0 4.49186e+13
203.046 0 6171.26 0 0 0 0 2.4751e-11 0 5.30108e+13
214.572 0 7283.03 0 0 0 0 2.10401e-11 0 6.25608e+13
226.753 0 8595.09 0 0 0 0 1.78839e-11 0 7.38313e+13
239.625 0 10143.5 0 0 0 0 1.51999e-11 0 8.71322e+13
253.228 0 11970.9 0 0 0 0 1.29176e-11 0 1.02829e+14
267.603 0 14127.5 0 0 0 0 1.09771e-11 0 1.21354e+14
282.795 0 16672.6 0 0 0 0 9.3274e-12 0 1.43217e+14
298.848 0 19676.2 0 0 0 0 7.925e-12 0 1.69017e+14
315.813 0 23220.9 0 0 0 0 6.73295e-12 0 1.99466e+14
333.741 0 27404.3 0 0 0 0 5.71979e-12 0 2.35401e+14
352.686 0 32341.2 0 0 0 0 4.85874e-12 0 2.77809e+14
372.707 0 38167.6 0 0 0 0 4.12703e-12 0 3.27857e+14
393.865 0 45043.5 0 0 0 0 3.50528e-12 0 3.86921e+14
416.224 0 53158.3 0 0 0 0 2.97701e-12 0 4.56626e+14
439.852 0 62734.9 0 0 0 0 2.52819e-12 0 5.38888e+14
464.821 0 74036.7 0 0 0 0 2.1469e-12 0 6.35971e+14
491.207 0 87374.6 0 0 0 0 1.82301e-12 0 7.50542e+14
519.092 0 103115 0 0 0 0 1.54789e-12 0 8.85755e+14
548.56 0 121692 0 0 0 0 1.31422e-12 0 1.04533e+15
579.7 0 143615 0 0 0 0 1.11576e-12 0 1.23364e+15
612.608 0 169488 0 0 0 0 9.47223e-13 0 1.45589e+15
647.384 0 200021 0 0 0 0 8.041e-13 0 1.71817e+15
684.134 0 236056 0 0 0 0 6.82568e-13 0 2.0277e+15
722.971 0 278582 0 0 0 0 5.79376e-13 0 2.393e+15
764.012 0 328769 0 0 0 0 4.91762e-13 0 2.8241e+15
