0.159811
200
1.0655e+09
8589934592
0.0129181 0 1.58924e-09 0 0 0 0 0.00677225 0 13.6515
0.0136515 0 1.87554e-09 0 0 0 0 0.00688819 0 16.1108
0.0144264 0 2.21343e-09 0 0 0 0 0.00699249 0 19.0132
0.0152454 0 2.61218e-09 0 0 0 0 0.00708412 0 22.4385
0.0161108 0 3.08278e-09 0 0 0 0 0.00716212 0 26.4808
0.0170254 0 3.63815e-09 0 0 0 0 0.00722559 0 31.2514
0.0179919 0 4.29357e-09 0 0 0 0 0.00727371 0 36.8815
0.0190132 0 5.06707e-09 0 0 0 0 0.00730578 0 43.5258
0.0200925 0 5.97991e-09 0 0 0 0 0.00732122 0 51.367
0.0212331 0 7.05721e-09 0 0 0 0 0.00731958 0 60.621
0.0224385 0 8.32858e-09 0 0 0 0 0.00730056 0 71.542
0.0237123 0 9.829e-09 0 0 0 0 0.00726401 0 84.4305
0.0250583 0 1.15997e-08 0 0 0 0 0.00720995 0 99.6408
0.0264808 0 1.36894e-08 0 0 0 0 0.00713857 0 117.591
0.0279841 0 1.61556e-08 0 0 0 0 0.00705021 0 138.776
0.0295727 0 1.90661e-08 0 0 0 0 0.00694538 0 163.777
0.0312514 0 2.25009e-08 0 0 0 0 0.00682475 0 193.281
0.0330255 0 2.65545e-08 0 0 0 0 0.00668915 0 228.102
0.0349003 0 3.13384e-08 0 0 0 0 0.00653951 0 269.195
0.0368815 0 3.69841e-08 0 0 0 0 0.00637693 0 317.691
0.0389751 0 4.36469e-08 0 0 0 0 0.00620256 0 374.924
0.0411876 0 5.151e-08 0 0 0 0 0.00601767 0 442.467
0.0435258 0 6.07896e-08 0 0 0 0 0.00582358 0 522.179
0.0459966 0 7.1741e-08 0 0 0 0 0.00562166 0 616.251
0.0486077 0 8.46654e-08 0 0 0 0 0.0054133 0 727.27
0.051367 0 9.99181e-08 0 0 0 0 0.00519989 0 858.29
0.054283 0 1.17919e-07 0 0 0 0 0.0049828 0 1012.91
0.0573645 0 1.39162e-07 0 0 0 0 0.00476339 0 1195.39
0.060621 0 1.64232e-07 0 0 0 0 0.00454293 0 1410.75
0.0640622 0 1.93819e-07 0 0 0 0 0.00432265 0 1664.89
0.0676989 0 2.28736e-07 0 0 0 0 0.00410371 0 1964.83
0.071542 0 2.69944e-07 0 0 0 0 0.00388717 0 2318.8
0.0756032 0 3.18575e-07 0 0 0 0 0.00367401 0 2736.54
0.079895 0 3.75967e-07 0 0 0 0 0.0034651 0 3229.53
0.0844305 0 4.43698e-07 0 0 0 0 0.00326121 0 3811.34
0.0892234 0 5.23632e-07 0 0 0 0 0.00306301 0 4497.96
0.0942883 0 6.17966e-07 0 0 0 0 0.00287109 0 5308.28
0.0996408 0 7.29294e-07 0 0 0 0 0.00268591 0 6264.59
0.105297 0 8.60678e-07 0 0 0 0 0.00250785 0 7393.17
0.111275 0 1.01573e-06 0 0 0 0 0.00233721 0 8725.07
0.117591 0 1.19872e-06 0 0 0 0 0.00217419 0 10296.9
0.124267 0 1.41467e-06 0 0 0 0 0.00201893 0 12151.9
0.131321 0 1.66953e-06 0 0 0 0 0.00187147 0 14341.1
0.138776 0 1.9703e-06 0 0 0 0 0.00173182 0 16924.7
0.146654 0 2.32525e-06 0 0 0 0 0.00159991 0 19973.8
0.154979 0 2.74415e-06 0 0 0 0 0.00147563 0 23572.1
0.163777 0 3.23852e-06 0 0 0 0 0.00135884 0 27818.7
0.173074 0 3.82195e-06 0 0 0 0 0.00124933 0 32830.3
0.182899 0 4.51048e-06 0 0 0 0 0.00114689 0 38744.7
0.193281 0 5.32305e-06 0 0 0 0 0.00105127 0 45724.7
0.204254 0 6.28202e-06 0 0 0 0 0.000962209 0 53962.1
0.215848 0 7.41374e-06 0 0 0 0 0.000879423 0 63683.5
0.228102 0 8.74934e-06 0 0 0 0 0.000802624 0 75156.3
0.24105 0 1.03256e-05 0 0 0 0 0.000731515 0 88695.9
0.254734 0 1.21857e-05 0 0 0 0 0.000665798 0 104675
0.269195 0 1.4381e-05 0 0 0 0 0.000605173 0 123532
0.284476 0 1.69718e-05 0 0 0 0 0.000549345 0 145787
0.300625 0 2.00293e-05 0 0 0 0 0.000498021 0 172051
0.317691 0 2.36377e-05 0 0 0 0 0.000450916 0 203046
0.335725 0 2.78961e-05 0 0 0 0 0.000407755 0 239625
0.354784 0 3.29216e-05 0 0 0 0 0.000368269 0 282795
0.374924 0 3.88525e-05 0 0 0 0 0.000332202 0 333741
0.396207 0.94541 4.58519e-05 2.40034e-06 6 0.919126 2.33361e-06 0.000299307 0.048118 393865
0.418699 0 5.41123e-05 0 0 0 0 0.00026935 0 464821
0.442467 0 6.38607e-05 0 0 0 0 0.000242108 0 548560
0.467585 0 7.53654e-05 0 0 0 0 0.00021737 0 647384
0.494129 0 8.89427e-05 0 0 0 0 0.000194938 0 764012
0.522179 0 0.000104966 0 0 0 0 0.000174625 0 901651
0.551822 0 0.000123876 0 0 0 0 0.000156255 0 1.06409e+06
0.583147 5.17015 0.000146192 4.11707e-06 12 5.44161 4.33324e-06 0.000139664 0.353741 1.25578e+06
0.616251 0 0.000172529 0 0 0 0 0.0001247 0 1.48202e+06
0.651234 0 0.000203611 0 0 0 0 0.00011122 0 1.74901e+06
0.688203 21.2365 0.000240292 1.02885e-05 8 20.7082 1.00326e-05 9.90935e-05 0.830614 2.06409e+06
0.72727 0 0.000283581 0 0 0 0 8.81969e-05 0 2.43595e+06
0.768555 0 0.000334669 0 0 0 0 7.84179e-05 0 2.87479e+06
0.812184 0.196069 0.000394961 5.77916e-08 6 0.200261 5.90272e-08 6.96525e-05 0.00497828 3.39269e+06
0.85829 0 0.000466114 0 0 0 0 6.1805e-05 0 4.00389e+06
0.907013 0.221064 0.000550086 4.6784e-08 24 0.225305 4.76816e-08 5.47875e-05 0.020494 4.7252e+06
0.958501 1.20094 0.000649185 2.15359e-07 24 1.1306 2.02745e-07 4.85194e-05 0.106527 5.57646e+06
1.01291 0 0.000766138 0 0 0 0 4.29272e-05 0 6.58107e+06
1.07041 0 0.00090416 0 0 0 0 3.79435e-05 0 7.76667e+06
1.13118 1.57353 0.00106705 1.71673e-07 12 1.5542 1.69564e-07 3.3507e-05 0.0614818 9.16586e+06
1.19539 1.37672 0.00125928 1.27272e-07 30 1.34834 1.24648e-07 2.9562e-05 0.129158 1.08171e+07
1.26325 6.94821 0.00148614 5.44281e-07 24 6.84366 5.36091e-07 2.60578e-05 0.501299 1.27658e+07
1.33496 16.6287 0.00175387 1.10375e-06 24 16.6652 1.10617e-06 2.29484e-05 1.15432 1.50656e+07
1.41075 5.93104 0.00206984 3.33584e-07 32 6.09997 3.43085e-07 2.01923e-05 0.528651 1.77798e+07
1.49083 0.599934 0.00244272 2.85917e-08 48 0.587144 2.79821e-08 1.77518e-05 0.0773107 2.09828e+07
1.57546 0.135362 0.00288279 5.46631e-09 6 0.128895 5.20516e-09 1.55929e-05 0.00210339 2.4763e+07
1.66489 0.501402 0.00340213 1.71572e-08 84 0.486755 1.66559e-08 1.3685e-05 0.105312 2.92241e+07
1.75941 2.42567 0.00401503 7.0332e-08 48 2.43668 7.06512e-08 1.20007e-05 0.281312 3.44889e+07
1.85928 0.411703 0.00473835 1.0115e-08 72 0.415581 1.02103e-08 1.05151e-05 0.0692607 4.07021e+07
1.96483 1.26039 0.00559198 2.62392e-08 54 1.22721 2.55483e-08 9.20606e-06 0.153911 4.80347e+07
2.07637 7.86452 0.00659939 1.38733e-07 104 7.85335 1.38536e-07 8.05366e-06 1.79151 5.66883e+07
2.19424 0.448384 0.00778828 6.70222e-09 120 0.451254 6.74512e-09 7.04008e-06 0.114241 6.69008e+07
2.3188 1.89908 0.00919136 2.40532e-08 156 1.81279 2.29604e-08 6.1494e-06 0.610191 7.89532e+07
2.45043 0.936905 0.0108472 1.00551e-08 126 0.928621 9.96622e-09 5.36741e-06 0.236044 9.31768e+07
2.58954 0.836295 0.0128014 7.60525e-09 192 0.847682 7.7088e-09 4.68145e-06 0.311913 1.09963e+08
2.73654 4.80932 0.0151076 3.70595e-08 152 5.00448 3.85634e-08 4.08023e-06 1.38057 1.29773e+08
2.89188 3.43263 0.0178292 2.24132e-08 378 3.51041 2.29211e-08 3.55373e-06 2.38403 1.53152e+08
3.05605 1.42507 0.0210412 7.88453e-09 264 1.40305 7.76271e-09 3.09304e-06 0.672968 1.80743e+08
3.22953 0.490235 0.0248319 2.29829e-09 366 0.485569 2.27642e-09 2.69025e-06 0.312675 2.13304e+08
3.41286 0.884951 0.0293054 3.51546e-09 428 0.855616 3.39893e-09 2.33837e-06 0.643446 2.51731e+08
3.6066 3.30637 0.0345848 1.11295e-08 486 3.20317 1.07821e-08 2.0312e-06 2.66292 2.97081e+08
3.81134 0.934052 0.0408154 2.66414e-09 600 0.932726 2.66036e-09 1.76327e-06 0.906548 3.50601e+08
4.0277 0.961318 0.0481684 2.32335e-09 738 0.944915 2.28371e-09 1.52972e-06 1.12088 4.13763e+08
4.25634 1.51687 0.056846 3.10641e-09 824 1.55567 3.18587e-09 1.32631e-06 1.92993 4.88304e+08
4.49796 2.82296 0.067087 4.89865e-09 954 2.83978 4.92784e-09 1.14926e-06 4.06638 5.76273e+08
4.7533 0.875037 0.0791729 1.28665e-09 1094 0.866254 1.27373e-09 9.95263e-07 1.41429 6.8009e+08
5.02313 0.764773 0.0934361 9.52857e-10 1332 0.765677 9.53984e-10 8.61414e-07 1.4734 8.0261e+08
5.30828 2.36322 0.110269 2.49494e-09 1614 2.3848 2.51773e-09 7.45152e-07 5.40405 9.47202e+08
5.60962 1.44649 0.130134 1.294e-09 1850 1.41222 1.26335e-09 6.44232e-07 3.71591 1.11784e+09
5.92807 1.85023 0.153578 1.40251e-09 2238 1.8003 1.36466e-09 5.56685e-07 5.63842 1.31923e+09
6.26459 1.15709 0.181246 7.43208e-10 2546 1.16955 7.51213e-10 4.80786e-07 3.93565 1.55689e+09
6.62021 0.875082 0.213898 4.7627e-10 3264 0.874257 4.75821e-10 4.15026e-07 3.74566 1.83737e+09
6.99602 1.97773 0.252432 9.12081e-10 3506 2.01877 9.31009e-10 3.58083e-07 8.93022 2.16837e+09
7.39317 1.35346 0.297908 5.28899e-10 4506 1.36127 5.31952e-10 3.08803e-07 7.71759 2.55901e+09
7.81286 1.98405 0.351577 6.56966e-10 5018 2.02015 6.68919e-10 2.66181e-07 12.385 3.02002e+09
8.25637 1.9142 0.414914 5.3708e-10 5852 1.87712 5.26676e-10 2.29336e-07 13.7047 3.56409e+09
8.72507 1.68263 0.489662 4.00039e-10 7362 1.67213 3.97543e-10 1.97503e-07 14.9116 4.20617e+09
9.22037 2.00473 0.577876 4.03861e-10 8306 1.9896 4.00813e-10 1.70014e-07 19.7305 4.96392e+09
9.74378 1.58083 0.681982 2.6985e-10 9698 1.57907 2.6955e-10 1.46289e-07 17.8893 5.85818e+09
10.2969 2.30321 0.804843 3.33144e-10 11816 2.31474 3.34812e-10 1.25822e-07 31.2856 6.91355e+09
10.8814 2.18619 0.949838 2.67946e-10 13682 2.18651 2.67985e-10 1.08175e-07 33.8898 8.15905e+09
11.4992 2.36444 1.12095 2.45556e-10 16152 2.34976 2.44032e-10 9.29669e-08 42.6627 9.62892e+09
12.1519 2.53028 1.3229 2.22665e-10 19472 2.5121 2.21066e-10 7.98658e-08 54.2878 1.13636e+10
12.8418 2.38578 1.56122 1.779e-10 22670 2.38224 1.77636e-10 6.85852e-08 58.8026 1.34108e+10
13.5708 3.00429 1.84248 1.89824e-10 26224 3.00633 1.89952e-10 5.88765e-08 84.5488 1.58268e+10
14.3411 3.12104 2.17441 1.67097e-10 31640 3.12576 1.6735e-10 5.05241e-08 104.642 1.8678e+10
15.1552 3.50686 2.56613 1.59092e-10 37484 3.50495 1.59006e-10 4.33417e-08 137.591 2.20429e+10
16.0156 3.81058 3.02843 1.46482e-10 43856 3.81051 1.46479e-10 3.71677e-08 172.841 2.6014e+10
16.9247 4.57199 3.574 1.48922e-10 51362 4.5636 1.48649e-10 3.18628e-08 240.059 3.07005e+10
17.8855 5.00171 4.21787 1.3805e-10 61636 4.98331 1.37542e-10 2.73063e-08 311.606 3.62312e+10
18.9008 5.70426 4.97773 1.33407e-10 72218 5.68943 1.3306e-10 2.33941e-08 411.829 4.27584e+10
19.9738 6.53359 5.87448 1.29477e-10 84586 6.5077 1.28964e-10 2.00364e-08 546.602 5.04614e+10
21.1076 7.40295 6.93279 1.2431e-10 100708 7.38779 1.24056e-10 1.71555e-08 729.738 5.95522e+10
22.3058 8.57537 8.18175 1.22016e-10 118712 8.55605 1.21741e-10 1.46847e-08 986.388 7.02807e+10
23.5721 9.60535 9.65571 1.15808e-10 140410 9.57648 1.1546e-10 1.25662e-08 1294 8.29419e+10
24.9102 11.0181 11.3952 1.12562e-10 164374 10.9855 1.1223e-10 1.07504e-08 1721.09 9.78842e+10
26.3243 12.4083 13.4481 1.07414e-10 194680 12.3747 1.07124e-10 9.19452e-09 2274.33 1.15518e+11
27.8187 13.9642 15.8708 1.0243e-10 230196 13.9251 1.02143e-10 7.86182e-09 2999.18 1.36329e+11
29.3979 15.7051 18.73 9.76141e-11 271156 15.6615 9.73433e-11 6.72061e-09 3938.43 1.60889e+11
31.0667 17.7806 22.1042 9.3644e-11 321076 17.7278 9.33662e-11 5.74366e-09 5234.79 1.89874e+11
32.8303 19.9981 26.0864 8.92454e-11 377436 19.9446 8.90065e-11 4.90756e-09 6863.78 2.2408e+11
34.694 22.7931 30.7859 8.61911e-11 447594 22.73 8.59525e-11 4.19221e-09 9202.47 2.64449e+11
36.6634 25.9445 36.3321 8.31315e-11 525078 25.8662 8.28805e-11 3.58032e-09 12191.8 3.1209e+11
38.7447 29.6691 42.8774 8.05538e-11 621924 29.5854 8.03267e-11 3.05709e-09 16387.6 3.68314e+11
40.9442 33.8655 50.6018 7.79116e-11 732630 33.7644 7.76788e-11 2.60976e-09 21871.9 4.34667e+11
43.2685 38.8234 59.7179 7.56831e-11 865596 38.7132 7.54684e-11 2.22743e-09 29411 5.12973e+11
45.7247 44.5733 70.4762 7.36278e-11 1.02168e+06 44.4394 7.34067e-11 1.90073e-09 39576.2 6.05386e+11
48.3204 51.3058 83.1727 7.18117e-11 1.20544e+06 51.1503 7.15941e-11 1.62163e-09 53381.1 7.14448e+11
51.0634 59.3162 98.1565 7.035e-11 1.42103e+06 59.1367 7.01371e-11 1.38326e-09 72271.2 8.43158e+11
53.9621 68.6386 115.84 6.89797e-11 1.67997e+06 68.435 6.8775e-11 1.1797e-09 98231.2 9.95055e+11
57.0254 79.4917 136.709 6.76919e-11 1.98018e+06 79.2502 6.74862e-11 1.00592e-09 133253 1.17432e+12
60.2626 92.2501 161.337 6.65646e-11 2.33957e+06 91.9635 6.63578e-11 8.57591e-10 181593 1.38587e+12
63.6835 107.112 190.402 6.54905e-11 2.75676e+06 106.774 6.52836e-11 7.3101e-10 246976 1.63554e+12
67.2987 124.735 224.704 6.4623e-11 3.25638e+06 124.347 6.44223e-11 6.23009e-10 337776 1.93019e+12
71.1191 145.671 265.185 6.39494e-11 3.84387e+06 145.216 6.37494e-11 5.30879e-10 463030 2.27792e+12
75.1563 180.496 312.958 6.71414e-11 4.53277e+06 179.176 6.66504e-11 4.52303e-10 672859 2.68829e+12
79.4227 199.349 369.339 6.28348e-11 5.35083e+06 198.72 6.26365e-11 3.85299e-10 872616 3.17259e+12
83.9313 233.312 435.876 6.23138e-11 6.32174e+06 232.56 6.21129e-11 3.28173e-10 1.20038e+06 3.74415e+12
88.6959 273.866 514.4 6.19793e-11 7.44986e+06 272.979 6.17787e-11 2.79476e-10 1.65215e+06 4.41866e+12
93.7309 321.591 607.071 6.167e-11 8.79764e+06 320.561 6.14725e-11 2.37972e-10 2.27989e+06 5.2147e+12
99.0518 378.306 716.436 6.14717e-11 1.03827e+07 377.068 6.12706e-11 2.02605e-10 3.15018e+06 6.15414e+12
104.675 461.057 845.504 6.34817e-11 1.22515e+07 460.405 6.3392e-11 1.72471e-10 4.50944e+06 7.26283e+12
110.617 523.956 997.824 6.11296e-11 1.44573e+07 522.249 6.09304e-11 1.468e-10 6.02023e+06 8.57124e+12
116.896 616.592 1177.58 6.0956e-11 1.70664e+07 614.581 6.07571e-11 1.24935e-10 8.32674e+06 1.01154e+13
123.532 726.903 1389.73 6.08914e-11 2.0139e+07 724.495 6.06897e-11 1.06313e-10 1.15347e+07 1.19377e+13
130.545 861.482 1640.09 6.11488e-11 2.37643e+07 858.848 6.09618e-11 9.04567e-11 1.60647e+07 1.40883e+13
137.955 1010.3 1935.56 6.07649e-11 2.80503e+07 1006.95 6.05636e-11 7.69563e-11 2.21486e+07 1.66263e+13
145.787 1191.27 2284.26 6.07121e-11 3.30981e+07 1187.31 6.05105e-11 6.54636e-11 3.06958e+07 1.96216e+13
154.063 1406.91 2695.77 6.07568e-11 3.90634e+07 1402.26 6.05559e-11 5.56812e-11 4.26243e+07 2.31565e+13
162.808 1659.15 3181.42 6.0712e-11 4.61057e+07 1653.63 6.05099e-11 4.73556e-11 5.91095e+07 2.73282e+13
172.051 1958.14 3754.56 6.07148e-11 5.44046e+07 1951.59 6.05117e-11 4.02708e-11 8.20237e+07 3.22515e+13
181.818 2316.74 4430.96 6.08682e-11 6.42064e+07 2309.05 6.0666e-11 3.42426e-11 1.14131e+08 3.80616e+13
192.139 2734.62 5229.21 6.08795e-11 7.57748e+07 2725.48 6.0676e-11 2.91139e-11 1.58451e+08 4.49186e+13
203.046 3234.28 6171.26 6.10118e-11 8.94213e+07 3223.4 6.08066e-11 2.4751e-11 2.20425e+08 5.30108e+13
214.572 3828.31 7283.03 6.11935e-11 1.05538e+08 3815.41 6.09872e-11 2.10401e-11 3.0695e+08 6.25608e+13
226.753 4536.6 8595.09 6.14455e-11 1.24552e+08 4521.04 6.12348e-11 1.78839e-11 4.27934e+08 7.38313e+13
239.625 5379.11 10143.5 6.1735e-11 1.46987e+08 5360.73 6.15241e-11 1.51999e-11 5.96994e+08 8.71322e+13
253.228 6391.7 11970.9 6.21583e-11 1.7347e+08 6369.61 6.19435e-11 1.29176e-11 8.34721e+08 1.02829e+14
267.603 7606.41 14127.5 6.26794e-11 2.04703e+08 7579.95 6.24613e-11 1.09771e-11 1.16885e+09 1.21354e+14
282.795 9081.39 16672.6 6.34102e-11 2.4161e+08 9049.37 6.31866e-11 9.3274e-12 1.64253e+09 1.43217e+14
298.848 10885.7 19676.2 6.44058e-11 2.85122e+08 10846.6 6.41744e-11 7.925e-12 2.31717e+09 1.69017e+14
315.813 13123 23220.9 6.57906e-11 3.36491e+08 13075 6.55501e-11 6.73295e-12 3.288e+09 1.99466e+14
333.741 15936.1 27404.3 6.76979e-11 3.97115e+08 15875.6 6.74407e-11 5.71979e-12 4.70014e+09 2.35401e+14
352.686 19558.5 32341.2 7.04028e-11 4.68637e+08 19480.8 7.01231e-11 4.85874e-12 6.79052e+09 2.77809e+14
372.707 24368.7 38167.6 7.43272e-11 5.53074e+08 24266.1 7.40144e-11 4.12703e-12 9.96078e+09 3.27857e+14
393.865 31006.6 45043.5 8.01367e-11 6.52716e+08 30865.8 7.97729e-11 3.50528e-12 1.49222e+10 3.86921e+14
416.224 36588.8 53158.3 8.01286e-11 2.2184e+08 38707.5 8.47684e-11 2.97701e-12 5.971e+09 4.56626e+14
439.852 0 62734.9 0 0 0 0 2.52819e-12 0 5.38888e+14
464.821 0 74036.7 0 0 0 0 2.1469e-12 0 6.35971e+14
491.207 0 87374.6 0 0 0 0 1.82301e-12 0 7.50542e+14
519.092 0 103115 0 0 0 0 1.54789e-12 0 8.85755e+14
548.56 0 121692 0 0 0 0 1.31422e-12 0 1.04533e+15
579.7 0 143615 0 0 0 0 1.11576e-12 0 1.23364e+15
612.608 0 169488 0 0 0 0 9.47223e-13 0 1.45589e+15
647.384 0 200021 0 0 0 0 8.041e-13 0 1.71817e+15
684.134 0 236056 0 0 0 0 6.82568e-13 0 2.0277e+15
722.971 0 278582 0 0 0 0 5.79376e-13 0 2.393e+15
764.012 0 328769 0 0 0 0 4.91762e-13 0 2.8241e+15
0.159811
200
1.0655e+09
8589934592
0.0129181 6.52494e-05 1.58924e-09 4.77967e-06 6 6.46521e-05 4.73591e-06 0.00677225 0.00423463 13.6515
0.0136515 0 1.87554e-09 0 0 0 0 0.00688819 0 16.1108
0.0144264 0 2.21343e-09 0 0 0 0 0.00699249 0 19.0132
0.0152454 0 2.61218e-09 0 0 0 0 0.00708412 0 22.4385
0.0161108 0 3.08278e-09 0 0 0 0 0.00716212 0 26.4808
0.0170254 0 3.63815e-09 0 0 0 0 0.00722559 0 31.2514
0.0179919 0.000178966 4.29357e-09 4.85247e-06 12 0.000178736 4.84622e-06 0.00727371 0.00800549 36.8815
0.0190132 0 5.06707e-09 0 0 0 0 0.00730578 0 43.5258
0.0200925 0 5.97991e-09 0 0 0 0 0.00732122 0 51.367
0.0212331 0.000397099 7.05721e-09 6.55053e-06 8 0.000396754 6.54483e-06 0.00731958 0.00715946 60.621
0.0224385 0 8.32858e-09 0 0 0 0 0.00730056 0 71.542
0.0237123 0 9.829e-09 0 0 0 0 0.00726401 0 84.4305
0.0250583 0.000842904 1.15997e-08 8.45942e-06 6 0.000842507 8.45544e-06 0.00720995 0.00703979 99.6408
0.0264808 0 1.36894e-08 0 0 0 0 0.00713857 0 117.591
0.0279841 0.000466093 1.61556e-08 3.35861e-06 24 0.000465615 3.35516e-06 0.00705021 0.0114332 138.776
0.0295727 0 1.90661e-08 0 0 0 0 0.00694538 0 163.777
0.0312514 0.000723307 2.25009e-08 3.74225e-06 24 0.00072698 3.76125e-06 0.00682475 0.01316 193.281
0.0330255 0 2.65545e-08 0 0 0 0 0.00668915 0 228.102
0.0349003 0.00127966 3.13384e-08 4.75367e-06 12 0.00126942 4.7156e-06 0.00653951 0.00872298 269.195
0.0368815 0.00248461 3.69841e-08 7.82085e-06 30 0.00245815 7.73757e-06 0.00637693 0.0367929 317.691
0.0389751 0.0021086 4.36469e-08 5.62408e-06 24 0.00208691 5.56622e-06 0.00620256 0.0217616 374.924
0.0411876 0.00233238 5.151e-08 5.2713e-06 24 0.00231654 5.2355e-06 0.00601767 0.0210233 442.467
0.0435258 0.00204395 6.07896e-08 3.91427e-06 8 0.00204379 3.91397e-06 0.00582358 0.00537714 522.179
0.0459966 0.00281768 7.1741e-08 4.57229e-06 72 0.00279558 4.53644e-06 0.00562166 0.0585601 616.251
0.0486077 0 8.46654e-08 0 0 0 0 0.0054133 0 727.27
0.051367 0.00520566 9.99181e-08 6.06515e-06 54 0.00517953 6.03471e-06 0.00519989 0.0629856 858.29
0.054283 0.0041231 1.17919e-07 4.07054e-06 60 0.00412917 4.07653e-06 0.0049828 0.049015 1012.91
0.0573645 0.00428534 1.39162e-07 3.58488e-06 96 0.00426112 3.56462e-06 0.00476339 0.0722488 1195.39
0.060621 0.00498528 1.64232e-07 3.53379e-06 24 0.00491773 3.48591e-06 0.00454293 0.0186688 1410.75
0.0640622 0.00557047 1.93819e-07 3.34584e-06 134 0.00558569 3.35498e-06 0.00432265 0.103719 1664.89
0.0676989 0.00630121 2.28736e-07 3.207e-06 120 0.00626789 3.19004e-06 0.00410371 0.0937785 1964.83
0.071542 0.00677062 2.69944e-07 2.91988e-06 108 0.00666141 2.87278e-06 0.00388717 0.081125 2318.8
0.0756032 0.00965855 3.18575e-07 3.52948e-06 174 0.00959625 3.50671e-06 0.00367401 0.167155 2736.54
0.079895 0.00814274 3.75967e-07 2.52134e-06 168 0.00808196 2.50252e-06 0.0034651 0.122243 3229.53
0.0844305 0.0111326 4.43698e-07 2.92091e-06 168 0.0111649 2.92938e-06 0.00326121 0.15047 3811.34
0.0892234 0.0116186 5.23632e-07 2.58308e-06 290 0.0115865 2.57595e-06 0.00306301 0.24456 4497.96
0.0942883 0.0123518 6.17966e-07 2.3269e-06 288 0.0123543 2.32736e-06 0.00287109 0.233412 5308.28
0.0996408 0.0124616 7.29294e-07 1.98921e-06 366 0.01235 1.9714e-06 0.00268591 0.271063 6264.59
0.105297 0.0123049 8.60678e-07 1.66435e-06 420 0.0122264 1.65374e-06 0.00250785 0.278736 7393.17
0.111275 0.0146769 1.01573e-06 1.68215e-06 398 0.0146561 1.67977e-06 0.00233721 0.28645 8725.07
0.117591 0.0164095 1.19872e-06 1.59363e-06 624 0.0164423 1.59682e-06 0.00217419 0.457378 10296.9
0.124267 0.0177286 1.41467e-06 1.45891e-06 642 0.0176885 1.45561e-06 0.00201893 0.463921 12151.9
0.131321 0.0199891 1.66953e-06 1.39383e-06 800 0.019969 1.39243e-06 0.00187147 0.595824 14341.1
0.138776 0.0219301 1.9703e-06 1.29574e-06 858 0.021999 1.29982e-06 0.00173182 0.641953 16924.7
0.146654 0.0214448 2.32525e-06 1.07365e-06 1080 0.0216378 1.08331e-06 0.00159991 0.724753 19973.8
0.154979 0.0237749 2.74415e-06 1.0086e-06 1286 0.0239393 1.01558e-06 0.00147563 0.878987 23572.1
0.163777 0.0246804 3.23852e-06 8.87188e-07 1650 0.0247688 8.90368e-07 0.00135884 1.07729 27818.7
0.173074 0.0253962 3.82195e-06 7.7356e-07 1778 0.025447 7.75107e-07 0.00124933 1.1009 32830.3
0.182899 0.0305868 4.51048e-06 7.89445e-07 2112 0.030634 7.90663e-07 0.00114689 1.45376 38744.7
0.193281 0.0326137 5.32305e-06 7.13262e-07 2570 0.0326699 7.14492e-07 0.00105127 1.74368 45724.7
0.204254 0.0350875 6.28202e-06 6.50225e-07 3030 0.035088 6.50234e-07 0.000962209 2.04756 53962.1
0.215848 0.036514 7.41374e-06 5.73367e-07 3434 0.0364958 5.73081e-07 0.000879423 2.2389 63683.5
0.228102 0.0374796 8.74934e-06 4.98689e-07 4218 0.0374663 4.98512e-07 0.000802624 2.62074 75156.3
0.24105 0.0413892 1.03256e-05 4.66642e-07 4766 0.0414396 4.6721e-07 0.000731515 3.04028 88695.9
0.254734 0.0458409 1.21857e-05 4.37936e-07 6026 0.045827 4.37804e-07 0.000665798 3.96367 104675
0.269195 0.0483745 1.4381e-05 3.91594e-07 6480 0.048371 3.91566e-07 0.000605173 4.19307 123532
0.284476 0.0504575 1.69718e-05 3.46105e-07 8162 0.0505477 3.46724e-07 0.000549345 5.14232 145787
0.300625 0.0542014 2.00293e-05 3.15032e-07 9578 0.0542316 3.15207e-07 0.000498021 6.05873 172051
0.317691 0.056664 2.36377e-05 2.7907e-07 11234 0.0566598 2.79049e-07 0.000450916 6.95266 203046
0.335725 0.0619586 2.78961e-05 2.58564e-07 13344 0.0619221 2.58412e-07 0.000407755 8.46166 239625
0.354784 0.0642114 3.29216e-05 2.2706e-07 15464 0.0641765 2.26937e-07 0.000368269 9.5345 282795
0.374924 0.0685439 3.88525e-05 2.05381e-07 18458 0.0685249 2.05324e-07 0.000332202 11.4115 333741
0.396207 0.0728115 4.58519e-05 1.84864e-07 22232 0.0726885 1.84552e-07 0.000299307 13.7314 393865
0.418699 0.0774179 5.41123e-05 1.66554e-07 25628 0.0772549 1.66204e-07 0.00026935 15.8472 464821
0.442467 0.0820675 6.38607e-05 1.49605e-07 30320 0.0818874 1.49277e-07 0.000242108 18.7356 548560
0.467585 0.0871035 7.53654e-05 1.34547e-07 35452 0.0869696 1.3434e-07 0.00021737 21.9439 647384
0.494129 0.0914437 8.89427e-05 1.19689e-07 41792 0.0914223 1.19661e-07 0.000194938 25.6596 764012
0.522179 0.0962723 0.000104966 1.06773e-07 49988 0.0962465 1.06745e-07 0.000174625 30.5649 901651
0.551822 0.102485 0.000123876 9.63127e-08 59110 0.102418 9.62493e-08 0.000156255 36.4344 1.06409e+06
0.583147 0.10753 0.000146192 8.56281e-08 69716 0.107445 8.55599e-08 0.000139664 42.7429 1.25578e+06
0.616251 0.113879 0.000172529 7.68407e-08 82210 0.113721 7.67339e-08 0.0001247 50.6582 1.48202e+06
0.651234 0.119281 0.000203611 6.81991e-08 96722 0.11907 6.80786e-08 0.00011122 59.3088 1.74901e+06
0.688203 0.125934 0.000240292 6.10119e-08 113098 0.125748 6.09218e-08 9.90935e-05 69.6345 2.06409e+06
0.72727 0.134202 0.000283581 5.50925e-08 135190 0.134058 5.50333e-08 8.81969e-05 84.4469 2.43595e+06
0.768555 0.141473 0.000334669 4.92118e-08 158170 0.14136 4.91725e-08 7.84179e-05 99.2608 2.87479e+06
0.812184 0.149221 0.000394961 4.3983e-08 188560 0.149076 4.39402e-08 6.96525e-05 119.069 3.39269e+06
0.85829 0.156835 0.000466114 3.91706e-08 220444 0.156636 3.91209e-08 6.1805e-05 139.712 4.00389e+06
0.907013 0.166678 0.000550086 3.52743e-08 261388 0.166499 3.52364e-08 5.47875e-05 168.292 4.7252e+06
0.958501 0.175298 0.000649185 3.14353e-08 308244 0.175084 3.1397e-08 4.85194e-05 199.708 5.57646e+06
1.01291 0.184403 0.000766138 2.80202e-08 364396 0.184178 2.7986e-08 4.29272e-05 237.855 6.58107e+06
1.07041 0.195157 0.00090416 2.51275e-08 429162 0.194905 2.50951e-08 3.79435e-05 284.207 7.76667e+06
1.13118 0.206047 0.00106705 2.24799e-08 506358 0.205774 2.245e-08 3.3507e-05 339.716 9.16586e+06
1.19539 0.217027 0.00125928 2.00633e-08 598590 0.216763 2.00389e-08 2.9562e-05 406.254 1.08171e+07
1.26325 0.229337 0.00148614 1.79649e-08 704844 0.229045 1.7942e-08 2.60578e-05 485.938 1.27658e+07
1.33496 0.242421 0.00175387 1.6091e-08 834620 0.242105 1.607e-08 2.29484e-05 585.218 1.50656e+07
1.41075 0.255695 0.00206984 1.43813e-08 981444 0.255346 1.43616e-08 2.01923e-05 699 1.77798e+07
1.49083 0.270207 0.00244272 1.28775e-08 1.15998e+06 0.269843 1.28602e-08 1.77518e-05 841.474 2.09828e+07
1.57546 0.286072 0.00288279 1.15524e-08 1.36931e+06 0.285673 1.15363e-08 1.55929e-05 1014.49 2.4763e+07
1.66489 0.302708 0.00340213 1.03582e-08 1.61652e+06 0.302262 1.03429e-08 1.3685e-05 1223.54 2.92241e+07
1.75941 0.320533 0.00401503 9.29381e-09 1.90601e+06 0.320047 9.27973e-09 1.20007e-05 1476.09 3.44889e+07
1.85928 0.339728 0.00473835 8.3467e-09 2.24913e+06 0.339227 8.33439e-09 1.05151e-05 1785.32 4.07021e+07
1.96483 0.359864 0.00559198 7.49175e-09 2.65744e+06 0.359327 7.48056e-09 9.20606e-06 2162.58 4.80347e+07
2.07637 0.381386 0.00659939 6.72777e-09 3.13125e+06 0.380823 6.71784e-09 8.05366e-06 2615.75 5.66883e+07
2.19424 0.405321 0.00778828 6.05853e-09 3.69915e+06 0.404716 6.04949e-09 7.04008e-06 3183.4 6.69008e+07
2.3188 0.430489 0.00919136 5.45246e-09 4.36472e+06 0.429825 5.44405e-09 6.1494e-06 3870.05 7.89532e+07
2.45043 0.457412 0.0108472 4.90908e-09 5.14913e+06 0.456707 4.9015e-09 5.36741e-06 4709.44 9.31768e+07
2.58954 0.486689 0.0128014 4.42594e-09 6.07894e+06 0.48594 4.41913e-09 4.68145e-06 5747.15 1.09963e+08
2.73654 0.519021 0.0151076 3.99945e-09 7.17304e+06 0.518219 3.99328e-09 4.08023e-06 7031.03 1.29773e+08
2.89188 0.55329 0.0178292 3.61269e-09 8.46557e+06 0.552432 3.60709e-09 3.55373e-06 8606.01 1.53152e+08
3.05605 0.590041 0.0210412 3.26453e-09 9.98773e+06 0.589118 3.25943e-09 3.09304e-06 10541.5 1.80743e+08
3.22953 0.630663 0.0248319 2.95664e-09 1.1797e+07 0.629652 2.9519e-09 2.69025e-06 12965.2 2.13304e+08
3.41286 0.674442 0.0293054 2.67921e-09 1.39144e+07 0.673323 2.67477e-09 2.33837e-06 15942.6 2.51731e+08
3.6066 0.722734 0.0345848 2.43278e-09 1.64163e+07 0.721545 2.42878e-09 2.0312e-06 19661.9 2.97081e+08
3.81134 0.774519 0.0408154 2.20912e-09 1.93821e+07 0.773217 2.2054e-09 1.76327e-06 24283 3.50601e+08
4.0277 0.831207 0.0481684 2.0089e-09 2.28754e+07 0.82979 2.00547e-09 1.52972e-06 30041 4.13763e+08
4.25634 0.893016 0.056846 1.82881e-09 2.69929e+07 0.891474 1.82565e-09 1.32631e-06 37219.8 4.88304e+08
4.49796 0.961053 0.067087 1.66771e-09 3.18542e+07 0.959354 1.66476e-09 1.14926e-06 46224.2 5.76273e+08
4.7533 1.03479 0.0791729 1.52155e-09 3.75892e+07 1.03294 1.51883e-09 9.95263e-07 57466 6.8009e+08
5.02313 1.11624 0.0934361 1.39076e-09 4.43706e+07 1.11421 1.38823e-09 8.61414e-07 71636.7 8.0261e+08
5.30828 1.20581 0.110269 1.27303e-09 5.23593e+07 1.2036 1.27069e-09 7.45152e-07 89451.2 9.47202e+08
5.60962 1.30343 0.130134 1.16603e-09 6.1787e+07 1.30103 1.16387e-09 6.44232e-07 111831 1.11784e+09
5.92807 1.41105 0.153578 1.0696e-09 7.29346e+07 1.40839 1.06759e-09 5.56685e-07 140135 1.31923e+09
6.26459 1.52952 0.181246 9.82423e-10 8.60651e+07 1.52657 9.80525e-10 4.80786e-07 175862 1.55689e+09
6.62021 1.65993 0.213898 9.03431e-10 1.01558e+08 1.65671 9.01674e-10 4.15026e-07 221072 1.83737e+09
6.99602 1.80396 0.252432 8.31942e-10 1.1986e+08 1.80041 8.30305e-10 3.58083e-07 278473 2.16837e+09
7.39317 1.96323 0.297908 7.67183e-10 1.41457e+08 1.9593 7.65649e-10 3.08803e-07 351431 2.55901e+09
7.81286 2.14189 0.351577 7.0923e-10 1.66936e+08 2.13757 7.07798e-10 2.66181e-07 444794 3.02002e+09
8.25637 2.34044 0.414914 6.56673e-10 1.97025e+08 2.33562 6.55321e-10 2.29336e-07 564155 3.56409e+09
8.72507 2.56368 0.489662 6.09505e-10 2.32497e+08 2.5583 6.08226e-10 1.97503e-07 717497 4.20617e+09
9.22037 2.81653 0.577876 5.674e-10 2.74404e+08 2.81047 5.6618e-10 1.70014e-07 915789 4.96392e+09
9.74378 3.10724 0.681982 5.30409e-10 3.2382e+08 3.10035 5.29234e-10 1.46289e-07 1.17409e+06 5.85818e+09
10.2969 3.44835 0.804843 4.98781e-10 3.82165e+08 3.44035 4.97625e-10 1.25822e-07 1.51497e+06 6.91355e+09
10.8814 3.86058 0.949838 4.73166e-10 4.51027e+08 3.85109 4.72002e-10 1.08175e-07 1.97282e+06 8.15905e+09
11.4992 4.3864 1.12095 4.55544e-10 5.32251e+08 4.37453 4.54311e-10 9.29669e-08 2.60807e+06 9.62892e+09
12.1519 5.10251 1.3229 4.49023e-10 6.28157e+08 5.08681 4.47641e-10 7.98658e-08 3.53164e+06 1.13636e+10
12.8418 5.86514 1.56122 4.37345e-10 3.82727e+08 6.06969 4.52598e-10 6.85852e-08 2.44052e+06 1.34108e+10
13.5708 0 1.84248 0 0 0 0 5.88765e-08 0 1.58268e+10
14.3411 0 2.17441 0 0 0 0 5.05241e-08 0 1.8678e+10
15.1552 0 2.56613 0 0 0 0 4.33417e-08 0 2.20429e+10
16.0156 0 3.02843 0 0 0 0 3.71677e-08 0 2.6014e+10
16.9247 0 3.574 0 0 0 0 3.18628e-08 0 3.07005e+10
17.8855 0 4.21787 0 0 0 0 2.73063e-08 0 3.62312e+10
18.9008 0 4.97773 0 0 0 0 2.33941e-08 0 4.27584e+10
19.9738 0 5.87448 0 0 0 0 2.00364e-08 0 5.04614e+10
21.1076 0 6.93279 0 0 0 0 1.71555e-08 0 5.95522e+10
22.3058 0 8.18175 0 0 0 0 1.46847e-08 0 7.02807e+10
23.5721 0 9.65571 0 0 0 0 1.25662e-08 0 8.29419e+10
24.9102 0 11.3952 0 0 0 0 1.07504e-08 0 9.78842e+10
26.3243 0 13.4481 0 0 0 0 9.19452e-09 0 1.15518e+11
27.8187 0 15.8708 0 0 0 0 7.86182e-09 0 1.36329e+11
29.3979 0 18.73 0 0 0 0 6.72061e-09 0 1.60889e+11
31.0667 0 22.1042 0 0 0 0 5.74366e-09 0 1.89874e+11
32.8303 0 26.0864 0 0 0 0 4.90756e-09 0 2.2408e+11
34.694 0 30.7859 0 0 0 0 4.19221e-09 0 2.64449e+11
36.6634 0 36.3321 0 0 0 0 3.58032e-09 0 3.1209e+11
38.7447 0 42.8774 0 0 0 0 3.05709e-09 0 3.68314e+11
40.9442 0 50.6018 0 0 0 0 2.60976e-09 0 4.34667e+11
43.2685 0 59.7179 0 0 0 0 2.22743e-09 0 5.12973e+11
45.7247 0 70.4762 0 0 0 0 1.90073e-09 0 6.05386e+11
48.3204 0 83.1727 0 0 0 0 1.62163e-09 0 7.14448e+11
51.0634 0 98.1565 0 0 0 0 1.38326e-09 0 8.43158e+11
53.9621 0 115.84 0 0 0 0 1.1797e-09 0 9.95055e+11
57.0254 0 136.709 0 0 0 0 1.00592e-09 0 1.17432e+12
60.2626 0 161.337 0 0 0 0 8.57591e-10 0 1.38587e+12
63.6835 0 190.402 0 0 0 0 7.3101e-10 0 1.63554e+12
67.2987 0 224.704 0 0 0 0 6.23009e-10 0 1.93019e+12
71.1191 0 265.185 0 0 0 0 5.30879e-10 0 2.27792e+12
75.1563 0 312.958 0 0 0 0 4.52303e-10 0 2.68829e+12
79.4227 0 369.339 0 0 0 0 3.85299e-10 0 3.17259e+12
83.9313 0 435.876 0 0 0 0 3.28173e-10 0 3.74415e+12
88.6959 0 514.4 0 0 0 0 2.79476e-10 0 4.41866e+12
93.7309 0 607.071 0 0 0 0 2.37972e-10 0 5.2147e+12
99.0518 0 716.436 0 0 0 0 2.02605e-10 0 6.15414e+12
104.675 0 845.504 0 0 0 0 1.72471e-10 0 7.26283e+12
110.617 0 997.824 0 0 0 0 1.468e-10 0 8.57124e+12
116.896 0 1177.58 0 0 0 0 1.24935e-10 0 1.01154e+13
123.532 0 1389.73 0 0 0 0 1.06313e-10 0 1.19377e+13
130.545 0 1640.09 0 0 0 0 9.04567e-11 0 1.40883e+13
137.955 0 1935.56 0 0 0 0 7.69563e-11 0 1.66263e+13
145.787 0 2284.26 0 0 0 0 6.54636e-11 0 1.96216e+13
154.063 0 2695.77 0 0 0 0 5.56812e-11 0 2.31565e+13
162.808 0 3181.42 0 0 0 0 4.73556e-11 0 2.73282e+13
172.051 0 3754.56 0 0 0 0 4.02708e-11 0 3.22515e+13
181.818 0 4430.96 0 0 0 0 3.42426e-11 0 3.80616e+13
192.139 0 5229.21 0 0 0 0 2.91139e-11 0 4.49186e+13
203.046 0 6171.26 0 0 0 0 2.4751e-11 0 5.30108e+13
214.572 0 7283.03 0 0 0 0 2.10401e-11 0 6.25608e+13
226.753 0 8595.09 0 0 0 0 1.78839e-11 0 7.38313e+13
239.625 0 10143.5 0 0 0 0 1.51999e-11 0 8.71322e+13
253.228 0 11970.9 0 0 0 0 1.29176e-11 0 1.02829e+14
267.603 0 14127.5 0 0 0 0 1.09771e-11 0 1.21354e+14
282.795 0 16672.6 0 0 0 0 9.3274e-12 0 1.43217e+14
298.848 0 19676.2 0 0 0 0 7.925e-12 0 1.69017e+14
315.813 0 23220.9 0 0 0 0 6.73295e-12 0 1.99466e+14
333.741 0 27404.3 0 0 0 0 5.71979e-12 0 2.35401e+14
352.686 0 32341.2 0 0 0 0 4.85874e-12 0 2.77809e+14
372.707 0 38167.6 0 0 0 0 4.12703e-12 0 3.27857e+14
393.865 0 45043.5 0 0 0 0 3.50528e-12 0 3.86921e+14
416.224 0 53158.3 0 0 0 0 2.97701e-12 0 4.56626e+14
439.852 0 62734.9 0 0 0 0 2.52819e-12 0 5.38888e+14
464.821 0 74036.7 0 0 0 0 2.1469e-12 0 6.35971e+14
491.207 0 87374.6 0 0 0 0 1.82301e-12 0 7.50542e+14
519.092 0 103115 0 0 0 0 1.54789e-12 0 8.85755e+14
548.56 0 121692 0 0 0 0 1.31422e-12 0 1.04533e+15
579.7 0 143615 0 0 0 0 1.11576e-12 0 1.23364e+15
612.608 0 169488 0 0 0 0 9.47223e-13 0 1.45589e+15
647.384 0 200021 0 0 0 0 8.041e-13 0 1.71817e+15
684.134 0 236056 0 0 0 0 6.82568e-13 0 2.0277e+15
722.971 0 278582 0 0 0 0 5.79376e-13 0 2.393e+15
764.012 0 328769 0 0 0 0 4.91762e-13 0 2.8241e+15
