0.854201
200
1.0655e+09
8589934592
0.0129181 0 1.58924e-09 0 0 0 0 0.00677225 0 13.6515
0.0136515 0 1.87554e-09 0 0 0 0 0.00688819 0 16.1108
0.0144264 0 2.21343e-09 0 0 0 0 0.00699249 0 19.0132
0.0152454 0 2.61218e-09 0 0 0 0 0.00708412 0 22.4385
0.0161108 0 3.08278e-09 0 0 0 0 0.00716212 0 26.4808
0.0170254 0 3.63815e-09 0 0 0 0 0.00722559 0 31.2514
0.0179919 0 4.29357e-09 0 0 0 0 0.00727371 0 36.8815
0.0190132 0 5.06707e-09 0 0 0 0 0.00730578 0 43.5258
0.0200925 0 5.97991e-09 0 0 0 0 0.00732122 0 51.367
0.0212331 0 7.05721e-09 0 0 0 0 0.00731958 0 60.621
0.0224385 0 8.32858e-09 0 0 0 0 0.00730056 0 71.542
0.0237123 0 9.829e-09 0 0 0 0 0.00726401 0 84.4305
0.0250583 0 1.15997e-08 0 0 0 0 0.00720995 0 99.6408
0.0264808 0 1.36894e-08 0 0 0 0 0.00713857 0 117.591
0.0279841 0 1.61556e-08 0 0 0 0 0.00705021 0 138.776
0.0295727 0 1.90661e-08 0 0 0 0 0.00694538 0 163.777
0.0312514 0 2.25009e-08 0 0 0 0 0.00682475 0 193.281
0.0330255 0 2.65545e-08 0 0 0 0 0.00668915 0 228.102
0.0349003 0 3.13384e-08 0 0 0 0 0.00653951 0 269.195
0.0368815 0 3.69841e-08 0 0 0 0 0.00637693 0 317.691
0.0389751 0 4.36469e-08 0 0 0 0 0.00620256 0 374.924
0.0411876 0 5.151e-08 0 0 0 0 0.00601767 0 442.467
0.0435258 0 6.07896e-08 0 0 0 0 0.00582358 0 522.179
0.0459966 0 7.1741e-08 0 0 0 0 0.00562166 0 616.251
0.0486077 0 8.46654e-08 0 0 0 0 0.0054133 0 727.27
0.051367 0 9.99181e-08 0 0 0 0 0.00519989 0 858.29
0.054283 0 1.17919e-07 0 0 0 0 0.0049828 0 1012.91
0.0573645 0 1.39162e-07 0 0 0 0 0.00476339 0 1195.39
0.060621 0 1.64232e-07 0 0 0 0 0.00454293 0 1410.75
0.0640622 0 1.93819e-07 0 0 0 0 0.00432265 0 1664.89
0.0676989 0 2.28736e-07 0 0 0 0 0.00410371 0 1964.83
0.071542 0 2.69944e-07 0 0 0 0 0.00388717 0 2318.8
0.0756032 0 3.18575e-07 0 0 0 0 0.00367401 0 2736.54
0.079895 0 3.75967e-07 0 0 0 0 0.0034651 0 3229.53
0.0844305 0 4.43698e-07 0 0 0 0 0.00326121 0 3811.34
0.0892234 0 5.23632e-07 0 0 0 0 0.00306301 0 4497.96
0.0942883 0 6.17966e-07 0 0 0 0 0.00287109 0 5308.28
0.0996408 0 7.29294e-07 0 0 0 0 0.00268591 0 6264.59
0.105297 0 8.60678e-07 0 0 0 0 0.00250785 0 7393.17
0.111275 0 1.01573e-06 0 0 0 0 0.00233721 0 8725.07
0.117591 0 1.19872e-06 0 0 0 0 0.00217419 0 10296.9
0.124267 0 1.41467e-06 0 0 0 0 0.00201893 0 12151.9
0.131321 0 1.66953e-06 0 0 0 0 0.00187147 0 14341.1
0.138776 0 1.9703e-06 0 0 0 0 0.00173182 0 16924.7
0.146654 0 2.32525e-06 0 0 0 0 0.00159991 0 19973.8
0.154979 0 2.74415e-06 0 0 0 0 0.00147563 0 23572.1
0.163777 0 3.23852e-06 0 0 0 0 0.00135884 0 27818.7
0.173074 0 3.82195e-06 0 0 0 0 0.00124933 0 32830.3
0.182899 0 4.51048e-06 0 0 0 0 0.00114689 0 38744.7
0.193281 0 5.32305e-06 0 0 0 0 0.00105127 0 45724.7
0.204254 0 6.28202e-06 0 0 0 0 0.000962209 0 53962.1
0.215848 0 7.41374e-06 0 0 0 0 0.000879423 0 63683.5
0.228102 0 8.74934e-06 0 0 0 0 0.000802624 0 75156.3
0.24105 0 1.03256e-05 0 0 0 0 0.000731515 0 88695.9
0.254734 0 1.21857e-05 0 0 0 0 0.000665798 0 104675
0.269195 0 1.4381e-05 0 0 0 0 0.000605173 0 123532
0.284476 0 1.69718e-05 0 0 0 0 0.000549345 0 145787
0.300625 0 2.00293e-05 0 0 0 0 0.000498021 0 172051
0.317691 0 2.36377e-05 0 0 0 0 0.000450916 0 203046
0.335725 0 2.78961e-05 0 0 0 0 0.000407755 0 239625
0.354784 0 3.29216e-05 0 0 0 0 0.000368269 0 282795
0.374924 0 3.88525e-05 0 0 0 0 0.000332202 0 333741
0.396207 1.47564 4.58519e-05 3.74656e-06 6 1.43461 3.6424e-06 0.000299307 0.0751047 393865
0.418699 0 5.41123e-05 0 0 0 0 0.00026935 0 464821
0.442467 0 6.38607e-05 0 0 0 0 0.000242108 0 548560
0.467585 0 7.53654e-05 0 0 0 0 0.00021737 0 647384
0.494129 0 8.89427e-05 0 0 0 0 0.000194938 0 764012
0.522179 0 0.000104966 0 0 0 0 0.000174625 0 901651
0.551822 0 0.000123876 0 0 0 0 0.000156255 0 1.06409e+06
0.583147 4.70436 0.000146192 3.74615e-06 12 4.95136 3.94285e-06 0.000139664 0.321871 1.25578e+06
0.616251 0 0.000172529 0 0 0 0 0.0001247 0 1.48202e+06
0.651234 0 0.000203611 0 0 0 0 0.00011122 0 1.74901e+06
0.688203 14.3638 0.000240292 6.95891e-06 8 14.0065 6.78578e-06 9.90935e-05 0.561806 2.06409e+06
0.72727 0 0.000283581 0 0 0 0 8.81969e-05 0 2.43595e+06
0.768555 0 0.000334669 0 0 0 0 7.84179e-05 0 2.87479e+06
0.812184 8.18994 0.000394961 2.414e-06 6 8.36504 2.46561e-06 6.96525e-05 0.207946 3.39269e+06
0.85829 0 0.000466114 0 0 0 0 6.1805e-05 0 4.00389e+06
0.907013 1.56882 0.000550086 3.32012e-07 24 1.59892 3.38382e-07 5.47875e-05 0.14544 4.7252e+06
0.958501 3.72808 0.000649185 6.68538e-07 24 3.50971 6.29379e-07 4.85194e-05 0.330691 5.57646e+06
1.01291 0 0.000766138 0 0 0 0 4.29272e-05 0 6.58107e+06
1.07041 0 0.00090416 0 0 0 0 3.79435e-05 0 7.76667e+06
1.13118 7.77101 0.00106705 8.47822e-07 12 7.67556 8.37407e-07 3.3507e-05 0.303634 9.16586e+06
1.19539 3.23857 0.00125928 2.99393e-07 30 3.1718 2.93221e-07 2.9562e-05 0.303828 1.08171e+07
1.26325 9.13514 0.00148614 7.15592e-07 24 8.99768 7.04825e-07 2.60578e-05 0.659081 1.27658e+07
1.33496 16.3226 0.00175387 1.08343e-06 24 16.3585 1.08581e-06 2.29484e-05 1.13308 1.50656e+07
1.41075 22.506 0.00206984 1.26582e-06 32 22.8331 1.28422e-06 2.01923e-05 2.00602 1.77798e+07
1.49083 5.12854 0.00244272 2.44416e-07 48 5.0192 2.39205e-07 1.77518e-05 0.66089 2.09828e+07
1.57546 34.9995 0.00288279 1.41338e-06 6 33.3274 1.34586e-06 1.55929e-05 0.543857 2.4763e+07
1.66489 5.2707 0.00340213 1.80355e-07 84 5.20073 1.7796e-07 1.3685e-05 1.10704 2.92241e+07
1.75941 8.71367 0.00401503 2.52652e-07 48 8.56692 2.48397e-07 1.20007e-05 1.01055 3.44889e+07
1.85928 7.26606 0.00473835 1.78518e-07 72 7.31445 1.79707e-07 1.05151e-05 1.22237 4.07021e+07
1.96483 15.8649 0.00559198 3.30279e-07 54 15.5195 3.2309e-07 9.20606e-06 1.93732 4.80347e+07
2.07637 14.9708 0.00659939 2.6409e-07 104 15.1744 2.67681e-07 8.05366e-06 3.4103 5.66883e+07
2.19424 9.71636 0.00778828 1.45235e-07 120 9.83367 1.46989e-07 7.04008e-06 2.47557 6.69008e+07
2.3188 9.55386 0.00919136 1.21007e-07 156 9.34568 1.1837e-07 6.1494e-06 3.06973 7.89532e+07
2.45043 13.5929 0.0108472 1.45882e-07 126 13.4644 1.44503e-07 5.36741e-06 3.42459 9.31768e+07
2.58954 10.8365 0.0128014 9.85466e-08 192 10.9144 9.92557e-08 4.68145e-06 4.04168 1.09963e+08
2.73654 37.9476 0.0151076 2.92415e-07 152 38.1111 2.93675e-07 4.08023e-06 10.8933 1.29773e+08
2.89188 14.9074 0.0178292 9.73375e-08 378 15.0023 9.79571e-08 3.55373e-06 10.3535 1.53152e+08
3.05605 15.878 0.0210412 8.78485e-08 264 15.6496 8.65851e-08 3.09304e-06 7.49813 1.80743e+08
3.22953 16.7114 0.0248319 7.83457e-08 366 16.5785 7.77222e-08 2.69025e-06 10.6587 2.13304e+08
3.41286 19.9383 0.0293054 7.92045e-08 428 19.7996 7.86535e-08 2.33837e-06 14.4971 2.51731e+08
3.6066 21.5979 0.0345848 7.27002e-08 486 21.2618 7.1569e-08 2.0312e-06 17.3948 2.97081e+08
3.81134 19.1936 0.0408154 5.47448e-08 600 19.2303 5.48494e-08 1.76327e-06 18.6284 3.50601e+08
4.0277 26.2677 0.0481684 6.34849e-08 738 26.2316 6.33976e-08 1.52972e-06 30.6277 4.13763e+08
4.25634 27.0871 0.056846 5.54719e-08 824 26.9712 5.52344e-08 1.32631e-06 34.4633 4.88304e+08
4.49796 26.7166 0.067087 4.6361e-08 954 26.5325 4.60416e-08 1.14926e-06 38.4843 5.76273e+08
4.7533 26.1515 0.0791729 3.84531e-08 1094 25.986 3.82096e-08 9.95263e-07 42.2679 6.8009e+08
5.02313 28.9917 0.0934361 3.61218e-08 1332 29.0825 3.62349e-08 8.61414e-07 55.8549 8.0261e+08
5.30828 35.707 0.110269 3.76974e-08 1614 35.7014 3.76914e-08 7.45152e-07 81.6525 9.47202e+08
5.60962 39.9413 0.130134 3.57307e-08 1850 39.9739 3.57598e-08 6.44232e-07 102.605 1.11784e+09
5.92807 35.8149 0.153578 2.71484e-08 2238 35.7992 2.71365e-08 5.56685e-07 109.143 1.31923e+09
6.26459 38.8538 0.181246 2.49561e-08 2546 39.0383 2.50746e-08 4.80786e-07 132.155 1.55689e+09
6.62021 40.8379 0.213898 2.22263e-08 3264 40.9566 2.22909e-08 4.15026e-07 174.801 1.83737e+09
6.99602 43.4393 0.252432 2.00331e-08 3506 43.5086 2.00651e-08 3.58083e-07 196.145 2.16837e+09
7.39317 47.1686 0.297908 1.84324e-08 4506 47.2529 1.84653e-08 3.08803e-07 268.962 2.55901e+09
7.81286 51.5925 0.351577 1.70835e-08 5018 51.3774 1.70123e-08 2.66181e-07 322.055 3.02002e+09
8.25637 56.533 0.414914 1.58618e-08 5852 56.4683 1.58437e-08 2.29336e-07 404.749 3.56409e+09
8.72507 56.02 0.489662 1.33185e-08 7362 55.9641 1.33052e-08 1.97503e-07 496.453 4.20617e+09
9.22037 59.084 0.577876 1.19027e-08 8306 58.8784 1.18613e-08 1.70014e-07 581.503 4.96392e+09
9.74378 66.559 0.681982 1.13617e-08 9698 66.4082 1.1336e-08 1.46289e-07 753.207 5.85818e+09
10.2969 69.1021 0.804843 9.99517e-09 11816 69.085 9.99269e-09 1.25822e-07 938.647 6.91355e+09
10.8814 80.6411 0.949838 9.88364e-09 13682 80.4372 9.85865e-09 1.08175e-07 1250.08 8.15905e+09
11.4992 79.3287 1.12095 8.23859e-09 16152 79.2387 8.22924e-09 9.29669e-08 1431.37 9.62892e+09
12.1519 84.068 1.3229 7.39801e-09 19472 83.9518 7.38779e-09 7.98658e-08 1803.7 1.13636e+10
12.8418 86.9558 1.56122 6.48402e-09 22670 86.748 6.46853e-09 6.85852e-08 2143.21 1.34108e+10
13.5708 92.8733 1.84248 5.86812e-09 26224 92.7762 5.86198e-09 5.88765e-08 2613.7 1.58268e+10
14.3411 100.335 2.17441 5.37184e-09 31640 100.207 5.36498e-09 5.05241e-08 3364.03 1.8678e+10
15.1552 105.423 2.56613 4.78262e-09 37484 105.253 4.77491e-09 4.33417e-08 4136.24 2.20429e+10
16.0156 112.864 3.02843 4.33859e-09 43856 112.667 4.33101e-09 3.71677e-08 5119.31 2.6014e+10
16.9247 119.223 3.574 3.88344e-09 51362 119.026 3.87702e-09 3.18628e-08 6260 3.07005e+10
17.8855 125.363 4.21787 3.46007e-09 61636 125.167 3.45468e-09 2.73063e-08 7810.1 3.62312e+10
18.9008 134.374 4.97773 3.14263e-09 72218 134.04 3.13481e-09 2.33941e-08 9701.33 4.27584e+10
19.9738 141.068 5.87448 2.79556e-09 84586 140.818 2.79061e-09 2.00364e-08 11801.8 5.04614e+10
21.1076 149.609 6.93279 2.51223e-09 100708 149.298 2.507e-09 1.71555e-08 14747.5 5.95522e+10
22.3058 159.545 8.18175 2.27011e-09 118712 159.242 2.2658e-09 1.46847e-08 18351.7 7.02807e+10
23.5721 166.58 9.65571 2.00839e-09 140410 166.242 2.00432e-09 1.25662e-08 22441.1 8.29419e+10
24.9102 174.982 11.3952 1.78764e-09 164374 174.693 1.78469e-09 1.07504e-08 27333.2 9.78842e+10
26.3243 185.081 13.4481 1.60218e-09 194680 184.764 1.59944e-09 9.19452e-09 33923.8 1.15518e+11
27.8187 195.127 15.8708 1.4313e-09 230196 194.788 1.42881e-09 7.86182e-09 41908.7 1.36329e+11
29.3979 204.66 18.73 1.27206e-09 271156 204.317 1.26992e-09 6.72061e-09 51323.6 1.60889e+11
31.0667 217.214 22.1042 1.14399e-09 321076 216.852 1.14208e-09 5.74366e-09 63950.1 1.89874e+11
32.8303 228.341 26.0864 1.01902e-09 377436 227.915 1.01711e-09 4.90756e-09 78371.6 2.2408e+11
34.694 239.051 30.7859 9.03958e-10 447594 238.562 9.02109e-10 4.19221e-09 96513.9 2.64449e+11
36.6634 251.983 36.3321 8.07406e-10 525078 251.491 8.05828e-10 3.58032e-09 118411 3.1209e+11
38.7447 264.909 42.8774 7.19247e-10 621924 264.379 7.1781e-10 3.05709e-09 146321 3.68314e+11
40.9442 278.497 50.6018 6.40714e-10 732630 277.976 6.39515e-10 2.60976e-09 179866 4.34667e+11
43.2685 293.147 59.7179 5.71467e-10 865596 292.668 5.70533e-10 2.22743e-09 222076 5.12973e+11
45.7247 307.982 70.4762 5.08736e-10 1.02168e+06 307.497 5.07936e-10 1.90073e-09 273454 6.05386e+11
48.3204 322.478 83.1727 4.51366e-10 1.20544e+06 321.889 4.50543e-10 1.62163e-09 335522 7.14448e+11
51.0634 337.64 98.1565 4.00447e-10 1.42103e+06 337.039 3.99734e-10 1.38326e-09 411382 8.43158e+11
53.9621 354.397 115.84 3.56158e-10 1.67997e+06 353.783 3.55541e-10 1.1797e-09 507191 9.95055e+11
57.0254 372.061 136.709 3.16832e-10 1.98018e+06 371.408 3.16276e-10 1.00592e-09 623692 1.17432e+12
60.2626 391.26 161.337 2.8232e-10 2.33957e+06 390.554 2.81811e-10 8.57591e-10 770189 1.38587e+12
63.6835 411.125 190.402 2.5137e-10 2.75676e+06 410.407 2.5093e-10 7.3101e-10 947958 1.63554e+12
67.2987 433.536 224.704 2.24608e-10 3.25638e+06 432.807 2.2423e-10 6.23009e-10 1.17399e+06 1.93019e+12
71.1191 456.291 265.185 2.00311e-10 3.84387e+06 455.439 1.99937e-10 5.30879e-10 1.45036e+06 2.27792e+12
75.1563 482.118 312.958 1.7934e-10 4.53277e+06 481.238 1.79013e-10 4.52303e-10 1.79726e+06 2.68829e+12
79.4227 510.361 369.339 1.60866e-10 5.35083e+06 509.444 1.60577e-10 3.85299e-10 2.23401e+06 3.17259e+12
83.9313 541.725 435.876 1.44686e-10 6.32174e+06 540.691 1.4441e-10 3.28173e-10 2.78715e+06 3.74415e+12
88.6959 576.745 514.4 1.30525e-10 7.44986e+06 575.626 1.30272e-10 2.79476e-10 3.47933e+06 4.41866e+12
93.7309 615.346 607.071 1.18002e-10 8.79764e+06 614.116 1.17766e-10 2.37972e-10 4.36244e+06 5.2147e+12
99.0518 661.231 716.436 1.07445e-10 1.03827e+07 659.879 1.07225e-10 2.02605e-10 5.50612e+06 6.15414e+12
104.675 711.596 845.504 9.79778e-11 1.22515e+07 710.08 9.77692e-11 1.72471e-10 6.95988e+06 7.26283e+12
110.617 771.878 997.824 9.00544e-11 1.44573e+07 770.186 8.98569e-11 1.468e-10 8.86883e+06 8.57124e+12
116.896 842.562 1177.58 8.32951e-11 1.70664e+07 840.618 8.3103e-11 1.24935e-10 1.13783e+07 1.01154e+13
123.532 926.377 1389.73 7.76011e-11 2.0139e+07 924.15 7.74145e-11 1.06313e-10 1.47e+07 1.19377e+13
130.545 1023.74 1640.09 7.2666e-11 2.37643e+07 1021.17 7.24838e-11 9.04567e-11 1.90904e+07 1.40883e+13
137.955 1139.54 1935.56 6.8538e-11 2.80503e+07 1136.59 6.83609e-11 7.69563e-11 2.49818e+07 1.66263e+13
145.787 1277.24 2284.26 6.50934e-11 3.30981e+07 1273.8 6.49183e-11 6.54636e-11 3.29109e+07 1.96216e+13
154.063 1441.34 2695.77 6.22435e-11 3.90634e+07 1437.36 6.20715e-11 5.56812e-11 4.36672e+07 2.31565e+13
162.808 1635.98 3181.42 5.9864e-11 4.61057e+07 1631.32 5.96934e-11 4.73556e-11 5.82839e+07 2.73282e+13
172.051 1867.59 3754.56 5.79073e-11 5.44046e+07 1862.14 5.77382e-11 4.02708e-11 7.82309e+07 3.22515e+13
181.818 2144.67 4430.96 5.63474e-11 6.42064e+07 2138.25 5.61786e-11 3.42426e-11 1.05654e+08 3.80616e+13
192.139 2474.92 5229.21 5.5098e-11 7.57748e+07 2467.34 5.49293e-11 2.91139e-11 1.43404e+08 4.49186e+13
203.046 2870.03 6171.26 5.41405e-11 8.94213e+07 2861.05 5.39712e-11 2.4751e-11 1.95601e+08 5.30108e+13
214.572 3341.45 7283.03 5.34112e-11 1.05538e+08 3330.84 5.32416e-11 2.10401e-11 2.67914e+08 6.25608e+13
226.753 3906.29 8595.09 5.29084e-11 1.24552e+08 3893.64 5.2737e-11 1.78839e-11 3.68478e+08 7.38313e+13
239.625 4585.76 10143.5 5.263e-11 1.46987e+08 4570.66 5.24566e-11 1.51999e-11 5.08946e+08 8.71322e+13
253.228 5403.55 11970.9 5.25487e-11 1.7347e+08 5385.46 5.23729e-11 1.29176e-11 7.05674e+08 1.02829e+14
267.603 6391.63 14127.5 5.26692e-11 2.04703e+08 6369.93 5.24904e-11 1.09771e-11 9.82181e+08 1.21354e+14
282.795 7594.5 16672.6 5.30281e-11 2.4161e+08 7568.17 5.28443e-11 9.3274e-12 1.3736e+09 1.43217e+14
298.848 9072.31 19676.2 5.36768e-11 2.85122e+08 9040.11 5.34862e-11 7.925e-12 1.93116e+09 1.69017e+14
315.813 10906.6 23220.9 5.46791e-11 3.36491e+08 10866.7 5.44791e-11 6.73295e-12 2.73268e+09 1.99466e+14
333.741 13230.1 27404.3 5.62023e-11 3.97115e+08 13180 5.59895e-11 5.71979e-12 3.90202e+09 2.35401e+14
352.686 16227.8 32341.2 5.84136e-11 4.68637e+08 16163.4 5.81819e-11 4.85874e-12 5.63414e+09 2.77809e+14
372.707 20222.9 38167.6 6.16821e-11 5.53074e+08 20137.8 6.14225e-11 4.12703e-12 8.26618e+09 3.27857e+14
393.865 25747.2 45043.5 6.65438e-11 6.52716e+08 25630 6.62409e-11 3.50528e-12 1.23911e+10 3.86921e+14
416.224 30394.2 53158.3 6.65627e-11 2.2184e+08 32154.2 7.0417e-11 2.97701e-12 4.96009e+09 4.56626e+14
439.852 0 62734.9 0 0 0 0 2.52819e-12 0 5.38888e+14
464.821 0 74036.7 0 0 0 0 2.1469e-12 0 6.35971e+14
491.207 0 87374.6 0 0 0 0 1.82301e-12 0 7.50542e+14
519.092 0 103115 0 0 0 0 1.54789e-12 0 8.85755e+14
548.56 0 121692 0 0 0 0 1.31422e-12 0 1.04533e+15
579.7 0 143615 0 0 0 0 1.11576e-12 0 1.23364e+15
612.608 0 169488 0 0 0 0 9.47223e-13 0 1.45589e+15
647.384 0 200021 0 0 0 0 8.041e-13 0 1.71817e+15
684.134 0 236056 0 0 0 0 6.82568e-13 0 2.0277e+15
722.971 0 278582 0 0 0 0 5.79376e-13 0 2.393e+15
764.012 0 328769 0 0 0 0 4.91762e-13 0 2.8241e+15
0.854201
200
1.0655e+09
8589934592
0.0129181 0.00131723 1.58924e-09 9.649e-05 6 0.00130517 9.56066e-05 0.00677225 0.085487 13.6515
0.0136515 0 1.87554e-09 0 0 0 0 0.00688819 0 16.1108
0.0144264 0 2.21343e-09 0 0 0 0 0.00699249 0 19.0132
0.0152454 0 2.61218e-09 0 0 0 0 0.00708412 0 22.4385
0.0161108 0 3.08278e-09 0 0 0 0 0.00716212 0 26.4808
0.0170254 0 3.63815e-09 0 0 0 0 0.00722559 0 31.2514
0.0179919 0.00357156 4.29357e-09 9.6839e-05 12 0.00356696 9.67142e-05 0.00727371 0.159763 36.8815
0.0190132 0 5.06707e-09 0 0 0 0 0.00730578 0 43.5258
0.0200925 0 5.97991e-09 0 0 0 0 0.00732122 0 51.367
0.0212331 0.00793352 7.05721e-09 0.000130871 8 0.00792662 0.000130757 0.00731958 0.143037 60.621
0.0224385 0 8.32858e-09 0 0 0 0 0.00730056 0 71.542
0.0237123 0 9.829e-09 0 0 0 0 0.00726401 0 84.4305
0.0250583 0.0164668 1.15997e-08 0.000165262 6 0.0164591 0.000165184 0.00720995 0.137528 99.6408
0.0264808 0 1.36894e-08 0 0 0 0 0.00713857 0 117.591
0.0279841 0.00961394 1.61556e-08 6.92767e-05 24 0.00960406 6.92056e-05 0.00705021 0.235829 138.776
0.0295727 0 1.90661e-08 0 0 0 0 0.00694538 0 163.777
0.0312514 0.0148433 2.25009e-08 7.67962e-05 24 0.0149186 7.71861e-05 0.00682475 0.270062 193.281
0.0330255 0 2.65545e-08 0 0 0 0 0.00668915 0 228.102
0.0349003 0.024035 3.13384e-08 8.92849e-05 12 0.0238426 8.857e-05 0.00653951 0.163838 269.195
0.0368815 0.0503658 3.69841e-08 0.000158537 30 0.0498294 0.000156849 0.00637693 0.745831 317.691
0.0389751 0.0423753 4.36469e-08 0.000113024 24 0.0419394 0.000111861 0.00620256 0.437331 374.924
0.0411876 0.0462427 5.151e-08 0.000104511 24 0.0459286 0.000103801 0.00601767 0.416816 442.467
0.0435258 0.039104 6.07896e-08 7.48861e-05 8 0.039101 7.48804e-05 0.00582358 0.102873 522.179
0.0459966 0.0554776 7.1741e-08 9.00244e-05 72 0.0550374 8.93101e-05 0.00562166 1.153 616.251
0.0486077 0 8.46654e-08 0 0 0 0 0.0054133 0 727.27
0.051367 0.106591 9.99181e-08 0.00012419 54 0.106053 0.000123563 0.00519989 1.2897 858.29
0.054283 0.0785064 1.17919e-07 7.75055e-05 60 0.078633 7.76305e-05 0.0049828 0.933276 1012.91
0.0573645 0.082724 1.39162e-07 6.92024e-05 96 0.0823397 6.88809e-05 0.00476339 1.39469 1195.39
0.060621 0.0931767 1.64232e-07 6.60478e-05 24 0.0919143 6.5153e-05 0.00454293 0.348927 1410.75
0.0640622 0.11676 1.93819e-07 7.01308e-05 134 0.117045 7.03017e-05 0.00432265 2.17402 1664.89
0.0676989 0.118878 2.28736e-07 6.05028e-05 120 0.118244 6.01801e-05 0.00410371 1.76921 1964.83
0.071542 0.124009 2.69944e-07 5.34799e-05 108 0.121935 5.25855e-05 0.00388717 1.48587 2318.8
0.0756032 0.187535 3.18575e-07 6.853e-05 174 0.186258 6.80635e-05 0.00367401 3.24556 2736.54
0.079895 0.148885 3.75967e-07 4.61011e-05 168 0.147691 4.57313e-05 0.0034651 2.23514 3229.53
0.0844305 0.210356 4.43698e-07 5.51921e-05 168 0.21095 5.53479e-05 0.00326121 2.8432 3811.34
0.0892234 0.220283 5.23632e-07 4.8974e-05 290 0.219632 4.88292e-05 0.00306301 4.63676 4497.96
0.0942883 0.250961 6.17966e-07 4.72771e-05 288 0.250794 4.72458e-05 0.00287109 4.74239 5308.28
0.0996408 0.25544 7.29294e-07 4.07752e-05 366 0.253415 4.0452e-05 0.00268591 5.5563 6264.59
0.105297 0.277029 8.60678e-07 3.7471e-05 420 0.275374 3.72471e-05 0.00250785 6.27541 7393.17
0.111275 0.305053 1.01573e-06 3.49628e-05 398 0.304518 3.49015e-05 0.00233721 5.95376 8725.07
0.117591 0.354126 1.19872e-06 3.43915e-05 624 0.354755 3.44525e-05 0.00217419 9.87046 10296.9
0.124267 0.371892 1.41467e-06 3.06035e-05 642 0.370855 3.05182e-05 0.00201893 9.73164 12151.9
0.131321 0.412498 1.66953e-06 2.87633e-05 800 0.412218 2.87437e-05 0.00187147 12.2955 14341.1
0.138776 0.44365 1.9703e-06 2.62131e-05 858 0.44491 2.62876e-05 0.00173182 12.9869 16924.7
0.146654 0.451878 2.32525e-06 2.26236e-05 1080 0.455463 2.28031e-05 0.00159991 15.2718 19973.8
0.154979 0.528564 2.74415e-06 2.24233e-05 1286 0.531725 2.25574e-05 0.00147563 19.5417 23572.1
0.163777 0.54124 3.23852e-06 1.9456e-05 1650 0.543148 1.95246e-05 0.00135884 23.6249 27818.7
0.173074 0.594344 3.82195e-06 1.81036e-05 1778 0.595224 1.81303e-05 0.00124933 25.7643 32830.3
0.182899 0.683486 4.51048e-06 1.76408e-05 2112 0.684433 1.76652e-05 0.00114689 32.4854 38744.7
0.193281 0.741714 5.32305e-06 1.62213e-05 2570 0.742791 1.62448e-05 0.00105127 39.6555 45724.7
0.204254 0.81119 6.28202e-06 1.50326e-05 3030 0.811078 1.50305e-05 0.000962209 47.3376 53962.1
0.215848 0.85803 7.41374e-06 1.34733e-05 3434 0.858258 1.34769e-05 0.000879423 52.6111 63683.5
0.228102 0.932659 8.74934e-06 1.24096e-05 4218 0.932898 1.24128e-05 0.000802624 65.2157 75156.3
0.24105 1.04446 1.03256e-05 1.17757e-05 4766 1.046 1.17931e-05 0.000731515 76.7216 88695.9
0.254734 1.17792 1.21857e-05 1.12531e-05 6026 1.17723 1.12465e-05 0.000665798 101.85 104675
0.269195 1.29721 1.4381e-05 1.0501e-05 6480 1.29838 1.05105e-05 0.000605173 112.441 123532
0.284476 1.40901 1.69718e-05 9.6649e-06 8162 1.41169 9.68326e-06 0.000549345 143.598 145787
0.300625 1.56669 2.00293e-05 9.10597e-06 9578 1.56713 9.10853e-06 0.000498021 175.127 172051
0.317691 1.69175 2.36377e-05 8.33184e-06 11234 1.69008 8.32363e-06 0.000450916 207.577 203046
0.335725 1.88441 2.78961e-05 7.86399e-06 13344 1.88102 7.84984e-06 0.000407755 257.353 239625
0.354784 2.08183 3.29216e-05 7.36164e-06 15464 2.0794 7.35305e-06 0.000368269 309.123 282795
0.374924 2.31851 3.88525e-05 6.94704e-06 18458 2.31628 6.94035e-06 0.000332202 385.996 333741
0.396207 2.4966 4.58519e-05 6.33872e-06 22232 2.49107 6.32467e-06 0.000299307 470.829 393865
0.418699 2.85535 5.41123e-05 6.14291e-06 25628 2.84856 6.12831e-06 0.00026935 584.484 464821
0.442467 3.11731 6.38607e-05 5.68273e-06 30320 3.11137 5.67189e-06 0.000242108 711.668 548560
0.467585 3.46569 7.53654e-05 5.35337e-06 35452 3.46008 5.34471e-06 0.00021737 873.107 647384
0.494129 3.86071 8.89427e-05 5.05321e-06 41792 3.85802 5.04968e-06 0.000194938 1083.34 764012
0.522179 4.29064 0.000104966 4.75865e-06 49988 4.28799 4.75571e-06 0.000174625 1362.21 901651
0.551822 4.76778 0.000123876 4.48064e-06 59110 4.76216 4.47535e-06 0.000156255 1694.99 1.06409e+06
0.583147 5.42442 0.000146192 4.31955e-06 69716 5.41591 4.31278e-06 0.000139664 2156.18 1.25578e+06
0.616251 5.98727 0.000172529 4.03995e-06 82210 5.97332 4.03053e-06 0.0001247 2663.39 1.48202e+06
0.651234 6.63148 0.000203611 3.79157e-06 96722 6.61748 3.78357e-06 0.00011122 3297.31 1.74901e+06
0.688203 7.41829 0.000240292 3.59397e-06 113098 7.40589 3.58796e-06 9.90935e-05 4101.9 2.06409e+06
0.72727 8.32908 0.000283581 3.41924e-06 135190 8.31622 3.41396e-06 8.81969e-05 5241.08 2.43595e+06
0.768555 9.29176 0.000334669 3.23216e-06 158170 9.28076 3.22833e-06 7.84179e-05 6519.3 2.87479e+06
0.812184 10.3489 0.000394961 3.05034e-06 188560 10.3306 3.04497e-06 6.96525e-05 8257.74 3.39269e+06
0.85829 11.6034 0.000466114 2.89804e-06 220444 11.5826 2.89285e-06 6.1805e-05 10336.6 4.00389e+06
0.907013 13.0461 0.000550086 2.76097e-06 261388 13.0251 2.75651e-06 5.47875e-05 13172.4 4.7252e+06
0.958501 14.4395 0.000649185 2.58936e-06 308244 14.4163 2.58521e-06 4.85194e-05 16450.2 5.57646e+06
1.01291 16.1895 0.000766138 2.46e-06 364396 16.1609 2.45566e-06 4.29272e-05 20882.2 6.58107e+06
1.07041 18.131 0.00090416 2.33446e-06 429162 18.0976 2.33016e-06 3.79435e-05 26404.1 7.76667e+06
1.13118 20.2077 0.00106705 2.20467e-06 506358 20.1709 2.20066e-06 3.3507e-05 33317 9.16586e+06
1.19539 22.5085 0.00125928 2.08082e-06 598590 22.4679 2.07707e-06 2.9562e-05 42133.8 1.08171e+07
1.26325 24.9865 0.00148614 1.95729e-06 704844 24.9408 1.95371e-06 2.60578e-05 52943.2 1.27658e+07
1.33496 27.7317 0.00175387 1.84072e-06 834620 27.6795 1.83726e-06 2.29484e-05 66945.9 1.50656e+07
1.41075 30.8361 0.00206984 1.73434e-06 981444 30.777 1.73101e-06 2.01923e-05 84297.1 1.77798e+07
1.49083 34.1419 0.00244272 1.62714e-06 1.15998e+06 34.0811 1.62424e-06 1.77518e-05 106324 2.09828e+07
1.57546 37.6046 0.00288279 1.51858e-06 1.36931e+06 37.5364 1.51583e-06 1.55929e-05 133357 2.4763e+07
1.66489 41.2863 0.00340213 1.41275e-06 1.61652e+06 41.2094 1.41012e-06 1.3685e-05 166878 2.92241e+07
1.75941 45.4144 0.00401503 1.31678e-06 1.90601e+06 45.3326 1.31441e-06 1.20007e-05 209138 3.44889e+07
1.85928 49.6414 0.00473835 1.21963e-06 2.24913e+06 49.5502 1.21739e-06 1.05151e-05 260872 4.07021e+07
1.96483 54.247 0.00559198 1.12933e-06 2.65744e+06 54.1489 1.12729e-06 9.20606e-06 325995 4.80347e+07
2.07637 59.3008 0.00659939 1.04609e-06 3.13125e+06 59.1951 1.04422e-06 8.05366e-06 406716 5.66883e+07
2.19424 64.7053 0.00778828 9.67182e-07 3.69915e+06 64.5899 9.65457e-07 7.04008e-06 508198 6.69008e+07
2.3188 70.2444 0.00919136 8.89697e-07 4.36472e+06 70.1209 8.88132e-07 6.1494e-06 631490 7.89532e+07
2.45043 76.2418 0.0108472 8.18248e-07 5.14913e+06 76.1114 8.16849e-07 5.36741e-06 784972 9.31768e+07
2.58954 82.3688 0.0128014 7.4906e-07 6.07894e+06 82.2287 7.47786e-07 4.68145e-06 972666 1.09963e+08
2.73654 89.0828 0.0151076 6.86451e-07 7.17304e+06 88.9287 6.85263e-07 4.08023e-06 1.20678e+06 1.29773e+08
2.89188 96.1877 0.0178292 6.28054e-07 8.46557e+06 96.0253 6.26994e-07 3.55373e-06 1.49613e+06 1.53152e+08
3.05605 103.639 0.0210412 5.73408e-07 9.98773e+06 103.469 5.72467e-07 3.09304e-06 1.85159e+06 1.80743e+08
3.22953 111.469 0.0248319 5.22582e-07 1.1797e+07 111.28 5.21697e-07 2.69025e-06 2.29157e+06 2.13304e+08
3.41286 119.779 0.0293054 4.75821e-07 1.39144e+07 119.575 4.7501e-07 2.33837e-06 2.83135e+06 2.51731e+08
3.6066 128.558 0.0345848 4.32737e-07 1.64163e+07 128.344 4.32016e-07 2.0312e-06 3.4974e+06 2.97081e+08
3.81134 137.711 0.0408154 3.92784e-07 1.93821e+07 137.483 3.92134e-07 1.76327e-06 4.31755e+06 3.50601e+08
4.0277 147.429 0.0481684 3.56312e-07 2.28754e+07 147.185 3.55722e-07 1.52972e-06 5.32828e+06 4.13763e+08
4.25634 157.598 0.056846 3.22746e-07 2.69929e+07 157.336 3.22209e-07 1.32631e-06 6.5685e+06 4.88304e+08
4.49796 168.431 0.067087 2.92277e-07 3.18542e+07 168.149 2.91788e-07 1.14926e-06 8.1011e+06 5.76273e+08
4.7533 179.691 0.0791729 2.64217e-07 3.75892e+07 179.392 2.63777e-07 9.95263e-07 9.97896e+06 6.8009e+08
5.02313 191.517 0.0934361 2.38618e-07 4.43706e+07 191.199 2.38222e-07 8.61414e-07 1.2291e+07 8.0261e+08
5.30828 204.065 0.110269 2.1544e-07 5.23593e+07 203.731 2.15087e-07 7.45152e-07 1.51382e+07 9.47202e+08
5.60962 216.91 0.130134 1.94044e-07 6.1787e+07 216.553 1.93724e-07 6.44232e-07 1.86103e+07 1.11784e+09
5.92807 230.582 0.153578 1.74786e-07 7.29346e+07 230.2 1.74496e-07 5.56685e-07 2.28997e+07 1.31923e+09
6.26459 244.782 0.181246 1.57225e-07 8.60651e+07 244.377 1.56965e-07 4.80786e-07 2.81447e+07 1.55689e+09
6.62021 259.587 0.213898 1.41282e-07 1.01558e+08 259.157 1.41048e-07 4.15026e-07 3.45722e+07 1.83737e+09
6.99602 275.396 0.252432 1.27006e-07 1.1986e+08 274.941 1.26796e-07 3.58083e-07 4.25123e+07 2.16837e+09
7.39317 291.853 0.297908 1.14049e-07 1.41457e+08 291.37 1.1386e-07 3.08803e-07 5.22436e+07 2.55901e+09
7.81286 309.01 0.351577 1.0232e-07 1.66936e+08 308.504 1.02153e-07 2.66181e-07 6.41704e+07 3.02002e+09
8.25637 327.033 0.414914 9.17579e-08 1.97025e+08 326.494 9.16066e-08 2.29336e-07 7.88302e+07 3.56409e+09
8.72507 346.153 0.489662 8.22965e-08 2.32497e+08 345.581 8.21606e-08 1.97503e-07 9.68778e+07 4.20617e+09
9.22037 366.656 0.577876 7.38642e-08 2.74404e+08 366.041 7.37404e-08 1.70014e-07 1.19217e+08 4.96392e+09
9.74378 388.907 0.681982 6.63869e-08 3.2382e+08 388.242 6.62734e-08 1.46289e-07 1.46952e+08 5.85818e+09
10.2969 413.87 0.804843 5.98635e-08 3.82165e+08 413.134 5.97571e-08 1.25822e-07 1.81826e+08 6.91355e+09
10.8814 443.551 0.949838 5.43631e-08 4.51027e+08 442.707 5.42596e-08 1.08175e-07 2.26661e+08 8.15905e+09
11.4992 481.42 1.12095 4.99973e-08 5.32251e+08 480.399 4.98912e-08 9.29669e-08 2.86243e+08 9.62892e+09
12.1519 534.798 1.3229 4.70624e-08 6.28157e+08 533.458 4.69444e-08 7.98658e-08 3.70153e+08 1.13636e+10
12.8418 594.836 1.56122 4.43551e-08 3.82727e+08 615.676 4.59091e-08 6.85852e-08 2.47515e+08 1.34108e+10
13.5708 0 1.84248 0 0 0 0 5.88765e-08 0 1.58268e+10
14.3411 0 2.17441 0 0 0 0 5.05241e-08 0 1.8678e+10
15.1552 0 2.56613 0 0 0 0 4.33417e-08 0 2.20429e+10
16.0156 0 3.02843 0 0 0 0 3.71677e-08 0 2.6014e+10
16.9247 0 3.574 0 0 0 0 3.18628e-08 0 3.07005e+10
17.8855 0 4.21787 0 0 0 0 2.73063e-08 0 3.62312e+10
18.9008 0 4.97773 0 0 0 0 2.33941e-08 0 4.27584e+10
19.9738 0 5.87448 0 0 0 0 2.00364e-08 0 5.04614e+10
21.1076 0 6.93279 0 0 0 0 1.71555e-08 0 5.95522e+10
22.3058 0 8.18175 0 0 0 0 1.46847e-08 0 7.02807e+10
23.5721 0 9.65571 0 0 0 0 1.25662e-08 0 8.29419e+10
24.9102 0 11.3952 0 0 0 0 1.07504e-08 0 9.78842e+10
26.3243 0 13.4481 0 0 0 0 9.19452e-09 0 1.15518e+11
27.8187 0 15.8708 0 0 0 0 7.86182e-09 0 1.36329e+11
29.3979 0 18.73 0 0 0 0 6.72061e-09 0 1.60889e+11
31.0667 0 22.1042 0 0 0 0 5.74366e-09 0 1.89874e+11
32.8303 0 26.0864 0 0 0 0 4.90756e-09 0 2.2408e+11
34.694 0 30.7859 0 0 0 0 4.19221e-09 0 2.64449e+11
36.6634 0 36.3321 0 0 0 0 3.58032e-09 0 3.1209e+11
38.7447 0 42.8774 0 0 0 0 3.05709e-09 0 3.68314e+11
40.9442 0 50.6018 0 0 0 0 2.60976e-09 0 4.34667e+11
43.2685 0 59.7179 0 0 0 0 2.22743e-09 0 5.12973e+11
45.7247 0 70.4762 0 0 0 0 1.90073e-09 0 6.05386e+11
48.3204 0 83.1727 0 0 0 0 1.62163e-09 0 7.14448e+11
51.0634 0 98.1565 0 0 0 0 1.38326e-09 0 8.43158e+11
53.9621 0 115.84 0 0 0 0 1.1797e-09 0 9.95055e+11
57.0254 0 136.709 0 0 0 0 1.00592e-09 0 1.17432e+12
60.2626 0 161.337 0 0 0 0 8.57591e-10 0 1.38587e+12
63.6835 0 190.402 0 0 0 0 7.3101e-10 0 1.63554e+12
67.2987 0 224.704 0 0 0 0 6.23009e-10 0 1.93019e+12
71.1191 0 265.185 0 0 0 0 5.30879e-10 0 2.27792e+12
75.1563 0 312.958 0 0 0 0 4.52303e-10 0 2.68829e+12
79.4227 0 369.339 0 0 0 0 3.85299e-10 0 3.17259e+12
83.9313 0 435.876 0 0 0 0 3.28173e-10 0 3.74415e+12
88.6959 0 514.4 0 0 0 0 2.79476e-10 0 4.41866e+12
93.7309 0 607.071 0 0 0 0 2.37972e-10 0 5.2147e+12
99.0518 0 716.436 0 0 0 0 2.02605e-10 0 6.15414e+12
104.675 0 845.504 0 0 0 0 1.72471e-10 0 7.26283e+12
110.617 0 997.824 0 0 0 0 1.468e-10 0 8.57124e+12
116.896 0 1177.58 0 0 0 0 1.24935e-10 0 1.01154e+13
123.532 0 1389.73 0 0 0 0 1.06313e-10 0 1.19377e+13
130.545 0 1640.09 0 0 0 0 9.04567e-11 0 1.40883e+13
137.955 0 1935.56 0 0 0 0 7.69563e-11 0 1.66263e+13
145.787 0 2284.26 0 0 0 0 6.54636e-11 0 1.96216e+13
154.063 0 2695.77 0 0 0 0 5.56812e-11 0 2.31565e+13
162.808 0 3181.42 0 0 0 0 4.73556e-11 0 2.73282e+13
172.051 0 3754.56 0 0 0 0 4.02708e-11 0 3.22515e+13
181.818 0 4430.96 0 0 0 0 3.42426e-11 0 3.80616e+13
192.139 0 5229.21 0 0 0 0 2.91139e-11 0 4.49186e+13
203.046 0 6171.26 0 0 0 0 2.4751e-11 0 5.30108e+13
214.572 0 7283.03 0 0 0 0 2.10401e-11 0 6.25608e+13
226.753 0 8595.09 0 0 0 0 1.78839e-11 0 7.38313e+13
239.625 0 10143.5 0 0 0 0 1.51999e-11 0 8.71322e+13
253.228 0 11970.9 0 0 0 0 1.29176e-11 0 1.02829e+14
267.603 0 14127.5 0 0 0 0 1.09771e-11 0 1.21354e+14
282.795 0 16672.6 0 0 0 0 9.3274e-12 0 1.43217e+14
298.848 0 19676.2 0 0 0 0 7.925e-12 0 1.69017e+14
315.813 0 23220.9 0 0 0 0 6.73295e-12 0 1.99466e+14
333.741 0 27404.3 0 0 0 0 5.71979e-12 0 2.35401e+14
352.686 0 32341.2 0 0 0 0 4.85874e-12 0 2.77809e+14
372.707 0 38167.6 0 0 0 0 4.12703e-12 0 3.27857e+14
393.865 0 45043.5 0 0 0 0 3.50528e-12 0 3.86921e+14
416.224 0 53158.3 0 0 0 0 2.97701e-12 0 4.56626e+14
439.852 0 62734.9 0 0 0 0 2.52819e-12 0 5.38888e+14
464.821 0 74036.7 0 0 0 0 2.1469e-12 0 6.35971e+14
491.207 0 87374.6 0 0 0 0 1.82301e-12 0 7.50542e+14
519.092 0 103115 0 0 0 0 1.54789e-12 0 8.85755e+14
548.56 0 121692 0 0 0 0 1.31422e-12 0 1.04533e+15
579.7 0 143615 0 0 0 0 1.11576e-12 0 1.23364e+15
612.608 0 169488 0 0 0 0 9.47223e-13 0 1.45589e+15
647.384 0 200021 0 0 0 0 8.041e-13 0 1.71817e+15
684.134 0 236056 0 0 0 0 6.82568e-13 0 2.0277e+15
722.971 0 278582 0 0 0 0 5.79376e-13 0 2.393e+15
764.012 0 328769 0 0 0 0 4.91762e-13 0 2.8241e+15
