0.381851
200
8.92029e+08
8589934592
0.0129181 0 1.58924e-09 0 0 0 0 0.00677225 0 13.6515
0.0136515 0 1.87554e-09 0 0 0 0 0.00688819 0 16.1108
0.0144264 0 2.21343e-09 0 0 0 0 0.00699249 0 19.0132
0.0152454 0 2.61218e-09 0 0 0 0 0.00708412 0 22.4385
0.0161108 0 3.08278e-09 0 0 0 0 0.00716212 0 26.4808
0.0170254 0 3.63815e-09 0 0 0 0 0.00722559 0 31.2514
0.0179919 0 4.29357e-09 0 0 0 0 0.00727371 0 36.8815
0.0190132 0 5.06707e-09 0 0 0 0 0.00730578 0 43.5258
0.0200925 0 5.97991e-09 0 0 0 0 0.00732122 0 51.367
0.0212331 0 7.05721e-09 0 0 0 0 0.00731958 0 60.621
0.0224385 0 8.32858e-09 0 0 0 0 0.00730056 0 71.542
0.0237123 0 9.829e-09 0 0 0 0 0.00726401 0 84.4305
0.0250583 0 1.15997e-08 0 0 0 0 0.00720995 0 99.6408
0.0264808 0 1.36894e-08 0 0 0 0 0.00713857 0 117.591
0.0279841 0 1.61556e-08 0 0 0 0 0.00705021 0 138.776
0.0295727 0 1.90661e-08 0 0 0 0 0.00694538 0 163.777
0.0312514 0 2.25009e-08 0 0 0 0 0.00682475 0 193.281
0.0330255 0 2.65545e-08 0 0 0 0 0.00668915 0 228.102
0.0349003 0 3.13384e-08 0 0 0 0 0.00653951 0 269.195
0.0368815 0 3.69841e-08 0 0 0 0 0.00637693 0 317.691
0.0389751 0 4.36469e-08 0 0 0 0 0.00620256 0 374.924
0.0411876 0 5.151e-08 0 0 0 0 0.00601767 0 442.467
0.0435258 0 6.07896e-08 0 0 0 0 0.00582358 0 522.179
0.0459966 0 7.1741e-08 0 0 0 0 0.00562166 0 616.251
0.0486077 0 8.46654e-08 0 0 0 0 0.0054133 0 727.27
0.051367 0 9.99181e-08 0 0 0 0 0.00519989 0 858.29
0.054283 0 1.17919e-07 0 0 0 0 0.0049828 0 1012.91
0.0573645 0 1.39162e-07 0 0 0 0 0.00476339 0 1195.39
0.060621 0 1.64232e-07 0 0 0 0 0.00454293 0 1410.75
0.0640622 0 1.93819e-07 0 0 0 0 0.00432265 0 1664.89
0.0676989 0 2.28736e-07 0 0 0 0 0.00410371 0 1964.83
0.071542 0 2.69944e-07 0 0 0 0 0.00388717 0 2318.8
0.0756032 0 3.18575e-07 0 0 0 0 0.00367401 0 2736.54
0.079895 0 3.75967e-07 0 0 0 0 0.0034651 0 3229.53
0.0844305 0 4.43698e-07 0 0 0 0 0.00326121 0 3811.34
0.0892234 0 5.23632e-07 0 0 0 0 0.00306301 0 4497.96
0.0942883 0 6.17966e-07 0 0 0 0 0.00287109 0 5308.28
0.0996408 0 7.29294e-07 0 0 0 0 0.00268591 0 6264.59
0.105297 0 8.60678e-07 0 0 0 0 0.00250785 0 7393.17
0.111275 0 1.01573e-06 0 0 0 0 0.00233721 0 8725.07
0.117591 0 1.19872e-06 0 0 0 0 0.00217419 0 10296.9
0.124267 0 1.41467e-06 0 0 0 0 0.00201893 0 12151.9
0.131321 0 1.66953e-06 0 0 0 0 0.00187147 0 14341.1
0.138776 0 1.9703e-06 0 0 0 0 0.00173182 0 16924.7
0.146654 0 2.32525e-06 0 0 0 0 0.00159991 0 19973.8
0.154979 0 2.74415e-06 0 0 0 0 0.00147563 0 23572.1
0.163777 0 3.23852e-06 0 0 0 0 0.00135884 0 27818.7
0.173074 0 3.82195e-06 0 0 0 0 0.00124933 0 32830.3
0.182899 0 4.51048e-06 0 0 0 0 0.00114689 0 38744.7
0.193281 0 5.32305e-06 0 0 0 0 0.00105127 0 45724.7
0.204254 0 6.28202e-06 0 0 0 0 0.000962209 0 53962.1
0.215848 0 7.41374e-06 0 0 0 0 0.000879423 0 63683.5
0.228102 0 8.74934e-06 0 0 0 0 0.000802624 0 75156.3
0.24105 0 1.03256e-05 0 0 0 0 0.000731515 0 88695.9
0.254734 0 1.21857e-05 0 0 0 0 0.000665798 0 104675
0.269195 0 1.4381e-05 0 0 0 0 0.000605173 0 123532
0.284476 0 1.69718e-05 0 0 0 0 0.000549345 0 145787
0.300625 0 2.00293e-05 0 0 0 0 0.000498021 0 172051
0.317691 0 2.36377e-05 0 0 0 0 0.000450916 0 203046
0.335725 0 2.78961e-05 0 0 0 0 0.000407755 0 239625
0.354784 0 3.29216e-05 0 0 0 0 0.000368269 0 282795
0.374924 0 3.88525e-05 0 0 0 0 0.000332202 0 333741
0.396207 1.54447 4.58519e-05 3.92131e-06 6 1.50153 3.81229e-06 0.000299307 0.0786078 393865
0.418699 0 5.41123e-05 0 0 0 0 0.00026935 0 464821
0.442467 0 6.38607e-05 0 0 0 0 0.000242108 0 548560
0.467585 0 7.53654e-05 0 0 0 0 0.00021737 0 647384
0.494129 0 8.89427e-05 0 0 0 0 0.000194938 0 764012
0.522179 0 0.000104966 0 0 0 0 0.000174625 0 901651
0.551822 0 0.000123876 0 0 0 0 0.000156255 0 1.06409e+06
0.583147 9.83426 0.000146192 7.83118e-06 12 10.3506 8.24236e-06 0.000139664 0.672858 1.25578e+06
0.616251 0 0.000172529 0 0 0 0 0.0001247 0 1.48202e+06
0.651234 0 0.000203611 0 0 0 0 0.00011122 0 1.74901e+06
0.688203 22.7282 0.000240292 1.10112e-05 8 22.1627 1.07373e-05 9.90935e-05 0.888955 2.06409e+06
0.72727 0 0.000283581 0 0 0 0 8.81969e-05 0 2.43595e+06
0.768555 0 0.000334669 0 0 0 0 7.84179e-05 0 2.87479e+06
0.812184 2.48925 0.000394961 7.33711e-07 6 2.54247 7.49398e-07 6.96525e-05 0.0632032 3.39269e+06
0.85829 0 0.000466114 0 0 0 0 6.1805e-05 0 4.00389e+06
0.907013 1.61849 0.000550086 3.42522e-07 24 1.64954 3.49094e-07 5.47875e-05 0.150044 4.7252e+06
0.958501 2.61827 0.000649185 4.69522e-07 24 2.46491 4.42021e-07 4.85194e-05 0.232248 5.57646e+06
1.01291 0 0.000766138 0 0 0 0 4.29272e-05 0 6.58107e+06
1.07041 0 0.00090416 0 0 0 0 3.79435e-05 0 7.76667e+06
1.13118 2.62878 0.00106705 2.86801e-07 12 2.59649 2.83278e-07 3.3507e-05 0.102713 9.16586e+06
1.19539 1.522 0.00125928 1.40703e-07 30 1.49063 1.37803e-07 2.9562e-05 0.142788 1.08171e+07
1.26325 16.5575 0.00148614 1.29701e-06 24 16.3083 1.2775e-06 2.60578e-05 1.19459 1.27658e+07
1.33496 19.0865 0.00175387 1.26689e-06 24 19.1285 1.26968e-06 2.29484e-05 1.32494 1.50656e+07
1.41075 10.7635 0.00206984 6.0538e-07 32 10.9297 6.14725e-07 2.01923e-05 0.959384 1.77798e+07
1.49083 2.90674 0.00244272 1.3853e-07 48 2.84478 1.35576e-07 1.77518e-05 0.374578 2.09828e+07
1.57546 5.13988 0.00288279 2.07563e-07 6 4.89432 1.97647e-07 1.55929e-05 0.0798686 2.4763e+07
1.66489 2.8855 0.00340213 9.87372e-08 84 2.84208 9.72513e-08 1.3685e-05 0.606059 2.92241e+07
1.75941 4.64159 0.00401503 1.34582e-07 48 4.61751 1.33884e-07 1.20007e-05 0.538299 3.44889e+07
1.85928 3.20363 0.00473835 7.87092e-08 72 3.22785 7.93042e-08 1.05151e-05 0.538945 4.07021e+07
1.96483 5.42993 0.00559198 1.13042e-07 54 5.32208 1.10797e-07 9.20606e-06 0.663069 4.80347e+07
2.07637 13.5272 0.00659939 2.38625e-07 104 13.6175 2.40218e-07 8.05366e-06 3.08146 5.66883e+07
2.19424 3.54017 0.00778828 5.29166e-08 120 3.58025 5.35158e-08 7.04008e-06 0.901978 6.69008e+07
2.3188 4.55371 0.00919136 5.76761e-08 156 4.43554 5.61794e-08 6.1494e-06 1.46315 7.89532e+07
2.45043 5.29327 0.0108472 5.68089e-08 126 5.26958 5.65546e-08 5.36741e-06 1.33359 9.31768e+07
2.58954 5.24895 0.0128014 4.77338e-08 192 5.25203 4.77618e-08 4.68145e-06 1.9577 1.09963e+08
2.73654 16.7211 0.0151076 1.28849e-07 152 17.2156 1.32659e-07 4.08023e-06 4.79998 1.29773e+08
2.89188 9.33692 0.0178292 6.09651e-08 378 9.44865 6.16946e-08 3.55373e-06 6.48467 1.53152e+08
3.05605 7.17814 0.0210412 3.97147e-08 264 7.09559 3.9258e-08 3.09304e-06 3.38976 1.80743e+08
3.22953 5.95106 0.0248319 2.78994e-08 366 5.88503 2.75899e-08 2.69025e-06 3.79562 2.13304e+08
3.41286 8.61251 0.0293054 3.42131e-08 428 8.48282 3.36979e-08 2.33837e-06 6.26213 2.51731e+08
3.6066 11.305 0.0345848 3.80537e-08 486 11.1044 3.73784e-08 2.0312e-06 9.10499 2.97081e+08
3.81134 8.89802 0.0408154 2.53793e-08 600 8.9062 2.54026e-08 1.76327e-06 8.63601 3.50601e+08
4.0277 9.11183 0.0481684 2.20218e-08 738 9.0178 2.17946e-08 1.52972e-06 10.6242 4.13763e+08
4.25634 12.3341 0.056846 2.5259e-08 824 12.3301 2.52508e-08 1.32631e-06 15.6928 4.88304e+08
4.49796 11.7917 0.067087 2.04619e-08 954 11.7474 2.03851e-08 1.14926e-06 16.9855 5.76273e+08
4.7533 10.5684 0.0791729 1.55397e-08 1094 10.5168 1.54638e-08 9.95263e-07 17.0813 6.8009e+08
5.02313 11.724 0.0934361 1.46074e-08 1332 11.7647 1.46581e-08 8.61414e-07 22.5873 8.0261e+08
5.30828 16.0574 0.110269 1.69525e-08 1614 16.0643 1.69597e-08 7.45152e-07 36.719 9.47202e+08
5.60962 15.6912 0.130134 1.4037e-08 1850 15.6244 1.39773e-08 6.44232e-07 40.3091 1.11784e+09
5.92807 15.9661 0.153578 1.21026e-08 2238 15.911 1.20609e-08 5.56685e-07 48.6552 1.31923e+09
6.26459 16.204 0.181246 1.04079e-08 2546 16.278 1.04554e-08 4.80786e-07 55.1151 1.55689e+09
6.62021 17.115 0.213898 9.31496e-09 3264 17.134 9.3253e-09 4.15026e-07 73.2582 1.83737e+09
6.99602 19.107 0.252432 8.8117e-09 3506 19.1375 8.82574e-09 3.58083e-07 86.2757 2.16837e+09
7.39317 20.0062 0.297908 7.81794e-09 4506 20.014 7.821e-09 3.08803e-07 114.078 2.55901e+09
7.81286 21.5935 0.351577 7.1501e-09 5018 21.5778 7.14491e-09 2.66181e-07 134.793 3.02002e+09
8.25637 22.7869 0.414914 6.39348e-09 5852 22.7288 6.37716e-09 2.29336e-07 163.143 3.56409e+09
8.72507 24.5401 0.489662 5.8343e-09 7362 24.462 5.81575e-09 1.97503e-07 217.476 4.20617e+09
9.22037 24.9081 0.577876 5.01783e-09 8306 24.823 5.00068e-09 1.70014e-07 245.145 4.96392e+09
9.74378 26.9762 0.681982 4.60487e-09 9698 26.9407 4.59881e-09 1.46289e-07 305.272 5.85818e+09
10.2969 29.791 0.804843 4.30907e-09 11816 29.7605 4.30465e-09 1.25822e-07 404.665 6.91355e+09
10.8814 31.2394 0.949838 3.82881e-09 13682 31.1778 3.82126e-09 1.08175e-07 484.267 8.15905e+09
11.4992 32.6766 1.12095 3.39359e-09 16152 32.6782 3.39375e-09 9.29669e-08 589.6 9.62892e+09
12.1519 33.9234 1.3229 2.98527e-09 19472 33.8561 2.97935e-09 7.98658e-08 727.836 1.13636e+10
12.8418 34.9615 1.56122 2.60697e-09 22670 34.8712 2.60024e-09 6.85852e-08 861.703 1.34108e+10
13.5708 37.6922 1.84248 2.38155e-09 26224 37.6438 2.37849e-09 5.88765e-08 1060.76 1.58268e+10
14.3411 40.7026 2.17441 2.17917e-09 31640 40.7067 2.17939e-09 5.05241e-08 1364.67 1.8678e+10
15.1552 42.1959 2.56613 1.91426e-09 37484 42.1167 1.91067e-09 4.33417e-08 1655.55 2.20429e+10
16.0156 45.0719 3.02843 1.7326e-09 43856 45.0065 1.73009e-09 3.71677e-08 2044.38 2.6014e+10
16.9247 47.5845 3.574 1.54996e-09 51362 47.5221 1.54793e-09 3.18628e-08 2498.49 3.07005e+10
17.8855 49.7982 4.21787 1.37445e-09 61636 49.6985 1.3717e-09 2.73063e-08 3102.43 3.62312e+10
18.9008 52.3272 4.97773 1.22379e-09 72218 52.1851 1.22046e-09 2.33941e-08 3777.85 4.27584e+10
19.9738 55.3473 5.87448 1.09682e-09 84586 55.2387 1.09467e-09 2.00364e-08 4630.37 5.04614e+10
21.1076 58.5441 6.93279 9.83072e-10 100708 58.4291 9.81141e-10 1.71555e-08 5770.93 5.95522e+10
22.3058 61.2493 8.18175 8.71495e-10 118712 61.1474 8.70046e-10 1.46847e-08 7045.24 7.02807e+10
23.5721 64.2283 9.65571 7.74376e-10 140410 64.1 7.7283e-10 1.25662e-08 8652.62 8.29419e+10
24.9102 67.5989 11.3952 6.90601e-10 164374 67.489 6.89478e-10 1.07504e-08 10559.3 9.78842e+10
26.3243 71.2591 13.4481 6.16864e-10 194680 71.1317 6.15761e-10 9.19452e-09 13061.2 1.15518e+11
27.8187 74.4975 15.8708 5.46453e-10 230196 74.3927 5.45684e-10 7.86182e-09 16000.3 1.36329e+11
29.3979 78.7781 18.73 4.89642e-10 271156 78.6483 4.88835e-10 6.72061e-09 19755.5 1.60889e+11
31.0667 82.3074 22.1042 4.33484e-10 321076 82.1455 4.32632e-10 5.74366e-09 24232.2 1.89874e+11
32.8303 87.0139 26.0864 3.88316e-10 377436 86.8428 3.87553e-10 4.90756e-09 29865 2.2408e+11
34.694 91.4197 30.7859 3.45699e-10 447594 91.2517 3.45064e-10 4.19221e-09 36909.7 2.64449e+11
36.6634 96.3483 36.3321 3.0872e-10 525078 96.1702 3.08149e-10 3.58032e-09 45275.8 3.1209e+11
38.7447 101.719 42.8774 2.76174e-10 621924 101.531 2.75665e-10 3.05709e-09 56183.9 3.68314e+11
40.9442 107.25 50.6018 2.46741e-10 732630 107.049 2.46279e-10 2.60976e-09 69266.8 4.34667e+11
43.2685 113.615 59.7179 2.21483e-10 865596 113.421 2.21106e-10 2.22743e-09 86069.8 5.12973e+11
45.7247 120.736 70.4762 1.99437e-10 1.02168e+06 120.508 1.9906e-10 1.90073e-09 107201 6.05386e+11
48.3204 128.589 83.1727 1.79983e-10 1.20544e+06 128.335 1.79628e-10 1.62163e-09 133790 7.14448e+11
51.0634 137.901 98.1565 1.63553e-10 1.42103e+06 137.617 1.63216e-10 1.38326e-09 168019 8.43158e+11
53.9621 146.699 115.84 1.47428e-10 1.67997e+06 146.411 1.47139e-10 1.1797e-09 209946 9.95055e+11
57.0254 157.781 136.709 1.3436e-10 1.98018e+06 157.455 1.34082e-10 1.00592e-09 264491 1.17432e+12
60.2626 170.659 161.337 1.23141e-10 2.33957e+06 170.272 1.22863e-10 8.57591e-10 335939 1.38587e+12
63.6835 184.949 190.402 1.13081e-10 2.75676e+06 184.538 1.1283e-10 7.3101e-10 426449 1.63554e+12
67.2987 201.717 224.704 1.04506e-10 3.25638e+06 201.264 1.04272e-10 6.23009e-10 546240 1.93019e+12
71.1191 221.307 265.185 9.71531e-11 3.84387e+06 220.796 9.6929e-11 5.30879e-10 703444 2.27792e+12
75.1563 244.446 312.958 9.09298e-11 4.53277e+06 243.849 9.07079e-11 4.52303e-10 911254 2.68829e+12
79.4227 271.233 369.339 8.54926e-11 5.35083e+06 270.569 8.52832e-11 3.85299e-10 1.18727e+06 3.17259e+12
83.9313 302.737 435.876 8.08562e-11 6.32174e+06 301.957 8.06478e-11 3.28173e-10 1.55757e+06 3.74415e+12
88.6959 340.426 514.4 7.70428e-11 7.44986e+06 339.509 7.68353e-11 2.79476e-10 2.05369e+06 4.41866e+12
93.7309 384.209 607.071 7.36781e-11 8.79764e+06 383.166 7.34781e-11 2.37972e-10 2.72382e+06 5.2147e+12
99.0518 436.918 716.436 7.09957e-11 1.03827e+07 435.696 7.07972e-11 2.02605e-10 3.63825e+06 6.15414e+12
104.675 498.409 845.504 6.86246e-11 1.22515e+07 496.974 6.84271e-11 1.72471e-10 4.87477e+06 7.26283e+12
110.617 572.14 997.824 6.67511e-11 1.44573e+07 570.451 6.65541e-11 1.468e-10 6.57385e+06 8.57124e+12
116.896 659.303 1177.58 6.51783e-11 1.70664e+07 657.325 6.49827e-11 1.24935e-10 8.90351e+06 1.01154e+13
123.532 762.327 1389.73 6.38589e-11 2.0139e+07 759.971 6.36615e-11 1.06313e-10 1.20968e+07 1.19377e+13
130.545 884.904 1640.09 6.28113e-11 2.37643e+07 882.174 6.26175e-11 9.04567e-11 1.65014e+07 1.40883e+13
137.955 1029.34 1935.56 6.19102e-11 2.80503e+07 1026.11 6.17161e-11 7.69563e-11 2.25661e+07 1.66263e+13
145.787 1201.24 2284.26 6.12204e-11 3.30981e+07 1197.41 6.1025e-11 6.54636e-11 3.09528e+07 1.96216e+13
154.063 1404.55 2695.77 6.06546e-11 3.90634e+07 1400.03 6.04593e-11 5.56812e-11 4.25526e+07 2.31565e+13
162.808 1646.63 3181.42 6.0254e-11 4.61057e+07 1641.28 6.00581e-11 4.73556e-11 5.86636e+07 2.73282e+13
172.051 1931.48 3754.56 5.9888e-11 5.44046e+07 1925.14 5.96914e-11 4.02708e-11 8.09068e+07 3.22515e+13
181.818 2272.13 4430.96 5.96961e-11 6.42064e+07 2264.64 5.94993e-11 3.42426e-11 1.11933e+08 3.80616e+13
192.139 2673.41 5229.21 5.95169e-11 7.57748e+07 2664.56 5.93197e-11 2.91139e-11 1.54905e+08 4.49186e+13
203.046 3152.28 6171.26 5.94648e-11 8.94213e+07 3141.75 5.92664e-11 2.4751e-11 2.14836e+08 5.30108e+13
214.572 3720.05 7283.03 5.94629e-11 1.05538e+08 3707.57 5.92636e-11 2.10401e-11 2.9827e+08 6.25608e+13
226.753 4398.57 8595.09 5.9576e-11 1.24552e+08 4383.76 5.93753e-11 1.78839e-11 4.14915e+08 7.38313e+13
239.625 5209.12 10143.5 5.97842e-11 1.46987e+08 5191.44 5.95812e-11 1.51999e-11 5.78129e+08 8.71322e+13
253.228 6179.6 11970.9 6.00957e-11 1.7347e+08 6158.39 5.98894e-11 1.29176e-11 8.07022e+08 1.02829e+14
267.603 7349.4 14127.5 6.05615e-11 2.04703e+08 7323.9 6.03514e-11 1.09771e-11 1.12936e+09 1.21354e+14
282.795 8772.41 16672.6 6.12528e-11 2.4161e+08 8741.56 6.10373e-11 9.3274e-12 1.58665e+09 1.43217e+14
298.848 10512 19676.2 6.2195e-11 2.85122e+08 10474.4 6.19722e-11 7.925e-12 2.23763e+09 1.69017e+14
315.813 12669.9 23220.9 6.35191e-11 3.36491e+08 12623.3 6.32854e-11 6.73295e-12 3.17448e+09 1.99466e+14
333.741 15390.8 27404.3 6.53814e-11 3.97115e+08 15332.3 6.51326e-11 5.71979e-12 4.53932e+09 2.35401e+14
352.686 18900.6 32341.2 6.80347e-11 4.68637e+08 18825.4 6.77637e-11 4.85874e-12 6.56211e+09 2.77809e+14
372.707 23564 38167.6 7.1873e-11 5.53074e+08 23464.6 7.15697e-11 4.12703e-12 9.63188e+09 3.27857e+14
393.865 30000.9 45043.5 7.75376e-11 6.52716e+08 29864.3 7.71845e-11 3.50528e-12 1.44382e+10 3.86921e+14
416.224 35425.8 53158.3 7.75818e-11 2.2184e+08 37477.2 8.20742e-11 2.97701e-12 5.78121e+09 4.56626e+14
439.852 0 62734.9 0 0 0 0 2.52819e-12 0 5.38888e+14
464.821 0 74036.7 0 0 0 0 2.1469e-12 0 6.35971e+14
491.207 0 87374.6 0 0 0 0 1.82301e-12 0 7.50542e+14
519.092 0 103115 0 0 0 0 1.54789e-12 0 8.85755e+14
548.56 0 121692 0 0 0 0 1.31422e-12 0 1.04533e+15
579.7 0 143615 0 0 0 0 1.11576e-12 0 1.23364e+15
612.608 0 169488 0 0 0 0 9.47223e-13 0 1.45589e+15
647.384 0 200021 0 0 0 0 8.041e-13 0 1.71817e+15
684.134 0 236056 0 0 0 0 6.82568e-13 0 2.0277e+15
722.971 0 278582 0 0 0 0 5.79376e-13 0 2.393e+15
764.012 0 328769 0 0 0 0 4.91762e-13 0 2.8241e+15
0.381851
200
8.92029e+08
8589934592
0.0129181 0.000598301 1.58924e-09 4.38269e-05 6 0.000592823 4.34257e-05 0.00677225 0.0388292 13.6515
0.0136515 0 1.87554e-09 0 0 0 0 0.00688819 0 16.1108
0.0144264 0 2.21343e-09 0 0 0 0 0.00699249 0 19.0132
0.0152454 0 2.61218e-09 0 0 0 0 0.00708412 0 22.4385
0.0161108 0 3.08278e-09 0 0 0 0 0.00716212 0 26.4808
0.0170254 0 3.63815e-09 0 0 0 0 0.00722559 0 31.2514
0.0179919 0.00129279 4.29357e-09 3.50526e-05 12 0.00129113 3.50074e-05 0.00727371 0.057829 36.8815
0.0190132 0 5.06707e-09 0 0 0 0 0.00730578 0 43.5258
0.0200925 0 5.97991e-09 0 0 0 0 0.00732122 0 51.367
0.0212331 0.00119627 7.05721e-09 1.97337e-05 8 0.00119523 1.97165e-05 0.00731958 0.0215681 60.621
0.0224385 0 8.32858e-09 0 0 0 0 0.00730056 0 71.542
0.0237123 0 9.829e-09 0 0 0 0 0.00726401 0 84.4305
0.0250583 0.00748612 1.15997e-08 7.51311e-05 6 0.0074826 7.50957e-05 0.00720995 0.0625228 99.6408
0.0264808 0 1.36894e-08 0 0 0 0 0.00713857 0 117.591
0.0279841 0.00456358 1.61556e-08 3.28845e-05 24 0.00455889 3.28508e-05 0.00705021 0.111944 138.776
0.0295727 0 1.90661e-08 0 0 0 0 0.00694538 0 163.777
0.0312514 0.00806648 2.25009e-08 4.17344e-05 24 0.00810743 4.19463e-05 0.00682475 0.146764 193.281
0.0330255 0 2.65545e-08 0 0 0 0 0.00668915 0 228.102
0.0349003 0.011664 3.13384e-08 4.33293e-05 12 0.0115706 4.29824e-05 0.00653951 0.0795093 269.195
0.0368815 0.00970731 3.69841e-08 3.05558e-05 30 0.00960394 3.02305e-05 0.00637693 0.143749 317.691
0.0389751 0.0112996 4.36469e-08 3.01384e-05 24 0.0111834 2.98284e-05 0.00620256 0.116617 374.924
0.0411876 0.00721176 5.151e-08 1.6299e-05 24 0.00716279 1.61883e-05 0.00601767 0.0650045 442.467
0.0435258 0.0167671 6.07896e-08 3.21099e-05 8 0.0167658 3.21074e-05 0.00582358 0.0441101 522.179
0.0459966 0.0211286 7.1741e-08 3.42857e-05 72 0.0209613 3.40143e-05 0.00562166 0.439118 616.251
0.0486077 0 8.46654e-08 0 0 0 0 0.0054133 0 727.27
0.051367 0.0306509 9.99181e-08 3.57116e-05 54 0.0305512 3.55955e-05 0.00519989 0.370859 858.29
0.054283 0.0243172 1.17919e-07 2.40072e-05 60 0.0244229 2.41115e-05 0.0049828 0.289081 1012.91
0.0573645 0.0235221 1.39162e-07 1.96773e-05 96 0.023462 1.96271e-05 0.00476339 0.396572 1195.39
0.060621 0.0273288 1.64232e-07 1.93719e-05 24 0.0269585 1.91094e-05 0.00454293 0.10234 1410.75
0.0640622 0.0473843 1.93819e-07 2.84609e-05 134 0.0474106 2.84767e-05 0.00432265 0.882273 1664.89
0.0676989 0.04504 2.28736e-07 2.29231e-05 120 0.0448288 2.28156e-05 0.00410371 0.670313 1964.83
0.071542 0.0408433 2.69944e-07 1.7614e-05 108 0.0404003 1.74229e-05 0.00388717 0.489381 2318.8
0.0756032 0.0589072 3.18575e-07 2.15262e-05 174 0.058595 2.14121e-05 0.00367401 1.01947 2736.54
0.079895 0.0608968 3.75967e-07 1.88562e-05 168 0.0603267 1.86797e-05 0.0034651 0.914216 3229.53
0.0844305 0.0509716 4.43698e-07 1.33737e-05 168 0.0512274 1.34408e-05 0.00326121 0.68894 3811.34
0.0892234 0.0587025 5.23632e-07 1.30509e-05 290 0.0584429 1.29932e-05 0.00306301 1.23563 4497.96
0.0942883 0.0751562 6.17966e-07 1.41583e-05 288 0.0749704 1.41233e-05 0.00287109 1.42022 5308.28
0.0996408 0.0690848 7.29294e-07 1.10278e-05 366 0.0685157 1.0937e-05 0.00268591 1.50273 6264.59
0.105297 0.079834 8.60678e-07 1.07983e-05 420 0.0792648 1.07214e-05 0.00250785 1.80844 7393.17
0.111275 0.0864953 1.01573e-06 9.91342e-06 398 0.0862356 9.88366e-06 0.00233721 1.68814 8725.07
0.117591 0.102782 1.19872e-06 9.98185e-06 624 0.103021 1.00051e-05 0.00217419 2.86482 10296.9
0.124267 0.113298 1.41467e-06 9.32347e-06 642 0.113123 9.30906e-06 0.00201893 2.96478 12151.9
0.131321 0.135388 1.66953e-06 9.44054e-06 800 0.135469 9.4462e-06 0.00187147 4.03557 14341.1
0.138776 0.118427 1.9703e-06 6.99729e-06 858 0.118983 7.03015e-06 0.00173182 3.46669 16924.7
0.146654 0.131361 2.32525e-06 6.57668e-06 1080 0.132463 6.63185e-06 0.00159991 4.43951 19973.8
0.154979 0.158675 2.74415e-06 6.73148e-06 1286 0.159699 6.77494e-06 0.00147563 5.86642 23572.1
0.163777 0.156185 3.23852e-06 5.61439e-06 1650 0.156497 5.62562e-06 0.00135884 6.81739 27818.7
0.173074 0.184534 3.82195e-06 5.62086e-06 1778 0.184593 5.62264e-06 0.00124933 7.99939 32830.3
0.182899 0.180784 4.51048e-06 4.66602e-06 2112 0.181289 4.67907e-06 0.00114689 8.59247 38744.7
0.193281 0.199564 5.32305e-06 4.36448e-06 2570 0.19985 4.37073e-06 0.00105127 10.6696 45724.7
0.204254 0.22613 6.28202e-06 4.19053e-06 3030 0.225994 4.18801e-06 0.000962209 13.196 53962.1
0.215848 0.231969 7.41374e-06 3.64253e-06 3434 0.231828 3.64031e-06 0.000879423 14.2235 63683.5
0.228102 0.248888 8.74934e-06 3.3116e-06 4218 0.248881 3.31151e-06 0.000802624 17.4034 75156.3
0.24105 0.278419 1.03256e-05 3.13902e-06 4766 0.278672 3.14189e-06 0.000731515 20.4515 88695.9
0.254734 0.296386 1.21857e-05 2.83149e-06 6026 0.296396 2.83159e-06 0.000665798 25.6272 104675
0.269195 0.318491 1.4381e-05 2.5782e-06 6480 0.318211 2.57594e-06 0.000605173 27.6065 123532
0.284476 0.352373 1.69718e-05 2.41704e-06 8162 0.353103 2.42205e-06 0.000549345 35.9117 145787
0.300625 0.367925 2.00293e-05 2.13847e-06 9578 0.368301 2.14065e-06 0.000498021 41.1273 172051
0.317691 0.403298 2.36377e-05 1.98624e-06 11234 0.402895 1.98425e-06 0.000450916 49.4846 203046
0.335725 0.429443 2.78961e-05 1.79214e-06 13344 0.428882 1.7898e-06 0.000407755 58.6489 239625
0.354784 0.461742 3.29216e-05 1.63278e-06 15464 0.461394 1.63155e-06 0.000368269 68.5623 282795
0.374924 0.492816 3.88525e-05 1.47664e-06 18458 0.492764 1.47649e-06 0.000332202 82.0461 333741
0.396207 0.541091 4.58519e-05 1.3738e-06 22232 0.540404 1.37205e-06 0.000299307 102.043 393865
0.418699 0.580117 5.41123e-05 1.24804e-06 25628 0.578654 1.2449e-06 0.00026935 118.748 464821
0.442467 0.6311 6.38607e-05 1.15047e-06 30320 0.62974 1.14799e-06 0.000242108 144.077 548560
0.467585 0.672666 7.53654e-05 1.03905e-06 35452 0.671723 1.0376e-06 0.00021737 169.464 647384
0.494129 0.733382 8.89427e-05 9.59909e-07 41792 0.733059 9.59487e-07 0.000194938 205.791 764012
0.522179 0.801443 0.000104966 8.88862e-07 49988 0.801281 8.88682e-07 0.000174625 254.445 901651
0.551822 0.860837 0.000123876 8.08992e-07 59110 0.859896 8.08107e-07 0.000156255 306.036 1.06409e+06
0.583147 0.934137 0.000146192 7.43868e-07 69716 0.932563 7.42615e-07 0.000139664 371.316 1.25578e+06
0.616251 1.01565 0.000172529 6.85315e-07 82210 1.01359 6.83927e-07 0.0001247 451.802 1.48202e+06
0.651234 1.09917 0.000203611 6.28456e-07 96722 1.09703 6.2723e-07 0.00011122 546.532 1.74901e+06
0.688203 1.19956 0.000240292 5.81158e-07 113098 1.19762 5.80215e-07 9.90935e-05 663.291 2.06409e+06
0.72727 1.30765 0.000283581 5.36814e-07 135190 1.30595 5.36114e-07 8.81969e-05 822.84 2.43595e+06
0.768555 1.42463 0.000334669 4.9556e-07 158170 1.4228 4.94924e-07 7.84179e-05 999.551 2.87479e+06
0.812184 1.56615 0.000394961 4.61625e-07 188560 1.56369 4.609e-07 6.96525e-05 1249.69 3.39269e+06
0.85829 1.70712 0.000466114 4.26364e-07 220444 1.7046 4.25736e-07 6.1805e-05 1520.74 4.00389e+06
0.907013 1.86576 0.000550086 3.94854e-07 261388 1.8632 3.94311e-07 5.47875e-05 1883.82 4.7252e+06
0.958501 2.04931 0.000649185 3.67493e-07 308244 2.04635 3.66962e-07 4.85194e-05 2334.69 5.57646e+06
1.01291 2.25437 0.000766138 3.42554e-07 364396 2.25083 3.42015e-07 4.29272e-05 2907.84 6.58107e+06
1.07041 2.47239 0.00090416 3.18334e-07 429162 2.46826 3.17802e-07 3.79435e-05 3600.53 7.76667e+06
1.13118 2.71745 0.00106705 2.96475e-07 506358 2.71293 2.95982e-07 3.3507e-05 4480.33 9.16586e+06
1.19539 2.98728 0.00125928 2.76162e-07 598590 2.98219 2.75692e-07 2.9562e-05 5591.9 1.08171e+07
1.26325 3.30482 0.00148614 2.5888e-07 704844 3.29937 2.58453e-07 2.60578e-05 7002.49 1.27658e+07
1.33496 3.64546 0.00175387 2.41972e-07 834620 3.6386 2.41516e-07 2.29484e-05 8800.36 1.50656e+07
1.41075 4.01951 0.00206984 2.26072e-07 981444 4.01169 2.25632e-07 2.01923e-05 10988.2 1.77798e+07
1.49083 4.44755 0.00244272 2.11961e-07 1.15998e+06 4.43975 2.1159e-07 1.77518e-05 13850.5 2.09828e+07
1.57546 4.91135 0.00288279 1.98334e-07 1.36931e+06 4.90183 1.9795e-07 1.55929e-05 17417 2.4763e+07
1.66489 5.43447 0.00340213 1.85959e-07 1.61652e+06 5.42398 1.856e-07 1.3685e-05 21966 2.92241e+07
1.75941 6.02096 0.00401503 1.74577e-07 1.90601e+06 6.00961 1.74248e-07 1.20007e-05 27727.2 3.44889e+07
1.85928 6.64717 0.00473835 1.63313e-07 2.24913e+06 6.63439 1.62999e-07 1.05151e-05 34931.7 4.07021e+07
1.96483 7.37379 0.00559198 1.5351e-07 2.65744e+06 7.35882 1.53198e-07 9.20606e-06 44312.4 4.80347e+07
2.07637 8.13137 0.00659939 1.4344e-07 3.13125e+06 8.11555 1.43161e-07 8.05366e-06 55769.3 5.66883e+07
2.19424 9.00777 0.00778828 1.34644e-07 3.69915e+06 8.99023 1.34381e-07 7.04008e-06 70747.3 6.69008e+07
2.3188 9.93874 0.00919136 1.25881e-07 4.36472e+06 9.91959 1.25639e-07 6.1494e-06 89348.2 7.89532e+07
2.45043 10.9766 0.0108472 1.17804e-07 5.14913e+06 10.9549 1.17572e-07 5.36741e-06 113013 9.31768e+07
2.58954 12.1007 0.0128014 1.10044e-07 6.07894e+06 12.0772 1.0983e-07 4.68145e-06 142893 1.09963e+08
2.73654 13.338 0.0151076 1.0278e-07 7.17304e+06 13.3119 1.02578e-07 4.08023e-06 180687 1.29773e+08
2.89188 14.6856 0.0178292 9.5889e-08 8.46557e+06 14.6572 9.57037e-08 3.55373e-06 228423 1.53152e+08
3.05605 16.1221 0.0210412 8.91992e-08 9.98773e+06 16.0919 8.90323e-08 3.09304e-06 288033 1.80743e+08
3.22953 17.6955 0.0248319 8.2959e-08 1.1797e+07 17.6619 8.28017e-08 2.69025e-06 363783 2.13304e+08
3.41286 19.3568 0.0293054 7.68945e-08 1.39144e+07 19.3195 7.67467e-08 2.33837e-06 457557 2.51731e+08
3.6066 21.1393 0.0345848 7.11565e-08 1.64163e+07 21.1002 7.1025e-08 2.0312e-06 575091 2.97081e+08
3.81134 23.0447 0.0408154 6.57291e-08 1.93821e+07 23.0026 6.56089e-08 1.76327e-06 722506 3.50601e+08
4.0277 25.0409 0.0481684 6.05198e-08 2.28754e+07 24.9942 6.0407e-08 1.52972e-06 905011 4.13763e+08
4.25634 27.1687 0.056846 5.5639e-08 2.69929e+07 27.1186 5.55364e-08 1.32631e-06 1.13236e+06 4.88304e+08
4.49796 29.4211 0.067087 5.10541e-08 3.18542e+07 29.3671 5.09604e-08 1.14926e-06 1.41508e+06 5.76273e+08
4.7533 31.7487 0.0791729 4.66831e-08 3.75892e+07 31.6917 4.65993e-08 9.95263e-07 1.76313e+06 6.8009e+08
5.02313 34.2044 0.0934361 4.26165e-08 4.43706e+07 34.1444 4.25417e-08 8.61414e-07 2.19514e+06 8.0261e+08
5.30828 36.7748 0.110269 3.88247e-08 5.23593e+07 36.7095 3.87557e-08 7.45152e-07 2.72808e+06 9.47202e+08
5.60962 39.4758 0.130134 3.53143e-08 6.1787e+07 39.4074 3.52531e-08 6.44232e-07 3.38692e+06 1.11784e+09
5.92807 42.2617 0.153578 3.20352e-08 7.29346e+07 42.1887 3.19799e-08 5.56685e-07 4.19713e+06 1.31923e+09
6.26459 45.1473 0.181246 2.89985e-08 8.60651e+07 45.0689 2.8948e-08 4.80786e-07 5.19098e+06 1.55689e+09
6.62021 48.1574 0.213898 2.621e-08 1.01558e+08 48.0751 2.61652e-08 4.15026e-07 6.41368e+06 1.83737e+09
6.99602 51.2973 0.252432 2.36571e-08 1.1986e+08 51.2101 2.36169e-08 3.58083e-07 7.91866e+06 2.16837e+09
7.39317 54.5705 0.297908 2.13249e-08 1.41457e+08 54.4782 2.12888e-08 3.08803e-07 9.76849e+06 2.55901e+09
7.81286 57.9575 0.351577 1.91911e-08 1.66936e+08 57.8599 1.91588e-08 2.66181e-07 1.20357e+07 3.02002e+09
8.25637 61.5297 0.414914 1.72638e-08 1.97025e+08 61.4261 1.72347e-08 2.29336e-07 1.48315e+07 3.56409e+09
8.72507 65.2726 0.489662 1.55183e-08 2.32497e+08 65.1619 1.5492e-08 1.97503e-07 1.82678e+07 4.20617e+09
9.22037 69.2792 0.577876 1.39565e-08 2.74404e+08 69.161 1.39327e-08 1.70014e-07 2.2526e+07 4.96392e+09
9.74378 73.673 0.681982 1.25761e-08 3.2382e+08 73.5444 1.25541e-08 1.46289e-07 2.7838e+07 5.85818e+09
10.2969 78.599 0.804843 1.13688e-08 3.82165e+08 78.4566 1.13482e-08 1.25822e-07 3.45309e+07 6.91355e+09
10.8814 84.4798 0.949838 1.03541e-08 4.51027e+08 84.3158 1.0334e-08 1.08175e-07 4.31705e+07 8.15905e+09
11.4992 91.9567 1.12095 9.55005e-09 5.32251e+08 91.7579 9.52941e-09 9.29669e-08 5.46756e+07 9.62892e+09
12.1519 102.449 1.3229 9.01552e-09 6.28157e+08 102.188 8.99259e-09 7.98658e-08 7.09085e+07 1.13636e+10
12.8418 114.226 1.56122 8.51751e-09 3.82727e+08 118.227 8.81579e-09 6.85852e-08 4.75304e+07 1.34108e+10
13.5708 0 1.84248 0 0 0 0 5.88765e-08 0 1.58268e+10
14.3411 0 2.17441 0 0 0 0 5.05241e-08 0 1.8678e+10
15.1552 0 2.56613 0 0 0 0 4.33417e-08 0 2.20429e+10
16.0156 0 3.02843 0 0 0 0 3.71677e-08 0 2.6014e+10
16.9247 0 3.574 0 0 0 0 3.18628e-08 0 3.07005e+10
17.8855 0 4.21787 0 0 0 0 2.73063e-08 0 3.62312e+10
18.9008 0 4.97773 0 0 0 0 2.33941e-08 0 4.27584e+10
19.9738 0 5.87448 0 0 0 0 2.00364e-08 0 5.04614e+10
21.1076 0 6.93279 0 0 0 0 1.71555e-08 0 5.95522e+10
22.3058 0 8.18175 0 0 0 0 1.46847e-08 0 7.02807e+10
23.5721 0 9.65571 0 0 0 0 1.25662e-08 0 8.29419e+10
24.9102 0 11.3952 0 0 0 0 1.07504e-08 0 9.78842e+10
26.3243 0 13.4481 0 0 0 0 9.19452e-09 0 1.15518e+11
27.8187 0 15.8708 0 0 0 0 7.86182e-09 0 1.36329e+11
29.3979 0 18.73 0 0 0 0 6.72061e-09 0 1.60889e+11
31.0667 0 22.1042 0 0 0 0 5.74366e-09 0 1.89874e+11
32.8303 0 26.0864 0 0 0 0 4.90756e-09 0 2.2408e+11
34.694 0 30.7859 0 0 0 0 4.19221e-09 0 2.64449e+11
36.6634 0 36.3321 0 0 0 0 3.58032e-09 0 3.1209e+11
38.7447 0 42.8774 0 0 0 0 3.05709e-09 0 3.68314e+11
40.9442 0 50.6018 0 0 0 0 2.60976e-09 0 4.34667e+11
43.2685 0 59.7179 0 0 0 0 2.22743e-09 0 5.12973e+11
45.7247 0 70.4762 0 0 0 0 1.90073e-09 0 6.05386e+11
48.3204 0 83.1727 0 0 0 0 1.62163e-09 0 7.14448e+11
51.0634 0 98.1565 0 0 0 0 1.38326e-09 0 8.43158e+11
53.9621 0 115.84 0 0 0 0 1.1797e-09 0 9.95055e+11
57.0254 0 136.709 0 0 0 0 1.00592e-09 0 1.17432e+12
60.2626 0 161.337 0 0 0 0 8.57591e-10 0 1.38587e+12
63.6835 0 190.402 0 0 0 0 7.3101e-10 0 1.63554e+12
67.2987 0 224.704 0 0 0 0 6.23009e-10 0 1.93019e+12
71.1191 0 265.185 0 0 0 0 5.30879e-10 0 2.27792e+12
75.1563 0 312.958 0 0 0 0 4.52303e-10 0 2.68829e+12
79.4227 0 369.339 0 0 0 0 3.85299e-10 0 3.17259e+12
83.9313 0 435.876 0 0 0 0 3.28173e-10 0 3.74415e+12
88.6959 0 514.4 0 0 0 0 2.79476e-10 0 4.41866e+12
93.7309 0 607.071 0 0 0 0 2.37972e-10 0 5.2147e+12
99.0518 0 716.436 0 0 0 0 2.02605e-10 0 6.15414e+12
104.675 0 845.504 0 0 0 0 1.72471e-10 0 7.26283e+12
110.617 0 997.824 0 0 0 0 1.468e-10 0 8.57124e+12
116.896 0 1177.58 0 0 0 0 1.24935e-10 0 1.01154e+13
123.532 0 1389.73 0 0 0 0 1.06313e-10 0 1.19377e+13
130.545 0 1640.09 0 0 0 0 9.04567e-11 0 1.40883e+13
137.955 0 1935.56 0 0 0 0 7.69563e-11 0 1.66263e+13
145.787 0 2284.26 0 0 0 0 6.54636e-11 0 1.96216e+13
154.063 0 2695.77 0 0 0 0 5.56812e-11 0 2.31565e+13
162.808 0 3181.42 0 0 0 0 4.73556e-11 0 2.73282e+13
172.051 0 3754.56 0 0 0 0 4.02708e-11 0 3.22515e+13
181.818 0 4430.96 0 0 0 0 3.42426e-11 0 3.80616e+13
192.139 0 5229.21 0 0 0 0 2.91139e-11 0 4.49186e+13
203.046 0 6171.26 0 0 0 0 2.4751e-11 0 5.30108e+13
214.572 0 7283.03 0 0 0 0 2.10401e-11 0 6.25608e+13
226.753 0 8595.09 0 0 0 0 1.78839e-11 0 7.38313e+13
239.625 0 10143.5 0 0 0 0 1.51999e-11 0 8.71322e+13
253.228 0 11970.9 0 0 0 0 1.29176e-11 0 1.02829e+14
267.603 0 14127.5 0 0 0 0 1.09771e-11 0 1.21354e+14
282.795 0 16672.6 0 0 0 0 9.3274e-12 0 1.43217e+14
298.848 0 19676.2 0 0 0 0 7.925e-12 0 1.69017e+14
315.813 0 23220.9 0 0 0 0 6.73295e-12 0 1.99466e+14
333.741 0 27404.3 0 0 0 0 5.71979e-12 0 2.35401e+14
352.686 0 32341.2 0 0 0 0 4.85874e-12 0 2.77809e+14
372.707 0 38167.6 0 0 0 0 4.12703e-12 0 3.27857e+14
393.865 0 45043.5 0 0 0 0 3.50528e-12 0 3.86921e+14
416.224 0 53158.3 0 0 0 0 2.97701e-12 0 4.56626e+14
439.852 0 62734.9 0 0 0 0 2.52819e-12 0 5.38888e+14
464.821 0 74036.7 0 0 0 0 2.1469e-12 0 6.35971e+14
491.207 0 87374.6 0 0 0 0 1.82301e-12 0 7.50542e+14
519.092 0 103115 0 0 0 0 1.54789e-12 0 8.85755e+14
548.56 0 121692 0 0 0 0 1.31422e-12 0 1.04533e+15
579.7 0 143615 0 0 0 0 1.11576e-12 0 1.23364e+15
612.608 0 169488 0 0 0 0 9.47223e-13 0 1.45589e+15
647.384 0 200021 0 0 0 0 8.041e-13 0 1.71817e+15
684.134 0 236056 0 0 0 0 6.82568e-13 0 2.0277e+15
722.971 0 278582 0 0 0 0 5.79376e-13 0 2.393e+15
764.012 0 328769 0 0 0 0 4.91762e-13 0 2.8241e+15
