0.707358
200
8.92029e+08
8589934592
0.0129181 0 1.58924e-09 0 0 0 0 0.00677225 0 13.6515
0.0136515 0 1.87554e-09 0 0 0 0 0.00688819 0 16.1108
0.0144264 0 2.21343e-09 0 0 0 0 0.00699249 0 19.0132
0.0152454 0 2.61218e-09 0 0 0 0 0.00708412 0 22.4385
0.0161108 0 3.08278e-09 0 0 0 0 0.00716212 0 26.4808
0.0170254 0 3.63815e-09 0 0 0 0 0.00722559 0 31.2514
0.0179919 0 4.29357e-09 0 0 0 0 0.00727371 0 36.8815
0.0190132 0 5.06707e-09 0 0 0 0 0.00730578 0 43.5258
0.0200925 0 5.97991e-09 0 0 0 0 0.00732122 0 51.367
0.0212331 0 7.05721e-09 0 0 0 0 0.00731958 0 60.621
0.0224385 0 8.32858e-09 0 0 0 0 0.00730056 0 71.542
0.0237123 0 9.829e-09 0 0 0 0 0.00726401 0 84.4305
0.0250583 0 1.15997e-08 0 0 0 0 0.00720995 0 99.6408
0.0264808 0 1.36894e-08 0 0 0 0 0.00713857 0 117.591
0.0279841 0 1.61556e-08 0 0 0 0 0.00705021 0 138.776
0.0295727 0 1.90661e-08 0 0 0 0 0.00694538 0 163.777
0.0312514 0 2.25009e-08 0 0 0 0 0.00682475 0 193.281
0.0330255 0 2.65545e-08 0 0 0 0 0.00668915 0 228.102
0.0349003 0 3.13384e-08 0 0 0 0 0.00653951 0 269.195
0.0368815 0 3.69841e-08 0 0 0 0 0.00637693 0 317.691
0.0389751 0 4.36469e-08 0 0 0 0 0.00620256 0 374.924
0.0411876 0 5.151e-08 0 0 0 0 0.00601767 0 442.467
0.0435258 0 6.07896e-08 0 0 0 0 0.00582358 0 522.179
0.0459966 0 7.1741e-08 0 0 0 0 0.00562166 0 616.251
0.0486077 0 8.46654e-08 0 0 0 0 0.0054133 0 727.27
0.051367 0 9.99181e-08 0 0 0 0 0.00519989 0 858.29
0.054283 0 1.17919e-07 0 0 0 0 0.0049828 0 1012.91
0.0573645 0 1.39162e-07 0 0 0 0 0.00476339 0 1195.39
0.060621 0 1.64232e-07 0 0 0 0 0.00454293 0 1410.75
0.0640622 0 1.93819e-07 0 0 0 0 0.00432265 0 1664.89
0.0676989 0 2.28736e-07 0 0 0 0 0.00410371 0 1964.83
0.071542 0 2.69944e-07 0 0 0 0 0.00388717 0 2318.8
0.0756032 0 3.18575e-07 0 0 0 0 0.00367401 0 2736.54
0.079895 0 3.75967e-07 0 0 0 0 0.0034651 0 3229.53
0.0844305 0 4.43698e-07 0 0 0 0 0.00326121 0 3811.34
0.0892234 0 5.23632e-07 0 0 0 0 0.00306301 0 4497.96
0.0942883 0 6.17966e-07 0 0 0 0 0.00287109 0 5308.28
0.0996408 0 7.29294e-07 0 0 0 0 0.00268591 0 6264.59
0.105297 0 8.60678e-07 0 0 0 0 0.00250785 0 7393.17
0.111275 0 1.01573e-06 0 0 0 0 0.00233721 0 8725.07
0.117591 0 1.19872e-06 0 0 0 0 0.00217419 0 10296.9
0.124267 0 1.41467e-06 0 0 0 0 0.00201893 0 12151.9
0.131321 0 1.66953e-06 0 0 0 0 0.00187147 0 14341.1
0.138776 0 1.9703e-06 0 0 0 0 0.00173182 0 16924.7
0.146654 0 2.32525e-06 0 0 0 0 0.00159991 0 19973.8
0.154979 0 2.74415e-06 0 0 0 0 0.00147563 0 23572.1
0.163777 0 3.23852e-06 0 0 0 0 0.00135884 0 27818.7
0.173074 0 3.82195e-06 0 0 0 0 0.00124933 0 32830.3
0.182899 0 4.51048e-06 0 0 0 0 0.00114689 0 38744.7
0.193281 0 5.32305e-06 0 0 0 0 0.00105127 0 45724.7
0.204254 0 6.28202e-06 0 0 0 0 0.000962209 0 53962.1
0.215848 0 7.41374e-06 0 0 0 0 0.000879423 0 63683.5
0.228102 0 8.74934e-06 0 0 0 0 0.000802624 0 75156.3
0.24105 0 1.03256e-05 0 0 0 0 0.000731515 0 88695.9
0.254734 0 1.21857e-05 0 0 0 0 0.000665798 0 104675
0.269195 0 1.4381e-05 0 0 0 0 0.000605173 0 123532
0.284476 0 1.69718e-05 0 0 0 0 0.000549345 0 145787
0.300625 0 2.00293e-05 0 0 0 0 0.000498021 0 172051
0.317691 0 2.36377e-05 0 0 0 0 0.000450916 0 203046
0.335725 0 2.78961e-05 0 0 0 0 0.000407755 0 239625
0.354784 0 3.29216e-05 0 0 0 0 0.000368269 0 282795
0.374924 0 3.88525e-05 0 0 0 0 0.000332202 0 333741
0.396207 2.70291 4.58519e-05 6.86253e-06 6 2.62776 6.67174e-06 0.000299307 0.137568 393865
0.418699 0 5.41123e-05 0 0 0 0 0.00026935 0 464821
0.442467 0 6.38607e-05 0 0 0 0 0.000242108 0 548560
0.467585 0 7.53654e-05 0 0 0 0 0.00021737 0 647384
0.494129 0 8.89427e-05 0 0 0 0 0.000194938 0 764012
0.522179 0 0.000104966 0 0 0 0 0.000174625 0 901651
0.551822 0 0.000123876 0 0 0 0 0.000156255 0 1.06409e+06
0.583147 8.06582 0.000146192 6.42293e-06 12 8.48931 6.76017e-06 0.000139664 0.551861 1.25578e+06
0.616251 0 0.000172529 0 0 0 0 0.0001247 0 1.48202e+06
0.651234 0 0.000203611 0 0 0 0 0.00011122 0 1.74901e+06
0.688203 17.1 0.000240292 8.28452e-06 8 16.6746 8.07841e-06 9.90935e-05 0.668825 2.06409e+06
0.72727 0 0.000283581 0 0 0 0 8.81969e-05 0 2.43595e+06
0.768555 0 0.000334669 0 0 0 0 7.84179e-05 0 2.87479e+06
0.812184 9.41663 0.000394961 2.77557e-06 6 9.61796 2.83491e-06 6.96525e-05 0.239093 3.39269e+06
0.85829 0 0.000466114 0 0 0 0 6.1805e-05 0 4.00389e+06
0.907013 1.50835 0.000550086 3.19214e-07 24 1.53729 3.25339e-07 5.47875e-05 0.139834 4.7252e+06
0.958501 5.11828 0.000649185 9.17837e-07 24 4.81848 8.64076e-07 4.85194e-05 0.454006 5.57646e+06
1.01291 0 0.000766138 0 0 0 0 4.29272e-05 0 6.58107e+06
1.07041 0 0.00090416 0 0 0 0 3.79435e-05 0 7.76667e+06
1.13118 6.52002 0.00106705 7.11338e-07 12 6.43993 7.026e-07 3.3507e-05 0.254754 9.16586e+06
1.19539 3.70813 0.00125928 3.42803e-07 30 3.63169 3.35736e-07 2.9562e-05 0.347881 1.08171e+07
1.26325 11.4872 0.00148614 8.99838e-07 24 11.3143 8.86298e-07 2.60578e-05 0.828777 1.27658e+07
1.33496 15.9023 0.00175387 1.05553e-06 24 15.9372 1.05785e-06 2.29484e-05 1.1039 1.50656e+07
1.41075 13.4399 0.00206984 7.55909e-07 32 13.7302 7.72238e-07 2.01923e-05 1.19794 1.77798e+07
1.49083 3.75298 0.00244272 1.7886e-07 48 3.67298 1.75047e-07 1.77518e-05 0.483629 2.09828e+07
1.57546 37.9427 0.00288279 1.53224e-06 6 36.13 1.45903e-06 1.55929e-05 0.589591 2.4763e+07
1.66489 5.25796 0.00340213 1.79919e-07 84 5.16943 1.76889e-07 1.3685e-05 1.10436 2.92241e+07
1.75941 6.4225 0.00401503 1.8622e-07 48 6.35548 1.84276e-07 1.20007e-05 0.744836 3.44889e+07
1.85928 7.14816 0.00473835 1.75621e-07 72 7.13214 1.75228e-07 1.05151e-05 1.20253 4.07021e+07
1.96483 14.1001 0.00559198 2.93539e-07 54 13.7364 2.85969e-07 9.20606e-06 1.72182 4.80347e+07
2.07637 14.1766 0.00659939 2.5008e-07 104 14.3764 2.53605e-07 8.05366e-06 3.22938 5.66883e+07
2.19424 6.95512 0.00778828 1.03962e-07 120 7.08378 1.05885e-07 7.04008e-06 1.77205 6.69008e+07
2.3188 6.85819 0.00919136 8.6864e-08 156 6.70332 8.49025e-08 6.1494e-06 2.20359 7.89532e+07
2.45043 11.5025 0.0108472 1.23448e-07 126 11.4054 1.22406e-07 5.36741e-06 2.89794 9.31768e+07
2.58954 10.5387 0.0128014 9.58391e-08 192 10.5941 9.63427e-08 4.68145e-06 3.93064 1.09963e+08
2.73654 30.4116 0.0151076 2.34344e-07 152 30.8955 2.38073e-07 4.08023e-06 8.72997 1.29773e+08
2.89188 14.8413 0.0178292 9.69058e-08 378 14.9159 9.73927e-08 3.55373e-06 10.3076 1.53152e+08
3.05605 14.1199 0.0210412 7.81213e-08 264 13.9114 7.69681e-08 3.09304e-06 6.66789 1.80743e+08
3.22953 16.0047 0.0248319 7.50322e-08 366 15.8367 7.42446e-08 2.69025e-06 10.2079 2.13304e+08
3.41286 16.2209 0.0293054 6.44373e-08 428 16.0416 6.37253e-08 2.33837e-06 11.7942 2.51731e+08
3.6066 18.6953 0.0345848 6.29297e-08 486 18.4517 6.211e-08 2.0312e-06 15.057 2.97081e+08
3.81134 16.7044 0.0408154 4.76451e-08 600 16.7575 4.77964e-08 1.76327e-06 16.2126 3.50601e+08
4.0277 21.6964 0.0481684 5.24367e-08 738 21.6071 5.2221e-08 1.52972e-06 25.2976 4.13763e+08
4.25634 22.3499 0.056846 4.57706e-08 824 22.3225 4.57143e-08 1.32631e-06 28.4361 4.88304e+08
4.49796 25.3882 0.067087 4.40559e-08 954 25.2566 4.38274e-08 1.14926e-06 36.5709 5.76273e+08
4.7533 23.3705 0.0791729 3.43638e-08 1094 23.2731 3.42206e-08 9.95263e-07 37.773 6.8009e+08
5.02313 25.2934 0.0934361 3.1514e-08 1332 25.4127 3.16626e-08 8.61414e-07 48.7299 8.0261e+08
5.30828 31.5385 0.110269 3.32964e-08 1614 31.5138 3.32704e-08 7.45152e-07 72.1201 9.47202e+08
5.60962 35.0926 0.130134 3.13931e-08 1850 35.021 3.1329e-08 6.44232e-07 90.1497 1.11784e+09
5.92807 32.2143 0.153578 2.44191e-08 2238 32.1327 2.43572e-08 5.56685e-07 98.1703 1.31923e+09
6.26459 33.5213 0.181246 2.1531e-08 2546 33.5374 2.15413e-08 4.80786e-07 114.017 1.55689e+09
6.62021 33.7151 0.213898 1.83497e-08 3264 33.7131 1.83486e-08 4.15026e-07 144.313 1.83737e+09
6.99602 36.9676 0.252432 1.70485e-08 3506 37.0249 1.7075e-08 3.58083e-07 166.923 2.16837e+09
7.39317 39.4466 0.297908 1.54148e-08 4506 39.4719 1.54247e-08 3.08803e-07 224.93 2.55901e+09
7.81286 45.4893 0.351577 1.50626e-08 5018 45.3727 1.5024e-08 2.66181e-07 283.957 3.02002e+09
8.25637 48.2748 0.414914 1.35448e-08 5852 48.2626 1.35414e-08 2.29336e-07 345.624 3.56409e+09
8.72507 49.3598 0.489662 1.17351e-08 7362 49.2986 1.17206e-08 1.97503e-07 437.431 4.20617e+09
9.22037 51.7527 0.577876 1.04258e-08 8306 51.573 1.03896e-08 1.70014e-07 509.348 4.96392e+09
9.74378 55.5811 0.681982 9.48777e-09 9698 55.4864 9.47161e-09 1.46289e-07 628.977 5.85818e+09
10.2969 58.245 0.804843 8.42476e-09 11816 58.1893 8.4167e-09 1.25822e-07 791.17 6.91355e+09
10.8814 66.1871 0.949838 8.11211e-09 13682 66.0228 8.09198e-09 1.08175e-07 1026.02 8.15905e+09
11.4992 66.1117 1.12095 6.86595e-09 16152 66.0701 6.86163e-09 9.29669e-08 1192.89 9.62892e+09
12.1519 68.56 1.3229 6.0333e-09 19472 68.4573 6.02427e-09 7.98658e-08 1470.97 1.13636e+10
12.8418 73.4331 1.56122 5.47568e-09 22670 73.1959 5.45799e-09 6.85852e-08 1809.92 1.34108e+10
13.5708 78.5436 1.84248 4.96271e-09 26224 78.4398 4.95615e-09 5.88765e-08 2210.42 1.58268e+10
14.3411 84.308 2.17441 4.51376e-09 31640 84.2165 4.50886e-09 5.05241e-08 2826.68 1.8678e+10
15.1552 88.9201 2.56613 4.03396e-09 37484 88.7657 4.02695e-09 4.33417e-08 3488.76 2.20429e+10
16.0156 94.3476 3.02843 3.6268e-09 43856 94.171 3.62001e-09 3.71677e-08 4279.44 2.6014e+10
16.9247 99.5218 3.574 3.2417e-09 51362 99.4449 3.2392e-09 3.18628e-08 5225.54 3.07005e+10
17.8855 104.82 4.21787 2.8931e-09 61636 104.664 2.88876e-09 2.73063e-08 6530.32 3.62312e+10
18.9008 110.219 4.97773 2.57771e-09 72218 109.943 2.57127e-09 2.33941e-08 7957.42 4.27584e+10
19.9738 118.676 5.87448 2.35181e-09 84586 118.461 2.34755e-09 2.00364e-08 9928.44 5.04614e+10
21.1076 123.967 6.93279 2.08165e-09 100708 123.755 2.0781e-09 1.71555e-08 12219.9 5.95522e+10
22.3058 131.389 8.18175 1.86949e-09 118712 131.204 1.86686e-09 1.46847e-08 15113.1 7.02807e+10
23.5721 137.628 9.65571 1.65933e-09 140410 137.335 1.6558e-09 1.25662e-08 18540.8 8.29419e+10
24.9102 144.818 11.3952 1.47948e-09 164374 144.513 1.47637e-09 1.07504e-08 22621.4 9.78842e+10
26.3243 153.181 13.4481 1.32603e-09 194680 152.941 1.32396e-09 9.19452e-09 28076.7 1.15518e+11
27.8187 160.059 15.8708 1.17406e-09 230196 159.835 1.17242e-09 7.86182e-09 34376.9 1.36329e+11
29.3979 168.775 18.73 1.04902e-09 271156 168.506 1.04734e-09 6.72061e-09 42324.6 1.60889e+11
31.0667 178.772 22.1042 9.41532e-10 321076 178.441 9.39789e-10 5.74366e-09 52632.6 1.89874e+11
32.8303 186.758 26.0864 8.33445e-10 377436 186.433 8.31991e-10 4.90756e-09 64099.5 2.2408e+11
34.694 196.873 30.7859 7.44467e-10 447594 196.472 7.4295e-10 4.19221e-09 79485.3 2.64449e+11
36.6634 206.214 36.3321 6.60753e-10 525078 205.814 6.5947e-10 3.58032e-09 96903.8 3.1209e+11
38.7447 217.409 42.8774 5.90282e-10 621924 217.05 5.89307e-10 3.05709e-09 120085 3.68314e+11
40.9442 227.508 50.6018 5.23409e-10 732630 227.087 5.2244e-10 2.60976e-09 146935 4.34667e+11
43.2685 239.79 59.7179 4.67451e-10 865596 239.413 4.66717e-10 2.22743e-09 181655 5.12973e+11
45.7247 251.944 70.4762 4.16171e-10 1.02168e+06 251.554 4.15527e-10 1.90073e-09 223699 6.05386e+11
48.3204 264.126 83.1727 3.69693e-10 1.20544e+06 263.642 3.69015e-10 1.62163e-09 274810 7.14448e+11
51.0634 276.601 98.1565 3.28054e-10 1.42103e+06 276.15 3.27518e-10 1.38326e-09 337012 8.43158e+11
53.9621 290.954 115.84 2.924e-10 1.67997e+06 290.455 2.91898e-10 1.1797e-09 416394 9.95055e+11
57.0254 305.968 136.709 2.60549e-10 1.98018e+06 305.434 2.60095e-10 1.00592e-09 512898 1.17432e+12
60.2626 321.99 161.337 2.32337e-10 2.33957e+06 321.405 2.31915e-10 8.57591e-10 633832 1.38587e+12
63.6835 339.653 190.402 2.0767e-10 2.75676e+06 339.013 2.07279e-10 7.3101e-10 783160 1.63554e+12
67.2987 359.102 224.704 1.86045e-10 3.25638e+06 358.451 1.85708e-10 6.23009e-10 972430 1.93019e+12
71.1191 380.141 265.185 1.66881e-10 3.84387e+06 379.443 1.66575e-10 5.30879e-10 1.20831e+06 2.27792e+12
75.1563 404.089 312.958 1.50314e-10 4.53277e+06 403.308 1.50024e-10 4.52303e-10 1.50638e+06 2.68829e+12
79.4227 430.206 369.339 1.35601e-10 5.35083e+06 429.398 1.35346e-10 3.85299e-10 1.88315e+06 3.17259e+12
83.9313 460.274 435.876 1.22932e-10 6.32174e+06 459.345 1.22683e-10 3.28173e-10 2.36809e+06 3.74415e+12
88.6959 494.876 514.4 1.11997e-10 7.44986e+06 493.831 1.1176e-10 2.79476e-10 2.98544e+06 4.41866e+12
93.7309 533.415 607.071 1.02291e-10 8.79764e+06 532.298 1.02076e-10 2.37972e-10 3.7816e+06 5.2147e+12
99.0518 579.296 716.436 9.41311e-11 1.03827e+07 578.02 9.39237e-11 2.02605e-10 4.82384e+06 6.15414e+12
104.675 632.292 845.504 8.70587e-11 1.22515e+07 630.824 8.68566e-11 1.72471e-10 6.18424e+06 7.26283e+12
110.617 694.483 997.824 8.10248e-11 1.44573e+07 692.855 8.08348e-11 1.468e-10 7.97957e+06 8.57124e+12
116.896 768.496 1177.58 7.59731e-11 1.70664e+07 766.587 7.57843e-11 1.24935e-10 1.03781e+07 1.01154e+13
123.532 854.752 1389.73 7.16011e-11 2.0139e+07 852.549 7.14166e-11 1.06313e-10 1.35635e+07 1.19377e+13
130.545 958.086 1640.09 6.80058e-11 2.37643e+07 955.53 6.78244e-11 9.04567e-11 1.78661e+07 1.40883e+13
137.955 1080.37 1935.56 6.49792e-11 2.80503e+07 1077.37 6.4799e-11 7.69563e-11 2.36847e+07 1.66263e+13
145.787 1225.74 2284.26 6.24691e-11 3.30981e+07 1222.29 6.22931e-11 6.54636e-11 3.15841e+07 1.96216e+13
154.063 1397.94 2695.77 6.0369e-11 3.90634e+07 1393.89 6.01942e-11 5.56812e-11 4.23522e+07 2.31565e+13
162.808 1603.81 3181.42 5.8687e-11 4.61057e+07 1599.01 5.85112e-11 4.73556e-11 5.71379e+07 2.73282e+13
172.051 1849.2 3754.56 5.73369e-11 5.44046e+07 1843.58 5.71628e-11 4.02708e-11 7.74603e+07 3.22515e+13
181.818 2140.24 4430.96 5.62308e-11 6.42064e+07 2133.57 5.60557e-11 3.42426e-11 1.05435e+08 3.80616e+13
192.139 2487.1 5229.21 5.5369e-11 7.57748e+07 2479.24 5.51941e-11 2.91139e-11 1.44109e+08 4.49186e+13
203.046 2900.77 6171.26 5.47204e-11 8.94213e+07 2891.5 5.45456e-11 2.4751e-11 1.97695e+08 5.30108e+13
214.572 3395.24 7283.03 5.4271e-11 1.05538e+08 3384.27 5.40957e-11 2.10401e-11 2.72227e+08 6.25608e+13
226.753 3986.34 8595.09 5.39925e-11 1.24552e+08 3973.25 5.38153e-11 1.78839e-11 3.76029e+08 7.38313e+13
239.625 4694.99 10143.5 5.38835e-11 1.46987e+08 4679.34 5.37039e-11 1.51999e-11 5.21068e+08 8.71322e+13
253.228 5546.28 11970.9 5.39368e-11 1.7347e+08 5527.5 5.37541e-11 1.29176e-11 7.24314e+08 1.02829e+14
267.603 6575.12 14127.5 5.41812e-11 2.04703e+08 6552.55 5.39952e-11 1.09771e-11 1.01038e+09 1.21354e+14
282.795 7824.87 16672.6 5.46367e-11 2.4161e+08 7797.65 5.44466e-11 9.3274e-12 1.41527e+09 1.43217e+14
298.848 9360.35 19676.2 5.5381e-11 2.85122e+08 9326.96 5.51835e-11 7.925e-12 1.99247e+09 1.69017e+14
315.813 11266.2 23220.9 5.64817e-11 3.36491e+08 11225 5.62751e-11 6.73295e-12 2.82278e+09 1.99466e+14
333.741 13676.1 27404.3 5.80972e-11 3.97115e+08 13624.2 5.78764e-11 5.71979e-12 4.03358e+09 2.35401e+14
352.686 16785.8 32341.2 6.04222e-11 4.68637e+08 16719.1 6.01821e-11 4.85874e-12 5.82787e+09 2.77809e+14
372.707 20924.1 38167.6 6.3821e-11 5.53074e+08 20835.9 6.3552e-11 4.12703e-12 8.55281e+09 3.27857e+14
393.865 26645.9 45043.5 6.88665e-11 6.52716e+08 26524.6 6.85531e-11 3.50528e-12 1.28236e+10 3.86921e+14
416.224 31461.1 53158.3 6.88991e-11 2.2184e+08 33282.9 7.28888e-11 2.97701e-12 5.1342e+09 4.56626e+14
439.852 0 62734.9 0 0 0 0 2.52819e-12 0 5.38888e+14
464.821 0 74036.7 0 0 0 0 2.1469e-12 0 6.35971e+14
491.207 0 87374.6 0 0 0 0 1.82301e-12 0 7.50542e+14
519.092 0 103115 0 0 0 0 1.54789e-12 0 8.85755e+14
548.56 0 121692 0 0 0 0 1.31422e-12 0 1.04533e+15
579.7 0 143615 0 0 0 0 1.11576e-12 0 1.23364e+15
612.608 0 169488 0 0 0 0 9.47223e-13 0 1.45589e+15
647.384 0 200021 0 0 0 0 8.041e-13 0 1.71817e+15
684.134 0 236056 0 0 0 0 6.82568e-13 0 2.0277e+15
722.971 0 278582 0 0 0 0 5.79376e-13 0 2.393e+15
764.012 0 328769 0 0 0 0 4.91762e-13 0 2.8241e+15
0.707358
200
8.92029e+08
8589934592
0.0129181 0.00165027 1.58924e-09 0.000120886 6 0.00163516 0.000119779 0.00677225 0.107101 13.6515
0.0136515 0 1.87554e-09 0 0 0 0 0.00688819 0 16.1108
0.0144264 0 2.21343e-09 0 0 0 0 0.00699249 0 19.0132
0.0152454 0 2.61218e-09 0 0 0 0 0.00708412 0 22.4385
0.0161108 0 3.08278e-09 0 0 0 0 0.00716212 0 26.4808
0.0170254 0 3.63815e-09 0 0 0 0 0.00722559 0 31.2514
0.0179919 0.00357152 4.29357e-09 9.68378e-05 12 0.00356692 9.67131e-05 0.00727371 0.159761 36.8815
0.0190132 0 5.06707e-09 0 0 0 0 0.00730578 0 43.5258
0.0200925 0 5.97991e-09 0 0 0 0 0.00732122 0 51.367
0.0212331 0.00330769 7.05721e-09 5.45634e-05 8 0.00330481 5.45159e-05 0.00731958 0.0596356 60.621
0.0224385 0 8.32858e-09 0 0 0 0 0.00730056 0 71.542
0.0237123 0 9.829e-09 0 0 0 0 0.00726401 0 84.4305
0.0250583 0.0205008 1.15997e-08 0.000205747 6 0.0204911 0.00020565 0.00720995 0.171219 99.6408
0.0264808 0 1.36894e-08 0 0 0 0 0.00713857 0 117.591
0.0279841 0.0124338 1.61556e-08 8.95965e-05 24 0.0124211 8.95045e-05 0.00705021 0.305 138.776
0.0295727 0 1.90661e-08 0 0 0 0 0.00694538 0 163.777
0.0312514 0.0218991 2.25009e-08 0.000113302 24 0.0220103 0.000113877 0.00682475 0.398438 193.281
0.0330255 0 2.65545e-08 0 0 0 0 0.00668915 0 228.102
0.0349003 0.0328876 3.13384e-08 0.00012217 12 0.0326242 0.000121192 0.00653951 0.224182 269.195
0.0368815 0.0264145 3.69841e-08 8.31452e-05 30 0.0261332 8.22598e-05 0.00637693 0.391153 317.691
0.0389751 0.0299759 4.36469e-08 7.99521e-05 24 0.0296676 7.91296e-05 0.00620256 0.309364 374.924
0.0411876 0.0192827 5.151e-08 4.358e-05 24 0.0191518 4.3284e-05 0.00601767 0.173808 442.467
0.0435258 0.0477461 6.07896e-08 9.14363e-05 8 0.0477424 9.14293e-05 0.00582358 0.125608 522.179
0.0459966 0.0589568 7.1741e-08 9.56701e-05 72 0.0584907 9.49137e-05 0.00562166 1.2253 616.251
0.0486077 0 8.46654e-08 0 0 0 0 0.0054133 0 727.27
0.051367 0.0822097 9.99181e-08 9.57831e-05 54 0.0819366 9.5465e-05 0.00519989 0.994692 858.29
0.054283 0.0663133 1.17919e-07 6.5468e-05 60 0.0666133 6.57641e-05 0.0049828 0.788327 1012.91
0.0573645 0.0624776 1.39162e-07 5.22654e-05 96 0.0623183 5.21321e-05 0.00476339 1.05334 1195.39
0.060621 0.0736235 1.64232e-07 5.21876e-05 24 0.072626 5.14806e-05 0.00454293 0.275704 1410.75
0.0640622 0.125624 1.93819e-07 7.54546e-05 134 0.125685 7.54914e-05 0.00432265 2.33906 1664.89
0.0676989 0.120747 2.28736e-07 6.14542e-05 120 0.120162 6.11563e-05 0.00410371 1.79703 1964.83
0.071542 0.11126 2.69944e-07 4.79819e-05 108 0.110039 4.74552e-05 0.00388717 1.33311 2318.8
0.0756032 0.162043 3.18575e-07 5.92148e-05 174 0.161159 5.88915e-05 0.00367401 2.80439 2736.54
0.079895 0.165952 3.75967e-07 5.13857e-05 168 0.164399 5.09048e-05 0.0034651 2.49136 3229.53
0.0844305 0.137321 4.43698e-07 3.60295e-05 168 0.138003 3.62086e-05 0.00326121 1.85605 3811.34
0.0892234 0.164099 5.23632e-07 3.64829e-05 290 0.163326 3.63112e-05 0.00306301 3.45413 4497.96
0.0942883 0.201237 6.17966e-07 3.791e-05 288 0.200785 3.78248e-05 0.00287109 3.80277 5308.28
0.0996408 0.184683 7.29294e-07 2.94804e-05 366 0.183234 2.92492e-05 0.00268591 4.0172 6264.59
0.105297 0.220812 8.60678e-07 2.98671e-05 420 0.219212 2.96507e-05 0.00250785 5.00196 7393.17
0.111275 0.239137 1.01573e-06 2.7408e-05 398 0.238451 2.73294e-05 0.00233721 4.66726 8725.07
0.117591 0.283689 1.19872e-06 2.75509e-05 624 0.284465 2.76263e-05 0.00217419 7.90719 10296.9
0.124267 0.320613 1.41467e-06 2.63837e-05 642 0.319964 2.63303e-05 0.00201893 8.38978 12151.9
0.131321 0.369681 1.66953e-06 2.57776e-05 800 0.36986 2.57901e-05 0.00187147 11.0192 14341.1
0.138776 0.333134 1.9703e-06 1.96833e-05 858 0.33458 1.97687e-05 0.00173182 9.75176 16924.7
0.146654 0.384062 2.32525e-06 1.92283e-05 1080 0.38726 1.93884e-05 0.00159991 12.9799 19973.8
0.154979 0.454462 2.74415e-06 1.92797e-05 1286 0.457286 1.93995e-05 0.00147563 16.802 23572.1
0.163777 0.453887 3.23852e-06 1.63159e-05 1650 0.455073 1.63586e-05 0.00135884 19.812 27818.7
0.173074 0.515821 3.82195e-06 1.57117e-05 1778 0.516188 1.57229e-05 0.00124933 22.3603 32830.3
0.182899 0.540745 4.51048e-06 1.39566e-05 2112 0.542117 1.3992e-05 0.00114689 25.7011 38744.7
0.193281 0.586501 5.32305e-06 1.28268e-05 2570 0.587063 1.28391e-05 0.00105127 31.3571 45724.7
0.204254 0.68015 6.28202e-06 1.26042e-05 3030 0.67971 1.25961e-05 0.000962209 39.6907 53962.1
0.215848 0.709501 7.41374e-06 1.1141e-05 3434 0.709156 1.11356e-05 0.000879423 43.5039 63683.5
0.228102 0.759367 8.74934e-06 1.01038e-05 4218 0.758978 1.00987e-05 0.000802624 53.0983 75156.3
0.24105 0.845106 1.03256e-05 9.52813e-06 4766 0.845634 9.53408e-06 0.000731515 62.0781 88695.9
0.254734 0.911223 1.21857e-05 8.70528e-06 6026 0.911283 8.70585e-06 0.000665798 78.7897 104675
0.269195 1.02915 1.4381e-05 8.331e-06 6480 1.02822 8.32351e-06 0.000605173 89.2056 123532
0.284476 1.11674 1.69718e-05 7.66006e-06 8162 1.11881 7.67429e-06 0.000549345 113.811 145787
0.300625 1.22342 2.00293e-05 7.11084e-06 9578 1.22404 7.11441e-06 0.000498021 136.757 172051
0.317691 1.34388 2.36377e-05 6.61857e-06 11234 1.34261 6.61235e-06 0.000450916 164.893 203046
0.335725 1.44921 2.78961e-05 6.0478e-06 13344 1.44653 6.03663e-06 0.000407755 197.917 239625
0.354784 1.61672 3.29216e-05 5.71693e-06 15464 1.61566 5.71321e-06 0.000368269 240.06 282795
0.374924 1.73346 3.88525e-05 5.19404e-06 18458 1.73203 5.18975e-06 0.000332202 288.595 333741
0.396207 1.99566 4.58519e-05 5.06686e-06 22232 1.99277 5.05952e-06 0.000299307 376.358 393865
0.418699 2.13833 5.41123e-05 4.60034e-06 25628 2.13319 4.58928e-06 0.00026935 437.712 464821
0.442467 2.32257 6.38607e-05 4.23394e-06 30320 2.31858 4.22667e-06 0.000242108 530.231 548560
0.467585 2.61711 7.53654e-05 4.04259e-06 35452 2.61249 4.03546e-06 0.00021737 659.326 647384
0.494129 2.8789 8.89427e-05 3.76814e-06 41792 2.87589 3.76419e-06 0.000194938 807.835 764012
0.522179 3.2328 0.000104966 3.58543e-06 49988 3.23261 3.58521e-06 0.000174625 1026.36 901651
0.551822 3.57357 0.000123876 3.35835e-06 59110 3.56882 3.35389e-06 0.000156255 1270.44 1.06409e+06
0.583147 3.95969 0.000146192 3.15316e-06 69716 3.95317 3.14797e-06 0.000139664 1573.96 1.25578e+06
0.616251 4.39391 0.000172529 2.96482e-06 82210 4.38513 2.9589e-06 0.0001247 1954.59 1.48202e+06
0.651234 4.84829 0.000203611 2.77203e-06 96722 4.83727 2.76573e-06 0.00011122 2410.67 1.74901e+06
0.688203 5.47897 0.000240292 2.65442e-06 113098 5.4703 2.65022e-06 9.90935e-05 3029.56 2.06409e+06
0.72727 6.08041 0.000283581 2.49612e-06 135190 6.07172 2.49255e-06 8.81969e-05 3826.1 2.43595e+06
0.768555 6.76913 0.000334669 2.35465e-06 158170 6.75986 2.35143e-06 7.84179e-05 4749.36 2.87479e+06
0.812184 7.54767 0.000394961 2.22469e-06 188560 7.53476 2.22088e-06 6.96525e-05 6022.57 3.39269e+06
0.85829 8.41018 0.000466114 2.1005e-06 220444 8.39645 2.09707e-06 6.1805e-05 7492 4.00389e+06
0.907013 9.37879 0.000550086 1.98484e-06 261388 9.36287 1.98147e-06 5.47875e-05 9469.58 4.7252e+06
0.958501 10.458 0.000649185 1.87538e-06 308244 10.4428 1.87266e-06 4.85194e-05 11914.3 5.57646e+06
1.01291 11.7168 0.000766138 1.78037e-06 364396 11.6971 1.77739e-06 4.29272e-05 15113.1 6.58107e+06
1.07041 12.9834 0.00090416 1.67168e-06 429162 12.9596 1.66862e-06 3.79435e-05 18907.6 7.76667e+06
1.13118 14.4821 0.00106705 1.58e-06 506358 14.4578 1.57735e-06 3.3507e-05 23877 9.16586e+06
1.19539 16.171 0.00125928 1.49494e-06 598590 16.1414 1.49221e-06 2.9562e-05 30270.5 1.08171e+07
1.26325 17.9844 0.00148614 1.40879e-06 704844 17.9501 1.4061e-06 2.60578e-05 38106.8 1.27658e+07
1.33496 19.9675 0.00175387 1.32537e-06 834620 19.9276 1.32271e-06 2.29484e-05 48202.8 1.50656e+07
1.41075 22.0951 0.00206984 1.24271e-06 981444 22.0522 1.2403e-06 2.01923e-05 60401.9 1.77798e+07
1.49083 24.4888 0.00244272 1.16709e-06 1.15998e+06 24.4442 1.16496e-06 1.77518e-05 76262.4 2.09828e+07
1.57546 27.1029 0.00288279 1.0945e-06 1.36931e+06 27.0538 1.09251e-06 1.55929e-05 96114.8 2.4763e+07
1.66489 30.0028 0.00340213 1.02665e-06 1.61652e+06 29.9467 1.02473e-06 1.3685e-05 121271 2.92241e+07
1.75941 33.0097 0.00401503 9.57111e-07 1.90601e+06 32.9496 9.55369e-07 1.20007e-05 152013 3.44889e+07
1.85928 36.2726 0.00473835 8.91172e-07 2.24913e+06 36.2051 8.89513e-07 1.05151e-05 190617 4.07021e+07
1.96483 39.6723 0.00559198 8.25909e-07 2.65744e+06 39.5966 8.24334e-07 9.20606e-06 238409 4.80347e+07
2.07637 43.384 0.00659939 7.65308e-07 3.13125e+06 43.3025 7.63871e-07 8.05366e-06 297551 5.66883e+07
2.19424 47.3916 0.00778828 7.08386e-07 3.69915e+06 47.3054 7.07097e-07 7.04008e-06 372215 6.69008e+07
2.3188 51.5252 0.00919136 6.52604e-07 4.36472e+06 51.4334 6.51442e-07 6.1494e-06 463206 7.89532e+07
2.45043 56.0907 0.0108472 6.01981e-07 5.14913e+06 55.9955 6.00959e-07 5.36741e-06 577500 9.31768e+07
2.58954 60.7537 0.0128014 5.52493e-07 6.07894e+06 60.6464 5.51517e-07 4.68145e-06 717421 1.09963e+08
2.73654 65.7327 0.0151076 5.0652e-07 7.17304e+06 65.6216 5.05664e-07 4.08023e-06 890462 1.29773e+08
2.89188 70.9354 0.0178292 4.6317e-07 8.46557e+06 70.8147 4.62382e-07 3.55373e-06 1.10335e+06 1.53152e+08
3.05605 76.3961 0.0210412 4.22679e-07 9.98773e+06 76.2693 4.21977e-07 3.09304e-06 1.36487e+06 1.80743e+08
3.22953 82.073 0.0248319 3.8477e-07 1.1797e+07 81.9369 3.84132e-07 2.69025e-06 1.68725e+06 2.13304e+08
3.41286 88.1216 0.0293054 3.50062e-07 1.39144e+07 87.9715 3.49466e-07 2.33837e-06 2.08303e+06 2.51731e+08
3.6066 94.5421 0.0345848 3.18237e-07 1.64163e+07 94.3839 3.17704e-07 2.0312e-06 2.57201e+06 2.97081e+08
3.81134 101.33 0.0408154 2.89018e-07 1.93821e+07 101.162 2.88539e-07 1.76327e-06 3.17694e+06 3.50601e+08
4.0277 108.375 0.0481684 2.61924e-07 2.28754e+07 108.196 2.61492e-07 1.52972e-06 3.9168e+06 4.13763e+08
4.25634 115.744 0.056846 2.37034e-07 2.69929e+07 115.552 2.36639e-07 1.32631e-06 4.82409e+06 4.88304e+08
4.49796 123.466 0.067087 2.14249e-07 3.18542e+07 123.261 2.13894e-07 1.14926e-06 5.93838e+06 5.76273e+08
4.7533 131.623 0.0791729 1.93538e-07 3.75892e+07 131.405 1.93217e-07 9.95263e-07 7.30956e+06 6.8009e+08
5.02313 140.179 0.0934361 1.74655e-07 4.43706e+07 139.951 1.7437e-07 8.61414e-07 8.99629e+06 8.0261e+08
5.30828 149.081 0.110269 1.57391e-07 5.23593e+07 148.834 1.57131e-07 7.45152e-07 1.10593e+07 9.47202e+08
5.60962 158.525 0.130134 1.41813e-07 6.1787e+07 158.266 1.41582e-07 6.44232e-07 1.3601e+07 1.11784e+09
5.92807 168.407 0.153578 1.27656e-07 7.29346e+07 168.129 1.27445e-07 5.56685e-07 1.67249e+07 1.31923e+09
6.26459 178.663 0.181246 1.14756e-07 8.60651e+07 178.367 1.14566e-07 4.80786e-07 2.05424e+07 1.55689e+09
6.62021 189.534 0.213898 1.03156e-07 1.01558e+08 189.22 1.02984e-07 4.15026e-07 2.52425e+07 1.83737e+09
6.99602 200.766 0.252432 9.25886e-08 1.1986e+08 200.44 9.2438e-08 3.58083e-07 3.09919e+07 2.16837e+09
7.39317 212.51 0.297908 8.30438e-08 1.41457e+08 212.163 8.29083e-08 3.08803e-07 3.80407e+07 2.55901e+09
7.81286 224.879 0.351577 7.44626e-08 1.66936e+08 224.51 7.43404e-08 2.66181e-07 4.66993e+07 3.02002e+09
8.25637 237.849 0.414914 6.67349e-08 1.97025e+08 237.46 6.66257e-08 2.29336e-07 5.73327e+07 3.56409e+09
8.72507 251.551 0.489662 5.98054e-08 2.32497e+08 251.137 5.97068e-08 1.97503e-07 7.04017e+07 4.20617e+09
9.22037 266.152 0.577876 5.36173e-08 2.74404e+08 265.709 5.3528e-08 1.70014e-07 8.65388e+07 4.96392e+09
9.74378 282.172 0.681982 4.81671e-08 3.2382e+08 281.69 4.80848e-08 1.46289e-07 1.06621e+08 5.85818e+09
10.2969 300.25 0.804843 4.34292e-08 3.82165e+08 299.718 4.33522e-08 1.25822e-07 1.31909e+08 6.91355e+09
10.8814 321.769 0.949838 3.9437e-08 4.51027e+08 321.157 3.93621e-08 1.08175e-07 1.64429e+08 8.15905e+09
11.4992 349.11 1.12095 3.62564e-08 5.32251e+08 348.37 3.61795e-08 9.29669e-08 2.07574e+08 9.62892e+09
12.1519 387.581 1.3229 3.41073e-08 6.28157e+08 386.614 3.40222e-08 7.98658e-08 2.68259e+08 1.13636e+10
12.8418 430.865 1.56122 3.21282e-08 3.82727e+08 445.961 3.32539e-08 6.85852e-08 1.79286e+08 1.34108e+10
13.5708 0 1.84248 0 0 0 0 5.88765e-08 0 1.58268e+10
14.3411 0 2.17441 0 0 0 0 5.05241e-08 0 1.8678e+10
15.1552 0 2.56613 0 0 0 0 4.33417e-08 0 2.20429e+10
16.0156 0 3.02843 0 0 0 0 3.71677e-08 0 2.6014e+10
16.9247 0 3.574 0 0 0 0 3.18628e-08 0 3.07005e+10
17.8855 0 4.21787 0 0 0 0 2.73063e-08 0 3.62312e+10
18.9008 0 4.97773 0 0 0 0 2.33941e-08 0 4.27584e+10
19.9738 0 5.87448 0 0 0 0 2.00364e-08 0 5.04614e+10
21.1076 0 6.93279 0 0 0 0 1.71555e-08 0 5.95522e+10
22.3058 0 8.18175 0 0 0 0 1.46847e-08 0 7.02807e+10
23.5721 0 9.65571 0 0 0 0 1.25662e-08 0 8.29419e+10
24.9102 0 11.3952 0 0 0 0 1.07504e-08 0 9.78842e+10
26.3243 0 13.4481 0 0 0 0 9.19452e-09 0 1.15518e+11
27.8187 0 15.8708 0 0 0 0 7.86182e-09 0 1.36329e+11
29.3979 0 18.73 0 0 0 0 6.72061e-09 0 1.60889e+11
31.0667 0 22.1042 0 0 0 0 5.74366e-09 0 1.89874e+11
32.8303 0 26.0864 0 0 0 0 4.90756e-09 0 2.2408e+11
34.694 0 30.7859 0 0 0 0 4.19221e-09 0 2.64449e+11
36.6634 0 36.3321 0 0 0 0 3.58032e-09 0 3.1209e+11
38.7447 0 42.8774 0 0 0 0 3.05709e-09 0 3.68314e+11
40.9442 0 50.6018 0 0 0 0 2.60976e-09 0 4.34667e+11
43.2685 0 59.7179 0 0 0 0 2.22743e-09 0 5.12973e+11
45.7247 0 70.4762 0 0 0 0 1.90073e-09 0 6.05386e+11
48.3204 0 83.1727 0 0 0 0 1.62163e-09 0 7.14448e+11
51.0634 0 98.1565 0 0 0 0 1.38326e-09 0 8.43158e+11
53.9621 0 115.84 0 0 0 0 1.1797e-09 0 9.95055e+11
57.0254 0 136.709 0 0 0 0 1.00592e-09 0 1.17432e+12
60.2626 0 161.337 0 0 0 0 8.57591e-10 0 1.38587e+12
63.6835 0 190.402 0 0 0 0 7.3101e-10 0 1.63554e+12
67.2987 0 224.704 0 0 0 0 6.23009e-10 0 1.93019e+12
71.1191 0 265.185 0 0 0 0 5.30879e-10 0 2.27792e+12
75.1563 0 312.958 0 0 0 0 4.52303e-10 0 2.68829e+12
79.4227 0 369.339 0 0 0 0 3.85299e-10 0 3.17259e+12
83.9313 0 435.876 0 0 0 0 3.28173e-10 0 3.74415e+12
88.6959 0 514.4 0 0 0 0 2.79476e-10 0 4.41866e+12
93.7309 0 607.071 0 0 0 0 2.37972e-10 0 5.2147e+12
99.0518 0 716.436 0 0 0 0 2.02605e-10 0 6.15414e+12
104.675 0 845.504 0 0 0 0 1.72471e-10 0 7.26283e+12
110.617 0 997.824 0 0 0 0 1.468e-10 0 8.57124e+12
116.896 0 1177.58 0 0 0 0 1.24935e-10 0 1.01154e+13
123.532 0 1389.73 0 0 0 0 1.06313e-10 0 1.19377e+13
130.545 0 1640.09 0 0 0 0 9.04567e-11 0 1.40883e+13
137.955 0 1935.56 0 0 0 0 7.69563e-11 0 1.66263e+13
145.787 0 2284.26 0 0 0 0 6.54636e-11 0 1.96216e+13
154.063 0 2695.77 0 0 0 0 5.56812e-11 0 2.31565e+13
162.808 0 3181.42 0 0 0 0 4.73556e-11 0 2.73282e+13
172.051 0 3754.56 0 0 0 0 4.02708e-11 0 3.22515e+13
181.818 0 4430.96 0 0 0 0 3.42426e-11 0 3.80616e+13
192.139 0 5229.21 0 0 0 0 2.91139e-11 0 4.49186e+13
203.046 0 6171.26 0 0 0 0 2.4751e-11 0 5.30108e+13
214.572 0 7283.03 0 0 0 0 2.10401e-11 0 6.25608e+13
226.753 0 8595.09 0 0 0 0 1.78839e-11 0 7.38313e+13
239.625 0 10143.5 0 0 0 0 1.51999e-11 0 8.71322e+13
253.228 0 11970.9 0 0 0 0 1.29176e-11 0 1.02829e+14
267.603 0 14127.5 0 0 0 0 1.09771e-11 0 1.21354e+14
282.795 0 16672.6 0 0 0 0 9.3274e-12 0 1.43217e+14
298.848 0 19676.2 0 0 0 0 7.925e-12 0 1.69017e+14
315.813 0 23220.9 0 0 0 0 6.73295e-12 0 1.99466e+14
333.741 0 27404.3 0 0 0 0 5.71979e-12 0 2.35401e+14
352.686 0 32341.2 0 0 0 0 4.85874e-12 0 2.77809e+14
372.707 0 38167.6 0 0 0 0 4.12703e-12 0 3.27857e+14
393.865 0 45043.5 0 0 0 0 3.50528e-12 0 3.86921e+14
416.224 0 53158.3 0 0 0 0 2.97701e-12 0 4.56626e+14
439.852 0 62734.9 0 0 0 0 2.52819e-12 0 5.38888e+14
464.821 0 74036.7 0 0 0 0 2.1469e-12 0 6.35971e+14
491.207 0 87374.6 0 0 0 0 1.82301e-12 0 7.50542e+14
519.092 0 103115 0 0 0 0 1.54789e-12 0 8.85755e+14
548.56 0 121692 0 0 0 0 1.31422e-12 0 1.04533e+15
579.7 0 143615 0 0 0 0 1.11576e-12 0 1.23364e+15
612.608 0 169488 0 0 0 0 9.47223e-13 0 1.45589e+15
647.384 0 200021 0 0 0 0 8.041e-13 0 1.71817e+15
684.134 0 236056 0 0 0 0 6.82568e-13 0 2.0277e+15
722.971 0 278582 0 0 0 0 5.79376e-13 0 2.393e+15
764.012 0 328769 0 0 0 0 4.91762e-13 0 2.8241e+15
