1
200
8.92029e+08
8589934592
0.0129181 0 1.58924e-09 0 0 0 0 0.00677225 0 13.6515
0.0136515 0 1.87554e-09 0 0 0 0 0.00688819 0 16.1108
0.0144264 0 2.21343e-09 0 0 0 0 0.00699249 0 19.0132
0.0152454 0 2.61218e-09 0 0 0 0 0.00708412 0 22.4385
0.0161108 0 3.08278e-09 0 0 0 0 0.00716212 0 26.4808
0.0170254 0 3.63815e-09 0 0 0 0 0.00722559 0 31.2514
0.0179919 0 4.29357e-09 0 0 0 0 0.00727371 0 36.8815
0.0190132 0 5.06707e-09 0 0 0 0 0.00730578 0 43.5258
0.0200925 0 5.97991e-09 0 0 0 0 0.00732122 0 51.367
0.0212331 0 7.05721e-09 0 0 0 0 0.00731958 0 60.621
0.0224385 0 8.32858e-09 0 0 0 0 0.00730056 0 71.542
0.0237123 0 9.829e-09 0 0 0 0 0.00726401 0 84.4305
0.0250583 0 1.15997e-08 0 0 0 0 0.00720995 0 99.6408
0.0264808 0 1.36894e-08 0 0 0 0 0.00713857 0 117.591
0.0279841 0 1.61556e-08 0 0 0 0 0.00705021 0 138.776
0.0295727 0 1.90661e-08 0 0 0 0 0.00694538 0 163.777
0.0312514 0 2.25009e-08 0 0 0 0 0.00682475 0 193.281
0.0330255 0 2.65545e-08 0 0 0 0 0.00668915 0 228.102
0.0349003 0 3.13384e-08 0 0 0 0 0.00653951 0 269.195
0.0368815 0 3.69841e-08 0 0 0 0 0.00637693 0 317.691
0.0389751 0 4.36469e-08 0 0 0 0 0.00620256 0 374.924
0.0411876 0 5.151e-08 0 0 0 0 0.00601767 0 442.467
0.0435258 0 6.07896e-08 0 0 0 0 0.00582358 0 522.179
0.0459966 0 7.1741e-08 0 0 0 0 0.00562166 0 616.251
0.0486077 0 8.46654e-08 0 0 0 0 0.0054133 0 727.27
0.051367 0 9.99181e-08 0 0 0 0 0.00519989 0 858.29
0.054283 0 1.17919e-07 0 0 0 0 0.0049828 0 1012.91
0.0573645 0 1.39162e-07 0 0 0 0 0.00476339 0 1195.39
0.060621 0 1.64232e-07 0 0 0 0 0.00454293 0 1410.75
0.0640622 0 1.93819e-07 0 0 0 0 0.00432265 0 1664.89
0.0676989 0 2.28736e-07 0 0 0 0 0.00410371 0 1964.83
0.071542 0 2.69944e-07 0 0 0 0 0.00388717 0 2318.8
0.0756032 0 3.18575e-07 0 0 0 0 0.00367401 0 2736.54
0.079895 0 3.75967e-07 0 0 0 0 0.0034651 0 3229.53
0.0844305 0 4.43698e-07 0 0 0 0 0.00326121 0 3811.34
0.0892234 0 5.23632e-07 0 0 0 0 0.00306301 0 4497.96
0.0942883 0 6.17966e-07 0 0 0 0 0.00287109 0 5308.28
0.0996408 0 7.29294e-07 0 0 0 0 0.00268591 0 6264.59
0.105297 0 8.60678e-07 0 0 0 0 0.00250785 0 7393.17
0.111275 0 1.01573e-06 0 0 0 0 0.00233721 0 8725.07
0.117591 0 1.19872e-06 0 0 0 0 0.00217419 0 10296.9
0.124267 0 1.41467e-06 0 0 0 0 0.00201893 0 12151.9
0.131321 0 1.66953e-06 0 0 0 0 0.00187147 0 14341.1
0.138776 0 1.9703e-06 0 0 0 0 0.00173182 0 16924.7
0.146654 0 2.32525e-06 0 0 0 0 0.00159991 0 19973.8
0.154979 0 2.74415e-06 0 0 0 0 0.00147563 0 23572.1
0.163777 0 3.23852e-06 0 0 0 0 0.00135884 0 27818.7
0.173074 0 3.82195e-06 0 0 0 0 0.00124933 0 32830.3
0.182899 0 4.51048e-06 0 0 0 0 0.00114689 0 38744.7
0.193281 0 5.32305e-06 0 0 0 0 0.00105127 0 45724.7
0.204254 0 6.28202e-06 0 0 0 0 0.000962209 0 53962.1
0.215848 0 7.41374e-06 0 0 0 0 0.000879423 0 63683.5
0.228102 0 8.74934e-06 0 0 0 0 0.000802624 0 75156.3
0.24105 0 1.03256e-05 0 0 0 0 0.000731515 0 88695.9
0.254734 0 1.21857e-05 0 0 0 0 0.000665798 0 104675
0.269195 0 1.4381e-05 0 0 0 0 0.000605173 0 123532
0.284476 0 1.69718e-05 0 0 0 0 0.000549345 0 145787
0.300625 0 2.00293e-05 0 0 0 0 0.000498021 0 172051
0.317691 0 2.36377e-05 0 0 0 0 0.000450916 0 203046
0.335725 0 2.78961e-05 0 0 0 0 0.000407755 0 239625
0.354784 0 3.29216e-05 0 0 0 0 0.000368269 0 282795
0.374924 0 3.88525e-05 0 0 0 0 0.000332202 0 333741
0.396207 1.54094 4.58519e-05 3.91236e-06 6 1.4981 3.80359e-06 0.000299307 0.0784284 393865
0.418699 0 5.41123e-05 0 0 0 0 0.00026935 0 464821
0.442467 0 6.38607e-05 0 0 0 0 0.000242108 0 548560
0.467585 0 7.53654e-05 0 0 0 0 0.00021737 0 647384
0.494129 0 8.89427e-05 0 0 0 0 0.000194938 0 764012
0.522179 0 0.000104966 0 0 0 0 0.000174625 0 901651
0.551822 0 0.000123876 0 0 0 0 0.000156255 0 1.06409e+06
0.583147 5.24041 0.000146192 4.17302e-06 12 5.51556 4.39213e-06 0.000139664 0.358548 1.25578e+06
0.616251 0 0.000172529 0 0 0 0 0.0001247 0 1.48202e+06
0.651234 0 0.000203611 0 0 0 0 0.00011122 0 1.74901e+06
0.688203 12.0402 0.000240292 5.83315e-06 8 11.7406 5.68803e-06 9.90935e-05 0.470921 2.06409e+06
0.72727 0 0.000283581 0 0 0 0 8.81969e-05 0 2.43595e+06
0.768555 0 0.000334669 0 0 0 0 7.84179e-05 0 2.87479e+06
0.812184 9.34046 0.000394961 2.75312e-06 6 9.54016 2.81198e-06 6.96525e-05 0.237159 3.39269e+06
0.85829 0 0.000466114 0 0 0 0 6.1805e-05 0 4.00389e+06
0.907013 1.42395 0.000550086 3.01351e-07 24 1.45127 3.07134e-07 5.47875e-05 0.132009 4.7252e+06
0.958501 3.06875 0.000649185 5.50304e-07 24 2.889 5.18071e-07 4.85194e-05 0.272206 5.57646e+06
1.01291 0 0.000766138 0 0 0 0 4.29272e-05 0 6.58107e+06
1.07041 0 0.00090416 0 0 0 0 3.79435e-05 0 7.76667e+06
1.13118 8.84678 0.00106705 9.65188e-07 12 8.73811 9.53332e-07 3.3507e-05 0.345667 9.16586e+06
1.19539 2.59818 0.00125928 2.40192e-07 30 2.54462 2.3524e-07 2.9562e-05 0.24375 1.08171e+07
1.26325 7.53845 0.00148614 5.90517e-07 24 7.42502 5.81632e-07 2.60578e-05 0.543883 1.27658e+07
1.33496 11.1302 0.00175387 7.38778e-07 24 11.1546 7.40402e-07 2.29484e-05 0.77263 1.50656e+07
1.41075 17.0313 0.00206984 9.57903e-07 32 17.233 9.69247e-07 2.01923e-05 1.51805 1.77798e+07
1.49083 4.79789 0.00244272 2.28658e-07 48 4.6956 2.23783e-07 1.77518e-05 0.618281 2.09828e+07
1.57546 36.5968 0.00288279 1.47789e-06 6 34.8484 1.40728e-06 1.55929e-05 0.568678 2.4763e+07
1.66489 8.38446 0.00340213 2.86903e-07 84 8.16844 2.79511e-07 1.3685e-05 1.76104 2.92241e+07
1.75941 7.63409 0.00401503 2.21349e-07 48 7.55057 2.18928e-07 1.20007e-05 0.885347 3.44889e+07
1.85928 8.04728 0.00473835 1.97712e-07 72 8.08945 1.98748e-07 1.05151e-05 1.35379 4.07021e+07
1.96483 17.3153 0.00559198 3.60475e-07 54 17.0606 3.55172e-07 9.20606e-06 2.11444 4.80347e+07
2.07637 11.6343 0.00659939 2.05232e-07 104 11.736 2.07026e-07 8.05366e-06 2.65024 5.66883e+07
2.19424 10.7144 0.00778828 1.60153e-07 120 10.8948 1.62851e-07 7.04008e-06 2.72986 6.69008e+07
2.3188 13.0624 0.00919136 1.65444e-07 156 12.7929 1.62031e-07 6.1494e-06 4.19705 7.89532e+07
2.45043 12.3158 0.0108472 1.32177e-07 126 12.1748 1.30663e-07 5.36741e-06 3.10284 9.31768e+07
2.58954 14.922 0.0128014 1.357e-07 192 14.9949 1.36363e-07 4.68145e-06 5.56547 1.09963e+08
2.73654 30.8507 0.0151076 2.37728e-07 152 31.2654 2.40924e-07 4.08023e-06 8.85603 1.29773e+08
2.89188 17.9586 0.0178292 1.1726e-07 378 18.0532 1.17877e-07 3.55373e-06 12.4726 1.53152e+08
3.05605 18.3489 0.0210412 1.01519e-07 264 18.0115 9.96528e-08 3.09304e-06 8.66497 1.80743e+08
3.22953 22.2666 0.0248319 1.04389e-07 366 21.98 1.03046e-07 2.69025e-06 14.2018 2.13304e+08
3.41286 17.1518 0.0293054 6.81355e-08 428 16.949 6.73298e-08 2.33837e-06 12.4711 2.51731e+08
3.6066 25.839 0.0345848 8.69761e-08 486 25.3641 8.53778e-08 2.0312e-06 20.8105 2.97081e+08
3.81134 21.5104 0.0408154 6.13528e-08 600 21.4782 6.12609e-08 1.76327e-06 20.877 3.50601e+08
4.0277 29.3836 0.0481684 7.10154e-08 738 29.3469 7.09268e-08 1.52972e-06 34.2607 4.13763e+08
4.25634 30.1078 0.056846 6.1658e-08 824 29.9859 6.14084e-08 1.32631e-06 38.3066 4.88304e+08
4.49796 31.5646 0.067087 5.47738e-08 954 31.1567 5.40659e-08 1.14926e-06 45.4678 5.76273e+08
4.7533 29.7637 0.0791729 4.37644e-08 1094 29.6664 4.36212e-08 9.95263e-07 48.1061 6.8009e+08
5.02313 33.062 0.0934361 4.11931e-08 1332 33.2058 4.13722e-08 8.61414e-07 63.6966 8.0261e+08
5.30828 40.5039 0.110269 4.27616e-08 1614 40.4119 4.26645e-08 7.45152e-07 92.6216 9.47202e+08
5.60962 45.7541 0.130134 4.09307e-08 1850 45.7162 4.08968e-08 6.44232e-07 117.538 1.11784e+09
5.92807 41.3466 0.153578 3.13415e-08 2238 41.3139 3.13168e-08 5.56685e-07 126 1.31923e+09
6.26459 46.1721 0.181246 2.96567e-08 2546 46.2474 2.9705e-08 4.80786e-07 157.047 1.55689e+09
6.62021 46.1731 0.213898 2.51301e-08 3264 46.13 2.51066e-08 4.15026e-07 197.637 1.83737e+09
6.99602 53.5261 0.252432 2.46849e-08 3506 53.5541 2.46978e-08 3.58083e-07 241.691 2.16837e+09
7.39317 55.0616 0.297908 2.15168e-08 4506 55.0241 2.15021e-08 3.08803e-07 313.968 2.55901e+09
7.81286 63.7798 0.351577 2.1119e-08 5018 63.5019 2.10269e-08 2.66181e-07 398.132 3.02002e+09
8.25637 64.8829 0.414914 1.82046e-08 5852 64.9281 1.82173e-08 2.29336e-07 464.53 3.56409e+09
8.72507 67.3707 0.489662 1.60171e-08 7362 67.2836 1.59964e-08 1.97503e-07 597.045 4.20617e+09
9.22037 74.0098 0.577876 1.49095e-08 8306 73.7674 1.48607e-08 1.70014e-07 728.402 4.96392e+09
9.74378 76.5761 0.681982 1.30716e-08 9698 76.4733 1.30541e-08 1.46289e-07 866.564 5.85818e+09
10.2969 82.8029 0.804843 1.19769e-08 11816 82.6992 1.19619e-08 1.25822e-07 1124.75 6.91355e+09
10.8814 96.0961 0.949838 1.17779e-08 13682 95.7715 1.17381e-08 1.08175e-07 1489.66 8.15905e+09
11.4992 92.0411 1.12095 9.55881e-09 16152 92.0058 9.55516e-09 9.29669e-08 1660.74 9.62892e+09
12.1519 98.0532 1.3229 8.62871e-09 19472 97.8298 8.60905e-09 7.98658e-08 2103.76 1.13636e+10
12.8418 106.2 1.56122 7.91903e-09 22670 105.959 7.901e-09 6.85852e-08 2617.54 1.34108e+10
13.5708 111.898 1.84248 7.07018e-09 26224 111.708 7.05819e-09 5.88765e-08 3149.11 1.58268e+10
14.3411 118.773 2.17441 6.35896e-09 31640 118.614 6.35049e-09 5.05241e-08 3982.2 1.8678e+10
15.1552 128.086 2.56613 5.81077e-09 37484 127.845 5.79982e-09 4.33417e-08 5025.44 2.20429e+10
16.0156 138.58 3.02843 5.32713e-09 43856 138.353 5.31841e-09 3.71677e-08 6285.74 2.6014e+10
16.9247 145.543 3.574 4.74073e-09 51362 145.465 4.7382e-09 3.18628e-08 7641.93 3.07005e+10
17.8855 152.276 4.21787 4.2029e-09 61636 152.059 4.19691e-09 2.73063e-08 9486.81 3.62312e+10
18.9008 161.678 4.97773 3.7812e-09 72218 161.363 3.77382e-09 2.33941e-08 11672.6 4.27584e+10
19.9738 172.024 5.87448 3.40902e-09 84586 171.698 3.40256e-09 2.00364e-08 14391.6 5.04614e+10
21.1076 184.615 6.93279 3.10005e-09 100708 184.285 3.09451e-09 1.71555e-08 18198.2 5.95522e+10
22.3058 193.163 8.18175 2.74846e-09 118712 192.849 2.74399e-09 1.46847e-08 22218.8 7.02807e+10
23.5721 204.675 9.65571 2.46769e-09 140410 204.233 2.46236e-09 1.25662e-08 27573.2 8.29419e+10
24.9102 213.158 11.3952 2.17766e-09 164374 212.731 2.17329e-09 1.07504e-08 33296.6 9.78842e+10
26.3243 227.041 13.4481 1.96541e-09 194680 226.705 1.96251e-09 9.19452e-09 41614.6 1.15518e+11
27.8187 240.369 15.8708 1.76315e-09 230196 239.972 1.76024e-09 7.86182e-09 51625.4 1.36329e+11
29.3979 253.923 18.73 1.57825e-09 271156 253.482 1.57551e-09 6.72061e-09 63677.5 1.60889e+11
31.0667 266.965 22.1042 1.40601e-09 321076 266.462 1.40337e-09 5.74366e-09 78597.3 1.89874e+11
32.8303 281.776 26.0864 1.25748e-09 377436 281.235 1.25506e-09 4.90756e-09 96711.6 2.2408e+11
34.694 296.556 30.7859 1.12141e-09 447594 296.02 1.11939e-09 4.19221e-09 119731 2.64449e+11
36.6634 312.549 36.3321 1.00147e-09 525078 311.901 9.99393e-10 3.58032e-09 146872 3.1209e+11
38.7447 329.669 42.8774 8.95077e-10 621924 329.022 8.93321e-10 3.05709e-09 182092 3.68314e+11
40.9442 346.261 50.6018 7.96614e-10 732630 345.664 7.95239e-10 2.60976e-09 223631 4.34667e+11
43.2685 364.409 59.7179 7.10387e-10 865596 363.831 7.09259e-10 2.22743e-09 276061 5.12973e+11
45.7247 383.621 70.4762 6.33679e-10 1.02168e+06 383.003 6.32659e-10 1.90073e-09 340613 6.05386e+11
48.3204 400.765 83.1727 5.60943e-10 1.20544e+06 400.049 5.59941e-10 1.62163e-09 416976 7.14448e+11
51.0634 420.161 98.1565 4.98318e-10 1.42103e+06 419.423 4.97443e-10 1.38326e-09 511926 8.43158e+11
53.9621 440.829 115.84 4.4302e-10 1.67997e+06 440.074 4.42261e-10 1.1797e-09 630886 9.95055e+11
57.0254 463.538 136.709 3.9473e-10 1.98018e+06 462.693 3.9401e-10 1.00592e-09 777036 1.17432e+12
60.2626 487.939 161.337 3.52081e-10 2.33957e+06 487.088 3.51467e-10 8.57591e-10 960501 1.38587e+12
63.6835 510.813 190.402 3.1232e-10 2.75676e+06 509.913 3.1177e-10 7.3101e-10 1.17781e+06 1.63554e+12
67.2987 536.294 224.704 2.77845e-10 3.25638e+06 535.369 2.77366e-10 6.23009e-10 1.45226e+06 1.93019e+12
71.1191 565.376 265.185 2.48199e-10 3.84387e+06 564.38 2.47761e-10 5.30879e-10 1.7971e+06 2.27792e+12
75.1563 593.331 312.958 2.20709e-10 4.53277e+06 592.308 2.20329e-10 4.52303e-10 2.21184e+06 2.68829e+12
79.4227 625.69 369.339 1.97217e-10 5.35083e+06 624.612 1.96877e-10 3.85299e-10 2.73884e+06 3.17259e+12
83.9313 660.107 435.876 1.76304e-10 6.32174e+06 658.88 1.75976e-10 3.28173e-10 3.39622e+06 3.74415e+12
88.6959 697.232 514.4 1.57793e-10 7.44986e+06 695.88 1.57486e-10 2.79476e-10 4.2062e+06 4.41866e+12
93.7309 737.88 607.071 1.415e-10 8.79764e+06 736.531 1.41241e-10 2.37972e-10 5.23114e+06 5.2147e+12
99.0518 783.664 716.436 1.27339e-10 1.03827e+07 782.192 1.271e-10 2.02605e-10 6.52563e+06 6.15414e+12
104.675 834.817 845.504 1.14944e-10 1.22515e+07 833.17 1.14717e-10 1.72471e-10 8.16507e+06 7.26283e+12
110.617 894.516 997.824 1.04362e-10 1.44573e+07 892.676 1.04148e-10 1.468e-10 1.02779e+07 8.57124e+12
116.896 963.734 1177.58 9.52742e-11 1.70664e+07 961.681 9.50712e-11 1.24935e-10 1.30147e+07 1.01154e+13
123.532 1043.12 1389.73 8.73808e-11 2.0139e+07 1040.83 8.71885e-11 1.06313e-10 1.65526e+07 1.19377e+13
130.545 1135.84 1640.09 8.06228e-11 2.37643e+07 1133.24 8.04382e-11 9.04567e-11 2.11808e+07 1.40883e+13
137.955 1245.27 1935.56 7.48974e-11 2.80503e+07 1242.3 7.47189e-11 7.69563e-11 2.72998e+07 1.66263e+13
145.787 1374.21 2284.26 7.00357e-11 3.30981e+07 1370.83 6.98633e-11 6.54636e-11 3.54098e+07 1.96216e+13
154.063 1526.55 2695.77 6.59232e-11 3.90634e+07 1522.62 6.57536e-11 5.56812e-11 4.62488e+07 2.31565e+13
162.808 1709.04 3181.42 6.25376e-11 4.61057e+07 1704.52 6.23721e-11 4.73556e-11 6.0887e+07 2.73282e+13
172.051 1926.48 3754.56 5.97331e-11 5.44046e+07 1921.15 5.95678e-11 4.02708e-11 8.06976e+07 3.22515e+13
181.818 2184.32 4430.96 5.73889e-11 6.42064e+07 2178.09 5.72253e-11 3.42426e-11 1.07607e+08 3.80616e+13
192.139 2493.28 5229.21 5.55068e-11 7.57748e+07 2486.02 5.53451e-11 2.91139e-11 1.44468e+08 4.49186e+13
203.046 2862.36 6171.26 5.39958e-11 8.94213e+07 2853.77 5.38338e-11 2.4751e-11 1.95078e+08 5.30108e+13
214.572 3305.53 7283.03 5.28371e-11 1.05538e+08 3295.38 5.26749e-11 2.10401e-11 2.65034e+08 6.25608e+13
226.753 3838.12 8595.09 5.19851e-11 1.24552e+08 3826.06 5.18217e-11 1.78839e-11 3.62048e+08 7.38313e+13
239.625 4478.57 10143.5 5.13997e-11 1.46987e+08 4464.14 5.12342e-11 1.51999e-11 4.97049e+08 8.71322e+13
253.228 5252.1 11970.9 5.1076e-11 1.7347e+08 5234.82 5.09078e-11 1.29176e-11 6.85896e+08 1.02829e+14
267.603 6187.14 14127.5 5.09841e-11 2.04703e+08 6166.38 5.0813e-11 1.09771e-11 9.50757e+08 1.21354e+14
282.795 7330.49 16672.6 5.11846e-11 2.4161e+08 7305.33 5.1009e-11 9.3274e-12 1.32585e+09 1.43217e+14
298.848 8735.18 19676.2 5.16821e-11 2.85122e+08 8704.46 5.15004e-11 7.925e-12 1.8594e+09 1.69017e+14
315.813 10482.2 23220.9 5.25513e-11 3.36491e+08 10444.1 5.23603e-11 6.73295e-12 2.62634e+09 1.99466e+14
333.741 12694.9 27404.3 5.39289e-11 3.97115e+08 12647 5.37254e-11 5.71979e-12 3.74419e+09 2.35401e+14
352.686 15555.7 32341.2 5.59944e-11 4.68637e+08 15494.2 5.57728e-11 4.85874e-12 5.40079e+09 2.77809e+14
372.707 19369.4 38167.6 5.90787e-11 5.53074e+08 19288 5.88305e-11 4.12703e-12 7.91729e+09 3.27857e+14
393.865 24644.4 45043.5 6.36937e-11 6.52716e+08 24532.6 6.34046e-11 3.50528e-12 1.18604e+10 3.86921e+14
416.224 29090.5 53158.3 6.37074e-11 2.2184e+08 30775 6.73965e-11 2.97701e-12 4.74733e+09 4.56626e+14
439.852 0 62734.9 0 0 0 0 2.52819e-12 0 5.38888e+14
464.821 0 74036.7 0 0 0 0 2.1469e-12 0 6.35971e+14
491.207 0 87374.6 0 0 0 0 1.82301e-12 0 7.50542e+14
519.092 0 103115 0 0 0 0 1.54789e-12 0 8.85755e+14
548.56 0 121692 0 0 0 0 1.31422e-12 0 1.04533e+15
579.7 0 143615 0 0 0 0 1.11576e-12 0 1.23364e+15
612.608 0 169488 0 0 0 0 9.47223e-13 0 1.45589e+15
647.384 0 200021 0 0 0 0 8.041e-13 0 1.71817e+15
684.134 0 236056 0 0 0 0 6.82568e-13 0 2.0277e+15
722.971 0 278582 0 0 0 0 5.79376e-13 0 2.393e+15
764.012 0 328769 0 0 0 0 4.91762e-13 0 2.8241e+15
1
200
8.92029e+08
8589934592
0.0129181 0.00246075 1.58924e-09 0.000180256 6 0.00243822 0.000178605 0.00677225 0.159701 13.6515
0.0136515 0 1.87554e-09 0 0 0 0 0.00688819 0 16.1108
0.0144264 0 2.21343e-09 0 0 0 0 0.00699249 0 19.0132
0.0152454 0 2.61218e-09 0 0 0 0 0.00708412 0 22.4385
0.0161108 0 3.08278e-09 0 0 0 0 0.00716212 0 26.4808
0.0170254 0 3.63815e-09 0 0 0 0 0.00722559 0 31.2514
0.0179919 0.00532887 4.29357e-09 0.000144486 12 0.005322 0.0001443 0.00727371 0.23837 36.8815
0.0190132 0 5.06707e-09 0 0 0 0 0.00730578 0 43.5258
0.0200925 0 5.97991e-09 0 0 0 0 0.00732122 0 51.367
0.0212331 0.0049369 7.05721e-09 8.14389e-05 8 0.00493261 8.1368e-05 0.00731958 0.0890094 60.621
0.0224385 0 8.32858e-09 0 0 0 0 0.00730056 0 71.542
0.0237123 0 9.829e-09 0 0 0 0 0.00726401 0 84.4305
0.0250583 0.0304234 1.15997e-08 0.000305331 6 0.0304091 0.000305187 0.00720995 0.254091 99.6408
0.0264808 0 1.36894e-08 0 0 0 0 0.00713857 0 117.591
0.0279841 0.0184122 1.61556e-08 0.000132676 24 0.0183933 0.00013254 0.00705021 0.451649 138.776
0.0295727 0 1.90661e-08 0 0 0 0 0.00694538 0 163.777
0.0312514 0.0323387 2.25009e-08 0.000167314 24 0.0325029 0.000168163 0.00682475 0.588378 193.281
0.0330255 0 2.65545e-08 0 0 0 0 0.00668915 0 228.102
0.0349003 0.0495592 3.13384e-08 0.000184102 12 0.0491624 0.000182628 0.00653951 0.337826 269.195
0.0368815 0.039052 3.69841e-08 0.000122925 30 0.0386362 0.000121616 0.00637693 0.578294 317.691
0.0389751 0.0436748 4.36469e-08 0.00011649 24 0.0432255 0.000115291 0.00620256 0.450742 374.924
0.0411876 0.0282613 5.151e-08 6.38721e-05 24 0.0280694 6.34383e-05 0.00601767 0.254738 442.467
0.0435258 0.0722667 6.07896e-08 0.000138395 8 0.0722612 0.000138384 0.00582358 0.190116 522.179
0.0459966 0.088273 7.1741e-08 0.000143242 72 0.0875756 0.00014211 0.00562166 1.83459 616.251
0.0486077 0 8.46654e-08 0 0 0 0 0.0054133 0 727.27
0.051367 0.120521 9.99181e-08 0.00014042 54 0.120117 0.000139949 0.00519989 1.45824 858.29
0.054283 0.0980332 1.17919e-07 9.67835e-05 60 0.0984862 9.72306e-05 0.0049828 1.16541 1012.91
0.0573645 0.0911779 1.39162e-07 7.62745e-05 96 0.0909454 7.608e-05 0.00476339 1.53722 1195.39
0.060621 0.108366 1.64232e-07 7.68148e-05 24 0.106898 7.57741e-05 0.00454293 0.405808 1410.75
0.0640622 0.182665 1.93819e-07 0.000109716 134 0.182743 0.000109763 0.00432265 3.40113 1664.89
0.0676989 0.1768 2.28736e-07 8.99826e-05 120 0.175926 8.95377e-05 0.00410371 2.63125 1964.83
0.071542 0.16468 2.69944e-07 7.10194e-05 108 0.162857 7.02331e-05 0.00388717 1.97318 2318.8
0.0756032 0.240557 3.18575e-07 8.79055e-05 174 0.239227 8.74197e-05 0.00367401 4.16318 2736.54
0.079895 0.245551 3.75967e-07 7.6033e-05 168 0.243251 7.53207e-05 0.0034651 3.68635 3229.53
0.0844305 0.202039 4.43698e-07 5.30099e-05 168 0.203035 5.32712e-05 0.00326121 2.73079 3811.34
0.0892234 0.247147 5.23632e-07 5.49464e-05 290 0.245938 5.46777e-05 0.00306301 5.20221 4497.96
0.0942883 0.294883 6.17966e-07 5.55515e-05 288 0.294264 5.54349e-05 0.00287109 5.57239 5308.28
0.0996408 0.272268 7.29294e-07 4.34614e-05 366 0.270193 4.31301e-05 0.00268591 5.92235 6264.59
0.105297 0.330625 8.60678e-07 4.47204e-05 420 0.328202 4.43926e-05 0.00250785 7.48949 7393.17
0.111275 0.35695 1.01573e-06 4.09108e-05 398 0.356006 4.08027e-05 0.00233721 6.96663 8725.07
0.117591 0.421706 1.19872e-06 4.09546e-05 624 0.42298 4.10783e-05 0.00217419 11.7541 10296.9
0.124267 0.483721 1.41467e-06 3.98061e-05 642 0.482638 3.9717e-05 0.00201893 12.658 12151.9
0.131321 0.544899 1.66953e-06 3.79955e-05 800 0.545093 3.80091e-05 0.00187147 16.242 14341.1
0.138776 0.503281 1.9703e-06 2.97365e-05 858 0.505363 2.98594e-05 0.00173182 14.7324 16924.7
0.146654 0.591313 2.32525e-06 2.96045e-05 1080 0.596178 2.98481e-05 0.00159991 19.9842 19973.8
0.154979 0.692842 2.74415e-06 2.93925e-05 1286 0.697071 2.95719e-05 0.00147563 25.6153 23572.1
0.163777 0.698477 3.23852e-06 2.51082e-05 1650 0.700445 2.5179e-05 0.00135884 30.4882 27818.7
0.173074 0.779112 3.82195e-06 2.37315e-05 1778 0.779799 2.37525e-05 0.00124933 33.7738 32830.3
0.182899 0.849981 4.51048e-06 2.1938e-05 2112 0.851942 2.19886e-05 0.00114689 40.3988 38744.7
0.193281 0.922146 5.32305e-06 2.01673e-05 2570 0.922763 2.01808e-05 0.00105127 49.3022 45724.7
0.204254 1.07106 6.28202e-06 1.98484e-05 3030 1.0703 1.98342e-05 0.000962209 62.5027 53962.1
0.215848 1.12799 7.41374e-06 1.77124e-05 3434 1.12747 1.77042e-05 0.000879423 69.164 63683.5
0.228102 1.21069 8.74934e-06 1.6109e-05 4218 1.20977 1.60968e-05 0.000802624 84.6571 75156.3
0.24105 1.3501 1.03256e-05 1.52217e-05 4766 1.35093 1.5231e-05 0.000731515 99.1729 88695.9
0.254734 1.46227 1.21857e-05 1.39697e-05 6026 1.46226 1.39696e-05 0.000665798 126.437 104675
0.269195 1.6773 1.4381e-05 1.35778e-05 6480 1.67578 1.35655e-05 0.000605173 145.387 123532
0.284476 1.81382 1.69718e-05 1.24416e-05 8162 1.81672 1.24615e-05 0.000549345 184.853 145787
0.300625 2.01343 2.00293e-05 1.17025e-05 9578 2.01371 1.17042e-05 0.000498021 225.064 172051
0.317691 2.24367 2.36377e-05 1.10501e-05 11234 2.24225 1.10431e-05 0.000450916 275.298 203046
0.335725 2.41147 2.78961e-05 1.00635e-05 13344 2.40734 1.00463e-05 0.000407755 329.333 239625
0.354784 2.73314 3.29216e-05 9.66477e-06 15464 2.73145 9.65879e-06 0.000368269 405.834 282795
0.374924 2.97855 3.88525e-05 8.92475e-06 18458 2.97531 8.91505e-06 0.000332202 495.883 333741
0.396207 3.4558 4.58519e-05 8.77407e-06 22232 3.44963 8.7584e-06 0.000299307 651.723 393865
0.418699 3.72557 5.41123e-05 8.01506e-06 25628 3.7163 7.99513e-06 0.00026935 762.614 464821
0.442467 4.11445 6.38607e-05 7.50046e-06 30320 4.10709 7.48705e-06 0.000242108 939.308 548560
0.467585 4.63503 7.53654e-05 7.15962e-06 35452 4.62627 7.14609e-06 0.00021737 1167.7 647384
0.494129 5.16562 8.89427e-05 6.76118e-06 41792 5.16006 6.7539e-06 0.000194938 1449.5 764012
0.522179 5.82507 0.000104966 6.46045e-06 49988 5.82422 6.45951e-06 0.000174625 1849.37 901651
0.551822 6.53952 0.000123876 6.14567e-06 59110 6.53096 6.13763e-06 0.000156255 2324.86 1.06409e+06
0.583147 7.32854 0.000146192 5.83583e-06 69716 7.31694 5.8266e-06 0.000139664 2913.07 1.25578e+06
0.616251 8.2381 0.000172529 5.55871e-06 82210 8.2212 5.54731e-06 0.0001247 3664.65 1.48202e+06
0.651234 9.06287 0.000203611 5.18173e-06 96722 9.04308 5.17041e-06 0.00011122 4506.25 1.74901e+06
0.688203 10.2977 0.000240292 4.98895e-06 113098 10.2799 4.98036e-06 9.90935e-05 5694.02 2.06409e+06
0.72727 11.6231 0.000283581 4.7715e-06 135190 11.6048 4.76399e-06 8.81969e-05 7313.85 2.43595e+06
0.768555 12.9411 0.000334669 4.50159e-06 158170 12.9184 4.4937e-06 7.84179e-05 9079.78 2.87479e+06
0.812184 14.6112 0.000394961 4.30666e-06 188560 14.5879 4.2998e-06 6.96525e-05 11658.8 3.39269e+06
0.85829 16.362 0.000466114 4.08652e-06 220444 16.3345 4.07966e-06 6.1805e-05 14575.7 4.00389e+06
0.907013 18.278 0.000550086 3.8682e-06 261388 18.2486 3.86197e-06 5.47875e-05 18455 4.7252e+06
0.958501 20.4947 0.000649185 3.67522e-06 308244 20.4617 3.6693e-06 4.85194e-05 23348.7 5.57646e+06
1.01291 22.9855 0.000766138 3.49267e-06 364396 22.9459 3.48665e-06 4.29272e-05 29648.2 6.58107e+06
1.07041 25.6132 0.00090416 3.29784e-06 429162 25.5645 3.29157e-06 3.79435e-05 37300.4 7.76667e+06
1.13118 28.6383 0.00106705 3.12445e-06 506358 28.5866 3.11881e-06 3.3507e-05 47216.7 9.16586e+06
1.19539 31.9991 0.00125928 2.95819e-06 598590 31.9399 2.95272e-06 2.9562e-05 59899.3 1.08171e+07
1.26325 35.6529 0.00148614 2.79283e-06 704844 35.5902 2.78792e-06 2.60578e-05 75544 1.27658e+07
1.33496 39.6239 0.00175387 2.63009e-06 834620 39.5467 2.62496e-06 2.29484e-05 95654.5 1.50656e+07
1.41075 44.0151 0.00206984 2.47557e-06 981444 43.9312 2.47086e-06 2.01923e-05 120325 1.77798e+07
1.49083 48.6664 0.00244272 2.31934e-06 1.15998e+06 48.5809 2.31527e-06 1.77518e-05 151556 2.09828e+07
1.57546 53.797 0.00288279 2.17248e-06 1.36931e+06 53.7001 2.16857e-06 1.55929e-05 190780 2.4763e+07
1.66489 59.2622 0.00340213 2.02786e-06 1.61652e+06 59.153 2.02412e-06 1.3685e-05 239537 2.92241e+07
1.75941 65.108 0.00401503 1.8878e-06 1.90601e+06 64.9891 1.88435e-06 1.20007e-05 299829 3.44889e+07
1.85928 71.4221 0.00473835 1.75475e-06 2.24913e+06 71.29 1.7515e-06 1.05151e-05 375332 4.07021e+07
1.96483 78.0962 0.00559198 1.62583e-06 2.65744e+06 77.953 1.62285e-06 9.20606e-06 469315 4.80347e+07
2.07637 85.1074 0.00659939 1.50132e-06 3.13125e+06 84.9583 1.49869e-06 8.05366e-06 583712 5.66883e+07
2.19424 92.9775 0.00778828 1.38978e-06 3.69915e+06 92.8091 1.38726e-06 7.04008e-06 730248 6.69008e+07
2.3188 101.107 0.00919136 1.2806e-06 4.36472e+06 100.933 1.27839e-06 6.1494e-06 908943 7.89532e+07
2.45043 109.45 0.0108472 1.17465e-06 5.14913e+06 109.26 1.1726e-06 5.36741e-06 1.12688e+06 9.31768e+07
2.58954 118.798 0.0128014 1.08035e-06 6.07894e+06 118.597 1.07851e-06 4.68145e-06 1.40285e+06 1.09963e+08
2.73654 128.465 0.0151076 9.89921e-07 7.17304e+06 128.243 9.88207e-07 4.08023e-06 1.74028e+06 1.29773e+08
2.89188 138.77 0.0178292 9.06096e-07 8.46557e+06 138.53 9.04529e-07 3.55373e-06 2.15847e+06 1.53152e+08
3.05605 149.714 0.0210412 8.28325e-07 9.98773e+06 149.463 8.26937e-07 3.09304e-06 2.67474e+06 1.80743e+08
3.22953 161.313 0.0248319 7.56257e-07 1.1797e+07 161.041 7.54986e-07 2.69025e-06 3.31626e+06 2.13304e+08
3.41286 173.385 0.0293054 6.8877e-07 1.39144e+07 173.089 6.87594e-07 2.33837e-06 4.09849e+06 2.51731e+08
3.6066 186.279 0.0345848 6.2703e-07 1.64163e+07 185.966 6.25977e-07 2.0312e-06 5.06769e+06 2.97081e+08
3.81134 199.791 0.0408154 5.69853e-07 1.93821e+07 199.462 5.68913e-07 1.76327e-06 6.26393e+06 3.50601e+08
4.0277 214.089 0.0481684 5.17419e-07 2.28754e+07 213.733 5.16559e-07 1.52972e-06 7.73747e+06 4.13763e+08
4.25634 229.019 0.056846 4.69009e-07 2.69929e+07 228.634 4.6822e-07 1.32631e-06 9.54523e+06 4.88304e+08
4.49796 244.775 0.067087 4.24755e-07 3.18542e+07 244.366 4.24045e-07 1.14926e-06 1.1773e+07 5.76273e+08
4.7533 261.837 0.0791729 3.85004e-07 3.75892e+07 261.395 3.84354e-07 9.95263e-07 1.45409e+07 6.8009e+08
5.02313 279.33 0.0934361 3.48027e-07 4.43706e+07 278.865 3.47448e-07 8.61414e-07 1.79265e+07 8.0261e+08
5.30828 297.747 0.110269 3.14344e-07 5.23593e+07 297.25 3.13818e-07 7.45152e-07 2.20879e+07 9.47202e+08
5.60962 317.22 0.130134 2.83779e-07 6.1787e+07 316.69 2.83304e-07 6.44232e-07 2.72167e+07 1.11784e+09
5.92807 338.028 0.153578 2.56232e-07 7.29346e+07 337.464 2.55805e-07 5.56685e-07 3.35705e+07 1.31923e+09
6.26459 359.609 0.181246 2.3098e-07 8.60651e+07 359.003 2.3059e-07 4.80786e-07 4.13474e+07 1.55689e+09
6.62021 381.865 0.213898 2.07833e-07 1.01558e+08 381.228 2.07486e-07 4.15026e-07 5.08574e+07 1.83737e+09
6.99602 405.414 0.252432 1.86967e-07 1.1986e+08 404.74 1.86656e-07 3.58083e-07 6.25829e+07 2.16837e+09
7.39317 430.166 0.297908 1.68098e-07 1.41457e+08 429.449 1.67818e-07 3.08803e-07 7.70026e+07 2.55901e+09
7.81286 455.869 0.351577 1.50949e-07 1.66936e+08 455.114 1.50699e-07 2.66181e-07 9.46677e+07 3.02002e+09
8.25637 483.002 0.414914 1.35519e-07 1.97025e+08 482.197 1.35293e-07 2.29336e-07 1.16426e+08 3.56409e+09
8.72507 511.951 0.489662 1.21714e-07 2.32497e+08 511.098 1.21512e-07 1.97503e-07 1.4328e+08 4.20617e+09
9.22037 542.505 0.577876 1.0929e-07 2.74404e+08 541.587 1.09105e-07 1.70014e-07 1.76394e+08 4.96392e+09
9.74378 575.699 0.681982 9.82726e-08 3.2382e+08 574.705 9.81029e-08 1.46289e-07 2.17533e+08 5.85818e+09
10.2969 613.413 0.804843 8.87262e-08 3.82165e+08 612.316 8.85675e-08 1.25822e-07 2.69491e+08 6.91355e+09
10.8814 657.911 0.949838 8.06358e-08 4.51027e+08 656.654 8.04817e-08 1.08175e-07 3.36203e+08 8.15905e+09
11.4992 714.977 1.12095 7.42531e-08 5.32251e+08 713.452 7.40947e-08 9.29669e-08 4.25112e+08 9.62892e+09
12.1519 795.081 1.3229 6.99674e-08 6.28157e+08 793.077 6.9791e-08 7.98658e-08 5.50305e+08 1.13636e+10
12.8418 884.703 1.56122 6.59696e-08 3.82727e+08 915.698 6.82807e-08 6.85852e-08 3.68131e+08 1.34108e+10
13.5708 0 1.84248 0 0 0 0 5.88765e-08 0 1.58268e+10
14.3411 0 2.17441 0 0 0 0 5.05241e-08 0 1.8678e+10
15.1552 0 2.56613 0 0 0 0 4.33417e-08 0 2.20429e+10
16.0156 0 3.02843 0 0 0 0 3.71677e-08 0 2.6014e+10
16.9247 0 3.574 0 0 0 0 3.18628e-08 0 3.07005e+10
17.8855 0 4.21787 0 0 0 0 2.73063e-08 0 3.62312e+10
18.9008 0 4.97773 0 0 0 0 2.33941e-08 0 4.27584e+10
19.9738 0 5.87448 0 0 0 0 2.00364e-08 0 5.04614e+10
21.1076 0 6.93279 0 0 0 0 1.71555e-08 0 5.95522e+10
22.3058 0 8.18175 0 0 0 0 1.46847e-08 0 7.02807e+10
23.5721 0 9.65571 0 0 0 0 1.25662e-08 0 8.29419e+10
24.9102 0 11.3952 0 0 0 0 1.07504e-08 0 9.78842e+10
26.3243 0 13.4481 0 0 0 0 9.19452e-09 0 1.15518e+11
27.8187 0 15.8708 0 0 0 0 7.86182e-09 0 1.36329e+11
29.3979 0 18.73 0 0 0 0 6.72061e-09 0 1.60889e+11
31.0667 0 22.1042 0 0 0 0 5.74366e-09 0 1.89874e+11
32.8303 0 26.0864 0 0 0 0 4.90756e-09 0 2.2408e+11
34.694 0 30.7859 0 0 0 0 4.19221e-09 0 2.64449e+11
36.6634 0 36.3321 0 0 0 0 3.58032e-09 0 3.1209e+11
38.7447 0 42.8774 0 0 0 0 3.05709e-09 0 3.68314e+11
40.9442 0 50.6018 0 0 0 0 2.60976e-09 0 4.34667e+11
43.2685 0 59.7179 0 0 0 0 2.22743e-09 0 5.12973e+11
45.7247 0 70.4762 0 0 0 0 1.90073e-09 0 6.05386e+11
48.3204 0 83.1727 0 0 0 0 1.62163e-09 0 7.14448e+11
51.0634 0 98.1565 0 0 0 0 1.38326e-09 0 8.43158e+11
53.9621 0 115.84 0 0 0 0 1.1797e-09 0 9.95055e+11
57.0254 0 136.709 0 0 0 0 1.00592e-09 0 1.17432e+12
60.2626 0 161.337 0 0 0 0 8.57591e-10 0 1.38587e+12
63.6835 0 190.402 0 0 0 0 7.3101e-10 0 1.63554e+12
67.2987 0 224.704 0 0 0 0 6.23009e-10 0 1.93019e+12
71.1191 0 265.185 0 0 0 0 5.30879e-10 0 2.27792e+12
75.1563 0 312.958 0 0 0 0 4.52303e-10 0 2.68829e+12
79.4227 0 369.339 0 0 0 0 3.85299e-10 0 3.17259e+12
83.9313 0 435.876 0 0 0 0 3.28173e-10 0 3.74415e+12
88.6959 0 514.4 0 0 0 0 2.79476e-10 0 4.41866e+12
93.7309 0 607.071 0 0 0 0 2.37972e-10 0 5.2147e+12
99.0518 0 716.436 0 0 0 0 2.02605e-10 0 6.15414e+12
104.675 0 845.504 0 0 0 0 1.72471e-10 0 7.26283e+12
110.617 0 997.824 0 0 0 0 1.468e-10 0 8.57124e+12
116.896 0 1177.58 0 0 0 0 1.24935e-10 0 1.01154e+13
123.532 0 1389.73 0 0 0 0 1.06313e-10 0 1.19377e+13
130.545 0 1640.09 0 0 0 0 9.04567e-11 0 1.40883e+13
137.955 0 1935.56 0 0 0 0 7.69563e-11 0 1.66263e+13
145.787 0 2284.26 0 0 0 0 6.54636e-11 0 1.96216e+13
154.063 0 2695.77 0 0 0 0 5.56812e-11 0 2.31565e+13
162.808 0 3181.42 0 0 0 0 4.73556e-11 0 2.73282e+13
172.051 0 3754.56 0 0 0 0 4.02708e-11 0 3.22515e+13
181.818 0 4430.96 0 0 0 0 3.42426e-11 0 3.80616e+13
192.139 0 5229.21 0 0 0 0 2.91139e-11 0 4.49186e+13
203.046 0 6171.26 0 0 0 0 2.4751e-11 0 5.30108e+13
214.572 0 7283.03 0 0 0 0 2.10401e-11 0 6.25608e+13
226.753 0 8595.09 0 0 0 0 1.78839e-11 0 7.38313e+13
239.625 0 10143.5 0 0 0 0 1.51999e-11 0 8.71322e+13
253.228 0 11970.9 0 0 0 0 1.29176e-11 0 1.02829e+14
267.603 0 14127.5 0 0 0 0 1.09771e-11 0 1.21354e+14
282.795 0 16672.6 0 0 0 0 9.3274e-12 0 1.43217e+14
298.848 0 19676.2 0 0 0 0 7.925e-12 0 1.69017e+14
315.813 0 23220.9 0 0 0 0 6.73295e-12 0 1.99466e+14
333.741 0 27404.3 0 0 0 0 5.71979e-12 0 2.35401e+14
352.686 0 32341.2 0 0 0 0 4.85874e-12 0 2.77809e+14
372.707 0 38167.6 0 0 0 0 4.12703e-12 0 3.27857e+14
393.865 0 45043.5 0 0 0 0 3.50528e-12 0 3.86921e+14
416.224 0 53158.3 0 0 0 0 2.97701e-12 0 4.56626e+14
439.852 0 62734.9 0 0 0 0 2.52819e-12 0 5.38888e+14
464.821 0 74036.7 0 0 0 0 2.1469e-12 0 6.35971e+14
491.207 0 87374.6 0 0 0 0 1.82301e-12 0 7.50542e+14
519.092 0 103115 0 0 0 0 1.54789e-12 0 8.85755e+14
548.56 0 121692 0 0 0 0 1.31422e-12 0 1.04533e+15
579.7 0 143615 0 0 0 0 1.11576e-12 0 1.23364e+15
612.608 0 169488 0 0 0 0 9.47223e-13 0 1.45589e+15
647.384 0 200021 0 0 0 0 8.041e-13 0 1.71817e+15
684.134 0 236056 0 0 0 0 6.82568e-13 0 2.0277e+15
722.971 0 278582 0 0 0 0 5.79376e-13 0 2.393e+15
764.012 0 328769 0 0 0 0 4.91762e-13 0 2.8241e+15
