0.159811
200
8.92029e+08
8589934592
0.0129181 0 1.58924e-09 0 0 0 0 0.00677225 0 13.6515
0.0136515 0 1.87554e-09 0 0 0 0 0.00688819 0 16.1108
0.0144264 0 2.21343e-09 0 0 0 0 0.00699249 0 19.0132
0.0152454 0 2.61218e-09 0 0 0 0 0.00708412 0 22.4385
0.0161108 0 3.08278e-09 0 0 0 0 0.00716212 0 26.4808
0.0170254 0 3.63815e-09 0 0 0 0 0.00722559 0 31.2514
0.0179919 0 4.29357e-09 0 0 0 0 0.00727371 0 36.8815
0.0190132 0 5.06707e-09 0 0 0 0 0.00730578 0 43.5258
0.0200925 0 5.97991e-09 0 0 0 0 0.00732122 0 51.367
0.0212331 0 7.05721e-09 0 0 0 0 0.00731958 0 60.621
0.0224385 0 8.32858e-09 0 0 0 0 0.00730056 0 71.542
0.0237123 0 9.829e-09 0 0 0 0 0.00726401 0 84.4305
0.0250583 0 1.15997e-08 0 0 0 0 0.00720995 0 99.6408
0.0264808 0 1.36894e-08 0 0 0 0 0.00713857 0 117.591
0.0279841 0 1.61556e-08 0 0 0 0 0.00705021 0 138.776
0.0295727 0 1.90661e-08 0 0 0 0 0.00694538 0 163.777
0.0312514 0 2.25009e-08 0 0 0 0 0.00682475 0 193.281
0.0330255 0 2.65545e-08 0 0 0 0 0.00668915 0 228.102
0.0349003 0 3.13384e-08 0 0 0 0 0.00653951 0 269.195
0.0368815 0 3.69841e-08 0 0 0 0 0.00637693 0 317.691
0.0389751 0 4.36469e-08 0 0 0 0 0.00620256 0 374.924
0.0411876 0 5.151e-08 0 0 0 0 0.00601767 0 442.467
0.0435258 0 6.07896e-08 0 0 0 0 0.00582358 0 522.179
0.0459966 0 7.1741e-08 0 0 0 0 0.00562166 0 616.251
0.0486077 0 8.46654e-08 0 0 0 0 0.0054133 0 727.27
0.051367 0 9.99181e-08 0 0 0 0 0.00519989 0 858.29
0.054283 0 1.17919e-07 0 0 0 0 0.0049828 0 1012.91
0.0573645 0 1.39162e-07 0 0 0 0 0.00476339 0 1195.39
0.060621 0 1.64232e-07 0 0 0 0 0.00454293 0 1410.75
0.0640622 0 1.93819e-07 0 0 0 0 0.00432265 0 1664.89
0.0676989 0 2.28736e-07 0 0 0 0 0.00410371 0 1964.83
0.071542 0 2.69944e-07 0 0 0 0 0.00388717 0 2318.8
0.0756032 0 3.18575e-07 0 0 0 0 0.00367401 0 2736.54
0.079895 0 3.75967e-07 0 0 0 0 0.0034651 0 3229.53
0.0844305 0 4.43698e-07 0 0 0 0 0.00326121 0 3811.34
0.0892234 0 5.23632e-07 0 0 0 0 0.00306301 0 4497.96
0.0942883 0 6.17966e-07 0 0 0 0 0.00287109 0 5308.28
0.0996408 0 7.29294e-07 0 0 0 0 0.00268591 0 6264.59
0.105297 0 8.60678e-07 0 0 0 0 0.00250785 0 7393.17
0.111275 0 1.01573e-06 0 0 0 0 0.00233721 0 8725.07
0.117591 0 1.19872e-06 0 0 0 0 0.00217419 0 10296.9
0.124267 0 1.41467e-06 0 0 0 0 0.00201893 0 12151.9
0.131321 0 1.66953e-06 0 0 0 0 0.00187147 0 14341.1
0.138776 0 1.9703e-06 0 0 0 0 0.00173182 0 16924.7
0.146654 0 2.32525e-06 0 0 0 0 0.00159991 0 19973.8
0.154979 0 2.74415e-06 0 0 0 0 0.00147563 0 23572.1
0.163777 0 3.23852e-06 0 0 0 0 0.00135884 0 27818.7
0.173074 0 3.82195e-06 0 0 0 0 0.00124933 0 32830.3
0.182899 0 4.51048e-06 0 0 0 0 0.00114689 0 38744.7
0.193281 0 5.32305e-06 0 0 0 0 0.00105127 0 45724.7
0.204254 0 6.28202e-06 0 0 0 0 0.000962209 0 53962.1
0.215848 0 7.41374e-06 0 0 0 0 0.000879423 0 63683.5
0.228102 0 8.74934e-06 0 0 0 0 0.000802624 0 75156.3
0.24105 0 1.03256e-05 0 0 0 0 0.000731515 0 88695.9
0.254734 0 1.21857e-05 0 0 0 0 0.000665798 0 104675
0.269195 0 1.4381e-05 0 0 0 0 0.000605173 0 123532
0.284476 0 1.69718e-05 0 0 0 0 0.000549345 0 145787
0.300625 0 2.00293e-05 0 0 0 0 0.000498021 0 172051
0.317691 0 2.36377e-05 0 0 0 0 0.000450916 0 203046
0.335725 0 2.78961e-05 0 0 0 0 0.000407755 0 239625
0.354784 0 3.29216e-05 0 0 0 0 0.000368269 0 282795
0.374924 0 3.88525e-05 0 0 0 0 0.000332202 0 333741
0.396207 0.556219 4.58519e-05 1.41221e-06 6 0.540755 1.37295e-06 0.000299307 0.0283095 393865
0.418699 0 5.41123e-05 0 0 0 0 0.00026935 0 464821
0.442467 0 6.38607e-05 0 0 0 0 0.000242108 0 548560
0.467585 0 7.53654e-05 0 0 0 0 0.00021737 0 647384
0.494129 0 8.89427e-05 0 0 0 0 0.000194938 0 764012
0.522179 0 0.000104966 0 0 0 0 0.000174625 0 901651
0.551822 0 0.000123876 0 0 0 0 0.000156255 0 1.06409e+06
0.583147 5.34541 0.000146192 4.25664e-06 12 5.62608 4.48013e-06 0.000139664 0.365732 1.25578e+06
0.616251 0 0.000172529 0 0 0 0 0.0001247 0 1.48202e+06
0.651234 0 0.000203611 0 0 0 0 0.00011122 0 1.74901e+06
0.688203 20.5709 0.000240292 9.96609e-06 8 20.0592 9.71815e-06 9.90935e-05 0.804581 2.06409e+06
0.72727 0 0.000283581 0 0 0 0 8.81969e-05 0 2.43595e+06
0.768555 0 0.000334669 0 0 0 0 7.84179e-05 0 2.87479e+06
0.812184 0.286943 0.000394961 8.45768e-08 6 0.293077 8.6385e-08 6.96525e-05 0.0072856 3.39269e+06
0.85829 0 0.000466114 0 0 0 0 6.1805e-05 0 4.00389e+06
0.907013 0.276986 0.000550086 5.86188e-08 24 0.2823 5.97435e-08 5.47875e-05 0.0256783 4.7252e+06
0.958501 1.41014 0.000649185 2.52873e-07 24 1.32754 2.38061e-07 4.85194e-05 0.125083 5.57646e+06
1.01291 0 0.000766138 0 0 0 0 4.29272e-05 0 6.58107e+06
1.07041 0 0.00090416 0 0 0 0 3.79435e-05 0 7.76667e+06
1.13118 0.960693 0.00106705 1.04812e-07 12 0.948892 1.03525e-07 3.3507e-05 0.0375368 9.16586e+06
1.19539 1.11923 0.00125928 1.03468e-07 30 1.09615 1.01335e-07 2.9562e-05 0.105001 1.08171e+07
1.26325 5.94785 0.00148614 4.65919e-07 24 5.85835 4.58908e-07 2.60578e-05 0.429125 1.27658e+07
1.33496 17.7691 0.00175387 1.17945e-06 24 17.8082 1.18204e-06 2.29484e-05 1.23349 1.50656e+07
1.41075 5.97153 0.00206984 3.35861e-07 32 6.13411 3.45005e-07 2.01923e-05 0.53226 1.77798e+07
1.49083 0.684639 0.00244272 3.26285e-08 48 0.670043 3.19329e-08 1.77518e-05 0.0882261 2.09828e+07
1.57546 0.0636752 0.00288279 2.57139e-09 6 0.0606331 2.44854e-09 1.55929e-05 0.000989448 2.4763e+07
1.66489 0.476019 0.00340213 1.62886e-08 84 0.464806 1.59049e-08 1.3685e-05 0.099981 2.92241e+07
1.75941 2.26124 0.00401503 6.55644e-08 48 2.27456 6.59506e-08 1.20007e-05 0.262243 3.44889e+07
1.85928 0.444475 0.00473835 1.09202e-08 72 0.447742 1.10005e-08 1.05151e-05 0.0747738 4.07021e+07
1.96483 0.861995 0.00559198 1.79453e-08 54 0.842992 1.75497e-08 9.20606e-06 0.105262 4.80347e+07
2.07637 8.31339 0.00659939 1.46651e-07 104 8.29395 1.46308e-07 8.05366e-06 1.89376 5.66883e+07
2.19424 0.476759 0.00778828 7.12636e-09 120 0.481383 7.19547e-09 7.04008e-06 0.121471 6.69008e+07
2.3188 1.74255 0.00919136 2.20706e-08 156 1.66117 2.10399e-08 6.1494e-06 0.559895 7.89532e+07
2.45043 1.00644 0.0108472 1.08014e-08 126 0.997085 1.0701e-08 5.36741e-06 0.253564 9.31768e+07
2.58954 1.02898 0.0128014 9.35748e-09 192 1.04188 9.47482e-09 4.68145e-06 0.383778 1.09963e+08
2.73654 4.35798 0.0151076 3.35816e-08 152 4.52238 3.48484e-08 4.08023e-06 1.25101 1.29773e+08
2.89188 3.6651 0.0178292 2.39311e-08 378 3.74318 2.4441e-08 3.55373e-06 2.54548 1.53152e+08
3.05605 1.44859 0.0210412 8.01464e-09 264 1.42378 7.87737e-09 3.09304e-06 0.684073 1.80743e+08
3.22953 0.48096 0.0248319 2.25481e-09 366 0.477763 2.23982e-09 2.69025e-06 0.30676 2.13304e+08
3.41286 1.02696 0.0293054 4.07957e-09 428 0.991259 3.93777e-09 2.33837e-06 0.746697 2.51731e+08
3.6066 3.25763 0.0345848 1.09655e-08 486 3.15791 1.06298e-08 2.0312e-06 2.62367 2.97081e+08
3.81134 1.06649 0.0408154 3.04188e-09 600 1.06552 3.03911e-09 1.76327e-06 1.03508 3.50601e+08
4.0277 0.979028 0.0481684 2.36616e-09 738 0.962134 2.32533e-09 1.52972e-06 1.14153 4.13763e+08
4.25634 1.55539 0.056846 3.18528e-09 824 1.59388 3.26411e-09 1.32631e-06 1.97894 4.88304e+08
4.49796 2.88063 0.067087 4.99872e-09 954 2.89504 5.02374e-09 1.14926e-06 4.14945 5.76273e+08
4.7533 0.951696 0.0791729 1.39937e-09 1094 0.942905 1.38644e-09 9.95263e-07 1.5382 6.8009e+08
5.02313 0.785449 0.0934361 9.78618e-10 1332 0.786706 9.80184e-10 8.61414e-07 1.51323 8.0261e+08
5.30828 2.51168 0.110269 2.65168e-09 1614 2.53724 2.67866e-09 7.45152e-07 5.74354 9.47202e+08
5.60962 1.64973 0.130134 1.47582e-09 1850 1.61534 1.44505e-09 6.44232e-07 4.238 1.11784e+09
5.92807 1.9967 0.153578 1.51354e-09 2238 1.94305 1.47287e-09 5.56685e-07 6.08476 1.31923e+09
6.26459 1.30067 0.181246 8.35431e-10 2546 1.31606 8.45316e-10 4.80786e-07 4.42402 1.55689e+09
6.62021 0.991004 0.213898 5.39361e-10 3264 0.992388 5.40115e-10 4.15026e-07 4.24185 1.83737e+09
6.99602 2.06182 0.252432 9.50863e-10 3506 2.1016 9.69208e-10 3.58083e-07 9.30993 2.16837e+09
7.39317 1.52292 0.297908 5.95123e-10 4506 1.53129 5.98392e-10 3.08803e-07 8.68391 2.55901e+09
7.81286 2.01941 0.351577 6.68674e-10 5018 2.04744 6.77955e-10 2.66181e-07 12.6057 3.02002e+09
8.25637 2.08421 0.414914 5.8478e-10 5852 2.04808 5.74643e-10 2.29336e-07 14.9219 3.56409e+09
8.72507 1.86003 0.489662 4.42214e-10 7362 1.85178 4.40253e-10 1.97503e-07 16.4837 4.20617e+09
9.22037 2.15258 0.577876 4.33644e-10 8306 2.13834 4.30776e-10 1.70014e-07 21.1856 4.96392e+09
9.74378 1.82423 0.681982 3.11399e-10 9698 1.82366 3.11302e-10 1.46289e-07 20.6437 5.85818e+09
10.2969 2.51742 0.804843 3.64128e-10 11816 2.53012 3.65965e-10 1.25822e-07 34.1953 6.91355e+09
10.8814 2.4876 0.949838 3.04889e-10 13682 2.48675 3.04784e-10 1.08175e-07 38.5622 8.15905e+09
11.4992 2.67356 1.12095 2.77659e-10 16152 2.65797 2.7604e-10 9.29669e-08 48.2404 9.62892e+09
12.1519 2.88153 1.3229 2.53576e-10 19472 2.86173 2.51833e-10 7.98658e-08 61.8241 1.13636e+10
12.8418 2.73349 1.56122 2.03828e-10 22670 2.73111 2.0365e-10 6.85852e-08 67.3729 1.34108e+10
13.5708 3.30221 1.84248 2.08647e-10 26224 3.30341 2.08723e-10 5.88765e-08 92.933 1.58268e+10
14.3411 3.5225 2.17441 1.88591e-10 31640 3.52832 1.88902e-10 5.05241e-08 118.102 1.8678e+10
15.1552 3.97196 2.56613 1.80192e-10 37484 3.96909 1.80062e-10 4.33417e-08 155.839 2.20429e+10
16.0156 4.20174 3.02843 1.61518e-10 43856 4.20189 1.61524e-10 3.71677e-08 190.583 2.6014e+10
16.9247 5.09911 3.574 1.66092e-10 51362 5.09176 1.65853e-10 3.18628e-08 267.736 3.07005e+10
17.8855 5.49099 4.21787 1.51554e-10 61636 5.47139 1.51013e-10 2.73063e-08 342.089 3.62312e+10
18.9008 6.29515 4.97773 1.47226e-10 72218 6.27702 1.46802e-10 2.33941e-08 454.488 4.27584e+10
19.9738 7.24649 5.87448 1.43605e-10 84586 7.22471 1.43173e-10 2.00364e-08 606.244 5.04614e+10
21.1076 8.09621 6.93279 1.35952e-10 100708 8.07718 1.35632e-10 1.71555e-08 798.076 5.95522e+10
22.3058 9.24354 8.18175 1.31523e-10 118712 9.22021 1.31191e-10 1.46847e-08 1063.24 7.02807e+10
23.5721 10.3325 9.65571 1.24575e-10 140410 10.3046 1.24239e-10 1.25662e-08 1391.96 8.29419e+10
24.9102 11.7264 11.3952 1.19798e-10 164374 11.6954 1.19482e-10 1.07504e-08 1831.73 9.78842e+10
26.3243 13.0892 13.4481 1.13308e-10 194680 13.0565 1.13025e-10 9.19452e-09 2399.13 1.15518e+11
27.8187 14.7844 15.8708 1.08446e-10 230196 14.7459 1.08164e-10 7.86182e-09 3175.33 1.36329e+11
29.3979 16.552 18.73 1.02878e-10 271156 16.5072 1.026e-10 6.72061e-09 4150.81 1.60889e+11
31.0667 18.6169 22.1042 9.80489e-11 321076 18.5681 9.77916e-11 5.74366e-09 5481.03 1.89874e+11
32.8303 21.0271 26.0864 9.38374e-11 377436 20.9678 9.35726e-11 4.90756e-09 7216.95 2.2408e+11
34.694 23.7259 30.7859 8.97182e-11 447594 23.6572 8.94586e-11 4.19221e-09 9579.05 2.64449e+11
36.6634 26.8351 36.3321 8.59853e-11 525078 26.7601 8.57449e-11 3.58032e-09 12610.3 3.1209e+11
38.7447 30.5248 42.8774 8.28772e-11 621924 30.4373 8.26395e-11 3.05709e-09 16860.3 3.68314e+11
40.9442 34.7333 50.6018 7.99079e-11 732630 34.633 7.96772e-11 2.60976e-09 22432.3 4.34667e+11
43.2685 39.7763 59.7179 7.75407e-11 865596 39.6651 7.7324e-11 2.22743e-09 30132.9 5.12973e+11
45.7247 45.5268 70.4762 7.52029e-11 1.02168e+06 45.4001 7.49936e-11 1.90073e-09 40422.8 6.05386e+11
48.3204 52.2598 83.1727 7.3147e-11 1.20544e+06 52.1043 7.29295e-11 1.62163e-09 54373.7 7.14448e+11
51.0634 60.2303 98.1565 7.14342e-11 1.42103e+06 60.0505 7.12209e-11 1.38326e-09 73384.9 8.43158e+11
53.9621 69.3009 115.84 6.96453e-11 1.67997e+06 69.1024 6.94458e-11 1.1797e-09 99179 9.95055e+11
57.0254 80.2683 136.709 6.83531e-11 1.98018e+06 80.0256 6.81465e-11 1.00592e-09 134555 1.17432e+12
60.2626 93.004 161.337 6.71085e-11 2.33957e+06 92.7155 6.69004e-11 8.57591e-10 183077 1.38587e+12
63.6835 107.814 190.402 6.59192e-11 2.75676e+06 107.485 6.57183e-11 7.3101e-10 248593 1.63554e+12
67.2987 125.47 224.704 6.50039e-11 3.25638e+06 125.086 6.48048e-11 6.23009e-10 339766 1.93019e+12
71.1191 146.252 265.185 6.42044e-11 3.84387e+06 145.794 6.40031e-11 5.30879e-10 464877 2.27792e+12
75.1563 171.214 312.958 6.36887e-11 4.53277e+06 170.659 6.34823e-11 4.52303e-10 638257 2.68829e+12
79.4227 199.737 369.339 6.29571e-11 5.35083e+06 199.124 6.27637e-11 3.85299e-10 874314 3.17259e+12
83.9313 233.837 435.876 6.24541e-11 6.32174e+06 233.096 6.2256e-11 3.28173e-10 1.20308e+06 3.74415e+12
88.6959 274.185 514.4 6.20515e-11 7.44986e+06 273.292 6.18495e-11 2.79476e-10 1.65408e+06 4.41866e+12
93.7309 322.223 607.071 6.17914e-11 8.79764e+06 321.18 6.15913e-11 2.37972e-10 2.28437e+06 5.2147e+12
99.0518 378.782 716.436 6.15492e-11 1.03827e+07 377.561 6.13507e-11 2.02605e-10 3.15415e+06 6.15414e+12
104.675 458.955 845.504 6.31923e-11 1.22515e+07 458.196 6.30878e-11 1.72471e-10 4.48888e+06 7.26283e+12
110.617 524.161 997.824 6.11535e-11 1.44573e+07 522.434 6.0952e-11 1.468e-10 6.02258e+06 8.57124e+12
116.896 617.138 1177.58 6.10099e-11 1.70664e+07 615.122 6.08106e-11 1.24935e-10 8.3341e+06 1.01154e+13
123.532 727.104 1389.73 6.09083e-11 2.0139e+07 724.709 6.07077e-11 1.06313e-10 1.15379e+07 1.19377e+13
130.545 859.877 1640.09 6.10348e-11 2.37643e+07 857.194 6.08444e-11 9.04567e-11 1.60347e+07 1.40883e+13
137.955 1010.26 1935.56 6.07629e-11 2.80503e+07 1006.92 6.0562e-11 7.69563e-11 2.21479e+07 1.66263e+13
145.787 1190.78 2284.26 6.06872e-11 3.30981e+07 1186.84 6.04862e-11 6.54636e-11 3.06832e+07 1.96216e+13
154.063 1406.62 2695.77 6.07441e-11 3.90634e+07 1401.94 6.0542e-11 5.56812e-11 4.26154e+07 2.31565e+13
162.808 1658.17 3181.42 6.06761e-11 4.61057e+07 1652.64 6.04739e-11 4.73556e-11 5.90745e+07 2.73282e+13
172.051 1957.36 3754.56 6.06905e-11 5.44046e+07 1950.81 6.04876e-11 4.02708e-11 8.1991e+07 3.22515e+13
181.818 2312.7 4430.96 6.0762e-11 6.42064e+07 2304.98 6.05592e-11 3.42426e-11 1.13932e+08 3.80616e+13
192.139 2733.19 5229.21 6.08476e-11 7.57748e+07 2723.99 6.06428e-11 2.91139e-11 1.58368e+08 4.49186e+13
203.046 3231.78 6171.26 6.09646e-11 8.94213e+07 3220.91 6.07595e-11 2.4751e-11 2.20255e+08 5.30108e+13
214.572 3825.96 7283.03 6.11559e-11 1.05538e+08 3813.06 6.09497e-11 2.10401e-11 3.06762e+08 6.25608e+13
226.753 4533.68 8595.09 6.14059e-11 1.24552e+08 4518.24 6.11968e-11 1.78839e-11 4.27659e+08 7.38313e+13
239.625 5373.99 10143.5 6.16763e-11 1.46987e+08 5355.65 6.14659e-11 1.51999e-11 5.96426e+08 8.71322e+13
253.228 6385.34 11970.9 6.20965e-11 1.7347e+08 6363.25 6.18817e-11 1.29176e-11 8.3389e+08 1.02829e+14
267.603 7598.34 14127.5 6.26129e-11 2.04703e+08 7571.92 6.23952e-11 1.09771e-11 1.16761e+09 1.21354e+14
282.795 9073.54 16672.6 6.33554e-11 2.4161e+08 9041.53 6.31319e-11 9.3274e-12 1.64111e+09 1.43217e+14
298.848 10876.1 19676.2 6.4349e-11 2.85122e+08 10837 6.41179e-11 7.925e-12 2.31512e+09 1.69017e+14
315.813 13112.5 23220.9 6.57379e-11 3.36491e+08 13064.4 6.54966e-11 6.73295e-12 3.28537e+09 1.99466e+14
333.741 15918.9 27404.3 6.76246e-11 3.97115e+08 15858.4 6.73675e-11 5.71979e-12 4.69505e+09 2.35401e+14
352.686 19539.4 32341.2 7.03339e-11 4.68637e+08 19461.8 7.00548e-11 4.85874e-12 6.78387e+09 2.77809e+14
372.707 24346 38167.6 7.42579e-11 5.53074e+08 24243.7 7.39459e-11 4.12703e-12 9.9515e+09 3.27857e+14
393.865 30978.6 45043.5 8.00643e-11 6.52716e+08 30838 7.9701e-11 3.50528e-12 1.49087e+10 3.86921e+14
416.224 36555.3 53158.3 8.00552e-11 2.2184e+08 38672.1 8.4691e-11 2.97701e-12 5.96552e+09 4.56626e+14
439.852 0 62734.9 0 0 0 0 2.52819e-12 0 5.38888e+14
464.821 0 74036.7 0 0 0 0 2.1469e-12 0 6.35971e+14
491.207 0 87374.6 0 0 0 0 1.82301e-12 0 7.50542e+14
519.092 0 103115 0 0 0 0 1.54789e-12 0 8.85755e+14
548.56 0 121692 0 0 0 0 1.31422e-12 0 1.04533e+15
579.7 0 143615 0 0 0 0 1.11576e-12 0 1.23364e+15
612.608 0 169488 0 0 0 0 9.47223e-13 0 1.45589e+15
647.384 0 200021 0 0 0 0 8.041e-13 0 1.71817e+15
684.134 0 236056 0 0 0 0 6.82568e-13 0 2.0277e+15
722.971 0 278582 0 0 0 0 5.79376e-13 0 2.393e+15
764.012 0 328769 0 0 0 0 4.91762e-13 0 2.8241e+15
0.159811
200
8.92029e+08
8589934592
0.0129181 0.00010981 1.58924e-09 8.04384e-06 6 0.000108805 7.9702e-06 0.00677225 0.00712659 13.6515
0.0136515 0 1.87554e-09 0 0 0 0 0.00688819 0 16.1108
0.0144264 0 2.21343e-09 0 0 0 0 0.00699249 0 19.0132
0.0152454 0 2.61218e-09 0 0 0 0 0.00708412 0 22.4385
0.0161108 0 3.08278e-09 0 0 0 0 0.00716212 0 26.4808
0.0170254 0 3.63815e-09 0 0 0 0 0.00722559 0 31.2514
0.0179919 0.000236798 4.29357e-09 6.42051e-06 12 0.000236493 6.41224e-06 0.00727371 0.0105924 36.8815
0.0190132 0 5.06707e-09 0 0 0 0 0.00730578 0 43.5258
0.0200925 0 5.97991e-09 0 0 0 0 0.00732122 0 51.367
0.0212331 0.000218888 7.05721e-09 3.61076e-06 8 0.000218697 3.60762e-06 0.00731958 0.00394642 60.621
0.0224385 0 8.32858e-09 0 0 0 0 0.00730056 0 71.542
0.0237123 0 9.829e-09 0 0 0 0 0.00726401 0 84.4305
0.0250583 0.00138003 1.15997e-08 1.38501e-05 6 0.00137938 1.38436e-05 0.00720995 0.0115258 99.6408
0.0264808 0 1.36894e-08 0 0 0 0 0.00713857 0 117.591
0.0279841 0.000846023 1.61556e-08 6.09633e-06 24 0.000845154 6.09007e-06 0.00705021 0.0207528 138.776
0.0295727 0 1.90661e-08 0 0 0 0 0.00694538 0 163.777
0.0312514 0.00149793 2.25009e-08 7.74998e-06 24 0.00150553 7.78933e-06 0.00682475 0.0272537 193.281
0.0330255 0 2.65545e-08 0 0 0 0 0.00668915 0 228.102
0.0349003 0.0020923 3.13384e-08 7.77244e-06 12 0.00207555 7.7102e-06 0.00653951 0.0142624 269.195
0.0368815 0.0017987 3.69841e-08 5.66179e-06 30 0.00177955 5.6015e-06 0.00637693 0.0266357 317.691
0.0389751 0.00213753 4.36469e-08 5.70124e-06 24 0.00211554 5.64259e-06 0.00620256 0.0220602 374.924
0.0411876 0.00135849 5.151e-08 3.07025e-06 24 0.00134926 3.0494e-06 0.00601767 0.0122449 442.467
0.0435258 0.00297573 6.07896e-08 5.69867e-06 8 0.0029755 5.69823e-06 0.00582358 0.00782841 522.179
0.0459966 0.0038195 7.1741e-08 6.19796e-06 72 0.00378922 6.14882e-06 0.00562166 0.079381 616.251
0.0486077 0 8.46654e-08 0 0 0 0 0.0054133 0 727.27
0.051367 0.00573949 9.99181e-08 6.68712e-06 54 0.00572118 6.66579e-06 0.00519989 0.0694446 858.29
0.054283 0.00448366 1.17919e-07 4.4265e-06 60 0.00450244 4.44504e-06 0.0049828 0.0533013 1012.91
0.0573645 0.00444697 1.39162e-07 3.72009e-06 96 0.00443561 3.71059e-06 0.00476339 0.0749738 1195.39
0.060621 0.0051086 1.64232e-07 3.6212e-06 24 0.00503938 3.57214e-06 0.00454293 0.0191306 1410.75
0.0640622 0.00892417 1.93819e-07 5.3602e-06 134 0.00892929 5.36328e-06 0.00432265 0.166164 1664.89
0.0676989 0.00841971 2.28736e-07 4.28521e-06 120 0.00838118 4.2656e-06 0.00410371 0.125307 1964.83
0.071542 0.00753762 2.69944e-07 3.25066e-06 108 0.0074564 3.21563e-06 0.00388717 0.0903152 2318.8
0.0756032 0.0107661 3.18575e-07 3.93419e-06 174 0.0107108 3.914e-06 0.00367401 0.186322 2736.54
0.079895 0.0112452 3.75967e-07 3.48199e-06 168 0.0111395 3.44927e-06 0.0034651 0.168819 3229.53
0.0844305 0.00951024 4.43698e-07 2.49525e-06 168 0.00955803 2.50779e-06 0.00326121 0.128542 3811.34
0.0892234 0.0107216 5.23632e-07 2.38365e-06 290 0.010676 2.37351e-06 0.00306301 0.225679 4497.96
0.0942883 0.0140741 6.17966e-07 2.65134e-06 288 0.0140371 2.64438e-06 0.00287109 0.265957 5308.28
0.0996408 0.0131318 7.29294e-07 2.09619e-06 366 0.0130194 2.07826e-06 0.00268591 0.285641 6264.59
0.105297 0.0146874 8.60678e-07 1.98661e-06 420 0.0145835 1.97256e-06 0.00250785 0.332706 7393.17
0.111275 0.0158034 1.01573e-06 1.81127e-06 398 0.0157588 1.80615e-06 0.00233721 0.308438 8725.07
0.117591 0.0187611 1.19872e-06 1.82201e-06 624 0.018801 1.82589e-06 0.00217419 0.522923 10296.9
0.124267 0.0202388 1.41467e-06 1.66548e-06 642 0.0202165 1.66364e-06 0.00201893 0.529608 12151.9
0.131321 0.0246461 1.66953e-06 1.71856e-06 800 0.0246615 1.71964e-06 0.00187147 0.734637 14341.1
0.138776 0.0215662 1.9703e-06 1.27424e-06 858 0.0216726 1.28053e-06 0.00173182 0.631302 16924.7
0.146654 0.0231536 2.32525e-06 1.1592e-06 1080 0.0233466 1.16886e-06 0.00159991 0.782505 19973.8
0.154979 0.0281242 2.74415e-06 1.19312e-06 1286 0.0283114 1.20106e-06 0.00147563 1.03979 23572.1
0.163777 0.027777 3.23852e-06 9.98502e-07 1650 0.0278191 1.00002e-06 0.00135884 1.21245 27818.7
0.173074 0.0334424 3.82195e-06 1.01865e-06 1778 0.0334465 1.01877e-06 0.00124933 1.4497 32830.3
0.182899 0.0320028 4.51048e-06 8.25992e-07 2112 0.0320897 8.28233e-07 0.00114689 1.52106 38744.7
0.193281 0.0358474 5.32305e-06 7.83983e-07 2570 0.0359105 7.85363e-07 0.00105127 1.91657 45724.7
0.204254 0.0390775 6.28202e-06 7.24165e-07 3030 0.0390595 7.23831e-07 0.000962209 2.2804 53962.1
0.215848 0.0397174 7.41374e-06 6.23668e-07 3434 0.0396974 6.23354e-07 0.000879423 2.43532 63683.5
0.228102 0.0430119 8.74934e-06 5.72299e-07 4218 0.0430152 5.72343e-07 0.000802624 3.00758 75156.3
0.24105 0.0485038 1.03256e-05 5.46855e-07 4766 0.0485593 5.4748e-07 0.000731515 3.56289 88695.9
0.254734 0.0502502 1.21857e-05 4.80061e-07 6026 0.0502498 4.80056e-07 0.000665798 4.34493 104675
0.269195 0.0520253 1.4381e-05 4.21148e-07 6480 0.051994 4.20894e-07 0.000605173 4.50951 123532
0.284476 0.0578112 1.69718e-05 3.96546e-07 8162 0.0579321 3.97375e-07 0.000549345 5.89177 145787
0.300625 0.0588127 2.00293e-05 3.41834e-07 9578 0.0588914 3.42291e-07 0.000498021 6.57419 172051
0.317691 0.0642671 2.36377e-05 3.16515e-07 11234 0.064227 3.16318e-07 0.000450916 7.88556 203046
0.335725 0.0670128 2.78961e-05 2.79656e-07 13344 0.0669705 2.7948e-07 0.000407755 9.15191 239625
0.354784 0.0705195 3.29216e-05 2.49366e-07 15464 0.0704735 2.49204e-07 0.000368269 10.4712 282795
0.374924 0.0753491 3.88525e-05 2.25772e-07 18458 0.0753496 2.25773e-07 0.000332202 12.5445 333741
0.396207 0.0787989 4.58519e-05 2.00066e-07 22232 0.078686 1.99779e-07 0.000299307 14.8605 393865
0.418699 0.0856474 5.41123e-05 1.84259e-07 25628 0.0854594 1.83854e-07 0.00026935 17.5318 464821
0.442467 0.0896191 6.38607e-05 1.63372e-07 30320 0.0894591 1.6308e-07 0.000242108 20.4596 548560
0.467585 0.0936876 7.53654e-05 1.44717e-07 35452 0.0935529 1.44509e-07 0.00021737 23.6026 647384
0.494129 0.0978382 8.89427e-05 1.28059e-07 41792 0.0977996 1.28008e-07 0.000194938 27.4539 764012
0.522179 0.105569 0.000104966 1.17084e-07 49988 0.105537 1.17049e-07 0.000174625 33.5163 901651
0.551822 0.110647 0.000123876 1.03983e-07 59110 0.110573 1.03913e-07 0.000156255 39.3359 1.06409e+06
0.583147 0.117298 0.000146192 9.34065e-08 69716 0.11715 9.32881e-08 0.000139664 46.6257 1.25578e+06
0.616251 0.123927 0.000172529 8.36207e-08 82210 0.123727 8.34856e-08 0.0001247 55.1279 1.48202e+06
0.651234 0.131451 0.000203611 7.51576e-08 96722 0.131205 7.50167e-08 0.00011122 65.3602 1.74901e+06
0.688203 0.138742 0.000240292 6.72167e-08 113098 0.138606 6.7151e-08 9.90935e-05 76.7162 2.06409e+06
0.72727 0.145184 0.000283581 5.96008e-08 135190 0.145033 5.95389e-08 8.81969e-05 91.3573 2.43595e+06
0.768555 0.154366 0.000334669 5.36965e-08 158170 0.154222 5.36465e-08 7.84179e-05 108.307 2.87479e+06
0.812184 0.162199 0.000394961 4.78084e-08 188560 0.162034 4.77599e-08 6.96525e-05 129.425 3.39269e+06
0.85829 0.170887 0.000466114 4.26803e-08 220444 0.170685 4.26298e-08 6.1805e-05 152.231 4.00389e+06
0.907013 0.180059 0.000550086 3.81061e-08 261388 0.179871 3.80664e-08 5.47875e-05 181.802 4.7252e+06
0.958501 0.190367 0.000649185 3.41376e-08 308244 0.19016 3.41005e-08 4.85194e-05 216.876 5.57646e+06
1.01291 0.201964 0.000766138 3.06886e-08 364396 0.201734 3.06537e-08 4.29272e-05 260.507 6.58107e+06
1.07041 0.212214 0.00090416 2.73237e-08 429162 0.211936 2.72879e-08 3.79435e-05 309.046 7.76667e+06
1.13118 0.225132 0.00106705 2.4562e-08 506358 0.224858 2.45321e-08 3.3507e-05 371.181 9.16586e+06
1.19539 0.237434 0.00125928 2.19499e-08 598590 0.237113 2.19202e-08 2.9562e-05 444.454 1.08171e+07
1.26325 0.250833 0.00148614 1.96488e-08 704844 0.250501 1.96227e-08 2.60578e-05 531.485 1.27658e+07
1.33496 0.26439 0.00175387 1.75492e-08 834620 0.26402 1.75246e-08 2.29484e-05 638.252 1.50656e+07
1.41075 0.279613 0.00206984 1.57265e-08 981444 0.279245 1.57058e-08 2.01923e-05 764.383 1.77798e+07
1.49083 0.295581 0.00244272 1.40868e-08 1.15998e+06 0.295189 1.40681e-08 1.77518e-05 920.492 2.09828e+07
1.57546 0.313726 0.00288279 1.26692e-08 1.36931e+06 0.313283 1.26513e-08 1.55929e-05 1112.56 2.4763e+07
1.66489 0.332093 0.00340213 1.13637e-08 1.61652e+06 0.331595 1.13467e-08 1.3685e-05 1342.31 2.92241e+07
1.75941 0.351618 0.00401503 1.01951e-08 1.90601e+06 0.351098 1.01801e-08 1.20007e-05 1619.24 3.44889e+07
1.85928 0.373286 0.00473835 9.17116e-09 2.24913e+06 0.37275 9.15801e-09 1.05151e-05 1961.67 4.07021e+07
1.96483 0.39513 0.00559198 8.22592e-09 2.65744e+06 0.394506 8.21293e-09 9.20606e-06 2374.51 4.80347e+07
2.07637 0.420029 0.00659939 7.40945e-09 3.13125e+06 0.419399 7.39833e-09 8.05366e-06 2880.78 5.66883e+07
2.19424 0.446273 0.00778828 6.67066e-09 3.69915e+06 0.445626 6.66099e-09 7.04008e-06 3505.04 6.69008e+07
2.3188 0.474457 0.00919136 6.00935e-09 4.36472e+06 0.473733 6.00017e-09 6.1494e-06 4265.32 7.89532e+07
2.45043 0.50514 0.0108472 5.4213e-09 5.14913e+06 0.504349 5.41281e-09 5.36741e-06 5200.83 9.31768e+07
2.58954 0.539289 0.0128014 4.90428e-09 6.07894e+06 0.538428 4.89645e-09 4.68145e-06 6368.29 1.09963e+08
2.73654 0.57449 0.0151076 4.42689e-09 7.17304e+06 0.573582 4.41989e-09 4.08023e-06 7782.46 1.29773e+08
2.89188 0.613885 0.0178292 4.00834e-09 8.46557e+06 0.612901 4.00191e-09 3.55373e-06 9548.52 1.53152e+08
3.05605 0.656472 0.0210412 3.63208e-09 9.98773e+06 0.655445 3.6264e-09 3.09304e-06 11728.3 1.80743e+08
3.22953 0.702298 0.0248319 3.29247e-09 1.1797e+07 0.701128 3.28699e-09 2.69025e-06 14437.8 2.13304e+08
3.41286 0.752641 0.0293054 2.98986e-09 1.39144e+07 0.751365 2.98479e-09 2.33837e-06 17791 2.51731e+08
3.6066 0.807705 0.0345848 2.7188e-09 1.64163e+07 0.806346 2.71423e-09 2.0312e-06 21973.5 2.97081e+08
3.81134 0.867416 0.0408154 2.47408e-09 1.93821e+07 0.865939 2.46987e-09 1.76327e-06 27195.5 3.50601e+08
4.0277 0.932938 0.0481684 2.25476e-09 2.28754e+07 0.931332 2.25088e-09 1.52972e-06 33717.6 4.13763e+08
4.25634 1.00437 0.056846 2.05685e-09 2.69929e+07 1.0026 2.05323e-09 1.32631e-06 41860.9 4.88304e+08
4.49796 1.08328 0.067087 1.8798e-09 3.18542e+07 1.08133 1.87642e-09 1.14926e-06 52102.9 5.76273e+08
4.7533 1.16927 0.0791729 1.71928e-09 3.75892e+07 1.16714 1.71616e-09 9.95263e-07 64933.9 6.8009e+08
5.02313 1.26338 0.0934361 1.57409e-09 4.43706e+07 1.26109 1.57124e-09 8.61414e-07 81080.1 8.0261e+08
5.30828 1.36672 0.110269 1.4429e-09 5.23593e+07 1.36419 1.44023e-09 7.45152e-07 101388 9.47202e+08
5.60962 1.4802 0.130134 1.32416e-09 6.1787e+07 1.47741 1.32166e-09 6.44232e-07 126997 1.11784e+09
5.92807 1.60489 0.153578 1.21654e-09 7.29346e+07 1.60183 1.21422e-09 5.56685e-07 159386 1.31923e+09
6.26459 1.74216 0.181246 1.119e-09 8.60651e+07 1.73876 1.11682e-09 4.80786e-07 200311 1.55689e+09
6.62021 1.89426 0.213898 1.03096e-09 1.01558e+08 1.89054 1.02894e-09 4.15026e-07 252280 1.83737e+09
6.99602 2.06168 0.252432 9.50797e-10 1.1986e+08 2.05762 9.48923e-10 3.58083e-07 318257 2.16837e+09
7.39317 2.24723 0.297908 8.78164e-10 1.41457e+08 2.24272 8.764e-10 3.08803e-07 402269 2.55901e+09
7.81286 2.45299 0.351577 8.12241e-10 1.66936e+08 2.44799 8.10587e-10 2.66181e-07 509398 3.02002e+09
8.25637 2.68313 0.414914 7.52824e-10 1.97025e+08 2.67758 7.51266e-10 2.29336e-07 646759 3.56409e+09
8.72507 2.9408 0.489662 6.99164e-10 2.32497e+08 2.9346 6.97689e-10 1.97503e-07 823042 4.20617e+09
9.22037 3.232 0.577876 6.51097e-10 2.74404e+08 3.22504 6.49697e-10 1.70014e-07 1.05088e+06 4.96392e+09
9.74378 3.56683 0.681982 6.08864e-10 3.2382e+08 3.55892 6.07512e-10 1.46289e-07 1.34776e+06 5.85818e+09
10.2969 3.9561 0.804843 5.72224e-10 3.82165e+08 3.94698 5.70904e-10 1.25822e-07 1.73804e+06 6.91355e+09
10.8814 4.42952 0.949838 5.42897e-10 4.51027e+08 4.4186 5.41559e-10 1.08175e-07 2.26355e+06 8.15905e+09
11.4992 5.02917 1.12095 5.22298e-10 5.32251e+08 5.01562 5.20891e-10 9.29669e-08 2.99024e+06 9.62892e+09
12.1519 5.8459 1.3229 5.14441e-10 6.28157e+08 5.828 5.12866e-10 7.98658e-08 4.04616e+06 1.13636e+10
12.8418 6.71492 1.56122 5.00711e-10 3.82727e+08 6.94912 5.18174e-10 6.85852e-08 2.79412e+06 1.34108e+10
13.5708 0 1.84248 0 0 0 0 5.88765e-08 0 1.58268e+10
14.3411 0 2.17441 0 0 0 0 5.05241e-08 0 1.8678e+10
15.1552 0 2.56613 0 0 0 0 4.33417e-08 0 2.20429e+10
16.0156 0 3.02843 0 0 0 0 3.71677e-08 0 2.6014e+10
16.9247 0 3.574 0 0 0 0 3.18628e-08 0 3.07005e+10
17.8855 0 4.21787 0 0 0 0 2.73063e-08 0 3.62312e+10
18.9008 0 4.97773 0 0 0 0 2.33941e-08 0 4.27584e+10
19.9738 0 5.87448 0 0 0 0 2.00364e-08 0 5.04614e+10
21.1076 0 6.93279 0 0 0 0 1.71555e-08 0 5.95522e+10
22.3058 0 8.18175 0 0 0 0 1.46847e-08 0 7.02807e+10
23.5721 0 9.65571 0 0 0 0 1.25662e-08 0 8.29419e+10
24.9102 0 11.3952 0 0 0 0 1.07504e-08 0 9.78842e+10
26.3243 0 13.4481 0 0 0 0 9.19452e-09 0 1.15518e+11
27.8187 0 15.8708 0 0 0 0 7.86182e-09 0 1.36329e+11
29.3979 0 18.73 0 0 0 0 6.72061e-09 0 1.60889e+11
31.0667 0 22.1042 0 0 0 0 5.74366e-09 0 1.89874e+11
32.8303 0 26.0864 0 0 0 0 4.90756e-09 0 2.2408e+11
34.694 0 30.7859 0 0 0 0 4.19221e-09 0 2.64449e+11
36.6634 0 36.3321 0 0 0 0 3.58032e-09 0 3.1209e+11
38.7447 0 42.8774 0 0 0 0 3.05709e-09 0 3.68314e+11
40.9442 0 50.6018 0 0 0 0 2.60976e-09 0 4.34667e+11
43.2685 0 59.7179 0 0 0 0 2.22743e-09 0 5.12973e+11
45.7247 0 70.4762 0 0 0 0 1.90073e-09 0 6.05386e+11
48.3204 0 83.1727 0 0 0 0 1.62163e-09 0 7.14448e+11
51.0634 0 98.1565 0 0 0 0 1.38326e-09 0 8.43158e+11
53.9621 0 115.84 0 0 0 0 1.1797e-09 0 9.95055e+11
57.0254 0 136.709 0 0 0 0 1.00592e-09 0 1.17432e+12
60.2626 0 161.337 0 0 0 0 8.57591e-10 0 1.38587e+12
63.6835 0 190.402 0 0 0 0 7.3101e-10 0 1.63554e+12
67.2987 0 224.704 0 0 0 0 6.23009e-10 0 1.93019e+12
71.1191 0 265.185 0 0 0 0 5.30879e-10 0 2.27792e+12
75.1563 0 312.958 0 0 0 0 4.52303e-10 0 2.68829e+12
79.4227 0 369.339 0 0 0 0 3.85299e-10 0 3.17259e+12
83.9313 0 435.876 0 0 0 0 3.28173e-10 0 3.74415e+12
88.6959 0 514.4 0 0 0 0 2.79476e-10 0 4.41866e+12
93.7309 0 607.071 0 0 0 0 2.37972e-10 0 5.2147e+12
99.0518 0 716.436 0 0 0 0 2.02605e-10 0 6.15414e+12
104.675 0 845.504 0 0 0 0 1.72471e-10 0 7.26283e+12
110.617 0 997.824 0 0 0 0 1.468e-10 0 8.57124e+12
116.896 0 1177.58 0 0 0 0 1.24935e-10 0 1.01154e+13
123.532 0 1389.73 0 0 0 0 1.06313e-10 0 1.19377e+13
130.545 0 1640.09 0 0 0 0 9.04567e-11 0 1.40883e+13
137.955 0 1935.56 0 0 0 0 7.69563e-11 0 1.66263e+13
145.787 0 2284.26 0 0 0 0 6.54636e-11 0 1.96216e+13
154.063 0 2695.77 0 0 0 0 5.56812e-11 0 2.31565e+13
162.808 0 3181.42 0 0 0 0 4.73556e-11 0 2.73282e+13
172.051 0 3754.56 0 0 0 0 4.02708e-11 0 3.22515e+13
181.818 0 4430.96 0 0 0 0 3.42426e-11 0 3.80616e+13
192.139 0 5229.21 0 0 0 0 2.91139e-11 0 4.49186e+13
203.046 0 6171.26 0 0 0 0 2.4751e-11 0 5.30108e+13
214.572 0 7283.03 0 0 0 0 2.10401e-11 0 6.25608e+13
226.753 0 8595.09 0 0 0 0 1.78839e-11 0 7.38313e+13
239.625 0 10143.5 0 0 0 0 1.51999e-11 0 8.71322e+13
253.228 0 11970.9 0 0 0 0 1.29176e-11 0 1.02829e+14
267.603 0 14127.5 0 0 0 0 1.09771e-11 0 1.21354e+14
282.795 0 16672.6 0 0 0 0 9.3274e-12 0 1.43217e+14
298.848 0 19676.2 0 0 0 0 7.925e-12 0 1.69017e+14
315.813 0 23220.9 0 0 0 0 6.73295e-12 0 1.99466e+14
333.741 0 27404.3 0 0 0 0 5.71979e-12 0 2.35401e+14
352.686 0 32341.2 0 0 0 0 4.85874e-12 0 2.77809e+14
372.707 0 38167.6 0 0 0 0 4.12703e-12 0 3.27857e+14
393.865 0 45043.5 0 0 0 0 3.50528e-12 0 3.86921e+14
416.224 0 53158.3 0 0 0 0 2.97701e-12 0 4.56626e+14
439.852 0 62734.9 0 0 0 0 2.52819e-12 0 5.38888e+14
464.821 0 74036.7 0 0 0 0 2.1469e-12 0 6.35971e+14
491.207 0 87374.6 0 0 0 0 1.82301e-12 0 7.50542e+14
519.092 0 103115 0 0 0 0 1.54789e-12 0 8.85755e+14
548.56 0 121692 0 0 0 0 1.31422e-12 0 1.04533e+15
579.7 0 143615 0 0 0 0 1.11576e-12 0 1.23364e+15
612.608 0 169488 0 0 0 0 9.47223e-13 0 1.45589e+15
647.384 0 200021 0 0 0 0 8.041e-13 0 1.71817e+15
684.134 0 236056 0 0 0 0 6.82568e-13 0 2.0277e+15
722.971 0 278582 0 0 0 0 5.79376e-13 0 2.393e+15
764.012 0 328769 0 0 0 0 4.91762e-13 0 2.8241e+15
