0.0721946
200
8.92029e+08
8589934592
0.0129181 0 1.58924e-09 0 0 0 0 0.00677225 0 13.6515
0.0136515 0 1.87554e-09 0 0 0 0 0.00688819 0 16.1108
0.0144264 0 2.21343e-09 0 0 0 0 0.00699249 0 19.0132
0.0152454 0 2.61218e-09 0 0 0 0 0.00708412 0 22.4385
0.0161108 0 3.08278e-09 0 0 0 0 0.00716212 0 26.4808
0.0170254 0 3.63815e-09 0 0 0 0 0.00722559 0 31.2514
0.0179919 0 4.29357e-09 0 0 0 0 0.00727371 0 36.8815
0.0190132 0 5.06707e-09 0 0 0 0 0.00730578 0 43.5258
0.0200925 0 5.97991e-09 0 0 0 0 0.00732122 0 51.367
0.0212331 0 7.05721e-09 0 0 0 0 0.00731958 0 60.621
0.0224385 0 8.32858e-09 0 0 0 0 0.00730056 0 71.542
0.0237123 0 9.829e-09 0 0 0 0 0.00726401 0 84.4305
0.0250583 0 1.15997e-08 0 0 0 0 0.00720995 0 99.6408
0.0264808 0 1.36894e-08 0 0 0 0 0.00713857 0 117.591
0.0279841 0 1.61556e-08 0 0 0 0 0.00705021 0 138.776
0.0295727 0 1.90661e-08 0 0 0 0 0.00694538 0 163.777
0.0312514 0 2.25009e-08 0 0 0 0 0.00682475 0 193.281
0.0330255 0 2.65545e-08 0 0 0 0 0.00668915 0 228.102
0.0349003 0 3.13384e-08 0 0 0 0 0.00653951 0 269.195
0.0368815 0 3.69841e-08 0 0 0 0 0.00637693 0 317.691
0.0389751 0 4.36469e-08 0 0 0 0 0.00620256 0 374.924
0.0411876 0 5.151e-08 0 0 0 0 0.00601767 0 442.467
0.0435258 0 6.07896e-08 0 0 0 0 0.00582358 0 522.179
0.0459966 0 7.1741e-08 0 0 0 0 0.00562166 0 616.251
0.0486077 0 8.46654e-08 0 0 0 0 0.0054133 0 727.27
0.051367 0 9.99181e-08 0 0 0 0 0.00519989 0 858.29
0.054283 0 1.17919e-07 0 0 0 0 0.0049828 0 1012.91
0.0573645 0 1.39162e-07 0 0 0 0 0.00476339 0 1195.39
0.060621 0 1.64232e-07 0 0 0 0 0.00454293 0 1410.75
0.0640622 0 1.93819e-07 0 0 0 0 0.00432265 0 1664.89
0.0676989 0 2.28736e-07 0 0 0 0 0.00410371 0 1964.83
0.071542 0 2.69944e-07 0 0 0 0 0.00388717 0 2318.8
0.0756032 0 3.18575e-07 0 0 0 0 0.00367401 0 2736.54
0.079895 0 3.75967e-07 0 0 0 0 0.0034651 0 3229.53
0.0844305 0 4.43698e-07 0 0 0 0 0.00326121 0 3811.34
0.0892234 0 5.23632e-07 0 0 0 0 0.00306301 0 4497.96
0.0942883 0 6.17966e-07 0 0 0 0 0.00287109 0 5308.28
0.0996408 0 7.29294e-07 0 0 0 0 0.00268591 0 6264.59
0.105297 0 8.60678e-07 0 0 0 0 0.00250785 0 7393.17
0.111275 0 1.01573e-06 0 0 0 0 0.00233721 0 8725.07
0.117591 0 1.19872e-06 0 0 0 0 0.00217419 0 10296.9
0.124267 0 1.41467e-06 0 0 0 0 0.00201893 0 12151.9
0.131321 0 1.66953e-06 0 0 0 0 0.00187147 0 14341.1
0.138776 0 1.9703e-06 0 0 0 0 0.00173182 0 16924.7
0.146654 0 2.32525e-06 0 0 0 0 0.00159991 0 19973.8
0.154979 0 2.74415e-06 0 0 0 0 0.00147563 0 23572.1
0.163777 0 3.23852e-06 0 0 0 0 0.00135884 0 27818.7
0.173074 0 3.82195e-06 0 0 0 0 0.00124933 0 32830.3
0.182899 0 4.51048e-06 0 0 0 0 0.00114689 0 38744.7
0.193281 0 5.32305e-06 0 0 0 0 0.00105127 0 45724.7
0.204254 0 6.28202e-06 0 0 0 0 0.000962209 0 53962.1
0.215848 0 7.41374e-06 0 0 0 0 0.000879423 0 63683.5
0.228102 0 8.74934e-06 0 0 0 0 0.000802624 0 75156.3
0.24105 0 1.03256e-05 0 0 0 0 0.000731515 0 88695.9
0.254734 0 1.21857e-05 0 0 0 0 0.000665798 0 104675
0.269195 0 1.4381e-05 0 0 0 0 0.000605173 0 123532
0.284476 0 1.69718e-05 0 0 0 0 0.000549345 0 145787
0.300625 0 2.00293e-05 0 0 0 0 0.000498021 0 172051
0.317691 0 2.36377e-05 0 0 0 0 0.000450916 0 203046
0.335725 0 2.78961e-05 0 0 0 0 0.000407755 0 239625
0.354784 0 3.29216e-05 0 0 0 0 0.000368269 0 282795
0.374924 0 3.88525e-05 0 0 0 0 0.000332202 0 333741
0.396207 0.430476 4.58519e-05 1.09295e-06 6 0.418508 1.06257e-06 0.000299307 0.0219097 393865
0.418699 0 5.41123e-05 0 0 0 0 0.00026935 0 464821
0.442467 0 6.38607e-05 0 0 0 0 0.000242108 0 548560
0.467585 0 7.53654e-05 0 0 0 0 0.00021737 0 647384
0.494129 0 8.89427e-05 0 0 0 0 0.000194938 0 764012
0.522179 0 0.000104966 0 0 0 0 0.000174625 0 901651
0.551822 0 0.000123876 0 0 0 0 0.000156255 0 1.06409e+06
0.583147 4.993 0.000146192 3.97601e-06 12 5.25516 4.18477e-06 0.000139664 0.34162 1.25578e+06
0.616251 0 0.000172529 0 0 0 0 0.0001247 0 1.48202e+06
0.651234 0 0.000203611 0 0 0 0 0.00011122 0 1.74901e+06
0.688203 20.889 0.000240292 1.01202e-05 8 20.3693 9.86842e-06 9.90935e-05 0.817022 2.06409e+06
0.72727 0 0.000283581 0 0 0 0 8.81969e-05 0 2.43595e+06
0.768555 0 0.000334669 0 0 0 0 7.84179e-05 0 2.87479e+06
0.812184 0.0915212 0.000394961 2.6976e-08 6 0.0934779 2.75527e-08 6.96525e-05 0.00232376 3.39269e+06
0.85829 0 0.000466114 0 0 0 0 6.1805e-05 0 4.00389e+06
0.907013 0.147572 0.000550086 3.12309e-08 24 0.150404 3.18302e-08 5.47875e-05 0.0136809 4.7252e+06
0.958501 0.745449 0.000649185 1.33678e-07 24 0.701785 1.25848e-07 4.85194e-05 0.0661233 5.57646e+06
1.01291 0 0.000766138 0 0 0 0 4.29272e-05 0 6.58107e+06
1.07041 0 0.00090416 0 0 0 0 3.79435e-05 0 7.76667e+06
1.13118 1.21677 0.00106705 1.3275e-07 12 1.20182 1.3112e-07 3.3507e-05 0.0475424 9.16586e+06
1.19539 0.95399 0.00125928 8.81926e-08 30 0.934323 8.63745e-08 2.9562e-05 0.0894992 1.08171e+07
1.26325 6.20335 0.00148614 4.85933e-07 24 6.11 4.78621e-07 2.60578e-05 0.447558 1.27658e+07
1.33496 16.4106 0.00175387 1.08927e-06 24 16.4466 1.09166e-06 2.29484e-05 1.13918 1.50656e+07
1.41075 4.71284 0.00206984 2.65068e-07 32 4.8474 2.72636e-07 2.01923e-05 0.420069 1.77798e+07
1.49083 0.393345 0.00244272 1.8746e-08 48 0.384959 1.83464e-08 1.77518e-05 0.0506885 2.09828e+07
1.57546 0.0335444 0.00288279 1.35462e-09 6 0.0319418 1.2899e-09 1.55929e-05 0.000521246 2.4763e+07
1.66489 0.42188 0.00340213 1.4436e-08 84 0.409707 1.40195e-08 1.3685e-05 0.0886099 2.92241e+07
1.75941 2.04679 0.00401503 5.93463e-08 48 2.0637 5.98367e-08 1.20007e-05 0.237372 3.44889e+07
1.85928 0.163148 0.00473835 4.00834e-09 72 0.163663 4.021e-09 1.05151e-05 0.0274463 4.07021e+07
1.96483 0.664358 0.00559198 1.38308e-08 54 0.651585 1.35649e-08 9.20606e-06 0.0811273 4.80347e+07
2.07637 7.46951 0.00659939 1.31765e-07 104 7.45991 1.31595e-07 8.05366e-06 1.70153 5.66883e+07
2.19424 0.243125 0.00778828 3.63411e-09 120 0.244653 3.65695e-09 7.04008e-06 0.0619445 6.69008e+07
2.3188 1.54005 0.00919136 1.95058e-08 156 1.46367 1.85385e-08 6.1494e-06 0.494831 7.89532e+07
2.45043 0.503291 0.0108472 5.40146e-09 126 0.50098 5.37666e-09 5.36741e-06 0.126799 9.31768e+07
2.58954 0.561694 0.0128014 5.10803e-09 192 0.57038 5.18703e-09 4.68145e-06 0.209495 1.09963e+08
2.73654 3.46716 0.0151076 2.67171e-08 152 3.58726 2.76426e-08 4.08023e-06 0.995286 1.29773e+08
2.89188 3.09736 0.0178292 2.02241e-08 378 3.16959 2.06957e-08 3.55373e-06 2.15118 1.53152e+08
3.05605 1.04312 0.0210412 5.77129e-09 264 1.02475 5.66966e-09 3.09304e-06 0.492597 1.80743e+08
3.22953 0.15637 0.0248319 7.33084e-10 366 0.154554 7.24572e-10 2.69025e-06 0.0997336 2.13304e+08
3.41286 0.5761 0.0293054 2.28855e-09 428 0.548513 2.17896e-09 2.33837e-06 0.418881 2.51731e+08
3.6066 2.79571 0.0345848 9.4106e-09 486 2.70042 9.08985e-09 2.0312e-06 2.25165 2.97081e+08
3.81134 0.612222 0.0408154 1.74621e-09 600 0.608718 1.73621e-09 1.76327e-06 0.594195 3.50601e+08
4.0277 0.453133 0.0481684 1.09515e-09 738 0.443158 1.07104e-09 1.52972e-06 0.528345 4.13763e+08
4.25634 0.901544 0.056846 1.84628e-09 824 0.938942 1.92287e-09 1.32631e-06 1.14705 4.88304e+08
4.49796 2.26431 0.067087 3.92923e-09 954 2.28097 3.95815e-09 1.14926e-06 3.26166 5.76273e+08
4.7533 0.418583 0.0791729 6.15481e-10 1094 0.409916 6.02737e-10 9.95263e-07 0.676541 6.8009e+08
5.02313 0.223224 0.0934361 2.78123e-10 1332 0.222141 2.76773e-10 8.61414e-07 0.43006 8.0261e+08
5.30828 1.80627 0.110269 1.90695e-09 1614 1.82883 1.93077e-09 7.45152e-07 4.13046 9.47202e+08
5.60962 0.815108 0.130134 7.29179e-10 1850 0.786353 7.03455e-10 6.44232e-07 2.09394 1.11784e+09
5.92807 1.12634 0.153578 8.53788e-10 2238 1.07538 8.15157e-10 5.56685e-07 3.43242 1.31923e+09
6.26459 0.470246 0.181246 3.02042e-10 2546 0.478772 3.07519e-10 4.80786e-07 1.59946 1.55689e+09
6.62021 0.133436 0.213898 7.26234e-11 3264 0.133617 7.27219e-11 4.15026e-07 0.571153 1.83737e+09
6.99602 1.10437 0.252432 5.09308e-10 3506 1.14521 5.28143e-10 3.58083e-07 4.98665 2.16837e+09
7.39317 0.432633 0.297908 1.69063e-10 4506 0.43986 1.71887e-10 3.08803e-07 2.46693 2.55901e+09
7.81286 0.909672 0.351577 3.01214e-10 5018 0.942837 3.12195e-10 2.66181e-07 5.67843 3.02002e+09
8.25637 0.790746 0.414914 2.21865e-10 5852 0.757068 2.12416e-10 2.29336e-07 5.66136 3.56409e+09
8.72507 0.472518 0.489662 1.12339e-10 7362 0.466947 1.11015e-10 1.97503e-07 4.1875 4.20617e+09
9.22037 0.696903 0.577876 1.40394e-10 8306 0.687553 1.3851e-10 1.70014e-07 6.85889 4.96392e+09
9.74378 0.194393 0.681982 3.31832e-11 9698 0.195265 3.3332e-11 1.46289e-07 2.19983 5.85818e+09
10.2969 0.699695 0.804843 1.01206e-10 11816 0.714086 1.03288e-10 1.25822e-07 9.5043 6.91355e+09
10.8814 0.570119 0.949838 6.98756e-11 13682 0.571233 7.00122e-11 1.08175e-07 8.83785 8.15905e+09
11.4992 0.537971 1.12095 5.58704e-11 16152 0.526412 5.46699e-11 9.29669e-08 9.70688 9.62892e+09
12.1519 0.533536 1.3229 4.69513e-11 19472 0.518991 4.56713e-11 7.98658e-08 11.4472 1.13636e+10
12.8418 0.22737 1.56122 1.69542e-11 22670 0.231034 1.72275e-11 6.85852e-08 5.60402 1.34108e+10
13.5708 0.521789 1.84248 3.29688e-11 26224 0.531605 3.3589e-11 5.88765e-08 14.6845 1.58268e+10
14.3411 0.436546 2.17441 2.33722e-11 31640 0.444465 2.37962e-11 5.05241e-08 14.6365 1.8678e+10
15.1552 0.488626 2.56613 2.21671e-11 37484 0.493714 2.23979e-11 4.33417e-08 19.1712 2.20429e+10
16.0156 0.42347 3.02843 1.62786e-11 43856 0.432193 1.66139e-11 3.71677e-08 19.2079 2.6014e+10
16.9247 0.720118 3.574 2.34563e-11 51362 0.719763 2.34447e-11 3.18628e-08 37.8109 3.07005e+10
17.8855 0.643041 4.21787 1.77483e-11 61636 0.636146 1.75579e-11 2.73063e-08 40.0615 3.62312e+10
18.9008 0.953862 4.97773 2.23082e-11 72218 0.948133 2.21742e-11 2.33941e-08 68.8657 4.27584e+10
19.9738 1.53359 5.87448 3.03913e-11 84586 1.51809 3.00842e-11 2.00364e-08 128.301 5.04614e+10
21.1076 2.40329 6.93279 4.03559e-11 100708 2.39704 4.0251e-11 1.71555e-08 236.901 5.95522e+10
22.3058 3.96471 8.18175 5.64125e-11 118712 3.95891 5.633e-11 1.46847e-08 456.043 7.02807e+10
23.5721 6.11927 9.65571 7.37778e-11 140410 6.10098 7.35573e-11 1.25662e-08 824.368 8.29419e+10
24.9102 7.03786 11.3952 7.18999e-11 164374 6.99894 7.15022e-11 1.07504e-08 1099.36 9.78842e+10
26.3243 8.38081 13.4481 7.25497e-11 194680 8.34176 7.22117e-11 9.19452e-09 1536.13 1.15518e+11
27.8187 8.93764 15.8708 6.55593e-11 230196 8.91068 6.53615e-11 7.86182e-09 1919.59 1.36329e+11
29.3979 10.2247 18.73 6.35514e-11 271156 10.1904 6.33381e-11 6.72061e-09 2564.1 1.60889e+11
31.0667 12.5436 22.1042 6.60628e-11 321076 12.4901 6.57812e-11 5.74366e-09 3692.97 1.89874e+11
32.8303 15.0884 26.0864 6.7335e-11 377436 15.027 6.70609e-11 4.90756e-09 5178.67 2.2408e+11
34.694 18.0094 30.7859 6.81016e-11 447594 17.9521 6.7885e-11 4.19221e-09 7271.08 2.64449e+11
36.6634 20.3631 36.3321 6.52474e-11 525078 20.297 6.50357e-11 3.58032e-09 9568.96 3.1209e+11
38.7447 22.8084 42.8774 6.19264e-11 621924 22.7456 6.1756e-11 3.05709e-09 12598.1 3.68314e+11
40.9442 25.7991 50.6018 5.93538e-11 732630 25.7339 5.92038e-11 2.60976e-09 16662.2 4.34667e+11
43.2685 29.4712 59.7179 5.74518e-11 865596 29.3819 5.72776e-11 2.22743e-09 22326.2 5.12973e+11
45.7247 34.5755 70.4762 5.71132e-11 1.02168e+06 34.4502 5.69062e-11 1.90073e-09 30699.3 6.05386e+11
48.3204 41.8429 83.1727 5.85667e-11 1.20544e+06 41.6929 5.83568e-11 1.62163e-09 43535.4 7.14448e+11
51.0634 50.7237 98.1565 6.01592e-11 1.42103e+06 50.5407 5.99421e-11 1.38326e-09 61802.1 8.43158e+11
53.9621 60.721 115.84 6.10227e-11 1.67997e+06 60.517 6.08177e-11 1.1797e-09 86900 9.95055e+11
57.0254 71.6836 136.709 6.10428e-11 1.98018e+06 71.4575 6.08502e-11 1.00592e-09 120164 1.17432e+12
60.2626 83.9802 161.337 6.05973e-11 2.33957e+06 83.7163 6.04069e-11 8.57591e-10 165314 1.38587e+12
63.6835 98.427 190.402 6.018e-11 2.75676e+06 98.1116 5.99872e-11 7.3101e-10 226949 1.63554e+12
67.2987 115.951 224.704 6.00725e-11 3.25638e+06 115.583 5.98816e-11 6.23009e-10 313991 1.93019e+12
71.1191 136.982 265.185 6.01346e-11 3.84387e+06 136.537 5.99395e-11 5.30879e-10 435410 2.27792e+12
75.1563 161.942 312.958 6.02396e-11 4.53277e+06 161.416 6.00441e-11 4.52303e-10 603692 2.68829e+12
79.4227 191.059 369.339 6.02217e-11 5.35083e+06 190.428 6.00228e-11 3.85299e-10 836327 3.17259e+12
83.9313 225.59 435.876 6.02515e-11 6.32174e+06 224.853 6.00546e-11 3.28173e-10 1.16065e+06 3.74415e+12
88.6959 266.251 514.4 6.0256e-11 7.44986e+06 265.373 6.00574e-11 2.79476e-10 1.60621e+06 4.41866e+12
93.7309 314.312 607.071 6.02742e-11 8.79764e+06 313.29 6.00782e-11 2.37972e-10 2.22829e+06 5.2147e+12
99.0518 370.972 716.436 6.02801e-11 1.03827e+07 369.734 6.00788e-11 2.02605e-10 3.08911e+06 6.15414e+12
104.675 437.926 845.504 6.02969e-11 1.22515e+07 436.472 6.00967e-11 1.72471e-10 4.28321e+06 7.26283e+12
110.617 516.812 997.824 6.0296e-11 1.44573e+07 515.11 6.00975e-11 1.468e-10 5.93813e+06 8.57124e+12
116.896 610.226 1177.58 6.03266e-11 1.70664e+07 608.205 6.01268e-11 1.24935e-10 8.24076e+06 1.01154e+13
123.532 720.554 1389.73 6.03596e-11 2.0139e+07 718.164 6.01594e-11 1.06313e-10 1.1434e+07 1.19377e+13
130.545 850.555 1640.09 6.03732e-11 2.37643e+07 847.727 6.01725e-11 9.04567e-11 1.58609e+07 1.40883e+13
137.955 1004.35 1935.56 6.04074e-11 2.80503e+07 1001.01 6.02063e-11 7.69563e-11 2.20183e+07 1.66263e+13
145.787 1187.05 2284.26 6.04969e-11 3.30981e+07 1183.08 6.02949e-11 6.54636e-11 3.05869e+07 1.96216e+13
154.063 1401.75 2695.77 6.05337e-11 3.90634e+07 1397.07 6.03316e-11 5.56812e-11 4.24677e+07 2.31565e+13
162.808 1655.89 3181.42 6.05927e-11 4.61057e+07 1650.37 6.03906e-11 4.73556e-11 5.89934e+07 2.73282e+13
172.051 1957.93 3754.56 6.07084e-11 5.44046e+07 1951.36 6.05045e-11 4.02708e-11 8.20151e+07 3.22515e+13
181.818 2314.64 4430.96 6.0813e-11 6.42064e+07 2306.85 6.06082e-11 3.42426e-11 1.14027e+08 3.80616e+13
192.139 2735.51 5229.21 6.08992e-11 7.57748e+07 2726.36 6.06956e-11 2.91139e-11 1.58503e+08 4.49186e+13
203.046 3237.29 6171.26 6.10685e-11 8.94213e+07 3226.39 6.08629e-11 2.4751e-11 2.2063e+08 5.30108e+13
214.572 3831.65 7283.03 6.12468e-11 1.05538e+08 3818.69 6.10397e-11 2.10401e-11 3.07218e+08 6.25608e+13
226.753 4541.63 8595.09 6.15137e-11 1.24552e+08 4526.21 6.13047e-11 1.78839e-11 4.28409e+08 7.38313e+13
239.625 5386.42 10143.5 6.18189e-11 1.46987e+08 5367.97 6.16072e-11 1.51999e-11 5.97805e+08 8.71322e+13
253.228 6400.68 11970.9 6.22457e-11 1.7347e+08 6378.62 6.20311e-11 1.29176e-11 8.35894e+08 1.02829e+14
267.603 7620.04 14127.5 6.27917e-11 2.04703e+08 7593.53 6.25733e-11 1.09771e-11 1.17095e+09 1.21354e+14
282.795 9102.16 16672.6 6.35552e-11 2.4161e+08 9070.12 6.33315e-11 9.3274e-12 1.64629e+09 1.43217e+14
298.848 10907 19676.2 6.45318e-11 2.85122e+08 10867.9 6.43002e-11 7.925e-12 2.3217e+09 1.69017e+14
315.813 13146.6 23220.9 6.59091e-11 3.36491e+08 13098.6 6.56682e-11 6.73295e-12 3.29393e+09 1.99466e+14
333.741 15961.6 27404.3 6.7806e-11 3.97115e+08 15901 6.75485e-11 5.71979e-12 4.70765e+09 2.35401e+14
352.686 19594.5 32341.2 7.05322e-11 4.68637e+08 19516.6 7.0252e-11 4.85874e-12 6.803e+09 2.77809e+14
372.707 24408 38167.6 7.4447e-11 5.53074e+08 24305.3 7.41339e-11 4.12703e-12 9.97684e+09 3.27857e+14
393.865 31052.8 45043.5 8.02562e-11 6.52716e+08 30912 7.98923e-11 3.50528e-12 1.49444e+10 3.86921e+14
416.224 36645.2 53158.3 8.02522e-11 2.2184e+08 38767.3 8.48994e-11 2.97701e-12 5.9802e+09 4.56626e+14
439.852 0 62734.9 0 0 0 0 2.52819e-12 0 5.38888e+14
464.821 0 74036.7 0 0 0 0 2.1469e-12 0 6.35971e+14
491.207 0 87374.6 0 0 0 0 1.82301e-12 0 7.50542e+14
519.092 0 103115 0 0 0 0 1.54789e-12 0 8.85755e+14
548.56 0 121692 0 0 0 0 1.31422e-12 0 1.04533e+15
579.7 0 143615 0 0 0 0 1.11576e-12 0 1.23364e+15
612.608 0 169488 0 0 0 0 9.47223e-13 0 1.45589e+15
647.384 0 200021 0 0 0 0 8.041e-13 0 1.71817e+15
684.134 0 236056 0 0 0 0 6.82568e-13 0 2.0277e+15
722.971 0 278582 0 0 0 0 5.79376e-13 0 2.393e+15
764.012 0 328769 0 0 0 0 4.91762e-13 0 2.8241e+15
0.0721946
200
8.92029e+08
8589934592
0.0129181 2.24555e-05 1.58924e-09 1.64492e-06 6 2.22499e-05 1.62986e-06 0.00677225 0.00145734 13.6515
0.0136515 0 1.87554e-09 0 0 0 0 0.00688819 0 16.1108
0.0144264 0 2.21343e-09 0 0 0 0 0.00699249 0 19.0132
0.0152454 0 2.61218e-09 0 0 0 0 0.00708412 0 22.4385
0.0161108 0 3.08278e-09 0 0 0 0 0.00716212 0 26.4808
0.0170254 0 3.63815e-09 0 0 0 0 0.00722559 0 31.2514
0.0179919 4.83758e-05 4.29357e-09 1.31166e-06 12 4.83135e-05 1.30997e-06 0.00727371 0.00216394 36.8815
0.0190132 0 5.06707e-09 0 0 0 0 0.00730578 0 43.5258
0.0200925 0 5.97991e-09 0 0 0 0 0.00732122 0 51.367
0.0212331 4.46939e-05 7.05721e-09 7.37267e-07 8 4.4655e-05 7.36626e-07 0.00731958 0.000805803 60.621
0.0224385 0 8.32858e-09 0 0 0 0 0.00730056 0 71.542
0.0237123 0 9.829e-09 0 0 0 0 0.00726401 0 84.4305
0.0250583 0.000282579 1.15997e-08 2.83597e-06 6 0.000282446 2.83464e-06 0.00720995 0.00236005 99.6408
0.0264808 0 1.36894e-08 0 0 0 0 0.00713857 0 117.591
0.0279841 0.000173683 1.61556e-08 1.25154e-06 24 0.000173505 1.25025e-06 0.00705021 0.00426043 138.776
0.0295727 0 1.90661e-08 0 0 0 0 0.00694538 0 163.777
0.0312514 0.000307618 2.25009e-08 1.59155e-06 24 0.00030918 1.59964e-06 0.00682475 0.00559688 193.281
0.0330255 0 2.65545e-08 0 0 0 0 0.00668915 0 228.102
0.0349003 0.000423422 3.13384e-08 1.57292e-06 12 0.000420032 1.56033e-06 0.00653951 0.00288631 269.195
0.0368815 0.000369057 3.69841e-08 1.16169e-06 30 0.000365127 1.14932e-06 0.00637693 0.00546511 317.691
0.0389751 0.000442137 4.36469e-08 1.17927e-06 24 0.000437588 1.16714e-06 0.00620256 0.00456304 374.924
0.0411876 0.000280706 5.151e-08 6.3441e-07 24 0.000278799 6.30101e-07 0.00601767 0.00253019 442.467
0.0435258 0.000599331 6.07896e-08 1.14775e-06 8 0.000599285 1.14766e-06 0.00582358 0.00157669 522.179
0.0459966 0.000775198 7.1741e-08 1.25793e-06 72 0.000769048 1.24795e-06 0.00562166 0.016111 616.251
0.0486077 0 8.46654e-08 0 0 0 0 0.0054133 0 727.27
0.051367 0.00118194 9.99181e-08 1.37708e-06 54 0.0011782 1.37273e-06 0.00519989 0.0143008 858.29
0.054283 0.000917349 1.17919e-07 9.05654e-07 60 0.000921134 9.09391e-07 0.0049828 0.0109054 1012.91
0.0573645 0.000919668 1.39162e-07 7.69344e-07 96 0.00091732 7.6738e-07 0.00476339 0.0155052 1195.39
0.060621 0.00105196 1.64232e-07 7.45673e-07 24 0.0010377 7.35571e-07 0.00454293 0.00393935 1410.75
0.0640622 0.00184006 1.93819e-07 1.10521e-06 134 0.00184112 1.10585e-06 0.00432265 0.0342611 1664.89
0.0676989 0.001732 2.28736e-07 8.81502e-07 120 0.00172414 8.77502e-07 0.00410371 0.0257767 1964.83
0.071542 0.00154214 2.69944e-07 6.65058e-07 108 0.00152555 6.57904e-07 0.00388717 0.0184778 2318.8
0.0756032 0.00219461 3.18575e-07 8.01967e-07 174 0.0021835 7.97908e-07 0.00367401 0.0379809 2736.54
0.079895 0.00230295 3.75967e-07 7.13091e-07 168 0.00228126 7.06375e-07 0.0034651 0.0345731 3229.53
0.0844305 0.0019557 4.43698e-07 5.13127e-07 168 0.00196551 5.15702e-07 0.00326121 0.0264336 3811.34
0.0892234 0.00219457 5.23632e-07 4.87902e-07 290 0.00218533 4.8585e-07 0.00306301 0.0461936 4497.96
0.0942883 0.00289797 6.17966e-07 5.45933e-07 288 0.00289021 5.44471e-07 0.00287109 0.0547628 5308.28
0.0996408 0.00272984 7.29294e-07 4.35757e-07 366 0.00270616 4.31978e-07 0.00268591 0.0593792 6264.59
0.105297 0.0030133 8.60678e-07 4.07579e-07 420 0.00299201 4.04699e-07 0.00250785 0.0682589 7393.17
0.111275 0.00322832 1.01573e-06 3.70006e-07 398 0.00321962 3.69008e-07 0.00233721 0.0630076 8725.07
0.117591 0.00383052 1.19872e-06 3.72006e-07 624 0.00383856 3.72787e-07 0.00217419 0.106767 10296.9
0.124267 0.00409593 1.41467e-06 3.3706e-07 642 0.00409206 3.36742e-07 0.00201893 0.107182 12151.9
0.131321 0.00500644 1.66953e-06 3.49096e-07 800 0.00500954 3.49313e-07 0.00187147 0.149229 14341.1
0.138776 0.00442107 1.9703e-06 2.61219e-07 858 0.00444312 2.62522e-07 0.00173182 0.129417 16924.7
0.146654 0.00469231 2.32525e-06 2.34924e-07 1080 0.00473126 2.36874e-07 0.00159991 0.158582 19973.8
0.154979 0.00567714 2.74415e-06 2.40842e-07 1286 0.00571533 2.42462e-07 0.00147563 0.209891 23572.1
0.163777 0.00565028 3.23852e-06 2.03111e-07 1650 0.00565821 2.03396e-07 0.00135884 0.246632 27818.7
0.173074 0.0068106 3.82195e-06 2.07449e-07 1778 0.00681137 2.07472e-07 0.00124933 0.295233 32830.3
0.182899 0.00653804 4.51048e-06 1.68747e-07 2112 0.00655516 1.69188e-07 0.00114689 0.310747 38744.7
0.193281 0.00734254 5.32305e-06 1.60581e-07 2570 0.00735611 1.60878e-07 0.00105127 0.392567 45724.7
0.204254 0.00786986 6.28202e-06 1.4584e-07 3030 0.00786736 1.45794e-07 0.000962209 0.459252 53962.1
0.215848 0.00801393 7.41374e-06 1.2584e-07 3434 0.00801099 1.25794e-07 0.000879423 0.491384 63683.5
0.228102 0.00871511 8.74934e-06 1.1596e-07 4218 0.00871489 1.15957e-07 0.000802624 0.6094 75156.3
0.24105 0.00985006 1.03256e-05 1.11054e-07 4766 0.00986086 1.11176e-07 0.000731515 0.723546 88695.9
0.254734 0.0100918 1.21857e-05 9.64113e-08 6026 0.0100918 9.64113e-08 0.000665798 0.872599 104675
0.269195 0.0103771 1.4381e-05 8.40031e-08 6480 0.0103721 8.3963e-08 0.000605173 0.899478 123532
0.284476 0.0114756 1.69718e-05 7.87152e-08 8162 0.0114994 7.8878e-08 0.000549345 1.16953 145787
0.300625 0.0116952 2.00293e-05 6.79754e-08 9578 0.0117114 6.80693e-08 0.000498021 1.30731 172051
0.317691 0.0126633 2.36377e-05 6.23667e-08 11234 0.0126572 6.23368e-08 0.000450916 1.55379 203046
0.335725 0.0131861 2.78961e-05 5.5028e-08 13344 0.0131802 5.50033e-08 0.000407755 1.80082 239625
0.354784 0.0138065 3.29216e-05 4.88218e-08 15464 0.0137978 4.87909e-08 0.000368269 2.05008 282795
0.374924 0.0147466 3.88525e-05 4.41857e-08 18458 0.0147452 4.41816e-08 0.000332202 2.45507 333741
0.396207 0.0153279 4.58519e-05 3.89165e-08 22232 0.0153054 3.88594e-08 0.000299307 2.89065 393865
0.418699 0.0166355 5.41123e-05 3.5789e-08 25628 0.0166037 3.57206e-08 0.00026935 3.40524 464821
0.442467 0.0171417 6.38607e-05 3.12485e-08 30320 0.0171148 3.11996e-08 0.000242108 3.91336 548560
0.467585 0.017932 7.53654e-05 2.76992e-08 35452 0.0179062 2.76593e-08 0.00021737 4.5176 647384
0.494129 0.0185189 8.89427e-05 2.4239e-08 41792 0.018514 2.42326e-08 0.000194938 5.1965 764012
0.522179 0.0199593 0.000104966 2.21364e-08 49988 0.019955 2.21316e-08 0.000174625 6.33674 901651
0.551822 0.0207849 0.000123876 1.95331e-08 59110 0.0207737 1.95226e-08 0.000156255 7.38922 1.06409e+06
0.583147 0.0217576 0.000146192 1.73259e-08 69716 0.0217331 1.73064e-08 0.000139664 8.64855 1.25578e+06
0.616251 0.0229392 0.000172529 1.54784e-08 82210 0.0229042 1.54548e-08 0.0001247 10.2043 1.48202e+06
0.651234 0.0241071 0.000203611 1.37833e-08 96722 0.0240659 1.37597e-08 0.00011122 11.9865 1.74901e+06
0.688203 0.025179 0.000240292 1.21986e-08 113098 0.0251585 1.21887e-08 9.90935e-05 13.9226 2.06409e+06
0.72727 0.0259637 0.000283581 1.06586e-08 135190 0.025938 1.0648e-08 8.81969e-05 16.3377 2.43595e+06
0.768555 0.027477 0.000334669 9.55792e-09 158170 0.0274554 9.5504e-09 7.84179e-05 19.2784 2.87479e+06
0.812184 0.028551 0.000394961 8.41544e-09 188560 0.028525 8.40778e-09 6.96525e-05 22.7819 3.39269e+06
0.85829 0.0296345 0.000466114 7.40142e-09 220444 0.0296035 7.39367e-09 6.1805e-05 26.3991 4.00389e+06
0.907013 0.0311028 0.000550086 6.58232e-09 261388 0.0310759 6.57662e-09 5.47875e-05 31.4039 4.7252e+06
0.958501 0.0322339 0.000649185 5.78035e-09 308244 0.0322002 5.77431e-09 4.85194e-05 36.7226 5.57646e+06
1.01291 0.0337411 0.000766138 5.12699e-09 364396 0.0337033 5.12124e-09 4.29272e-05 43.5215 6.58107e+06
1.07041 0.0350458 0.00090416 4.51233e-09 429162 0.035007 4.50733e-09 3.79435e-05 51.037 7.76667e+06
1.13118 0.036613 0.00106705 3.9945e-09 506358 0.0365689 3.98968e-09 3.3507e-05 60.3649 9.16586e+06
1.19539 0.0379342 0.00125928 3.50687e-09 598590 0.0378896 3.50274e-09 2.9562e-05 71.0093 1.08171e+07
1.26325 0.0395514 0.00148614 3.09822e-09 704844 0.0395057 3.09464e-09 2.60578e-05 83.8045 1.27658e+07
1.33496 0.0410558 0.00175387 2.72513e-09 834620 0.0410068 2.72188e-09 2.29484e-05 99.1111 1.50656e+07
1.41075 0.0425966 0.00206984 2.39579e-09 981444 0.0425489 2.39311e-09 2.01923e-05 116.447 1.77798e+07
1.49083 0.04418 0.00244272 2.10553e-09 1.15998e+06 0.0441274 2.10303e-09 1.77518e-05 137.584 2.09828e+07
1.57546 0.04597 0.00288279 1.8564e-09 1.36931e+06 0.0459152 1.85419e-09 1.55929e-05 163.023 2.4763e+07
1.66489 0.047715 0.00340213 1.63273e-09 1.61652e+06 0.0476529 1.63061e-09 1.3685e-05 192.863 2.92241e+07
1.75941 0.0494584 0.00401503 1.43404e-09 1.90601e+06 0.049397 1.43226e-09 1.20007e-05 227.761 3.44889e+07
1.85928 0.0512936 0.00473835 1.26022e-09 2.24913e+06 0.0512323 1.25871e-09 1.05151e-05 269.555 4.07021e+07
1.96483 0.0531724 0.00559198 1.10696e-09 2.65744e+06 0.0531064 1.10558e-09 9.20606e-06 319.537 4.80347e+07
2.07637 0.0550803 0.00659939 9.71634e-10 3.13125e+06 0.0550138 9.70461e-10 8.05366e-06 377.77 5.66883e+07
2.19424 0.0571444 0.00778828 8.54166e-10 3.69915e+06 0.057074 8.53113e-10 7.04008e-06 448.814 6.69008e+07
2.3188 0.0591789 0.00919136 7.49544e-10 4.36472e+06 0.0591038 7.48592e-10 6.1494e-06 532.012 7.89532e+07
2.45043 0.0613963 0.0108472 6.58922e-10 5.14913e+06 0.061321 6.58114e-10 5.36741e-06 632.125 9.31768e+07
2.58954 0.0636401 0.0128014 5.78741e-10 6.07894e+06 0.0635621 5.78033e-10 4.68145e-06 751.504 1.09963e+08
2.73654 0.0659773 0.0151076 5.08406e-10 7.17304e+06 0.0658957 5.07777e-10 4.08023e-06 893.776 1.29773e+08
2.89188 0.0682879 0.0178292 4.45883e-10 8.46557e+06 0.068202 4.45322e-10 3.55373e-06 1062.17 1.53152e+08
3.05605 0.0707778 0.0210412 3.91594e-10 9.98773e+06 0.070692 3.9112e-10 3.09304e-06 1264.5 1.80743e+08
3.22953 0.0734001 0.0248319 3.4411e-10 1.1797e+07 0.073308 3.43679e-10 2.69025e-06 1508.96 2.13304e+08
3.41286 0.076072 0.0293054 3.02195e-10 1.39144e+07 0.075973 3.01802e-10 2.33837e-06 1798.2 2.51731e+08
3.6066 0.0789051 0.0345848 2.65601e-10 1.64163e+07 0.0788052 2.65265e-10 2.0312e-06 2146.6 2.97081e+08
3.81134 0.0818061 0.0408154 2.33331e-10 1.93821e+07 0.0817017 2.33033e-10 1.76327e-06 2564.82 3.50601e+08
4.0277 0.0849158 0.0481684 2.05228e-10 2.28754e+07 0.0848047 2.0496e-10 1.52972e-06 3068.97 4.13763e+08
4.25634 0.0881882 0.056846 1.80601e-10 2.69929e+07 0.0880717 1.80363e-10 1.32631e-06 3675.58 4.88304e+08
4.49796 0.0916197 0.067087 1.58987e-10 3.18542e+07 0.0914962 1.58772e-10 1.14926e-06 4406.67 5.76273e+08
4.7533 0.0952528 0.0791729 1.40059e-10 3.75892e+07 0.0951241 1.3987e-10 9.95263e-07 5289.77 6.8009e+08
5.02313 0.0990291 0.0934361 1.23384e-10 4.43706e+07 0.0988927 1.23214e-10 8.61414e-07 6355.38 8.0261e+08
5.30828 0.103022 0.110269 1.08765e-10 5.23593e+07 0.10288 1.08615e-10 7.45152e-07 7642.54 9.47202e+08
5.60962 0.107299 0.130134 9.59876e-11 6.1787e+07 0.107151 9.58547e-11 6.44232e-07 9205.98 1.11784e+09
5.92807 0.111737 0.153578 8.46989e-11 7.29346e+07 0.111578 8.45787e-11 5.56685e-07 11096.9 1.31923e+09
6.26459 0.11642 0.181246 7.47771e-11 8.60651e+07 0.116253 7.46698e-11 4.80786e-07 13385.8 1.55689e+09
6.62021 0.121372 0.213898 6.60574e-11 1.01558e+08 0.121194 6.59608e-11 4.15026e-07 16164.5 1.83737e+09
6.99602 0.126595 0.252432 5.83826e-11 1.1986e+08 0.126412 5.8298e-11 3.58083e-07 19542.2 2.16837e+09
7.39317 0.132083 0.297908 5.1615e-11 1.41457e+08 0.131889 5.15391e-11 3.08803e-07 23643.8 2.55901e+09
7.81286 0.137895 0.351577 4.56601e-11 1.66936e+08 0.137691 4.55926e-11 2.66181e-07 28635.8 3.02002e+09
8.25637 0.144053 0.414914 4.04179e-11 1.97025e+08 0.143837 4.03573e-11 2.29336e-07 34723.4 3.56409e+09
8.72507 0.150678 0.489662 3.58231e-11 2.32497e+08 0.150448 3.57685e-11 1.97503e-07 42170.2 4.20617e+09
9.22037 0.157901 0.577876 3.18096e-11 2.74404e+08 0.157655 3.17601e-11 1.70014e-07 51341 4.96392e+09
9.74378 0.166062 0.681982 2.8347e-11 3.2382e+08 0.165795 2.83014e-11 1.46289e-07 62747.9 5.85818e+09
10.2969 0.175591 0.804843 2.53981e-11 3.82165e+08 0.17529 2.53545e-11 1.25822e-07 77142.6 6.91355e+09
10.8814 0.187394 0.949838 2.29677e-11 4.51027e+08 0.187043 2.29246e-11 1.08175e-07 95761.3 8.15905e+09
11.4992 0.203078 1.12095 2.10904e-11 5.32251e+08 0.202648 2.10458e-11 9.29669e-08 120746 9.62892e+09
12.1519 0.225847 1.3229 1.98746e-11 6.28157e+08 0.225274 1.98242e-11 7.98658e-08 156317 1.13636e+10
12.8418 0.251933 1.56122 1.87858e-11 3.82727e+08 0.260754 1.94436e-11 6.85852e-08 104831 1.34108e+10
13.5708 0 1.84248 0 0 0 0 5.88765e-08 0 1.58268e+10
14.3411 0 2.17441 0 0 0 0 5.05241e-08 0 1.8678e+10
15.1552 0 2.56613 0 0 0 0 4.33417e-08 0 2.20429e+10
16.0156 0 3.02843 0 0 0 0 3.71677e-08 0 2.6014e+10
16.9247 0 3.574 0 0 0 0 3.18628e-08 0 3.07005e+10
17.8855 0 4.21787 0 0 0 0 2.73063e-08 0 3.62312e+10
18.9008 0 4.97773 0 0 0 0 2.33941e-08 0 4.27584e+10
19.9738 0 5.87448 0 0 0 0 2.00364e-08 0 5.04614e+10
21.1076 0 6.93279 0 0 0 0 1.71555e-08 0 5.95522e+10
22.3058 0 8.18175 0 0 0 0 1.46847e-08 0 7.02807e+10
23.5721 0 9.65571 0 0 0 0 1.25662e-08 0 8.29419e+10
24.9102 0 11.3952 0 0 0 0 1.07504e-08 0 9.78842e+10
26.3243 0 13.4481 0 0 0 0 9.19452e-09 0 1.15518e+11
27.8187 0 15.8708 0 0 0 0 7.86182e-09 0 1.36329e+11
29.3979 0 18.73 0 0 0 0 6.72061e-09 0 1.60889e+11
31.0667 0 22.1042 0 0 0 0 5.74366e-09 0 1.89874e+11
32.8303 0 26.0864 0 0 0 0 4.90756e-09 0 2.2408e+11
34.694 0 30.7859 0 0 0 0 4.19221e-09 0 2.64449e+11
36.6634 0 36.3321 0 0 0 0 3.58032e-09 0 3.1209e+11
38.7447 0 42.8774 0 0 0 0 3.05709e-09 0 3.68314e+11
40.9442 0 50.6018 0 0 0 0 2.60976e-09 0 4.34667e+11
43.2685 0 59.7179 0 0 0 0 2.22743e-09 0 5.12973e+11
45.7247 0 70.4762 0 0 0 0 1.90073e-09 0 6.05386e+11
48.3204 0 83.1727 0 0 0 0 1.62163e-09 0 7.14448e+11
51.0634 0 98.1565 0 0 0 0 1.38326e-09 0 8.43158e+11
53.9621 0 115.84 0 0 0 0 1.1797e-09 0 9.95055e+11
57.0254 0 136.709 0 0 0 0 1.00592e-09 0 1.17432e+12
60.2626 0 161.337 0 0 0 0 8.57591e-10 0 1.38587e+12
63.6835 0 190.402 0 0 0 0 7.3101e-10 0 1.63554e+12
67.2987 0 224.704 0 0 0 0 6.23009e-10 0 1.93019e+12
71.1191 0 265.185 0 0 0 0 5.30879e-10 0 2.27792e+12
75.1563 0 312.958 0 0 0 0 4.52303e-10 0 2.68829e+12
79.4227 0 369.339 0 0 0 0 3.85299e-10 0 3.17259e+12
83.9313 0 435.876 0 0 0 0 3.28173e-10 0 3.74415e+12
88.6959 0 514.4 0 0 0 0 2.79476e-10 0 4.41866e+12
93.7309 0 607.071 0 0 0 0 2.37972e-10 0 5.2147e+12
99.0518 0 716.436 0 0 0 0 2.02605e-10 0 6.15414e+12
104.675 0 845.504 0 0 0 0 1.72471e-10 0 7.26283e+12
110.617 0 997.824 0 0 0 0 1.468e-10 0 8.57124e+12
116.896 0 1177.58 0 0 0 0 1.24935e-10 0 1.01154e+13
123.532 0 1389.73 0 0 0 0 1.06313e-10 0 1.19377e+13
130.545 0 1640.09 0 0 0 0 9.04567e-11 0 1.40883e+13
137.955 0 1935.56 0 0 0 0 7.69563e-11 0 1.66263e+13
145.787 0 2284.26 0 0 0 0 6.54636e-11 0 1.96216e+13
154.063 0 2695.77 0 0 0 0 5.56812e-11 0 2.31565e+13
162.808 0 3181.42 0 0 0 0 4.73556e-11 0 2.73282e+13
172.051 0 3754.56 0 0 0 0 4.02708e-11 0 3.22515e+13
181.818 0 4430.96 0 0 0 0 3.42426e-11 0 3.80616e+13
192.139 0 5229.21 0 0 0 0 2.91139e-11 0 4.49186e+13
203.046 0 6171.26 0 0 0 0 2.4751e-11 0 5.30108e+13
214.572 0 7283.03 0 0 0 0 2.10401e-11 0 6.25608e+13
226.753 0 8595.09 0 0 0 0 1.78839e-11 0 7.38313e+13
239.625 0 10143.5 0 0 0 0 1.51999e-11 0 8.71322e+13
253.228 0 11970.9 0 0 0 0 1.29176e-11 0 1.02829e+14
267.603 0 14127.5 0 0 0 0 1.09771e-11 0 1.21354e+14
282.795 0 16672.6 0 0 0 0 9.3274e-12 0 1.43217e+14
298.848 0 19676.2 0 0 0 0 7.925e-12 0 1.69017e+14
315.813 0 23220.9 0 0 0 0 6.73295e-12 0 1.99466e+14
333.741 0 27404.3 0 0 0 0 5.71979e-12 0 2.35401e+14
352.686 0 32341.2 0 0 0 0 4.85874e-12 0 2.77809e+14
372.707 0 38167.6 0 0 0 0 4.12703e-12 0 3.27857e+14
393.865 0 45043.5 0 0 0 0 3.50528e-12 0 3.86921e+14
416.224 0 53158.3 0 0 0 0 2.97701e-12 0 4.56626e+14
439.852 0 62734.9 0 0 0 0 2.52819e-12 0 5.38888e+14
464.821 0 74036.7 0 0 0 0 2.1469e-12 0 6.35971e+14
491.207 0 87374.6 0 0 0 0 1.82301e-12 0 7.50542e+14
519.092 0 103115 0 0 0 0 1.54789e-12 0 8.85755e+14
548.56 0 121692 0 0 0 0 1.31422e-12 0 1.04533e+15
579.7 0 143615 0 0 0 0 1.11576e-12 0 1.23364e+15
612.608 0 169488 0 0 0 0 9.47223e-13 0 1.45589e+15
647.384 0 200021 0 0 0 0 8.041e-13 0 1.71817e+15
684.134 0 236056 0 0 0 0 6.82568e-13 0 2.0277e+15
722.971 0 278582 0 0 0 0 5.79376e-13 0 2.393e+15
764.012 0 328769 0 0 0 0 4.91762e-13 0 2.8241e+15
