0.169885
200
8.92029e+08
8589934592
0.0129181 0 1.58924e-09 0 0 0 0 0.00677225 0 13.6515
0.0136515 0 1.87554e-09 0 0 0 0 0.00688819 0 16.1108
0.0144264 0 2.21343e-09 0 0 0 0 0.00699249 0 19.0132
0.0152454 0 2.61218e-09 0 0 0 0 0.00708412 0 22.4385
0.0161108 0 3.08278e-09 0 0 0 0 0.00716212 0 26.4808
0.0170254 0 3.63815e-09 0 0 0 0 0.00722559 0 31.2514
0.0179919 0 4.29357e-09 0 0 0 0 0.00727371 0 36.8815
0.0190132 0 5.06707e-09 0 0 0 0 0.00730578 0 43.5258
0.0200925 0 5.97991e-09 0 0 0 0 0.00732122 0 51.367
0.0212331 0 7.05721e-09 0 0 0 0 0.00731958 0 60.621
0.0224385 0 8.32858e-09 0 0 0 0 0.00730056 0 71.542
0.0237123 0 9.829e-09 0 0 0 0 0.00726401 0 84.4305
0.0250583 0 1.15997e-08 0 0 0 0 0.00720995 0 99.6408
0.0264808 0 1.36894e-08 0 0 0 0 0.00713857 0 117.591
0.0279841 0 1.61556e-08 0 0 0 0 0.00705021 0 138.776
0.0295727 0 1.90661e-08 0 0 0 0 0.00694538 0 163.777
0.0312514 0 2.25009e-08 0 0 0 0 0.00682475 0 193.281
0.0330255 0 2.65545e-08 0 0 0 0 0.00668915 0 228.102
0.0349003 0 3.13384e-08 0 0 0 0 0.00653951 0 269.195
0.0368815 0 3.69841e-08 0 0 0 0 0.00637693 0 317.691
0.0389751 0 4.36469e-08 0 0 0 0 0.00620256 0 374.924
0.0411876 0 5.151e-08 0 0 0 0 0.00601767 0 442.467
0.0435258 0 6.07896e-08 0 0 0 0 0.00582358 0 522.179
0.0459966 0 7.1741e-08 0 0 0 0 0.00562166 0 616.251
0.0486077 0 8.46654e-08 0 0 0 0 0.0054133 0 727.27
0.051367 0 9.99181e-08 0 0 0 0 0.00519989 0 858.29
0.054283 0 1.17919e-07 0 0 0 0 0.0049828 0 1012.91
0.0573645 0 1.39162e-07 0 0 0 0 0.00476339 0 1195.39
0.060621 0 1.64232e-07 0 0 0 0 0.00454293 0 1410.75
0.0640622 0 1.93819e-07 0 0 0 0 0.00432265 0 1664.89
0.0676989 0 2.28736e-07 0 0 0 0 0.00410371 0 1964.83
0.071542 0 2.69944e-07 0 0 0 0 0.00388717 0 2318.8
0.0756032 0 3.18575e-07 0 0 0 0 0.00367401 0 2736.54
0.079895 0 3.75967e-07 0 0 0 0 0.0034651 0 3229.53
0.0844305 0 4.43698e-07 0 0 0 0 0.00326121 0 3811.34
0.0892234 0 5.23632e-07 0 0 0 0 0.00306301 0 4497.96
0.0942883 0 6.17966e-07 0 0 0 0 0.00287109 0 5308.28
0.0996408 0 7.29294e-07 0 0 0 0 0.00268591 0 6264.59
0.105297 0 8.60678e-07 0 0 0 0 0.00250785 0 7393.17
0.111275 0 1.01573e-06 0 0 0 0 0.00233721 0 8725.07
0.117591 0 1.19872e-06 0 0 0 0 0.00217419 0 10296.9
0.124267 0 1.41467e-06 0 0 0 0 0.00201893 0 12151.9
0.131321 0 1.66953e-06 0 0 0 0 0.00187147 0 14341.1
0.138776 0 1.9703e-06 0 0 0 0 0.00173182 0 16924.7
0.146654 0 2.32525e-06 0 0 0 0 0.00159991 0 19973.8
0.154979 0 2.74415e-06 0 0 0 0 0.00147563 0 23572.1
0.163777 0 3.23852e-06 0 0 0 0 0.00135884 0 27818.7
0.173074 0 3.82195e-06 0 0 0 0 0.00124933 0 32830.3
0.182899 0 4.51048e-06 0 0 0 0 0.00114689 0 38744.7
0.193281 0 5.32305e-06 0 0 0 0 0.00105127 0 45724.7
0.204254 0 6.28202e-06 0 0 0 0 0.000962209 0 53962.1
0.215848 0 7.41374e-06 0 0 0 0 0.000879423 0 63683.5
0.228102 0 8.74934e-06 0 0 0 0 0.000802624 0 75156.3
0.24105 0 1.03256e-05 0 0 0 0 0.000731515 0 88695.9
0.254734 0 1.21857e-05 0 0 0 0 0.000665798 0 104675
0.269195 0 1.4381e-05 0 0 0 0 0.000605173 0 123532
0.284476 0 1.69718e-05 0 0 0 0 0.000549345 0 145787
0.300625 0 2.00293e-05 0 0 0 0 0.000498021 0 172051
0.317691 0 2.36377e-05 0 0 0 0 0.000450916 0 203046
0.335725 0 2.78961e-05 0 0 0 0 0.000407755 0 239625
0.354784 0 3.29216e-05 0 0 0 0 0.000368269 0 282795
0.374924 0 3.88525e-05 0 0 0 0 0.000332202 0 333741
0.396207 0.872763 4.58519e-05 2.21589e-06 6 0.848499 2.15429e-06 0.000299307 0.0444205 393865
0.418699 0 5.41123e-05 0 0 0 0 0.00026935 0 464821
0.442467 0 6.38607e-05 0 0 0 0 0.000242108 0 548560
0.467585 0 7.53654e-05 0 0 0 0 0.00021737 0 647384
0.494129 0 8.89427e-05 0 0 0 0 0.000194938 0 764012
0.522179 0 0.000104966 0 0 0 0 0.000174625 0 901651
0.551822 0 0.000123876 0 0 0 0 0.000156255 0 1.06409e+06
0.583147 5.01607 0.000146192 3.99438e-06 12 5.27944 4.2041e-06 0.000139664 0.343199 1.25578e+06
0.616251 0 0.000172529 0 0 0 0 0.0001247 0 1.48202e+06
0.651234 0 0.000203611 0 0 0 0 0.00011122 0 1.74901e+06
0.688203 23.0545 0.000240292 1.11693e-05 8 22.4809 1.08914e-05 9.90935e-05 0.901718 2.06409e+06
0.72727 0 0.000283581 0 0 0 0 8.81969e-05 0 2.43595e+06
0.768555 0 0.000334669 0 0 0 0 7.84179e-05 0 2.87479e+06
0.812184 0.478577 0.000394961 1.41061e-07 6 0.488809 1.44077e-07 6.96525e-05 0.0121513 3.39269e+06
0.85829 0 0.000466114 0 0 0 0 6.1805e-05 0 4.00389e+06
0.907013 0.181959 0.000550086 3.85082e-08 24 0.185451 3.92471e-08 5.47875e-05 0.0168688 4.7252e+06
0.958501 1.22 0.000649185 2.18776e-07 24 1.14854 2.05962e-07 4.85194e-05 0.108217 5.57646e+06
1.01291 0 0.000766138 0 0 0 0 4.29272e-05 0 6.58107e+06
1.07041 0 0.00090416 0 0 0 0 3.79435e-05 0 7.76667e+06
1.13118 1.40425 0.00106705 1.53205e-07 12 1.387 1.51323e-07 3.3507e-05 0.0548678 9.16586e+06
1.19539 1.10965 0.00125928 1.02583e-07 30 1.08677 1.00468e-07 2.9562e-05 0.104103 1.08171e+07
1.26325 6.70743 0.00148614 5.2542e-07 24 6.6065 5.17513e-07 2.60578e-05 0.483927 1.27658e+07
1.33496 18.7279 0.00175387 1.24309e-06 24 18.7691 1.24582e-06 2.29484e-05 1.30005 1.50656e+07
1.41075 6.36785 0.00206984 3.58152e-07 32 6.54485 3.68107e-07 2.01923e-05 0.567585 1.77798e+07
1.49083 0.751195 0.00244272 3.58005e-08 48 0.735181 3.50372e-08 1.77518e-05 0.096803 2.09828e+07
1.57546 0.254714 0.00288279 1.02861e-08 6 0.242545 9.79468e-09 1.55929e-05 0.003958 2.4763e+07
1.66489 0.650294 0.00340213 2.2252e-08 84 0.634016 2.1695e-08 1.3685e-05 0.136585 2.92241e+07
1.75941 2.64191 0.00401503 7.66018e-08 48 2.6554 7.6993e-08 1.20007e-05 0.30639 3.44889e+07
1.85928 0.458628 0.00473835 1.12679e-08 72 0.460545 1.1315e-08 1.05151e-05 0.0771548 4.07021e+07
1.96483 1.02277 0.00559198 2.12923e-08 54 0.996212 2.07394e-08 9.20606e-06 0.124894 4.80347e+07
2.07637 8.74004 0.00659939 1.54177e-07 104 8.72304 1.53877e-07 8.05366e-06 1.99095 5.66883e+07
2.19424 0.570749 0.00778828 8.53127e-09 120 0.575216 8.59804e-09 7.04008e-06 0.145418 6.69008e+07
2.3188 2.0999 0.00919136 2.65968e-08 156 2.00369 2.53782e-08 6.1494e-06 0.674716 7.89532e+07
2.45043 1.17136 0.0108472 1.25714e-08 126 1.15772 1.2425e-08 5.36741e-06 0.295113 9.31768e+07
2.58954 1.02658 0.0128014 9.33568e-09 192 1.03874 9.4463e-09 4.68145e-06 0.382884 1.09963e+08
2.73654 5.00388 0.0151076 3.85587e-08 152 5.17419 3.98711e-08 4.08023e-06 1.43642 1.29773e+08
2.89188 4.08217 0.0178292 2.66544e-08 378 4.16437 2.71911e-08 3.55373e-06 2.83514 1.53152e+08
3.05605 1.54626 0.0210412 8.55502e-09 264 1.51699 8.39308e-09 3.09304e-06 0.730197 1.80743e+08
3.22953 0.589423 0.0248319 2.7633e-09 366 0.584224 2.73893e-09 2.69025e-06 0.375938 2.13304e+08
3.41286 0.981096 0.0293054 3.8974e-09 428 0.948945 3.76968e-09 2.33837e-06 0.713353 2.51731e+08
3.6066 3.37316 0.0345848 1.13543e-08 486 3.26962 1.10058e-08 2.0312e-06 2.71672 2.97081e+08
3.81134 1.18979 0.0408154 3.39357e-09 600 1.18803 3.38856e-09 1.76327e-06 1.15476 3.50601e+08
4.0277 1.09924 0.0481684 2.65668e-09 738 1.07824 2.60594e-09 1.52972e-06 1.28169 4.13763e+08
4.25634 1.75217 0.056846 3.58828e-09 824 1.79454 3.67505e-09 1.32631e-06 2.2293 4.88304e+08
4.49796 3.11704 0.067087 5.40897e-09 954 3.1316 5.43424e-09 1.14926e-06 4.48999 5.76273e+08
4.7533 1.12679 0.0791729 1.65682e-09 1094 1.11591 1.64083e-09 9.95263e-07 1.82119 6.8009e+08
5.02313 1.05863 0.0934361 1.31898e-09 1332 1.0584 1.3187e-09 8.61414e-07 2.03953 8.0261e+08
5.30828 2.90814 0.110269 3.07024e-09 1614 2.93248 3.09594e-09 7.45152e-07 6.65014 9.47202e+08
5.60962 1.87224 0.130134 1.67487e-09 1850 1.83818 1.6444e-09 6.44232e-07 4.80962 1.11784e+09
5.92807 2.25023 0.153578 1.70572e-09 2238 2.19388 1.663e-09 5.56685e-07 6.85739 1.31923e+09
6.26459 1.58571 0.181246 1.01851e-09 2546 1.6013 1.02852e-09 4.80786e-07 5.39351 1.55689e+09
6.62021 1.29007 0.213898 7.0213e-10 3264 1.28897 7.01532e-10 4.15026e-07 5.52196 1.83737e+09
6.99602 2.53594 0.252432 1.16951e-09 3506 2.58245 1.19096e-09 3.58083e-07 11.4507 2.16837e+09
7.39317 1.93445 0.297908 7.55938e-10 4506 1.94175 7.5879e-10 3.08803e-07 11.0305 2.55901e+09
7.81286 2.46551 0.351577 8.16389e-10 5018 2.49379 8.25753e-10 2.66181e-07 15.3904 3.02002e+09
8.25637 2.41949 0.414914 6.78854e-10 5852 2.38552 6.69321e-10 2.29336e-07 17.3224 3.56409e+09
8.72507 2.41201 0.489662 5.73446e-10 7362 2.40323 5.7136e-10 1.97503e-07 21.3754 4.20617e+09
9.22037 2.61467 0.577876 5.26736e-10 8306 2.59861 5.235e-10 1.70014e-07 25.7335 4.96392e+09
9.74378 2.29874 0.681982 3.92398e-10 9698 2.29814 3.92296e-10 1.46289e-07 26.0134 5.85818e+09
10.2969 3.13029 0.804843 4.52777e-10 11816 3.14336 4.54667e-10 1.25822e-07 42.5203 6.91355e+09
10.8814 3.17182 0.949838 3.88748e-10 13682 3.17143 3.88701e-10 1.08175e-07 49.1688 8.15905e+09
11.4992 3.4383 1.12095 3.57081e-10 16152 3.42165 3.55351e-10 9.29669e-08 62.039 9.62892e+09
12.1519 3.61353 1.3229 3.17992e-10 19472 3.58861 3.15798e-10 7.98658e-08 77.5294 1.13636e+10
12.8418 3.54866 1.56122 2.64613e-10 22670 3.5435 2.64228e-10 6.85852e-08 87.4645 1.34108e+10
13.5708 4.23495 1.84248 2.67581e-10 26224 4.23678 2.67697e-10 5.88765e-08 119.183 1.58268e+10
14.3411 4.49485 2.17441 2.4065e-10 31640 4.50055 2.40954e-10 5.05241e-08 150.703 1.8678e+10
15.1552 4.97457 2.56613 2.25677e-10 37484 4.96847 2.254e-10 4.33417e-08 195.176 2.20429e+10
16.0156 5.37947 3.02843 2.06791e-10 43856 5.3794 2.06789e-10 3.71677e-08 244.003 2.6014e+10
16.9247 6.35184 3.574 2.06897e-10 51362 6.33966 2.06501e-10 3.18628e-08 333.513 3.07005e+10
17.8855 6.72911 4.21787 1.85727e-10 61636 6.70932 1.8518e-10 2.73063e-08 419.224 3.62312e+10
18.9008 7.6891 4.97773 1.79827e-10 72218 7.66945 1.79367e-10 2.33941e-08 555.127 4.27584e+10
19.9738 8.67423 5.87448 1.71898e-10 84586 8.64853 1.71389e-10 2.00364e-08 725.688 5.04614e+10
21.1076 9.53596 6.93279 1.60128e-10 100708 9.51394 1.59758e-10 1.71555e-08 939.997 5.95522e+10
22.3058 10.7057 8.18175 1.52327e-10 118712 10.6828 1.52002e-10 1.46847e-08 1231.42 7.02807e+10
23.5721 11.9188 9.65571 1.43701e-10 140410 11.8863 1.43309e-10 1.25662e-08 1605.66 8.29419e+10
24.9102 13.327 11.3952 1.36151e-10 164374 13.2893 1.35766e-10 1.07504e-08 2081.76 9.78842e+10
26.3243 14.8895 13.4481 1.28893e-10 194680 14.8546 1.28591e-10 9.19452e-09 2729.12 1.15518e+11
27.8187 16.4542 15.8708 1.20695e-10 230196 16.4118 1.20384e-10 7.86182e-09 3533.98 1.36329e+11
29.3979 18.3235 18.73 1.13889e-10 271156 18.2767 1.13598e-10 6.72061e-09 4595.08 1.60889e+11
31.0667 20.4296 22.1042 1.07595e-10 321076 20.3782 1.07325e-10 5.74366e-09 6014.69 1.89874e+11
32.8303 22.7565 26.0864 1.01555e-10 377436 22.6996 1.01301e-10 4.90756e-09 7810.52 2.2408e+11
34.694 25.6152 30.7859 9.68626e-11 447594 25.5442 9.65941e-11 4.19221e-09 10341.8 2.64449e+11
36.6634 28.8528 36.3321 9.24503e-11 525078 28.7767 9.22064e-11 3.58032e-09 13558.4 3.1209e+11
38.7447 32.546 42.8774 8.83649e-11 621924 32.455 8.81177e-11 3.05709e-09 17976.7 3.68314e+11
40.9442 36.8883 50.6018 8.48658e-11 732630 36.7901 8.46398e-11 2.60976e-09 23824.1 4.34667e+11
43.2685 41.9439 59.7179 8.17663e-11 865596 41.8244 8.15334e-11 2.22743e-09 31775 5.12973e+11
45.7247 47.6173 70.4762 7.8656e-11 1.02168e+06 47.481 7.84309e-11 1.90073e-09 42278.9 6.05386e+11
48.3204 54.4972 83.1727 7.62787e-11 1.20544e+06 54.3427 7.60625e-11 1.62163e-09 56701.6 7.14448e+11
51.0634 62.2471 98.1565 7.38262e-11 1.42103e+06 62.0673 7.36129e-11 1.38326e-09 75842.2 8.43158e+11
53.9621 71.5796 115.84 7.19353e-11 1.67997e+06 71.3736 7.17283e-11 1.1797e-09 102440 9.95055e+11
57.0254 82.3577 136.709 7.01325e-11 1.98018e+06 82.1224 6.9932e-11 1.00592e-09 138058 1.17432e+12
60.2626 95.1359 161.337 6.86469e-11 2.33957e+06 94.8494 6.84401e-11 8.57591e-10 187273 1.38587e+12
63.6835 110.081 190.402 6.73057e-11 2.75676e+06 109.74 6.70968e-11 7.3101e-10 253822 1.63554e+12
67.2987 127.663 224.704 6.61404e-11 3.25638e+06 127.272 6.59377e-11 6.23009e-10 345706 1.93019e+12
71.1191 148.264 265.185 6.50876e-11 3.84387e+06 147.804 6.48854e-11 5.30879e-10 471272 2.27792e+12
75.1563 176.027 312.958 6.54791e-11 4.53277e+06 175.25 6.519e-11 4.52303e-10 656200 2.68829e+12
79.4227 201.849 369.339 6.36226e-11 5.35083e+06 201.234 6.34289e-11 3.85299e-10 883556 3.17259e+12
83.9313 236.006 435.876 6.30333e-11 6.32174e+06 235.25 6.28314e-11 3.28173e-10 1.21424e+06 3.74415e+12
88.6959 276.422 514.4 6.25579e-11 7.44986e+06 275.541 6.23583e-11 2.79476e-10 1.66758e+06 4.41866e+12
93.7309 324.237 607.071 6.21775e-11 8.79764e+06 323.207 6.19799e-11 2.37972e-10 2.29865e+06 5.2147e+12
99.0518 380.246 716.436 6.1787e-11 1.03827e+07 379.025 6.15886e-11 2.02605e-10 3.16634e+06 6.15414e+12
104.675 457.226 845.504 6.29543e-11 1.22515e+07 456.266 6.28221e-11 1.72471e-10 4.47198e+06 7.26283e+12
110.617 525.948 997.824 6.13619e-11 1.44573e+07 524.23 6.11615e-11 1.468e-10 6.04311e+06 8.57124e+12
116.896 619.188 1177.58 6.12126e-11 1.70664e+07 617.179 6.1014e-11 1.24935e-10 8.36179e+06 1.01154e+13
123.532 728.801 1389.73 6.10504e-11 2.0139e+07 726.405 6.08497e-11 1.06313e-10 1.15648e+07 1.19377e+13
130.545 861.014 1640.09 6.11155e-11 2.37643e+07 858.251 6.09194e-11 9.04567e-11 1.60559e+07 1.40883e+13
137.955 1012.56 1935.56 6.0901e-11 2.80503e+07 1009.22 6.07003e-11 7.69563e-11 2.21982e+07 1.66263e+13
145.787 1193.46 2284.26 6.08237e-11 3.30981e+07 1189.53 6.06234e-11 6.54636e-11 3.07522e+07 1.96216e+13
154.063 1407.77 2695.77 6.07939e-11 3.90634e+07 1403.1 6.05919e-11 5.56812e-11 4.26503e+07 2.31565e+13
162.808 1660.19 3181.42 6.07499e-11 4.61057e+07 1654.69 6.05487e-11 4.73556e-11 5.91464e+07 2.73282e+13
172.051 1959.51 3754.56 6.07572e-11 5.44046e+07 1952.96 6.0554e-11 4.02708e-11 8.2081e+07 3.22515e+13
181.818 2315.16 4430.96 6.08265e-11 6.42064e+07 2307.4 6.06228e-11 3.42426e-11 1.14052e+08 3.80616e+13
192.139 2735.56 5229.21 6.09004e-11 7.57748e+07 2726.36 6.06955e-11 2.91139e-11 1.58506e+08 4.49186e+13
203.046 3235.97 6171.26 6.10436e-11 8.94213e+07 3225.03 6.08374e-11 2.4751e-11 2.2054e+08 5.30108e+13
214.572 3827.93 7283.03 6.11873e-11 1.05538e+08 3815.02 6.09811e-11 2.10401e-11 3.06919e+08 6.25608e+13
226.753 4536.44 8595.09 6.14434e-11 1.24552e+08 4520.97 6.12338e-11 1.78839e-11 4.2792e+08 7.38313e+13
239.625 5378.49 10143.5 6.1728e-11 1.46987e+08 5360.1 6.15169e-11 1.51999e-11 5.96926e+08 8.71322e+13
253.228 6390.44 11970.9 6.21461e-11 1.7347e+08 6368.39 6.19317e-11 1.29176e-11 8.34557e+08 1.02829e+14
267.603 7605.88 14127.5 6.2675e-11 2.04703e+08 7579.45 6.24573e-11 1.09771e-11 1.16877e+09 1.21354e+14
282.795 9081.07 16672.6 6.3408e-11 2.4161e+08 9049.05 6.31844e-11 9.3274e-12 1.64247e+09 1.43217e+14
298.848 10885.1 19676.2 6.44021e-11 2.85122e+08 10846 6.4171e-11 7.925e-12 2.31703e+09 1.69017e+14
315.813 13123.1 23220.9 6.57913e-11 3.36491e+08 13075.1 6.55505e-11 6.73295e-12 3.28804e+09 1.99466e+14
333.741 15933.4 27404.3 6.76861e-11 3.97115e+08 15872.8 6.74288e-11 5.71979e-12 4.69932e+09 2.35401e+14
352.686 19560.5 32341.2 7.04099e-11 4.68637e+08 19482.8 7.01302e-11 4.85874e-12 6.79121e+09 2.77809e+14
372.707 24370.3 38167.6 7.43321e-11 5.53074e+08 24267.7 7.40192e-11 4.12703e-12 9.96144e+09 3.27857e+14
393.865 31014.2 45043.5 8.01565e-11 6.52716e+08 30873.5 7.97927e-11 3.50528e-12 1.49259e+10 3.86921e+14
416.224 36602.1 53158.3 8.01577e-11 2.2184e+08 38721.6 8.47994e-11 2.97701e-12 5.97317e+09 4.56626e+14
439.852 0 62734.9 0 0 0 0 2.52819e-12 0 5.38888e+14
464.821 0 74036.7 0 0 0 0 2.1469e-12 0 6.35971e+14
491.207 0 87374.6 0 0 0 0 1.82301e-12 0 7.50542e+14
519.092 0 103115 0 0 0 0 1.54789e-12 0 8.85755e+14
548.56 0 121692 0 0 0 0 1.31422e-12 0 1.04533e+15
579.7 0 143615 0 0 0 0 1.11576e-12 0 1.23364e+15
612.608 0 169488 0 0 0 0 9.47223e-13 0 1.45589e+15
647.384 0 200021 0 0 0 0 8.041e-13 0 1.71817e+15
684.134 0 236056 0 0 0 0 6.82568e-13 0 2.0277e+15
722.971 0 278582 0 0 0 0 5.79376e-13 0 2.393e+15
764.012 0 328769 0 0 0 0 4.91762e-13 0 2.8241e+15
0.169885
200
8.92029e+08
8589934592
0.0129181 0.000124009 1.58924e-09 9.08396e-06 6 0.000122874 9.0008e-06 0.00677225 0.0080481 13.6515
0.0136515 0 1.87554e-09 0 0 0 0 0.00688819 0 16.1108
0.0144264 0 2.21343e-09 0 0 0 0 0.00699249 0 19.0132
0.0152454 0 2.61218e-09 0 0 0 0 0.00708412 0 22.4385
0.0161108 0 3.08278e-09 0 0 0 0 0.00716212 0 26.4808
0.0170254 0 3.63815e-09 0 0 0 0 0.00722559 0 31.2514
0.0179919 0.000267446 4.29357e-09 7.25151e-06 12 0.000267102 7.24217e-06 0.00727371 0.0119634 36.8815
0.0190132 0 5.06707e-09 0 0 0 0 0.00730578 0 43.5258
0.0200925 0 5.97991e-09 0 0 0 0 0.00732122 0 51.367
0.0212331 0.000247232 7.05721e-09 4.07833e-06 8 0.000247017 4.07478e-06 0.00731958 0.00445744 60.621
0.0224385 0 8.32858e-09 0 0 0 0 0.00730056 0 71.542
0.0237123 0 9.829e-09 0 0 0 0 0.00726401 0 84.4305
0.0250583 0.00155822 1.15997e-08 1.56384e-05 6 0.00155749 1.5631e-05 0.00720995 0.013014 99.6408
0.0264808 0 1.36894e-08 0 0 0 0 0.00713857 0 117.591
0.0279841 0.000954985 1.61556e-08 6.88149e-06 24 0.000954004 6.87443e-06 0.00705021 0.0234257 138.776
0.0295727 0 1.90661e-08 0 0 0 0 0.00694538 0 163.777
0.0312514 0.00169076 2.25009e-08 8.74768e-06 24 0.00169935 8.79209e-06 0.00682475 0.0307622 193.281
0.0330255 0 2.65545e-08 0 0 0 0 0.00668915 0 228.102
0.0349003 0.00236558 3.13384e-08 8.78763e-06 12 0.00234664 8.71726e-06 0.00653951 0.0161253 269.195
0.0368815 0.00203046 3.69841e-08 6.39132e-06 30 0.00200884 6.32326e-06 0.00637693 0.0300677 317.691
0.0389751 0.00241069 4.36469e-08 6.42981e-06 24 0.00238589 6.36366e-06 0.00620256 0.0248793 374.924
0.0411876 0.00153231 5.151e-08 3.4631e-06 24 0.0015219 3.43958e-06 0.00601767 0.0138117 442.467
0.0435258 0.0033662 6.07896e-08 6.44645e-06 8 0.00336594 6.44596e-06 0.00582358 0.00885565 522.179
0.0459966 0.00431691 7.1741e-08 7.00512e-06 72 0.00428269 6.94959e-06 0.00562166 0.0897188 616.251
0.0486077 0 8.46654e-08 0 0 0 0 0.0054133 0 727.27
0.051367 0.00647617 9.99181e-08 7.54543e-06 54 0.0064555 7.52135e-06 0.00519989 0.0783581 858.29
0.054283 0.00506289 1.17919e-07 4.99834e-06 60 0.00508413 5.01932e-06 0.0049828 0.0601871 1012.91
0.0573645 0.00501538 1.39162e-07 4.19559e-06 96 0.00500257 4.18487e-06 0.00476339 0.0845569 1195.39
0.060621 0.00576449 1.64232e-07 4.08613e-06 24 0.00568639 4.03077e-06 0.00454293 0.0215868 1410.75
0.0640622 0.0100678 1.93819e-07 6.0471e-06 134 0.0100736 6.05057e-06 0.00432265 0.187457 1664.89
0.0676989 0.0095015 2.28736e-07 4.83579e-06 120 0.00945797 4.81363e-06 0.00410371 0.141407 1964.83
0.071542 0.00851128 2.69944e-07 3.67055e-06 108 0.00841955 3.63099e-06 0.00388717 0.101982 2318.8
0.0756032 0.0121621 3.18575e-07 4.44433e-06 174 0.0120996 4.42148e-06 0.00367401 0.210482 2736.54
0.079895 0.0126968 3.75967e-07 3.93146e-06 168 0.0125775 3.89453e-06 0.0034651 0.190611 3229.53
0.0844305 0.0107327 4.43698e-07 2.816e-06 168 0.0107867 2.83015e-06 0.00326121 0.145065 3811.34
0.0892234 0.0121082 5.23632e-07 2.69193e-06 290 0.0120567 2.68047e-06 0.00306301 0.254867 4497.96
0.0942883 0.0158808 6.17966e-07 2.9917e-06 288 0.0158392 2.98387e-06 0.00287109 0.300099 5308.28
0.0996408 0.0148032 7.29294e-07 2.36299e-06 366 0.0146768 2.34281e-06 0.00268591 0.321997 6264.59
0.105297 0.0165821 8.60678e-07 2.2429e-06 420 0.0164648 2.22703e-06 0.00250785 0.375627 7393.17
0.111275 0.0178503 1.01573e-06 2.04587e-06 398 0.0177996 2.04006e-06 0.00233721 0.348387 8725.07
0.117591 0.0211923 1.19872e-06 2.05812e-06 624 0.0212375 2.06251e-06 0.00217419 0.590687 10296.9
0.124267 0.0228849 1.41467e-06 1.88323e-06 642 0.0228592 1.88112e-06 0.00201893 0.598851 12151.9
0.131321 0.0278522 1.66953e-06 1.94212e-06 800 0.0278696 1.94334e-06 0.00187147 0.830203 14341.1
0.138776 0.0243547 1.9703e-06 1.439e-06 858 0.0244746 1.44609e-06 0.00173182 0.712929 16924.7
0.146654 0.0261842 2.32525e-06 1.31093e-06 1080 0.0264026 1.32186e-06 0.00159991 0.884929 19973.8
0.154979 0.0318118 2.74415e-06 1.34955e-06 1286 0.0320232 1.35852e-06 0.00147563 1.17612 23572.1
0.163777 0.0313988 3.23852e-06 1.1287e-06 1650 0.031447 1.13043e-06 0.00135884 1.37054 27818.7
0.173074 0.0377887 3.82195e-06 1.15103e-06 1778 0.0377935 1.15118e-06 0.00124933 1.6381 32830.3
0.182899 0.0361657 4.51048e-06 9.33436e-07 2112 0.0362642 9.35978e-07 0.00114689 1.71892 38744.7
0.193281 0.0404929 5.32305e-06 8.85581e-07 2570 0.0405637 8.87129e-07 0.00105127 2.16494 45724.7
0.204254 0.0442298 6.28202e-06 8.19645e-07 3030 0.0442088 8.19256e-07 0.000962209 2.58106 53962.1
0.215848 0.0449558 7.41374e-06 7.05925e-07 3434 0.0449327 7.05562e-07 0.000879423 2.75652 63683.5
0.228102 0.048661 8.74934e-06 6.47464e-07 4218 0.048665 6.47518e-07 0.000802624 3.40259 75156.3
0.24105 0.0548559 1.03256e-05 6.18471e-07 4766 0.0549185 6.19178e-07 0.000731515 4.02949 88695.9
0.254734 0.0569112 1.21857e-05 5.43696e-07 6026 0.0569107 5.43691e-07 0.000665798 4.92088 104675
0.269195 0.0589889 1.4381e-05 4.77519e-07 6480 0.0589526 4.77224e-07 0.000605173 5.11312 123532
0.284476 0.0655728 1.69718e-05 4.49785e-07 8162 0.06571 4.50726e-07 0.000549345 6.68278 145787
0.300625 0.0667252 2.00293e-05 3.87823e-07 9578 0.0668139 3.88338e-07 0.000498021 7.45867 172051
0.317691 0.0729747 2.36377e-05 3.594e-07 11234 0.0729279 3.59169e-07 0.000450916 8.95398 203046
0.335725 0.0761245 2.78961e-05 3.17681e-07 13344 0.0760746 3.17473e-07 0.000407755 10.3963 239625
0.354784 0.0801734 3.29216e-05 2.83504e-07 15464 0.0801208 2.83318e-07 0.000368269 11.9046 282795
0.374924 0.0856731 3.88525e-05 2.56706e-07 18458 0.0856743 2.56709e-07 0.000332202 14.2632 333741
0.396207 0.0897087 4.58519e-05 2.27765e-07 22232 0.0895809 2.27441e-07 0.000299307 16.918 393865
0.418699 0.0974953 5.41123e-05 2.09748e-07 25628 0.0972785 2.09282e-07 0.00026935 19.9571 464821
0.442467 0.102242 6.38607e-05 1.86382e-07 30320 0.102056 1.86043e-07 0.000242108 23.3413 548560
0.467585 0.106863 7.53654e-05 1.6507e-07 35452 0.106711 1.64833e-07 0.00021737 26.922 647384
0.494129 0.111855 8.89427e-05 1.46405e-07 41792 0.11181 1.46346e-07 0.000194938 31.3872 764012
0.522179 0.120677 0.000104966 1.3384e-07 49988 0.120641 1.338e-07 0.000174625 38.313 901651
0.551822 0.1266 0.000123876 1.18975e-07 59110 0.126514 1.18895e-07 0.000156255 45.0074 1.06409e+06
0.583147 0.134433 0.000146192 1.07051e-07 69716 0.134259 1.06913e-07 0.000139664 53.4366 1.25578e+06
0.616251 0.142138 0.000172529 9.59084e-08 82210 0.141906 9.57521e-08 0.0001247 63.2288 1.48202e+06
0.651234 0.15094 0.000203611 8.63006e-08 96722 0.150655 8.61373e-08 0.00011122 75.0506 1.74901e+06
0.688203 0.159525 0.000240292 7.72856e-08 113098 0.159364 7.72079e-08 9.90935e-05 88.2081 2.06409e+06
0.72727 0.167352 0.000283581 6.87012e-08 135190 0.167177 6.86293e-08 8.81969e-05 105.307 2.43595e+06
0.768555 0.178052 0.000334669 6.19357e-08 158170 0.177883 6.18771e-08 7.84179e-05 124.925 2.87479e+06
0.812184 0.187375 0.000394961 5.5229e-08 188560 0.187182 5.5172e-08 6.96525e-05 149.513 3.39269e+06
0.85829 0.197879 0.000466114 4.94216e-08 220444 0.197641 4.93623e-08 6.1805e-05 176.275 4.00389e+06
0.907013 0.208654 0.000550086 4.41576e-08 261388 0.208433 4.4111e-08 5.47875e-05 210.674 4.7252e+06
0.958501 0.221263 0.000649185 3.9678e-08 308244 0.221019 3.96343e-08 4.85194e-05 252.075 5.57646e+06
1.01291 0.235039 0.000766138 3.57143e-08 364396 0.234765 3.56727e-08 4.29272e-05 303.168 6.58107e+06
1.07041 0.247528 0.00090416 3.18705e-08 429162 0.247198 3.1828e-08 3.79435e-05 360.474 7.76667e+06
1.13118 0.263072 0.00106705 2.87013e-08 506358 0.262746 2.86657e-08 3.3507e-05 433.734 9.16586e+06
1.19539 0.278263 0.00125928 2.57243e-08 598590 0.277878 2.56887e-08 2.9562e-05 520.882 1.08171e+07
1.26325 0.294545 0.00148614 2.30729e-08 704844 0.294151 2.30421e-08 2.60578e-05 624.104 1.27658e+07
1.33496 0.311224 0.00175387 2.06579e-08 834620 0.310778 2.06283e-08 2.29484e-05 751.313 1.50656e+07
1.41075 0.330102 0.00206984 1.85662e-08 981444 0.329653 1.85409e-08 2.01923e-05 902.406 1.77798e+07
1.49083 0.349847 0.00244272 1.6673e-08 1.15998e+06 0.349376 1.66506e-08 1.77518e-05 1089.49 2.09828e+07
1.57546 0.372119 0.00288279 1.50273e-08 1.36931e+06 0.37158 1.50055e-08 1.55929e-05 1319.64 2.4763e+07
1.66489 0.395243 0.00340213 1.35246e-08 1.61652e+06 0.394643 1.3504e-08 1.3685e-05 1597.57 2.92241e+07
1.75941 0.419755 0.00401503 1.21708e-08 1.90601e+06 0.419122 1.21524e-08 1.20007e-05 1933.02 3.44889e+07
1.85928 0.446896 0.00473835 1.09797e-08 2.24913e+06 0.446236 1.09635e-08 1.05151e-05 2348.49 4.07021e+07
1.96483 0.474757 0.00559198 9.88363e-09 2.65744e+06 0.473988 9.86761e-09 9.20606e-06 2853.03 4.80347e+07
2.07637 0.506214 0.00659939 8.92977e-09 3.13125e+06 0.505438 8.91608e-09 8.05366e-06 3471.88 5.66883e+07
2.19424 0.5398 0.00778828 8.06866e-09 3.69915e+06 0.539001 8.05672e-09 7.04008e-06 4239.61 6.69008e+07
2.3188 0.575908 0.00919136 7.29429e-09 4.36472e+06 0.575009 7.2829e-09 6.1494e-06 5177.35 7.89532e+07
2.45043 0.615179 0.0108472 6.60227e-09 5.14913e+06 0.614192 6.59168e-09 5.36741e-06 6333.77 9.31768e+07
2.58954 0.659335 0.0128014 5.99598e-09 6.07894e+06 0.658261 5.98621e-09 4.68145e-06 7785.87 1.09963e+08
2.73654 0.70513 0.0151076 5.43357e-09 7.17304e+06 0.703987 5.42475e-09 4.08023e-06 9552.2 1.29773e+08
2.89188 0.756411 0.0178292 4.93896e-09 8.46557e+06 0.755162 4.9308e-09 3.55373e-06 11765.4 1.53152e+08
3.05605 0.812144 0.0210412 4.49337e-09 9.98773e+06 0.81084 4.48616e-09 3.09304e-06 14509.5 1.80743e+08
3.22953 0.872298 0.0248319 4.08946e-09 1.1797e+07 0.870804 4.08246e-09 2.69025e-06 17932.7 2.13304e+08
3.41286 0.938443 0.0293054 3.72795e-09 1.39144e+07 0.936811 3.72147e-09 2.33837e-06 22183 2.51731e+08
3.6066 1.01147 0.0345848 3.40469e-09 1.64163e+07 1.00971 3.39876e-09 2.0312e-06 27516.9 2.97081e+08
3.81134 1.09076 0.0408154 3.1111e-09 1.93821e+07 1.08886 3.10569e-09 1.76327e-06 34197.8 3.50601e+08
4.0277 1.17814 0.0481684 2.84739e-09 2.28754e+07 1.17606 2.84235e-09 1.52972e-06 42579.7 4.13763e+08
4.25634 1.27359 0.056846 2.6082e-09 2.69929e+07 1.27129 2.60349e-09 1.32631e-06 53081.9 4.88304e+08
4.49796 1.37902 0.067087 2.39301e-09 3.18542e+07 1.37648 2.38859e-09 1.14926e-06 66327.5 5.76273e+08
4.7533 1.49468 0.0791729 2.19777e-09 3.75892e+07 1.49189 2.19367e-09 9.95263e-07 83005.6 6.8009e+08
5.02313 1.62128 0.0934361 2.02001e-09 4.43706e+07 1.61826 2.01625e-09 8.61414e-07 104049 8.0261e+08
5.30828 1.76113 0.110269 1.85929e-09 5.23593e+07 1.75778 1.85576e-09 7.45152e-07 130646 9.47202e+08
5.60962 1.91347 0.130134 1.71175e-09 6.1787e+07 1.90978 1.70845e-09 6.44232e-07 164171 1.11784e+09
5.92807 2.08211 0.153578 1.57828e-09 7.29346e+07 2.07806 1.57522e-09 5.56685e-07 206780 1.31923e+09
6.26459 2.26721 0.181246 1.45625e-09 8.60651e+07 2.26272 1.45336e-09 4.80786e-07 260681 1.55689e+09
6.62021 2.47252 0.213898 1.34569e-09 1.01558e+08 2.46759 1.34301e-09 4.15026e-07 329295 1.83737e+09
6.99602 2.69846 0.252432 1.24447e-09 1.1986e+08 2.69306 1.24198e-09 3.58083e-07 416556 2.16837e+09
7.39317 2.94777 0.297908 1.15192e-09 1.41457e+08 2.94178 1.14958e-09 3.08803e-07 527670 2.55901e+09
7.81286 3.22365 0.351577 1.06743e-09 1.66936e+08 3.21704 1.06524e-09 2.66181e-07 669438 3.02002e+09
8.25637 3.53076 0.414914 9.90649e-10 1.97025e+08 3.52341 9.88585e-10 2.29336e-07 851077 3.56409e+09
8.72507 3.87417 0.489662 9.21068e-10 2.32497e+08 3.86594 9.19111e-10 1.97503e-07 1.08426e+06 4.20617e+09
9.22037 4.26035 0.577876 8.58264e-10 2.74404e+08 4.25117 8.56413e-10 1.70014e-07 1.38524e+06 4.96392e+09
9.74378 4.70298 0.681982 8.02806e-10 3.2382e+08 4.69252 8.01019e-10 1.46289e-07 1.77706e+06 5.85818e+09
10.2969 5.2193 0.804843 7.54937e-10 3.82165e+08 5.20727 7.53197e-10 1.25822e-07 2.293e+06 6.91355e+09
10.8814 5.84133 0.949838 7.15933e-10 4.51027e+08 5.82694 7.1417e-10 1.08175e-07 2.98501e+06 8.15905e+09
11.4992 6.62869 1.12095 6.88414e-10 5.32251e+08 6.61092 6.86569e-10 9.29669e-08 3.94129e+06 9.62892e+09
12.1519 7.69935 1.3229 6.77545e-10 6.28157e+08 7.67587 6.75479e-10 7.98658e-08 5.329e+06 1.13636e+10
12.8418 8.83664 1.56122 6.58921e-10 3.82727e+08 9.14491 6.81907e-10 6.85852e-08 3.67698e+06 1.34108e+10
13.5708 0 1.84248 0 0 0 0 5.88765e-08 0 1.58268e+10
14.3411 0 2.17441 0 0 0 0 5.05241e-08 0 1.8678e+10
15.1552 0 2.56613 0 0 0 0 4.33417e-08 0 2.20429e+10
16.0156 0 3.02843 0 0 0 0 3.71677e-08 0 2.6014e+10
16.9247 0 3.574 0 0 0 0 3.18628e-08 0 3.07005e+10
17.8855 0 4.21787 0 0 0 0 2.73063e-08 0 3.62312e+10
18.9008 0 4.97773 0 0 0 0 2.33941e-08 0 4.27584e+10
19.9738 0 5.87448 0 0 0 0 2.00364e-08 0 5.04614e+10
21.1076 0 6.93279 0 0 0 0 1.71555e-08 0 5.95522e+10
22.3058 0 8.18175 0 0 0 0 1.46847e-08 0 7.02807e+10
23.5721 0 9.65571 0 0 0 0 1.25662e-08 0 8.29419e+10
24.9102 0 11.3952 0 0 0 0 1.07504e-08 0 9.78842e+10
26.3243 0 13.4481 0 0 0 0 9.19452e-09 0 1.15518e+11
27.8187 0 15.8708 0 0 0 0 7.86182e-09 0 1.36329e+11
29.3979 0 18.73 0 0 0 0 6.72061e-09 0 1.60889e+11
31.0667 0 22.1042 0 0 0 0 5.74366e-09 0 1.89874e+11
32.8303 0 26.0864 0 0 0 0 4.90756e-09 0 2.2408e+11
34.694 0 30.7859 0 0 0 0 4.19221e-09 0 2.64449e+11
36.6634 0 36.3321 0 0 0 0 3.58032e-09 0 3.1209e+11
38.7447 0 42.8774 0 0 0 0 3.05709e-09 0 3.68314e+11
40.9442 0 50.6018 0 0 0 0 2.60976e-09 0 4.34667e+11
43.2685 0 59.7179 0 0 0 0 2.22743e-09 0 5.12973e+11
45.7247 0 70.4762 0 0 0 0 1.90073e-09 0 6.05386e+11
48.3204 0 83.1727 0 0 0 0 1.62163e-09 0 7.14448e+11
51.0634 0 98.1565 0 0 0 0 1.38326e-09 0 8.43158e+11
53.9621 0 115.84 0 0 0 0 1.1797e-09 0 9.95055e+11
57.0254 0 136.709 0 0 0 0 1.00592e-09 0 1.17432e+12
60.2626 0 161.337 0 0 0 0 8.57591e-10 0 1.38587e+12
63.6835 0 190.402 0 0 0 0 7.3101e-10 0 1.63554e+12
67.2987 0 224.704 0 0 0 0 6.23009e-10 0 1.93019e+12
71.1191 0 265.185 0 0 0 0 5.30879e-10 0 2.27792e+12
75.1563 0 312.958 0 0 0 0 4.52303e-10 0 2.68829e+12
79.4227 0 369.339 0 0 0 0 3.85299e-10 0 3.17259e+12
83.9313 0 435.876 0 0 0 0 3.28173e-10 0 3.74415e+12
88.6959 0 514.4 0 0 0 0 2.79476e-10 0 4.41866e+12
93.7309 0 607.071 0 0 0 0 2.37972e-10 0 5.2147e+12
99.0518 0 716.436 0 0 0 0 2.02605e-10 0 6.15414e+12
104.675 0 845.504 0 0 0 0 1.72471e-10 0 7.26283e+12
110.617 0 997.824 0 0 0 0 1.468e-10 0 8.57124e+12
116.896 0 1177.58 0 0 0 0 1.24935e-10 0 1.01154e+13
123.532 0 1389.73 0 0 0 0 1.06313e-10 0 1.19377e+13
130.545 0 1640.09 0 0 0 0 9.04567e-11 0 1.40883e+13
137.955 0 1935.56 0 0 0 0 7.69563e-11 0 1.66263e+13
145.787 0 2284.26 0 0 0 0 6.54636e-11 0 1.96216e+13
154.063 0 2695.77 0 0 0 0 5.56812e-11 0 2.31565e+13
162.808 0 3181.42 0 0 0 0 4.73556e-11 0 2.73282e+13
172.051 0 3754.56 0 0 0 0 4.02708e-11 0 3.22515e+13
181.818 0 4430.96 0 0 0 0 3.42426e-11 0 3.80616e+13
192.139 0 5229.21 0 0 0 0 2.91139e-11 0 4.49186e+13
203.046 0 6171.26 0 0 0 0 2.4751e-11 0 5.30108e+13
214.572 0 7283.03 0 0 0 0 2.10401e-11 0 6.25608e+13
226.753 0 8595.09 0 0 0 0 1.78839e-11 0 7.38313e+13
239.625 0 10143.5 0 0 0 0 1.51999e-11 0 8.71322e+13
253.228 0 11970.9 0 0 0 0 1.29176e-11 0 1.02829e+14
267.603 0 14127.5 0 0 0 0 1.09771e-11 0 1.21354e+14
282.795 0 16672.6 0 0 0 0 9.3274e-12 0 1.43217e+14
298.848 0 19676.2 0 0 0 0 7.925e-12 0 1.69017e+14
315.813 0 23220.9 0 0 0 0 6.73295e-12 0 1.99466e+14
333.741 0 27404.3 0 0 0 0 5.71979e-12 0 2.35401e+14
352.686 0 32341.2 0 0 0 0 4.85874e-12 0 2.77809e+14
372.707 0 38167.6 0 0 0 0 4.12703e-12 0 3.27857e+14
393.865 0 45043.5 0 0 0 0 3.50528e-12 0 3.86921e+14
416.224 0 53158.3 0 0 0 0 2.97701e-12 0 4.56626e+14
439.852 0 62734.9 0 0 0 0 2.52819e-12 0 5.38888e+14
464.821 0 74036.7 0 0 0 0 2.1469e-12 0 6.35971e+14
491.207 0 87374.6 0 0 0 0 1.82301e-12 0 7.50542e+14
519.092 0 103115 0 0 0 0 1.54789e-12 0 8.85755e+14
548.56 0 121692 0 0 0 0 1.31422e-12 0 1.04533e+15
579.7 0 143615 0 0 0 0 1.11576e-12 0 1.23364e+15
612.608 0 169488 0 0 0 0 9.47223e-13 0 1.45589e+15
647.384 0 200021 0 0 0 0 8.041e-13 0 1.71817e+15
684.134 0 236056 0 0 0 0 6.82568e-13 0 2.0277e+15
722.971 0 278582 0 0 0 0 5.79376e-13 0 2.393e+15
764.012 0 328769 0 0 0 0 4.91762e-13 0 2.8241e+15
