0.874842
200
1.0655e+09
8589934592
0.0129181 0 1.58924e-09 0 0 0 0 0.00677225 0 13.6515
0.0136515 0 1.87554e-09 0 0 0 0 0.00688819 0 16.1108
0.0144264 0 2.21343e-09 0 0 0 0 0.00699249 0 19.0132
0.0152454 0 2.61218e-09 0 0 0 0 0.00708412 0 22.4385
0.0161108 0 3.08278e-09 0 0 0 0 0.00716212 0 26.4808
0.0170254 0 3.63815e-09 0 0 0 0 0.00722559 0 31.2514
0.0179919 0 4.29357e-09 0 0 0 0 0.00727371 0 36.8815
0.0190132 0 5.06707e-09 0 0 0 0 0.00730578 0 43.5258
0.0200925 0 5.97991e-09 0 0 0 0 0.00732122 0 51.367
0.0212331 0 7.05721e-09 0 0 0 0 0.00731958 0 60.621
0.0224385 0 8.32858e-09 0 0 0 0 0.00730056 0 71.542
0.0237123 0 9.829e-09 0 0 0 0 0.00726401 0 84.4305
0.0250583 0 1.15997e-08 0 0 0 0 0.00720995 0 99.6408
0.0264808 0 1.36894e-08 0 0 0 0 0.00713857 0 117.591
0.0279841 0 1.61556e-08 0 0 0 0 0.00705021 0 138.776
0.0295727 0 1.90661e-08 0 0 0 0 0.00694538 0 163.777
0.0312514 0 2.25009e-08 0 0 0 0 0.00682475 0 193.281
0.0330255 0 2.65545e-08 0 0 0 0 0.00668915 0 228.102
0.0349003 0 3.13384e-08 0 0 0 0 0.00653951 0 269.195
0.0368815 0 3.69841e-08 0 0 0 0 0.00637693 0 317.691
0.0389751 0 4.36469e-08 0 0 0 0 0.00620256 0 374.924
0.0411876 0 5.151e-08 0 0 0 0 0.00601767 0 442.467
0.0435258 0 6.07896e-08 0 0 0 0 0.00582358 0 522.179
0.0459966 0 7.1741e-08 0 0 0 0 0.00562166 0 616.251
0.0486077 0 8.46654e-08 0 0 0 0 0.0054133 0 727.27
0.051367 0 9.99181e-08 0 0 0 0 0.00519989 0 858.29
0.054283 0 1.17919e-07 0 0 0 0 0.0049828 0 1012.91
0.0573645 0 1.39162e-07 0 0 0 0 0.00476339 0 1195.39
0.060621 0 1.64232e-07 0 0 0 0 0.00454293 0 1410.75
0.0640622 0 1.93819e-07 0 0 0 0 0.00432265 0 1664.89
0.0676989 0 2.28736e-07 0 0 0 0 0.00410371 0 1964.83
0.071542 0 2.69944e-07 0 0 0 0 0.00388717 0 2318.8
0.0756032 0 3.18575e-07 0 0 0 0 0.00367401 0 2736.54
0.079895 0 3.75967e-07 0 0 0 0 0.0034651 0 3229.53
0.0844305 0 4.43698e-07 0 0 0 0 0.00326121 0 3811.34
0.0892234 0 5.23632e-07 0 0 0 0 0.00306301 0 4497.96
0.0942883 0 6.17966e-07 0 0 0 0 0.00287109 0 5308.28
0.0996408 0 7.29294e-07 0 0 0 0 0.00268591 0 6264.59
0.105297 0 8.60678e-07 0 0 0 0 0.00250785 0 7393.17
0.111275 0 1.01573e-06 0 0 0 0 0.00233721 0 8725.07
0.117591 0 1.19872e-06 0 0 0 0 0.00217419 0 10296.9
0.124267 0 1.41467e-06 0 0 0 0 0.00201893 0 12151.9
0.131321 0 1.66953e-06 0 0 0 0 0.00187147 0 14341.1
0.138776 0 1.9703e-06 0 0 0 0 0.00173182 0 16924.7
0.146654 0 2.32525e-06 0 0 0 0 0.00159991 0 19973.8
0.154979 0 2.74415e-06 0 0 0 0 0.00147563 0 23572.1
0.163777 0 3.23852e-06 0 0 0 0 0.00135884 0 27818.7
0.173074 0 3.82195e-06 0 0 0 0 0.00124933 0 32830.3
0.182899 0 4.51048e-06 0 0 0 0 0.00114689 0 38744.7
0.193281 0 5.32305e-06 0 0 0 0 0.00105127 0 45724.7
0.204254 0 6.28202e-06 0 0 0 0 0.000962209 0 53962.1
0.215848 0 7.41374e-06 0 0 0 0 0.000879423 0 63683.5
0.228102 0 8.74934e-06 0 0 0 0 0.000802624 0 75156.3
0.24105 0 1.03256e-05 0 0 0 0 0.000731515 0 88695.9
0.254734 0 1.21857e-05 0 0 0 0 0.000665798 0 104675
0.269195 0 1.4381e-05 0 0 0 0 0.000605173 0 123532
0.284476 0 1.69718e-05 0 0 0 0 0.000549345 0 145787
0.300625 0 2.00293e-05 0 0 0 0 0.000498021 0 172051
0.317691 0 2.36377e-05 0 0 0 0 0.000450916 0 203046
0.335725 0 2.78961e-05 0 0 0 0 0.000407755 0 239625
0.354784 0 3.29216e-05 0 0 0 0 0.000368269 0 282795
0.374924 0 3.88525e-05 0 0 0 0 0.000332202 0 333741
0.396207 1.81759 4.58519e-05 4.61476e-06 6 1.76706 4.48647e-06 0.000299307 0.092509 393865
0.418699 0 5.41123e-05 0 0 0 0 0.00026935 0 464821
0.442467 0 6.38607e-05 0 0 0 0 0.000242108 0 548560
0.467585 0 7.53654e-05 0 0 0 0 0.00021737 0 647384
0.494129 0 8.89427e-05 0 0 0 0 0.000194938 0 764012
0.522179 0 0.000104966 0 0 0 0 0.000174625 0 901651
0.551822 0 0.000123876 0 0 0 0 0.000156255 0 1.06409e+06
0.583147 6.38759 0.000146192 5.08653e-06 12 6.72297 5.3536e-06 0.000139664 0.437037 1.25578e+06
0.616251 0 0.000172529 0 0 0 0 0.0001247 0 1.48202e+06
0.651234 0 0.000203611 0 0 0 0 0.00011122 0 1.74901e+06
0.688203 13.0219 0.000240292 6.30877e-06 8 12.6979 6.15182e-06 9.90935e-05 0.509319 2.06409e+06
0.72727 0 0.000283581 0 0 0 0 8.81969e-05 0 2.43595e+06
0.768555 0 0.000334669 0 0 0 0 7.84179e-05 0 2.87479e+06
0.812184 10.6399 0.000394961 3.13613e-06 6 10.8674 3.20318e-06 6.96525e-05 0.270152 3.39269e+06
0.85829 0 0.000466114 0 0 0 0 6.1805e-05 0 4.00389e+06
0.907013 1.6768 0.000550086 3.54863e-07 24 1.70897 3.61672e-07 5.47875e-05 0.15545 4.7252e+06
0.958501 6.36265 0.000649185 1.14098e-06 24 5.98997 1.07415e-06 4.85194e-05 0.564385 5.57646e+06
1.01291 0 0.000766138 0 0 0 0 4.29272e-05 0 6.58107e+06
1.07041 0 0.00090416 0 0 0 0 3.79435e-05 0 7.76667e+06
1.13118 10.0027 0.00106705 1.0913e-06 12 9.87983 1.07789e-06 3.3507e-05 0.390831 9.16586e+06
1.19539 4.70369 0.00125928 4.34837e-07 30 4.60672 4.25873e-07 2.9562e-05 0.44128 1.08171e+07
1.26325 9.69737 0.00148614 7.59634e-07 24 9.55145 7.48204e-07 2.60578e-05 0.699645 1.27658e+07
1.33496 18.4838 0.00175387 1.22688e-06 24 18.5244 1.22958e-06 2.29484e-05 1.2831 1.50656e+07
1.41075 15.9997 0.00206984 8.99884e-07 32 16.2604 9.14545e-07 2.01923e-05 1.4261 1.77798e+07
1.49083 4.62286 0.00244272 2.20316e-07 48 4.5243 2.15619e-07 1.77518e-05 0.595725 2.09828e+07
1.57546 33.5544 0.00288279 1.35502e-06 6 31.9513 1.29029e-06 1.55929e-05 0.521402 2.4763e+07
1.66489 4.9458 0.00340213 1.69237e-07 84 4.8386 1.65569e-07 1.3685e-05 1.0388 2.92241e+07
1.75941 11.471 0.00401503 3.32601e-07 48 11.3267 3.28416e-07 1.20007e-05 1.33033 3.44889e+07
1.85928 6.0882 0.00473835 1.4958e-07 72 6.10929 1.50098e-07 1.05151e-05 1.02422 4.07021e+07
1.96483 16.1458 0.00559198 3.36127e-07 54 15.7313 3.27498e-07 9.20606e-06 1.97162 4.80347e+07
2.07637 15.2922 0.00659939 2.6976e-07 104 15.4732 2.72953e-07 8.05366e-06 3.48351 5.66883e+07
2.19424 9.80881 0.00778828 1.46617e-07 120 9.92955 1.48422e-07 7.04008e-06 2.49913 6.69008e+07
2.3188 9.20709 0.00919136 1.16614e-07 156 9.07506 1.14942e-07 6.1494e-06 2.95831 7.89532e+07
2.45043 11.6157 0.0108472 1.24663e-07 126 11.4703 1.23103e-07 5.36741e-06 2.92647 9.31768e+07
2.58954 14.178 0.0128014 1.28934e-07 192 14.2106 1.29231e-07 4.68145e-06 5.28796 1.09963e+08
2.73654 37.2441 0.0151076 2.86994e-07 152 37.7593 2.90964e-07 4.08023e-06 10.6913 1.29773e+08
2.89188 17.528 0.0178292 1.14449e-07 378 17.672 1.15389e-07 3.55373e-06 12.1736 1.53152e+08
3.05605 16.6683 0.0210412 9.22209e-08 264 16.5345 9.1481e-08 3.09304e-06 7.87133 1.80743e+08
3.22953 20.8841 0.0248319 9.79076e-08 366 20.7596 9.73242e-08 2.69025e-06 13.32 2.13304e+08
3.41286 19.8259 0.0293054 7.87582e-08 428 19.7016 7.82646e-08 2.33837e-06 14.4154 2.51731e+08
3.6066 21.1106 0.0345848 7.10599e-08 486 20.8198 7.00813e-08 2.0312e-06 17.0023 2.97081e+08
3.81134 21.5862 0.0408154 6.1569e-08 600 21.6409 6.17252e-08 1.76327e-06 20.9506 3.50601e+08
4.0277 25.1355 0.0481684 6.07485e-08 738 25.0246 6.04805e-08 1.52972e-06 29.3075 4.13763e+08
4.25634 27.6174 0.056846 5.65578e-08 824 27.523 5.63646e-08 1.32631e-06 35.1379 4.88304e+08
4.49796 29.0579 0.067087 5.04238e-08 954 28.8712 5.00998e-08 1.14926e-06 41.8569 5.76273e+08
4.7533 32.4586 0.0791729 4.7727e-08 1094 32.2192 4.73749e-08 9.95263e-07 52.4618 6.8009e+08
5.02313 32.6731 0.0934361 4.07086e-08 1332 32.8429 4.09202e-08 8.61414e-07 62.9475 8.0261e+08
5.30828 40.2196 0.110269 4.24614e-08 1614 40.2522 4.24959e-08 7.45152e-07 91.9715 9.47202e+08
5.60962 47.0366 0.130134 4.2078e-08 1850 47.1154 4.21485e-08 6.44232e-07 120.833 1.11784e+09
5.92807 40.0396 0.153578 3.03508e-08 2238 39.948 3.02814e-08 5.56685e-07 122.017 1.31923e+09
6.26459 42.2518 0.181246 2.71386e-08 2546 42.3174 2.71808e-08 4.80786e-07 143.712 1.55689e+09
6.62021 42.9624 0.213898 2.33826e-08 3264 43.0414 2.34256e-08 4.15026e-07 183.894 1.83737e+09
6.99602 48.8126 0.252432 2.25112e-08 3506 48.8748 2.25398e-08 3.58083e-07 220.408 2.16837e+09
7.39317 50.7105 0.297908 1.98164e-08 4506 50.6883 1.98078e-08 3.08803e-07 289.158 2.55901e+09
7.81286 60.2075 0.351577 1.99361e-08 5018 59.9672 1.98565e-08 2.66181e-07 375.833 3.02002e+09
8.25637 62.9384 0.414914 1.76591e-08 5852 62.9623 1.76657e-08 2.29336e-07 450.609 3.56409e+09
8.72507 64.1143 0.489662 1.52429e-08 7362 63.9483 1.52035e-08 1.97503e-07 568.186 4.20617e+09
9.22037 66.9731 0.577876 1.3492e-08 8306 66.7537 1.34478e-08 1.70014e-07 659.147 4.96392e+09
9.74378 72.7787 0.681982 1.24234e-08 9698 72.6986 1.24098e-08 1.46289e-07 823.592 5.85818e+09
10.2969 77.1777 0.804843 1.11632e-08 11816 77.1222 1.11552e-08 1.25822e-07 1048.34 6.91355e+09
10.8814 89.1389 0.949838 1.09252e-08 13682 88.8172 1.08857e-08 1.08175e-07 1381.81 8.15905e+09
11.4992 87.1971 1.12095 9.05575e-09 16152 87.1556 9.05144e-09 9.29669e-08 1573.34 9.62892e+09
12.1519 93.7336 1.3229 8.24859e-09 19472 93.6414 8.24047e-09 7.98658e-08 2011.08 1.13636e+10
12.8418 97.8012 1.56122 7.29273e-09 22670 97.5595 7.27471e-09 6.85852e-08 2410.52 1.34108e+10
13.5708 104.56 1.84248 6.60651e-09 26224 104.466 6.6006e-09 5.88765e-08 2942.58 1.58268e+10
14.3411 109.801 2.17441 5.87862e-09 31640 109.626 5.86924e-09 5.05241e-08 3681.4 1.8678e+10
15.1552 116.636 2.56613 5.29131e-09 37484 116.511 5.28565e-09 4.33417e-08 4576.18 2.20429e+10
16.0156 126.411 3.02843 4.85936e-09 43856 126.21 4.85163e-09 3.71677e-08 5733.79 2.6014e+10
16.9247 134.678 3.574 4.38683e-09 51362 134.49 4.38072e-09 3.18628e-08 7071.46 3.07005e+10
17.8855 142.434 4.21787 3.93125e-09 61636 142.219 3.92533e-09 2.73063e-08 8873.66 3.62312e+10
18.9008 149.895 4.97773 3.50563e-09 72218 149.52 3.49686e-09 2.33941e-08 10821.9 4.27584e+10
19.9738 160.884 5.87448 3.18825e-09 84586 160.632 3.18327e-09 2.00364e-08 13459.6 5.04614e+10
21.1076 169.936 6.93279 2.85356e-09 100708 169.625 2.84834e-09 1.71555e-08 16751.2 5.95522e+10
22.3058 181.103 8.18175 2.57685e-09 118712 180.805 2.57261e-09 1.46847e-08 20831.5 7.02807e+10
23.5721 187.925 9.65571 2.26574e-09 140410 187.564 2.26139e-09 1.25662e-08 25316.6 8.29419e+10
24.9102 198.259 11.3952 2.02544e-09 164374 197.909 2.02186e-09 1.07504e-08 30969.2 9.78842e+10
26.3243 210.19 13.4481 1.81954e-09 194680 209.904 1.81706e-09 9.19452e-09 38526 1.15518e+11
27.8187 221.108 15.8708 1.62187e-09 230196 220.69 1.6188e-09 7.86182e-09 47488.6 1.36329e+11
29.3979 233.893 18.73 1.45375e-09 271156 233.515 1.4514e-09 6.72061e-09 58654.4 1.60889e+11
31.0667 247.19 22.1042 1.30186e-09 321076 246.763 1.29962e-09 5.74366e-09 72775.5 1.89874e+11
32.8303 260.259 26.0864 1.16145e-09 377436 259.78 1.15932e-09 4.90756e-09 89326.4 2.2408e+11
34.694 274.196 30.7859 1.03686e-09 447594 273.683 1.03492e-09 4.19221e-09 110703 2.64449e+11
36.6634 289.688 36.3321 9.28221e-10 525078 289.183 9.26601e-10 3.58032e-09 136130 3.1209e+11
38.7447 304.438 42.8774 8.26573e-10 621924 303.865 8.25017e-10 3.05709e-09 168155 3.68314e+11
40.9442 319.645 50.6018 7.35381e-10 732630 319.062 7.34038e-10 2.60976e-09 206441 4.34667e+11
43.2685 336.947 59.7179 6.56852e-10 865596 336.385 6.55755e-10 2.22743e-09 255257 5.12973e+11
45.7247 354.533 70.4762 5.85632e-10 1.02168e+06 353.961 5.84686e-10 1.90073e-09 314787 6.05386e+11
48.3204 371.22 83.1727 5.1959e-10 1.20544e+06 370.539 5.18637e-10 1.62163e-09 386236 7.14448e+11
51.0634 390.227 98.1565 4.62816e-10 1.42103e+06 389.554 4.62018e-10 1.38326e-09 475455 8.43158e+11
53.9621 408.972 115.84 4.11004e-10 1.67997e+06 408.26 4.10289e-10 1.1797e-09 585294 9.95055e+11
57.0254 429.821 136.709 3.66018e-10 1.98018e+06 429.062 3.65372e-10 1.00592e-09 720517 1.17432e+12
60.2626 451.821 161.337 3.26019e-10 2.33957e+06 451.024 3.25444e-10 8.57591e-10 889402 1.38587e+12
63.6835 474.051 190.402 2.89843e-10 2.75676e+06 473.232 2.89342e-10 7.3101e-10 1.09305e+06 1.63554e+12
67.2987 498.793 224.704 2.58416e-10 3.25638e+06 497.959 2.57985e-10 6.23009e-10 1.35071e+06 1.93019e+12
71.1191 524.737 265.185 2.30358e-10 3.84387e+06 523.822 2.29957e-10 5.30879e-10 1.66793e+06 2.27792e+12
75.1563 552.705 312.958 2.05597e-10 4.53277e+06 551.717 2.0523e-10 4.52303e-10 2.06039e+06 2.68829e+12
79.4227 583.297 369.339 1.83855e-10 5.35083e+06 582.293 1.83538e-10 3.85299e-10 2.55328e+06 3.17259e+12
83.9313 616.023 435.876 1.6453e-10 6.32174e+06 614.874 1.64223e-10 3.28173e-10 3.16941e+06 3.74415e+12
88.6959 652.748 514.4 1.47725e-10 7.44986e+06 651.532 1.4745e-10 2.79476e-10 3.93784e+06 4.41866e+12
93.7309 693.379 607.071 1.32966e-10 8.79764e+06 692.048 1.32711e-10 2.37972e-10 4.91565e+06 5.2147e+12
99.0518 738.826 716.436 1.20053e-10 1.03827e+07 737.37 1.19817e-10 2.02605e-10 6.15226e+06 6.15414e+12
104.675 791.227 845.504 1.08942e-10 1.22515e+07 789.622 1.08721e-10 1.72471e-10 7.73873e+06 7.26283e+12
110.617 850.458 997.824 9.92222e-11 1.44573e+07 848.684 9.90153e-11 1.468e-10 9.7717e+06 8.57124e+12
116.896 921.351 1177.58 9.10842e-11 1.70664e+07 919.339 9.08853e-11 1.24935e-10 1.24423e+07 1.01154e+13
123.532 1001.88 1389.73 8.39262e-11 2.0139e+07 999.641 8.37382e-11 1.06313e-10 1.58982e+07 1.19377e+13
130.545 1097.54 1640.09 7.79045e-11 2.37643e+07 1094.94 7.77201e-11 9.04567e-11 2.04667e+07 1.40883e+13
137.955 1210.94 1935.56 7.28327e-11 2.80503e+07 1207.96 7.26532e-11 7.69563e-11 2.65472e+07 1.66263e+13
145.787 1344.67 2284.26 6.85302e-11 3.30981e+07 1341.23 6.83545e-11 6.54636e-11 3.46486e+07 1.96216e+13
154.063 1503.51 2695.77 6.49282e-11 3.90634e+07 1499.55 6.47571e-11 5.56812e-11 4.55507e+07 2.31565e+13
162.808 1691.87 3181.42 6.19093e-11 4.61057e+07 1687.23 6.17393e-11 4.73556e-11 6.02753e+07 2.73282e+13
172.051 1917.43 3754.56 5.94525e-11 5.44046e+07 1912.02 5.92848e-11 4.02708e-11 8.03184e+07 3.22515e+13
181.818 2186.82 4430.96 5.74547e-11 6.42064e+07 2180.47 5.72877e-11 3.42426e-11 1.0773e+08 3.80616e+13
192.139 2507.96 5229.21 5.58334e-11 7.57748e+07 2500.49 5.56672e-11 2.91139e-11 1.45318e+08 4.49186e+13
203.046 2890.81 6171.26 5.45325e-11 8.94213e+07 2882.02 5.43668e-11 2.4751e-11 1.97017e+08 5.30108e+13
214.572 3350.81 7283.03 5.35609e-11 1.05538e+08 3340.39 5.33942e-11 2.10401e-11 2.68665e+08 6.25608e+13
226.753 3901.89 8595.09 5.28487e-11 1.24552e+08 3889.42 5.26798e-11 1.78839e-11 3.68063e+08 7.38313e+13
239.625 4565.54 10143.5 5.23979e-11 1.46987e+08 4550.66 5.22271e-11 1.51999e-11 5.06702e+08 8.71322e+13
253.228 5364.89 11970.9 5.21728e-11 1.7347e+08 5347.07 5.19995e-11 1.29176e-11 7.00626e+08 1.02829e+14
267.603 6332.71 14127.5 5.21836e-11 2.04703e+08 6311.36 5.20078e-11 1.09771e-11 9.73126e+08 1.21354e+14
282.795 7514.11 16672.6 5.24668e-11 2.4161e+08 7488.15 5.22855e-11 9.3274e-12 1.35906e+09 1.43217e+14
298.848 8962.65 19676.2 5.3028e-11 2.85122e+08 8930.94 5.28404e-11 7.925e-12 1.90782e+09 1.69017e+14
315.813 10764.9 23220.9 5.39687e-11 3.36491e+08 10725.7 5.37721e-11 6.73295e-12 2.69719e+09 1.99466e+14
333.741 13048.1 27404.3 5.54294e-11 3.97115e+08 12998.7 5.52195e-11 5.71979e-12 3.84836e+09 2.35401e+14
352.686 15997.2 32341.2 5.75834e-11 4.68637e+08 15933.9 5.73555e-11 4.85874e-12 5.55406e+09 2.77809e+14
372.707 19923.7 38167.6 6.07694e-11 5.53074e+08 19839.9 6.05138e-11 4.12703e-12 8.14387e+09 3.27857e+14
393.865 25360.2 45043.5 6.55437e-11 6.52716e+08 25244.9 6.52456e-11 3.50528e-12 1.22048e+10 3.86921e+14
416.224 29941 53158.3 6.55701e-11 2.2184e+08 31674.7 6.93669e-11 2.97701e-12 4.88613e+09 4.56626e+14
439.852 0 62734.9 0 0 0 0 2.52819e-12 0 5.38888e+14
464.821 0 74036.7 0 0 0 0 2.1469e-12 0 6.35971e+14
491.207 0 87374.6 0 0 0 0 1.82301e-12 0 7.50542e+14
519.092 0 103115 0 0 0 0 1.54789e-12 0 8.85755e+14
548.56 0 121692 0 0 0 0 1.31422e-12 0 1.04533e+15
579.7 0 143615 0 0 0 0 1.11576e-12 0 1.23364e+15
612.608 0 169488 0 0 0 0 9.47223e-13 0 1.45589e+15
647.384 0 200021 0 0 0 0 8.041e-13 0 1.71817e+15
684.134 0 236056 0 0 0 0 6.82568e-13 0 2.0277e+15
722.971 0 278582 0 0 0 0 5.79376e-13 0 2.393e+15
764.012 0 328769 0 0 0 0 4.91762e-13 0 2.8241e+15
0.874842
200
1.0655e+09
8589934592
0.0129181 0.00158349 1.58924e-09 0.000115994 6 0.00156899 0.000114932 0.00677225 0.102767 13.6515
0.0136515 0 1.87554e-09 0 0 0 0 0.00688819 0 16.1108
0.0144264 0 2.21343e-09 0 0 0 0 0.00699249 0 19.0132
0.0152454 0 2.61218e-09 0 0 0 0 0.00708412 0 22.4385
0.0161108 0 3.08278e-09 0 0 0 0 0.00716212 0 26.4808
0.0170254 0 3.63815e-09 0 0 0 0 0.00722559 0 31.2514
0.0179919 0.00358972 4.29357e-09 9.73313e-05 12 0.0035851 9.72059e-05 0.00727371 0.160575 36.8815
0.0190132 0 5.06707e-09 0 0 0 0 0.00730578 0 43.5258
0.0200925 0 5.97991e-09 0 0 0 0 0.00732122 0 51.367
0.0212331 0.00343287 7.05721e-09 5.66284e-05 8 0.00342988 5.65792e-05 0.00731958 0.0618926 60.621
0.0224385 0 8.32858e-09 0 0 0 0 0.00730056 0 71.542
0.0237123 0 9.829e-09 0 0 0 0 0.00726401 0 84.4305
0.0250583 0.0218229 1.15997e-08 0.000219016 6 0.0218126 0.000218913 0.00720995 0.182261 99.6408
0.0264808 0 1.36894e-08 0 0 0 0 0.00713857 0 117.591
0.0279841 0.0135276 1.61556e-08 9.74783e-05 24 0.0135137 9.73782e-05 0.00705021 0.331831 138.776
0.0295727 0 1.90661e-08 0 0 0 0 0.00694538 0 163.777
0.0312514 0.0241112 2.25009e-08 0.000124747 24 0.0242337 0.00012538 0.00682475 0.438686 193.281
0.0330255 0 2.65545e-08 0 0 0 0 0.00668915 0 228.102
0.0349003 0.0367373 3.13384e-08 0.000136471 12 0.0364431 0.000135378 0.00653951 0.250424 269.195
0.0368815 0.0295533 3.69841e-08 9.30252e-05 30 0.0292386 9.20346e-05 0.00637693 0.437633 317.691
0.0389751 0.0336217 4.36469e-08 8.9676e-05 24 0.0332758 8.87535e-05 0.00620256 0.34699 374.924
0.0411876 0.0215866 5.151e-08 4.87869e-05 24 0.02144 4.84555e-05 0.00601767 0.194575 442.467
0.0435258 0.0533892 6.07896e-08 0.000102243 8 0.0533851 0.000102235 0.00582358 0.140454 522.179
0.0459966 0.0658322 7.1741e-08 0.000106827 72 0.0653126 0.000105984 0.00562166 1.3682 616.251
0.0486077 0 8.46654e-08 0 0 0 0 0.0054133 0 727.27
0.051367 0.0909542 9.99181e-08 0.000105971 54 0.090653 0.000105621 0.00519989 1.1005 858.29
0.054283 0.0736447 1.17919e-07 7.27058e-05 60 0.073978 7.30349e-05 0.0049828 0.875481 1012.91
0.0573645 0.0689566 1.39162e-07 5.76853e-05 96 0.0687787 5.75365e-05 0.00476339 1.16257 1195.39
0.060621 0.082202 1.64232e-07 5.82685e-05 24 0.0810883 5.7479e-05 0.00454293 0.307829 1410.75
0.0640622 0.141551 1.93819e-07 8.50209e-05 134 0.141615 8.50592e-05 0.00432265 2.6356 1664.89
0.0676989 0.138957 2.28736e-07 7.0722e-05 120 0.138279 7.03769e-05 0.00410371 2.06804 1964.83
0.071542 0.131151 2.69944e-07 5.65597e-05 108 0.129699 5.59337e-05 0.00388717 1.57144 2318.8
0.0756032 0.19441 3.18575e-07 7.10423e-05 174 0.19333 7.06478e-05 0.00367401 3.36454 2736.54
0.079895 0.204186 3.75967e-07 6.32246e-05 168 0.202264 6.26294e-05 0.0034651 3.06535 3229.53
0.0844305 0.170599 4.43698e-07 4.47609e-05 168 0.171445 4.49828e-05 0.00326121 2.30584 3811.34
0.0892234 0.204533 5.23632e-07 4.54722e-05 290 0.203573 4.52589e-05 0.00306301 4.30522 4497.96
0.0942883 0.247739 6.17966e-07 4.66703e-05 288 0.247198 4.65684e-05 0.00287109 4.68151 5308.28
0.0996408 0.222079 7.29294e-07 3.54499e-05 366 0.220368 3.51768e-05 0.00268591 4.83064 6264.59
0.105297 0.261386 8.60678e-07 3.53551e-05 420 0.259514 3.51018e-05 0.00250785 5.92105 7393.17
0.111275 0.280195 1.01573e-06 3.21138e-05 398 0.279399 3.20226e-05 0.00233721 5.46861 8725.07
0.117591 0.333818 1.19872e-06 3.24192e-05 624 0.334737 3.25085e-05 0.00217419 9.30441 10296.9
0.124267 0.3887 1.41467e-06 3.19867e-05 642 0.387824 3.19146e-05 0.00201893 10.1715 12151.9
0.131321 0.46036 1.66953e-06 3.21007e-05 800 0.460456 3.21074e-05 0.00187147 13.7222 14341.1
0.138776 0.425345 1.9703e-06 2.51315e-05 858 0.42716 2.52388e-05 0.00173182 12.451 16924.7
0.146654 0.495295 2.32525e-06 2.47973e-05 1080 0.499403 2.5003e-05 0.00159991 16.7391 19973.8
0.154979 0.578992 2.74415e-06 2.45626e-05 1286 0.582634 2.47171e-05 0.00147563 21.4061 23572.1
0.163777 0.566902 3.23852e-06 2.03785e-05 1650 0.56851 2.04363e-05 0.00135884 24.745 27818.7
0.173074 0.634838 3.82195e-06 1.9337e-05 1778 0.635305 1.93512e-05 0.00124933 27.5196 32830.3
0.182899 0.68366 4.51048e-06 1.76452e-05 2112 0.685232 1.76858e-05 0.00114689 32.4937 38744.7
0.193281 0.757103 5.32305e-06 1.65579e-05 2570 0.757696 1.65708e-05 0.00105127 40.4783 45724.7
0.204254 0.888893 6.28202e-06 1.64725e-05 3030 0.88831 1.64617e-05 0.000962209 51.8721 53962.1
0.215848 0.927015 7.41374e-06 1.45566e-05 3434 0.926634 1.45506e-05 0.000879423 56.841 63683.5
0.228102 0.986252 8.74934e-06 1.31227e-05 4218 0.985662 1.31148e-05 0.000802624 68.9632 75156.3
0.24105 1.0998 1.03256e-05 1.23997e-05 4766 1.10047 1.24072e-05 0.000731515 80.787 88695.9
0.254734 1.20277 1.21857e-05 1.14906e-05 6026 1.20273 1.14902e-05 0.000665798 103.999 104675
0.269195 1.37276 1.4381e-05 1.11126e-05 6480 1.37151 1.11025e-05 0.000605173 118.99 123532
0.284476 1.48223 1.69718e-05 1.01671e-05 8162 1.48485 1.01851e-05 0.000549345 151.059 145787
0.300625 1.63829 2.00293e-05 9.52213e-06 9578 1.639 9.52624e-06 0.000498021 183.131 172051
0.317691 1.82075 2.36377e-05 8.96719e-06 11234 1.81907 8.95889e-06 0.000450916 223.406 203046
0.335725 1.96198 2.78961e-05 8.1877e-06 13344 1.95828 8.17228e-06 0.000407755 267.947 239625
0.354784 2.21459 3.29216e-05 7.8311e-06 15464 2.21308 7.82575e-06 0.000368269 328.836 282795
0.374924 2.39373 3.88525e-05 7.17242e-06 18458 2.3914 7.16544e-06 0.000332202 398.518 333741
0.396207 2.77366 4.58519e-05 7.04216e-06 22232 2.76927 7.03102e-06 0.000299307 523.08 393865
0.418699 2.98314 5.41123e-05 6.41783e-06 25628 2.97588 6.40222e-06 0.00026935 610.641 464821
0.442467 3.26572 6.38607e-05 5.95326e-06 30320 3.26009 5.943e-06 0.000242108 745.547 548560
0.467585 3.70801 7.53654e-05 5.72769e-06 35452 3.70123 5.71721e-06 0.00021737 934.157 647384
0.494129 4.10652 8.89427e-05 5.37494e-06 41792 4.10175 5.3687e-06 0.000194938 1152.31 764012
0.522179 4.62748 0.000104966 5.13223e-06 49988 4.62675 5.13142e-06 0.000174625 1469.15 901651
0.551822 5.17386 0.000123876 4.86226e-06 59110 5.16674 4.85557e-06 0.000156255 1839.36 1.06409e+06
0.583147 5.75577 0.000146192 4.58341e-06 69716 5.74628 4.57585e-06 0.000139664 2287.9 1.25578e+06
0.616251 6.43462 0.000172529 4.3418e-06 82210 6.422 4.33328e-06 0.0001247 2862.38 1.48202e+06
0.651234 7.11943 0.000203611 4.07056e-06 96722 7.1033 4.06134e-06 0.00011122 3539.93 1.74901e+06
0.688203 8.08951 0.000240292 3.91916e-06 113098 8.07651 3.91286e-06 9.90935e-05 4473.04 2.06409e+06
0.72727 9.04884 0.000283581 3.71471e-06 135190 9.03562 3.70929e-06 8.81969e-05 5693.99 2.43595e+06
0.768555 10.1312 0.000334669 3.52416e-06 158170 10.1156 3.51873e-06 7.84179e-05 7108.29 2.87479e+06
0.812184 11.356 0.000394961 3.3472e-06 188560 11.3367 3.34151e-06 6.96525e-05 9061.38 3.39269e+06
0.85829 12.7011 0.000466114 3.1722e-06 220444 12.68 3.16692e-06 6.1805e-05 11314.5 4.00389e+06
0.907013 14.2165 0.000550086 3.00866e-06 261388 14.1921 3.00349e-06 5.47875e-05 14354.2 4.7252e+06
0.958501 15.9358 0.000649185 2.85769e-06 308244 15.9116 2.85334e-06 4.85194e-05 18154.9 5.57646e+06
1.01291 17.9052 0.000766138 2.72071e-06 364396 17.8747 2.71608e-06 4.29272e-05 23095.3 6.58107e+06
1.07041 19.9147 0.00090416 2.56413e-06 429162 19.8779 2.55938e-06 3.79435e-05 29001.7 7.76667e+06
1.13118 22.2212 0.00106705 2.42435e-06 506358 22.1831 2.42019e-06 3.3507e-05 36636.8 9.16586e+06
1.19539 24.8696 0.00125928 2.2991e-06 598590 24.8232 2.29481e-06 2.9562e-05 46553.6 1.08171e+07
1.26325 27.6419 0.00148614 2.1653e-06 704844 27.5917 2.16137e-06 2.60578e-05 58569.8 1.27658e+07
1.33496 30.7441 0.00175387 2.04068e-06 834620 30.6834 2.03664e-06 2.29484e-05 74218 1.50656e+07
1.41075 34.107 0.00206984 1.9183e-06 981444 34.0414 1.91461e-06 2.01923e-05 93238.9 1.77798e+07
1.49083 37.7187 0.00244272 1.7976e-06 1.15998e+06 37.65 1.79432e-06 1.77518e-05 117463 2.09828e+07
1.57546 41.7042 0.00288279 1.68414e-06 1.36931e+06 41.6275 1.68104e-06 1.55929e-05 147895 2.4763e+07
1.66489 46.0105 0.00340213 1.5744e-06 1.61652e+06 45.9252 1.57149e-06 1.3685e-05 185973 2.92241e+07
1.75941 50.7373 0.00401503 1.47112e-06 1.90601e+06 50.644 1.46842e-06 1.20007e-05 233651 3.44889e+07
1.85928 55.6715 0.00473835 1.36778e-06 2.24913e+06 55.5674 1.36522e-06 1.05151e-05 292561 4.07021e+07
1.96483 60.9292 0.00559198 1.26844e-06 2.65744e+06 60.8136 1.26604e-06 9.20606e-06 366151 4.80347e+07
2.07637 66.6089 0.00659939 1.175e-06 3.13125e+06 66.4856 1.17283e-06 8.05366e-06 456840 5.66883e+07
2.19424 72.8111 0.00778828 1.08834e-06 3.69915e+06 72.6777 1.08635e-06 7.04008e-06 571861 6.69008e+07
2.3188 79.0683 0.00919136 1.00146e-06 4.36472e+06 78.9303 9.9971e-07 6.1494e-06 710816 7.89532e+07
2.45043 86.0772 0.0108472 9.23804e-07 5.14913e+06 85.927 9.22192e-07 5.36741e-06 886235 9.31768e+07
2.58954 93.1437 0.0128014 8.47046e-07 6.07894e+06 92.9832 8.45587e-07 4.68145e-06 1.0999e+06 1.09963e+08
2.73654 100.862 0.0151076 7.77218e-07 7.17304e+06 100.69 7.75891e-07 4.08023e-06 1.36635e+06 1.29773e+08
2.89188 109.122 0.0178292 7.12506e-07 8.46557e+06 108.935 7.11289e-07 3.55373e-06 1.69731e+06 1.53152e+08
3.05605 117.745 0.0210412 6.5145e-07 9.98773e+06 117.55 6.50374e-07 3.09304e-06 2.1036e+06 1.80743e+08
3.22953 126.905 0.0248319 5.94948e-07 1.1797e+07 126.691 5.93943e-07 2.69025e-06 2.6089e+06 2.13304e+08
3.41286 136.42 0.0293054 5.41926e-07 1.39144e+07 136.185 5.40992e-07 2.33837e-06 3.22471e+06 2.51731e+08
3.6066 146.665 0.0345848 4.93685e-07 1.64163e+07 146.417 4.92851e-07 2.0312e-06 3.98999e+06 2.97081e+08
3.81134 157.301 0.0408154 4.4866e-07 1.93821e+07 157.04 4.47916e-07 1.76327e-06 4.93176e+06 3.50601e+08
4.0277 168.539 0.0481684 4.07333e-07 2.28754e+07 168.26 4.06657e-07 1.52972e-06 6.09124e+06 4.13763e+08
4.25634 180.433 0.056846 3.69509e-07 2.69929e+07 180.13 3.68889e-07 1.32631e-06 7.52022e+06 4.88304e+08
4.49796 192.991 0.067087 3.34895e-07 3.18542e+07 192.664 3.34329e-07 1.14926e-06 9.28237e+06 5.76273e+08
4.7533 206.232 0.0791729 3.03243e-07 3.75892e+07 205.889 3.02737e-07 9.95263e-07 1.14529e+07 6.8009e+08
5.02313 220.095 0.0934361 2.74224e-07 4.43706e+07 219.73 2.73769e-07 8.61414e-07 1.4125e+07 8.0261e+08
5.30828 234.783 0.110269 2.4787e-07 5.23593e+07 234.391 2.47456e-07 7.45152e-07 1.7417e+07 9.47202e+08
5.60962 250.178 0.130134 2.23804e-07 6.1787e+07 249.761 2.23431e-07 6.44232e-07 2.14646e+07 1.11784e+09
5.92807 266.372 0.153578 2.01916e-07 7.29346e+07 265.924 2.01576e-07 5.56685e-07 2.64542e+07 1.31923e+09
6.26459 283.261 0.181246 1.8194e-07 8.60651e+07 282.788 1.81637e-07 4.80786e-07 3.2569e+07 1.55689e+09
6.62021 301.072 0.213898 1.63861e-07 1.01558e+08 300.569 1.63587e-07 4.15026e-07 4.00972e+07 1.83737e+09
6.99602 319.694 0.252432 1.47435e-07 1.1986e+08 319.16 1.47189e-07 3.58083e-07 4.93505e+07 2.16837e+09
7.39317 339.167 0.297908 1.32538e-07 1.41457e+08 338.605 1.32319e-07 3.08803e-07 6.07132e+07 2.55901e+09
7.81286 359.626 0.351577 1.19081e-07 1.66936e+08 359.027 1.18882e-07 2.66181e-07 7.46816e+07 3.02002e+09
8.25637 381.303 0.414914 1.06985e-07 1.97025e+08 380.672 1.06808e-07 2.29336e-07 9.19118e+07 3.56409e+09
8.72507 404.088 0.489662 9.60704e-08 2.32497e+08 403.41 9.59092e-08 1.97503e-07 1.13092e+08 4.20617e+09
9.22037 428.576 0.577876 8.63382e-08 2.74404e+08 427.849 8.61917e-08 1.70014e-07 1.39351e+08 4.96392e+09
9.74378 455.185 0.681982 7.77006e-08 3.2382e+08 454.395 7.75659e-08 1.46289e-07 1.71995e+08 5.85818e+09
10.2969 485.163 0.804843 7.01757e-08 3.82165e+08 484.292 7.00496e-08 1.25822e-07 2.13147e+08 6.91355e+09
10.8814 520.625 0.949838 6.38096e-08 4.51027e+08 519.624 6.36868e-08 1.08175e-07 2.66048e+08 8.15905e+09
11.4992 566.026 1.12095 5.87839e-08 5.32251e+08 564.814 5.8658e-08 9.29669e-08 3.36548e+08 9.62892e+09
12.1519 629.782 1.3229 5.5421e-08 6.28157e+08 628.19 5.52809e-08 7.98658e-08 4.35895e+08 1.13636e+10
12.8418 701.244 1.56122 5.22896e-08 3.82727e+08 725.811 5.41215e-08 6.85852e-08 2.91792e+08 1.34108e+10
13.5708 0 1.84248 0 0 0 0 5.88765e-08 0 1.58268e+10
14.3411 0 2.17441 0 0 0 0 5.05241e-08 0 1.8678e+10
15.1552 0 2.56613 0 0 0 0 4.33417e-08 0 2.20429e+10
16.0156 0 3.02843 0 0 0 0 3.71677e-08 0 2.6014e+10
16.9247 0 3.574 0 0 0 0 3.18628e-08 0 3.07005e+10
17.8855 0 4.21787 0 0 0 0 2.73063e-08 0 3.62312e+10
18.9008 0 4.97773 0 0 0 0 2.33941e-08 0 4.27584e+10
19.9738 0 5.87448 0 0 0 0 2.00364e-08 0 5.04614e+10
21.1076 0 6.93279 0 0 0 0 1.71555e-08 0 5.95522e+10
22.3058 0 8.18175 0 0 0 0 1.46847e-08 0 7.02807e+10
23.5721 0 9.65571 0 0 0 0 1.25662e-08 0 8.29419e+10
24.9102 0 11.3952 0 0 0 0 1.07504e-08 0 9.78842e+10
26.3243 0 13.4481 0 0 0 0 9.19452e-09 0 1.15518e+11
27.8187 0 15.8708 0 0 0 0 7.86182e-09 0 1.36329e+11
29.3979 0 18.73 0 0 0 0 6.72061e-09 0 1.60889e+11
31.0667 0 22.1042 0 0 0 0 5.74366e-09 0 1.89874e+11
32.8303 0 26.0864 0 0 0 0 4.90756e-09 0 2.2408e+11
34.694 0 30.7859 0 0 0 0 4.19221e-09 0 2.64449e+11
36.6634 0 36.3321 0 0 0 0 3.58032e-09 0 3.1209e+11
38.7447 0 42.8774 0 0 0 0 3.05709e-09 0 3.68314e+11
40.9442 0 50.6018 0 0 0 0 2.60976e-09 0 4.34667e+11
43.2685 0 59.7179 0 0 0 0 2.22743e-09 0 5.12973e+11
45.7247 0 70.4762 0 0 0 0 1.90073e-09 0 6.05386e+11
48.3204 0 83.1727 0 0 0 0 1.62163e-09 0 7.14448e+11
51.0634 0 98.1565 0 0 0 0 1.38326e-09 0 8.43158e+11
53.9621 0 115.84 0 0 0 0 1.1797e-09 0 9.95055e+11
57.0254 0 136.709 0 0 0 0 1.00592e-09 0 1.17432e+12
60.2626 0 161.337 0 0 0 0 8.57591e-10 0 1.38587e+12
63.6835 0 190.402 0 0 0 0 7.3101e-10 0 1.63554e+12
67.2987 0 224.704 0 0 0 0 6.23009e-10 0 1.93019e+12
71.1191 0 265.185 0 0 0 0 5.30879e-10 0 2.27792e+12
75.1563 0 312.958 0 0 0 0 4.52303e-10 0 2.68829e+12
79.4227 0 369.339 0 0 0 0 3.85299e-10 0 3.17259e+12
83.9313 0 435.876 0 0 0 0 3.28173e-10 0 3.74415e+12
88.6959 0 514.4 0 0 0 0 2.79476e-10 0 4.41866e+12
93.7309 0 607.071 0 0 0 0 2.37972e-10 0 5.2147e+12
99.0518 0 716.436 0 0 0 0 2.02605e-10 0 6.15414e+12
104.675 0 845.504 0 0 0 0 1.72471e-10 0 7.26283e+12
110.617 0 997.824 0 0 0 0 1.468e-10 0 8.57124e+12
116.896 0 1177.58 0 0 0 0 1.24935e-10 0 1.01154e+13
123.532 0 1389.73 0 0 0 0 1.06313e-10 0 1.19377e+13
130.545 0 1640.09 0 0 0 0 9.04567e-11 0 1.40883e+13
137.955 0 1935.56 0 0 0 0 7.69563e-11 0 1.66263e+13
145.787 0 2284.26 0 0 0 0 6.54636e-11 0 1.96216e+13
154.063 0 2695.77 0 0 0 0 5.56812e-11 0 2.31565e+13
162.808 0 3181.42 0 0 0 0 4.73556e-11 0 2.73282e+13
172.051 0 3754.56 0 0 0 0 4.02708e-11 0 3.22515e+13
181.818 0 4430.96 0 0 0 0 3.42426e-11 0 3.80616e+13
192.139 0 5229.21 0 0 0 0 2.91139e-11 0 4.49186e+13
203.046 0 6171.26 0 0 0 0 2.4751e-11 0 5.30108e+13
214.572 0 7283.03 0 0 0 0 2.10401e-11 0 6.25608e+13
226.753 0 8595.09 0 0 0 0 1.78839e-11 0 7.38313e+13
239.625 0 10143.5 0 0 0 0 1.51999e-11 0 8.71322e+13
253.228 0 11970.9 0 0 0 0 1.29176e-11 0 1.02829e+14
267.603 0 14127.5 0 0 0 0 1.09771e-11 0 1.21354e+14
282.795 0 16672.6 0 0 0 0 9.3274e-12 0 1.43217e+14
298.848 0 19676.2 0 0 0 0 7.925e-12 0 1.69017e+14
315.813 0 23220.9 0 0 0 0 6.73295e-12 0 1.99466e+14
333.741 0 27404.3 0 0 0 0 5.71979e-12 0 2.35401e+14
352.686 0 32341.2 0 0 0 0 4.85874e-12 0 2.77809e+14
372.707 0 38167.6 0 0 0 0 4.12703e-12 0 3.27857e+14
393.865 0 45043.5 0 0 0 0 3.50528e-12 0 3.86921e+14
416.224 0 53158.3 0 0 0 0 2.97701e-12 0 4.56626e+14
439.852 0 62734.9 0 0 0 0 2.52819e-12 0 5.38888e+14
464.821 0 74036.7 0 0 0 0 2.1469e-12 0 6.35971e+14
491.207 0 87374.6 0 0 0 0 1.82301e-12 0 7.50542e+14
519.092 0 103115 0 0 0 0 1.54789e-12 0 8.85755e+14
548.56 0 121692 0 0 0 0 1.31422e-12 0 1.04533e+15
579.7 0 143615 0 0 0 0 1.11576e-12 0 1.23364e+15
612.608 0 169488 0 0 0 0 9.47223e-13 0 1.45589e+15
647.384 0 200021 0 0 0 0 8.041e-13 0 1.71817e+15
684.134 0 236056 0 0 0 0 6.82568e-13 0 2.0277e+15
722.971 0 278582 0 0 0 0 5.79376e-13 0 2.393e+15
764.012 0 328769 0 0 0 0 4.91762e-13 0 2.8241e+15
