0.169885
200
1.0655e+09
8589934592
0.0129181 0 1.58924e-09 0 0 0 0 0.00677225 0 13.6515
0.0136515 0 1.87554e-09 0 0 0 0 0.00688819 0 16.1108
0.0144264 0 2.21343e-09 0 0 0 0 0.00699249 0 19.0132
0.0152454 0 2.61218e-09 0 0 0 0 0.00708412 0 22.4385
0.0161108 0 3.08278e-09 0 0 0 0 0.00716212 0 26.4808
0.0170254 0 3.63815e-09 0 0 0 0 0.00722559 0 31.2514
0.0179919 0 4.29357e-09 0 0 0 0 0.00727371 0 36.8815
0.0190132 0 5.06707e-09 0 0 0 0 0.00730578 0 43.5258
0.0200925 0 5.97991e-09 0 0 0 0 0.00732122 0 51.367
0.0212331 0 7.05721e-09 0 0 0 0 0.00731958 0 60.621
0.0224385 0 8.32858e-09 0 0 0 0 0.00730056 0 71.542
0.0237123 0 9.829e-09 0 0 0 0 0.00726401 0 84.4305
0.0250583 0 1.15997e-08 0 0 0 0 0.00720995 0 99.6408
0.0264808 0 1.36894e-08 0 0 0 0 0.00713857 0 117.591
0.0279841 0 1.61556e-08 0 0 0 0 0.00705021 0 138.776
0.0295727 0 1.90661e-08 0 0 0 0 0.00694538 0 163.777
0.0312514 0 2.25009e-08 0 0 0 0 0.00682475 0 193.281
0.0330255 0 2.65545e-08 0 0 0 0 0.00668915 0 228.102
0.0349003 0 3.13384e-08 0 0 0 0 0.00653951 0 269.195
0.0368815 0 3.69841e-08 0 0 0 0 0.00637693 0 317.691
0.0389751 0 4.36469e-08 0 0 0 0 0.00620256 0 374.924
0.0411876 0 5.151e-08 0 0 0 0 0.00601767 0 442.467
0.0435258 0 6.07896e-08 0 0 0 0 0.00582358 0 522.179
0.0459966 0 7.1741e-08 0 0 0 0 0.00562166 0 616.251
0.0486077 0 8.46654e-08 0 0 0 0 0.0054133 0 727.27
0.051367 0 9.99181e-08 0 0 0 0 0.00519989 0 858.29
0.054283 0 1.17919e-07 0 0 0 0 0.0049828 0 1012.91
0.0573645 0 1.39162e-07 0 0 0 0 0.00476339 0 1195.39
0.060621 0 1.64232e-07 0 0 0 0 0.00454293 0 1410.75
0.0640622 0 1.93819e-07 0 0 0 0 0.00432265 0 1664.89
0.0676989 0 2.28736e-07 0 0 0 0 0.00410371 0 1964.83
0.071542 0 2.69944e-07 0 0 0 0 0.00388717 0 2318.8
0.0756032 0 3.18575e-07 0 0 0 0 0.00367401 0 2736.54
0.079895 0 3.75967e-07 0 0 0 0 0.0034651 0 3229.53
0.0844305 0 4.43698e-07 0 0 0 0 0.00326121 0 3811.34
0.0892234 0 5.23632e-07 0 0 0 0 0.00306301 0 4497.96
0.0942883 0 6.17966e-07 0 0 0 0 0.00287109 0 5308.28
0.0996408 0 7.29294e-07 0 0 0 0 0.00268591 0 6264.59
0.105297 0 8.60678e-07 0 0 0 0 0.00250785 0 7393.17
0.111275 0 1.01573e-06 0 0 0 0 0.00233721 0 8725.07
0.117591 0 1.19872e-06 0 0 0 0 0.00217419 0 10296.9
0.124267 0 1.41467e-06 0 0 0 0 0.00201893 0 12151.9
0.131321 0 1.66953e-06 0 0 0 0 0.00187147 0 14341.1
0.138776 0 1.9703e-06 0 0 0 0 0.00173182 0 16924.7
0.146654 0 2.32525e-06 0 0 0 0 0.00159991 0 19973.8
0.154979 0 2.74415e-06 0 0 0 0 0.00147563 0 23572.1
0.163777 0 3.23852e-06 0 0 0 0 0.00135884 0 27818.7
0.173074 0 3.82195e-06 0 0 0 0 0.00124933 0 32830.3
0.182899 0 4.51048e-06 0 0 0 0 0.00114689 0 38744.7
0.193281 0 5.32305e-06 0 0 0 0 0.00105127 0 45724.7
0.204254 0 6.28202e-06 0 0 0 0 0.000962209 0 53962.1
0.215848 0 7.41374e-06 0 0 0 0 0.000879423 0 63683.5
0.228102 0 8.74934e-06 0 0 0 0 0.000802624 0 75156.3
0.24105 0 1.03256e-05 0 0 0 0 0.000731515 0 88695.9
0.254734 0 1.21857e-05 0 0 0 0 0.000665798 0 104675
0.269195 0 1.4381e-05 0 0 0 0 0.000605173 0 123532
0.284476 0 1.69718e-05 0 0 0 0 0.000549345 0 145787
0.300625 0 2.00293e-05 0 0 0 0 0.000498021 0 172051
0.317691 0 2.36377e-05 0 0 0 0 0.000450916 0 203046
0.335725 0 2.78961e-05 0 0 0 0 0.000407755 0 239625
0.354784 0 3.29216e-05 0 0 0 0 0.000368269 0 282795
0.374924 0 3.88525e-05 0 0 0 0 0.000332202 0 333741
0.396207 0.598189 4.58519e-05 1.51877e-06 6 0.581559 1.47654e-06 0.000299307 0.0304457 393865
0.418699 0 5.41123e-05 0 0 0 0 0.00026935 0 464821
0.442467 0 6.38607e-05 0 0 0 0 0.000242108 0 548560
0.467585 0 7.53654e-05 0 0 0 0 0.00021737 0 647384
0.494129 0 8.89427e-05 0 0 0 0 0.000194938 0 764012
0.522179 0 0.000104966 0 0 0 0 0.000174625 0 901651
0.551822 0 0.000123876 0 0 0 0 0.000156255 0 1.06409e+06
0.583147 5.09818 0.000146192 4.05976e-06 12 5.36587 4.27292e-06 0.000139664 0.348817 1.25578e+06
0.616251 0 0.000172529 0 0 0 0 0.0001247 0 1.48202e+06
0.651234 0 0.000203611 0 0 0 0 0.00011122 0 1.74901e+06
0.688203 23.3345 0.000240292 1.1305e-05 8 22.754 1.10237e-05 9.90935e-05 0.912671 2.06409e+06
0.72727 0 0.000283581 0 0 0 0 8.81969e-05 0 2.43595e+06
0.768555 0 0.000334669 0 0 0 0 7.84179e-05 0 2.87479e+06
0.812184 0.362942 0.000394961 1.06978e-07 6 0.370702 1.09265e-07 6.96525e-05 0.00921526 3.39269e+06
0.85829 0 0.000466114 0 0 0 0 6.1805e-05 0 4.00389e+06
0.907013 0.191288 0.000550086 4.04825e-08 24 0.194958 4.12592e-08 5.47875e-05 0.0177336 4.7252e+06
0.958501 1.02068 0.000649185 1.83033e-07 24 0.960891 1.72312e-07 4.85194e-05 0.0905368 5.57646e+06
1.01291 0 0.000766138 0 0 0 0 4.29272e-05 0 6.58107e+06
1.07041 0 0.00090416 0 0 0 0 3.79435e-05 0 7.76667e+06
1.13118 1.84729 0.00106705 2.0154e-07 12 1.8246 1.99065e-07 3.3507e-05 0.0721785 9.16586e+06
1.19539 1.00452 0.00125928 9.28635e-08 30 0.983807 9.09491e-08 2.9562e-05 0.0942393 1.08171e+07
1.26325 5.94584 0.00148614 4.65762e-07 24 5.85637 4.58753e-07 2.60578e-05 0.42898 1.27658e+07
1.33496 20.2942 0.00175387 1.34705e-06 24 20.3388 1.35001e-06 2.29484e-05 1.40878 1.50656e+07
1.41075 6.97557 0.00206984 3.92332e-07 32 7.16299 4.02873e-07 2.01923e-05 0.621753 1.77798e+07
1.49083 0.638407 0.00244272 3.04252e-08 48 0.624797 2.97766e-08 1.77518e-05 0.0822685 2.09828e+07
1.57546 0.0970183 0.00288279 3.91788e-09 6 0.0923833 3.73071e-09 1.55929e-05 0.00150757 2.4763e+07
1.66489 0.483071 0.00340213 1.65299e-08 84 0.469202 1.60553e-08 1.3685e-05 0.101462 2.92241e+07
1.75941 2.90033 0.00401503 8.40948e-08 48 2.91946 8.46495e-08 1.20007e-05 0.33636 3.44889e+07
1.85928 0.432792 0.00473835 1.06332e-08 72 0.43438 1.06722e-08 1.05151e-05 0.0728085 4.07021e+07
1.96483 0.749018 0.00559198 1.55933e-08 54 0.729281 1.51824e-08 9.20606e-06 0.0914655 4.80347e+07
2.07637 8.35874 0.00659939 1.47451e-07 104 8.32962 1.46937e-07 8.05366e-06 1.90409 5.66883e+07
2.19424 0.575521 0.00778828 8.6026e-09 120 0.582281 8.70363e-09 7.04008e-06 0.146634 6.69008e+07
2.3188 2.05904 0.00919136 2.60792e-08 156 1.96677 2.49106e-08 6.1494e-06 0.661586 7.89532e+07
2.45043 1.06468 0.0108472 1.14264e-08 126 1.05571 1.13302e-08 5.36741e-06 0.268235 9.31768e+07
2.58954 1.06608 0.0128014 9.69489e-09 192 1.08296 9.84837e-09 4.68145e-06 0.397616 1.09963e+08
2.73654 4.86737 0.0151076 3.75068e-08 152 5.04578 3.88816e-08 4.08023e-06 1.39723 1.29773e+08
2.89188 3.91801 0.0178292 2.55825e-08 378 3.99497 2.6085e-08 3.55373e-06 2.72114 1.53152e+08
3.05605 1.72471 0.0210412 9.54238e-09 264 1.69173 9.3599e-09 3.09304e-06 0.81447 1.80743e+08
3.22953 0.62952 0.0248319 2.95128e-09 366 0.62325 2.92189e-09 2.69025e-06 0.401512 2.13304e+08
3.41286 1.06996 0.0293054 4.25041e-09 428 1.0352 4.11232e-09 2.33837e-06 0.777966 2.51731e+08
3.6066 3.34282 0.0345848 1.12522e-08 486 3.24063 1.09082e-08 2.0312e-06 2.69228 2.97081e+08
3.81134 1.24438 0.0408154 3.54928e-09 600 1.2419 3.54219e-09 1.76327e-06 1.20774 3.50601e+08
4.0277 1.18065 0.0481684 2.85344e-09 738 1.16348 2.81194e-09 1.52972e-06 1.37662 4.13763e+08
4.25634 1.78909 0.056846 3.66389e-09 824 1.83127 3.75026e-09 1.32631e-06 2.27628 4.88304e+08
4.49796 3.22647 0.067087 5.59886e-09 954 3.23747 5.61794e-09 1.14926e-06 4.64762 5.76273e+08
4.7533 1.22012 0.0791729 1.79405e-09 1094 1.20867 1.77722e-09 9.95263e-07 1.97203 6.8009e+08
5.02313 1.19007 0.0934361 1.48275e-09 1332 1.18901 1.48143e-09 8.61414e-07 2.29277 8.0261e+08
5.30828 3.00959 0.110269 3.17734e-09 1614 3.03516 3.20435e-09 7.45152e-07 6.88213 9.47202e+08
5.60962 1.94671 0.130134 1.74149e-09 1850 1.91305 1.71137e-09 6.44232e-07 5.00093 1.11784e+09
5.92807 2.45373 0.153578 1.85997e-09 2238 2.39338 1.81423e-09 5.56685e-07 7.47751 1.31923e+09
6.26459 1.68967 0.181246 1.08529e-09 2546 1.70282 1.09373e-09 4.80786e-07 5.74714 1.55689e+09
6.62021 1.43373 0.213898 7.80319e-10 3264 1.43463 7.80806e-10 4.15026e-07 6.13688 1.83737e+09
6.99602 2.59147 0.252432 1.19512e-09 3506 2.63171 1.21368e-09 3.58083e-07 11.7015 2.16837e+09
7.39317 2.13906 0.297908 8.35892e-10 4506 2.15082 8.40487e-10 3.08803e-07 12.1972 2.55901e+09
7.81286 2.67641 0.351577 8.86223e-10 5018 2.70411 8.95393e-10 2.66181e-07 16.7069 3.02002e+09
8.25637 2.68439 0.414914 7.53176e-10 5852 2.65187 7.44054e-10 2.29336e-07 19.2189 3.56409e+09
8.72507 2.69193 0.489662 6.39996e-10 7362 2.67945 6.37029e-10 1.97503e-07 23.8561 4.20617e+09
9.22037 3.09778 0.577876 6.24058e-10 8306 3.07754 6.19982e-10 1.70014e-07 30.4882 4.96392e+09
9.74378 2.69254 0.681982 4.59621e-10 9698 2.69452 4.59959e-10 1.46289e-07 30.4698 5.85818e+09
10.2969 3.54106 0.804843 5.12192e-10 11816 3.55318 5.13945e-10 1.25822e-07 48.1 6.91355e+09
10.8814 3.62482 0.949838 4.4427e-10 13682 3.62159 4.43874e-10 1.08175e-07 56.1912 8.15905e+09
11.4992 3.86531 1.12095 4.01427e-10 16152 3.85203 4.00048e-10 9.29669e-08 69.7437 9.62892e+09
12.1519 4.19762 1.3229 3.69392e-10 19472 4.17567 3.6746e-10 7.98658e-08 90.0612 1.13636e+10
12.8418 4.1565 1.56122 3.09937e-10 22670 4.14966 3.09427e-10 6.85852e-08 102.446 1.34108e+10
13.5708 4.90946 1.84248 3.102e-10 26224 4.91179 3.10347e-10 5.88765e-08 138.165 1.58268e+10
14.3411 5.28689 2.17441 2.83055e-10 31640 5.28901 2.83168e-10 5.05241e-08 177.259 1.8678e+10
15.1552 5.90198 2.56613 2.6775e-10 37484 5.89265 2.67327e-10 4.33417e-08 231.563 2.20429e+10
16.0156 6.41669 3.02843 2.46663e-10 43856 6.4101 2.4641e-10 3.71677e-08 291.05 2.6014e+10
16.9247 7.32594 3.574 2.38626e-10 51362 7.31426 2.38246e-10 3.18628e-08 384.659 3.07005e+10
17.8855 7.90597 4.21787 2.18209e-10 61636 7.88466 2.17621e-10 2.73063e-08 492.542 3.62312e+10
18.9008 8.78597 4.97773 2.0548e-10 72218 8.76544 2.04999e-10 2.33941e-08 634.318 4.27584e+10
19.9738 9.79958 5.87448 1.94199e-10 84586 9.77586 1.93729e-10 2.00364e-08 819.836 5.04614e+10
21.1076 10.9704 6.93279 1.84215e-10 100708 10.9478 1.83835e-10 1.71555e-08 1081.4 5.95522e+10
22.3058 12.1222 8.18175 1.72483e-10 118712 12.0914 1.72044e-10 1.46847e-08 1394.37 7.02807e+10
23.5721 13.4452 9.65571 1.62104e-10 140410 13.4075 1.61649e-10 1.25662e-08 1811.3 8.29419e+10
24.9102 14.8564 11.3952 1.51776e-10 164374 14.816 1.51362e-10 1.07504e-08 2320.66 9.78842e+10
26.3243 16.3944 13.4481 1.41921e-10 194680 16.3548 1.41577e-10 9.19452e-09 3004.96 1.15518e+11
27.8187 18.0659 15.8708 1.32517e-10 230196 18.0204 1.32183e-10 7.86182e-09 3880.12 1.36329e+11
29.3979 20.0281 18.73 1.24484e-10 271156 19.9791 1.24179e-10 6.72061e-09 5022.54 1.60889e+11
31.0667 22.3923 22.1042 1.17933e-10 321076 22.3336 1.17624e-10 5.74366e-09 6592.55 1.89874e+11
32.8303 24.8838 26.0864 1.11049e-10 377436 24.8212 1.10769e-10 4.90756e-09 8540.66 2.2408e+11
34.694 27.6922 30.7859 1.04717e-10 447594 27.6153 1.04426e-10 4.19221e-09 11180.4 2.64449e+11
36.6634 31.0518 36.3321 9.94962e-11 525078 30.9676 9.92266e-11 3.58032e-09 14591.8 3.1209e+11
38.7447 34.9231 42.8774 9.48188e-11 621924 34.8284 9.45618e-11 3.05709e-09 19289.6 3.68314e+11
40.9442 39.0427 50.6018 8.98222e-11 732630 38.9373 8.95797e-11 2.60976e-09 25215.5 4.34667e+11
43.2685 44.2416 59.7179 8.62454e-11 865596 44.127 8.6022e-11 2.22743e-09 33515.6 5.12973e+11
45.7247 49.9583 70.4762 8.25231e-11 1.02168e+06 49.8213 8.22968e-11 1.90073e-09 44357.5 6.05386e+11
48.3204 56.8954 83.1727 7.96355e-11 1.20544e+06 56.7353 7.94114e-11 1.62163e-09 59196.8 7.14448e+11
51.0634 64.9677 98.1565 7.70528e-11 1.42103e+06 64.793 7.68456e-11 1.38326e-09 79157 8.43158e+11
53.9621 74.0554 115.84 7.44234e-11 1.67997e+06 73.8472 7.42142e-11 1.1797e-09 105983 9.95055e+11
57.0254 84.9301 136.709 7.23229e-11 1.98018e+06 84.6775 7.21079e-11 1.00592e-09 142370 1.17432e+12
60.2626 97.5623 161.337 7.03977e-11 2.33957e+06 97.2648 7.0183e-11 8.57591e-10 192050 1.38587e+12
63.6835 112.616 190.402 6.88554e-11 2.75676e+06 112.277 6.86484e-11 7.3101e-10 259666 1.63554e+12
67.2987 129.944 224.704 6.73218e-11 3.25638e+06 129.559 6.71222e-11 6.23009e-10 351881 1.93019e+12
71.1191 150.841 265.185 6.62186e-11 3.84387e+06 150.375 6.60144e-11 5.30879e-10 479461 2.27792e+12
75.1563 178.849 312.958 6.65289e-11 4.53277e+06 178.039 6.62274e-11 4.52303e-10 666720 2.68829e+12
79.4227 204.357 369.339 6.44133e-11 5.35083e+06 203.731 6.42158e-11 3.85299e-10 894536 3.17259e+12
83.9313 238.342 435.876 6.36573e-11 6.32174e+06 237.587 6.34557e-11 3.28173e-10 1.22626e+06 3.74415e+12
88.6959 278.736 514.4 6.30815e-11 7.44986e+06 277.852 6.28813e-11 2.79476e-10 1.68153e+06 4.41866e+12
93.7309 326.539 607.071 6.26189e-11 8.79764e+06 325.496 6.2419e-11 2.37972e-10 2.31497e+06 5.2147e+12
99.0518 382.657 716.436 6.21787e-11 1.03827e+07 381.412 6.19765e-11 2.02605e-10 3.18641e+06 6.15414e+12
104.675 459.675 845.504 6.32914e-11 1.22515e+07 458.722 6.31602e-11 1.72471e-10 4.49592e+06 7.26283e+12
110.617 528.461 997.824 6.16551e-11 1.44573e+07 526.742 6.14546e-11 1.468e-10 6.07199e+06 8.57124e+12
116.896 621.346 1177.58 6.14259e-11 1.70664e+07 619.326 6.12262e-11 1.24935e-10 8.39094e+06 1.01154e+13
123.532 731.659 1389.73 6.12899e-11 2.0139e+07 729.262 6.10891e-11 1.06313e-10 1.16102e+07 1.19377e+13
130.545 863.601 1640.09 6.12992e-11 2.37643e+07 860.826 6.11022e-11 9.04567e-11 1.61042e+07 1.40883e+13
137.955 1014.45 1935.56 6.10145e-11 2.80503e+07 1011.09 6.08123e-11 7.69563e-11 2.22396e+07 1.66263e+13
145.787 1195.82 2284.26 6.09441e-11 3.30981e+07 1191.89 6.07437e-11 6.54636e-11 3.08131e+07 1.96216e+13
154.063 1410.13 2695.77 6.08957e-11 3.90634e+07 1405.44 6.06933e-11 5.56812e-11 4.27217e+07 2.31565e+13
162.808 1662.19 3181.42 6.08232e-11 4.61057e+07 1656.67 6.06214e-11 4.73556e-11 5.92178e+07 2.73282e+13
172.051 1962.35 3754.56 6.08453e-11 5.44046e+07 1955.79 6.06418e-11 4.02708e-11 8.22e+07 3.22515e+13
181.818 2317.69 4430.96 6.0893e-11 6.42064e+07 2309.97 6.06901e-11 3.42426e-11 1.14177e+08 3.80616e+13
192.139 2738.19 5229.21 6.09591e-11 7.57748e+07 2728.98 6.07539e-11 2.91139e-11 1.58658e+08 4.49186e+13
203.046 3239.93 6171.26 6.11183e-11 8.94213e+07 3228.95 6.09112e-11 2.4751e-11 2.2081e+08 5.30108e+13
214.572 3832.24 7283.03 6.12563e-11 1.05538e+08 3819.32 6.10498e-11 2.10401e-11 3.07265e+08 6.25608e+13
226.753 4540.61 8595.09 6.14998e-11 1.24552e+08 4525.09 6.12896e-11 1.78839e-11 4.28313e+08 7.38313e+13
239.625 5382.57 10143.5 6.17748e-11 1.46987e+08 5364.19 6.15638e-11 1.51999e-11 5.97379e+08 8.71322e+13
253.228 6392.1 11970.9 6.21623e-11 1.7347e+08 6370.07 6.1948e-11 1.29176e-11 8.34774e+08 1.02829e+14
267.603 7611.16 14127.5 6.27185e-11 2.04703e+08 7584.69 6.25004e-11 1.09771e-11 1.16958e+09 1.21354e+14
282.795 9087.48 16672.6 6.34527e-11 2.4161e+08 9055.43 6.3229e-11 9.3274e-12 1.64363e+09 1.43217e+14
298.848 10893.1 19676.2 6.44493e-11 2.85122e+08 10853.9 6.42178e-11 7.925e-12 2.31873e+09 1.69017e+14
315.813 13130.5 23220.9 6.58282e-11 3.36491e+08 13082.3 6.55866e-11 6.73295e-12 3.28988e+09 1.99466e+14
333.741 15944.5 27404.3 6.77335e-11 3.97115e+08 15883.8 6.74755e-11 5.71979e-12 4.70261e+09 2.35401e+14
352.686 19570.5 32341.2 7.04461e-11 4.68637e+08 19492.7 7.0166e-11 4.85874e-12 6.79469e+09 2.77809e+14
372.707 24385.2 38167.6 7.43776e-11 5.53074e+08 24282.6 7.40645e-11 4.12703e-12 9.96754e+09 3.27857e+14
393.865 31031.3 45043.5 8.02005e-11 6.52716e+08 30890.4 7.98363e-11 3.50528e-12 1.49341e+10 3.86921e+14
416.224 36626.1 53158.3 8.02104e-11 2.2184e+08 38747 8.48551e-11 2.97701e-12 5.97709e+09 4.56626e+14
439.852 0 62734.9 0 0 0 0 2.52819e-12 0 5.38888e+14
464.821 0 74036.7 0 0 0 0 2.1469e-12 0 6.35971e+14
491.207 0 87374.6 0 0 0 0 1.82301e-12 0 7.50542e+14
519.092 0 103115 0 0 0 0 1.54789e-12 0 8.85755e+14
548.56 0 121692 0 0 0 0 1.31422e-12 0 1.04533e+15
579.7 0 143615 0 0 0 0 1.11576e-12 0 1.23364e+15
612.608 0 169488 0 0 0 0 9.47223e-13 0 1.45589e+15
647.384 0 200021 0 0 0 0 8.041e-13 0 1.71817e+15
684.134 0 236056 0 0 0 0 6.82568e-13 0 2.0277e+15
722.971 0 278582 0 0 0 0 5.79376e-13 0 2.393e+15
764.012 0 328769 0 0 0 0 4.91762e-13 0 2.8241e+15
0.169885
200
1.0655e+09
8589934592
0.0129181 8.57667e-05 1.58924e-09 6.2826e-06 6 8.49815e-05 6.22509e-06 0.00677225 0.00556618 13.6515
0.0136515 0 1.87554e-09 0 0 0 0 0.00688819 0 16.1108
0.0144264 0 2.21343e-09 0 0 0 0 0.00699249 0 19.0132
0.0152454 0 2.61218e-09 0 0 0 0 0.00708412 0 22.4385
0.0161108 0 3.08278e-09 0 0 0 0 0.00716212 0 26.4808
0.0170254 0 3.63815e-09 0 0 0 0 0.00722559 0 31.2514
0.0179919 0.000193734 4.29357e-09 5.25288e-06 12 0.000193484 5.24611e-06 0.00727371 0.00866608 36.8815
0.0190132 0 5.06707e-09 0 0 0 0 0.00730578 0 43.5258
0.0200925 0 5.97991e-09 0 0 0 0 0.00732122 0 51.367
0.0212331 0.000185025 7.05721e-09 3.05217e-06 8 0.000184864 3.04951e-06 0.00731958 0.0033359 60.621
0.0224385 0 8.32858e-09 0 0 0 0 0.00730056 0 71.542
0.0237123 0 9.829e-09 0 0 0 0 0.00726401 0 84.4305
0.0250583 0.00119688 1.15997e-08 1.20119e-05 6 0.00119631 1.20062e-05 0.00720995 0.00999609 99.6408
0.0264808 0 1.36894e-08 0 0 0 0 0.00713857 0 117.591
0.0279841 0.000748947 1.61556e-08 5.39682e-06 24 0.000748178 5.39127e-06 0.00705021 0.0183716 138.776
0.0295727 0 1.90661e-08 0 0 0 0 0.00694538 0 163.777
0.0312514 0.00134468 2.25009e-08 6.9571e-06 24 0.00135151 6.99242e-06 0.00682475 0.0244654 193.281
0.0330255 0 2.65545e-08 0 0 0 0 0.00668915 0 228.102
0.0349003 0.00190381 3.13384e-08 7.07225e-06 12 0.00188857 7.01562e-06 0.00653951 0.0129776 269.195
0.0368815 0.00164603 3.69841e-08 5.18124e-06 30 0.0016285 5.12607e-06 0.00637693 0.0243749 317.691
0.0389751 0.0019625 4.36469e-08 5.2344e-06 24 0.00194231 5.18055e-06 0.00620256 0.0202538 374.924
0.0411876 0.00124652 5.151e-08 2.81721e-06 24 0.00123806 2.79808e-06 0.00601767 0.0112358 442.467
0.0435258 0.00271487 6.07896e-08 5.19911e-06 8 0.00271466 5.19871e-06 0.00582358 0.00714215 522.179
0.0459966 0.00347778 7.1741e-08 5.64345e-06 72 0.00345024 5.59876e-06 0.00562166 0.072279 616.251
0.0486077 0 8.46654e-08 0 0 0 0 0.0054133 0 727.27
0.051367 0.00520698 9.99181e-08 6.06669e-06 54 0.00519042 6.0474e-06 0.00519989 0.0630015 858.29
0.054283 0.00406459 1.17919e-07 4.01277e-06 60 0.00408157 4.02954e-06 0.0049828 0.0483195 1012.91
0.0573645 0.00404245 1.39162e-07 3.38169e-06 96 0.00403202 3.37297e-06 0.00476339 0.0681538 1195.39
0.060621 0.00469002 1.64232e-07 3.3245e-06 24 0.00462648 3.27946e-06 0.00454293 0.0175631 1410.75
0.0640622 0.00827586 1.93819e-07 4.9708e-06 134 0.00828032 4.97348e-06 0.00432265 0.154092 1664.89
0.0676989 0.0079682 2.28736e-07 4.05541e-06 120 0.00793161 4.03679e-06 0.00410371 0.118588 1964.83
0.071542 0.0073124 2.69944e-07 3.15353e-06 108 0.00723317 3.11936e-06 0.00388717 0.0876166 2318.8
0.0756032 0.0106613 3.18575e-07 3.89592e-06 174 0.0106054 3.8755e-06 0.00367401 0.184509 2736.54
0.079895 0.0114216 3.75967e-07 3.53662e-06 168 0.0113139 3.50326e-06 0.0034651 0.171468 3229.53
0.0844305 0.00977393 4.43698e-07 2.56443e-06 168 0.00982274 2.57724e-06 0.00326121 0.132106 3811.34
0.0892234 0.0110474 5.23632e-07 2.4561e-06 290 0.0110008 2.44573e-06 0.00306301 0.232538 4497.96
0.0942883 0.0143582 6.17966e-07 2.70486e-06 288 0.0143218 2.69801e-06 0.00287109 0.271326 5308.28
0.0996408 0.0130727 7.29294e-07 2.08677e-06 366 0.0129625 2.06917e-06 0.00268591 0.284357 6264.59
0.105297 0.014263 8.60678e-07 1.92921e-06 420 0.014164 1.91583e-06 0.00250785 0.323093 7393.17
0.111275 0.0151479 1.01573e-06 1.73614e-06 398 0.0151056 1.73129e-06 0.00233721 0.295644 8725.07
0.117591 0.0180745 1.19872e-06 1.75533e-06 624 0.0181113 1.75891e-06 0.00217419 0.503786 10296.9
0.124267 0.0201098 1.41467e-06 1.65486e-06 642 0.020083 1.65266e-06 0.00201893 0.526231 12151.9
0.131321 0.0255593 1.66953e-06 1.78224e-06 800 0.025568 1.78284e-06 0.00187147 0.761857 14341.1
0.138776 0.0231839 1.9703e-06 1.36982e-06 858 0.0232951 1.3764e-06 0.00173182 0.678657 16924.7
0.146654 0.0251865 2.32525e-06 1.26098e-06 1080 0.0253967 1.2715e-06 0.00159991 0.85121 19973.8
0.154979 0.0299186 2.74415e-06 1.26924e-06 1286 0.0301244 1.27797e-06 0.00147563 1.10613 23572.1
0.163777 0.0283572 3.23852e-06 1.01936e-06 1650 0.0284084 1.0212e-06 0.00135884 1.23778 27818.7
0.173074 0.0334784 3.82195e-06 1.01974e-06 1778 0.0334816 1.01984e-06 0.00124933 1.45126 32830.3
0.182899 0.0328024 4.51048e-06 8.4663e-07 2112 0.0328807 8.4865e-07 0.00114689 1.55907 38744.7
0.193281 0.0386162 5.32305e-06 8.44537e-07 2570 0.0386714 8.45744e-07 0.00105127 2.0646 45724.7
0.204254 0.0432289 6.28202e-06 8.01097e-07 3030 0.0432086 8.00721e-07 0.000962209 2.52266 53962.1
0.215848 0.0431136 7.41374e-06 6.76998e-07 3434 0.0431035 6.76839e-07 0.000879423 2.64356 63683.5
0.228102 0.0451771 8.74934e-06 6.01109e-07 4218 0.0451884 6.0126e-07 0.000802624 3.15899 75156.3
0.24105 0.0511321 1.03256e-05 5.76488e-07 4766 0.0511807 5.77035e-07 0.000731515 3.75596 88695.9
0.254734 0.0549687 1.21857e-05 5.25138e-07 6026 0.0549509 5.24968e-07 0.000665798 4.75292 104675
0.269195 0.0578308 1.4381e-05 4.68144e-07 6480 0.0577992 4.67888e-07 0.000605173 5.01273 123532
0.284476 0.0630576 1.69718e-05 4.32533e-07 8162 0.0632014 4.33519e-07 0.000549345 6.42645 145787
0.300625 0.0637339 2.00293e-05 3.70437e-07 9578 0.0638128 3.70895e-07 0.000498021 7.12429 172051
0.317691 0.071237 2.36377e-05 3.50841e-07 11234 0.0711799 3.5056e-07 0.000450916 8.74076 203046
0.335725 0.0748056 2.78961e-05 3.12178e-07 13344 0.0747642 3.12005e-07 0.000407755 10.2162 239625
0.354784 0.0781375 3.29216e-05 2.76305e-07 15464 0.0780878 2.76129e-07 0.000368269 11.6023 282795
0.374924 0.0841522 3.88525e-05 2.52148e-07 18458 0.0841413 2.52116e-07 0.000332202 14.01 333741
0.396207 0.0887539 4.58519e-05 2.25341e-07 22232 0.0886254 2.25015e-07 0.000299307 16.7379 393865
0.418699 0.096466 5.41123e-05 2.07534e-07 25628 0.096255 2.0708e-07 0.00026935 19.7464 464821
0.442467 0.101479 6.38607e-05 1.84992e-07 30320 0.101291 1.84649e-07 0.000242108 23.1671 548560
0.467585 0.106607 7.53654e-05 1.64674e-07 35452 0.106451 1.64432e-07 0.00021737 26.8574 647384
0.494129 0.111716 8.89427e-05 1.46223e-07 41792 0.111668 1.46159e-07 0.000194938 31.3481 764012
0.522179 0.121098 0.000104966 1.34307e-07 49988 0.121057 1.34262e-07 0.000174625 38.4466 901651
0.551822 0.127457 0.000123876 1.19781e-07 59110 0.127367 1.19696e-07 0.000156255 45.3123 1.06409e+06
0.583147 0.135771 0.000146192 1.08116e-07 69716 0.135594 1.07976e-07 0.000139664 53.9683 1.25578e+06
0.616251 0.144036 0.000172529 9.71889e-08 82210 0.143799 9.7029e-08 0.0001247 64.073 1.48202e+06
0.651234 0.153482 0.000203611 8.77537e-08 96722 0.153187 8.7585e-08 0.00011122 76.3143 1.74901e+06
0.688203 0.162629 0.000240292 7.87896e-08 113098 0.162463 7.8709e-08 9.90935e-05 89.9247 2.06409e+06
0.72727 0.171012 0.000283581 7.02036e-08 135190 0.170826 7.01273e-08 8.81969e-05 107.609 2.43595e+06
0.768555 0.182681 0.000334669 6.35459e-08 158170 0.182503 6.34841e-08 7.84179e-05 128.173 2.87479e+06
0.812184 0.19283 0.000394961 5.68368e-08 188560 0.192625 5.67764e-08 6.96525e-05 153.866 3.39269e+06
0.85829 0.204033 0.000466114 5.09587e-08 220444 0.203782 5.08961e-08 6.1805e-05 181.758 4.00389e+06
0.907013 0.216058 0.000550086 4.57246e-08 261388 0.215822 4.56746e-08 5.47875e-05 218.15 4.7252e+06
0.958501 0.229562 0.000649185 4.11662e-08 308244 0.229303 4.11199e-08 4.85194e-05 261.529 5.57646e+06
1.01291 0.244668 0.000766138 3.71775e-08 364396 0.244375 3.7133e-08 4.29272e-05 315.589 6.58107e+06
1.07041 0.258429 0.00090416 3.32741e-08 429162 0.258076 3.32286e-08 3.79435e-05 376.348 7.76667e+06
1.13118 0.275558 0.00106705 3.00636e-08 506358 0.275207 3.00252e-08 3.3507e-05 454.321 9.16586e+06
1.19539 0.291961 0.00125928 2.69906e-08 598590 0.291551 2.69527e-08 2.9562e-05 546.523 1.08171e+07
1.26325 0.310238 0.00148614 2.43022e-08 704844 0.309808 2.42685e-08 2.60578e-05 657.355 1.27658e+07
1.33496 0.328687 0.00175387 2.1817e-08 834620 0.328209 2.17852e-08 2.29484e-05 793.469 1.50656e+07
1.41075 0.349524 0.00206984 1.96585e-08 981444 0.349047 1.96317e-08 2.01923e-05 955.5 1.77798e+07
1.49083 0.371673 0.00244272 1.77132e-08 1.15998e+06 0.371159 1.76887e-08 1.77518e-05 1157.46 2.09828e+07
1.57546 0.396748 0.00288279 1.60218e-08 1.36931e+06 0.396161 1.59982e-08 1.55929e-05 1406.98 2.4763e+07
1.66489 0.422285 0.00340213 1.44499e-08 1.61652e+06 0.421622 1.44272e-08 1.3685e-05 1706.87 2.92241e+07
1.75941 0.449822 0.00401503 1.30425e-08 1.90601e+06 0.449127 1.30224e-08 1.20007e-05 2071.48 3.44889e+07
1.85928 0.480495 0.00473835 1.18052e-08 2.24913e+06 0.479778 1.17875e-08 1.05151e-05 2525.07 4.07021e+07
1.96483 0.511865 0.00559198 1.06561e-08 2.65744e+06 0.511024 1.06386e-08 9.20606e-06 3076.03 4.80347e+07
2.07637 0.547527 0.00659939 9.65856e-09 3.13125e+06 0.546667 9.64339e-09 8.05366e-06 3755.23 5.66883e+07
2.19424 0.585464 0.00778828 8.75122e-09 3.69915e+06 0.584567 8.73781e-09 7.04008e-06 4598.26 6.69008e+07
2.3188 0.626476 0.00919136 7.93478e-09 4.36472e+06 0.625472 7.92206e-09 6.1494e-06 5631.95 7.89532e+07
2.45043 0.671419 0.0108472 7.20586e-09 5.14913e+06 0.670318 7.19404e-09 5.36741e-06 6912.82 9.31768e+07
2.58954 0.721729 0.0128014 6.56339e-09 6.07894e+06 0.720522 6.55241e-09 4.68145e-06 8522.66 1.09963e+08
2.73654 0.774033 0.0151076 5.96451e-09 7.17304e+06 0.772751 5.95464e-09 4.08023e-06 10485.6 1.29773e+08
2.89188 0.833115 0.0178292 5.43979e-09 8.46557e+06 0.831717 5.43066e-09 3.55373e-06 12958.5 1.53152e+08
3.05605 0.897141 0.0210412 4.96364e-09 9.98773e+06 0.895671 4.9555e-09 3.09304e-06 16028.1 1.80743e+08
3.22953 0.966479 0.0248319 4.53099e-09 1.1797e+07 0.96479 4.52307e-09 2.69025e-06 19868.8 2.13304e+08
3.41286 1.04315 0.0293054 4.14391e-09 1.39144e+07 1.0413 4.13655e-09 2.33837e-06 24658.2 2.51731e+08
3.6066 1.12741 0.0345848 3.79496e-09 1.64163e+07 1.12542 3.78824e-09 2.0312e-06 30671.1 2.97081e+08
3.81134 1.21964 0.0408154 3.47871e-09 1.93821e+07 1.21747 3.47253e-09 1.76327e-06 38238.6 3.50601e+08
4.0277 1.32134 0.0481684 3.19346e-09 2.28754e+07 1.31895 3.18769e-09 1.52972e-06 47754.9 4.13763e+08
4.25634 1.43249 0.056846 2.9336e-09 2.69929e+07 1.42985 2.92819e-09 1.32631e-06 59704.5 4.88304e+08
4.49796 1.55611 0.067087 2.7003e-09 3.18542e+07 1.55318 2.69522e-09 1.14926e-06 74844.9 5.76273e+08
4.7533 1.69165 0.0791729 2.48739e-09 3.75892e+07 1.68844 2.48267e-09 9.95263e-07 93944.1 6.8009e+08
5.02313 1.84045 0.0934361 2.29308e-09 4.43706e+07 1.83696 2.28873e-09 8.61414e-07 118114 8.0261e+08
5.30828 2.00475 0.110269 2.1165e-09 5.23593e+07 2.00088 2.11241e-09 7.45152e-07 148719 9.47202e+08
5.60962 2.18496 0.130134 1.95462e-09 6.1787e+07 2.18066 1.95078e-09 6.44232e-07 187463 1.11784e+09
5.92807 2.38412 0.153578 1.80721e-09 7.29346e+07 2.37941 1.80364e-09 5.56685e-07 236773 1.31923e+09
6.26459 2.6039 0.181246 1.6725e-09 8.60651e+07 2.59863 1.66912e-09 4.80786e-07 299393 1.55689e+09
6.62021 2.84763 0.213898 1.54984e-09 1.01558e+08 2.84183 1.54669e-09 4.15026e-07 379252 1.83737e+09
6.99602 3.11592 0.252432 1.43699e-09 1.1986e+08 3.10957 1.43406e-09 3.58083e-07 480998 2.16837e+09
7.39317 3.41265 0.297908 1.33358e-09 1.41457e+08 3.40561 1.33083e-09 3.08803e-07 610888 2.55901e+09
7.81286 3.74149 0.351577 1.23889e-09 1.66936e+08 3.73367 1.23631e-09 2.66181e-07 776974 3.02002e+09
8.25637 4.10774 0.414914 1.15254e-09 1.97025e+08 4.09905 1.1501e-09 2.29336e-07 990157 3.56409e+09
8.72507 4.51774 0.489662 1.07407e-09 2.32497e+08 4.50802 1.07177e-09 1.97503e-07 1.26438e+06 4.20617e+09
9.22037 4.98011 0.577876 1.00326e-09 2.74404e+08 4.96921 1.00107e-09 1.70014e-07 1.61927e+06 4.96392e+09
9.74378 5.51113 0.681982 9.40758e-10 3.2382e+08 5.49869 9.38634e-10 1.46289e-07 2.08243e+06 5.85818e+09
10.2969 6.13048 0.804843 8.86734e-10 3.82165e+08 6.11616 8.84663e-10 1.25822e-07 2.69331e+06 6.91355e+09
10.8814 6.88171 0.949838 8.43446e-10 4.51027e+08 6.86453 8.4134e-10 1.08175e-07 3.51666e+06 8.15905e+09
11.4992 7.83343 1.12095 8.13532e-10 5.32251e+08 7.8121 8.11316e-10 9.29669e-08 4.65761e+06 9.62892e+09
12.1519 9.12805 1.3229 8.03271e-10 6.28157e+08 9.09984 8.00789e-10 7.98658e-08 6.31786e+06 1.13636e+10
12.8418 10.499 1.56122 7.8288e-10 3.82727e+08 10.8652 8.10182e-10 6.85852e-08 4.36871e+06 1.34108e+10
13.5708 0 1.84248 0 0 0 0 5.88765e-08 0 1.58268e+10
14.3411 0 2.17441 0 0 0 0 5.05241e-08 0 1.8678e+10
15.1552 0 2.56613 0 0 0 0 4.33417e-08 0 2.20429e+10
16.0156 0 3.02843 0 0 0 0 3.71677e-08 0 2.6014e+10
16.9247 0 3.574 0 0 0 0 3.18628e-08 0 3.07005e+10
17.8855 0 4.21787 0 0 0 0 2.73063e-08 0 3.62312e+10
18.9008 0 4.97773 0 0 0 0 2.33941e-08 0 4.27584e+10
19.9738 0 5.87448 0 0 0 0 2.00364e-08 0 5.04614e+10
21.1076 0 6.93279 0 0 0 0 1.71555e-08 0 5.95522e+10
22.3058 0 8.18175 0 0 0 0 1.46847e-08 0 7.02807e+10
23.5721 0 9.65571 0 0 0 0 1.25662e-08 0 8.29419e+10
24.9102 0 11.3952 0 0 0 0 1.07504e-08 0 9.78842e+10
26.3243 0 13.4481 0 0 0 0 9.19452e-09 0 1.15518e+11
27.8187 0 15.8708 0 0 0 0 7.86182e-09 0 1.36329e+11
29.3979 0 18.73 0 0 0 0 6.72061e-09 0 1.60889e+11
31.0667 0 22.1042 0 0 0 0 5.74366e-09 0 1.89874e+11
32.8303 0 26.0864 0 0 0 0 4.90756e-09 0 2.2408e+11
34.694 0 30.7859 0 0 0 0 4.19221e-09 0 2.64449e+11
36.6634 0 36.3321 0 0 0 0 3.58032e-09 0 3.1209e+11
38.7447 0 42.8774 0 0 0 0 3.05709e-09 0 3.68314e+11
40.9442 0 50.6018 0 0 0 0 2.60976e-09 0 4.34667e+11
43.2685 0 59.7179 0 0 0 0 2.22743e-09 0 5.12973e+11
45.7247 0 70.4762 0 0 0 0 1.90073e-09 0 6.05386e+11
48.3204 0 83.1727 0 0 0 0 1.62163e-09 0 7.14448e+11
51.0634 0 98.1565 0 0 0 0 1.38326e-09 0 8.43158e+11
53.9621 0 115.84 0 0 0 0 1.1797e-09 0 9.95055e+11
57.0254 0 136.709 0 0 0 0 1.00592e-09 0 1.17432e+12
60.2626 0 161.337 0 0 0 0 8.57591e-10 0 1.38587e+12
63.6835 0 190.402 0 0 0 0 7.3101e-10 0 1.63554e+12
67.2987 0 224.704 0 0 0 0 6.23009e-10 0 1.93019e+12
71.1191 0 265.185 0 0 0 0 5.30879e-10 0 2.27792e+12
75.1563 0 312.958 0 0 0 0 4.52303e-10 0 2.68829e+12
79.4227 0 369.339 0 0 0 0 3.85299e-10 0 3.17259e+12
83.9313 0 435.876 0 0 0 0 3.28173e-10 0 3.74415e+12
88.6959 0 514.4 0 0 0 0 2.79476e-10 0 4.41866e+12
93.7309 0 607.071 0 0 0 0 2.37972e-10 0 5.2147e+12
99.0518 0 716.436 0 0 0 0 2.02605e-10 0 6.15414e+12
104.675 0 845.504 0 0 0 0 1.72471e-10 0 7.26283e+12
110.617 0 997.824 0 0 0 0 1.468e-10 0 8.57124e+12
116.896 0 1177.58 0 0 0 0 1.24935e-10 0 1.01154e+13
123.532 0 1389.73 0 0 0 0 1.06313e-10 0 1.19377e+13
130.545 0 1640.09 0 0 0 0 9.04567e-11 0 1.40883e+13
137.955 0 1935.56 0 0 0 0 7.69563e-11 0 1.66263e+13
145.787 0 2284.26 0 0 0 0 6.54636e-11 0 1.96216e+13
154.063 0 2695.77 0 0 0 0 5.56812e-11 0 2.31565e+13
162.808 0 3181.42 0 0 0 0 4.73556e-11 0 2.73282e+13
172.051 0 3754.56 0 0 0 0 4.02708e-11 0 3.22515e+13
181.818 0 4430.96 0 0 0 0 3.42426e-11 0 3.80616e+13
192.139 0 5229.21 0 0 0 0 2.91139e-11 0 4.49186e+13
203.046 0 6171.26 0 0 0 0 2.4751e-11 0 5.30108e+13
214.572 0 7283.03 0 0 0 0 2.10401e-11 0 6.25608e+13
226.753 0 8595.09 0 0 0 0 1.78839e-11 0 7.38313e+13
239.625 0 10143.5 0 0 0 0 1.51999e-11 0 8.71322e+13
253.228 0 11970.9 0 0 0 0 1.29176e-11 0 1.02829e+14
267.603 0 14127.5 0 0 0 0 1.09771e-11 0 1.21354e+14
282.795 0 16672.6 0 0 0 0 9.3274e-12 0 1.43217e+14
298.848 0 19676.2 0 0 0 0 7.925e-12 0 1.69017e+14
315.813 0 23220.9 0 0 0 0 6.73295e-12 0 1.99466e+14
333.741 0 27404.3 0 0 0 0 5.71979e-12 0 2.35401e+14
352.686 0 32341.2 0 0 0 0 4.85874e-12 0 2.77809e+14
372.707 0 38167.6 0 0 0 0 4.12703e-12 0 3.27857e+14
393.865 0 45043.5 0 0 0 0 3.50528e-12 0 3.86921e+14
416.224 0 53158.3 0 0 0 0 2.97701e-12 0 4.56626e+14
439.852 0 62734.9 0 0 0 0 2.52819e-12 0 5.38888e+14
464.821 0 74036.7 0 0 0 0 2.1469e-12 0 6.35971e+14
491.207 0 87374.6 0 0 0 0 1.82301e-12 0 7.50542e+14
519.092 0 103115 0 0 0 0 1.54789e-12 0 8.85755e+14
548.56 0 121692 0 0 0 0 1.31422e-12 0 1.04533e+15
579.7 0 143615 0 0 0 0 1.11576e-12 0 1.23364e+15
612.608 0 169488 0 0 0 0 9.47223e-13 0 1.45589e+15
647.384 0 200021 0 0 0 0 8.041e-13 0 1.71817e+15
684.134 0 236056 0 0 0 0 6.82568e-13 0 2.0277e+15
722.971 0 278582 0 0 0 0 5.79376e-13 0 2.393e+15
764.012 0 328769 0 0 0 0 4.91762e-13 0 2.8241e+15
