0.21694
200
1.0655e+09
8589934592
0.0129181 0 1.58924e-09 0 0 0 0 0.00677225 0 13.6515
0.0136515 0 1.87554e-09 0 0 0 0 0.00688819 0 16.1108
0.0144264 0 2.21343e-09 0 0 0 0 0.00699249 0 19.0132
0.0152454 0 2.61218e-09 0 0 0 0 0.00708412 0 22.4385
0.0161108 0 3.08278e-09 0 0 0 0 0.00716212 0 26.4808
0.0170254 0 3.63815e-09 0 0 0 0 0.00722559 0 31.2514
0.0179919 0 4.29357e-09 0 0 0 0 0.00727371 0 36.8815
0.0190132 0 5.06707e-09 0 0 0 0 0.00730578 0 43.5258
0.0200925 0 5.97991e-09 0 0 0 0 0.00732122 0 51.367
0.0212331 0 7.05721e-09 0 0 0 0 0.00731958 0 60.621
0.0224385 0 8.32858e-09 0 0 0 0 0.00730056 0 71.542
0.0237123 0 9.829e-09 0 0 0 0 0.00726401 0 84.4305
0.0250583 0 1.15997e-08 0 0 0 0 0.00720995 0 99.6408
0.0264808 0 1.36894e-08 0 0 0 0 0.00713857 0 117.591
0.0279841 0 1.61556e-08 0 0 0 0 0.00705021 0 138.776
0.0295727 0 1.90661e-08 0 0 0 0 0.00694538 0 163.777
0.0312514 0 2.25009e-08 0 0 0 0 0.00682475 0 193.281
0.0330255 0 2.65545e-08 0 0 0 0 0.00668915 0 228.102
0.0349003 0 3.13384e-08 0 0 0 0 0.00653951 0 269.195
0.0368815 0 3.69841e-08 0 0 0 0 0.00637693 0 317.691
0.0389751 0 4.36469e-08 0 0 0 0 0.00620256 0 374.924
0.0411876 0 5.151e-08 0 0 0 0 0.00601767 0 442.467
0.0435258 0 6.07896e-08 0 0 0 0 0.00582358 0 522.179
0.0459966 0 7.1741e-08 0 0 0 0 0.00562166 0 616.251
0.0486077 0 8.46654e-08 0 0 0 0 0.0054133 0 727.27
0.051367 0 9.99181e-08 0 0 0 0 0.00519989 0 858.29
0.054283 0 1.17919e-07 0 0 0 0 0.0049828 0 1012.91
0.0573645 0 1.39162e-07 0 0 0 0 0.00476339 0 1195.39
0.060621 0 1.64232e-07 0 0 0 0 0.00454293 0 1410.75
0.0640622 0 1.93819e-07 0 0 0 0 0.00432265 0 1664.89
0.0676989 0 2.28736e-07 0 0 0 0 0.00410371 0 1964.83
0.071542 0 2.69944e-07 0 0 0 0 0.00388717 0 2318.8
0.0756032 0 3.18575e-07 0 0 0 0 0.00367401 0 2736.54
0.079895 0 3.75967e-07 0 0 0 0 0.0034651 0 3229.53
0.0844305 0 4.43698e-07 0 0 0 0 0.00326121 0 3811.34
0.0892234 0 5.23632e-07 0 0 0 0 0.00306301 0 4497.96
0.0942883 0 6.17966e-07 0 0 0 0 0.00287109 0 5308.28
0.0996408 0 7.29294e-07 0 0 0 0 0.00268591 0 6264.59
0.105297 0 8.60678e-07 0 0 0 0 0.00250785 0 7393.17
0.111275 0 1.01573e-06 0 0 0 0 0.00233721 0 8725.07
0.117591 0 1.19872e-06 0 0 0 0 0.00217419 0 10296.9
0.124267 0 1.41467e-06 0 0 0 0 0.00201893 0 12151.9
0.131321 0 1.66953e-06 0 0 0 0 0.00187147 0 14341.1
0.138776 0 1.9703e-06 0 0 0 0 0.00173182 0 16924.7
0.146654 0 2.32525e-06 0 0 0 0 0.00159991 0 19973.8
0.154979 0 2.74415e-06 0 0 0 0 0.00147563 0 23572.1
0.163777 0 3.23852e-06 0 0 0 0 0.00135884 0 27818.7
0.173074 0 3.82195e-06 0 0 0 0 0.00124933 0 32830.3
0.182899 0 4.51048e-06 0 0 0 0 0.00114689 0 38744.7
0.193281 0 5.32305e-06 0 0 0 0 0.00105127 0 45724.7
0.204254 0 6.28202e-06 0 0 0 0 0.000962209 0 53962.1
0.215848 0 7.41374e-06 0 0 0 0 0.000879423 0 63683.5
0.228102 0 8.74934e-06 0 0 0 0 0.000802624 0 75156.3
0.24105 0 1.03256e-05 0 0 0 0 0.000731515 0 88695.9
0.254734 0 1.21857e-05 0 0 0 0 0.000665798 0 104675
0.269195 0 1.4381e-05 0 0 0 0 0.000605173 0 123532
0.284476 0 1.69718e-05 0 0 0 0 0.000549345 0 145787
0.300625 0 2.00293e-05 0 0 0 0 0.000498021 0 172051
0.317691 0 2.36377e-05 0 0 0 0 0.000450916 0 203046
0.335725 0 2.78961e-05 0 0 0 0 0.000407755 0 239625
0.354784 0 3.29216e-05 0 0 0 0 0.000368269 0 282795
0.374924 0 3.88525e-05 0 0 0 0 0.000332202 0 333741
0.396207 0.771223 4.58519e-05 1.95809e-06 6 0.749782 1.90365e-06 0.000299307 0.0392525 393865
0.418699 0 5.41123e-05 0 0 0 0 0.00026935 0 464821
0.442467 0 6.38607e-05 0 0 0 0 0.000242108 0 548560
0.467585 0 7.53654e-05 0 0 0 0 0.00021737 0 647384
0.494129 0 8.89427e-05 0 0 0 0 0.000194938 0 764012
0.522179 0 0.000104966 0 0 0 0 0.000174625 0 901651
0.551822 0 0.000123876 0 0 0 0 0.000156255 0 1.06409e+06
0.583147 5.74471 0.000146192 4.5746e-06 12 6.04634 4.81479e-06 0.000139664 0.393052 1.25578e+06
0.616251 0 0.000172529 0 0 0 0 0.0001247 0 1.48202e+06
0.651234 0 0.000203611 0 0 0 0 0.00011122 0 1.74901e+06
0.688203 30.3225 0.000240292 1.46905e-05 8 29.5682 1.4325e-05 9.90935e-05 1.18599 2.06409e+06
0.72727 0 0.000283581 0 0 0 0 8.81969e-05 0 2.43595e+06
0.768555 0 0.000334669 0 0 0 0 7.84179e-05 0 2.87479e+06
0.812184 0.496569 0.000394961 1.46365e-07 6 0.507186 1.49494e-07 6.96525e-05 0.0126081 3.39269e+06
0.85829 0 0.000466114 0 0 0 0 6.1805e-05 0 4.00389e+06
0.907013 0.321621 0.000550086 6.8065e-08 24 0.327792 6.9371e-08 5.47875e-05 0.0298163 4.7252e+06
0.958501 1.51993 0.000649185 2.72561e-07 24 1.4309 2.56596e-07 4.85194e-05 0.134822 5.57646e+06
1.01291 0 0.000766138 0 0 0 0 4.29272e-05 0 6.58107e+06
1.07041 0 0.00090416 0 0 0 0 3.79435e-05 0 7.76667e+06
1.13118 1.43819 0.00106705 1.56907e-07 12 1.42052 1.54979e-07 3.3507e-05 0.0561936 9.16586e+06
1.19539 1.20593 0.00125928 1.11483e-07 30 1.18107 1.09185e-07 2.9562e-05 0.113135 1.08171e+07
1.26325 7.07111 0.00148614 5.53908e-07 24 6.96471 5.45573e-07 2.60578e-05 0.510165 1.27658e+07
1.33496 23.478 0.00175387 1.55838e-06 24 23.5296 1.5618e-06 2.29484e-05 1.62979 1.50656e+07
1.41075 7.26832 0.00206984 4.08798e-07 32 7.46129 4.19651e-07 2.01923e-05 0.647847 1.77798e+07
1.49083 1.3678 0.00244272 6.51865e-08 48 1.33864 6.37968e-08 1.77518e-05 0.176262 2.09828e+07
1.57546 0.488254 0.00288279 1.97171e-08 6 0.464928 1.87751e-08 1.55929e-05 0.00758698 2.4763e+07
1.66489 0.644178 0.00340213 2.20427e-08 84 0.628373 2.15019e-08 1.3685e-05 0.135301 2.92241e+07
1.75941 2.68374 0.00401503 7.78148e-08 48 2.691 7.80253e-08 1.20007e-05 0.311242 3.44889e+07
1.85928 0.876684 0.00473835 2.1539e-08 72 0.884013 2.17191e-08 1.05151e-05 0.147484 4.07021e+07
1.96483 1.25143 0.00559198 2.60526e-08 54 1.22476 2.54974e-08 9.20606e-06 0.152817 4.80347e+07
2.07637 10.517 0.00659939 1.85523e-07 104 10.4868 1.8499e-07 8.05366e-06 2.39573 5.66883e+07
2.19424 1.01913 0.00778828 1.52335e-08 120 1.02925 1.53847e-08 7.04008e-06 0.259659 6.69008e+07
2.3188 3.03738 0.00919136 3.84706e-08 156 2.90045 3.67363e-08 6.1494e-06 0.975935 7.89532e+07
2.45043 1.8729 0.0108472 2.01005e-08 126 1.85964 1.99582e-08 5.36741e-06 0.471858 9.31768e+07
2.58954 1.70493 0.0128014 1.55046e-08 192 1.71801 1.56236e-08 4.68145e-06 0.635887 1.09963e+08
2.73654 6.14669 0.0151076 4.7365e-08 152 6.36779 4.90686e-08 4.08023e-06 1.76448 1.29773e+08
2.89188 5.20743 0.0178292 3.40017e-08 378 5.29546 3.45765e-08 3.55373e-06 3.61666 1.53152e+08
3.05605 2.41672 0.0210412 1.33711e-08 264 2.37602 1.31459e-08 3.09304e-06 1.14126 1.80743e+08
3.22953 1.4876 0.0248319 6.97407e-09 366 1.47075 6.89507e-09 2.69025e-06 0.948799 2.13304e+08
3.41286 2.16124 0.0293054 8.58552e-09 428 2.10596 8.36589e-09 2.33837e-06 1.57144 2.51731e+08
3.6066 4.71985 0.0345848 1.58874e-08 486 4.59107 1.54539e-08 2.0312e-06 3.80133 2.97081e+08
3.81134 2.40279 0.0408154 6.85335e-09 600 2.40026 6.84611e-09 1.76327e-06 2.33204 3.50601e+08
4.0277 2.4317 0.0481684 5.87703e-09 738 2.3957 5.79002e-09 1.52972e-06 2.83532 4.13763e+08
4.25634 2.74974 0.056846 5.63121e-09 824 2.78592 5.7053e-09 1.32631e-06 3.49853 4.88304e+08
4.49796 4.6495 0.067087 8.06823e-09 954 4.65599 8.07948e-09 1.14926e-06 6.69745 5.76273e+08
4.7533 2.52065 0.0791729 3.70635e-09 1094 2.50081 3.67718e-09 9.95263e-07 4.07404 6.8009e+08
5.02313 2.49585 0.0934361 3.10967e-09 1332 2.49918 3.11382e-09 8.61414e-07 4.80847 8.0261e+08
5.30828 4.96805 0.110269 5.24498e-09 1614 4.9995 5.27817e-09 7.45152e-07 11.3606 9.47202e+08
5.60962 3.95578 0.130134 3.53876e-09 1850 3.90885 3.49677e-09 6.44232e-07 10.162 1.11784e+09
5.92807 4.4226 0.153578 3.35242e-09 2238 4.35975 3.30478e-09 5.56685e-07 13.4775 1.31923e+09
6.26459 3.81818 0.181246 2.45245e-09 2546 3.83062 2.46044e-09 4.80786e-07 12.9869 1.55689e+09
6.62021 3.82368 0.213898 2.08106e-09 3264 3.83343 2.08637e-09 4.15026e-07 16.3667 1.83737e+09
6.99602 5.47893 0.252432 2.52675e-09 3506 5.53411 2.55219e-09 3.58083e-07 24.7395 2.16837e+09
7.39317 5.17251 0.297908 2.02129e-09 4506 5.17796 2.02342e-09 3.08803e-07 29.4943 2.55901e+09
7.81286 5.75656 0.351577 1.90613e-09 5018 5.78402 1.91522e-09 2.66181e-07 35.9341 3.02002e+09
8.25637 6.34229 0.414914 1.7795e-09 5852 6.2909 1.76508e-09 2.29336e-07 45.4077 3.56409e+09
8.72507 6.15686 0.489662 1.46377e-09 7362 6.14551 1.46107e-09 1.97503e-07 54.5626 4.20617e+09
9.22037 7.20882 0.577876 1.45224e-09 8306 7.17344 1.44512e-09 1.70014e-07 70.949 4.96392e+09
9.74378 7.19056 0.681982 1.22744e-09 9698 7.18413 1.22634e-09 1.46289e-07 81.3711 5.85818e+09
10.2969 8.12836 0.804843 1.17571e-09 11816 8.14178 1.17766e-09 1.25822e-07 110.411 6.91355e+09
10.8814 8.82592 0.949838 1.08173e-09 13682 8.81558 1.08047e-09 1.08175e-07 136.817 8.15905e+09
11.4992 9.34552 1.12095 9.70568e-10 16152 9.32348 9.68279e-10 9.29669e-08 168.626 9.62892e+09
12.1519 10.142 1.3229 8.92498e-10 19472 10.1059 8.89326e-10 7.98658e-08 217.599 1.13636e+10
12.8418 10.5251 1.56122 7.84821e-10 22670 10.5023 7.83124e-10 6.85852e-08 259.413 1.34108e+10
13.5708 11.7538 1.84248 7.42652e-10 26224 11.746 7.42163e-10 5.88765e-08 330.782 1.58268e+10
14.3411 12.4529 2.17441 6.66714e-10 31640 12.4546 6.66803e-10 5.05241e-08 417.52 1.8678e+10
15.1552 13.4073 2.56613 6.08236e-10 37484 13.3924 6.0756e-10 4.33417e-08 526.033 2.20429e+10
16.0156 14.4548 3.02843 5.55656e-10 43856 14.427 5.54585e-10 3.71677e-08 655.645 2.6014e+10
16.9247 15.7657 3.574 5.13534e-10 51362 15.7443 5.12837e-10 3.18628e-08 827.803 3.07005e+10
17.8855 16.729 4.21787 4.61729e-10 61636 16.6927 4.60727e-10 2.73063e-08 1042.22 3.62312e+10
18.9008 17.9709 4.97773 4.20289e-10 72218 17.9305 4.19345e-10 2.33941e-08 1297.44 4.27584e+10
19.9738 19.2533 5.87448 3.81545e-10 84586 19.2153 3.80793e-10 2.00364e-08 1610.74 5.04614e+10
21.1076 20.7581 6.93279 3.4857e-10 100708 20.7152 3.47849e-10 1.71555e-08 2046.21 5.95522e+10
22.3058 22.416 8.18175 3.1895e-10 118712 22.3655 3.18231e-10 1.46847e-08 2578.42 7.02807e+10
23.5721 23.8999 9.65571 2.88153e-10 140410 23.8493 2.87542e-10 1.25662e-08 3219.72 8.29419e+10
24.9102 25.7981 11.3952 2.63558e-10 164374 25.7399 2.62963e-10 1.07504e-08 4029.82 9.78842e+10
26.3243 27.6447 13.4481 2.3931e-10 194680 27.584 2.38784e-10 9.19452e-09 5067.03 1.15518e+11
27.8187 29.7633 15.8708 2.1832e-10 230196 29.7038 2.17883e-10 7.86182e-09 6392.45 1.36329e+11
29.3979 31.9966 18.73 1.98874e-10 271156 31.931 1.98466e-10 6.72061e-09 8023.93 1.60889e+11
31.0667 34.5773 22.1042 1.82107e-10 321076 34.5007 1.81703e-10 5.74366e-09 10179.9 1.89874e+11
32.8303 37.5285 26.0864 1.67478e-10 377436 37.4524 1.67138e-10 4.90756e-09 12880.6 2.2408e+11
34.694 40.63 30.7859 1.5364e-10 447594 40.5301 1.53263e-10 4.19221e-09 16403.9 2.64449e+11
36.6634 44.2047 36.3321 1.41641e-10 525078 44.1018 1.41311e-10 3.58032e-09 20772.6 3.1209e+11
38.7447 48.1534 42.8774 1.3074e-10 621924 48.0338 1.30415e-10 3.05709e-09 26597.4 3.68314e+11
40.9442 52.8865 50.6018 1.21672e-10 732630 52.761 1.21383e-10 2.60976e-09 34156.5 4.34667e+11
43.2685 58.2321 59.7179 1.13519e-10 865596 58.0967 1.13255e-10 2.22743e-09 44114.3 5.12973e+11
45.7247 64.0217 70.4762 1.05753e-10 1.02168e+06 63.8579 1.05483e-10 1.90073e-09 56844.3 6.05386e+11
48.3204 70.9339 83.1727 9.92848e-11 1.20544e+06 70.759 9.904e-11 1.62163e-09 73803.1 7.14448e+11
51.0634 78.931 98.1565 9.36136e-11 1.42103e+06 78.7351 9.33812e-11 1.38326e-09 96170 8.43158e+11
53.9621 88.2774 115.84 8.87161e-11 1.67997e+06 88.0537 8.84913e-11 1.1797e-09 126337 9.95055e+11
57.0254 99.2572 136.709 8.45234e-11 1.98018e+06 98.9933 8.42986e-11 1.00592e-09 166387 1.17432e+12
60.2626 111.886 161.337 8.07334e-11 2.33957e+06 111.58 8.05122e-11 8.57591e-10 220246 1.38587e+12
63.6835 126.596 190.402 7.7403e-11 2.75676e+06 126.253 7.71932e-11 7.3101e-10 291900 1.63554e+12
67.2987 144.011 224.704 7.46096e-11 3.25638e+06 143.616 7.44053e-11 6.23009e-10 389974 1.93019e+12
71.1191 164.498 265.185 7.22144e-11 3.84387e+06 164.022 7.20053e-11 5.30879e-10 522874 2.27792e+12
75.1563 192.505 312.958 7.16086e-11 4.53277e+06 191.696 7.13079e-11 4.52303e-10 717627 2.68829e+12
79.4227 217.332 369.339 6.8503e-11 5.35083e+06 216.696 6.83026e-11 3.85299e-10 951332 3.17259e+12
83.9313 251.486 435.876 6.71678e-11 6.32174e+06 250.724 6.69642e-11 3.28173e-10 1.29388e+06 3.74415e+12
88.6959 291.405 514.4 6.59486e-11 7.44986e+06 290.509 6.57459e-11 2.79476e-10 1.75796e+06 4.41866e+12
93.7309 338.748 607.071 6.49602e-11 8.79764e+06 337.698 6.47589e-11 2.37972e-10 2.40153e+06 5.2147e+12
99.0518 394.891 716.436 6.41667e-11 1.03827e+07 393.649 6.39649e-11 2.02605e-10 3.28829e+06 6.15414e+12
104.675 463.079 845.504 6.37602e-11 1.22515e+07 461.729 6.35743e-11 1.72471e-10 4.52922e+06 7.26283e+12
110.617 538.925 997.824 6.2876e-11 1.44573e+07 537.22 6.2677e-11 1.468e-10 6.19222e+06 8.57124e+12
116.896 631.75 1177.58 6.24544e-11 1.70664e+07 629.726 6.22543e-11 1.24935e-10 8.53143e+06 1.01154e+13
123.532 741.695 1389.73 6.21306e-11 2.0139e+07 739.286 6.19288e-11 1.06313e-10 1.17694e+07 1.19377e+13
130.545 870.66 1640.09 6.18002e-11 2.37643e+07 867.824 6.15989e-11 9.04567e-11 1.62358e+07 1.40883e+13
137.955 1023.45 1935.56 6.15557e-11 2.80503e+07 1020.12 6.13558e-11 7.69563e-11 2.24368e+07 1.66263e+13
145.787 1203.53 2284.26 6.13371e-11 3.30981e+07 1199.57 6.1135e-11 6.54636e-11 3.10118e+07 1.96216e+13
154.063 1420.24 2695.77 6.13321e-11 3.90634e+07 1415.55 6.11296e-11 5.56812e-11 4.30279e+07 2.31565e+13
162.808 1669.59 3181.42 6.10942e-11 4.61057e+07 1664.06 6.08917e-11 4.73556e-11 5.94816e+07 2.73282e+13
172.051 1968.69 3754.56 6.10418e-11 5.44046e+07 1962.13 6.08385e-11 4.02708e-11 8.24655e+07 3.22515e+13
181.818 2324.74 4430.96 6.10783e-11 6.42064e+07 2316.99 6.08746e-11 3.42426e-11 1.14525e+08 3.80616e+13
192.139 2743.37 5229.21 6.10744e-11 7.57748e+07 2734.21 6.08705e-11 2.91139e-11 1.58958e+08 4.49186e+13
203.046 3243.2 6171.26 6.118e-11 8.94213e+07 3232.32 6.09749e-11 2.4751e-11 2.21033e+08 5.30108e+13
214.572 3835.56 7283.03 6.13093e-11 1.05538e+08 3822.65 6.11029e-11 2.10401e-11 3.07531e+08 6.25608e+13
226.753 4541.55 8595.09 6.15125e-11 1.24552e+08 4526.16 6.13041e-11 1.78839e-11 4.28401e+08 7.38313e+13
239.625 5384.78 10143.5 6.18002e-11 1.46987e+08 5366.46 6.15899e-11 1.51999e-11 5.97624e+08 8.71322e+13
253.228 6394.9 11970.9 6.21895e-11 1.7347e+08 6372.86 6.19751e-11 1.29176e-11 8.35139e+08 1.02829e+14
267.603 7609.1 14127.5 6.27015e-11 2.04703e+08 7582.65 6.24836e-11 1.09771e-11 1.16926e+09 1.21354e+14
282.795 9085.52 16672.6 6.3439e-11 2.4161e+08 9053.49 6.32154e-11 9.3274e-12 1.64328e+09 1.43217e+14
298.848 10890.6 19676.2 6.4435e-11 2.85122e+08 10851.5 6.42036e-11 7.925e-12 2.31822e+09 1.69017e+14
315.813 13127.4 23220.9 6.58127e-11 3.36491e+08 13079.2 6.55712e-11 6.73295e-12 3.28911e+09 1.99466e+14
333.741 15944.7 27404.3 6.77342e-11 3.97115e+08 15884 6.74765e-11 5.71979e-12 4.70267e+09 2.35401e+14
352.686 19576.8 32341.2 7.04686e-11 4.68637e+08 19499 7.01885e-11 4.85874e-12 6.79687e+09 2.77809e+14
372.707 24397.7 38167.6 7.44158e-11 5.53074e+08 24294.9 7.41023e-11 4.12703e-12 9.97266e+09 3.27857e+14
393.865 31048.4 45043.5 8.02448e-11 6.52716e+08 30907.4 7.98802e-11 3.50528e-12 1.49423e+10 3.86921e+14
416.224 36651.5 53158.3 8.0266e-11 2.2184e+08 38773.9 8.4914e-11 2.97701e-12 5.98123e+09 4.56626e+14
439.852 0 62734.9 0 0 0 0 2.52819e-12 0 5.38888e+14
464.821 0 74036.7 0 0 0 0 2.1469e-12 0 6.35971e+14
491.207 0 87374.6 0 0 0 0 1.82301e-12 0 7.50542e+14
519.092 0 103115 0 0 0 0 1.54789e-12 0 8.85755e+14
548.56 0 121692 0 0 0 0 1.31422e-12 0 1.04533e+15
579.7 0 143615 0 0 0 0 1.11576e-12 0 1.23364e+15
612.608 0 169488 0 0 0 0 9.47223e-13 0 1.45589e+15
647.384 0 200021 0 0 0 0 8.041e-13 0 1.71817e+15
684.134 0 236056 0 0 0 0 6.82568e-13 0 2.0277e+15
722.971 0 278582 0 0 0 0 5.79376e-13 0 2.393e+15
764.012 0 328769 0 0 0 0 4.91762e-13 0 2.8241e+15
0.21694
200
1.0655e+09
8589934592
0.0129181 0.000139375 1.58924e-09 1.02095e-05 6 0.000138099 1.01161e-05 0.00677225 0.00904533 13.6515
0.0136515 0 1.87554e-09 0 0 0 0 0.00688819 0 16.1108
0.0144264 0 2.21343e-09 0 0 0 0 0.00699249 0 19.0132
0.0152454 0 2.61218e-09 0 0 0 0 0.00708412 0 22.4385
0.0161108 0 3.08278e-09 0 0 0 0 0.00716212 0 26.4808
0.0170254 0 3.63815e-09 0 0 0 0 0.00722559 0 31.2514
0.0179919 0.000314963 4.29357e-09 8.53986e-06 12 0.000314557 8.52886e-06 0.00727371 0.0140889 36.8815
0.0190132 0 5.06707e-09 0 0 0 0 0.00730578 0 43.5258
0.0200925 0 5.97991e-09 0 0 0 0 0.00732122 0 51.367
0.0212331 0.000300858 7.05721e-09 4.96293e-06 8 0.000300596 4.95861e-06 0.00731958 0.00542428 60.621
0.0224385 0 8.32858e-09 0 0 0 0 0.00730056 0 71.542
0.0237123 0 9.829e-09 0 0 0 0 0.00726401 0 84.4305
0.0250583 0.00194371 1.15997e-08 1.95071e-05 6 0.00194279 1.9498e-05 0.00720995 0.0162335 99.6408
0.0264808 0 1.36894e-08 0 0 0 0 0.00713857 0 117.591
0.0279841 0.00121505 1.61556e-08 8.7555e-06 24 0.0012138 8.74651e-06 0.00705021 0.0298051 138.776
0.0295727 0 1.90661e-08 0 0 0 0 0.00694538 0 163.777
0.0312514 0.00218081 2.25009e-08 1.12831e-05 24 0.00219188 1.13404e-05 0.00682475 0.0396782 193.281
0.0330255 0 2.65545e-08 0 0 0 0 0.00668915 0 228.102
0.0349003 0.00310774 3.13384e-08 1.15446e-05 12 0.00308285 1.14521e-05 0.00653951 0.0211843 269.195
0.0368815 0.00267007 3.69841e-08 8.40462e-06 30 0.00264164 8.31513e-06 0.00637693 0.0395392 317.691
0.0389751 0.00317186 4.36469e-08 8.46001e-06 24 0.00313923 8.37298e-06 0.00620256 0.0327349 374.924
0.0411876 0.00201557 5.151e-08 4.55529e-06 24 0.00200188 4.52435e-06 0.00601767 0.0181677 442.467
0.0435258 0.00444047 6.07896e-08 8.50373e-06 8 0.00444013 8.50307e-06 0.00582358 0.0116818 522.179
0.0459966 0.00566954 7.1741e-08 9.20006e-06 72 0.00562467 9.12724e-06 0.00562166 0.117831 616.251
0.0486077 0 8.46654e-08 0 0 0 0 0.0054133 0 727.27
0.051367 0.00843067 9.99181e-08 9.82264e-06 54 0.00840377 9.79129e-06 0.00519989 0.102006 858.29
0.054283 0.00660226 1.17919e-07 6.5181e-06 60 0.00663004 6.54552e-06 0.0049828 0.0784871 1012.91
0.0573645 0.00653127 1.39162e-07 5.46371e-06 96 0.00651442 5.44961e-06 0.00476339 0.110114 1195.39
0.060621 0.00759364 1.64232e-07 5.38272e-06 24 0.00749076 5.30979e-06 0.00454293 0.0284366 1410.75
0.0640622 0.0133881 1.93819e-07 8.04138e-06 134 0.0133953 8.04571e-06 0.00432265 0.249279 1664.89
0.0676989 0.0129065 2.28736e-07 6.56878e-06 120 0.012847 6.53849e-06 0.00410371 0.192083 1964.83
0.071542 0.0118721 2.69944e-07 5.11995e-06 108 0.0117434 5.06442e-06 0.00388717 0.142251 2318.8
0.0756032 0.0173363 3.18575e-07 6.33512e-06 174 0.0172449 6.30173e-06 0.00367401 0.300029 2736.54
0.079895 0.0185373 3.75967e-07 5.73993e-06 168 0.0183625 5.68582e-06 0.0034651 0.278292 3229.53
0.0844305 0.0158315 4.43698e-07 4.15378e-06 168 0.0159106 4.17454e-06 0.00326121 0.213981 3811.34
0.0892234 0.0179429 5.23632e-07 3.98912e-06 290 0.0178668 3.97219e-06 0.00306301 0.377682 4497.96
0.0942883 0.0232407 6.17966e-07 4.37819e-06 288 0.0231823 4.36719e-06 0.00287109 0.439177 5308.28
0.0996408 0.0210761 7.29294e-07 3.36433e-06 366 0.0208996 3.33616e-06 0.00268591 0.458446 6264.59
0.105297 0.0231463 8.60678e-07 3.13077e-06 420 0.0229855 3.10902e-06 0.00250785 0.524322 7393.17
0.111275 0.0246317 1.01573e-06 2.82309e-06 398 0.0245614 2.81504e-06 0.00233721 0.48074 8725.07
0.117591 0.0293934 1.19872e-06 2.85459e-06 624 0.0294541 2.86048e-06 0.00217419 0.819275 10296.9
0.124267 0.0328426 1.41467e-06 2.70266e-06 642 0.0327962 2.69885e-06 0.00201893 0.859422 12151.9
0.131321 0.0416163 1.66953e-06 2.90189e-06 800 0.0416304 2.90287e-06 0.00187147 1.24048 14341.1
0.138776 0.0376164 1.9703e-06 2.22257e-06 858 0.0377959 2.23317e-06 0.00173182 1.10114 16924.7
0.146654 0.0410956 2.32525e-06 2.05748e-06 1080 0.0414391 2.07468e-06 0.00159991 1.38888 19973.8
0.154979 0.048877 2.74415e-06 2.07351e-06 1286 0.0492112 2.08769e-06 0.00147563 1.80704 23572.1
0.163777 0.046261 3.23852e-06 1.66295e-06 1650 0.0463477 1.66606e-06 0.00135884 2.01927 27818.7
0.173074 0.0545396 3.82195e-06 1.66126e-06 1778 0.0545456 1.66144e-06 0.00124933 2.36424 32830.3
0.182899 0.0534589 4.51048e-06 1.37977e-06 2112 0.0535889 1.38313e-06 0.00114689 2.54085 38744.7
0.193281 0.0627278 5.32305e-06 1.37186e-06 2570 0.0628149 1.37376e-06 0.00105127 3.35372 45724.7
0.204254 0.0707273 6.28202e-06 1.31069e-06 3030 0.070691 1.31001e-06 0.000962209 4.12735 53962.1
0.215848 0.0706298 7.41374e-06 1.10908e-06 3434 0.070609 1.10875e-06 0.000879423 4.33075 63683.5
0.228102 0.0740042 8.74934e-06 9.8467e-07 4218 0.0740234 9.84926e-07 0.000802624 5.1747 75156.3
0.24105 0.0836405 1.03256e-05 9.43003e-07 4766 0.0837202 9.43901e-07 0.000731515 6.14389 88695.9
0.254734 0.0902884 1.21857e-05 8.62562e-07 6026 0.0902608 8.62298e-07 0.000665798 7.80687 104675
0.269195 0.0953814 1.4381e-05 7.72118e-07 6480 0.0953226 7.71642e-07 0.000605173 8.26759 123532
0.284476 0.104313 1.69718e-05 7.15515e-07 8162 0.104549 7.17135e-07 0.000549345 10.6309 145787
0.300625 0.105712 2.00293e-05 6.14424e-07 9578 0.10584 6.15166e-07 0.000498021 11.8167 172051
0.317691 0.118347 2.36377e-05 5.82856e-07 11234 0.118244 5.82353e-07 0.000450916 14.5211 203046
0.335725 0.124471 2.78961e-05 5.19439e-07 13344 0.124387 5.19089e-07 0.000407755 16.9989 239625
0.354784 0.130735 3.29216e-05 4.62298e-07 15464 0.130648 4.6199e-07 0.000368269 19.4124 282795
0.374924 0.140752 3.88525e-05 4.21741e-07 18458 0.14074 4.21704e-07 0.000332202 23.4331 333741
0.396207 0.149263 4.58519e-05 3.78969e-07 22232 0.149051 3.78431e-07 0.000299307 28.1492 393865
0.418699 0.162233 5.41123e-05 3.49022e-07 25628 0.161859 3.48218e-07 0.00026935 33.2086 464821
0.442467 0.172271 6.38607e-05 3.14043e-07 30320 0.17193 3.13421e-07 0.000242108 39.3287 548560
0.467585 0.180859 7.53654e-05 2.79368e-07 35452 0.180599 2.78967e-07 0.00021737 45.5636 647384
0.494129 0.191627 8.89427e-05 2.50817e-07 41792 0.191539 2.50702e-07 0.000194938 53.7715 764012
0.522179 0.207542 0.000104966 2.3018e-07 49988 0.207469 2.30099e-07 0.000174625 65.891 901651
0.551822 0.219411 0.000123876 2.06196e-07 59110 0.219246 2.06041e-07 0.000156255 78.0026 1.06409e+06
0.583147 0.235413 0.000146192 1.87463e-07 69716 0.235078 1.87196e-07 0.000139664 93.5757 1.25578e+06
0.616251 0.250727 0.000172529 1.69179e-07 82210 0.250296 1.68889e-07 0.0001247 111.534 1.48202e+06
0.651234 0.268476 0.000203611 1.53502e-07 96722 0.267944 1.53198e-07 0.00011122 133.492 1.74901e+06
0.688203 0.286179 0.000240292 1.38646e-07 113098 0.285849 1.38486e-07 9.90935e-05 158.241 2.06409e+06
0.72727 0.304363 0.000283581 1.24946e-07 135190 0.304021 1.24806e-07 8.81969e-05 191.52 2.43595e+06
0.768555 0.326282 0.000334669 1.13498e-07 158170 0.325947 1.13381e-07 7.84179e-05 228.926 2.87479e+06
0.812184 0.346984 0.000394961 1.02274e-07 188560 0.346588 1.02157e-07 6.96525e-05 276.871 3.39269e+06
0.85829 0.370831 0.000466114 9.26177e-08 220444 0.37035 9.24975e-08 6.1805e-05 330.346 4.00389e+06
0.907013 0.394446 0.000550086 8.34771e-08 261388 0.393992 8.33809e-08 5.47875e-05 398.264 4.7252e+06
0.958501 0.424524 0.000649185 7.61278e-08 308244 0.42401 7.60356e-08 4.85194e-05 483.64 5.57646e+06
1.01291 0.454966 0.000766138 6.91324e-08 364396 0.454357 6.90399e-08 4.29272e-05 586.845 6.58107e+06
1.07041 0.485604 0.00090416 6.25241e-08 429162 0.484892 6.24324e-08 3.79435e-05 707.183 7.76667e+06
1.13118 0.522003 0.00106705 5.69507e-08 506358 0.521277 5.68716e-08 3.3507e-05 860.64 9.16586e+06
1.19539 0.560119 0.00125928 5.17809e-08 598590 0.559255 5.1701e-08 2.9562e-05 1048.49 1.08171e+07
1.26325 0.601 0.00148614 4.70788e-08 704844 0.60014 4.70114e-08 2.60578e-05 1273.44 1.27658e+07
1.33496 0.643685 0.00175387 4.27253e-08 834620 0.642669 4.26579e-08 2.29484e-05 1553.89 1.50656e+07
1.41075 0.693482 0.00206984 3.9004e-08 981444 0.692398 3.8943e-08 2.01923e-05 1895.79 1.77798e+07
1.49083 0.745968 0.00244272 3.55513e-08 1.15998e+06 0.744838 3.54975e-08 1.77518e-05 2323.08 2.09828e+07
1.57546 0.803548 0.00288279 3.24496e-08 1.36931e+06 0.802246 3.2397e-08 1.55929e-05 2849.61 2.4763e+07
1.66489 0.867568 0.00340213 2.96868e-08 1.61652e+06 0.866118 2.96372e-08 1.3685e-05 3506.69 2.92241e+07
1.75941 0.936688 0.00401503 2.71591e-08 1.90601e+06 0.935116 2.71136e-08 1.20007e-05 4313.55 3.44889e+07
1.85928 1.01229 0.00473835 2.48706e-08 2.24913e+06 1.01061 2.48295e-08 1.05151e-05 5319.69 4.07021e+07
1.96483 1.09515 0.00559198 2.27991e-08 2.65744e+06 1.0932 2.27586e-08 9.20606e-06 6581.23 4.80347e+07
2.07637 1.18648 0.00659939 2.09298e-08 3.13125e+06 1.18446 2.08942e-08 8.05366e-06 8137.48 5.66883e+07
2.19424 1.28781 0.00778828 1.92495e-08 3.69915e+06 1.28564 1.92171e-08 7.04008e-06 10114.5 6.69008e+07
2.3188 1.39732 0.00919136 1.76981e-08 4.36472e+06 1.39485 1.76669e-08 6.1494e-06 12561.8 7.89532e+07
2.45043 1.51855 0.0108472 1.62975e-08 5.14913e+06 1.51583 1.62683e-08 5.36741e-06 15634.7 9.31768e+07
2.58954 1.65541 0.0128014 1.50542e-08 6.07894e+06 1.6524 1.50269e-08 4.68145e-06 19548.1 1.09963e+08
2.73654 1.80358 0.0151076 1.3898e-08 7.17304e+06 1.8003 1.38727e-08 4.08023e-06 24432.6 1.29773e+08
2.89188 1.96786 0.0178292 1.28491e-08 8.46557e+06 1.9642 1.28251e-08 3.55373e-06 30608.6 1.53152e+08
3.05605 2.1532 0.0210412 1.19131e-08 9.98773e+06 2.14929 1.18914e-08 3.09304e-06 38468.5 1.80743e+08
3.22953 2.3528 0.0248319 1.10302e-08 1.1797e+07 2.34831 1.10092e-08 2.69025e-06 48368.7 2.13304e+08
3.41286 2.57414 0.0293054 1.02258e-08 1.39144e+07 2.56915 1.02059e-08 2.33837e-06 60847.9 2.51731e+08
3.6066 2.81921 0.0345848 9.48969e-09 1.64163e+07 2.81376 9.47134e-09 2.0312e-06 76696.2 2.97081e+08
3.81134 3.09434 0.0408154 8.8258e-09 1.93821e+07 3.08843 8.80894e-09 1.76327e-06 97014.8 3.50601e+08
4.0277 3.39423 0.0481684 8.20333e-09 2.28754e+07 3.38754 8.18715e-09 1.52972e-06 122672 4.13763e+08
4.25634 3.72818 0.056846 7.63496e-09 2.69929e+07 3.72069 7.61962e-09 1.32631e-06 155386 4.88304e+08
4.49796 4.09131 0.067087 7.09961e-09 3.18542e+07 4.08312 7.08539e-09 1.14926e-06 196782 5.76273e+08
4.7533 4.49671 0.0791729 6.61193e-09 3.75892e+07 4.48768 6.59865e-09 9.95263e-07 249720 6.8009e+08
5.02313 4.93889 0.0934361 6.15353e-09 4.43706e+07 4.92884 6.14102e-09 8.61414e-07 316963 8.0261e+08
5.30828 5.427 0.110269 5.7295e-09 5.23593e+07 5.41582 5.7177e-09 7.45152e-07 402592 9.47202e+08
5.60962 5.9623 0.130134 5.33375e-09 6.1787e+07 5.95014 5.32287e-09 6.44232e-07 511549 1.11784e+09
5.92807 6.5453 0.153578 4.96147e-09 7.29346e+07 6.53193 4.95133e-09 5.56685e-07 650031 1.31923e+09
6.26459 7.18288 0.181246 4.61361e-09 8.60651e+07 7.16795 4.60403e-09 4.80786e-07 825879 1.55689e+09
6.62021 7.87887 0.213898 4.28814e-09 1.01558e+08 7.86256 4.27926e-09 4.15026e-07 1.04932e+06 1.83737e+09
6.99602 8.63581 0.252432 3.98262e-09 1.1986e+08 8.61809 3.97445e-09 3.58083e-07 1.33309e+06 2.16837e+09
7.39317 9.45665 0.297908 3.69543e-09 1.41457e+08 9.43725 3.68785e-09 3.08803e-07 1.6928e+06 2.55901e+09
7.81286 10.3517 0.351577 3.42769e-09 1.66936e+08 10.3305 3.42069e-09 2.66181e-07 2.14968e+06 3.02002e+09
8.25637 11.3207 0.414914 3.17631e-09 1.97025e+08 11.2975 3.16981e-09 2.29336e-07 2.72881e+06 3.56409e+09
8.72507 12.3747 0.489662 2.94204e-09 2.32497e+08 12.3492 2.93598e-09 1.97503e-07 3.46331e+06 4.20617e+09
9.22037 13.5408 0.577876 2.72785e-09 2.74404e+08 13.5127 2.72218e-09 1.70014e-07 4.40277e+06 4.96392e+09
9.74378 14.841 0.681982 2.53339e-09 3.2382e+08 14.8095 2.52801e-09 1.46289e-07 5.60781e+06 5.85818e+09
10.2969 16.3253 0.804843 2.36134e-09 3.82165e+08 16.2893 2.35614e-09 1.25822e-07 7.17219e+06 6.91355e+09
10.8814 18.0958 0.949838 2.21788e-09 4.51027e+08 18.0536 2.21271e-09 1.08175e-07 9.24724e+06 8.15905e+09
11.4992 20.3203 1.12095 2.11034e-09 5.32251e+08 20.2686 2.10497e-09 9.29669e-08 1.20821e+07 9.62892e+09
12.1519 23.3364 1.3229 2.05361e-09 6.28157e+08 23.2685 2.04764e-09 7.98658e-08 1.6152e+07 1.13636e+10
12.8418 26.561 1.56122 1.98057e-09 3.82727e+08 27.4886 2.04974e-09 6.85852e-08 1.10522e+07 1.34108e+10
13.5708 0 1.84248 0 0 0 0 5.88765e-08 0 1.58268e+10
14.3411 0 2.17441 0 0 0 0 5.05241e-08 0 1.8678e+10
15.1552 0 2.56613 0 0 0 0 4.33417e-08 0 2.20429e+10
16.0156 0 3.02843 0 0 0 0 3.71677e-08 0 2.6014e+10
16.9247 0 3.574 0 0 0 0 3.18628e-08 0 3.07005e+10
17.8855 0 4.21787 0 0 0 0 2.73063e-08 0 3.62312e+10
18.9008 0 4.97773 0 0 0 0 2.33941e-08 0 4.27584e+10
19.9738 0 5.87448 0 0 0 0 2.00364e-08 0 5.04614e+10
21.1076 0 6.93279 0 0 0 0 1.71555e-08 0 5.95522e+10
22.3058 0 8.18175 0 0 0 0 1.46847e-08 0 7.02807e+10
23.5721 0 9.65571 0 0 0 0 1.25662e-08 0 8.29419e+10
24.9102 0 11.3952 0 0 0 0 1.07504e-08 0 9.78842e+10
26.3243 0 13.4481 0 0 0 0 9.19452e-09 0 1.15518e+11
27.8187 0 15.8708 0 0 0 0 7.86182e-09 0 1.36329e+11
29.3979 0 18.73 0 0 0 0 6.72061e-09 0 1.60889e+11
31.0667 0 22.1042 0 0 0 0 5.74366e-09 0 1.89874e+11
32.8303 0 26.0864 0 0 0 0 4.90756e-09 0 2.2408e+11
34.694 0 30.7859 0 0 0 0 4.19221e-09 0 2.64449e+11
36.6634 0 36.3321 0 0 0 0 3.58032e-09 0 3.1209e+11
38.7447 0 42.8774 0 0 0 0 3.05709e-09 0 3.68314e+11
40.9442 0 50.6018 0 0 0 0 2.60976e-09 0 4.34667e+11
43.2685 0 59.7179 0 0 0 0 2.22743e-09 0 5.12973e+11
45.7247 0 70.4762 0 0 0 0 1.90073e-09 0 6.05386e+11
48.3204 0 83.1727 0 0 0 0 1.62163e-09 0 7.14448e+11
51.0634 0 98.1565 0 0 0 0 1.38326e-09 0 8.43158e+11
53.9621 0 115.84 0 0 0 0 1.1797e-09 0 9.95055e+11
57.0254 0 136.709 0 0 0 0 1.00592e-09 0 1.17432e+12
60.2626 0 161.337 0 0 0 0 8.57591e-10 0 1.38587e+12
63.6835 0 190.402 0 0 0 0 7.3101e-10 0 1.63554e+12
67.2987 0 224.704 0 0 0 0 6.23009e-10 0 1.93019e+12
71.1191 0 265.185 0 0 0 0 5.30879e-10 0 2.27792e+12
75.1563 0 312.958 0 0 0 0 4.52303e-10 0 2.68829e+12
79.4227 0 369.339 0 0 0 0 3.85299e-10 0 3.17259e+12
83.9313 0 435.876 0 0 0 0 3.28173e-10 0 3.74415e+12
88.6959 0 514.4 0 0 0 0 2.79476e-10 0 4.41866e+12
93.7309 0 607.071 0 0 0 0 2.37972e-10 0 5.2147e+12
99.0518 0 716.436 0 0 0 0 2.02605e-10 0 6.15414e+12
104.675 0 845.504 0 0 0 0 1.72471e-10 0 7.26283e+12
110.617 0 997.824 0 0 0 0 1.468e-10 0 8.57124e+12
116.896 0 1177.58 0 0 0 0 1.24935e-10 0 1.01154e+13
123.532 0 1389.73 0 0 0 0 1.06313e-10 0 1.19377e+13
130.545 0 1640.09 0 0 0 0 9.04567e-11 0 1.40883e+13
137.955 0 1935.56 0 0 0 0 7.69563e-11 0 1.66263e+13
145.787 0 2284.26 0 0 0 0 6.54636e-11 0 1.96216e+13
154.063 0 2695.77 0 0 0 0 5.56812e-11 0 2.31565e+13
162.808 0 3181.42 0 0 0 0 4.73556e-11 0 2.73282e+13
172.051 0 3754.56 0 0 0 0 4.02708e-11 0 3.22515e+13
181.818 0 4430.96 0 0 0 0 3.42426e-11 0 3.80616e+13
192.139 0 5229.21 0 0 0 0 2.91139e-11 0 4.49186e+13
203.046 0 6171.26 0 0 0 0 2.4751e-11 0 5.30108e+13
214.572 0 7283.03 0 0 0 0 2.10401e-11 0 6.25608e+13
226.753 0 8595.09 0 0 0 0 1.78839e-11 0 7.38313e+13
239.625 0 10143.5 0 0 0 0 1.51999e-11 0 8.71322e+13
253.228 0 11970.9 0 0 0 0 1.29176e-11 0 1.02829e+14
267.603 0 14127.5 0 0 0 0 1.09771e-11 0 1.21354e+14
282.795 0 16672.6 0 0 0 0 9.3274e-12 0 1.43217e+14
298.848 0 19676.2 0 0 0 0 7.925e-12 0 1.69017e+14
315.813 0 23220.9 0 0 0 0 6.73295e-12 0 1.99466e+14
333.741 0 27404.3 0 0 0 0 5.71979e-12 0 2.35401e+14
352.686 0 32341.2 0 0 0 0 4.85874e-12 0 2.77809e+14
372.707 0 38167.6 0 0 0 0 4.12703e-12 0 3.27857e+14
393.865 0 45043.5 0 0 0 0 3.50528e-12 0 3.86921e+14
416.224 0 53158.3 0 0 0 0 2.97701e-12 0 4.56626e+14
439.852 0 62734.9 0 0 0 0 2.52819e-12 0 5.38888e+14
464.821 0 74036.7 0 0 0 0 2.1469e-12 0 6.35971e+14
491.207 0 87374.6 0 0 0 0 1.82301e-12 0 7.50542e+14
519.092 0 103115 0 0 0 0 1.54789e-12 0 8.85755e+14
548.56 0 121692 0 0 0 0 1.31422e-12 0 1.04533e+15
579.7 0 143615 0 0 0 0 1.11576e-12 0 1.23364e+15
612.608 0 169488 0 0 0 0 9.47223e-13 0 1.45589e+15
647.384 0 200021 0 0 0 0 8.041e-13 0 1.71817e+15
684.134 0 236056 0 0 0 0 6.82568e-13 0 2.0277e+15
722.971 0 278582 0 0 0 0 5.79376e-13 0 2.393e+15
764.012 0 328769 0 0 0 0 4.91762e-13 0 2.8241e+15
