0.778248
200
1.0655e+09
8589934592
0.0129181 0 1.58924e-09 0 0 0 0 0.00677225 0 13.6515
0.0136515 0 1.87554e-09 0 0 0 0 0.00688819 0 16.1108
0.0144264 0 2.21343e-09 0 0 0 0 0.00699249 0 19.0132
0.0152454 0 2.61218e-09 0 0 0 0 0.00708412 0 22.4385
0.0161108 0 3.08278e-09 0 0 0 0 0.00716212 0 26.4808
0.0170254 0 3.63815e-09 0 0 0 0 0.00722559 0 31.2514
0.0179919 0 4.29357e-09 0 0 0 0 0.00727371 0 36.8815
0.0190132 0 5.06707e-09 0 0 0 0 0.00730578 0 43.5258
0.0200925 0 5.97991e-09 0 0 0 0 0.00732122 0 51.367
0.0212331 0 7.05721e-09 0 0 0 0 0.00731958 0 60.621
0.0224385 0 8.32858e-09 0 0 0 0 0.00730056 0 71.542
0.0237123 0 9.829e-09 0 0 0 0 0.00726401 0 84.4305
0.0250583 0 1.15997e-08 0 0 0 0 0.00720995 0 99.6408
0.0264808 0 1.36894e-08 0 0 0 0 0.00713857 0 117.591
0.0279841 0 1.61556e-08 0 0 0 0 0.00705021 0 138.776
0.0295727 0 1.90661e-08 0 0 0 0 0.00694538 0 163.777
0.0312514 0 2.25009e-08 0 0 0 0 0.00682475 0 193.281
0.0330255 0 2.65545e-08 0 0 0 0 0.00668915 0 228.102
0.0349003 0 3.13384e-08 0 0 0 0 0.00653951 0 269.195
0.0368815 0 3.69841e-08 0 0 0 0 0.00637693 0 317.691
0.0389751 0 4.36469e-08 0 0 0 0 0.00620256 0 374.924
0.0411876 0 5.151e-08 0 0 0 0 0.00601767 0 442.467
0.0435258 0 6.07896e-08 0 0 0 0 0.00582358 0 522.179
0.0459966 0 7.1741e-08 0 0 0 0 0.00562166 0 616.251
0.0486077 0 8.46654e-08 0 0 0 0 0.0054133 0 727.27
0.051367 0 9.99181e-08 0 0 0 0 0.00519989 0 858.29
0.054283 0 1.17919e-07 0 0 0 0 0.0049828 0 1012.91
0.0573645 0 1.39162e-07 0 0 0 0 0.00476339 0 1195.39
0.060621 0 1.64232e-07 0 0 0 0 0.00454293 0 1410.75
0.0640622 0 1.93819e-07 0 0 0 0 0.00432265 0 1664.89
0.0676989 0 2.28736e-07 0 0 0 0 0.00410371 0 1964.83
0.071542 0 2.69944e-07 0 0 0 0 0.00388717 0 2318.8
0.0756032 0 3.18575e-07 0 0 0 0 0.00367401 0 2736.54
0.079895 0 3.75967e-07 0 0 0 0 0.0034651 0 3229.53
0.0844305 0 4.43698e-07 0 0 0 0 0.00326121 0 3811.34
0.0892234 0 5.23632e-07 0 0 0 0 0.00306301 0 4497.96
0.0942883 0 6.17966e-07 0 0 0 0 0.00287109 0 5308.28
0.0996408 0 7.29294e-07 0 0 0 0 0.00268591 0 6264.59
0.105297 0 8.60678e-07 0 0 0 0 0.00250785 0 7393.17
0.111275 0 1.01573e-06 0 0 0 0 0.00233721 0 8725.07
0.117591 0 1.19872e-06 0 0 0 0 0.00217419 0 10296.9
0.124267 0 1.41467e-06 0 0 0 0 0.00201893 0 12151.9
0.131321 0 1.66953e-06 0 0 0 0 0.00187147 0 14341.1
0.138776 0 1.9703e-06 0 0 0 0 0.00173182 0 16924.7
0.146654 0 2.32525e-06 0 0 0 0 0.00159991 0 19973.8
0.154979 0 2.74415e-06 0 0 0 0 0.00147563 0 23572.1
0.163777 0 3.23852e-06 0 0 0 0 0.00135884 0 27818.7
0.173074 0 3.82195e-06 0 0 0 0 0.00124933 0 32830.3
0.182899 0 4.51048e-06 0 0 0 0 0.00114689 0 38744.7
0.193281 0 5.32305e-06 0 0 0 0 0.00105127 0 45724.7
0.204254 0 6.28202e-06 0 0 0 0 0.000962209 0 53962.1
0.215848 0 7.41374e-06 0 0 0 0 0.000879423 0 63683.5
0.228102 0 8.74934e-06 0 0 0 0 0.000802624 0 75156.3
0.24105 0 1.03256e-05 0 0 0 0 0.000731515 0 88695.9
0.254734 0 1.21857e-05 0 0 0 0 0.000665798 0 104675
0.269195 0 1.4381e-05 0 0 0 0 0.000605173 0 123532
0.284476 0 1.69718e-05 0 0 0 0 0.000549345 0 145787
0.300625 0 2.00293e-05 0 0 0 0 0.000498021 0 172051
0.317691 0 2.36377e-05 0 0 0 0 0.000450916 0 203046
0.335725 0 2.78961e-05 0 0 0 0 0.000407755 0 239625
0.354784 0 3.29216e-05 0 0 0 0 0.000368269 0 282795
0.374924 0 3.88525e-05 0 0 0 0 0.000332202 0 333741
0.396207 2.09518 4.58519e-05 5.31953e-06 6 2.03693 5.17164e-06 0.000299307 0.106637 393865
0.418699 0 5.41123e-05 0 0 0 0 0.00026935 0 464821
0.442467 0 6.38607e-05 0 0 0 0 0.000242108 0 548560
0.467585 0 7.53654e-05 0 0 0 0 0.00021737 0 647384
0.494129 0 8.89427e-05 0 0 0 0 0.000194938 0 764012
0.522179 0 0.000104966 0 0 0 0 0.000174625 0 901651
0.551822 0 0.000123876 0 0 0 0 0.000156255 0 1.06409e+06
0.583147 9.06855 0.000146192 7.22143e-06 12 9.5447 7.60059e-06 0.000139664 0.620468 1.25578e+06
0.616251 0 0.000172529 0 0 0 0 0.0001247 0 1.48202e+06
0.651234 0 0.000203611 0 0 0 0 0.00011122 0 1.74901e+06
0.688203 13.9216 0.000240292 6.74464e-06 8 13.5752 6.57684e-06 9.90935e-05 0.544507 2.06409e+06
0.72727 0 0.000283581 0 0 0 0 8.81969e-05 0 2.43595e+06
0.768555 0 0.000334669 0 0 0 0 7.84179e-05 0 2.87479e+06
0.812184 9.85371 0.000394961 2.90439e-06 6 10.0644 2.96649e-06 6.96525e-05 0.25019 3.39269e+06
0.85829 0 0.000466114 0 0 0 0 6.1805e-05 0 4.00389e+06
0.907013 1.52434 0.000550086 3.22597e-07 24 1.55358 3.28787e-07 5.47875e-05 0.141316 4.7252e+06
0.958501 3.67497 0.000649185 6.59015e-07 24 3.45972 6.20414e-07 4.85194e-05 0.32598 5.57646e+06
1.01291 0 0.000766138 0 0 0 0 4.29272e-05 0 6.58107e+06
1.07041 0 0.00090416 0 0 0 0 3.79435e-05 0 7.76667e+06
1.13118 6.46576 0.00106705 7.05418e-07 12 6.38634 6.96753e-07 3.3507e-05 0.252634 9.16586e+06
1.19539 3.96768 0.00125928 3.66797e-07 30 3.88589 3.59235e-07 2.9562e-05 0.372231 1.08171e+07
1.26325 12.7122 0.00148614 9.95801e-07 24 12.521 9.80817e-07 2.60578e-05 0.917161 1.27658e+07
1.33496 16.5106 0.00175387 1.09591e-06 24 16.5469 1.09832e-06 2.29484e-05 1.14613 1.50656e+07
1.41075 14.5054 0.00206984 8.15835e-07 32 14.721 8.27965e-07 2.01923e-05 1.2929 1.77798e+07
1.49083 4.68428 0.00244272 2.23243e-07 48 4.58441 2.18484e-07 1.77518e-05 0.60364 2.09828e+07
1.57546 37.2106 0.00288279 1.50267e-06 6 35.4329 1.43088e-06 1.55929e-05 0.578216 2.4763e+07
1.66489 4.63347 0.00340213 1.5855e-07 84 4.51406 1.54464e-07 1.3685e-05 0.973194 2.92241e+07
1.75941 6.9824 0.00401503 2.02454e-07 48 6.8582 1.98853e-07 1.20007e-05 0.80977 3.44889e+07
1.85928 4.80198 0.00473835 1.17979e-07 72 4.83767 1.18855e-07 1.05151e-05 0.807835 4.07021e+07
1.96483 16.2558 0.00559198 3.38418e-07 54 15.8677 3.30337e-07 9.20606e-06 1.98506 4.80347e+07
2.07637 17.8065 0.00659939 3.14112e-07 104 17.8952 3.15676e-07 8.05366e-06 4.05626 5.66883e+07
2.19424 8.73278 0.00778828 1.30533e-07 120 8.88023 1.32737e-07 7.04008e-06 2.22497 6.69008e+07
2.3188 10.9377 0.00919136 1.38534e-07 156 10.6361 1.34715e-07 6.1494e-06 3.51439 7.89532e+07
2.45043 12.055 0.0108472 1.29377e-07 126 11.9481 1.28231e-07 5.36741e-06 3.03714 9.31768e+07
2.58954 12.4566 0.0128014 1.1328e-07 192 12.5228 1.13882e-07 4.68145e-06 4.64595 1.09963e+08
2.73654 28.6376 0.0151076 2.20675e-07 152 28.9454 2.23046e-07 4.08023e-06 8.22074 1.29773e+08
2.89188 16.0235 0.0178292 1.04625e-07 378 16.1316 1.05331e-07 3.55373e-06 11.1287 1.53152e+08
3.05605 14.7604 0.0210412 8.16654e-08 264 14.5832 8.0685e-08 3.09304e-06 6.97038 1.80743e+08
3.22953 17.5212 0.0248319 8.21418e-08 366 17.4218 8.16761e-08 2.69025e-06 11.1751 2.13304e+08
3.41286 18.8291 0.0293054 7.47983e-08 428 18.6285 7.40015e-08 2.33837e-06 13.6906 2.51731e+08
3.6066 22.829 0.0345848 7.68444e-08 486 22.5123 7.57781e-08 2.0312e-06 18.3863 2.97081e+08
3.81134 17.8279 0.0408154 5.08495e-08 600 17.7549 5.06412e-08 1.76327e-06 17.303 3.50601e+08
4.0277 23.4971 0.0481684 5.67887e-08 738 23.454 5.66847e-08 1.52972e-06 27.3972 4.13763e+08
4.25634 24.0822 0.056846 4.9318e-08 824 24.0464 4.92447e-08 1.32631e-06 30.64 4.88304e+08
4.49796 28.5446 0.067087 4.95332e-08 954 28.3856 4.92573e-08 1.14926e-06 41.1176 5.76273e+08
4.7533 25.9393 0.0791729 3.81409e-08 1094 25.8022 3.79394e-08 9.95263e-07 41.9248 6.8009e+08
5.02313 29.1859 0.0934361 3.63637e-08 1332 29.2422 3.64339e-08 8.61414e-07 56.2291 8.0261e+08
5.30828 36.2058 0.110269 3.82239e-08 1614 36.2386 3.82586e-08 7.45152e-07 82.7929 9.47202e+08
5.60962 40.276 0.130134 3.60301e-08 1850 40.2829 3.60362e-08 6.44232e-07 103.465 1.11784e+09
5.92807 38.3293 0.153578 2.90544e-08 2238 38.25 2.89943e-08 5.56685e-07 116.805 1.31923e+09
6.26459 39.0637 0.181246 2.50909e-08 2546 39.1226 2.51287e-08 4.80786e-07 132.869 1.55689e+09
6.62021 38.5756 0.213898 2.0995e-08 3264 38.5822 2.09987e-08 4.15026e-07 165.117 1.83737e+09
6.99602 44.9377 0.252432 2.07242e-08 3506 45.0099 2.07575e-08 3.58083e-07 202.911 2.16837e+09
7.39317 44.2164 0.297908 1.72787e-08 4506 44.2251 1.72821e-08 3.08803e-07 252.127 2.55901e+09
7.81286 53.2045 0.351577 1.76173e-08 5018 53.0395 1.75626e-08 2.66181e-07 332.118 3.02002e+09
8.25637 53.8031 0.414914 1.50959e-08 5852 53.7761 1.50883e-08 2.29336e-07 385.204 3.56409e+09
8.72507 55.9544 0.489662 1.33029e-08 7362 55.8622 1.3281e-08 1.97503e-07 495.872 4.20617e+09
9.22037 62.1432 0.577876 1.2519e-08 8306 61.9404 1.24781e-08 1.70014e-07 611.612 4.96392e+09
9.74378 65.1015 0.681982 1.11129e-08 9698 65.0517 1.11044e-08 1.46289e-07 736.714 5.85818e+09
10.2969 68.2794 0.804843 9.87617e-09 11816 68.1618 9.85916e-09 1.25822e-07 927.472 6.91355e+09
10.8814 78.4704 0.949838 9.6176e-09 13682 78.2085 9.5855e-09 1.08175e-07 1216.43 8.15905e+09
11.4992 77.9506 1.12095 8.09546e-09 16152 77.9407 8.09444e-09 9.29669e-08 1406.5 9.62892e+09
12.1519 82.4802 1.3229 7.25828e-09 19472 82.391 7.25044e-09 7.98658e-08 1769.63 1.13636e+10
12.8418 87.9832 1.56122 6.56064e-09 22670 87.7925 6.54642e-09 6.85852e-08 2168.54 1.34108e+10
13.5708 92.4163 1.84248 5.83924e-09 26224 92.2626 5.82953e-09 5.88765e-08 2600.84 1.58268e+10
14.3411 99.43 2.17441 5.32337e-09 31640 99.2723 5.31493e-09 5.05241e-08 3333.69 1.8678e+10
15.1552 104.199 2.56613 4.7271e-09 37484 104.012 4.71863e-09 4.33417e-08 4088.23 2.20429e+10
16.0156 113.268 3.02843 4.3541e-09 43856 113.057 4.34599e-09 3.71677e-08 5137.61 2.6014e+10
16.9247 119.855 3.574 3.904e-09 51362 119.741 3.90031e-09 3.18628e-08 6293.14 3.07005e+10
17.8855 125.568 4.21787 3.46575e-09 61636 125.427 3.46185e-09 2.73063e-08 7822.92 3.62312e+10
18.9008 132.803 4.97773 3.10589e-09 72218 132.513 3.0991e-09 2.33941e-08 9587.91 4.27584e+10
19.9738 141.098 5.87448 2.79615e-09 84586 140.81 2.79045e-09 2.00364e-08 11804.3 5.04614e+10
21.1076 149.714 6.93279 2.514e-09 100708 149.417 2.50901e-09 1.71555e-08 14757.9 5.95522e+10
22.3058 158.227 8.18175 2.25136e-09 118712 157.939 2.24726e-09 1.46847e-08 18200.1 7.02807e+10
23.5721 167.242 9.65571 2.01637e-09 140410 166.947 2.01282e-09 1.25662e-08 22530.3 8.29419e+10
24.9102 174.159 11.3952 1.77924e-09 164374 173.791 1.77547e-09 1.07504e-08 27204.7 9.78842e+10
26.3243 184.525 13.4481 1.59736e-09 194680 184.255 1.59503e-09 9.19452e-09 33821.7 1.15518e+11
27.8187 194.792 15.8708 1.42884e-09 230196 194.483 1.42657e-09 7.86182e-09 41836.7 1.36329e+11
29.3979 205.523 18.73 1.27742e-09 271156 205.184 1.27531e-09 6.72061e-09 51540 1.60889e+11
31.0667 217.18 22.1042 1.14381e-09 321076 216.779 1.1417e-09 5.74366e-09 63940.1 1.89874e+11
32.8303 229.302 26.0864 1.0233e-09 377436 228.898 1.0215e-09 4.90756e-09 78701.3 2.2408e+11
34.694 240.532 30.7859 9.09561e-10 447594 240.102 9.07935e-10 4.19221e-09 97112.1 2.64449e+11
36.6634 253.104 36.3321 8.10997e-10 525078 252.671 8.09608e-10 3.58032e-09 118938 3.1209e+11
38.7447 266.228 42.8774 7.22829e-10 621924 265.708 7.21417e-10 3.05709e-09 147050 3.68314e+11
40.9442 280.124 50.6018 6.44458e-10 732630 279.637 6.43336e-10 2.60976e-09 180917 4.34667e+11
43.2685 294.012 59.7179 5.73153e-10 865596 293.547 5.72247e-10 2.22743e-09 222731 5.12973e+11
45.7247 309.979 70.4762 5.12035e-10 1.02168e+06 309.494 5.11233e-10 1.90073e-09 275227 6.05386e+11
48.3204 324.249 83.1727 4.53846e-10 1.20544e+06 323.679 4.53048e-10 1.62163e-09 337365 7.14448e+11
51.0634 340.002 98.1565 4.03248e-10 1.42103e+06 339.419 4.02557e-10 1.38326e-09 414260 8.43158e+11
53.9621 356.591 115.84 3.58363e-10 1.67997e+06 355.987 3.57756e-10 1.1797e-09 510331 9.95055e+11
57.0254 374.802 136.709 3.19166e-10 1.98018e+06 374.14 3.18602e-10 1.00592e-09 628287 1.17432e+12
60.2626 394.941 161.337 2.84976e-10 2.33957e+06 394.23 2.84463e-10 8.57591e-10 777435 1.38587e+12
63.6835 415.24 190.402 2.53885e-10 2.75676e+06 414.499 2.53432e-10 7.3101e-10 957445 1.63554e+12
67.2987 437.336 224.704 2.26576e-10 3.25638e+06 436.589 2.2619e-10 6.23009e-10 1.18428e+06 1.93019e+12
71.1191 461.194 265.185 2.02463e-10 3.84387e+06 460.352 2.02093e-10 5.30879e-10 1.46595e+06 2.27792e+12
75.1563 486.589 312.958 1.81003e-10 4.53277e+06 485.72 1.8068e-10 4.52303e-10 1.81392e+06 2.68829e+12
79.4227 514.377 369.339 1.62131e-10 5.35083e+06 513.461 1.61842e-10 3.85299e-10 2.25159e+06 3.17259e+12
83.9313 546.946 435.876 1.4608e-10 6.32174e+06 545.917 1.45805e-10 3.28173e-10 2.81401e+06 3.74415e+12
88.6959 582.404 514.4 1.31805e-10 7.44986e+06 581.247 1.31544e-10 2.79476e-10 3.51347e+06 4.41866e+12
93.7309 622.066 607.071 1.19291e-10 8.79764e+06 620.825 1.19053e-10 2.37972e-10 4.41008e+06 5.2147e+12
99.0518 667.483 716.436 1.08461e-10 1.03827e+07 666.121 1.08239e-10 2.02605e-10 5.55819e+06 6.15414e+12
104.675 719.483 845.504 9.90637e-11 1.22515e+07 717.922 9.88488e-11 1.72471e-10 7.03702e+06 7.26283e+12
110.617 780.513 997.824 9.10619e-11 1.44573e+07 778.792 9.0861e-11 1.468e-10 8.96805e+06 8.57124e+12
116.896 852.484 1177.58 8.42761e-11 1.70664e+07 850.524 8.40823e-11 1.24935e-10 1.15123e+07 1.01154e+13
123.532 936.842 1389.73 7.84777e-11 2.0139e+07 934.608 7.82905e-11 1.06313e-10 1.48661e+07 1.19377e+13
130.545 1035.28 1640.09 7.34854e-11 2.37643e+07 1032.69 7.33011e-11 9.04567e-11 1.93057e+07 1.40883e+13
137.955 1152.66 1935.56 6.93271e-11 2.80503e+07 1149.69 6.91487e-11 7.69563e-11 2.52695e+07 1.66263e+13
145.787 1292.02 2284.26 6.58469e-11 3.30981e+07 1288.55 6.56701e-11 6.54636e-11 3.32919e+07 1.96216e+13
154.063 1458.14 2695.77 6.29691e-11 3.90634e+07 1454.11 6.27949e-11 5.56812e-11 4.41763e+07 2.31565e+13
162.808 1655.77 3181.42 6.05883e-11 4.61057e+07 1651.02 6.04146e-11 4.73556e-11 5.8989e+07 2.73282e+13
172.051 1890.47 3754.56 5.86167e-11 5.44046e+07 1884.93 5.84447e-11 4.02708e-11 7.91892e+07 3.22515e+13
181.818 2171.17 4430.96 5.70435e-11 6.42064e+07 2164.67 5.68726e-11 3.42426e-11 1.06959e+08 3.80616e+13
192.139 2505.16 5229.21 5.57712e-11 7.57748e+07 2497.5 5.56007e-11 2.91139e-11 1.45156e+08 4.49186e+13
203.046 2905.14 6171.26 5.48029e-11 8.94213e+07 2896.08 5.46318e-11 2.4751e-11 1.97993e+08 5.30108e+13
214.572 3382.68 7283.03 5.40703e-11 1.05538e+08 3371.97 5.38991e-11 2.10401e-11 2.7122e+08 6.25608e+13
226.753 3955.51 8595.09 5.3575e-11 1.24552e+08 3942.71 5.34016e-11 1.78839e-11 3.73121e+08 7.38313e+13
239.625 4643.28 10143.5 5.329e-11 1.46987e+08 4627.97 5.31143e-11 1.51999e-11 5.15329e+08 8.71322e+13
253.228 5470.13 11970.9 5.31962e-11 1.7347e+08 5451.79 5.30179e-11 1.29176e-11 7.14368e+08 1.02829e+14
267.603 6471.07 14127.5 5.33238e-11 2.04703e+08 6449.04 5.31423e-11 1.09771e-11 9.94389e+08 1.21354e+14
282.795 7690.96 16672.6 5.37016e-11 2.4161e+08 7664.33 5.35157e-11 9.3274e-12 1.39105e+09 1.43217e+14
298.848 9186.93 19676.2 5.4355e-11 2.85122e+08 9154.32 5.4162e-11 7.925e-12 1.95556e+09 1.69017e+14
315.813 11046.6 23220.9 5.53808e-11 3.36491e+08 11006.2 5.51784e-11 6.73295e-12 2.76775e+09 1.99466e+14
333.741 13395.6 27404.3 5.69055e-11 3.97115e+08 13344.8 5.66898e-11 5.71979e-12 3.95085e+09 2.35401e+14
352.686 16434.1 32341.2 5.9156e-11 4.68637e+08 16368.9 5.89214e-11 4.85874e-12 5.70574e+09 2.77809e+14
372.707 20478.5 38167.6 6.24618e-11 5.53074e+08 20392.2 6.21986e-11 4.12703e-12 8.37067e+09 3.27857e+14
393.865 26070.4 45043.5 6.73791e-11 6.52716e+08 25951.8 6.70727e-11 3.50528e-12 1.25466e+10 3.86921e+14
416.224 30779.2 53158.3 6.74056e-11 2.2184e+08 32561.4 7.13086e-11 2.97701e-12 5.02291e+09 4.56626e+14
439.852 0 62734.9 0 0 0 0 2.52819e-12 0 5.38888e+14
464.821 0 74036.7 0 0 0 0 2.1469e-12 0 6.35971e+14
491.207 0 87374.6 0 0 0 0 1.82301e-12 0 7.50542e+14
519.092 0 103115 0 0 0 0 1.54789e-12 0 8.85755e+14
548.56 0 121692 0 0 0 0 1.31422e-12 0 1.04533e+15
579.7 0 143615 0 0 0 0 1.11576e-12 0 1.23364e+15
612.608 0 169488 0 0 0 0 9.47223e-13 0 1.45589e+15
647.384 0 200021 0 0 0 0 8.041e-13 0 1.71817e+15
684.134 0 236056 0 0 0 0 6.82568e-13 0 2.0277e+15
722.971 0 278582 0 0 0 0 5.79376e-13 0 2.393e+15
764.012 0 328769 0 0 0 0 4.91762e-13 0 2.8241e+15
0.778248
200
1.0655e+09
8589934592
0.0129181 0.0013636 1.58924e-09 9.98867e-05 6 0.00135112 9.89722e-05 0.00677225 0.0884964 13.6515
0.0136515 0 1.87554e-09 0 0 0 0 0.00688819 0 16.1108
0.0144264 0 2.21343e-09 0 0 0 0 0.00699249 0 19.0132
0.0152454 0 2.61218e-09 0 0 0 0 0.00708412 0 22.4385
0.0161108 0 3.08278e-09 0 0 0 0 0.00716212 0 26.4808
0.0170254 0 3.63815e-09 0 0 0 0 0.00722559 0 31.2514
0.0179919 0.00309058 4.29357e-09 8.37976e-05 12 0.0030866 8.36896e-05 0.00727371 0.138247 36.8815
0.0190132 0 5.06707e-09 0 0 0 0 0.00730578 0 43.5258
0.0200925 0 5.97991e-09 0 0 0 0 0.00732122 0 51.367
0.0212331 0.00295535 7.05721e-09 4.87513e-05 8 0.00295278 4.87089e-05 0.00731958 0.0532832 60.621
0.0224385 0 8.32858e-09 0 0 0 0 0.00730056 0 71.542
0.0237123 0 9.829e-09 0 0 0 0 0.00726401 0 84.4305
0.0250583 0.0188216 1.15997e-08 0.000188895 6 0.0188128 0.000188806 0.00720995 0.157195 99.6408
0.0264808 0 1.36894e-08 0 0 0 0 0.00713857 0 117.591
0.0279841 0.0116744 1.61556e-08 8.41238e-05 24 0.0116624 8.40374e-05 0.00705021 0.286371 138.776
0.0295727 0 1.90661e-08 0 0 0 0 0.00694538 0 163.777
0.0312514 0.0208288 2.25009e-08 0.000107764 24 0.0209346 0.000108311 0.00682475 0.378965 193.281
0.0330255 0 2.65545e-08 0 0 0 0 0.00668915 0 228.102
0.0349003 0.0315301 3.13384e-08 0.000117127 12 0.0312776 0.00011619 0.00653951 0.214929 269.195
0.0368815 0.0255299 3.69841e-08 8.03607e-05 30 0.025258 7.9505e-05 0.00637693 0.378054 317.691
0.0389751 0.0291797 4.36469e-08 7.78284e-05 24 0.0288795 7.70277e-05 0.00620256 0.301147 374.924
0.0411876 0.0187053 5.151e-08 4.22751e-05 24 0.0185783 4.1988e-05 0.00601767 0.168604 442.467
0.0435258 0.0457611 6.07896e-08 8.76349e-05 8 0.0457576 8.76282e-05 0.00582358 0.120386 522.179
0.0459966 0.0566196 7.1741e-08 9.18775e-05 72 0.0561726 9.11521e-05 0.00562166 1.17673 616.251
0.0486077 0 8.46654e-08 0 0 0 0 0.0054133 0 727.27
0.051367 0.0787959 9.99181e-08 9.18057e-05 54 0.0785359 9.15027e-05 0.00519989 0.953387 858.29
0.054283 0.0636004 1.17919e-07 6.27896e-05 60 0.0638862 6.30718e-05 0.0049828 0.756075 1012.91
0.0573645 0.059859 1.39162e-07 5.00748e-05 96 0.0597046 4.99457e-05 0.00476339 1.00919 1195.39
0.060621 0.0711628 1.64232e-07 5.04434e-05 24 0.0701986 4.976e-05 0.00454293 0.266489 1410.75
0.0640622 0.122978 1.93819e-07 7.38653e-05 134 0.123035 7.38998e-05 0.00432265 2.28979 1664.89
0.0676989 0.120469 2.28736e-07 6.13125e-05 120 0.119885 6.10153e-05 0.00410371 1.79289 1964.83
0.071542 0.113359 2.69944e-07 4.8887e-05 108 0.112108 4.83474e-05 0.00388717 1.35826 2318.8
0.0756032 0.167888 3.18575e-07 6.13505e-05 174 0.166959 6.10112e-05 0.00367401 2.90554 2736.54
0.079895 0.176568 3.75967e-07 5.4673e-05 168 0.174907 5.41585e-05 0.0034651 2.65074 3229.53
0.0844305 0.147843 4.43698e-07 3.87904e-05 168 0.148578 3.89832e-05 0.00326121 1.99828 3811.34
0.0892234 0.175953 5.23632e-07 3.91184e-05 290 0.175138 3.89372e-05 0.00306301 3.70365 4497.96
0.0942883 0.214982 6.17966e-07 4.04993e-05 288 0.214504 4.04092e-05 0.00287109 4.0625 5308.28
0.0996408 0.192416 7.29294e-07 3.07148e-05 366 0.19092 3.0476e-05 0.00268591 4.1854 6264.59
0.105297 0.225054 8.60678e-07 3.04409e-05 420 0.223449 3.02237e-05 0.00250785 5.09805 7393.17
0.111275 0.241343 1.01573e-06 2.76609e-05 398 0.240644 2.75807e-05 0.00233721 4.71033 8725.07
0.117591 0.287792 1.19872e-06 2.79494e-05 624 0.288557 2.80236e-05 0.00217419 8.02156 10296.9
0.124267 0.333738 1.41467e-06 2.74638e-05 642 0.33301 2.74038e-05 0.00201893 8.73324 12151.9
0.131321 0.398827 1.66953e-06 2.781e-05 800 0.398923 2.78167e-05 0.00187147 11.888 14341.1
0.138776 0.366219 1.9703e-06 2.16381e-05 858 0.367804 2.17318e-05 0.00173182 10.7202 16924.7
0.146654 0.423865 2.32525e-06 2.12211e-05 1080 0.427392 2.13977e-05 0.00159991 14.325 19973.8
0.154979 0.496741 2.74415e-06 2.10733e-05 1286 0.499893 2.1207e-05 0.00147563 18.3651 23572.1
0.163777 0.483768 3.23852e-06 1.73901e-05 1650 0.485104 1.74381e-05 0.00135884 21.1163 27818.7
0.173074 0.544931 3.82195e-06 1.65984e-05 1778 0.545295 1.66095e-05 0.00124933 23.6222 32830.3
0.182899 0.578995 4.51048e-06 1.49438e-05 2112 0.580362 1.49791e-05 0.00114689 27.5191 38744.7
0.193281 0.643748 5.32305e-06 1.40788e-05 2570 0.6443 1.40909e-05 0.00105127 34.4178 45724.7
0.204254 0.755476 6.28202e-06 1.40001e-05 3030 0.755 1.39913e-05 0.000962209 44.0864 53962.1
0.215848 0.784292 7.41374e-06 1.23155e-05 3434 0.783967 1.23104e-05 0.000879423 48.0898 63683.5
0.228102 0.832447 8.74934e-06 1.10762e-05 4218 0.832039 1.10708e-05 0.000802624 58.2084 75156.3
0.24105 0.928212 1.03256e-05 1.04651e-05 4766 0.92878 1.04715e-05 0.000731515 68.1827 88695.9
0.254734 1.01561 1.21857e-05 9.70253e-06 6026 1.01558 9.70222e-06 0.000665798 87.8156 104675
0.269195 1.15144 1.4381e-05 9.32097e-06 6480 1.1504 9.31252e-06 0.000605173 99.8059 123532
0.284476 1.24578 1.69718e-05 8.54521e-06 8162 1.2481 8.5611e-06 0.000549345 126.962 145787
0.300625 1.36835 2.00293e-05 7.95318e-06 9578 1.3691 7.95755e-06 0.000498021 152.957 172051
0.317691 1.51466 2.36377e-05 7.45971e-06 11234 1.51309 7.45196e-06 0.000450916 185.849 203046
0.335725 1.63535 2.78961e-05 6.82462e-06 13344 1.63227 6.81174e-06 0.000407755 223.339 239625
0.354784 1.83305 3.29216e-05 6.48192e-06 15464 1.83174 6.47728e-06 0.000368269 272.183 282795
0.374924 1.97172 3.88525e-05 5.90794e-06 18458 1.97002 5.90286e-06 0.000332202 328.261 333741
0.396207 2.27724 4.58519e-05 5.78179e-06 22232 2.2739 5.77329e-06 0.000299307 429.461 393865
0.418699 2.4449 5.41123e-05 5.25988e-06 25628 2.43897 5.24711e-06 0.00026935 500.465 464821
0.442467 2.66824 6.38607e-05 4.86408e-06 30320 2.66357 4.85557e-06 0.000242108 609.146 548560
0.467585 3.0202 7.53654e-05 4.66523e-06 35452 3.01477 4.65685e-06 0.00021737 760.876 647384
0.494129 3.33467 8.89427e-05 4.36468e-06 41792 3.33104 4.35993e-06 0.000194938 935.726 764012
0.522179 3.75308 0.000104966 4.16246e-06 49988 3.75262 4.16194e-06 0.000174625 1191.54 901651
0.551822 4.16978 0.000123876 3.91865e-06 59110 4.16403 3.91324e-06 0.000156255 1482.4 1.06409e+06
0.583147 4.62795 0.000146192 3.68531e-06 69716 4.61999 3.67897e-06 0.000139664 1839.59 1.25578e+06
0.616251 5.15487 0.000172529 3.47828e-06 82210 5.1447 3.47142e-06 0.0001247 2293.1 1.48202e+06
0.651234 5.71037 0.000203611 3.26492e-06 96722 5.69715 3.25737e-06 0.00011122 2839.31 1.74901e+06
0.688203 6.469 0.000240292 3.13406e-06 113098 6.45877 3.12911e-06 9.90935e-05 3576.99 2.06409e+06
0.72727 7.19748 0.000283581 2.9547e-06 135190 7.18705 2.95041e-06 8.81969e-05 4529.02 2.43595e+06
0.768555 8.04445 0.000334669 2.79828e-06 158170 8.03321 2.79437e-06 7.84179e-05 5644.16 2.87479e+06
0.812184 9.0045 0.000394961 2.65409e-06 188560 8.98879 2.64946e-06 6.96525e-05 7185.02 3.39269e+06
0.85829 10.0526 0.000466114 2.5107e-06 220444 10.0359 2.50653e-06 6.1805e-05 8955.1 4.00389e+06
0.907013 11.2364 0.000550086 2.37798e-06 261388 11.2174 2.37396e-06 5.47875e-05 11345.2 4.7252e+06
0.958501 12.5744 0.000649185 2.2549e-06 308244 12.5558 2.25157e-06 4.85194e-05 14325.4 5.57646e+06
1.01291 14.1026 0.000766138 2.14291e-06 364396 14.0786 2.13926e-06 4.29272e-05 18190.5 6.58107e+06
1.07041 15.6664 0.00090416 2.01713e-06 429162 15.6373 2.01339e-06 3.79435e-05 22814.9 7.76667e+06
1.13118 17.4901 0.00106705 1.90818e-06 506358 17.4599 1.90488e-06 3.3507e-05 28836.4 9.16586e+06
1.19539 19.5797 0.00125928 1.81007e-06 598590 19.5437 1.80674e-06 2.9562e-05 36651.4 1.08171e+07
1.26325 21.7873 0.00148614 1.70669e-06 704844 21.7464 1.70349e-06 2.60578e-05 46164.6 1.27658e+07
1.33496 24.2248 0.00175387 1.60795e-06 834620 24.1756 1.60468e-06 2.29484e-05 58480.1 1.50656e+07
1.41075 26.8506 0.00206984 1.51017e-06 981444 26.7977 1.5072e-06 2.01923e-05 73401.9 1.77798e+07
1.49083 29.7932 0.00244272 1.41988e-06 1.15998e+06 29.7389 1.4173e-06 1.77518e-05 92781.4 2.09828e+07
1.57546 33.0277 0.00288279 1.33375e-06 1.36931e+06 32.967 1.3313e-06 1.55929e-05 117125 2.4763e+07
1.66489 36.5566 0.00340213 1.25091e-06 1.61652e+06 36.4873 1.24854e-06 1.3685e-05 147761 2.92241e+07
1.75941 40.2794 0.00401503 1.1679e-06 1.90601e+06 40.2053 1.16575e-06 1.20007e-05 185491 3.44889e+07
1.85928 44.2875 0.00473835 1.08809e-06 2.24913e+06 44.2055 1.08607e-06 1.05151e-05 232737 4.07021e+07
1.96483 48.542 0.00559198 1.01056e-06 2.65744e+06 48.4489 1.00862e-06 9.20606e-06 291710 4.80347e+07
2.07637 53.1236 0.00659939 9.37117e-07 3.13125e+06 53.0226 9.35336e-07 8.05366e-06 364350 5.66883e+07
2.19424 58.0081 0.00778828 8.67076e-07 3.69915e+06 57.9007 8.65471e-07 7.04008e-06 455598 6.69008e+07
2.3188 63.1502 0.00919136 7.99843e-07 4.36472e+06 63.0369 7.98409e-07 6.1494e-06 567713 7.89532e+07
2.45043 68.7821 0.0108472 7.38189e-07 5.14913e+06 68.6634 7.36914e-07 5.36741e-06 708169 9.31768e+07
2.58954 74.6814 0.0128014 6.79151e-07 6.07894e+06 74.5485 6.77943e-07 4.68145e-06 881888 1.09963e+08
2.73654 80.9585 0.0151076 6.23847e-07 7.17304e+06 80.8181 6.22765e-07 4.08023e-06 1.09672e+06 1.29773e+08
2.89188 87.5948 0.0178292 5.71947e-07 8.46557e+06 87.4466 5.70979e-07 3.55373e-06 1.36247e+06 1.53152e+08
3.05605 94.5492 0.0210412 5.23115e-07 9.98773e+06 94.3891 5.22229e-07 3.09304e-06 1.68919e+06 1.80743e+08
3.22953 101.832 0.0248319 4.77403e-07 1.1797e+07 101.662 4.76605e-07 2.69025e-06 2.09346e+06 2.13304e+08
3.41286 109.428 0.0293054 4.34703e-07 1.39144e+07 109.243 4.33966e-07 2.33837e-06 2.58668e+06 2.51731e+08
3.6066 117.623 0.0345848 3.95929e-07 1.64163e+07 117.425 3.95262e-07 2.0312e-06 3.19992e+06 2.97081e+08
3.81134 126.263 0.0408154 3.60132e-07 1.93821e+07 126.053 3.59533e-07 1.76327e-06 3.95864e+06 3.50601e+08
4.0277 135.253 0.0481684 3.26884e-07 2.28754e+07 135.025 3.26333e-07 1.52972e-06 4.88821e+06 4.13763e+08
4.25634 144.76 0.056846 2.96454e-07 2.69929e+07 144.514 2.95951e-07 1.32631e-06 6.03342e+06 4.88304e+08
4.49796 154.689 0.067087 2.6843e-07 3.18542e+07 154.427 2.67975e-07 1.14926e-06 7.44013e+06 5.76273e+08
4.7533 165.187 0.0791729 2.4289e-07 3.75892e+07 164.909 2.42481e-07 9.95263e-07 9.17351e+06 6.8009e+08
5.02313 176.272 0.0934361 2.19623e-07 4.43706e+07 175.978 2.19257e-07 8.61414e-07 1.13126e+07 8.0261e+08
5.30828 187.885 0.110269 1.98358e-07 5.23593e+07 187.574 1.98029e-07 7.45152e-07 1.39379e+07 9.47202e+08
5.60962 199.956 0.130134 1.78877e-07 6.1787e+07 199.624 1.78579e-07 6.44232e-07 1.71557e+07 1.11784e+09
5.92807 212.664 0.153578 1.61203e-07 7.29346e+07 212.309 1.60934e-07 5.56685e-07 2.11202e+07 1.31923e+09
6.26459 225.959 0.181246 1.45135e-07 8.60651e+07 225.583 1.44894e-07 4.80786e-07 2.59804e+07 1.55689e+09
6.62021 239.914 0.213898 1.30575e-07 1.01558e+08 239.516 1.30358e-07 4.15026e-07 3.19521e+07 1.83737e+09
6.99602 254.626 0.252432 1.17427e-07 1.1986e+08 254.204 1.17233e-07 3.58083e-07 3.9306e+07 2.16837e+09
7.39317 269.958 0.297908 1.05493e-07 1.41457e+08 269.511 1.05318e-07 3.08803e-07 4.83243e+07 2.55901e+09
7.81286 286.088 0.351577 9.47304e-08 1.66936e+08 285.614 9.45735e-08 2.66181e-07 5.94103e+07 3.02002e+09
8.25637 303.018 0.414914 8.50198e-08 1.97025e+08 302.515 8.48788e-08 2.29336e-07 7.30414e+07 3.56409e+09
8.72507 321.127 0.489662 7.63466e-08 2.32497e+08 320.592 7.62196e-08 1.97503e-07 8.98738e+07 4.20617e+09
9.22037 340.348 0.577876 6.85643e-08 2.74404e+08 339.773 6.84486e-08 1.70014e-07 1.10663e+08 4.96392e+09
9.74378 361.307 0.681982 6.16756e-08 3.2382e+08 360.684 6.15693e-08 1.46289e-07 1.36523e+08 5.85818e+09
10.2969 384.953 0.804843 5.56809e-08 3.82165e+08 384.264 5.55812e-08 1.25822e-07 1.69122e+08 6.91355e+09
10.8814 413.024 0.949838 5.06216e-08 4.51027e+08 412.233 5.05247e-08 1.08175e-07 2.11062e+08 8.15905e+09
11.4992 448.942 1.12095 4.66243e-08 5.32251e+08 447.979 4.65243e-08 9.29669e-08 2.66932e+08 9.62892e+09
12.1519 499.21 1.3229 4.39306e-08 6.28157e+08 497.952 4.38199e-08 7.98658e-08 3.45522e+08 1.13636e+10
12.8418 555.675 1.56122 4.14349e-08 3.82727e+08 575.14 4.28864e-08 6.85852e-08 2.3122e+08 1.34108e+10
13.5708 0 1.84248 0 0 0 0 5.88765e-08 0 1.58268e+10
14.3411 0 2.17441 0 0 0 0 5.05241e-08 0 1.8678e+10
15.1552 0 2.56613 0 0 0 0 4.33417e-08 0 2.20429e+10
16.0156 0 3.02843 0 0 0 0 3.71677e-08 0 2.6014e+10
16.9247 0 3.574 0 0 0 0 3.18628e-08 0 3.07005e+10
17.8855 0 4.21787 0 0 0 0 2.73063e-08 0 3.62312e+10
18.9008 0 4.97773 0 0 0 0 2.33941e-08 0 4.27584e+10
19.9738 0 5.87448 0 0 0 0 2.00364e-08 0 5.04614e+10
21.1076 0 6.93279 0 0 0 0 1.71555e-08 0 5.95522e+10
22.3058 0 8.18175 0 0 0 0 1.46847e-08 0 7.02807e+10
23.5721 0 9.65571 0 0 0 0 1.25662e-08 0 8.29419e+10
24.9102 0 11.3952 0 0 0 0 1.07504e-08 0 9.78842e+10
26.3243 0 13.4481 0 0 0 0 9.19452e-09 0 1.15518e+11
27.8187 0 15.8708 0 0 0 0 7.86182e-09 0 1.36329e+11
29.3979 0 18.73 0 0 0 0 6.72061e-09 0 1.60889e+11
31.0667 0 22.1042 0 0 0 0 5.74366e-09 0 1.89874e+11
32.8303 0 26.0864 0 0 0 0 4.90756e-09 0 2.2408e+11
34.694 0 30.7859 0 0 0 0 4.19221e-09 0 2.64449e+11
36.6634 0 36.3321 0 0 0 0 3.58032e-09 0 3.1209e+11
38.7447 0 42.8774 0 0 0 0 3.05709e-09 0 3.68314e+11
40.9442 0 50.6018 0 0 0 0 2.60976e-09 0 4.34667e+11
43.2685 0 59.7179 0 0 0 0 2.22743e-09 0 5.12973e+11
45.7247 0 70.4762 0 0 0 0 1.90073e-09 0 6.05386e+11
48.3204 0 83.1727 0 0 0 0 1.62163e-09 0 7.14448e+11
51.0634 0 98.1565 0 0 0 0 1.38326e-09 0 8.43158e+11
53.9621 0 115.84 0 0 0 0 1.1797e-09 0 9.95055e+11
57.0254 0 136.709 0 0 0 0 1.00592e-09 0 1.17432e+12
60.2626 0 161.337 0 0 0 0 8.57591e-10 0 1.38587e+12
63.6835 0 190.402 0 0 0 0 7.3101e-10 0 1.63554e+12
67.2987 0 224.704 0 0 0 0 6.23009e-10 0 1.93019e+12
71.1191 0 265.185 0 0 0 0 5.30879e-10 0 2.27792e+12
75.1563 0 312.958 0 0 0 0 4.52303e-10 0 2.68829e+12
79.4227 0 369.339 0 0 0 0 3.85299e-10 0 3.17259e+12
83.9313 0 435.876 0 0 0 0 3.28173e-10 0 3.74415e+12
88.6959 0 514.4 0 0 0 0 2.79476e-10 0 4.41866e+12
93.7309 0 607.071 0 0 0 0 2.37972e-10 0 5.2147e+12
99.0518 0 716.436 0 0 0 0 2.02605e-10 0 6.15414e+12
104.675 0 845.504 0 0 0 0 1.72471e-10 0 7.26283e+12
110.617 0 997.824 0 0 0 0 1.468e-10 0 8.57124e+12
116.896 0 1177.58 0 0 0 0 1.24935e-10 0 1.01154e+13
123.532 0 1389.73 0 0 0 0 1.06313e-10 0 1.19377e+13
130.545 0 1640.09 0 0 0 0 9.04567e-11 0 1.40883e+13
137.955 0 1935.56 0 0 0 0 7.69563e-11 0 1.66263e+13
145.787 0 2284.26 0 0 0 0 6.54636e-11 0 1.96216e+13
154.063 0 2695.77 0 0 0 0 5.56812e-11 0 2.31565e+13
162.808 0 3181.42 0 0 0 0 4.73556e-11 0 2.73282e+13
172.051 0 3754.56 0 0 0 0 4.02708e-11 0 3.22515e+13
181.818 0 4430.96 0 0 0 0 3.42426e-11 0 3.80616e+13
192.139 0 5229.21 0 0 0 0 2.91139e-11 0 4.49186e+13
203.046 0 6171.26 0 0 0 0 2.4751e-11 0 5.30108e+13
214.572 0 7283.03 0 0 0 0 2.10401e-11 0 6.25608e+13
226.753 0 8595.09 0 0 0 0 1.78839e-11 0 7.38313e+13
239.625 0 10143.5 0 0 0 0 1.51999e-11 0 8.71322e+13
253.228 0 11970.9 0 0 0 0 1.29176e-11 0 1.02829e+14
267.603 0 14127.5 0 0 0 0 1.09771e-11 0 1.21354e+14
282.795 0 16672.6 0 0 0 0 9.3274e-12 0 1.43217e+14
298.848 0 19676.2 0 0 0 0 7.925e-12 0 1.69017e+14
315.813 0 23220.9 0 0 0 0 6.73295e-12 0 1.99466e+14
333.741 0 27404.3 0 0 0 0 5.71979e-12 0 2.35401e+14
352.686 0 32341.2 0 0 0 0 4.85874e-12 0 2.77809e+14
372.707 0 38167.6 0 0 0 0 4.12703e-12 0 3.27857e+14
393.865 0 45043.5 0 0 0 0 3.50528e-12 0 3.86921e+14
416.224 0 53158.3 0 0 0 0 2.97701e-12 0 4.56626e+14
439.852 0 62734.9 0 0 0 0 2.52819e-12 0 5.38888e+14
464.821 0 74036.7 0 0 0 0 2.1469e-12 0 6.35971e+14
491.207 0 87374.6 0 0 0 0 1.82301e-12 0 7.50542e+14
519.092 0 103115 0 0 0 0 1.54789e-12 0 8.85755e+14
548.56 0 121692 0 0 0 0 1.31422e-12 0 1.04533e+15
579.7 0 143615 0 0 0 0 1.11576e-12 0 1.23364e+15
612.608 0 169488 0 0 0 0 9.47223e-13 0 1.45589e+15
647.384 0 200021 0 0 0 0 8.041e-13 0 1.71817e+15
684.134 0 236056 0 0 0 0 6.82568e-13 0 2.0277e+15
722.971 0 278582 0 0 0 0 5.79376e-13 0 2.393e+15
764.012 0 328769 0 0 0 0 4.91762e-13 0 2.8241e+15
