0.715854
200
1.0655e+09
8589934592
0.0129181 0 1.58924e-09 0 0 0 0 0.00677225 0 13.6515
0.0136515 0 1.87554e-09 0 0 0 0 0.00688819 0 16.1108
0.0144264 0 2.21343e-09 0 0 0 0 0.00699249 0 19.0132
0.0152454 0 2.61218e-09 0 0 0 0 0.00708412 0 22.4385
0.0161108 0 3.08278e-09 0 0 0 0 0.00716212 0 26.4808
0.0170254 0 3.63815e-09 0 0 0 0 0.00722559 0 31.2514
0.0179919 0 4.29357e-09 0 0 0 0 0.00727371 0 36.8815
0.0190132 0 5.06707e-09 0 0 0 0 0.00730578 0 43.5258
0.0200925 0 5.97991e-09 0 0 0 0 0.00732122 0 51.367
0.0212331 0 7.05721e-09 0 0 0 0 0.00731958 0 60.621
0.0224385 0 8.32858e-09 0 0 0 0 0.00730056 0 71.542
0.0237123 0 9.829e-09 0 0 0 0 0.00726401 0 84.4305
0.0250583 0 1.15997e-08 0 0 0 0 0.00720995 0 99.6408
0.0264808 0 1.36894e-08 0 0 0 0 0.00713857 0 117.591
0.0279841 0 1.61556e-08 0 0 0 0 0.00705021 0 138.776
0.0295727 0 1.90661e-08 0 0 0 0 0.00694538 0 163.777
0.0312514 0 2.25009e-08 0 0 0 0 0.00682475 0 193.281
0.0330255 0 2.65545e-08 0 0 0 0 0.00668915 0 228.102
0.0349003 0 3.13384e-08 0 0 0 0 0.00653951 0 269.195
0.0368815 0 3.69841e-08 0 0 0 0 0.00637693 0 317.691
0.0389751 0 4.36469e-08 0 0 0 0 0.00620256 0 374.924
0.0411876 0 5.151e-08 0 0 0 0 0.00601767 0 442.467
0.0435258 0 6.07896e-08 0 0 0 0 0.00582358 0 522.179
0.0459966 0 7.1741e-08 0 0 0 0 0.00562166 0 616.251
0.0486077 0 8.46654e-08 0 0 0 0 0.0054133 0 727.27
0.051367 0 9.99181e-08 0 0 0 0 0.00519989 0 858.29
0.054283 0 1.17919e-07 0 0 0 0 0.0049828 0 1012.91
0.0573645 0 1.39162e-07 0 0 0 0 0.00476339 0 1195.39
0.060621 0 1.64232e-07 0 0 0 0 0.00454293 0 1410.75
0.0640622 0 1.93819e-07 0 0 0 0 0.00432265 0 1664.89
0.0676989 0 2.28736e-07 0 0 0 0 0.00410371 0 1964.83
0.071542 0 2.69944e-07 0 0 0 0 0.00388717 0 2318.8
0.0756032 0 3.18575e-07 0 0 0 0 0.00367401 0 2736.54
0.079895 0 3.75967e-07 0 0 0 0 0.0034651 0 3229.53
0.0844305 0 4.43698e-07 0 0 0 0 0.00326121 0 3811.34
0.0892234 0 5.23632e-07 0 0 0 0 0.00306301 0 4497.96
0.0942883 0 6.17966e-07 0 0 0 0 0.00287109 0 5308.28
0.0996408 0 7.29294e-07 0 0 0 0 0.00268591 0 6264.59
0.105297 0 8.60678e-07 0 0 0 0 0.00250785 0 7393.17
0.111275 0 1.01573e-06 0 0 0 0 0.00233721 0 8725.07
0.117591 0 1.19872e-06 0 0 0 0 0.00217419 0 10296.9
0.124267 0 1.41467e-06 0 0 0 0 0.00201893 0 12151.9
0.131321 0 1.66953e-06 0 0 0 0 0.00187147 0 14341.1
0.138776 0 1.9703e-06 0 0 0 0 0.00173182 0 16924.7
0.146654 0 2.32525e-06 0 0 0 0 0.00159991 0 19973.8
0.154979 0 2.74415e-06 0 0 0 0 0.00147563 0 23572.1
0.163777 0 3.23852e-06 0 0 0 0 0.00135884 0 27818.7
0.173074 0 3.82195e-06 0 0 0 0 0.00124933 0 32830.3
0.182899 0 4.51048e-06 0 0 0 0 0.00114689 0 38744.7
0.193281 0 5.32305e-06 0 0 0 0 0.00105127 0 45724.7
0.204254 0 6.28202e-06 0 0 0 0 0.000962209 0 53962.1
0.215848 0 7.41374e-06 0 0 0 0 0.000879423 0 63683.5
0.228102 0 8.74934e-06 0 0 0 0 0.000802624 0 75156.3
0.24105 0 1.03256e-05 0 0 0 0 0.000731515 0 88695.9
0.254734 0 1.21857e-05 0 0 0 0 0.000665798 0 104675
0.269195 0 1.4381e-05 0 0 0 0 0.000605173 0 123532
0.284476 0 1.69718e-05 0 0 0 0 0.000549345 0 145787
0.300625 0 2.00293e-05 0 0 0 0 0.000498021 0 172051
0.317691 0 2.36377e-05 0 0 0 0 0.000450916 0 203046
0.335725 0 2.78961e-05 0 0 0 0 0.000407755 0 239625
0.354784 0 3.29216e-05 0 0 0 0 0.000368269 0 282795
0.374924 0 3.88525e-05 0 0 0 0 0.000332202 0 333741
0.396207 1.72609 4.58519e-05 4.38244e-06 6 1.6781 4.2606e-06 0.000299307 0.0878518 393865
0.418699 0 5.41123e-05 0 0 0 0 0.00026935 0 464821
0.442467 0 6.38607e-05 0 0 0 0 0.000242108 0 548560
0.467585 0 7.53654e-05 0 0 0 0 0.00021737 0 647384
0.494129 0 8.89427e-05 0 0 0 0 0.000194938 0 764012
0.522179 0 0.000104966 0 0 0 0 0.000174625 0 901651
0.551822 0 0.000123876 0 0 0 0 0.000156255 0 1.06409e+06
0.583147 6.48604 0.000146192 5.16493e-06 12 6.82659 5.43612e-06 0.000139664 0.443773 1.25578e+06
0.616251 0 0.000172529 0 0 0 0 0.0001247 0 1.48202e+06
0.651234 0 0.000203611 0 0 0 0 0.00011122 0 1.74901e+06
0.688203 15.8407 0.000240292 7.67439e-06 8 15.4466 7.48346e-06 9.90935e-05 0.619568 2.06409e+06
0.72727 0 0.000283581 0 0 0 0 8.81969e-05 0 2.43595e+06
0.768555 0 0.000334669 0 0 0 0 7.84179e-05 0 2.87479e+06
0.812184 8.83269 0.000394961 2.60345e-06 6 9.02154 2.65911e-06 6.96525e-05 0.224266 3.39269e+06
0.85829 0 0.000466114 0 0 0 0 6.1805e-05 0 4.00389e+06
0.907013 1.10411 0.000550086 2.33665e-07 24 1.1253 2.38149e-07 5.47875e-05 0.102358 4.7252e+06
0.958501 4.44942 0.000649185 7.97894e-07 24 4.1888 7.51158e-07 4.85194e-05 0.394676 5.57646e+06
1.01291 0 0.000766138 0 0 0 0 4.29272e-05 0 6.58107e+06
1.07041 0 0.00090416 0 0 0 0 3.79435e-05 0 7.76667e+06
1.13118 6.05406 0.00106705 6.60501e-07 12 5.97969 6.52387e-07 3.3507e-05 0.236548 9.16586e+06
1.19539 3.87876 0.00125928 3.58577e-07 30 3.7988 3.51185e-07 2.9562e-05 0.363889 1.08171e+07
1.26325 9.04319 0.00148614 7.08389e-07 24 8.90711 6.9773e-07 2.60578e-05 0.652447 1.27658e+07
1.33496 13.6229 0.00175387 9.04238e-07 24 13.6529 9.06226e-07 2.29484e-05 0.945673 1.50656e+07
1.41075 17.9293 0.00206984 1.00841e-06 32 18.2598 1.027e-06 2.01923e-05 1.59809 1.77798e+07
1.49083 3.80155 0.00244272 1.81174e-07 48 3.72051 1.77312e-07 1.77518e-05 0.489888 2.09828e+07
1.57546 30.0687 0.00288279 1.21426e-06 6 28.6322 1.15625e-06 1.55929e-05 0.467238 2.4763e+07
1.66489 5.32016 0.00340213 1.82047e-07 84 5.22084 1.78649e-07 1.3685e-05 1.11742 2.92241e+07
1.75941 7.49273 0.00401503 2.17251e-07 48 7.47523 2.16743e-07 1.20007e-05 0.868954 3.44889e+07
1.85928 5.60787 0.00473835 1.37778e-07 72 5.63888 1.3854e-07 1.05151e-05 0.94341 4.07021e+07
1.96483 14.2649 0.00559198 2.9697e-07 54 13.9812 2.91065e-07 9.20606e-06 1.74194 4.80347e+07
2.07637 14.3185 0.00659939 2.52582e-07 104 14.4772 2.55382e-07 8.05366e-06 3.26169 5.66883e+07
2.19424 8.08081 0.00778828 1.20788e-07 120 8.23796 1.23137e-07 7.04008e-06 2.05886 6.69008e+07
2.3188 10.868 0.00919136 1.37651e-07 156 10.5696 1.33872e-07 6.1494e-06 3.49199 7.89532e+07
2.45043 10.885 0.0108472 1.16821e-07 126 10.7352 1.15213e-07 5.36741e-06 2.74236 9.31768e+07
2.58954 11.3059 0.0128014 1.02816e-07 192 11.3979 1.03652e-07 4.68145e-06 4.21678 1.09963e+08
2.73654 32.2819 0.0151076 2.48757e-07 152 32.6206 2.51367e-07 4.08023e-06 9.26688 1.29773e+08
2.89188 13.708 0.0178292 8.95061e-08 378 13.7906 9.00454e-08 3.55373e-06 9.5205 1.53152e+08
3.05605 13.6803 0.0210412 7.56893e-08 264 13.4139 7.42154e-08 3.09304e-06 6.4603 1.80743e+08
3.22953 16.1212 0.0248319 7.55786e-08 366 15.947 7.47617e-08 2.69025e-06 10.2822 2.13304e+08
3.41286 16.8055 0.0293054 6.67596e-08 428 16.6721 6.62297e-08 2.33837e-06 12.2192 2.51731e+08
3.6066 18.0148 0.0345848 6.06392e-08 486 17.8475 6.00761e-08 2.0312e-06 14.509 2.97081e+08
3.81134 16.0991 0.0408154 4.59185e-08 600 16.0913 4.58962e-08 1.76327e-06 15.625 3.50601e+08
4.0277 22.1091 0.0481684 5.34342e-08 738 22.0591 5.33134e-08 1.52972e-06 25.7788 4.13763e+08
4.25634 22.6622 0.056846 4.641e-08 824 22.5323 4.6144e-08 1.32631e-06 28.8334 4.88304e+08
4.49796 26.321 0.067087 4.56746e-08 954 26.153 4.5383e-08 1.14926e-06 37.9146 5.76273e+08
4.7533 24.3359 0.0791729 3.57834e-08 1094 24.1998 3.55832e-08 9.95263e-07 39.3333 6.8009e+08
5.02313 26.8919 0.0934361 3.35055e-08 1332 27.0264 3.36732e-08 8.61414e-07 51.8094 8.0261e+08
5.30828 33.1055 0.110269 3.49508e-08 1614 33.0431 3.4885e-08 7.45152e-07 75.7034 9.47202e+08
5.60962 36.5872 0.130134 3.27301e-08 1850 36.5313 3.26802e-08 6.44232e-07 93.989 1.11784e+09
5.92807 33.601 0.153578 2.54702e-08 2238 33.6026 2.54714e-08 5.56685e-07 102.396 1.31923e+09
6.26459 35.6226 0.181246 2.28806e-08 2546 35.7259 2.2947e-08 4.80786e-07 121.164 1.55689e+09
6.62021 37.0289 0.213898 2.01533e-08 3264 37.0099 2.01429e-08 4.15026e-07 158.497 1.83737e+09
6.99602 41.4395 0.252432 1.91109e-08 3506 41.4557 1.91184e-08 3.58083e-07 187.115 2.16837e+09
7.39317 42.5467 0.297908 1.66263e-08 4506 42.5566 1.66301e-08 3.08803e-07 242.607 2.55901e+09
7.81286 47.0768 0.351577 1.55882e-08 5018 46.9467 1.55451e-08 2.66181e-07 293.867 3.02002e+09
8.25637 50.5163 0.414914 1.41737e-08 5852 50.4388 1.4152e-08 2.29336e-07 361.672 3.56409e+09
8.72507 51.8793 0.489662 1.23341e-08 7362 51.7907 1.2313e-08 1.97503e-07 459.759 4.20617e+09
9.22037 56.3413 0.577876 1.13502e-08 8306 56.154 1.13124e-08 1.70014e-07 554.509 4.96392e+09
9.74378 60.144 0.681982 1.02667e-08 9698 60.1323 1.02647e-08 1.46289e-07 680.612 5.85818e+09
10.2969 64.4767 0.804843 9.32613e-09 11816 64.4514 9.32247e-09 1.25822e-07 875.818 6.91355e+09
10.8814 73.078 0.949838 8.95668e-09 13682 72.8934 8.93405e-09 1.08175e-07 1132.84 8.15905e+09
11.4992 72.0035 1.12095 7.47784e-09 16152 71.9523 7.47252e-09 9.29669e-08 1299.19 9.62892e+09
12.1519 75.9921 1.3229 6.68733e-09 19472 75.8558 6.67533e-09 7.98658e-08 1630.43 1.13636e+10
12.8418 78.4111 1.56122 5.84687e-09 22670 78.2022 5.8313e-09 6.85852e-08 1932.61 1.34108e+10
13.5708 84.9352 1.84248 5.36655e-09 26224 84.8259 5.35965e-09 5.88765e-08 2390.3 1.58268e+10
14.3411 91.1036 2.17441 4.87759e-09 31640 91.0601 4.87526e-09 5.05241e-08 3054.52 1.8678e+10
15.1552 96.9345 2.56613 4.39754e-09 37484 96.7986 4.39137e-09 4.33417e-08 3803.21 2.20429e+10
16.0156 105.056 3.02843 4.03846e-09 43856 104.905 4.03266e-09 3.71677e-08 4765.17 2.6014e+10
16.9247 107.769 3.574 3.51033e-09 51362 107.619 3.50546e-09 3.18628e-08 5658.56 3.07005e+10
17.8855 114.248 4.21787 3.1533e-09 61636 114.061 3.14814e-09 2.73063e-08 7117.66 3.62312e+10
18.9008 122.398 4.97773 2.86254e-09 72218 122.123 2.85612e-09 2.33941e-08 8836.69 4.27584e+10
19.9738 130.105 5.87448 2.57831e-09 84586 129.898 2.57421e-09 2.00364e-08 10884.7 5.04614e+10
21.1076 136.556 6.93279 2.29304e-09 100708 136.326 2.28918e-09 1.71555e-08 13460.8 5.95522e+10
22.3058 146.433 8.18175 2.08355e-09 118712 146.159 2.07965e-09 1.46847e-08 16843.6 7.02807e+10
23.5721 153.035 9.65571 1.84509e-09 140410 152.717 1.84125e-09 1.25662e-08 20616.4 8.29419e+10
24.9102 159.767 11.3952 1.63221e-09 164374 159.457 1.62904e-09 1.07504e-08 24956.6 9.78842e+10
26.3243 168.679 13.4481 1.4602e-09 194680 168.397 1.45775e-09 9.19452e-09 30917.4 1.15518e+11
27.8187 178.153 15.8708 1.30679e-09 230196 177.856 1.30461e-09 7.86182e-09 38263 1.36329e+11
29.3979 187.971 18.73 1.16833e-09 271156 187.606 1.16606e-09 6.72061e-09 47138.4 1.60889e+11
31.0667 198.354 22.1042 1.04466e-09 321076 197.983 1.04271e-09 5.74366e-09 58397.7 1.89874e+11
32.8303 208.724 26.0864 9.31472e-10 377436 208.381 9.29939e-10 4.90756e-09 71638.6 2.2408e+11
34.694 219.631 30.7859 8.30523e-10 447594 219.213 8.28945e-10 4.19221e-09 88673.3 2.64449e+11
36.6634 229.873 36.3321 7.36559e-10 525078 229.497 7.35356e-10 3.58032e-09 108021 3.1209e+11
38.7447 241.651 42.8774 6.56101e-10 621924 241.226 6.54948e-10 3.05709e-09 133475 3.68314e+11
40.9442 255.087 50.6018 5.86856e-10 732630 254.618 5.85778e-10 2.60976e-09 164746 4.34667e+11
43.2685 268.592 59.7179 5.23599e-10 865596 268.15 5.22738e-10 2.22743e-09 203474 5.12973e+11
45.7247 281.386 70.4762 4.64804e-10 1.02168e+06 280.917 4.64029e-10 1.90073e-09 249840 6.05386e+11
48.3204 294.384 83.1727 4.12044e-10 1.20544e+06 293.836 4.11277e-10 1.62163e-09 306292 7.14448e+11
51.0634 309.516 98.1565 3.67092e-10 1.42103e+06 308.995 3.66474e-10 1.38326e-09 377116 8.43158e+11
53.9621 324.661 115.84 3.26274e-10 1.67997e+06 324.093 3.25704e-10 1.1797e-09 464634 9.95055e+11
57.0254 341.507 136.709 2.90813e-10 1.98018e+06 340.904 2.903e-10 1.00592e-09 572473 1.17432e+12
60.2626 359.388 161.337 2.59323e-10 2.33957e+06 358.761 2.5887e-10 8.57591e-10 707450 1.38587e+12
63.6835 379.021 190.402 2.3174e-10 2.75676e+06 378.339 2.31323e-10 7.3101e-10 873933 1.63554e+12
67.2987 399.555 224.704 2.07003e-10 3.25638e+06 398.857 2.06641e-10 6.23009e-10 1.08197e+06 1.93019e+12
71.1191 422.041 265.185 1.85275e-10 3.84387e+06 421.259 1.84932e-10 5.30879e-10 1.3415e+06 2.27792e+12
75.1563 447.315 312.958 1.66394e-10 4.53277e+06 446.49 1.66087e-10 4.52303e-10 1.66752e+06 2.68829e+12
79.4227 474.526 369.339 1.4957e-10 5.35083e+06 473.643 1.49292e-10 3.85299e-10 2.07715e+06 3.17259e+12
83.9313 505.834 435.876 1.351e-10 6.32174e+06 504.843 1.34835e-10 3.28173e-10 2.60249e+06 3.74415e+12
88.6959 540.479 514.4 1.22317e-10 7.44986e+06 539.376 1.22068e-10 2.79476e-10 3.26055e+06 4.41866e+12
93.7309 580.735 607.071 1.11365e-10 8.79764e+06 579.552 1.11138e-10 2.37972e-10 4.11707e+06 5.2147e+12
99.0518 625.974 716.436 1.01716e-10 1.03827e+07 624.656 1.01502e-10 2.02605e-10 5.21254e+06 6.15414e+12
104.675 678.333 845.504 9.33979e-11 1.22515e+07 676.841 9.31925e-11 1.72471e-10 6.63455e+06 7.26283e+12
110.617 741.091 997.824 8.64625e-11 1.44573e+07 739.398 8.62649e-11 1.468e-10 8.51509e+06 8.57124e+12
116.896 814.061 1177.58 8.04776e-11 1.70664e+07 812.091 8.02829e-11 1.24935e-10 1.09934e+07 1.01154e+13
123.532 900.448 1389.73 7.5429e-11 2.0139e+07 898.191 7.524e-11 1.06313e-10 1.42886e+07 1.19377e+13
130.545 1002.55 1640.09 7.11622e-11 2.37643e+07 999.963 7.09783e-11 9.04567e-11 1.86953e+07 1.40883e+13
137.955 1122.89 1935.56 6.75367e-11 2.80503e+07 1119.89 6.73565e-11 7.69563e-11 2.46169e+07 1.66263e+13
145.787 1266.4 2284.26 6.45409e-11 3.30981e+07 1262.91 6.43632e-11 6.54636e-11 3.26316e+07 1.96216e+13
154.063 1437.72 2695.77 6.20869e-11 3.90634e+07 1433.65 6.19115e-11 5.56812e-11 4.35574e+07 2.31565e+13
162.808 1642.34 3181.42 6.00967e-11 4.61057e+07 1637.53 5.99208e-11 4.73556e-11 5.85104e+07 2.73282e+13
172.051 1884.66 3754.56 5.84363e-11 5.44046e+07 1879 5.82608e-11 4.02708e-11 7.89456e+07 3.22515e+13
181.818 2173.43 4430.96 5.71029e-11 6.42064e+07 2166.77 5.69278e-11 3.42426e-11 1.0707e+08 3.80616e+13
192.139 2517.76 5229.21 5.60516e-11 7.57748e+07 2509.92 5.58772e-11 2.91139e-11 1.45886e+08 4.49186e+13
203.046 2928.25 6171.26 5.52388e-11 8.94213e+07 2918.99 5.5064e-11 2.4751e-11 1.99568e+08 5.30108e+13
214.572 3420.31 7283.03 5.46719e-11 1.05538e+08 3409.33 5.44962e-11 2.10401e-11 2.74237e+08 6.25608e+13
226.753 4008.51 8595.09 5.42929e-11 1.24552e+08 3995.43 5.41157e-11 1.78839e-11 3.7812e+08 7.38313e+13
239.625 4713.92 10143.5 5.41008e-11 1.46987e+08 4698.3 5.39215e-11 1.51999e-11 5.2317e+08 8.71322e+13
253.228 5563.41 11970.9 5.41034e-11 1.7347e+08 5544.7 5.39214e-11 1.29176e-11 7.26551e+08 1.02829e+14
267.603 6587.54 14127.5 5.42836e-11 2.04703e+08 6565.04 5.40982e-11 1.09771e-11 1.01229e+09 1.21354e+14
282.795 7836.48 16672.6 5.47177e-11 2.4161e+08 7809.17 5.4527e-11 9.3274e-12 1.41737e+09 1.43217e+14
298.848 9367.62 19676.2 5.5424e-11 2.85122e+08 9334.23 5.52264e-11 7.925e-12 1.99402e+09 1.69017e+14
315.813 11271.4 23220.9 5.65079e-11 3.36491e+08 11230.2 5.63012e-11 6.73295e-12 2.82408e+09 1.99466e+14
333.741 13675 27404.3 5.80924e-11 3.97115e+08 13623.1 5.78721e-11 5.71979e-12 4.03325e+09 2.35401e+14
352.686 16781.8 32341.2 6.04078e-11 4.68637e+08 16715.2 6.01678e-11 4.85874e-12 5.82648e+09 2.77809e+14
372.707 20911.6 38167.6 6.37828e-11 5.53074e+08 20823.4 6.35138e-11 4.12703e-12 8.5477e+09 3.27857e+14
393.865 26629 45043.5 6.88228e-11 6.52716e+08 26507.8 6.85096e-11 3.50528e-12 1.28155e+10 3.86921e+14
416.224 31438.4 53158.3 6.88494e-11 2.2184e+08 33258.9 7.28362e-11 2.97701e-12 5.1305e+09 4.56626e+14
439.852 0 62734.9 0 0 0 0 2.52819e-12 0 5.38888e+14
464.821 0 74036.7 0 0 0 0 2.1469e-12 0 6.35971e+14
491.207 0 87374.6 0 0 0 0 1.82301e-12 0 7.50542e+14
519.092 0 103115 0 0 0 0 1.54789e-12 0 8.85755e+14
548.56 0 121692 0 0 0 0 1.31422e-12 0 1.04533e+15
579.7 0 143615 0 0 0 0 1.11576e-12 0 1.23364e+15
612.608 0 169488 0 0 0 0 9.47223e-13 0 1.45589e+15
647.384 0 200021 0 0 0 0 8.041e-13 0 1.71817e+15
684.134 0 236056 0 0 0 0 6.82568e-13 0 2.0277e+15
722.971 0 278582 0 0 0 0 5.79376e-13 0 2.393e+15
764.012 0 328769 0 0 0 0 4.91762e-13 0 2.8241e+15
0.715854
200
1.0655e+09
8589934592
0.0129181 0.00121364 1.58924e-09 8.89018e-05 6 0.00120253 8.80879e-05 0.00677225 0.0787642 13.6515
0.0136515 0 1.87554e-09 0 0 0 0 0.00688819 0 16.1108
0.0144264 0 2.21343e-09 0 0 0 0 0.00699249 0 19.0132
0.0152454 0 2.61218e-09 0 0 0 0 0.00708412 0 22.4385
0.0161108 0 3.08278e-09 0 0 0 0 0.00716212 0 26.4808
0.0170254 0 3.63815e-09 0 0 0 0 0.00722559 0 31.2514
0.0179919 0.00275024 4.29357e-09 7.45696e-05 12 0.00274669 7.44735e-05 0.00727371 0.123023 36.8815
0.0190132 0 5.06707e-09 0 0 0 0 0.00730578 0 43.5258
0.0200925 0 5.97991e-09 0 0 0 0 0.00732122 0 51.367
0.0212331 0.00262975 7.05721e-09 4.33803e-05 8 0.00262747 4.33425e-05 0.00731958 0.0474129 60.621
0.0224385 0 8.32858e-09 0 0 0 0 0.00730056 0 71.542
0.0237123 0 9.829e-09 0 0 0 0 0.00726401 0 84.4305
0.0250583 0.01677 1.15997e-08 0.000168305 6 0.0167621 0.000168225 0.00720995 0.14006 99.6408
0.0264808 0 1.36894e-08 0 0 0 0 0.00713857 0 117.591
0.0279841 0.0104068 1.61556e-08 7.49901e-05 24 0.0103961 7.49131e-05 0.00705021 0.255278 138.776
0.0295727 0 1.90661e-08 0 0 0 0 0.00694538 0 163.777
0.0312514 0.0185801 2.25009e-08 9.61299e-05 24 0.0186745 9.66179e-05 0.00682475 0.338051 193.281
0.0330255 0 2.65545e-08 0 0 0 0 0.00668915 0 228.102
0.0349003 0.0279917 3.13384e-08 0.000103983 12 0.0277676 0.000103151 0.00653951 0.190809 269.195
0.0368815 0.0227732 3.69841e-08 7.16836e-05 30 0.0225307 7.09203e-05 0.00637693 0.337233 317.691
0.0389751 0.0261169 4.36469e-08 6.96591e-05 24 0.0258482 6.89425e-05 0.00620256 0.269537 374.924
0.0411876 0.0167239 5.151e-08 3.7797e-05 24 0.0166104 3.75403e-05 0.00601767 0.150744 442.467
0.0435258 0.0405841 6.07896e-08 7.77207e-05 8 0.040581 7.77147e-05 0.00582358 0.106767 522.179
0.0459966 0.0503408 7.1741e-08 8.16887e-05 72 0.0499432 8.10437e-05 0.00562166 1.04624 616.251
0.0486077 0 8.46654e-08 0 0 0 0 0.0054133 0 727.27
0.051367 0.0704332 9.99181e-08 8.20622e-05 54 0.0702013 8.17921e-05 0.00519989 0.852202 858.29
0.054283 0.0567182 1.17919e-07 5.59951e-05 60 0.0569717 5.62454e-05 0.0049828 0.67426 1012.91
0.0573645 0.0535871 1.39162e-07 4.4828e-05 96 0.0534488 4.47124e-05 0.00476339 0.903452 1195.39
0.060621 0.0635823 1.64232e-07 4.507e-05 24 0.0627209 4.44594e-05 0.00454293 0.238102 1410.75
0.0640622 0.110145 1.93819e-07 6.61573e-05 134 0.110198 6.61889e-05 0.00432265 2.05084 1664.89
0.0676989 0.107733 2.28736e-07 5.48307e-05 120 0.107213 5.45661e-05 0.00410371 1.60335 1964.83
0.071542 0.101164 2.69944e-07 4.36276e-05 108 0.100049 4.3147e-05 0.00388717 1.21213 2318.8
0.0756032 0.149706 3.18575e-07 5.47064e-05 174 0.148881 5.44048e-05 0.00367401 2.59088 2736.54
0.079895 0.15762 3.75967e-07 4.88058e-05 168 0.156137 4.83467e-05 0.0034651 2.36628 3229.53
0.0844305 0.132189 4.43698e-07 3.4683e-05 168 0.132846 3.48556e-05 0.00326121 1.78668 3811.34
0.0892234 0.156505 5.23632e-07 3.47946e-05 290 0.155786 3.46348e-05 0.00306301 3.29428 4497.96
0.0942883 0.192402 6.17966e-07 3.62456e-05 288 0.191969 3.6164e-05 0.00287109 3.63581 5308.28
0.0996408 0.172073 7.29294e-07 2.74675e-05 366 0.170726 2.72525e-05 0.00268591 3.74291 6264.59
0.105297 0.200308 8.60678e-07 2.70937e-05 420 0.198883 2.69009e-05 0.00250785 4.53749 7393.17
0.111275 0.214841 1.01573e-06 2.46234e-05 398 0.21421 2.45511e-05 0.00233721 4.19308 8725.07
0.117591 0.256317 1.19872e-06 2.48927e-05 624 0.256981 2.49571e-05 0.00217419 7.14427 10296.9
0.124267 0.296364 1.41467e-06 2.43882e-05 642 0.295733 2.43363e-05 0.00201893 7.75522 12151.9
0.131321 0.356419 1.66953e-06 2.48529e-05 800 0.356512 2.48594e-05 0.00187147 10.6239 14341.1
0.138776 0.325933 1.9703e-06 1.92578e-05 858 0.327359 1.93421e-05 0.00173182 9.54097 16924.7
0.146654 0.37551 2.32525e-06 1.88002e-05 1080 0.378641 1.89569e-05 0.00159991 12.6908 19973.8
0.154979 0.440952 2.74415e-06 1.87065e-05 1286 0.443769 1.8826e-05 0.00147563 16.3025 23572.1
0.163777 0.427745 3.23852e-06 1.53762e-05 1650 0.428899 1.54177e-05 0.00135884 18.6709 27818.7
0.173074 0.484013 3.82195e-06 1.47429e-05 1778 0.48431 1.47519e-05 0.00124933 20.9815 32830.3
0.182899 0.509214 4.51048e-06 1.31428e-05 2112 0.510438 1.31744e-05 0.00114689 24.2025 38744.7
0.193281 0.568201 5.32305e-06 1.24266e-05 2570 0.568718 1.24379e-05 0.00105127 30.3787 45724.7
0.204254 0.666315 6.28202e-06 1.23478e-05 3030 0.665904 1.23402e-05 0.000962209 38.8833 53962.1
0.215848 0.689398 7.41374e-06 1.08254e-05 3434 0.689109 1.08208e-05 0.000879423 42.2713 63683.5
0.228102 0.73051 8.74934e-06 9.71988e-06 4218 0.730212 9.71591e-06 0.000802624 51.0805 75156.3
0.24105 0.814736 1.03256e-05 9.18572e-06 4766 0.815244 9.19145e-06 0.000731515 59.8472 88695.9
0.254734 0.891859 1.21857e-05 8.52029e-06 6026 0.891825 8.51997e-06 0.000665798 77.1154 104675
0.269195 1.00553 1.4381e-05 8.13986e-06 6480 1.00462 8.13247e-06 0.000605173 87.159 123532
0.284476 1.08998 1.69718e-05 7.47653e-06 8162 1.09207 7.49089e-06 0.000549345 111.084 145787
0.300625 1.19062 2.00293e-05 6.9202e-06 9578 1.19137 6.92454e-06 0.000498021 133.09 172051
0.317691 1.31519 2.36377e-05 6.47732e-06 11234 1.31374 6.47015e-06 0.000450916 161.374 203046
0.335725 1.42124 2.78961e-05 5.9311e-06 13344 1.41859 5.92004e-06 0.000407755 194.098 239625
0.354784 1.58399 3.29216e-05 5.6012e-06 15464 1.58281 5.59702e-06 0.000368269 235.2 282795
0.374924 1.69947 3.88525e-05 5.09219e-06 18458 1.69817 5.08829e-06 0.000332202 282.935 333741
0.396207 1.95587 4.58519e-05 4.96583e-06 22232 1.95313 4.95889e-06 0.000299307 368.853 393865
0.418699 2.09784 5.41123e-05 4.51322e-06 25628 2.09272 4.5022e-06 0.00026935 429.423 464821
0.442467 2.28799 6.38607e-05 4.17091e-06 30320 2.28388 4.16341e-06 0.000242108 522.338 548560
0.467585 2.57821 7.53654e-05 3.9825e-06 35452 2.57364 3.97545e-06 0.00021737 649.526 647384
0.494129 2.84153 8.89427e-05 3.71923e-06 41792 2.83868 3.71549e-06 0.000194938 797.35 764012
0.522179 3.19328 0.000104966 3.54159e-06 49988 3.19296 3.54124e-06 0.000174625 1013.81 901651
0.551822 3.53229 0.000123876 3.31956e-06 59110 3.52742 3.31498e-06 0.000156255 1255.76 1.06409e+06
0.583147 3.91443 0.000146192 3.11712e-06 69716 3.90749 3.11159e-06 0.000139664 1555.97 1.25578e+06
0.616251 4.34979 0.000172529 2.93505e-06 82210 4.34107 2.92916e-06 0.0001247 1934.96 1.48202e+06
0.651234 4.81443 0.000203611 2.75267e-06 96722 4.80325 2.74627e-06 0.00011122 2393.84 1.74901e+06
0.688203 5.43785 0.000240292 2.6345e-06 113098 5.42933 2.63037e-06 9.90935e-05 3006.82 2.06409e+06
0.72727 6.02653 0.000283581 2.474e-06 135190 6.01781 2.47042e-06 8.81969e-05 3792.2 2.43595e+06
0.768555 6.71417 0.000334669 2.33554e-06 158170 6.70538 2.33248e-06 7.84179e-05 4710.81 2.87479e+06
0.812184 7.51418 0.000394961 2.21482e-06 188560 7.50112 2.21097e-06 6.96525e-05 5995.84 3.39269e+06
0.85829 8.37478 0.000466114 2.09166e-06 220444 8.36093 2.0882e-06 6.1805e-05 7460.46 4.00389e+06
0.907013 9.33864 0.000550086 1.97635e-06 261388 9.32325 1.97309e-06 5.47875e-05 9429.04 4.7252e+06
0.958501 10.4423 0.000649185 1.87256e-06 308244 10.4272 1.86985e-06 4.85194e-05 11896.4 5.57646e+06
1.01291 11.6945 0.000766138 1.77699e-06 364396 11.6745 1.77396e-06 4.29272e-05 15084.4 6.58107e+06
1.07041 12.9891 0.00090416 1.67242e-06 429162 12.9652 1.66934e-06 3.79435e-05 18916 7.76667e+06
1.13118 14.5288 0.00106705 1.5851e-06 506358 14.5034 1.58232e-06 3.3507e-05 23954 9.16586e+06
1.19539 16.2484 0.00125928 1.5021e-06 598590 16.2185 1.49934e-06 2.9562e-05 30415.4 1.08171e+07
1.26325 18.0905 0.00148614 1.4171e-06 704844 18.056 1.4144e-06 2.60578e-05 38331.6 1.27658e+07
1.33496 20.1245 0.00175387 1.33579e-06 834620 20.0831 1.33304e-06 2.29484e-05 48581.7 1.50656e+07
1.41075 22.3219 0.00206984 1.25547e-06 981444 22.2772 1.25295e-06 2.01923e-05 61021.9 1.77798e+07
1.49083 24.8333 0.00244272 1.18351e-06 1.15998e+06 24.7877 1.18133e-06 1.77518e-05 77335.3 2.09828e+07
1.57546 27.5545 0.00288279 1.11273e-06 1.36931e+06 27.5027 1.11064e-06 1.55929e-05 97716.1 2.4763e+07
1.66489 30.535 0.00340213 1.04486e-06 1.61652e+06 30.4767 1.04286e-06 1.3685e-05 123422 2.92241e+07
1.75941 33.6504 0.00401503 9.75689e-07 1.90601e+06 33.587 9.73852e-07 1.20007e-05 154964 3.44889e+07
1.85928 37.0478 0.00473835 9.10218e-07 2.24913e+06 36.9796 9.08542e-07 1.05151e-05 194691 4.07021e+07
1.96483 40.6432 0.00559198 8.46121e-07 2.65744e+06 40.5666 8.44527e-07 9.20606e-06 244243 4.80347e+07
2.07637 44.6365 0.00659939 7.87403e-07 3.13125e+06 44.5514 7.85901e-07 8.05366e-06 306141 5.66883e+07
2.19424 48.7915 0.00778828 7.29311e-07 3.69915e+06 48.7014 7.27963e-07 7.04008e-06 383210 6.69008e+07
2.3188 53.2723 0.00919136 6.74732e-07 4.36472e+06 53.1739 6.73487e-07 6.1494e-06 478912 7.89532e+07
2.45043 58.069 0.0108472 6.23212e-07 5.14913e+06 57.9671 6.22119e-07 5.36741e-06 597868 9.31768e+07
2.58954 63.1276 0.0128014 5.74081e-07 6.07894e+06 63.016 5.73066e-07 4.68145e-06 745453 1.09963e+08
2.73654 68.459 0.0151076 5.27529e-07 7.17304e+06 68.3424 5.26631e-07 4.08023e-06 927395 1.29773e+08
2.89188 74.0543 0.0178292 4.83535e-07 8.46557e+06 73.9272 4.82705e-07 3.55373e-06 1.15186e+06 1.53152e+08
3.05605 79.9475 0.0210412 4.42328e-07 9.98773e+06 79.8119 4.41578e-07 3.09304e-06 1.42832e+06 1.80743e+08
3.22953 86.0385 0.0248319 4.03361e-07 1.1797e+07 85.8913 4.02671e-07 2.69025e-06 1.76878e+06 2.13304e+08
3.41286 92.6421 0.0293054 3.6802e-07 1.39144e+07 92.483 3.67388e-07 2.33837e-06 2.18989e+06 2.51731e+08
3.6066 99.6172 0.0345848 3.3532e-07 1.64163e+07 99.4492 3.34754e-07 2.0312e-06 2.71007e+06 2.97081e+08
3.81134 107.004 0.0408154 3.052e-07 1.93821e+07 106.823 3.04685e-07 1.76327e-06 3.35482e+06 3.50601e+08
4.0277 114.665 0.0481684 2.77127e-07 2.28754e+07 114.471 2.76658e-07 1.52972e-06 4.14415e+06 4.13763e+08
4.25634 122.698 0.056846 2.51273e-07 2.69929e+07 122.489 2.50846e-07 1.32631e-06 5.11389e+06 4.88304e+08
4.49796 131.106 0.067087 2.27507e-07 3.18542e+07 130.884 2.27122e-07 1.14926e-06 6.30587e+06 5.76273e+08
4.7533 139.973 0.0791729 2.05816e-07 3.75892e+07 139.737 2.05469e-07 9.95263e-07 7.77328e+06 6.8009e+08
5.02313 149.224 0.0934361 1.85924e-07 4.43706e+07 148.978 1.85617e-07 8.61414e-07 9.57676e+06 8.0261e+08
5.30828 158.964 0.110269 1.67824e-07 5.23593e+07 158.7 1.67546e-07 7.45152e-07 1.17924e+07 9.47202e+08
5.60962 169.124 0.130134 1.51294e-07 6.1787e+07 168.844 1.51044e-07 6.44232e-07 1.45104e+07 1.11784e+09
5.92807 179.768 0.153578 1.36268e-07 7.29346e+07 179.472 1.36043e-07 5.56685e-07 1.78533e+07 1.31923e+09
6.26459 190.94 0.181246 1.22642e-07 8.60651e+07 190.622 1.22438e-07 4.80786e-07 2.19541e+07 1.55689e+09
6.62021 202.738 0.213898 1.10341e-07 1.01558e+08 202.4 1.10158e-07 4.15026e-07 2.70009e+07 1.83737e+09
6.99602 215.027 0.252432 9.91651e-08 1.1986e+08 214.673 9.90018e-08 3.58083e-07 3.31932e+07 2.16837e+09
7.39317 227.87 0.297908 8.90461e-08 1.41457e+08 227.494 8.88993e-08 3.08803e-07 4.07903e+07 2.55901e+09
7.81286 241.413 0.351577 7.99373e-08 1.66936e+08 241.014 7.98052e-08 2.66181e-07 5.01328e+07 3.02002e+09
8.25637 255.683 0.414914 7.17387e-08 1.97025e+08 255.259 7.16198e-08 2.29336e-07 6.16315e+07 3.56409e+09
8.72507 270.836 0.489662 6.43901e-08 2.32497e+08 270.386 6.42832e-08 1.97503e-07 7.57988e+07 4.20617e+09
9.22037 286.962 0.577876 5.78096e-08 2.74404e+08 286.479 5.77123e-08 1.70014e-07 9.33052e+07 4.96392e+09
9.74378 304.608 0.681982 5.1997e-08 3.2382e+08 304.082 5.19071e-08 1.46289e-07 1.15099e+08 5.85818e+09
10.2969 324.606 0.804843 4.69521e-08 3.82165e+08 324.023 4.68678e-08 1.25822e-07 1.42609e+08 6.91355e+09
10.8814 348.276 0.949838 4.26859e-08 4.51027e+08 347.607 4.26039e-08 1.08175e-07 1.77975e+08 8.15905e+09
11.4992 378.297 1.12095 3.92876e-08 5.32251e+08 377.494 3.92041e-08 9.29669e-08 2.24928e+08 9.62892e+09
12.1519 420.47 1.3229 3.70015e-08 6.28157e+08 419.415 3.69086e-08 7.98658e-08 2.91023e+08 1.13636e+10
12.8418 467.766 1.56122 3.48798e-08 3.82727e+08 484.152 3.61017e-08 6.85852e-08 1.9464e+08 1.34108e+10
13.5708 0 1.84248 0 0 0 0 5.88765e-08 0 1.58268e+10
14.3411 0 2.17441 0 0 0 0 5.05241e-08 0 1.8678e+10
15.1552 0 2.56613 0 0 0 0 4.33417e-08 0 2.20429e+10
16.0156 0 3.02843 0 0 0 0 3.71677e-08 0 2.6014e+10
16.9247 0 3.574 0 0 0 0 3.18628e-08 0 3.07005e+10
17.8855 0 4.21787 0 0 0 0 2.73063e-08 0 3.62312e+10
18.9008 0 4.97773 0 0 0 0 2.33941e-08 0 4.27584e+10
19.9738 0 5.87448 0 0 0 0 2.00364e-08 0 5.04614e+10
21.1076 0 6.93279 0 0 0 0 1.71555e-08 0 5.95522e+10
22.3058 0 8.18175 0 0 0 0 1.46847e-08 0 7.02807e+10
23.5721 0 9.65571 0 0 0 0 1.25662e-08 0 8.29419e+10
24.9102 0 11.3952 0 0 0 0 1.07504e-08 0 9.78842e+10
26.3243 0 13.4481 0 0 0 0 9.19452e-09 0 1.15518e+11
27.8187 0 15.8708 0 0 0 0 7.86182e-09 0 1.36329e+11
29.3979 0 18.73 0 0 0 0 6.72061e-09 0 1.60889e+11
31.0667 0 22.1042 0 0 0 0 5.74366e-09 0 1.89874e+11
32.8303 0 26.0864 0 0 0 0 4.90756e-09 0 2.2408e+11
34.694 0 30.7859 0 0 0 0 4.19221e-09 0 2.64449e+11
36.6634 0 36.3321 0 0 0 0 3.58032e-09 0 3.1209e+11
38.7447 0 42.8774 0 0 0 0 3.05709e-09 0 3.68314e+11
40.9442 0 50.6018 0 0 0 0 2.60976e-09 0 4.34667e+11
43.2685 0 59.7179 0 0 0 0 2.22743e-09 0 5.12973e+11
45.7247 0 70.4762 0 0 0 0 1.90073e-09 0 6.05386e+11
48.3204 0 83.1727 0 0 0 0 1.62163e-09 0 7.14448e+11
51.0634 0 98.1565 0 0 0 0 1.38326e-09 0 8.43158e+11
53.9621 0 115.84 0 0 0 0 1.1797e-09 0 9.95055e+11
57.0254 0 136.709 0 0 0 0 1.00592e-09 0 1.17432e+12
60.2626 0 161.337 0 0 0 0 8.57591e-10 0 1.38587e+12
63.6835 0 190.402 0 0 0 0 7.3101e-10 0 1.63554e+12
67.2987 0 224.704 0 0 0 0 6.23009e-10 0 1.93019e+12
71.1191 0 265.185 0 0 0 0 5.30879e-10 0 2.27792e+12
75.1563 0 312.958 0 0 0 0 4.52303e-10 0 2.68829e+12
79.4227 0 369.339 0 0 0 0 3.85299e-10 0 3.17259e+12
83.9313 0 435.876 0 0 0 0 3.28173e-10 0 3.74415e+12
88.6959 0 514.4 0 0 0 0 2.79476e-10 0 4.41866e+12
93.7309 0 607.071 0 0 0 0 2.37972e-10 0 5.2147e+12
99.0518 0 716.436 0 0 0 0 2.02605e-10 0 6.15414e+12
104.675 0 845.504 0 0 0 0 1.72471e-10 0 7.26283e+12
110.617 0 997.824 0 0 0 0 1.468e-10 0 8.57124e+12
116.896 0 1177.58 0 0 0 0 1.24935e-10 0 1.01154e+13
123.532 0 1389.73 0 0 0 0 1.06313e-10 0 1.19377e+13
130.545 0 1640.09 0 0 0 0 9.04567e-11 0 1.40883e+13
137.955 0 1935.56 0 0 0 0 7.69563e-11 0 1.66263e+13
145.787 0 2284.26 0 0 0 0 6.54636e-11 0 1.96216e+13
154.063 0 2695.77 0 0 0 0 5.56812e-11 0 2.31565e+13
162.808 0 3181.42 0 0 0 0 4.73556e-11 0 2.73282e+13
172.051 0 3754.56 0 0 0 0 4.02708e-11 0 3.22515e+13
181.818 0 4430.96 0 0 0 0 3.42426e-11 0 3.80616e+13
192.139 0 5229.21 0 0 0 0 2.91139e-11 0 4.49186e+13
203.046 0 6171.26 0 0 0 0 2.4751e-11 0 5.30108e+13
214.572 0 7283.03 0 0 0 0 2.10401e-11 0 6.25608e+13
226.753 0 8595.09 0 0 0 0 1.78839e-11 0 7.38313e+13
239.625 0 10143.5 0 0 0 0 1.51999e-11 0 8.71322e+13
253.228 0 11970.9 0 0 0 0 1.29176e-11 0 1.02829e+14
267.603 0 14127.5 0 0 0 0 1.09771e-11 0 1.21354e+14
282.795 0 16672.6 0 0 0 0 9.3274e-12 0 1.43217e+14
298.848 0 19676.2 0 0 0 0 7.925e-12 0 1.69017e+14
315.813 0 23220.9 0 0 0 0 6.73295e-12 0 1.99466e+14
333.741 0 27404.3 0 0 0 0 5.71979e-12 0 2.35401e+14
352.686 0 32341.2 0 0 0 0 4.85874e-12 0 2.77809e+14
372.707 0 38167.6 0 0 0 0 4.12703e-12 0 3.27857e+14
393.865 0 45043.5 0 0 0 0 3.50528e-12 0 3.86921e+14
416.224 0 53158.3 0 0 0 0 2.97701e-12 0 4.56626e+14
439.852 0 62734.9 0 0 0 0 2.52819e-12 0 5.38888e+14
464.821 0 74036.7 0 0 0 0 2.1469e-12 0 6.35971e+14
491.207 0 87374.6 0 0 0 0 1.82301e-12 0 7.50542e+14
519.092 0 103115 0 0 0 0 1.54789e-12 0 8.85755e+14
548.56 0 121692 0 0 0 0 1.31422e-12 0 1.04533e+15
579.7 0 143615 0 0 0 0 1.11576e-12 0 1.23364e+15
612.608 0 169488 0 0 0 0 9.47223e-13 0 1.45589e+15
647.384 0 200021 0 0 0 0 8.041e-13 0 1.71817e+15
684.134 0 236056 0 0 0 0 6.82568e-13 0 2.0277e+15
722.971 0 278582 0 0 0 0 5.79376e-13 0 2.393e+15
764.012 0 328769 0 0 0 0 4.91762e-13 0 2.8241e+15
