0.983425
200
1.0655e+09
8589934592
0.0129181 0 1.58924e-09 0 0 0 0 0.00677225 0 13.6515
0.0136515 0 1.87554e-09 0 0 0 0 0.00688819 0 16.1108
0.0144264 0 2.21343e-09 0 0 0 0 0.00699249 0 19.0132
0.0152454 0 2.61218e-09 0 0 0 0 0.00708412 0 22.4385
0.0161108 0 3.08278e-09 0 0 0 0 0.00716212 0 26.4808
0.0170254 0 3.63815e-09 0 0 0 0 0.00722559 0 31.2514
0.0179919 0 4.29357e-09 0 0 0 0 0.00727371 0 36.8815
0.0190132 0 5.06707e-09 0 0 0 0 0.00730578 0 43.5258
0.0200925 0 5.97991e-09 0 0 0 0 0.00732122 0 51.367
0.0212331 0 7.05721e-09 0 0 0 0 0.00731958 0 60.621
0.0224385 0 8.32858e-09 0 0 0 0 0.00730056 0 71.542
0.0237123 0 9.829e-09 0 0 0 0 0.00726401 0 84.4305
0.0250583 0 1.15997e-08 0 0 0 0 0.00720995 0 99.6408
0.0264808 0 1.36894e-08 0 0 0 0 0.00713857 0 117.591
0.0279841 0 1.61556e-08 0 0 0 0 0.00705021 0 138.776
0.0295727 0 1.90661e-08 0 0 0 0 0.00694538 0 163.777
0.0312514 0 2.25009e-08 0 0 0 0 0.00682475 0 193.281
0.0330255 0 2.65545e-08 0 0 0 0 0.00668915 0 228.102
0.0349003 0 3.13384e-08 0 0 0 0 0.00653951 0 269.195
0.0368815 0 3.69841e-08 0 0 0 0 0.00637693 0 317.691
0.0389751 0 4.36469e-08 0 0 0 0 0.00620256 0 374.924
0.0411876 0 5.151e-08 0 0 0 0 0.00601767 0 442.467
0.0435258 0 6.07896e-08 0 0 0 0 0.00582358 0 522.179
0.0459966 0 7.1741e-08 0 0 0 0 0.00562166 0 616.251
0.0486077 0 8.46654e-08 0 0 0 0 0.0054133 0 727.27
0.051367 0 9.99181e-08 0 0 0 0 0.00519989 0 858.29
0.054283 0 1.17919e-07 0 0 0 0 0.0049828 0 1012.91
0.0573645 0 1.39162e-07 0 0 0 0 0.00476339 0 1195.39
0.060621 0 1.64232e-07 0 0 0 0 0.00454293 0 1410.75
0.0640622 0 1.93819e-07 0 0 0 0 0.00432265 0 1664.89
0.0676989 0 2.28736e-07 0 0 0 0 0.00410371 0 1964.83
0.071542 0 2.69944e-07 0 0 0 0 0.00388717 0 2318.8
0.0756032 0 3.18575e-07 0 0 0 0 0.00367401 0 2736.54
0.079895 0 3.75967e-07 0 0 0 0 0.0034651 0 3229.53
0.0844305 0 4.43698e-07 0 0 0 0 0.00326121 0 3811.34
0.0892234 0 5.23632e-07 0 0 0 0 0.00306301 0 4497.96
0.0942883 0 6.17966e-07 0 0 0 0 0.00287109 0 5308.28
0.0996408 0 7.29294e-07 0 0 0 0 0.00268591 0 6264.59
0.105297 0 8.60678e-07 0 0 0 0 0.00250785 0 7393.17
0.111275 0 1.01573e-06 0 0 0 0 0.00233721 0 8725.07
0.117591 0 1.19872e-06 0 0 0 0 0.00217419 0 10296.9
0.124267 0 1.41467e-06 0 0 0 0 0.00201893 0 12151.9
0.131321 0 1.66953e-06 0 0 0 0 0.00187147 0 14341.1
0.138776 0 1.9703e-06 0 0 0 0 0.00173182 0 16924.7
0.146654 0 2.32525e-06 0 0 0 0 0.00159991 0 19973.8
0.154979 0 2.74415e-06 0 0 0 0 0.00147563 0 23572.1
0.163777 0 3.23852e-06 0 0 0 0 0.00135884 0 27818.7
0.173074 0 3.82195e-06 0 0 0 0 0.00124933 0 32830.3
0.182899 0 4.51048e-06 0 0 0 0 0.00114689 0 38744.7
0.193281 0 5.32305e-06 0 0 0 0 0.00105127 0 45724.7
0.204254 0 6.28202e-06 0 0 0 0 0.000962209 0 53962.1
0.215848 0 7.41374e-06 0 0 0 0 0.000879423 0 63683.5
0.228102 0 8.74934e-06 0 0 0 0 0.000802624 0 75156.3
0.24105 0 1.03256e-05 0 0 0 0 0.000731515 0 88695.9
0.254734 0 1.21857e-05 0 0 0 0 0.000665798 0 104675
0.269195 0 1.4381e-05 0 0 0 0 0.000605173 0 123532
0.284476 0 1.69718e-05 0 0 0 0 0.000549345 0 145787
0.300625 0 2.00293e-05 0 0 0 0 0.000498021 0 172051
0.317691 0 2.36377e-05 0 0 0 0 0.000450916 0 203046
0.335725 0 2.78961e-05 0 0 0 0 0.000407755 0 239625
0.354784 0 3.29216e-05 0 0 0 0 0.000368269 0 282795
0.374924 0 3.88525e-05 0 0 0 0 0.000332202 0 333741
0.396207 2.37865 4.58519e-05 6.03926e-06 6 2.31252 5.87136e-06 0.000299307 0.121065 393865
0.418699 0 5.41123e-05 0 0 0 0 0.00026935 0 464821
0.442467 0 6.38607e-05 0 0 0 0 0.000242108 0 548560
0.467585 0 7.53654e-05 0 0 0 0 0.00021737 0 647384
0.494129 0 8.89427e-05 0 0 0 0 0.000194938 0 764012
0.522179 0 0.000104966 0 0 0 0 0.000174625 0 901651
0.551822 0 0.000123876 0 0 0 0 0.000156255 0 1.06409e+06
0.583147 5.03794 0.000146192 4.01179e-06 12 5.30245 4.22243e-06 0.000139664 0.344695 1.25578e+06
0.616251 0 0.000172529 0 0 0 0 0.0001247 0 1.48202e+06
0.651234 0 0.000203611 0 0 0 0 0.00011122 0 1.74901e+06
0.688203 12.6913 0.000240292 6.14863e-06 8 12.3756 5.99566e-06 9.90935e-05 0.49639 2.06409e+06
0.72727 0 0.000283581 0 0 0 0 8.81969e-05 0 2.43595e+06
0.768555 0 0.000334669 0 0 0 0 7.84179e-05 0 2.87479e+06
0.812184 14.3751 0.000394961 4.23707e-06 6 14.6824 4.32766e-06 6.96525e-05 0.364989 3.39269e+06
0.85829 0 0.000466114 0 0 0 0 6.1805e-05 0 4.00389e+06
0.907013 1.76023 0.000550086 3.7252e-07 24 1.794 3.79667e-07 5.47875e-05 0.163185 4.7252e+06
0.958501 5.29147 0.000649185 9.48895e-07 24 4.98153 8.93314e-07 4.85194e-05 0.469368 5.57646e+06
1.01291 0 0.000766138 0 0 0 0 4.29272e-05 0 6.58107e+06
1.07041 0 0.00090416 0 0 0 0 3.79435e-05 0 7.76667e+06
1.13118 8.37181 0.00106705 9.13369e-07 12 8.26898 9.0215e-07 3.3507e-05 0.327109 9.16586e+06
1.19539 2.75829 0.00125928 2.54993e-07 30 2.70143 2.49736e-07 2.9562e-05 0.258771 1.08171e+07
1.26325 9.40689 0.00148614 7.36879e-07 24 9.26534 7.25791e-07 2.60578e-05 0.678687 1.27658e+07
1.33496 14.5475 0.00175387 9.65607e-07 24 14.5795 9.6773e-07 2.29484e-05 1.00985 1.50656e+07
1.41075 16.3811 0.00206984 9.21333e-07 32 16.4514 9.25289e-07 2.01923e-05 1.46009 1.77798e+07
1.49083 4.15028 0.00244272 1.97794e-07 48 4.06181 1.93578e-07 1.77518e-05 0.534827 2.09828e+07
1.57546 39.7943 0.00288279 1.60701e-06 6 37.8931 1.53023e-06 1.55929e-05 0.618363 2.4763e+07
1.66489 6.79922 0.00340213 2.32658e-07 84 6.58263 2.25247e-07 1.3685e-05 1.42808 2.92241e+07
1.75941 8.68048 0.00401503 2.5169e-07 48 8.50854 2.46704e-07 1.20007e-05 1.0067 3.44889e+07
1.85928 7.86678 0.00473835 1.93277e-07 72 7.91212 1.94391e-07 1.05151e-05 1.32342 4.07021e+07
1.96483 19.7843 0.00559198 4.11874e-07 54 19.2828 4.01434e-07 9.20606e-06 2.41593 4.80347e+07
2.07637 12.9982 0.00659939 2.29292e-07 104 13.1485 2.31945e-07 8.05366e-06 2.96094 5.66883e+07
2.19424 9.52129 0.00778828 1.42319e-07 120 9.66421 1.44456e-07 7.04008e-06 2.42587 6.69008e+07
2.3188 12.2011 0.00919136 1.54536e-07 156 12.014 1.52166e-07 6.1494e-06 3.92031 7.89532e+07
2.45043 12.388 0.0108472 1.32951e-07 126 12.3672 1.32729e-07 5.36741e-06 3.12103 9.31768e+07
2.58954 13.8128 0.0128014 1.25613e-07 192 13.8443 1.25899e-07 4.68145e-06 5.15175 1.09963e+08
2.73654 35.1222 0.0151076 2.70643e-07 152 35.4602 2.73248e-07 4.08023e-06 10.0822 1.29773e+08
2.89188 16.0323 0.0178292 1.04682e-07 378 16.0661 1.04903e-07 3.55373e-06 11.1347 1.53152e+08
3.05605 18.8223 0.0210412 1.04139e-07 264 18.5561 1.02666e-07 3.09304e-06 8.88853 1.80743e+08
3.22953 22.1954 0.0248319 1.04055e-07 366 22.0552 1.03398e-07 2.69025e-06 14.1564 2.13304e+08
3.41286 20.0888 0.0293054 7.98024e-08 428 19.9882 7.94028e-08 2.33837e-06 14.6065 2.51731e+08
3.6066 23.5924 0.0345848 7.9414e-08 486 23.2212 7.81644e-08 2.0312e-06 19.0012 2.97081e+08
3.81134 21.8329 0.0408154 6.22728e-08 600 21.8227 6.22436e-08 1.76327e-06 21.19 3.50601e+08
4.0277 29.5788 0.0481684 7.14872e-08 738 29.5244 7.13559e-08 1.52972e-06 34.4883 4.13763e+08
4.25634 30.5017 0.056846 6.24645e-08 824 30.3758 6.22067e-08 1.32631e-06 38.8076 4.88304e+08
4.49796 31.7863 0.067087 5.51583e-08 954 31.5845 5.48083e-08 1.14926e-06 45.7871 5.76273e+08
4.7533 33.2395 0.0791729 4.88751e-08 1094 33.052 4.85994e-08 9.95263e-07 53.7239 6.8009e+08
5.02313 36.6907 0.0934361 4.57143e-08 1332 36.744 4.57806e-08 8.61414e-07 70.6877 8.0261e+08
5.30828 40.7406 0.110269 4.30115e-08 1614 40.6332 4.28981e-08 7.45152e-07 93.1628 9.47202e+08
5.60962 46.7985 0.130134 4.1865e-08 1850 46.8264 4.18899e-08 6.44232e-07 120.221 1.11784e+09
5.92807 42.4484 0.153578 3.21767e-08 2238 42.4981 3.22144e-08 5.56685e-07 129.358 1.31923e+09
6.26459 45.8557 0.181246 2.94534e-08 2546 45.9213 2.94956e-08 4.80786e-07 155.97 1.55689e+09
6.62021 48.8513 0.213898 2.65877e-08 3264 48.8482 2.6586e-08 4.15026e-07 209.101 1.83737e+09
6.99602 51.2231 0.252432 2.36228e-08 3506 51.2667 2.3643e-08 3.58083e-07 231.292 2.16837e+09
7.39317 56.338 0.297908 2.20155e-08 4506 56.433 2.20527e-08 3.08803e-07 321.247 2.55901e+09
7.81286 62.8425 0.351577 2.08086e-08 5018 62.5752 2.07201e-08 2.66181e-07 392.281 3.02002e+09
8.25637 65.7656 0.414914 1.84523e-08 5852 65.8065 1.84638e-08 2.29336e-07 470.85 3.56409e+09
8.72507 68.1032 0.489662 1.61913e-08 7362 67.9384 1.61521e-08 1.97503e-07 603.536 4.20617e+09
9.22037 73.3789 0.577876 1.47825e-08 8306 73.1604 1.47384e-08 1.70014e-07 722.193 4.96392e+09
9.74378 79.3091 0.681982 1.35382e-08 9698 79.2262 1.3524e-08 1.46289e-07 897.492 5.85818e+09
10.2969 84.3359 0.804843 1.21986e-08 11816 84.253 1.21866e-08 1.25822e-07 1145.58 6.91355e+09
10.8814 96.3738 0.949838 1.18119e-08 13682 96.1409 1.17833e-08 1.08175e-07 1493.96 8.15905e+09
11.4992 95.6773 1.12095 9.93645e-09 16152 95.6748 9.93619e-09 9.29669e-08 1726.35 9.62892e+09
12.1519 100.967 1.3229 8.88515e-09 19472 100.808 8.8711e-09 7.98658e-08 2166.28 1.13636e+10
12.8418 107.755 1.56122 8.03497e-09 22670 107.483 8.01466e-09 6.85852e-08 2655.86 1.34108e+10
13.5708 114.865 1.84248 7.25766e-09 26224 114.662 7.24483e-09 5.88765e-08 3232.61 1.58268e+10
14.3411 121.642 2.17441 6.51256e-09 31640 121.589 6.50973e-09 5.05241e-08 4078.39 1.8678e+10
15.1552 130.701 2.56613 5.92941e-09 37484 130.534 5.92184e-09 4.33417e-08 5128.05 2.20429e+10
16.0156 139.724 3.02843 5.37111e-09 43856 139.456 5.36082e-09 3.71677e-08 6337.63 2.6014e+10
16.9247 148.612 3.574 4.84069e-09 51362 148.496 4.83692e-09 3.18628e-08 7803.07 3.07005e+10
17.8855 157.756 4.21787 4.35413e-09 61636 157.546 4.34835e-09 2.73063e-08 9828.17 3.62312e+10
18.9008 167.061 4.97773 3.90708e-09 72218 166.649 3.89745e-09 2.33941e-08 12061.2 4.27584e+10
19.9738 177.174 5.87448 3.51108e-09 84586 176.875 3.50515e-09 2.00364e-08 14822.4 5.04614e+10
21.1076 188.244 6.93279 3.16099e-09 100708 187.843 3.15426e-09 1.71555e-08 18556 5.95522e+10
22.3058 200.071 8.18175 2.84674e-09 118712 199.732 2.84192e-09 1.46847e-08 23013.3 7.02807e+10
23.5721 211.239 9.65571 2.54684e-09 140410 210.785 2.54136e-09 1.25662e-08 28457.5 8.29419e+10
24.9102 221.735 11.3952 2.26528e-09 164374 221.32 2.26104e-09 1.07504e-08 34636.3 9.78842e+10
26.3243 236.272 13.4481 2.04532e-09 194680 235.842 2.0416e-09 9.19452e-09 43306.5 1.15518e+11
27.8187 248.54 15.8708 1.82309e-09 230196 248.106 1.81991e-09 7.86182e-09 53380.4 1.36329e+11
29.3979 261.97 18.73 1.62826e-09 271156 261.542 1.6256e-09 6.72061e-09 65695.4 1.60889e+11
31.0667 278.645 22.1042 1.46753e-09 321076 278.096 1.46463e-09 5.74366e-09 82036.2 1.89874e+11
32.8303 293.542 26.0864 1.30999e-09 377436 292.994 1.30754e-09 4.90756e-09 100750 2.2408e+11
34.694 309.41 30.7859 1.17002e-09 447594 308.781 1.16764e-09 4.19221e-09 124921 2.64449e+11
36.6634 325.102 36.3321 1.04169e-09 525078 324.457 1.03963e-09 3.58032e-09 152771 3.1209e+11
38.7447 345.142 42.8774 9.37086e-10 621924 344.491 9.35319e-10 3.05709e-09 190638 3.68314e+11
40.9442 363.34 50.6018 8.35905e-10 732630 362.666 8.34355e-10 2.60976e-09 234661 4.34667e+11
43.2685 384.658 59.7179 7.4986e-10 865596 383.974 7.48528e-10 2.22743e-09 291401 5.12973e+11
45.7247 403.063 70.4762 6.65795e-10 1.02168e+06 402.424 6.64739e-10 1.90073e-09 357876 6.05386e+11
48.3204 422.885 83.1727 5.91904e-10 1.20544e+06 422.157 5.90886e-10 1.62163e-09 439990 7.14448e+11
51.0634 443.412 98.1565 5.25894e-10 1.42103e+06 442.625 5.2496e-10 1.38326e-09 540255 8.43158e+11
53.9621 466.513 115.84 4.68831e-10 1.67997e+06 465.7 4.68015e-10 1.1797e-09 667644 9.95055e+11
57.0254 490.656 136.709 4.17823e-10 1.98018e+06 489.768 4.17066e-10 1.00592e-09 822495 1.17432e+12
60.2626 514.849 161.337 3.71498e-10 2.33957e+06 513.959 3.70856e-10 8.57591e-10 1.01347e+06 1.38587e+12
63.6835 540.693 190.402 3.3059e-10 2.75676e+06 539.71 3.29988e-10 7.3101e-10 1.24671e+06 1.63554e+12
67.2987 568.55 224.704 2.94557e-10 3.25638e+06 567.58 2.94054e-10 6.23009e-10 1.53961e+06 1.93019e+12
71.1191 598.443 265.185 2.62715e-10 3.84387e+06 597.399 2.62256e-10 5.30879e-10 1.90221e+06 2.27792e+12
75.1563 628.645 312.958 2.33846e-10 4.53277e+06 627.537 2.33433e-10 4.52303e-10 2.34349e+06 2.68829e+12
79.4227 662.006 369.339 2.08664e-10 5.35083e+06 660.858 2.08302e-10 3.85299e-10 2.89781e+06 3.17259e+12
83.9313 698.597 435.876 1.86584e-10 6.32174e+06 697.297 1.86237e-10 3.28173e-10 3.59425e+06 3.74415e+12
88.6959 737.748 514.4 1.66962e-10 7.44986e+06 736.39 1.66655e-10 2.79476e-10 4.45062e+06 4.41866e+12
93.7309 779.979 607.071 1.49573e-10 8.79764e+06 778.604 1.4931e-10 2.37972e-10 5.5296e+06 5.2147e+12
99.0518 825.769 716.436 1.34181e-10 1.03827e+07 824.264 1.33936e-10 2.02605e-10 6.87624e+06 6.15414e+12
104.675 878.565 845.504 1.20967e-10 1.22515e+07 876.869 1.20734e-10 1.72471e-10 8.59296e+06 7.26283e+12
110.617 939.175 997.824 1.09573e-10 1.44573e+07 937.3 1.09354e-10 1.468e-10 1.07911e+07 8.57124e+12
116.896 1007.9 1177.58 9.96403e-11 1.70664e+07 1005.85 9.94373e-11 1.24935e-10 1.36111e+07 1.01154e+13
123.532 1087.99 1389.73 9.1139e-11 2.0139e+07 1085.64 9.09424e-11 1.06313e-10 1.72645e+07 1.19377e+13
130.545 1181.09 1640.09 8.38349e-11 2.37643e+07 1178.44 8.36468e-11 9.04567e-11 2.20247e+07 1.40883e+13
137.955 1290.92 1935.56 7.7643e-11 2.80503e+07 1287.91 7.74618e-11 7.69563e-11 2.83006e+07 1.66263e+13
145.787 1419.57 2284.26 7.23474e-11 3.30981e+07 1416.11 7.21711e-11 6.54636e-11 3.65786e+07 1.96216e+13
154.063 1572 2695.77 6.78859e-11 3.90634e+07 1568.05 6.77154e-11 5.56812e-11 4.76258e+07 2.31565e+13
162.808 1753.13 3181.42 6.41508e-11 4.61057e+07 1748.56 6.39839e-11 4.73556e-11 6.24576e+07 2.73282e+13
172.051 1968.57 3754.56 6.10382e-11 5.44046e+07 1963.21 6.0872e-11 4.02708e-11 8.24607e+07 3.22515e+13
181.818 2227.19 4430.96 5.85155e-11 6.42064e+07 2220.97 5.8352e-11 3.42426e-11 1.09719e+08 3.80616e+13
192.139 2534.63 5229.21 5.64272e-11 7.57748e+07 2527.26 5.62632e-11 2.91139e-11 1.46863e+08 4.49186e+13
203.046 2902.21 6171.26 5.47476e-11 8.94213e+07 2893.59 5.4585e-11 2.4751e-11 1.97794e+08 5.30108e+13
214.572 3343.79 7283.03 5.34486e-11 1.05538e+08 3333.59 5.32857e-11 2.10401e-11 2.68102e+08 6.25608e+13
226.753 3876.41 8595.09 5.25036e-11 1.24552e+08 3864.32 5.23398e-11 1.78839e-11 3.65659e+08 7.38313e+13
239.625 4515.43 10143.5 5.18228e-11 1.46987e+08 4500.98 5.1657e-11 1.51999e-11 5.0114e+08 8.71322e+13
253.228 5288.75 11970.9 5.14324e-11 1.7347e+08 5271.44 5.1264e-11 1.29176e-11 6.90682e+08 1.02829e+14
267.603 6223.75 14127.5 5.12858e-11 2.04703e+08 6202.98 5.11146e-11 1.09771e-11 9.56383e+08 1.21354e+14
282.795 7368.79 16672.6 5.14521e-11 2.4161e+08 7343.59 5.12761e-11 9.3274e-12 1.33278e+09 1.43217e+14
298.848 8773.17 19676.2 5.19069e-11 2.85122e+08 8742.32 5.17244e-11 7.925e-12 1.86748e+09 1.69017e+14
315.813 10521.4 23220.9 5.27476e-11 3.36491e+08 10483.3 5.25566e-11 6.73295e-12 2.63616e+09 1.99466e+14
333.741 12738.7 27404.3 5.41148e-11 3.97115e+08 12690.6 5.39108e-11 5.71979e-12 3.7571e+09 2.35401e+14
352.686 15605.4 32341.2 5.61731e-11 4.68637e+08 15543.7 5.59511e-11 4.85874e-12 5.41803e+09 2.77809e+14
372.707 19427.7 38167.6 5.92566e-11 5.53074e+08 19346.1 5.90076e-11 4.12703e-12 7.94113e+09 3.27857e+14
393.865 24720.7 45043.5 6.38909e-11 6.52716e+08 24608.5 6.36008e-11 3.50528e-12 1.18971e+10 3.86921e+14
416.224 29178.3 53158.3 6.38997e-11 2.2184e+08 30867.9 6.75999e-11 2.97701e-12 4.76166e+09 4.56626e+14
439.852 0 62734.9 0 0 0 0 2.52819e-12 0 5.38888e+14
464.821 0 74036.7 0 0 0 0 2.1469e-12 0 6.35971e+14
491.207 0 87374.6 0 0 0 0 1.82301e-12 0 7.50542e+14
519.092 0 103115 0 0 0 0 1.54789e-12 0 8.85755e+14
548.56 0 121692 0 0 0 0 1.31422e-12 0 1.04533e+15
579.7 0 143615 0 0 0 0 1.11576e-12 0 1.23364e+15
612.608 0 169488 0 0 0 0 9.47223e-13 0 1.45589e+15
647.384 0 200021 0 0 0 0 8.041e-13 0 1.71817e+15
684.134 0 236056 0 0 0 0 6.82568e-13 0 2.0277e+15
722.971 0 278582 0 0 0 0 5.79376e-13 0 2.393e+15
764.012 0 328769 0 0 0 0 4.91762e-13 0 2.8241e+15
0.983425
200
1.0655e+09
8589934592
0.0129181 0.00180859 1.58924e-09 0.000132483 6 0.00179203 0.00013127 0.00677225 0.117376 13.6515
0.0136515 0 1.87554e-09 0 0 0 0 0.00688819 0 16.1108
0.0144264 0 2.21343e-09 0 0 0 0 0.00699249 0 19.0132
0.0152454 0 2.61218e-09 0 0 0 0 0.00708412 0 22.4385
0.0161108 0 3.08278e-09 0 0 0 0 0.00716212 0 26.4808
0.0170254 0 3.63815e-09 0 0 0 0 0.00722559 0 31.2514
0.0179919 0.00410077 4.29357e-09 0.000111188 12 0.00409549 0.000111045 0.00727371 0.183435 36.8815
0.0190132 0 5.06707e-09 0 0 0 0 0.00730578 0 43.5258
0.0200925 0 5.97991e-09 0 0 0 0 0.00732122 0 51.367
0.0212331 0.00392175 7.05721e-09 6.46929e-05 8 0.00391833 6.46366e-05 0.00731958 0.0707067 60.621
0.0224385 0 8.32858e-09 0 0 0 0 0.00730056 0 71.542
0.0237123 0 9.829e-09 0 0 0 0 0.00726401 0 84.4305
0.0250583 0.0248869 1.15997e-08 0.000249766 6 0.0248752 0.000249649 0.00720995 0.207851 99.6408
0.0264808 0 1.36894e-08 0 0 0 0 0.00713857 0 117.591
0.0279841 0.0154185 1.61556e-08 0.000111103 24 0.0154026 0.000110989 0.00705021 0.378213 138.776
0.0295727 0 1.90661e-08 0 0 0 0 0.00694538 0 163.777
0.0312514 0.0274537 2.25009e-08 0.00014204 24 0.0275931 0.000142761 0.00682475 0.499499 193.281
0.0330255 0 2.65545e-08 0 0 0 0 0.00668915 0 228.102
0.0349003 0.042089 3.13384e-08 0.000156352 12 0.041752 0.0001551 0.00653951 0.286905 269.195
0.0368815 0.0336502 3.69841e-08 0.000105921 30 0.0332919 0.000104793 0.00637693 0.498302 317.691
0.0389751 0.0381129 4.36469e-08 0.000101655 24 0.0377209 0.000100609 0.00620256 0.393342 374.924
0.0411876 0.0245086 5.151e-08 5.53908e-05 24 0.0243422 5.50146e-05 0.00601767 0.220913 442.467
0.0435258 0.0612379 6.07896e-08 0.000117274 8 0.0612332 0.000117265 0.00582358 0.161102 522.179
0.0459966 0.0752665 7.1741e-08 0.000122136 72 0.0746725 0.000121172 0.00562166 1.56427 616.251
0.0486077 0 8.46654e-08 0 0 0 0 0.0054133 0 727.27
0.051367 0.10328 9.99181e-08 0.000120332 54 0.102936 0.000119932 0.00519989 1.24963 858.29
0.054283 0.0838706 1.17919e-07 8.28014e-05 60 0.0842528 8.31787e-05 0.0049828 0.997046 1012.91
0.0573645 0.0781579 1.39162e-07 6.53826e-05 96 0.0779563 6.5214e-05 0.00476339 1.3177 1195.39
0.060621 0.0934172 1.64232e-07 6.62184e-05 24 0.0921516 6.53212e-05 0.00454293 0.349828 1410.75
0.0640622 0.160285 1.93819e-07 9.62731e-05 134 0.160354 9.63148e-05 0.00432265 2.98442 1664.89
0.0676989 0.157667 2.28736e-07 8.02445e-05 120 0.156893 7.98506e-05 0.00410371 2.3465 1964.83
0.071542 0.149264 2.69944e-07 6.43712e-05 108 0.147607 6.36567e-05 0.00388717 1.78847 2318.8
0.0756032 0.221398 3.18575e-07 8.09046e-05 174 0.220165 8.04537e-05 0.00367401 3.83162 2736.54
0.079895 0.232262 3.75967e-07 7.1918e-05 168 0.230074 7.12408e-05 0.0034651 3.48684 3229.53
0.0844305 0.193677 4.43698e-07 5.08161e-05 168 0.194636 5.10676e-05 0.00326121 2.61777 3811.34
0.0892234 0.233872 5.23632e-07 5.1995e-05 290 0.232761 5.17481e-05 0.00306301 4.92278 4497.96
0.0942883 0.280885 6.17966e-07 5.29145e-05 288 0.280284 5.28012e-05 0.00287109 5.30788 5308.28
0.0996408 0.252288 7.29294e-07 4.02722e-05 366 0.250362 3.99647e-05 0.00268591 5.48775 6264.59
0.105297 0.29866 8.60678e-07 4.03967e-05 420 0.296512 4.01062e-05 0.00250785 6.7654 7393.17
0.111275 0.319983 1.01573e-06 3.6674e-05 398 0.319096 3.65724e-05 0.00233721 6.24516 8725.07
0.117591 0.380768 1.19872e-06 3.69788e-05 624 0.381853 3.70842e-05 0.00217419 10.613 10296.9
0.124267 0.445137 1.41467e-06 3.6631e-05 642 0.444106 3.65461e-05 0.00201893 11.6483 12151.9
0.131321 0.522598 1.66953e-06 3.64405e-05 800 0.522688 3.64468e-05 0.00187147 15.5773 14341.1
0.138776 0.485957 1.9703e-06 2.87129e-05 858 0.488003 2.88337e-05 0.00173182 14.2253 16924.7
0.146654 0.568993 2.32525e-06 2.8487e-05 1080 0.573696 2.87225e-05 0.00159991 19.2298 19973.8
0.154979 0.663777 2.74415e-06 2.81594e-05 1286 0.667919 2.83352e-05 0.00147563 24.5407 23572.1
0.163777 0.653167 3.23852e-06 2.34795e-05 1650 0.655057 2.35474e-05 0.00135884 28.5104 27818.7
0.173074 0.727712 3.82195e-06 2.21659e-05 1778 0.728287 2.21834e-05 0.00124933 31.5456 32830.3
0.182899 0.793544 4.51048e-06 2.04813e-05 2112 0.795317 2.05271e-05 0.00114689 37.7164 38744.7
0.193281 0.876317 5.32305e-06 1.91651e-05 2570 0.876939 1.91787e-05 0.00105127 46.852 45724.7
0.204254 1.02881 6.28202e-06 1.90653e-05 3030 1.0281 1.90523e-05 0.000962209 60.0368 53962.1
0.215848 1.07749 7.41374e-06 1.69195e-05 3434 1.07705 1.69125e-05 0.000879423 66.0678 63683.5
0.228102 1.14907 8.74934e-06 1.5289e-05 4218 1.14827 1.52784e-05 0.000802624 80.3478 75156.3
0.24105 1.28184 1.03256e-05 1.44521e-05 4766 1.28262 1.44608e-05 0.000731515 94.1588 88695.9
0.254734 1.40196 1.21857e-05 1.33935e-05 6026 1.40189 1.33928e-05 0.000665798 121.222 104675
0.269195 1.60824 1.4381e-05 1.30188e-05 6480 1.60677 1.30069e-05 0.000605173 139.401 123532
0.284476 1.73491 1.69718e-05 1.19003e-05 8162 1.73782 1.19203e-05 0.000549345 176.811 145787
0.300625 1.92633 2.00293e-05 1.11963e-05 9578 1.92693 1.11998e-05 0.000498021 215.328 172051
0.317691 2.15077 2.36377e-05 1.05925e-05 11234 2.14903 1.05839e-05 0.000450916 263.899 203046
0.335725 2.31281 2.78961e-05 9.65177e-06 13344 2.30854 9.63394e-06 0.000407755 315.859 239625
0.354784 2.62503 3.29216e-05 9.28247e-06 15464 2.62328 9.27626e-06 0.000368269 389.78 282795
0.374924 2.85361 3.88525e-05 8.55039e-06 18458 2.85061 8.5414e-06 0.000332202 475.082 333741
0.396207 3.31356 4.58519e-05 8.41294e-06 22232 3.30792 8.39862e-06 0.000299307 624.899 393865
0.418699 3.57014 5.41123e-05 7.68069e-06 25628 3.56134 7.66176e-06 0.00026935 730.799 464821
0.442467 3.92985 6.38607e-05 7.16394e-06 30320 3.92299 7.15144e-06 0.000242108 897.164 548560
0.467585 4.46014 7.53654e-05 6.88948e-06 35452 4.45179 6.87659e-06 0.00021737 1123.64 647384
0.494129 4.95782 8.89427e-05 6.48919e-06 41792 4.95195 6.48151e-06 0.000194938 1391.19 764012
0.522179 5.5923 0.000104966 6.20229e-06 49988 5.59125 6.20112e-06 0.000174625 1775.46 901651
0.551822 6.28626 0.000123876 5.90767e-06 59110 6.27768 5.8996e-06 0.000156255 2234.83 1.06409e+06
0.583147 7.01844 0.000146192 5.58889e-06 69716 7.00711 5.57987e-06 0.000139664 2789.8 1.25578e+06
0.616251 7.87794 0.000172529 5.31569e-06 82210 7.86232 5.30515e-06 0.0001247 3504.43 1.48202e+06
0.651234 8.70018 0.000203611 4.97436e-06 96722 8.68095 4.96336e-06 0.00011122 4325.91 1.74901e+06
0.688203 9.90398 0.000240292 4.79822e-06 113098 9.88772 4.79034e-06 9.90935e-05 5476.34 2.06409e+06
0.72727 11.1354 0.000283581 4.57128e-06 135190 11.1187 4.56443e-06 8.81969e-05 7006.95 2.43595e+06
0.768555 12.4544 0.000334669 4.3323e-06 158170 12.4335 4.32502e-06 7.84179e-05 8738.3 2.87479e+06
0.812184 14.0058 0.000394961 4.12823e-06 188560 13.983 4.1215e-06 6.96525e-05 11175.8 3.39269e+06
0.85829 15.6932 0.000466114 3.91949e-06 220444 15.6669 3.91291e-06 6.1805e-05 13979.9 4.00389e+06
0.907013 17.5499 0.000550086 3.71411e-06 261388 17.5201 3.70781e-06 5.47875e-05 17719.8 4.7252e+06
0.958501 19.7 0.000649185 3.53271e-06 308244 19.6688 3.52712e-06 4.85194e-05 22443.3 5.57646e+06
1.01291 22.1107 0.000766138 3.35974e-06 364396 22.0724 3.35392e-06 4.29272e-05 28519.8 6.58107e+06
1.07041 24.6621 0.00090416 3.17537e-06 429162 24.6166 3.16952e-06 3.79435e-05 35915.2 7.76667e+06
1.13118 27.5443 0.00106705 3.00509e-06 506358 27.4958 2.99981e-06 3.3507e-05 45413 9.16586e+06
1.19539 30.8083 0.00125928 2.84811e-06 598590 30.7505 2.84276e-06 2.9562e-05 57670.2 1.08171e+07
1.26325 34.2569 0.00148614 2.68348e-06 704844 34.1961 2.67872e-06 2.60578e-05 72586.1 1.27658e+07
1.33496 38.0998 0.00175387 2.52892e-06 834620 38.0256 2.524e-06 2.29484e-05 91975.2 1.50656e+07
1.41075 42.2989 0.00206984 2.37905e-06 981444 42.2191 2.37456e-06 2.01923e-05 115633 1.77798e+07
1.49083 46.7504 0.00244272 2.22803e-06 1.15998e+06 46.6651 2.22397e-06 1.77518e-05 145589 2.09828e+07
1.57546 51.6464 0.00288279 2.08563e-06 1.36931e+06 51.5531 2.08186e-06 1.55929e-05 183153 2.4763e+07
1.66489 56.9448 0.00340213 1.94856e-06 1.61652e+06 56.8398 1.94496e-06 1.3685e-05 230170 2.92241e+07
1.75941 62.6888 0.00401503 1.81765e-06 1.90601e+06 62.5717 1.81426e-06 1.20007e-05 288689 3.44889e+07
1.85928 68.8663 0.00473835 1.69196e-06 2.24913e+06 68.7381 1.68881e-06 1.05151e-05 361901 4.07021e+07
1.96483 75.2902 0.00559198 1.56741e-06 2.65744e+06 75.1533 1.56456e-06 9.20606e-06 452452 4.80347e+07
2.07637 82.0776 0.00659939 1.44788e-06 3.13125e+06 81.9329 1.44532e-06 8.05366e-06 562932 5.66883e+07
2.19424 89.756 0.00778828 1.34163e-06 3.69915e+06 89.5931 1.33919e-06 7.04008e-06 704947 6.69008e+07
2.3188 97.5388 0.00919136 1.2354e-06 4.36472e+06 97.3679 1.23324e-06 6.1494e-06 876863 7.89532e+07
2.45043 106.077 0.0108472 1.13845e-06 5.14913e+06 105.889 1.13643e-06 5.36741e-06 1.09215e+06 9.31768e+07
2.58954 114.962 0.0128014 1.04546e-06 6.07894e+06 114.77 1.04371e-06 4.68145e-06 1.35754e+06 1.09963e+08
2.73654 124.657 0.0151076 9.60574e-07 7.17304e+06 124.438 9.58888e-07 4.08023e-06 1.68869e+06 1.29773e+08
2.89188 134.82 0.0178292 8.80303e-07 8.46557e+06 134.592 8.78812e-07 3.55373e-06 2.09702e+06 1.53152e+08
3.05605 145.492 0.0210412 8.04969e-07 9.98773e+06 145.245 8.03602e-07 3.09304e-06 2.59932e+06 1.80743e+08
3.22953 156.874 0.0248319 7.3545e-07 1.1797e+07 156.609 7.34206e-07 2.69025e-06 3.22502e+06 2.13304e+08
3.41286 168.907 0.0293054 6.70981e-07 1.39144e+07 168.611 6.69805e-07 2.33837e-06 3.99264e+06 2.51731e+08
3.6066 181.747 0.0345848 6.11776e-07 1.64163e+07 181.433 6.10718e-07 2.0312e-06 4.94441e+06 2.97081e+08
3.81134 195.308 0.0408154 5.57066e-07 1.93821e+07 194.983 5.5614e-07 1.76327e-06 6.12337e+06 3.50601e+08
4.0277 209.598 0.0481684 5.06564e-07 2.28754e+07 209.242 5.05705e-07 1.52972e-06 7.57514e+06 4.13763e+08
4.25634 224.57 0.056846 4.59897e-07 2.69929e+07 224.188 4.59116e-07 1.32631e-06 9.3598e+06 4.88304e+08
4.49796 240.484 0.067087 4.1731e-07 3.18542e+07 240.077 4.16602e-07 1.14926e-06 1.15667e+07 5.76273e+08
4.7533 257.425 0.0791729 3.78516e-07 3.75892e+07 256.988 3.77874e-07 9.95263e-07 1.42958e+07 6.8009e+08
5.02313 274.817 0.0934361 3.42404e-07 4.43706e+07 274.359 3.41834e-07 8.61414e-07 1.76369e+07 8.0261e+08
5.30828 293.272 0.110269 3.09619e-07 5.23593e+07 292.774 3.09093e-07 7.45152e-07 2.17558e+07 9.47202e+08
5.60962 313.079 0.130134 2.80074e-07 6.1787e+07 312.554 2.79604e-07 6.44232e-07 2.68614e+07 1.11784e+09
5.92807 333.675 0.153578 2.52932e-07 7.29346e+07 333.11 2.52504e-07 5.56685e-07 3.31381e+07 1.31923e+09
6.26459 355.188 0.181246 2.2814e-07 8.60651e+07 354.588 2.27754e-07 4.80786e-07 4.08391e+07 1.55689e+09
6.62021 377.842 0.213898 2.05644e-07 1.01558e+08 377.208 2.05298e-07 4.15026e-07 5.03216e+07 1.83737e+09
6.99602 401.512 0.252432 1.85167e-07 1.1986e+08 400.838 1.84857e-07 3.58083e-07 6.19805e+07 2.16837e+09
7.39317 426.371 0.297908 1.66616e-07 1.41457e+08 425.662 1.66338e-07 3.08803e-07 7.63233e+07 2.55901e+09
7.81286 452.329 0.351577 1.49777e-07 1.66936e+08 451.577 1.49528e-07 2.66181e-07 9.39326e+07 3.02002e+09
8.25637 479.877 0.414914 1.34642e-07 1.97025e+08 479.072 1.34416e-07 2.29336e-07 1.15673e+08 3.56409e+09
8.72507 508.953 0.489662 1.21002e-07 2.32497e+08 508.093 1.20797e-07 1.97503e-07 1.42441e+08 4.20617e+09
9.22037 540.045 0.577876 1.08794e-07 2.74404e+08 539.121 1.08608e-07 1.70014e-07 1.75595e+08 4.96392e+09
9.74378 573.825 0.681982 9.79527e-08 3.2382e+08 572.823 9.77817e-08 1.46289e-07 2.16824e+08 5.85818e+09
10.2969 612.312 0.804843 8.8567e-08 3.82165e+08 611.207 8.84071e-08 1.25822e-07 2.69008e+08 6.91355e+09
10.8814 657.568 0.949838 8.05937e-08 4.51027e+08 656.297 8.04379e-08 1.08175e-07 3.36027e+08 8.15905e+09
11.4992 715.388 1.12095 7.42957e-08 5.32251e+08 713.848 7.41358e-08 9.29669e-08 4.25355e+08 9.62892e+09
12.1519 796.382 1.3229 7.00819e-08 6.28157e+08 794.372 6.9905e-08 7.98658e-08 5.51205e+08 1.13636e+10
12.8418 886.916 1.56122 6.61345e-08 3.82727e+08 917.979 6.84508e-08 6.85852e-08 3.69051e+08 1.34108e+10
13.5708 0 1.84248 0 0 0 0 5.88765e-08 0 1.58268e+10
14.3411 0 2.17441 0 0 0 0 5.05241e-08 0 1.8678e+10
15.1552 0 2.56613 0 0 0 0 4.33417e-08 0 2.20429e+10
16.0156 0 3.02843 0 0 0 0 3.71677e-08 0 2.6014e+10
16.9247 0 3.574 0 0 0 0 3.18628e-08 0 3.07005e+10
17.8855 0 4.21787 0 0 0 0 2.73063e-08 0 3.62312e+10
18.9008 0 4.97773 0 0 0 0 2.33941e-08 0 4.27584e+10
19.9738 0 5.87448 0 0 0 0 2.00364e-08 0 5.04614e+10
21.1076 0 6.93279 0 0 0 0 1.71555e-08 0 5.95522e+10
22.3058 0 8.18175 0 0 0 0 1.46847e-08 0 7.02807e+10
23.5721 0 9.65571 0 0 0 0 1.25662e-08 0 8.29419e+10
24.9102 0 11.3952 0 0 0 0 1.07504e-08 0 9.78842e+10
26.3243 0 13.4481 0 0 0 0 9.19452e-09 0 1.15518e+11
27.8187 0 15.8708 0 0 0 0 7.86182e-09 0 1.36329e+11
29.3979 0 18.73 0 0 0 0 6.72061e-09 0 1.60889e+11
31.0667 0 22.1042 0 0 0 0 5.74366e-09 0 1.89874e+11
32.8303 0 26.0864 0 0 0 0 4.90756e-09 0 2.2408e+11
34.694 0 30.7859 0 0 0 0 4.19221e-09 0 2.64449e+11
36.6634 0 36.3321 0 0 0 0 3.58032e-09 0 3.1209e+11
38.7447 0 42.8774 0 0 0 0 3.05709e-09 0 3.68314e+11
40.9442 0 50.6018 0 0 0 0 2.60976e-09 0 4.34667e+11
43.2685 0 59.7179 0 0 0 0 2.22743e-09 0 5.12973e+11
45.7247 0 70.4762 0 0 0 0 1.90073e-09 0 6.05386e+11
48.3204 0 83.1727 0 0 0 0 1.62163e-09 0 7.14448e+11
51.0634 0 98.1565 0 0 0 0 1.38326e-09 0 8.43158e+11
53.9621 0 115.84 0 0 0 0 1.1797e-09 0 9.95055e+11
57.0254 0 136.709 0 0 0 0 1.00592e-09 0 1.17432e+12
60.2626 0 161.337 0 0 0 0 8.57591e-10 0 1.38587e+12
63.6835 0 190.402 0 0 0 0 7.3101e-10 0 1.63554e+12
67.2987 0 224.704 0 0 0 0 6.23009e-10 0 1.93019e+12
71.1191 0 265.185 0 0 0 0 5.30879e-10 0 2.27792e+12
75.1563 0 312.958 0 0 0 0 4.52303e-10 0 2.68829e+12
79.4227 0 369.339 0 0 0 0 3.85299e-10 0 3.17259e+12
83.9313 0 435.876 0 0 0 0 3.28173e-10 0 3.74415e+12
88.6959 0 514.4 0 0 0 0 2.79476e-10 0 4.41866e+12
93.7309 0 607.071 0 0 0 0 2.37972e-10 0 5.2147e+12
99.0518 0 716.436 0 0 0 0 2.02605e-10 0 6.15414e+12
104.675 0 845.504 0 0 0 0 1.72471e-10 0 7.26283e+12
110.617 0 997.824 0 0 0 0 1.468e-10 0 8.57124e+12
116.896 0 1177.58 0 0 0 0 1.24935e-10 0 1.01154e+13
123.532 0 1389.73 0 0 0 0 1.06313e-10 0 1.19377e+13
130.545 0 1640.09 0 0 0 0 9.04567e-11 0 1.40883e+13
137.955 0 1935.56 0 0 0 0 7.69563e-11 0 1.66263e+13
145.787 0 2284.26 0 0 0 0 6.54636e-11 0 1.96216e+13
154.063 0 2695.77 0 0 0 0 5.56812e-11 0 2.31565e+13
162.808 0 3181.42 0 0 0 0 4.73556e-11 0 2.73282e+13
172.051 0 3754.56 0 0 0 0 4.02708e-11 0 3.22515e+13
181.818 0 4430.96 0 0 0 0 3.42426e-11 0 3.80616e+13
192.139 0 5229.21 0 0 0 0 2.91139e-11 0 4.49186e+13
203.046 0 6171.26 0 0 0 0 2.4751e-11 0 5.30108e+13
214.572 0 7283.03 0 0 0 0 2.10401e-11 0 6.25608e+13
226.753 0 8595.09 0 0 0 0 1.78839e-11 0 7.38313e+13
239.625 0 10143.5 0 0 0 0 1.51999e-11 0 8.71322e+13
253.228 0 11970.9 0 0 0 0 1.29176e-11 0 1.02829e+14
267.603 0 14127.5 0 0 0 0 1.09771e-11 0 1.21354e+14
282.795 0 16672.6 0 0 0 0 9.3274e-12 0 1.43217e+14
298.848 0 19676.2 0 0 0 0 7.925e-12 0 1.69017e+14
315.813 0 23220.9 0 0 0 0 6.73295e-12 0 1.99466e+14
333.741 0 27404.3 0 0 0 0 5.71979e-12 0 2.35401e+14
352.686 0 32341.2 0 0 0 0 4.85874e-12 0 2.77809e+14
372.707 0 38167.6 0 0 0 0 4.12703e-12 0 3.27857e+14
393.865 0 45043.5 0 0 0 0 3.50528e-12 0 3.86921e+14
416.224 0 53158.3 0 0 0 0 2.97701e-12 0 4.56626e+14
439.852 0 62734.9 0 0 0 0 2.52819e-12 0 5.38888e+14
464.821 0 74036.7 0 0 0 0 2.1469e-12 0 6.35971e+14
491.207 0 87374.6 0 0 0 0 1.82301e-12 0 7.50542e+14
519.092 0 103115 0 0 0 0 1.54789e-12 0 8.85755e+14
548.56 0 121692 0 0 0 0 1.31422e-12 0 1.04533e+15
579.7 0 143615 0 0 0 0 1.11576e-12 0 1.23364e+15
612.608 0 169488 0 0 0 0 9.47223e-13 0 1.45589e+15
647.384 0 200021 0 0 0 0 8.041e-13 0 1.71817e+15
684.134 0 236056 0 0 0 0 6.82568e-13 0 2.0277e+15
722.971 0 278582 0 0 0 0 5.79376e-13 0 2.393e+15
764.012 0 328769 0 0 0 0 4.91762e-13 0 2.8241e+15
