0.260603
200
1.0655e+09
8589934592
0.0129181 0 1.58924e-09 0 0 0 0 0.00677225 0 13.6515
0.0136515 0 1.87554e-09 0 0 0 0 0.00688819 0 16.1108
0.0144264 0 2.21343e-09 0 0 0 0 0.00699249 0 19.0132
0.0152454 0 2.61218e-09 0 0 0 0 0.00708412 0 22.4385
0.0161108 0 3.08278e-09 0 0 0 0 0.00716212 0 26.4808
0.0170254 0 3.63815e-09 0 0 0 0 0.00722559 0 31.2514
0.0179919 0 4.29357e-09 0 0 0 0 0.00727371 0 36.8815
0.0190132 0 5.06707e-09 0 0 0 0 0.00730578 0 43.5258
0.0200925 0 5.97991e-09 0 0 0 0 0.00732122 0 51.367
0.0212331 0 7.05721e-09 0 0 0 0 0.00731958 0 60.621
0.0224385 0 8.32858e-09 0 0 0 0 0.00730056 0 71.542
0.0237123 0 9.829e-09 0 0 0 0 0.00726401 0 84.4305
0.0250583 0 1.15997e-08 0 0 0 0 0.00720995 0 99.6408
0.0264808 0 1.36894e-08 0 0 0 0 0.00713857 0 117.591
0.0279841 0 1.61556e-08 0 0 0 0 0.00705021 0 138.776
0.0295727 0 1.90661e-08 0 0 0 0 0.00694538 0 163.777
0.0312514 0 2.25009e-08 0 0 0 0 0.00682475 0 193.281
0.0330255 0 2.65545e-08 0 0 0 0 0.00668915 0 228.102
0.0349003 0 3.13384e-08 0 0 0 0 0.00653951 0 269.195
0.0368815 0 3.69841e-08 0 0 0 0 0.00637693 0 317.691
0.0389751 0 4.36469e-08 0 0 0 0 0.00620256 0 374.924
0.0411876 0 5.151e-08 0 0 0 0 0.00601767 0 442.467
0.0435258 0 6.07896e-08 0 0 0 0 0.00582358 0 522.179
0.0459966 0 7.1741e-08 0 0 0 0 0.00562166 0 616.251
0.0486077 0 8.46654e-08 0 0 0 0 0.0054133 0 727.27
0.051367 0 9.99181e-08 0 0 0 0 0.00519989 0 858.29
0.054283 0 1.17919e-07 0 0 0 0 0.0049828 0 1012.91
0.0573645 0 1.39162e-07 0 0 0 0 0.00476339 0 1195.39
0.060621 0 1.64232e-07 0 0 0 0 0.00454293 0 1410.75
0.0640622 0 1.93819e-07 0 0 0 0 0.00432265 0 1664.89
0.0676989 0 2.28736e-07 0 0 0 0 0.00410371 0 1964.83
0.071542 0 2.69944e-07 0 0 0 0 0.00388717 0 2318.8
0.0756032 0 3.18575e-07 0 0 0 0 0.00367401 0 2736.54
0.079895 0 3.75967e-07 0 0 0 0 0.0034651 0 3229.53
0.0844305 0 4.43698e-07 0 0 0 0 0.00326121 0 3811.34
0.0892234 0 5.23632e-07 0 0 0 0 0.00306301 0 4497.96
0.0942883 0 6.17966e-07 0 0 0 0 0.00287109 0 5308.28
0.0996408 0 7.29294e-07 0 0 0 0 0.00268591 0 6264.59
0.105297 0 8.60678e-07 0 0 0 0 0.00250785 0 7393.17
0.111275 0 1.01573e-06 0 0 0 0 0.00233721 0 8725.07
0.117591 0 1.19872e-06 0 0 0 0 0.00217419 0 10296.9
0.124267 0 1.41467e-06 0 0 0 0 0.00201893 0 12151.9
0.131321 0 1.66953e-06 0 0 0 0 0.00187147 0 14341.1
0.138776 0 1.9703e-06 0 0 0 0 0.00173182 0 16924.7
0.146654 0 2.32525e-06 0 0 0 0 0.00159991 0 19973.8
0.154979 0 2.74415e-06 0 0 0 0 0.00147563 0 23572.1
0.163777 0 3.23852e-06 0 0 0 0 0.00135884 0 27818.7
0.173074 0 3.82195e-06 0 0 0 0 0.00124933 0 32830.3
0.182899 0 4.51048e-06 0 0 0 0 0.00114689 0 38744.7
0.193281 0 5.32305e-06 0 0 0 0 0.00105127 0 45724.7
0.204254 0 6.28202e-06 0 0 0 0 0.000962209 0 53962.1
0.215848 0 7.41374e-06 0 0 0 0 0.000879423 0 63683.5
0.228102 0 8.74934e-06 0 0 0 0 0.000802624 0 75156.3
0.24105 0 1.03256e-05 0 0 0 0 0.000731515 0 88695.9
0.254734 0 1.21857e-05 0 0 0 0 0.000665798 0 104675
0.269195 0 1.4381e-05 0 0 0 0 0.000605173 0 123532
0.284476 0 1.69718e-05 0 0 0 0 0.000549345 0 145787
0.300625 0 2.00293e-05 0 0 0 0 0.000498021 0 172051
0.317691 0 2.36377e-05 0 0 0 0 0.000450916 0 203046
0.335725 0 2.78961e-05 0 0 0 0 0.000407755 0 239625
0.354784 0 3.29216e-05 0 0 0 0 0.000368269 0 282795
0.374924 0 3.88525e-05 0 0 0 0 0.000332202 0 333741
0.396207 0.876748 4.58519e-05 2.22601e-06 6 0.852372 2.16412e-06 0.000299307 0.0446233 393865
0.418699 0 5.41123e-05 0 0 0 0 0.00026935 0 464821
0.442467 0 6.38607e-05 0 0 0 0 0.000242108 0 548560
0.467585 0 7.53654e-05 0 0 0 0 0.00021737 0 647384
0.494129 0 8.89427e-05 0 0 0 0 0.000194938 0 764012
0.522179 0 0.000104966 0 0 0 0 0.000174625 0 901651
0.551822 0 0.000123876 0 0 0 0 0.000156255 0 1.06409e+06
0.583147 6.54099 0.000146192 5.20869e-06 12 6.88443 5.48218e-06 0.000139664 0.447533 1.25578e+06
0.616251 0 0.000172529 0 0 0 0 0.0001247 0 1.48202e+06
0.651234 0 0.000203611 0 0 0 0 0.00011122 0 1.74901e+06
0.688203 26.3593 0.000240292 1.27704e-05 8 25.7036 1.24527e-05 9.90935e-05 1.03098 2.06409e+06
0.72727 0 0.000283581 0 0 0 0 8.81969e-05 0 2.43595e+06
0.768555 0 0.000334669 0 0 0 0 7.84179e-05 0 2.87479e+06
0.812184 0.929399 0.000394961 2.73942e-07 6 0.949269 2.79798e-07 6.96525e-05 0.0235978 3.39269e+06
0.85829 0 0.000466114 0 0 0 0 6.1805e-05 0 4.00389e+06
0.907013 0.435846 0.000550086 9.22386e-08 24 0.444209 9.40085e-08 5.47875e-05 0.0404057 4.7252e+06
0.958501 2.35066 0.000649185 4.21533e-07 24 2.21297 3.96842e-07 4.85194e-05 0.20851 5.57646e+06
1.01291 0 0.000766138 0 0 0 0 4.29272e-05 0 6.58107e+06
1.07041 0 0.00090416 0 0 0 0 3.79435e-05 0 7.76667e+06
1.13118 2.42231 0.00106705 2.64275e-07 12 2.39255 2.61029e-07 3.3507e-05 0.0946459 9.16586e+06
1.19539 1.7461 0.00125928 1.6142e-07 30 1.71011 1.58093e-07 2.9562e-05 0.163812 1.08171e+07
1.26325 7.75698 0.00148614 6.07635e-07 24 7.64026 5.98492e-07 2.60578e-05 0.55965 1.27658e+07
1.33496 23.2728 0.00175387 1.54476e-06 24 23.3239 1.54815e-06 2.29484e-05 1.61554 1.50656e+07
1.41075 9.93735 0.00206984 5.58914e-07 32 10.1731 5.72175e-07 2.01923e-05 0.885746 1.77798e+07
1.49083 1.62329 0.00244272 7.73627e-08 48 1.58868 7.57134e-08 1.77518e-05 0.209185 2.09828e+07
1.57546 0.829437 0.00288279 3.34951e-08 6 0.78981 3.18948e-08 1.55929e-05 0.0128886 2.4763e+07
1.66489 1.17666 0.00340213 4.02633e-08 84 1.15076 3.9377e-08 1.3685e-05 0.24714 2.92241e+07
1.75941 3.56243 0.00401503 1.03292e-07 48 3.55757 1.03151e-07 1.20007e-05 0.413146 3.44889e+07
1.85928 1.36564 0.00473835 3.35521e-08 72 1.37979 3.38998e-08 1.05151e-05 0.229741 4.07021e+07
1.96483 2.16859 0.00559198 4.51462e-08 54 2.11177 4.39635e-08 9.20606e-06 0.264814 4.80347e+07
2.07637 10.2898 0.00659939 1.81516e-07 104 10.2924 1.8156e-07 8.05366e-06 2.34399 5.66883e+07
2.19424 1.69724 0.00778828 2.53695e-08 120 1.714 2.562e-08 7.04008e-06 0.432429 6.69008e+07
2.3188 3.57916 0.00919136 4.53327e-08 156 3.4422 4.35979e-08 6.1494e-06 1.15001 7.89532e+07
2.45043 2.7941 0.0108472 2.9987e-08 126 2.78618 2.99021e-08 5.36741e-06 0.703945 9.31768e+07
2.58954 2.3594 0.0128014 2.14563e-08 192 2.38248 2.16662e-08 4.68145e-06 0.879987 1.09963e+08
2.73654 7.92728 0.0151076 6.10858e-08 152 8.18634 6.3082e-08 4.08023e-06 2.27561 1.29773e+08
2.89188 5.67526 0.0178292 3.70564e-08 378 5.76458 3.76396e-08 3.55373e-06 3.94158 1.53152e+08
3.05605 3.14805 0.0210412 1.74173e-08 264 3.09691 1.71343e-08 3.09304e-06 1.48662 1.80743e+08
3.22953 2.01425 0.0248319 9.44311e-09 366 1.99866 9.37001e-09 2.69025e-06 1.2847 2.13304e+08
3.41286 3.57481 0.0293054 1.42009e-08 428 3.48766 1.38547e-08 2.33837e-06 2.59924 2.51731e+08
3.6066 5.82351 0.0345848 1.96024e-08 486 5.68605 1.91397e-08 2.0312e-06 4.69021 2.97081e+08
3.81134 3.8289 0.0408154 1.09209e-08 600 3.83477 1.09377e-08 1.76327e-06 3.71615 3.50601e+08
4.0277 3.6693 0.0481684 8.86812e-09 738 3.63871 8.79419e-09 1.52972e-06 4.27834 4.13763e+08
4.25634 4.97473 0.056846 1.01878e-08 824 4.99878 1.0237e-08 1.32631e-06 6.32941 4.88304e+08
4.49796 6.38308 0.067087 1.10765e-08 954 6.37113 1.10558e-08 1.14926e-06 9.19462 5.76273e+08
4.7533 4.54958 0.0791729 6.68967e-09 1094 4.52507 6.65363e-09 9.95263e-07 7.35334 6.8009e+08
5.02313 4.46505 0.0934361 5.56317e-09 1332 4.47523 5.57585e-09 8.61414e-07 8.60229 8.0261e+08
5.30828 7.7134 0.110269 8.14335e-09 1614 7.74299 8.17459e-09 7.45152e-07 17.6385 9.47202e+08
5.60962 6.60216 0.130134 5.90616e-09 1850 6.54139 5.8518e-09 6.44232e-07 16.9603 1.11784e+09
5.92807 7.27539 0.153578 5.5149e-09 2238 7.22544 5.47703e-09 5.56685e-07 22.1711 1.31923e+09
6.26459 6.87981 0.181246 4.41895e-09 2546 6.91468 4.44135e-09 4.80786e-07 23.4005 1.55689e+09
6.62021 6.95743 0.213898 3.78663e-09 3264 6.95023 3.78271e-09 4.15026e-07 29.7803 1.83737e+09
6.99602 8.7328 0.252432 4.02735e-09 3506 8.76046 4.04011e-09 3.58083e-07 39.432 2.16837e+09
7.39317 8.93846 0.297908 3.49294e-09 4506 8.93881 3.49307e-09 3.08803e-07 50.9682 2.55901e+09
7.81286 9.94495 0.351577 3.293e-09 5018 9.97318 3.30235e-09 2.66181e-07 62.0792 3.02002e+09
8.25637 10.7498 0.414914 3.01615e-09 5852 10.7211 3.00808e-09 2.29336e-07 76.9634 3.56409e+09
8.72507 11.3329 0.489662 2.69434e-09 7362 11.322 2.69176e-09 1.97503e-07 100.433 4.20617e+09
9.22037 12.2956 0.577876 2.47699e-09 8306 12.2281 2.4634e-09 1.70014e-07 121.013 4.96392e+09
9.74378 12.212 0.681982 2.0846e-09 9698 12.1977 2.08216e-09 1.46289e-07 138.195 5.85818e+09
10.2969 14.372 0.804843 2.07881e-09 11816 14.3635 2.07758e-09 1.25822e-07 195.222 6.91355e+09
10.8814 14.9622 0.949838 1.83382e-09 13682 14.9537 1.83278e-09 1.08175e-07 231.941 8.15905e+09
11.4992 15.7181 1.12095 1.63238e-09 16152 15.6913 1.6296e-09 9.29669e-08 283.609 9.62892e+09
12.1519 17.168 1.3229 1.51079e-09 19472 17.1141 1.50604e-09 7.98658e-08 368.345 1.13636e+10
12.8418 17.6992 1.56122 1.31978e-09 22670 17.6583 1.31673e-09 6.85852e-08 436.236 1.34108e+10
13.5708 19.3717 1.84248 1.22398e-09 26224 19.3674 1.22371e-09 5.88765e-08 545.171 1.58268e+10
14.3411 20.7221 2.17441 1.10944e-09 31640 20.7191 1.10928e-09 5.05241e-08 694.768 1.8678e+10
15.1552 22.0077 2.56613 9.98403e-10 37484 21.9846 9.97357e-10 4.33417e-08 863.468 2.20429e+10
16.0156 23.489 3.02843 9.02939e-10 43856 23.448 9.01363e-10 3.71677e-08 1065.42 2.6014e+10
16.9247 25.1419 3.574 8.1894e-10 51362 25.1066 8.17792e-10 3.18628e-08 1320.11 3.07005e+10
17.8855 26.4827 4.21787 7.30935e-10 61636 26.4365 7.29662e-10 2.73063e-08 1649.87 3.62312e+10
18.9008 27.9522 4.97773 6.53725e-10 72218 27.8947 6.5238e-10 2.33941e-08 2018.06 4.27584e+10
19.9738 29.527 5.87448 5.8514e-10 84586 29.4669 5.83949e-10 2.00364e-08 2470.24 5.04614e+10
21.1076 31.466 6.93279 5.28377e-10 100708 31.4203 5.27609e-10 1.71555e-08 3101.73 5.95522e+10
22.3058 33.5433 8.18175 4.77277e-10 118712 33.4771 4.76335e-10 1.46847e-08 3858.34 7.02807e+10
23.5721 35.1301 9.65571 4.23551e-10 140410 35.0539 4.22632e-10 1.25662e-08 4732.62 8.29419e+10
24.9102 37.6071 11.3952 3.842e-10 164374 37.5191 3.83301e-10 1.07504e-08 5874.46 9.78842e+10
26.3243 39.8691 13.4481 3.45133e-10 194680 39.784 3.44396e-10 9.19452e-09 7307.66 1.15518e+11
27.8187 42.4027 15.8708 3.11032e-10 230196 42.325 3.10462e-10 7.86182e-09 9107.08 1.36329e+11
29.3979 45.2092 18.73 2.80996e-10 271156 45.1217 2.80452e-10 6.72061e-09 11337.3 1.60889e+11
31.0667 48.2865 22.1042 2.54308e-10 321076 48.1937 2.5382e-10 5.74366e-09 14216.1 1.89874e+11
32.8303 51.5298 26.0864 2.29961e-10 377436 51.4278 2.29506e-10 4.90756e-09 17686.1 2.2408e+11
34.694 55.159 30.7859 2.08581e-10 447594 55.0507 2.08171e-10 4.19221e-09 22269.8 2.64449e+11
36.6634 59.0903 36.3321 1.89337e-10 525078 58.9651 1.88936e-10 3.58032e-09 27767.6 3.1209e+11
38.7447 63.3815 42.8774 1.72086e-10 621924 63.2505 1.7173e-10 3.05709e-09 35008.6 3.68314e+11
40.9442 68.2529 50.6018 1.57023e-10 732630 68.1105 1.56696e-10 2.60976e-09 44080.7 4.34667e+11
43.2685 73.913 59.7179 1.44087e-10 865596 73.7532 1.43776e-10 2.22743e-09 55993.4 5.12973e+11
45.7247 80.0582 70.4762 1.32243e-10 1.02168e+06 79.8781 1.31946e-10 1.90073e-09 71083 6.05386e+11
48.3204 87.275 83.1727 1.22157e-10 1.20544e+06 87.0703 1.21871e-10 1.62163e-09 90805.3 7.14448e+11
51.0634 106.466 98.1565 1.26271e-10 1.42103e+06 105.991 1.25707e-10 1.38326e-09 129719 8.43158e+11
53.9621 104.764 115.84 1.05284e-10 1.67997e+06 104.518 1.05037e-10 1.1797e-09 149931 9.95055e+11
57.0254 115.545 136.709 9.83937e-11 1.98018e+06 115.264 9.81539e-11 1.00592e-09 193691 1.17432e+12
60.2626 128.308 161.337 9.25824e-11 2.33957e+06 127.982 9.23474e-11 8.57591e-10 252571 1.38587e+12
63.6835 143.231 190.402 8.75742e-11 2.75676e+06 142.859 8.73465e-11 7.3101e-10 330257 1.63554e+12
67.2987 160.559 224.704 8.3183e-11 3.25638e+06 160.144 8.29682e-11 6.23009e-10 434786 1.93019e+12
71.1191 180.814 265.185 7.93769e-11 3.84387e+06 180.326 7.91627e-11 5.30879e-10 574735 2.27792e+12
75.1563 205.112 312.958 7.62982e-11 4.53277e+06 204.509 7.60739e-11 4.52303e-10 764624 2.68829e+12
79.4227 233.048 369.339 7.34564e-11 5.35083e+06 232.408 7.32548e-11 3.85299e-10 1.02012e+06 3.17259e+12
83.9313 266.41 435.876 7.11537e-11 6.32174e+06 265.644 7.09493e-11 3.28173e-10 1.37066e+06 3.74415e+12
88.6959 305.99 514.4 6.92495e-11 7.44986e+06 305.091 6.9046e-11 2.79476e-10 1.84595e+06 4.41866e+12
93.7309 352.691 607.071 6.7634e-11 8.79764e+06 351.63 6.74306e-11 2.37972e-10 2.50037e+06 5.2147e+12
99.0518 407.826 716.436 6.62685e-11 1.03827e+07 406.568 6.60641e-11 2.02605e-10 3.396e+06 6.15414e+12
104.675 473.607 845.504 6.52098e-11 1.22515e+07 472.141 6.50079e-11 1.72471e-10 4.63219e+06 7.26283e+12
110.617 550.715 997.824 6.42515e-11 1.44573e+07 549.013 6.40529e-11 1.468e-10 6.32768e+06 8.57124e+12
116.896 642.521 1177.58 6.35193e-11 1.70664e+07 640.492 6.33186e-11 1.24935e-10 8.67689e+06 1.01154e+13
123.532 750.654 1389.73 6.2881e-11 2.0139e+07 748.259 6.26804e-11 1.06313e-10 1.19116e+07 1.19377e+13
130.545 880.849 1640.09 6.25235e-11 2.37643e+07 878.095 6.2328e-11 9.04567e-11 1.64258e+07 1.40883e+13
137.955 1030.48 1935.56 6.19788e-11 2.80503e+07 1027.13 6.17775e-11 7.69563e-11 2.2591e+07 1.66263e+13
145.787 1209.62 2284.26 6.16472e-11 3.30981e+07 1205.68 6.14463e-11 6.54636e-11 3.11685e+07 1.96216e+13
154.063 1421.52 2695.77 6.13874e-11 3.90634e+07 1416.88 6.11869e-11 5.56812e-11 4.30666e+07 2.31565e+13
162.808 1672.9 3181.42 6.12152e-11 4.61057e+07 1667.38 6.10133e-11 4.73556e-11 5.95994e+07 2.73282e+13
172.051 1969.1 3754.56 6.10545e-11 5.44046e+07 1962.58 6.08524e-11 4.02708e-11 8.24827e+07 3.22515e+13
181.818 2321.75 4430.96 6.09996e-11 6.42064e+07 2314.05 6.07975e-11 3.42426e-11 1.14377e+08 3.80616e+13
192.139 2739.2 5229.21 6.09815e-11 7.57748e+07 2730.07 6.07783e-11 2.91139e-11 1.58717e+08 4.49186e+13
203.046 3235.74 6171.26 6.10393e-11 8.94213e+07 3224.91 6.0835e-11 2.4751e-11 2.20525e+08 5.30108e+13
214.572 3824.93 7283.03 6.11395e-11 1.05538e+08 3812.08 6.0934e-11 2.10401e-11 3.06679e+08 6.25608e+13
226.753 4526.88 8595.09 6.13138e-11 1.24552e+08 4511.57 6.11065e-11 1.78839e-11 4.27017e+08 7.38313e+13
239.625 5365.86 10143.5 6.1583e-11 1.46987e+08 5347.58 6.13731e-11 1.51999e-11 5.95525e+08 8.71322e+13
253.228 6369.24 11970.9 6.194e-11 1.7347e+08 6347.31 6.17267e-11 1.29176e-11 8.31789e+08 1.02829e+14
267.603 7580.69 14127.5 6.24674e-11 2.04703e+08 7554.38 6.22506e-11 1.09771e-11 1.1649e+09 1.21354e+14
282.795 9050.19 16672.6 6.31923e-11 2.4161e+08 9018.36 6.29701e-11 9.3274e-12 1.63689e+09 1.43217e+14
298.848 10847.9 19676.2 6.41822e-11 2.85122e+08 10809 6.39519e-11 7.925e-12 2.30912e+09 1.69017e+14
315.813 13075.8 23220.9 6.5554e-11 3.36491e+08 13027.7 6.53127e-11 6.73295e-12 3.27618e+09 1.99466e+14
333.741 15882.5 27404.3 6.74701e-11 3.97115e+08 15822 6.72131e-11 5.71979e-12 4.68433e+09 2.35401e+14
352.686 19501.9 32341.2 7.0199e-11 4.68637e+08 19424.5 6.99203e-11 4.85874e-12 6.77086e+09 2.77809e+14
372.707 24309.2 38167.6 7.41457e-11 5.53074e+08 24206.7 7.38331e-11 4.12703e-12 9.93646e+09 3.27857e+14
393.865 30945 45043.5 7.99775e-11 6.52716e+08 30804.5 7.96143e-11 3.50528e-12 1.48926e+10 3.86921e+14
416.224 36524.1 53158.3 7.99868e-11 2.2184e+08 38639 8.46185e-11 2.97701e-12 5.96043e+09 4.56626e+14
439.852 0 62734.9 0 0 0 0 2.52819e-12 0 5.38888e+14
464.821 0 74036.7 0 0 0 0 2.1469e-12 0 6.35971e+14
491.207 0 87374.6 0 0 0 0 1.82301e-12 0 7.50542e+14
519.092 0 103115 0 0 0 0 1.54789e-12 0 8.85755e+14
548.56 0 121692 0 0 0 0 1.31422e-12 0 1.04533e+15
579.7 0 143615 0 0 0 0 1.11576e-12 0 1.23364e+15
612.608 0 169488 0 0 0 0 9.47223e-13 0 1.45589e+15
647.384 0 200021 0 0 0 0 8.041e-13 0 1.71817e+15
684.134 0 236056 0 0 0 0 6.82568e-13 0 2.0277e+15
722.971 0 278582 0 0 0 0 5.79376e-13 0 2.393e+15
764.012 0 328769 0 0 0 0 4.91762e-13 0 2.8241e+15
0.260603
200
1.0655e+09
8589934592
0.0129181 0.000200072 1.58924e-09 1.46557e-05 6 0.00019824 1.45215e-05 0.00677225 0.0129845 13.6515
0.0136515 0 1.87554e-09 0 0 0 0 0.00688819 0 16.1108
0.0144264 0 2.21343e-09 0 0 0 0 0.00699249 0 19.0132
0.0152454 0 2.61218e-09 0 0 0 0 0.00708412 0 22.4385
0.0161108 0 3.08278e-09 0 0 0 0 0.00716212 0 26.4808
0.0170254 0 3.63815e-09 0 0 0 0 0.00722559 0 31.2514
0.0179919 0.000452295 4.29357e-09 1.22635e-05 12 0.000451712 1.22477e-05 0.00727371 0.020232 36.8815
0.0190132 0 5.06707e-09 0 0 0 0 0.00730578 0 43.5258
0.0200925 0 5.97991e-09 0 0 0 0 0.00732122 0 51.367
0.0212331 0.000432105 7.05721e-09 7.12798e-06 8 0.000431729 7.12178e-06 0.00731958 0.00779059 60.621
0.0224385 0 8.32858e-09 0 0 0 0 0.00730056 0 71.542
0.0237123 0 9.829e-09 0 0 0 0 0.00726401 0 84.4305
0.0250583 0.00278831 1.15997e-08 2.79836e-05 6 0.002787 2.79704e-05 0.00720995 0.0232875 99.6408
0.0264808 0 1.36894e-08 0 0 0 0 0.00713857 0 117.591
0.0279841 0.00174147 1.61556e-08 1.25488e-05 24 0.00173968 1.25359e-05 0.00705021 0.0427181 138.776
0.0295727 0 1.90661e-08 0 0 0 0 0.00694538 0 163.777
0.0312514 0.00312455 2.25009e-08 1.61658e-05 24 0.00314041 1.62479e-05 0.00682475 0.0568488 193.281
0.0330255 0 2.65545e-08 0 0 0 0 0.00668915 0 228.102
0.0349003 0.004479 3.13384e-08 1.66385e-05 12 0.00444313 1.65053e-05 0.00653951 0.0305316 269.195
0.0368815 0.00382619 3.69841e-08 1.20438e-05 30 0.00378545 1.19155e-05 0.00637693 0.0566594 317.691
0.0389751 0.00452984 4.36469e-08 1.2082e-05 24 0.00448324 1.19577e-05 0.00620256 0.0467498 374.924
0.0411876 0.00287988 5.151e-08 6.50869e-06 24 0.00286032 6.46449e-06 0.00601767 0.0259583 442.467
0.0435258 0.00641114 6.07896e-08 1.22777e-05 8 0.00641065 1.22767e-05 0.00582358 0.0168661 522.179
0.0459966 0.00816091 7.1741e-08 1.32428e-05 72 0.00809633 1.3138e-05 0.00562166 0.169609 616.251
0.0486077 0 8.46654e-08 0 0 0 0 0.0054133 0 727.27
0.051367 0.0120594 9.99181e-08 1.40504e-05 54 0.0120207 1.40055e-05 0.00519989 0.145912 858.29
0.054283 0.00947186 1.17919e-07 9.35111e-06 60 0.00951197 9.39071e-06 0.0049828 0.112601 1012.91
0.0573645 0.00932438 1.39162e-07 7.80027e-06 96 0.00930031 7.78014e-06 0.00476339 0.157205 1195.39
0.060621 0.0108626 1.64232e-07 7.69988e-06 24 0.0107154 7.59556e-06 0.00454293 0.040678 1410.75
0.0640622 0.0191325 1.93819e-07 1.14917e-05 134 0.0191428 1.14979e-05 0.00432265 0.356238 1664.89
0.0676989 0.018467 2.28736e-07 9.3988e-06 120 0.0183815 9.35529e-06 0.00410371 0.274838 1964.83
0.071542 0.0170229 2.69944e-07 7.34125e-06 108 0.0168381 7.26154e-06 0.00388717 0.203967 2318.8
0.0756032 0.0248941 3.18575e-07 9.09693e-06 174 0.0247622 9.04872e-06 0.00367401 0.430828 2736.54
0.079895 0.0265726 3.75967e-07 8.22801e-06 168 0.0263223 8.15049e-06 0.0034651 0.398923 3229.53
0.0844305 0.0226519 4.43698e-07 5.94329e-06 168 0.0227652 5.973e-06 0.00326121 0.306167 3811.34
0.0892234 0.0257486 5.23632e-07 5.7245e-06 290 0.0256387 5.70006e-06 0.00306301 0.541984 4497.96
0.0942883 0.0332308 6.17966e-07 6.26018e-06 288 0.0331481 6.2446e-06 0.00287109 0.627961 5308.28
0.0996408 0.0300383 7.29294e-07 4.79494e-06 366 0.0297883 4.75503e-06 0.00268591 0.653391 6264.59
0.105297 0.0331902 8.60678e-07 4.48931e-06 420 0.0329593 4.45808e-06 0.00250785 0.751843 7393.17
0.111275 0.0353796 1.01573e-06 4.05493e-06 398 0.035277 4.04318e-06 0.00233721 0.690508 8725.07
0.117591 0.0422233 1.19872e-06 4.10058e-06 624 0.0423117 4.10916e-06 0.00217419 1.17688 10296.9
0.124267 0.0473588 1.41467e-06 3.89722e-06 642 0.0472883 3.89143e-06 0.00201893 1.23928 12151.9
0.131321 0.0598104 1.66953e-06 4.17055e-06 800 0.0598306 4.17196e-06 0.00187147 1.78279 14341.1
0.138776 0.053938 1.9703e-06 3.18693e-06 858 0.0541938 3.20205e-06 0.00173182 1.57891 16924.7
0.146654 0.0592397 2.32525e-06 2.96588e-06 1080 0.0597354 2.9907e-06 0.00159991 2.00208 19973.8
0.154979 0.070493 2.74415e-06 2.99053e-06 1286 0.0709721 3.01085e-06 0.00147563 2.60621 23572.1
0.163777 0.0666941 3.23852e-06 2.39746e-06 1650 0.0668238 2.40212e-06 0.00135884 2.91117 27818.7
0.173074 0.0784734 3.82195e-06 2.39027e-06 1778 0.0784837 2.39059e-06 0.00124933 3.40175 32830.3
0.182899 0.0770609 4.51048e-06 1.98894e-06 2112 0.077251 1.99385e-06 0.00114689 3.66263 38744.7
0.193281 0.0900858 5.32305e-06 1.97018e-06 2570 0.0902071 1.97283e-06 0.00105127 4.81641 45724.7
0.204254 0.102216 6.28202e-06 1.89422e-06 3030 0.102161 1.89319e-06 0.000962209 5.96491 53962.1
0.215848 0.102287 7.41374e-06 1.60617e-06 3434 0.102252 1.60563e-06 0.000879423 6.27184 63683.5
0.228102 0.107197 8.74934e-06 1.42631e-06 4218 0.107223 1.42667e-06 0.000802624 7.49566 75156.3
0.24105 0.120975 1.03256e-05 1.36394e-06 4766 0.121089 1.36522e-06 0.000731515 8.88637 88695.9
0.254734 0.131056 1.21857e-05 1.25203e-06 6026 0.131019 1.25168e-06 0.000665798 11.3319 104675
0.269195 0.139099 1.4381e-05 1.12601e-06 6480 0.139004 1.12525e-06 0.000605173 12.057 123532
0.284476 0.152427 1.69718e-05 1.04555e-06 8162 0.152769 1.04789e-06 0.000549345 15.5344 145787
0.300625 0.155115 2.00293e-05 9.01564e-07 9578 0.155296 9.0262e-07 0.000498021 17.339 172051
0.317691 0.173683 2.36377e-05 8.55386e-07 11234 0.173522 8.54594e-07 0.000450916 21.3108 203046
0.335725 0.183116 2.78961e-05 7.64174e-07 13344 0.18297 7.63566e-07 0.000407755 25.008 239625
0.354784 0.193394 3.29216e-05 6.83869e-07 15464 0.193259 6.8339e-07 0.000368269 28.7164 282795
0.374924 0.208098 3.88525e-05 6.23531e-07 18458 0.208083 6.23486e-07 0.000332202 34.645 333741
0.396207 0.222236 4.58519e-05 5.64243e-07 22232 0.221928 5.63462e-07 0.000299307 41.911 393865
0.418699 0.241213 5.41123e-05 5.18937e-07 25628 0.240636 5.17697e-07 0.00026935 49.3756 464821
0.442467 0.258398 6.38607e-05 4.71048e-07 30320 0.257859 4.70066e-07 0.000242108 58.9909 548560
0.467585 0.271402 7.53654e-05 4.19229e-07 35452 0.271022 4.18641e-07 0.00021737 68.3742 647384
0.494129 0.290675 8.89427e-05 3.80458e-07 41792 0.290542 3.80284e-07 0.000194938 81.5648 764012
0.522179 0.314793 0.000104966 3.49129e-07 49988 0.314683 3.49008e-07 0.000174625 99.9416 901651
0.551822 0.334204 0.000123876 3.14076e-07 59110 0.333934 3.13822e-07 0.000156255 118.813 1.06409e+06
0.583147 0.360641 0.000146192 2.87184e-07 69716 0.360088 2.86744e-07 0.000139664 143.354 1.25578e+06
0.616251 0.386016 0.000172529 2.60466e-07 82210 0.385322 2.59998e-07 0.0001247 171.716 1.48202e+06
0.651234 0.41491 0.000203611 2.37226e-07 96722 0.414082 2.36753e-07 0.00011122 206.302 1.74901e+06
0.688203 0.444891 0.000240292 2.15538e-07 113098 0.444319 2.15261e-07 9.90935e-05 245.999 2.06409e+06
0.72727 0.477929 0.000283581 1.96198e-07 135190 0.477375 1.95971e-07 8.81969e-05 300.737 2.43595e+06
0.768555 0.514455 0.000334669 1.78954e-07 158170 0.513903 1.78762e-07 7.84179e-05 360.953 2.87479e+06
0.812184 0.551594 0.000394961 1.62583e-07 188560 0.550913 1.62382e-07 6.96525e-05 440.138 3.39269e+06
0.85829 0.59407 0.000466114 1.48373e-07 220444 0.593264 1.48172e-07 6.1805e-05 529.213 4.00389e+06
0.907013 0.635751 0.000550086 1.34545e-07 261388 0.634974 1.3438e-07 5.47875e-05 641.905 4.7252e+06
0.958501 0.690877 0.000649185 1.23892e-07 308244 0.689979 1.23731e-07 4.85194e-05 787.084 5.57646e+06
1.01291 0.744881 0.000766138 1.13185e-07 364396 0.74378 1.13018e-07 4.29272e-05 960.797 6.58107e+06
1.07041 0.802079 0.00090416 1.03272e-07 429162 0.80086 1.03115e-07 3.79435e-05 1168.06 7.76667e+06
1.13118 0.868661 0.00106705 9.47714e-08 506358 0.867352 9.46285e-08 3.3507e-05 1432.19 9.16586e+06
1.19539 0.941155 0.00125928 8.70061e-08 598590 0.939603 8.68627e-08 2.9562e-05 1761.75 1.08171e+07
1.26325 1.01986 0.00148614 7.98901e-08 704844 1.01836 7.97726e-08 2.60578e-05 2160.96 1.27658e+07
1.33496 1.10345 0.00175387 7.3243e-08 834620 1.10165 7.31232e-08 2.29484e-05 2663.8 1.50656e+07
1.41075 1.19986 0.00206984 6.74844e-08 981444 1.19779 6.73683e-08 2.01923e-05 3280.07 1.77798e+07
1.49083 1.30437 0.00244272 6.21638e-08 1.15998e+06 1.30219 6.20597e-08 1.77518e-05 4062.05 2.09828e+07
1.57546 1.41785 0.00288279 5.72569e-08 1.36931e+06 1.41543 5.71591e-08 1.55929e-05 5028.1 2.4763e+07
1.66489 1.54497 0.00340213 5.28664e-08 1.61652e+06 1.54224 5.27728e-08 1.3685e-05 6244.74 2.92241e+07
1.75941 1.68871 0.00401503 4.89639e-08 1.90601e+06 1.68569 4.88764e-08 1.20007e-05 7776.68 3.44889e+07
1.85928 1.84135 0.00473835 4.52396e-08 2.24913e+06 1.8381 4.51599e-08 1.05151e-05 9676.52 4.07021e+07
1.96483 2.014 0.00559198 4.19279e-08 2.65744e+06 2.0103 4.18511e-08 9.20606e-06 12103 4.80347e+07
2.07637 2.20387 0.00659939 3.8877e-08 3.13125e+06 2.19989 3.88068e-08 8.05366e-06 15115.3 5.66883e+07
2.19424 2.4159 0.00778828 3.61116e-08 3.69915e+06 2.41141 3.60445e-08 7.04008e-06 18974.6 6.69008e+07
2.3188 2.64611 0.00919136 3.35149e-08 4.36472e+06 2.64123 3.34531e-08 6.1494e-06 23788.2 7.89532e+07
2.45043 2.90687 0.0108472 3.11973e-08 5.14913e+06 2.90143 3.11389e-08 5.36741e-06 29928.6 9.31768e+07
2.58954 3.19381 0.0128014 2.90444e-08 6.07894e+06 3.18764 2.89883e-08 4.68145e-06 37714.6 1.09963e+08
2.73654 3.51358 0.0151076 2.70748e-08 7.17304e+06 3.50685 2.70229e-08 4.08023e-06 47597.5 1.29773e+08
2.89188 3.86233 0.0178292 2.5219e-08 8.46557e+06 3.85493 2.51706e-08 3.55373e-06 60075.7 1.53152e+08
3.05605 4.25628 0.0210412 2.35488e-08 9.98773e+06 4.2481 2.35036e-08 3.09304e-06 76041.6 1.80743e+08
3.22953 4.68866 0.0248319 2.19811e-08 1.1797e+07 4.67948 2.19381e-08 2.69025e-06 96389.4 2.13304e+08
3.41286 5.16419 0.0293054 2.05147e-08 1.39144e+07 5.15387 2.04737e-08 2.33837e-06 122072 2.51731e+08
3.6066 5.68693 0.0345848 1.91427e-08 1.64163e+07 5.67586 1.91054e-08 2.0312e-06 154712 2.97081e+08
3.81134 6.27005 0.0408154 1.78837e-08 1.93821e+07 6.25759 1.78482e-08 1.76327e-06 196581 3.50601e+08
4.0277 6.90404 0.0481684 1.6686e-08 2.28754e+07 6.89024 1.66526e-08 1.52972e-06 249521 4.13763e+08
4.25634 7.60187 0.056846 1.55679e-08 2.69929e+07 7.58647 1.55364e-08 1.32631e-06 316837 4.88304e+08
4.49796 8.37213 0.067087 1.45281e-08 3.18542e+07 8.35512 1.44985e-08 1.14926e-06 402678 5.76273e+08
4.7533 9.20394 0.0791729 1.35334e-08 3.75892e+07 9.18534 1.35061e-08 9.95263e-07 511131 6.8009e+08
5.02313 10.1028 0.0934361 1.25874e-08 4.43706e+07 10.0825 1.25622e-08 8.61414e-07 648365 8.0261e+08
5.30828 11.0847 0.110269 1.17025e-08 5.23593e+07 11.0623 1.16789e-08 7.45152e-07 822297 9.47202e+08
5.60962 12.142 0.130134 1.0862e-08 6.1787e+07 12.1178 1.08404e-08 6.44232e-07 1.04175e+06 1.11784e+09
5.92807 13.2831 0.153578 1.00688e-08 7.29346e+07 13.2567 1.00488e-08 5.56685e-07 1.31918e+06 1.31923e+09
6.26459 14.5005 0.181246 9.31377e-09 8.60651e+07 14.4716 9.29522e-09 4.80786e-07 1.66725e+06 1.55689e+09
6.62021 15.8089 0.213898 8.60413e-09 1.01558e+08 15.7777 8.58711e-09 4.15026e-07 2.10546e+06 1.83737e+09
6.99602 17.2071 0.252432 7.93549e-09 1.1986e+08 17.1735 7.92001e-09 3.58083e-07 2.65622e+06 2.16837e+09
7.39317 18.6932 0.297908 7.30484e-09 1.41457e+08 18.6565 7.29052e-09 3.08803e-07 3.3462e+06 2.55901e+09
7.81286 20.2802 0.351577 6.71526e-09 1.66936e+08 20.241 6.70228e-09 2.66181e-07 4.21149e+06 3.02002e+09
8.25637 21.9669 0.414914 6.1634e-09 1.97025e+08 21.9245 6.15149e-09 2.29336e-07 5.29504e+06 3.56409e+09
8.72507 23.7634 0.489662 5.64966e-09 2.32497e+08 23.7176 5.63877e-09 1.97503e-07 6.65067e+06 4.20617e+09
9.22037 25.703 0.577876 5.17797e-09 2.74404e+08 25.6531 5.16791e-09 1.70014e-07 8.35729e+06 4.96392e+09
9.74378 27.8385 0.681982 4.75208e-09 3.2382e+08 27.7839 4.74275e-09 1.46289e-07 1.0519e+07 5.85818e+09
10.2969 30.2373 0.804843 4.37363e-09 3.82165e+08 30.1758 4.36473e-09 1.25822e-07 1.32842e+07 6.91355e+09
10.8814 33.0724 0.949838 4.05347e-09 4.51027e+08 33.0013 4.04474e-09 1.08175e-07 1.69005e+07 8.15905e+09
11.4992 36.6305 1.12095 3.80421e-09 5.32251e+08 36.5434 3.79517e-09 9.29669e-08 2.17798e+07 9.62892e+09
12.1519 41.5048 1.3229 3.65244e-09 6.28157e+08 41.3911 3.64243e-09 7.98658e-08 2.8727e+07 1.13636e+10
12.8418 46.7962 1.56122 3.48945e-09 3.82727e+08 48.4327 3.61147e-09 6.85852e-08 1.94722e+07 1.34108e+10
13.5708 0 1.84248 0 0 0 0 5.88765e-08 0 1.58268e+10
14.3411 0 2.17441 0 0 0 0 5.05241e-08 0 1.8678e+10
15.1552 0 2.56613 0 0 0 0 4.33417e-08 0 2.20429e+10
16.0156 0 3.02843 0 0 0 0 3.71677e-08 0 2.6014e+10
16.9247 0 3.574 0 0 0 0 3.18628e-08 0 3.07005e+10
17.8855 0 4.21787 0 0 0 0 2.73063e-08 0 3.62312e+10
18.9008 0 4.97773 0 0 0 0 2.33941e-08 0 4.27584e+10
19.9738 0 5.87448 0 0 0 0 2.00364e-08 0 5.04614e+10
21.1076 0 6.93279 0 0 0 0 1.71555e-08 0 5.95522e+10
22.3058 0 8.18175 0 0 0 0 1.46847e-08 0 7.02807e+10
23.5721 0 9.65571 0 0 0 0 1.25662e-08 0 8.29419e+10
24.9102 0 11.3952 0 0 0 0 1.07504e-08 0 9.78842e+10
26.3243 0 13.4481 0 0 0 0 9.19452e-09 0 1.15518e+11
27.8187 0 15.8708 0 0 0 0 7.86182e-09 0 1.36329e+11
29.3979 0 18.73 0 0 0 0 6.72061e-09 0 1.60889e+11
31.0667 0 22.1042 0 0 0 0 5.74366e-09 0 1.89874e+11
32.8303 0 26.0864 0 0 0 0 4.90756e-09 0 2.2408e+11
34.694 0 30.7859 0 0 0 0 4.19221e-09 0 2.64449e+11
36.6634 0 36.3321 0 0 0 0 3.58032e-09 0 3.1209e+11
38.7447 0 42.8774 0 0 0 0 3.05709e-09 0 3.68314e+11
40.9442 0 50.6018 0 0 0 0 2.60976e-09 0 4.34667e+11
43.2685 0 59.7179 0 0 0 0 2.22743e-09 0 5.12973e+11
45.7247 0 70.4762 0 0 0 0 1.90073e-09 0 6.05386e+11
48.3204 0 83.1727 0 0 0 0 1.62163e-09 0 7.14448e+11
51.0634 0 98.1565 0 0 0 0 1.38326e-09 0 8.43158e+11
53.9621 0 115.84 0 0 0 0 1.1797e-09 0 9.95055e+11
57.0254 0 136.709 0 0 0 0 1.00592e-09 0 1.17432e+12
60.2626 0 161.337 0 0 0 0 8.57591e-10 0 1.38587e+12
63.6835 0 190.402 0 0 0 0 7.3101e-10 0 1.63554e+12
67.2987 0 224.704 0 0 0 0 6.23009e-10 0 1.93019e+12
71.1191 0 265.185 0 0 0 0 5.30879e-10 0 2.27792e+12
75.1563 0 312.958 0 0 0 0 4.52303e-10 0 2.68829e+12
79.4227 0 369.339 0 0 0 0 3.85299e-10 0 3.17259e+12
83.9313 0 435.876 0 0 0 0 3.28173e-10 0 3.74415e+12
88.6959 0 514.4 0 0 0 0 2.79476e-10 0 4.41866e+12
93.7309 0 607.071 0 0 0 0 2.37972e-10 0 5.2147e+12
99.0518 0 716.436 0 0 0 0 2.02605e-10 0 6.15414e+12
104.675 0 845.504 0 0 0 0 1.72471e-10 0 7.26283e+12
110.617 0 997.824 0 0 0 0 1.468e-10 0 8.57124e+12
116.896 0 1177.58 0 0 0 0 1.24935e-10 0 1.01154e+13
123.532 0 1389.73 0 0 0 0 1.06313e-10 0 1.19377e+13
130.545 0 1640.09 0 0 0 0 9.04567e-11 0 1.40883e+13
137.955 0 1935.56 0 0 0 0 7.69563e-11 0 1.66263e+13
145.787 0 2284.26 0 0 0 0 6.54636e-11 0 1.96216e+13
154.063 0 2695.77 0 0 0 0 5.56812e-11 0 2.31565e+13
162.808 0 3181.42 0 0 0 0 4.73556e-11 0 2.73282e+13
172.051 0 3754.56 0 0 0 0 4.02708e-11 0 3.22515e+13
181.818 0 4430.96 0 0 0 0 3.42426e-11 0 3.80616e+13
192.139 0 5229.21 0 0 0 0 2.91139e-11 0 4.49186e+13
203.046 0 6171.26 0 0 0 0 2.4751e-11 0 5.30108e+13
214.572 0 7283.03 0 0 0 0 2.10401e-11 0 6.25608e+13
226.753 0 8595.09 0 0 0 0 1.78839e-11 0 7.38313e+13
239.625 0 10143.5 0 0 0 0 1.51999e-11 0 8.71322e+13
253.228 0 11970.9 0 0 0 0 1.29176e-11 0 1.02829e+14
267.603 0 14127.5 0 0 0 0 1.09771e-11 0 1.21354e+14
282.795 0 16672.6 0 0 0 0 9.3274e-12 0 1.43217e+14
298.848 0 19676.2 0 0 0 0 7.925e-12 0 1.69017e+14
315.813 0 23220.9 0 0 0 0 6.73295e-12 0 1.99466e+14
333.741 0 27404.3 0 0 0 0 5.71979e-12 0 2.35401e+14
352.686 0 32341.2 0 0 0 0 4.85874e-12 0 2.77809e+14
372.707 0 38167.6 0 0 0 0 4.12703e-12 0 3.27857e+14
393.865 0 45043.5 0 0 0 0 3.50528e-12 0 3.86921e+14
416.224 0 53158.3 0 0 0 0 2.97701e-12 0 4.56626e+14
439.852 0 62734.9 0 0 0 0 2.52819e-12 0 5.38888e+14
464.821 0 74036.7 0 0 0 0 2.1469e-12 0 6.35971e+14
491.207 0 87374.6 0 0 0 0 1.82301e-12 0 7.50542e+14
519.092 0 103115 0 0 0 0 1.54789e-12 0 8.85755e+14
548.56 0 121692 0 0 0 0 1.31422e-12 0 1.04533e+15
579.7 0 143615 0 0 0 0 1.11576e-12 0 1.23364e+15
612.608 0 169488 0 0 0 0 9.47223e-13 0 1.45589e+15
647.384 0 200021 0 0 0 0 8.041e-13 0 1.71817e+15
684.134 0 236056 0 0 0 0 6.82568e-13 0 2.0277e+15
722.971 0 278582 0 0 0 0 5.79376e-13 0 2.393e+15
764.012 0 328769 0 0 0 0 4.91762e-13 0 2.8241e+15
