1
200
1.0655e+09
8589934592
0.0129181 0 1.58924e-09 0 0 0 0 0.00677225 0 13.6515
0.0136515 0 1.87554e-09 0 0 0 0 0.00688819 0 16.1108
0.0144264 0 2.21343e-09 0 0 0 0 0.00699249 0 19.0132
0.0152454 0 2.61218e-09 0 0 0 0 0.00708412 0 22.4385
0.0161108 0 3.08278e-09 0 0 0 0 0.00716212 0 26.4808
0.0170254 0 3.63815e-09 0 0 0 0 0.00722559 0 31.2514
0.0179919 0 4.29357e-09 0 0 0 0 0.00727371 0 36.8815
0.0190132 0 5.06707e-09 0 0 0 0 0.00730578 0 43.5258
0.0200925 0 5.97991e-09 0 0 0 0 0.00732122 0 51.367
0.0212331 0 7.05721e-09 0 0 0 0 0.00731958 0 60.621
0.0224385 0 8.32858e-09 0 0 0 0 0.00730056 0 71.542
0.0237123 0 9.829e-09 0 0 0 0 0.00726401 0 84.4305
0.0250583 0 1.15997e-08 0 0 0 0 0.00720995 0 99.6408
0.0264808 0 1.36894e-08 0 0 0 0 0.00713857 0 117.591
0.0279841 0 1.61556e-08 0 0 0 0 0.00705021 0 138.776
0.0295727 0 1.90661e-08 0 0 0 0 0.00694538 0 163.777
0.0312514 0 2.25009e-08 0 0 0 0 0.00682475 0 193.281
0.0330255 0 2.65545e-08 0 0 0 0 0.00668915 0 228.102
0.0349003 0 3.13384e-08 0 0 0 0 0.00653951 0 269.195
0.0368815 0 3.69841e-08 0 0 0 0 0.00637693 0 317.691
0.0389751 0 4.36469e-08 0 0 0 0 0.00620256 0 374.924
0.0411876 0 5.151e-08 0 0 0 0 0.00601767 0 442.467
0.0435258 0 6.07896e-08 0 0 0 0 0.00582358 0 522.179
0.0459966 0 7.1741e-08 0 0 0 0 0.00562166 0 616.251
0.0486077 0 8.46654e-08 0 0 0 0 0.0054133 0 727.27
0.051367 0 9.99181e-08 0 0 0 0 0.00519989 0 858.29
0.054283 0 1.17919e-07 0 0 0 0 0.0049828 0 1012.91
0.0573645 0 1.39162e-07 0 0 0 0 0.00476339 0 1195.39
0.060621 0 1.64232e-07 0 0 0 0 0.00454293 0 1410.75
0.0640622 0 1.93819e-07 0 0 0 0 0.00432265 0 1664.89
0.0676989 0 2.28736e-07 0 0 0 0 0.00410371 0 1964.83
0.071542 0 2.69944e-07 0 0 0 0 0.00388717 0 2318.8
0.0756032 0 3.18575e-07 0 0 0 0 0.00367401 0 2736.54
0.079895 0 3.75967e-07 0 0 0 0 0.0034651 0 3229.53
0.0844305 0 4.43698e-07 0 0 0 0 0.00326121 0 3811.34
0.0892234 0 5.23632e-07 0 0 0 0 0.00306301 0 4497.96
0.0942883 0 6.17966e-07 0 0 0 0 0.00287109 0 5308.28
0.0996408 0 7.29294e-07 0 0 0 0 0.00268591 0 6264.59
0.105297 0 8.60678e-07 0 0 0 0 0.00250785 0 7393.17
0.111275 0 1.01573e-06 0 0 0 0 0.00233721 0 8725.07
0.117591 0 1.19872e-06 0 0 0 0 0.00217419 0 10296.9
0.124267 0 1.41467e-06 0 0 0 0 0.00201893 0 12151.9
0.131321 0 1.66953e-06 0 0 0 0 0.00187147 0 14341.1
0.138776 0 1.9703e-06 0 0 0 0 0.00173182 0 16924.7
0.146654 0 2.32525e-06 0 0 0 0 0.00159991 0 19973.8
0.154979 0 2.74415e-06 0 0 0 0 0.00147563 0 23572.1
0.163777 0 3.23852e-06 0 0 0 0 0.00135884 0 27818.7
0.173074 0 3.82195e-06 0 0 0 0 0.00124933 0 32830.3
0.182899 0 4.51048e-06 0 0 0 0 0.00114689 0 38744.7
0.193281 0 5.32305e-06 0 0 0 0 0.00105127 0 45724.7
0.204254 0 6.28202e-06 0 0 0 0 0.000962209 0 53962.1
0.215848 0 7.41374e-06 0 0 0 0 0.000879423 0 63683.5
0.228102 0 8.74934e-06 0 0 0 0 0.000802624 0 75156.3
0.24105 0 1.03256e-05 0 0 0 0 0.000731515 0 88695.9
0.254734 0 1.21857e-05 0 0 0 0 0.000665798 0 104675
0.269195 0 1.4381e-05 0 0 0 0 0.000605173 0 123532
0.284476 0 1.69718e-05 0 0 0 0 0.000549345 0 145787
0.300625 0 2.00293e-05 0 0 0 0 0.000498021 0 172051
0.317691 0 2.36377e-05 0 0 0 0 0.000450916 0 203046
0.335725 0 2.78961e-05 0 0 0 0 0.000407755 0 239625
0.354784 0 3.29216e-05 0 0 0 0 0.000368269 0 282795
0.374924 0 3.88525e-05 0 0 0 0 0.000332202 0 333741
0.396207 2.33011 4.58519e-05 5.91601e-06 6 2.26533 5.75154e-06 0.000299307 0.118594 393865
0.418699 0 5.41123e-05 0 0 0 0 0.00026935 0 464821
0.442467 0 6.38607e-05 0 0 0 0 0.000242108 0 548560
0.467585 0 7.53654e-05 0 0 0 0 0.00021737 0 647384
0.494129 0 8.89427e-05 0 0 0 0 0.000194938 0 764012
0.522179 0 0.000104966 0 0 0 0 0.000174625 0 901651
0.551822 0 0.000123876 0 0 0 0 0.000156255 0 1.06409e+06
0.583147 5.79839 0.000146192 4.61735e-06 12 6.10284 4.85979e-06 0.000139664 0.396725 1.25578e+06
0.616251 0 0.000172529 0 0 0 0 0.0001247 0 1.48202e+06
0.651234 0 0.000203611 0 0 0 0 0.00011122 0 1.74901e+06
0.688203 12.4597 0.000240292 6.03638e-06 8 12.1497 5.8862e-06 9.90935e-05 0.487328 2.06409e+06
0.72727 0 0.000283581 0 0 0 0 8.81969e-05 0 2.43595e+06
0.768555 0 0.000334669 0 0 0 0 7.84179e-05 0 2.87479e+06
0.812184 13.3894 0.000394961 3.94653e-06 6 13.6756 4.03091e-06 6.96525e-05 0.339962 3.39269e+06
0.85829 0 0.000466114 0 0 0 0 6.1805e-05 0 4.00389e+06
0.907013 1.40298 0.000550086 2.96914e-07 24 1.4299 3.02611e-07 5.47875e-05 0.130065 4.7252e+06
0.958501 6.54744 0.000649185 1.17412e-06 24 6.16393 1.10535e-06 4.85194e-05 0.580776 5.57646e+06
1.01291 0 0.000766138 0 0 0 0 4.29272e-05 0 6.58107e+06
1.07041 0 0.00090416 0 0 0 0 3.79435e-05 0 7.76667e+06
1.13118 9.9539 0.00106705 1.08598e-06 12 9.83163 1.07264e-06 3.3507e-05 0.388925 9.16586e+06
1.19539 4.08445 0.00125928 3.77591e-07 30 4.00025 3.69807e-07 2.9562e-05 0.383186 1.08171e+07
1.26325 11.3434 0.00148614 8.88574e-07 24 11.1727 8.75203e-07 2.60578e-05 0.818402 1.27658e+07
1.33496 16.3582 0.00175387 1.0858e-06 24 16.3942 1.08818e-06 2.29484e-05 1.13555 1.50656e+07
1.41075 14.5704 0.00206984 8.19493e-07 32 14.8011 8.32468e-07 2.01923e-05 1.2987 1.77798e+07
1.49083 4.14059 0.00244272 1.97332e-07 48 4.05232 1.93125e-07 1.77518e-05 0.533578 2.09828e+07
1.57546 46.6943 0.00288279 1.88565e-06 6 44.4635 1.79557e-06 1.55929e-05 0.725583 2.4763e+07
1.66489 5.96459 0.00340213 2.04099e-07 84 5.78113 1.97821e-07 1.3685e-05 1.25278 2.92241e+07
1.75941 10.0271 0.00401503 2.90736e-07 48 9.82734 2.84942e-07 1.20007e-05 1.16288 3.44889e+07
1.85928 7.02991 0.00473835 1.72716e-07 72 7.06021 1.73461e-07 1.05151e-05 1.18264 4.07021e+07
1.96483 16.8036 0.00559198 3.49823e-07 54 16.3637 3.40664e-07 9.20606e-06 2.05196 4.80347e+07
2.07637 16.3298 0.00659939 2.88063e-07 104 16.4876 2.90847e-07 8.05366e-06 3.71987 5.66883e+07
2.19424 10.7801 0.00778828 1.61136e-07 120 10.9327 1.63417e-07 7.04008e-06 2.74661 6.69008e+07
2.3188 12.1189 0.00919136 1.53495e-07 156 11.7942 1.49382e-07 6.1494e-06 3.89391 7.89532e+07
2.45043 10.8822 0.0108472 1.16791e-07 126 10.8562 1.16512e-07 5.36741e-06 2.74167 9.31768e+07
2.58954 14.4537 0.0128014 1.31441e-07 192 14.4717 1.31606e-07 4.68145e-06 5.3908 1.09963e+08
2.73654 35.7169 0.0151076 2.75226e-07 152 35.9558 2.77067e-07 4.08023e-06 10.2529 1.29773e+08
2.89188 14.6133 0.0178292 9.5417e-08 378 14.6231 9.5481e-08 3.55373e-06 10.1492 1.53152e+08
3.05605 19.5811 0.0210412 1.08337e-07 264 19.3844 1.07249e-07 3.09304e-06 9.24686 1.80743e+08
3.22953 21.6371 0.0248319 1.01438e-07 366 21.503 1.00809e-07 2.69025e-06 13.8003 2.13304e+08
3.41286 19.0566 0.0293054 7.57023e-08 428 18.9238 7.51746e-08 2.33837e-06 13.856 2.51731e+08
3.6066 23.275 0.0345848 7.83457e-08 486 22.9581 7.7279e-08 2.0312e-06 18.7455 2.97081e+08
3.81134 21.6563 0.0408154 6.1769e-08 600 21.7098 6.19215e-08 1.76327e-06 21.0186 3.50601e+08
4.0277 28.592 0.0481684 6.91024e-08 738 28.572 6.90541e-08 1.52972e-06 33.3378 4.13763e+08
4.25634 29.5225 0.056846 6.04593e-08 824 29.3992 6.02067e-08 1.32631e-06 37.5618 4.88304e+08
4.49796 30.8357 0.067087 5.35089e-08 954 30.4696 5.28736e-08 1.14926e-06 44.4179 5.76273e+08
4.7533 35.2977 0.0791729 5.19014e-08 1094 35.0753 5.15745e-08 9.95263e-07 57.0504 6.8009e+08
5.02313 37.5253 0.0934361 4.67541e-08 1332 37.5534 4.67891e-08 8.61414e-07 72.2955 8.0261e+08
5.30828 43.3146 0.110269 4.5729e-08 1614 43.2529 4.56638e-08 7.45152e-07 99.049 9.47202e+08
5.60962 49.9929 0.130134 4.47226e-08 1850 49.9589 4.46922e-08 6.44232e-07 128.427 1.11784e+09
5.92807 43.9 0.153578 3.32771e-08 2238 43.7866 3.31911e-08 5.56685e-07 133.781 1.31923e+09
6.26459 47.5814 0.181246 3.05619e-08 2546 47.6799 3.06252e-08 4.80786e-07 161.84 1.55689e+09
6.62021 48.1084 0.213898 2.61834e-08 3264 48.1109 2.61847e-08 4.15026e-07 205.921 1.83737e+09
6.99602 52.0333 0.252432 2.39965e-08 3506 52.0882 2.40218e-08 3.58083e-07 234.95 2.16837e+09
7.39317 58.5662 0.297908 2.28863e-08 4506 58.6264 2.29098e-08 3.08803e-07 333.952 2.55901e+09
7.81286 62.8599 0.351577 2.08144e-08 5018 62.5751 2.07201e-08 2.66181e-07 392.389 3.02002e+09
8.25637 66.2746 0.414914 1.85951e-08 5852 66.2665 1.85928e-08 2.29336e-07 474.494 3.56409e+09
8.72507 70.9195 0.489662 1.68608e-08 7362 70.8062 1.68339e-08 1.97503e-07 628.495 4.20617e+09
9.22037 74.0096 0.577876 1.49095e-08 8306 73.774 1.4862e-08 1.70014e-07 728.401 4.96392e+09
9.74378 83.0173 0.681982 1.41712e-08 9698 82.908 1.41525e-08 1.46289e-07 939.455 5.85818e+09
10.2969 84.4883 0.804843 1.22207e-08 11816 84.4126 1.22097e-08 1.25822e-07 1147.65 6.91355e+09
10.8814 99.5121 0.949838 1.21965e-08 13682 99.2173 1.21604e-08 1.08175e-07 1542.61 8.15905e+09
11.4992 97.2039 1.12095 1.0095e-08 16152 97.1664 1.00911e-08 9.29669e-08 1753.9 9.62892e+09
12.1519 105.209 1.3229 9.25839e-09 19472 105.05 9.24442e-09 7.98658e-08 2257.28 1.13636e+10
12.8418 109.054 1.56122 8.13179e-09 22670 108.772 8.11081e-09 6.85852e-08 2687.86 1.34108e+10
13.5708 115.521 1.84248 7.29907e-09 26224 115.412 7.29221e-09 5.88765e-08 3251.06 1.58268e+10
14.3411 125.757 2.17441 6.73287e-09 31640 125.653 6.72734e-09 5.05241e-08 4216.36 1.8678e+10
15.1552 132.484 2.56613 6.0103e-09 37484 132.284 6.00122e-09 4.33417e-08 5198 2.20429e+10
16.0156 142.513 3.02843 5.47833e-09 43856 142.329 5.47127e-09 3.71677e-08 6464.15 2.6014e+10
16.9247 150.934 3.574 4.91633e-09 51362 150.767 4.91091e-09 3.18628e-08 7924.99 3.07005e+10
17.8855 159.639 4.21787 4.40611e-09 61636 159.394 4.39935e-09 2.73063e-08 9945.51 3.62312e+10
18.9008 169.213 4.97773 3.95742e-09 72218 168.75 3.9466e-09 2.33941e-08 12216.6 4.27584e+10
19.9738 181.185 5.87448 3.59056e-09 84586 180.909 3.58508e-09 2.00364e-08 15158 5.04614e+10
21.1076 191.375 6.93279 3.21357e-09 100708 191.1 3.20895e-09 1.71555e-08 18864.6 5.95522e+10
22.3058 205.828 8.18175 2.92865e-09 118712 205.437 2.9231e-09 1.46847e-08 23675.5 7.02807e+10
23.5721 213.703 9.65571 2.57654e-09 140410 213.276 2.57139e-09 1.25662e-08 28789.4 8.29419e+10
24.9102 227.277 11.3952 2.3219e-09 164374 226.901 2.31806e-09 1.07504e-08 35502 9.78842e+10
26.3243 239.001 13.4481 2.06894e-09 194680 238.68 2.06617e-09 9.19452e-09 43806.7 1.15518e+11
27.8187 252.861 15.8708 1.85479e-09 230196 252.473 1.85194e-09 7.86182e-09 54308.5 1.36329e+11
29.3979 267.281 18.73 1.66127e-09 271156 266.907 1.65895e-09 6.72061e-09 67027.2 1.60889e+11
31.0667 283.406 22.1042 1.4926e-09 321076 282.821 1.48952e-09 5.74366e-09 83437.8 1.89874e+11
32.8303 300.275 26.0864 1.34003e-09 377436 299.759 1.33773e-09 4.90756e-09 103061 2.2408e+11
34.694 316.379 30.7859 1.19637e-09 447594 315.819 1.19425e-09 4.19221e-09 127734 2.64449e+11
36.6634 332.412 36.3321 1.06512e-09 525078 331.862 1.06335e-09 3.58032e-09 156206 3.1209e+11
38.7447 351.34 42.8774 9.53916e-10 621924 350.644 9.52025e-10 3.05709e-09 194062 3.68314e+11
40.9442 370.202 50.6018 8.51693e-10 732630 369.517 8.50116e-10 2.60976e-09 239093 4.34667e+11
43.2685 391.83 59.7179 7.63842e-10 865596 391.141 7.62499e-10 2.22743e-09 296835 5.12973e+11
45.7247 410.619 70.4762 6.78276e-10 1.02168e+06 409.936 6.77147e-10 1.90073e-09 364585 6.05386e+11
48.3204 429.612 83.1727 6.0132e-10 1.20544e+06 428.863 6.00271e-10 1.62163e-09 446990 7.14448e+11
51.0634 451.676 98.1565 5.35696e-10 1.42103e+06 450.876 5.34747e-10 1.38326e-09 550325 8.43158e+11
53.9621 475.442 115.84 4.77804e-10 1.67997e+06 474.627 4.76986e-10 1.1797e-09 680422 9.95055e+11
57.0254 500.173 136.709 4.25927e-10 1.98018e+06 499.278 4.25164e-10 1.00592e-09 838449 1.17432e+12
60.2626 523.54 161.337 3.77769e-10 2.33957e+06 522.63 3.77112e-10 8.57591e-10 1.03058e+06 1.38587e+12
63.6835 551.175 190.402 3.36998e-10 2.75676e+06 550.186 3.36393e-10 7.3101e-10 1.27088e+06 1.63554e+12
67.2987 579.566 224.704 3.00264e-10 3.25638e+06 578.591 2.99758e-10 6.23009e-10 1.56944e+06 1.93019e+12
71.1191 608.389 265.185 2.67081e-10 3.84387e+06 607.345 2.66623e-10 5.30879e-10 1.93382e+06 2.27792e+12
75.1563 640.817 312.958 2.38373e-10 4.53277e+06 639.705 2.3796e-10 4.52303e-10 2.38886e+06 2.68829e+12
79.4227 674.011 369.339 2.12448e-10 5.35083e+06 672.818 2.12072e-10 3.85299e-10 2.95036e+06 3.17259e+12
83.9313 709.983 435.876 1.89625e-10 6.32174e+06 708.712 1.89285e-10 3.28173e-10 3.65283e+06 3.74415e+12
88.6959 749.764 514.4 1.69681e-10 7.44986e+06 748.384 1.69369e-10 2.79476e-10 4.5231e+06 4.41866e+12
93.7309 792.099 607.071 1.51897e-10 8.79764e+06 790.674 1.51624e-10 2.37972e-10 5.61551e+06 5.2147e+12
99.0518 839.284 716.436 1.36377e-10 1.03827e+07 837.727 1.36124e-10 2.02605e-10 6.98879e+06 6.15414e+12
104.675 891.154 845.504 1.22701e-10 1.22515e+07 889.428 1.22463e-10 1.72471e-10 8.71608e+06 7.26283e+12
110.617 951.431 997.824 1.11003e-10 1.44573e+07 949.555 1.10784e-10 1.468e-10 1.09319e+07 8.57124e+12
116.896 1020.49 1177.58 1.00885e-10 1.70664e+07 1018.35 1.00674e-10 1.24935e-10 1.37811e+07 1.01154e+13
123.532 1099.21 1389.73 9.20792e-11 2.0139e+07 1096.85 9.18815e-11 1.06313e-10 1.74426e+07 1.19377e+13
130.545 1192.41 1640.09 8.46387e-11 2.37643e+07 1189.78 8.4452e-11 9.04567e-11 2.22358e+07 1.40883e+13
137.955 1300.2 1935.56 7.82014e-11 2.80503e+07 1297.22 7.80219e-11 7.69563e-11 2.85041e+07 1.66263e+13
145.787 1428.67 2284.26 7.28113e-11 3.30981e+07 1425.24 7.26363e-11 6.54636e-11 3.68131e+07 1.96216e+13
154.063 1579.98 2695.77 6.82304e-11 3.90634e+07 1576.06 6.80614e-11 5.56812e-11 4.78674e+07 2.31565e+13
162.808 1759.79 3181.42 6.43944e-11 4.61057e+07 1755.19 6.42264e-11 4.73556e-11 6.26948e+07 2.73282e+13
172.051 1973.01 3754.56 6.11759e-11 5.44046e+07 1967.69 6.10109e-11 4.02708e-11 8.26467e+07 3.22515e+13
181.818 2229.27 4430.96 5.857e-11 6.42064e+07 2223.07 5.8407e-11 3.42426e-11 1.09821e+08 3.80616e+13
192.139 2532.71 5229.21 5.63845e-11 7.57748e+07 2525.45 5.62229e-11 2.91139e-11 1.46752e+08 4.49186e+13
203.046 2898.35 6171.26 5.46747e-11 8.94213e+07 2889.76 5.45127e-11 2.4751e-11 1.9753e+08 5.30108e+13
214.572 3335.02 7283.03 5.33084e-11 1.05538e+08 3324.86 5.31461e-11 2.10401e-11 2.67398e+08 6.25608e+13
226.753 3862.9 8595.09 5.23206e-11 1.24552e+08 3850.86 5.21576e-11 1.78839e-11 3.64385e+08 7.38313e+13
239.625 4496.15 10143.5 5.16015e-11 1.46987e+08 4481.81 5.14369e-11 1.51999e-11 4.99e+08 8.71322e+13
253.228 5263.08 11970.9 5.11827e-11 1.7347e+08 5245.86 5.10153e-11 1.29176e-11 6.8733e+08 1.02829e+14
267.603 6192.56 14127.5 5.10287e-11 2.04703e+08 6171.92 5.08587e-11 1.09771e-11 9.5159e+08 1.21354e+14
282.795 7325.38 16672.6 5.1149e-11 2.4161e+08 7300.39 5.09745e-11 9.3274e-12 1.32492e+09 1.43217e+14
298.848 8722.1 19676.2 5.16048e-11 2.85122e+08 8691.42 5.14232e-11 7.925e-12 1.85662e+09 1.69017e+14
315.813 10457.1 23220.9 5.24252e-11 3.36491e+08 10419.2 5.22354e-11 6.73295e-12 2.62005e+09 1.99466e+14
333.741 12657.8 27404.3 5.37713e-11 3.97115e+08 12610.1 5.35687e-11 5.71979e-12 3.73324e+09 2.35401e+14
352.686 15504 32341.2 5.58082e-11 4.68637e+08 15442.8 5.55879e-11 4.85874e-12 5.38283e+09 2.77809e+14
372.707 19297.9 38167.6 5.88609e-11 5.53074e+08 19216.9 5.86137e-11 4.12703e-12 7.8881e+09 3.27857e+14
393.865 24549.9 45043.5 6.34495e-11 6.52716e+08 24438.4 6.31612e-11 3.50528e-12 1.18149e+10 3.86921e+14
416.224 28978.4 53158.3 6.3462e-11 2.2184e+08 30656.4 6.71367e-11 2.97701e-12 4.72904e+09 4.56626e+14
439.852 0 62734.9 0 0 0 0 2.52819e-12 0 5.38888e+14
464.821 0 74036.7 0 0 0 0 2.1469e-12 0 6.35971e+14
491.207 0 87374.6 0 0 0 0 1.82301e-12 0 7.50542e+14
519.092 0 103115 0 0 0 0 1.54789e-12 0 8.85755e+14
548.56 0 121692 0 0 0 0 1.31422e-12 0 1.04533e+15
579.7 0 143615 0 0 0 0 1.11576e-12 0 1.23364e+15
612.608 0 169488 0 0 0 0 9.47223e-13 0 1.45589e+15
647.384 0 200021 0 0 0 0 8.041e-13 0 1.71817e+15
684.134 0 236056 0 0 0 0 6.82568e-13 0 2.0277e+15
722.971 0 278582 0 0 0 0 5.79376e-13 0 2.393e+15
764.012 0 328769 0 0 0 0 4.91762e-13 0 2.8241e+15
1
200
1.0655e+09
8589934592
0.0129181 0.00184073 1.58924e-09 0.000134838 6 0.00182388 0.000133603 0.00677225 0.119462 13.6515
0.0136515 0 1.87554e-09 0 0 0 0 0.00688819 0 16.1108
0.0144264 0 2.21343e-09 0 0 0 0 0.00699249 0 19.0132
0.0152454 0 2.61218e-09 0 0 0 0 0.00708412 0 22.4385
0.0161108 0 3.08278e-09 0 0 0 0 0.00716212 0 26.4808
0.0170254 0 3.63815e-09 0 0 0 0 0.00722559 0 31.2514
0.0179919 0.00417376 4.29357e-09 0.000113167 12 0.00416838 0.000113021 0.00727371 0.1867 36.8815
0.0190132 0 5.06707e-09 0 0 0 0 0.00730578 0 43.5258
0.0200925 0 5.97991e-09 0 0 0 0 0.00732122 0 51.367
0.0212331 0.00399157 7.05721e-09 6.58447e-05 8 0.00398809 6.57874e-05 0.00731958 0.0719656 60.621
0.0224385 0 8.32858e-09 0 0 0 0 0.00730056 0 71.542
0.0237123 0 9.829e-09 0 0 0 0 0.00726401 0 84.4305
0.0250583 0.0253239 1.15997e-08 0.000254151 6 0.0253119 0.000254032 0.00720995 0.2115 99.6408
0.0264808 0 1.36894e-08 0 0 0 0 0.00713857 0 117.591
0.0279841 0.015688 1.61556e-08 0.000113046 24 0.0156719 0.00011293 0.00705021 0.384825 138.776
0.0295727 0 1.90661e-08 0 0 0 0 0.00694538 0 163.777
0.0312514 0.0279296 2.25009e-08 0.000144502 24 0.0280714 0.000145236 0.00682475 0.508159 193.281
0.0330255 0 2.65545e-08 0 0 0 0 0.00668915 0 228.102
0.0349003 0.0428549 3.13384e-08 0.000159197 12 0.0425118 0.000157922 0.00653951 0.292126 269.195
0.0368815 0.0342336 3.69841e-08 0.000107757 30 0.033869 0.00010661 0.00637693 0.506941 317.691
0.0389751 0.0387499 4.36469e-08 0.000103354 24 0.0383513 0.000102291 0.00620256 0.399916 374.924
0.0411876 0.0249238 5.151e-08 5.63292e-05 24 0.0247545 5.59466e-05 0.00601767 0.224655 442.467
0.0435258 0.0623618 6.07896e-08 0.000119426 8 0.062357 0.000119417 0.00582358 0.164059 522.179
0.0459966 0.076614 7.1741e-08 0.000124323 72 0.0760095 0.000123342 0.00562166 1.59228 616.251
0.0486077 0 8.46654e-08 0 0 0 0 0.0054133 0 727.27
0.051367 0.10503 9.99181e-08 0.000122372 54 0.104681 0.000121965 0.00519989 1.27081 858.29
0.054283 0.0853266 1.17919e-07 8.42388e-05 60 0.0857158 8.4623e-05 0.0049828 1.01435 1012.91
0.0573645 0.0794634 1.39162e-07 6.64748e-05 96 0.0792585 6.63034e-05 0.00476339 1.33971 1195.39
0.060621 0.0950126 1.64232e-07 6.73492e-05 24 0.0937254 6.64368e-05 0.00454293 0.355802 1410.75
0.0640622 0.162938 1.93819e-07 9.78668e-05 134 0.163008 9.7909e-05 0.00432265 3.03382 1664.89
0.0676989 0.160322 2.28736e-07 8.15959e-05 120 0.159534 8.11949e-05 0.00410371 2.38601 1964.83
0.071542 0.151843 2.69944e-07 6.54836e-05 108 0.150157 6.47565e-05 0.00388717 1.81938 2318.8
0.0756032 0.22524 3.18575e-07 8.23083e-05 174 0.223984 8.18494e-05 0.00367401 3.89809 2736.54
0.079895 0.236256 3.75967e-07 7.3155e-05 168 0.234031 7.2466e-05 0.0034651 3.54681 3229.53
0.0844305 0.196957 4.43698e-07 5.16765e-05 168 0.197931 5.19321e-05 0.00326121 2.6621 3811.34
0.0892234 0.238069 5.23632e-07 5.29281e-05 290 0.236936 5.26763e-05 0.00306301 5.01113 4497.96
0.0942883 0.28559 6.17966e-07 5.38009e-05 288 0.28498 5.36859e-05 0.00287109 5.39679 5308.28
0.0996408 0.256593 7.29294e-07 4.09593e-05 366 0.254636 4.0647e-05 0.00268591 5.58139 6264.59
0.105297 0.30399 8.60678e-07 4.11177e-05 420 0.301803 4.08219e-05 0.00250785 6.88615 7393.17
0.111275 0.32567 1.01573e-06 3.73258e-05 398 0.32477 3.72227e-05 0.00233721 6.35614 8725.07
0.117591 0.38746 1.19872e-06 3.76287e-05 624 0.388569 3.77364e-05 0.00217419 10.7996 10296.9
0.124267 0.453212 1.41467e-06 3.72955e-05 642 0.452158 3.72088e-05 0.00201893 11.8596 12151.9
0.131321 0.531429 1.66953e-06 3.70563e-05 800 0.531517 3.70624e-05 0.00187147 15.8405 14341.1
0.138776 0.494624 1.9703e-06 2.92249e-05 858 0.496702 2.93477e-05 0.00173182 14.479 16924.7
0.146654 0.579566 2.32525e-06 2.90164e-05 1080 0.584353 2.9256e-05 0.00159991 19.5871 19973.8
0.154979 0.675937 2.74415e-06 2.86753e-05 1286 0.680151 2.88541e-05 0.00147563 24.9902 23572.1
0.163777 0.665582 3.23852e-06 2.39257e-05 1650 0.667512 2.39951e-05 0.00135884 29.0524 27818.7
0.173074 0.741059 3.82195e-06 2.25724e-05 1778 0.741649 2.25904e-05 0.00124933 32.1242 32830.3
0.182899 0.809455 4.51048e-06 2.0892e-05 2112 0.811257 2.09385e-05 0.00114689 38.4726 38744.7
0.193281 0.893611 5.32305e-06 1.95433e-05 2570 0.894236 1.9557e-05 0.00105127 47.7766 45724.7
0.204254 1.04906 6.28202e-06 1.94407e-05 3030 1.04834 1.94273e-05 0.000962209 61.2189 53962.1
0.215848 1.09935 7.41374e-06 1.72627e-05 3434 1.09889 1.72555e-05 0.000879423 67.408 63683.5
0.228102 1.17276 8.74934e-06 1.56043e-05 4218 1.17193 1.55932e-05 0.000802624 82.0045 75156.3
0.24105 1.30837 1.03256e-05 1.47512e-05 4766 1.30916 1.47601e-05 0.000731515 96.1074 88695.9
0.254734 1.4311 1.21857e-05 1.36718e-05 6026 1.43102 1.36711e-05 0.000665798 123.741 104675
0.269195 1.64261 1.4381e-05 1.3297e-05 6480 1.64111 1.32849e-05 0.000605173 142.38 123532
0.284476 1.77192 1.69718e-05 1.21542e-05 8162 1.77487 1.21744e-05 0.000549345 180.583 145787
0.300625 1.96846 2.00293e-05 1.14412e-05 9578 1.96904 1.14445e-05 0.000498021 220.038 172051
0.317691 2.19927 2.36377e-05 1.08314e-05 11234 2.19752 1.08228e-05 0.000450916 269.85 203046
0.335725 2.36437 2.78961e-05 9.86693e-06 13344 2.36001 9.84876e-06 0.000407755 322.9 239625
0.354784 2.68531 3.29216e-05 9.49562e-06 15464 2.68351 9.48926e-06 0.000368269 398.731 282795
0.374924 2.92157 3.88525e-05 8.75401e-06 18458 2.91847 8.74473e-06 0.000332202 486.396 333741
0.396207 3.39338 4.58519e-05 8.61559e-06 22232 3.38754 8.60078e-06 0.000299307 639.951 393865
0.418699 3.65706 5.41123e-05 7.86767e-06 25628 3.64802 7.84823e-06 0.00026935 748.59 464821
0.442467 4.02917 6.38607e-05 7.34499e-06 30320 4.02212 7.33214e-06 0.000242108 919.839 548560
0.467585 4.57168 7.53654e-05 7.06178e-06 35452 4.5631 7.04852e-06 0.00021737 1151.74 647384
0.494129 5.08473 8.89427e-05 6.6553e-06 41792 5.07872 6.64744e-06 0.000194938 1426.8 764012
0.522179 5.73641 0.000104966 6.36212e-06 49988 5.73531 6.3609e-06 0.000174625 1821.22 901651
0.551822 6.45235 0.000123876 6.06375e-06 59110 6.44355 6.05548e-06 0.000156255 2293.87 1.06409e+06
0.583147 7.20808 0.000146192 5.73991e-06 69716 7.19645 5.73064e-06 0.000139664 2865.19 1.25578e+06
0.616251 8.09594 0.000172529 5.46279e-06 82210 8.07985 5.45193e-06 0.0001247 3601.41 1.48202e+06
0.651234 8.9392 0.000203611 5.11102e-06 96722 8.9195 5.09975e-06 0.00011122 4444.76 1.74901e+06
0.688203 10.178 0.000240292 4.93096e-06 113098 10.1612 4.92282e-06 9.90935e-05 5627.84 2.06409e+06
0.72727 11.4523 0.000283581 4.70138e-06 135190 11.435 4.69429e-06 8.81969e-05 7206.36 2.43595e+06
0.768555 12.8056 0.000334669 4.45447e-06 158170 12.7839 4.44691e-06 7.84179e-05 8984.72 2.87479e+06
0.812184 14.4104 0.000394961 4.24748e-06 188560 14.387 4.24059e-06 6.96525e-05 11498.6 3.39269e+06
0.85829 16.1497 0.000466114 4.03351e-06 220444 16.1225 4.02672e-06 6.1805e-05 14386.6 4.00389e+06
0.907013 18.0583 0.000550086 3.8217e-06 261388 18.0278 3.81525e-06 5.47875e-05 18233.1 4.7252e+06
0.958501 20.2742 0.000649185 3.63567e-06 308244 20.2419 3.62989e-06 4.85194e-05 23097.4 5.57646e+06
1.01291 22.7481 0.000766138 3.4566e-06 364396 22.7087 3.45061e-06 4.29272e-05 29342.1 6.58107e+06
1.07041 25.384 0.00090416 3.26833e-06 429162 25.3371 3.26229e-06 3.79435e-05 36966.6 7.76667e+06
1.13118 28.3561 0.00106705 3.09367e-06 506358 28.3059 3.08819e-06 3.3507e-05 46751.5 9.16586e+06
1.19539 31.7129 0.00125928 2.93173e-06 598590 31.6534 2.92623e-06 2.9562e-05 59363.5 1.08171e+07
1.26325 35.2722 0.00148614 2.76301e-06 704844 35.2098 2.75813e-06 2.60578e-05 74737.4 1.27658e+07
1.33496 39.2296 0.00175387 2.60391e-06 834620 39.1532 2.59884e-06 2.29484e-05 94702.4 1.50656e+07
1.41075 43.5631 0.00206984 2.45015e-06 981444 43.481 2.44553e-06 2.01923e-05 119089 1.77798e+07
1.49083 48.1551 0.00244272 2.29498e-06 1.15998e+06 48.0675 2.2908e-06 1.77518e-05 149964 2.09828e+07
1.57546 53.1984 0.00288279 2.14831e-06 1.36931e+06 53.1028 2.14445e-06 1.55929e-05 188657 2.4763e+07
1.66489 58.6578 0.00340213 2.00718e-06 1.61652e+06 58.5496 2.00347e-06 1.3685e-05 237094 2.92241e+07
1.75941 64.56 0.00401503 1.87191e-06 1.90601e+06 64.4396 1.86842e-06 1.20007e-05 297306 3.44889e+07
1.85928 70.9359 0.00473835 1.74281e-06 2.24913e+06 70.8043 1.73957e-06 1.05151e-05 372777 4.07021e+07
1.96483 77.5846 0.00559198 1.61518e-06 2.65744e+06 77.4437 1.61224e-06 9.20606e-06 466240 4.80347e+07
2.07637 84.5725 0.00659939 1.49189e-06 3.13125e+06 84.4234 1.48926e-06 8.05366e-06 580043 5.66883e+07
2.19424 92.4849 0.00778828 1.38242e-06 3.69915e+06 92.3174 1.37991e-06 7.04008e-06 726380 6.69008e+07
2.3188 100.517 0.00919136 1.27312e-06 4.36472e+06 100.341 1.27089e-06 6.1494e-06 903638 7.89532e+07
2.45043 109.298 0.0108472 1.17301e-06 5.14913e+06 109.105 1.17094e-06 5.36741e-06 1.12531e+06 9.31768e+07
2.58954 118.519 0.0128014 1.07781e-06 6.07894e+06 118.322 1.07602e-06 4.68145e-06 1.39955e+06 1.09963e+08
2.73654 128.484 0.0151076 9.9007e-07 7.17304e+06 128.258 9.88324e-07 4.08023e-06 1.74054e+06 1.29773e+08
2.89188 139.057 0.0178292 9.0797e-07 8.46557e+06 138.82 9.06422e-07 3.55373e-06 2.16293e+06 1.53152e+08
3.05605 150.11 0.0210412 8.30518e-07 9.98773e+06 149.854 8.29104e-07 3.09304e-06 2.68183e+06 1.80743e+08
3.22953 161.937 0.0248319 7.59182e-07 1.1797e+07 161.663 7.57898e-07 2.69025e-06 3.32909e+06 2.13304e+08
3.41286 174.351 0.0293054 6.92608e-07 1.39144e+07 174.044 6.91387e-07 2.33837e-06 4.12134e+06 2.51731e+08
3.6066 187.637 0.0345848 6.31603e-07 1.64163e+07 187.314 6.30513e-07 2.0312e-06 5.10465e+06 2.97081e+08
3.81134 201.741 0.0408154 5.75415e-07 1.93821e+07 201.404 5.74453e-07 1.76327e-06 6.32507e+06 3.50601e+08
4.0277 216.573 0.0481684 5.23423e-07 2.28754e+07 216.205 5.22533e-07 1.52972e-06 7.82725e+06 4.13763e+08
4.25634 232.19 0.056846 4.75503e-07 2.69929e+07 231.795 4.74694e-07 1.32631e-06 9.6774e+06 4.88304e+08
4.49796 248.739 0.067087 4.31635e-07 3.18542e+07 248.316 4.309e-07 1.14926e-06 1.19637e+07 5.76273e+08
4.7533 266.363 0.0791729 3.91658e-07 3.75892e+07 265.908 3.90989e-07 9.95263e-07 1.47922e+07 6.8009e+08
5.02313 284.484 0.0934361 3.54448e-07 4.43706e+07 284.011 3.53859e-07 8.61414e-07 1.82573e+07 8.0261e+08
5.30828 303.548 0.110269 3.20468e-07 5.23593e+07 303.035 3.19927e-07 7.45152e-07 2.25182e+07 9.47202e+08
5.60962 324.092 0.130134 2.89926e-07 6.1787e+07 323.545 2.89437e-07 6.44232e-07 2.78062e+07 1.11784e+09
5.92807 345.415 0.153578 2.61832e-07 7.29346e+07 344.829 2.61388e-07 5.56685e-07 3.43041e+07 1.31923e+09
6.26459 367.703 0.181246 2.36178e-07 8.60651e+07 367.083 2.3578e-07 4.80786e-07 4.2278e+07 1.55689e+09
6.62021 391.252 0.213898 2.12942e-07 1.01558e+08 390.59 2.12582e-07 4.15026e-07 5.21076e+07 1.83737e+09
6.99602 415.779 0.252432 1.91747e-07 1.1986e+08 415.081 1.91425e-07 3.58083e-07 6.41829e+07 2.16837e+09
7.39317 441.674 0.297908 1.72596e-07 1.41457e+08 440.935 1.72307e-07 3.08803e-07 7.90626e+07 2.55901e+09
7.81286 468.682 0.351577 1.55192e-07 1.66936e+08 467.904 1.54934e-07 2.66181e-07 9.73287e+07 3.02002e+09
8.25637 497.095 0.414914 1.39473e-07 1.97025e+08 496.263 1.3924e-07 2.29336e-07 1.19823e+08 3.56409e+09
8.72507 527.034 0.489662 1.253e-07 2.32497e+08 526.146 1.25089e-07 1.97503e-07 1.47501e+08 4.20617e+09
9.22037 559.154 0.577876 1.12644e-07 2.74404e+08 558.2 1.12452e-07 1.70014e-07 1.81808e+08 4.96392e+09
9.74378 594.17 0.681982 1.01426e-07 3.2382e+08 593.135 1.01249e-07 1.46289e-07 2.24512e+08 5.85818e+09
10.2969 633.719 0.804843 9.16633e-08 3.82165e+08 632.577 9.14982e-08 1.25822e-07 2.78412e+08 6.91355e+09
10.8814 680.796 0.949838 8.34406e-08 4.51027e+08 679.477 8.3279e-08 1.08175e-07 3.47897e+08 8.15905e+09
11.4992 740.718 1.12095 7.69264e-08 5.32251e+08 739.125 7.67609e-08 9.29669e-08 4.40416e+08 9.62892e+09
12.1519 824.852 1.3229 7.25872e-08 6.28157e+08 822.765 7.24036e-08 7.98658e-08 5.7091e+08 1.13636e+10
12.8418 918.492 1.56122 6.84891e-08 3.82727e+08 950.666 7.08882e-08 6.85852e-08 3.8219e+08 1.34108e+10
13.5708 0 1.84248 0 0 0 0 5.88765e-08 0 1.58268e+10
14.3411 0 2.17441 0 0 0 0 5.05241e-08 0 1.8678e+10
15.1552 0 2.56613 0 0 0 0 4.33417e-08 0 2.20429e+10
16.0156 0 3.02843 0 0 0 0 3.71677e-08 0 2.6014e+10
16.9247 0 3.574 0 0 0 0 3.18628e-08 0 3.07005e+10
17.8855 0 4.21787 0 0 0 0 2.73063e-08 0 3.62312e+10
18.9008 0 4.97773 0 0 0 0 2.33941e-08 0 4.27584e+10
19.9738 0 5.87448 0 0 0 0 2.00364e-08 0 5.04614e+10
21.1076 0 6.93279 0 0 0 0 1.71555e-08 0 5.95522e+10
22.3058 0 8.18175 0 0 0 0 1.46847e-08 0 7.02807e+10
23.5721 0 9.65571 0 0 0 0 1.25662e-08 0 8.29419e+10
24.9102 0 11.3952 0 0 0 0 1.07504e-08 0 9.78842e+10
26.3243 0 13.4481 0 0 0 0 9.19452e-09 0 1.15518e+11
27.8187 0 15.8708 0 0 0 0 7.86182e-09 0 1.36329e+11
29.3979 0 18.73 0 0 0 0 6.72061e-09 0 1.60889e+11
31.0667 0 22.1042 0 0 0 0 5.74366e-09 0 1.89874e+11
32.8303 0 26.0864 0 0 0 0 4.90756e-09 0 2.2408e+11
34.694 0 30.7859 0 0 0 0 4.19221e-09 0 2.64449e+11
36.6634 0 36.3321 0 0 0 0 3.58032e-09 0 3.1209e+11
38.7447 0 42.8774 0 0 0 0 3.05709e-09 0 3.68314e+11
40.9442 0 50.6018 0 0 0 0 2.60976e-09 0 4.34667e+11
43.2685 0 59.7179 0 0 0 0 2.22743e-09 0 5.12973e+11
45.7247 0 70.4762 0 0 0 0 1.90073e-09 0 6.05386e+11
48.3204 0 83.1727 0 0 0 0 1.62163e-09 0 7.14448e+11
51.0634 0 98.1565 0 0 0 0 1.38326e-09 0 8.43158e+11
53.9621 0 115.84 0 0 0 0 1.1797e-09 0 9.95055e+11
57.0254 0 136.709 0 0 0 0 1.00592e-09 0 1.17432e+12
60.2626 0 161.337 0 0 0 0 8.57591e-10 0 1.38587e+12
63.6835 0 190.402 0 0 0 0 7.3101e-10 0 1.63554e+12
67.2987 0 224.704 0 0 0 0 6.23009e-10 0 1.93019e+12
71.1191 0 265.185 0 0 0 0 5.30879e-10 0 2.27792e+12
75.1563 0 312.958 0 0 0 0 4.52303e-10 0 2.68829e+12
79.4227 0 369.339 0 0 0 0 3.85299e-10 0 3.17259e+12
83.9313 0 435.876 0 0 0 0 3.28173e-10 0 3.74415e+12
88.6959 0 514.4 0 0 0 0 2.79476e-10 0 4.41866e+12
93.7309 0 607.071 0 0 0 0 2.37972e-10 0 5.2147e+12
99.0518 0 716.436 0 0 0 0 2.02605e-10 0 6.15414e+12
104.675 0 845.504 0 0 0 0 1.72471e-10 0 7.26283e+12
110.617 0 997.824 0 0 0 0 1.468e-10 0 8.57124e+12
116.896 0 1177.58 0 0 0 0 1.24935e-10 0 1.01154e+13
123.532 0 1389.73 0 0 0 0 1.06313e-10 0 1.19377e+13
130.545 0 1640.09 0 0 0 0 9.04567e-11 0 1.40883e+13
137.955 0 1935.56 0 0 0 0 7.69563e-11 0 1.66263e+13
145.787 0 2284.26 0 0 0 0 6.54636e-11 0 1.96216e+13
154.063 0 2695.77 0 0 0 0 5.56812e-11 0 2.31565e+13
162.808 0 3181.42 0 0 0 0 4.73556e-11 0 2.73282e+13
172.051 0 3754.56 0 0 0 0 4.02708e-11 0 3.22515e+13
181.818 0 4430.96 0 0 0 0 3.42426e-11 0 3.80616e+13
192.139 0 5229.21 0 0 0 0 2.91139e-11 0 4.49186e+13
203.046 0 6171.26 0 0 0 0 2.4751e-11 0 5.30108e+13
214.572 0 7283.03 0 0 0 0 2.10401e-11 0 6.25608e+13
226.753 0 8595.09 0 0 0 0 1.78839e-11 0 7.38313e+13
239.625 0 10143.5 0 0 0 0 1.51999e-11 0 8.71322e+13
253.228 0 11970.9 0 0 0 0 1.29176e-11 0 1.02829e+14
267.603 0 14127.5 0 0 0 0 1.09771e-11 0 1.21354e+14
282.795 0 16672.6 0 0 0 0 9.3274e-12 0 1.43217e+14
298.848 0 19676.2 0 0 0 0 7.925e-12 0 1.69017e+14
315.813 0 23220.9 0 0 0 0 6.73295e-12 0 1.99466e+14
333.741 0 27404.3 0 0 0 0 5.71979e-12 0 2.35401e+14
352.686 0 32341.2 0 0 0 0 4.85874e-12 0 2.77809e+14
372.707 0 38167.6 0 0 0 0 4.12703e-12 0 3.27857e+14
393.865 0 45043.5 0 0 0 0 3.50528e-12 0 3.86921e+14
416.224 0 53158.3 0 0 0 0 2.97701e-12 0 4.56626e+14
439.852 0 62734.9 0 0 0 0 2.52819e-12 0 5.38888e+14
464.821 0 74036.7 0 0 0 0 2.1469e-12 0 6.35971e+14
491.207 0 87374.6 0 0 0 0 1.82301e-12 0 7.50542e+14
519.092 0 103115 0 0 0 0 1.54789e-12 0 8.85755e+14
548.56 0 121692 0 0 0 0 1.31422e-12 0 1.04533e+15
579.7 0 143615 0 0 0 0 1.11576e-12 0 1.23364e+15
612.608 0 169488 0 0 0 0 9.47223e-13 0 1.45589e+15
647.384 0 200021 0 0 0 0 8.041e-13 0 1.71817e+15
684.134 0 236056 0 0 0 0 6.82568e-13 0 2.0277e+15
722.971 0 278582 0 0 0 0 5.79376e-13 0 2.393e+15
764.012 0 328769 0 0 0 0 4.91762e-13 0 2.8241e+15
