0.955191
200
1.0655e+09
8589934592
0.0129181 0 1.58924e-09 0 0 0 0 0.00677225 0 13.6515
0.0136515 0 1.87554e-09 0 0 0 0 0.00688819 0 16.1108
0.0144264 0 2.21343e-09 0 0 0 0 0.00699249 0 19.0132
0.0152454 0 2.61218e-09 0 0 0 0 0.00708412 0 22.4385
0.0161108 0 3.08278e-09 0 0 0 0 0.00716212 0 26.4808
0.0170254 0 3.63815e-09 0 0 0 0 0.00722559 0 31.2514
0.0179919 0 4.29357e-09 0 0 0 0 0.00727371 0 36.8815
0.0190132 0 5.06707e-09 0 0 0 0 0.00730578 0 43.5258
0.0200925 0 5.97991e-09 0 0 0 0 0.00732122 0 51.367
0.0212331 0 7.05721e-09 0 0 0 0 0.00731958 0 60.621
0.0224385 0 8.32858e-09 0 0 0 0 0.00730056 0 71.542
0.0237123 0 9.829e-09 0 0 0 0 0.00726401 0 84.4305
0.0250583 0 1.15997e-08 0 0 0 0 0.00720995 0 99.6408
0.0264808 0 1.36894e-08 0 0 0 0 0.00713857 0 117.591
0.0279841 0 1.61556e-08 0 0 0 0 0.00705021 0 138.776
0.0295727 0 1.90661e-08 0 0 0 0 0.00694538 0 163.777
0.0312514 0 2.25009e-08 0 0 0 0 0.00682475 0 193.281
0.0330255 0 2.65545e-08 0 0 0 0 0.00668915 0 228.102
0.0349003 0 3.13384e-08 0 0 0 0 0.00653951 0 269.195
0.0368815 0 3.69841e-08 0 0 0 0 0.00637693 0 317.691
0.0389751 0 4.36469e-08 0 0 0 0 0.00620256 0 374.924
0.0411876 0 5.151e-08 0 0 0 0 0.00601767 0 442.467
0.0435258 0 6.07896e-08 0 0 0 0 0.00582358 0 522.179
0.0459966 0 7.1741e-08 0 0 0 0 0.00562166 0 616.251
0.0486077 0 8.46654e-08 0 0 0 0 0.0054133 0 727.27
0.051367 0 9.99181e-08 0 0 0 0 0.00519989 0 858.29
0.054283 0 1.17919e-07 0 0 0 0 0.0049828 0 1012.91
0.0573645 0 1.39162e-07 0 0 0 0 0.00476339 0 1195.39
0.060621 0 1.64232e-07 0 0 0 0 0.00454293 0 1410.75
0.0640622 0 1.93819e-07 0 0 0 0 0.00432265 0 1664.89
0.0676989 0 2.28736e-07 0 0 0 0 0.00410371 0 1964.83
0.071542 0 2.69944e-07 0 0 0 0 0.00388717 0 2318.8
0.0756032 0 3.18575e-07 0 0 0 0 0.00367401 0 2736.54
0.079895 0 3.75967e-07 0 0 0 0 0.0034651 0 3229.53
0.0844305 0 4.43698e-07 0 0 0 0 0.00326121 0 3811.34
0.0892234 0 5.23632e-07 0 0 0 0 0.00306301 0 4497.96
0.0942883 0 6.17966e-07 0 0 0 0 0.00287109 0 5308.28
0.0996408 0 7.29294e-07 0 0 0 0 0.00268591 0 6264.59
0.105297 0 8.60678e-07 0 0 0 0 0.00250785 0 7393.17
0.111275 0 1.01573e-06 0 0 0 0 0.00233721 0 8725.07
0.117591 0 1.19872e-06 0 0 0 0 0.00217419 0 10296.9
0.124267 0 1.41467e-06 0 0 0 0 0.00201893 0 12151.9
0.131321 0 1.66953e-06 0 0 0 0 0.00187147 0 14341.1
0.138776 0 1.9703e-06 0 0 0 0 0.00173182 0 16924.7
0.146654 0 2.32525e-06 0 0 0 0 0.00159991 0 19973.8
0.154979 0 2.74415e-06 0 0 0 0 0.00147563 0 23572.1
0.163777 0 3.23852e-06 0 0 0 0 0.00135884 0 27818.7
0.173074 0 3.82195e-06 0 0 0 0 0.00124933 0 32830.3
0.182899 0 4.51048e-06 0 0 0 0 0.00114689 0 38744.7
0.193281 0 5.32305e-06 0 0 0 0 0.00105127 0 45724.7
0.204254 0 6.28202e-06 0 0 0 0 0.000962209 0 53962.1
0.215848 0 7.41374e-06 0 0 0 0 0.000879423 0 63683.5
0.228102 0 8.74934e-06 0 0 0 0 0.000802624 0 75156.3
0.24105 0 1.03256e-05 0 0 0 0 0.000731515 0 88695.9
0.254734 0 1.21857e-05 0 0 0 0 0.000665798 0 104675
0.269195 0 1.4381e-05 0 0 0 0 0.000605173 0 123532
0.284476 0 1.69718e-05 0 0 0 0 0.000549345 0 145787
0.300625 0 2.00293e-05 0 0 0 0 0.000498021 0 172051
0.317691 0 2.36377e-05 0 0 0 0 0.000450916 0 203046
0.335725 0 2.78961e-05 0 0 0 0 0.000407755 0 239625
0.354784 0 3.29216e-05 0 0 0 0 0.000368269 0 282795
0.374924 0 3.88525e-05 0 0 0 0 0.000332202 0 333741
0.396207 1.65513 4.58519e-05 4.20228e-06 6 1.60911 4.08545e-06 0.000299307 0.0842402 393865
0.418699 0 5.41123e-05 0 0 0 0 0.00026935 0 464821
0.442467 0 6.38607e-05 0 0 0 0 0.000242108 0 548560
0.467585 0 7.53654e-05 0 0 0 0 0.00021737 0 647384
0.494129 0 8.89427e-05 0 0 0 0 0.000194938 0 764012
0.522179 0 0.000104966 0 0 0 0 0.000174625 0 901651
0.551822 0 0.000123876 0 0 0 0 0.000156255 0 1.06409e+06
0.583147 3.98842 0.000146192 3.17604e-06 12 4.19783 3.3428e-06 0.000139664 0.272887 1.25578e+06
0.616251 0 0.000172529 0 0 0 0 0.0001247 0 1.48202e+06
0.651234 0 0.000203611 0 0 0 0 0.00011122 0 1.74901e+06
0.688203 13.5044 0.000240292 6.54254e-06 8 13.1684 6.37977e-06 9.90935e-05 0.528191 2.06409e+06
0.72727 0 0.000283581 0 0 0 0 8.81969e-05 0 2.43595e+06
0.768555 0 0.000334669 0 0 0 0 7.84179e-05 0 2.87479e+06
0.812184 10.481 0.000394961 3.08929e-06 6 10.7051 3.15534e-06 6.96525e-05 0.266117 3.39269e+06
0.85829 0 0.000466114 0 0 0 0 6.1805e-05 0 4.00389e+06
0.907013 1.19023 0.000550086 2.5189e-07 24 1.21307 2.56724e-07 5.47875e-05 0.110342 4.7252e+06
0.958501 4.65546 0.000649185 8.34841e-07 24 4.38277 7.85941e-07 4.85194e-05 0.412952 5.57646e+06
1.01291 0 0.000766138 0 0 0 0 4.29272e-05 0 6.58107e+06
1.07041 0 0.00090416 0 0 0 0 3.79435e-05 0 7.76667e+06
1.13118 10.2534 0.00106705 1.11865e-06 12 10.1275 1.10491e-06 3.3507e-05 0.400628 9.16586e+06
1.19539 4.8305 0.00125928 4.46561e-07 30 4.73092 4.37355e-07 2.9562e-05 0.453177 1.08171e+07
1.26325 8.72829 0.00148614 6.83722e-07 24 8.59696 6.73434e-07 2.60578e-05 0.629728 1.27658e+07
1.33496 17.9496 0.00175387 1.19143e-06 24 17.9891 1.19405e-06 2.29484e-05 1.24602 1.50656e+07
1.41075 20.2824 0.00206984 1.14076e-06 32 20.5605 1.1564e-06 2.01923e-05 1.80783 1.77798e+07
1.49083 5.94689 0.00244272 2.83417e-07 48 5.82011 2.77375e-07 1.77518e-05 0.766347 2.09828e+07
1.57546 35.0749 0.00288279 1.41643e-06 6 33.3992 1.34876e-06 1.55929e-05 0.545029 2.4763e+07
1.66489 7.78153 0.00340213 2.66271e-07 84 7.5794 2.59355e-07 1.3685e-05 1.6344 2.92241e+07
1.75941 11.807 0.00401503 3.42341e-07 48 11.6266 3.3711e-07 1.20007e-05 1.36929 3.44889e+07
1.85928 7.27411 0.00473835 1.78716e-07 72 7.30746 1.79535e-07 1.05151e-05 1.22372 4.07021e+07
1.96483 14.2958 0.00559198 2.97613e-07 54 13.9853 2.9115e-07 9.20606e-06 1.74571 4.80347e+07
2.07637 11.8185 0.00659939 2.08483e-07 104 11.9007 2.09932e-07 8.05366e-06 2.69222 5.66883e+07
2.19424 9.93329 0.00778828 1.48478e-07 120 10.0633 1.50421e-07 7.04008e-06 2.53084 6.69008e+07
2.3188 10.4366 0.00919136 1.32187e-07 156 10.2212 1.29459e-07 6.1494e-06 3.35337 7.89532e+07
2.45043 14.7635 0.0108472 1.58446e-07 126 14.669 1.57432e-07 5.36741e-06 3.71951 9.31768e+07
2.58954 12.4794 0.0128014 1.13488e-07 192 12.4846 1.13534e-07 4.68145e-06 4.65446 1.09963e+08
2.73654 38.3754 0.0151076 2.95712e-07 152 38.9412 3.00072e-07 4.08023e-06 11.0161 1.29773e+08
2.89188 16.4053 0.0178292 1.07118e-07 378 16.4222 1.07228e-07 3.55373e-06 11.3938 1.53152e+08
3.05605 18.4646 0.0210412 1.0216e-07 264 18.1692 1.00525e-07 3.09304e-06 8.71961 1.80743e+08
3.22953 20.2808 0.0248319 9.50793e-08 366 20.2401 9.48887e-08 2.69025e-06 12.9352 2.13304e+08
3.41286 17.482 0.0293054 6.94469e-08 428 17.2411 6.84901e-08 2.33837e-06 12.7111 2.51731e+08
3.6066 25.0473 0.0345848 8.43113e-08 486 24.6592 8.3005e-08 2.0312e-06 20.1729 2.97081e+08
3.81134 20.7408 0.0408154 5.91578e-08 600 20.72 5.90985e-08 1.76327e-06 20.1301 3.50601e+08
4.0277 31.9681 0.0481684 7.72619e-08 738 31.8669 7.70173e-08 1.52972e-06 37.2743 4.13763e+08
4.25634 26.953 0.056846 5.51973e-08 824 26.8572 5.5001e-08 1.32631e-06 34.2926 4.88304e+08
4.49796 31.1785 0.067087 5.41037e-08 954 30.8982 5.36174e-08 1.14926e-06 44.9116 5.76273e+08
4.7533 33.0311 0.0791729 4.85688e-08 1094 32.7494 4.81545e-08 9.95263e-07 53.3871 6.8009e+08
5.02313 33.7329 0.0934361 4.20291e-08 1332 33.8854 4.22191e-08 8.61414e-07 64.9893 8.0261e+08
5.30828 40.1622 0.110269 4.24009e-08 1614 40.1454 4.23831e-08 7.45152e-07 91.8403 9.47202e+08
5.60962 45.3703 0.130134 4.05874e-08 1850 45.3081 4.05317e-08 6.44232e-07 116.552 1.11784e+09
5.92807 40.8627 0.153578 3.09748e-08 2238 40.8583 3.09714e-08 5.56685e-07 124.526 1.31923e+09
6.26459 42.8853 0.181246 2.75456e-08 2546 43.0219 2.76333e-08 4.80786e-07 145.867 1.55689e+09
6.62021 43.5381 0.213898 2.36959e-08 3264 43.5796 2.37185e-08 4.15026e-07 186.358 1.83737e+09
6.99602 49.3803 0.252432 2.2773e-08 3506 49.4135 2.27883e-08 3.58083e-07 222.971 2.16837e+09
7.39317 52.8429 0.297908 2.06498e-08 4506 52.8767 2.06629e-08 3.08803e-07 301.317 2.55901e+09
7.81286 57.1565 0.351577 1.89259e-08 5018 56.9767 1.88663e-08 2.66181e-07 356.787 3.02002e+09
8.25637 62.4828 0.414914 1.75312e-08 5852 62.4302 1.75165e-08 2.29336e-07 447.346 3.56409e+09
8.72507 63.4843 0.489662 1.50931e-08 7362 63.3952 1.5072e-08 1.97503e-07 562.602 4.20617e+09
9.22037 67.7886 0.577876 1.36563e-08 8306 67.6241 1.36231e-08 1.70014e-07 667.174 4.96392e+09
9.74378 73.0629 0.681982 1.24719e-08 9698 72.9972 1.24607e-08 1.46289e-07 826.807 5.85818e+09
10.2969 79.6921 0.804843 1.15269e-08 11816 79.5623 1.15082e-08 1.25822e-07 1082.5 6.91355e+09
10.8814 89.3622 0.949838 1.09525e-08 13682 89.1218 1.09231e-08 1.08175e-07 1385.27 8.15905e+09
11.4992 87.5593 1.12095 9.09337e-09 16152 87.5809 9.09561e-09 9.29669e-08 1579.88 9.62892e+09
12.1519 92.7663 1.3229 8.16347e-09 19472 92.6588 8.154e-09 7.98658e-08 1990.33 1.13636e+10
12.8418 99.3969 1.56122 7.41172e-09 22670 99.2479 7.40061e-09 6.85852e-08 2449.85 1.34108e+10
13.5708 103.706 1.84248 6.55258e-09 26224 103.571 6.54401e-09 5.88765e-08 2918.56 1.58268e+10
14.3411 110.634 2.17441 5.92325e-09 31640 110.503 5.91621e-09 5.05241e-08 3709.35 1.8678e+10
15.1552 117.705 2.56613 5.3398e-09 37484 117.499 5.33045e-09 4.33417e-08 4618.12 2.20429e+10
16.0156 127.129 3.02843 4.88695e-09 43856 126.897 4.87803e-09 3.71677e-08 5766.35 2.6014e+10
16.9247 133.507 3.574 4.34868e-09 51362 133.34 4.34325e-09 3.18628e-08 7009.96 3.07005e+10
17.8855 139.183 4.21787 3.84153e-09 61636 138.954 3.83521e-09 2.73063e-08 8671.12 3.62312e+10
18.9008 147.242 4.97773 3.44358e-09 72218 146.884 3.43522e-09 2.33941e-08 10630.4 4.27584e+10
19.9738 157.742 5.87448 3.12599e-09 84586 157.478 3.12077e-09 2.00364e-08 13196.8 5.04614e+10
21.1076 168.943 6.93279 2.83689e-09 100708 168.654 2.83204e-09 1.71555e-08 16653.4 5.95522e+10
22.3058 176.949 8.18175 2.51775e-09 118712 176.621 2.51307e-09 1.46847e-08 20353.7 7.02807e+10
23.5721 185.084 9.65571 2.23149e-09 140410 184.687 2.2267e-09 1.25662e-08 24933.9 8.29419e+10
24.9102 196.782 11.3952 2.01036e-09 164374 196.434 2.0068e-09 1.07504e-08 30738.6 9.78842e+10
26.3243 206.137 13.4481 1.78446e-09 194680 205.815 1.78167e-09 9.19452e-09 37783.2 1.15518e+11
27.8187 217.734 15.8708 1.59712e-09 230196 217.429 1.59488e-09 7.86182e-09 46763.9 1.36329e+11
29.3979 228.707 18.73 1.42152e-09 271156 228.33 1.41918e-09 6.72061e-09 57353.9 1.60889e+11
31.0667 242.555 22.1042 1.27745e-09 321076 242.115 1.27514e-09 5.74366e-09 71410.9 1.89874e+11
32.8303 255.967 26.0864 1.1423e-09 377436 255.5 1.14022e-09 4.90756e-09 87853.5 2.2408e+11
34.694 269.661 30.7859 1.01971e-09 447594 269.164 1.01783e-09 4.19221e-09 108872 2.64449e+11
36.6634 282.878 36.3321 9.064e-10 525078 282.31 9.04579e-10 3.58032e-09 132930 3.1209e+11
38.7447 298.384 42.8774 8.10135e-10 621924 297.847 8.08678e-10 3.05709e-09 164811 3.68314e+11
40.9442 312.777 50.6018 7.1958e-10 732630 312.243 7.18351e-10 2.60976e-09 202005 4.34667e+11
43.2685 328.502 59.7179 6.40388e-10 865596 327.976 6.39363e-10 2.22743e-09 248859 5.12973e+11
45.7247 345.82 70.4762 5.71239e-10 1.02168e+06 345.277 5.70342e-10 1.90073e-09 307051 6.05386e+11
48.3204 361.82 83.1727 5.06433e-10 1.20544e+06 361.171 5.05524e-10 1.62163e-09 376456 7.14448e+11
51.0634 379.16 98.1565 4.4969e-10 1.42103e+06 378.496 4.48903e-10 1.38326e-09 461970 8.43158e+11
53.9621 398.827 115.84 4.00808e-10 1.67997e+06 398.129 4.00107e-10 1.1797e-09 570775 9.95055e+11
57.0254 419.268 136.709 3.57032e-10 1.98018e+06 418.534 3.56406e-10 1.00592e-09 702826 1.17432e+12
60.2626 439.423 161.337 3.17073e-10 2.33957e+06 438.595 3.16476e-10 8.57591e-10 864998 1.38587e+12
63.6835 461.773 190.402 2.82336e-10 2.75676e+06 460.965 2.81842e-10 7.3101e-10 1.06474e+06 1.63554e+12
67.2987 485.894 224.704 2.51734e-10 3.25638e+06 485.078 2.51311e-10 6.23009e-10 1.31578e+06 1.93019e+12
71.1191 511.574 265.185 2.24579e-10 3.84387e+06 510.677 2.24186e-10 5.30879e-10 1.62609e+06 2.27792e+12
75.1563 538.004 312.958 2.00129e-10 4.53277e+06 537.024 1.99764e-10 4.52303e-10 2.00559e+06 2.68829e+12
79.4227 567.652 369.339 1.78924e-10 5.35083e+06 566.65 1.78608e-10 3.85299e-10 2.48479e+06 3.17259e+12
83.9313 600.483 435.876 1.60379e-10 6.32174e+06 599.379 1.60084e-10 3.28173e-10 3.08945e+06 3.74415e+12
88.6959 635.56 514.4 1.43835e-10 7.44986e+06 634.365 1.43565e-10 2.79476e-10 3.83415e+06 4.41866e+12
93.7309 675.695 607.071 1.29575e-10 8.79764e+06 674.43 1.29332e-10 2.37972e-10 4.79028e+06 5.2147e+12
99.0518 719.651 716.436 1.16938e-10 1.03827e+07 718.233 1.16707e-10 2.02605e-10 5.99259e+06 6.15414e+12
104.675 770.084 845.504 1.06031e-10 1.22515e+07 768.529 1.05817e-10 1.72471e-10 7.53193e+06 7.26283e+12
110.617 829.987 997.824 9.68339e-11 1.44573e+07 828.212 9.66268e-11 1.468e-10 9.5365e+06 8.57124e+12
116.896 898.271 1177.58 8.88025e-11 1.70664e+07 896.318 8.86095e-11 1.24935e-10 1.21306e+07 1.01154e+13
123.532 977.401 1389.73 8.18753e-11 2.0139e+07 975.151 8.16868e-11 1.06313e-10 1.55097e+07 1.19377e+13
130.545 1072.42 1640.09 7.61216e-11 2.37643e+07 1069.89 7.59419e-11 9.04567e-11 1.99983e+07 1.40883e+13
137.955 1183.27 1935.56 7.11681e-11 2.80503e+07 1180.35 7.09926e-11 7.69563e-11 2.59405e+07 1.66263e+13
145.787 1314.27 2284.26 6.69809e-11 3.30981e+07 1310.89 6.68086e-11 6.54636e-11 3.38653e+07 1.96216e+13
154.063 1471.09 2695.77 6.35281e-11 3.90634e+07 1467.16 6.33584e-11 5.56812e-11 4.45685e+07 2.31565e+13
162.808 1657.26 3181.42 6.06428e-11 4.61057e+07 1652.72 6.04766e-11 4.73556e-11 5.90422e+07 2.73282e+13
172.051 1878.65 3754.56 5.82501e-11 5.44046e+07 1873.34 5.80854e-11 4.02708e-11 7.86941e+07 3.22515e+13
181.818 2143.55 4430.96 5.63178e-11 6.42064e+07 2137.3 5.61536e-11 3.42426e-11 1.05598e+08 3.80616e+13
192.139 2459.29 5229.21 5.475e-11 7.57748e+07 2451.95 5.45867e-11 2.91139e-11 1.42498e+08 4.49186e+13
203.046 2836.62 6171.26 5.35103e-11 8.94213e+07 2827.93 5.33464e-11 2.4751e-11 1.93324e+08 5.30108e+13
214.572 3288.5 7283.03 5.25649e-11 1.05538e+08 3278.21 5.24004e-11 2.10401e-11 2.63669e+08 6.25608e+13
226.753 3831.85 8595.09 5.19001e-11 1.24552e+08 3819.6 5.17342e-11 1.78839e-11 3.61456e+08 7.38313e+13
239.625 4484.04 10143.5 5.14625e-11 1.46987e+08 4469.44 5.12949e-11 1.51999e-11 4.97656e+08 8.71322e+13
253.228 5271.45 11970.9 5.12641e-11 1.7347e+08 5253.97 5.10941e-11 1.29176e-11 6.88423e+08 1.02829e+14
267.603 6223.8 14127.5 5.12862e-11 2.04703e+08 6202.76 5.11129e-11 1.09771e-11 9.5639e+08 1.21354e+14
282.795 7383.18 16672.6 5.15526e-11 2.4161e+08 7357.68 5.13745e-11 9.3274e-12 1.33538e+09 1.43217e+14
298.848 8808.3 19676.2 5.21147e-11 2.85122e+08 8777.18 5.19306e-11 7.925e-12 1.87496e+09 1.69017e+14
315.813 10581.2 23220.9 5.30476e-11 3.36491e+08 10542.7 5.28545e-11 6.73295e-12 2.65115e+09 1.99466e+14
333.741 12821.8 27404.3 5.44681e-11 3.97115e+08 12773.4 5.42624e-11 5.71979e-12 3.78162e+09 2.35401e+14
352.686 15722.2 32341.2 5.65936e-11 4.68637e+08 15659.9 5.63694e-11 4.85874e-12 5.45859e+09 2.77809e+14
372.707 19582.1 38167.6 5.97276e-11 5.53074e+08 19499.8 5.94765e-11 4.12703e-12 8.00425e+09 3.27857e+14
393.865 24925.7 45043.5 6.44207e-11 6.52716e+08 24812.4 6.41278e-11 3.50528e-12 1.19957e+10 3.86921e+14
416.224 29428.2 53158.3 6.44471e-11 2.2184e+08 31132.3 6.8179e-11 2.97701e-12 4.80245e+09 4.56626e+14
439.852 0 62734.9 0 0 0 0 2.52819e-12 0 5.38888e+14
464.821 0 74036.7 0 0 0 0 2.1469e-12 0 6.35971e+14
491.207 0 87374.6 0 0 0 0 1.82301e-12 0 7.50542e+14
519.092 0 103115 0 0 0 0 1.54789e-12 0 8.85755e+14
548.56 0 121692 0 0 0 0 1.31422e-12 0 1.04533e+15
579.7 0 143615 0 0 0 0 1.11576e-12 0 1.23364e+15
612.608 0 169488 0 0 0 0 9.47223e-13 0 1.45589e+15
647.384 0 200021 0 0 0 0 8.041e-13 0 1.71817e+15
684.134 0 236056 0 0 0 0 6.82568e-13 0 2.0277e+15
722.971 0 278582 0 0 0 0 5.79376e-13 0 2.393e+15
764.012 0 328769 0 0 0 0 4.91762e-13 0 2.8241e+15
0.955191
200
1.0655e+09
8589934592
0.0129181 0.00200418 1.58924e-09 0.000146811 6 0.00198583 0.000145467 0.00677225 0.13007 13.6515
0.0136515 0 1.87554e-09 0 0 0 0 0.00688819 0 16.1108
0.0144264 0 2.21343e-09 0 0 0 0 0.00699249 0 19.0132
0.0152454 0 2.61218e-09 0 0 0 0 0.00708412 0 22.4385
0.0161108 0 3.08278e-09 0 0 0 0 0.00716212 0 26.4808
0.0170254 0 3.63815e-09 0 0 0 0 0.00722559 0 31.2514
0.0179919 0.00447052 4.29357e-09 0.000121213 12 0.00446476 0.000121057 0.00727371 0.199975 36.8815
0.0190132 0 5.06707e-09 0 0 0 0 0.00730578 0 43.5258
0.0200925 0 5.97991e-09 0 0 0 0 0.00732122 0 51.367
0.0212331 0.00423687 7.05721e-09 6.98911e-05 8 0.00423318 6.98303e-05 0.00731958 0.0763881 60.621
0.0224385 0 8.32858e-09 0 0 0 0 0.00730056 0 71.542
0.0237123 0 9.829e-09 0 0 0 0 0.00726401 0 84.4305
0.0250583 0.0266598 1.15997e-08 0.000267559 6 0.0266473 0.000267433 0.00720995 0.222658 99.6408
0.0264808 0 1.36894e-08 0 0 0 0 0.00713857 0 117.591
0.0279841 0.0164065 1.61556e-08 0.000118223 24 0.0163896 0.000118102 0.00705021 0.402449 138.776
0.0295727 0 1.90661e-08 0 0 0 0 0.00694538 0 163.777
0.0312514 0.0290943 2.25009e-08 0.000150528 24 0.029242 0.000151292 0.00682475 0.529348 193.281
0.0330255 0 2.65545e-08 0 0 0 0 0.00668915 0 228.102
0.0349003 0.0445209 3.13384e-08 0.000165386 12 0.0441645 0.000164061 0.00653951 0.303482 269.195
0.0368815 0.0353731 3.69841e-08 0.000111344 30 0.0349964 0.000110159 0.00637693 0.523815 317.691
0.0389751 0.0398262 4.36469e-08 0.000106225 24 0.0394165 0.000105132 0.00620256 0.411023 374.924
0.0411876 0.0256241 5.151e-08 5.79118e-05 24 0.0254501 5.75185e-05 0.00601767 0.230967 442.467
0.0435258 0.0643577 6.07896e-08 0.000123248 8 0.0643528 0.000123239 0.00582358 0.169309 522.179
0.0459966 0.0785463 7.1741e-08 0.000127458 72 0.077927 0.000126453 0.00562166 1.63243 616.251
0.0486077 0 8.46654e-08 0 0 0 0 0.0054133 0 727.27
0.051367 0.10686 9.99181e-08 0.000124503 54 0.106504 0.000124088 0.00519989 1.29294 858.29
0.054283 0.0866548 1.17919e-07 8.55501e-05 60 0.0870516 8.59419e-05 0.0049828 1.03014 1012.91
0.0573645 0.0805393 1.39162e-07 6.73748e-05 96 0.080333 6.72022e-05 0.00476339 1.35785 1195.39
0.060621 0.096056 1.64232e-07 6.80888e-05 24 0.0947546 6.71664e-05 0.00454293 0.359709 1410.75
0.0640622 0.164243 1.93819e-07 9.86509e-05 134 0.164314 9.86931e-05 0.00432265 3.05813 1664.89
0.0676989 0.16123 2.28736e-07 8.20582e-05 120 0.160436 8.16538e-05 0.00410371 2.39953 1964.83
0.071542 0.152518 2.69944e-07 6.57745e-05 108 0.150825 6.50446e-05 0.00388717 1.82746 2318.8
0.0756032 0.226039 3.18575e-07 8.26005e-05 174 0.224778 8.21397e-05 0.00367401 3.91194 2736.54
0.079895 0.236145 3.75967e-07 7.31204e-05 168 0.233924 7.24328e-05 0.0034651 3.54513 3229.53
0.0844305 0.196343 4.43698e-07 5.15155e-05 168 0.197313 5.17699e-05 0.00326121 2.6538 3811.34
0.0892234 0.23729 5.23632e-07 5.2755e-05 290 0.236157 5.25032e-05 0.00306301 4.99474 4497.96
0.0942883 0.283339 6.17966e-07 5.33767e-05 288 0.282746 5.3265e-05 0.00287109 5.35424 5308.28
0.0996408 0.254579 7.29294e-07 4.06378e-05 366 0.252648 4.03296e-05 0.00268591 5.53758 6264.59
0.105297 0.301405 8.60678e-07 4.0768e-05 420 0.299242 4.04754e-05 0.00250785 6.82757 7393.17
0.111275 0.322206 1.01573e-06 3.69288e-05 398 0.321332 3.68286e-05 0.00233721 6.28854 8725.07
0.117591 0.382388 1.19872e-06 3.71361e-05 624 0.383497 3.72439e-05 0.00217419 10.6582 10296.9
0.124267 0.44666 1.41467e-06 3.67563e-05 642 0.445617 3.66705e-05 0.00201893 11.6882 12151.9
0.131321 0.521334 1.66953e-06 3.63523e-05 800 0.521437 3.63595e-05 0.00187147 15.5396 14341.1
0.138776 0.485535 1.9703e-06 2.86879e-05 858 0.487565 2.88079e-05 0.00173182 14.213 16924.7
0.146654 0.568984 2.32525e-06 2.84866e-05 1080 0.573693 2.87224e-05 0.00159991 19.2295 19973.8
0.154979 0.661335 2.74415e-06 2.80558e-05 1286 0.665466 2.82311e-05 0.00147563 24.4504 23572.1
0.163777 0.651399 3.23852e-06 2.34159e-05 1650 0.653298 2.34842e-05 0.00135884 28.4333 27818.7
0.173074 0.72278 3.82195e-06 2.20157e-05 1778 0.723374 2.20338e-05 0.00124933 31.3318 32830.3
0.182899 0.789125 4.51048e-06 2.03673e-05 2112 0.79089 2.04129e-05 0.00114689 37.5064 38744.7
0.193281 0.870008 5.32305e-06 1.90271e-05 2570 0.870601 1.90401e-05 0.00105127 46.5147 45724.7
0.204254 1.01937 6.28202e-06 1.88904e-05 3030 1.01866 1.88774e-05 0.000962209 59.4859 53962.1
0.215848 1.06604 7.41374e-06 1.67397e-05 3434 1.06561 1.67329e-05 0.000879423 65.3658 63683.5
0.228102 1.13545 8.74934e-06 1.51079e-05 4218 1.13465 1.50972e-05 0.000802624 79.3961 75156.3
0.24105 1.26594 1.03256e-05 1.42728e-05 4766 1.26671 1.42815e-05 0.000731515 92.9909 88695.9
0.254734 1.38056 1.21857e-05 1.3189e-05 6026 1.38049 1.31884e-05 0.000665798 119.371 104675
0.269195 1.58217 1.4381e-05 1.28078e-05 6480 1.58074 1.27962e-05 0.000605173 137.141 123532
0.284476 1.70552 1.69718e-05 1.16987e-05 8162 1.70836 1.17182e-05 0.000549345 173.816 145787
0.300625 1.89291 2.00293e-05 1.10021e-05 9578 1.89339 1.10049e-05 0.000498021 211.593 172051
0.317691 2.10925 2.36377e-05 1.0388e-05 11234 2.10767 1.03802e-05 0.000450916 258.804 203046
0.335725 2.26635 2.78961e-05 9.45787e-06 13344 2.26228 9.4409e-06 0.000407755 309.514 239625
0.354784 2.56732 3.29216e-05 9.07838e-06 15464 2.5657 9.07268e-06 0.000368269 381.21 282795
0.374924 2.78985 3.88525e-05 8.35935e-06 18458 2.78692 8.35056e-06 0.000332202 464.467 333741
0.396207 3.23529 4.58519e-05 8.21421e-06 22232 3.22973 8.20008e-06 0.000299307 610.137 393865
0.418699 3.48312 5.41123e-05 7.49347e-06 25628 3.47454 7.47501e-06 0.00026935 712.986 464821
0.442467 3.83119 6.38607e-05 6.9841e-06 30320 3.82454 6.97196e-06 0.000242108 874.643 548560
0.467585 4.3346 7.53654e-05 6.69556e-06 35452 4.32652 6.68308e-06 0.00021737 1092.01 647384
0.494129 4.81592 8.89427e-05 6.30347e-06 41792 4.8104 6.29623e-06 0.000194938 1351.37 764012
0.522179 5.42666 0.000104966 6.01858e-06 49988 5.4258 6.01763e-06 0.000174625 1722.87 901651
0.551822 6.08757 0.000123876 5.72094e-06 59110 6.07946 5.71331e-06 0.000156255 2164.19 1.06409e+06
0.583147 6.79723 0.000146192 5.41274e-06 69716 6.78643 5.40414e-06 0.000139664 2701.87 1.25578e+06
0.616251 7.61912 0.000172529 5.14105e-06 82210 7.60393 5.1308e-06 0.0001247 3389.3 1.48202e+06
0.651234 8.39552 0.000203611 4.80017e-06 96722 8.37715 4.78966e-06 0.00011122 4174.43 1.74901e+06
0.688203 9.54141 0.000240292 4.62257e-06 113098 9.52563 4.61492e-06 9.90935e-05 5275.86 2.06409e+06
0.72727 10.7254 0.000283581 4.40296e-06 135190 10.7092 4.39631e-06 8.81969e-05 6748.95 2.43595e+06
0.768555 11.9653 0.000334669 4.16216e-06 158170 11.9452 4.15516e-06 7.84179e-05 8395.12 2.87479e+06
0.812184 13.4474 0.000394961 3.96363e-06 188560 13.426 3.95732e-06 6.96525e-05 10730.2 3.39269e+06
0.85829 15.049 0.000466114 3.75858e-06 220444 15.024 3.75235e-06 6.1805e-05 13406 4.00389e+06
0.907013 16.7994 0.000550086 3.55527e-06 261388 16.7715 3.54937e-06 5.47875e-05 16962 4.7252e+06
0.958501 18.824 0.000649185 3.37562e-06 308244 18.7944 3.37032e-06 4.85194e-05 21445.3 5.57646e+06
1.01291 21.0918 0.000766138 3.20492e-06 364396 21.0557 3.19943e-06 4.29272e-05 27205.6 6.58107e+06
1.07041 23.4835 0.00090416 3.02363e-06 429162 23.4404 3.01807e-06 3.79435e-05 34198.9 7.76667e+06
1.13118 26.1946 0.00106705 2.85784e-06 506358 26.1491 2.85288e-06 3.3507e-05 43187.7 9.16586e+06
1.19539 29.2446 0.00125928 2.70355e-06 598590 29.1903 2.69853e-06 2.9562e-05 54743.2 1.08171e+07
1.26325 32.4809 0.00148614 2.54436e-06 704844 32.4245 2.53994e-06 2.60578e-05 68822.9 1.27658e+07
1.33496 36.0399 0.00175387 2.39219e-06 834620 35.97 2.38755e-06 2.29484e-05 87002.5 1.50656e+07
1.41075 39.9562 0.00206984 2.24729e-06 981444 39.8817 2.24309e-06 2.01923e-05 109229 1.77798e+07
1.49083 44.0569 0.00244272 2.09966e-06 1.15998e+06 43.9776 2.09589e-06 1.77518e-05 137201 2.09828e+07
1.57546 48.5622 0.00288279 1.96108e-06 1.36931e+06 48.4756 1.95758e-06 1.55929e-05 172215 2.4763e+07
1.66489 53.4088 0.00340213 1.82756e-06 1.61652e+06 53.3117 1.82424e-06 1.3685e-05 215877 2.92241e+07
1.75941 58.6362 0.00401503 1.70015e-06 1.90601e+06 58.5283 1.69702e-06 1.20007e-05 270026 3.44889e+07
1.85928 64.2513 0.00473835 1.57857e-06 2.24913e+06 64.1341 1.5757e-06 1.05151e-05 337649 4.07021e+07
1.96483 70.0615 0.00559198 1.45856e-06 2.65744e+06 69.9361 1.45595e-06 9.20606e-06 421031 4.80347e+07
2.07637 76.1987 0.00659939 1.34417e-06 3.13125e+06 76.0672 1.34185e-06 8.05366e-06 522611 5.66883e+07
2.19424 83.0223 0.00778828 1.24098e-06 3.69915e+06 82.8743 1.23876e-06 7.04008e-06 652060 6.69008e+07
2.3188 89.9166 0.00919136 1.13886e-06 4.36472e+06 89.7636 1.13692e-06 6.1494e-06 808340 7.89532e+07
2.45043 97.4684 0.0108472 1.04606e-06 5.14913e+06 97.2979 1.04423e-06 5.36741e-06 1.00352e+06 9.31768e+07
2.58954 105.424 0.0128014 9.5872e-07 6.07894e+06 105.251 9.57151e-07 4.68145e-06 1.24491e+06 1.09963e+08
2.73654 113.874 0.0151076 8.77484e-07 7.17304e+06 113.678 8.75976e-07 4.08023e-06 1.54261e+06 1.29773e+08
2.89188 122.817 0.0178292 8.01931e-07 8.46557e+06 122.612 8.00593e-07 3.55373e-06 1.91033e+06 1.53152e+08
3.05605 132.164 0.0210412 7.31226e-07 9.98773e+06 131.944 7.30009e-07 3.09304e-06 2.3612e+06 1.80743e+08
3.22953 142.066 0.0248319 6.66025e-07 1.1797e+07 141.832 6.64929e-07 2.69025e-06 2.92058e+06 2.13304e+08
3.41286 152.446 0.0293054 6.05591e-07 1.39144e+07 152.184 6.0455e-07 2.33837e-06 3.60354e+06 2.51731e+08
3.6066 163.445 0.0345848 5.5017e-07 1.64163e+07 163.171 5.49246e-07 2.0312e-06 4.4465e+06 2.97081e+08
3.81134 175.216 0.0408154 4.99758e-07 1.93821e+07 174.93 4.98944e-07 1.76327e-06 5.49343e+06 3.50601e+08
4.0277 187.455 0.0481684 4.53049e-07 2.28754e+07 187.144 4.52296e-07 1.52972e-06 6.77487e+06 4.13763e+08
4.25634 200.32 0.056846 4.10236e-07 2.69929e+07 199.986 4.09552e-07 1.32631e-06 8.3491e+06 4.88304e+08
4.49796 213.808 0.067087 3.71019e-07 3.18542e+07 213.454 3.70405e-07 1.14926e-06 1.02836e+07 5.76273e+08
4.7533 228.154 0.0791729 3.35477e-07 3.75892e+07 227.774 3.34917e-07 9.95263e-07 1.26703e+07 6.8009e+08
5.02313 242.927 0.0934361 3.02671e-07 4.43706e+07 242.53 3.02177e-07 8.61414e-07 1.55903e+07 8.0261e+08
5.30828 258.573 0.110269 2.72986e-07 5.23593e+07 258.144 2.72533e-07 7.45152e-07 1.91818e+07 9.47202e+08
5.60962 275.382 0.130134 2.46351e-07 6.1787e+07 274.927 2.45944e-07 6.44232e-07 2.36271e+07 1.11784e+09
5.92807 292.863 0.153578 2.21996e-07 7.29346e+07 292.377 2.21628e-07 5.56685e-07 2.9085e+07 1.31923e+09
6.26459 311.024 0.181246 1.99773e-07 8.60651e+07 310.509 1.99442e-07 4.80786e-07 3.57611e+07 1.55689e+09
6.62021 330.077 0.213898 1.79647e-07 1.01558e+08 329.528 1.79348e-07 4.15026e-07 4.39601e+07 1.83737e+09
6.99602 349.854 0.252432 1.61344e-07 1.1986e+08 349.279 1.61079e-07 3.58083e-07 5.40061e+07 2.16837e+09
7.39317 370.633 0.297908 1.44834e-07 1.41457e+08 370.025 1.44597e-07 3.08803e-07 6.63458e+07 2.55901e+09
7.81286 392.336 0.351577 1.29912e-07 1.66936e+08 391.695 1.29699e-07 2.66181e-07 8.14742e+07 3.02002e+09
8.25637 415.174 0.414914 1.16488e-07 1.97025e+08 414.486 1.16295e-07 2.29336e-07 1.00076e+08 3.56409e+09
8.72507 439.396 0.489662 1.04465e-07 2.32497e+08 438.666 1.04291e-07 1.97503e-07 1.22974e+08 4.20617e+09
9.22037 465.158 0.577876 9.37079e-08 2.74404e+08 464.377 9.35505e-08 1.70014e-07 1.51245e+08 4.96392e+09
9.74378 493.264 0.681982 8.42009e-08 3.2382e+08 492.419 8.40565e-08 1.46289e-07 1.86384e+08 5.85818e+09
10.2969 525.158 0.804843 7.59607e-08 3.82165e+08 524.224 7.58256e-08 1.25822e-07 2.30718e+08 6.91355e+09
10.8814 562.796 0.949838 6.89782e-08 4.51027e+08 561.723 6.88466e-08 1.08175e-07 2.87598e+08 8.15905e+09
11.4992 610.98 1.12095 6.34526e-08 5.32251e+08 609.68 6.33176e-08 9.29669e-08 3.63277e+08 9.62892e+09
12.1519 678.954 1.3229 5.97482e-08 6.28157e+08 677.256 5.95987e-08 7.98658e-08 4.69929e+08 1.13636e+10
12.8418 754.874 1.56122 5.62886e-08 3.82727e+08 781.321 5.82607e-08 6.85852e-08 3.14108e+08 1.34108e+10
13.5708 0 1.84248 0 0 0 0 5.88765e-08 0 1.58268e+10
14.3411 0 2.17441 0 0 0 0 5.05241e-08 0 1.8678e+10
15.1552 0 2.56613 0 0 0 0 4.33417e-08 0 2.20429e+10
16.0156 0 3.02843 0 0 0 0 3.71677e-08 0 2.6014e+10
16.9247 0 3.574 0 0 0 0 3.18628e-08 0 3.07005e+10
17.8855 0 4.21787 0 0 0 0 2.73063e-08 0 3.62312e+10
18.9008 0 4.97773 0 0 0 0 2.33941e-08 0 4.27584e+10
19.9738 0 5.87448 0 0 0 0 2.00364e-08 0 5.04614e+10
21.1076 0 6.93279 0 0 0 0 1.71555e-08 0 5.95522e+10
22.3058 0 8.18175 0 0 0 0 1.46847e-08 0 7.02807e+10
23.5721 0 9.65571 0 0 0 0 1.25662e-08 0 8.29419e+10
24.9102 0 11.3952 0 0 0 0 1.07504e-08 0 9.78842e+10
26.3243 0 13.4481 0 0 0 0 9.19452e-09 0 1.15518e+11
27.8187 0 15.8708 0 0 0 0 7.86182e-09 0 1.36329e+11
29.3979 0 18.73 0 0 0 0 6.72061e-09 0 1.60889e+11
31.0667 0 22.1042 0 0 0 0 5.74366e-09 0 1.89874e+11
32.8303 0 26.0864 0 0 0 0 4.90756e-09 0 2.2408e+11
34.694 0 30.7859 0 0 0 0 4.19221e-09 0 2.64449e+11
36.6634 0 36.3321 0 0 0 0 3.58032e-09 0 3.1209e+11
38.7447 0 42.8774 0 0 0 0 3.05709e-09 0 3.68314e+11
40.9442 0 50.6018 0 0 0 0 2.60976e-09 0 4.34667e+11
43.2685 0 59.7179 0 0 0 0 2.22743e-09 0 5.12973e+11
45.7247 0 70.4762 0 0 0 0 1.90073e-09 0 6.05386e+11
48.3204 0 83.1727 0 0 0 0 1.62163e-09 0 7.14448e+11
51.0634 0 98.1565 0 0 0 0 1.38326e-09 0 8.43158e+11
53.9621 0 115.84 0 0 0 0 1.1797e-09 0 9.95055e+11
57.0254 0 136.709 0 0 0 0 1.00592e-09 0 1.17432e+12
60.2626 0 161.337 0 0 0 0 8.57591e-10 0 1.38587e+12
63.6835 0 190.402 0 0 0 0 7.3101e-10 0 1.63554e+12
67.2987 0 224.704 0 0 0 0 6.23009e-10 0 1.93019e+12
71.1191 0 265.185 0 0 0 0 5.30879e-10 0 2.27792e+12
75.1563 0 312.958 0 0 0 0 4.52303e-10 0 2.68829e+12
79.4227 0 369.339 0 0 0 0 3.85299e-10 0 3.17259e+12
83.9313 0 435.876 0 0 0 0 3.28173e-10 0 3.74415e+12
88.6959 0 514.4 0 0 0 0 2.79476e-10 0 4.41866e+12
93.7309 0 607.071 0 0 0 0 2.37972e-10 0 5.2147e+12
99.0518 0 716.436 0 0 0 0 2.02605e-10 0 6.15414e+12
104.675 0 845.504 0 0 0 0 1.72471e-10 0 7.26283e+12
110.617 0 997.824 0 0 0 0 1.468e-10 0 8.57124e+12
116.896 0 1177.58 0 0 0 0 1.24935e-10 0 1.01154e+13
123.532 0 1389.73 0 0 0 0 1.06313e-10 0 1.19377e+13
130.545 0 1640.09 0 0 0 0 9.04567e-11 0 1.40883e+13
137.955 0 1935.56 0 0 0 0 7.69563e-11 0 1.66263e+13
145.787 0 2284.26 0 0 0 0 6.54636e-11 0 1.96216e+13
154.063 0 2695.77 0 0 0 0 5.56812e-11 0 2.31565e+13
162.808 0 3181.42 0 0 0 0 4.73556e-11 0 2.73282e+13
172.051 0 3754.56 0 0 0 0 4.02708e-11 0 3.22515e+13
181.818 0 4430.96 0 0 0 0 3.42426e-11 0 3.80616e+13
192.139 0 5229.21 0 0 0 0 2.91139e-11 0 4.49186e+13
203.046 0 6171.26 0 0 0 0 2.4751e-11 0 5.30108e+13
214.572 0 7283.03 0 0 0 0 2.10401e-11 0 6.25608e+13
226.753 0 8595.09 0 0 0 0 1.78839e-11 0 7.38313e+13
239.625 0 10143.5 0 0 0 0 1.51999e-11 0 8.71322e+13
253.228 0 11970.9 0 0 0 0 1.29176e-11 0 1.02829e+14
267.603 0 14127.5 0 0 0 0 1.09771e-11 0 1.21354e+14
282.795 0 16672.6 0 0 0 0 9.3274e-12 0 1.43217e+14
298.848 0 19676.2 0 0 0 0 7.925e-12 0 1.69017e+14
315.813 0 23220.9 0 0 0 0 6.73295e-12 0 1.99466e+14
333.741 0 27404.3 0 0 0 0 5.71979e-12 0 2.35401e+14
352.686 0 32341.2 0 0 0 0 4.85874e-12 0 2.77809e+14
372.707 0 38167.6 0 0 0 0 4.12703e-12 0 3.27857e+14
393.865 0 45043.5 0 0 0 0 3.50528e-12 0 3.86921e+14
416.224 0 53158.3 0 0 0 0 2.97701e-12 0 4.56626e+14
439.852 0 62734.9 0 0 0 0 2.52819e-12 0 5.38888e+14
464.821 0 74036.7 0 0 0 0 2.1469e-12 0 6.35971e+14
491.207 0 87374.6 0 0 0 0 1.82301e-12 0 7.50542e+14
519.092 0 103115 0 0 0 0 1.54789e-12 0 8.85755e+14
548.56 0 121692 0 0 0 0 1.31422e-12 0 1.04533e+15
579.7 0 143615 0 0 0 0 1.11576e-12 0 1.23364e+15
612.608 0 169488 0 0 0 0 9.47223e-13 0 1.45589e+15
647.384 0 200021 0 0 0 0 8.041e-13 0 1.71817e+15
684.134 0 236056 0 0 0 0 6.82568e-13 0 2.0277e+15
722.971 0 278582 0 0 0 0 5.79376e-13 0 2.393e+15
764.012 0 328769 0 0 0 0 4.91762e-13 0 2.8241e+15
