0.940705
200
1.0655e+09
8589934592
0.0129181 0 1.58924e-09 0 0 0 0 0.00677225 0 13.6515
0.0136515 0 1.87554e-09 0 0 0 0 0.00688819 0 16.1108
0.0144264 0 2.21343e-09 0 0 0 0 0.00699249 0 19.0132
0.0152454 0 2.61218e-09 0 0 0 0 0.00708412 0 22.4385
0.0161108 0 3.08278e-09 0 0 0 0 0.00716212 0 26.4808
0.0170254 0 3.63815e-09 0 0 0 0 0.00722559 0 31.2514
0.0179919 0 4.29357e-09 0 0 0 0 0.00727371 0 36.8815
0.0190132 0 5.06707e-09 0 0 0 0 0.00730578 0 43.5258
0.0200925 0 5.97991e-09 0 0 0 0 0.00732122 0 51.367
0.0212331 0 7.05721e-09 0 0 0 0 0.00731958 0 60.621
0.0224385 0 8.32858e-09 0 0 0 0 0.00730056 0 71.542
0.0237123 0 9.829e-09 0 0 0 0 0.00726401 0 84.4305
0.0250583 0 1.15997e-08 0 0 0 0 0.00720995 0 99.6408
0.0264808 0 1.36894e-08 0 0 0 0 0.00713857 0 117.591
0.0279841 0 1.61556e-08 0 0 0 0 0.00705021 0 138.776
0.0295727 0 1.90661e-08 0 0 0 0 0.00694538 0 163.777
0.0312514 0 2.25009e-08 0 0 0 0 0.00682475 0 193.281
0.0330255 0 2.65545e-08 0 0 0 0 0.00668915 0 228.102
0.0349003 0 3.13384e-08 0 0 0 0 0.00653951 0 269.195
0.0368815 0 3.69841e-08 0 0 0 0 0.00637693 0 317.691
0.0389751 0 4.36469e-08 0 0 0 0 0.00620256 0 374.924
0.0411876 0 5.151e-08 0 0 0 0 0.00601767 0 442.467
0.0435258 0 6.07896e-08 0 0 0 0 0.00582358 0 522.179
0.0459966 0 7.1741e-08 0 0 0 0 0.00562166 0 616.251
0.0486077 0 8.46654e-08 0 0 0 0 0.0054133 0 727.27
0.051367 0 9.99181e-08 0 0 0 0 0.00519989 0 858.29
0.054283 0 1.17919e-07 0 0 0 0 0.0049828 0 1012.91
0.0573645 0 1.39162e-07 0 0 0 0 0.00476339 0 1195.39
0.060621 0 1.64232e-07 0 0 0 0 0.00454293 0 1410.75
0.0640622 0 1.93819e-07 0 0 0 0 0.00432265 0 1664.89
0.0676989 0 2.28736e-07 0 0 0 0 0.00410371 0 1964.83
0.071542 0 2.69944e-07 0 0 0 0 0.00388717 0 2318.8
0.0756032 0 3.18575e-07 0 0 0 0 0.00367401 0 2736.54
0.079895 0 3.75967e-07 0 0 0 0 0.0034651 0 3229.53
0.0844305 0 4.43698e-07 0 0 0 0 0.00326121 0 3811.34
0.0892234 0 5.23632e-07 0 0 0 0 0.00306301 0 4497.96
0.0942883 0 6.17966e-07 0 0 0 0 0.00287109 0 5308.28
0.0996408 0 7.29294e-07 0 0 0 0 0.00268591 0 6264.59
0.105297 0 8.60678e-07 0 0 0 0 0.00250785 0 7393.17
0.111275 0 1.01573e-06 0 0 0 0 0.00233721 0 8725.07
0.117591 0 1.19872e-06 0 0 0 0 0.00217419 0 10296.9
0.124267 0 1.41467e-06 0 0 0 0 0.00201893 0 12151.9
0.131321 0 1.66953e-06 0 0 0 0 0.00187147 0 14341.1
0.138776 0 1.9703e-06 0 0 0 0 0.00173182 0 16924.7
0.146654 0 2.32525e-06 0 0 0 0 0.00159991 0 19973.8
0.154979 0 2.74415e-06 0 0 0 0 0.00147563 0 23572.1
0.163777 0 3.23852e-06 0 0 0 0 0.00135884 0 27818.7
0.173074 0 3.82195e-06 0 0 0 0 0.00124933 0 32830.3
0.182899 0 4.51048e-06 0 0 0 0 0.00114689 0 38744.7
0.193281 0 5.32305e-06 0 0 0 0 0.00105127 0 45724.7
0.204254 0 6.28202e-06 0 0 0 0 0.000962209 0 53962.1
0.215848 0 7.41374e-06 0 0 0 0 0.000879423 0 63683.5
0.228102 0 8.74934e-06 0 0 0 0 0.000802624 0 75156.3
0.24105 0 1.03256e-05 0 0 0 0 0.000731515 0 88695.9
0.254734 0 1.21857e-05 0 0 0 0 0.000665798 0 104675
0.269195 0 1.4381e-05 0 0 0 0 0.000605173 0 123532
0.284476 0 1.69718e-05 0 0 0 0 0.000549345 0 145787
0.300625 0 2.00293e-05 0 0 0 0 0.000498021 0 172051
0.317691 0 2.36377e-05 0 0 0 0 0.000450916 0 203046
0.335725 0 2.78961e-05 0 0 0 0 0.000407755 0 239625
0.354784 0 3.29216e-05 0 0 0 0 0.000368269 0 282795
0.374924 0 3.88525e-05 0 0 0 0 0.000332202 0 333741
0.396207 1.67008 4.58519e-05 4.24023e-06 6 1.62365 4.12234e-06 0.000299307 0.085001 393865
0.418699 0 5.41123e-05 0 0 0 0 0.00026935 0 464821
0.442467 0 6.38607e-05 0 0 0 0 0.000242108 0 548560
0.467585 0 7.53654e-05 0 0 0 0 0.00021737 0 647384
0.494129 0 8.89427e-05 0 0 0 0 0.000194938 0 764012
0.522179 0 0.000104966 0 0 0 0 0.000174625 0 901651
0.551822 0 0.000123876 0 0 0 0 0.000156255 0 1.06409e+06
0.583147 5.17145 0.000146192 4.1181e-06 12 5.44298 4.33433e-06 0.000139664 0.353829 1.25578e+06
0.616251 0 0.000172529 0 0 0 0 0.0001247 0 1.48202e+06
0.651234 0 0.000203611 0 0 0 0 0.00011122 0 1.74901e+06
0.688203 11.1352 0.000240292 5.39471e-06 8 10.8582 5.2605e-06 9.90935e-05 0.435525 2.06409e+06
0.72727 0 0.000283581 0 0 0 0 8.81969e-05 0 2.43595e+06
0.768555 0 0.000334669 0 0 0 0 7.84179e-05 0 2.87479e+06
0.812184 10.3258 0.000394961 3.04355e-06 6 10.5466 3.10862e-06 6.96525e-05 0.262177 3.39269e+06
0.85829 0 0.000466114 0 0 0 0 6.1805e-05 0 4.00389e+06
0.907013 1.10519 0.000550086 2.33892e-07 24 1.12639 2.3838e-07 5.47875e-05 0.102458 4.7252e+06
0.958501 4.5101 0.000649185 8.08776e-07 24 4.24593 7.61402e-07 4.85194e-05 0.400059 5.57646e+06
1.01291 0 0.000766138 0 0 0 0 4.29272e-05 0 6.58107e+06
1.07041 0 0.00090416 0 0 0 0 3.79435e-05 0 7.76667e+06
1.13118 7.59896 0.00106705 8.29051e-07 12 7.50562 8.18867e-07 3.3507e-05 0.296911 9.16586e+06
1.19539 3.80327 0.00125928 3.51598e-07 30 3.72487 3.4435e-07 2.9562e-05 0.356807 1.08171e+07
1.26325 11.4641 0.00148614 8.98032e-07 24 11.2916 8.84519e-07 2.60578e-05 0.827114 1.27658e+07
1.33496 14.1745 0.00175387 9.40851e-07 24 14.2057 9.42919e-07 2.29484e-05 0.983963 1.50656e+07
1.41075 14.5545 0.00206984 8.186e-07 32 14.6256 8.22597e-07 2.01923e-05 1.29729 1.77798e+07
1.49083 5.35942 0.00244272 2.55419e-07 48 5.24517 2.49974e-07 1.77518e-05 0.690644 2.09828e+07
1.57546 41.5903 0.00288279 1.67954e-06 6 39.6034 1.5993e-06 1.55929e-05 0.646272 2.4763e+07
1.66489 7.58878 0.00340213 2.59676e-07 84 7.44068 2.54608e-07 1.3685e-05 1.59392 2.92241e+07
1.75941 6.62599 0.00401503 1.9212e-07 48 6.54402 1.89743e-07 1.20007e-05 0.768436 3.44889e+07
1.85928 7.14291 0.00473835 1.75492e-07 72 7.20437 1.77002e-07 1.05151e-05 1.20165 4.07021e+07
1.96483 18.4366 0.00559198 3.83819e-07 54 18.0721 3.7623e-07 9.20606e-06 2.25137 4.80347e+07
2.07637 15.2043 0.00659939 2.68209e-07 104 15.3455 2.70699e-07 8.05366e-06 3.46349 5.66883e+07
2.19424 10.8209 0.00778828 1.61745e-07 120 10.966 1.63914e-07 7.04008e-06 2.75699 6.69008e+07
2.3188 10.5504 0.00919136 1.33629e-07 156 10.3779 1.31444e-07 6.1494e-06 3.38995 7.89532e+07
2.45043 10.8447 0.0108472 1.16389e-07 126 10.7986 1.15893e-07 5.36741e-06 2.73222 9.31768e+07
2.58954 9.95529 0.0128014 9.05332e-08 192 10.0003 9.09421e-08 4.68145e-06 3.71303 1.09963e+08
2.73654 35.3182 0.0151076 2.72153e-07 152 35.5533 2.73965e-07 4.08023e-06 10.1385 1.29773e+08
2.89188 15.4869 0.0178292 1.01121e-07 378 15.4954 1.01176e-07 3.55373e-06 10.7559 1.53152e+08
3.05605 19.8304 0.0210412 1.09716e-07 264 19.5028 1.07904e-07 3.09304e-06 9.36461 1.80743e+08
3.22953 22.7018 0.0248319 1.06429e-07 366 22.6456 1.06166e-07 2.69025e-06 14.4794 2.13304e+08
3.41286 17.0096 0.0293054 6.75705e-08 428 16.8724 6.70253e-08 2.33837e-06 12.3677 2.51731e+08
3.6066 20.9483 0.0345848 7.05135e-08 486 20.7408 6.98153e-08 2.0312e-06 16.8716 2.97081e+08
3.81134 21.5198 0.0408154 6.13796e-08 600 21.561 6.14972e-08 1.76327e-06 20.8861 3.50601e+08
4.0277 29.679 0.0481684 7.17295e-08 738 29.6088 7.15599e-08 1.52972e-06 34.6052 4.13763e+08
4.25634 25.8437 0.056846 5.29254e-08 824 25.7291 5.26907e-08 1.32631e-06 32.8812 4.88304e+08
4.49796 28.9507 0.067087 5.02378e-08 954 28.6991 4.98013e-08 1.14926e-06 41.7025 5.76273e+08
4.7533 31.5021 0.0791729 4.63205e-08 1094 31.3721 4.61293e-08 9.95263e-07 50.9158 6.8009e+08
5.02313 31.5858 0.0934361 3.93539e-08 1332 31.7642 3.95762e-08 8.61414e-07 60.8527 8.0261e+08
5.30828 40.3322 0.110269 4.25803e-08 1614 40.3836 4.26346e-08 7.45152e-07 92.229 9.47202e+08
5.60962 43.6835 0.130134 3.90784e-08 1850 43.7734 3.91588e-08 6.44232e-07 112.219 1.11784e+09
5.92807 41.1056 0.153578 3.11589e-08 2238 41.1939 3.12258e-08 5.56685e-07 125.266 1.31923e+09
6.26459 41.4226 0.181246 2.6606e-08 2546 41.5204 2.66689e-08 4.80786e-07 140.892 1.55689e+09
6.62021 43.6624 0.213898 2.37636e-08 3264 43.6708 2.37682e-08 4.15026e-07 186.89 1.83737e+09
6.99602 46.8285 0.252432 2.15962e-08 3506 46.9012 2.16297e-08 3.58083e-07 211.449 2.16837e+09
7.39317 51.0133 0.297908 1.99348e-08 4506 51.0127 1.99346e-08 3.08803e-07 290.885 2.55901e+09
7.81286 56.819 0.351577 1.88141e-08 5018 56.6032 1.87427e-08 2.66181e-07 354.68 3.02002e+09
8.25637 59.3143 0.414914 1.66422e-08 5852 59.2522 1.66248e-08 2.29336e-07 424.661 3.56409e+09
8.72507 61.2272 0.489662 1.45565e-08 7362 61.0656 1.45181e-08 1.97503e-07 542.6 4.20617e+09
9.22037 67.0681 0.577876 1.35111e-08 8306 66.88 1.34732e-08 1.70014e-07 660.082 4.96392e+09
9.74378 71.276 0.681982 1.21669e-08 9698 71.2609 1.21643e-08 1.46289e-07 806.586 5.85818e+09
10.2969 75.8699 0.804843 1.09741e-08 11816 75.7487 1.09566e-08 1.25822e-07 1030.58 6.91355e+09
10.8814 86.5262 0.949838 1.06049e-08 13682 86.2098 1.05662e-08 1.08175e-07 1341.31 8.15905e+09
11.4992 85.2869 1.12095 8.85737e-09 16152 85.1919 8.8475e-09 9.29669e-08 1538.87 9.62892e+09
12.1519 89.1634 1.3229 7.84641e-09 19472 88.9695 7.82934e-09 7.98658e-08 1913.03 1.13636e+10
12.8418 95.9102 1.56122 7.15173e-09 22670 95.6542 7.13264e-09 6.85852e-08 2363.92 1.34108e+10
13.5708 101.893 1.84248 6.43804e-09 26224 101.791 6.43158e-09 5.88765e-08 2867.55 1.58268e+10
14.3411 108.619 2.17441 5.81536e-09 31640 108.524 5.81028e-09 5.05241e-08 3641.79 1.8678e+10
15.1552 114.731 2.56613 5.20488e-09 37484 114.511 5.19491e-09 4.33417e-08 4501.44 2.20429e+10
16.0156 124.081 3.02843 4.76978e-09 43856 123.903 4.76296e-09 3.71677e-08 5628.09 2.6014e+10
16.9247 129.268 3.574 4.21061e-09 51362 129.112 4.20555e-09 3.18628e-08 6787.39 3.07005e+10
17.8855 136.712 4.21787 3.77331e-09 61636 136.552 3.7689e-09 2.73063e-08 8517.14 3.62312e+10
18.9008 144.403 4.97773 3.37719e-09 72218 144.082 3.36968e-09 2.33941e-08 10425.4 4.27584e+10
19.9738 155.03 5.87448 3.07224e-09 84586 154.796 3.06761e-09 2.00364e-08 12969.8 5.04614e+10
21.1076 164.718 6.93279 2.76595e-09 100708 164.448 2.76142e-09 1.71555e-08 16236.9 5.95522e+10
22.3058 175.318 8.18175 2.49454e-09 118712 175.031 2.49046e-09 1.46847e-08 20166.1 7.02807e+10
23.5721 182.262 9.65571 2.19746e-09 140410 181.896 2.19305e-09 1.25662e-08 24553.7 8.29419e+10
24.9102 191.696 11.3952 1.9584e-09 164374 191.377 1.95514e-09 1.07504e-08 29944.1 9.78842e+10
26.3243 202.296 13.4481 1.75121e-09 194680 201.978 1.74845e-09 9.19452e-09 37079.1 1.15518e+11
27.8187 211.487 15.8708 1.55129e-09 230196 211.159 1.54889e-09 7.86182e-09 45422.3 1.36329e+11
29.3979 224.614 18.73 1.39608e-09 271156 224.235 1.39372e-09 6.72061e-09 56327.5 1.60889e+11
31.0667 238.888 22.1042 1.25814e-09 321076 238.449 1.25583e-09 5.74366e-09 70331.2 1.89874e+11
32.8303 249.731 26.0864 1.11447e-09 377436 249.253 1.11234e-09 4.90756e-09 85713.1 2.2408e+11
34.694 263.974 30.7859 9.98206e-10 447594 263.513 9.96461e-10 4.19221e-09 106577 2.64449e+11
36.6634 276.607 36.3321 8.86305e-10 525078 276.108 8.84705e-10 3.58032e-09 129982 3.1209e+11
38.7447 291.036 42.8774 7.90185e-10 621924 290.485 7.88688e-10 3.05709e-09 160753 3.68314e+11
40.9442 306.247 50.6018 7.04557e-10 732630 305.694 7.03283e-10 2.60976e-09 197788 4.34667e+11
43.2685 322.613 59.7179 6.28909e-10 865596 322.043 6.27798e-10 2.22743e-09 244398 5.12973e+11
45.7247 339.762 70.4762 5.61231e-10 1.02168e+06 339.223 5.60342e-10 1.90073e-09 301671 6.05386e+11
48.3204 354.808 83.1727 4.96618e-10 1.20544e+06 354.144 4.95689e-10 1.62163e-09 369159 7.14448e+11
51.0634 372.485 98.1565 4.41773e-10 1.42103e+06 371.851 4.41021e-10 1.38326e-09 453837 8.43158e+11
53.9621 390.534 115.84 3.92475e-10 1.67997e+06 389.914 3.91852e-10 1.1797e-09 558908 9.95055e+11
57.0254 410.842 136.709 3.49856e-10 1.98018e+06 410.123 3.49244e-10 1.00592e-09 688702 1.17432e+12
60.2626 430.714 161.337 3.10789e-10 2.33957e+06 429.955 3.10241e-10 8.57591e-10 847854 1.38587e+12
63.6835 453.4 190.402 2.77217e-10 2.75676e+06 452.608 2.76733e-10 7.3101e-10 1.04543e+06 1.63554e+12
67.2987 477.498 224.704 2.47384e-10 3.25638e+06 476.662 2.46951e-10 6.23009e-10 1.29304e+06 1.93019e+12
71.1191 501.467 265.185 2.20143e-10 3.84387e+06 500.586 2.19756e-10 5.30879e-10 1.59396e+06 2.27792e+12
75.1563 528.71 312.958 1.96671e-10 4.53277e+06 527.752 1.96315e-10 4.52303e-10 1.97094e+06 2.68829e+12
79.4227 557.921 369.339 1.75856e-10 5.35083e+06 556.943 1.75548e-10 3.85299e-10 2.4422e+06 3.17259e+12
83.9313 590.226 435.876 1.5764e-10 6.32174e+06 589.121 1.57345e-10 3.28173e-10 3.03668e+06 3.74415e+12
88.6959 626.021 514.4 1.41677e-10 7.44986e+06 624.831 1.41407e-10 2.79476e-10 3.7766e+06 4.41866e+12
93.7309 665.351 607.071 1.27591e-10 8.79764e+06 664.084 1.27348e-10 2.37972e-10 4.71695e+06 5.2147e+12
99.0518 710.286 716.436 1.15416e-10 1.03827e+07 708.87 1.15186e-10 2.02605e-10 5.9146e+06 6.15414e+12
104.675 760.308 845.504 1.04685e-10 1.22515e+07 758.758 1.04471e-10 1.72471e-10 7.43632e+06 7.26283e+12
110.617 819.61 997.824 9.56232e-11 1.44573e+07 817.867 9.54198e-11 1.468e-10 9.41727e+06 8.57124e+12
116.896 889.363 1177.58 8.79219e-11 1.70664e+07 887.396 8.77275e-11 1.24935e-10 1.20104e+07 1.01154e+13
123.532 969.511 1389.73 8.12143e-11 2.0139e+07 967.273 8.10269e-11 1.06313e-10 1.53845e+07 1.19377e+13
130.545 1064.31 1640.09 7.55457e-11 2.37643e+07 1061.79 7.53666e-11 9.04567e-11 1.9847e+07 1.40883e+13
137.955 1176.45 1935.56 7.07585e-11 2.80503e+07 1173.53 7.05829e-11 7.69563e-11 2.57912e+07 1.66263e+13
145.787 1309.38 2284.26 6.67317e-11 3.30981e+07 1305.98 6.65584e-11 6.54636e-11 3.37393e+07 1.96216e+13
154.063 1466.15 2695.77 6.33149e-11 3.90634e+07 1462.26 6.31468e-11 5.56812e-11 4.44189e+07 2.31565e+13
162.808 1654.29 3181.42 6.05342e-11 4.61057e+07 1649.7 6.0366e-11 4.73556e-11 5.89364e+07 2.73282e+13
172.051 1877.42 3754.56 5.82119e-11 5.44046e+07 1872.04 5.80451e-11 4.02708e-11 7.86425e+07 3.22515e+13
181.818 2143.96 4430.96 5.63287e-11 6.42064e+07 2137.66 5.61632e-11 3.42426e-11 1.05619e+08 3.80616e+13
192.139 2461.65 5229.21 5.48024e-11 7.57748e+07 2454.24 5.46376e-11 2.91139e-11 1.42634e+08 4.49186e+13
203.046 2841.31 6171.26 5.35987e-11 8.94213e+07 2832.6 5.34344e-11 2.4751e-11 1.93643e+08 5.30108e+13
214.572 3296.12 7283.03 5.26867e-11 1.05538e+08 3285.85 5.25225e-11 2.10401e-11 2.6428e+08 6.25608e+13
226.753 3843.46 8595.09 5.20573e-11 1.24552e+08 3831.14 5.18905e-11 1.78839e-11 3.62551e+08 7.38313e+13
239.625 4499.18 10143.5 5.16362e-11 1.46987e+08 4484.52 5.1468e-11 1.51999e-11 4.99336e+08 8.71322e+13
253.228 5290.59 11970.9 5.14502e-11 1.7347e+08 5273.03 5.12794e-11 1.29176e-11 6.90922e+08 1.02829e+14
267.603 6249 14127.5 5.14939e-11 2.04703e+08 6227.9 5.132e-11 1.09771e-11 9.60263e+08 1.21354e+14
282.795 7413.71 16672.6 5.17657e-11 2.4161e+08 7388.13 5.15871e-11 9.3274e-12 1.3409e+09 1.43217e+14
298.848 8848.82 19676.2 5.23545e-11 2.85122e+08 8817.46 5.2169e-11 7.925e-12 1.88359e+09 1.69017e+14
315.813 10629.8 23220.9 5.32913e-11 3.36491e+08 10591 5.30968e-11 6.73295e-12 2.66333e+09 1.99466e+14
333.741 12885.6 27404.3 5.4739e-11 3.97115e+08 12836.9 5.4532e-11 5.71979e-12 3.80043e+09 2.35401e+14
352.686 15801.1 32341.2 5.68778e-11 4.68637e+08 15738.5 5.66521e-11 4.85874e-12 5.486e+09 2.77809e+14
372.707 19683.4 38167.6 6.00365e-11 5.53074e+08 19600.5 5.97838e-11 4.12703e-12 8.04565e+09 3.27857e+14
393.865 25053.3 45043.5 6.47505e-11 6.52716e+08 24939.5 6.44564e-11 3.50528e-12 1.20571e+10 3.86921e+14
416.224 29576.8 53158.3 6.47724e-11 2.2184e+08 31289.5 6.85232e-11 2.97701e-12 4.82669e+09 4.56626e+14
439.852 0 62734.9 0 0 0 0 2.52819e-12 0 5.38888e+14
464.821 0 74036.7 0 0 0 0 2.1469e-12 0 6.35971e+14
491.207 0 87374.6 0 0 0 0 1.82301e-12 0 7.50542e+14
519.092 0 103115 0 0 0 0 1.54789e-12 0 8.85755e+14
548.56 0 121692 0 0 0 0 1.31422e-12 0 1.04533e+15
579.7 0 143615 0 0 0 0 1.11576e-12 0 1.23364e+15
612.608 0 169488 0 0 0 0 9.47223e-13 0 1.45589e+15
647.384 0 200021 0 0 0 0 8.041e-13 0 1.71817e+15
684.134 0 236056 0 0 0 0 6.82568e-13 0 2.0277e+15
722.971 0 278582 0 0 0 0 5.79376e-13 0 2.393e+15
764.012 0 328769 0 0 0 0 4.91762e-13 0 2.8241e+15
0.940705
200
1.0655e+09
8589934592
0.0129181 0.00197019 1.58924e-09 0.000144321 6 0.00195216 0.000143 0.00677225 0.127864 13.6515
0.0136515 0 1.87554e-09 0 0 0 0 0.00688819 0 16.1108
0.0144264 0 2.21343e-09 0 0 0 0 0.00699249 0 19.0132
0.0152454 0 2.61218e-09 0 0 0 0 0.00708412 0 22.4385
0.0161108 0 3.08278e-09 0 0 0 0 0.00716212 0 26.4808
0.0170254 0 3.63815e-09 0 0 0 0 0.00722559 0 31.2514
0.0179919 0.0043946 4.29357e-09 0.000119155 12 0.00438894 0.000119001 0.00727371 0.196579 36.8815
0.0190132 0 5.06707e-09 0 0 0 0 0.00730578 0 43.5258
0.0200925 0 5.97991e-09 0 0 0 0 0.00732122 0 51.367
0.0212331 0.00416488 7.05721e-09 6.87036e-05 8 0.00416125 6.86438e-05 0.00731958 0.0750902 60.621
0.0224385 0 8.32858e-09 0 0 0 0 0.00730056 0 71.542
0.0237123 0 9.829e-09 0 0 0 0 0.00726401 0 84.4305
0.0250583 0.0262133 1.15997e-08 0.000263078 6 0.026201 0.000262954 0.00720995 0.218929 99.6408
0.0264808 0 1.36894e-08 0 0 0 0 0.00713857 0 117.591
0.0279841 0.016133 1.61556e-08 0.000116252 24 0.0161165 0.000116133 0.00705021 0.395741 138.776
0.0295727 0 1.90661e-08 0 0 0 0 0.00694538 0 163.777
0.0312514 0.0286132 2.25009e-08 0.000148039 24 0.0287585 0.000148791 0.00682475 0.520596 193.281
0.0330255 0 2.65545e-08 0 0 0 0 0.00668915 0 228.102
0.0349003 0.0437474 3.13384e-08 0.000162512 12 0.0433971 0.000161211 0.00653951 0.298209 269.195
0.0368815 0.0347876 3.69841e-08 0.000109501 30 0.0344171 0.000108335 0.00637693 0.515145 317.691
0.0389751 0.0391913 4.36469e-08 0.000104531 24 0.0387881 0.000103456 0.00620256 0.404471 374.924
0.0411876 0.0252094 5.151e-08 5.69746e-05 24 0.0250382 5.65877e-05 0.00601767 0.227229 442.467
0.0435258 0.0632286 6.07896e-08 0.000121086 8 0.0632237 0.000121077 0.00582358 0.166339 522.179
0.0459966 0.0772032 7.1741e-08 0.000125279 72 0.0765945 0.000124291 0.00562166 1.60452 616.251
0.0486077 0 8.46654e-08 0 0 0 0 0.0054133 0 727.27
0.051367 0.10513 9.99181e-08 0.000122487 54 0.10478 0.00012208 0.00519989 1.27201 858.29
0.054283 0.0852187 1.17919e-07 8.41323e-05 60 0.0856087 8.45173e-05 0.0049828 1.01307 1012.91
0.0573645 0.0792524 1.39162e-07 6.62983e-05 96 0.0790494 6.61284e-05 0.00476339 1.33616 1195.39
0.060621 0.0944861 1.64232e-07 6.6976e-05 24 0.093206 6.60686e-05 0.00454293 0.35383 1410.75
0.0640622 0.161645 1.93819e-07 9.70902e-05 134 0.161714 9.7132e-05 0.00432265 3.00975 1664.89
0.0676989 0.158634 2.28736e-07 8.07369e-05 120 0.157853 8.03393e-05 0.00410371 2.36089 1964.83
0.071542 0.149995 2.69944e-07 6.46866e-05 108 0.148332 6.39691e-05 0.00388717 1.79723 2318.8
0.0756032 0.222285 3.18575e-07 8.12287e-05 174 0.221046 8.07757e-05 0.00367401 3.84697 2736.54
0.079895 0.232257 3.75967e-07 7.19165e-05 168 0.230073 7.12403e-05 0.0034651 3.48676 3229.53
0.0844305 0.193161 4.43698e-07 5.06806e-05 168 0.194116 5.09311e-05 0.00326121 2.6108 3811.34
0.0892234 0.233212 5.23632e-07 5.18484e-05 290 0.232101 5.16013e-05 0.00306301 4.9089 4497.96
0.0942883 0.278794 6.17966e-07 5.25205e-05 288 0.278209 5.24103e-05 0.00287109 5.26835 5308.28
0.0996408 0.250407 7.29294e-07 3.99718e-05 366 0.248506 3.96683e-05 0.00268591 5.44683 6264.59
0.105297 0.296241 8.60678e-07 4.00695e-05 420 0.294116 3.97821e-05 0.00250785 6.71059 7393.17
0.111275 0.316711 1.01573e-06 3.6299e-05 398 0.315848 3.62001e-05 0.00233721 6.1813 8725.07
0.117591 0.375941 1.19872e-06 3.65101e-05 624 0.377027 3.66156e-05 0.00217419 10.4785 10296.9
0.124267 0.438884 1.41467e-06 3.61164e-05 642 0.437863 3.60324e-05 0.00201893 11.4847 12151.9
0.131321 0.512877 1.66953e-06 3.57627e-05 800 0.512981 3.57699e-05 0.00187147 15.2875 14341.1
0.138776 0.477217 1.9703e-06 2.81965e-05 858 0.479216 2.83146e-05 0.00173182 13.9695 16924.7
0.146654 0.558827 2.32525e-06 2.79781e-05 1080 0.563455 2.82098e-05 0.00159991 18.8863 19973.8
0.154979 0.64969 2.74415e-06 2.75618e-05 1286 0.653752 2.77342e-05 0.00147563 24.0198 23572.1
0.163777 0.639497 3.23852e-06 2.29881e-05 1650 0.641357 2.30549e-05 0.00135884 27.9137 27818.7
0.173074 0.710024 3.82195e-06 2.16271e-05 1778 0.710603 2.16448e-05 0.00124933 30.7789 32830.3
0.182899 0.773934 4.51048e-06 1.99752e-05 2112 0.775672 2.00201e-05 0.00114689 36.7844 38744.7
0.193281 0.853467 5.32305e-06 1.86654e-05 2570 0.854058 1.86783e-05 0.00105127 45.6304 45724.7
0.204254 1.00007 6.28202e-06 1.85328e-05 3030 0.999382 1.85201e-05 0.000962209 58.3597 53962.1
0.215848 1.04526 7.41374e-06 1.64133e-05 3434 1.04484 1.64067e-05 0.000879423 64.0914 63683.5
0.228102 1.11294 8.74934e-06 1.48083e-05 4218 1.11216 1.4798e-05 0.000802624 77.8216 75156.3
0.24105 1.24071 1.03256e-05 1.39884e-05 4766 1.24147 1.39969e-05 0.000731515 91.1379 88695.9
0.254734 1.35295 1.21857e-05 1.29253e-05 6026 1.35289 1.29247e-05 0.000665798 116.984 104675
0.269195 1.54969 1.4381e-05 1.25448e-05 6480 1.54829 1.25335e-05 0.000605173 134.326 123532
0.284476 1.67051 1.69718e-05 1.14586e-05 8162 1.67332 1.14779e-05 0.000549345 170.248 145787
0.300625 1.85312 2.00293e-05 1.07708e-05 9578 1.85362 1.07737e-05 0.000498021 207.145 172051
0.317691 2.06358 2.36377e-05 1.01631e-05 11234 2.062 1.01553e-05 0.000450916 253.201 203046
0.335725 2.21772 2.78961e-05 9.25494e-06 13344 2.21372 9.23826e-06 0.000407755 302.873 239625
0.354784 2.51069 3.29216e-05 8.87815e-06 15464 2.50912 8.87258e-06 0.000368269 372.803 282795
0.374924 2.72611 3.88525e-05 8.16835e-06 18458 2.72327 8.15983e-06 0.000332202 453.855 333741
0.396207 3.16058 4.58519e-05 8.02452e-06 22232 3.1552 8.01085e-06 0.000299307 596.048 393865
0.418699 3.40183 5.41123e-05 7.31858e-06 25628 3.39347 7.30059e-06 0.00026935 696.346 464821
0.442467 3.73826 6.38607e-05 6.81469e-06 30320 3.73179 6.80289e-06 0.000242108 853.427 548560
0.467585 4.23074 7.53654e-05 6.53513e-06 35452 4.22288 6.52299e-06 0.00021737 1065.85 647384
0.494129 4.69776 8.89427e-05 6.14881e-06 41792 4.69236 6.14174e-06 0.000194938 1318.22 764012
0.522179 5.29256 0.000104966 5.86986e-06 49988 5.29175 5.86896e-06 0.000174625 1680.3 901651
0.551822 5.93366 0.000123876 5.5763e-06 59110 5.92574 5.56885e-06 0.000156255 2109.47 1.06409e+06
0.583147 6.62142 0.000146192 5.27274e-06 69716 6.6109 5.26437e-06 0.000139664 2631.99 1.25578e+06
0.616251 7.41741 0.000172529 5.00495e-06 82210 7.40267 4.995e-06 0.0001247 3299.57 1.48202e+06
0.651234 8.17497 0.000203611 4.67407e-06 96722 8.15705 4.66382e-06 0.00011122 4064.77 1.74901e+06
0.688203 9.28932 0.000240292 4.50043e-06 113098 9.27402 4.49302e-06 9.90935e-05 5136.46 2.06409e+06
0.72727 10.4344 0.000283581 4.2835e-06 135190 10.4187 4.27706e-06 8.81969e-05 6565.83 2.43595e+06
0.768555 11.6437 0.000334669 4.05029e-06 158170 11.6243 4.04354e-06 7.84179e-05 8169.48 2.87479e+06
0.812184 13.077 0.000394961 3.85446e-06 188560 13.0561 3.8483e-06 6.96525e-05 10434.6 3.39269e+06
0.85829 14.632 0.000466114 3.65444e-06 220444 14.6078 3.64839e-06 6.1805e-05 13034.5 4.00389e+06
0.907013 16.3354 0.000550086 3.45708e-06 261388 16.3081 3.4513e-06 5.47875e-05 16493.5 4.7252e+06
0.958501 18.3018 0.000649185 3.28197e-06 308244 18.2732 3.27684e-06 4.85194e-05 20850.4 5.57646e+06
1.01291 20.5122 0.000766138 3.11685e-06 364396 20.4771 3.11151e-06 4.29272e-05 26458 6.58107e+06
1.07041 22.8307 0.00090416 2.93958e-06 429162 22.7889 2.93419e-06 3.79435e-05 33248.3 7.76667e+06
1.13118 25.4623 0.00106705 2.77795e-06 506358 25.4184 2.77316e-06 3.3507e-05 41980.4 9.16586e+06
1.19539 28.4309 0.00125928 2.62833e-06 598590 28.3781 2.62344e-06 2.9562e-05 53220 1.08171e+07
1.26325 31.5664 0.00148614 2.47272e-06 704844 31.5114 2.46842e-06 2.60578e-05 66885.2 1.27658e+07
1.33496 35.0265 0.00175387 2.32493e-06 834620 34.9585 2.32041e-06 2.29484e-05 84556 1.50656e+07
1.41075 38.8256 0.00206984 2.1837e-06 981444 38.7532 2.17962e-06 2.01923e-05 106138 1.77798e+07
1.49083 42.806 0.00244272 2.04005e-06 1.15998e+06 42.7289 2.03637e-06 1.77518e-05 133306 2.09828e+07
1.57546 47.1842 0.00288279 1.90544e-06 1.36931e+06 47.0997 1.90202e-06 1.55929e-05 167329 2.4763e+07
1.66489 51.8933 0.00340213 1.7757e-06 1.61652e+06 51.7989 1.77247e-06 1.3685e-05 209752 2.92241e+07
1.75941 56.986 0.00401503 1.6523e-06 1.90601e+06 56.8808 1.64925e-06 1.20007e-05 262427 3.44889e+07
1.85928 62.432 0.00473835 1.53388e-06 2.24913e+06 62.3177 1.53107e-06 1.05151e-05 328088 4.07021e+07
1.96483 68.0586 0.00559198 1.41686e-06 2.65744e+06 67.9367 1.41432e-06 9.20606e-06 408995 4.80347e+07
2.07637 74.0249 0.00659939 1.30582e-06 3.13125e+06 73.8971 1.30357e-06 8.05366e-06 507702 5.66883e+07
2.19424 80.6542 0.00778828 1.20558e-06 3.69915e+06 80.5102 1.20343e-06 7.04008e-06 633461 6.69008e+07
2.3188 87.3616 0.00919136 1.1065e-06 4.36472e+06 87.2125 1.10461e-06 6.1494e-06 785371 7.89532e+07
2.45043 94.7343 0.0108472 1.01672e-06 5.14913e+06 94.5679 1.01493e-06 5.36741e-06 975368 9.31768e+07
2.58954 102.405 0.0128014 9.31268e-07 6.07894e+06 102.237 9.29743e-07 4.68145e-06 1.20927e+06 1.09963e+08
2.73654 110.643 0.0151076 8.52589e-07 7.17304e+06 110.453 8.51128e-07 4.08023e-06 1.49885e+06 1.29773e+08
2.89188 119.282 0.0178292 7.78845e-07 8.46557e+06 119.084 7.77553e-07 3.55373e-06 1.85534e+06 1.53152e+08
3.05605 128.336 0.0210412 7.1005e-07 9.98773e+06 128.123 7.08869e-07 3.09304e-06 2.29282e+06 1.80743e+08
3.22953 137.894 0.0248319 6.46467e-07 1.1797e+07 137.667 6.45403e-07 2.69025e-06 2.83482e+06 2.13304e+08
3.41286 147.987 0.0293054 5.87878e-07 1.39144e+07 147.735 5.86874e-07 2.33837e-06 3.49814e+06 2.51731e+08
3.6066 158.613 0.0345848 5.33903e-07 1.64163e+07 158.346 5.33005e-07 2.0312e-06 4.31503e+06 2.97081e+08
3.81134 170.005 0.0408154 4.84894e-07 1.93821e+07 169.729 4.84107e-07 1.76327e-06 5.33005e+06 3.50601e+08
4.0277 181.863 0.0481684 4.39534e-07 2.28754e+07 181.56 4.38803e-07 1.52972e-06 6.57277e+06 4.13763e+08
4.25634 194.275 0.056846 3.97858e-07 2.69929e+07 193.951 3.97194e-07 1.32631e-06 8.09717e+06 4.88304e+08
4.49796 207.301 0.067087 3.59727e-07 3.18542e+07 206.958 3.59133e-07 1.14926e-06 9.97063e+06 5.76273e+08
4.7533 221.236 0.0791729 3.25304e-07 3.75892e+07 220.867 3.24762e-07 9.95263e-07 1.22861e+07 6.8009e+08
5.02313 235.591 0.0934361 2.93531e-07 4.43706e+07 235.203 2.93047e-07 8.61414e-07 1.51195e+07 8.0261e+08
5.30828 250.898 0.110269 2.64883e-07 5.23593e+07 250.479 2.6444e-07 7.45152e-07 1.86124e+07 9.47202e+08
5.60962 267.149 0.130134 2.38986e-07 6.1787e+07 266.709 2.38593e-07 6.44232e-07 2.29207e+07 1.11784e+09
5.92807 284.041 0.153578 2.15309e-07 7.29346e+07 283.571 2.14953e-07 5.56685e-07 2.82089e+07 1.31923e+09
6.26459 301.499 0.181246 1.93655e-07 8.60651e+07 300.999 1.93334e-07 4.80786e-07 3.46659e+07 1.55689e+09
6.62021 319.946 0.213898 1.74133e-07 1.01558e+08 319.417 1.73845e-07 4.15026e-07 4.26109e+07 1.83737e+09
6.99602 339.043 0.252432 1.56358e-07 1.1986e+08 338.487 1.56102e-07 3.58083e-07 5.23373e+07 2.16837e+09
7.39317 359.136 0.297908 1.40342e-07 1.41457e+08 358.544 1.4011e-07 3.08803e-07 6.42878e+07 2.55901e+09
7.81286 380.305 0.351577 1.25928e-07 1.66936e+08 379.685 1.25723e-07 2.66181e-07 7.89759e+07 3.02002e+09
8.25637 402.574 0.414914 1.12953e-07 1.97025e+08 401.907 1.12766e-07 2.29336e-07 9.70391e+07 3.56409e+09
8.72507 426.105 0.489662 1.01305e-07 2.32497e+08 425.397 1.01136e-07 1.97503e-07 1.19254e+08 4.20617e+09
9.22037 451.115 0.577876 9.08788e-08 2.74404e+08 450.355 9.07256e-08 1.70014e-07 1.46679e+08 4.96392e+09
9.74378 478.327 0.681982 8.16512e-08 3.2382e+08 477.507 8.15111e-08 1.46289e-07 1.8074e+08 5.85818e+09
10.2969 509.222 0.804843 7.36556e-08 3.82165e+08 508.316 7.35246e-08 1.25822e-07 2.23717e+08 6.91355e+09
10.8814 545.677 0.949838 6.688e-08 4.51027e+08 544.637 6.67526e-08 1.08175e-07 2.7885e+08 8.15905e+09
11.4992 592.208 1.12095 6.15031e-08 5.32251e+08 590.951 6.13725e-08 9.29669e-08 3.52115e+08 9.62892e+09
12.1519 657.852 1.3229 5.78911e-08 6.28157e+08 656.206 5.77464e-08 7.98658e-08 4.55323e+08 1.13636e+10
12.8418 731.596 1.56122 5.45528e-08 3.82727e+08 757.226 5.6464e-08 6.85852e-08 3.04422e+08 1.34108e+10
13.5708 0 1.84248 0 0 0 0 5.88765e-08 0 1.58268e+10
14.3411 0 2.17441 0 0 0 0 5.05241e-08 0 1.8678e+10
15.1552 0 2.56613 0 0 0 0 4.33417e-08 0 2.20429e+10
16.0156 0 3.02843 0 0 0 0 3.71677e-08 0 2.6014e+10
16.9247 0 3.574 0 0 0 0 3.18628e-08 0 3.07005e+10
17.8855 0 4.21787 0 0 0 0 2.73063e-08 0 3.62312e+10
18.9008 0 4.97773 0 0 0 0 2.33941e-08 0 4.27584e+10
19.9738 0 5.87448 0 0 0 0 2.00364e-08 0 5.04614e+10
21.1076 0 6.93279 0 0 0 0 1.71555e-08 0 5.95522e+10
22.3058 0 8.18175 0 0 0 0 1.46847e-08 0 7.02807e+10
23.5721 0 9.65571 0 0 0 0 1.25662e-08 0 8.29419e+10
24.9102 0 11.3952 0 0 0 0 1.07504e-08 0 9.78842e+10
26.3243 0 13.4481 0 0 0 0 9.19452e-09 0 1.15518e+11
27.8187 0 15.8708 0 0 0 0 7.86182e-09 0 1.36329e+11
29.3979 0 18.73 0 0 0 0 6.72061e-09 0 1.60889e+11
31.0667 0 22.1042 0 0 0 0 5.74366e-09 0 1.89874e+11
32.8303 0 26.0864 0 0 0 0 4.90756e-09 0 2.2408e+11
34.694 0 30.7859 0 0 0 0 4.19221e-09 0 2.64449e+11
36.6634 0 36.3321 0 0 0 0 3.58032e-09 0 3.1209e+11
38.7447 0 42.8774 0 0 0 0 3.05709e-09 0 3.68314e+11
40.9442 0 50.6018 0 0 0 0 2.60976e-09 0 4.34667e+11
43.2685 0 59.7179 0 0 0 0 2.22743e-09 0 5.12973e+11
45.7247 0 70.4762 0 0 0 0 1.90073e-09 0 6.05386e+11
48.3204 0 83.1727 0 0 0 0 1.62163e-09 0 7.14448e+11
51.0634 0 98.1565 0 0 0 0 1.38326e-09 0 8.43158e+11
53.9621 0 115.84 0 0 0 0 1.1797e-09 0 9.95055e+11
57.0254 0 136.709 0 0 0 0 1.00592e-09 0 1.17432e+12
60.2626 0 161.337 0 0 0 0 8.57591e-10 0 1.38587e+12
63.6835 0 190.402 0 0 0 0 7.3101e-10 0 1.63554e+12
67.2987 0 224.704 0 0 0 0 6.23009e-10 0 1.93019e+12
71.1191 0 265.185 0 0 0 0 5.30879e-10 0 2.27792e+12
75.1563 0 312.958 0 0 0 0 4.52303e-10 0 2.68829e+12
79.4227 0 369.339 0 0 0 0 3.85299e-10 0 3.17259e+12
83.9313 0 435.876 0 0 0 0 3.28173e-10 0 3.74415e+12
88.6959 0 514.4 0 0 0 0 2.79476e-10 0 4.41866e+12
93.7309 0 607.071 0 0 0 0 2.37972e-10 0 5.2147e+12
99.0518 0 716.436 0 0 0 0 2.02605e-10 0 6.15414e+12
104.675 0 845.504 0 0 0 0 1.72471e-10 0 7.26283e+12
110.617 0 997.824 0 0 0 0 1.468e-10 0 8.57124e+12
116.896 0 1177.58 0 0 0 0 1.24935e-10 0 1.01154e+13
123.532 0 1389.73 0 0 0 0 1.06313e-10 0 1.19377e+13
130.545 0 1640.09 0 0 0 0 9.04567e-11 0 1.40883e+13
137.955 0 1935.56 0 0 0 0 7.69563e-11 0 1.66263e+13
145.787 0 2284.26 0 0 0 0 6.54636e-11 0 1.96216e+13
154.063 0 2695.77 0 0 0 0 5.56812e-11 0 2.31565e+13
162.808 0 3181.42 0 0 0 0 4.73556e-11 0 2.73282e+13
172.051 0 3754.56 0 0 0 0 4.02708e-11 0 3.22515e+13
181.818 0 4430.96 0 0 0 0 3.42426e-11 0 3.80616e+13
192.139 0 5229.21 0 0 0 0 2.91139e-11 0 4.49186e+13
203.046 0 6171.26 0 0 0 0 2.4751e-11 0 5.30108e+13
214.572 0 7283.03 0 0 0 0 2.10401e-11 0 6.25608e+13
226.753 0 8595.09 0 0 0 0 1.78839e-11 0 7.38313e+13
239.625 0 10143.5 0 0 0 0 1.51999e-11 0 8.71322e+13
253.228 0 11970.9 0 0 0 0 1.29176e-11 0 1.02829e+14
267.603 0 14127.5 0 0 0 0 1.09771e-11 0 1.21354e+14
282.795 0 16672.6 0 0 0 0 9.3274e-12 0 1.43217e+14
298.848 0 19676.2 0 0 0 0 7.925e-12 0 1.69017e+14
315.813 0 23220.9 0 0 0 0 6.73295e-12 0 1.99466e+14
333.741 0 27404.3 0 0 0 0 5.71979e-12 0 2.35401e+14
352.686 0 32341.2 0 0 0 0 4.85874e-12 0 2.77809e+14
372.707 0 38167.6 0 0 0 0 4.12703e-12 0 3.27857e+14
393.865 0 45043.5 0 0 0 0 3.50528e-12 0 3.86921e+14
416.224 0 53158.3 0 0 0 0 2.97701e-12 0 4.56626e+14
439.852 0 62734.9 0 0 0 0 2.52819e-12 0 5.38888e+14
464.821 0 74036.7 0 0 0 0 2.1469e-12 0 6.35971e+14
491.207 0 87374.6 0 0 0 0 1.82301e-12 0 7.50542e+14
519.092 0 103115 0 0 0 0 1.54789e-12 0 8.85755e+14
548.56 0 121692 0 0 0 0 1.31422e-12 0 1.04533e+15
579.7 0 143615 0 0 0 0 1.11576e-12 0 1.23364e+15
612.608 0 169488 0 0 0 0 9.47223e-13 0 1.45589e+15
647.384 0 200021 0 0 0 0 8.041e-13 0 1.71817e+15
684.134 0 236056 0 0 0 0 6.82568e-13 0 2.0277e+15
722.971 0 278582 0 0 0 0 5.79376e-13 0 2.393e+15
764.012 0 328769 0 0 0 0 4.91762e-13 0 2.8241e+15
