0.845274
200
1.0655e+09
8589934592
0.0129181 0 1.58924e-09 0 0 0 0 0.00677225 0 13.6515
0.0136515 0 1.87554e-09 0 0 0 0 0.00688819 0 16.1108
0.0144264 0 2.21343e-09 0 0 0 0 0.00699249 0 19.0132
0.0152454 0 2.61218e-09 0 0 0 0 0.00708412 0 22.4385
0.0161108 0 3.08278e-09 0 0 0 0 0.00716212 0 26.4808
0.0170254 0 3.63815e-09 0 0 0 0 0.00722559 0 31.2514
0.0179919 0 4.29357e-09 0 0 0 0 0.00727371 0 36.8815
0.0190132 0 5.06707e-09 0 0 0 0 0.00730578 0 43.5258
0.0200925 0 5.97991e-09 0 0 0 0 0.00732122 0 51.367
0.0212331 0 7.05721e-09 0 0 0 0 0.00731958 0 60.621
0.0224385 0 8.32858e-09 0 0 0 0 0.00730056 0 71.542
0.0237123 0 9.829e-09 0 0 0 0 0.00726401 0 84.4305
0.0250583 0 1.15997e-08 0 0 0 0 0.00720995 0 99.6408
0.0264808 0 1.36894e-08 0 0 0 0 0.00713857 0 117.591
0.0279841 0 1.61556e-08 0 0 0 0 0.00705021 0 138.776
0.0295727 0 1.90661e-08 0 0 0 0 0.00694538 0 163.777
0.0312514 0 2.25009e-08 0 0 0 0 0.00682475 0 193.281
0.0330255 0 2.65545e-08 0 0 0 0 0.00668915 0 228.102
0.0349003 0 3.13384e-08 0 0 0 0 0.00653951 0 269.195
0.0368815 0 3.69841e-08 0 0 0 0 0.00637693 0 317.691
0.0389751 0 4.36469e-08 0 0 0 0 0.00620256 0 374.924
0.0411876 0 5.151e-08 0 0 0 0 0.00601767 0 442.467
0.0435258 0 6.07896e-08 0 0 0 0 0.00582358 0 522.179
0.0459966 0 7.1741e-08 0 0 0 0 0.00562166 0 616.251
0.0486077 0 8.46654e-08 0 0 0 0 0.0054133 0 727.27
0.051367 0 9.99181e-08 0 0 0 0 0.00519989 0 858.29
0.054283 0 1.17919e-07 0 0 0 0 0.0049828 0 1012.91
0.0573645 0 1.39162e-07 0 0 0 0 0.00476339 0 1195.39
0.060621 0 1.64232e-07 0 0 0 0 0.00454293 0 1410.75
0.0640622 0 1.93819e-07 0 0 0 0 0.00432265 0 1664.89
0.0676989 0 2.28736e-07 0 0 0 0 0.00410371 0 1964.83
0.071542 0 2.69944e-07 0 0 0 0 0.00388717 0 2318.8
0.0756032 0 3.18575e-07 0 0 0 0 0.00367401 0 2736.54
0.079895 0 3.75967e-07 0 0 0 0 0.0034651 0 3229.53
0.0844305 0 4.43698e-07 0 0 0 0 0.00326121 0 3811.34
0.0892234 0 5.23632e-07 0 0 0 0 0.00306301 0 4497.96
0.0942883 0 6.17966e-07 0 0 0 0 0.00287109 0 5308.28
0.0996408 0 7.29294e-07 0 0 0 0 0.00268591 0 6264.59
0.105297 0 8.60678e-07 0 0 0 0 0.00250785 0 7393.17
0.111275 0 1.01573e-06 0 0 0 0 0.00233721 0 8725.07
0.117591 0 1.19872e-06 0 0 0 0 0.00217419 0 10296.9
0.124267 0 1.41467e-06 0 0 0 0 0.00201893 0 12151.9
0.131321 0 1.66953e-06 0 0 0 0 0.00187147 0 14341.1
0.138776 0 1.9703e-06 0 0 0 0 0.00173182 0 16924.7
0.146654 0 2.32525e-06 0 0 0 0 0.00159991 0 19973.8
0.154979 0 2.74415e-06 0 0 0 0 0.00147563 0 23572.1
0.163777 0 3.23852e-06 0 0 0 0 0.00135884 0 27818.7
0.173074 0 3.82195e-06 0 0 0 0 0.00124933 0 32830.3
0.182899 0 4.51048e-06 0 0 0 0 0.00114689 0 38744.7
0.193281 0 5.32305e-06 0 0 0 0 0.00105127 0 45724.7
0.204254 0 6.28202e-06 0 0 0 0 0.000962209 0 53962.1
0.215848 0 7.41374e-06 0 0 0 0 0.000879423 0 63683.5
0.228102 0 8.74934e-06 0 0 0 0 0.000802624 0 75156.3
0.24105 0 1.03256e-05 0 0 0 0 0.000731515 0 88695.9
0.254734 0 1.21857e-05 0 0 0 0 0.000665798 0 104675
0.269195 0 1.4381e-05 0 0 0 0 0.000605173 0 123532
0.284476 0 1.69718e-05 0 0 0 0 0.000549345 0 145787
0.300625 0 2.00293e-05 0 0 0 0 0.000498021 0 172051
0.317691 0 2.36377e-05 0 0 0 0 0.000450916 0 203046
0.335725 0 2.78961e-05 0 0 0 0 0.000407755 0 239625
0.354784 0 3.29216e-05 0 0 0 0 0.000368269 0 282795
0.374924 0 3.88525e-05 0 0 0 0 0.000332202 0 333741
0.396207 2.66191 4.58519e-05 6.75842e-06 6 2.5879 6.57053e-06 0.000299307 0.135482 393865
0.418699 0 5.41123e-05 0 0 0 0 0.00026935 0 464821
0.442467 0 6.38607e-05 0 0 0 0 0.000242108 0 548560
0.467585 0 7.53654e-05 0 0 0 0 0.00021737 0 647384
0.494129 0 8.89427e-05 0 0 0 0 0.000194938 0 764012
0.522179 0 0.000104966 0 0 0 0 0.000174625 0 901651
0.551822 0 0.000123876 0 0 0 0 0.000156255 0 1.06409e+06
0.583147 5.52946 0.000146192 4.40319e-06 12 5.81979 4.63439e-06 0.000139664 0.378325 1.25578e+06
0.616251 0 0.000172529 0 0 0 0 0.0001247 0 1.48202e+06
0.651234 0 0.000203611 0 0 0 0 0.00011122 0 1.74901e+06
0.688203 11.0451 0.000240292 5.35105e-06 8 10.7703 5.21792e-06 9.90935e-05 0.432 2.06409e+06
0.72727 0 0.000283581 0 0 0 0 8.81969e-05 0 2.43595e+06
0.768555 0 0.000334669 0 0 0 0 7.84179e-05 0 2.87479e+06
0.812184 12.9959 0.000394961 3.83055e-06 6 13.2737 3.91245e-06 6.96525e-05 0.329971 3.39269e+06
0.85829 0 0.000466114 0 0 0 0 6.1805e-05 0 4.00389e+06
0.907013 2.79579 0.000550086 5.91677e-07 24 2.84944 6.0303e-07 5.47875e-05 0.259188 4.7252e+06
0.958501 4.78934 0.000649185 8.58849e-07 24 4.50881 8.08543e-07 4.85194e-05 0.424827 5.57646e+06
1.01291 0 0.000766138 0 0 0 0 4.29272e-05 0 6.58107e+06
1.07041 0 0.00090416 0 0 0 0 3.79435e-05 0 7.76667e+06
1.13118 9.40534 0.00106705 1.02613e-06 12 9.28981 1.01352e-06 3.3507e-05 0.367491 9.16586e+06
1.19539 3.33136 0.00125928 3.07971e-07 30 3.26268 3.01622e-07 2.9562e-05 0.312534 1.08171e+07
1.26325 10.7037 0.00148614 8.38464e-07 24 10.5426 8.25847e-07 2.60578e-05 0.772249 1.27658e+07
1.33496 13.9326 0.00175387 9.24795e-07 24 13.9633 9.26828e-07 2.29484e-05 0.967171 1.50656e+07
1.41075 17.1713 0.00206984 9.65776e-07 32 17.5101 9.84833e-07 2.01923e-05 1.53053 1.77798e+07
1.49083 4.87448 0.00244272 2.32308e-07 48 4.77056 2.27355e-07 1.77518e-05 0.628151 2.09828e+07
1.57546 27.0181 0.00288279 1.09107e-06 6 25.7274 1.03895e-06 1.55929e-05 0.419835 2.4763e+07
1.66489 5.48055 0.00340213 1.87536e-07 84 5.34877 1.83026e-07 1.3685e-05 1.15111 2.92241e+07
1.75941 8.25614 0.00401503 2.39386e-07 48 8.16831 2.36839e-07 1.20007e-05 0.957488 3.44889e+07
1.85928 5.8447 0.00473835 1.43597e-07 72 5.85565 1.43866e-07 1.05151e-05 0.983251 4.07021e+07
1.96483 16.1089 0.00559198 3.35359e-07 54 15.8083 3.29102e-07 9.20606e-06 1.96712 4.80347e+07
2.07637 12.5301 0.00659939 2.21035e-07 104 12.6644 2.23405e-07 8.05366e-06 2.85431 5.66883e+07
2.19424 8.73906 0.00778828 1.30627e-07 120 8.85985 1.32433e-07 7.04008e-06 2.22657 6.69008e+07
2.3188 9.73192 0.00919136 1.23262e-07 156 9.50019 1.20327e-07 6.1494e-06 3.12695 7.89532e+07
2.45043 10.8368 0.0108472 1.16303e-07 126 10.7117 1.14961e-07 5.36741e-06 2.73022 9.31768e+07
2.58954 13.0116 0.0128014 1.18327e-07 192 13.0469 1.18648e-07 4.68145e-06 4.85293 1.09963e+08
2.73654 37.834 0.0151076 2.9154e-07 152 38.3745 2.95705e-07 4.08023e-06 10.8607 1.29773e+08
2.89188 14.8117 0.0178292 9.67121e-08 378 14.8794 9.71542e-08 3.55373e-06 10.287 1.53152e+08
3.05605 17.0243 0.0210412 9.41911e-08 264 16.8617 9.32914e-08 3.09304e-06 8.03949 1.80743e+08
3.22953 17.6603 0.0248319 8.27942e-08 366 17.6288 8.26466e-08 2.69025e-06 11.2639 2.13304e+08
3.41286 17.3192 0.0293054 6.88003e-08 428 17.0522 6.77396e-08 2.33837e-06 12.5927 2.51731e+08
3.6066 21.3821 0.0345848 7.19738e-08 486 21.1887 7.1323e-08 2.0312e-06 17.221 2.97081e+08
3.81134 19.1824 0.0408154 5.47129e-08 600 19.2083 5.47867e-08 1.76327e-06 18.6176 3.50601e+08
4.0277 25.4713 0.0481684 6.15602e-08 738 25.4198 6.14355e-08 1.52972e-06 29.6991 4.13763e+08
4.25634 23.8575 0.056846 4.88579e-08 824 23.7622 4.86627e-08 1.32631e-06 30.3542 4.88304e+08
4.49796 25.5515 0.067087 4.43392e-08 954 25.3666 4.40183e-08 1.14926e-06 36.806 5.76273e+08
4.7533 27.0799 0.0791729 3.98181e-08 1094 26.8649 3.95019e-08 9.95263e-07 43.7683 6.8009e+08
5.02313 30.1096 0.0934361 3.75146e-08 1332 30.1431 3.75564e-08 8.61414e-07 58.0087 8.0261e+08
5.30828 36.6573 0.110269 3.87006e-08 1614 36.6752 3.87195e-08 7.45152e-07 83.8255 9.47202e+08
5.60962 40.4034 0.130134 3.61441e-08 1850 40.4506 3.61863e-08 6.44232e-07 103.793 1.11784e+09
5.92807 37.0042 0.153578 2.80499e-08 2238 37.0013 2.80478e-08 5.56685e-07 112.767 1.31923e+09
6.26459 36.7059 0.181246 2.35764e-08 2546 36.7872 2.36287e-08 4.80786e-07 124.849 1.55689e+09
6.62021 38.5074 0.213898 2.0958e-08 3264 38.4796 2.09428e-08 4.15026e-07 164.826 1.83737e+09
6.99602 44.5188 0.252432 2.0531e-08 3506 44.5837 2.05609e-08 3.58083e-07 201.02 2.16837e+09
7.39317 50.8775 0.297908 1.98817e-08 4506 50.9087 1.98939e-08 3.08803e-07 290.11 2.55901e+09
7.81286 52.955 0.351577 1.75346e-08 5018 52.8129 1.74876e-08 2.66181e-07 330.56 3.02002e+09
8.25637 55.3487 0.414914 1.55296e-08 5852 55.284 1.55114e-08 2.29336e-07 396.27 3.56409e+09
8.72507 57.3946 0.489662 1.36453e-08 7362 57.3118 1.36257e-08 1.97503e-07 508.635 4.20617e+09
9.22037 60.508 0.577876 1.21896e-08 8306 60.3455 1.21568e-08 1.70014e-07 595.518 4.96392e+09
9.74378 65.5487 0.681982 1.11892e-08 9698 65.4932 1.11798e-08 1.46289e-07 741.773 5.85818e+09
10.2969 67.431 0.804843 9.75345e-09 11816 67.3473 9.74135e-09 1.25822e-07 915.948 6.91355e+09
10.8814 79.7006 0.949838 9.76838e-09 13682 79.4703 9.74015e-09 1.08175e-07 1235.5 8.15905e+09
11.4992 75.595 1.12095 7.85083e-09 16152 75.6129 7.85268e-09 9.29669e-08 1364 9.62892e+09
12.1519 81.0755 1.3229 7.13467e-09 19472 80.9065 7.1198e-09 7.98658e-08 1739.5 1.13636e+10
12.8418 84.4485 1.56122 6.29706e-09 22670 84.2406 6.28156e-09 6.85852e-08 2081.42 1.34108e+10
13.5708 91.9181 1.84248 5.80777e-09 26224 91.8747 5.80502e-09 5.88765e-08 2586.82 1.58268e+10
14.3411 99.3825 2.17441 5.32083e-09 31640 99.3034 5.3166e-09 5.05241e-08 3332.09 1.8678e+10
15.1552 103.225 2.56613 4.68291e-09 37484 103.07 4.67591e-09 4.33417e-08 4050.01 2.20429e+10
16.0156 113.18 3.02843 4.35075e-09 43856 113.011 4.34426e-09 3.71677e-08 5133.66 2.6014e+10
16.9247 117.279 3.574 3.82011e-09 51362 117.158 3.81617e-09 3.18628e-08 6157.91 3.07005e+10
17.8855 121.881 4.21787 3.36397e-09 61636 121.73 3.35982e-09 2.73063e-08 7593.18 3.62312e+10
18.9008 130.245 4.97773 3.04607e-09 72218 129.978 3.03982e-09 2.33941e-08 9403.26 4.27584e+10
19.9738 138.098 5.87448 2.73671e-09 84586 137.89 2.73257e-09 2.00364e-08 11553.3 5.04614e+10
21.1076 147.613 6.93279 2.47872e-09 100708 147.409 2.4753e-09 1.71555e-08 14550.8 5.95522e+10
22.3058 155.377 8.18175 2.21081e-09 118712 155.12 2.20715e-09 1.46847e-08 17872.4 7.02807e+10
23.5721 163.414 9.65571 1.97023e-09 140410 163.136 1.96687e-09 1.25662e-08 22014.6 8.29419e+10
24.9102 171.823 11.3952 1.75537e-09 164374 171.556 1.75264e-09 1.07504e-08 26839.7 9.78842e+10
26.3243 180.412 13.4481 1.56176e-09 194680 180.138 1.55939e-09 9.19452e-09 33068 1.15518e+11
27.8187 189.645 15.8708 1.39108e-09 230196 189.361 1.38899e-09 7.86182e-09 40731.1 1.36329e+11
29.3979 199.722 18.73 1.24136e-09 271156 199.372 1.23919e-09 6.72061e-09 50085.2 1.60889e+11
31.0667 212.255 22.1042 1.11788e-09 321076 211.896 1.11599e-09 5.74366e-09 62490.3 1.89874e+11
32.8303 222.697 26.0864 9.93826e-10 377436 222.269 9.91918e-10 4.90756e-09 76434.2 2.2408e+11
34.694 233.532 30.7859 8.83089e-10 447594 233.107 8.81481e-10 4.19221e-09 94285.7 2.64449e+11
36.6634 245.571 36.3321 7.8686e-10 525078 245.121 7.85416e-10 3.58032e-09 115398 3.1209e+11
38.7447 258.712 42.8774 7.02422e-10 621924 258.238 7.01135e-10 3.05709e-09 142899 3.68314e+11
40.9442 271.622 50.6018 6.24897e-10 732630 271.12 6.23742e-10 2.60976e-09 175426 4.34667e+11
43.2685 285.243 59.7179 5.56059e-10 865596 284.77 5.55137e-10 2.22743e-09 216088 5.12973e+11
45.7247 300.161 70.4762 4.95817e-10 1.02168e+06 299.652 4.94976e-10 1.90073e-09 266510 6.05386e+11
48.3204 314.251 83.1727 4.39851e-10 1.20544e+06 313.698 4.39078e-10 1.62163e-09 326962 7.14448e+11
51.0634 328.352 98.1565 3.89431e-10 1.42103e+06 327.776 3.88748e-10 1.38326e-09 400065 8.43158e+11
53.9621 344.082 115.84 3.45791e-10 1.67997e+06 343.483 3.45189e-10 1.1797e-09 492428 9.95055e+11
57.0254 362.658 136.709 3.08824e-10 1.98018e+06 362.02 3.08282e-10 1.00592e-09 607929 1.17432e+12
60.2626 380.365 161.337 2.74459e-10 2.33957e+06 379.673 2.73959e-10 8.57591e-10 748743 1.38587e+12
63.6835 400.905 190.402 2.4512e-10 2.75676e+06 400.202 2.44691e-10 7.3101e-10 924391 1.63554e+12
67.2987 421.79 224.704 2.18523e-10 3.25638e+06 421.081 2.18155e-10 6.23009e-10 1.14219e+06 1.93019e+12
71.1191 444.393 265.185 1.95087e-10 3.84387e+06 443.607 1.94742e-10 5.30879e-10 1.41254e+06 2.27792e+12
75.1563 470.295 312.958 1.74942e-10 4.53277e+06 469.447 1.74626e-10 4.52303e-10 1.75318e+06 2.68829e+12
79.4227 497.913 369.339 1.56942e-10 5.35083e+06 497.002 1.56655e-10 3.85299e-10 2.17952e+06 3.17259e+12
83.9313 528.928 435.876 1.41268e-10 6.32174e+06 527.914 1.40997e-10 3.28173e-10 2.72131e+06 3.74415e+12
88.6959 563.285 514.4 1.27479e-10 7.44986e+06 562.147 1.27221e-10 2.79476e-10 3.39813e+06 4.41866e+12
93.7309 602.144 607.071 1.15471e-10 8.79764e+06 600.954 1.15242e-10 2.37972e-10 4.26885e+06 5.2147e+12
99.0518 646.284 716.436 1.05016e-10 1.03827e+07 644.955 1.048e-10 2.02605e-10 5.38165e+06 6.15414e+12
104.675 697.232 845.504 9.60001e-11 1.22515e+07 695.758 9.57972e-11 1.72471e-10 6.81939e+06 7.26283e+12
110.617 757.373 997.824 8.83621e-11 1.44573e+07 755.694 8.81662e-11 1.468e-10 8.70217e+06 8.57124e+12
116.896 827.193 1177.58 8.17758e-11 1.70664e+07 825.279 8.15866e-11 1.24935e-10 1.11708e+07 1.01154e+13
123.532 909.793 1389.73 7.62119e-11 2.0139e+07 907.61 7.60289e-11 1.06313e-10 1.44369e+07 1.19377e+13
130.545 1007.64 1640.09 7.1523e-11 2.37643e+07 1005.09 7.13425e-11 9.04567e-11 1.87901e+07 1.40883e+13
137.955 1122.93 1935.56 6.75394e-11 2.80503e+07 1120 6.73632e-11 7.69563e-11 2.46179e+07 1.66263e+13
145.787 1260.03 2284.26 6.42164e-11 3.30981e+07 1256.64 6.40438e-11 6.54636e-11 3.24675e+07 1.96216e+13
154.063 1422.81 2695.77 6.14431e-11 3.90634e+07 1418.86 6.12726e-11 5.56812e-11 4.31058e+07 2.31565e+13
162.808 1617.51 3181.42 5.91882e-11 4.61057e+07 1612.87 5.90187e-11 4.73556e-11 5.7626e+07 2.73282e+13
172.051 1847.96 3754.56 5.72985e-11 5.44046e+07 1842.5 5.71292e-11 4.02708e-11 7.74084e+07 3.22515e+13
181.818 2124.32 4430.96 5.58127e-11 6.42064e+07 2117.92 5.56444e-11 3.42426e-11 1.04651e+08 3.80616e+13
192.139 2453.29 5229.21 5.46163e-11 7.57748e+07 2445.78 5.44492e-11 2.91139e-11 1.4215e+08 4.49186e+13
203.046 2846.5 6171.26 5.36967e-11 8.94213e+07 2837.61 5.3529e-11 2.4751e-11 1.93997e+08 5.30108e+13
214.572 3317.01 7283.03 5.30206e-11 1.05538e+08 3306.41 5.28512e-11 2.10401e-11 2.65954e+08 6.25608e+13
226.753 3879.51 8595.09 5.25457e-11 1.24552e+08 3866.93 5.23752e-11 1.78839e-11 3.65952e+08 7.38313e+13
239.625 4555.85 10143.5 5.22867e-11 1.46987e+08 4540.87 5.21147e-11 1.51999e-11 5.05626e+08 8.71322e+13
253.228 5369.55 11970.9 5.22181e-11 1.7347e+08 5351.52 5.20428e-11 1.29176e-11 7.01234e+08 1.02829e+14
267.603 6352.82 14127.5 5.23494e-11 2.04703e+08 6331.2 5.21712e-11 1.09771e-11 9.76217e+08 1.21354e+14
282.795 7550.42 16672.6 5.27203e-11 2.4161e+08 7524.3 5.25379e-11 9.3274e-12 1.36563e+09 1.43217e+14
298.848 9019.62 19676.2 5.33651e-11 2.85122e+08 8987.53 5.31752e-11 7.925e-12 1.91995e+09 1.69017e+14
315.813 10846.4 23220.9 5.43772e-11 3.36491e+08 10806.8 5.41784e-11 6.73295e-12 2.7176e+09 1.99466e+14
333.741 13155.9 27404.3 5.58874e-11 3.97115e+08 13106.1 5.56756e-11 5.71979e-12 3.88016e+09 2.35401e+14
352.686 16139.5 32341.2 5.80956e-11 4.68637e+08 16075.4 5.78651e-11 4.85874e-12 5.60346e+09 2.77809e+14
372.707 20111.2 38167.6 6.13414e-11 5.53074e+08 20026.6 6.10833e-11 4.12703e-12 8.22053e+09 3.27857e+14
393.865 25607.3 45043.5 6.61822e-11 6.52716e+08 25490.9 6.58814e-11 3.50528e-12 1.23237e+10 3.86921e+14
416.224 30231.2 53158.3 6.62056e-11 2.2184e+08 31981.8 7.00393e-11 2.97701e-12 4.93349e+09 4.56626e+14
439.852 0 62734.9 0 0 0 0 2.52819e-12 0 5.38888e+14
464.821 0 74036.7 0 0 0 0 2.1469e-12 0 6.35971e+14
491.207 0 87374.6 0 0 0 0 1.82301e-12 0 7.50542e+14
519.092 0 103115 0 0 0 0 1.54789e-12 0 8.85755e+14
548.56 0 121692 0 0 0 0 1.31422e-12 0 1.04533e+15
579.7 0 143615 0 0 0 0 1.11576e-12 0 1.23364e+15
612.608 0 169488 0 0 0 0 9.47223e-13 0 1.45589e+15
647.384 0 200021 0 0 0 0 8.041e-13 0 1.71817e+15
684.134 0 236056 0 0 0 0 6.82568e-13 0 2.0277e+15
722.971 0 278582 0 0 0 0 5.79376e-13 0 2.393e+15
764.012 0 328769 0 0 0 0 4.91762e-13 0 2.8241e+15
0.845274
200
1.0655e+09
8589934592
0.0129181 0.00173265 1.58924e-09 0.00012692 6 0.00171679 0.000125759 0.00677225 0.112447 13.6515
0.0136515 0 1.87554e-09 0 0 0 0 0.00688819 0 16.1108
0.0144264 0 2.21343e-09 0 0 0 0 0.00699249 0 19.0132
0.0152454 0 2.61218e-09 0 0 0 0 0.00708412 0 22.4385
0.0161108 0 3.08278e-09 0 0 0 0 0.00716212 0 26.4808
0.0170254 0 3.63815e-09 0 0 0 0 0.00722559 0 31.2514
0.0179919 0.00386402 4.29357e-09 0.000104769 12 0.00385904 0.000104634 0.00727371 0.172845 36.8815
0.0190132 0 5.06707e-09 0 0 0 0 0.00730578 0 43.5258
0.0200925 0 5.97991e-09 0 0 0 0 0.00732122 0 51.367
0.0212331 0.00366176 7.05721e-09 6.04042e-05 8 0.00365857 6.03516e-05 0.00731958 0.0660193 60.621
0.0224385 0 8.32858e-09 0 0 0 0 0.00730056 0 71.542
0.0237123 0 9.829e-09 0 0 0 0 0.00726401 0 84.4305
0.0250583 0.0230881 1.15997e-08 0.000231713 6 0.0230772 0.000231604 0.00720995 0.192827 99.6408
0.0264808 0 1.36894e-08 0 0 0 0 0.00713857 0 117.591
0.0279841 0.014218 1.61556e-08 0.000102453 24 0.0142034 0.000102348 0.00705021 0.348766 138.776
0.0295727 0 1.90661e-08 0 0 0 0 0.00694538 0 163.777
0.0312514 0.025241 2.25009e-08 0.000130592 24 0.0253691 0.000131255 0.00682475 0.459241 193.281
0.0330255 0 2.65545e-08 0 0 0 0 0.00668915 0 228.102
0.0349003 0.0383522 3.13384e-08 0.00014247 12 0.0380451 0.000141329 0.00653951 0.261433 269.195
0.0368815 0.0306837 3.69841e-08 9.65836e-05 30 0.030357 9.55551e-05 0.00637693 0.454374 317.691
0.0389751 0.0347233 4.36469e-08 9.26144e-05 24 0.0343661 9.16617e-05 0.00620256 0.358359 374.924
0.0411876 0.0222969 5.151e-08 5.03921e-05 24 0.0221454 5.00499e-05 0.00601767 0.200977 442.467
0.0435258 0.0553589 6.07896e-08 0.000106015 8 0.0553547 0.000106007 0.00582358 0.145636 522.179
0.0459966 0.067818 7.1741e-08 0.000110049 72 0.0672832 0.000109181 0.00562166 1.40947 616.251
0.0486077 0 8.46654e-08 0 0 0 0 0.0054133 0 727.27
0.051367 0.0929756 9.99181e-08 0.000108327 54 0.0926672 0.000107967 0.00519989 1.12495 858.29
0.054283 0.0751521 1.17919e-07 7.41941e-05 60 0.0754938 7.45314e-05 0.0049828 0.893401 1012.91
0.0573645 0.0702027 1.39162e-07 5.87278e-05 96 0.0700228 5.85773e-05 0.00476339 1.18358 1195.39
0.060621 0.0834751 1.64232e-07 5.91709e-05 24 0.0823442 5.83693e-05 0.00454293 0.312597 1410.75
0.0640622 0.143338 1.93819e-07 8.60942e-05 134 0.143402 8.61328e-05 0.00432265 2.66888 1664.89
0.0676989 0.140379 2.28736e-07 7.14456e-05 120 0.139692 7.1096e-05 0.00410371 2.0892 1964.83
0.071542 0.132321 2.69944e-07 5.70644e-05 108 0.130857 5.64332e-05 0.00388717 1.58546 2318.8
0.0756032 0.195968 3.18575e-07 7.16118e-05 174 0.194879 7.12139e-05 0.00367401 3.39151 2736.54
0.079895 0.204992 3.75967e-07 6.34743e-05 168 0.203065 6.28776e-05 0.0034651 3.07745 3229.53
0.0844305 0.17082 4.43698e-07 4.48189e-05 168 0.171666 4.50409e-05 0.00326121 2.30883 3811.34
0.0892234 0.204767 5.23632e-07 4.55243e-05 290 0.203803 4.531e-05 0.00306301 4.31015 4497.96
0.0942883 0.246846 6.17966e-07 4.6502e-05 288 0.246317 4.64024e-05 0.00287109 4.66463 5308.28
0.0996408 0.221201 7.29294e-07 3.53098e-05 366 0.219507 3.50393e-05 0.00268591 4.81155 6264.59
0.105297 0.260217 8.60678e-07 3.5197e-05 420 0.258359 3.49456e-05 0.00250785 5.89457 7393.17
0.111275 0.27835 1.01573e-06 3.19024e-05 398 0.277572 3.18132e-05 0.00233721 5.4326 8725.07
0.117591 0.330816 1.19872e-06 3.21277e-05 624 0.33174 3.22174e-05 0.00217419 9.22074 10296.9
0.124267 0.384661 1.41467e-06 3.16543e-05 642 0.383789 3.15826e-05 0.00201893 10.0658 12151.9
0.131321 0.453421 1.66953e-06 3.16168e-05 800 0.453529 3.16244e-05 0.00187147 13.5153 14341.1
0.138776 0.419178 1.9703e-06 2.47672e-05 858 0.420958 2.48724e-05 0.00173182 12.2705 16924.7
0.146654 0.488181 2.32525e-06 2.44411e-05 1080 0.492238 2.46442e-05 0.00159991 16.4987 19973.8
0.154979 0.568691 2.74415e-06 2.41256e-05 1286 0.572273 2.42776e-05 0.00147563 21.0252 23572.1
0.163777 0.556974 3.23852e-06 2.00216e-05 1650 0.558565 2.00788e-05 0.00135884 24.3117 27818.7
0.173074 0.621458 3.82195e-06 1.89294e-05 1778 0.621933 1.89439e-05 0.00124933 26.9396 32830.3
0.182899 0.669209 4.51048e-06 1.72723e-05 2112 0.670755 1.73122e-05 0.00114689 31.8069 38744.7
0.193281 0.739704 5.32305e-06 1.61773e-05 2570 0.74027 1.61897e-05 0.00105127 39.5481 45724.7
0.204254 0.867033 6.28202e-06 1.60674e-05 3030 0.866461 1.60568e-05 0.000962209 50.5964 53962.1
0.215848 0.902442 7.41374e-06 1.41707e-05 3434 0.902082 1.41651e-05 0.000879423 55.3343 63683.5
0.228102 0.958534 8.74934e-06 1.27539e-05 4218 0.957953 1.27461e-05 0.000802624 67.025 75156.3
0.24105 1.06796 1.03256e-05 1.20407e-05 4766 1.0686 1.2048e-05 0.000731515 78.4481 88695.9
0.254734 1.16447 1.21857e-05 1.11247e-05 6026 1.16445 1.11244e-05 0.000665798 100.687 104675
0.269195 1.32753 1.4381e-05 1.07464e-05 6480 1.32634 1.07368e-05 0.000605173 115.069 123532
0.284476 1.43198 1.69718e-05 9.82244e-06 8162 1.43452 9.83988e-06 0.000549345 145.939 145787
0.300625 1.5816 2.00293e-05 9.19266e-06 9578 1.58222 9.19624e-06 0.000498021 176.794 172051
0.317691 1.75327 2.36377e-05 8.63486e-06 11234 1.75174 8.6273e-06 0.000450916 215.126 203046
0.335725 1.88747 2.78961e-05 7.87677e-06 13344 1.88399 7.86225e-06 0.000407755 257.772 239625
0.354784 2.1258 3.29216e-05 7.51711e-06 15464 2.12444 7.51231e-06 0.000368269 315.651 282795
0.374924 2.29518 3.88525e-05 6.87715e-06 18458 2.29296 6.8705e-06 0.000332202 382.112 333741
0.396207 2.65579 4.58519e-05 6.74289e-06 22232 2.65157 6.73219e-06 0.000299307 500.851 393865
0.418699 2.85324 5.41123e-05 6.13836e-06 25628 2.84632 6.12347e-06 0.00026935 584.05 464821
0.442467 3.11751 6.38607e-05 5.68308e-06 30320 3.1122 5.6734e-06 0.000242108 711.711 548560
0.467585 3.53104 7.53654e-05 5.45432e-06 35452 3.52462 5.44441e-06 0.00021737 889.571 647384
0.494129 3.90577 8.89427e-05 5.11218e-06 41792 3.90132 5.10635e-06 0.000194938 1095.98 764012
0.522179 4.39538 0.000104966 4.87481e-06 49988 4.39482 4.87419e-06 0.000174625 1395.46 901651
0.551822 4.90305 0.000123876 4.60776e-06 59110 4.89645 4.60156e-06 0.000156255 1743.08 1.06409e+06
0.583147 5.4511 0.000146192 4.3408e-06 69716 5.44229 4.33378e-06 0.000139664 2166.79 1.25578e+06
0.616251 6.08202 0.000172529 4.10388e-06 82210 6.07007 4.09582e-06 0.0001247 2705.54 1.48202e+06
0.651234 6.71559 0.000203611 3.83966e-06 96722 6.70055 3.83106e-06 0.00011122 3339.13 1.74901e+06
0.688203 7.61833 0.000240292 3.69089e-06 113098 7.60604 3.68493e-06 9.90935e-05 4212.51 2.06409e+06
0.72727 8.51439 0.000283581 3.49531e-06 135190 8.50195 3.4902e-06 8.81969e-05 5357.68 2.43595e+06
0.768555 9.51198 0.000334669 3.30876e-06 158170 9.49734 3.30367e-06 7.84179e-05 6673.81 2.87479e+06
0.812184 10.6442 0.000394961 3.13738e-06 188560 10.6264 3.13215e-06 6.96525e-05 8493.36 3.39269e+06
0.85829 11.8909 0.000466114 2.96985e-06 220444 11.8715 2.96499e-06 6.1805e-05 10592.8 4.00389e+06
0.907013 13.2873 0.000550086 2.812e-06 261388 13.2646 2.80719e-06 5.47875e-05 13415.9 4.7252e+06
0.958501 14.8645 0.000649185 2.66557e-06 308244 14.8421 2.66156e-06 4.85194e-05 16934.4 5.57646e+06
1.01291 16.6773 0.000766138 2.53413e-06 364396 16.6492 2.52985e-06 4.29272e-05 21511.5 6.58107e+06
1.07041 18.5182 0.00090416 2.38431e-06 429162 18.4842 2.37993e-06 3.79435e-05 26967.9 7.76667e+06
1.13118 20.6368 0.00106705 2.25149e-06 506358 20.6021 2.2477e-06 3.3507e-05 34024.4 9.16586e+06
1.19539 23.0526 0.00125928 2.13113e-06 598590 23.0099 2.12718e-06 2.9562e-05 43152.4 1.08171e+07
1.26325 25.5798 0.00148614 2.00377e-06 704844 25.5339 2.00017e-06 2.60578e-05 54200.4 1.27658e+07
1.33496 28.3956 0.00175387 1.88479e-06 834620 28.3399 1.88109e-06 2.29484e-05 68548.6 1.50656e+07
1.41075 31.4584 0.00206984 1.76934e-06 981444 31.3988 1.76599e-06 2.01923e-05 85998.4 1.77798e+07
1.49083 34.7059 0.00244272 1.65402e-06 1.15998e+06 34.6434 1.65103e-06 1.77518e-05 108080 2.09828e+07
1.57546 38.3002 0.00288279 1.54667e-06 1.36931e+06 38.2308 1.54387e-06 1.55929e-05 135823 2.4763e+07
1.66489 42.1714 0.00340213 1.44304e-06 1.61652e+06 42.0942 1.44039e-06 1.3685e-05 170456 2.92241e+07
1.75941 46.4226 0.00401503 1.34602e-06 1.90601e+06 46.3375 1.34355e-06 1.20007e-05 213781 3.44889e+07
1.85928 50.812 0.00473835 1.24839e-06 2.24913e+06 50.7171 1.24606e-06 1.05151e-05 267023 4.07021e+07
1.96483 55.4803 0.00559198 1.155e-06 2.65744e+06 55.3762 1.15284e-06 9.20606e-06 333406 4.80347e+07
2.07637 60.5519 0.00659939 1.06816e-06 3.13125e+06 60.442 1.06622e-06 8.05366e-06 415298 5.66883e+07
2.19424 65.9914 0.00778828 9.86406e-07 3.69915e+06 65.872 9.84622e-07 7.04008e-06 518298 6.69008e+07
2.3188 71.5097 0.00919136 9.05722e-07 4.36472e+06 71.3872 9.04171e-07 6.1494e-06 642864 7.89532e+07
2.45043 77.6762 0.0108472 8.33643e-07 5.14913e+06 77.5422 8.32205e-07 5.36741e-06 799741 9.31768e+07
2.58954 83.845 0.0128014 7.62485e-07 6.07894e+06 83.7022 7.61186e-07 4.68145e-06 990098 1.09963e+08
2.73654 90.5467 0.0151076 6.97731e-07 7.17304e+06 90.3947 6.9656e-07 4.08023e-06 1.22661e+06 1.29773e+08
2.89188 97.6873 0.0178292 6.37846e-07 8.46557e+06 97.5227 6.36771e-07 3.55373e-06 1.51945e+06 1.53152e+08
3.05605 105.143 0.0210412 5.81727e-07 9.98773e+06 104.971 5.80778e-07 3.09304e-06 1.87845e+06 1.80743e+08
3.22953 113.01 0.0248319 5.29806e-07 1.1797e+07 112.823 5.28931e-07 2.69025e-06 2.32325e+06 2.13304e+08
3.41286 121.19 0.0293054 4.81425e-07 1.39144e+07 120.984 4.80609e-07 2.33837e-06 2.8647e+06 2.51731e+08
3.6066 129.941 0.0345848 4.37393e-07 1.64163e+07 129.726 4.36669e-07 2.0312e-06 3.53503e+06 2.97081e+08
3.81134 138.999 0.0408154 3.96457e-07 1.93821e+07 138.772 3.95812e-07 1.76327e-06 4.35793e+06 3.50601e+08
4.0277 148.577 0.0481684 3.59088e-07 2.28754e+07 148.335 3.58503e-07 1.52972e-06 5.36978e+06 4.13763e+08
4.25634 158.684 0.056846 3.24971e-07 2.69929e+07 158.423 3.24435e-07 1.32631e-06 6.61378e+06 4.88304e+08
4.49796 169.242 0.067087 2.93684e-07 3.18542e+07 168.962 2.93198e-07 1.14926e-06 8.14011e+06 5.76273e+08
4.7533 180.344 0.0791729 2.65177e-07 3.75892e+07 180.051 2.64745e-07 9.95263e-07 1.00152e+07 6.8009e+08
5.02313 191.981 0.0934361 2.39196e-07 4.43706e+07 191.667 2.38805e-07 8.61414e-07 1.23207e+07 8.0261e+08
5.30828 204.23 0.110269 2.15614e-07 5.23593e+07 203.895 2.1526e-07 7.45152e-07 1.51505e+07 9.47202e+08
5.60962 216.959 0.130134 1.94087e-07 6.1787e+07 216.605 1.9377e-07 6.44232e-07 1.86145e+07 1.11784e+09
5.92807 230.358 0.153578 1.74616e-07 7.29346e+07 229.98 1.7433e-07 5.56685e-07 2.28775e+07 1.31923e+09
6.26459 244.297 0.181246 1.56914e-07 8.60651e+07 243.897 1.56657e-07 4.80786e-07 2.8089e+07 1.55689e+09
6.62021 258.944 0.213898 1.40932e-07 1.01558e+08 258.52 1.40702e-07 4.15026e-07 3.44865e+07 1.83737e+09
6.99602 274.273 0.252432 1.26488e-07 1.1986e+08 273.827 1.26282e-07 3.58083e-07 4.23389e+07 2.16837e+09
7.39317 290.23 0.297908 1.13415e-07 1.41457e+08 289.759 1.13231e-07 3.08803e-07 5.19531e+07 2.55901e+09
7.81286 306.935 0.351577 1.01633e-07 1.66936e+08 306.433 1.01467e-07 2.66181e-07 6.37396e+07 3.02002e+09
8.25637 324.601 0.414914 9.10754e-08 1.97025e+08 324.076 9.09281e-08 2.29336e-07 7.82439e+07 3.56409e+09
8.72507 343.056 0.489662 8.15603e-08 2.32497e+08 342.489 8.14255e-08 1.97503e-07 9.60112e+07 4.20617e+09
9.22037 362.945 0.577876 7.31167e-08 2.74404e+08 362.34 7.29947e-08 1.70014e-07 1.18011e+08 4.96392e+09
9.74378 384.763 0.681982 6.56796e-08 3.2382e+08 384.108 6.55678e-08 1.46289e-07 1.45386e+08 5.85818e+09
10.2969 409.086 0.804843 5.91716e-08 3.82165e+08 408.364 5.90672e-08 1.25822e-07 1.79724e+08 6.91355e+09
10.8814 438.042 0.949838 5.36878e-08 4.51027e+08 437.212 5.35862e-08 1.08175e-07 2.23846e+08 8.15905e+09
11.4992 475.102 1.12095 4.93412e-08 5.32251e+08 474.097 4.92368e-08 9.29669e-08 2.82486e+08 9.62892e+09
12.1519 527.115 1.3229 4.63863e-08 6.28157e+08 525.803 4.62708e-08 7.98658e-08 3.64836e+08 1.13636e+10
12.8418 585.68 1.56122 4.36724e-08 3.82727e+08 606.203 4.52027e-08 6.85852e-08 2.43705e+08 1.34108e+10
13.5708 0 1.84248 0 0 0 0 5.88765e-08 0 1.58268e+10
14.3411 0 2.17441 0 0 0 0 5.05241e-08 0 1.8678e+10
15.1552 0 2.56613 0 0 0 0 4.33417e-08 0 2.20429e+10
16.0156 0 3.02843 0 0 0 0 3.71677e-08 0 2.6014e+10
16.9247 0 3.574 0 0 0 0 3.18628e-08 0 3.07005e+10
17.8855 0 4.21787 0 0 0 0 2.73063e-08 0 3.62312e+10
18.9008 0 4.97773 0 0 0 0 2.33941e-08 0 4.27584e+10
19.9738 0 5.87448 0 0 0 0 2.00364e-08 0 5.04614e+10
21.1076 0 6.93279 0 0 0 0 1.71555e-08 0 5.95522e+10
22.3058 0 8.18175 0 0 0 0 1.46847e-08 0 7.02807e+10
23.5721 0 9.65571 0 0 0 0 1.25662e-08 0 8.29419e+10
24.9102 0 11.3952 0 0 0 0 1.07504e-08 0 9.78842e+10
26.3243 0 13.4481 0 0 0 0 9.19452e-09 0 1.15518e+11
27.8187 0 15.8708 0 0 0 0 7.86182e-09 0 1.36329e+11
29.3979 0 18.73 0 0 0 0 6.72061e-09 0 1.60889e+11
31.0667 0 22.1042 0 0 0 0 5.74366e-09 0 1.89874e+11
32.8303 0 26.0864 0 0 0 0 4.90756e-09 0 2.2408e+11
34.694 0 30.7859 0 0 0 0 4.19221e-09 0 2.64449e+11
36.6634 0 36.3321 0 0 0 0 3.58032e-09 0 3.1209e+11
38.7447 0 42.8774 0 0 0 0 3.05709e-09 0 3.68314e+11
40.9442 0 50.6018 0 0 0 0 2.60976e-09 0 4.34667e+11
43.2685 0 59.7179 0 0 0 0 2.22743e-09 0 5.12973e+11
45.7247 0 70.4762 0 0 0 0 1.90073e-09 0 6.05386e+11
48.3204 0 83.1727 0 0 0 0 1.62163e-09 0 7.14448e+11
51.0634 0 98.1565 0 0 0 0 1.38326e-09 0 8.43158e+11
53.9621 0 115.84 0 0 0 0 1.1797e-09 0 9.95055e+11
57.0254 0 136.709 0 0 0 0 1.00592e-09 0 1.17432e+12
60.2626 0 161.337 0 0 0 0 8.57591e-10 0 1.38587e+12
63.6835 0 190.402 0 0 0 0 7.3101e-10 0 1.63554e+12
67.2987 0 224.704 0 0 0 0 6.23009e-10 0 1.93019e+12
71.1191 0 265.185 0 0 0 0 5.30879e-10 0 2.27792e+12
75.1563 0 312.958 0 0 0 0 4.52303e-10 0 2.68829e+12
79.4227 0 369.339 0 0 0 0 3.85299e-10 0 3.17259e+12
83.9313 0 435.876 0 0 0 0 3.28173e-10 0 3.74415e+12
88.6959 0 514.4 0 0 0 0 2.79476e-10 0 4.41866e+12
93.7309 0 607.071 0 0 0 0 2.37972e-10 0 5.2147e+12
99.0518 0 716.436 0 0 0 0 2.02605e-10 0 6.15414e+12
104.675 0 845.504 0 0 0 0 1.72471e-10 0 7.26283e+12
110.617 0 997.824 0 0 0 0 1.468e-10 0 8.57124e+12
116.896 0 1177.58 0 0 0 0 1.24935e-10 0 1.01154e+13
123.532 0 1389.73 0 0 0 0 1.06313e-10 0 1.19377e+13
130.545 0 1640.09 0 0 0 0 9.04567e-11 0 1.40883e+13
137.955 0 1935.56 0 0 0 0 7.69563e-11 0 1.66263e+13
145.787 0 2284.26 0 0 0 0 6.54636e-11 0 1.96216e+13
154.063 0 2695.77 0 0 0 0 5.56812e-11 0 2.31565e+13
162.808 0 3181.42 0 0 0 0 4.73556e-11 0 2.73282e+13
172.051 0 3754.56 0 0 0 0 4.02708e-11 0 3.22515e+13
181.818 0 4430.96 0 0 0 0 3.42426e-11 0 3.80616e+13
192.139 0 5229.21 0 0 0 0 2.91139e-11 0 4.49186e+13
203.046 0 6171.26 0 0 0 0 2.4751e-11 0 5.30108e+13
214.572 0 7283.03 0 0 0 0 2.10401e-11 0 6.25608e+13
226.753 0 8595.09 0 0 0 0 1.78839e-11 0 7.38313e+13
239.625 0 10143.5 0 0 0 0 1.51999e-11 0 8.71322e+13
253.228 0 11970.9 0 0 0 0 1.29176e-11 0 1.02829e+14
267.603 0 14127.5 0 0 0 0 1.09771e-11 0 1.21354e+14
282.795 0 16672.6 0 0 0 0 9.3274e-12 0 1.43217e+14
298.848 0 19676.2 0 0 0 0 7.925e-12 0 1.69017e+14
315.813 0 23220.9 0 0 0 0 6.73295e-12 0 1.99466e+14
333.741 0 27404.3 0 0 0 0 5.71979e-12 0 2.35401e+14
352.686 0 32341.2 0 0 0 0 4.85874e-12 0 2.77809e+14
372.707 0 38167.6 0 0 0 0 4.12703e-12 0 3.27857e+14
393.865 0 45043.5 0 0 0 0 3.50528e-12 0 3.86921e+14
416.224 0 53158.3 0 0 0 0 2.97701e-12 0 4.56626e+14
439.852 0 62734.9 0 0 0 0 2.52819e-12 0 5.38888e+14
464.821 0 74036.7 0 0 0 0 2.1469e-12 0 6.35971e+14
491.207 0 87374.6 0 0 0 0 1.82301e-12 0 7.50542e+14
519.092 0 103115 0 0 0 0 1.54789e-12 0 8.85755e+14
548.56 0 121692 0 0 0 0 1.31422e-12 0 1.04533e+15
579.7 0 143615 0 0 0 0 1.11576e-12 0 1.23364e+15
612.608 0 169488 0 0 0 0 9.47223e-13 0 1.45589e+15
647.384 0 200021 0 0 0 0 8.041e-13 0 1.71817e+15
684.134 0 236056 0 0 0 0 6.82568e-13 0 2.0277e+15
722.971 0 278582 0 0 0 0 5.79376e-13 0 2.393e+15
764.012 0 328769 0 0 0 0 4.91762e-13 0 2.8241e+15
