0.807398
200
1.0655e+09
8589934592
0.0129181 0 1.58924e-09 0 0 0 0 0.00677225 0 13.6515
0.0136515 0 1.87554e-09 0 0 0 0 0.00688819 0 16.1108
0.0144264 0 2.21343e-09 0 0 0 0 0.00699249 0 19.0132
0.0152454 0 2.61218e-09 0 0 0 0 0.00708412 0 22.4385
0.0161108 0 3.08278e-09 0 0 0 0 0.00716212 0 26.4808
0.0170254 0 3.63815e-09 0 0 0 0 0.00722559 0 31.2514
0.0179919 0 4.29357e-09 0 0 0 0 0.00727371 0 36.8815
0.0190132 0 5.06707e-09 0 0 0 0 0.00730578 0 43.5258
0.0200925 0 5.97991e-09 0 0 0 0 0.00732122 0 51.367
0.0212331 0 7.05721e-09 0 0 0 0 0.00731958 0 60.621
0.0224385 0 8.32858e-09 0 0 0 0 0.00730056 0 71.542
0.0237123 0 9.829e-09 0 0 0 0 0.00726401 0 84.4305
0.0250583 0 1.15997e-08 0 0 0 0 0.00720995 0 99.6408
0.0264808 0 1.36894e-08 0 0 0 0 0.00713857 0 117.591
0.0279841 0 1.61556e-08 0 0 0 0 0.00705021 0 138.776
0.0295727 0 1.90661e-08 0 0 0 0 0.00694538 0 163.777
0.0312514 0 2.25009e-08 0 0 0 0 0.00682475 0 193.281
0.0330255 0 2.65545e-08 0 0 0 0 0.00668915 0 228.102
0.0349003 0 3.13384e-08 0 0 0 0 0.00653951 0 269.195
0.0368815 0 3.69841e-08 0 0 0 0 0.00637693 0 317.691
0.0389751 0 4.36469e-08 0 0 0 0 0.00620256 0 374.924
0.0411876 0 5.151e-08 0 0 0 0 0.00601767 0 442.467
0.0435258 0 6.07896e-08 0 0 0 0 0.00582358 0 522.179
0.0459966 0 7.1741e-08 0 0 0 0 0.00562166 0 616.251
0.0486077 0 8.46654e-08 0 0 0 0 0.0054133 0 727.27
0.051367 0 9.99181e-08 0 0 0 0 0.00519989 0 858.29
0.054283 0 1.17919e-07 0 0 0 0 0.0049828 0 1012.91
0.0573645 0 1.39162e-07 0 0 0 0 0.00476339 0 1195.39
0.060621 0 1.64232e-07 0 0 0 0 0.00454293 0 1410.75
0.0640622 0 1.93819e-07 0 0 0 0 0.00432265 0 1664.89
0.0676989 0 2.28736e-07 0 0 0 0 0.00410371 0 1964.83
0.071542 0 2.69944e-07 0 0 0 0 0.00388717 0 2318.8
0.0756032 0 3.18575e-07 0 0 0 0 0.00367401 0 2736.54
0.079895 0 3.75967e-07 0 0 0 0 0.0034651 0 3229.53
0.0844305 0 4.43698e-07 0 0 0 0 0.00326121 0 3811.34
0.0892234 0 5.23632e-07 0 0 0 0 0.00306301 0 4497.96
0.0942883 0 6.17966e-07 0 0 0 0 0.00287109 0 5308.28
0.0996408 0 7.29294e-07 0 0 0 0 0.00268591 0 6264.59
0.105297 0 8.60678e-07 0 0 0 0 0.00250785 0 7393.17
0.111275 0 1.01573e-06 0 0 0 0 0.00233721 0 8725.07
0.117591 0 1.19872e-06 0 0 0 0 0.00217419 0 10296.9
0.124267 0 1.41467e-06 0 0 0 0 0.00201893 0 12151.9
0.131321 0 1.66953e-06 0 0 0 0 0.00187147 0 14341.1
0.138776 0 1.9703e-06 0 0 0 0 0.00173182 0 16924.7
0.146654 0 2.32525e-06 0 0 0 0 0.00159991 0 19973.8
0.154979 0 2.74415e-06 0 0 0 0 0.00147563 0 23572.1
0.163777 0 3.23852e-06 0 0 0 0 0.00135884 0 27818.7
0.173074 0 3.82195e-06 0 0 0 0 0.00124933 0 32830.3
0.182899 0 4.51048e-06 0 0 0 0 0.00114689 0 38744.7
0.193281 0 5.32305e-06 0 0 0 0 0.00105127 0 45724.7
0.204254 0 6.28202e-06 0 0 0 0 0.000962209 0 53962.1
0.215848 0 7.41374e-06 0 0 0 0 0.000879423 0 63683.5
0.228102 0 8.74934e-06 0 0 0 0 0.000802624 0 75156.3
0.24105 0 1.03256e-05 0 0 0 0 0.000731515 0 88695.9
0.254734 0 1.21857e-05 0 0 0 0 0.000665798 0 104675
0.269195 0 1.4381e-05 0 0 0 0 0.000605173 0 123532
0.284476 0 1.69718e-05 0 0 0 0 0.000549345 0 145787
0.300625 0 2.00293e-05 0 0 0 0 0.000498021 0 172051
0.317691 0 2.36377e-05 0 0 0 0 0.000450916 0 203046
0.335725 0 2.78961e-05 0 0 0 0 0.000407755 0 239625
0.354784 0 3.29216e-05 0 0 0 0 0.000368269 0 282795
0.374924 0 3.88525e-05 0 0 0 0 0.000332202 0 333741
0.396207 2.79562 4.58519e-05 7.09791e-06 6 2.71789 6.90057e-06 0.000299307 0.142287 393865
0.418699 0 5.41123e-05 0 0 0 0 0.00026935 0 464821
0.442467 0 6.38607e-05 0 0 0 0 0.000242108 0 548560
0.467585 0 7.53654e-05 0 0 0 0 0.00021737 0 647384
0.494129 0 8.89427e-05 0 0 0 0 0.000194938 0 764012
0.522179 0 0.000104966 0 0 0 0 0.000174625 0 901651
0.551822 0 0.000123876 0 0 0 0 0.000156255 0 1.06409e+06
0.583147 6.77463 0.000146192 5.39475e-06 12 7.13034 5.678e-06 0.000139664 0.463519 1.25578e+06
0.616251 0 0.000172529 0 0 0 0 0.0001247 0 1.48202e+06
0.651234 0 0.000203611 0 0 0 0 0.00011122 0 1.74901e+06
0.688203 15.1554 0.000240292 7.3424e-06 8 14.7784 7.15973e-06 9.90935e-05 0.592766 2.06409e+06
0.72727 0 0.000283581 0 0 0 0 8.81969e-05 0 2.43595e+06
0.768555 0 0.000334669 0 0 0 0 7.84179e-05 0 2.87479e+06
0.812184 10.5884 0.000394961 3.12096e-06 6 10.8148 3.18768e-06 6.96525e-05 0.268845 3.39269e+06
0.85829 0 0.000466114 0 0 0 0 6.1805e-05 0 4.00389e+06
0.907013 1.16465 0.000550086 2.46476e-07 24 1.18699 2.51205e-07 5.47875e-05 0.10797 4.7252e+06
0.958501 6.0543 0.000649185 1.08569e-06 24 5.69968 1.0221e-06 4.85194e-05 0.537033 5.57646e+06
1.01291 0 0.000766138 0 0 0 0 4.29272e-05 0 6.58107e+06
1.07041 0 0.00090416 0 0 0 0 3.79435e-05 0 7.76667e+06
1.13118 6.41869 0.00106705 7.00282e-07 12 6.33984 6.9168e-07 3.3507e-05 0.250795 9.16586e+06
1.19539 2.99257 0.00125928 2.76651e-07 30 2.93088 2.70948e-07 2.9562e-05 0.28075 1.08171e+07
1.26325 12.5802 0.00148614 9.85459e-07 24 12.3909 9.7063e-07 2.60578e-05 0.907636 1.27658e+07
1.33496 17.4528 0.00175387 1.15845e-06 24 17.4912 1.161e-06 2.29484e-05 1.21153 1.50656e+07
1.41075 18.8354 0.00206984 1.05937e-06 32 19.0746 1.07282e-06 2.01923e-05 1.67885 1.77798e+07
1.49083 4.31587 0.00244272 2.05686e-07 48 4.22386 2.01301e-07 1.77518e-05 0.556165 2.09828e+07
1.57546 45.3132 0.00288279 1.82988e-06 6 43.1484 1.74246e-06 1.55929e-05 0.704122 2.4763e+07
1.66489 6.15752 0.00340213 2.10701e-07 84 5.95209 2.03671e-07 1.3685e-05 1.2933 2.92241e+07
1.75941 5.54563 0.00401503 1.60795e-07 48 5.50552 1.59632e-07 1.20007e-05 0.643143 3.44889e+07
1.85928 8.35284 0.00473835 2.05219e-07 72 8.39367 2.06222e-07 1.05151e-05 1.40519 4.07021e+07
1.96483 15.6873 0.00559198 3.26583e-07 54 15.2884 3.18279e-07 9.20606e-06 1.91564 4.80347e+07
2.07637 15.9136 0.00659939 2.80721e-07 104 16.0452 2.83043e-07 8.05366e-06 3.62505 5.66883e+07
2.19424 9.42195 0.00778828 1.40834e-07 120 9.56526 1.42977e-07 7.04008e-06 2.40056 6.69008e+07
2.3188 10.9354 0.00919136 1.38505e-07 156 10.6358 1.34711e-07 6.1494e-06 3.51364 7.89532e+07
2.45043 12.9889 0.0108472 1.394e-07 126 12.9037 1.38486e-07 5.36741e-06 3.27242 9.31768e+07
2.58954 14.5329 0.0128014 1.32162e-07 192 14.5999 1.32771e-07 4.68145e-06 5.42034 1.09963e+08
2.73654 33.3551 0.0151076 2.57027e-07 152 33.95 2.6161e-07 4.08023e-06 9.57496 1.29773e+08
2.89188 15.3314 0.0178292 1.00106e-07 378 15.4359 1.00788e-07 3.55373e-06 10.648 1.53152e+08
3.05605 16.084 0.0210412 8.89886e-08 264 15.9755 8.83881e-08 3.09304e-06 7.59544 1.80743e+08
3.22953 18.1441 0.0248319 8.50622e-08 366 18.1018 8.48639e-08 2.69025e-06 11.5724 2.13304e+08
3.41286 18.6239 0.0293054 7.39831e-08 428 18.5331 7.36224e-08 2.33837e-06 13.5414 2.51731e+08
3.6066 23.8913 0.0345848 8.04202e-08 486 23.6107 7.94754e-08 2.0312e-06 19.2419 2.97081e+08
3.81134 18.3423 0.0408154 5.23166e-08 600 18.3998 5.24806e-08 1.76327e-06 17.8022 3.50601e+08
4.0277 24.1556 0.0481684 5.83802e-08 738 24.0883 5.82176e-08 1.52972e-06 28.165 4.13763e+08
4.25634 23.6271 0.056846 4.8386e-08 824 23.5691 4.82673e-08 1.32631e-06 30.061 4.88304e+08
4.49796 25.3806 0.067087 4.40427e-08 954 25.2024 4.37335e-08 1.14926e-06 36.5599 5.76273e+08
4.7533 26.1799 0.0791729 3.84947e-08 1094 26.0578 3.83152e-08 9.95263e-07 42.3137 6.8009e+08
5.02313 28.9507 0.0934361 3.60707e-08 1332 29.0597 3.62065e-08 8.61414e-07 55.7759 8.0261e+08
5.30828 35.3751 0.110269 3.73469e-08 1614 35.3915 3.73642e-08 7.45152e-07 80.8933 9.47202e+08
5.60962 40.7049 0.130134 3.64137e-08 1850 40.7092 3.64176e-08 6.44232e-07 104.567 1.11784e+09
5.92807 37.4503 0.153578 2.83881e-08 2238 37.418 2.83636e-08 5.56685e-07 114.127 1.31923e+09
6.26459 38.1142 0.181246 2.4481e-08 2546 38.186 2.45271e-08 4.80786e-07 129.639 1.55689e+09
6.62021 38.2529 0.213898 2.08194e-08 3264 38.3406 2.08671e-08 4.15026e-07 163.736 1.83737e+09
6.99602 40.4995 0.252432 1.86774e-08 3506 40.6162 1.87312e-08 3.58083e-07 182.871 2.16837e+09
7.39317 45.3223 0.297908 1.77109e-08 4506 45.3944 1.7739e-08 3.08803e-07 258.434 2.55901e+09
7.81286 52.8422 0.351577 1.74973e-08 5018 52.6181 1.74231e-08 2.66181e-07 329.856 3.02002e+09
8.25637 52.8398 0.414914 1.48256e-08 5852 52.8309 1.48231e-08 2.29336e-07 378.307 3.56409e+09
8.72507 54.1102 0.489662 1.28645e-08 7362 53.9366 1.28232e-08 1.97503e-07 479.529 4.20617e+09
9.22037 56.2625 0.577876 1.13343e-08 8306 56.078 1.12971e-08 1.70014e-07 553.734 4.96392e+09
9.74378 62.4773 0.681982 1.0665e-08 9698 62.3835 1.06489e-08 1.46289e-07 707.017 5.85818e+09
10.2969 64.321 0.804843 9.30362e-09 11816 64.2208 9.28911e-09 1.25822e-07 873.704 6.91355e+09
10.8814 76.1721 0.949838 9.33591e-09 13682 76.061 9.32229e-09 1.08175e-07 1180.8 8.15905e+09
11.4992 74.7118 1.12095 7.75911e-09 16152 74.7167 7.75961e-09 9.29669e-08 1348.06 9.62892e+09
12.1519 80.554 1.3229 7.08878e-09 19472 80.3829 7.07372e-09 7.98658e-08 1728.31 1.13636e+10
12.8418 82.0554 1.56122 6.11862e-09 22670 81.8169 6.10083e-09 6.85852e-08 2022.43 1.34108e+10
13.5708 88.5429 1.84248 5.59451e-09 26224 88.3537 5.58255e-09 5.88765e-08 2491.83 1.58268e+10
14.3411 94.3614 2.17441 5.05201e-09 31640 94.2397 5.04549e-09 5.05241e-08 3163.74 1.8678e+10
15.1552 100.507 2.56613 4.55962e-09 37484 100.318 4.55104e-09 4.33417e-08 3943.39 2.20429e+10
16.0156 108.287 3.02843 4.16263e-09 43856 108.134 4.15676e-09 3.71677e-08 4911.68 2.6014e+10
16.9247 112.251 3.574 3.65633e-09 51362 112.131 3.65243e-09 3.18628e-08 5893.91 3.07005e+10
17.8855 118.491 4.21787 3.2704e-09 61636 118.338 3.26618e-09 2.73063e-08 7381.98 3.62312e+10
18.9008 125.66 4.97773 2.93885e-09 72218 125.349 2.93158e-09 2.33941e-08 9072.26 4.27584e+10
19.9738 132.52 5.87448 2.62617e-09 84586 132.271 2.62123e-09 2.00364e-08 11086.7 5.04614e+10
21.1076 141.572 6.93279 2.37728e-09 100708 141.376 2.37399e-09 1.71555e-08 13955.3 5.95522e+10
22.3058 148.998 8.18175 2.12003e-09 118712 148.765 2.11673e-09 1.46847e-08 17138.5 7.02807e+10
23.5721 155.92 9.65571 1.87987e-09 140410 155.609 1.87612e-09 1.25662e-08 21005.1 8.29419e+10
24.9102 163.574 11.3952 1.6711e-09 164374 163.277 1.66807e-09 1.07504e-08 25551.2 9.78842e+10
26.3243 172.083 13.4481 1.48966e-09 194680 171.799 1.4872e-09 9.19452e-09 31541.3 1.15518e+11
27.8187 182.012 15.8708 1.33509e-09 230196 181.748 1.33316e-09 7.86182e-09 39091.9 1.36329e+11
29.3979 190.015 18.73 1.18103e-09 271156 189.699 1.17907e-09 6.72061e-09 47651 1.60889e+11
31.0667 202.02 22.1042 1.06397e-09 321076 201.661 1.06208e-09 5.74366e-09 59477 1.89874e+11
32.8303 211.895 26.0864 9.4562e-10 377436 211.495 9.43836e-10 4.90756e-09 72726.8 2.2408e+11
34.694 222.632 30.7859 8.4187e-10 447594 222.197 8.40225e-10 4.19221e-09 89884.9 2.64449e+11
36.6634 233.516 36.3321 7.48232e-10 525078 233.051 7.46744e-10 3.58032e-09 109733 3.1209e+11
38.7447 246.267 42.8774 6.68634e-10 621924 245.849 6.675e-10 3.05709e-09 136025 3.68314e+11
40.9442 258.531 50.6018 5.94781e-10 732630 258.063 5.93703e-10 2.60976e-09 166971 4.34667e+11
43.2685 271.383 59.7179 5.2904e-10 865596 270.967 5.28229e-10 2.22743e-09 205589 5.12973e+11
45.7247 285.082 70.4762 4.7091e-10 1.02168e+06 284.635 4.7017e-10 1.90073e-09 253122 6.05386e+11
48.3204 298.341 83.1727 4.17583e-10 1.20544e+06 297.836 4.16875e-10 1.62163e-09 310409 7.14448e+11
51.0634 312.273 98.1565 3.70361e-10 1.42103e+06 311.764 3.69758e-10 1.38326e-09 380475 8.43158e+11
53.9621 327.83 115.84 3.29459e-10 1.67997e+06 327.252 3.28878e-10 1.1797e-09 469169 9.95055e+11
57.0254 344.5 136.709 2.93362e-10 1.98018e+06 343.869 2.92824e-10 1.00592e-09 577491 1.17432e+12
60.2626 361.901 161.337 2.61136e-10 2.33957e+06 361.247 2.60664e-10 8.57591e-10 712397 1.38587e+12
63.6835 381.417 190.402 2.33205e-10 2.75676e+06 380.734 2.32788e-10 7.3101e-10 879458 1.63554e+12
67.2987 402.771 224.704 2.08669e-10 3.25638e+06 402.067 2.08304e-10 6.23009e-10 1.09068e+06 1.93019e+12
71.1191 424.69 265.185 1.86438e-10 3.84387e+06 423.902 1.86092e-10 5.30879e-10 1.34992e+06 2.27792e+12
75.1563 449.31 312.958 1.67136e-10 4.53277e+06 448.499 1.66834e-10 4.52303e-10 1.67495e+06 2.68829e+12
79.4227 475.871 369.339 1.49994e-10 5.35083e+06 474.993 1.49718e-10 3.85299e-10 2.08304e+06 3.17259e+12
83.9313 506.757 435.876 1.35346e-10 6.32174e+06 505.768 1.35082e-10 3.28173e-10 2.60724e+06 3.74415e+12
88.6959 540.656 514.4 1.22357e-10 7.44986e+06 539.596 1.22117e-10 2.79476e-10 3.26162e+06 4.41866e+12
93.7309 580.12 607.071 1.11247e-10 8.79764e+06 578.98 1.11029e-10 2.37972e-10 4.11271e+06 5.2147e+12
99.0518 624.3 716.436 1.01444e-10 1.03827e+07 622.993 1.01232e-10 2.02605e-10 5.19859e+06 6.15414e+12
104.675 675.838 845.504 9.30544e-11 1.22515e+07 674.369 9.28522e-11 1.72471e-10 6.61015e+06 7.26283e+12
110.617 736.467 997.824 8.5923e-11 1.44573e+07 734.804 8.5729e-11 1.468e-10 8.46195e+06 8.57124e+12
116.896 807.728 1177.58 7.98516e-11 1.70664e+07 805.828 7.96636e-11 1.24935e-10 1.09079e+07 1.01154e+13
123.532 891.339 1389.73 7.46659e-11 2.0139e+07 889.117 7.44798e-11 1.06313e-10 1.4144e+07 1.19377e+13
130.545 990.272 1640.09 7.02904e-11 2.37643e+07 987.746 7.01111e-11 9.04567e-11 1.84663e+07 1.40883e+13
137.955 1108.27 1935.56 6.66578e-11 2.80503e+07 1105.35 6.64817e-11 7.69563e-11 2.42965e+07 1.66263e+13
145.787 1247.46 2284.26 6.35758e-11 3.30981e+07 1244.03 6.34008e-11 6.54636e-11 3.21436e+07 1.96216e+13
154.063 1413.82 2695.77 6.10549e-11 3.90634e+07 1409.85 6.08835e-11 5.56812e-11 4.28334e+07 2.31565e+13
162.808 1611.57 3181.42 5.89708e-11 4.61057e+07 1606.9 5.88002e-11 4.73556e-11 5.74142e+07 2.73282e+13
172.051 1847.62 3754.56 5.7288e-11 5.44046e+07 1842.1 5.71167e-11 4.02708e-11 7.73943e+07 3.22515e+13
181.818 2128.33 4430.96 5.59179e-11 6.42064e+07 2121.83 5.57472e-11 3.42426e-11 1.04849e+08 3.80616e+13
192.139 2463.72 5229.21 5.48486e-11 7.57748e+07 2456.11 5.46792e-11 2.91139e-11 1.42755e+08 4.49186e+13
203.046 2862.39 6171.26 5.39965e-11 8.94213e+07 2853.38 5.38264e-11 2.4751e-11 1.9508e+08 5.30108e+13
214.572 3341.46 7283.03 5.34114e-11 1.05538e+08 3330.78 5.32407e-11 2.10401e-11 2.67915e+08 6.25608e+13
226.753 3913.7 8595.09 5.30086e-11 1.24552e+08 3900.94 5.28359e-11 1.78839e-11 3.69176e+08 7.38313e+13
239.625 4600.62 10143.5 5.28005e-11 1.46987e+08 4585.36 5.26253e-11 1.51999e-11 5.10595e+08 8.71322e+13
253.228 5427.85 11970.9 5.2785e-11 1.7347e+08 5409.58 5.26074e-11 1.29176e-11 7.08847e+08 1.02829e+14
267.603 6426.13 14127.5 5.29535e-11 2.04703e+08 6404.2 5.27727e-11 1.09771e-11 9.87482e+08 1.21354e+14
282.795 7639.82 16672.6 5.33445e-11 2.4161e+08 7613.27 5.31592e-11 9.3274e-12 1.3818e+09 1.43217e+14
298.848 9132.65 19676.2 5.40338e-11 2.85122e+08 9100.13 5.38414e-11 7.925e-12 1.94401e+09 1.69017e+14
315.813 10988.4 23220.9 5.50891e-11 3.36491e+08 10948.2 5.48874e-11 6.73295e-12 2.75318e+09 1.99466e+14
333.741 13329.7 27404.3 5.66254e-11 3.97115e+08 13279.1 5.64108e-11 5.71979e-12 3.9314e+09 2.35401e+14
352.686 16354.8 32341.2 5.88708e-11 4.68637e+08 16289.9 5.86372e-11 4.85874e-12 5.67823e+09 2.77809e+14
372.707 20381.4 38167.6 6.21656e-11 5.53074e+08 20295.5 6.19036e-11 4.12703e-12 8.33097e+09 3.27857e+14
393.865 25950.8 45043.5 6.707e-11 6.52716e+08 25832.7 6.67648e-11 3.50528e-12 1.24891e+10 3.86921e+14
416.224 30643.8 53158.3 6.71091e-11 2.2184e+08 32418.3 7.09953e-11 2.97701e-12 5.00082e+09 4.56626e+14
439.852 0 62734.9 0 0 0 0 2.52819e-12 0 5.38888e+14
464.821 0 74036.7 0 0 0 0 2.1469e-12 0 6.35971e+14
491.207 0 87374.6 0 0 0 0 1.82301e-12 0 7.50542e+14
519.092 0 103115 0 0 0 0 1.54789e-12 0 8.85755e+14
548.56 0 121692 0 0 0 0 1.31422e-12 0 1.04533e+15
579.7 0 143615 0 0 0 0 1.11576e-12 0 1.23364e+15
612.608 0 169488 0 0 0 0 9.47223e-13 0 1.45589e+15
647.384 0 200021 0 0 0 0 8.041e-13 0 1.71817e+15
684.134 0 236056 0 0 0 0 6.82568e-13 0 2.0277e+15
722.971 0 278582 0 0 0 0 5.79376e-13 0 2.393e+15
764.012 0 328769 0 0 0 0 4.91762e-13 0 2.8241e+15
0.807398
200
1.0655e+09
8589934592
0.0129181 0.00163227 1.58924e-09 0.000119567 6 0.00161732 0.000118473 0.00677225 0.105933 13.6515
0.0136515 0 1.87554e-09 0 0 0 0 0.00688819 0 16.1108
0.0144264 0 2.21343e-09 0 0 0 0 0.00699249 0 19.0132
0.0152454 0 2.61218e-09 0 0 0 0 0.00708412 0 22.4385
0.0161108 0 3.08278e-09 0 0 0 0 0.00716212 0 26.4808
0.0170254 0 3.63815e-09 0 0 0 0 0.00722559 0 31.2514
0.0179919 0.00363984 4.29357e-09 9.86902e-05 12 0.00363515 9.85631e-05 0.00727371 0.162817 36.8815
0.0190132 0 5.06707e-09 0 0 0 0 0.00730578 0 43.5258
0.0200925 0 5.97991e-09 0 0 0 0 0.00732122 0 51.367
0.0212331 0.00344917 7.05721e-09 5.68973e-05 8 0.00344617 5.68478e-05 0.00731958 0.0621864 60.621
0.0224385 0 8.32858e-09 0 0 0 0 0.00730056 0 71.542
0.0237123 0 9.829e-09 0 0 0 0 0.00726401 0 84.4305
0.0250583 0.0217648 1.15997e-08 0.000218433 6 0.0217546 0.00021833 0.00720995 0.181776 99.6408
0.0264808 0 1.36894e-08 0 0 0 0 0.00713857 0 117.591
0.0279841 0.0134068 1.61556e-08 9.66077e-05 24 0.013393 9.65085e-05 0.00705021 0.328868 138.776
0.0295727 0 1.90661e-08 0 0 0 0 0.00694538 0 163.777
0.0312514 0.0238106 2.25009e-08 0.000123191 24 0.0239315 0.000123817 0.00682475 0.433216 193.281
0.0330255 0 2.65545e-08 0 0 0 0 0.00668915 0 228.102
0.0349003 0.0360788 3.13384e-08 0.000134025 12 0.0357899 0.000132952 0.00653951 0.245936 269.195
0.0368815 0.0289433 3.69841e-08 9.11052e-05 30 0.0286351 9.01351e-05 0.00637693 0.428601 317.691
0.0389751 0.0328188 4.36469e-08 8.75346e-05 24 0.0324812 8.66341e-05 0.00620256 0.338704 374.924
0.0411876 0.0210583 5.151e-08 4.75928e-05 24 0.0209153 4.72696e-05 0.00601767 0.189812 442.467
0.0435258 0.0520459 6.07896e-08 9.96707e-05 8 0.0520419 9.9663e-05 0.00582358 0.13692 522.179
0.0459966 0.0638534 7.1741e-08 0.000103616 72 0.0633498 0.000102799 0.00562166 1.32707 616.251
0.0486077 0 8.46654e-08 0 0 0 0 0.0054133 0 727.27
0.051367 0.0878051 9.99181e-08 0.000102302 54 0.0875143 0.000101964 0.00519989 1.06239 858.29
0.054283 0.0708821 1.17919e-07 6.99784e-05 60 0.0712033 7.02956e-05 0.0049828 0.842639 1012.91
0.0573645 0.0663478 1.39162e-07 5.55029e-05 96 0.0661777 5.53607e-05 0.00476339 1.11859 1195.39
0.060621 0.0787998 1.64232e-07 5.58569e-05 24 0.0777322 5.51001e-05 0.00454293 0.295088 1410.75
0.0640622 0.135523 1.93819e-07 8.14004e-05 134 0.135585 8.14375e-05 0.00432265 2.52337 1664.89
0.0676989 0.132604 2.28736e-07 6.7489e-05 120 0.131957 6.71597e-05 0.00410371 1.9735 1964.83
0.071542 0.124827 2.69944e-07 5.38328e-05 108 0.123448 5.3238e-05 0.00388717 1.49567 2318.8
0.0756032 0.184806 3.18575e-07 6.75327e-05 174 0.18378 6.7158e-05 0.00367401 3.19833 2736.54
0.079895 0.19342 3.75967e-07 5.9891e-05 168 0.191602 5.93282e-05 0.0034651 2.90373 3229.53
0.0844305 0.161322 4.43698e-07 4.23269e-05 168 0.162122 4.25367e-05 0.00326121 2.18045 3811.34
0.0892234 0.192776 5.23632e-07 4.28585e-05 290 0.191874 4.26579e-05 0.00306301 4.05776 4497.96
0.0942883 0.233243 6.17966e-07 4.39394e-05 288 0.232739 4.38445e-05 0.00287109 4.40758 5308.28
0.0996408 0.208829 7.29294e-07 3.33349e-05 366 0.207223 3.30785e-05 0.00268591 4.54243 6264.59
0.105297 0.245031 8.60678e-07 3.31429e-05 420 0.243284 3.29066e-05 0.00250785 5.55058 7393.17
0.111275 0.262158 1.01573e-06 3.00465e-05 398 0.261418 2.99617e-05 0.00233721 5.11657 8725.07
0.117591 0.311711 1.19872e-06 3.02723e-05 624 0.312569 3.03556e-05 0.00217419 8.68823 10296.9
0.124267 0.361813 1.41467e-06 2.97741e-05 642 0.361003 2.97075e-05 0.00201893 9.46789 12151.9
0.131321 0.428106 1.66953e-06 2.98516e-05 800 0.428214 2.98591e-05 0.00187147 12.7607 14341.1
0.138776 0.394697 1.9703e-06 2.33208e-05 858 0.396384 2.34204e-05 0.00173182 11.5539 16924.7
0.146654 0.458513 2.32525e-06 2.29557e-05 1080 0.462329 2.31468e-05 0.00159991 15.496 19973.8
0.154979 0.534663 2.74415e-06 2.2682e-05 1286 0.538042 2.28254e-05 0.00147563 19.7672 23572.1
0.163777 0.522457 3.23852e-06 1.87808e-05 1650 0.523935 1.88339e-05 0.00135884 22.805 27818.7
0.173074 0.584318 3.82195e-06 1.77981e-05 1778 0.584749 1.78113e-05 0.00124933 25.3296 32830.3
0.182899 0.625747 4.51048e-06 1.61505e-05 2112 0.627209 1.61882e-05 0.00114689 29.7411 38744.7
0.193281 0.69259 5.32305e-06 1.5147e-05 2570 0.693142 1.5159e-05 0.00105127 37.0291 45724.7
0.204254 0.811805 6.28202e-06 1.5044e-05 3030 0.811279 1.50342e-05 0.000962209 47.3735 53962.1
0.215848 0.843377 7.41374e-06 1.32432e-05 3434 0.84304 1.3238e-05 0.000879423 51.7127 63683.5
0.228102 0.894869 8.74934e-06 1.19068e-05 4218 0.894366 1.19001e-05 0.000802624 62.5732 75156.3
0.24105 0.996842 1.03256e-05 1.12389e-05 4766 0.997444 1.12457e-05 0.000731515 73.224 88695.9
0.254734 1.08708 1.21857e-05 1.03853e-05 6026 1.08706 1.03851e-05 0.000665798 93.9956 104675
0.269195 1.23623 1.4381e-05 1.00074e-05 6480 1.23513 9.99843e-06 0.000605173 107.156 123532
0.284476 1.33431 1.69718e-05 9.15246e-06 8162 1.33673 9.16907e-06 0.000549345 135.985 145787
0.300625 1.47027 2.00293e-05 8.54557e-06 9578 1.47092 8.54934e-06 0.000498021 164.349 172051
0.317691 1.62687 2.36377e-05 8.0123e-06 11234 1.62537 8.00491e-06 0.000450916 199.616 203046
0.335725 1.75276 2.78961e-05 7.31458e-06 13344 1.74951 7.30102e-06 0.000407755 239.373 239625
0.354784 1.96881 3.29216e-05 6.96196e-06 15464 1.96752 6.95743e-06 0.000368269 292.34 282795
0.374924 2.12089 3.88525e-05 6.35491e-06 18458 2.11893 6.34904e-06 0.000332202 353.096 333741
0.396207 2.45141 4.58519e-05 6.224e-06 22232 2.44764 6.21441e-06 0.000299307 462.308 393865
0.418699 2.63149 5.41123e-05 5.6613e-06 25628 2.62513 5.64761e-06 0.00026935 538.66 464821
0.442467 2.87006 6.38607e-05 5.23199e-06 30320 2.86516 5.22307e-06 0.000242108 655.22 548560
0.467585 3.24874 7.53654e-05 5.01825e-06 35452 3.24288 5.00921e-06 0.00021737 818.451 647384
0.494129 3.58814 8.89427e-05 4.69644e-06 41792 3.58412 4.69118e-06 0.000194938 1006.85 764012
0.522179 4.03592 0.000104966 4.47615e-06 49988 4.03546 4.47564e-06 0.000174625 1281.34 901651
0.551822 4.49073 0.000123876 4.22027e-06 59110 4.48467 4.21457e-06 0.000156255 1596.5 1.06409e+06
0.583147 4.98669 0.000146192 3.97098e-06 69716 4.97851 3.96446e-06 0.000139664 1982.19 1.25578e+06
0.616251 5.55499 0.000172529 3.74827e-06 82210 5.54408 3.7409e-06 0.0001247 2471.09 1.48202e+06
0.651234 6.13797 0.000203611 3.50941e-06 96722 6.12409 3.50147e-06 0.00011122 3051.93 1.74901e+06
0.688203 6.95574 0.000240292 3.36988e-06 113098 6.9446 3.36448e-06 9.90935e-05 3846.13 2.06409e+06
0.72727 7.75609 0.000283581 3.18402e-06 135190 7.74485 3.1794e-06 8.81969e-05 4880.52 2.43595e+06
0.768555 8.6626 0.000334669 3.0133e-06 158170 8.64979 3.00884e-06 7.84179e-05 6077.87 2.87479e+06
0.812184 9.68379 0.000394961 2.85431e-06 188560 9.66735 2.84947e-06 6.96525e-05 7727.06 3.39269e+06
0.85829 10.8099 0.000466114 2.69985e-06 220444 10.7922 2.69543e-06 6.1805e-05 9629.72 4.00389e+06
0.907013 12.0784 0.000550086 2.55617e-06 261388 12.0578 2.5518e-06 5.47875e-05 12195.3 4.7252e+06
0.958501 13.4987 0.000649185 2.42065e-06 308244 13.4787 2.41706e-06 4.85194e-05 15378.4 5.57646e+06
1.01291 15.1391 0.000766138 2.30041e-06 364396 15.1137 2.29655e-06 4.29272e-05 19527.5 6.58107e+06
1.07041 16.7997 0.00090416 2.16305e-06 429162 16.7688 2.15907e-06 3.79435e-05 24465.3 7.76667e+06
1.13118 18.719 0.00106705 2.04225e-06 506358 18.6876 2.03883e-06 3.3507e-05 30862.6 9.16586e+06
1.19539 20.9137 0.00125928 1.93339e-06 598590 20.8752 1.92983e-06 2.9562e-05 39148.4 1.08171e+07
1.26325 23.2161 0.00148614 1.81861e-06 704844 23.1736 1.81529e-06 2.60578e-05 49192 1.27658e+07
1.33496 25.7719 0.00175387 1.71064e-06 834620 25.721 1.70726e-06 2.29484e-05 62214.9 1.50656e+07
1.41075 28.5332 0.00206984 1.60482e-06 981444 28.4789 1.60176e-06 2.01923e-05 78001.8 1.77798e+07
1.49083 31.5045 0.00244272 1.50144e-06 1.15998e+06 31.448 1.49875e-06 1.77518e-05 98110.8 2.09828e+07
1.57546 34.8049 0.00288279 1.40552e-06 1.36931e+06 34.742 1.40298e-06 1.55929e-05 123428 2.4763e+07
1.66489 38.3879 0.00340213 1.31357e-06 1.61652e+06 38.3171 1.31115e-06 1.3685e-05 155163 2.92241e+07
1.75941 42.2658 0.00401503 1.22549e-06 1.90601e+06 42.1891 1.22327e-06 1.20007e-05 194638 3.44889e+07
1.85928 46.2915 0.00473835 1.13732e-06 2.24913e+06 46.2049 1.1352e-06 1.05151e-05 243268 4.07021e+07
1.96483 50.5983 0.00559198 1.05337e-06 2.65744e+06 50.502 1.05137e-06 9.20606e-06 304068 4.80347e+07
2.07637 55.233 0.00659939 9.74327e-07 3.13125e+06 55.1317 9.72541e-07 8.05366e-06 378817 5.66883e+07
2.19424 60.143 0.00778828 8.98987e-07 3.69915e+06 60.0342 8.97361e-07 7.04008e-06 472365 6.69008e+07
2.3188 65.2173 0.00919136 8.26024e-07 4.36472e+06 65.1048 8.24599e-07 6.1494e-06 586296 7.89532e+07
2.45043 70.882 0.0108472 7.60725e-07 5.14913e+06 70.7619 7.59437e-07 5.36741e-06 729789 9.31768e+07
2.58954 76.5751 0.0128014 6.96372e-07 6.07894e+06 76.442 6.95161e-07 4.68145e-06 904250 1.09963e+08
2.73654 82.7854 0.0151076 6.37925e-07 7.17304e+06 82.6438 6.36833e-07 4.08023e-06 1.12147e+06 1.29773e+08
2.89188 89.4066 0.0178292 5.83777e-07 8.46557e+06 89.2566 5.82798e-07 3.55373e-06 1.39065e+06 1.53152e+08
3.05605 96.184 0.0210412 5.3216e-07 9.98773e+06 96.0257 5.31284e-07 3.09304e-06 1.7184e+06 1.80743e+08
3.22953 103.493 0.0248319 4.85189e-07 1.1797e+07 103.322 4.84391e-07 2.69025e-06 2.1276e+06 2.13304e+08
3.41286 110.989 0.0293054 4.40903e-07 1.39144e+07 110.801 4.40155e-07 2.33837e-06 2.62357e+06 2.51731e+08
3.6066 118.931 0.0345848 4.00333e-07 1.64163e+07 118.735 3.99673e-07 2.0312e-06 3.23551e+06 2.97081e+08
3.81134 127.342 0.0408154 3.63211e-07 1.93821e+07 127.133 3.62613e-07 1.76327e-06 3.99249e+06 3.50601e+08
4.0277 136.155 0.0481684 3.29065e-07 2.28754e+07 135.932 3.28525e-07 1.52972e-06 4.92083e+06 4.13763e+08
4.25634 145.456 0.056846 2.9788e-07 2.69929e+07 145.214 2.97385e-07 1.32631e-06 6.06242e+06 4.88304e+08
4.49796 155.16 0.067087 2.69248e-07 3.18542e+07 154.903 2.68801e-07 1.14926e-06 7.4628e+06 5.76273e+08
4.7533 165.278 0.0791729 2.43023e-07 3.75892e+07 165.007 2.42626e-07 9.95263e-07 9.17852e+06 6.8009e+08
5.02313 175.928 0.0934361 2.19195e-07 4.43706e+07 175.643 2.1884e-07 8.61414e-07 1.12905e+07 8.0261e+08
5.30828 187.146 0.110269 1.97577e-07 5.23593e+07 186.84 1.97254e-07 7.45152e-07 1.38831e+07 9.47202e+08
5.60962 198.76 0.130134 1.77807e-07 6.1787e+07 198.434 1.77515e-07 6.44232e-07 1.70531e+07 1.11784e+09
5.92807 211.132 0.153578 1.60042e-07 7.29346e+07 210.786 1.5978e-07 5.56685e-07 2.09681e+07 1.31923e+09
6.26459 223.884 0.181246 1.43803e-07 8.60651e+07 223.514 1.43565e-07 4.80786e-07 2.57419e+07 1.55689e+09
6.62021 237.221 0.213898 1.29109e-07 1.01558e+08 236.831 1.28897e-07 4.15026e-07 3.15934e+07 1.83737e+09
6.99602 251.249 0.252432 1.1587e-07 1.1986e+08 250.838 1.1568e-07 3.58083e-07 3.87848e+07 2.16837e+09
7.39317 265.972 0.297908 1.03936e-07 1.41457e+08 265.54 1.03767e-07 3.08803e-07 4.76108e+07 2.55901e+09
7.81286 281.256 0.351577 9.31304e-08 1.66936e+08 280.796 9.29782e-08 2.66181e-07 5.84068e+07 3.02002e+09
8.25637 297.377 0.414914 8.3437e-08 1.97025e+08 296.891 8.33008e-08 2.29336e-07 7.16817e+07 3.56409e+09
8.72507 314.395 0.489662 7.47462e-08 2.32497e+08 313.878 7.46232e-08 1.97503e-07 8.79898e+07 4.20617e+09
9.22037 332.485 0.577876 6.69804e-08 2.74404e+08 331.931 6.68688e-08 1.70014e-07 1.08107e+08 4.96392e+09
9.74378 352.361 0.681982 6.01485e-08 3.2382e+08 351.76 6.00459e-08 1.46289e-07 1.33142e+08 5.85818e+09
10.2969 374.464 0.804843 5.41638e-08 3.82165e+08 373.804 5.40683e-08 1.25822e-07 1.64513e+08 6.91355e+09
10.8814 400.669 0.949838 4.91073e-08 4.51027e+08 399.912 4.90146e-08 1.08175e-07 2.04748e+08 8.15905e+09
11.4992 434.291 1.12095 4.51028e-08 5.32251e+08 433.379 4.50081e-08 9.29669e-08 2.58221e+08 9.62892e+09
12.1519 481.623 1.3229 4.2383e-08 6.28157e+08 480.427 4.22778e-08 7.98658e-08 3.33349e+08 1.13636e+10
12.8418 534.993 1.56122 3.98927e-08 3.82727e+08 553.74 4.12907e-08 6.85852e-08 2.22614e+08 1.34108e+10
13.5708 0 1.84248 0 0 0 0 5.88765e-08 0 1.58268e+10
14.3411 0 2.17441 0 0 0 0 5.05241e-08 0 1.8678e+10
15.1552 0 2.56613 0 0 0 0 4.33417e-08 0 2.20429e+10
16.0156 0 3.02843 0 0 0 0 3.71677e-08 0 2.6014e+10
16.9247 0 3.574 0 0 0 0 3.18628e-08 0 3.07005e+10
17.8855 0 4.21787 0 0 0 0 2.73063e-08 0 3.62312e+10
18.9008 0 4.97773 0 0 0 0 2.33941e-08 0 4.27584e+10
19.9738 0 5.87448 0 0 0 0 2.00364e-08 0 5.04614e+10
21.1076 0 6.93279 0 0 0 0 1.71555e-08 0 5.95522e+10
22.3058 0 8.18175 0 0 0 0 1.46847e-08 0 7.02807e+10
23.5721 0 9.65571 0 0 0 0 1.25662e-08 0 8.29419e+10
24.9102 0 11.3952 0 0 0 0 1.07504e-08 0 9.78842e+10
26.3243 0 13.4481 0 0 0 0 9.19452e-09 0 1.15518e+11
27.8187 0 15.8708 0 0 0 0 7.86182e-09 0 1.36329e+11
29.3979 0 18.73 0 0 0 0 6.72061e-09 0 1.60889e+11
31.0667 0 22.1042 0 0 0 0 5.74366e-09 0 1.89874e+11
32.8303 0 26.0864 0 0 0 0 4.90756e-09 0 2.2408e+11
34.694 0 30.7859 0 0 0 0 4.19221e-09 0 2.64449e+11
36.6634 0 36.3321 0 0 0 0 3.58032e-09 0 3.1209e+11
38.7447 0 42.8774 0 0 0 0 3.05709e-09 0 3.68314e+11
40.9442 0 50.6018 0 0 0 0 2.60976e-09 0 4.34667e+11
43.2685 0 59.7179 0 0 0 0 2.22743e-09 0 5.12973e+11
45.7247 0 70.4762 0 0 0 0 1.90073e-09 0 6.05386e+11
48.3204 0 83.1727 0 0 0 0 1.62163e-09 0 7.14448e+11
51.0634 0 98.1565 0 0 0 0 1.38326e-09 0 8.43158e+11
53.9621 0 115.84 0 0 0 0 1.1797e-09 0 9.95055e+11
57.0254 0 136.709 0 0 0 0 1.00592e-09 0 1.17432e+12
60.2626 0 161.337 0 0 0 0 8.57591e-10 0 1.38587e+12
63.6835 0 190.402 0 0 0 0 7.3101e-10 0 1.63554e+12
67.2987 0 224.704 0 0 0 0 6.23009e-10 0 1.93019e+12
71.1191 0 265.185 0 0 0 0 5.30879e-10 0 2.27792e+12
75.1563 0 312.958 0 0 0 0 4.52303e-10 0 2.68829e+12
79.4227 0 369.339 0 0 0 0 3.85299e-10 0 3.17259e+12
83.9313 0 435.876 0 0 0 0 3.28173e-10 0 3.74415e+12
88.6959 0 514.4 0 0 0 0 2.79476e-10 0 4.41866e+12
93.7309 0 607.071 0 0 0 0 2.37972e-10 0 5.2147e+12
99.0518 0 716.436 0 0 0 0 2.02605e-10 0 6.15414e+12
104.675 0 845.504 0 0 0 0 1.72471e-10 0 7.26283e+12
110.617 0 997.824 0 0 0 0 1.468e-10 0 8.57124e+12
116.896 0 1177.58 0 0 0 0 1.24935e-10 0 1.01154e+13
123.532 0 1389.73 0 0 0 0 1.06313e-10 0 1.19377e+13
130.545 0 1640.09 0 0 0 0 9.04567e-11 0 1.40883e+13
137.955 0 1935.56 0 0 0 0 7.69563e-11 0 1.66263e+13
145.787 0 2284.26 0 0 0 0 6.54636e-11 0 1.96216e+13
154.063 0 2695.77 0 0 0 0 5.56812e-11 0 2.31565e+13
162.808 0 3181.42 0 0 0 0 4.73556e-11 0 2.73282e+13
172.051 0 3754.56 0 0 0 0 4.02708e-11 0 3.22515e+13
181.818 0 4430.96 0 0 0 0 3.42426e-11 0 3.80616e+13
192.139 0 5229.21 0 0 0 0 2.91139e-11 0 4.49186e+13
203.046 0 6171.26 0 0 0 0 2.4751e-11 0 5.30108e+13
214.572 0 7283.03 0 0 0 0 2.10401e-11 0 6.25608e+13
226.753 0 8595.09 0 0 0 0 1.78839e-11 0 7.38313e+13
239.625 0 10143.5 0 0 0 0 1.51999e-11 0 8.71322e+13
253.228 0 11970.9 0 0 0 0 1.29176e-11 0 1.02829e+14
267.603 0 14127.5 0 0 0 0 1.09771e-11 0 1.21354e+14
282.795 0 16672.6 0 0 0 0 9.3274e-12 0 1.43217e+14
298.848 0 19676.2 0 0 0 0 7.925e-12 0 1.69017e+14
315.813 0 23220.9 0 0 0 0 6.73295e-12 0 1.99466e+14
333.741 0 27404.3 0 0 0 0 5.71979e-12 0 2.35401e+14
352.686 0 32341.2 0 0 0 0 4.85874e-12 0 2.77809e+14
372.707 0 38167.6 0 0 0 0 4.12703e-12 0 3.27857e+14
393.865 0 45043.5 0 0 0 0 3.50528e-12 0 3.86921e+14
416.224 0 53158.3 0 0 0 0 2.97701e-12 0 4.56626e+14
439.852 0 62734.9 0 0 0 0 2.52819e-12 0 5.38888e+14
464.821 0 74036.7 0 0 0 0 2.1469e-12 0 6.35971e+14
491.207 0 87374.6 0 0 0 0 1.82301e-12 0 7.50542e+14
519.092 0 103115 0 0 0 0 1.54789e-12 0 8.85755e+14
548.56 0 121692 0 0 0 0 1.31422e-12 0 1.04533e+15
579.7 0 143615 0 0 0 0 1.11576e-12 0 1.23364e+15
612.608 0 169488 0 0 0 0 9.47223e-13 0 1.45589e+15
647.384 0 200021 0 0 0 0 8.041e-13 0 1.71817e+15
684.134 0 236056 0 0 0 0 6.82568e-13 0 2.0277e+15
722.971 0 278582 0 0 0 0 5.79376e-13 0 2.393e+15
764.012 0 328769 0 0 0 0 4.91762e-13 0 2.8241e+15
