0.714488
200
1.0655e+09
8589934592
0.0129181 0 1.58924e-09 0 0 0 0 0.00677225 0 13.6515
0.0136515 0 1.87554e-09 0 0 0 0 0.00688819 0 16.1108
0.0144264 0 2.21343e-09 0 0 0 0 0.00699249 0 19.0132
0.0152454 0 2.61218e-09 0 0 0 0 0.00708412 0 22.4385
0.0161108 0 3.08278e-09 0 0 0 0 0.00716212 0 26.4808
0.0170254 0 3.63815e-09 0 0 0 0 0.00722559 0 31.2514
0.0179919 0 4.29357e-09 0 0 0 0 0.00727371 0 36.8815
0.0190132 0 5.06707e-09 0 0 0 0 0.00730578 0 43.5258
0.0200925 0 5.97991e-09 0 0 0 0 0.00732122 0 51.367
0.0212331 0 7.05721e-09 0 0 0 0 0.00731958 0 60.621
0.0224385 0 8.32858e-09 0 0 0 0 0.00730056 0 71.542
0.0237123 0 9.829e-09 0 0 0 0 0.00726401 0 84.4305
0.0250583 0 1.15997e-08 0 0 0 0 0.00720995 0 99.6408
0.0264808 0 1.36894e-08 0 0 0 0 0.00713857 0 117.591
0.0279841 0 1.61556e-08 0 0 0 0 0.00705021 0 138.776
0.0295727 0 1.90661e-08 0 0 0 0 0.00694538 0 163.777
0.0312514 0 2.25009e-08 0 0 0 0 0.00682475 0 193.281
0.0330255 0 2.65545e-08 0 0 0 0 0.00668915 0 228.102
0.0349003 0 3.13384e-08 0 0 0 0 0.00653951 0 269.195
0.0368815 0 3.69841e-08 0 0 0 0 0.00637693 0 317.691
0.0389751 0 4.36469e-08 0 0 0 0 0.00620256 0 374.924
0.0411876 0 5.151e-08 0 0 0 0 0.00601767 0 442.467
0.0435258 0 6.07896e-08 0 0 0 0 0.00582358 0 522.179
0.0459966 0 7.1741e-08 0 0 0 0 0.00562166 0 616.251
0.0486077 0 8.46654e-08 0 0 0 0 0.0054133 0 727.27
0.051367 0 9.99181e-08 0 0 0 0 0.00519989 0 858.29
0.054283 0 1.17919e-07 0 0 0 0 0.0049828 0 1012.91
0.0573645 0 1.39162e-07 0 0 0 0 0.00476339 0 1195.39
0.060621 0 1.64232e-07 0 0 0 0 0.00454293 0 1410.75
0.0640622 0 1.93819e-07 0 0 0 0 0.00432265 0 1664.89
0.0676989 0 2.28736e-07 0 0 0 0 0.00410371 0 1964.83
0.071542 0 2.69944e-07 0 0 0 0 0.00388717 0 2318.8
0.0756032 0 3.18575e-07 0 0 0 0 0.00367401 0 2736.54
0.079895 0 3.75967e-07 0 0 0 0 0.0034651 0 3229.53
0.0844305 0 4.43698e-07 0 0 0 0 0.00326121 0 3811.34
0.0892234 0 5.23632e-07 0 0 0 0 0.00306301 0 4497.96
0.0942883 0 6.17966e-07 0 0 0 0 0.00287109 0 5308.28
0.0996408 0 7.29294e-07 0 0 0 0 0.00268591 0 6264.59
0.105297 0 8.60678e-07 0 0 0 0 0.00250785 0 7393.17
0.111275 0 1.01573e-06 0 0 0 0 0.00233721 0 8725.07
0.117591 0 1.19872e-06 0 0 0 0 0.00217419 0 10296.9
0.124267 0 1.41467e-06 0 0 0 0 0.00201893 0 12151.9
0.131321 0 1.66953e-06 0 0 0 0 0.00187147 0 14341.1
0.138776 0 1.9703e-06 0 0 0 0 0.00173182 0 16924.7
0.146654 0 2.32525e-06 0 0 0 0 0.00159991 0 19973.8
0.154979 0 2.74415e-06 0 0 0 0 0.00147563 0 23572.1
0.163777 0 3.23852e-06 0 0 0 0 0.00135884 0 27818.7
0.173074 0 3.82195e-06 0 0 0 0 0.00124933 0 32830.3
0.182899 0 4.51048e-06 0 0 0 0 0.00114689 0 38744.7
0.193281 0 5.32305e-06 0 0 0 0 0.00105127 0 45724.7
0.204254 0 6.28202e-06 0 0 0 0 0.000962209 0 53962.1
0.215848 0 7.41374e-06 0 0 0 0 0.000879423 0 63683.5
0.228102 0 8.74934e-06 0 0 0 0 0.000802624 0 75156.3
0.24105 0 1.03256e-05 0 0 0 0 0.000731515 0 88695.9
0.254734 0 1.21857e-05 0 0 0 0 0.000665798 0 104675
0.269195 0 1.4381e-05 0 0 0 0 0.000605173 0 123532
0.284476 0 1.69718e-05 0 0 0 0 0.000549345 0 145787
0.300625 0 2.00293e-05 0 0 0 0 0.000498021 0 172051
0.317691 0 2.36377e-05 0 0 0 0 0.000450916 0 203046
0.335725 0 2.78961e-05 0 0 0 0 0.000407755 0 239625
0.354784 0 3.29216e-05 0 0 0 0 0.000368269 0 282795
0.374924 0 3.88525e-05 0 0 0 0 0.000332202 0 333741
0.396207 1.76293 4.58519e-05 4.47597e-06 6 1.71392 4.35153e-06 0.000299307 0.0897268 393865
0.418699 0 5.41123e-05 0 0 0 0 0.00026935 0 464821
0.442467 0 6.38607e-05 0 0 0 0 0.000242108 0 548560
0.467585 0 7.53654e-05 0 0 0 0 0.00021737 0 647384
0.494129 0 8.89427e-05 0 0 0 0 0.000194938 0 764012
0.522179 0 0.000104966 0 0 0 0 0.000174625 0 901651
0.551822 0 0.000123876 0 0 0 0 0.000156255 0 1.06409e+06
0.583147 6.58561 0.000146192 5.24422e-06 12 6.93139 5.51957e-06 0.000139664 0.450586 1.25578e+06
0.616251 0 0.000172529 0 0 0 0 0.0001247 0 1.48202e+06
0.651234 0 0.000203611 0 0 0 0 0.00011122 0 1.74901e+06
0.688203 16.4417 0.000240292 7.96558e-06 8 16.0327 7.76741e-06 9.90935e-05 0.643076 2.06409e+06
0.72727 0 0.000283581 0 0 0 0 8.81969e-05 0 2.43595e+06
0.768555 0 0.000334669 0 0 0 0 7.84179e-05 0 2.87479e+06
0.812184 9.28291 0.000394961 2.73615e-06 6 9.48138 2.79465e-06 6.96525e-05 0.235697 3.39269e+06
0.85829 0 0.000466114 0 0 0 0 6.1805e-05 0 4.00389e+06
0.907013 2.40919 0.000550086 5.09859e-07 24 2.45542 5.19642e-07 5.47875e-05 0.223347 4.7252e+06
0.958501 3.87266 0.000649185 6.94466e-07 24 3.64582 6.53788e-07 4.85194e-05 0.343516 5.57646e+06
1.01291 0 0.000766138 0 0 0 0 4.29272e-05 0 6.58107e+06
1.07041 0 0.00090416 0 0 0 0 3.79435e-05 0 7.76667e+06
1.13118 4.25791 0.00106705 4.6454e-07 12 4.20561 4.58834e-07 3.3507e-05 0.166368 9.16586e+06
1.19539 4.67835 0.00125928 4.32495e-07 30 4.5819 4.23579e-07 2.9562e-05 0.438903 1.08171e+07
1.26325 9.69037 0.00148614 7.59086e-07 24 9.54456 7.47663e-07 2.60578e-05 0.69914 1.27658e+07
1.33496 15.1974 0.00175387 1.00875e-06 24 15.2308 1.01097e-06 2.29484e-05 1.05497 1.50656e+07
1.41075 17.0209 0.00206984 9.57321e-07 32 17.2101 9.67958e-07 2.01923e-05 1.51713 1.77798e+07
1.49083 3.51859 0.00244272 1.67689e-07 48 3.44358 1.64114e-07 1.77518e-05 0.453424 2.09828e+07
1.57546 27.5407 0.00288279 1.11217e-06 6 26.2249 1.05904e-06 1.55929e-05 0.427954 2.4763e+07
1.66489 3.89766 0.00340213 1.33372e-07 84 3.82683 1.30948e-07 1.3685e-05 0.818648 2.92241e+07
1.75941 6.18787 0.00401503 1.79417e-07 48 6.09945 1.76853e-07 1.20007e-05 0.717625 3.44889e+07
1.85928 5.58517 0.00473835 1.37221e-07 72 5.61194 1.37878e-07 1.05151e-05 0.93959 4.07021e+07
1.96483 14.6319 0.00559198 3.0461e-07 54 14.2953 2.97603e-07 9.20606e-06 1.78675 4.80347e+07
2.07637 14.9564 0.00659939 2.63835e-07 104 15.1379 2.67037e-07 8.05366e-06 3.407 5.66883e+07
2.19424 7.95779 0.00778828 1.18949e-07 120 8.06775 1.20593e-07 7.04008e-06 2.02752 6.69008e+07
2.3188 11.3645 0.00919136 1.4394e-07 156 11.1796 1.41598e-07 6.1494e-06 3.65151 7.89532e+07
2.45043 8.48725 0.0108472 9.10875e-08 126 8.41734 9.03373e-08 5.36741e-06 2.13828 9.31768e+07
2.58954 11.9371 0.0128014 1.08556e-07 192 12.0539 1.09617e-07 4.68145e-06 4.4522 1.09963e+08
2.73654 28.804 0.0151076 2.21957e-07 152 29.1511 2.24632e-07 4.08023e-06 8.26851 1.29773e+08
2.89188 14.3678 0.0178292 9.38141e-08 378 14.4018 9.40361e-08 3.55373e-06 9.97873 1.53152e+08
3.05605 13.2716 0.0210412 7.34281e-08 264 13.1304 7.26467e-08 3.09304e-06 6.2673 1.80743e+08
3.22953 15.1546 0.0248319 7.10469e-08 366 15.0615 7.06105e-08 2.69025e-06 9.66569 2.13304e+08
3.41286 17.6221 0.0293054 7.00037e-08 428 17.4225 6.92107e-08 2.33837e-06 12.813 2.51731e+08
3.6066 18.4473 0.0345848 6.2095e-08 486 18.2976 6.15911e-08 2.0312e-06 14.8573 2.97081e+08
3.81134 17.7284 0.0408154 5.05658e-08 600 17.6553 5.03572e-08 1.76327e-06 17.2064 3.50601e+08
4.0277 20.2668 0.0481684 4.89815e-08 738 20.242 4.89216e-08 1.52972e-06 23.6307 4.13763e+08
4.25634 21.7678 0.056846 4.45784e-08 824 21.7229 4.44864e-08 1.32631e-06 27.6954 4.88304e+08
4.49796 24.1864 0.067087 4.19704e-08 954 24.0438 4.1723e-08 1.14926e-06 34.8397 5.76273e+08
4.7533 21.7952 0.0791729 3.20475e-08 1094 21.6882 3.18902e-08 9.95263e-07 35.2268 6.8009e+08
5.02313 28.4089 0.0934361 3.53956e-08 1332 28.5523 3.55743e-08 8.61414e-07 54.732 8.0261e+08
5.30828 31.2029 0.110269 3.29422e-08 1614 31.1182 3.28527e-08 7.45152e-07 71.3528 9.47202e+08
5.60962 34.5245 0.130134 3.08849e-08 1850 34.4654 3.08321e-08 6.44232e-07 88.6902 1.11784e+09
5.92807 31.0263 0.153578 2.35186e-08 2238 30.9409 2.34539e-08 5.56685e-07 94.55 1.31923e+09
6.26459 32.4513 0.181246 2.08437e-08 2546 32.4717 2.08568e-08 4.80786e-07 110.378 1.55689e+09
6.62021 34.4124 0.213898 1.87292e-08 3264 34.4383 1.87433e-08 4.15026e-07 147.297 1.83737e+09
6.99602 37.5786 0.252432 1.73304e-08 3506 37.5993 1.73399e-08 3.58083e-07 169.682 2.16837e+09
7.39317 40.0678 0.297908 1.56575e-08 4506 40.0991 1.56698e-08 3.08803e-07 228.472 2.55901e+09
7.81286 44.6315 0.351577 1.47785e-08 5018 44.4767 1.47273e-08 2.66181e-07 278.602 3.02002e+09
8.25637 47.5291 0.414914 1.33356e-08 5852 47.4512 1.33137e-08 2.29336e-07 340.285 3.56409e+09
8.72507 47.8592 0.489662 1.13783e-08 7362 47.7751 1.13583e-08 1.97503e-07 424.132 4.20617e+09
9.22037 51.9358 0.577876 1.04627e-08 8306 51.7901 1.04333e-08 1.70014e-07 511.151 4.96392e+09
9.74378 55.905 0.681982 9.54306e-09 9698 55.7475 9.51617e-09 1.46289e-07 632.642 5.85818e+09
10.2969 58.4423 0.804843 8.4533e-09 11816 58.3612 8.44156e-09 1.25822e-07 793.851 6.91355e+09
10.8814 67.5546 0.949838 8.27972e-09 13682 67.4139 8.26247e-09 1.08175e-07 1047.22 8.15905e+09
11.4992 67.075 1.12095 6.966e-09 16152 67.0225 6.96054e-09 9.29669e-08 1210.27 9.62892e+09
12.1519 69.657 1.3229 6.12984e-09 19472 69.5082 6.11675e-09 7.98658e-08 1494.51 1.13636e+10
12.8418 75.0406 1.56122 5.59555e-09 22670 74.8287 5.57974e-09 6.85852e-08 1849.54 1.34108e+10
13.5708 78.0391 1.84248 4.93083e-09 26224 77.9115 4.92277e-09 5.88765e-08 2196.23 1.58268e+10
14.3411 83.5652 2.17441 4.47399e-09 31640 83.5095 4.47101e-09 5.05241e-08 2801.77 1.8678e+10
15.1552 88.0302 2.56613 3.99359e-09 37484 87.8912 3.98728e-09 4.33417e-08 3453.85 2.20429e+10
16.0156 94.1798 3.02843 3.62035e-09 43856 93.9617 3.61197e-09 3.71677e-08 4271.83 2.6014e+10
16.9247 98.1657 3.574 3.19753e-09 51362 98.03 3.19311e-09 3.18628e-08 5154.33 3.07005e+10
17.8855 104.06 4.21787 2.8721e-09 61636 103.917 2.86817e-09 2.73063e-08 6482.93 3.62312e+10
18.9008 110.494 4.97773 2.58414e-09 72218 110.257 2.57859e-09 2.33941e-08 7977.26 4.27584e+10
19.9738 117.188 5.87448 2.32232e-09 84586 116.997 2.31854e-09 2.00364e-08 9803.97 5.04614e+10
21.1076 123.658 6.93279 2.07647e-09 100708 123.462 2.07318e-09 1.71555e-08 12189.5 5.95522e+10
22.3058 131.244 8.18175 1.86743e-09 118712 131.019 1.86423e-09 1.46847e-08 15096.5 7.02807e+10
23.5721 137.083 9.65571 1.65275e-09 140410 136.779 1.64909e-09 1.25662e-08 18467.3 8.29419e+10
24.9102 143.403 11.3952 1.46503e-09 164374 143.115 1.46209e-09 1.07504e-08 22400.4 9.78842e+10
26.3243 151.803 13.4481 1.3141e-09 194680 151.635 1.31265e-09 9.19452e-09 27824.1 1.15518e+11
27.8187 158.66 15.8708 1.1638e-09 230196 158.389 1.16181e-09 7.86182e-09 34076.4 1.36329e+11
29.3979 167.707 18.73 1.04237e-09 271156 167.471 1.04091e-09 6.72061e-09 42056.5 1.60889e+11
31.0667 176.322 22.1042 9.28625e-10 321076 175.99 9.26879e-10 5.74366e-09 51911 1.89874e+11
32.8303 184.303 26.0864 8.22487e-10 377436 183.951 8.20918e-10 4.90756e-09 63256.8 2.2408e+11
34.694 194.429 30.7859 7.35222e-10 447594 194.05 7.33792e-10 4.19221e-09 78498.3 2.64449e+11
36.6634 204.292 36.3321 6.54592e-10 525078 203.927 6.53423e-10 3.58032e-09 96000.2 3.1209e+11
38.7447 215.111 42.8774 5.84044e-10 621924 214.748 5.83057e-10 3.05709e-09 118816 3.68314e+11
40.9442 225.507 50.6018 5.18805e-10 732630 225.098 5.17863e-10 2.60976e-09 145642 4.34667e+11
43.2685 236.316 59.7179 4.60679e-10 865596 235.941 4.59948e-10 2.22743e-09 179023 5.12973e+11
45.7247 247.802 70.4762 4.09329e-10 1.02168e+06 247.394 4.08655e-10 1.90073e-09 220021 6.05386e+11
48.3204 260.189 83.1727 3.64182e-10 1.20544e+06 259.732 3.63542e-10 1.62163e-09 270714 7.14448e+11
51.0634 272.166 98.1565 3.22793e-10 1.42103e+06 271.706 3.22247e-10 1.38326e-09 331608 8.43158e+11
53.9621 286.753 115.84 2.88178e-10 1.67997e+06 286.253 2.87676e-10 1.1797e-09 410383 9.95055e+11
57.0254 301.43 136.709 2.56685e-10 1.98018e+06 300.869 2.56208e-10 1.00592e-09 505292 1.17432e+12
60.2626 316.665 161.337 2.28495e-10 2.33957e+06 316.085 2.28077e-10 8.57591e-10 623350 1.38587e+12
63.6835 334.29 190.402 2.04391e-10 2.75676e+06 333.678 2.04017e-10 7.3101e-10 770793 1.63554e+12
67.2987 353.507 224.704 1.83146e-10 3.25638e+06 352.867 1.82815e-10 6.23009e-10 957279 1.93019e+12
71.1191 374.355 265.185 1.64341e-10 3.84387e+06 373.663 1.64037e-10 5.30879e-10 1.18992e+06 2.27792e+12
75.1563 397.656 312.958 1.47922e-10 4.53277e+06 396.908 1.47643e-10 4.52303e-10 1.4824e+06 2.68829e+12
79.4227 424.239 369.339 1.3372e-10 5.35083e+06 423.443 1.33469e-10 3.85299e-10 1.85703e+06 3.17259e+12
83.9313 454.132 435.876 1.21291e-10 6.32174e+06 453.208 1.21044e-10 3.28173e-10 2.33648e+06 3.74415e+12
88.6959 488.489 514.4 1.10551e-10 7.44986e+06 487.457 1.10318e-10 2.79476e-10 2.94691e+06 4.41866e+12
93.7309 526.928 607.071 1.01047e-10 8.79764e+06 525.806 1.00831e-10 2.37972e-10 3.73561e+06 5.2147e+12
99.0518 572.462 716.436 9.30207e-11 1.03827e+07 571.181 9.28125e-11 2.02605e-10 4.76694e+06 6.15414e+12
104.675 625.226 845.504 8.60858e-11 1.22515e+07 623.772 8.58856e-11 1.72471e-10 6.11513e+06 7.26283e+12
110.617 687.755 997.824 8.02398e-11 1.44573e+07 686.113 8.00482e-11 1.468e-10 7.90226e+06 8.57124e+12
116.896 761.613 1177.58 7.52927e-11 1.70664e+07 759.707 7.51042e-11 1.24935e-10 1.02852e+07 1.01154e+13
123.532 848.757 1389.73 7.1099e-11 2.0139e+07 846.556 7.09146e-11 1.06313e-10 1.34683e+07 1.19377e+13
130.545 952.277 1640.09 6.75935e-11 2.37643e+07 949.725 6.74123e-11 9.04567e-11 1.77578e+07 1.40883e+13
137.955 1074.96 1935.56 6.46538e-11 2.80503e+07 1071.98 6.44747e-11 7.69563e-11 2.35661e+07 1.66263e+13
145.787 1220.42 2284.26 6.21975e-11 3.30981e+07 1216.96 6.20215e-11 6.54636e-11 3.14468e+07 1.96216e+13
154.063 1394.51 2695.77 6.02213e-11 3.90634e+07 1390.43 6.00447e-11 5.56812e-11 4.22486e+07 2.31565e+13
162.808 1601.01 3181.42 5.85847e-11 4.61057e+07 1596.23 5.84095e-11 4.73556e-11 5.70383e+07 2.73282e+13
172.051 1846.47 3754.56 5.72524e-11 5.44046e+07 1840.8 5.70766e-11 4.02708e-11 7.73461e+07 3.22515e+13
181.818 2139.18 4430.96 5.62031e-11 6.42064e+07 2132.53 5.60283e-11 3.42426e-11 1.05383e+08 3.80616e+13
192.139 2488.35 5229.21 5.53969e-11 7.57748e+07 2480.47 5.52214e-11 2.91139e-11 1.44182e+08 4.49186e+13
203.046 2903.54 6171.26 5.47726e-11 8.94213e+07 2894.23 5.45971e-11 2.4751e-11 1.97884e+08 5.30108e+13
214.572 3399.96 7283.03 5.43465e-11 1.05538e+08 3388.94 5.41704e-11 2.10401e-11 2.72605e+08 6.25608e+13
226.753 3992.99 8595.09 5.40827e-11 1.24552e+08 3979.81 5.39042e-11 1.78839e-11 3.76657e+08 7.38313e+13
239.625 4705.67 10143.5 5.40061e-11 1.46987e+08 4689.99 5.38262e-11 1.51999e-11 5.22254e+08 8.71322e+13
253.228 5560.98 11970.9 5.40797e-11 1.7347e+08 5542.14 5.38965e-11 1.29176e-11 7.26234e+08 1.02829e+14
267.603 6593.19 14127.5 5.43301e-11 2.04703e+08 6570.58 5.41438e-11 1.09771e-11 1.01315e+09 1.21354e+14
282.795 7850.1 16672.6 5.48128e-11 2.4161e+08 7822.76 5.46219e-11 9.3274e-12 1.41983e+09 1.43217e+14
298.848 9389.69 19676.2 5.55546e-11 2.85122e+08 9356.21 5.53565e-11 7.925e-12 1.99872e+09 1.69017e+14
315.813 11302.8 23220.9 5.66652e-11 3.36491e+08 11261.3 5.6457e-11 6.73295e-12 2.83195e+09 1.99466e+14
333.741 13720.4 27404.3 5.82853e-11 3.97115e+08 13668.2 5.80636e-11 5.71979e-12 4.04665e+09 2.35401e+14
352.686 16840.5 32341.2 6.0619e-11 4.68637e+08 16773.5 6.03778e-11 4.85874e-12 5.84684e+09 2.77809e+14
372.707 20993.3 38167.6 6.40319e-11 5.53074e+08 20904.7 6.37617e-11 4.12703e-12 8.58108e+09 3.27857e+14
393.865 26731 45043.5 6.90864e-11 6.52716e+08 26609.3 6.87719e-11 3.50528e-12 1.28645e+10 3.86921e+14
416.224 31568.6 53158.3 6.91344e-11 2.2184e+08 33396.6 7.31378e-11 2.97701e-12 5.15174e+09 4.56626e+14
439.852 0 62734.9 0 0 0 0 2.52819e-12 0 5.38888e+14
464.821 0 74036.7 0 0 0 0 2.1469e-12 0 6.35971e+14
491.207 0 87374.6 0 0 0 0 1.82301e-12 0 7.50542e+14
519.092 0 103115 0 0 0 0 1.54789e-12 0 8.85755e+14
548.56 0 121692 0 0 0 0 1.31422e-12 0 1.04533e+15
579.7 0 143615 0 0 0 0 1.11576e-12 0 1.23364e+15
612.608 0 169488 0 0 0 0 9.47223e-13 0 1.45589e+15
647.384 0 200021 0 0 0 0 8.041e-13 0 1.71817e+15
684.134 0 236056 0 0 0 0 6.82568e-13 0 2.0277e+15
722.971 0 278582 0 0 0 0 5.79376e-13 0 2.393e+15
764.012 0 328769 0 0 0 0 4.91762e-13 0 2.8241e+15
0.714488
200
1.0655e+09
8589934592
0.0129181 0.00137434 1.58924e-09 0.000100674 6 0.00136176 9.97522e-05 0.00677225 0.0891938 13.6515
0.0136515 0 1.87554e-09 0 0 0 0 0.00688819 0 16.1108
0.0144264 0 2.21343e-09 0 0 0 0 0.00699249 0 19.0132
0.0152454 0 2.61218e-09 0 0 0 0 0.00708412 0 22.4385
0.0161108 0 3.08278e-09 0 0 0 0 0.00716212 0 26.4808
0.0170254 0 3.63815e-09 0 0 0 0 0.00722559 0 31.2514
0.0179919 0.0030639 4.29357e-09 8.30743e-05 12 0.00305996 8.29673e-05 0.00727371 0.137054 36.8815
0.0190132 0 5.06707e-09 0 0 0 0 0.00730578 0 43.5258
0.0200925 0 5.97991e-09 0 0 0 0 0.00732122 0 51.367
0.0212331 0.00290303 7.05721e-09 4.78883e-05 8 0.00290051 4.78466e-05 0.00731958 0.0523399 60.621
0.0224385 0 8.32858e-09 0 0 0 0 0.00730056 0 71.542
0.0237123 0 9.829e-09 0 0 0 0 0.00726401 0 84.4305
0.0250583 0.0183576 1.15997e-08 0.000184237 6 0.0183489 0.000184151 0.00720995 0.153319 99.6408
0.0264808 0 1.36894e-08 0 0 0 0 0.00713857 0 117.591
0.0279841 0.011317 1.61556e-08 8.15485e-05 24 0.0113053 8.14648e-05 0.00705021 0.277604 138.776
0.0295727 0 1.90661e-08 0 0 0 0 0.00694538 0 163.777
0.0312514 0.0201201 2.25009e-08 0.000104098 24 0.0202223 0.000104626 0.00682475 0.366071 193.281
0.0330255 0 2.65545e-08 0 0 0 0 0.00668915 0 228.102
0.0349003 0.0302567 3.13384e-08 0.000112397 12 0.0300144 0.000111497 0.00653951 0.206249 269.195
0.0368815 0.0244533 3.69841e-08 7.6972e-05 30 0.0241929 7.61523e-05 0.00637693 0.362112 317.691
0.0389751 0.0278771 4.36469e-08 7.4354e-05 24 0.0275903 7.35891e-05 0.00620256 0.287703 374.924
0.0411876 0.017853 5.151e-08 4.03488e-05 24 0.0177318 4.00748e-05 0.00601767 0.160921 442.467
0.0435258 0.0435716 6.07896e-08 8.34418e-05 8 0.0435682 8.34354e-05 0.00582358 0.114626 522.179
0.0459966 0.0536732 7.1741e-08 8.70964e-05 72 0.0532498 8.64093e-05 0.00562166 1.1155 616.251
0.0486077 0 8.46654e-08 0 0 0 0 0.0054133 0 727.27
0.051367 0.0744207 9.99181e-08 8.67081e-05 54 0.0741752 8.64221e-05 0.00519989 0.90045 858.29
0.054283 0.059865 1.17919e-07 5.91018e-05 60 0.0601341 5.93675e-05 0.0049828 0.711669 1012.91
0.0573645 0.0563519 1.39162e-07 4.71409e-05 96 0.0562074 4.70201e-05 0.00476339 0.950065 1195.39
0.060621 0.066721 1.64232e-07 4.72949e-05 24 0.065817 4.66541e-05 0.00454293 0.249856 1410.75
0.0640622 0.115214 1.93819e-07 6.92022e-05 134 0.115269 6.92351e-05 0.00432265 2.14524 1664.89
0.0676989 0.112457 2.28736e-07 5.72349e-05 120 0.111912 5.69577e-05 0.00410371 1.67365 1964.83
0.071542 0.105497 2.69944e-07 4.54965e-05 108 0.104335 4.49954e-05 0.00388717 1.26406 2318.8
0.0756032 0.156004 3.18575e-07 5.70079e-05 174 0.155143 5.66932e-05 0.00367401 2.69988 2736.54
0.079895 0.163543 3.75967e-07 5.06398e-05 168 0.162006 5.0164e-05 0.0034651 2.45519 3229.53
0.0844305 0.136744 4.43698e-07 3.58781e-05 168 0.137423 3.60564e-05 0.00326121 1.84825 3811.34
0.0892234 0.162046 5.23632e-07 3.60265e-05 290 0.161298 3.58603e-05 0.00306301 3.41092 4497.96
0.0942883 0.197984 6.17966e-07 3.72972e-05 288 0.197547 3.72149e-05 0.00287109 3.74129 5308.28
0.0996408 0.176927 7.29294e-07 2.82424e-05 366 0.175552 2.8023e-05 0.00268591 3.8485 6264.59
0.105297 0.206101 8.60678e-07 2.78772e-05 420 0.204638 2.76794e-05 0.00250785 4.66871 7393.17
0.111275 0.220589 1.01573e-06 2.52822e-05 398 0.219951 2.52091e-05 0.00233721 4.30526 8725.07
0.117591 0.262539 1.19872e-06 2.54969e-05 624 0.263233 2.55643e-05 0.00217419 7.31767 10296.9
0.124267 0.303309 1.41467e-06 2.49597e-05 642 0.302655 2.49059e-05 0.00201893 7.93696 12151.9
0.131321 0.362514 1.66953e-06 2.52779e-05 800 0.362616 2.52851e-05 0.00187147 10.8056 14341.1
0.138776 0.33192 1.9703e-06 1.96115e-05 858 0.333361 1.96967e-05 0.00173182 9.71621 16924.7
0.146654 0.38285 2.32525e-06 1.91676e-05 1080 0.386048 1.93278e-05 0.00159991 12.9389 19973.8
0.154979 0.447772 2.74415e-06 1.89959e-05 1286 0.45063 1.91171e-05 0.00147563 16.5547 23572.1
0.163777 0.434797 3.23852e-06 1.56297e-05 1650 0.435989 1.56725e-05 0.00135884 18.9787 27818.7
0.173074 0.489604 3.82195e-06 1.49132e-05 1778 0.489927 1.4923e-05 0.00124933 21.2239 32830.3
0.182899 0.516381 4.51048e-06 1.33278e-05 2112 0.517622 1.33598e-05 0.00114689 24.5431 38744.7
0.193281 0.574195 5.32305e-06 1.25577e-05 2570 0.574702 1.25687e-05 0.00105127 30.6992 45724.7
0.204254 0.67263 6.28202e-06 1.24648e-05 3030 0.67221 1.24571e-05 0.000962209 39.2519 53962.1
0.215848 0.695193 7.41374e-06 1.09164e-05 3434 0.694911 1.09119e-05 0.000879423 42.6266 63683.5
0.228102 0.735627 8.74934e-06 9.78796e-06 4218 0.735303 9.78365e-06 0.000802624 51.4383 75156.3
0.24105 0.819328 1.03256e-05 9.23749e-06 4766 0.819831 9.24316e-06 0.000731515 60.1845 88695.9
0.254734 0.894114 1.21857e-05 8.54184e-06 6026 0.894097 8.54167e-06 0.000665798 77.3104 104675
0.269195 1.00888 1.4381e-05 8.16697e-06 6480 1.00798 8.15964e-06 0.000605173 87.4492 123532
0.284476 1.09142 1.69718e-05 7.48638e-06 8162 1.0935 7.5007e-06 0.000549345 111.23 145787
0.300625 1.19341 2.00293e-05 6.9364e-06 9578 1.19409 6.94036e-06 0.000498021 133.402 172051
0.317691 1.31524 2.36377e-05 6.47753e-06 11234 1.31387 6.47079e-06 0.000450916 161.379 203046
0.335725 1.4193 2.78961e-05 5.92298e-06 13344 1.41667 5.91204e-06 0.000407755 193.833 239625
0.354784 1.58109 3.29216e-05 5.59095e-06 15464 1.57999 5.58707e-06 0.000368269 234.77 282795
0.374924 1.69497 3.88525e-05 5.07871e-06 18458 1.69364 5.07471e-06 0.000332202 282.186 333741
0.396207 1.95056 4.58519e-05 4.95236e-06 22232 1.94779 4.94532e-06 0.000299307 367.853 393865
0.418699 2.08956 5.41123e-05 4.49541e-06 25628 2.08449 4.4845e-06 0.00026935 427.728 464821
0.442467 2.27311 6.38607e-05 4.14378e-06 30320 2.26912 4.1365e-06 0.000242108 518.94 548560
0.467585 2.56092 7.53654e-05 3.9558e-06 35452 2.5564 3.94881e-06 0.00021737 645.172 647384
0.494129 2.81856 8.89427e-05 3.68915e-06 41792 2.81567 3.68537e-06 0.000194938 790.902 764012
0.522179 3.16407 0.000104966 3.5092e-06 49988 3.16383 3.50894e-06 0.000174625 1004.54 901651
0.551822 3.49681 0.000123876 3.28622e-06 59110 3.49209 3.28178e-06 0.000156255 1243.15 1.06409e+06
0.583147 3.87261 0.000146192 3.08382e-06 69716 3.86593 3.0785e-06 0.000139664 1539.35 1.25578e+06
0.616251 4.29717 0.000172529 2.89954e-06 82210 4.28861 2.89377e-06 0.0001247 1911.56 1.48202e+06
0.651234 4.74747 0.000203611 2.71438e-06 96722 4.73655 2.70814e-06 0.00011122 2360.54 1.74901e+06
0.688203 5.35854 0.000240292 2.59607e-06 113098 5.35014 2.592e-06 9.90935e-05 2962.97 2.06409e+06
0.72727 5.93735 0.000283581 2.43739e-06 135190 5.92888 2.43391e-06 8.81969e-05 3736.08 2.43595e+06
0.768555 6.60765 0.000334669 2.29848e-06 158170 6.59889 2.29544e-06 7.84179e-05 4636.07 2.87479e+06
0.812184 7.37733 0.000394961 2.17448e-06 188560 7.36458 2.17072e-06 6.96525e-05 5886.65 3.39269e+06
0.85829 8.21562 0.000466114 2.05191e-06 220444 8.2022 2.04856e-06 6.1805e-05 7318.68 4.00389e+06
0.907013 9.15378 0.000550086 1.93722e-06 261388 9.13859 1.93401e-06 5.47875e-05 9242.39 4.7252e+06
0.958501 10.211 0.000649185 1.83109e-06 308244 10.1964 1.82847e-06 4.85194e-05 11632.9 5.57646e+06
1.01291 11.4258 0.000766138 1.73615e-06 364396 11.4066 1.73324e-06 4.29272e-05 14737.7 6.58107e+06
1.07041 12.6646 0.00090416 1.63063e-06 429162 12.6415 1.62766e-06 3.79435e-05 18443.4 7.76667e+06
1.13118 14.1352 0.00106705 1.54216e-06 506358 14.1111 1.53953e-06 3.3507e-05 23305.1 9.16586e+06
1.19539 15.7855 0.00125928 1.45931e-06 598590 15.7568 1.45665e-06 2.9562e-05 29549 1.08171e+07
1.26325 17.5466 0.00148614 1.3745e-06 704844 17.5133 1.37188e-06 2.60578e-05 37179.1 1.27658e+07
1.33496 19.4726 0.00175387 1.29251e-06 834620 19.4333 1.2899e-06 2.29484e-05 47007.9 1.50656e+07
1.41075 21.5506 0.00206984 1.21208e-06 981444 21.5081 1.2097e-06 2.01923e-05 58913.2 1.77798e+07
1.49083 23.9144 0.00244272 1.13971e-06 1.15998e+06 23.871 1.13764e-06 1.77518e-05 74473.8 2.09828e+07
1.57546 26.4731 0.00288279 1.06906e-06 1.36931e+06 26.4248 1.06711e-06 1.55929e-05 93881.3 2.4763e+07
1.66489 29.2861 0.00340213 1.00212e-06 1.61652e+06 29.2312 1.00024e-06 1.3685e-05 118374 2.92241e+07
1.75941 32.2047 0.00401503 9.33772e-07 1.90601e+06 32.1457 9.32059e-07 1.20007e-05 148306 3.44889e+07
1.85928 35.3802 0.00473835 8.69248e-07 2.24913e+06 35.3159 8.67667e-07 1.05151e-05 185928 4.07021e+07
1.96483 38.7103 0.00559198 8.05881e-07 2.65744e+06 38.6376 8.04369e-07 9.20606e-06 232627 4.80347e+07
2.07637 42.3858 0.00659939 7.477e-07 3.13125e+06 42.3058 7.46289e-07 8.05366e-06 290705 5.66883e+07
2.19424 46.2403 0.00778828 6.91177e-07 3.69915e+06 46.1557 6.89912e-07 7.04008e-06 363173 6.69008e+07
2.3188 50.3278 0.00919136 6.37438e-07 4.36472e+06 50.2367 6.36285e-07 6.1494e-06 452441 7.89532e+07
2.45043 54.7491 0.0108472 5.87582e-07 5.14913e+06 54.6554 5.86577e-07 5.36741e-06 563687 9.31768e+07
2.58954 59.3386 0.0128014 5.39624e-07 6.07894e+06 59.2351 5.38683e-07 4.68145e-06 700710 1.09963e+08
2.73654 64.19 0.0151076 4.94633e-07 7.17304e+06 64.0826 4.93805e-07 4.08023e-06 869564 1.29773e+08
2.89188 69.2768 0.0178292 4.5234e-07 8.46557e+06 69.1598 4.51577e-07 3.55373e-06 1.07755e+06 1.53152e+08
3.05605 74.6019 0.0210412 4.12752e-07 9.98773e+06 74.4781 4.12067e-07 3.09304e-06 1.33282e+06 1.80743e+08
3.22953 80.1098 0.0248319 3.75567e-07 1.1797e+07 79.9765 3.74941e-07 2.69025e-06 1.6469e+06 2.13304e+08
3.41286 86.0382 0.0293054 3.41786e-07 1.39144e+07 85.8923 3.41206e-07 2.33837e-06 2.03378e+06 2.51731e+08
3.6066 92.321 0.0345848 3.1076e-07 1.64163e+07 92.1676 3.10244e-07 2.0312e-06 2.51158e+06 2.97081e+08
3.81134 98.9404 0.0408154 2.82202e-07 1.93821e+07 98.775 2.8173e-07 1.76327e-06 3.10202e+06 3.50601e+08
4.0277 105.791 0.0481684 2.55679e-07 2.28754e+07 105.615 2.55256e-07 1.52972e-06 3.82342e+06 4.13763e+08
4.25634 112.941 0.056846 2.31292e-07 2.69929e+07 112.752 2.30905e-07 1.32631e-06 4.70724e+06 4.88304e+08
4.49796 120.423 0.067087 2.08969e-07 3.18542e+07 120.222 2.0862e-07 1.14926e-06 5.79203e+06 5.76273e+08
4.7533 128.316 0.0791729 1.88674e-07 3.75892e+07 128.101 1.88359e-07 9.95263e-07 7.12588e+06 6.8009e+08
5.02313 136.572 0.0934361 1.7016e-07 4.43706e+07 136.35 1.69883e-07 8.61414e-07 8.76477e+06 8.0261e+08
5.30828 145.197 0.110269 1.5329e-07 5.23593e+07 144.959 1.53039e-07 7.45152e-07 1.07712e+07 9.47202e+08
5.60962 154.212 0.130134 1.37955e-07 6.1787e+07 153.961 1.3773e-07 6.44232e-07 1.3231e+07 1.11784e+09
5.92807 163.735 0.153578 1.24115e-07 7.29346e+07 163.467 1.23911e-07 5.56685e-07 1.6261e+07 1.31923e+09
6.26459 173.531 0.181246 1.1146e-07 8.60651e+07 173.246 1.11277e-07 4.80786e-07 1.99524e+07 1.55689e+09
6.62021 183.953 0.213898 1.00118e-07 1.01558e+08 183.649 9.99522e-08 4.15026e-07 2.44991e+07 1.83737e+09
6.99602 194.776 0.252432 8.98261e-08 1.1986e+08 194.46 8.96801e-08 3.58083e-07 3.00672e+07 2.16837e+09
7.39317 206.058 0.297908 8.05227e-08 1.41457e+08 205.724 8.03919e-08 3.08803e-07 3.68859e+07 2.55901e+09
7.81286 217.959 0.351577 7.21712e-08 1.66936e+08 217.602 7.20532e-08 2.66181e-07 4.52623e+07 3.02002e+09
8.25637 230.543 0.414914 6.46849e-08 1.97025e+08 230.164 6.45787e-08 2.29336e-07 5.55715e+07 3.56409e+09
8.72507 243.828 0.489662 5.79692e-08 2.32497e+08 243.428 5.78741e-08 1.97503e-07 6.82403e+07 4.20617e+09
9.22037 257.935 0.577876 5.19619e-08 2.74404e+08 257.506 5.18755e-08 1.70014e-07 8.38669e+07 4.96392e+09
9.74378 273.346 0.681982 4.66606e-08 3.2382e+08 272.883 4.65816e-08 1.46289e-07 1.03286e+08 5.85818e+09
10.2969 290.665 0.804843 4.20427e-08 3.82165e+08 290.15 4.19682e-08 1.25822e-07 1.27698e+08 6.91355e+09
10.8814 311.201 0.949838 3.81418e-08 4.51027e+08 310.612 3.80697e-08 1.08175e-07 1.59029e+08 8.15905e+09
11.4992 337.465 1.12095 3.50471e-08 5.32251e+08 336.755 3.49733e-08 9.29669e-08 2.0065e+08 9.62892e+09
12.1519 374.606 1.3229 3.29655e-08 6.28157e+08 373.673 3.28834e-08 7.98658e-08 2.59279e+08 1.13636e+10
12.8418 416.281 1.56122 3.10408e-08 3.82727e+08 430.866 3.21283e-08 6.85852e-08 1.73217e+08 1.34108e+10
13.5708 0 1.84248 0 0 0 0 5.88765e-08 0 1.58268e+10
14.3411 0 2.17441 0 0 0 0 5.05241e-08 0 1.8678e+10
15.1552 0 2.56613 0 0 0 0 4.33417e-08 0 2.20429e+10
16.0156 0 3.02843 0 0 0 0 3.71677e-08 0 2.6014e+10
16.9247 0 3.574 0 0 0 0 3.18628e-08 0 3.07005e+10
17.8855 0 4.21787 0 0 0 0 2.73063e-08 0 3.62312e+10
18.9008 0 4.97773 0 0 0 0 2.33941e-08 0 4.27584e+10
19.9738 0 5.87448 0 0 0 0 2.00364e-08 0 5.04614e+10
21.1076 0 6.93279 0 0 0 0 1.71555e-08 0 5.95522e+10
22.3058 0 8.18175 0 0 0 0 1.46847e-08 0 7.02807e+10
23.5721 0 9.65571 0 0 0 0 1.25662e-08 0 8.29419e+10
24.9102 0 11.3952 0 0 0 0 1.07504e-08 0 9.78842e+10
26.3243 0 13.4481 0 0 0 0 9.19452e-09 0 1.15518e+11
27.8187 0 15.8708 0 0 0 0 7.86182e-09 0 1.36329e+11
29.3979 0 18.73 0 0 0 0 6.72061e-09 0 1.60889e+11
31.0667 0 22.1042 0 0 0 0 5.74366e-09 0 1.89874e+11
32.8303 0 26.0864 0 0 0 0 4.90756e-09 0 2.2408e+11
34.694 0 30.7859 0 0 0 0 4.19221e-09 0 2.64449e+11
36.6634 0 36.3321 0 0 0 0 3.58032e-09 0 3.1209e+11
38.7447 0 42.8774 0 0 0 0 3.05709e-09 0 3.68314e+11
40.9442 0 50.6018 0 0 0 0 2.60976e-09 0 4.34667e+11
43.2685 0 59.7179 0 0 0 0 2.22743e-09 0 5.12973e+11
45.7247 0 70.4762 0 0 0 0 1.90073e-09 0 6.05386e+11
48.3204 0 83.1727 0 0 0 0 1.62163e-09 0 7.14448e+11
51.0634 0 98.1565 0 0 0 0 1.38326e-09 0 8.43158e+11
53.9621 0 115.84 0 0 0 0 1.1797e-09 0 9.95055e+11
57.0254 0 136.709 0 0 0 0 1.00592e-09 0 1.17432e+12
60.2626 0 161.337 0 0 0 0 8.57591e-10 0 1.38587e+12
63.6835 0 190.402 0 0 0 0 7.3101e-10 0 1.63554e+12
67.2987 0 224.704 0 0 0 0 6.23009e-10 0 1.93019e+12
71.1191 0 265.185 0 0 0 0 5.30879e-10 0 2.27792e+12
75.1563 0 312.958 0 0 0 0 4.52303e-10 0 2.68829e+12
79.4227 0 369.339 0 0 0 0 3.85299e-10 0 3.17259e+12
83.9313 0 435.876 0 0 0 0 3.28173e-10 0 3.74415e+12
88.6959 0 514.4 0 0 0 0 2.79476e-10 0 4.41866e+12
93.7309 0 607.071 0 0 0 0 2.37972e-10 0 5.2147e+12
99.0518 0 716.436 0 0 0 0 2.02605e-10 0 6.15414e+12
104.675 0 845.504 0 0 0 0 1.72471e-10 0 7.26283e+12
110.617 0 997.824 0 0 0 0 1.468e-10 0 8.57124e+12
116.896 0 1177.58 0 0 0 0 1.24935e-10 0 1.01154e+13
123.532 0 1389.73 0 0 0 0 1.06313e-10 0 1.19377e+13
130.545 0 1640.09 0 0 0 0 9.04567e-11 0 1.40883e+13
137.955 0 1935.56 0 0 0 0 7.69563e-11 0 1.66263e+13
145.787 0 2284.26 0 0 0 0 6.54636e-11 0 1.96216e+13
154.063 0 2695.77 0 0 0 0 5.56812e-11 0 2.31565e+13
162.808 0 3181.42 0 0 0 0 4.73556e-11 0 2.73282e+13
172.051 0 3754.56 0 0 0 0 4.02708e-11 0 3.22515e+13
181.818 0 4430.96 0 0 0 0 3.42426e-11 0 3.80616e+13
192.139 0 5229.21 0 0 0 0 2.91139e-11 0 4.49186e+13
203.046 0 6171.26 0 0 0 0 2.4751e-11 0 5.30108e+13
214.572 0 7283.03 0 0 0 0 2.10401e-11 0 6.25608e+13
226.753 0 8595.09 0 0 0 0 1.78839e-11 0 7.38313e+13
239.625 0 10143.5 0 0 0 0 1.51999e-11 0 8.71322e+13
253.228 0 11970.9 0 0 0 0 1.29176e-11 0 1.02829e+14
267.603 0 14127.5 0 0 0 0 1.09771e-11 0 1.21354e+14
282.795 0 16672.6 0 0 0 0 9.3274e-12 0 1.43217e+14
298.848 0 19676.2 0 0 0 0 7.925e-12 0 1.69017e+14
315.813 0 23220.9 0 0 0 0 6.73295e-12 0 1.99466e+14
333.741 0 27404.3 0 0 0 0 5.71979e-12 0 2.35401e+14
352.686 0 32341.2 0 0 0 0 4.85874e-12 0 2.77809e+14
372.707 0 38167.6 0 0 0 0 4.12703e-12 0 3.27857e+14
393.865 0 45043.5 0 0 0 0 3.50528e-12 0 3.86921e+14
416.224 0 53158.3 0 0 0 0 2.97701e-12 0 4.56626e+14
439.852 0 62734.9 0 0 0 0 2.52819e-12 0 5.38888e+14
464.821 0 74036.7 0 0 0 0 2.1469e-12 0 6.35971e+14
491.207 0 87374.6 0 0 0 0 1.82301e-12 0 7.50542e+14
519.092 0 103115 0 0 0 0 1.54789e-12 0 8.85755e+14
548.56 0 121692 0 0 0 0 1.31422e-12 0 1.04533e+15
579.7 0 143615 0 0 0 0 1.11576e-12 0 1.23364e+15
612.608 0 169488 0 0 0 0 9.47223e-13 0 1.45589e+15
647.384 0 200021 0 0 0 0 8.041e-13 0 1.71817e+15
684.134 0 236056 0 0 0 0 6.82568e-13 0 2.0277e+15
722.971 0 278582 0 0 0 0 5.79376e-13 0 2.393e+15
764.012 0 328769 0 0 0 0 4.91762e-13 0 2.8241e+15
