0.139277
200
1.0655e+09
8589934592
0.0129181 0 1.58924e-09 0 0 0 0 0.00677225 0 13.6515
0.0136515 0 1.87554e-09 0 0 0 0 0.00688819 0 16.1108
0.0144264 0 2.21343e-09 0 0 0 0 0.00699249 0 19.0132
0.0152454 0 2.61218e-09 0 0 0 0 0.00708412 0 22.4385
0.0161108 0 3.08278e-09 0 0 0 0 0.00716212 0 26.4808
0.0170254 0 3.63815e-09 0 0 0 0 0.00722559 0 31.2514
0.0179919 0 4.29357e-09 0 0 0 0 0.00727371 0 36.8815
0.0190132 0 5.06707e-09 0 0 0 0 0.00730578 0 43.5258
0.0200925 0 5.97991e-09 0 0 0 0 0.00732122 0 51.367
0.0212331 0 7.05721e-09 0 0 0 0 0.00731958 0 60.621
0.0224385 0 8.32858e-09 0 0 0 0 0.00730056 0 71.542
0.0237123 0 9.829e-09 0 0 0 0 0.00726401 0 84.4305
0.0250583 0 1.15997e-08 0 0 0 0 0.00720995 0 99.6408
0.0264808 0 1.36894e-08 0 0 0 0 0.00713857 0 117.591
0.0279841 0 1.61556e-08 0 0 0 0 0.00705021 0 138.776
0.0295727 0 1.90661e-08 0 0 0 0 0.00694538 0 163.777
0.0312514 0 2.25009e-08 0 0 0 0 0.00682475 0 193.281
0.0330255 0 2.65545e-08 0 0 0 0 0.00668915 0 228.102
0.0349003 0 3.13384e-08 0 0 0 0 0.00653951 0 269.195
0.0368815 0 3.69841e-08 0 0 0 0 0.00637693 0 317.691
0.0389751 0 4.36469e-08 0 0 0 0 0.00620256 0 374.924
0.0411876 0 5.151e-08 0 0 0 0 0.00601767 0 442.467
0.0435258 0 6.07896e-08 0 0 0 0 0.00582358 0 522.179
0.0459966 0 7.1741e-08 0 0 0 0 0.00562166 0 616.251
0.0486077 0 8.46654e-08 0 0 0 0 0.0054133 0 727.27
0.051367 0 9.99181e-08 0 0 0 0 0.00519989 0 858.29
0.054283 0 1.17919e-07 0 0 0 0 0.0049828 0 1012.91
0.0573645 0 1.39162e-07 0 0 0 0 0.00476339 0 1195.39
0.060621 0 1.64232e-07 0 0 0 0 0.00454293 0 1410.75
0.0640622 0 1.93819e-07 0 0 0 0 0.00432265 0 1664.89
0.0676989 0 2.28736e-07 0 0 0 0 0.00410371 0 1964.83
0.071542 0 2.69944e-07 0 0 0 0 0.00388717 0 2318.8
0.0756032 0 3.18575e-07 0 0 0 0 0.00367401 0 2736.54
0.079895 0 3.75967e-07 0 0 0 0 0.0034651 0 3229.53
0.0844305 0 4.43698e-07 0 0 0 0 0.00326121 0 3811.34
0.0892234 0 5.23632e-07 0 0 0 0 0.00306301 0 4497.96
0.0942883 0 6.17966e-07 0 0 0 0 0.00287109 0 5308.28
0.0996408 0 7.29294e-07 0 0 0 0 0.00268591 0 6264.59
0.105297 0 8.60678e-07 0 0 0 0 0.00250785 0 7393.17
0.111275 0 1.01573e-06 0 0 0 0 0.00233721 0 8725.07
0.117591 0 1.19872e-06 0 0 0 0 0.00217419 0 10296.9
0.124267 0 1.41467e-06 0 0 0 0 0.00201893 0 12151.9
0.131321 0 1.66953e-06 0 0 0 0 0.00187147 0 14341.1
0.138776 0 1.9703e-06 0 0 0 0 0.00173182 0 16924.7
0.146654 0 2.32525e-06 0 0 0 0 0.00159991 0 19973.8
0.154979 0 2.74415e-06 0 0 0 0 0.00147563 0 23572.1
0.163777 0 3.23852e-06 0 0 0 0 0.00135884 0 27818.7
0.173074 0 3.82195e-06 0 0 0 0 0.00124933 0 32830.3
0.182899 0 4.51048e-06 0 0 0 0 0.00114689 0 38744.7
0.193281 0 5.32305e-06 0 0 0 0 0.00105127 0 45724.7
0.204254 0 6.28202e-06 0 0 0 0 0.000962209 0 53962.1
0.215848 0 7.41374e-06 0 0 0 0 0.000879423 0 63683.5
0.228102 0 8.74934e-06 0 0 0 0 0.000802624 0 75156.3
0.24105 0 1.03256e-05 0 0 0 0 0.000731515 0 88695.9
0.254734 0 1.21857e-05 0 0 0 0 0.000665798 0 104675
0.269195 0 1.4381e-05 0 0 0 0 0.000605173 0 123532
0.284476 0 1.69718e-05 0 0 0 0 0.000549345 0 145787
0.300625 0 2.00293e-05 0 0 0 0 0.000498021 0 172051
0.317691 0 2.36377e-05 0 0 0 0 0.000450916 0 203046
0.335725 0 2.78961e-05 0 0 0 0 0.000407755 0 239625
0.354784 0 3.29216e-05 0 0 0 0 0.000368269 0 282795
0.374924 0 3.88525e-05 0 0 0 0 0.000332202 0 333741
0.396207 0.544535 4.58519e-05 1.38254e-06 6 0.529396 1.34411e-06 0.000299307 0.0277149 393865
0.418699 0 5.41123e-05 0 0 0 0 0.00026935 0 464821
0.442467 0 6.38607e-05 0 0 0 0 0.000242108 0 548560
0.467585 0 7.53654e-05 0 0 0 0 0.00021737 0 647384
0.494129 0 8.89427e-05 0 0 0 0 0.000194938 0 764012
0.522179 0 0.000104966 0 0 0 0 0.000174625 0 901651
0.551822 0 0.000123876 0 0 0 0 0.000156255 0 1.06409e+06
0.583147 4.44322 0.000146192 3.53821e-06 12 4.67651 3.72398e-06 0.000139664 0.304004 1.25578e+06
0.616251 0 0.000172529 0 0 0 0 0.0001247 0 1.48202e+06
0.651234 0 0.000203611 0 0 0 0 0.00011122 0 1.74901e+06
0.688203 23.4134 0.000240292 1.13432e-05 8 22.8309 1.1061e-05 9.90935e-05 0.915755 2.06409e+06
0.72727 0 0.000283581 0 0 0 0 8.81969e-05 0 2.43595e+06
0.768555 0 0.000334669 0 0 0 0 7.84179e-05 0 2.87479e+06
0.812184 0.202008 0.000394961 5.95421e-08 6 0.206327 6.08151e-08 6.96525e-05 0.00512907 3.39269e+06
0.85829 0 0.000466114 0 0 0 0 6.1805e-05 0 4.00389e+06
0.907013 0.327267 0.000550086 6.92599e-08 24 0.333546 7.05888e-08 5.47875e-05 0.0303397 4.7252e+06
0.958501 0.854589 0.000649185 1.53249e-07 24 0.804532 1.44273e-07 4.85194e-05 0.0758044 5.57646e+06
1.01291 0 0.000766138 0 0 0 0 4.29272e-05 0 6.58107e+06
1.07041 0 0.00090416 0 0 0 0 3.79435e-05 0 7.76667e+06
1.13118 1.34118 0.00106705 1.46324e-07 12 1.32471 1.44527e-07 3.3507e-05 0.0524036 9.16586e+06
1.19539 0.783297 0.00125928 7.24128e-08 30 0.76715 7.092e-08 2.9562e-05 0.0734856 1.08171e+07
1.26325 5.5482 0.00148614 4.34612e-07 24 5.46471 4.28073e-07 2.60578e-05 0.400291 1.27658e+07
1.33496 17.962 0.00175387 1.19225e-06 24 18.0015 1.19487e-06 2.29484e-05 1.24688 1.50656e+07
1.41075 5.95712 0.00206984 3.3505e-07 32 6.123 3.4438e-07 2.01923e-05 0.530975 1.77798e+07
1.49083 0.51275 0.00244272 2.44366e-08 48 0.501819 2.39157e-08 1.77518e-05 0.0660756 2.09828e+07
1.57546 0.0915245 0.00288279 3.69603e-09 6 0.087152 3.51945e-09 1.55929e-05 0.0014222 2.4763e+07
1.66489 0.416504 0.00340213 1.42521e-08 84 0.403748 1.38156e-08 1.3685e-05 0.0874807 2.92241e+07
1.75941 2.6128 0.00401503 7.57577e-08 48 2.62807 7.62006e-08 1.20007e-05 0.303014 3.44889e+07
1.85928 0.321424 0.00473835 7.89698e-09 72 0.323459 7.94699e-09 1.05151e-05 0.054073 4.07021e+07
1.96483 0.815541 0.00559198 1.69782e-08 54 0.797715 1.66071e-08 9.20606e-06 0.0995889 4.80347e+07
2.07637 8.2843 0.00659939 1.46138e-07 104 8.247 1.4548e-07 8.05366e-06 1.88713 5.66883e+07
2.19424 0.320935 0.00778828 4.79717e-09 120 0.324278 4.84714e-09 7.04008e-06 0.0817691 6.69008e+07
2.3188 1.75256 0.00919136 2.21975e-08 156 1.66825 2.11297e-08 6.1494e-06 0.563113 7.89532e+07
2.45043 0.677645 0.0108472 7.27268e-09 126 0.671822 7.21019e-09 5.36741e-06 0.170726 9.31768e+07
2.58954 0.69541 0.0128014 6.32404e-09 192 0.706341 6.42345e-09 4.68145e-06 0.259368 1.09963e+08
2.73654 4.11578 0.0151076 3.17152e-08 152 4.27026 3.29056e-08 4.08023e-06 1.18148 1.29773e+08
2.89188 3.6158 0.0178292 2.36092e-08 378 3.69336 2.41157e-08 3.55373e-06 2.51125 1.53152e+08
3.05605 1.31385 0.0210412 7.26916e-09 264 1.2909 7.14219e-09 3.09304e-06 0.620444 1.80743e+08
3.22953 0.289545 0.0248319 1.35743e-09 366 0.28603 1.34095e-09 2.69025e-06 0.184673 2.13304e+08
3.41286 0.773647 0.0293054 3.0733e-09 428 0.742519 2.94965e-09 2.33837e-06 0.562517 2.51731e+08
3.6066 3.1034 0.0345848 1.04463e-08 486 3.00025 1.00991e-08 2.0312e-06 2.49946 2.97081e+08
3.81134 0.908995 0.0408154 2.59268e-09 600 0.906609 2.58587e-09 1.76327e-06 0.88223 3.50601e+08
4.0277 0.713911 0.0481684 1.72541e-09 738 0.701442 1.69528e-09 1.52972e-06 0.832407 4.13763e+08
4.25634 1.30799 0.056846 2.67864e-09 824 1.35144 2.76762e-09 1.32631e-06 1.66417 4.88304e+08
4.49796 2.74049 0.067087 4.75553e-09 954 2.75645 4.78324e-09 1.14926e-06 3.94758 5.76273e+08
4.7533 0.662167 0.0791729 9.73647e-10 1094 0.653047 9.60236e-10 9.95263e-07 1.07024 6.8009e+08
5.02313 0.518206 0.0934361 6.45651e-10 1332 0.519337 6.4706e-10 8.61414e-07 0.998367 8.0261e+08
5.30828 2.18231 0.110269 2.30396e-09 1614 2.20606 2.32903e-09 7.45152e-07 4.99037 9.47202e+08
5.60962 1.24052 0.130134 1.10975e-09 1850 1.21 1.08244e-09 6.44232e-07 3.18679 1.11784e+09
5.92807 1.5734 0.153578 1.19267e-09 2238 1.51627 1.14936e-09 5.56685e-07 4.79479 1.31923e+09
6.26459 0.874644 0.181246 5.6179e-10 2546 0.883634 5.67564e-10 4.80786e-07 2.97495 1.55689e+09
6.62021 0.535051 0.213898 2.91206e-10 3264 0.534655 2.9099e-10 4.15026e-07 2.29021 1.83737e+09
6.99602 1.60778 0.252432 7.41469e-10 3506 1.65172 7.61732e-10 3.58083e-07 7.25975 2.16837e+09
7.39317 0.971137 0.297908 3.79497e-10 4506 0.979238 3.82663e-10 3.08803e-07 5.53755 2.55901e+09
7.81286 1.46358 0.351577 4.84625e-10 5018 1.49785 4.95973e-10 2.66181e-07 9.13608 3.02002e+09
8.25637 1.39789 0.414914 3.92216e-10 5852 1.36187 3.82109e-10 2.29336e-07 10.0082 3.56409e+09
8.72507 1.11147 0.489662 2.64247e-10 7362 1.10428 2.62538e-10 1.97503e-07 9.84989 4.20617e+09
9.22037 1.36012 0.577876 2.74002e-10 8306 1.34933 2.71828e-10 1.70014e-07 13.3863 4.96392e+09
9.74378 0.893147 0.681982 1.52461e-10 9698 0.892524 1.52355e-10 1.46289e-07 10.1072 5.85818e+09
10.2969 1.51271 0.804843 2.18803e-10 11816 1.52368 2.20391e-10 1.25822e-07 20.5478 6.91355e+09
10.8814 1.41679 0.949838 1.73647e-10 13682 1.41664 1.73628e-10 1.08175e-07 21.9628 8.15905e+09
11.4992 1.46709 1.12095 1.52362e-10 16152 1.45431 1.51035e-10 9.29669e-08 26.4714 9.62892e+09
12.1519 1.56068 1.3229 1.37341e-10 19472 1.54365 1.35841e-10 7.98658e-08 33.4849 1.13636e+10
12.8418 1.31419 1.56122 9.79948e-11 22670 1.31491 9.80488e-11 6.85852e-08 32.391 1.34108e+10
13.5708 1.73436 1.84248 1.09584e-10 26224 1.74241 1.10092e-10 5.88765e-08 48.8094 1.58268e+10
14.3411 1.78435 2.17441 9.55322e-11 31640 1.78987 9.58277e-11 5.05241e-08 59.8256 1.8678e+10
15.1552 2.07863 2.56613 9.42993e-11 37484 2.08038 9.43785e-11 4.33417e-08 81.5547 2.20429e+10
16.0156 2.20081 3.02843 8.46009e-11 43856 2.2043 8.47351e-11 3.71677e-08 99.8247 2.6014e+10
16.9247 2.87236 3.574 9.35608e-11 51362 2.86514 9.33256e-11 3.18628e-08 150.818 3.07005e+10
17.8855 3.03728 4.21787 8.38304e-11 61636 3.02279 8.34305e-11 2.73063e-08 189.223 3.62312e+10
18.9008 3.75873 4.97773 8.79062e-11 72218 3.74686 8.76285e-11 2.33941e-08 271.368 4.27584e+10
19.9738 4.47723 5.87448 8.87257e-11 84586 4.45794 8.83435e-11 2.00364e-08 374.566 5.04614e+10
21.1076 5.23593 6.93279 8.79217e-11 100708 5.22338 8.7711e-11 1.71555e-08 516.126 5.95522e+10
22.3058 6.27248 8.18175 8.9249e-11 118712 6.25669 8.90243e-11 1.46847e-08 721.496 7.02807e+10
23.5721 7.36392 9.65571 8.87841e-11 140410 7.34236 8.8524e-11 1.25662e-08 992.043 8.29419e+10
24.9102 8.53892 11.3952 8.72349e-11 164374 8.50936 8.6933e-11 1.07504e-08 1333.83 9.78842e+10
26.3243 9.85333 13.4481 8.52967e-11 194680 9.82316 8.50355e-11 9.19452e-09 1806.03 1.15518e+11
27.8187 11.3492 15.8708 8.32487e-11 230196 11.3141 8.29908e-11 7.86182e-09 2437.54 1.36329e+11
29.3979 13.0149 18.73 8.08936e-11 271156 12.979 8.06705e-11 6.72061e-09 3263.81 1.60889e+11
31.0667 15.007 22.1042 7.90366e-11 321076 14.96 7.87891e-11 5.74366e-09 4418.22 1.89874e+11
32.8303 17.1891 26.0864 7.67096e-11 377436 17.1393 7.64872e-11 4.90756e-09 5899.67 2.2408e+11
34.694 19.7066 30.7859 7.45195e-11 447594 19.6458 7.42894e-11 4.19221e-09 7956.3 2.64449e+11
36.6634 22.7503 36.3321 7.28967e-11 525078 22.6785 7.26666e-11 3.58032e-09 10690.8 3.1209e+11
38.7447 26.2355 42.8774 7.12313e-11 621924 26.1569 7.10179e-11 3.05709e-09 14491.1 3.68314e+11
40.9442 30.386 50.6018 6.99064e-11 732630 30.2943 6.96955e-11 2.60976e-09 19624.6 4.34667e+11
43.2685 35.4019 59.7179 6.90133e-11 865596 35.2965 6.88077e-11 2.22743e-09 26819.1 5.12973e+11
45.7247 41.0471 70.4762 6.78031e-11 1.02168e+06 40.9229 6.7598e-11 1.90073e-09 36445.3 6.05386e+11
48.3204 47.9249 83.1727 6.70796e-11 1.20544e+06 47.7804 6.68774e-11 1.62163e-09 49863.5 7.14448e+11
51.0634 55.7758 98.1565 6.61511e-11 1.42103e+06 55.6051 6.59486e-11 1.38326e-09 67957.5 8.43158e+11
53.9621 64.9187 115.84 6.52413e-11 1.67997e+06 64.7196 6.50412e-11 1.1797e-09 92907.5 9.95055e+11
57.0254 75.8964 136.709 6.46302e-11 1.98018e+06 75.6568 6.44262e-11 1.00592e-09 127226 1.17432e+12
60.2626 88.6976 161.337 6.40012e-11 2.33957e+06 88.4181 6.37995e-11 8.57591e-10 174600 1.38587e+12
63.6835 103.845 190.402 6.34928e-11 2.75676e+06 103.518 6.32926e-11 7.3101e-10 239442 1.63554e+12
67.2987 121.391 224.704 6.28906e-11 3.25638e+06 121.003 6.26895e-11 6.23009e-10 328720 1.93019e+12
71.1191 142.374 265.185 6.25019e-11 3.84387e+06 141.925 6.23049e-11 5.30879e-10 452550 2.27792e+12
75.1563 167.061 312.958 6.21439e-11 4.53277e+06 166.532 6.19471e-11 4.52303e-10 622777 2.68829e+12
79.4227 196.094 369.339 6.18086e-11 5.35083e+06 195.476 6.16141e-11 3.85299e-10 858364 3.17259e+12
83.9313 230.862 435.876 6.16596e-11 6.32174e+06 230.106 6.14575e-11 3.28173e-10 1.18778e+06 3.74415e+12
88.6959 271.556 514.4 6.14566e-11 7.44986e+06 270.665 6.12549e-11 2.79476e-10 1.63822e+06 4.41866e+12
93.7309 319.072 607.071 6.11871e-11 8.79764e+06 318.033 6.09879e-11 2.37972e-10 2.26203e+06 5.2147e+12
99.0518 376.119 716.436 6.11165e-11 1.03827e+07 374.871 6.09137e-11 2.02605e-10 3.13198e+06 6.15414e+12
104.675 443.52 845.504 6.10672e-11 1.22515e+07 442.075 6.08683e-11 1.72471e-10 4.33792e+06 7.26283e+12
110.617 522.237 997.824 6.0929e-11 1.44573e+07 520.532 6.07301e-11 1.468e-10 6.00048e+06 8.57124e+12
116.896 615.546 1177.58 6.08525e-11 1.70664e+07 613.518 6.0652e-11 1.24935e-10 8.3126e+06 1.01154e+13
123.532 725.298 1389.73 6.0757e-11 2.0139e+07 722.908 6.05568e-11 1.06313e-10 1.15092e+07 1.19377e+13
130.545 866.412 1640.09 6.14987e-11 2.37643e+07 864.009 6.13281e-11 9.04567e-11 1.61566e+07 1.40883e+13
137.955 1009.42 1935.56 6.0712e-11 2.80503e+07 1006.06 6.051e-11 7.69563e-11 2.21293e+07 1.66263e+13
145.787 1191.01 2284.26 6.06989e-11 3.30981e+07 1187.04 6.04965e-11 6.54636e-11 3.06891e+07 1.96216e+13
154.063 1412.94 2695.77 6.10169e-11 3.90634e+07 1408.23 6.08135e-11 5.56812e-11 4.28068e+07 2.31565e+13
162.808 1659.74 3181.42 6.07336e-11 4.61057e+07 1654.17 6.05299e-11 4.73556e-11 5.91305e+07 2.73282e+13
172.051 1960.34 3754.56 6.07828e-11 5.44046e+07 1953.8 6.05801e-11 4.02708e-11 8.21157e+07 3.22515e+13
181.818 2319.16 4430.96 6.09318e-11 6.42064e+07 2311.51 6.07306e-11 3.42426e-11 1.1425e+08 3.80616e+13
192.139 2737.47 5229.21 6.0943e-11 7.57748e+07 2728.25 6.07378e-11 2.91139e-11 1.58616e+08 4.49186e+13
203.046 3242.12 6171.26 6.11596e-11 8.94213e+07 3231.06 6.0951e-11 2.4751e-11 2.20959e+08 5.30108e+13
214.572 3833.33 7283.03 6.12737e-11 1.05538e+08 3820.35 6.10662e-11 2.10401e-11 3.07352e+08 6.25608e+13
226.753 4542.08 8595.09 6.15197e-11 1.24552e+08 4526.68 6.13112e-11 1.78839e-11 4.28451e+08 7.38313e+13
239.625 5385.84 10143.5 6.18123e-11 1.46987e+08 5367.41 6.16008e-11 1.51999e-11 5.97742e+08 8.71322e+13
253.228 6398.76 11970.9 6.22271e-11 1.7347e+08 6376.7 6.20125e-11 1.29176e-11 8.35644e+08 1.02829e+14
267.603 7617 14127.5 6.27667e-11 2.04703e+08 7590.51 6.25484e-11 1.09771e-11 1.17048e+09 1.21354e+14
282.795 9098.27 16672.6 6.3528e-11 2.4161e+08 9066.27 6.33046e-11 9.3274e-12 1.64558e+09 1.43217e+14
298.848 10901.6 19676.2 6.44997e-11 2.85122e+08 10862.4 6.42682e-11 7.925e-12 2.32054e+09 1.69017e+14
315.813 13141.1 23220.9 6.58815e-11 3.36491e+08 13093 6.56401e-11 6.73295e-12 3.29255e+09 1.99466e+14
333.741 15957.5 27404.3 6.77889e-11 3.97115e+08 15896.8 6.7531e-11 5.71979e-12 4.70646e+09 2.35401e+14
352.686 19583.7 32341.2 7.04933e-11 4.68637e+08 19505.8 7.02131e-11 4.85874e-12 6.79925e+09 2.77809e+14
372.707 24402 38167.6 7.44288e-11 5.53074e+08 24299.4 7.41157e-11 4.12703e-12 9.97439e+09 3.27857e+14
393.865 31045.4 45043.5 8.02371e-11 6.52716e+08 30904.6 7.9873e-11 3.50528e-12 1.49409e+10 3.86921e+14
416.224 36630.1 53158.3 8.02191e-11 2.2184e+08 38751.2 8.48643e-11 2.97701e-12 5.97774e+09 4.56626e+14
439.852 0 62734.9 0 0 0 0 2.52819e-12 0 5.38888e+14
464.821 0 74036.7 0 0 0 0 2.1469e-12 0 6.35971e+14
491.207 0 87374.6 0 0 0 0 1.82301e-12 0 7.50542e+14
519.092 0 103115 0 0 0 0 1.54789e-12 0 8.85755e+14
548.56 0 121692 0 0 0 0 1.31422e-12 0 1.04533e+15
579.7 0 143615 0 0 0 0 1.11576e-12 0 1.23364e+15
612.608 0 169488 0 0 0 0 9.47223e-13 0 1.45589e+15
647.384 0 200021 0 0 0 0 8.041e-13 0 1.71817e+15
684.134 0 236056 0 0 0 0 6.82568e-13 0 2.0277e+15
722.971 0 278582 0 0 0 0 5.79376e-13 0 2.393e+15
764.012 0 328769 0 0 0 0 4.91762e-13 0 2.8241e+15
0.139277
200
1.0655e+09
8589934592
0.0129181 6.29057e-05 1.58924e-09 4.60799e-06 6 6.23298e-05 4.5658e-06 0.00677225 0.00408253 13.6515
0.0136515 0 1.87554e-09 0 0 0 0 0.00688819 0 16.1108
0.0144264 0 2.21343e-09 0 0 0 0 0.00699249 0 19.0132
0.0152454 0 2.61218e-09 0 0 0 0 0.00708412 0 22.4385
0.0161108 0 3.08278e-09 0 0 0 0 0.00716212 0 26.4808
0.0170254 0 3.63815e-09 0 0 0 0 0.00722559 0 31.2514
0.0179919 0.000139719 4.29357e-09 3.78832e-06 12 0.000139539 3.78344e-06 0.00727371 0.00624988 36.8815
0.0190132 0 5.06707e-09 0 0 0 0 0.00730578 0 43.5258
0.0200925 0 5.97991e-09 0 0 0 0 0.00732122 0 51.367
0.0212331 0.000132147 7.05721e-09 2.17988e-06 8 0.000132032 2.17799e-06 0.00731958 0.00238252 60.621
0.0224385 0 8.32858e-09 0 0 0 0 0.00730056 0 71.542
0.0237123 0 9.829e-09 0 0 0 0 0.00726401 0 84.4305
0.0250583 0.000849447 1.15997e-08 8.52509e-06 6 0.000849047 8.52108e-06 0.00720995 0.00709443 99.6408
0.0264808 0 1.36894e-08 0 0 0 0 0.00713857 0 117.591
0.0279841 0.000528911 1.61556e-08 3.81126e-06 24 0.000528368 3.80735e-06 0.00705021 0.0129741 138.776
0.0295727 0 1.90661e-08 0 0 0 0 0.00694538 0 163.777
0.0312514 0.000945733 2.25009e-08 4.89304e-06 24 0.000950535 4.91788e-06 0.00682475 0.0172069 193.281
0.0330255 0 2.65545e-08 0 0 0 0 0.00668915 0 228.102
0.0349003 0.00132504 3.13384e-08 4.92225e-06 12 0.00131443 4.88284e-06 0.00653951 0.00903233 269.195
0.0368815 0.00114653 3.69841e-08 3.60896e-06 30 0.00113433 3.57053e-06 0.00637693 0.0169782 317.691
0.0389751 0.00136609 4.36469e-08 3.64366e-06 24 0.00135204 3.60617e-06 0.00620256 0.0140987 374.924
0.0411876 0.00086581 5.151e-08 1.95678e-06 24 0.00085993 1.94349e-06 0.00601767 0.00780413 442.467
0.0435258 0.00186989 6.07896e-08 3.58095e-06 8 0.00186975 3.58067e-06 0.00582358 0.00491924 522.179
0.0459966 0.00239121 7.1741e-08 3.88025e-06 72 0.00237229 3.84955e-06 0.00562166 0.0496966 616.251
0.0486077 0 8.46654e-08 0 0 0 0 0.0054133 0 727.27
0.051367 0.00357632 9.99181e-08 4.16679e-06 54 0.00356498 4.15359e-06 0.00519989 0.0432715 858.29
0.054283 0.00277991 1.17919e-07 2.74447e-06 60 0.0027915 2.75591e-06 0.0049828 0.0330473 1012.91
0.0573645 0.00276595 1.39162e-07 2.31385e-06 96 0.00275885 2.30791e-06 0.00476339 0.0466326 1195.39
0.060621 0.0031942 1.64232e-07 2.26419e-06 24 0.00315092 2.23352e-06 0.00454293 0.0119616 1410.75
0.0640622 0.00562937 1.93819e-07 3.38122e-06 134 0.00563243 3.38306e-06 0.00432265 0.104816 1664.89
0.0676989 0.00539939 2.28736e-07 2.74802e-06 120 0.00537466 2.73543e-06 0.00410371 0.080357 1964.83
0.071542 0.00493359 2.69944e-07 2.12765e-06 108 0.00488021 2.10463e-06 0.00388717 0.0591139 2318.8
0.0756032 0.0071712 3.18575e-07 2.62054e-06 174 0.00713382 2.60688e-06 0.00367401 0.124108 2736.54
0.079895 0.00766777 3.75967e-07 2.37427e-06 168 0.00759544 2.35187e-06 0.0034651 0.115113 3229.53
0.0844305 0.00655665 4.43698e-07 1.7203e-06 168 0.00658942 1.7289e-06 0.00326121 0.0886207 3811.34
0.0892234 0.00737824 5.23632e-07 1.64035e-06 290 0.00734728 1.63347e-06 0.00306301 0.155305 4497.96
0.0942883 0.00958225 6.17966e-07 1.80515e-06 288 0.009558 1.80058e-06 0.00287109 0.181075 5308.28
0.0996408 0.00872322 7.29294e-07 1.39246e-06 366 0.00864955 1.38071e-06 0.00268591 0.189747 6264.59
0.105297 0.00945518 8.60678e-07 1.27891e-06 420 0.00938985 1.27007e-06 0.00250785 0.214184 7393.17
0.111275 0.0100041 1.01573e-06 1.14659e-06 398 0.00997661 1.14344e-06 0.00233721 0.19525 8725.07
0.117591 0.0119085 1.19872e-06 1.15652e-06 624 0.0119328 1.15888e-06 0.00217419 0.331923 10296.9
0.124267 0.0131764 1.41467e-06 1.08431e-06 642 0.0131597 1.08293e-06 0.00201893 0.344799 12151.9
0.131321 0.0167298 1.66953e-06 1.16656e-06 800 0.0167357 1.16697e-06 0.00187147 0.498672 14341.1
0.138776 0.0151805 1.9703e-06 8.9694e-07 858 0.0152536 9.01264e-07 0.00173182 0.444374 16924.7
0.146654 0.0163938 2.32525e-06 8.20769e-07 1080 0.0165308 8.27628e-07 0.00159991 0.55405 19973.8
0.154979 0.0194014 2.74415e-06 8.23066e-07 1286 0.0195356 8.2876e-07 0.00147563 0.717294 23572.1
0.163777 0.0183628 3.23852e-06 6.60089e-07 1650 0.0183956 6.6127e-07 0.00135884 0.801527 27818.7
0.173074 0.0216325 3.82195e-06 6.5892e-07 1778 0.021635 6.58994e-07 0.00124933 0.93775 32830.3
0.182899 0.0211503 4.51048e-06 5.4589e-07 2112 0.0212006 5.47187e-07 0.00114689 1.00526 38744.7
0.193281 0.0248745 5.32305e-06 5.44006e-07 2570 0.024911 5.44805e-07 0.00105127 1.32991 45724.7
0.204254 0.0276491 6.28202e-06 5.12381e-07 3030 0.0276375 5.12166e-07 0.000962209 1.61349 53962.1
0.215848 0.0274957 7.41374e-06 4.31755e-07 3434 0.0274908 4.31679e-07 0.000879423 1.68593 63683.5
0.228102 0.0287418 8.74934e-06 3.82427e-07 4218 0.028749 3.82522e-07 0.000802624 2.00975 75156.3
0.24105 0.0324659 1.03256e-05 3.66036e-07 4766 0.0324969 3.66385e-07 0.000731515 2.38481 88695.9
0.254734 0.0347223 1.21857e-05 3.31716e-07 6026 0.0347115 3.31613e-07 0.000665798 3.0023 104675
0.269195 0.0363555 1.4381e-05 2.943e-07 6480 0.0363379 2.94158e-07 0.000605173 3.15127 123532
0.284476 0.0394526 1.69718e-05 2.70619e-07 8162 0.0395438 2.71244e-07 0.000549345 4.02077 145787
0.300625 0.0397419 2.00293e-05 2.30989e-07 9578 0.0397924 2.31283e-07 0.000498021 4.44242 172051
0.317691 0.0442234 2.36377e-05 2.178e-07 11234 0.0441906 2.17638e-07 0.000450916 5.42621 203046
0.335725 0.046297 2.78961e-05 1.93206e-07 13344 0.0462755 1.93116e-07 0.000407755 6.32276 239625
0.354784 0.0480682 3.29216e-05 1.69976e-07 15464 0.0480395 1.69874e-07 0.000368269 7.13746 282795
0.374924 0.0516487 3.88525e-05 1.54757e-07 18458 0.0516415 1.54735e-07 0.000332202 8.59871 333741
0.396207 0.0542052 4.58519e-05 1.37624e-07 22232 0.0541273 1.37426e-07 0.000299307 10.2225 393865
0.418699 0.0586982 5.41123e-05 1.26281e-07 25628 0.0585761 1.26019e-07 0.00026935 12.0154 464821
0.442467 0.0612487 6.38607e-05 1.11654e-07 30320 0.0611416 1.11458e-07 0.000242108 13.9828 548560
0.467585 0.0642033 7.53654e-05 9.91734e-08 35452 0.0641104 9.90299e-08 0.00021737 16.1747 647384
0.494129 0.0666958 8.89427e-05 8.72968e-08 41792 0.0666705 8.72636e-08 0.000194938 18.7152 764012
0.522179 0.0721485 0.000104966 8.00182e-08 49988 0.0721274 7.99949e-08 0.000174625 22.906 901651
0.551822 0.0755115 0.000123876 7.09637e-08 59110 0.0754626 7.09178e-08 0.000156255 26.845 1.06409e+06
0.583147 0.0798256 0.000146192 6.35664e-08 69716 0.0797287 6.34892e-08 0.000139664 31.7304 1.25578e+06
0.616251 0.0843037 0.000172529 5.68844e-08 82210 0.08417 5.67942e-08 0.0001247 37.5018 1.48202e+06
0.651234 0.0892696 0.000203611 5.10402e-08 96722 0.0891056 5.09464e-08 0.00011122 44.3867 1.74901e+06
0.688203 0.0939863 0.000240292 4.5534e-08 113098 0.0938997 4.5492e-08 9.90935e-05 51.9691 2.06409e+06
0.72727 0.0978714 0.000283581 4.0178e-08 135190 0.0977702 4.01365e-08 8.81969e-05 61.5857 2.43595e+06
0.768555 0.104045 0.000334669 3.61922e-08 158170 0.103951 3.61597e-08 7.84179e-05 73.0002 2.87479e+06
0.812184 0.109019 0.000394961 3.21335e-08 188560 0.108911 3.21017e-08 6.96525e-05 86.9902 3.39269e+06
0.85829 0.114281 0.000466114 2.85426e-08 220444 0.11415 2.85097e-08 6.1805e-05 101.805 4.00389e+06
0.907013 0.120407 0.000550086 2.5482e-08 261388 0.120285 2.5456e-08 5.47875e-05 121.573 4.7252e+06
0.958501 0.126448 0.000649185 2.26754e-08 308244 0.126313 2.26511e-08 4.85194e-05 144.057 5.57646e+06
1.01291 0.133767 0.000766138 2.0326e-08 364396 0.133618 2.03033e-08 4.29272e-05 172.541 6.58107e+06
1.07041 0.140013 0.00090416 1.80274e-08 429162 0.139838 1.80049e-08 3.79435e-05 203.9 7.76667e+06
1.13118 0.147982 0.00106705 1.61449e-08 506358 0.147805 1.61256e-08 3.3507e-05 243.982 9.16586e+06
1.19539 0.155037 0.00125928 1.43326e-08 598590 0.154837 1.43141e-08 2.9562e-05 290.215 1.08171e+07
1.26325 0.16323 0.00148614 1.27865e-08 704844 0.163019 1.27699e-08 2.60578e-05 345.865 1.27658e+07
1.33496 0.171219 0.00175387 1.13649e-08 834620 0.170993 1.13499e-08 2.29484e-05 413.332 1.50656e+07
1.41075 0.179913 0.00206984 1.0119e-08 981444 0.179693 1.01066e-08 2.01923e-05 491.833 1.77798e+07
1.49083 0.189248 0.00244272 9.01917e-09 1.15998e+06 0.189 9.00734e-09 1.77518e-05 589.352 2.09828e+07
1.57546 0.199758 0.00288279 8.06683e-09 1.36931e+06 0.199491 8.05601e-09 1.55929e-05 708.4 2.4763e+07
1.66489 0.20997 0.00340213 7.18483e-09 1.61652e+06 0.209663 7.17434e-09 1.3685e-05 848.694 2.92241e+07
1.75941 0.220829 0.00401503 6.4029e-09 1.90601e+06 0.220516 6.39383e-09 1.20007e-05 1016.94 3.44889e+07
1.85928 0.232843 0.00473835 5.72067e-09 2.24913e+06 0.232532 5.71301e-09 1.05151e-05 1223.62 4.07021e+07
1.96483 0.244659 0.00559198 5.09337e-09 2.65744e+06 0.2443 5.0859e-09 9.20606e-06 1470.26 4.80347e+07
2.07637 0.258133 0.00659939 4.55355e-09 3.13125e+06 0.257767 4.54709e-09 8.05366e-06 1770.41 5.66883e+07
2.19424 0.272144 0.00778828 4.06788e-09 3.69915e+06 0.271765 4.0622e-09 7.04008e-06 2137.43 6.69008e+07
2.3188 0.286919 0.00919136 3.63404e-09 4.36472e+06 0.286498 3.62871e-09 6.1494e-06 2579.37 7.89532e+07
2.45043 0.303071 0.0108472 3.25264e-09 5.14913e+06 0.302625 3.24786e-09 5.36741e-06 3120.37 9.31768e+07
2.58954 0.320527 0.0128014 2.91486e-09 6.07894e+06 0.320043 2.91046e-09 4.68145e-06 3784.99 1.09963e+08
2.73654 0.338521 0.0151076 2.60856e-09 7.17304e+06 0.338016 2.60467e-09 4.08023e-06 4585.84 1.29773e+08
2.89188 0.358078 0.0178292 2.33806e-09 8.46557e+06 0.357541 2.33455e-09 3.55373e-06 5569.63 1.53152e+08
3.05605 0.379235 0.0210412 2.09821e-09 9.98773e+06 0.378689 2.09518e-09 3.09304e-06 6775.32 1.80743e+08
3.22953 0.401728 0.0248319 1.88336e-09 1.1797e+07 0.401119 1.8805e-09 2.69025e-06 8258.7 2.13304e+08
3.41286 0.426386 0.0293054 1.69382e-09 1.39144e+07 0.425709 1.69113e-09 2.33837e-06 10079 2.51731e+08
3.6066 0.452355 0.0345848 1.52266e-09 1.64163e+07 0.451657 1.52031e-09 2.0312e-06 12306.2 2.97081e+08
3.81134 0.480804 0.0408154 1.37137e-09 1.93821e+07 0.480044 1.3692e-09 1.76327e-06 15074.3 3.50601e+08
4.0277 0.511448 0.0481684 1.23609e-09 2.28754e+07 0.510627 1.23411e-09 1.52972e-06 18484.4 4.13763e+08
4.25634 0.544461 0.056846 1.11501e-09 2.69929e+07 0.543568 1.11318e-09 1.32631e-06 22692.5 4.88304e+08
4.49796 0.580723 0.067087 1.00772e-09 3.18542e+07 0.579758 1.00605e-09 1.14926e-06 27931.3 5.76273e+08
4.7533 0.619796 0.0791729 9.11344e-10 3.75892e+07 0.618755 9.09814e-10 9.95263e-07 34419.7 6.8009e+08
5.02313 0.66206 0.0934361 8.24883e-10 4.43706e+07 0.660945 8.23495e-10 8.61414e-07 42489 8.0261e+08
5.30828 0.708068 0.110269 7.47536e-10 5.23593e+07 0.70684 7.46239e-10 7.45152e-07 52526.8 9.47202e+08
5.60962 0.758615 0.130134 6.78642e-10 6.1787e+07 0.757304 6.77469e-10 6.44232e-07 65087.2 1.11784e+09
5.92807 0.813802 0.153578 6.16878e-10 7.29346e+07 0.812343 6.15773e-10 5.56685e-07 80820.9 1.31923e+09
6.26459 0.87396 0.181246 5.61351e-10 8.60651e+07 0.872374 5.60332e-10 4.80786e-07 100487 1.55689e+09
6.62021 0.940806 0.213898 5.12041e-10 1.01558e+08 0.93908 5.11101e-10 4.15026e-07 125298 1.83737e+09
6.99602 1.01415 0.252432 4.677e-10 1.1986e+08 1.01226 4.6683e-10 3.58083e-07 156552 2.16837e+09
7.39317 1.09582 0.297908 4.28221e-10 1.41457e+08 1.09375 4.2741e-10 3.08803e-07 196160 2.55901e+09
7.81286 1.18615 0.351577 3.92762e-10 1.66936e+08 1.18385 3.92e-10 2.66181e-07 246322 3.02002e+09
8.25637 1.28709 0.414914 3.61128e-10 1.97025e+08 1.28456 3.60417e-10 2.29336e-07 310249 3.56409e+09
8.72507 1.40001 0.489662 3.32847e-10 2.32497e+08 1.39719 3.32177e-10 1.97503e-07 391821 4.20617e+09
9.22037 1.52764 0.577876 3.07749e-10 2.74404e+08 1.52447 3.07111e-10 1.70014e-07 496709 4.96392e+09
9.74378 1.67406 0.681982 2.85764e-10 3.2382e+08 1.67048 2.85153e-10 1.46289e-07 632556 5.85818e+09
10.2969 1.84512 0.804843 2.66885e-10 3.82165e+08 1.841 2.66289e-10 1.25822e-07 810620 6.91355e+09
10.8814 2.05289 0.949838 2.51609e-10 4.51027e+08 2.04799 2.51008e-10 1.08175e-07 1.04906e+06 8.15905e+09
11.4992 2.31834 1.12095 2.40768e-10 5.32251e+08 2.31223 2.40134e-10 9.29669e-08 1.37844e+06 9.62892e+09
12.1519 2.68406 1.3229 2.36198e-10 6.28157e+08 2.67593 2.35483e-10 7.98658e-08 1.85773e+06 1.13636e+10
12.8418 3.07804 1.56122 2.2952e-10 3.82727e+08 3.18541 2.37526e-10 6.85852e-08 1.28079e+06 1.34108e+10
13.5708 0 1.84248 0 0 0 0 5.88765e-08 0 1.58268e+10
14.3411 0 2.17441 0 0 0 0 5.05241e-08 0 1.8678e+10
15.1552 0 2.56613 0 0 0 0 4.33417e-08 0 2.20429e+10
16.0156 0 3.02843 0 0 0 0 3.71677e-08 0 2.6014e+10
16.9247 0 3.574 0 0 0 0 3.18628e-08 0 3.07005e+10
17.8855 0 4.21787 0 0 0 0 2.73063e-08 0 3.62312e+10
18.9008 0 4.97773 0 0 0 0 2.33941e-08 0 4.27584e+10
19.9738 0 5.87448 0 0 0 0 2.00364e-08 0 5.04614e+10
21.1076 0 6.93279 0 0 0 0 1.71555e-08 0 5.95522e+10
22.3058 0 8.18175 0 0 0 0 1.46847e-08 0 7.02807e+10
23.5721 0 9.65571 0 0 0 0 1.25662e-08 0 8.29419e+10
24.9102 0 11.3952 0 0 0 0 1.07504e-08 0 9.78842e+10
26.3243 0 13.4481 0 0 0 0 9.19452e-09 0 1.15518e+11
27.8187 0 15.8708 0 0 0 0 7.86182e-09 0 1.36329e+11
29.3979 0 18.73 0 0 0 0 6.72061e-09 0 1.60889e+11
31.0667 0 22.1042 0 0 0 0 5.74366e-09 0 1.89874e+11
32.8303 0 26.0864 0 0 0 0 4.90756e-09 0 2.2408e+11
34.694 0 30.7859 0 0 0 0 4.19221e-09 0 2.64449e+11
36.6634 0 36.3321 0 0 0 0 3.58032e-09 0 3.1209e+11
38.7447 0 42.8774 0 0 0 0 3.05709e-09 0 3.68314e+11
40.9442 0 50.6018 0 0 0 0 2.60976e-09 0 4.34667e+11
43.2685 0 59.7179 0 0 0 0 2.22743e-09 0 5.12973e+11
45.7247 0 70.4762 0 0 0 0 1.90073e-09 0 6.05386e+11
48.3204 0 83.1727 0 0 0 0 1.62163e-09 0 7.14448e+11
51.0634 0 98.1565 0 0 0 0 1.38326e-09 0 8.43158e+11
53.9621 0 115.84 0 0 0 0 1.1797e-09 0 9.95055e+11
57.0254 0 136.709 0 0 0 0 1.00592e-09 0 1.17432e+12
60.2626 0 161.337 0 0 0 0 8.57591e-10 0 1.38587e+12
63.6835 0 190.402 0 0 0 0 7.3101e-10 0 1.63554e+12
67.2987 0 224.704 0 0 0 0 6.23009e-10 0 1.93019e+12
71.1191 0 265.185 0 0 0 0 5.30879e-10 0 2.27792e+12
75.1563 0 312.958 0 0 0 0 4.52303e-10 0 2.68829e+12
79.4227 0 369.339 0 0 0 0 3.85299e-10 0 3.17259e+12
83.9313 0 435.876 0 0 0 0 3.28173e-10 0 3.74415e+12
88.6959 0 514.4 0 0 0 0 2.79476e-10 0 4.41866e+12
93.7309 0 607.071 0 0 0 0 2.37972e-10 0 5.2147e+12
99.0518 0 716.436 0 0 0 0 2.02605e-10 0 6.15414e+12
104.675 0 845.504 0 0 0 0 1.72471e-10 0 7.26283e+12
110.617 0 997.824 0 0 0 0 1.468e-10 0 8.57124e+12
116.896 0 1177.58 0 0 0 0 1.24935e-10 0 1.01154e+13
123.532 0 1389.73 0 0 0 0 1.06313e-10 0 1.19377e+13
130.545 0 1640.09 0 0 0 0 9.04567e-11 0 1.40883e+13
137.955 0 1935.56 0 0 0 0 7.69563e-11 0 1.66263e+13
145.787 0 2284.26 0 0 0 0 6.54636e-11 0 1.96216e+13
154.063 0 2695.77 0 0 0 0 5.56812e-11 0 2.31565e+13
162.808 0 3181.42 0 0 0 0 4.73556e-11 0 2.73282e+13
172.051 0 3754.56 0 0 0 0 4.02708e-11 0 3.22515e+13
181.818 0 4430.96 0 0 0 0 3.42426e-11 0 3.80616e+13
192.139 0 5229.21 0 0 0 0 2.91139e-11 0 4.49186e+13
203.046 0 6171.26 0 0 0 0 2.4751e-11 0 5.30108e+13
214.572 0 7283.03 0 0 0 0 2.10401e-11 0 6.25608e+13
226.753 0 8595.09 0 0 0 0 1.78839e-11 0 7.38313e+13
239.625 0 10143.5 0 0 0 0 1.51999e-11 0 8.71322e+13
253.228 0 11970.9 0 0 0 0 1.29176e-11 0 1.02829e+14
267.603 0 14127.5 0 0 0 0 1.09771e-11 0 1.21354e+14
282.795 0 16672.6 0 0 0 0 9.3274e-12 0 1.43217e+14
298.848 0 19676.2 0 0 0 0 7.925e-12 0 1.69017e+14
315.813 0 23220.9 0 0 0 0 6.73295e-12 0 1.99466e+14
333.741 0 27404.3 0 0 0 0 5.71979e-12 0 2.35401e+14
352.686 0 32341.2 0 0 0 0 4.85874e-12 0 2.77809e+14
372.707 0 38167.6 0 0 0 0 4.12703e-12 0 3.27857e+14
393.865 0 45043.5 0 0 0 0 3.50528e-12 0 3.86921e+14
416.224 0 53158.3 0 0 0 0 2.97701e-12 0 4.56626e+14
439.852 0 62734.9 0 0 0 0 2.52819e-12 0 5.38888e+14
464.821 0 74036.7 0 0 0 0 2.1469e-12 0 6.35971e+14
491.207 0 87374.6 0 0 0 0 1.82301e-12 0 7.50542e+14
519.092 0 103115 0 0 0 0 1.54789e-12 0 8.85755e+14
548.56 0 121692 0 0 0 0 1.31422e-12 0 1.04533e+15
579.7 0 143615 0 0 0 0 1.11576e-12 0 1.23364e+15
612.608 0 169488 0 0 0 0 9.47223e-13 0 1.45589e+15
647.384 0 200021 0 0 0 0 8.041e-13 0 1.71817e+15
684.134 0 236056 0 0 0 0 6.82568e-13 0 2.0277e+15
722.971 0 278582 0 0 0 0 5.79376e-13 0 2.393e+15
764.012 0 328769 0 0 0 0 4.91762e-13 0 2.8241e+15
