0.159811
200
1.0655e+09
8589934592
0.0129181 0 1.58924e-09 0 0 0 0 0.00677225 0 13.6515
0.0136515 0 1.87554e-09 0 0 0 0 0.00688819 0 16.1108
0.0144264 0 2.21343e-09 0 0 0 0 0.00699249 0 19.0132
0.0152454 0 2.61218e-09 0 0 0 0 0.00708412 0 22.4385
0.0161108 0 3.08278e-09 0 0 0 0 0.00716212 0 26.4808
0.0170254 0 3.63815e-09 0 0 0 0 0.00722559 0 31.2514
0.0179919 0 4.29357e-09 0 0 0 0 0.00727371 0 36.8815
0.0190132 0 5.06707e-09 0 0 0 0 0.00730578 0 43.5258
0.0200925 0 5.97991e-09 0 0 0 0 0.00732122 0 51.367
0.0212331 0 7.05721e-09 0 0 0 0 0.00731958 0 60.621
0.0224385 0 8.32858e-09 0 0 0 0 0.00730056 0 71.542
0.0237123 0 9.829e-09 0 0 0 0 0.00726401 0 84.4305
0.0250583 0 1.15997e-08 0 0 0 0 0.00720995 0 99.6408
0.0264808 0 1.36894e-08 0 0 0 0 0.00713857 0 117.591
0.0279841 0 1.61556e-08 0 0 0 0 0.00705021 0 138.776
0.0295727 0 1.90661e-08 0 0 0 0 0.00694538 0 163.777
0.0312514 0 2.25009e-08 0 0 0 0 0.00682475 0 193.281
0.0330255 0 2.65545e-08 0 0 0 0 0.00668915 0 228.102
0.0349003 0 3.13384e-08 0 0 0 0 0.00653951 0 269.195
0.0368815 0 3.69841e-08 0 0 0 0 0.00637693 0 317.691
0.0389751 0 4.36469e-08 0 0 0 0 0.00620256 0 374.924
0.0411876 0 5.151e-08 0 0 0 0 0.00601767 0 442.467
0.0435258 0 6.07896e-08 0 0 0 0 0.00582358 0 522.179
0.0459966 0 7.1741e-08 0 0 0 0 0.00562166 0 616.251
0.0486077 0 8.46654e-08 0 0 0 0 0.0054133 0 727.27
0.051367 0 9.99181e-08 0 0 0 0 0.00519989 0 858.29
0.054283 0 1.17919e-07 0 0 0 0 0.0049828 0 1012.91
0.0573645 0 1.39162e-07 0 0 0 0 0.00476339 0 1195.39
0.060621 0 1.64232e-07 0 0 0 0 0.00454293 0 1410.75
0.0640622 0 1.93819e-07 0 0 0 0 0.00432265 0 1664.89
0.0676989 0 2.28736e-07 0 0 0 0 0.00410371 0 1964.83
0.071542 0 2.69944e-07 0 0 0 0 0.00388717 0 2318.8
0.0756032 0 3.18575e-07 0 0 0 0 0.00367401 0 2736.54
0.079895 0 3.75967e-07 0 0 0 0 0.0034651 0 3229.53
0.0844305 0 4.43698e-07 0 0 0 0 0.00326121 0 3811.34
0.0892234 0 5.23632e-07 0 0 0 0 0.00306301 0 4497.96
0.0942883 0 6.17966e-07 0 0 0 0 0.00287109 0 5308.28
0.0996408 0 7.29294e-07 0 0 0 0 0.00268591 0 6264.59
0.105297 0 8.60678e-07 0 0 0 0 0.00250785 0 7393.17
0.111275 0 1.01573e-06 0 0 0 0 0.00233721 0 8725.07
0.117591 0 1.19872e-06 0 0 0 0 0.00217419 0 10296.9
0.124267 0 1.41467e-06 0 0 0 0 0.00201893 0 12151.9
0.131321 0 1.66953e-06 0 0 0 0 0.00187147 0 14341.1
0.138776 0 1.9703e-06 0 0 0 0 0.00173182 0 16924.7
0.146654 0 2.32525e-06 0 0 0 0 0.00159991 0 19973.8
0.154979 0 2.74415e-06 0 0 0 0 0.00147563 0 23572.1
0.163777 0 3.23852e-06 0 0 0 0 0.00135884 0 27818.7
0.173074 0 3.82195e-06 0 0 0 0 0.00124933 0 32830.3
0.182899 0 4.51048e-06 0 0 0 0 0.00114689 0 38744.7
0.193281 0 5.32305e-06 0 0 0 0 0.00105127 0 45724.7
0.204254 0 6.28202e-06 0 0 0 0 0.000962209 0 53962.1
0.215848 0 7.41374e-06 0 0 0 0 0.000879423 0 63683.5
0.228102 0 8.74934e-06 0 0 0 0 0.000802624 0 75156.3
0.24105 0 1.03256e-05 0 0 0 0 0.000731515 0 88695.9
0.254734 0 1.21857e-05 0 0 0 0 0.000665798 0 104675
0.269195 0 1.4381e-05 0 0 0 0 0.000605173 0 123532
0.284476 0 1.69718e-05 0 0 0 0 0.000549345 0 145787
0.300625 0 2.00293e-05 0 0 0 0 0.000498021 0 172051
0.317691 0 2.36377e-05 0 0 0 0 0.000450916 0 203046
0.335725 0 2.78961e-05 0 0 0 0 0.000407755 0 239625
0.354784 0 3.29216e-05 0 0 0 0 0.000368269 0 282795
0.374924 0 3.88525e-05 0 0 0 0 0.000332202 0 333741
0.396207 0.597402 4.58519e-05 1.51677e-06 6 0.580793 1.4746e-06 0.000299307 0.0304056 393865
0.418699 0 5.41123e-05 0 0 0 0 0.00026935 0 464821
0.442467 0 6.38607e-05 0 0 0 0 0.000242108 0 548560
0.467585 0 7.53654e-05 0 0 0 0 0.00021737 0 647384
0.494129 0 8.89427e-05 0 0 0 0 0.000194938 0 764012
0.522179 0 0.000104966 0 0 0 0 0.000174625 0 901651
0.551822 0 0.000123876 0 0 0 0 0.000156255 0 1.06409e+06
0.583147 5.86175 0.000146192 4.6678e-06 12 6.16952 4.91289e-06 0.000139664 0.40106 1.25578e+06
0.616251 0 0.000172529 0 0 0 0 0.0001247 0 1.48202e+06
0.651234 0 0.000203611 0 0 0 0 0.00011122 0 1.74901e+06
0.688203 24.3732 0.000240292 1.18082e-05 8 23.7669 1.15144e-05 9.90935e-05 0.953298 2.06409e+06
0.72727 0 0.000283581 0 0 0 0 8.81969e-05 0 2.43595e+06
0.768555 0 0.000334669 0 0 0 0 7.84179e-05 0 2.87479e+06
0.812184 0.169002 0.000394961 4.98136e-08 6 0.172615 5.08786e-08 6.96525e-05 0.00429104 3.39269e+06
0.85829 0 0.000466114 0 0 0 0 6.1805e-05 0 4.00389e+06
0.907013 0.247345 0.000550086 5.2346e-08 24 0.252091 5.33504e-08 5.47875e-05 0.0229305 4.7252e+06
0.958501 0.941092 0.000649185 1.68762e-07 24 0.885968 1.58877e-07 4.85194e-05 0.0834774 5.57646e+06
1.01291 0 0.000766138 0 0 0 0 4.29272e-05 0 6.58107e+06
1.07041 0 0.00090416 0 0 0 0 3.79435e-05 0 7.76667e+06
1.13118 1.04919 0.00106705 1.14467e-07 12 1.0363 1.13061e-07 3.3507e-05 0.0409945 9.16586e+06
1.19539 0.987947 0.00125928 9.13319e-08 30 0.967581 8.94491e-08 2.9562e-05 0.092685 1.08171e+07
1.26325 6.31487 0.00148614 4.94669e-07 24 6.21984 4.87225e-07 2.60578e-05 0.455604 1.27658e+07
1.33496 18.7479 0.00175387 1.24441e-06 24 18.7891 1.24715e-06 2.29484e-05 1.30144 1.50656e+07
1.41075 5.77323 0.00206984 3.24708e-07 32 5.93369 3.33733e-07 2.01923e-05 0.514585 1.77798e+07
1.49083 0.480478 0.00244272 2.28986e-08 48 0.470234 2.24104e-08 1.77518e-05 0.0619169 2.09828e+07
1.57546 0.0864473 0.00288279 3.49099e-09 6 0.0823173 3.32421e-09 1.55929e-05 0.0013433 2.4763e+07
1.66489 0.502785 0.00340213 1.72045e-08 84 0.486383 1.66432e-08 1.3685e-05 0.105603 2.92241e+07
1.75941 2.50254 0.00401503 7.25608e-08 48 2.52173 7.31173e-08 1.20007e-05 0.290227 3.44889e+07
1.85928 0.35061 0.00473835 8.61406e-09 72 0.351913 8.64605e-09 1.05151e-05 0.058983 4.07021e+07
1.96483 0.926233 0.00559198 1.92826e-08 54 0.908153 1.89062e-08 9.20606e-06 0.113106 4.80347e+07
2.07637 8.99463 0.00659939 1.58668e-07 104 8.97024 1.58238e-07 8.05366e-06 2.04894 5.66883e+07
2.19424 0.40136 0.00778828 5.99933e-09 120 0.405669 6.06374e-09 7.04008e-06 0.10226 6.69008e+07
2.3188 1.89762 0.00919136 2.40347e-08 156 1.81059 2.29324e-08 6.1494e-06 0.60972 7.89532e+07
2.45043 0.863908 0.0108472 9.27171e-09 126 0.85581 9.18479e-09 5.36741e-06 0.217653 9.31768e+07
2.58954 0.785975 0.0128014 7.14764e-09 192 0.794903 7.22883e-09 4.68145e-06 0.293146 1.09963e+08
2.73654 3.80959 0.0151076 2.93558e-08 152 3.95232 3.04557e-08 4.08023e-06 1.09358 1.29773e+08
2.89188 3.72157 0.0178292 2.42998e-08 378 3.80191 2.48244e-08 3.55373e-06 2.5847 1.53152e+08
3.05605 1.46612 0.0210412 8.11167e-09 264 1.43993 7.96674e-09 3.09304e-06 0.692355 1.80743e+08
3.22953 0.413128 0.0248319 1.9368e-09 366 0.410706 1.92545e-09 2.69025e-06 0.263496 2.13304e+08
3.41286 0.910563 0.0293054 3.6172e-09 428 0.8774 3.48546e-09 2.33837e-06 0.662068 2.51731e+08
3.6066 3.32596 0.0345848 1.11954e-08 486 3.21772 1.08311e-08 2.0312e-06 2.6787 2.97081e+08
3.81134 1.00479 0.0408154 2.86591e-09 600 1.00251 2.85941e-09 1.76327e-06 0.975205 3.50601e+08
4.0277 0.746996 0.0481684 1.80537e-09 738 0.734188 1.77442e-09 1.52972e-06 0.870984 4.13763e+08
4.25634 1.42697 0.056846 2.92231e-09 824 1.47155 3.01359e-09 1.32631e-06 1.81556 4.88304e+08
4.49796 2.96419 0.067087 5.14373e-09 954 2.98153 5.17382e-09 1.14926e-06 4.26982 5.76273e+08
4.7533 0.769145 0.0791729 1.13095e-09 1094 0.760045 1.11757e-09 9.95263e-07 1.24314 6.8009e+08
5.02313 0.607694 0.0934361 7.57147e-10 1332 0.608711 7.58415e-10 8.61414e-07 1.17077 8.0261e+08
5.30828 2.38726 0.110269 2.52032e-09 1614 2.41141 2.54583e-09 7.45152e-07 5.45902 9.47202e+08
5.60962 1.37244 0.130134 1.22776e-09 1850 1.33967 1.19844e-09 6.44232e-07 3.52568 1.11784e+09
5.92807 1.7744 0.153578 1.34503e-09 2238 1.71664 1.30125e-09 5.56685e-07 5.40733 1.31923e+09
6.26459 1.05477 0.181246 6.77485e-10 2546 1.06505 6.8409e-10 4.80786e-07 3.58762 1.55689e+09
6.62021 0.740985 0.213898 4.03287e-10 3264 0.740667 4.03114e-10 4.15026e-07 3.17168 1.83737e+09
6.99602 1.87122 0.252432 8.62961e-10 3506 1.91521 8.83247e-10 3.58083e-07 8.44929 2.16837e+09
7.39317 1.17958 0.297908 4.60952e-10 4506 1.18713 4.63902e-10 3.08803e-07 6.72613 2.55901e+09
7.81286 1.71311 0.351577 5.67252e-10 5018 1.74806 5.78823e-10 2.66181e-07 10.6937 3.02002e+09
8.25637 1.66615 0.414914 4.67483e-10 5852 1.63002 4.57346e-10 2.29336e-07 11.9288 3.56409e+09
8.72507 1.43239 0.489662 3.40546e-10 7362 1.42587 3.38994e-10 1.97503e-07 12.694 4.20617e+09
9.22037 1.7493 0.577876 3.52404e-10 8306 1.73557 3.49637e-10 1.70014e-07 17.2166 4.96392e+09
9.74378 1.28491 0.681982 2.19337e-10 9698 1.28517 2.19381e-10 1.46289e-07 14.5406 5.85818e+09
10.2969 1.89372 0.804843 2.73915e-10 11816 1.90563 2.75637e-10 1.25822e-07 25.7234 6.91355e+09
10.8814 1.85005 0.949838 2.26748e-10 13682 1.84787 2.26481e-10 1.08175e-07 28.679 8.15905e+09
11.4992 1.99002 1.12095 2.06671e-10 16152 1.97531 2.05143e-10 9.29669e-08 35.9068 9.62892e+09
12.1519 2.05186 1.3229 1.80565e-10 19472 2.03272 1.7888e-10 7.98658e-08 44.0233 1.13636e+10
12.8418 1.88136 1.56122 1.40287e-10 22670 1.8799 1.40178e-10 6.85852e-08 46.3703 1.34108e+10
13.5708 2.41654 1.84248 1.52687e-10 26224 2.42161 1.53008e-10 5.88765e-08 68.0078 1.58268e+10
14.3411 2.55674 2.17441 1.36885e-10 31640 2.56435 1.37293e-10 5.05241e-08 85.7224 1.8678e+10
15.1552 2.83769 2.56613 1.28735e-10 37484 2.83778 1.28739e-10 4.33417e-08 111.336 2.20429e+10
16.0156 3.0838 3.02843 1.18544e-10 43856 3.08475 1.1858e-10 3.71677e-08 139.876 2.6014e+10
16.9247 3.83595 3.574 1.24948e-10 51362 3.8286 1.24708e-10 3.18628e-08 201.412 3.07005e+10
17.8855 4.14402 4.21787 1.14377e-10 61636 4.12702 1.13908e-10 2.73063e-08 258.172 3.62312e+10
18.9008 4.85378 4.97773 1.13516e-10 72218 4.83802 1.13148e-10 2.33941e-08 350.427 4.27584e+10
19.9738 5.72413 5.87448 1.13436e-10 84586 5.70514 1.13059e-10 2.00364e-08 478.883 5.04614e+10
21.1076 6.42112 6.93279 1.07823e-10 100708 6.40484 1.0755e-10 1.71555e-08 632.955 5.95522e+10
22.3058 7.56097 8.18175 1.07583e-10 118712 7.54247 1.07319e-10 1.46847e-08 869.706 7.02807e+10
23.5721 8.63472 9.65571 1.04106e-10 140410 8.60965 1.03803e-10 1.25662e-08 1163.24 8.29419e+10
24.9102 9.90227 11.3952 1.01163e-10 164374 9.8697 1.0083e-10 1.07504e-08 1546.79 9.78842e+10
26.3243 11.2594 13.4481 9.74682e-11 194680 11.2267 9.71857e-11 9.19452e-09 2063.74 1.15518e+11
27.8187 12.87 15.8708 9.44036e-11 230196 12.8285 9.40992e-11 7.86182e-09 2764.16 1.36329e+11
29.3979 14.575 18.73 9.05904e-11 271156 14.5325 9.0326e-11 6.72061e-09 3655.04 1.60889e+11
31.0667 16.5877 22.1042 8.73616e-11 321076 16.5411 8.71161e-11 5.74366e-09 4883.6 1.89874e+11
32.8303 18.7527 26.0864 8.36873e-11 377436 18.6992 8.34487e-11 4.90756e-09 6436.32 2.2408e+11
34.694 21.4316 30.7859 8.10424e-11 447594 21.3701 8.081e-11 4.19221e-09 8652.75 2.64449e+11
36.6634 24.6308 36.3321 7.89223e-11 525078 24.5594 7.86933e-11 3.58032e-09 11574.5 3.1209e+11
38.7447 28.1355 42.8774 7.63901e-11 621924 28.0514 7.61617e-11 3.05709e-09 15540.6 3.68314e+11
40.9442 32.3354 50.6018 7.43912e-11 732630 32.2395 7.41706e-11 2.60976e-09 20883.6 4.34667e+11
43.2685 37.407 59.7179 7.2922e-11 865596 37.3008 7.27149e-11 2.22743e-09 28338 5.12973e+11
45.7247 43.235 70.4762 7.14173e-11 1.02168e+06 43.1025 7.11984e-11 1.90073e-09 38388 6.05386e+11
48.3204 50.0096 83.1727 6.99975e-11 1.20544e+06 49.8598 6.97878e-11 1.62163e-09 52032.5 7.14448e+11
51.0634 57.7988 98.1565 6.85503e-11 1.42103e+06 57.6241 6.83432e-11 1.38326e-09 70422.3 8.43158e+11
53.9621 67.1491 115.84 6.74828e-11 1.67997e+06 66.9418 6.72744e-11 1.1797e-09 96099.5 9.95055e+11
57.0254 78.0354 136.709 6.64517e-11 1.98018e+06 77.7923 6.62447e-11 1.00592e-09 130812 1.17432e+12
60.2626 90.8262 161.337 6.55371e-11 2.33957e+06 90.5394 6.53302e-11 8.57591e-10 178790 1.38587e+12
63.6835 105.609 190.402 6.45714e-11 2.75676e+06 105.279 6.43697e-11 7.3101e-10 243510 1.63554e+12
67.2987 123.567 224.704 6.40179e-11 3.25638e+06 123.187 6.38211e-11 6.23009e-10 334612 1.93019e+12
71.1191 144.147 265.185 6.32803e-11 3.84387e+06 143.691 6.30801e-11 5.30879e-10 458186 2.27792e+12
75.1563 168.943 312.958 6.28438e-11 4.53277e+06 168.409 6.26454e-11 4.52303e-10 629791 2.68829e+12
79.4227 197.879 369.339 6.23715e-11 5.35083e+06 197.257 6.21754e-11 3.85299e-10 866181 3.17259e+12
83.9313 232.441 435.876 6.20812e-11 6.32174e+06 231.696 6.18822e-11 3.28173e-10 1.1959e+06 3.74415e+12
88.6959 273.011 514.4 6.17859e-11 7.44986e+06 272.119 6.1584e-11 2.79476e-10 1.647e+06 4.41866e+12
93.7309 320.962 607.071 6.15494e-11 8.79764e+06 319.919 6.13495e-11 2.37972e-10 2.27543e+06 5.2147e+12
99.0518 377.445 716.436 6.13318e-11 1.03827e+07 376.207 6.11308e-11 2.02605e-10 3.14301e+06 6.15414e+12
104.675 461.149 845.504 6.34945e-11 1.22515e+07 460.516 6.34072e-11 1.72471e-10 4.51035e+06 7.26283e+12
110.617 523.791 997.824 6.11103e-11 1.44573e+07 522.104 6.09134e-11 1.468e-10 6.01833e+06 8.57124e+12
116.896 616.676 1177.58 6.09642e-11 1.70664e+07 614.65 6.07639e-11 1.24935e-10 8.32786e+06 1.01154e+13
123.532 726.597 1389.73 6.08658e-11 2.0139e+07 724.195 6.06646e-11 1.06313e-10 1.15299e+07 1.19377e+13
130.545 864.95 1640.09 6.1395e-11 2.37643e+07 862.478 6.12195e-11 9.04567e-11 1.61294e+07 1.40883e+13
137.955 1010.59 1935.56 6.07823e-11 2.80503e+07 1007.26 6.05822e-11 7.69563e-11 2.21549e+07 1.66263e+13
145.787 1192.45 2284.26 6.07721e-11 3.30981e+07 1188.49 6.05706e-11 6.54636e-11 3.07261e+07 1.96216e+13
154.063 1409.76 2695.77 6.08795e-11 3.90634e+07 1405.06 6.06768e-11 5.56812e-11 4.27104e+07 2.31565e+13
162.808 1660.84 3181.42 6.07739e-11 4.61057e+07 1655.32 6.05719e-11 4.73556e-11 5.91698e+07 2.73282e+13
172.051 1960.69 3754.56 6.07939e-11 5.44046e+07 1954.13 6.05904e-11 4.02708e-11 8.21306e+07 3.22515e+13
181.818 2318.36 4430.96 6.09107e-11 6.42064e+07 2310.69 6.07091e-11 3.42426e-11 1.1421e+08 3.80616e+13
192.139 2737.77 5229.21 6.09497e-11 7.57748e+07 2728.57 6.07448e-11 2.91139e-11 1.58634e+08 4.49186e+13
203.046 3238.32 6171.26 6.10879e-11 8.94213e+07 3227.39 6.08818e-11 2.4751e-11 2.207e+08 5.30108e+13
214.572 3831.61 7283.03 6.12462e-11 1.05538e+08 3818.6 6.10383e-11 2.10401e-11 3.07215e+08 6.25608e+13
226.753 4539.62 8595.09 6.14863e-11 1.24552e+08 4524.21 6.12777e-11 1.78839e-11 4.28219e+08 7.38313e+13
239.625 5383.05 10143.5 6.17803e-11 1.46987e+08 5364.64 6.1569e-11 1.51999e-11 5.97432e+08 8.71322e+13
253.228 6399.69 11970.9 6.22361e-11 1.7347e+08 6377.6 6.20212e-11 1.29176e-11 8.35765e+08 1.02829e+14
267.603 7615.13 14127.5 6.27512e-11 2.04703e+08 7588.68 6.25333e-11 1.09771e-11 1.17019e+09 1.21354e+14
282.795 9095.16 16672.6 6.35064e-11 2.4161e+08 9063.15 6.32828e-11 9.3274e-12 1.64502e+09 1.43217e+14
298.848 10898 19676.2 6.44783e-11 2.85122e+08 10858.9 6.42471e-11 7.925e-12 2.31977e+09 1.69017e+14
315.813 13139.1 23220.9 6.58712e-11 3.36491e+08 13090.9 6.56297e-11 6.73295e-12 3.29203e+09 1.99466e+14
333.741 15950.1 27404.3 6.77571e-11 3.97115e+08 15889.4 6.74995e-11 5.71979e-12 4.70425e+09 2.35401e+14
352.686 19579.5 32341.2 7.04784e-11 4.68637e+08 19501.7 7.01983e-11 4.85874e-12 6.79781e+09 2.77809e+14
372.707 24390.5 38167.6 7.43939e-11 5.53074e+08 24288 7.40811e-11 4.12703e-12 9.96972e+09 3.27857e+14
393.865 31034 45043.5 8.02075e-11 6.52716e+08 30893.1 7.98435e-11 3.50528e-12 1.49354e+10 3.86921e+14
416.224 36625.1 53158.3 8.02082e-11 2.2184e+08 38746 8.48527e-11 2.97701e-12 5.97693e+09 4.56626e+14
439.852 0 62734.9 0 0 0 0 2.52819e-12 0 5.38888e+14
464.821 0 74036.7 0 0 0 0 2.1469e-12 0 6.35971e+14
491.207 0 87374.6 0 0 0 0 1.82301e-12 0 7.50542e+14
519.092 0 103115 0 0 0 0 1.54789e-12 0 8.85755e+14
548.56 0 121692 0 0 0 0 1.31422e-12 0 1.04533e+15
579.7 0 143615 0 0 0 0 1.11576e-12 0 1.23364e+15
612.608 0 169488 0 0 0 0 9.47223e-13 0 1.45589e+15
647.384 0 200021 0 0 0 0 8.041e-13 0 1.71817e+15
684.134 0 236056 0 0 0 0 6.82568e-13 0 2.0277e+15
722.971 0 278582 0 0 0 0 5.79376e-13 0 2.393e+15
764.012 0 328769 0 0 0 0 4.91762e-13 0 2.8241e+15
0.159811
200
1.0655e+09
8589934592
0.0129181 7.44039e-05 1.58924e-09 5.45026e-06 6 7.37228e-05 5.40036e-06 0.00677225 0.00482875 13.6515
0.0136515 0 1.87554e-09 0 0 0 0 0.00688819 0 16.1108
0.0144264 0 2.21343e-09 0 0 0 0 0.00699249 0 19.0132
0.0152454 0 2.61218e-09 0 0 0 0 0.00708412 0 22.4385
0.0161108 0 3.08278e-09 0 0 0 0 0.00716212 0 26.4808
0.0170254 0 3.63815e-09 0 0 0 0 0.00722559 0 31.2514
0.0179919 0.00016527 4.29357e-09 4.4811e-06 12 0.000165057 4.47533e-06 0.00727371 0.00739282 36.8815
0.0190132 0 5.06707e-09 0 0 0 0 0.00730578 0 43.5258
0.0200925 0 5.97991e-09 0 0 0 0 0.00732122 0 51.367
0.0212331 0.000156322 7.05721e-09 2.57867e-06 8 0.000156186 2.57643e-06 0.00731958 0.00281839 60.621
0.0224385 0 8.32858e-09 0 0 0 0 0.00730056 0 71.542
0.0237123 0 9.829e-09 0 0 0 0 0.00726401 0 84.4305
0.0250583 0.00100441 1.15997e-08 1.00803e-05 6 0.00100394 1.00756e-05 0.00720995 0.00838866 99.6408
0.0264808 0 1.36894e-08 0 0 0 0 0.00713857 0 117.591
0.0279841 0.00062524 1.61556e-08 4.50539e-06 24 0.000624598 4.50077e-06 0.00705021 0.0153371 138.776
0.0295727 0 1.90661e-08 0 0 0 0 0.00694538 0 163.777
0.0312514 0.00111789 2.25009e-08 5.78374e-06 24 0.00112356 5.8131e-06 0.00682475 0.0203391 193.281
0.0330255 0 2.65545e-08 0 0 0 0 0.00668915 0 228.102
0.0349003 0.00156919 3.13384e-08 5.82921e-06 12 0.00155663 5.78254e-06 0.00653951 0.0106966 269.195
0.0368815 0.00135539 3.69841e-08 4.26637e-06 30 0.00134095 4.22094e-06 0.00637693 0.020071 317.691
0.0389751 0.00161332 4.36469e-08 4.30305e-06 24 0.00159672 4.25878e-06 0.00620256 0.0166501 374.924
0.0411876 0.00102263 5.151e-08 2.3112e-06 24 0.00101568 2.2955e-06 0.00601767 0.00921764 442.467
0.0435258 0.00221544 6.07896e-08 4.24269e-06 8 0.00221527 4.24237e-06 0.00582358 0.00582829 522.179
0.0459966 0.00283051 7.1741e-08 4.59312e-06 72 0.00280813 4.55679e-06 0.00562166 0.0588268 616.251
0.0486077 0 8.46654e-08 0 0 0 0 0.0054133 0 727.27
0.051367 0.00422577 9.99181e-08 4.92348e-06 54 0.00421236 4.90786e-06 0.00519989 0.0511295 858.29
0.054283 0.00328746 1.17919e-07 3.24555e-06 60 0.00330119 3.2591e-06 0.0049828 0.039081 1012.91
0.0573645 0.00326627 1.39162e-07 2.73238e-06 96 0.00325789 2.72537e-06 0.00476339 0.0550677 1195.39
0.060621 0.00377409 1.64232e-07 2.67525e-06 24 0.00372296 2.639e-06 0.00454293 0.0141332 1410.75
0.0640622 0.00664994 1.93819e-07 3.99421e-06 134 0.00665356 3.99639e-06 0.00432265 0.123818 1664.89
0.0676989 0.00638083 2.28736e-07 3.24752e-06 120 0.00635157 3.23263e-06 0.00410371 0.0949634 1964.83
0.071542 0.00583418 2.69944e-07 2.51603e-06 108 0.00577104 2.4888e-06 0.00388717 0.0699047 2318.8
0.0756032 0.00848363 3.18575e-07 3.10013e-06 174 0.00843935 3.08395e-06 0.00367401 0.146821 2736.54
0.079895 0.00906605 3.75967e-07 2.80723e-06 168 0.00898055 2.78076e-06 0.0034651 0.136104 3229.53
0.0844305 0.00774838 4.43698e-07 2.03298e-06 168 0.00778711 2.04314e-06 0.00326121 0.104728 3811.34
0.0892234 0.00872441 5.23632e-07 1.93964e-06 290 0.00868776 1.93149e-06 0.00306301 0.183641 4497.96
0.0942883 0.0113219 6.17966e-07 2.13288e-06 288 0.0112934 2.1275e-06 0.00287109 0.21395 5308.28
0.0996408 0.0102951 7.29294e-07 1.64338e-06 366 0.0102083 1.62953e-06 0.00268591 0.223938 6264.59
0.105297 0.0111782 8.60678e-07 1.51196e-06 420 0.0111009 1.50151e-06 0.00250785 0.253213 7393.17
0.111275 0.0118338 1.01573e-06 1.3563e-06 398 0.0118012 1.35256e-06 0.00233721 0.230962 8725.07
0.117591 0.0140872 1.19872e-06 1.3681e-06 624 0.014116 1.37089e-06 0.00217419 0.392648 10296.9
0.124267 0.0156047 1.41467e-06 1.28413e-06 642 0.0155846 1.28248e-06 0.00201893 0.408342 12151.9
0.131321 0.0198005 1.66953e-06 1.38068e-06 800 0.0198075 1.38117e-06 0.00187147 0.590201 14341.1
0.138776 0.0179453 1.9703e-06 1.0603e-06 858 0.0180317 1.06541e-06 0.00173182 0.525309 16924.7
0.146654 0.0194074 2.32525e-06 9.71646e-07 1080 0.0195697 9.7977e-07 0.00159991 0.655899 19973.8
0.154979 0.0229799 2.74415e-06 9.74878e-07 1286 0.0231386 9.81612e-07 0.00147563 0.849596 23572.1
0.163777 0.0217357 3.23852e-06 7.81335e-07 1650 0.0217749 7.82744e-07 0.00135884 0.948753 27818.7
0.173074 0.0256025 3.82195e-06 7.79846e-07 1778 0.0256054 7.79934e-07 0.00124933 1.10985 32830.3
0.182899 0.0250235 4.51048e-06 6.45855e-07 2112 0.0250833 6.47398e-07 0.00114689 1.18934 38744.7
0.193281 0.0294106 5.32305e-06 6.4321e-07 2570 0.0294535 6.44148e-07 0.00105127 1.57243 45724.7
0.204254 0.0327567 6.28202e-06 6.07032e-07 3030 0.0327424 6.06767e-07 0.000962209 1.91155 53962.1
0.215848 0.032576 7.41374e-06 5.1153e-07 3434 0.0325697 5.1143e-07 0.000879423 1.99744 63683.5
0.228102 0.0340483 8.74934e-06 4.53033e-07 4218 0.0340571 4.5315e-07 0.000802624 2.38081 75156.3
0.24105 0.0384478 1.03256e-05 4.33479e-07 4766 0.0384848 4.33896e-07 0.000731515 2.82422 88695.9
0.254734 0.0411664 1.21857e-05 3.93279e-07 6026 0.0411537 3.93158e-07 0.000665798 3.55949 104675
0.269195 0.0431383 1.4381e-05 3.49207e-07 6480 0.0431167 3.49032e-07 0.000605173 3.7392 123532
0.284476 0.0468575 1.69718e-05 3.21411e-07 8162 0.0469657 3.22153e-07 0.000549345 4.77543 145787
0.300625 0.0472091 2.00293e-05 2.7439e-07 9578 0.0472688 2.74738e-07 0.000498021 5.27711 172051
0.317691 0.0525728 2.36377e-05 2.5892e-07 11234 0.0525329 2.58724e-07 0.000450916 6.45067 203046
0.335725 0.0550468 2.78961e-05 2.2972e-07 13344 0.0550197 2.29607e-07 0.000407755 7.51771 239625
0.354784 0.0572204 3.29216e-05 2.02339e-07 15464 0.0571858 2.02217e-07 0.000368269 8.49642 282795
0.374924 0.0614802 3.88525e-05 1.84215e-07 18458 0.0614724 1.84192e-07 0.000332202 10.2355 333741
0.396207 0.0645784 4.58519e-05 1.63961e-07 22232 0.064486 1.63726e-07 0.000299307 12.1787 393865
0.418699 0.0699552 5.41123e-05 1.50499e-07 25628 0.0698072 1.50181e-07 0.00026935 14.3197 464821
0.442467 0.0731517 6.38607e-05 1.33352e-07 30320 0.0730215 1.33115e-07 0.000242108 16.7002 548560
0.467585 0.0766657 7.53654e-05 1.18424e-07 35452 0.0765549 1.18253e-07 0.00021737 19.3143 647384
0.494129 0.0798093 8.89427e-05 1.04461e-07 41792 0.0797779 1.0442e-07 0.000194938 22.3949 764012
0.522179 0.0863268 0.000104966 9.5743e-08 49988 0.0863008 9.57142e-08 0.000174625 27.4073 901651
0.551822 0.0904438 0.000123876 8.49967e-08 59110 0.0903841 8.49406e-08 0.000156255 32.1536 1.06409e+06
0.583147 0.0957872 0.000146192 7.62769e-08 69716 0.0956687 7.61825e-08 0.000139664 38.0751 1.25578e+06
0.616251 0.101216 0.000172529 6.82959e-08 82210 0.101054 6.81866e-08 0.0001247 45.0249 1.48202e+06
0.651234 0.10732 0.000203611 6.13605e-08 96722 0.10712 6.12464e-08 0.00011122 53.3617 1.74901e+06
0.688203 0.113153 0.000240292 5.48197e-08 113098 0.113046 5.47677e-08 9.90935e-05 62.5672 2.06409e+06
0.72727 0.118118 0.000283581 4.84896e-08 135190 0.117995 4.84391e-08 8.81969e-05 74.3259 2.43595e+06
0.768555 0.12565 0.000334669 4.37077e-08 158170 0.125535 4.36676e-08 7.84179e-05 88.1591 2.87479e+06
0.812184 0.131879 0.000394961 3.88715e-08 188560 0.131746 3.88325e-08 6.96525e-05 105.231 3.39269e+06
0.85829 0.138573 0.000466114 3.46097e-08 220444 0.138411 3.45692e-08 6.1805e-05 123.445 4.00389e+06
0.907013 0.146094 0.000550086 3.09181e-08 261388 0.145943 3.0886e-08 5.47875e-05 147.508 4.7252e+06
0.958501 0.153908 0.000649185 2.75996e-08 308244 0.153742 2.75698e-08 4.85194e-05 175.34 5.57646e+06
1.01291 0.163108 0.000766138 2.47843e-08 364396 0.162924 2.47564e-08 4.29272e-05 210.387 6.58107e+06
1.07041 0.171065 0.00090416 2.20256e-08 429162 0.170846 2.19974e-08 3.79435e-05 249.121 7.76667e+06
1.13118 0.18119 0.00106705 1.97679e-08 506358 0.180971 1.9744e-08 3.3507e-05 298.733 9.16586e+06
1.19539 0.190388 0.00125928 1.76007e-08 598590 0.190138 1.75775e-08 2.9562e-05 356.389 1.08171e+07
1.26325 0.200866 0.00148614 1.57346e-08 704844 0.200601 1.57139e-08 2.60578e-05 425.61 1.27658e+07
1.33496 0.211196 0.00175387 1.40184e-08 834620 0.21091 1.39994e-08 2.29484e-05 509.839 1.50656e+07
1.41075 0.222608 0.00206984 1.25203e-08 981444 0.222328 1.25045e-08 2.01923e-05 608.548 1.77798e+07
1.49083 0.234783 0.00244272 1.11893e-08 1.15998e+06 0.234472 1.11745e-08 1.77518e-05 731.157 2.09828e+07
1.57546 0.248573 0.00288279 1.00381e-08 1.36931e+06 0.248231 1.00243e-08 1.55929e-05 881.512 2.4763e+07
1.66489 0.262096 0.00340213 8.9685e-09 1.61652e+06 0.261707 8.95519e-09 1.3685e-05 1059.39 2.92241e+07
1.75941 0.276574 0.00401503 8.01922e-09 1.90601e+06 0.276173 8.0076e-09 1.20007e-05 1273.65 3.44889e+07
1.85928 0.292642 0.00473835 7.18984e-09 2.24913e+06 0.292238 7.17993e-09 1.05151e-05 1537.87 4.07021e+07
1.96483 0.308555 0.00559198 6.42359e-09 2.65744e+06 0.308087 6.41384e-09 9.20606e-06 1854.25 4.80347e+07
2.07637 0.326792 0.00659939 5.76471e-09 3.13125e+06 0.326314 5.75629e-09 8.05366e-06 2241.31 5.66883e+07
2.19424 0.34579 0.00778828 5.1687e-09 3.69915e+06 0.345296 5.16132e-09 7.04008e-06 2715.85 6.69008e+07
2.3188 0.366053 0.00919136 4.63632e-09 4.36472e+06 0.365504 4.62938e-09 6.1494e-06 3290.77 7.89532e+07
2.45043 0.388199 0.0108472 4.16626e-09 5.14913e+06 0.387609 4.15993e-09 5.36741e-06 3996.83 9.31768e+07
2.58954 0.412408 0.0128014 3.75043e-09 6.07894e+06 0.411766 3.74459e-09 4.68145e-06 4869.99 1.09963e+08
2.73654 0.437357 0.0151076 3.37017e-09 7.17304e+06 0.436685 3.36499e-09 4.08023e-06 5924.75 1.29773e+08
2.89188 0.464954 0.0178292 3.0359e-09 8.46557e+06 0.464235 3.0312e-09 3.55373e-06 7232 1.53152e+08
3.05605 0.494786 0.0210412 2.73751e-09 9.98773e+06 0.494042 2.7334e-09 3.09304e-06 8839.7 1.80743e+08
3.22953 0.526617 0.0248319 2.46886e-09 1.1797e+07 0.525781 2.46494e-09 2.69025e-06 10826.2 2.13304e+08
3.41286 0.561653 0.0293054 2.23116e-09 1.39144e+07 0.56073 2.2275e-09 2.33837e-06 13276.4 2.51731e+08
3.6066 0.599136 0.0345848 2.01674e-09 1.64163e+07 0.598173 2.0135e-09 2.0312e-06 16299.4 2.97081e+08
3.81134 0.64016 0.0408154 1.82589e-09 1.93821e+07 0.639107 1.82289e-09 1.76327e-06 20070.5 3.50601e+08
4.0277 0.684644 0.0481684 1.65468e-09 2.28754e+07 0.683504 1.65192e-09 1.52972e-06 24743.9 4.13763e+08
4.25634 0.732932 0.056846 1.50098e-09 2.69929e+07 0.731683 1.49842e-09 1.32631e-06 30547.7 4.88304e+08
4.49796 0.786223 0.067087 1.36432e-09 3.18542e+07 0.784861 1.36196e-09 1.14926e-06 37815.3 5.76273e+08
4.7533 0.843819 0.0791729 1.24075e-09 3.75892e+07 0.842346 1.23858e-09 9.95263e-07 46860.6 6.8009e+08
5.02313 0.906687 0.0934361 1.12967e-09 4.43706e+07 0.905103 1.1277e-09 8.61414e-07 58188.4 8.0261e+08
5.30828 0.975223 0.110269 1.02958e-09 5.23593e+07 0.973476 1.02774e-09 7.45152e-07 72345.2 9.47202e+08
5.60962 1.05094 0.130134 9.40148e-10 6.1787e+07 1.04904 9.38451e-10 6.44232e-07 90167.7 1.11784e+09
5.92807 1.13349 0.153578 8.59205e-10 7.29346e+07 1.13138 8.57607e-10 5.56685e-07 112569 1.31923e+09
6.26459 1.22421 0.181246 7.86321e-10 8.60651e+07 1.22191 7.84841e-10 4.80786e-07 140759 1.55689e+09
6.62021 1.32496 0.213898 7.21118e-10 1.01558e+08 1.32243 7.19744e-10 4.15026e-07 176460 1.83737e+09
6.99602 1.43568 0.252432 6.62102e-10 1.1986e+08 1.43292 6.60829e-10 3.58083e-07 221623 2.16837e+09
7.39317 1.55912 0.297908 6.09268e-10 1.41457e+08 1.55606 6.08072e-10 3.08803e-07 279093 2.55901e+09
7.81286 1.69601 0.351577 5.61588e-10 1.66936e+08 1.69261 5.60464e-10 2.66181e-07 352201 3.02002e+09
8.25637 1.84934 0.414914 5.18881e-10 1.97025e+08 1.84558 5.17827e-10 2.29336e-07 445776 3.56409e+09
8.72507 2.02128 0.489662 4.80552e-10 2.32497e+08 2.01708 4.79553e-10 1.97503e-07 565697 4.20617e+09
9.22037 2.21612 0.577876 4.46446e-10 2.74404e+08 2.21141 4.45496e-10 1.70014e-07 720568 4.96392e+09
9.74378 2.43956 0.681982 4.16437e-10 3.2382e+08 2.43421 4.15524e-10 1.46289e-07 921809 5.85818e+09
10.2969 2.70179 0.804843 3.90797e-10 3.82165e+08 2.6956 3.89901e-10 1.25822e-07 1.18698e+06 6.91355e+09
10.8814 3.02098 0.949838 3.70262e-10 4.51027e+08 3.01361 3.69358e-10 1.08175e-07 1.54377e+06 8.15905e+09
11.4992 3.42721 1.12095 3.55929e-10 5.32251e+08 3.418 3.54972e-10 9.29669e-08 2.03775e+06 9.62892e+09
12.1519 3.98167 1.3229 3.50388e-10 6.28157e+08 3.96947 3.49315e-10 7.98658e-08 2.75586e+06 1.13636e+10
12.8418 4.57498 1.56122 3.41142e-10 3.82727e+08 4.73454 3.5304e-10 6.85852e-08 1.90368e+06 1.34108e+10
13.5708 0 1.84248 0 0 0 0 5.88765e-08 0 1.58268e+10
14.3411 0 2.17441 0 0 0 0 5.05241e-08 0 1.8678e+10
15.1552 0 2.56613 0 0 0 0 4.33417e-08 0 2.20429e+10
16.0156 0 3.02843 0 0 0 0 3.71677e-08 0 2.6014e+10
16.9247 0 3.574 0 0 0 0 3.18628e-08 0 3.07005e+10
17.8855 0 4.21787 0 0 0 0 2.73063e-08 0 3.62312e+10
18.9008 0 4.97773 0 0 0 0 2.33941e-08 0 4.27584e+10
19.9738 0 5.87448 0 0 0 0 2.00364e-08 0 5.04614e+10
21.1076 0 6.93279 0 0 0 0 1.71555e-08 0 5.95522e+10
22.3058 0 8.18175 0 0 0 0 1.46847e-08 0 7.02807e+10
23.5721 0 9.65571 0 0 0 0 1.25662e-08 0 8.29419e+10
24.9102 0 11.3952 0 0 0 0 1.07504e-08 0 9.78842e+10
26.3243 0 13.4481 0 0 0 0 9.19452e-09 0 1.15518e+11
27.8187 0 15.8708 0 0 0 0 7.86182e-09 0 1.36329e+11
29.3979 0 18.73 0 0 0 0 6.72061e-09 0 1.60889e+11
31.0667 0 22.1042 0 0 0 0 5.74366e-09 0 1.89874e+11
32.8303 0 26.0864 0 0 0 0 4.90756e-09 0 2.2408e+11
34.694 0 30.7859 0 0 0 0 4.19221e-09 0 2.64449e+11
36.6634 0 36.3321 0 0 0 0 3.58032e-09 0 3.1209e+11
38.7447 0 42.8774 0 0 0 0 3.05709e-09 0 3.68314e+11
40.9442 0 50.6018 0 0 0 0 2.60976e-09 0 4.34667e+11
43.2685 0 59.7179 0 0 0 0 2.22743e-09 0 5.12973e+11
45.7247 0 70.4762 0 0 0 0 1.90073e-09 0 6.05386e+11
48.3204 0 83.1727 0 0 0 0 1.62163e-09 0 7.14448e+11
51.0634 0 98.1565 0 0 0 0 1.38326e-09 0 8.43158e+11
53.9621 0 115.84 0 0 0 0 1.1797e-09 0 9.95055e+11
57.0254 0 136.709 0 0 0 0 1.00592e-09 0 1.17432e+12
60.2626 0 161.337 0 0 0 0 8.57591e-10 0 1.38587e+12
63.6835 0 190.402 0 0 0 0 7.3101e-10 0 1.63554e+12
67.2987 0 224.704 0 0 0 0 6.23009e-10 0 1.93019e+12
71.1191 0 265.185 0 0 0 0 5.30879e-10 0 2.27792e+12
75.1563 0 312.958 0 0 0 0 4.52303e-10 0 2.68829e+12
79.4227 0 369.339 0 0 0 0 3.85299e-10 0 3.17259e+12
83.9313 0 435.876 0 0 0 0 3.28173e-10 0 3.74415e+12
88.6959 0 514.4 0 0 0 0 2.79476e-10 0 4.41866e+12
93.7309 0 607.071 0 0 0 0 2.37972e-10 0 5.2147e+12
99.0518 0 716.436 0 0 0 0 2.02605e-10 0 6.15414e+12
104.675 0 845.504 0 0 0 0 1.72471e-10 0 7.26283e+12
110.617 0 997.824 0 0 0 0 1.468e-10 0 8.57124e+12
116.896 0 1177.58 0 0 0 0 1.24935e-10 0 1.01154e+13
123.532 0 1389.73 0 0 0 0 1.06313e-10 0 1.19377e+13
130.545 0 1640.09 0 0 0 0 9.04567e-11 0 1.40883e+13
137.955 0 1935.56 0 0 0 0 7.69563e-11 0 1.66263e+13
145.787 0 2284.26 0 0 0 0 6.54636e-11 0 1.96216e+13
154.063 0 2695.77 0 0 0 0 5.56812e-11 0 2.31565e+13
162.808 0 3181.42 0 0 0 0 4.73556e-11 0 2.73282e+13
172.051 0 3754.56 0 0 0 0 4.02708e-11 0 3.22515e+13
181.818 0 4430.96 0 0 0 0 3.42426e-11 0 3.80616e+13
192.139 0 5229.21 0 0 0 0 2.91139e-11 0 4.49186e+13
203.046 0 6171.26 0 0 0 0 2.4751e-11 0 5.30108e+13
214.572 0 7283.03 0 0 0 0 2.10401e-11 0 6.25608e+13
226.753 0 8595.09 0 0 0 0 1.78839e-11 0 7.38313e+13
239.625 0 10143.5 0 0 0 0 1.51999e-11 0 8.71322e+13
253.228 0 11970.9 0 0 0 0 1.29176e-11 0 1.02829e+14
267.603 0 14127.5 0 0 0 0 1.09771e-11 0 1.21354e+14
282.795 0 16672.6 0 0 0 0 9.3274e-12 0 1.43217e+14
298.848 0 19676.2 0 0 0 0 7.925e-12 0 1.69017e+14
315.813 0 23220.9 0 0 0 0 6.73295e-12 0 1.99466e+14
333.741 0 27404.3 0 0 0 0 5.71979e-12 0 2.35401e+14
352.686 0 32341.2 0 0 0 0 4.85874e-12 0 2.77809e+14
372.707 0 38167.6 0 0 0 0 4.12703e-12 0 3.27857e+14
393.865 0 45043.5 0 0 0 0 3.50528e-12 0 3.86921e+14
416.224 0 53158.3 0 0 0 0 2.97701e-12 0 4.56626e+14
439.852 0 62734.9 0 0 0 0 2.52819e-12 0 5.38888e+14
464.821 0 74036.7 0 0 0 0 2.1469e-12 0 6.35971e+14
491.207 0 87374.6 0 0 0 0 1.82301e-12 0 7.50542e+14
519.092 0 103115 0 0 0 0 1.54789e-12 0 8.85755e+14
548.56 0 121692 0 0 0 0 1.31422e-12 0 1.04533e+15
579.7 0 143615 0 0 0 0 1.11576e-12 0 1.23364e+15
612.608 0 169488 0 0 0 0 9.47223e-13 0 1.45589e+15
647.384 0 200021 0 0 0 0 8.041e-13 0 1.71817e+15
684.134 0 236056 0 0 0 0 6.82568e-13 0 2.0277e+15
722.971 0 278582 0 0 0 0 5.79376e-13 0 2.393e+15
764.012 0 328769 0 0 0 0 4.91762e-13 0 2.8241e+15
