0.636814
200
1.0655e+09
8589934592
0.0129181 0 1.58924e-09 0 0 0 0 0.00677225 0 13.6515
0.0136515 0 1.87554e-09 0 0 0 0 0.00688819 0 16.1108
0.0144264 0 2.21343e-09 0 0 0 0 0.00699249 0 19.0132
0.0152454 0 2.61218e-09 0 0 0 0 0.00708412 0 22.4385
0.0161108 0 3.08278e-09 0 0 0 0 0.00716212 0 26.4808
0.0170254 0 3.63815e-09 0 0 0 0 0.00722559 0 31.2514
0.0179919 0 4.29357e-09 0 0 0 0 0.00727371 0 36.8815
0.0190132 0 5.06707e-09 0 0 0 0 0.00730578 0 43.5258
0.0200925 0 5.97991e-09 0 0 0 0 0.00732122 0 51.367
0.0212331 0 7.05721e-09 0 0 0 0 0.00731958 0 60.621
0.0224385 0 8.32858e-09 0 0 0 0 0.00730056 0 71.542
0.0237123 0 9.829e-09 0 0 0 0 0.00726401 0 84.4305
0.0250583 0 1.15997e-08 0 0 0 0 0.00720995 0 99.6408
0.0264808 0 1.36894e-08 0 0 0 0 0.00713857 0 117.591
0.0279841 0 1.61556e-08 0 0 0 0 0.00705021 0 138.776
0.0295727 0 1.90661e-08 0 0 0 0 0.00694538 0 163.777
0.0312514 0 2.25009e-08 0 0 0 0 0.00682475 0 193.281
0.0330255 0 2.65545e-08 0 0 0 0 0.00668915 0 228.102
0.0349003 0 3.13384e-08 0 0 0 0 0.00653951 0 269.195
0.0368815 0 3.69841e-08 0 0 0 0 0.00637693 0 317.691
0.0389751 0 4.36469e-08 0 0 0 0 0.00620256 0 374.924
0.0411876 0 5.151e-08 0 0 0 0 0.00601767 0 442.467
0.0435258 0 6.07896e-08 0 0 0 0 0.00582358 0 522.179
0.0459966 0 7.1741e-08 0 0 0 0 0.00562166 0 616.251
0.0486077 0 8.46654e-08 0 0 0 0 0.0054133 0 727.27
0.051367 0 9.99181e-08 0 0 0 0 0.00519989 0 858.29
0.054283 0 1.17919e-07 0 0 0 0 0.0049828 0 1012.91
0.0573645 0 1.39162e-07 0 0 0 0 0.00476339 0 1195.39
0.060621 0 1.64232e-07 0 0 0 0 0.00454293 0 1410.75
0.0640622 0 1.93819e-07 0 0 0 0 0.00432265 0 1664.89
0.0676989 0 2.28736e-07 0 0 0 0 0.00410371 0 1964.83
0.071542 0 2.69944e-07 0 0 0 0 0.00388717 0 2318.8
0.0756032 0 3.18575e-07 0 0 0 0 0.00367401 0 2736.54
0.079895 0 3.75967e-07 0 0 0 0 0.0034651 0 3229.53
0.0844305 0 4.43698e-07 0 0 0 0 0.00326121 0 3811.34
0.0892234 0 5.23632e-07 0 0 0 0 0.00306301 0 4497.96
0.0942883 0 6.17966e-07 0 0 0 0 0.00287109 0 5308.28
0.0996408 0 7.29294e-07 0 0 0 0 0.00268591 0 6264.59
0.105297 0 8.60678e-07 0 0 0 0 0.00250785 0 7393.17
0.111275 0 1.01573e-06 0 0 0 0 0.00233721 0 8725.07
0.117591 0 1.19872e-06 0 0 0 0 0.00217419 0 10296.9
0.124267 0 1.41467e-06 0 0 0 0 0.00201893 0 12151.9
0.131321 0 1.66953e-06 0 0 0 0 0.00187147 0 14341.1
0.138776 0 1.9703e-06 0 0 0 0 0.00173182 0 16924.7
0.146654 0 2.32525e-06 0 0 0 0 0.00159991 0 19973.8
0.154979 0 2.74415e-06 0 0 0 0 0.00147563 0 23572.1
0.163777 0 3.23852e-06 0 0 0 0 0.00135884 0 27818.7
0.173074 0 3.82195e-06 0 0 0 0 0.00124933 0 32830.3
0.182899 0 4.51048e-06 0 0 0 0 0.00114689 0 38744.7
0.193281 0 5.32305e-06 0 0 0 0 0.00105127 0 45724.7
0.204254 0 6.28202e-06 0 0 0 0 0.000962209 0 53962.1
0.215848 0 7.41374e-06 0 0 0 0 0.000879423 0 63683.5
0.228102 0 8.74934e-06 0 0 0 0 0.000802624 0 75156.3
0.24105 0 1.03256e-05 0 0 0 0 0.000731515 0 88695.9
0.254734 0 1.21857e-05 0 0 0 0 0.000665798 0 104675
0.269195 0 1.4381e-05 0 0 0 0 0.000605173 0 123532
0.284476 0 1.69718e-05 0 0 0 0 0.000549345 0 145787
0.300625 0 2.00293e-05 0 0 0 0 0.000498021 0 172051
0.317691 0 2.36377e-05 0 0 0 0 0.000450916 0 203046
0.335725 0 2.78961e-05 0 0 0 0 0.000407755 0 239625
0.354784 0 3.29216e-05 0 0 0 0 0.000368269 0 282795
0.374924 0 3.88525e-05 0 0 0 0 0.000332202 0 333741
0.396207 2.48836 4.58519e-05 6.31781e-06 6 2.41918 6.14216e-06 0.000299307 0.126649 393865
0.418699 0 5.41123e-05 0 0 0 0 0.00026935 0 464821
0.442467 0 6.38607e-05 0 0 0 0 0.000242108 0 548560
0.467585 0 7.53654e-05 0 0 0 0 0.00021737 0 647384
0.494129 0 8.89427e-05 0 0 0 0 0.000194938 0 764012
0.522179 0 0.000104966 0 0 0 0 0.000174625 0 901651
0.551822 0 0.000123876 0 0 0 0 0.000156255 0 1.06409e+06
0.583147 6.66987 0.000146192 5.31132e-06 12 7.02008 5.5902e-06 0.000139664 0.456351 1.25578e+06
0.616251 0 0.000172529 0 0 0 0 0.0001247 0 1.48202e+06
0.651234 0 0.000203611 0 0 0 0 0.00011122 0 1.74901e+06
0.688203 21.1162 0.000240292 1.02302e-05 8 20.5908 9.97572e-06 9.90935e-05 0.825906 2.06409e+06
0.72727 0 0.000283581 0 0 0 0 8.81969e-05 0 2.43595e+06
0.768555 0 0.000334669 0 0 0 0 7.84179e-05 0 2.87479e+06
0.812184 6.43228 0.000394961 1.89592e-06 6 6.5698 1.93646e-06 6.96525e-05 0.163318 3.39269e+06
0.85829 0 0.000466114 0 0 0 0 6.1805e-05 0 4.00389e+06
0.907013 1.13724 0.000550086 2.40676e-07 24 1.15906 2.45294e-07 5.47875e-05 0.10543 4.7252e+06
0.958501 2.85259 0.000649185 5.11541e-07 24 2.6855 4.81578e-07 4.85194e-05 0.253032 5.57646e+06
1.01291 0 0.000766138 0 0 0 0 4.29272e-05 0 6.58107e+06
1.07041 0 0.00090416 0 0 0 0 3.79435e-05 0 7.76667e+06
1.13118 6.97131 0.00106705 7.60573e-07 12 6.88567 7.51231e-07 3.3507e-05 0.272387 9.16586e+06
1.19539 2.39651 0.00125928 2.21548e-07 30 2.34711 2.16981e-07 2.9562e-05 0.224831 1.08171e+07
1.26325 11.3471 0.00148614 8.88868e-07 24 11.1764 8.75492e-07 2.60578e-05 0.818673 1.27658e+07
1.33496 16.3006 0.00175387 1.08197e-06 24 16.3365 1.08435e-06 2.29484e-05 1.13155 1.50656e+07
1.41075 16.084 0.00206984 9.04626e-07 32 16.488 9.27349e-07 2.01923e-05 1.43362 1.77798e+07
1.49083 3.54264 0.00244272 1.68835e-07 48 3.46711 1.65236e-07 1.77518e-05 0.456523 2.09828e+07
1.57546 19.2127 0.00288279 7.75864e-07 6 18.2948 7.38797e-07 1.55929e-05 0.298546 2.4763e+07
1.66489 3.267 0.00340213 1.11791e-07 84 3.21816 1.1012e-07 1.3685e-05 0.686187 2.92241e+07
1.75941 8.63874 0.00401503 2.50479e-07 48 8.58085 2.48801e-07 1.20007e-05 1.00186 3.44889e+07
1.85928 4.88967 0.00473835 1.20133e-07 72 4.92555 1.21015e-07 1.05151e-05 0.822587 4.07021e+07
1.96483 8.50313 0.00559198 1.77021e-07 54 8.3039 1.72873e-07 9.20606e-06 1.03835 4.80347e+07
2.07637 13.8886 0.00659939 2.45e-07 104 13.9704 2.46442e-07 8.05366e-06 3.16378 5.66883e+07
2.19424 4.70614 0.00778828 7.0345e-08 120 4.77981 7.14462e-08 7.04008e-06 1.19905 6.69008e+07
2.3188 8.48831 0.00919136 1.07511e-07 156 8.27829 1.04851e-07 6.1494e-06 2.72737 7.89532e+07
2.45043 9.7666 0.0108472 1.04818e-07 126 9.64886 1.03554e-07 5.36741e-06 2.4606 9.31768e+07
2.58954 9.71405 0.0128014 8.83394e-08 192 9.79001 8.90302e-08 4.68145e-06 3.62306 1.09963e+08
2.73654 24.6607 0.0151076 1.9003e-07 152 24.9337 1.92133e-07 4.08023e-06 7.07912 1.29773e+08
2.89188 11.5532 0.0178292 7.5436e-08 378 11.6415 7.6013e-08 3.55373e-06 8.0239 1.53152e+08
3.05605 9.77698 0.0210412 5.40934e-08 264 9.59368 5.30792e-08 3.09304e-06 4.61703 1.80743e+08
3.22953 10.0844 0.0248319 4.72769e-08 366 10.047 4.71017e-08 2.69025e-06 6.43187 2.13304e+08
3.41286 11.5415 0.0293054 4.58483e-08 428 11.4386 4.54396e-08 2.33837e-06 8.39177 2.51731e+08
3.6066 17.0036 0.0345848 5.72356e-08 486 16.6969 5.62032e-08 2.0312e-06 13.6946 2.97081e+08
3.81134 13.9979 0.0408154 3.99255e-08 600 14.0082 3.99548e-08 1.76327e-06 13.5858 3.50601e+08
4.0277 18.4538 0.0481684 4.46e-08 738 18.3431 4.43324e-08 1.52972e-06 21.5168 4.13763e+08
4.25634 19.5607 0.056846 4.00584e-08 824 19.5171 3.99691e-08 1.32631e-06 24.8873 4.88304e+08
4.49796 20.117 0.067087 3.49087e-08 954 20.0081 3.47199e-08 1.14926e-06 28.9778 5.76273e+08
4.7533 19.2684 0.0791729 2.83321e-08 1094 19.1154 2.81071e-08 9.95263e-07 31.1429 6.8009e+08
5.02313 22.5157 0.0934361 2.80531e-08 1332 22.6405 2.82086e-08 8.61414e-07 43.3784 8.0261e+08
5.30828 26.0257 0.110269 2.74764e-08 1614 26.0452 2.74969e-08 7.45152e-07 59.5139 9.47202e+08
5.60962 28.8523 0.130134 2.58107e-08 1850 28.7779 2.57441e-08 6.44232e-07 74.1189 1.11784e+09
5.92807 28.6205 0.153578 2.16949e-08 2238 28.5678 2.1655e-08 5.56685e-07 87.2185 1.31923e+09
6.26459 27.1959 0.181246 1.74681e-08 2546 27.3012 1.75357e-08 4.80786e-07 92.5021 1.55689e+09
6.62021 29.0811 0.213898 1.58276e-08 3264 29.0741 1.58238e-08 4.15026e-07 124.477 1.83737e+09
6.99602 32.3411 0.252432 1.49149e-08 3506 32.352 1.49199e-08 3.58083e-07 146.033 2.16837e+09
7.39317 34.9635 0.297908 1.36629e-08 4506 34.929 1.36494e-08 3.08803e-07 199.366 2.55901e+09
7.81286 38.793 0.351577 1.28453e-08 5018 38.6231 1.2789e-08 2.66181e-07 242.157 3.02002e+09
8.25637 40.1961 0.414914 1.12781e-08 5852 40.1837 1.12746e-08 2.29336e-07 287.785 3.56409e+09
8.72507 42.3577 0.489662 1.00704e-08 7362 42.3093 1.00589e-08 1.97503e-07 375.378 4.20617e+09
9.22037 44.5286 0.577876 8.97046e-09 8306 44.4223 8.94903e-09 1.70014e-07 438.25 4.96392e+09
9.74378 47.9037 0.681982 8.17722e-09 9698 47.8683 8.17118e-09 1.46289e-07 542.096 5.85818e+09
10.2969 50.9817 0.804843 7.37417e-09 11816 50.8986 7.36215e-09 1.25822e-07 692.509 6.91355e+09
10.8814 56.444 0.949838 6.91796e-09 13682 56.3618 6.90789e-09 1.08175e-07 874.982 8.15905e+09
11.4992 56.6768 1.12095 5.8861e-09 16152 56.6801 5.88644e-09 9.29669e-08 1022.65 9.62892e+09
12.1519 59.1617 1.3229 5.20624e-09 19472 59.0134 5.1932e-09 7.98658e-08 1269.33 1.13636e+10
12.8418 61.8968 1.56122 4.61545e-09 22670 61.7638 4.60553e-09 6.85852e-08 1525.58 1.34108e+10
13.5708 67.9913 1.84248 4.29597e-09 26224 67.8548 4.28734e-09 5.88765e-08 1913.45 1.58268e+10
14.3411 71.467 2.17441 3.82626e-09 31640 71.3818 3.8217e-09 5.05241e-08 2396.14 1.8678e+10
15.1552 75.0424 2.56613 3.40438e-09 37484 74.9526 3.40031e-09 4.33417e-08 2944.28 2.20429e+10
16.0156 79.7034 3.02843 3.06387e-09 43856 79.5698 3.05873e-09 3.71677e-08 3615.21 2.6014e+10
16.9247 84.4297 3.574 2.75011e-09 51362 84.2917 2.74561e-09 3.18628e-08 4433.11 3.07005e+10
17.8855 89.704 4.21787 2.47587e-09 61636 89.5518 2.47167e-09 2.73063e-08 5588.56 3.62312e+10
18.9008 93.4206 4.97773 2.18485e-09 72218 93.2333 2.18047e-09 2.33941e-08 6744.65 4.27584e+10
19.9738 98.7757 5.87448 1.95745e-09 84586 98.5907 1.95378e-09 2.00364e-08 8263.6 5.04614e+10
21.1076 104.955 6.93279 1.76241e-09 100708 104.777 1.75941e-09 1.71555e-08 10345.9 5.95522e+10
22.3058 110.376 8.18175 1.57051e-09 118712 110.233 1.56847e-09 1.46847e-08 12696.1 7.02807e+10
23.5721 115.271 9.65571 1.38978e-09 140410 115.033 1.38692e-09 1.25662e-08 15528.9 8.29419e+10
24.9102 120.55 11.3952 1.23156e-09 164374 120.33 1.22931e-09 1.07504e-08 18830.7 9.78842e+10
26.3243 128.809 13.4481 1.11506e-09 194680 128.764 1.11467e-09 9.19452e-09 23609.6 1.15518e+11
27.8187 133.62 15.8708 9.80124e-10 230196 133.41 9.78586e-10 7.86182e-09 28698.3 1.36329e+11
29.3979 140.275 18.73 8.71871e-10 271156 140.03 8.70349e-10 6.72061e-09 35177.3 1.60889e+11
31.0667 148.929 22.1042 7.84355e-10 321076 148.641 7.82841e-10 5.74366e-09 43846.2 1.89874e+11
32.8303 155.182 26.0864 6.92527e-10 377436 154.887 6.91211e-10 4.90756e-09 53261.6 2.2408e+11
34.694 163.517 30.7859 6.18333e-10 447594 163.225 6.17229e-10 4.19221e-09 66018.2 2.64449e+11
36.6634 171.79 36.3321 5.50451e-10 525078 171.472 5.49431e-10 3.58032e-09 80727.2 3.1209e+11
38.7447 179.866 42.8774 4.88349e-10 621924 179.565 4.87532e-10 3.05709e-09 99348.3 3.68314e+11
40.9442 188.583 50.6018 4.33857e-10 732630 188.25 4.33091e-10 2.60976e-09 121795 4.34667e+11
43.2685 198.328 59.7179 3.86625e-10 865596 198.006 3.85997e-10 2.22743e-09 150245 5.12973e+11
45.7247 208.105 70.4762 3.43755e-10 1.02168e+06 207.741 3.43154e-10 1.90073e-09 184774 6.05386e+11
48.3204 218.668 83.1727 3.06066e-10 1.20544e+06 218.269 3.05507e-10 1.62163e-09 227513 7.14448e+11
51.0634 229.735 98.1565 2.7247e-10 1.42103e+06 229.327 2.71986e-10 1.38326e-09 279910 8.43158e+11
53.9621 241.539 115.84 2.42739e-10 1.67997e+06 241.109 2.42307e-10 1.1797e-09 345675 9.95055e+11
57.0254 255.088 136.709 2.17222e-10 1.98018e+06 254.624 2.16828e-10 1.00592e-09 427608 1.17432e+12
60.2626 269.583 161.337 1.94522e-10 2.33957e+06 269.055 1.94141e-10 8.57591e-10 530670 1.38587e+12
63.6835 286.461 190.402 1.75147e-10 2.75676e+06 285.932 1.74824e-10 7.3101e-10 660510 1.63554e+12
67.2987 303.81 224.704 1.57399e-10 3.25638e+06 303.226 1.57096e-10 6.23009e-10 822704 1.93019e+12
71.1191 324.102 265.185 1.4228e-10 3.84387e+06 323.467 1.42001e-10 5.30879e-10 1.03019e+06 2.27792e+12
75.1563 346.738 312.958 1.28981e-10 4.53277e+06 346.031 1.28718e-10 4.52303e-10 1.29258e+06 2.68829e+12
79.4227 373.007 369.339 1.17572e-10 5.35083e+06 372.266 1.17338e-10 3.85299e-10 1.63277e+06 3.17259e+12
83.9313 402.876 435.876 1.07602e-10 6.32174e+06 402.016 1.07372e-10 3.28173e-10 2.07278e+06 3.74415e+12
88.6959 437.702 514.4 9.90575e-11 7.44986e+06 436.702 9.88313e-11 2.79476e-10 2.64053e+06 4.41866e+12
93.7309 478.29 607.071 9.17195e-11 8.79764e+06 477.202 9.1511e-11 2.37972e-10 3.39079e+06 5.2147e+12
99.0518 525.843 716.436 8.54454e-11 1.03827e+07 524.586 8.52412e-11 2.02605e-10 4.37873e+06 6.15414e+12
104.675 581.189 845.504 8.00224e-11 1.22515e+07 579.743 7.98233e-11 1.72471e-10 5.68442e+06 7.26283e+12
110.617 647.537 997.824 7.55476e-11 1.44573e+07 645.892 7.53556e-11 1.468e-10 7.44015e+06 8.57124e+12
116.896 725.69 1177.58 7.17412e-11 1.70664e+07 723.773 7.15518e-11 1.24935e-10 9.80003e+06 1.01154e+13
123.532 818.446 1389.73 6.85598e-11 2.0139e+07 816.19 6.83709e-11 1.06313e-10 1.29873e+07 1.19377e+13
130.545 928.255 1640.09 6.58884e-11 2.37643e+07 925.639 6.57027e-11 9.04567e-11 1.73098e+07 1.40883e+13
137.955 1058.55 1935.56 6.3667e-11 2.80503e+07 1055.47 6.34815e-11 7.69563e-11 2.32064e+07 1.66263e+13
145.787 1214.59 2284.26 6.19007e-11 3.30981e+07 1210.95 6.1715e-11 6.54636e-11 3.12967e+07 1.96216e+13
154.063 1399.09 2695.77 6.04188e-11 3.90634e+07 1394.85 6.02356e-11 5.56812e-11 4.23871e+07 2.31565e+13
162.808 1618.52 3181.42 5.92251e-11 4.61057e+07 1613.51 5.90421e-11 4.73556e-11 5.76619e+07 2.73282e+13
172.051 1880.02 3754.56 5.82927e-11 5.44046e+07 1874.12 5.81096e-11 4.02708e-11 7.87515e+07 3.22515e+13
181.818 2190.52 4430.96 5.7552e-11 6.42064e+07 2183.54 5.73685e-11 3.42426e-11 1.07913e+08 3.80616e+13
192.139 2560.07 5229.21 5.69935e-11 7.57748e+07 2551.85 5.68107e-11 2.91139e-11 1.48337e+08 4.49186e+13
203.046 2999.54 6171.26 5.65835e-11 8.94213e+07 2989.78 5.63995e-11 2.4751e-11 2.04427e+08 5.30108e+13
214.572 3523.67 7283.03 5.6324e-11 1.05538e+08 3512.08 5.61387e-11 2.10401e-11 2.82525e+08 6.25608e+13
226.753 4149 8595.09 5.61957e-11 1.24552e+08 4135.23 5.60092e-11 1.78839e-11 3.91372e+08 7.38313e+13
239.625 4900 10143.5 5.62364e-11 1.46987e+08 4883.53 5.60473e-11 1.51999e-11 5.43821e+08 8.71322e+13
253.228 5799.61 11970.9 5.64003e-11 1.7347e+08 5779.84 5.62081e-11 1.29176e-11 7.57397e+08 1.02829e+14
267.603 6887.26 14127.5 5.67534e-11 2.04703e+08 6863.51 5.65576e-11 1.09771e-11 1.05834e+09 1.21354e+14
282.795 8206.3 16672.6 5.72999e-11 2.4161e+08 8177.49 5.70988e-11 9.3274e-12 1.48425e+09 1.43217e+14
298.848 9823.02 19676.2 5.81184e-11 2.85122e+08 9787.93 5.79108e-11 7.925e-12 2.09096e+09 1.69017e+14
315.813 11831.7 23220.9 5.93169e-11 3.36491e+08 11788.3 5.90994e-11 6.73295e-12 2.96447e+09 1.99466e+14
333.741 14365.8 27404.3 6.10268e-11 3.97115e+08 14311.1 6.07947e-11 5.71979e-12 4.23698e+09 2.35401e+14
352.686 17637.4 32341.2 6.34875e-11 4.68637e+08 17567.2 6.32347e-11 4.85874e-12 6.12352e+09 2.77809e+14
372.707 21989.1 38167.6 6.70693e-11 5.53074e+08 21896.4 6.67866e-11 4.12703e-12 8.98814e+09 3.27857e+14
393.865 28002.8 45043.5 7.23734e-11 6.52716e+08 27875.4 7.20442e-11 3.50528e-12 1.34766e+10 3.86921e+14
416.224 33063.9 53158.3 7.24091e-11 2.2184e+08 34978.5 7.66021e-11 2.97701e-12 5.39576e+09 4.56626e+14
439.852 0 62734.9 0 0 0 0 2.52819e-12 0 5.38888e+14
464.821 0 74036.7 0 0 0 0 2.1469e-12 0 6.35971e+14
491.207 0 87374.6 0 0 0 0 1.82301e-12 0 7.50542e+14
519.092 0 103115 0 0 0 0 1.54789e-12 0 8.85755e+14
548.56 0 121692 0 0 0 0 1.31422e-12 0 1.04533e+15
579.7 0 143615 0 0 0 0 1.11576e-12 0 1.23364e+15
612.608 0 169488 0 0 0 0 9.47223e-13 0 1.45589e+15
647.384 0 200021 0 0 0 0 8.041e-13 0 1.71817e+15
684.134 0 236056 0 0 0 0 6.82568e-13 0 2.0277e+15
722.971 0 278582 0 0 0 0 5.79376e-13 0 2.393e+15
764.012 0 328769 0 0 0 0 4.91762e-13 0 2.8241e+15
0.636814
200
1.0655e+09
8589934592
0.0129181 0.000997913 1.58924e-09 7.30994e-05 6 0.000988777 7.24301e-05 0.00677225 0.0647637 13.6515
0.0136515 0 1.87554e-09 0 0 0 0 0.00688819 0 16.1108
0.0144264 0 2.21343e-09 0 0 0 0 0.00699249 0 19.0132
0.0152454 0 2.61218e-09 0 0 0 0 0.00708412 0 22.4385
0.0161108 0 3.08278e-09 0 0 0 0 0.00716212 0 26.4808
0.0170254 0 3.63815e-09 0 0 0 0 0.00722559 0 31.2514
0.0179919 0.00222355 4.29357e-09 6.02891e-05 12 0.00222069 6.02115e-05 0.00727371 0.0994637 36.8815
0.0190132 0 5.06707e-09 0 0 0 0 0.00730578 0 43.5258
0.0200925 0 5.97991e-09 0 0 0 0 0.00732122 0 51.367
0.0212331 0.00210632 7.05721e-09 3.47457e-05 8 0.00210449 3.47155e-05 0.00731958 0.0379757 60.621
0.0224385 0 8.32858e-09 0 0 0 0 0.00730056 0 71.542
0.0237123 0 9.829e-09 0 0 0 0 0.00726401 0 84.4305
0.0250583 0.0133637 1.15997e-08 0.000134118 6 0.0133574 0.000134055 0.00720995 0.111611 99.6408
0.0264808 0 1.36894e-08 0 0 0 0 0.00713857 0 117.591
0.0279841 0.00825072 1.61556e-08 5.94536e-05 24 0.00824225 5.93926e-05 0.00705021 0.202389 138.776
0.0295727 0 1.90661e-08 0 0 0 0 0.00694538 0 163.777
0.0312514 0.0146914 2.25009e-08 7.60103e-05 24 0.014766 7.63962e-05 0.00682475 0.267299 193.281
0.0330255 0 2.65545e-08 0 0 0 0 0.00668915 0 228.102
0.0349003 0.0218171 3.13384e-08 8.10458e-05 12 0.0216424 8.03968e-05 0.00653951 0.148719 269.195
0.0368815 0.0178503 3.69841e-08 5.61875e-05 30 0.0176602 5.55892e-05 0.00637693 0.264332 317.691
0.0389751 0.0205269 4.36469e-08 5.47495e-05 24 0.0203157 5.41863e-05 0.00620256 0.211846 374.924
0.0411876 0.0131095 5.151e-08 2.96283e-05 24 0.0130205 2.94271e-05 0.00601767 0.118165 442.467
0.0435258 0.0313184 6.07896e-08 5.99763e-05 8 0.031316 5.99717e-05 0.00582358 0.082391 522.179
0.0459966 0.0388401 7.1741e-08 6.30265e-05 72 0.0385336 6.2529e-05 0.00562166 0.807218 616.251
0.0486077 0 8.46654e-08 0 0 0 0 0.0054133 0 727.27
0.051367 0.0546091 9.99181e-08 6.36255e-05 54 0.0544302 6.3417e-05 0.00519989 0.66074 858.29
0.054283 0.043662 1.17919e-07 4.31053e-05 60 0.0438556 4.32965e-05 0.0049828 0.519049 1012.91
0.0573645 0.0414979 1.39162e-07 3.47149e-05 96 0.0413914 3.46258e-05 0.00476339 0.699634 1195.39
0.060621 0.0488919 1.64232e-07 3.46568e-05 24 0.0482295 3.41872e-05 0.00454293 0.18309 1410.75
0.0640622 0.0849227 1.93819e-07 5.10078e-05 134 0.0849651 5.10333e-05 0.00432265 1.58122 1664.89
0.0676989 0.0825769 2.28736e-07 4.20275e-05 120 0.0821817 4.18264e-05 0.00410371 1.22896 1964.83
0.071542 0.0770633 2.69944e-07 3.32341e-05 108 0.0762183 3.28697e-05 0.00388717 0.923367 2318.8
0.0756032 0.113666 3.18575e-07 4.15364e-05 174 0.113044 4.1309e-05 0.00367401 1.96715 2736.54
0.079895 0.119529 3.75967e-07 3.70112e-05 168 0.118406 3.66636e-05 0.0034651 1.79443 3229.53
0.0844305 0.10036 4.43698e-07 2.63321e-05 168 0.100861 2.64633e-05 0.00326121 1.35649 3811.34
0.0892234 0.117397 5.23632e-07 2.60999e-05 290 0.116867 2.59822e-05 0.00306301 2.47109 4497.96
0.0942883 0.145633 6.17966e-07 2.74349e-05 288 0.1453 2.73724e-05 0.00287109 2.75201 5308.28
0.0996408 0.129967 7.29294e-07 2.07463e-05 366 0.12894 2.05823e-05 0.00268591 2.82703 6264.59
0.105297 0.149501 8.60678e-07 2.02215e-05 420 0.148448 2.00791e-05 0.00250785 3.38658 7393.17
0.111275 0.160013 1.01573e-06 1.83394e-05 398 0.159538 1.82851e-05 0.00233721 3.12299 8725.07
0.117591 0.190618 1.19872e-06 1.85121e-05 624 0.191091 1.85581e-05 0.00217419 5.31303 10296.9
0.124267 0.218542 1.41467e-06 1.79841e-05 642 0.218103 1.7948e-05 0.00201893 5.71879 12151.9
0.131321 0.265332 1.66953e-06 1.85015e-05 800 0.265416 1.85073e-05 0.00187147 7.90885 14341.1
0.138776 0.240652 1.9703e-06 1.4219e-05 858 0.241725 1.42823e-05 0.00173182 7.04456 16924.7
0.146654 0.274237 2.32525e-06 1.37299e-05 1080 0.276538 1.38451e-05 0.00159991 9.2682 19973.8
0.154979 0.32243 2.74415e-06 1.36785e-05 1286 0.324522 1.37672e-05 0.00147563 11.9206 23572.1
0.163777 0.309881 3.23852e-06 1.11393e-05 1650 0.310676 1.11679e-05 0.00135884 13.5262 27818.7
0.173074 0.353221 3.82195e-06 1.0759e-05 1778 0.353402 1.07645e-05 0.00124933 15.3118 32830.3
0.182899 0.363476 4.51048e-06 9.38131e-06 2112 0.364384 9.40473e-06 0.00114689 17.2757 38744.7
0.193281 0.408454 5.32305e-06 8.93289e-06 2570 0.408866 8.94192e-06 0.00105127 21.8379 45724.7
0.204254 0.476867 6.28202e-06 8.83707e-06 3030 0.476582 8.83178e-06 0.000962209 27.828 53962.1
0.215848 0.488649 7.41374e-06 7.67308e-06 3434 0.488441 7.66982e-06 0.000879423 29.9621 63683.5
0.228102 0.514834 8.74934e-06 6.85017e-06 4218 0.514717 6.84862e-06 0.000802624 35.9995 75156.3
0.24105 0.574146 1.03256e-05 6.4732e-06 4766 0.574528 6.4775e-06 0.000731515 42.1745 88695.9
0.254734 0.627181 1.21857e-05 5.99171e-06 6026 0.627152 5.99143e-06 0.000665798 54.2298 104675
0.269195 0.697087 1.4381e-05 5.64296e-06 6480 0.696459 5.63788e-06 0.000605173 60.423 123532
0.284476 0.75779 1.69718e-05 5.19793e-06 8162 0.759341 5.20857e-06 0.000549345 77.2293 145787
0.300625 0.814697 2.00293e-05 4.73521e-06 9578 0.815311 4.73878e-06 0.000498021 91.0683 172051
0.317691 0.896163 2.36377e-05 4.41359e-06 11234 0.89513 4.40851e-06 0.000450916 109.959 203046
0.335725 0.967064 2.78961e-05 4.03573e-06 13344 0.965403 4.0288e-06 0.000407755 132.071 239625
0.354784 1.06123 3.29216e-05 3.75266e-06 15464 1.06043 3.74981e-06 0.000368269 157.578 282795
0.374924 1.13353 3.88525e-05 3.39643e-06 18458 1.13293 3.39463e-06 0.000332202 188.715 333741
0.396207 1.28869 4.58519e-05 3.2719e-06 22232 1.28701 3.26764e-06 0.000299307 243.031 393865
0.418699 1.3784 5.41123e-05 2.96545e-06 25628 1.37498 2.95808e-06 0.00026935 282.155 464821
0.442467 1.50244 6.38607e-05 2.73888e-06 30320 1.49953 2.73358e-06 0.000242108 342.999 548560
0.467585 1.66404 7.53654e-05 2.57041e-06 35452 1.66127 2.56612e-06 0.00021737 419.221 647384
0.494129 1.82585 8.89427e-05 2.38982e-06 41792 1.82445 2.38799e-06 0.000194938 512.344 764012
0.522179 2.03784 0.000104966 2.26013e-06 49988 2.0377 2.25996e-06 0.000174625 646.982 901651
0.551822 2.23051 0.000123876 2.09618e-06 59110 2.22753 2.09337e-06 0.000156255 792.968 1.06409e+06
0.583147 2.45603 0.000146192 1.95578e-06 69716 2.45162 1.95226e-06 0.000139664 976.263 1.25578e+06
0.616251 2.71126 0.000172529 1.82944e-06 82210 2.70565 1.82566e-06 0.0001247 1206.08 1.48202e+06
0.651234 2.97977 0.000203611 1.70369e-06 96722 2.97316 1.69991e-06 0.00011122 1481.6 1.74901e+06
0.688203 3.32964 0.000240292 1.61313e-06 113098 3.32438 1.61057e-06 9.90935e-05 1841.1 2.06409e+06
0.72727 3.65741 0.000283581 1.50143e-06 135190 3.65228 1.49933e-06 8.81969e-05 2301.43 2.43595e+06
0.768555 4.03909 0.000334669 1.40501e-06 158170 4.03406 1.40325e-06 7.84179e-05 2833.92 2.87479e+06
0.812184 4.51799 0.000394961 1.33168e-06 188560 4.51052 1.32948e-06 6.96525e-05 3605.07 3.39269e+06
0.85829 5.00476 0.000466114 1.24998e-06 220444 4.99678 1.24798e-06 6.1805e-05 4458.37 4.00389e+06
0.907013 5.56206 0.000550086 1.1771e-06 261388 5.5536 1.17531e-06 5.47875e-05 5615.9 4.7252e+06
0.958501 6.18831 0.000649185 1.10972e-06 308244 6.17953 1.10815e-06 4.85194e-05 7050.06 5.57646e+06
1.01291 6.92274 0.000766138 1.05192e-06 364396 6.91121 1.05016e-06 4.29272e-05 8929.4 6.58107e+06
1.07041 7.68689 0.00090416 9.89728e-07 429162 7.67343 9.87994e-07 3.79435e-05 11194.4 7.76667e+06
1.13118 8.59425 0.00106705 9.37637e-07 506358 8.57967 9.36046e-07 3.3507e-05 14169.6 9.16586e+06
1.19539 9.56771 0.00125928 8.84497e-07 598590 9.55029 8.82887e-07 2.9562e-05 17909.8 1.08171e+07
1.26325 10.6494 0.00148614 8.34212e-07 704844 10.63 8.32692e-07 2.60578e-05 22564.8 1.27658e+07
1.33496 11.8975 0.00175387 7.89709e-07 834620 11.8731 7.88093e-07 2.29484e-05 28721.2 1.50656e+07
1.41075 13.188 0.00206984 7.41741e-07 981444 13.1608 7.40215e-07 2.01923e-05 36052.3 1.77798e+07
1.49083 14.7281 0.00244272 7.01913e-07 1.15998e+06 14.7005 7.00595e-07 1.77518e-05 45866 2.09828e+07
1.57546 16.3672 0.00288279 6.60954e-07 1.36931e+06 16.3353 6.59667e-07 1.55929e-05 58042.7 2.4763e+07
1.66489 18.1239 0.00340213 6.20169e-07 1.61652e+06 18.0894 6.18991e-07 1.3685e-05 73256.3 2.92241e+07
1.75941 20.049 0.00401503 5.81318e-07 1.90601e+06 20.0104 5.80199e-07 1.20007e-05 92327.8 3.44889e+07
1.85928 22.1908 0.00473835 5.452e-07 2.24913e+06 22.1483 5.44156e-07 1.05151e-05 116615 4.07021e+07
1.96483 24.53 0.00559198 5.10672e-07 2.65744e+06 24.4821 5.09675e-07 9.20606e-06 147412 4.80347e+07
2.07637 27.0743 0.00659939 4.776e-07 3.13125e+06 27.0236 4.76705e-07 8.05366e-06 185690 5.66883e+07
2.19424 29.6984 0.00778828 4.43916e-07 3.69915e+06 29.6436 4.43098e-07 7.04008e-06 233252 6.69008e+07
2.3188 32.6046 0.00919136 4.12961e-07 4.36472e+06 32.5437 4.1219e-07 6.1494e-06 293112 7.89532e+07
2.45043 35.649 0.0108472 3.82595e-07 5.14913e+06 35.5834 3.81891e-07 5.36741e-06 367035 9.31768e+07
2.58954 38.905 0.0128014 3.53801e-07 6.07894e+06 38.8355 3.53169e-07 4.68145e-06 459417 1.09963e+08
2.73654 42.4005 0.0151076 3.26728e-07 7.17304e+06 42.3242 3.2614e-07 4.08023e-06 574387 1.29773e+08
2.89188 46.0501 0.0178292 3.00682e-07 8.46557e+06 45.9672 3.00141e-07 3.55373e-06 716274 1.53152e+08
3.05605 49.8843 0.0210412 2.75996e-07 9.98773e+06 49.7987 2.75522e-07 3.09304e-06 891218 1.80743e+08
3.22953 53.8991 0.0248319 2.52687e-07 1.1797e+07 53.8052 2.52246e-07 2.69025e-06 1.10806e+06 2.13304e+08
3.41286 58.2151 0.0293054 2.31259e-07 1.39144e+07 58.1136 2.30856e-07 2.33837e-06 1.3761e+06 2.51731e+08
3.6066 62.6542 0.0345848 2.10899e-07 1.64163e+07 62.5477 2.10541e-07 2.0312e-06 1.7045e+06 2.97081e+08
3.81134 67.3987 0.0408154 1.92237e-07 1.93821e+07 67.2861 1.91916e-07 1.76327e-06 2.11311e+06 3.50601e+08
4.0277 72.2431 0.0481684 1.746e-07 2.28754e+07 72.1223 1.74308e-07 1.52972e-06 2.61096e+06 4.13763e+08
4.25634 77.3119 0.056846 1.58327e-07 2.69929e+07 77.1806 1.58059e-07 1.32631e-06 3.22227e+06 4.88304e+08
4.49796 82.6886 0.067087 1.43489e-07 3.18542e+07 82.5502 1.43248e-07 1.14926e-06 3.97711e+06 5.76273e+08
4.7533 88.2324 0.0791729 1.29736e-07 3.75892e+07 88.0854 1.2952e-07 9.95263e-07 4.8999e+06 6.8009e+08
5.02313 94.1233 0.0934361 1.17272e-07 4.43706e+07 93.9682 1.17078e-07 8.61414e-07 6.04054e+06 8.0261e+08
5.30828 100.188 0.110269 1.05773e-07 5.23593e+07 100.023 1.05599e-07 7.45152e-07 7.43229e+06 9.47202e+08
5.60962 106.629 0.130134 9.53886e-08 6.1787e+07 106.453 9.52309e-08 6.44232e-07 9.14853e+06 1.11784e+09
5.92807 113.306 0.153578 8.58885e-08 7.29346e+07 113.119 8.57468e-08 5.56685e-07 1.12528e+07 1.31923e+09
6.26459 120.298 0.181246 7.72685e-08 8.60651e+07 120.099 7.71403e-08 4.80786e-07 1.38318e+07 1.55689e+09
6.62021 127.544 0.213898 6.94166e-08 1.01558e+08 127.334 6.93026e-08 4.15026e-07 1.69865e+07 1.83737e+09
6.99602 135.088 0.252432 6.22991e-08 1.1986e+08 134.866 6.21968e-08 3.58083e-07 2.08532e+07 2.16837e+09
7.39317 143.047 0.297908 5.58995e-08 1.41457e+08 142.814 5.58082e-08 3.08803e-07 2.56064e+07 2.55901e+09
7.81286 151.409 0.351577 5.01349e-08 1.66936e+08 151.158 5.00519e-08 2.66181e-07 3.14422e+07 3.02002e+09
8.25637 160.266 0.414914 4.49669e-08 1.97025e+08 160.002 4.48929e-08 2.29336e-07 3.86315e+07 3.56409e+09
8.72507 169.592 0.489662 4.03199e-08 2.32497e+08 169.309 4.02525e-08 1.97503e-07 4.74638e+07 4.20617e+09
9.22037 179.542 0.577876 3.61695e-08 2.74404e+08 179.242 3.61089e-08 1.70014e-07 5.83778e+07 4.96392e+09
9.74378 190.473 0.681982 3.2514e-08 3.2382e+08 190.146 3.24581e-08 1.46289e-07 7.19718e+07 5.85818e+09
10.2969 202.799 0.804843 2.93336e-08 3.82165e+08 202.438 2.92813e-08 1.25822e-07 8.9096e+07 6.91355e+09
10.8814 217.389 0.949838 2.66439e-08 4.51027e+08 216.975 2.65931e-08 1.08175e-07 1.11089e+08 8.15905e+09
11.4992 236.021 1.12095 2.45117e-08 5.32251e+08 235.521 2.44597e-08 9.29669e-08 1.40334e+08 9.62892e+09
12.1519 262.205 1.3229 2.30741e-08 6.28157e+08 261.548 2.30163e-08 7.98658e-08 1.81482e+08 1.13636e+10
12.8418 291.597 1.56122 2.17435e-08 3.82727e+08 301.813 2.25052e-08 6.85852e-08 1.21335e+08 1.34108e+10
13.5708 0 1.84248 0 0 0 0 5.88765e-08 0 1.58268e+10
14.3411 0 2.17441 0 0 0 0 5.05241e-08 0 1.8678e+10
15.1552 0 2.56613 0 0 0 0 4.33417e-08 0 2.20429e+10
16.0156 0 3.02843 0 0 0 0 3.71677e-08 0 2.6014e+10
16.9247 0 3.574 0 0 0 0 3.18628e-08 0 3.07005e+10
17.8855 0 4.21787 0 0 0 0 2.73063e-08 0 3.62312e+10
18.9008 0 4.97773 0 0 0 0 2.33941e-08 0 4.27584e+10
19.9738 0 5.87448 0 0 0 0 2.00364e-08 0 5.04614e+10
21.1076 0 6.93279 0 0 0 0 1.71555e-08 0 5.95522e+10
22.3058 0 8.18175 0 0 0 0 1.46847e-08 0 7.02807e+10
23.5721 0 9.65571 0 0 0 0 1.25662e-08 0 8.29419e+10
24.9102 0 11.3952 0 0 0 0 1.07504e-08 0 9.78842e+10
26.3243 0 13.4481 0 0 0 0 9.19452e-09 0 1.15518e+11
27.8187 0 15.8708 0 0 0 0 7.86182e-09 0 1.36329e+11
29.3979 0 18.73 0 0 0 0 6.72061e-09 0 1.60889e+11
31.0667 0 22.1042 0 0 0 0 5.74366e-09 0 1.89874e+11
32.8303 0 26.0864 0 0 0 0 4.90756e-09 0 2.2408e+11
34.694 0 30.7859 0 0 0 0 4.19221e-09 0 2.64449e+11
36.6634 0 36.3321 0 0 0 0 3.58032e-09 0 3.1209e+11
38.7447 0 42.8774 0 0 0 0 3.05709e-09 0 3.68314e+11
40.9442 0 50.6018 0 0 0 0 2.60976e-09 0 4.34667e+11
43.2685 0 59.7179 0 0 0 0 2.22743e-09 0 5.12973e+11
45.7247 0 70.4762 0 0 0 0 1.90073e-09 0 6.05386e+11
48.3204 0 83.1727 0 0 0 0 1.62163e-09 0 7.14448e+11
51.0634 0 98.1565 0 0 0 0 1.38326e-09 0 8.43158e+11
53.9621 0 115.84 0 0 0 0 1.1797e-09 0 9.95055e+11
57.0254 0 136.709 0 0 0 0 1.00592e-09 0 1.17432e+12
60.2626 0 161.337 0 0 0 0 8.57591e-10 0 1.38587e+12
63.6835 0 190.402 0 0 0 0 7.3101e-10 0 1.63554e+12
67.2987 0 224.704 0 0 0 0 6.23009e-10 0 1.93019e+12
71.1191 0 265.185 0 0 0 0 5.30879e-10 0 2.27792e+12
75.1563 0 312.958 0 0 0 0 4.52303e-10 0 2.68829e+12
79.4227 0 369.339 0 0 0 0 3.85299e-10 0 3.17259e+12
83.9313 0 435.876 0 0 0 0 3.28173e-10 0 3.74415e+12
88.6959 0 514.4 0 0 0 0 2.79476e-10 0 4.41866e+12
93.7309 0 607.071 0 0 0 0 2.37972e-10 0 5.2147e+12
99.0518 0 716.436 0 0 0 0 2.02605e-10 0 6.15414e+12
104.675 0 845.504 0 0 0 0 1.72471e-10 0 7.26283e+12
110.617 0 997.824 0 0 0 0 1.468e-10 0 8.57124e+12
116.896 0 1177.58 0 0 0 0 1.24935e-10 0 1.01154e+13
123.532 0 1389.73 0 0 0 0 1.06313e-10 0 1.19377e+13
130.545 0 1640.09 0 0 0 0 9.04567e-11 0 1.40883e+13
137.955 0 1935.56 0 0 0 0 7.69563e-11 0 1.66263e+13
145.787 0 2284.26 0 0 0 0 6.54636e-11 0 1.96216e+13
154.063 0 2695.77 0 0 0 0 5.56812e-11 0 2.31565e+13
162.808 0 3181.42 0 0 0 0 4.73556e-11 0 2.73282e+13
172.051 0 3754.56 0 0 0 0 4.02708e-11 0 3.22515e+13
181.818 0 4430.96 0 0 0 0 3.42426e-11 0 3.80616e+13
192.139 0 5229.21 0 0 0 0 2.91139e-11 0 4.49186e+13
203.046 0 6171.26 0 0 0 0 2.4751e-11 0 5.30108e+13
214.572 0 7283.03 0 0 0 0 2.10401e-11 0 6.25608e+13
226.753 0 8595.09 0 0 0 0 1.78839e-11 0 7.38313e+13
239.625 0 10143.5 0 0 0 0 1.51999e-11 0 8.71322e+13
253.228 0 11970.9 0 0 0 0 1.29176e-11 0 1.02829e+14
267.603 0 14127.5 0 0 0 0 1.09771e-11 0 1.21354e+14
282.795 0 16672.6 0 0 0 0 9.3274e-12 0 1.43217e+14
298.848 0 19676.2 0 0 0 0 7.925e-12 0 1.69017e+14
315.813 0 23220.9 0 0 0 0 6.73295e-12 0 1.99466e+14
333.741 0 27404.3 0 0 0 0 5.71979e-12 0 2.35401e+14
352.686 0 32341.2 0 0 0 0 4.85874e-12 0 2.77809e+14
372.707 0 38167.6 0 0 0 0 4.12703e-12 0 3.27857e+14
393.865 0 45043.5 0 0 0 0 3.50528e-12 0 3.86921e+14
416.224 0 53158.3 0 0 0 0 2.97701e-12 0 4.56626e+14
439.852 0 62734.9 0 0 0 0 2.52819e-12 0 5.38888e+14
464.821 0 74036.7 0 0 0 0 2.1469e-12 0 6.35971e+14
491.207 0 87374.6 0 0 0 0 1.82301e-12 0 7.50542e+14
519.092 0 103115 0 0 0 0 1.54789e-12 0 8.85755e+14
548.56 0 121692 0 0 0 0 1.31422e-12 0 1.04533e+15
579.7 0 143615 0 0 0 0 1.11576e-12 0 1.23364e+15
612.608 0 169488 0 0 0 0 9.47223e-13 0 1.45589e+15
647.384 0 200021 0 0 0 0 8.041e-13 0 1.71817e+15
684.134 0 236056 0 0 0 0 6.82568e-13 0 2.0277e+15
722.971 0 278582 0 0 0 0 5.79376e-13 0 2.393e+15
764.012 0 328769 0 0 0 0 4.91762e-13 0 2.8241e+15
