0.822379
200
1.0655e+09
8589934592
0.0129181 0 1.58924e-09 0 0 0 0 0.00677225 0 13.6515
0.0136515 0 1.87554e-09 0 0 0 0 0.00688819 0 16.1108
0.0144264 0 2.21343e-09 0 0 0 0 0.00699249 0 19.0132
0.0152454 0 2.61218e-09 0 0 0 0 0.00708412 0 22.4385
0.0161108 0 3.08278e-09 0 0 0 0 0.00716212 0 26.4808
0.0170254 0 3.63815e-09 0 0 0 0 0.00722559 0 31.2514
0.0179919 0 4.29357e-09 0 0 0 0 0.00727371 0 36.8815
0.0190132 0 5.06707e-09 0 0 0 0 0.00730578 0 43.5258
0.0200925 0 5.97991e-09 0 0 0 0 0.00732122 0 51.367
0.0212331 0 7.05721e-09 0 0 0 0 0.00731958 0 60.621
0.0224385 0 8.32858e-09 0 0 0 0 0.00730056 0 71.542
0.0237123 0 9.829e-09 0 0 0 0 0.00726401 0 84.4305
0.0250583 0 1.15997e-08 0 0 0 0 0.00720995 0 99.6408
0.0264808 0 1.36894e-08 0 0 0 0 0.00713857 0 117.591
0.0279841 0 1.61556e-08 0 0 0 0 0.00705021 0 138.776
0.0295727 0 1.90661e-08 0 0 0 0 0.00694538 0 163.777
0.0312514 0 2.25009e-08 0 0 0 0 0.00682475 0 193.281
0.0330255 0 2.65545e-08 0 0 0 0 0.00668915 0 228.102
0.0349003 0 3.13384e-08 0 0 0 0 0.00653951 0 269.195
0.0368815 0 3.69841e-08 0 0 0 0 0.00637693 0 317.691
0.0389751 0 4.36469e-08 0 0 0 0 0.00620256 0 374.924
0.0411876 0 5.151e-08 0 0 0 0 0.00601767 0 442.467
0.0435258 0 6.07896e-08 0 0 0 0 0.00582358 0 522.179
0.0459966 0 7.1741e-08 0 0 0 0 0.00562166 0 616.251
0.0486077 0 8.46654e-08 0 0 0 0 0.0054133 0 727.27
0.051367 0 9.99181e-08 0 0 0 0 0.00519989 0 858.29
0.054283 0 1.17919e-07 0 0 0 0 0.0049828 0 1012.91
0.0573645 0 1.39162e-07 0 0 0 0 0.00476339 0 1195.39
0.060621 0 1.64232e-07 0 0 0 0 0.00454293 0 1410.75
0.0640622 0 1.93819e-07 0 0 0 0 0.00432265 0 1664.89
0.0676989 0 2.28736e-07 0 0 0 0 0.00410371 0 1964.83
0.071542 0 2.69944e-07 0 0 0 0 0.00388717 0 2318.8
0.0756032 0 3.18575e-07 0 0 0 0 0.00367401 0 2736.54
0.079895 0 3.75967e-07 0 0 0 0 0.0034651 0 3229.53
0.0844305 0 4.43698e-07 0 0 0 0 0.00326121 0 3811.34
0.0892234 0 5.23632e-07 0 0 0 0 0.00306301 0 4497.96
0.0942883 0 6.17966e-07 0 0 0 0 0.00287109 0 5308.28
0.0996408 0 7.29294e-07 0 0 0 0 0.00268591 0 6264.59
0.105297 0 8.60678e-07 0 0 0 0 0.00250785 0 7393.17
0.111275 0 1.01573e-06 0 0 0 0 0.00233721 0 8725.07
0.117591 0 1.19872e-06 0 0 0 0 0.00217419 0 10296.9
0.124267 0 1.41467e-06 0 0 0 0 0.00201893 0 12151.9
0.131321 0 1.66953e-06 0 0 0 0 0.00187147 0 14341.1
0.138776 0 1.9703e-06 0 0 0 0 0.00173182 0 16924.7
0.146654 0 2.32525e-06 0 0 0 0 0.00159991 0 19973.8
0.154979 0 2.74415e-06 0 0 0 0 0.00147563 0 23572.1
0.163777 0 3.23852e-06 0 0 0 0 0.00135884 0 27818.7
0.173074 0 3.82195e-06 0 0 0 0 0.00124933 0 32830.3
0.182899 0 4.51048e-06 0 0 0 0 0.00114689 0 38744.7
0.193281 0 5.32305e-06 0 0 0 0 0.00105127 0 45724.7
0.204254 0 6.28202e-06 0 0 0 0 0.000962209 0 53962.1
0.215848 0 7.41374e-06 0 0 0 0 0.000879423 0 63683.5
0.228102 0 8.74934e-06 0 0 0 0 0.000802624 0 75156.3
0.24105 0 1.03256e-05 0 0 0 0 0.000731515 0 88695.9
0.254734 0 1.21857e-05 0 0 0 0 0.000665798 0 104675
0.269195 0 1.4381e-05 0 0 0 0 0.000605173 0 123532
0.284476 0 1.69718e-05 0 0 0 0 0.000549345 0 145787
0.300625 0 2.00293e-05 0 0 0 0 0.000498021 0 172051
0.317691 0 2.36377e-05 0 0 0 0 0.000450916 0 203046
0.335725 0 2.78961e-05 0 0 0 0 0.000407755 0 239625
0.354784 0 3.29216e-05 0 0 0 0 0.000368269 0 282795
0.374924 0 3.88525e-05 0 0 0 0 0.000332202 0 333741
0.396207 1.88444 4.58519e-05 4.78448e-06 6 1.83205 4.65146e-06 0.000299307 0.0959112 393865
0.418699 0 5.41123e-05 0 0 0 0 0.00026935 0 464821
0.442467 0 6.38607e-05 0 0 0 0 0.000242108 0 548560
0.467585 0 7.53654e-05 0 0 0 0 0.00021737 0 647384
0.494129 0 8.89427e-05 0 0 0 0 0.000194938 0 764012
0.522179 0 0.000104966 0 0 0 0 0.000174625 0 901651
0.551822 0 0.000123876 0 0 0 0 0.000156255 0 1.06409e+06
0.583147 6.20655 0.000146192 4.94238e-06 12 6.53243 5.20188e-06 0.000139664 0.424651 1.25578e+06
0.616251 0 0.000172529 0 0 0 0 0.0001247 0 1.48202e+06
0.651234 0 0.000203611 0 0 0 0 0.00011122 0 1.74901e+06
0.688203 15.4521 0.000240292 7.48615e-06 8 15.0677 7.2999e-06 9.90935e-05 0.604371 2.06409e+06
0.72727 0 0.000283581 0 0 0 0 8.81969e-05 0 2.43595e+06
0.768555 0 0.000334669 0 0 0 0 7.84179e-05 0 2.87479e+06
0.812184 6.03332 0.000394961 1.77833e-06 6 6.16231 1.81635e-06 6.96525e-05 0.153189 3.39269e+06
0.85829 0 0.000466114 0 0 0 0 6.1805e-05 0 4.00389e+06
0.907013 1.43908 0.000550086 3.04554e-07 24 1.46669 3.10397e-07 5.47875e-05 0.133412 4.7252e+06
0.958501 4.38241 0.000649185 7.85876e-07 24 4.12571 7.39844e-07 4.85194e-05 0.388731 5.57646e+06
1.01291 0 0.000766138 0 0 0 0 4.29272e-05 0 6.58107e+06
1.07041 0 0.00090416 0 0 0 0 3.79435e-05 0 7.76667e+06
1.13118 7.5064 0.00106705 8.18952e-07 12 7.4142 8.08893e-07 3.3507e-05 0.293295 9.16586e+06
1.19539 4.92868 0.00125928 4.55637e-07 30 4.82707 4.46244e-07 2.9562e-05 0.462388 1.08171e+07
1.26325 8.07953 0.00148614 6.32902e-07 24 7.95796 6.23379e-07 2.60578e-05 0.582921 1.27658e+07
1.33496 15.0746 0.00175387 1.0006e-06 24 15.1078 1.0028e-06 2.29484e-05 1.04645 1.50656e+07
1.41075 18.2796 0.00206984 1.02811e-06 32 18.5784 1.04492e-06 2.01923e-05 1.62932 1.77798e+07
1.49083 4.86159 0.00244272 2.31694e-07 48 4.75795 2.26754e-07 1.77518e-05 0.626491 2.09828e+07
1.57546 42.4564 0.00288279 1.71451e-06 6 40.428 1.6326e-06 1.55929e-05 0.65973 2.4763e+07
1.66489 4.07861 0.00340213 1.39563e-07 84 3.97018 1.35853e-07 1.3685e-05 0.856654 2.92241e+07
1.75941 7.14875 0.00401503 2.07277e-07 48 7.00015 2.02968e-07 1.20007e-05 0.829061 3.44889e+07
1.85928 5.64268 0.00473835 1.38634e-07 72 5.65713 1.38989e-07 1.05151e-05 0.949265 4.07021e+07
1.96483 16.4541 0.00559198 3.42547e-07 54 16.063 3.34403e-07 9.20606e-06 2.00928 4.80347e+07
2.07637 13.7985 0.00659939 2.4341e-07 104 13.8983 2.4517e-07 8.05366e-06 3.14325 5.66883e+07
2.19424 7.80869 0.00778828 1.1672e-07 120 7.944 1.18743e-07 7.04008e-06 1.98953 6.69008e+07
2.3188 8.96384 0.00919136 1.13534e-07 156 8.77027 1.11082e-07 6.1494e-06 2.88016 7.89532e+07
2.45043 11.9748 0.0108472 1.28517e-07 126 11.9264 1.27997e-07 5.36741e-06 3.01693 9.31768e+07
2.58954 11.3711 0.0128014 1.03409e-07 192 11.4427 1.0406e-07 4.68145e-06 4.2411 1.09963e+08
2.73654 29.3052 0.0151076 2.25819e-07 152 29.8998 2.304e-07 4.08023e-06 8.41239 1.29773e+08
2.89188 14.6475 0.0178292 9.56405e-08 378 14.7588 9.63671e-08 3.55373e-06 10.173 1.53152e+08
3.05605 14.4106 0.0210412 7.97298e-08 264 14.2675 7.89384e-08 3.09304e-06 6.80517 1.80743e+08
3.22953 15.8077 0.0248319 7.41087e-08 366 15.75 7.38384e-08 2.69025e-06 10.0822 2.13304e+08
3.41286 16.9643 0.0293054 6.73907e-08 428 16.7601 6.65794e-08 2.33837e-06 12.3347 2.51731e+08
3.6066 19.5708 0.0345848 6.58768e-08 486 19.3469 6.51233e-08 2.0312e-06 15.7621 2.97081e+08
3.81134 17.2722 0.0408154 4.92646e-08 600 17.2385 4.91684e-08 1.76327e-06 16.7636 3.50601e+08
4.0277 21.3927 0.0481684 5.17027e-08 738 21.2284 5.13057e-08 1.52972e-06 24.9435 4.13763e+08
4.25634 21.795 0.056846 4.46341e-08 824 21.7772 4.45976e-08 1.32631e-06 27.73 4.88304e+08
4.49796 25.6958 0.067087 4.45896e-08 954 25.5738 4.43779e-08 1.14926e-06 37.014 5.76273e+08
4.7533 25.2493 0.0791729 3.71264e-08 1094 25.0458 3.68271e-08 9.95263e-07 40.8097 6.8009e+08
5.02313 28.0005 0.0934361 3.48867e-08 1332 28.1265 3.50438e-08 8.61414e-07 53.9452 8.0261e+08
5.30828 31.3108 0.110269 3.30561e-08 1614 31.3184 3.30641e-08 7.45152e-07 71.5995 9.47202e+08
5.60962 37.0909 0.130134 3.31808e-08 1850 37.0432 3.3138e-08 6.44232e-07 95.2832 1.11784e+09
5.92807 33.0425 0.153578 2.50469e-08 2238 32.9975 2.50128e-08 5.56685e-07 100.694 1.31923e+09
6.26459 34.1299 0.181246 2.19219e-08 2546 34.1381 2.19271e-08 4.80786e-07 116.087 1.55689e+09
6.62021 37.1908 0.213898 2.02414e-08 3264 37.2527 2.0275e-08 4.15026e-07 159.19 1.83737e+09
6.99602 40.47 0.252432 1.86638e-08 3506 40.5387 1.86954e-08 3.58083e-07 182.738 2.16837e+09
7.39317 44.4456 0.297908 1.73683e-08 4506 44.4443 1.73678e-08 3.08803e-07 253.435 2.55901e+09
7.81286 48.2613 0.351577 1.59804e-08 5018 48.1269 1.59359e-08 2.66181e-07 301.26 3.02002e+09
8.25637 50.9395 0.414914 1.42924e-08 5852 50.9514 1.42958e-08 2.29336e-07 364.702 3.56409e+09
8.72507 53.281 0.489662 1.26673e-08 7362 53.1551 1.26374e-08 1.97503e-07 472.18 4.20617e+09
9.22037 54.9302 0.577876 1.10659e-08 8306 54.7369 1.1027e-08 1.70014e-07 540.622 4.96392e+09
9.74378 59.4209 0.681982 1.01432e-08 9698 59.2964 1.0122e-08 1.46289e-07 672.429 5.85818e+09
10.2969 64.0224 0.804843 9.26043e-09 11816 63.9576 9.25105e-09 1.25822e-07 869.648 6.91355e+09
10.8814 71.4322 0.949838 8.75497e-09 13682 71.2292 8.73009e-09 1.08175e-07 1107.33 8.15905e+09
11.4992 74.932 1.12095 7.78197e-09 16152 74.8572 7.77421e-09 9.29669e-08 1352.03 9.62892e+09
12.1519 76.6645 1.3229 6.7465e-09 19472 76.5083 6.73275e-09 7.98658e-08 1644.86 1.13636e+10
12.8418 81.1546 1.56122 6.05144e-09 22670 80.9622 6.0371e-09 6.85852e-08 2000.23 1.34108e+10
13.5708 87.1482 1.84248 5.50638e-09 26224 86.9844 5.49603e-09 5.88765e-08 2452.58 1.58268e+10
14.3411 90.4348 2.17441 4.84178e-09 31640 90.3378 4.83659e-09 5.05241e-08 3032.09 1.8678e+10
15.1552 97.7356 2.56613 4.43388e-09 37484 97.5428 4.42514e-09 4.33417e-08 3834.64 2.20429e+10
16.0156 104.026 3.02843 3.99885e-09 43856 103.863 3.99257e-09 3.71677e-08 4718.43 2.6014e+10
16.9247 110.784 3.574 3.60854e-09 51362 110.635 3.60369e-09 3.18628e-08 5816.87 3.07005e+10
17.8855 115.332 4.21787 3.18321e-09 61636 115.199 3.17954e-09 2.73063e-08 7185.16 3.62312e+10
18.9008 120.344 4.97773 2.8145e-09 72218 120.067 2.80803e-09 2.33941e-08 8688.4 4.27584e+10
19.9738 129.416 5.87448 2.56465e-09 84586 129.201 2.5604e-09 2.00364e-08 10827 5.04614e+10
21.1076 136.81 6.93279 2.2973e-09 100708 136.591 2.29363e-09 1.71555e-08 13485.9 5.95522e+10
22.3058 145.778 8.18175 2.07423e-09 118712 145.486 2.07007e-09 1.46847e-08 16768.2 7.02807e+10
23.5721 152.986 9.65571 1.84449e-09 140410 152.677 1.84077e-09 1.25662e-08 20609.7 8.29419e+10
24.9102 160.429 11.3952 1.63897e-09 164374 160.089 1.63549e-09 1.07504e-08 25060 9.78842e+10
26.3243 168.209 13.4481 1.45612e-09 194680 167.97 1.45406e-09 9.19452e-09 30831.2 1.15518e+11
27.8187 177.764 15.8708 1.30393e-09 230196 177.502 1.30201e-09 7.86182e-09 38179.4 1.36329e+11
29.3979 187.844 18.73 1.16754e-09 271156 187.516 1.1655e-09 6.72061e-09 47106.6 1.60889e+11
31.0667 198.06 22.1042 1.04311e-09 321076 197.711 1.04128e-09 5.74366e-09 58311 1.89874e+11
32.8303 208.066 26.0864 9.28534e-10 377436 207.665 9.26743e-10 4.90756e-09 71412.7 2.2408e+11
34.694 218.042 30.7859 8.24514e-10 447594 217.626 8.2294e-10 4.19221e-09 88031.8 2.64449e+11
36.6634 229.796 36.3321 7.36315e-10 525078 229.377 7.34972e-10 3.58032e-09 107985 3.1209e+11
38.7447 242.406 42.8774 6.58152e-10 621924 241.973 6.56976e-10 3.05709e-09 133892 3.68314e+11
40.9442 254.13 50.6018 5.84654e-10 732630 253.651 5.83554e-10 2.60976e-09 164128 4.34667e+11
43.2685 267.308 59.7179 5.21095e-10 865596 266.926 5.20351e-10 2.22743e-09 202501 5.12973e+11
45.7247 280.221 70.4762 4.6288e-10 1.02168e+06 279.763 4.62124e-10 1.90073e-09 248806 6.05386e+11
48.3204 293.414 83.1727 4.10686e-10 1.20544e+06 292.865 4.09918e-10 1.62163e-09 305282 7.14448e+11
51.0634 308.073 98.1565 3.6538e-10 1.42103e+06 307.583 3.64799e-10 1.38326e-09 375358 8.43158e+11
53.9621 323.174 115.84 3.2478e-10 1.67997e+06 322.607 3.2421e-10 1.1797e-09 462506 9.95055e+11
57.0254 339.678 136.709 2.89256e-10 1.98018e+06 339.078 2.88745e-10 1.00592e-09 569408 1.17432e+12
60.2626 356.958 161.337 2.57569e-10 2.33957e+06 356.286 2.57084e-10 8.57591e-10 702665 1.38587e+12
63.6835 377.422 190.402 2.30763e-10 2.75676e+06 376.756 2.30356e-10 7.3101e-10 870247 1.63554e+12
67.2987 397.642 224.704 2.06012e-10 3.25638e+06 396.946 2.05651e-10 6.23009e-10 1.0768e+06 1.93019e+12
71.1191 420.033 265.185 1.84393e-10 3.84387e+06 419.263 1.84055e-10 5.30879e-10 1.33511e+06 2.27792e+12
75.1563 444.299 312.958 1.65272e-10 4.53277e+06 443.487 1.6497e-10 4.52303e-10 1.65628e+06 2.68829e+12
79.4227 472.012 369.339 1.48778e-10 5.35083e+06 471.169 1.48512e-10 3.85299e-10 2.06615e+06 3.17259e+12
83.9313 502.564 435.876 1.34227e-10 6.32174e+06 501.575 1.33963e-10 3.28173e-10 2.58567e+06 3.74415e+12
88.6959 537.158 514.4 1.21566e-10 7.44986e+06 536.049 1.21315e-10 2.79476e-10 3.24052e+06 4.41866e+12
93.7309 576.725 607.071 1.10596e-10 8.79764e+06 575.544 1.1037e-10 2.37972e-10 4.08864e+06 5.2147e+12
99.0518 622.88 716.436 1.01213e-10 1.03827e+07 621.542 1.00996e-10 2.02605e-10 5.18677e+06 6.15414e+12
104.675 674.304 845.504 9.28432e-11 1.22515e+07 672.811 9.26376e-11 1.72471e-10 6.59514e+06 7.26283e+12
110.617 737.239 997.824 8.6013e-11 1.44573e+07 735.532 8.5814e-11 1.468e-10 8.47083e+06 8.57124e+12
116.896 809.712 1177.58 8.00477e-11 1.70664e+07 807.782 7.98569e-11 1.24935e-10 1.09347e+07 1.01154e+13
123.532 895.218 1389.73 7.49909e-11 2.0139e+07 892.98 7.48035e-11 1.06313e-10 1.42056e+07 1.19377e+13
130.545 996.746 1640.09 7.075e-11 2.37643e+07 994.185 7.05682e-11 9.04567e-11 1.8587e+07 1.40883e+13
137.955 1117.69 1935.56 6.72243e-11 2.80503e+07 1114.71 6.70451e-11 7.69563e-11 2.4503e+07 1.66263e+13
145.787 1260.87 2284.26 6.4259e-11 3.30981e+07 1257.4 6.40822e-11 6.54636e-11 3.24891e+07 1.96216e+13
154.063 1430.5 2695.77 6.17754e-11 3.90634e+07 1426.47 6.16013e-11 5.56812e-11 4.33389e+07 2.31565e+13
162.808 1633.91 3181.42 5.97883e-11 4.61057e+07 1629.15 5.96142e-11 4.73556e-11 5.82102e+07 2.73282e+13
172.051 1875.25 3754.56 5.81448e-11 5.44046e+07 1869.64 5.79707e-11 4.02708e-11 7.85517e+07 3.22515e+13
181.818 2163.55 4430.96 5.68432e-11 6.42064e+07 2156.95 5.667e-11 3.42426e-11 1.06584e+08 3.80616e+13
192.139 2506.6 5229.21 5.58032e-11 7.57748e+07 2498.77 5.5629e-11 2.91139e-11 1.45239e+08 4.49186e+13
203.046 2915.72 6171.26 5.50024e-11 8.94213e+07 2906.49 5.48284e-11 2.4751e-11 1.98714e+08 5.30108e+13
214.572 3404.83 7283.03 5.44244e-11 1.05538e+08 3393.88 5.42493e-11 2.10401e-11 2.72996e+08 6.25608e+13
226.753 3990.39 8595.09 5.40474e-11 1.24552e+08 3977.32 5.38704e-11 1.78839e-11 3.7641e+08 7.38313e+13
239.625 4693.63 10143.5 5.3868e-11 1.46987e+08 4678.09 5.36896e-11 1.51999e-11 5.20918e+08 8.71322e+13
253.228 5538.07 11970.9 5.3857e-11 1.7347e+08 5519.46 5.36759e-11 1.29176e-11 7.23242e+08 1.02829e+14
267.603 6560.46 14127.5 5.40604e-11 2.04703e+08 6538.04 5.38756e-11 1.09771e-11 1.00812e+09 1.21354e+14
282.795 7802.98 16672.6 5.44838e-11 2.4161e+08 7775.81 5.42941e-11 9.3274e-12 1.41131e+09 1.43217e+14
298.848 9329.04 19676.2 5.51957e-11 2.85122e+08 9295.84 5.49993e-11 7.925e-12 1.98581e+09 1.69017e+14
315.813 11222.9 23220.9 5.62644e-11 3.36491e+08 11181.8 5.60585e-11 6.73295e-12 2.81191e+09 1.99466e+14
333.741 13616.4 27404.3 5.78434e-11 3.97115e+08 13564.8 5.76243e-11 5.71979e-12 4.01596e+09 2.35401e+14
352.686 16709.2 32341.2 6.01464e-11 4.68637e+08 16642.8 5.99073e-11 4.85874e-12 5.80126e+09 2.77809e+14
372.707 20825.5 38167.6 6.352e-11 5.53074e+08 20737.6 6.3252e-11 4.12703e-12 8.51248e+09 3.27857e+14
393.865 26515.6 45043.5 6.85297e-11 6.52716e+08 26394.9 6.82178e-11 3.50528e-12 1.27609e+10 3.86921e+14
416.224 31307.5 53158.3 6.85627e-11 2.2184e+08 33120.4 7.25329e-11 2.97701e-12 5.10913e+09 4.56626e+14
439.852 0 62734.9 0 0 0 0 2.52819e-12 0 5.38888e+14
464.821 0 74036.7 0 0 0 0 2.1469e-12 0 6.35971e+14
491.207 0 87374.6 0 0 0 0 1.82301e-12 0 7.50542e+14
519.092 0 103115 0 0 0 0 1.54789e-12 0 8.85755e+14
548.56 0 121692 0 0 0 0 1.31422e-12 0 1.04533e+15
579.7 0 143615 0 0 0 0 1.11576e-12 0 1.23364e+15
612.608 0 169488 0 0 0 0 9.47223e-13 0 1.45589e+15
647.384 0 200021 0 0 0 0 8.041e-13 0 1.71817e+15
684.134 0 236056 0 0 0 0 6.82568e-13 0 2.0277e+15
722.971 0 278582 0 0 0 0 5.79376e-13 0 2.393e+15
764.012 0 328769 0 0 0 0 4.91762e-13 0 2.8241e+15
0.822379
200
1.0655e+09
8589934592
0.0129181 0.0014368 1.58924e-09 0.000105249 6 0.00142365 0.000104285 0.00677225 0.0932471 13.6515
0.0136515 0 1.87554e-09 0 0 0 0 0.00688819 0 16.1108
0.0144264 0 2.21343e-09 0 0 0 0 0.00699249 0 19.0132
0.0152454 0 2.61218e-09 0 0 0 0 0.00708412 0 22.4385
0.0161108 0 3.08278e-09 0 0 0 0 0.00716212 0 26.4808
0.0170254 0 3.63815e-09 0 0 0 0 0.00722559 0 31.2514
0.0179919 0.0032033 4.29357e-09 8.6854e-05 12 0.00319918 8.67421e-05 0.00727371 0.14329 36.8815
0.0190132 0 5.06707e-09 0 0 0 0 0.00730578 0 43.5258
0.0200925 0 5.97991e-09 0 0 0 0 0.00732122 0 51.367
0.0212331 0.00303525 7.05721e-09 5.00693e-05 8 0.00303261 5.00257e-05 0.00731958 0.0547237 60.621
0.0224385 0 8.32858e-09 0 0 0 0 0.00730056 0 71.542
0.0237123 0 9.829e-09 0 0 0 0 0.00726401 0 84.4305
0.0250583 0.0191822 1.15997e-08 0.000192513 6 0.0191732 0.000192423 0.00720995 0.160206 99.6408
0.0264808 0 1.36894e-08 0 0 0 0 0.00713857 0 117.591
0.0279841 0.0118235 1.61556e-08 8.51983e-05 24 0.0118113 8.51108e-05 0.00705021 0.290028 138.776
0.0295727 0 1.90661e-08 0 0 0 0 0.00694538 0 163.777
0.0312514 0.0210149 2.25009e-08 0.000108727 24 0.0211216 0.000109279 0.00682475 0.38235 193.281
0.0330255 0 2.65545e-08 0 0 0 0 0.00668915 0 228.102
0.0349003 0.031667 3.13384e-08 0.000117636 12 0.0314135 0.000116694 0.00653951 0.215862 269.195
0.0368815 0.0255431 3.69841e-08 8.04023e-05 30 0.0252711 7.95462e-05 0.00637693 0.37825 317.691
0.0389751 0.029078 4.36469e-08 7.75572e-05 24 0.0287789 7.67594e-05 0.00620256 0.300098 374.924
0.0411876 0.0186323 5.151e-08 4.21099e-05 24 0.0185057 4.18239e-05 0.00601767 0.167945 442.467
0.0435258 0.0456202 6.07896e-08 8.73651e-05 8 0.0456167 8.73584e-05 0.00582358 0.120016 522.179
0.0459966 0.056137 7.1741e-08 9.10943e-05 72 0.0556941 9.03758e-05 0.00562166 1.1667 616.251
0.0486077 0 8.46654e-08 0 0 0 0 0.0054133 0 727.27
0.051367 0.0776779 9.99181e-08 9.05031e-05 54 0.0774214 9.02043e-05 0.00519989 0.93986 858.29
0.054283 0.0625413 1.17919e-07 6.1744e-05 60 0.0628231 6.20222e-05 0.0049828 0.743485 1012.91
0.0573645 0.0587839 1.39162e-07 4.91754e-05 96 0.0586331 4.90493e-05 0.00476339 0.991068 1195.39
0.060621 0.0696606 1.64232e-07 4.93786e-05 24 0.0687168 4.87096e-05 0.00454293 0.260864 1410.75
0.0640622 0.120161 1.93819e-07 7.21734e-05 134 0.120218 7.22074e-05 0.00432265 2.23734 1664.89
0.0676989 0.117371 2.28736e-07 5.97359e-05 120 0.116801 5.94461e-05 0.00410371 1.74679 1964.83
0.071542 0.110205 2.69944e-07 4.75267e-05 108 0.10899 4.70028e-05 0.00388717 1.32047 2318.8
0.0756032 0.163021 3.18575e-07 5.95719e-05 174 0.162119 5.92426e-05 0.00367401 2.82131 2736.54
0.079895 0.170826 3.75967e-07 5.2895e-05 168 0.169221 5.2398e-05 0.0034651 2.56453 3229.53
0.0844305 0.142749 4.43698e-07 3.74538e-05 168 0.143458 3.76398e-05 0.00326121 1.92942 3811.34
0.0892234 0.169524 5.23632e-07 3.76891e-05 290 0.168739 3.75145e-05 0.00306301 3.56832 4497.96
0.0942883 0.20662 6.17966e-07 3.89241e-05 288 0.206166 3.88386e-05 0.00287109 3.90449 5308.28
0.0996408 0.184728 7.29294e-07 2.94877e-05 366 0.183296 2.92591e-05 0.00268591 4.01819 6264.59
0.105297 0.215608 8.60678e-07 2.91631e-05 420 0.214076 2.89559e-05 0.00250785 4.88406 7393.17
0.111275 0.23075 1.01573e-06 2.64468e-05 398 0.230086 2.63707e-05 0.00233721 4.50357 8725.07
0.117591 0.274582 1.19872e-06 2.66664e-05 624 0.275315 2.67377e-05 0.00217419 7.65334 10296.9
0.124267 0.317617 1.41467e-06 2.61371e-05 642 0.316925 2.60802e-05 0.00201893 8.31137 12151.9
0.131321 0.378678 1.66953e-06 2.64051e-05 800 0.378783 2.64123e-05 0.00187147 11.2874 14341.1
0.138776 0.347321 1.9703e-06 2.05215e-05 858 0.348823 2.06103e-05 0.00173182 10.167 16924.7
0.146654 0.401383 2.32525e-06 2.00955e-05 1080 0.404733 2.02632e-05 0.00159991 13.5652 19973.8
0.154979 0.469128 2.74415e-06 1.99018e-05 1286 0.472114 2.00285e-05 0.00147563 17.3442 23572.1
0.163777 0.456266 3.23852e-06 1.64014e-05 1650 0.457528 1.64468e-05 0.00135884 19.9158 27818.7
0.173074 0.512935 3.82195e-06 1.56239e-05 1778 0.513284 1.56345e-05 0.00124933 22.2353 32830.3
0.182899 0.543177 4.51048e-06 1.40194e-05 2112 0.544474 1.40529e-05 0.00114689 25.8167 38744.7
0.193281 0.60323 5.32305e-06 1.31927e-05 2570 0.60375 1.3204e-05 0.00105127 32.2515 45724.7
0.204254 0.706887 6.28202e-06 1.30997e-05 3030 0.706442 1.30914e-05 0.000962209 41.251 53962.1
0.215848 0.73163 7.41374e-06 1.14885e-05 3434 0.731335 1.14839e-05 0.000879423 44.8608 63683.5
0.228102 0.77482 8.74934e-06 1.03095e-05 4218 0.774454 1.03046e-05 0.000802624 54.1789 75156.3
0.24105 0.863087 1.03256e-05 9.73086e-06 4766 0.863612 9.73678e-06 0.000731515 63.3989 88695.9
0.254734 0.941862 1.21857e-05 8.99799e-06 6026 0.941843 8.99781e-06 0.000665798 81.439 104675
0.269195 1.06518 1.4381e-05 8.62273e-06 6480 1.06423 8.61499e-06 0.000605173 92.3294 123532
0.284476 1.15176 1.69718e-05 7.90028e-06 8162 1.15393 7.91519e-06 0.000549345 117.38 145787
0.300625 1.26233 2.00293e-05 7.33696e-06 9578 1.26301 7.34092e-06 0.000498021 141.105 172051
0.317691 1.39278 2.36377e-05 6.85942e-06 11234 1.39136 6.85245e-06 0.000450916 170.894 203046
0.335725 1.50285 2.78961e-05 6.27165e-06 13344 1.50006 6.26001e-06 0.000407755 205.243 239625
0.354784 1.67841 3.29216e-05 5.9351e-06 15464 1.67726 5.93103e-06 0.000368269 249.221 282795
0.374924 1.8017 3.88525e-05 5.3985e-06 18458 1.80021 5.39403e-06 0.000332202 299.955 333741
0.396207 2.07692 4.58519e-05 5.27317e-06 22232 2.0739 5.26551e-06 0.000299307 391.682 393865
0.418699 2.22672 5.41123e-05 4.7905e-06 25628 2.22132 4.77888e-06 0.00026935 455.805 464821
0.442467 2.42417 6.38607e-05 4.41916e-06 30320 2.41995 4.41146e-06 0.000242108 553.427 548560
0.467585 2.73663 7.53654e-05 4.22722e-06 35452 2.73176 4.21969e-06 0.00021737 689.438 647384
0.494129 3.01616 8.89427e-05 3.9478e-06 41792 3.01297 3.94362e-06 0.000194938 846.352 764012
0.522179 3.38983 0.000104966 3.75958e-06 49988 3.38953 3.75925e-06 0.000174625 1076.22 901651
0.551822 3.75473 0.000123876 3.5286e-06 59110 3.74963 3.5238e-06 0.000156255 1334.84 1.06409e+06
0.583147 4.16367 0.000146192 3.31559e-06 69716 4.15656 3.30993e-06 0.000139664 1655.04 1.25578e+06
0.616251 4.62783 0.000172529 3.12266e-06 82210 4.61863 3.11645e-06 0.0001247 2058.65 1.48202e+06
0.651234 5.11924 0.000203611 2.92694e-06 96722 5.10746 2.92021e-06 0.00011122 2545.39 1.74901e+06
0.688203 5.79 0.000240292 2.8051e-06 113098 5.78082 2.80066e-06 9.90935e-05 3201.54 2.06409e+06
0.72727 6.43133 0.000283581 2.64018e-06 135190 6.42206 2.63637e-06 8.81969e-05 4046.92 2.43595e+06
0.768555 7.17396 0.000334669 2.49547e-06 158170 7.16413 2.49205e-06 7.84179e-05 5033.41 2.87479e+06
0.812184 8.01985 0.000394961 2.36386e-06 188560 8.00589 2.35975e-06 6.96525e-05 6399.33 3.39269e+06
0.85829 8.94834 0.000466114 2.23491e-06 220444 8.93359 2.23123e-06 6.1805e-05 7971.4 4.00389e+06
0.907013 9.99258 0.000550086 2.11474e-06 261388 9.9757 2.11117e-06 5.47875e-05 10089.3 4.7252e+06
0.958501 11.1657 0.000649185 2.00229e-06 308244 11.1494 1.99937e-06 4.85194e-05 12720.6 5.57646e+06
1.01291 12.5193 0.000766138 1.90232e-06 364396 12.4981 1.89909e-06 4.29272e-05 16148.2 6.58107e+06
1.07041 13.9008 0.00090416 1.7898e-06 429162 13.8751 1.78649e-06 3.79435e-05 20243.6 7.76667e+06
1.13118 15.5307 0.00106705 1.69441e-06 506358 15.5041 1.69151e-06 3.3507e-05 25606 9.16586e+06
1.19539 17.3817 0.00125928 1.60687e-06 598590 17.3497 1.60391e-06 2.9562e-05 32536.9 1.08171e+07
1.26325 19.3537 0.00148614 1.51606e-06 704844 19.3168 1.51316e-06 2.60578e-05 41008.1 1.27658e+07
1.33496 21.5227 0.00175387 1.42859e-06 834620 21.4789 1.42569e-06 2.29484e-05 51957 1.50656e+07
1.41075 23.8631 0.00206984 1.34215e-06 981444 23.816 1.3395e-06 2.01923e-05 65235 1.77798e+07
1.49083 26.514 0.00244272 1.26361e-06 1.15998e+06 26.4654 1.26129e-06 1.77518e-05 82569.4 2.09828e+07
1.57546 29.4144 0.00288279 1.18784e-06 1.36931e+06 29.3603 1.18565e-06 1.55929e-05 104312 2.4763e+07
1.66489 32.6033 0.00340213 1.11563e-06 1.61652e+06 32.5415 1.11352e-06 1.3685e-05 131782 2.92241e+07
1.75941 35.9419 0.00401503 1.04213e-06 1.90601e+06 35.8756 1.04021e-06 1.20007e-05 165516 3.44889e+07
1.85928 39.5723 0.00473835 9.72242e-07 2.24913e+06 39.4987 9.70434e-07 1.05151e-05 207958 4.07021e+07
1.96483 43.3934 0.00559198 9.03375e-07 2.65744e+06 43.3098 9.01636e-07 9.20606e-06 260770 4.80347e+07
2.07637 47.576 0.00659939 8.39255e-07 3.13125e+06 47.485 8.37651e-07 8.05366e-06 326301 5.66883e+07
2.19424 52.0207 0.00778828 7.7758e-07 3.69915e+06 51.9241 7.76136e-07 7.04008e-06 408573 6.69008e+07
2.3188 56.7145 0.00919136 7.18331e-07 4.36472e+06 56.6116 7.17028e-07 6.1494e-06 509857 7.89532e+07
2.45043 61.8577 0.0108472 6.63874e-07 5.14913e+06 61.7506 6.62725e-07 5.36741e-06 636876 9.31768e+07
2.58954 67.1874 0.0128014 6.11e-07 6.07894e+06 67.0677 6.09912e-07 4.68145e-06 793393 1.09963e+08
2.73654 72.8743 0.0151076 5.61552e-07 7.17304e+06 72.7492 5.60588e-07 4.08023e-06 987207 1.29773e+08
2.89188 78.8381 0.0178292 5.1477e-07 8.46557e+06 78.7035 5.13891e-07 3.55373e-06 1.22627e+06 1.53152e+08
3.05605 85.0944 0.0210412 4.70804e-07 9.98773e+06 84.9504 4.70007e-07 3.09304e-06 1.52027e+06 1.80743e+08
3.22953 91.6006 0.0248319 4.29437e-07 1.1797e+07 91.4469 4.28716e-07 2.69025e-06 1.88312e+06 2.13304e+08
3.41286 98.486 0.0293054 3.91235e-07 1.39144e+07 98.3171 3.90564e-07 2.33837e-06 2.32802e+06 2.51731e+08
3.6066 105.898 0.0345848 3.56461e-07 1.64163e+07 105.72 3.55861e-07 2.0312e-06 2.88094e+06 2.97081e+08
3.81134 113.666 0.0408154 3.24202e-07 1.93821e+07 113.474 3.23655e-07 1.76327e-06 3.56369e+06 3.50601e+08
4.0277 121.785 0.0481684 2.94334e-07 2.28754e+07 121.58 2.9384e-07 1.52972e-06 4.40146e+06 4.13763e+08
4.25634 130.346 0.056846 2.66937e-07 2.69929e+07 130.125 2.66485e-07 1.32631e-06 5.43268e+06 4.88304e+08
4.49796 139.253 0.067087 2.41644e-07 3.18542e+07 139.017 2.41235e-07 1.14926e-06 6.69771e+06 5.76273e+08
4.7533 148.638 0.0791729 2.18556e-07 3.75892e+07 148.388 2.18189e-07 9.95263e-07 8.25446e+06 6.8009e+08
5.02313 158.483 0.0934361 1.97459e-07 4.43706e+07 158.222 1.97134e-07 8.61414e-07 1.01709e+07 8.0261e+08
5.30828 168.752 0.110269 1.78159e-07 5.23593e+07 168.471 1.77862e-07 7.45152e-07 1.25186e+07 9.47202e+08
5.60962 179.464 0.130134 1.60545e-07 6.1787e+07 179.167 1.6028e-07 6.44232e-07 1.53975e+07 1.11784e+09
5.92807 190.859 0.153578 1.44675e-07 7.29346e+07 190.541 1.44434e-07 5.56685e-07 1.89547e+07 1.31923e+09
6.26459 202.715 0.181246 1.30205e-07 8.60651e+07 202.378 1.29989e-07 4.80786e-07 2.33079e+07 1.55689e+09
6.62021 215.158 0.213898 1.17101e-07 1.01558e+08 214.8 1.16907e-07 4.15026e-07 2.86551e+07 1.83737e+09
6.99602 228.205 0.252432 1.05243e-07 1.1986e+08 227.832 1.05071e-07 3.58083e-07 3.52275e+07 2.16837e+09
7.39317 241.712 0.297908 9.44555e-08 1.41457e+08 241.315 9.43002e-08 3.08803e-07 4.32682e+07 2.55901e+09
7.81286 255.873 0.351577 8.47257e-08 1.66936e+08 255.453 8.45864e-08 2.66181e-07 5.31358e+07 3.02002e+09
8.25637 270.9 0.414914 7.60083e-08 1.97025e+08 270.452 7.58825e-08 2.29336e-07 6.52996e+07 3.56409e+09
8.72507 286.873 0.489662 6.82029e-08 2.32497e+08 286.398 6.80899e-08 1.97503e-07 8.02872e+07 4.20617e+09
9.22037 303.691 0.577876 6.11796e-08 2.74404e+08 303.184 6.10776e-08 1.70014e-07 9.87444e+07 4.96392e+09
9.74378 322.168 0.681982 5.49945e-08 3.2382e+08 321.615 5.49002e-08 1.46289e-07 1.21734e+08 5.85818e+09
10.2969 343.144 0.804843 4.96335e-08 3.82165e+08 342.53 4.95447e-08 1.25822e-07 1.50754e+08 6.91355e+09
10.8814 367.866 0.949838 4.50869e-08 4.51027e+08 367.166 4.50011e-08 1.08175e-07 1.87985e+08 8.15905e+09
11.4992 399.268 1.12095 4.14655e-08 5.32251e+08 398.424 4.13778e-08 9.29669e-08 2.37397e+08 9.62892e+09
12.1519 443.544 1.3229 3.9032e-08 6.28157e+08 442.433 3.89342e-08 7.98658e-08 3.06993e+08 1.13636e+10
12.8418 493.319 1.56122 3.67852e-08 3.82727e+08 510.602 3.8074e-08 6.85852e-08 2.05273e+08 1.34108e+10
13.5708 0 1.84248 0 0 0 0 5.88765e-08 0 1.58268e+10
14.3411 0 2.17441 0 0 0 0 5.05241e-08 0 1.8678e+10
15.1552 0 2.56613 0 0 0 0 4.33417e-08 0 2.20429e+10
16.0156 0 3.02843 0 0 0 0 3.71677e-08 0 2.6014e+10
16.9247 0 3.574 0 0 0 0 3.18628e-08 0 3.07005e+10
17.8855 0 4.21787 0 0 0 0 2.73063e-08 0 3.62312e+10
18.9008 0 4.97773 0 0 0 0 2.33941e-08 0 4.27584e+10
19.9738 0 5.87448 0 0 0 0 2.00364e-08 0 5.04614e+10
21.1076 0 6.93279 0 0 0 0 1.71555e-08 0 5.95522e+10
22.3058 0 8.18175 0 0 0 0 1.46847e-08 0 7.02807e+10
23.5721 0 9.65571 0 0 0 0 1.25662e-08 0 8.29419e+10
24.9102 0 11.3952 0 0 0 0 1.07504e-08 0 9.78842e+10
26.3243 0 13.4481 0 0 0 0 9.19452e-09 0 1.15518e+11
27.8187 0 15.8708 0 0 0 0 7.86182e-09 0 1.36329e+11
29.3979 0 18.73 0 0 0 0 6.72061e-09 0 1.60889e+11
31.0667 0 22.1042 0 0 0 0 5.74366e-09 0 1.89874e+11
32.8303 0 26.0864 0 0 0 0 4.90756e-09 0 2.2408e+11
34.694 0 30.7859 0 0 0 0 4.19221e-09 0 2.64449e+11
36.6634 0 36.3321 0 0 0 0 3.58032e-09 0 3.1209e+11
38.7447 0 42.8774 0 0 0 0 3.05709e-09 0 3.68314e+11
40.9442 0 50.6018 0 0 0 0 2.60976e-09 0 4.34667e+11
43.2685 0 59.7179 0 0 0 0 2.22743e-09 0 5.12973e+11
45.7247 0 70.4762 0 0 0 0 1.90073e-09 0 6.05386e+11
48.3204 0 83.1727 0 0 0 0 1.62163e-09 0 7.14448e+11
51.0634 0 98.1565 0 0 0 0 1.38326e-09 0 8.43158e+11
53.9621 0 115.84 0 0 0 0 1.1797e-09 0 9.95055e+11
57.0254 0 136.709 0 0 0 0 1.00592e-09 0 1.17432e+12
60.2626 0 161.337 0 0 0 0 8.57591e-10 0 1.38587e+12
63.6835 0 190.402 0 0 0 0 7.3101e-10 0 1.63554e+12
67.2987 0 224.704 0 0 0 0 6.23009e-10 0 1.93019e+12
71.1191 0 265.185 0 0 0 0 5.30879e-10 0 2.27792e+12
75.1563 0 312.958 0 0 0 0 4.52303e-10 0 2.68829e+12
79.4227 0 369.339 0 0 0 0 3.85299e-10 0 3.17259e+12
83.9313 0 435.876 0 0 0 0 3.28173e-10 0 3.74415e+12
88.6959 0 514.4 0 0 0 0 2.79476e-10 0 4.41866e+12
93.7309 0 607.071 0 0 0 0 2.37972e-10 0 5.2147e+12
99.0518 0 716.436 0 0 0 0 2.02605e-10 0 6.15414e+12
104.675 0 845.504 0 0 0 0 1.72471e-10 0 7.26283e+12
110.617 0 997.824 0 0 0 0 1.468e-10 0 8.57124e+12
116.896 0 1177.58 0 0 0 0 1.24935e-10 0 1.01154e+13
123.532 0 1389.73 0 0 0 0 1.06313e-10 0 1.19377e+13
130.545 0 1640.09 0 0 0 0 9.04567e-11 0 1.40883e+13
137.955 0 1935.56 0 0 0 0 7.69563e-11 0 1.66263e+13
145.787 0 2284.26 0 0 0 0 6.54636e-11 0 1.96216e+13
154.063 0 2695.77 0 0 0 0 5.56812e-11 0 2.31565e+13
162.808 0 3181.42 0 0 0 0 4.73556e-11 0 2.73282e+13
172.051 0 3754.56 0 0 0 0 4.02708e-11 0 3.22515e+13
181.818 0 4430.96 0 0 0 0 3.42426e-11 0 3.80616e+13
192.139 0 5229.21 0 0 0 0 2.91139e-11 0 4.49186e+13
203.046 0 6171.26 0 0 0 0 2.4751e-11 0 5.30108e+13
214.572 0 7283.03 0 0 0 0 2.10401e-11 0 6.25608e+13
226.753 0 8595.09 0 0 0 0 1.78839e-11 0 7.38313e+13
239.625 0 10143.5 0 0 0 0 1.51999e-11 0 8.71322e+13
253.228 0 11970.9 0 0 0 0 1.29176e-11 0 1.02829e+14
267.603 0 14127.5 0 0 0 0 1.09771e-11 0 1.21354e+14
282.795 0 16672.6 0 0 0 0 9.3274e-12 0 1.43217e+14
298.848 0 19676.2 0 0 0 0 7.925e-12 0 1.69017e+14
315.813 0 23220.9 0 0 0 0 6.73295e-12 0 1.99466e+14
333.741 0 27404.3 0 0 0 0 5.71979e-12 0 2.35401e+14
352.686 0 32341.2 0 0 0 0 4.85874e-12 0 2.77809e+14
372.707 0 38167.6 0 0 0 0 4.12703e-12 0 3.27857e+14
393.865 0 45043.5 0 0 0 0 3.50528e-12 0 3.86921e+14
416.224 0 53158.3 0 0 0 0 2.97701e-12 0 4.56626e+14
439.852 0 62734.9 0 0 0 0 2.52819e-12 0 5.38888e+14
464.821 0 74036.7 0 0 0 0 2.1469e-12 0 6.35971e+14
491.207 0 87374.6 0 0 0 0 1.82301e-12 0 7.50542e+14
519.092 0 103115 0 0 0 0 1.54789e-12 0 8.85755e+14
548.56 0 121692 0 0 0 0 1.31422e-12 0 1.04533e+15
579.7 0 143615 0 0 0 0 1.11576e-12 0 1.23364e+15
612.608 0 169488 0 0 0 0 9.47223e-13 0 1.45589e+15
647.384 0 200021 0 0 0 0 8.041e-13 0 1.71817e+15
684.134 0 236056 0 0 0 0 6.82568e-13 0 2.0277e+15
722.971 0 278582 0 0 0 0 5.79376e-13 0 2.393e+15
764.012 0 328769 0 0 0 0 4.91762e-13 0 2.8241e+15
