0.0658696
200
1.0655e+09
8589934592
0.0129181 0 1.58924e-09 0 0 0 0 0.00677225 0 13.6515
0.0136515 0 1.87554e-09 0 0 0 0 0.00688819 0 16.1108
0.0144264 0 2.21343e-09 0 0 0 0 0.00699249 0 19.0132
0.0152454 0 2.61218e-09 0 0 0 0 0.00708412 0 22.4385
0.0161108 0 3.08278e-09 0 0 0 0 0.00716212 0 26.4808
0.0170254 0 3.63815e-09 0 0 0 0 0.00722559 0 31.2514
0.0179919 0 4.29357e-09 0 0 0 0 0.00727371 0 36.8815
0.0190132 0 5.06707e-09 0 0 0 0 0.00730578 0 43.5258
0.0200925 0 5.97991e-09 0 0 0 0 0.00732122 0 51.367
0.0212331 0 7.05721e-09 0 0 0 0 0.00731958 0 60.621
0.0224385 0 8.32858e-09 0 0 0 0 0.00730056 0 71.542
0.0237123 0 9.829e-09 0 0 0 0 0.00726401 0 84.4305
0.0250583 0 1.15997e-08 0 0 0 0 0.00720995 0 99.6408
0.0264808 0 1.36894e-08 0 0 0 0 0.00713857 0 117.591
0.0279841 0 1.61556e-08 0 0 0 0 0.00705021 0 138.776
0.0295727 0 1.90661e-08 0 0 0 0 0.00694538 0 163.777
0.0312514 0 2.25009e-08 0 0 0 0 0.00682475 0 193.281
0.0330255 0 2.65545e-08 0 0 0 0 0.00668915 0 228.102
0.0349003 0 3.13384e-08 0 0 0 0 0.00653951 0 269.195
0.0368815 0 3.69841e-08 0 0 0 0 0.00637693 0 317.691
0.0389751 0 4.36469e-08 0 0 0 0 0.00620256 0 374.924
0.0411876 0 5.151e-08 0 0 0 0 0.00601767 0 442.467
0.0435258 0 6.07896e-08 0 0 0 0 0.00582358 0 522.179
0.0459966 0 7.1741e-08 0 0 0 0 0.00562166 0 616.251
0.0486077 0 8.46654e-08 0 0 0 0 0.0054133 0 727.27
0.051367 0 9.99181e-08 0 0 0 0 0.00519989 0 858.29
0.054283 0 1.17919e-07 0 0 0 0 0.0049828 0 1012.91
0.0573645 0 1.39162e-07 0 0 0 0 0.00476339 0 1195.39
0.060621 0 1.64232e-07 0 0 0 0 0.00454293 0 1410.75
0.0640622 0 1.93819e-07 0 0 0 0 0.00432265 0 1664.89
0.0676989 0 2.28736e-07 0 0 0 0 0.00410371 0 1964.83
0.071542 0 2.69944e-07 0 0 0 0 0.00388717 0 2318.8
0.0756032 0 3.18575e-07 0 0 0 0 0.00367401 0 2736.54
0.079895 0 3.75967e-07 0 0 0 0 0.0034651 0 3229.53
0.0844305 0 4.43698e-07 0 0 0 0 0.00326121 0 3811.34
0.0892234 0 5.23632e-07 0 0 0 0 0.00306301 0 4497.96
0.0942883 0 6.17966e-07 0 0 0 0 0.00287109 0 5308.28
0.0996408 0 7.29294e-07 0 0 0 0 0.00268591 0 6264.59
0.105297 0 8.60678e-07 0 0 0 0 0.00250785 0 7393.17
0.111275 0 1.01573e-06 0 0 0 0 0.00233721 0 8725.07
0.117591 0 1.19872e-06 0 0 0 0 0.00217419 0 10296.9
0.124267 0 1.41467e-06 0 0 0 0 0.00201893 0 12151.9
0.131321 0 1.66953e-06 0 0 0 0 0.00187147 0 14341.1
0.138776 0 1.9703e-06 0 0 0 0 0.00173182 0 16924.7
0.146654 0 2.32525e-06 0 0 0 0 0.00159991 0 19973.8
0.154979 0 2.74415e-06 0 0 0 0 0.00147563 0 23572.1
0.163777 0 3.23852e-06 0 0 0 0 0.00135884 0 27818.7
0.173074 0 3.82195e-06 0 0 0 0 0.00124933 0 32830.3
0.182899 0 4.51048e-06 0 0 0 0 0.00114689 0 38744.7
0.193281 0 5.32305e-06 0 0 0 0 0.00105127 0 45724.7
0.204254 0 6.28202e-06 0 0 0 0 0.000962209 0 53962.1
0.215848 0 7.41374e-06 0 0 0 0 0.000879423 0 63683.5
0.228102 0 8.74934e-06 0 0 0 0 0.000802624 0 75156.3
0.24105 0 1.03256e-05 0 0 0 0 0.000731515 0 88695.9
0.254734 0 1.21857e-05 0 0 0 0 0.000665798 0 104675
0.269195 0 1.4381e-05 0 0 0 0 0.000605173 0 123532
0.284476 0 1.69718e-05 0 0 0 0 0.000549345 0 145787
0.300625 0 2.00293e-05 0 0 0 0 0.000498021 0 172051
0.317691 0 2.36377e-05 0 0 0 0 0.000450916 0 203046
0.335725 0 2.78961e-05 0 0 0 0 0.000407755 0 239625
0.354784 0 3.29216e-05 0 0 0 0 0.000368269 0 282795
0.374924 0 3.88525e-05 0 0 0 0 0.000332202 0 333741
0.396207 0.257188 4.58519e-05 6.52985e-07 6 0.250038 6.34831e-07 0.000299307 0.0130899 393865
0.418699 0 5.41123e-05 0 0 0 0 0.00026935 0 464821
0.442467 0 6.38607e-05 0 0 0 0 0.000242108 0 548560
0.467585 0 7.53654e-05 0 0 0 0 0.00021737 0 647384
0.494129 0 8.89427e-05 0 0 0 0 0.000194938 0 764012
0.522179 0 0.000104966 0 0 0 0 0.000174625 0 901651
0.551822 0 0.000123876 0 0 0 0 0.000156255 0 1.06409e+06
0.583147 5.44189 0.000146192 4.33346e-06 12 5.72762 4.56099e-06 0.000139664 0.372333 1.25578e+06
0.616251 0 0.000172529 0 0 0 0 0.0001247 0 1.48202e+06
0.651234 0 0.000203611 0 0 0 0 0.00011122 0 1.74901e+06
0.688203 23.9743 0.000240292 1.16149e-05 8 23.3778 1.13259e-05 9.90935e-05 0.937693 2.06409e+06
0.72727 0 0.000283581 0 0 0 0 8.81969e-05 0 2.43595e+06
0.768555 0 0.000334669 0 0 0 0 7.84179e-05 0 2.87479e+06
0.812184 0.0627725 0.000394961 1.85023e-08 6 0.0641146 1.88979e-08 6.96525e-05 0.00159382 3.39269e+06
0.85829 0 0.000466114 0 0 0 0 6.1805e-05 0 4.00389e+06
0.907013 0.241483 0.000550086 5.11054e-08 24 0.246117 5.2086e-08 5.47875e-05 0.022387 4.7252e+06
0.958501 0.815023 0.000649185 1.46154e-07 24 0.767284 1.37593e-07 4.85194e-05 0.0722948 5.57646e+06
1.01291 0 0.000766138 0 0 0 0 4.29272e-05 0 6.58107e+06
1.07041 0 0.00090416 0 0 0 0 3.79435e-05 0 7.76667e+06
1.13118 1.08853 0.00106705 1.1876e-07 12 1.07516 1.17301e-07 3.3507e-05 0.0425318 9.16586e+06
1.19539 0.429562 0.00125928 3.97113e-08 30 0.420706 3.88927e-08 2.9562e-05 0.0402997 1.08171e+07
1.26325 6.59471 0.00148614 5.1659e-07 24 6.49548 5.08817e-07 2.60578e-05 0.475794 1.27658e+07
1.33496 18.1219 0.00175387 1.20286e-06 24 18.1617 1.20551e-06 2.29484e-05 1.25798 1.50656e+07
1.41075 5.69527 0.00206984 3.20323e-07 32 5.85888 3.29525e-07 2.01923e-05 0.507636 1.77798e+07
1.49083 0.329752 0.00244272 1.57153e-08 48 0.322722 1.53803e-08 1.77518e-05 0.0424936 2.09828e+07
1.57546 0.0302278 0.00288279 1.22068e-09 6 0.0287836 1.16237e-09 1.55929e-05 0.000469709 2.4763e+07
1.66489 0.417693 0.00340213 1.42928e-08 84 0.402635 1.37775e-08 1.3685e-05 0.0877305 2.92241e+07
1.75941 2.22223 0.00401503 6.44333e-08 48 2.24074 6.49701e-08 1.20007e-05 0.257719 3.44889e+07
1.85928 0.164512 0.00473835 4.04185e-09 72 0.165346 4.06234e-09 1.05151e-05 0.0276757 4.07021e+07
1.96483 0.745094 0.00559198 1.55116e-08 54 0.733468 1.52695e-08 9.20606e-06 0.0909863 4.80347e+07
2.07637 8.23494 0.00659939 1.45267e-07 104 8.21844 1.44976e-07 8.05366e-06 1.87589 5.66883e+07
2.19424 0.195885 0.00778828 2.928e-09 120 0.197119 2.94643e-09 7.04008e-06 0.0499085 6.69008e+07
2.3188 1.60625 0.00919136 2.03443e-08 156 1.52667 1.93364e-08 6.1494e-06 0.516102 7.89532e+07
2.45043 0.584325 0.0108472 6.27114e-09 126 0.583009 6.25702e-09 5.36741e-06 0.147215 9.31768e+07
2.58954 0.395201 0.0128014 3.59394e-09 192 0.403026 3.66511e-09 4.68145e-06 0.147398 1.09963e+08
2.73654 3.93399 0.0151076 3.03144e-08 152 4.08378 3.14686e-08 4.08023e-06 1.1293 1.29773e+08
2.89188 3.47733 0.0178292 2.27051e-08 378 3.55823 2.32334e-08 3.55373e-06 2.41507 1.53152e+08
3.05605 1.16096 0.0210412 6.42328e-09 264 1.14063 6.3108e-09 3.09304e-06 0.548246 1.80743e+08
3.22953 0.145125 0.0248319 6.80367e-10 366 0.142632 6.68679e-10 2.69025e-06 0.0925617 2.13304e+08
3.41286 0.632596 0.0293054 2.51298e-09 428 0.60061 2.38592e-09 2.33837e-06 0.459959 2.51731e+08
3.6066 3.1793 0.0345848 1.07018e-08 486 3.06984 1.03333e-08 2.0312e-06 2.56058 2.97081e+08
3.81134 0.65479 0.0408154 1.86762e-09 600 0.649973 1.85388e-09 1.76327e-06 0.635509 3.50601e+08
4.0277 0.432625 0.0481684 1.04559e-09 738 0.427371 1.03289e-09 1.52972e-06 0.504434 4.13763e+08
4.25634 1.03072 0.056846 2.11082e-09 824 1.07531 2.20214e-09 1.32631e-06 1.3114 4.88304e+08
4.49796 2.46838 0.067087 4.28336e-09 954 2.48909 4.3193e-09 1.14926e-06 3.55562 5.76273e+08
4.7533 0.429726 0.0791729 6.31866e-10 1094 0.420555 6.18381e-10 9.95263e-07 0.694552 6.8009e+08
5.02313 0.245593 0.0934361 3.05992e-10 1332 0.244123 3.04162e-10 8.61414e-07 0.473154 8.0261e+08
5.30828 1.97555 0.110269 2.08567e-09 1614 2.00086 2.11239e-09 7.45152e-07 4.51756 9.47202e+08
5.60962 0.872897 0.130134 7.80876e-10 1850 0.841254 7.52569e-10 6.44232e-07 2.24239 1.11784e+09
5.92807 1.26048 0.153578 9.5547e-10 2238 1.20166 9.10879e-10 5.56685e-07 3.8412 1.31923e+09
6.26459 0.495611 0.181246 3.18334e-10 2546 0.504572 3.2409e-10 4.80786e-07 1.68574 1.55689e+09
6.62021 0.119555 0.213898 6.50686e-11 3264 0.119514 6.50466e-11 4.15026e-07 0.511737 1.83737e+09
6.99602 1.17782 0.252432 5.43182e-10 3506 1.22189 5.63505e-10 3.58083e-07 5.31831 2.16837e+09
7.39317 0.447344 0.297908 1.74811e-10 4506 0.454914 1.7777e-10 3.08803e-07 2.55081 2.55901e+09
7.81286 0.965039 0.351577 3.19547e-10 5018 1.00147 3.31611e-10 2.66181e-07 6.02405 3.02002e+09
8.25637 0.859882 0.414914 2.41263e-10 5852 0.821938 2.30617e-10 2.29336e-07 6.15634 3.56409e+09
8.72507 0.470701 0.489662 1.11907e-10 7362 0.46431 1.10388e-10 1.97503e-07 4.17139 4.20617e+09
9.22037 0.752041 0.577876 1.51501e-10 8306 0.741868 1.49452e-10 1.70014e-07 7.40156 4.96392e+09
9.74378 0.186207 0.681982 3.17858e-11 9698 0.187068 3.19327e-11 1.46289e-07 2.10719 5.85818e+09
10.2969 0.733146 0.804843 1.06045e-10 11816 0.749457 1.08404e-10 1.25822e-07 9.95867 6.91355e+09
10.8814 0.595132 0.949838 7.29414e-11 13682 0.59661 7.31225e-11 1.08175e-07 9.2256 8.15905e+09
11.4992 0.574695 1.12095 5.96843e-11 16152 0.561562 5.83204e-11 9.29669e-08 10.3695 9.62892e+09
12.1519 0.55859 1.3229 4.91561e-11 19472 0.541614 4.76622e-11 7.98658e-08 11.9847 1.13636e+10
12.8418 0.210311 1.56122 1.56822e-11 22670 0.214594 1.60016e-11 6.85852e-08 5.18357 1.34108e+10
13.5708 0.527992 1.84248 3.33607e-11 26224 0.538902 3.405e-11 5.88765e-08 14.8591 1.58268e+10
14.3411 0.433818 2.17441 2.32261e-11 31640 0.442445 2.3688e-11 5.05241e-08 14.545 1.8678e+10
15.1552 0.475427 2.56613 2.15683e-11 37484 0.481537 2.18454e-11 4.33417e-08 18.6533 2.20429e+10
16.0156 0.394881 3.02843 1.51796e-11 43856 0.404738 1.55585e-11 3.71677e-08 17.9111 2.6014e+10
16.9247 0.673219 3.574 2.19286e-11 51362 0.674565 2.19725e-11 3.18628e-08 35.3484 3.07005e+10
17.8855 0.53563 4.21787 1.47837e-11 61636 0.529046 1.46019e-11 2.73063e-08 33.3698 3.62312e+10
18.9008 0.760242 4.97773 1.77799e-11 72218 0.757182 1.77084e-11 2.33941e-08 54.8869 4.27584e+10
19.9738 1.18022 5.87448 2.33886e-11 84586 1.16842 2.31548e-11 2.00364e-08 98.7378 5.04614e+10
21.1076 1.87177 6.93279 3.14307e-11 100708 1.86502 3.13174e-11 1.71555e-08 184.507 5.95522e+10
22.3058 3.53229 8.18175 5.02598e-11 118712 3.52577 5.0167e-11 1.46847e-08 406.304 7.02807e+10
23.5721 6.81428 9.65571 8.21573e-11 140410 6.77432 8.16754e-11 1.25662e-08 917.997 8.29419e+10
24.9102 8.20587 11.3952 8.38325e-11 164374 8.1593 8.33567e-11 1.07504e-08 1281.81 9.78842e+10
26.3243 9.69607 13.4481 8.39354e-11 194680 9.65633 8.35914e-11 9.19452e-09 1777.2 1.15518e+11
27.8187 9.19329 15.8708 6.74345e-11 230196 9.16689 6.72408e-11 7.86182e-09 1974.5 1.36329e+11
29.3979 10.0502 18.73 6.24668e-11 271156 10.0224 6.22936e-11 6.72061e-09 2520.34 1.60889e+11
31.0667 11.8748 22.1042 6.25407e-11 321076 11.8181 6.22416e-11 5.74366e-09 3496.09 1.89874e+11
32.8303 14.983 26.0864 6.68645e-11 377436 14.9092 6.65353e-11 4.90756e-09 5142.49 2.2408e+11
34.694 19.105 30.7859 7.22446e-11 447594 19.0202 7.19239e-11 4.19221e-09 7713.42 2.64449e+11
36.6634 21.5888 36.3321 6.91751e-11 525078 21.5176 6.89467e-11 3.58032e-09 10145 3.1209e+11
38.7447 23.6191 42.8774 6.41275e-11 621924 23.5643 6.39789e-11 3.05709e-09 13045.9 3.68314e+11
40.9442 25.8953 50.6018 5.95751e-11 732630 25.8485 5.94675e-11 2.60976e-09 16724.3 4.34667e+11
43.2685 28.7212 59.7179 5.59898e-11 865596 28.6406 5.58326e-11 2.22743e-09 21758 5.12973e+11
45.7247 33.1376 70.4762 5.4738e-11 1.02168e+06 33.0243 5.45508e-11 1.90073e-09 29422.6 6.05386e+11
48.3204 40.0882 83.1727 5.61107e-11 1.20544e+06 39.9289 5.58878e-11 1.62163e-09 41709.8 7.14448e+11
51.0634 49.8494 98.1565 5.91222e-11 1.42103e+06 49.6523 5.88885e-11 1.38326e-09 60736.7 8.43158e+11
53.9621 61.4334 115.84 6.17387e-11 1.67997e+06 61.211 6.15152e-11 1.1797e-09 87919.6 9.95055e+11
57.0254 73.4749 136.709 6.25682e-11 1.98018e+06 73.2399 6.2368e-11 1.00592e-09 123167 1.17432e+12
60.2626 85.3314 161.337 6.15723e-11 2.33957e+06 85.0781 6.13895e-11 8.57591e-10 167973 1.38587e+12
63.6835 98.5867 190.402 6.02777e-11 2.75676e+06 98.288 6.00951e-11 7.3101e-10 227318 1.63554e+12
67.2987 115.248 224.704 5.9708e-11 3.25638e+06 114.868 5.95112e-11 6.23009e-10 312086 1.93019e+12
71.1191 136.601 265.185 5.99676e-11 3.84387e+06 136.148 5.97686e-11 5.30879e-10 434200 2.27792e+12
75.1563 162.014 312.958 6.02666e-11 4.53277e+06 161.47 6.00642e-11 4.52303e-10 603963 2.68829e+12
79.4227 191.733 369.339 6.04342e-11 5.35083e+06 191.103 6.02354e-11 3.85299e-10 839277 3.17259e+12
83.9313 226.007 435.876 6.03628e-11 6.32174e+06 225.275 6.01673e-11 3.28173e-10 1.16279e+06 3.74415e+12
88.6959 266.579 514.4 6.03303e-11 7.44986e+06 265.698 6.01308e-11 2.79476e-10 1.60819e+06 4.41866e+12
93.7309 314.559 607.071 6.03216e-11 8.79764e+06 313.514 6.01213e-11 2.37972e-10 2.23004e+06 5.2147e+12
99.0518 371.322 716.436 6.0337e-11 1.03827e+07 370.088 6.01365e-11 2.02605e-10 3.09203e+06 6.15414e+12
104.675 438.38 845.504 6.03595e-11 1.22515e+07 436.924 6.01589e-11 1.72471e-10 4.28765e+06 7.26283e+12
110.617 517.556 997.824 6.03828e-11 1.44573e+07 515.856 6.01845e-11 1.468e-10 5.94668e+06 8.57124e+12
116.896 611.042 1177.58 6.04073e-11 1.70664e+07 609.031 6.02085e-11 1.24935e-10 8.25179e+06 1.01154e+13
123.532 721.382 1389.73 6.0429e-11 2.0139e+07 718.972 6.0227e-11 1.06313e-10 1.14471e+07 1.19377e+13
130.545 851.421 1640.09 6.04346e-11 2.37643e+07 848.605 6.02348e-11 9.04567e-11 1.58771e+07 1.40883e+13
137.955 1005.26 1935.56 6.04617e-11 2.80503e+07 1001.91 6.02607e-11 7.69563e-11 2.20381e+07 1.66263e+13
145.787 1187.65 2284.26 6.05278e-11 3.30981e+07 1183.7 6.03262e-11 6.54636e-11 3.06026e+07 1.96216e+13
154.063 1402.95 2695.77 6.05857e-11 3.90634e+07 1398.28 6.03839e-11 5.56812e-11 4.25042e+07 2.31565e+13
162.808 1657.46 3181.42 6.06501e-11 4.61057e+07 1651.93 6.04476e-11 4.73556e-11 5.90493e+07 2.73282e+13
172.051 1958.92 3754.56 6.07389e-11 5.44046e+07 1952.39 6.05364e-11 4.02708e-11 8.20564e+07 3.22515e+13
181.818 2314.9 4430.96 6.08196e-11 6.42064e+07 2307.09 6.06144e-11 3.42426e-11 1.1404e+08 3.80616e+13
192.139 2737.84 5229.21 6.09513e-11 7.57748e+07 2728.6 6.07456e-11 2.91139e-11 1.58638e+08 4.49186e+13
203.046 3239.56 6171.26 6.11114e-11 8.94213e+07 3228.62 6.0905e-11 2.4751e-11 2.20785e+08 5.30108e+13
214.572 3836.31 7283.03 6.13213e-11 1.05538e+08 3823.31 6.11136e-11 2.10401e-11 3.07592e+08 6.25608e+13
226.753 4546.63 8595.09 6.15814e-11 1.24552e+08 4531.13 6.13714e-11 1.78839e-11 4.28881e+08 7.38313e+13
239.625 5393.12 10143.5 6.18959e-11 1.46987e+08 5374.67 6.1684e-11 1.51999e-11 5.9855e+08 8.71322e+13
253.228 6407.4 11970.9 6.2311e-11 1.7347e+08 6385.33 6.20964e-11 1.29176e-11 8.36771e+08 1.02829e+14
267.603 7629.32 14127.5 6.28682e-11 2.04703e+08 7602.77 6.26494e-11 1.09771e-11 1.17237e+09 1.21354e+14
282.795 9109.72 16672.6 6.3608e-11 2.4161e+08 9077.64 6.3384e-11 9.3274e-12 1.64765e+09 1.43217e+14
298.848 10920.3 19676.2 6.46107e-11 2.85122e+08 10881.1 6.43786e-11 7.925e-12 2.32454e+09 1.69017e+14
315.813 13165.5 23220.9 6.60034e-11 3.36491e+08 13117.3 6.57617e-11 6.73295e-12 3.29864e+09 1.99466e+14
333.741 15989.3 27404.3 6.79239e-11 3.97115e+08 15928.5 6.76656e-11 5.71979e-12 4.71583e+09 2.35401e+14
352.686 19620.6 32341.2 7.06262e-11 4.68637e+08 19542.5 7.03451e-11 4.85874e-12 6.81207e+09 2.77809e+14
372.707 24449.2 38167.6 7.45729e-11 5.53074e+08 24346.4 7.42591e-11 4.12703e-12 9.99371e+09 3.27857e+14
393.865 31109.4 45043.5 8.04025e-11 6.52716e+08 30968.4 8.00379e-11 3.50528e-12 1.49717e+10 3.86921e+14
416.224 36706.9 53158.3 8.03873e-11 2.2184e+08 38832.6 8.50424e-11 2.97701e-12 5.99027e+09 4.56626e+14
439.852 0 62734.9 0 0 0 0 2.52819e-12 0 5.38888e+14
464.821 0 74036.7 0 0 0 0 2.1469e-12 0 6.35971e+14
491.207 0 87374.6 0 0 0 0 1.82301e-12 0 7.50542e+14
519.092 0 103115 0 0 0 0 1.54789e-12 0 8.85755e+14
548.56 0 121692 0 0 0 0 1.31422e-12 0 1.04533e+15
579.7 0 143615 0 0 0 0 1.11576e-12 0 1.23364e+15
612.608 0 169488 0 0 0 0 9.47223e-13 0 1.45589e+15
647.384 0 200021 0 0 0 0 8.041e-13 0 1.71817e+15
684.134 0 236056 0 0 0 0 6.82568e-13 0 2.0277e+15
722.971 0 278582 0 0 0 0 5.79376e-13 0 2.393e+15
764.012 0 328769 0 0 0 0 4.91762e-13 0 2.8241e+15
0.0658696
200
1.0655e+09
8589934592
0.0129181 1.26582e-05 1.58924e-09 9.27243e-07 6 1.25423e-05 9.18754e-07 0.00677225 0.000821507 13.6515
0.0136515 0 1.87554e-09 0 0 0 0 0.00688819 0 16.1108
0.0144264 0 2.21343e-09 0 0 0 0 0.00699249 0 19.0132
0.0152454 0 2.61218e-09 0 0 0 0 0.00708412 0 22.4385
0.0161108 0 3.08278e-09 0 0 0 0 0.00716212 0 26.4808
0.0170254 0 3.63815e-09 0 0 0 0 0.00722559 0 31.2514
0.0179919 2.80909e-05 4.29357e-09 7.61654e-07 12 2.80547e-05 7.60673e-07 0.00727371 0.00125656 36.8815
0.0190132 0 5.06707e-09 0 0 0 0 0.00730578 0 43.5258
0.0200925 0 5.97991e-09 0 0 0 0 0.00732122 0 51.367
0.0212331 2.6558e-05 7.05721e-09 4.381e-07 8 2.65349e-05 4.37719e-07 0.00731958 0.000478825 60.621
0.0224385 0 8.32858e-09 0 0 0 0 0.00730056 0 71.542
0.0237123 0 9.829e-09 0 0 0 0 0.00726401 0 84.4305
0.0250583 0.000171059 1.15997e-08 1.71676e-06 6 0.000170979 1.71595e-06 0.00720995 0.00142866 99.6408
0.0264808 0 1.36894e-08 0 0 0 0 0.00713857 0 117.591
0.0279841 0.000106718 1.61556e-08 7.68996e-07 24 0.000106608 7.68206e-07 0.00705021 0.00261778 138.776
0.0295727 0 1.90661e-08 0 0 0 0 0.00694538 0 163.777
0.0312514 0.000190883 2.25009e-08 9.87593e-07 24 0.000191853 9.92607e-07 0.00682475 0.00347298 193.281
0.0330255 0 2.65545e-08 0 0 0 0 0.00668915 0 228.102
0.0349003 0.000264457 3.13384e-08 9.82402e-07 12 0.00026234 9.74536e-07 0.00653951 0.00180271 269.195
0.0368815 0.000231312 3.69841e-08 7.28104e-07 30 0.000228849 7.2035e-07 0.00637693 0.00342533 317.691
0.0389751 0.000277279 4.36469e-08 7.3956e-07 24 0.000274426 7.31952e-07 0.00620256 0.00286163 374.924
0.0411876 0.000175624 5.151e-08 3.9692e-07 24 0.000174431 3.94224e-07 0.00601767 0.00158302 442.467
0.0435258 0.000371775 6.07896e-08 7.11969e-07 8 0.000371747 7.11915e-07 0.00582358 0.00097805 522.179
0.0459966 0.000478203 7.1741e-08 7.75988e-07 72 0.000474419 7.69847e-07 0.00562166 0.00993855 616.251
0.0486077 0 8.46654e-08 0 0 0 0 0.0054133 0 727.27
0.051367 0.000723552 9.99181e-08 8.43016e-07 54 0.000721275 8.40363e-07 0.00519989 0.00875459 858.29
0.054283 0.00055939 1.17919e-07 5.52258e-07 60 0.000561694 5.54533e-07 0.0049828 0.00664997 1012.91
0.0573645 0.000561578 1.39162e-07 4.69785e-07 96 0.000560138 4.68581e-07 0.00476339 0.00946793 1195.39
0.060621 0.000646351 1.64232e-07 4.58163e-07 24 0.000637594 4.51956e-07 0.00454293 0.00242045 1410.75
0.0640622 0.00113975 1.93819e-07 6.84577e-07 134 0.00114037 6.84948e-07 0.00432265 0.0212215 1664.89
0.0676989 0.00109135 2.28736e-07 5.55444e-07 120 0.00108639 5.52917e-07 0.00410371 0.0162422 1964.83
0.071542 0.000993058 2.69944e-07 4.28264e-07 108 0.000982326 4.23636e-07 0.00388717 0.0118987 2318.8
0.0756032 0.00143977 3.18575e-07 5.26127e-07 174 0.00143234 5.23413e-07 0.00367401 0.0249172 2736.54
0.079895 0.00154467 3.75967e-07 4.78295e-07 168 0.00153007 4.73775e-07 0.0034651 0.0231894 3229.53
0.0844305 0.0013251 4.43698e-07 3.47672e-07 168 0.00133171 3.49406e-07 0.00326121 0.0179102 3811.34
0.0892234 0.00148698 5.23632e-07 3.30589e-07 290 0.00148078 3.29212e-07 0.00306301 0.0312995 4497.96
0.0942883 0.00193866 6.17966e-07 3.65213e-07 288 0.00193368 3.64276e-07 0.00287109 0.0366347 5308.28
0.0996408 0.00177908 7.29294e-07 2.8399e-07 366 0.00176389 2.81566e-07 0.00268591 0.0386983 6264.59
0.105297 0.00190815 8.60678e-07 2.58097e-07 420 0.00189498 2.56315e-07 0.00250785 0.0432245 7393.17
0.111275 0.00201137 1.01573e-06 2.30527e-07 398 0.00200608 2.29921e-07 0.00233721 0.0392561 8725.07
0.117591 0.00239382 1.19872e-06 2.3248e-07 624 0.00239866 2.3295e-07 0.00217419 0.0667224 10296.9
0.124267 0.00262989 1.41467e-06 2.16417e-07 642 0.00262688 2.1617e-07 0.00201893 0.0688188 12151.9
0.131321 0.00334871 1.66953e-06 2.33504e-07 800 0.00334987 2.33585e-07 0.00187147 0.0998163 14341.1
0.138776 0.00306684 1.9703e-06 1.81205e-07 858 0.00308171 1.82083e-07 0.00173182 0.0897749 16924.7
0.146654 0.00328361 2.32525e-06 1.64396e-07 1080 0.00331098 1.65767e-07 0.00159991 0.110974 19973.8
0.154979 0.00386861 2.74415e-06 1.64118e-07 1286 0.00389561 1.65264e-07 0.00147563 0.143027 23572.1
0.163777 0.00368245 3.23852e-06 1.32373e-07 1650 0.00368879 1.32601e-07 0.00135884 0.160737 27818.7
0.173074 0.00433739 3.82195e-06 1.32115e-07 1778 0.00433789 1.32131e-07 0.00124933 0.188022 32830.3
0.182899 0.00426017 4.51048e-06 1.09955e-07 2112 0.00426992 1.10207e-07 0.00114689 0.202482 38744.7
0.193281 0.00502413 5.32305e-06 1.09878e-07 2570 0.00503177 1.10045e-07 0.00105127 0.268614 45724.7
0.204254 0.00551697 6.28202e-06 1.02238e-07 3030 0.0055153 1.02207e-07 0.000962209 0.321947 53962.1
0.215848 0.00549503 7.41374e-06 8.62865e-08 3434 0.00549477 8.62824e-08 0.000879423 0.336934 63683.5
0.228102 0.00575153 8.74934e-06 7.65275e-08 4218 0.00575246 7.65399e-08 0.000802624 0.402172 75156.3
0.24105 0.00650561 1.03256e-05 7.33473e-08 4766 0.00651135 7.3412e-08 0.000731515 0.477876 88695.9
0.254734 0.00691327 1.21857e-05 6.60453e-08 6026 0.00691105 6.60241e-08 0.000665798 0.597762 104675
0.269195 0.00721401 1.4381e-05 5.83978e-08 6480 0.00721126 5.83755e-08 0.000605173 0.625305 123532
0.284476 0.00777979 1.69718e-05 5.33641e-08 8162 0.00779776 5.34874e-08 0.000549345 0.792869 145787
0.300625 0.00785017 2.00293e-05 4.56271e-08 9578 0.0078603 4.56859e-08 0.000498021 0.877506 172051
0.317691 0.00868173 2.36377e-05 4.27574e-08 11234 0.00867607 4.27296e-08 0.000450916 1.06525 203046
0.335725 0.00909025 2.78961e-05 3.79353e-08 13344 0.00908731 3.7923e-08 0.000407755 1.24145 239625
0.354784 0.00938985 3.29216e-05 3.32038e-08 15464 0.00938446 3.31847e-08 0.000368269 1.39426 282795
0.374924 0.0100964 3.88525e-05 3.02521e-08 18458 0.0100939 3.02448e-08 0.000332202 1.68089 333741
0.396207 0.0105682 4.58519e-05 2.68321e-08 22232 0.010553 2.67933e-08 0.000299307 1.99304 393865
0.418699 0.0114101 5.41123e-05 2.45474e-08 25628 0.0113891 2.45021e-08 0.00026935 2.33563 464821
0.442467 0.0117851 6.38607e-05 2.14837e-08 30320 0.0117661 2.1449e-08 0.000242108 2.69047 548560
0.467585 0.0123518 7.53654e-05 1.90795e-08 35452 0.0123343 1.90525e-08 0.00021737 3.11177 647384
0.494129 0.0127572 8.89427e-05 1.66976e-08 41792 0.0127539 1.66933e-08 0.000194938 3.57974 764012
0.522179 0.0137744 0.000104966 1.52769e-08 49988 0.0137716 1.52737e-08 0.000174625 4.37315 901651
0.551822 0.0143463 0.000123876 1.34823e-08 59110 0.0143389 1.34753e-08 0.000156255 5.10025 1.06409e+06
0.583147 0.0150247 0.000146192 1.19644e-08 69716 0.0150077 1.19509e-08 0.000139664 5.97226 1.25578e+06
0.616251 0.0158668 0.000172529 1.07063e-08 82210 0.0158427 1.069e-08 0.0001247 7.05823 1.48202e+06
0.651234 0.0166788 0.000203611 9.53619e-09 96722 0.0166504 9.51992e-09 0.00011122 8.29307 1.74901e+06
0.688203 0.0174165 0.000240292 8.43782e-09 113098 0.0174022 8.43092e-09 9.90935e-05 9.63031 2.06409e+06
0.72727 0.0179706 0.000283581 7.37725e-09 135190 0.0179527 7.36992e-09 8.81969e-05 11.308 2.43595e+06
0.768555 0.0190254 0.000334669 6.61803e-09 158170 0.0190106 6.61287e-09 7.84179e-05 13.3487 2.87479e+06
0.812184 0.0197719 0.000394961 5.82779e-09 188560 0.0197538 5.82247e-09 6.96525e-05 15.7767 3.39269e+06
0.85829 0.0205268 0.000466114 5.12671e-09 220444 0.0205055 5.12139e-09 6.1805e-05 18.2858 4.00389e+06
0.907013 0.0215569 0.000550086 4.5621e-09 261388 0.0215389 4.55831e-09 5.47875e-05 21.7655 4.7252e+06
0.958501 0.022335 0.000649185 4.00523e-09 308244 0.0223115 4.00102e-09 4.85194e-05 25.4452 5.57646e+06
1.01291 0.0233665 0.000766138 3.55056e-09 364396 0.0233397 3.54648e-09 4.29272e-05 30.1397 6.58107e+06
1.07041 0.024276 0.00090416 3.12566e-09 429162 0.0242492 3.12221e-09 3.79435e-05 35.3529 7.76667e+06
1.13118 0.0253406 0.00106705 2.76467e-09 506358 0.0253094 2.76127e-09 3.3507e-05 41.7797 9.16586e+06
1.19539 0.0262619 0.00125928 2.42781e-09 598590 0.0262311 2.42497e-09 2.9562e-05 49.1598 1.08171e+07
1.26325 0.0273786 0.00148614 2.14468e-09 704844 0.0273473 2.14222e-09 2.60578e-05 58.0119 1.27658e+07
1.33496 0.0284066 0.00175387 1.88552e-09 834620 0.0283728 1.88328e-09 2.29484e-05 68.5751 1.50656e+07
1.41075 0.0294618 0.00206984 1.65704e-09 981444 0.0294287 1.65518e-09 2.01923e-05 80.5403 1.77798e+07
1.49083 0.0305192 0.00244272 1.45449e-09 1.15998e+06 0.0304837 1.45279e-09 1.77518e-05 95.0424 2.09828e+07
1.57546 0.0317365 0.00288279 1.28161e-09 1.36931e+06 0.0316992 1.28011e-09 1.55929e-05 112.547 2.4763e+07
1.66489 0.0329145 0.00340213 1.12628e-09 1.61652e+06 0.0328723 1.12484e-09 1.3685e-05 133.04 2.92241e+07
1.75941 0.0340957 0.00401503 9.88602e-10 1.90601e+06 0.0340538 9.87386e-10 1.20007e-05 157.014 3.44889e+07
1.85928 0.0353153 0.00473835 8.67653e-10 2.24913e+06 0.0352735 8.66626e-10 1.05151e-05 185.587 4.07021e+07
1.96483 0.0365971 0.00559198 7.61889e-10 2.65744e+06 0.0365524 7.60958e-10 9.20606e-06 219.929 4.80347e+07
2.07637 0.0378537 0.00659939 6.67752e-10 3.13125e+06 0.0378091 6.66965e-10 8.05366e-06 259.621 5.66883e+07
2.19424 0.0392241 0.00778828 5.86302e-10 3.69915e+06 0.0391761 5.85584e-10 7.04008e-06 308.067 6.69008e+07
2.3188 0.0405906 0.00919136 5.1411e-10 4.36472e+06 0.0405406 5.13476e-10 6.1494e-06 364.905 7.89532e+07
2.45043 0.0420545 0.0108472 4.51341e-10 5.14913e+06 0.0420031 4.50789e-10 5.36741e-06 432.986 9.31768e+07
2.58954 0.0435187 0.0128014 3.95758e-10 6.07894e+06 0.0434666 3.95284e-10 4.68145e-06 513.898 1.09963e+08
2.73654 0.0450681 0.0151076 3.47284e-10 7.17304e+06 0.0450133 3.46862e-10 4.08023e-06 610.525 1.29773e+08
2.89188 0.0465757 0.0178292 3.04114e-10 8.46557e+06 0.0465177 3.03735e-10 3.55373e-06 724.45 1.53152e+08
3.05605 0.0482108 0.0210412 2.66737e-10 9.98773e+06 0.0481532 2.66419e-10 3.09304e-06 861.321 1.80743e+08
3.22953 0.049912 0.0248319 2.33994e-10 1.1797e+07 0.0498502 2.33705e-10 2.69025e-06 1026.09 2.13304e+08
3.41286 0.0516481 0.0293054 2.05172e-10 1.39144e+07 0.0515821 2.04909e-10 2.33837e-06 1220.86 2.51731e+08
3.6066 0.0534709 0.0345848 1.79988e-10 1.64163e+07 0.0534034 1.7976e-10 2.0312e-06 1454.67 2.97081e+08
3.81134 0.0553631 0.0408154 1.57909e-10 1.93821e+07 0.0552939 1.57711e-10 1.76327e-06 1735.76 3.50601e+08
4.0277 0.057351 0.0481684 1.38608e-10 2.28754e+07 0.0572766 1.38429e-10 1.52972e-06 2072.74 4.13763e+08
4.25634 0.0594344 0.056846 1.21716e-10 2.69929e+07 0.0593568 1.21557e-10 1.32631e-06 2477.15 4.88304e+08
4.49796 0.0616045 0.067087 1.06902e-10 3.18542e+07 0.0615237 1.06761e-10 1.14926e-06 2963.02 5.76273e+08
4.7533 0.0639106 0.0791729 9.39737e-11 3.75892e+07 0.0638255 9.38486e-11 9.95263e-07 3549.21 6.8009e+08
5.02313 0.0662737 0.0934361 8.25727e-11 4.43706e+07 0.0661849 8.24621e-11 8.61414e-07 4253.24 8.0261e+08
5.30828 0.0687665 0.110269 7.25996e-11 5.23593e+07 0.0686736 7.25015e-11 7.45152e-07 5101.32 9.47202e+08
5.60962 0.0714047 0.130134 6.38772e-11 6.1787e+07 0.0713082 6.37909e-11 6.44232e-07 6126.33 1.11784e+09
5.92807 0.0741301 0.153578 5.61921e-11 7.29346e+07 0.0740278 5.61146e-11 5.56685e-07 7362.06 1.31923e+09
6.26459 0.0769956 0.181246 4.94548e-11 8.60651e+07 0.0768885 4.9386e-11 4.80786e-07 8852.86 1.55689e+09
6.62021 0.0800148 0.213898 4.35487e-11 1.01558e+08 0.0799011 4.34868e-11 4.15026e-07 10656.5 1.83737e+09
6.99602 0.0831808 0.252432 3.8361e-11 1.1986e+08 0.0830636 3.83069e-11 3.58083e-07 12840.4 2.16837e+09
7.39317 0.0865339 0.297908 3.38154e-11 1.41457e+08 0.0864103 3.37671e-11 3.08803e-07 15490.2 2.55901e+09
7.81286 0.0900486 0.351577 2.98172e-11 1.66936e+08 0.0899188 2.97742e-11 2.66181e-07 18699.9 3.02002e+09
8.25637 0.0938243 0.414914 2.63249e-11 1.97025e+08 0.0936874 2.62865e-11 2.29336e-07 22616 3.56409e+09
8.72507 0.0978637 0.489662 2.32667e-11 2.32497e+08 0.0977176 2.3232e-11 1.97503e-07 27389.1 4.20617e+09
9.22037 0.102276 0.577876 2.06038e-11 2.74404e+08 0.10212 2.05725e-11 1.70014e-07 33254.7 4.96392e+09
9.74378 0.107281 0.681982 1.8313e-11 3.2382e+08 0.107111 1.8284e-11 1.46289e-07 40537 5.85818e+09
10.2969 0.113094 0.804843 1.63583e-11 3.82165e+08 0.112904 1.63308e-11 1.25822e-07 49685.5 6.91355e+09
10.8814 0.120277 0.949838 1.47416e-11 4.51027e+08 0.120059 1.47148e-11 1.08175e-07 61463.6 8.15905e+09
11.4992 0.129749 1.12095 1.34749e-11 5.32251e+08 0.129484 1.34474e-11 9.29669e-08 77146 9.62892e+09
12.1519 0.14334 1.3229 1.2614e-11 6.28157e+08 0.142991 1.25833e-11 7.98658e-08 99211.2 1.13636e+10
12.8418 0.158947 1.56122 1.18522e-11 3.82727e+08 0.164517 1.22676e-11 6.85852e-08 66138.9 1.34108e+10
13.5708 0 1.84248 0 0 0 0 5.88765e-08 0 1.58268e+10
14.3411 0 2.17441 0 0 0 0 5.05241e-08 0 1.8678e+10
15.1552 0 2.56613 0 0 0 0 4.33417e-08 0 2.20429e+10
16.0156 0 3.02843 0 0 0 0 3.71677e-08 0 2.6014e+10
16.9247 0 3.574 0 0 0 0 3.18628e-08 0 3.07005e+10
17.8855 0 4.21787 0 0 0 0 2.73063e-08 0 3.62312e+10
18.9008 0 4.97773 0 0 0 0 2.33941e-08 0 4.27584e+10
19.9738 0 5.87448 0 0 0 0 2.00364e-08 0 5.04614e+10
21.1076 0 6.93279 0 0 0 0 1.71555e-08 0 5.95522e+10
22.3058 0 8.18175 0 0 0 0 1.46847e-08 0 7.02807e+10
23.5721 0 9.65571 0 0 0 0 1.25662e-08 0 8.29419e+10
24.9102 0 11.3952 0 0 0 0 1.07504e-08 0 9.78842e+10
26.3243 0 13.4481 0 0 0 0 9.19452e-09 0 1.15518e+11
27.8187 0 15.8708 0 0 0 0 7.86182e-09 0 1.36329e+11
29.3979 0 18.73 0 0 0 0 6.72061e-09 0 1.60889e+11
31.0667 0 22.1042 0 0 0 0 5.74366e-09 0 1.89874e+11
32.8303 0 26.0864 0 0 0 0 4.90756e-09 0 2.2408e+11
34.694 0 30.7859 0 0 0 0 4.19221e-09 0 2.64449e+11
36.6634 0 36.3321 0 0 0 0 3.58032e-09 0 3.1209e+11
38.7447 0 42.8774 0 0 0 0 3.05709e-09 0 3.68314e+11
40.9442 0 50.6018 0 0 0 0 2.60976e-09 0 4.34667e+11
43.2685 0 59.7179 0 0 0 0 2.22743e-09 0 5.12973e+11
45.7247 0 70.4762 0 0 0 0 1.90073e-09 0 6.05386e+11
48.3204 0 83.1727 0 0 0 0 1.62163e-09 0 7.14448e+11
51.0634 0 98.1565 0 0 0 0 1.38326e-09 0 8.43158e+11
53.9621 0 115.84 0 0 0 0 1.1797e-09 0 9.95055e+11
57.0254 0 136.709 0 0 0 0 1.00592e-09 0 1.17432e+12
60.2626 0 161.337 0 0 0 0 8.57591e-10 0 1.38587e+12
63.6835 0 190.402 0 0 0 0 7.3101e-10 0 1.63554e+12
67.2987 0 224.704 0 0 0 0 6.23009e-10 0 1.93019e+12
71.1191 0 265.185 0 0 0 0 5.30879e-10 0 2.27792e+12
75.1563 0 312.958 0 0 0 0 4.52303e-10 0 2.68829e+12
79.4227 0 369.339 0 0 0 0 3.85299e-10 0 3.17259e+12
83.9313 0 435.876 0 0 0 0 3.28173e-10 0 3.74415e+12
88.6959 0 514.4 0 0 0 0 2.79476e-10 0 4.41866e+12
93.7309 0 607.071 0 0 0 0 2.37972e-10 0 5.2147e+12
99.0518 0 716.436 0 0 0 0 2.02605e-10 0 6.15414e+12
104.675 0 845.504 0 0 0 0 1.72471e-10 0 7.26283e+12
110.617 0 997.824 0 0 0 0 1.468e-10 0 8.57124e+12
116.896 0 1177.58 0 0 0 0 1.24935e-10 0 1.01154e+13
123.532 0 1389.73 0 0 0 0 1.06313e-10 0 1.19377e+13
130.545 0 1640.09 0 0 0 0 9.04567e-11 0 1.40883e+13
137.955 0 1935.56 0 0 0 0 7.69563e-11 0 1.66263e+13
145.787 0 2284.26 0 0 0 0 6.54636e-11 0 1.96216e+13
154.063 0 2695.77 0 0 0 0 5.56812e-11 0 2.31565e+13
162.808 0 3181.42 0 0 0 0 4.73556e-11 0 2.73282e+13
172.051 0 3754.56 0 0 0 0 4.02708e-11 0 3.22515e+13
181.818 0 4430.96 0 0 0 0 3.42426e-11 0 3.80616e+13
192.139 0 5229.21 0 0 0 0 2.91139e-11 0 4.49186e+13
203.046 0 6171.26 0 0 0 0 2.4751e-11 0 5.30108e+13
214.572 0 7283.03 0 0 0 0 2.10401e-11 0 6.25608e+13
226.753 0 8595.09 0 0 0 0 1.78839e-11 0 7.38313e+13
239.625 0 10143.5 0 0 0 0 1.51999e-11 0 8.71322e+13
253.228 0 11970.9 0 0 0 0 1.29176e-11 0 1.02829e+14
267.603 0 14127.5 0 0 0 0 1.09771e-11 0 1.21354e+14
282.795 0 16672.6 0 0 0 0 9.3274e-12 0 1.43217e+14
298.848 0 19676.2 0 0 0 0 7.925e-12 0 1.69017e+14
315.813 0 23220.9 0 0 0 0 6.73295e-12 0 1.99466e+14
333.741 0 27404.3 0 0 0 0 5.71979e-12 0 2.35401e+14
352.686 0 32341.2 0 0 0 0 4.85874e-12 0 2.77809e+14
372.707 0 38167.6 0 0 0 0 4.12703e-12 0 3.27857e+14
393.865 0 45043.5 0 0 0 0 3.50528e-12 0 3.86921e+14
416.224 0 53158.3 0 0 0 0 2.97701e-12 0 4.56626e+14
439.852 0 62734.9 0 0 0 0 2.52819e-12 0 5.38888e+14
464.821 0 74036.7 0 0 0 0 2.1469e-12 0 6.35971e+14
491.207 0 87374.6 0 0 0 0 1.82301e-12 0 7.50542e+14
519.092 0 103115 0 0 0 0 1.54789e-12 0 8.85755e+14
548.56 0 121692 0 0 0 0 1.31422e-12 0 1.04533e+15
579.7 0 143615 0 0 0 0 1.11576e-12 0 1.23364e+15
612.608 0 169488 0 0 0 0 9.47223e-13 0 1.45589e+15
647.384 0 200021 0 0 0 0 8.041e-13 0 1.71817e+15
684.134 0 236056 0 0 0 0 6.82568e-13 0 2.0277e+15
722.971 0 278582 0 0 0 0 5.79376e-13 0 2.393e+15
764.012 0 328769 0 0 0 0 4.91762e-13 0 2.8241e+15
