1
200
1.0655e+09
8589934592
0.0129181 0 1.58924e-09 0 0 0 0 0.00677225 0 13.6515
0.0136515 0 1.87554e-09 0 0 0 0 0.00688819 0 16.1108
0.0144264 0 2.21343e-09 0 0 0 0 0.00699249 0 19.0132
0.0152454 0 2.61218e-09 0 0 0 0 0.00708412 0 22.4385
0.0161108 0 3.08278e-09 0 0 0 0 0.00716212 0 26.4808
0.0170254 0 3.63815e-09 0 0 0 0 0.00722559 0 31.2514
0.0179919 0 4.29357e-09 0 0 0 0 0.00727371 0 36.8815
0.0190132 0 5.06707e-09 0 0 0 0 0.00730578 0 43.5258
0.0200925 0 5.97991e-09 0 0 0 0 0.00732122 0 51.367
0.0212331 0 7.05721e-09 0 0 0 0 0.00731958 0 60.621
0.0224385 0 8.32858e-09 0 0 0 0 0.00730056 0 71.542
0.0237123 0 9.829e-09 0 0 0 0 0.00726401 0 84.4305
0.0250583 0 1.15997e-08 0 0 0 0 0.00720995 0 99.6408
0.0264808 0 1.36894e-08 0 0 0 0 0.00713857 0 117.591
0.0279841 0 1.61556e-08 0 0 0 0 0.00705021 0 138.776
0.0295727 0 1.90661e-08 0 0 0 0 0.00694538 0 163.777
0.0312514 0 2.25009e-08 0 0 0 0 0.00682475 0 193.281
0.0330255 0 2.65545e-08 0 0 0 0 0.00668915 0 228.102
0.0349003 0 3.13384e-08 0 0 0 0 0.00653951 0 269.195
0.0368815 0 3.69841e-08 0 0 0 0 0.00637693 0 317.691
0.0389751 0 4.36469e-08 0 0 0 0 0.00620256 0 374.924
0.0411876 0 5.151e-08 0 0 0 0 0.00601767 0 442.467
0.0435258 0 6.07896e-08 0 0 0 0 0.00582358 0 522.179
0.0459966 0 7.1741e-08 0 0 0 0 0.00562166 0 616.251
0.0486077 0 8.46654e-08 0 0 0 0 0.0054133 0 727.27
0.051367 0 9.99181e-08 0 0 0 0 0.00519989 0 858.29
0.054283 0 1.17919e-07 0 0 0 0 0.0049828 0 1012.91
0.0573645 0 1.39162e-07 0 0 0 0 0.00476339 0 1195.39
0.060621 0 1.64232e-07 0 0 0 0 0.00454293 0 1410.75
0.0640622 0 1.93819e-07 0 0 0 0 0.00432265 0 1664.89
0.0676989 0 2.28736e-07 0 0 0 0 0.00410371 0 1964.83
0.071542 0 2.69944e-07 0 0 0 0 0.00388717 0 2318.8
0.0756032 0 3.18575e-07 0 0 0 0 0.00367401 0 2736.54
0.079895 0 3.75967e-07 0 0 0 0 0.0034651 0 3229.53
0.0844305 0 4.43698e-07 0 0 0 0 0.00326121 0 3811.34
0.0892234 0 5.23632e-07 0 0 0 0 0.00306301 0 4497.96
0.0942883 0 6.17966e-07 0 0 0 0 0.00287109 0 5308.28
0.0996408 0 7.29294e-07 0 0 0 0 0.00268591 0 6264.59
0.105297 0 8.60678e-07 0 0 0 0 0.00250785 0 7393.17
0.111275 0 1.01573e-06 0 0 0 0 0.00233721 0 8725.07
0.117591 0 1.19872e-06 0 0 0 0 0.00217419 0 10296.9
0.124267 0 1.41467e-06 0 0 0 0 0.00201893 0 12151.9
0.131321 0 1.66953e-06 0 0 0 0 0.00187147 0 14341.1
0.138776 0 1.9703e-06 0 0 0 0 0.00173182 0 16924.7
0.146654 0 2.32525e-06 0 0 0 0 0.00159991 0 19973.8
0.154979 0 2.74415e-06 0 0 0 0 0.00147563 0 23572.1
0.163777 0 3.23852e-06 0 0 0 0 0.00135884 0 27818.7
0.173074 0 3.82195e-06 0 0 0 0 0.00124933 0 32830.3
0.182899 0 4.51048e-06 0 0 0 0 0.00114689 0 38744.7
0.193281 0 5.32305e-06 0 0 0 0 0.00105127 0 45724.7
0.204254 0 6.28202e-06 0 0 0 0 0.000962209 0 53962.1
0.215848 0 7.41374e-06 0 0 0 0 0.000879423 0 63683.5
0.228102 0 8.74934e-06 0 0 0 0 0.000802624 0 75156.3
0.24105 0 1.03256e-05 0 0 0 0 0.000731515 0 88695.9
0.254734 0 1.21857e-05 0 0 0 0 0.000665798 0 104675
0.269195 0 1.4381e-05 0 0 0 0 0.000605173 0 123532
0.284476 0 1.69718e-05 0 0 0 0 0.000549345 0 145787
0.300625 0 2.00293e-05 0 0 0 0 0.000498021 0 172051
0.317691 0 2.36377e-05 0 0 0 0 0.000450916 0 203046
0.335725 0 2.78961e-05 0 0 0 0 0.000407755 0 239625
0.354784 0 3.29216e-05 0 0 0 0 0.000368269 0 282795
0.374924 0 3.88525e-05 0 0 0 0 0.000332202 0 333741
0.396207 1.6645 4.58519e-05 4.22608e-06 6 1.61823 4.10859e-06 0.000299307 0.0847173 393865
0.418699 0 5.41123e-05 0 0 0 0 0.00026935 0 464821
0.442467 0 6.38607e-05 0 0 0 0 0.000242108 0 548560
0.467585 0 7.53654e-05 0 0 0 0 0.00021737 0 647384
0.494129 0 8.89427e-05 0 0 0 0 0.000194938 0 764012
0.522179 0 0.000104966 0 0 0 0 0.000174625 0 901651
0.551822 0 0.000123876 0 0 0 0 0.000156255 0 1.06409e+06
0.583147 6.62585 0.000146192 5.27627e-06 12 6.97375 5.5533e-06 0.000139664 0.45334 1.25578e+06
0.616251 0 0.000172529 0 0 0 0 0.0001247 0 1.48202e+06
0.651234 0 0.000203611 0 0 0 0 0.00011122 0 1.74901e+06
0.688203 10.5179 0.000240292 5.09567e-06 8 10.2563 4.9689e-06 9.90935e-05 0.411383 2.06409e+06
0.72727 0 0.000283581 0 0 0 0 8.81969e-05 0 2.43595e+06
0.768555 0 0.000334669 0 0 0 0 7.84179e-05 0 2.87479e+06
0.812184 8.49089 0.000394961 2.5027e-06 6 8.67243 2.55621e-06 6.96525e-05 0.215588 3.39269e+06
0.85829 0 0.000466114 0 0 0 0 6.1805e-05 0 4.00389e+06
0.907013 1.59496 0.000550086 3.37543e-07 24 1.62556 3.4402e-07 5.47875e-05 0.147863 4.7252e+06
0.958501 5.13984 0.000649185 9.21703e-07 24 4.83878 8.67715e-07 4.85194e-05 0.455918 5.57646e+06
1.01291 0 0.000766138 0 0 0 0 4.29272e-05 0 6.58107e+06
1.07041 0 0.00090416 0 0 0 0 3.79435e-05 0 7.76667e+06
1.13118 7.18713 0.00106705 7.84119e-07 12 7.09884 7.74487e-07 3.3507e-05 0.28082 9.16586e+06
1.19539 4.05325 0.00125928 3.74707e-07 30 3.9697 3.66983e-07 2.9562e-05 0.380259 1.08171e+07
1.26325 11.896 0.00148614 9.31865e-07 24 11.717 9.17843e-07 2.60578e-05 0.858274 1.27658e+07
1.33496 9.13895 0.00175387 6.06609e-07 24 9.15904 6.07942e-07 2.29484e-05 0.634405 1.50656e+07
1.41075 17.6407 0.00206984 9.92179e-07 32 17.9097 1.00731e-06 2.01923e-05 1.57237 1.77798e+07
1.49083 4.14998 0.00244272 1.9778e-07 48 4.0615 1.93563e-07 1.77518e-05 0.534788 2.09828e+07
1.57546 34.087 0.00288279 1.37653e-06 6 32.4585 1.31077e-06 1.55929e-05 0.529678 2.4763e+07
1.66489 6.53278 0.00340213 2.23541e-07 84 6.38688 2.18549e-07 1.3685e-05 1.37212 2.92241e+07
1.75941 7.04457 0.00401503 2.04256e-07 48 6.93712 2.01141e-07 1.20007e-05 0.816979 3.44889e+07
1.85928 7.09857 0.00473835 1.74403e-07 72 7.0936 1.74281e-07 1.05151e-05 1.19419 4.07021e+07
1.96483 18.2968 0.00559198 3.80908e-07 54 17.8778 3.72185e-07 9.20606e-06 2.23429 4.80347e+07
2.07637 10.9815 0.00659939 1.93718e-07 104 11.1194 1.9615e-07 8.05366e-06 2.50155 5.66883e+07
2.19424 11.1323 0.00778828 1.664e-07 120 11.3001 1.68908e-07 7.04008e-06 2.83633 6.69008e+07
2.3188 10.0833 0.00919136 1.27713e-07 156 9.82522 1.24444e-07 6.1494e-06 3.23986 7.89532e+07
2.45043 12.5895 0.0108472 1.35114e-07 126 12.5412 1.34595e-07 5.36741e-06 3.17181 9.31768e+07
2.58954 11.1542 0.0128014 1.01436e-07 192 11.2071 1.01917e-07 4.68145e-06 4.16018 1.09963e+08
2.73654 34.4467 0.0151076 2.65438e-07 152 34.8661 2.6867e-07 4.08023e-06 9.88829 1.29773e+08
2.89188 14.877 0.0178292 9.71388e-08 378 14.9179 9.7406e-08 3.55373e-06 10.3324 1.53152e+08
3.05605 16.7621 0.0210412 9.27404e-08 264 16.629 9.20037e-08 3.09304e-06 7.91566 1.80743e+08
3.22953 21.7006 0.0248319 1.01735e-07 366 21.5966 1.01248e-07 2.69025e-06 13.8408 2.13304e+08
3.41286 18.6206 0.0293054 7.39701e-08 428 18.3412 7.28604e-08 2.33837e-06 13.539 2.51731e+08
3.6066 21.0323 0.0345848 7.07965e-08 486 20.7438 6.98253e-08 2.0312e-06 16.9393 2.97081e+08
3.81134 20.9201 0.0408154 5.96693e-08 600 20.9837 5.98507e-08 1.76327e-06 20.3041 3.50601e+08
4.0277 25.8324 0.0481684 6.24328e-08 738 25.6805 6.20658e-08 1.52972e-06 30.1201 4.13763e+08
4.25634 27.2146 0.056846 5.5733e-08 824 27.1618 5.56248e-08 1.32631e-06 34.6255 4.88304e+08
4.49796 28.4943 0.067087 4.94458e-08 954 28.2956 4.91011e-08 1.14926e-06 41.0451 5.76273e+08
4.7533 30.7931 0.0791729 4.5278e-08 1094 30.6057 4.50025e-08 9.95263e-07 49.7699 6.8009e+08
5.02313 32.7973 0.0934361 4.08633e-08 1332 32.981 4.10922e-08 8.61414e-07 63.1866 8.0261e+08
5.30828 41.2059 0.110269 4.35027e-08 1614 41.2161 4.35136e-08 7.45152e-07 94.2269 9.47202e+08
5.60962 43.0232 0.130134 3.84877e-08 1850 43.1321 3.85851e-08 6.44232e-07 110.523 1.11784e+09
5.92807 40.8575 0.153578 3.09708e-08 2238 40.9175 3.10163e-08 5.56685e-07 124.51 1.31923e+09
6.26459 40.5656 0.181246 2.60556e-08 2546 40.6707 2.61231e-08 4.80786e-07 137.977 1.55689e+09
6.62021 43.0453 0.213898 2.34277e-08 3264 43.0904 2.34523e-08 4.15026e-07 184.249 1.83737e+09
6.99602 47.3602 0.252432 2.18414e-08 3506 47.4672 2.18907e-08 3.58083e-07 213.85 2.16837e+09
7.39317 52.0383 0.297908 2.03353e-08 4506 51.9905 2.03166e-08 3.08803e-07 296.729 2.55901e+09
7.81286 58.4581 0.351577 1.93568e-08 5018 58.22 1.9278e-08 2.66181e-07 364.912 3.02002e+09
8.25637 60.481 0.414914 1.69696e-08 5852 60.4228 1.69532e-08 2.29336e-07 433.014 3.56409e+09
8.72507 63.676 0.489662 1.51387e-08 7362 63.5308 1.51042e-08 1.97503e-07 564.302 4.20617e+09
9.22037 67.0013 0.577876 1.34977e-08 8306 66.7994 1.3457e-08 1.70014e-07 659.425 4.96392e+09
9.74378 73.0842 0.681982 1.24756e-08 9698 73.0119 1.24632e-08 1.46289e-07 827.049 5.85818e+09
10.2969 76.9778 0.804843 1.11343e-08 11816 76.8961 1.11225e-08 1.25822e-07 1045.63 6.91355e+09
10.8814 89.0745 0.949838 1.09173e-08 13682 88.7815 1.08814e-08 1.08175e-07 1380.81 8.15905e+09
11.4992 86.9264 1.12095 9.02763e-09 16152 86.8692 9.0217e-09 9.29669e-08 1568.46 9.62892e+09
12.1519 91.8152 1.3229 8.07976e-09 19472 91.611 8.0618e-09 7.98658e-08 1969.92 1.13636e+10
12.8418 97.7867 1.56122 7.29165e-09 22670 97.5684 7.27537e-09 6.85852e-08 2410.16 1.34108e+10
13.5708 104.39 1.84248 6.59576e-09 26224 104.192 6.58331e-09 5.88765e-08 2937.8 1.58268e+10
14.3411 112.281 2.17441 6.0114e-09 31640 112.089 6.0011e-09 5.05241e-08 3764.55 1.8678e+10
15.1552 117.146 2.56613 5.31443e-09 37484 116.903 5.30341e-09 4.33417e-08 4596.18 2.20429e+10
16.0156 127.436 3.02843 4.89874e-09 43856 127.223 4.89055e-09 3.71677e-08 5780.26 2.6014e+10
16.9247 134.485 3.574 4.38057e-09 51362 134.343 4.37591e-09 3.18628e-08 7061.36 3.07005e+10
17.8855 141.805 4.21787 3.9139e-09 61636 141.627 3.90899e-09 2.73063e-08 8834.49 3.62312e+10
18.9008 152.024 4.97773 3.55542e-09 72218 151.668 3.5471e-09 2.33941e-08 10975.6 4.27584e+10
19.9738 160.07 5.87448 3.17212e-09 84586 159.846 3.16769e-09 2.00364e-08 13391.5 5.04614e+10
21.1076 170.238 6.93279 2.85863e-09 100708 169.974 2.8542e-09 1.71555e-08 16781 5.95522e+10
22.3058 180.899 8.18175 2.57395e-09 118712 180.561 2.56914e-09 1.46847e-08 20808 7.02807e+10
23.5721 188.881 9.65571 2.27727e-09 140410 188.492 2.27257e-09 1.25662e-08 25445.5 8.29419e+10
24.9102 198.442 11.3952 2.02732e-09 164374 198.126 2.02408e-09 1.07504e-08 30997.9 9.78842e+10
26.3243 209.647 13.4481 1.81484e-09 194680 209.266 1.81154e-09 9.19452e-09 38426.4 1.15518e+11
27.8187 222.885 15.8708 1.6349e-09 230196 222.529 1.63229e-09 7.86182e-09 47870.3 1.36329e+11
29.3979 234.609 18.73 1.4582e-09 271156 234.208 1.45571e-09 6.72061e-09 58833.9 1.60889e+11
31.0667 248.233 22.1042 1.30736e-09 321076 247.793 1.30504e-09 5.74366e-09 73082.6 1.89874e+11
32.8303 261.067 26.0864 1.16506e-09 377436 260.621 1.16307e-09 4.90756e-09 89603.9 2.2408e+11
34.694 275.181 30.7859 1.04058e-09 447594 274.677 1.03868e-09 4.19221e-09 111101 2.64449e+11
36.6634 289.514 36.3321 9.27662e-10 525078 288.978 9.25944e-10 3.58032e-09 136048 3.1209e+11
38.7447 304.915 42.8774 8.27866e-10 621924 304.351 8.26335e-10 3.05709e-09 168419 3.68314e+11
40.9442 319.688 50.6018 7.35478e-10 732630 319.089 7.34101e-10 2.60976e-09 206469 4.34667e+11
43.2685 338.441 59.7179 6.59764e-10 865596 337.892 6.58693e-10 2.22743e-09 256389 5.12973e+11
45.7247 354.793 70.4762 5.86061e-10 1.02168e+06 354.211 5.851e-10 1.90073e-09 315018 6.05386e+11
48.3204 371.116 83.1727 5.19444e-10 1.20544e+06 370.479 5.18553e-10 1.62163e-09 386127 7.14448e+11
51.0634 389.408 98.1565 4.61845e-10 1.42103e+06 388.75 4.61065e-10 1.38326e-09 474457 8.43158e+11
53.9621 408.685 115.84 4.10716e-10 1.67997e+06 407.981 4.10009e-10 1.1797e-09 584885 9.95055e+11
57.0254 428.887 136.709 3.65222e-10 1.98018e+06 428.098 3.6455e-10 1.00592e-09 718950 1.17432e+12
60.2626 449.487 161.337 3.24335e-10 2.33957e+06 448.71 3.23774e-10 8.57591e-10 884809 1.38587e+12
63.6835 473.463 190.402 2.89484e-10 2.75676e+06 472.649 2.88986e-10 7.3101e-10 1.09169e+06 1.63554e+12
67.2987 497.185 224.704 2.57583e-10 3.25638e+06 496.325 2.57138e-10 6.23009e-10 1.34635e+06 1.93019e+12
71.1191 523.412 265.185 2.29777e-10 3.84387e+06 522.517 2.29383e-10 5.30879e-10 1.66372e+06 2.27792e+12
75.1563 552.271 312.958 2.05436e-10 4.53277e+06 551.265 2.05062e-10 4.52303e-10 2.05878e+06 2.68829e+12
79.4227 581.897 369.339 1.83413e-10 5.35083e+06 580.857 1.83086e-10 3.85299e-10 2.54715e+06 3.17259e+12
83.9313 615.582 435.876 1.64412e-10 6.32174e+06 614.438 1.64106e-10 3.28173e-10 3.16714e+06 3.74415e+12
88.6959 652.647 514.4 1.47702e-10 7.44986e+06 651.397 1.4742e-10 2.79476e-10 3.93723e+06 4.41866e+12
93.7309 692.53 607.071 1.32803e-10 8.79764e+06 691.204 1.32549e-10 2.37972e-10 4.90963e+06 5.2147e+12
99.0518 738.025 716.436 1.19923e-10 1.03827e+07 736.62 1.19695e-10 2.02605e-10 6.14559e+06 6.15414e+12
104.675 789.476 845.504 1.08701e-10 1.22515e+07 787.861 1.08479e-10 1.72471e-10 7.72161e+06 7.26283e+12
110.617 849.614 997.824 9.91237e-11 1.44573e+07 847.846 9.89176e-11 1.468e-10 9.76201e+06 8.57124e+12
116.896 919.213 1177.58 9.08729e-11 1.70664e+07 917.194 9.06732e-11 1.24935e-10 1.24135e+07 1.01154e+13
123.532 1001.06 1389.73 8.38568e-11 2.0139e+07 998.779 8.36661e-11 1.06313e-10 1.58851e+07 1.19377e+13
130.545 1096.5 1640.09 7.78309e-11 2.37643e+07 1093.88 7.76449e-11 9.04567e-11 2.04473e+07 1.40883e+13
137.955 1210.09 1935.56 7.27816e-11 2.80503e+07 1207.14 7.26039e-11 7.69563e-11 2.65286e+07 1.66263e+13
145.787 1343.55 2284.26 6.84728e-11 3.30981e+07 1340.1 6.82971e-11 6.54636e-11 3.46195e+07 1.96216e+13
154.063 1502.46 2695.77 6.48827e-11 3.90634e+07 1498.52 6.47127e-11 5.56812e-11 4.55188e+07 2.31565e+13
162.808 1690.99 3181.42 6.18772e-11 4.61057e+07 1686.36 6.17077e-11 4.73556e-11 6.0244e+07 2.73282e+13
172.051 1916.83 3754.56 5.9434e-11 5.44046e+07 1911.42 5.92661e-11 4.02708e-11 8.02934e+07 3.22515e+13
181.818 2185.4 4430.96 5.74175e-11 6.42064e+07 2179.03 5.725e-11 3.42426e-11 1.0766e+08 3.80616e+13
192.139 2506.34 5229.21 5.57974e-11 7.57748e+07 2498.86 5.56309e-11 2.91139e-11 1.45224e+08 4.49186e+13
203.046 2890.34 6171.26 5.45237e-11 8.94213e+07 2881.55 5.43579e-11 2.4751e-11 1.96985e+08 5.30108e+13
214.572 3349.26 7283.03 5.35362e-11 1.05538e+08 3338.79 5.33687e-11 2.10401e-11 2.68541e+08 6.25608e+13
226.753 3901.16 8595.09 5.28389e-11 1.24552e+08 3888.74 5.26707e-11 1.78839e-11 3.67994e+08 7.38313e+13
239.625 4563.73 10143.5 5.23771e-11 1.46987e+08 4548.86 5.22064e-11 1.51999e-11 5.06501e+08 8.71322e+13
253.228 5363.66 11970.9 5.21609e-11 1.7347e+08 5345.85 5.19877e-11 1.29176e-11 7.00465e+08 1.02829e+14
267.603 6331.63 14127.5 5.21747e-11 2.04703e+08 6310.22 5.19984e-11 1.09771e-11 9.7296e+08 1.21354e+14
282.795 7511.33 16672.6 5.24474e-11 2.4161e+08 7485.42 5.22665e-11 9.3274e-12 1.35856e+09 1.43217e+14
298.848 8960.59 19676.2 5.30158e-11 2.85122e+08 8928.91 5.28284e-11 7.925e-12 1.90738e+09 1.69017e+14
315.813 10763.3 23220.9 5.39605e-11 3.36491e+08 10724.1 5.37637e-11 6.73295e-12 2.69677e+09 1.99466e+14
333.741 13043.1 27404.3 5.54079e-11 3.97115e+08 12993.8 5.51985e-11 5.71979e-12 3.84687e+09 2.35401e+14
352.686 15992.2 32341.2 5.75656e-11 4.68637e+08 15928.9 5.73376e-11 4.85874e-12 5.55234e+09 2.77809e+14
372.707 19919.1 38167.6 6.07553e-11 5.53074e+08 19835.3 6.04998e-11 4.12703e-12 8.14198e+09 3.27857e+14
393.865 25352.1 45043.5 6.55227e-11 6.52716e+08 25236.8 6.52246e-11 3.50528e-12 1.22009e+10 3.86921e+14
416.224 29930.8 53158.3 6.55477e-11 2.2184e+08 31663.9 6.93433e-11 2.97701e-12 4.88446e+09 4.56626e+14
439.852 0 62734.9 0 0 0 0 2.52819e-12 0 5.38888e+14
464.821 0 74036.7 0 0 0 0 2.1469e-12 0 6.35971e+14
491.207 0 87374.6 0 0 0 0 1.82301e-12 0 7.50542e+14
519.092 0 103115 0 0 0 0 1.54789e-12 0 8.85755e+14
548.56 0 121692 0 0 0 0 1.31422e-12 0 1.04533e+15
579.7 0 143615 0 0 0 0 1.11576e-12 0 1.23364e+15
612.608 0 169488 0 0 0 0 9.47223e-13 0 1.45589e+15
647.384 0 200021 0 0 0 0 8.041e-13 0 1.71817e+15
684.134 0 236056 0 0 0 0 6.82568e-13 0 2.0277e+15
722.971 0 278582 0 0 0 0 5.79376e-13 0 2.393e+15
764.012 0 328769 0 0 0 0 4.91762e-13 0 2.8241e+15
1
200
1.0655e+09
8589934592
0.0129181 0.0018038 1.58924e-09 0.000132132 6 0.00178729 0.000130923 0.00677225 0.117065 13.6515
0.0136515 0 1.87554e-09 0 0 0 0 0.00688819 0 16.1108
0.0144264 0 2.21343e-09 0 0 0 0 0.00699249 0 19.0132
0.0152454 0 2.61218e-09 0 0 0 0 0.00708412 0 22.4385
0.0161108 0 3.08278e-09 0 0 0 0 0.00716212 0 26.4808
0.0170254 0 3.63815e-09 0 0 0 0 0.00722559 0 31.2514
0.0179919 0.00402296 4.29357e-09 0.000109078 12 0.00401777 0.000108937 0.00727371 0.179954 36.8815
0.0190132 0 5.06707e-09 0 0 0 0 0.00730578 0 43.5258
0.0200925 0 5.97991e-09 0 0 0 0 0.00732122 0 51.367
0.0212331 0.00381256 7.05721e-09 6.28918e-05 8 0.00380924 6.28371e-05 0.00731958 0.0687382 60.621
0.0224385 0 8.32858e-09 0 0 0 0 0.00730056 0 71.542
0.0237123 0 9.829e-09 0 0 0 0 0.00726401 0 84.4305
0.0250583 0.0240243 1.15997e-08 0.000241109 6 0.024013 0.000240995 0.00720995 0.200647 99.6408
0.0264808 0 1.36894e-08 0 0 0 0 0.00713857 0 117.591
0.0279841 0.0147926 1.61556e-08 0.000106594 24 0.0147775 0.000106484 0.00705021 0.362862 138.776
0.0295727 0 1.90661e-08 0 0 0 0 0.00694538 0 163.777
0.0312514 0.0262528 2.25009e-08 0.000135827 24 0.0263861 0.000136517 0.00682475 0.477651 193.281
0.0330255 0 2.65545e-08 0 0 0 0 0.00668915 0 228.102
0.0349003 0.039973 3.13384e-08 0.000148491 12 0.0396529 0.000147302 0.00653951 0.272481 269.195
0.0368815 0.0319169 3.69841e-08 0.000100465 30 0.031577 9.93954e-05 0.00637693 0.472634 317.691
0.0389751 0.0360652 4.36469e-08 9.61934e-05 24 0.0356942 9.52039e-05 0.00620256 0.372208 374.924
0.0411876 0.0231734 5.151e-08 5.23731e-05 24 0.023016 5.20174e-05 0.00601767 0.208877 442.467
0.0435258 0.0577206 6.07896e-08 0.000110538 8 0.0577162 0.00011053 0.00582358 0.151849 522.179
0.0459966 0.0706337 7.1741e-08 0.000114618 72 0.0700767 0.000113715 0.00562166 1.46799 616.251
0.0486077 0 8.46654e-08 0 0 0 0 0.0054133 0 727.27
0.051367 0.0966389 9.99181e-08 0.000112595 54 0.096318 0.000112221 0.00519989 1.16928 858.29
0.054283 0.0781839 1.17919e-07 7.71872e-05 60 0.07854 7.75388e-05 0.0049828 0.929442 1012.91
0.0573645 0.0729278 1.39162e-07 6.10074e-05 96 0.0727409 6.08511e-05 0.00476339 1.22953 1195.39
0.060621 0.0867988 1.64232e-07 6.15269e-05 24 0.0856228 6.06933e-05 0.00454293 0.325043 1410.75
0.0640622 0.14886 1.93819e-07 8.94109e-05 134 0.148926 8.94505e-05 0.00432265 2.77169 1664.89
0.0676989 0.145898 2.28736e-07 7.42549e-05 120 0.145183 7.38909e-05 0.00410371 2.17135 1964.83
0.071542 0.137663 2.69944e-07 5.93683e-05 108 0.136139 5.8711e-05 0.00388717 1.64947 2318.8
0.0756032 0.203932 3.18575e-07 7.45218e-05 174 0.202797 7.41071e-05 0.00367401 3.52933 2736.54
0.079895 0.213251 3.75967e-07 6.60315e-05 168 0.211246 6.54108e-05 0.0034651 3.20144 3229.53
0.0844305 0.177603 4.43698e-07 4.65987e-05 168 0.178482 4.68293e-05 0.00326121 2.40051 3811.34
0.0892234 0.213389 5.23632e-07 4.74413e-05 290 0.212381 4.72171e-05 0.00306301 4.49165 4497.96
0.0942883 0.25658 6.17966e-07 4.83358e-05 288 0.256034 4.82329e-05 0.00287109 4.84858 5308.28
0.0996408 0.230093 7.29294e-07 3.67292e-05 366 0.228335 3.64486e-05 0.00268591 5.00497 6264.59
0.105297 0.271195 8.60678e-07 3.66819e-05 420 0.269256 3.64196e-05 0.00250785 6.14326 7393.17
0.111275 0.290051 1.01573e-06 3.32434e-05 398 0.289246 3.31511e-05 0.00233721 5.66096 8725.07
0.117591 0.344619 1.19872e-06 3.34682e-05 624 0.345593 3.35627e-05 0.00217419 9.60548 10296.9
0.124267 0.401246 1.41467e-06 3.30191e-05 642 0.400328 3.29436e-05 0.00201893 10.4998 12151.9
0.131321 0.471733 1.66953e-06 3.28937e-05 800 0.47184 3.29012e-05 0.00187147 14.0611 14341.1
0.138776 0.437007 1.9703e-06 2.58206e-05 858 0.438855 2.59298e-05 0.00173182 12.7924 16924.7
0.146654 0.509904 2.32525e-06 2.55287e-05 1080 0.514137 2.57406e-05 0.00159991 17.2328 19973.8
0.154979 0.593694 2.74415e-06 2.51863e-05 1286 0.597425 2.53446e-05 0.00147563 21.9496 23572.1
0.163777 0.58239 3.23852e-06 2.09352e-05 1650 0.584063 2.09954e-05 0.00135884 25.421 27818.7
0.173074 0.64891 3.82195e-06 1.97656e-05 1778 0.649417 1.9781e-05 0.00124933 28.1296 32830.3
0.182899 0.701632 4.51048e-06 1.81091e-05 2112 0.703239 1.81506e-05 0.00114689 33.3479 38744.7
0.193281 0.77496 5.32305e-06 1.69484e-05 2570 0.775534 1.69609e-05 0.00105127 41.433 45724.7
0.204254 0.908464 6.28202e-06 1.68352e-05 3030 0.90786 1.6824e-05 0.000962209 53.0142 53962.1
0.215848 0.946936 7.41374e-06 1.48694e-05 3434 0.946557 1.48635e-05 0.000879423 58.0625 63683.5
0.228102 1.00677 8.74934e-06 1.33957e-05 4218 1.00613 1.33872e-05 0.000802624 70.3979 75156.3
0.24105 1.12212 1.03256e-05 1.26514e-05 4766 1.1228 1.2659e-05 0.000731515 82.4267 88695.9
0.254734 1.22381 1.21857e-05 1.16916e-05 6026 1.22377 1.16912e-05 0.000665798 105.818 104675
0.269195 1.39777 1.4381e-05 1.1315e-05 6480 1.39651 1.13049e-05 0.000605173 121.158 123532
0.284476 1.5076 1.69718e-05 1.03411e-05 8162 1.51022 1.03591e-05 0.000549345 153.645 145787
0.300625 1.66815 2.00293e-05 9.6957e-06 9578 1.66874 9.69912e-06 0.000498021 186.469 172051
0.317691 1.8525 2.36377e-05 9.12355e-06 11234 1.85093 9.11584e-06 0.000450916 227.301 203046
0.335725 1.9938 2.78961e-05 8.3205e-06 13344 1.99014 8.30522e-06 0.000407755 272.293 239625
0.354784 2.25055 3.29216e-05 7.95826e-06 15464 2.24912 7.95319e-06 0.000368269 334.176 282795
0.374924 2.43501 3.88525e-05 7.29612e-06 18458 2.43258 7.28883e-06 0.000332202 405.391 333741
0.396207 2.82096 4.58519e-05 7.16224e-06 22232 2.81637 7.15059e-06 0.000299307 531.999 393865
0.418699 3.03392 5.41123e-05 6.52707e-06 25628 3.02653 6.51117e-06 0.00026935 621.036 464821
0.442467 3.32215 6.38607e-05 6.05613e-06 30320 3.31646 6.04576e-06 0.000242108 758.429 548560
0.467585 3.76531 7.53654e-05 5.8162e-06 35452 3.7584 5.80552e-06 0.00021737 948.592 647384
0.494129 4.17271 8.89427e-05 5.46157e-06 41792 4.16789 5.45527e-06 0.000194938 1170.88 764012
0.522179 4.70099 0.000104966 5.21376e-06 49988 4.70032 5.21302e-06 0.000174625 1492.49 901651
0.551822 5.25722 0.000123876 4.9406e-06 59110 5.2501 4.93391e-06 0.000156255 1868.99 1.06409e+06
0.583147 5.85567 0.000146192 4.66296e-06 69716 5.84624 4.65545e-06 0.000139664 2327.61 1.25578e+06
0.616251 6.54787 0.000172529 4.41822e-06 82210 6.53492 4.40948e-06 0.0001247 2912.76 1.48202e+06
0.651234 7.23334 0.000203611 4.13569e-06 96722 7.21718 4.12645e-06 0.00011122 3596.57 1.74901e+06
0.688203 8.2206 0.000240292 3.98267e-06 113098 8.20719 3.97617e-06 9.90935e-05 4545.52 2.06409e+06
0.72727 9.21298 0.000283581 3.78209e-06 135190 9.19931 3.77648e-06 8.81969e-05 5797.27 2.43595e+06
0.768555 10.305 0.000334669 3.58461e-06 158170 10.2886 3.5789e-06 7.84179e-05 7230.2 2.87479e+06
0.812184 11.5594 0.000394961 3.40716e-06 188560 11.5403 3.40151e-06 6.96525e-05 9223.7 3.39269e+06
0.85829 12.9414 0.000466114 3.2322e-06 220444 12.9199 3.22684e-06 6.1805e-05 11528.5 4.00389e+06
0.907013 14.4824 0.000550086 3.06492e-06 261388 14.4575 3.05966e-06 5.47875e-05 14622.6 4.7252e+06
0.958501 16.2408 0.000649185 2.91238e-06 308244 16.2157 2.90789e-06 4.85194e-05 18502.3 5.57646e+06
1.01291 18.2572 0.000766138 2.7742e-06 364396 18.2259 2.76944e-06 4.29272e-05 23549.4 6.58107e+06
1.07041 20.3274 0.00090416 2.61726e-06 429162 20.2897 2.61241e-06 3.79435e-05 29602.6 7.76667e+06
1.13118 22.7103 0.00106705 2.47771e-06 506358 22.6713 2.47345e-06 3.3507e-05 37443.1 9.16586e+06
1.19539 25.4268 0.00125928 2.35061e-06 598590 25.3788 2.34618e-06 2.9562e-05 47596.6 1.08171e+07
1.26325 28.2797 0.00148614 2.21526e-06 704844 28.2289 2.21128e-06 2.60578e-05 59921.2 1.27658e+07
1.33496 31.4769 0.00175387 2.08931e-06 834620 31.4146 2.08518e-06 2.29484e-05 75987 1.50656e+07
1.41075 34.9775 0.00206984 1.96726e-06 981444 34.9105 1.96349e-06 2.01923e-05 95618.6 1.77798e+07
1.49083 38.6964 0.00244272 1.84419e-06 1.15998e+06 38.6252 1.8408e-06 1.77518e-05 120507 2.09828e+07
1.57546 42.817 0.00288279 1.72907e-06 1.36931e+06 42.7379 1.72588e-06 1.55929e-05 151841 2.4763e+07
1.66489 47.2603 0.00340213 1.61717e-06 1.61652e+06 47.1724 1.61416e-06 1.3685e-05 191025 2.92241e+07
1.75941 52.1689 0.00401503 1.51263e-06 1.90601e+06 52.0705 1.50978e-06 1.20007e-05 240243 3.44889e+07
1.85928 57.3024 0.00473835 1.40785e-06 2.24913e+06 57.1937 1.40518e-06 1.05151e-05 301132 4.07021e+07
1.96483 62.7134 0.00559198 1.30558e-06 2.65744e+06 62.5953 1.30313e-06 9.20606e-06 376873 4.80347e+07
2.07637 68.6368 0.00659939 1.21078e-06 3.13125e+06 68.5109 1.20855e-06 8.05366e-06 470748 5.66883e+07
2.19424 75.1399 0.00778828 1.12315e-06 3.69915e+06 75.0011 1.12108e-06 7.04008e-06 590152 6.69008e+07
2.3188 81.7579 0.00919136 1.03552e-06 4.36472e+06 81.6138 1.0337e-06 6.1494e-06 734994 7.89532e+07
2.45043 89.1114 0.0108472 9.56369e-07 5.14913e+06 88.9516 9.54654e-07 5.36741e-06 917475 9.31768e+07
2.58954 96.5779 0.0128014 8.78277e-07 6.07894e+06 96.411 8.76759e-07 4.68145e-06 1.14046e+06 1.09963e+08
2.73654 104.751 0.0151076 8.07189e-07 7.17304e+06 104.572 8.05804e-07 4.08023e-06 1.41904e+06 1.29773e+08
2.89188 113.253 0.0178292 7.39483e-07 8.46557e+06 113.059 7.38215e-07 3.55373e-06 1.76157e+06 1.53152e+08
3.05605 122.425 0.0210412 6.77344e-07 9.98773e+06 122.219 6.76202e-07 3.09304e-06 2.18721e+06 1.80743e+08
3.22953 132.024 0.0248319 6.18947e-07 1.1797e+07 131.799 6.17893e-07 2.69025e-06 2.71414e+06 2.13304e+08
3.41286 142.103 0.0293054 5.64502e-07 1.39144e+07 141.858 5.6353e-07 2.33837e-06 3.35905e+06 2.51731e+08
3.6066 152.952 0.0345848 5.14847e-07 1.64163e+07 152.689 5.13962e-07 2.0312e-06 4.16102e+06 2.97081e+08
3.81134 164.3 0.0408154 4.68623e-07 1.93821e+07 164.027 4.67845e-07 1.76327e-06 5.15119e+06 3.50601e+08
4.0277 176.177 0.0481684 4.25791e-07 2.28754e+07 175.883 4.25081e-07 1.52972e-06 6.36726e+06 4.13763e+08
4.25634 188.732 0.056846 3.86505e-07 2.69929e+07 188.411 3.85847e-07 1.32631e-06 7.86613e+06 4.88304e+08
4.49796 201.928 0.067087 3.50404e-07 3.18542e+07 201.586 3.4981e-07 1.14926e-06 9.71222e+06 5.76273e+08
4.7533 215.99 0.0791729 3.1759e-07 3.75892e+07 215.63 3.1706e-07 9.95263e-07 1.19948e+07 6.8009e+08
5.02313 230.59 0.0934361 2.873e-07 4.43706e+07 230.205 2.8682e-07 8.61414e-07 1.47986e+07 8.0261e+08
5.30828 246.117 0.110269 2.59836e-07 5.23593e+07 245.702 2.59397e-07 7.45152e-07 1.82578e+07 9.47202e+08
5.60962 262.482 0.130134 2.34811e-07 6.1787e+07 262.042 2.34418e-07 6.44232e-07 2.25203e+07 1.11784e+09
5.92807 279.575 0.153578 2.11924e-07 7.29346e+07 279.108 2.11569e-07 5.56685e-07 2.77654e+07 1.31923e+09
6.26459 297.367 0.181246 1.91001e-07 8.60651e+07 296.867 1.9068e-07 4.80786e-07 3.41908e+07 1.55689e+09
6.62021 316.095 0.213898 1.72037e-07 1.01558e+08 315.567 1.7175e-07 4.15026e-07 4.20981e+07 1.83737e+09
6.99602 335.764 0.252432 1.54846e-07 1.1986e+08 335.201 1.54587e-07 3.58083e-07 5.18312e+07 2.16837e+09
7.39317 356.445 0.297908 1.3929e-07 1.41457e+08 355.855 1.3906e-07 3.08803e-07 6.38061e+07 2.55901e+09
7.81286 377.776 0.351577 1.2509e-07 1.66936e+08 377.149 1.24883e-07 2.66181e-07 7.84506e+07 3.02002e+09
8.25637 400.617 0.414914 1.12404e-07 1.97025e+08 399.954 1.12218e-07 2.29336e-07 9.65673e+07 3.56409e+09
8.72507 424.594 0.489662 1.00945e-07 2.32497e+08 423.881 1.00776e-07 1.97503e-07 1.18831e+08 4.20617e+09
9.22037 450.228 0.577876 9.07001e-08 2.74404e+08 449.462 9.05457e-08 1.70014e-07 1.46391e+08 4.96392e+09
9.74378 478.432 0.681982 8.1669e-08 3.2382e+08 477.602 8.15273e-08 1.46289e-07 1.80779e+08 5.85818e+09
10.2969 510.041 0.804843 7.37741e-08 3.82165e+08 509.121 7.3641e-08 1.25822e-07 2.24077e+08 6.91355e+09
10.8814 547.286 0.949838 6.70772e-08 4.51027e+08 546.237 6.69486e-08 1.08175e-07 2.79672e+08 8.15905e+09
11.4992 595.047 1.12095 6.17979e-08 5.32251e+08 593.774 6.16657e-08 9.29669e-08 3.53803e+08 9.62892e+09
12.1519 661.875 1.3229 5.82452e-08 6.28157e+08 660.205 5.80983e-08 7.98658e-08 4.58108e+08 1.13636e+10
12.8418 736.972 1.56122 5.49537e-08 3.82727e+08 762.79 5.68789e-08 6.85852e-08 3.06659e+08 1.34108e+10
13.5708 0 1.84248 0 0 0 0 5.88765e-08 0 1.58268e+10
14.3411 0 2.17441 0 0 0 0 5.05241e-08 0 1.8678e+10
15.1552 0 2.56613 0 0 0 0 4.33417e-08 0 2.20429e+10
16.0156 0 3.02843 0 0 0 0 3.71677e-08 0 2.6014e+10
16.9247 0 3.574 0 0 0 0 3.18628e-08 0 3.07005e+10
17.8855 0 4.21787 0 0 0 0 2.73063e-08 0 3.62312e+10
18.9008 0 4.97773 0 0 0 0 2.33941e-08 0 4.27584e+10
19.9738 0 5.87448 0 0 0 0 2.00364e-08 0 5.04614e+10
21.1076 0 6.93279 0 0 0 0 1.71555e-08 0 5.95522e+10
22.3058 0 8.18175 0 0 0 0 1.46847e-08 0 7.02807e+10
23.5721 0 9.65571 0 0 0 0 1.25662e-08 0 8.29419e+10
24.9102 0 11.3952 0 0 0 0 1.07504e-08 0 9.78842e+10
26.3243 0 13.4481 0 0 0 0 9.19452e-09 0 1.15518e+11
27.8187 0 15.8708 0 0 0 0 7.86182e-09 0 1.36329e+11
29.3979 0 18.73 0 0 0 0 6.72061e-09 0 1.60889e+11
31.0667 0 22.1042 0 0 0 0 5.74366e-09 0 1.89874e+11
32.8303 0 26.0864 0 0 0 0 4.90756e-09 0 2.2408e+11
34.694 0 30.7859 0 0 0 0 4.19221e-09 0 2.64449e+11
36.6634 0 36.3321 0 0 0 0 3.58032e-09 0 3.1209e+11
38.7447 0 42.8774 0 0 0 0 3.05709e-09 0 3.68314e+11
40.9442 0 50.6018 0 0 0 0 2.60976e-09 0 4.34667e+11
43.2685 0 59.7179 0 0 0 0 2.22743e-09 0 5.12973e+11
45.7247 0 70.4762 0 0 0 0 1.90073e-09 0 6.05386e+11
48.3204 0 83.1727 0 0 0 0 1.62163e-09 0 7.14448e+11
51.0634 0 98.1565 0 0 0 0 1.38326e-09 0 8.43158e+11
53.9621 0 115.84 0 0 0 0 1.1797e-09 0 9.95055e+11
57.0254 0 136.709 0 0 0 0 1.00592e-09 0 1.17432e+12
60.2626 0 161.337 0 0 0 0 8.57591e-10 0 1.38587e+12
63.6835 0 190.402 0 0 0 0 7.3101e-10 0 1.63554e+12
67.2987 0 224.704 0 0 0 0 6.23009e-10 0 1.93019e+12
71.1191 0 265.185 0 0 0 0 5.30879e-10 0 2.27792e+12
75.1563 0 312.958 0 0 0 0 4.52303e-10 0 2.68829e+12
79.4227 0 369.339 0 0 0 0 3.85299e-10 0 3.17259e+12
83.9313 0 435.876 0 0 0 0 3.28173e-10 0 3.74415e+12
88.6959 0 514.4 0 0 0 0 2.79476e-10 0 4.41866e+12
93.7309 0 607.071 0 0 0 0 2.37972e-10 0 5.2147e+12
99.0518 0 716.436 0 0 0 0 2.02605e-10 0 6.15414e+12
104.675 0 845.504 0 0 0 0 1.72471e-10 0 7.26283e+12
110.617 0 997.824 0 0 0 0 1.468e-10 0 8.57124e+12
116.896 0 1177.58 0 0 0 0 1.24935e-10 0 1.01154e+13
123.532 0 1389.73 0 0 0 0 1.06313e-10 0 1.19377e+13
130.545 0 1640.09 0 0 0 0 9.04567e-11 0 1.40883e+13
137.955 0 1935.56 0 0 0 0 7.69563e-11 0 1.66263e+13
145.787 0 2284.26 0 0 0 0 6.54636e-11 0 1.96216e+13
154.063 0 2695.77 0 0 0 0 5.56812e-11 0 2.31565e+13
162.808 0 3181.42 0 0 0 0 4.73556e-11 0 2.73282e+13
172.051 0 3754.56 0 0 0 0 4.02708e-11 0 3.22515e+13
181.818 0 4430.96 0 0 0 0 3.42426e-11 0 3.80616e+13
192.139 0 5229.21 0 0 0 0 2.91139e-11 0 4.49186e+13
203.046 0 6171.26 0 0 0 0 2.4751e-11 0 5.30108e+13
214.572 0 7283.03 0 0 0 0 2.10401e-11 0 6.25608e+13
226.753 0 8595.09 0 0 0 0 1.78839e-11 0 7.38313e+13
239.625 0 10143.5 0 0 0 0 1.51999e-11 0 8.71322e+13
253.228 0 11970.9 0 0 0 0 1.29176e-11 0 1.02829e+14
267.603 0 14127.5 0 0 0 0 1.09771e-11 0 1.21354e+14
282.795 0 16672.6 0 0 0 0 9.3274e-12 0 1.43217e+14
298.848 0 19676.2 0 0 0 0 7.925e-12 0 1.69017e+14
315.813 0 23220.9 0 0 0 0 6.73295e-12 0 1.99466e+14
333.741 0 27404.3 0 0 0 0 5.71979e-12 0 2.35401e+14
352.686 0 32341.2 0 0 0 0 4.85874e-12 0 2.77809e+14
372.707 0 38167.6 0 0 0 0 4.12703e-12 0 3.27857e+14
393.865 0 45043.5 0 0 0 0 3.50528e-12 0 3.86921e+14
416.224 0 53158.3 0 0 0 0 2.97701e-12 0 4.56626e+14
439.852 0 62734.9 0 0 0 0 2.52819e-12 0 5.38888e+14
464.821 0 74036.7 0 0 0 0 2.1469e-12 0 6.35971e+14
491.207 0 87374.6 0 0 0 0 1.82301e-12 0 7.50542e+14
519.092 0 103115 0 0 0 0 1.54789e-12 0 8.85755e+14
548.56 0 121692 0 0 0 0 1.31422e-12 0 1.04533e+15
579.7 0 143615 0 0 0 0 1.11576e-12 0 1.23364e+15
612.608 0 169488 0 0 0 0 9.47223e-13 0 1.45589e+15
647.384 0 200021 0 0 0 0 8.041e-13 0 1.71817e+15
684.134 0 236056 0 0 0 0 6.82568e-13 0 2.0277e+15
722.971 0 278582 0 0 0 0 5.79376e-13 0 2.393e+15
764.012 0 328769 0 0 0 0 4.91762e-13 0 2.8241e+15
