0.260603
200
1.0655e+09
8589934592
0.0129181 0 1.58924e-09 0 0 0 0 0.00677225 0 13.6515
0.0136515 0 1.87554e-09 0 0 0 0 0.00688819 0 16.1108
0.0144264 0 2.21343e-09 0 0 0 0 0.00699249 0 19.0132
0.0152454 0 2.61218e-09 0 0 0 0 0.00708412 0 22.4385
0.0161108 0 3.08278e-09 0 0 0 0 0.00716212 0 26.4808
0.0170254 0 3.63815e-09 0 0 0 0 0.00722559 0 31.2514
0.0179919 0 4.29357e-09 0 0 0 0 0.00727371 0 36.8815
0.0190132 0 5.06707e-09 0 0 0 0 0.00730578 0 43.5258
0.0200925 0 5.97991e-09 0 0 0 0 0.00732122 0 51.367
0.0212331 0 7.05721e-09 0 0 0 0 0.00731958 0 60.621
0.0224385 0 8.32858e-09 0 0 0 0 0.00730056 0 71.542
0.0237123 0 9.829e-09 0 0 0 0 0.00726401 0 84.4305
0.0250583 0 1.15997e-08 0 0 0 0 0.00720995 0 99.6408
0.0264808 0 1.36894e-08 0 0 0 0 0.00713857 0 117.591
0.0279841 0 1.61556e-08 0 0 0 0 0.00705021 0 138.776
0.0295727 0 1.90661e-08 0 0 0 0 0.00694538 0 163.777
0.0312514 0 2.25009e-08 0 0 0 0 0.00682475 0 193.281
0.0330255 0 2.65545e-08 0 0 0 0 0.00668915 0 228.102
0.0349003 0 3.13384e-08 0 0 0 0 0.00653951 0 269.195
0.0368815 0 3.69841e-08 0 0 0 0 0.00637693 0 317.691
0.0389751 0 4.36469e-08 0 0 0 0 0.00620256 0 374.924
0.0411876 0 5.151e-08 0 0 0 0 0.00601767 0 442.467
0.0435258 0 6.07896e-08 0 0 0 0 0.00582358 0 522.179
0.0459966 0 7.1741e-08 0 0 0 0 0.00562166 0 616.251
0.0486077 0 8.46654e-08 0 0 0 0 0.0054133 0 727.27
0.051367 0 9.99181e-08 0 0 0 0 0.00519989 0 858.29
0.054283 0 1.17919e-07 0 0 0 0 0.0049828 0 1012.91
0.0573645 0 1.39162e-07 0 0 0 0 0.00476339 0 1195.39
0.060621 0 1.64232e-07 0 0 0 0 0.00454293 0 1410.75
0.0640622 0 1.93819e-07 0 0 0 0 0.00432265 0 1664.89
0.0676989 0 2.28736e-07 0 0 0 0 0.00410371 0 1964.83
0.071542 0 2.69944e-07 0 0 0 0 0.00388717 0 2318.8
0.0756032 0 3.18575e-07 0 0 0 0 0.00367401 0 2736.54
0.079895 0 3.75967e-07 0 0 0 0 0.0034651 0 3229.53
0.0844305 0 4.43698e-07 0 0 0 0 0.00326121 0 3811.34
0.0892234 0 5.23632e-07 0 0 0 0 0.00306301 0 4497.96
0.0942883 0 6.17966e-07 0 0 0 0 0.00287109 0 5308.28
0.0996408 0 7.29294e-07 0 0 0 0 0.00268591 0 6264.59
0.105297 0 8.60678e-07 0 0 0 0 0.00250785 0 7393.17
0.111275 0 1.01573e-06 0 0 0 0 0.00233721 0 8725.07
0.117591 0 1.19872e-06 0 0 0 0 0.00217419 0 10296.9
0.124267 0 1.41467e-06 0 0 0 0 0.00201893 0 12151.9
0.131321 0 1.66953e-06 0 0 0 0 0.00187147 0 14341.1
0.138776 0 1.9703e-06 0 0 0 0 0.00173182 0 16924.7
0.146654 0 2.32525e-06 0 0 0 0 0.00159991 0 19973.8
0.154979 0 2.74415e-06 0 0 0 0 0.00147563 0 23572.1
0.163777 0 3.23852e-06 0 0 0 0 0.00135884 0 27818.7
0.173074 0 3.82195e-06 0 0 0 0 0.00124933 0 32830.3
0.182899 0 4.51048e-06 0 0 0 0 0.00114689 0 38744.7
0.193281 0 5.32305e-06 0 0 0 0 0.00105127 0 45724.7
0.204254 0 6.28202e-06 0 0 0 0 0.000962209 0 53962.1
0.215848 0 7.41374e-06 0 0 0 0 0.000879423 0 63683.5
0.228102 0 8.74934e-06 0 0 0 0 0.000802624 0 75156.3
0.24105 0 1.03256e-05 0 0 0 0 0.000731515 0 88695.9
0.254734 0 1.21857e-05 0 0 0 0 0.000665798 0 104675
0.269195 0 1.4381e-05 0 0 0 0 0.000605173 0 123532
0.284476 0 1.69718e-05 0 0 0 0 0.000549345 0 145787
0.300625 0 2.00293e-05 0 0 0 0 0.000498021 0 172051
0.317691 0 2.36377e-05 0 0 0 0 0.000450916 0 203046
0.335725 0 2.78961e-05 0 0 0 0 0.000407755 0 239625
0.354784 0 3.29216e-05 0 0 0 0 0.000368269 0 282795
0.374924 0 3.88525e-05 0 0 0 0 0.000332202 0 333741
0.396207 0.970234 4.58519e-05 2.46337e-06 6 0.943259 2.39488e-06 0.000299307 0.0493814 393865
0.418699 0 5.41123e-05 0 0 0 0 0.00026935 0 464821
0.442467 0 6.38607e-05 0 0 0 0 0.000242108 0 548560
0.467585 0 7.53654e-05 0 0 0 0 0.00021737 0 647384
0.494129 0 8.89427e-05 0 0 0 0 0.000194938 0 764012
0.522179 0 0.000104966 0 0 0 0 0.000174625 0 901651
0.551822 0 0.000123876 0 0 0 0 0.000156255 0 1.06409e+06
0.583147 5.38193 0.000146192 4.28572e-06 12 5.66451 4.51074e-06 0.000139664 0.368231 1.25578e+06
0.616251 0 0.000172529 0 0 0 0 0.0001247 0 1.48202e+06
0.651234 0 0.000203611 0 0 0 0 0.00011122 0 1.74901e+06
0.688203 22.842 0.000240292 1.10664e-05 8 22.2737 1.0791e-05 9.90935e-05 0.893408 2.06409e+06
0.72727 0 0.000283581 0 0 0 0 8.81969e-05 0 2.43595e+06
0.768555 0 0.000334669 0 0 0 0 7.84179e-05 0 2.87479e+06
0.812184 0.434225 0.000394961 1.27988e-07 6 0.443509 1.30725e-07 6.96525e-05 0.0110252 3.39269e+06
0.85829 0 0.000466114 0 0 0 0 6.1805e-05 0 4.00389e+06
0.907013 0.52721 0.000550086 1.11574e-07 24 0.537326 1.13715e-07 5.47875e-05 0.0488757 4.7252e+06
0.958501 1.68406 0.000649185 3.01994e-07 24 1.58542 2.84305e-07 4.85194e-05 0.149381 5.57646e+06
1.01291 0 0.000766138 0 0 0 0 4.29272e-05 0 6.58107e+06
1.07041 0 0.00090416 0 0 0 0 3.79435e-05 0 7.76667e+06
1.13118 2.14213 0.00106705 2.33707e-07 12 2.11582 2.30837e-07 3.3507e-05 0.0836985 9.16586e+06
1.19539 1.71633 0.00125928 1.58668e-07 30 1.68095 1.55397e-07 2.9562e-05 0.161019 1.08171e+07
1.26325 7.53 0.00148614 5.89855e-07 24 7.4167 5.8098e-07 2.60578e-05 0.543274 1.27658e+07
1.33496 18.2235 0.00175387 1.2096e-06 24 18.2635 1.21226e-06 2.29484e-05 1.26503 1.50656e+07
1.41075 8.68817 0.00206984 4.88655e-07 32 8.92083 5.01741e-07 2.01923e-05 0.774403 1.77798e+07
1.49083 1.07761 0.00244272 5.13568e-08 48 1.05464 5.0262e-08 1.77518e-05 0.138867 2.09828e+07
1.57546 0.266953 0.00288279 1.07804e-08 6 0.2542 1.02653e-08 1.55929e-05 0.00414819 2.4763e+07
1.66489 0.904726 0.00340213 3.09582e-08 84 0.882491 3.01974e-08 1.3685e-05 0.190025 2.92241e+07
1.75941 2.48237 0.00401503 7.19761e-08 48 2.48126 7.19438e-08 1.20007e-05 0.287888 3.44889e+07
1.85928 0.672072 0.00473835 1.6512e-08 72 0.678535 1.66708e-08 1.05151e-05 0.113062 4.07021e+07
1.96483 1.69548 0.00559198 3.52969e-08 54 1.65548 3.44643e-08 9.20606e-06 0.207041 4.80347e+07
2.07637 10.0274 0.00659939 1.76886e-07 104 10.0135 1.76641e-07 8.05366e-06 2.2842 5.66883e+07
2.19424 1.11807 0.00778828 1.67124e-08 120 1.13262 1.69298e-08 7.04008e-06 0.284867 6.69008e+07
2.3188 3.03538 0.00919136 3.84452e-08 156 2.91461 3.69157e-08 6.1494e-06 0.975292 7.89532e+07
2.45043 2.11233 0.0108472 2.26702e-08 126 2.09247 2.2457e-08 5.36741e-06 0.532182 9.31768e+07
2.58954 1.76054 0.0128014 1.60103e-08 192 1.7824 1.62091e-08 4.68145e-06 0.656631 1.09963e+08
2.73654 6.86636 0.0151076 5.29106e-08 152 7.10841 5.47757e-08 4.08023e-06 1.97106 1.29773e+08
2.89188 4.96182 0.0178292 3.2398e-08 378 5.05284 3.29923e-08 3.55373e-06 3.44608 1.53152e+08
3.05605 2.7567 0.0210412 1.52521e-08 264 2.71375 1.50144e-08 3.09304e-06 1.30181 1.80743e+08
3.22953 1.64327 0.0248319 7.70389e-09 366 1.62735 7.62926e-09 2.69025e-06 1.04809 2.13304e+08
3.41286 2.44364 0.0293054 9.70734e-09 428 2.38308 9.46675e-09 2.33837e-06 1.77677 2.51731e+08
3.6066 5.02655 0.0345848 1.69198e-08 486 4.89532 1.64781e-08 2.0312e-06 4.04834 2.97081e+08
3.81134 2.58119 0.0408154 7.36219e-09 600 2.57979 7.35819e-09 1.76327e-06 2.50519 3.50601e+08
4.0277 2.82465 0.0481684 6.82674e-09 738 2.78621 6.73383e-09 1.52972e-06 3.2935 4.13763e+08
4.25634 3.45219 0.056846 7.06977e-09 824 3.47653 7.1196e-09 1.32631e-06 4.39227 4.88304e+08
4.49796 4.79713 0.067087 8.32441e-09 954 4.80291 8.33443e-09 1.14926e-06 6.91011 5.76273e+08
4.7533 3.02817 0.0791729 4.45261e-09 1094 3.00223 4.41446e-09 9.95263e-07 4.89434 6.8009e+08
5.02313 3.14148 0.0934361 3.91408e-09 1332 3.15056 3.92539e-09 8.61414e-07 6.05233 8.0261e+08
5.30828 5.449 0.110269 5.75273e-09 1614 5.4859 5.79169e-09 7.45152e-07 12.4604 9.47202e+08
5.60962 4.72049 0.130134 4.22285e-09 1850 4.68251 4.18888e-09 6.44232e-07 12.1265 1.11784e+09
5.92807 5.32305 0.153578 4.03498e-09 2238 5.27257 3.99672e-09 5.56685e-07 16.2215 1.31923e+09
6.26459 4.67573 0.181246 3.00325e-09 2546 4.6992 3.01833e-09 4.80786e-07 15.9037 1.55689e+09
6.62021 4.9977 0.213898 2.72004e-09 3264 4.992 2.71694e-09 4.15026e-07 21.3919 1.83737e+09
6.99602 6.125 0.252432 2.8247e-09 3506 6.17009 2.84549e-09 3.58083e-07 27.6567 2.16837e+09
7.39317 6.38541 0.297908 2.49526e-09 4506 6.39953 2.50078e-09 3.08803e-07 36.4104 2.55901e+09
7.81286 7.33912 0.351577 2.43015e-09 5018 7.37092 2.44069e-09 2.66181e-07 45.8129 3.02002e+09
8.25637 7.56526 0.414914 2.12264e-09 5852 7.5242 2.11111e-09 2.29336e-07 54.1636 3.56409e+09
8.72507 7.59669 0.489662 1.80608e-09 7362 7.57447 1.8008e-09 1.97503e-07 67.3224 4.20617e+09
9.22037 8.55509 0.577876 1.72346e-09 8306 8.51526 1.71543e-09 1.70014e-07 84.199 4.96392e+09
9.74378 8.80625 0.681982 1.50324e-09 9698 8.79237 1.50087e-09 1.46289e-07 99.6549 5.85818e+09
10.2969 9.97512 0.804843 1.44284e-09 11816 9.9839 1.44411e-09 1.25822e-07 135.497 6.91355e+09
10.8814 10.502 0.949838 1.28716e-09 13682 10.4936 1.28614e-09 1.08175e-07 162.799 8.15905e+09
11.4992 11.13 1.12095 1.15589e-09 16152 11.0999 1.15277e-09 9.29669e-08 200.824 9.62892e+09
12.1519 11.9169 1.3229 1.04869e-09 19472 11.8798 1.04543e-09 7.98658e-08 255.681 1.13636e+10
12.8418 12.4693 1.56122 9.29794e-10 22670 12.4355 9.27278e-10 6.85852e-08 307.332 1.34108e+10
13.5708 13.8934 1.84248 8.77841e-10 26224 13.8791 8.76939e-10 5.88765e-08 390.997 1.58268e+10
14.3411 14.5327 2.17441 7.78067e-10 31640 14.5315 7.77998e-10 5.05241e-08 487.253 1.8678e+10
15.1552 15.92 2.56613 7.22229e-10 37484 15.8934 7.21021e-10 4.33417e-08 624.619 2.20429e+10
16.0156 16.7723 3.02843 6.44742e-10 43856 16.7551 6.4408e-10 3.71677e-08 760.762 2.6014e+10
16.9247 18.2637 3.574 5.949e-10 51362 18.2464 5.94337e-10 3.18628e-08 958.964 3.07005e+10
17.8855 19.2182 4.21787 5.30432e-10 61636 19.1862 5.29549e-10 2.73063e-08 1197.3 3.62312e+10
18.9008 20.5299 4.97773 4.80137e-10 72218 20.484 4.79063e-10 2.33941e-08 1482.19 4.27584e+10
19.9738 22.1304 5.87448 4.3856e-10 84586 22.081 4.37581e-10 2.00364e-08 1851.43 5.04614e+10
21.1076 23.5917 6.93279 3.96151e-10 100708 23.55 3.95451e-10 1.71555e-08 2325.53 5.95522e+10
22.3058 25.1661 8.18175 3.5808e-10 118712 25.1157 3.57363e-10 1.46847e-08 2894.75 7.02807e+10
23.5721 26.6849 9.65571 3.2173e-10 140410 26.6257 3.21016e-10 1.25662e-08 3594.91 8.29419e+10
24.9102 28.7482 11.3952 2.93696e-10 164374 28.6852 2.93052e-10 1.07504e-08 4490.64 9.78842e+10
26.3243 30.5325 13.4481 2.64309e-10 194680 30.4733 2.63797e-10 9.19452e-09 5596.35 1.15518e+11
27.8187 32.6821 15.8708 2.39729e-10 230196 32.6148 2.39236e-10 7.86182e-09 7019.33 1.36329e+11
29.3979 35.187 18.73 2.18703e-10 271156 35.1249 2.18317e-10 6.72061e-09 8823.99 1.60889e+11
31.0667 37.7017 22.1042 1.98562e-10 321076 37.6179 1.98121e-10 5.74366e-09 11099.8 1.89874e+11
32.8303 40.4508 26.0864 1.8052e-10 377436 40.3668 1.80144e-10 4.90756e-09 13883.6 2.2408e+11
34.694 43.8717 30.7859 1.65899e-10 447594 43.772 1.65522e-10 4.19221e-09 17712.7 2.64449e+11
36.6634 47.4158 36.3321 1.5193e-10 525078 47.3028 1.51568e-10 3.58032e-09 22281.5 3.1209e+11
38.7447 51.5737 42.8774 1.40027e-10 621924 51.4568 1.39709e-10 3.05709e-09 28486.6 3.68314e+11
40.9442 56.1793 50.6018 1.29247e-10 732630 56.0542 1.28959e-10 2.60976e-09 36283.1 4.34667e+11
43.2685 61.2225 59.7179 1.19348e-10 865596 61.0896 1.19089e-10 2.22743e-09 46379.7 5.12973e+11
45.7247 67.2613 70.4762 1.11105e-10 1.02168e+06 67.1031 1.10843e-10 1.90073e-09 59720.7 6.05386e+11
48.3204 74.3253 83.1727 1.04032e-10 1.20544e+06 74.138 1.0377e-10 1.62163e-09 77331.8 7.14448e+11
51.0634 82.5251 98.1565 9.78762e-11 1.42103e+06 82.3151 9.76272e-11 1.38326e-09 100549 8.43158e+11
53.9621 91.3911 115.84 9.18453e-11 1.67997e+06 91.1577 9.16107e-11 1.1797e-09 130793 9.95055e+11
57.0254 102.32 136.709 8.71314e-11 1.98018e+06 102.06 8.69099e-11 1.00592e-09 171521 1.17432e+12
60.2626 114.589 161.337 8.26837e-11 2.33957e+06 114.278 8.24593e-11 8.57591e-10 225567 1.38587e+12
63.6835 129.563 190.402 7.92169e-11 2.75676e+06 129.199 7.89949e-11 7.3101e-10 298741 1.63554e+12
67.2987 147.007 224.704 7.61622e-11 3.25638e+06 146.602 7.59524e-11 6.23009e-10 398089 1.93019e+12
71.1191 167.239 265.185 7.34174e-11 3.84387e+06 166.764 7.32089e-11 5.30879e-10 531584 2.27792e+12
75.1563 192.918 312.958 7.17625e-11 4.53277e+06 192.24 7.15101e-11 4.52303e-10 719169 2.68829e+12
79.4227 219.932 369.339 6.93223e-11 5.35083e+06 219.292 6.91207e-11 3.85299e-10 962710 3.17259e+12
83.9313 253.519 435.876 6.77108e-11 6.32174e+06 252.762 6.75085e-11 3.28173e-10 1.30434e+06 3.74415e+12
88.6959 293.11 514.4 6.63345e-11 7.44986e+06 292.204 6.61295e-11 2.79476e-10 1.76825e+06 4.41866e+12
93.7309 340.696 607.071 6.53337e-11 8.79764e+06 339.643 6.51319e-11 2.37972e-10 2.41533e+06 5.2147e+12
99.0518 396.318 716.436 6.43986e-11 1.03827e+07 395.079 6.41972e-11 2.02605e-10 3.30017e+06 6.15414e+12
104.675 462.652 845.504 6.37014e-11 1.22515e+07 461.228 6.35054e-11 1.72471e-10 4.52505e+06 7.26283e+12
110.617 539.476 997.824 6.29402e-11 1.44573e+07 537.756 6.27396e-11 1.468e-10 6.19854e+06 8.57124e+12
116.896 631.904 1177.58 6.24697e-11 1.70664e+07 629.893 6.22708e-11 1.24935e-10 8.53351e+06 1.01154e+13
123.532 740.957 1389.73 6.20687e-11 2.0139e+07 738.531 6.18655e-11 1.06313e-10 1.17577e+07 1.19377e+13
130.545 870.632 1640.09 6.17983e-11 2.37643e+07 867.844 6.16004e-11 9.04567e-11 1.62353e+07 1.40883e+13
137.955 1022.21 1935.56 6.14816e-11 2.80503e+07 1018.89 6.12814e-11 7.69563e-11 2.24098e+07 1.66263e+13
145.787 1201.61 2284.26 6.12393e-11 3.30981e+07 1197.69 6.10394e-11 6.54636e-11 3.09623e+07 1.96216e+13
154.063 1416.22 2695.77 6.11588e-11 3.90634e+07 1411.59 6.09585e-11 5.56812e-11 4.29063e+07 2.31565e+13
162.808 1666.12 3181.42 6.09669e-11 4.61057e+07 1660.57 6.0764e-11 4.73556e-11 5.93576e+07 2.73282e+13
172.051 1964.13 3754.56 6.09005e-11 5.44046e+07 1957.59 6.06977e-11 4.02708e-11 8.22747e+07 3.22515e+13
181.818 2317.52 4430.96 6.08887e-11 6.42064e+07 2309.75 6.06845e-11 3.42426e-11 1.14169e+08 3.80616e+13
192.139 2736.26 5229.21 6.09161e-11 7.57748e+07 2727.07 6.07115e-11 2.91139e-11 1.58547e+08 4.49186e+13
203.046 3233.95 6171.26 6.10056e-11 8.94213e+07 3223.11 6.08011e-11 2.4751e-11 2.20403e+08 5.30108e+13
214.572 3824.44 7283.03 6.11317e-11 1.05538e+08 3811.56 6.09258e-11 2.10401e-11 3.0664e+08 6.25608e+13
226.753 4528.25 8595.09 6.13324e-11 1.24552e+08 4512.89 6.11244e-11 1.78839e-11 4.27147e+08 7.38313e+13
239.625 5366.3 10143.5 6.1588e-11 1.46987e+08 5347.98 6.13777e-11 1.51999e-11 5.95573e+08 8.71322e+13
253.228 6374.51 11970.9 6.19912e-11 1.7347e+08 6352.55 6.17776e-11 1.29176e-11 8.32476e+08 1.02829e+14
267.603 7587.21 14127.5 6.25211e-11 2.04703e+08 7560.83 6.23038e-11 1.09771e-11 1.1659e+09 1.21354e+14
282.795 9058.31 16672.6 6.3249e-11 2.4161e+08 9026.4 6.30263e-11 9.3274e-12 1.63835e+09 1.43217e+14
298.848 10859.3 19676.2 6.42495e-11 2.85122e+08 10820.4 6.40192e-11 7.925e-12 2.31154e+09 1.69017e+14
315.813 13090.4 23220.9 6.56273e-11 3.36491e+08 13042.3 6.5386e-11 6.73295e-12 3.27984e+09 1.99466e+14
333.741 15898.9 27404.3 6.75398e-11 3.97115e+08 15838.5 6.72831e-11 5.71979e-12 4.68917e+09 2.35401e+14
352.686 19520.2 32341.2 7.0265e-11 4.68637e+08 19442.6 6.99857e-11 4.85874e-12 6.77723e+09 2.77809e+14
372.707 24329.9 38167.6 7.4209e-11 5.53074e+08 24227.4 7.38964e-11 4.12703e-12 9.94495e+09 3.27857e+14
393.865 30963.5 45043.5 8.00254e-11 6.52716e+08 30823 7.96622e-11 3.50528e-12 1.49015e+10 3.86921e+14
416.224 36548.1 53158.3 8.00395e-11 2.2184e+08 38664.5 8.46743e-11 2.97701e-12 5.96436e+09 4.56626e+14
439.852 0 62734.9 0 0 0 0 2.52819e-12 0 5.38888e+14
464.821 0 74036.7 0 0 0 0 2.1469e-12 0 6.35971e+14
491.207 0 87374.6 0 0 0 0 1.82301e-12 0 7.50542e+14
519.092 0 103115 0 0 0 0 1.54789e-12 0 8.85755e+14
548.56 0 121692 0 0 0 0 1.31422e-12 0 1.04533e+15
579.7 0 143615 0 0 0 0 1.11576e-12 0 1.23364e+15
612.608 0 169488 0 0 0 0 9.47223e-13 0 1.45589e+15
647.384 0 200021 0 0 0 0 8.041e-13 0 1.71817e+15
684.134 0 236056 0 0 0 0 6.82568e-13 0 2.0277e+15
722.971 0 278582 0 0 0 0 5.79376e-13 0 2.393e+15
764.012 0 328769 0 0 0 0 4.91762e-13 0 2.8241e+15
0.260603
200
1.0655e+09
8589934592
0.0129181 0.000196031 1.58924e-09 1.43597e-05 6 0.000194237 1.42283e-05 0.00677225 0.0127223 13.6515
0.0136515 0 1.87554e-09 0 0 0 0 0.00688819 0 16.1108
0.0144264 0 2.21343e-09 0 0 0 0 0.00699249 0 19.0132
0.0152454 0 2.61218e-09 0 0 0 0 0.00708412 0 22.4385
0.0161108 0 3.08278e-09 0 0 0 0 0.00716212 0 26.4808
0.0170254 0 3.63815e-09 0 0 0 0 0.00722559 0 31.2514
0.0179919 0.000435825 4.29357e-09 1.18169e-05 12 0.000435263 1.18017e-05 0.00727371 0.0194953 36.8815
0.0190132 0 5.06707e-09 0 0 0 0 0.00730578 0 43.5258
0.0200925 0 5.97991e-09 0 0 0 0 0.00732122 0 51.367
0.0212331 0.000412409 7.05721e-09 6.80308e-06 8 0.00041205 6.79716e-06 0.00731958 0.00743548 60.621
0.0224385 0 8.32858e-09 0 0 0 0 0.00730056 0 71.542
0.0237123 0 9.829e-09 0 0 0 0 0.00726401 0 84.4305
0.0250583 0.00264263 1.15997e-08 2.65216e-05 6 0.00264139 2.65091e-05 0.00720995 0.0220708 99.6408
0.0264808 0 1.36894e-08 0 0 0 0 0.00713857 0 117.591
0.0279841 0.00164142 1.61556e-08 1.18278e-05 24 0.00163973 1.18157e-05 0.00705021 0.0402638 138.776
0.0295727 0 1.90661e-08 0 0 0 0 0.00694538 0 163.777
0.0312514 0.00293292 2.25009e-08 1.51744e-05 24 0.00294781 1.52514e-05 0.00682475 0.0533623 193.281
0.0330255 0 2.65545e-08 0 0 0 0 0.00668915 0 228.102
0.0349003 0.00417356 3.13384e-08 1.55039e-05 12 0.00414014 1.53797e-05 0.00653951 0.0284496 269.195
0.0368815 0.00355803 3.69841e-08 1.11997e-05 30 0.00352015 1.10804e-05 0.00637693 0.0526884 317.691
0.0389751 0.00420256 4.36469e-08 1.12091e-05 24 0.00415932 1.10938e-05 0.00620256 0.0433721 374.924
0.0411876 0.00266701 5.151e-08 6.02759e-06 24 0.0026489 5.98666e-06 0.00601767 0.0240396 442.467
0.0435258 0.00591816 6.07896e-08 1.13336e-05 8 0.00591771 1.13327e-05 0.00582358 0.0155692 522.179
0.0459966 0.00750757 7.1741e-08 1.21827e-05 72 0.00744822 1.20863e-05 0.00562166 0.156031 616.251
0.0486077 0 8.46654e-08 0 0 0 0 0.0054133 0 727.27
0.051367 0.0110504 9.99181e-08 1.28749e-05 54 0.0110151 1.28337e-05 0.00519989 0.133704 858.29
0.054283 0.00865342 1.17919e-07 8.5431e-06 60 0.00869008 8.5793e-06 0.0049828 0.102871 1012.91
0.0573645 0.00850539 1.39162e-07 7.11515e-06 96 0.00848355 7.09688e-06 0.00476339 0.143397 1195.39
0.060621 0.00987046 1.64232e-07 6.99663e-06 24 0.00973673 6.90184e-06 0.00454293 0.0369628 1410.75
0.0640622 0.0173609 1.93819e-07 1.04276e-05 134 0.0173703 1.04333e-05 0.00432265 0.323251 1664.89
0.0676989 0.0167015 2.28736e-07 8.50022e-06 120 0.0166242 8.4609e-06 0.00410371 0.248562 1964.83
0.071542 0.0153455 2.69944e-07 6.61788e-06 108 0.0151791 6.54611e-06 0.00388717 0.183869 2318.8
0.0756032 0.0223896 3.18575e-07 8.18174e-06 174 0.0222713 8.13851e-06 0.00367401 0.387485 2736.54
0.079895 0.0238299 3.75967e-07 7.37875e-06 168 0.0236056 7.30929e-06 0.0034651 0.357748 3229.53
0.0844305 0.0202835 4.43698e-07 5.32188e-06 168 0.020385 5.3485e-06 0.00326121 0.274155 3811.34
0.0892234 0.0229728 5.23632e-07 5.10739e-06 290 0.0228751 5.08566e-06 0.00306301 0.483557 4497.96
0.0942883 0.0295984 6.17966e-07 5.57589e-06 288 0.0295252 5.56209e-06 0.00287109 0.55932 5308.28
0.0996408 0.0267046 7.29294e-07 4.26279e-06 366 0.0264826 4.22735e-06 0.00268591 0.580876 6264.59
0.105297 0.0293899 8.60678e-07 3.97527e-06 420 0.0291862 3.94773e-06 0.00250785 0.665754 7393.17
0.111275 0.0312417 1.01573e-06 3.58068e-06 398 0.031152 3.5704e-06 0.00233721 0.609748 8725.07
0.117591 0.0372016 1.19872e-06 3.61289e-06 624 0.0372797 3.62048e-06 0.00217419 1.03691 10296.9
0.124267 0.0415675 1.41467e-06 3.42065e-06 642 0.041507 3.41567e-06 0.00201893 1.08774 12151.9
0.131321 0.0524066 1.66953e-06 3.65429e-06 800 0.0524254 3.6556e-06 0.00187147 1.5621 14341.1
0.138776 0.0471837 1.9703e-06 2.78786e-06 858 0.0474081 2.80112e-06 0.00173182 1.3812 16924.7
0.146654 0.0516264 2.32525e-06 2.58471e-06 1080 0.0520594 2.60639e-06 0.00159991 1.74478 19973.8
0.154979 0.0612691 2.74415e-06 2.59922e-06 1286 0.061687 2.61695e-06 0.00147563 2.2652 23572.1
0.163777 0.057815 3.23852e-06 2.07828e-06 1650 0.0579273 2.08232e-06 0.00135884 2.5236 27818.7
0.173074 0.0678939 3.82195e-06 2.06803e-06 1778 0.067904 2.06833e-06 0.00124933 2.94314 32830.3
0.182899 0.0664469 4.51048e-06 1.71499e-06 2112 0.0666118 1.71925e-06 0.00114689 3.15816 38744.7
0.193281 0.0775597 5.32305e-06 1.69623e-06 2570 0.077666 1.69856e-06 0.00105127 4.14671 45724.7
0.204254 0.0876764 6.28202e-06 1.62478e-06 3030 0.0876299 1.62391e-06 0.000962209 5.11643 53962.1
0.215848 0.0874487 7.41374e-06 1.37318e-06 3434 0.087421 1.37274e-06 0.000879423 5.36202 63683.5
0.228102 0.0913969 8.74934e-06 1.21609e-06 4218 0.0914215 1.21642e-06 0.000802624 6.39088 75156.3
0.24105 0.102912 1.03256e-05 1.16028e-06 4766 0.10301 1.16139e-06 0.000731515 7.55948 88695.9
0.254734 0.111111 1.21857e-05 1.06148e-06 6026 0.111081 1.0612e-06 0.000665798 9.60727 104675
0.269195 0.117469 1.4381e-05 9.5092e-07 6480 0.117394 9.50308e-07 0.000605173 10.1821 123532
0.284476 0.128353 1.69718e-05 8.80418e-07 8162 0.128646 8.82423e-07 0.000549345 13.081 145787
0.300625 0.130102 2.00293e-05 7.56186e-07 9578 0.130258 7.5709e-07 0.000498021 14.5431 172051
0.317691 0.145286 2.36377e-05 7.15531e-07 11234 0.145157 7.14896e-07 0.000450916 17.8265 203046
0.335725 0.152684 2.78961e-05 6.3718e-07 13344 0.152571 6.36708e-07 0.000407755 20.8521 239625
0.354784 0.160494 3.29216e-05 5.6753e-07 15464 0.160388 5.67153e-07 0.000368269 23.8311 282795
0.374924 0.17235 3.88525e-05 5.1642e-07 18458 0.172341 5.16393e-07 0.000332202 28.6936 333741
0.396207 0.183198 4.58519e-05 4.65129e-07 22232 0.182947 4.64491e-07 0.000299307 34.549 393865
0.418699 0.198369 5.41123e-05 4.26765e-07 25628 0.197903 4.25762e-07 0.00026935 40.6057 464821
0.442467 0.211393 6.38607e-05 3.8536e-07 30320 0.210963 3.84576e-07 0.000242108 48.26 548560
0.467585 0.221396 7.53654e-05 3.41985e-07 35452 0.221089 3.41511e-07 0.00021737 55.776 647384
0.494129 0.235613 8.89427e-05 3.08389e-07 41792 0.235509 3.08253e-07 0.000194938 66.1141 764012
0.522179 0.254573 0.000104966 2.82341e-07 49988 0.25449 2.82249e-07 0.000174625 80.8228 901651
0.551822 0.26914 0.000123876 2.52931e-07 59110 0.268935 2.52738e-07 0.000156255 95.6819 1.06409e+06
0.583147 0.28908 0.000146192 2.30199e-07 69716 0.288654 2.29859e-07 0.000139664 114.908 1.25578e+06
0.616251 0.308013 0.000172529 2.07834e-07 82210 0.307476 2.07471e-07 0.0001247 137.017 1.48202e+06
0.651234 0.329778 0.000203611 1.88552e-07 96722 0.329129 1.88181e-07 0.00011122 163.973 1.74901e+06
0.688203 0.352028 0.000240292 1.70549e-07 113098 0.3516 1.70341e-07 9.90935e-05 194.652 2.06409e+06
0.72727 0.375846 0.000283581 1.54292e-07 135190 0.375428 1.5412e-07 8.81969e-05 236.502 2.43595e+06
0.768555 0.402734 0.000334669 1.40092e-07 158170 0.402318 1.39947e-07 7.84179e-05 282.567 2.87479e+06
0.812184 0.429293 0.000394961 1.26535e-07 188560 0.42879 1.26386e-07 6.96525e-05 342.549 3.39269e+06
0.85829 0.460029 0.000466114 1.14895e-07 220444 0.459426 1.14745e-07 6.1805e-05 409.805 4.00389e+06
0.907013 0.489586 0.000550086 1.03612e-07 261388 0.489016 1.03491e-07 5.47875e-05 494.325 4.7252e+06
0.958501 0.528855 0.000649185 9.48371e-08 308244 0.528194 9.47185e-08 4.85194e-05 602.5 5.57646e+06
1.01291 0.567212 0.000766138 8.61883e-08 364396 0.566414 8.60671e-08 4.29272e-05 731.627 6.58107e+06
1.07041 0.607208 0.00090416 7.81812e-08 429162 0.606319 7.80668e-08 3.79435e-05 884.274 7.76667e+06
1.13118 0.653852 0.00106705 7.13355e-08 506358 0.652918 7.12337e-08 3.3507e-05 1078.02 9.16586e+06
1.19539 0.704202 0.00125928 6.51007e-08 598590 0.703084 6.49974e-08 2.9562e-05 1318.2 1.08171e+07
1.26325 0.758013 0.00148614 5.93782e-08 704844 0.756942 5.92943e-08 2.60578e-05 1606.14 1.27658e+07
1.33496 0.814554 0.00175387 5.4067e-08 834620 0.813264 5.39814e-08 2.29484e-05 1966.38 1.50656e+07
1.41075 0.880461 0.00206984 4.95204e-08 981444 0.879012 4.94389e-08 2.01923e-05 2406.93 1.77798e+07
1.49083 0.950744 0.00244272 4.53106e-08 1.15998e+06 0.949234 4.52386e-08 1.77518e-05 2960.79 2.09828e+07
1.57546 1.02643 0.00288279 4.14501e-08 1.36931e+06 1.02473 4.13817e-08 1.55929e-05 3640 2.4763e+07
1.66489 1.11174 0.00340213 3.8042e-08 1.61652e+06 1.10985 3.79773e-08 1.3685e-05 4493.63 2.92241e+07
1.75941 1.20627 0.00401503 3.49756e-08 1.90601e+06 1.20421 3.4916e-08 1.20007e-05 5554.99 3.44889e+07
1.85928 1.30692 0.00473835 3.21093e-08 2.24913e+06 1.30471 3.20551e-08 1.05151e-05 6868.01 4.07021e+07
1.96483 1.41997 0.00559198 2.95612e-08 2.65744e+06 1.41745 2.95088e-08 9.20606e-06 8533.21 4.80347e+07
2.07637 1.54388 0.00659939 2.72346e-08 3.13125e+06 1.5412 2.71872e-08 8.05366e-06 10588.8 5.66883e+07
2.19424 1.68217 0.00778828 2.51443e-08 3.69915e+06 1.6792 2.50999e-08 7.04008e-06 13211.8 6.69008e+07
2.3188 1.83092 0.00919136 2.31899e-08 4.36472e+06 1.82763 2.31483e-08 6.1494e-06 16459.7 7.89532e+07
2.45043 1.9986 0.0108472 2.14495e-08 5.14913e+06 1.99496 2.14105e-08 5.36741e-06 20577.2 9.31768e+07
2.58954 2.18418 0.0128014 1.98629e-08 6.07894e+06 2.18011 1.98259e-08 4.68145e-06 25792.2 1.09963e+08
2.73654 2.3884 0.0151076 1.84045e-08 7.17304e+06 2.38397 1.83703e-08 4.08023e-06 32355 1.29773e+08
2.89188 2.61303 0.0178292 1.70617e-08 8.46557e+06 2.60814 1.70297e-08 3.55373e-06 40643.7 1.53152e+08
3.05605 2.86704 0.0210412 1.58625e-08 9.98773e+06 2.86169 1.58329e-08 3.09304e-06 51221.7 1.80743e+08
3.22953 3.14255 0.0248319 1.47327e-08 1.1797e+07 3.13653 1.47045e-08 2.69025e-06 64604.4 2.13304e+08
3.41286 3.44701 0.0293054 1.36932e-08 1.39144e+07 3.44026 1.36664e-08 2.33837e-06 81480.8 2.51731e+08
3.6066 3.78238 0.0345848 1.27318e-08 1.64163e+07 3.77512 1.27074e-08 2.0312e-06 102899 2.97081e+08
3.81134 4.15966 0.0408154 1.18644e-08 1.93821e+07 4.15154 1.18412e-08 1.76327e-06 130415 3.50601e+08
4.0277 4.56804 0.0481684 1.10402e-08 2.28754e+07 4.55901 1.10184e-08 1.52972e-06 165095 4.13763e+08
4.25634 5.02217 0.056846 1.02849e-08 2.69929e+07 5.01206 1.02642e-08 1.32631e-06 209318 4.88304e+08
4.49796 5.51858 0.067087 9.57633e-09 3.18542e+07 5.50753 9.55715e-09 1.14926e-06 265429 5.76273e+08
4.7533 6.06034 0.0791729 8.91108e-09 3.75892e+07 6.04822 8.89326e-09 9.95263e-07 336555 6.8009e+08
5.02313 6.65112 0.0934361 8.28686e-09 4.43706e+07 6.63774 8.27019e-09 8.61414e-07 426848 8.0261e+08
5.30828 7.29863 0.110269 7.70546e-09 5.23593e+07 7.28384 7.68984e-09 7.45152e-07 541436 9.47202e+08
5.60962 8.00187 0.130134 7.15831e-09 6.1787e+07 7.98583 7.14396e-09 6.44232e-07 686539 1.11784e+09
5.92807 8.76648 0.153578 6.64517e-09 7.29346e+07 8.74888 6.63183e-09 5.56685e-07 870622 1.31923e+09
6.26459 9.5889 0.181246 6.15901e-09 8.60651e+07 9.56947 6.14654e-09 4.80786e-07 1.10252e+06 1.55689e+09
6.62021 10.4775 0.213898 5.70245e-09 1.01558e+08 10.4564 5.69096e-09 4.15026e-07 1.39541e+06 1.83737e+09
6.99602 11.4361 0.252432 5.27405e-09 1.1986e+08 11.4134 5.26356e-09 3.58083e-07 1.76537e+06 2.16837e+09
7.39317 12.4626 0.297908 4.87008e-09 1.41457e+08 12.4379 4.86042e-09 3.08803e-07 2.23089e+06 2.55901e+09
7.81286 13.5658 0.351577 4.49196e-09 1.66936e+08 13.539 4.48307e-09 2.66181e-07 2.81714e+06 3.02002e+09
8.25637 14.7513 0.414914 4.13888e-09 1.97025e+08 14.7221 4.13067e-09 2.29336e-07 3.55576e+06 3.56409e+09
8.72507 16.0296 0.489662 3.81097e-09 2.32497e+08 15.9977 3.8034e-09 1.97503e-07 4.4862e+06 4.20617e+09
9.22037 17.4196 0.577876 3.50925e-09 2.74404e+08 17.3848 3.50223e-09 1.70014e-07 5.66396e+06 4.96392e+09
9.74378 18.9558 0.681982 3.23577e-09 3.2382e+08 18.9171 3.22918e-09 1.46289e-07 7.16259e+06 5.85818e+09
10.2969 20.6931 0.804843 2.99313e-09 3.82165e+08 20.6497 2.98684e-09 1.25822e-07 9.09113e+06 6.91355e+09
10.8814 22.7457 0.949838 2.78779e-09 4.51027e+08 22.6951 2.78158e-09 1.08175e-07 1.16234e+07 8.15905e+09
11.4992 25.3359 1.12095 2.63123e-09 5.32251e+08 25.274 2.6248e-09 9.29669e-08 1.50643e+07 9.62892e+09
12.1519 28.8596 1.3229 2.53965e-09 6.28157e+08 28.7785 2.53251e-09 7.98658e-08 1.99748e+07 1.13636e+10
12.8418 32.6683 1.56122 2.43597e-09 3.82727e+08 33.81 2.5211e-09 6.85852e-08 1.35935e+07 1.34108e+10
13.5708 0 1.84248 0 0 0 0 5.88765e-08 0 1.58268e+10
14.3411 0 2.17441 0 0 0 0 5.05241e-08 0 1.8678e+10
15.1552 0 2.56613 0 0 0 0 4.33417e-08 0 2.20429e+10
16.0156 0 3.02843 0 0 0 0 3.71677e-08 0 2.6014e+10
16.9247 0 3.574 0 0 0 0 3.18628e-08 0 3.07005e+10
17.8855 0 4.21787 0 0 0 0 2.73063e-08 0 3.62312e+10
18.9008 0 4.97773 0 0 0 0 2.33941e-08 0 4.27584e+10
19.9738 0 5.87448 0 0 0 0 2.00364e-08 0 5.04614e+10
21.1076 0 6.93279 0 0 0 0 1.71555e-08 0 5.95522e+10
22.3058 0 8.18175 0 0 0 0 1.46847e-08 0 7.02807e+10
23.5721 0 9.65571 0 0 0 0 1.25662e-08 0 8.29419e+10
24.9102 0 11.3952 0 0 0 0 1.07504e-08 0 9.78842e+10
26.3243 0 13.4481 0 0 0 0 9.19452e-09 0 1.15518e+11
27.8187 0 15.8708 0 0 0 0 7.86182e-09 0 1.36329e+11
29.3979 0 18.73 0 0 0 0 6.72061e-09 0 1.60889e+11
31.0667 0 22.1042 0 0 0 0 5.74366e-09 0 1.89874e+11
32.8303 0 26.0864 0 0 0 0 4.90756e-09 0 2.2408e+11
34.694 0 30.7859 0 0 0 0 4.19221e-09 0 2.64449e+11
36.6634 0 36.3321 0 0 0 0 3.58032e-09 0 3.1209e+11
38.7447 0 42.8774 0 0 0 0 3.05709e-09 0 3.68314e+11
40.9442 0 50.6018 0 0 0 0 2.60976e-09 0 4.34667e+11
43.2685 0 59.7179 0 0 0 0 2.22743e-09 0 5.12973e+11
45.7247 0 70.4762 0 0 0 0 1.90073e-09 0 6.05386e+11
48.3204 0 83.1727 0 0 0 0 1.62163e-09 0 7.14448e+11
51.0634 0 98.1565 0 0 0 0 1.38326e-09 0 8.43158e+11
53.9621 0 115.84 0 0 0 0 1.1797e-09 0 9.95055e+11
57.0254 0 136.709 0 0 0 0 1.00592e-09 0 1.17432e+12
60.2626 0 161.337 0 0 0 0 8.57591e-10 0 1.38587e+12
63.6835 0 190.402 0 0 0 0 7.3101e-10 0 1.63554e+12
67.2987 0 224.704 0 0 0 0 6.23009e-10 0 1.93019e+12
71.1191 0 265.185 0 0 0 0 5.30879e-10 0 2.27792e+12
75.1563 0 312.958 0 0 0 0 4.52303e-10 0 2.68829e+12
79.4227 0 369.339 0 0 0 0 3.85299e-10 0 3.17259e+12
83.9313 0 435.876 0 0 0 0 3.28173e-10 0 3.74415e+12
88.6959 0 514.4 0 0 0 0 2.79476e-10 0 4.41866e+12
93.7309 0 607.071 0 0 0 0 2.37972e-10 0 5.2147e+12
99.0518 0 716.436 0 0 0 0 2.02605e-10 0 6.15414e+12
104.675 0 845.504 0 0 0 0 1.72471e-10 0 7.26283e+12
110.617 0 997.824 0 0 0 0 1.468e-10 0 8.57124e+12
116.896 0 1177.58 0 0 0 0 1.24935e-10 0 1.01154e+13
123.532 0 1389.73 0 0 0 0 1.06313e-10 0 1.19377e+13
130.545 0 1640.09 0 0 0 0 9.04567e-11 0 1.40883e+13
137.955 0 1935.56 0 0 0 0 7.69563e-11 0 1.66263e+13
145.787 0 2284.26 0 0 0 0 6.54636e-11 0 1.96216e+13
154.063 0 2695.77 0 0 0 0 5.56812e-11 0 2.31565e+13
162.808 0 3181.42 0 0 0 0 4.73556e-11 0 2.73282e+13
172.051 0 3754.56 0 0 0 0 4.02708e-11 0 3.22515e+13
181.818 0 4430.96 0 0 0 0 3.42426e-11 0 3.80616e+13
192.139 0 5229.21 0 0 0 0 2.91139e-11 0 4.49186e+13
203.046 0 6171.26 0 0 0 0 2.4751e-11 0 5.30108e+13
214.572 0 7283.03 0 0 0 0 2.10401e-11 0 6.25608e+13
226.753 0 8595.09 0 0 0 0 1.78839e-11 0 7.38313e+13
239.625 0 10143.5 0 0 0 0 1.51999e-11 0 8.71322e+13
253.228 0 11970.9 0 0 0 0 1.29176e-11 0 1.02829e+14
267.603 0 14127.5 0 0 0 0 1.09771e-11 0 1.21354e+14
282.795 0 16672.6 0 0 0 0 9.3274e-12 0 1.43217e+14
298.848 0 19676.2 0 0 0 0 7.925e-12 0 1.69017e+14
315.813 0 23220.9 0 0 0 0 6.73295e-12 0 1.99466e+14
333.741 0 27404.3 0 0 0 0 5.71979e-12 0 2.35401e+14
352.686 0 32341.2 0 0 0 0 4.85874e-12 0 2.77809e+14
372.707 0 38167.6 0 0 0 0 4.12703e-12 0 3.27857e+14
393.865 0 45043.5 0 0 0 0 3.50528e-12 0 3.86921e+14
416.224 0 53158.3 0 0 0 0 2.97701e-12 0 4.56626e+14
439.852 0 62734.9 0 0 0 0 2.52819e-12 0 5.38888e+14
464.821 0 74036.7 0 0 0 0 2.1469e-12 0 6.35971e+14
491.207 0 87374.6 0 0 0 0 1.82301e-12 0 7.50542e+14
519.092 0 103115 0 0 0 0 1.54789e-12 0 8.85755e+14
548.56 0 121692 0 0 0 0 1.31422e-12 0 1.04533e+15
579.7 0 143615 0 0 0 0 1.11576e-12 0 1.23364e+15
612.608 0 169488 0 0 0 0 9.47223e-13 0 1.45589e+15
647.384 0 200021 0 0 0 0 8.041e-13 0 1.71817e+15
684.134 0 236056 0 0 0 0 6.82568e-13 0 2.0277e+15
722.971 0 278582 0 0 0 0 5.79376e-13 0 2.393e+15
764.012 0 328769 0 0 0 0 4.91762e-13 0 2.8241e+15
