0.457392
200
1.0655e+09
8589934592
0.0129181 0 1.58924e-09 0 0 0 0 0.00677225 0 13.6515
0.0136515 0 1.87554e-09 0 0 0 0 0.00688819 0 16.1108
0.0144264 0 2.21343e-09 0 0 0 0 0.00699249 0 19.0132
0.0152454 0 2.61218e-09 0 0 0 0 0.00708412 0 22.4385
0.0161108 0 3.08278e-09 0 0 0 0 0.00716212 0 26.4808
0.0170254 0 3.63815e-09 0 0 0 0 0.00722559 0 31.2514
0.0179919 0 4.29357e-09 0 0 0 0 0.00727371 0 36.8815
0.0190132 0 5.06707e-09 0 0 0 0 0.00730578 0 43.5258
0.0200925 0 5.97991e-09 0 0 0 0 0.00732122 0 51.367
0.0212331 0 7.05721e-09 0 0 0 0 0.00731958 0 60.621
0.0224385 0 8.32858e-09 0 0 0 0 0.00730056 0 71.542
0.0237123 0 9.829e-09 0 0 0 0 0.00726401 0 84.4305
0.0250583 0 1.15997e-08 0 0 0 0 0.00720995 0 99.6408
0.0264808 0 1.36894e-08 0 0 0 0 0.00713857 0 117.591
0.0279841 0 1.61556e-08 0 0 0 0 0.00705021 0 138.776
0.0295727 0 1.90661e-08 0 0 0 0 0.00694538 0 163.777
0.0312514 0 2.25009e-08 0 0 0 0 0.00682475 0 193.281
0.0330255 0 2.65545e-08 0 0 0 0 0.00668915 0 228.102
0.0349003 0 3.13384e-08 0 0 0 0 0.00653951 0 269.195
0.0368815 0 3.69841e-08 0 0 0 0 0.00637693 0 317.691
0.0389751 0 4.36469e-08 0 0 0 0 0.00620256 0 374.924
0.0411876 0 5.151e-08 0 0 0 0 0.00601767 0 442.467
0.0435258 0 6.07896e-08 0 0 0 0 0.00582358 0 522.179
0.0459966 0 7.1741e-08 0 0 0 0 0.00562166 0 616.251
0.0486077 0 8.46654e-08 0 0 0 0 0.0054133 0 727.27
0.051367 0 9.99181e-08 0 0 0 0 0.00519989 0 858.29
0.054283 0 1.17919e-07 0 0 0 0 0.0049828 0 1012.91
0.0573645 0 1.39162e-07 0 0 0 0 0.00476339 0 1195.39
0.060621 0 1.64232e-07 0 0 0 0 0.00454293 0 1410.75
0.0640622 0 1.93819e-07 0 0 0 0 0.00432265 0 1664.89
0.0676989 0 2.28736e-07 0 0 0 0 0.00410371 0 1964.83
0.071542 0 2.69944e-07 0 0 0 0 0.00388717 0 2318.8
0.0756032 0 3.18575e-07 0 0 0 0 0.00367401 0 2736.54
0.079895 0 3.75967e-07 0 0 0 0 0.0034651 0 3229.53
0.0844305 0 4.43698e-07 0 0 0 0 0.00326121 0 3811.34
0.0892234 0 5.23632e-07 0 0 0 0 0.00306301 0 4497.96
0.0942883 0 6.17966e-07 0 0 0 0 0.00287109 0 5308.28
0.0996408 0 7.29294e-07 0 0 0 0 0.00268591 0 6264.59
0.105297 0 8.60678e-07 0 0 0 0 0.00250785 0 7393.17
0.111275 0 1.01573e-06 0 0 0 0 0.00233721 0 8725.07
0.117591 0 1.19872e-06 0 0 0 0 0.00217419 0 10296.9
0.124267 0 1.41467e-06 0 0 0 0 0.00201893 0 12151.9
0.131321 0 1.66953e-06 0 0 0 0 0.00187147 0 14341.1
0.138776 0 1.9703e-06 0 0 0 0 0.00173182 0 16924.7
0.146654 0 2.32525e-06 0 0 0 0 0.00159991 0 19973.8
0.154979 0 2.74415e-06 0 0 0 0 0.00147563 0 23572.1
0.163777 0 3.23852e-06 0 0 0 0 0.00135884 0 27818.7
0.173074 0 3.82195e-06 0 0 0 0 0.00124933 0 32830.3
0.182899 0 4.51048e-06 0 0 0 0 0.00114689 0 38744.7
0.193281 0 5.32305e-06 0 0 0 0 0.00105127 0 45724.7
0.204254 0 6.28202e-06 0 0 0 0 0.000962209 0 53962.1
0.215848 0 7.41374e-06 0 0 0 0 0.000879423 0 63683.5
0.228102 0 8.74934e-06 0 0 0 0 0.000802624 0 75156.3
0.24105 0 1.03256e-05 0 0 0 0 0.000731515 0 88695.9
0.254734 0 1.21857e-05 0 0 0 0 0.000665798 0 104675
0.269195 0 1.4381e-05 0 0 0 0 0.000605173 0 123532
0.284476 0 1.69718e-05 0 0 0 0 0.000549345 0 145787
0.300625 0 2.00293e-05 0 0 0 0 0.000498021 0 172051
0.317691 0 2.36377e-05 0 0 0 0 0.000450916 0 203046
0.335725 0 2.78961e-05 0 0 0 0 0.000407755 0 239625
0.354784 0 3.29216e-05 0 0 0 0 0.000368269 0 282795
0.374924 0 3.88525e-05 0 0 0 0 0.000332202 0 333741
0.396207 1.69829 4.58519e-05 4.31186e-06 6 1.65107 4.19198e-06 0.000299307 0.0864368 393865
0.418699 0 5.41123e-05 0 0 0 0 0.00026935 0 464821
0.442467 0 6.38607e-05 0 0 0 0 0.000242108 0 548560
0.467585 0 7.53654e-05 0 0 0 0 0.00021737 0 647384
0.494129 0 8.89427e-05 0 0 0 0 0.000194938 0 764012
0.522179 0 0.000104966 0 0 0 0 0.000174625 0 901651
0.551822 0 0.000123876 0 0 0 0 0.000156255 0 1.06409e+06
0.583147 7.6755 0.000146192 6.11212e-06 12 8.0785 6.43304e-06 0.000139664 0.525156 1.25578e+06
0.616251 0 0.000172529 0 0 0 0 0.0001247 0 1.48202e+06
0.651234 0 0.000203611 0 0 0 0 0.00011122 0 1.74901e+06
0.688203 23.5228 0.000240292 1.13962e-05 8 22.9376 1.11127e-05 9.90935e-05 0.920036 2.06409e+06
0.72727 0 0.000283581 0 0 0 0 8.81969e-05 0 2.43595e+06
0.768555 0 0.000334669 0 0 0 0 7.84179e-05 0 2.87479e+06
0.812184 2.08124 0.000394961 6.13449e-07 6 2.12574 6.26564e-07 6.96525e-05 0.0528436 3.39269e+06
0.85829 0 0.000466114 0 0 0 0 6.1805e-05 0 4.00389e+06
0.907013 1.11634 0.000550086 2.36252e-07 24 1.13776 2.40785e-07 5.47875e-05 0.103492 4.7252e+06
0.958501 2.99922 0.000649185 5.37836e-07 24 2.82354 5.06333e-07 4.85194e-05 0.266039 5.57646e+06
1.01291 0 0.000766138 0 0 0 0 4.29272e-05 0 6.58107e+06
1.07041 0 0.00090416 0 0 0 0 3.79435e-05 0 7.76667e+06
1.13118 2.32551 0.00106705 2.53714e-07 12 2.29694 2.50597e-07 3.3507e-05 0.0908635 9.16586e+06
1.19539 2.36687 0.00125928 2.18808e-07 30 2.31808 2.14298e-07 2.9562e-05 0.22205 1.08171e+07
1.26325 10.9223 0.00148614 8.55588e-07 24 10.758 8.42713e-07 2.60578e-05 0.788021 1.27658e+07
1.33496 21.0673 0.00175387 1.39837e-06 24 21.1136 1.40144e-06 2.29484e-05 1.46244 1.50656e+07
1.41075 11.7951 0.00206984 6.634e-07 32 12.0255 6.7636e-07 2.01923e-05 1.05133 1.77798e+07
1.49083 2.71016 0.00244272 1.29161e-07 48 2.65238 1.26407e-07 1.77518e-05 0.349245 2.09828e+07
1.57546 5.96045 0.00288279 2.407e-07 6 5.67569 2.29201e-07 1.55929e-05 0.0926195 2.4763e+07
1.66489 2.62781 0.00340213 8.99194e-08 84 2.57146 8.79911e-08 1.3685e-05 0.551934 2.92241e+07
1.75941 5.75221 0.00401503 1.66784e-07 48 5.71866 1.65812e-07 1.20007e-05 0.6671 3.44889e+07
1.85928 2.8799 0.00473835 7.07554e-08 72 2.90887 7.14672e-08 1.05151e-05 0.484483 4.07021e+07
1.96483 5.04171 0.00559198 1.0496e-07 54 4.94507 1.02948e-07 9.20606e-06 0.615663 4.80347e+07
2.07637 13.9052 0.00659939 2.45293e-07 104 13.9699 2.46434e-07 8.05366e-06 3.16756 5.66883e+07
2.19424 3.4162 0.00778828 5.10637e-08 120 3.44828 5.15432e-08 7.04008e-06 0.870394 6.69008e+07
2.3188 4.79533 0.00919136 6.07363e-08 156 4.67314 5.91887e-08 6.1494e-06 1.54078 7.89532e+07
2.45043 7.19599 0.0108472 7.72293e-08 126 7.13646 7.65905e-08 5.36741e-06 1.81296 9.31768e+07
2.58954 5.8935 0.0128014 5.35953e-08 192 5.9403 5.4021e-08 4.68145e-06 2.1981 1.09963e+08
2.73654 16.8368 0.0151076 1.2974e-07 152 17.3203 1.33466e-07 4.08023e-06 4.83318 1.29773e+08
2.89188 9.99517 0.0178292 6.52631e-08 378 10.0783 6.58059e-08 3.55373e-06 6.94184 1.53152e+08
3.05605 7.89242 0.0210412 4.36666e-08 264 7.76208 4.29455e-08 3.09304e-06 3.72707 1.80743e+08
3.22953 6.92173 0.0248319 3.24501e-08 366 6.86537 3.21858e-08 2.69025e-06 4.41472 2.13304e+08
3.41286 8.52692 0.0293054 3.38731e-08 428 8.36923 3.32467e-08 2.33837e-06 6.19991 2.51731e+08
3.6066 10.911 0.0345848 3.67274e-08 486 10.7904 3.63213e-08 2.0312e-06 8.78766 2.97081e+08
3.81134 9.56164 0.0408154 2.72721e-08 600 9.58598 2.73415e-08 1.76327e-06 9.28009 3.50601e+08
4.0277 11.0482 0.0481684 2.67019e-08 738 10.9689 2.65101e-08 1.52972e-06 12.8821 4.13763e+08
4.25634 14.2102 0.056846 2.91011e-08 824 14.209 2.90988e-08 1.32631e-06 18.0798 4.88304e+08
4.49796 13.406 0.067087 2.32632e-08 954 13.3078 2.30929e-08 1.14926e-06 19.3109 5.76273e+08
4.7533 11.9772 0.0791729 1.76112e-08 1094 11.9396 1.7556e-08 9.95263e-07 19.3584 6.8009e+08
5.02313 13.1101 0.0934361 1.63343e-08 1332 13.153 1.63877e-08 8.61414e-07 25.2577 8.0261e+08
5.30828 17.8557 0.110269 1.8851e-08 1614 17.8852 1.88821e-08 7.45152e-07 40.8312 9.47202e+08
5.60962 17.7629 0.130134 1.58903e-08 1850 17.7145 1.58471e-08 6.44232e-07 45.6311 1.11784e+09
5.92807 17.6219 0.153578 1.33577e-08 2238 17.605 1.3345e-08 5.56685e-07 53.7011 1.31923e+09
6.26459 18.8371 0.181246 1.20992e-08 2546 18.9562 1.21757e-08 4.80786e-07 64.0712 1.55689e+09
6.62021 18.7496 0.213898 1.02046e-08 3264 18.7637 1.02123e-08 4.15026e-07 80.255 1.83737e+09
6.99602 21.0861 0.252432 9.7244e-09 3506 21.1428 9.75056e-09 3.58083e-07 95.212 2.16837e+09
7.39317 22.9666 0.297908 8.9748e-09 4506 22.974 8.97768e-09 3.08803e-07 130.958 2.55901e+09
7.81286 25.0827 0.351577 8.30546e-09 5018 25.0467 8.29354e-09 2.66181e-07 156.573 3.02002e+09
8.25637 26.7919 0.414914 7.51719e-09 5852 26.7444 7.50386e-09 2.29336e-07 191.817 3.56409e+09
8.72507 27.3421 0.489662 6.50048e-09 7362 27.2533 6.47935e-09 1.97503e-07 242.308 4.20617e+09
9.22037 29.4514 0.577876 5.93309e-09 8306 29.3429 5.91124e-09 1.70014e-07 289.859 4.96392e+09
9.74378 30.7335 0.681982 5.24625e-09 9698 30.6762 5.23647e-09 1.46289e-07 347.792 5.85818e+09
10.2969 32.0743 0.804843 4.63933e-09 11816 32.0598 4.63725e-09 1.25822e-07 435.68 6.91355e+09
10.8814 36.7219 0.949838 4.50075e-09 13682 36.6473 4.49162e-09 1.08175e-07 569.254 8.15905e+09
11.4992 37.1891 1.12095 3.86223e-09 16152 37.1643 3.85965e-09 9.29669e-08 671.021 9.62892e+09
12.1519 39.3051 1.3229 3.45886e-09 19472 39.2288 3.45215e-09 7.98658e-08 843.302 1.13636e+10
12.8418 40.6321 1.56122 3.02981e-09 22670 40.5346 3.02254e-09 6.85852e-08 1001.47 1.34108e+10
13.5708 43.7245 1.84248 2.76269e-09 26224 43.6645 2.7589e-09 5.88765e-08 1230.52 1.58268e+10
14.3411 46.655 2.17441 2.49786e-09 31640 46.598 2.49481e-09 5.05241e-08 1564.25 1.8678e+10
15.1552 49.0266 2.56613 2.22414e-09 37484 48.9438 2.22039e-09 4.33417e-08 1923.55 2.20429e+10
16.0156 51.7249 3.02843 1.98835e-09 43856 51.645 1.98528e-09 3.71677e-08 2346.15 2.6014e+10
16.9247 55.3967 3.574 1.80442e-09 51362 55.3453 1.80275e-09 3.18628e-08 2908.68 3.07005e+10
17.8855 57.3897 4.21787 1.58398e-09 61636 57.2728 1.58076e-09 2.73063e-08 3575.38 3.62312e+10
18.9008 60.1095 4.97773 1.40579e-09 72218 59.9655 1.40243e-09 2.33941e-08 4339.7 4.27584e+10
19.9738 64.0201 5.87448 1.26869e-09 84586 63.8976 1.26627e-09 2.00364e-08 5355.94 5.04614e+10
21.1076 67.4322 6.93279 1.13232e-09 100708 67.3422 1.13081e-09 1.71555e-08 6647.06 5.95522e+10
22.3058 71.3625 8.18175 1.01539e-09 118712 71.2651 1.01401e-09 1.46847e-08 8208.52 7.02807e+10
23.5721 74.9228 9.65571 9.03316e-10 140410 74.7779 9.01569e-10 1.25662e-08 10093.4 8.29419e+10
24.9102 78.3791 11.3952 8.00733e-10 164374 78.2154 7.99061e-10 1.07504e-08 12243.3 9.78842e+10
26.3243 82.0987 13.4481 7.10699e-10 194680 81.9527 7.09435e-10 9.19452e-09 15048 1.15518e+11
27.8187 86.3319 15.8708 6.3326e-10 230196 86.1954 6.32259e-10 7.86182e-09 18542 1.36329e+11
29.3979 91.2809 18.73 5.67353e-10 271156 91.1407 5.66481e-10 6.72061e-09 22890.9 1.60889e+11
31.0667 95.6026 22.1042 5.03506e-10 321076 95.4366 5.02632e-10 5.74366e-09 28146.5 1.89874e+11
32.8303 100.236 26.0864 4.47321e-10 377436 100.054 4.46511e-10 4.90756e-09 34403 2.2408e+11
34.694 105.917 30.7859 4.00521e-10 447594 105.7 3.99699e-10 4.19221e-09 42762.8 2.64449e+11
36.6634 111.172 36.3321 3.56217e-10 525078 110.971 3.55574e-10 3.58032e-09 52241.5 3.1209e+11
38.7447 117.641 42.8774 3.19403e-10 621924 117.423 3.18811e-10 3.05709e-09 64978.4 3.68314e+11
40.9442 123.634 50.6018 2.84434e-10 732630 123.415 2.83931e-10 2.60976e-09 79848.4 4.34667e+11
43.2685 130.734 59.7179 2.54855e-10 865596 130.501 2.54402e-10 2.22743e-09 99038.4 5.12973e+11
45.7247 138.269 70.4762 2.28398e-10 1.02168e+06 138.028 2.28e-10 1.90073e-09 122768 6.05386e+11
48.3204 146.29 83.1727 2.04759e-10 1.20544e+06 145.993 2.04343e-10 1.62163e-09 152207 7.14448e+11
51.0634 155.397 98.1565 1.84303e-10 1.42103e+06 155.077 1.83924e-10 1.38326e-09 189336 8.43158e+11
53.9621 165.358 115.84 1.6618e-10 1.67997e+06 165.035 1.65855e-10 1.1797e-09 236650 9.95055e+11
57.0254 176.647 136.709 1.50425e-10 1.98018e+06 176.29 1.50121e-10 1.00592e-09 296116 1.17432e+12
60.2626 189.414 161.337 1.36675e-10 2.33957e+06 189.01 1.36383e-10 8.57591e-10 372859 1.38587e+12
63.6835 204.239 190.402 1.24876e-10 2.75676e+06 203.811 1.24614e-10 7.3101e-10 470927 1.63554e+12
67.2987 220.866 224.704 1.14427e-10 3.25638e+06 220.4 1.14186e-10 6.23009e-10 598095 1.93019e+12
71.1191 240.666 265.185 1.05652e-10 3.84387e+06 240.138 1.0542e-10 5.30879e-10 764978 2.27792e+12
75.1563 264.191 312.958 9.82746e-11 4.53277e+06 263.534 9.80302e-11 4.52303e-10 984860 2.68829e+12
79.4227 290.509 369.339 9.15682e-11 5.35083e+06 289.827 9.13532e-11 3.85299e-10 1.27165e+06 3.17259e+12
83.9313 321.857 435.876 8.59628e-11 6.32174e+06 321.064 8.57509e-11 3.28173e-10 1.65594e+06 3.74415e+12
88.6959 358.954 514.4 8.12359e-11 7.44986e+06 358.035 8.10279e-11 2.79476e-10 2.16547e+06 4.41866e+12
93.7309 402.195 607.071 7.71272e-11 8.79764e+06 401.146 7.69261e-11 2.37972e-10 2.85133e+06 5.2147e+12
99.0518 453.471 716.436 7.36855e-11 1.03827e+07 452.235 7.34847e-11 2.02605e-10 3.77609e+06 6.15414e+12
104.675 514.83 845.504 7.08857e-11 1.22515e+07 513.38 7.0686e-11 1.72471e-10 5.03538e+06 7.26283e+12
110.617 586.681 997.824 6.84475e-11 1.44573e+07 585.019 6.82537e-11 1.468e-10 6.74092e+06 8.57124e+12
116.896 672.343 1177.58 6.64674e-11 1.70664e+07 670.388 6.62741e-11 1.24935e-10 9.07962e+06 1.01154e+13
123.532 773.72 1389.73 6.48132e-11 2.0139e+07 771.414 6.46201e-11 1.06313e-10 1.22776e+07 1.19377e+13
130.545 894.657 1640.09 6.35036e-11 2.37643e+07 891.927 6.33098e-11 9.04567e-11 1.66833e+07 1.40883e+13
137.955 1036.84 1935.56 6.23613e-11 2.80503e+07 1033.6 6.21662e-11 7.69563e-11 2.27305e+07 1.66263e+13
145.787 1206.43 2284.26 6.14849e-11 3.30981e+07 1202.63 6.12913e-11 6.54636e-11 3.10865e+07 1.96216e+13
154.063 1406.96 2695.77 6.07586e-11 3.90634e+07 1402.47 6.05651e-11 5.56812e-11 4.26256e+07 2.31565e+13
162.808 1645.23 3181.42 6.02025e-11 4.61057e+07 1639.91 6.0008e-11 4.73556e-11 5.86134e+07 2.73282e+13
172.051 1927.6 3754.56 5.97679e-11 5.44046e+07 1921.32 5.9573e-11 4.02708e-11 8.07445e+07 3.22515e+13
181.818 2262.89 4430.96 5.94533e-11 6.42064e+07 2255.49 5.9259e-11 3.42426e-11 1.11478e+08 3.80616e+13
192.139 2660.61 5229.21 5.92319e-11 7.57748e+07 2651.86 5.9037e-11 2.91139e-11 1.54163e+08 4.49186e+13
203.046 3132.96 6171.26 5.91004e-11 8.94213e+07 3122.58 5.89046e-11 2.4751e-11 2.1352e+08 5.30108e+13
214.572 3696.66 7283.03 5.9089e-11 1.05538e+08 3684.36 5.88925e-11 2.10401e-11 2.96394e+08 6.25608e+13
226.753 4367.23 8595.09 5.91515e-11 1.24552e+08 4352.51 5.89521e-11 1.78839e-11 4.11958e+08 7.38313e+13
239.625 5168.8 10143.5 5.93214e-11 1.46987e+08 5151.28 5.91203e-11 1.51999e-11 5.73654e+08 8.71322e+13
253.228 6130.17 11970.9 5.9615e-11 1.7347e+08 6109.2 5.94111e-11 1.29176e-11 8.00566e+08 1.02829e+14
267.603 7291.49 14127.5 6.00844e-11 2.04703e+08 7266.23 5.98761e-11 1.09771e-11 1.12046e+09 1.21354e+14
282.795 8698.05 16672.6 6.07335e-11 2.4161e+08 8667.5 6.05202e-11 9.3274e-12 1.5732e+09 1.43217e+14
298.848 10422.9 19676.2 6.16678e-11 2.85122e+08 10385.6 6.14468e-11 7.925e-12 2.21866e+09 1.69017e+14
315.813 12563 23220.9 6.29833e-11 3.36491e+08 12516.9 6.27517e-11 6.73295e-12 3.1477e+09 1.99466e+14
333.741 15260.8 27404.3 6.48292e-11 3.97115e+08 15202.7 6.45823e-11 5.71979e-12 4.50098e+09 2.35401e+14
352.686 18740.3 32341.2 6.74575e-11 4.68637e+08 18665.7 6.71888e-11 4.85874e-12 6.50643e+09 2.77809e+14
372.707 23363.7 38167.6 7.1262e-11 5.53074e+08 23265.2 7.09614e-11 4.12703e-12 9.55001e+09 3.27857e+14
393.865 29750.9 45043.5 7.68914e-11 6.52716e+08 29615.5 7.65414e-11 3.50528e-12 1.43179e+10 3.86921e+14
416.224 35123.4 53158.3 7.69193e-11 2.2184e+08 37157.2 8.13734e-11 2.97701e-12 5.73185e+09 4.56626e+14
439.852 0 62734.9 0 0 0 0 2.52819e-12 0 5.38888e+14
464.821 0 74036.7 0 0 0 0 2.1469e-12 0 6.35971e+14
491.207 0 87374.6 0 0 0 0 1.82301e-12 0 7.50542e+14
519.092 0 103115 0 0 0 0 1.54789e-12 0 8.85755e+14
548.56 0 121692 0 0 0 0 1.31422e-12 0 1.04533e+15
579.7 0 143615 0 0 0 0 1.11576e-12 0 1.23364e+15
612.608 0 169488 0 0 0 0 9.47223e-13 0 1.45589e+15
647.384 0 200021 0 0 0 0 8.041e-13 0 1.71817e+15
684.134 0 236056 0 0 0 0 6.82568e-13 0 2.0277e+15
722.971 0 278582 0 0 0 0 5.79376e-13 0 2.393e+15
764.012 0 328769 0 0 0 0 4.91762e-13 0 2.8241e+15
0.457392
200
1.0655e+09
8589934592
0.0129181 0.000570462 1.58924e-09 4.17877e-05 6 0.00056524 4.14051e-05 0.00677225 0.0370225 13.6515
0.0136515 0 1.87554e-09 0 0 0 0 0.00688819 0 16.1108
0.0144264 0 2.21343e-09 0 0 0 0 0.00699249 0 19.0132
0.0152454 0 2.61218e-09 0 0 0 0 0.00708412 0 22.4385
0.0161108 0 3.08278e-09 0 0 0 0 0.00716212 0 26.4808
0.0170254 0 3.63815e-09 0 0 0 0 0.00722559 0 31.2514
0.0179919 0.00127003 4.29357e-09 3.44354e-05 12 0.00126839 3.4391e-05 0.00727371 0.0568107 36.8815
0.0190132 0 5.06707e-09 0 0 0 0 0.00730578 0 43.5258
0.0200925 0 5.97991e-09 0 0 0 0 0.00732122 0 51.367
0.0212331 0.00120259 7.05721e-09 1.98379e-05 8 0.00120155 1.98207e-05 0.00731958 0.021682 60.621
0.0224385 0 8.32858e-09 0 0 0 0 0.00730056 0 71.542
0.0237123 0 9.829e-09 0 0 0 0 0.00726401 0 84.4305
0.0250583 0.00766445 1.15997e-08 7.69208e-05 6 0.00766084 7.68846e-05 0.00720995 0.0640122 99.6408
0.0264808 0 1.36894e-08 0 0 0 0 0.00713857 0 117.591
0.0279841 0.00474344 1.61556e-08 3.41806e-05 24 0.00473857 3.41455e-05 0.00705021 0.116356 138.776
0.0295727 0 1.90661e-08 0 0 0 0 0.00694538 0 163.777
0.0312514 0.00846148 2.25009e-08 4.3778e-05 24 0.00850444 4.40003e-05 0.00682475 0.15395 193.281
0.0330255 0 2.65545e-08 0 0 0 0 0.00668915 0 228.102
0.0349003 0.0123376 3.13384e-08 4.58316e-05 12 0.0122388 4.54646e-05 0.00653951 0.0841009 269.195
0.0368815 0.0102746 3.69841e-08 3.23415e-05 30 0.0101652 3.19971e-05 0.00637693 0.152149 317.691
0.0389751 0.0119577 4.36469e-08 3.18937e-05 24 0.0118347 3.15656e-05 0.00620256 0.123409 374.924
0.0411876 0.00761212 5.151e-08 1.72038e-05 24 0.00756043 1.7087e-05 0.00601767 0.0686132 442.467
0.0435258 0.0176236 6.07896e-08 3.37502e-05 8 0.0176223 3.37476e-05 0.00582358 0.0463634 522.179
0.0459966 0.0220703 7.1741e-08 3.58137e-05 72 0.0218959 3.55309e-05 0.00562166 0.458688 616.251
0.0486077 0 8.46654e-08 0 0 0 0 0.0054133 0 727.27
0.051367 0.0316536 9.99181e-08 3.68798e-05 54 0.031551 3.67603e-05 0.00519989 0.382991 858.29
0.054283 0.0250835 1.17919e-07 2.47637e-05 60 0.0251925 2.48714e-05 0.0049828 0.29819 1012.91
0.0573645 0.0241842 1.39162e-07 2.02312e-05 96 0.0241221 2.01793e-05 0.00476339 0.407734 1195.39
0.060621 0.028301 1.64232e-07 2.00611e-05 24 0.0279176 1.97893e-05 0.00454293 0.105981 1410.75
0.0640622 0.04949 1.93819e-07 2.97256e-05 134 0.0495161 2.97413e-05 0.00432265 0.921479 1664.89
0.0676989 0.0478787 2.28736e-07 2.43679e-05 120 0.0476531 2.42531e-05 0.00410371 0.712561 1964.83
0.071542 0.0443755 2.69944e-07 1.91373e-05 108 0.0438916 1.89286e-05 0.00388717 0.531704 2318.8
0.0756032 0.0651576 3.18575e-07 2.38102e-05 174 0.064806 2.36817e-05 0.00367401 1.12764 2736.54
0.079895 0.0688598 3.75967e-07 2.13219e-05 168 0.0682128 2.11216e-05 0.0034651 1.03376 3229.53
0.0844305 0.0581625 4.43698e-07 1.52604e-05 168 0.0584533 1.53367e-05 0.00326121 0.786133 3811.34
0.0892234 0.0669387 5.23632e-07 1.4882e-05 290 0.0666452 1.48167e-05 0.00306301 1.409 4497.96
0.0942883 0.0846314 6.17966e-07 1.59433e-05 288 0.0844307 1.59055e-05 0.00287109 1.59927 5308.28
0.0996408 0.0756747 7.29294e-07 1.20798e-05 366 0.0750626 1.19821e-05 0.00268591 1.64607 6264.59
0.105297 0.0854114 8.60678e-07 1.15527e-05 420 0.0848149 1.14721e-05 0.00250785 1.93478 7393.17
0.111275 0.0912681 1.01573e-06 1.04605e-05 398 0.0909959 1.04292e-05 0.00233721 1.78129 8725.07
0.117591 0.108736 1.19872e-06 1.05601e-05 624 0.108985 1.05842e-05 0.00217419 3.03078 10296.9
0.124267 0.123315 1.41467e-06 1.01478e-05 642 0.123097 1.01298e-05 0.00201893 3.2269 12151.9
0.131321 0.152639 1.66953e-06 1.06435e-05 800 0.152692 1.06472e-05 0.00187147 4.54978 14341.1
0.138776 0.137313 1.9703e-06 8.11314e-06 858 0.137945 8.15047e-06 0.00173182 4.01952 16924.7
0.146654 0.15371 2.32525e-06 7.69562e-06 1080 0.155003 7.76033e-06 0.00159991 5.19484 19973.8
0.154979 0.181886 2.74415e-06 7.71615e-06 1286 0.183093 7.76739e-06 0.00147563 6.72454 23572.1
0.163777 0.172732 3.23852e-06 6.20922e-06 1650 0.173127 6.22341e-06 0.00135884 7.53968 27818.7
0.173074 0.200057 3.82195e-06 6.09366e-06 1778 0.20012 6.09561e-06 0.00124933 8.67226 32830.3
0.182899 0.199892 4.51048e-06 5.15921e-06 2112 0.200403 5.17239e-06 0.00114689 9.50069 38744.7
0.193281 0.228685 5.32305e-06 5.00134e-06 2570 0.228954 5.00723e-06 0.00105127 12.2266 45724.7
0.204254 0.264243 6.28202e-06 4.89682e-06 3030 0.264087 4.89393e-06 0.000962209 15.4201 53962.1
0.215848 0.267236 7.41374e-06 4.19631e-06 3434 0.267123 4.19454e-06 0.000879423 16.3859 63683.5
0.228102 0.280184 8.74934e-06 3.72802e-06 4218 0.280201 3.72824e-06 0.000802624 19.5917 75156.3
0.24105 0.313617 1.03256e-05 3.53587e-06 4766 0.313868 3.5387e-06 0.000731515 23.037 88695.9
0.254734 0.342007 1.21857e-05 3.26733e-06 6026 0.341961 3.26689e-06 0.000665798 29.5719 104675
0.269195 0.371171 1.4381e-05 3.00465e-06 6480 0.370854 3.00209e-06 0.000605173 32.1729 123532
0.284476 0.405899 1.69718e-05 2.7842e-06 8162 0.40678 2.79024e-06 0.000549345 41.3667 145787
0.300625 0.42381 2.00293e-05 2.46328e-06 9578 0.424223 2.46568e-06 0.000498021 47.3742 172051
0.317691 0.469297 2.36377e-05 2.31128e-06 11234 0.468776 2.30872e-06 0.000450916 57.5826 203046
0.335725 0.501458 2.78961e-05 2.09268e-06 13344 0.500797 2.08992e-06 0.000407755 68.4839 239625
0.354784 0.539383 3.29216e-05 1.90733e-06 15464 0.538966 1.90586e-06 0.000368269 80.0908 282795
0.374924 0.576965 3.88525e-05 1.72878e-06 18458 0.57685 1.72844e-06 0.000332202 96.0556 333741
0.396207 0.637851 4.58519e-05 1.61947e-06 22232 0.637038 1.6174e-06 0.000299307 120.291 393865
0.418699 0.683799 5.41123e-05 1.4711e-06 25628 0.682077 1.4674e-06 0.00026935 139.972 464821
0.442467 0.746174 6.38607e-05 1.36024e-06 30320 0.744564 1.35731e-06 0.000242108 170.348 548560
0.467585 0.799287 7.53654e-05 1.23464e-06 35452 0.798143 1.23287e-06 0.00021737 201.364 647384
0.494129 0.874589 8.89427e-05 1.14473e-06 41792 0.87419 1.14421e-06 0.000194938 245.414 764012
0.522179 0.959021 0.000104966 1.06363e-06 49988 0.958824 1.06341e-06 0.000174625 304.473 901651
0.551822 1.03423 0.000123876 9.71946e-07 59110 1.03305 9.70838e-07 0.000156255 367.68 1.06409e+06
0.583147 1.1261 0.000146192 8.96729e-07 69716 1.12416 8.9519e-07 0.000139664 447.619 1.25578e+06
0.616251 1.22827 0.000172529 8.28783e-07 82210 1.22574 8.27074e-07 0.0001247 546.385 1.48202e+06
0.651234 1.33394 0.000203611 7.62685e-07 96722 1.33131 7.61178e-07 0.00011122 663.263 1.74901e+06
0.688203 1.46215 0.000240292 7.08374e-07 113098 1.45973 7.072e-07 9.90935e-05 808.486 2.06409e+06
0.72727 1.59788 0.000283581 6.55958e-07 135190 1.59573 6.55077e-07 8.81969e-05 1005.47 2.43595e+06
0.768555 1.74717 0.000334669 6.07755e-07 158170 1.74489 6.06963e-07 7.84179e-05 1225.85 2.87479e+06
0.812184 1.93155 0.000394961 5.69326e-07 188560 1.92846 5.68418e-07 6.96525e-05 1541.25 3.39269e+06
0.85829 2.11172 0.000466114 5.27416e-07 220444 2.10856 5.26627e-07 6.1805e-05 1881.17 4.00389e+06
0.907013 2.31883 0.000550086 4.90736e-07 261388 2.31556 4.90046e-07 5.47875e-05 2341.28 4.7252e+06
0.958501 2.5562 0.000649185 4.58391e-07 308244 2.55242 4.57714e-07 4.85194e-05 2912.16 5.57646e+06
1.01291 2.82317 0.000766138 4.28983e-07 364396 2.81869 4.28302e-07 4.29272e-05 3641.51 6.58107e+06
1.07041 3.10821 0.00090416 4.00198e-07 429162 3.10289 3.99513e-07 3.79435e-05 4526.46 7.76667e+06
1.13118 3.42997 0.00106705 3.74212e-07 506358 3.42419 3.73581e-07 3.3507e-05 5655.09 9.16586e+06
1.19539 3.78058 0.00125928 3.495e-07 598590 3.77406 3.48897e-07 2.9562e-05 7076.89 1.08171e+07
1.26325 4.19503 0.00148614 3.28613e-07 704844 4.188 3.28063e-07 2.60578e-05 8888.74 1.27658e+07
1.33496 4.64256 0.00175387 3.08155e-07 834620 4.63365 3.07564e-07 2.29484e-05 11207.4 1.50656e+07
1.41075 5.13123 0.00206984 2.886e-07 981444 5.12098 2.88023e-07 2.01923e-05 14027.4 1.77798e+07
1.49083 5.69025 0.00244272 2.71186e-07 1.15998e+06 5.68015 2.70704e-07 1.77518e-05 17720.5 2.09828e+07
1.57546 6.3004 0.00288279 2.54429e-07 1.36931e+06 6.28804 2.53929e-07 1.55929e-05 22343 2.4763e+07
1.66489 6.99387 0.00340213 2.39319e-07 1.61652e+06 6.98019 2.38851e-07 1.3685e-05 28269.1 2.92241e+07
1.75941 7.7554 0.00401503 2.24867e-07 1.90601e+06 7.74055 2.24436e-07 1.20007e-05 35714.4 3.44889e+07
1.85928 8.58157 0.00473835 2.10838e-07 2.24913e+06 8.56508 2.10433e-07 1.05151e-05 45097.3 4.07021e+07
1.96483 9.53001 0.00559198 1.98398e-07 2.65744e+06 9.51048 1.97992e-07 9.20606e-06 57270.1 4.80347e+07
2.07637 10.5158 0.00659939 1.85503e-07 3.13125e+06 10.4952 1.85139e-07 8.05366e-06 72123.2 5.66883e+07
2.19424 11.6496 0.00778828 1.74132e-07 3.69915e+06 11.627 1.73795e-07 7.04008e-06 91496.3 6.69008e+07
2.3188 12.8638 0.00919136 1.6293e-07 4.36472e+06 12.8392 1.62617e-07 6.1494e-06 115644 7.89532e+07
2.45043 14.1974 0.0108472 1.5237e-07 5.14913e+06 14.1695 1.52071e-07 5.36741e-06 146173 9.31768e+07
2.58954 15.6228 0.0128014 1.42073e-07 6.07894e+06 15.5926 1.41799e-07 4.68145e-06 184484 1.09963e+08
2.73654 17.1836 0.0151076 1.32412e-07 7.17304e+06 17.1503 1.32156e-07 4.08023e-06 232781 1.29773e+08
2.89188 18.8987 0.0178292 1.23398e-07 8.46557e+06 18.8623 1.2316e-07 3.55373e-06 293955 1.53152e+08
3.05605 20.7149 0.0210412 1.1461e-07 9.98773e+06 20.6763 1.14396e-07 3.09304e-06 370087 1.80743e+08
3.22953 22.6871 0.0248319 1.06361e-07 1.1797e+07 22.645 1.06163e-07 2.69025e-06 466401 2.13304e+08
3.41286 24.7541 0.0293054 9.83353e-08 1.39144e+07 24.7076 9.81508e-08 2.33837e-06 585140 2.51731e+08
3.6066 26.9611 0.0345848 9.07534e-08 1.64163e+07 26.9125 9.05896e-08 2.0312e-06 733474 2.97081e+08
3.81134 29.3117 0.0408154 8.36041e-08 1.93821e+07 29.2589 8.34535e-08 1.76327e-06 918992 3.50601e+08
4.0277 31.7809 0.0481684 7.68095e-08 2.28754e+07 31.7225 7.66682e-08 1.52972e-06 1.14861e+06 4.13763e+08
4.25634 34.3799 0.056846 7.04067e-08 2.69929e+07 34.3181 7.02802e-08 1.32631e-06 1.43291e+06 4.88304e+08
4.49796 37.1388 0.067087 6.44466e-08 3.18542e+07 37.0713 6.43294e-08 1.14926e-06 1.78628e+06 5.76273e+08
4.7533 40.0107 0.0791729 5.88315e-08 3.75892e+07 39.9399 5.87273e-08 9.95263e-07 2.22196e+06 6.8009e+08
5.02313 43.0102 0.0934361 5.35879e-08 4.43706e+07 42.9355 5.34948e-08 8.61414e-07 2.76026e+06 8.0261e+08
5.30828 46.108 0.110269 4.86781e-08 5.23593e+07 46.0275 4.85931e-08 7.45152e-07 3.42044e+06 9.47202e+08
5.60962 49.388 0.130134 4.41815e-08 6.1787e+07 49.3036 4.4106e-08 6.44232e-07 4.23736e+06 1.11784e+09
5.92807 52.8013 0.153578 4.00245e-08 7.29346e+07 52.7113 3.99562e-08 5.56685e-07 5.24384e+06 1.31923e+09
6.26459 56.3239 0.181246 3.61772e-08 8.60651e+07 56.2275 3.61153e-08 4.80786e-07 6.47605e+06 1.55689e+09
6.62021 59.9659 0.213898 3.26369e-08 1.01558e+08 59.8645 3.25817e-08 4.15026e-07 7.98635e+06 1.83737e+09
6.99602 63.7642 0.252432 2.94065e-08 1.1986e+08 63.6572 2.93571e-08 3.58083e-07 9.84315e+06 2.16837e+09
7.39317 67.7291 0.297908 2.64669e-08 1.41457e+08 67.6157 2.64226e-08 3.08803e-07 1.2124e+07 2.55901e+09
7.81286 71.8568 0.351577 2.37935e-08 1.66936e+08 71.7372 2.37539e-08 2.66181e-07 1.49221e+07 3.02002e+09
8.25637 76.2114 0.414914 2.13832e-08 1.97025e+08 76.0832 2.13472e-08 2.29336e-07 1.83705e+07 3.56409e+09
8.72507 80.8026 0.489662 1.92105e-08 2.32497e+08 80.6666 1.91782e-08 1.97503e-07 2.26142e+07 4.20617e+09
9.22037 85.7262 0.577876 1.72699e-08 2.74404e+08 85.5808 1.72406e-08 1.70014e-07 2.78737e+07 4.96392e+09
9.74378 91.1013 0.681982 1.55511e-08 3.2382e+08 90.9429 1.55241e-08 1.46289e-07 3.44234e+07 5.85818e+09
10.2969 97.1655 0.804843 1.40544e-08 3.82165e+08 96.99 1.4029e-08 1.25822e-07 4.26878e+07 6.91355e+09
10.8814 104.388 0.949838 1.27941e-08 4.51027e+08 104.186 1.27694e-08 1.08175e-07 5.33437e+07 8.15905e+09
11.4992 113.619 1.12095 1.17998e-08 5.32251e+08 113.374 1.17743e-08 9.29669e-08 6.75557e+07 9.62892e+09
12.1519 126.563 1.3229 1.11376e-08 6.28157e+08 126.241 1.11093e-08 7.98658e-08 8.75987e+07 1.13636e+10
12.8418 141.048 1.56122 1.05175e-08 3.82727e+08 145.989 1.08859e-08 6.85852e-08 5.86909e+07 1.34108e+10
13.5708 0 1.84248 0 0 0 0 5.88765e-08 0 1.58268e+10
14.3411 0 2.17441 0 0 0 0 5.05241e-08 0 1.8678e+10
15.1552 0 2.56613 0 0 0 0 4.33417e-08 0 2.20429e+10
16.0156 0 3.02843 0 0 0 0 3.71677e-08 0 2.6014e+10
16.9247 0 3.574 0 0 0 0 3.18628e-08 0 3.07005e+10
17.8855 0 4.21787 0 0 0 0 2.73063e-08 0 3.62312e+10
18.9008 0 4.97773 0 0 0 0 2.33941e-08 0 4.27584e+10
19.9738 0 5.87448 0 0 0 0 2.00364e-08 0 5.04614e+10
21.1076 0 6.93279 0 0 0 0 1.71555e-08 0 5.95522e+10
22.3058 0 8.18175 0 0 0 0 1.46847e-08 0 7.02807e+10
23.5721 0 9.65571 0 0 0 0 1.25662e-08 0 8.29419e+10
24.9102 0 11.3952 0 0 0 0 1.07504e-08 0 9.78842e+10
26.3243 0 13.4481 0 0 0 0 9.19452e-09 0 1.15518e+11
27.8187 0 15.8708 0 0 0 0 7.86182e-09 0 1.36329e+11
29.3979 0 18.73 0 0 0 0 6.72061e-09 0 1.60889e+11
31.0667 0 22.1042 0 0 0 0 5.74366e-09 0 1.89874e+11
32.8303 0 26.0864 0 0 0 0 4.90756e-09 0 2.2408e+11
34.694 0 30.7859 0 0 0 0 4.19221e-09 0 2.64449e+11
36.6634 0 36.3321 0 0 0 0 3.58032e-09 0 3.1209e+11
38.7447 0 42.8774 0 0 0 0 3.05709e-09 0 3.68314e+11
40.9442 0 50.6018 0 0 0 0 2.60976e-09 0 4.34667e+11
43.2685 0 59.7179 0 0 0 0 2.22743e-09 0 5.12973e+11
45.7247 0 70.4762 0 0 0 0 1.90073e-09 0 6.05386e+11
48.3204 0 83.1727 0 0 0 0 1.62163e-09 0 7.14448e+11
51.0634 0 98.1565 0 0 0 0 1.38326e-09 0 8.43158e+11
53.9621 0 115.84 0 0 0 0 1.1797e-09 0 9.95055e+11
57.0254 0 136.709 0 0 0 0 1.00592e-09 0 1.17432e+12
60.2626 0 161.337 0 0 0 0 8.57591e-10 0 1.38587e+12
63.6835 0 190.402 0 0 0 0 7.3101e-10 0 1.63554e+12
67.2987 0 224.704 0 0 0 0 6.23009e-10 0 1.93019e+12
71.1191 0 265.185 0 0 0 0 5.30879e-10 0 2.27792e+12
75.1563 0 312.958 0 0 0 0 4.52303e-10 0 2.68829e+12
79.4227 0 369.339 0 0 0 0 3.85299e-10 0 3.17259e+12
83.9313 0 435.876 0 0 0 0 3.28173e-10 0 3.74415e+12
88.6959 0 514.4 0 0 0 0 2.79476e-10 0 4.41866e+12
93.7309 0 607.071 0 0 0 0 2.37972e-10 0 5.2147e+12
99.0518 0 716.436 0 0 0 0 2.02605e-10 0 6.15414e+12
104.675 0 845.504 0 0 0 0 1.72471e-10 0 7.26283e+12
110.617 0 997.824 0 0 0 0 1.468e-10 0 8.57124e+12
116.896 0 1177.58 0 0 0 0 1.24935e-10 0 1.01154e+13
123.532 0 1389.73 0 0 0 0 1.06313e-10 0 1.19377e+13
130.545 0 1640.09 0 0 0 0 9.04567e-11 0 1.40883e+13
137.955 0 1935.56 0 0 0 0 7.69563e-11 0 1.66263e+13
145.787 0 2284.26 0 0 0 0 6.54636e-11 0 1.96216e+13
154.063 0 2695.77 0 0 0 0 5.56812e-11 0 2.31565e+13
162.808 0 3181.42 0 0 0 0 4.73556e-11 0 2.73282e+13
172.051 0 3754.56 0 0 0 0 4.02708e-11 0 3.22515e+13
181.818 0 4430.96 0 0 0 0 3.42426e-11 0 3.80616e+13
192.139 0 5229.21 0 0 0 0 2.91139e-11 0 4.49186e+13
203.046 0 6171.26 0 0 0 0 2.4751e-11 0 5.30108e+13
214.572 0 7283.03 0 0 0 0 2.10401e-11 0 6.25608e+13
226.753 0 8595.09 0 0 0 0 1.78839e-11 0 7.38313e+13
239.625 0 10143.5 0 0 0 0 1.51999e-11 0 8.71322e+13
253.228 0 11970.9 0 0 0 0 1.29176e-11 0 1.02829e+14
267.603 0 14127.5 0 0 0 0 1.09771e-11 0 1.21354e+14
282.795 0 16672.6 0 0 0 0 9.3274e-12 0 1.43217e+14
298.848 0 19676.2 0 0 0 0 7.925e-12 0 1.69017e+14
315.813 0 23220.9 0 0 0 0 6.73295e-12 0 1.99466e+14
333.741 0 27404.3 0 0 0 0 5.71979e-12 0 2.35401e+14
352.686 0 32341.2 0 0 0 0 4.85874e-12 0 2.77809e+14
372.707 0 38167.6 0 0 0 0 4.12703e-12 0 3.27857e+14
393.865 0 45043.5 0 0 0 0 3.50528e-12 0 3.86921e+14
416.224 0 53158.3 0 0 0 0 2.97701e-12 0 4.56626e+14
439.852 0 62734.9 0 0 0 0 2.52819e-12 0 5.38888e+14
464.821 0 74036.7 0 0 0 0 2.1469e-12 0 6.35971e+14
491.207 0 87374.6 0 0 0 0 1.82301e-12 0 7.50542e+14
519.092 0 103115 0 0 0 0 1.54789e-12 0 8.85755e+14
548.56 0 121692 0 0 0 0 1.31422e-12 0 1.04533e+15
579.7 0 143615 0 0 0 0 1.11576e-12 0 1.23364e+15
612.608 0 169488 0 0 0 0 9.47223e-13 0 1.45589e+15
647.384 0 200021 0 0 0 0 8.041e-13 0 1.71817e+15
684.134 0 236056 0 0 0 0 6.82568e-13 0 2.0277e+15
722.971 0 278582 0 0 0 0 5.79376e-13 0 2.393e+15
764.012 0 328769 0 0 0 0 4.91762e-13 0 2.8241e+15
