0.0980024
200
1.0655e+09
8589934592
0.0129181 0 1.58924e-09 0 0 0 0 0.00677225 0 13.6515
0.0136515 0 1.87554e-09 0 0 0 0 0.00688819 0 16.1108
0.0144264 0 2.21343e-09 0 0 0 0 0.00699249 0 19.0132
0.0152454 0 2.61218e-09 0 0 0 0 0.00708412 0 22.4385
0.0161108 0 3.08278e-09 0 0 0 0 0.00716212 0 26.4808
0.0170254 0 3.63815e-09 0 0 0 0 0.00722559 0 31.2514
0.0179919 0 4.29357e-09 0 0 0 0 0.00727371 0 36.8815
0.0190132 0 5.06707e-09 0 0 0 0 0.00730578 0 43.5258
0.0200925 0 5.97991e-09 0 0 0 0 0.00732122 0 51.367
0.0212331 0 7.05721e-09 0 0 0 0 0.00731958 0 60.621
0.0224385 0 8.32858e-09 0 0 0 0 0.00730056 0 71.542
0.0237123 0 9.829e-09 0 0 0 0 0.00726401 0 84.4305
0.0250583 0 1.15997e-08 0 0 0 0 0.00720995 0 99.6408
0.0264808 0 1.36894e-08 0 0 0 0 0.00713857 0 117.591
0.0279841 0 1.61556e-08 0 0 0 0 0.00705021 0 138.776
0.0295727 0 1.90661e-08 0 0 0 0 0.00694538 0 163.777
0.0312514 0 2.25009e-08 0 0 0 0 0.00682475 0 193.281
0.0330255 0 2.65545e-08 0 0 0 0 0.00668915 0 228.102
0.0349003 0 3.13384e-08 0 0 0 0 0.00653951 0 269.195
0.0368815 0 3.69841e-08 0 0 0 0 0.00637693 0 317.691
0.0389751 0 4.36469e-08 0 0 0 0 0.00620256 0 374.924
0.0411876 0 5.151e-08 0 0 0 0 0.00601767 0 442.467
0.0435258 0 6.07896e-08 0 0 0 0 0.00582358 0 522.179
0.0459966 0 7.1741e-08 0 0 0 0 0.00562166 0 616.251
0.0486077 0 8.46654e-08 0 0 0 0 0.0054133 0 727.27
0.051367 0 9.99181e-08 0 0 0 0 0.00519989 0 858.29
0.054283 0 1.17919e-07 0 0 0 0 0.0049828 0 1012.91
0.0573645 0 1.39162e-07 0 0 0 0 0.00476339 0 1195.39
0.060621 0 1.64232e-07 0 0 0 0 0.00454293 0 1410.75
0.0640622 0 1.93819e-07 0 0 0 0 0.00432265 0 1664.89
0.0676989 0 2.28736e-07 0 0 0 0 0.00410371 0 1964.83
0.071542 0 2.69944e-07 0 0 0 0 0.00388717 0 2318.8
0.0756032 0 3.18575e-07 0 0 0 0 0.00367401 0 2736.54
0.079895 0 3.75967e-07 0 0 0 0 0.0034651 0 3229.53
0.0844305 0 4.43698e-07 0 0 0 0 0.00326121 0 3811.34
0.0892234 0 5.23632e-07 0 0 0 0 0.00306301 0 4497.96
0.0942883 0 6.17966e-07 0 0 0 0 0.00287109 0 5308.28
0.0996408 0 7.29294e-07 0 0 0 0 0.00268591 0 6264.59
0.105297 0 8.60678e-07 0 0 0 0 0.00250785 0 7393.17
0.111275 0 1.01573e-06 0 0 0 0 0.00233721 0 8725.07
0.117591 0 1.19872e-06 0 0 0 0 0.00217419 0 10296.9
0.124267 0 1.41467e-06 0 0 0 0 0.00201893 0 12151.9
0.131321 0 1.66953e-06 0 0 0 0 0.00187147 0 14341.1
0.138776 0 1.9703e-06 0 0 0 0 0.00173182 0 16924.7
0.146654 0 2.32525e-06 0 0 0 0 0.00159991 0 19973.8
0.154979 0 2.74415e-06 0 0 0 0 0.00147563 0 23572.1
0.163777 0 3.23852e-06 0 0 0 0 0.00135884 0 27818.7
0.173074 0 3.82195e-06 0 0 0 0 0.00124933 0 32830.3
0.182899 0 4.51048e-06 0 0 0 0 0.00114689 0 38744.7
0.193281 0 5.32305e-06 0 0 0 0 0.00105127 0 45724.7
0.204254 0 6.28202e-06 0 0 0 0 0.000962209 0 53962.1
0.215848 0 7.41374e-06 0 0 0 0 0.000879423 0 63683.5
0.228102 0 8.74934e-06 0 0 0 0 0.000802624 0 75156.3
0.24105 0 1.03256e-05 0 0 0 0 0.000731515 0 88695.9
0.254734 0 1.21857e-05 0 0 0 0 0.000665798 0 104675
0.269195 0 1.4381e-05 0 0 0 0 0.000605173 0 123532
0.284476 0 1.69718e-05 0 0 0 0 0.000549345 0 145787
0.300625 0 2.00293e-05 0 0 0 0 0.000498021 0 172051
0.317691 0 2.36377e-05 0 0 0 0 0.000450916 0 203046
0.335725 0 2.78961e-05 0 0 0 0 0.000407755 0 239625
0.354784 0 3.29216e-05 0 0 0 0 0.000368269 0 282795
0.374924 0 3.88525e-05 0 0 0 0 0.000332202 0 333741
0.396207 0.312049 4.58519e-05 7.92275e-07 6 0.303374 7.70248e-07 0.000299307 0.0158822 393865
0.418699 0 5.41123e-05 0 0 0 0 0.00026935 0 464821
0.442467 0 6.38607e-05 0 0 0 0 0.000242108 0 548560
0.467585 0 7.53654e-05 0 0 0 0 0.00021737 0 647384
0.494129 0 8.89427e-05 0 0 0 0 0.000194938 0 764012
0.522179 0 0.000104966 0 0 0 0 0.000174625 0 901651
0.551822 0 0.000123876 0 0 0 0 0.000156255 0 1.06409e+06
0.583147 4.6752 0.000146192 3.72293e-06 12 4.92067 3.91841e-06 0.000139664 0.319876 1.25578e+06
0.616251 0 0.000172529 0 0 0 0 0.0001247 0 1.48202e+06
0.651234 0 0.000203611 0 0 0 0 0.00011122 0 1.74901e+06
0.688203 23.3709 0.000240292 1.13226e-05 8 22.7895 1.10409e-05 9.90935e-05 0.914095 2.06409e+06
0.72727 0 0.000283581 0 0 0 0 8.81969e-05 0 2.43595e+06
0.768555 0 0.000334669 0 0 0 0 7.84179e-05 0 2.87479e+06
0.812184 0.0621835 0.000394961 1.83287e-08 6 0.063513 1.87205e-08 6.96525e-05 0.00157887 3.39269e+06
0.85829 0 0.000466114 0 0 0 0 6.1805e-05 0 4.00389e+06
0.907013 0.17814 0.000550086 3.76999e-08 24 0.181558 3.84232e-08 5.47875e-05 0.0165147 4.7252e+06
0.958501 0.764196 0.000649185 1.3704e-07 24 0.719434 1.29013e-07 4.85194e-05 0.0677863 5.57646e+06
1.01291 0 0.000766138 0 0 0 0 4.29272e-05 0 6.58107e+06
1.07041 0 0.00090416 0 0 0 0 3.79435e-05 0 7.76667e+06
1.13118 1.2237 0.00106705 1.33506e-07 12 1.20866 1.31866e-07 3.3507e-05 0.047813 9.16586e+06
1.19539 0.66541 0.00125928 6.15146e-08 30 0.651693 6.02465e-08 2.9562e-05 0.062426 1.08171e+07
1.26325 5.22635 0.00148614 4.09401e-07 24 5.14771 4.03241e-07 2.60578e-05 0.37707 1.27658e+07
1.33496 17.6183 0.00175387 1.16943e-06 24 17.657 1.17201e-06 2.29484e-05 1.22302 1.50656e+07
1.41075 5.72474 0.00206984 3.21981e-07 32 5.88987 3.31268e-07 2.01923e-05 0.510263 1.77798e+07
1.49083 0.383565 0.00244272 1.828e-08 48 0.375388 1.78902e-08 1.77518e-05 0.0494282 2.09828e+07
1.57546 0.0160937 0.00288279 6.4991e-10 6 0.0153248 6.1886e-10 1.55929e-05 0.00025008 2.4763e+07
1.66489 0.37295 0.00340213 1.27617e-08 84 0.361936 1.23849e-08 1.3685e-05 0.0783328 2.92241e+07
1.75941 2.07002 0.00401503 6.002e-08 48 2.08645 6.04964e-08 1.20007e-05 0.240066 3.44889e+07
1.85928 0.208578 0.00473835 5.1245e-09 72 0.209409 5.14491e-09 1.05151e-05 0.0350889 4.07021e+07
1.96483 0.658637 0.00559198 1.37117e-08 54 0.645683 1.3442e-08 9.20606e-06 0.0804286 4.80347e+07
2.07637 7.51349 0.00659939 1.3254e-07 104 7.49048 1.32134e-07 8.05366e-06 1.71155 5.66883e+07
2.19424 0.230136 0.00778828 3.43996e-09 120 0.23107 3.45392e-09 7.04008e-06 0.058635 6.69008e+07
2.3188 1.52272 0.00919136 1.92863e-08 156 1.44707 1.83281e-08 6.1494e-06 0.489262 7.89532e+07
2.45043 0.535751 0.0108472 5.74983e-09 126 0.533883 5.72978e-09 5.36741e-06 0.134977 9.31768e+07
2.58954 0.486107 0.0128014 4.42064e-09 192 0.494096 4.4933e-09 4.68145e-06 0.181303 1.09963e+08
2.73654 3.75478 0.0151076 2.89334e-08 152 3.89757 3.00337e-08 4.08023e-06 1.07785 1.29773e+08
2.89188 3.21488 0.0178292 2.09914e-08 378 3.28737 2.14648e-08 3.55373e-06 2.23279 1.53152e+08
3.05605 1.13422 0.0210412 6.27535e-09 264 1.11421 6.16462e-09 3.09304e-06 0.535619 1.80743e+08
3.22953 0.168718 0.0248319 7.90972e-10 366 0.166867 7.82295e-10 2.69025e-06 0.107609 2.13304e+08
3.41286 0.607812 0.0293054 2.41453e-09 428 0.579615 2.30252e-09 2.33837e-06 0.441938 2.51731e+08
3.6066 2.86915 0.0345848 9.65781e-09 486 2.77028 9.32498e-09 2.0312e-06 2.31079 2.97081e+08
3.81134 0.606892 0.0408154 1.731e-09 600 0.603191 1.72045e-09 1.76327e-06 0.589022 3.50601e+08
4.0277 0.446037 0.0481684 1.078e-09 738 0.436962 1.05607e-09 1.52972e-06 0.520071 4.13763e+08
4.25634 1.01649 0.056846 2.08169e-09 824 1.05774 2.16616e-09 1.32631e-06 1.2933 4.88304e+08
4.49796 2.38991 0.067087 4.14718e-09 954 2.40881 4.17997e-09 1.14926e-06 3.44258 5.76273e+08
4.7533 0.452676 0.0791729 6.65613e-10 1094 0.444245 6.53215e-10 9.95263e-07 0.731646 6.8009e+08
5.02313 0.271006 0.0934361 3.37656e-10 1332 0.270576 3.37121e-10 8.61414e-07 0.522115 8.0261e+08
5.30828 1.8417 0.110269 1.94436e-09 1614 1.86468 1.96862e-09 7.45152e-07 4.21149 9.47202e+08
5.60962 0.866648 0.130134 7.75286e-10 1850 0.83583 7.47717e-10 6.44232e-07 2.22634 1.11784e+09
5.92807 1.21309 0.153578 9.1955e-10 2238 1.15962 8.79013e-10 5.56685e-07 3.6968 1.31923e+09
6.26459 0.514771 0.181246 3.30641e-10 2546 0.522915 3.35872e-10 4.80786e-07 1.75091 1.55689e+09
6.62021 0.173614 0.213898 9.44905e-11 3264 0.173334 9.43381e-11 4.15026e-07 0.743127 1.83737e+09
6.99602 1.17 0.252432 5.39575e-10 3506 1.21117 5.58562e-10 3.58083e-07 5.283 2.16837e+09
7.39317 0.50148 0.297908 1.95967e-10 4506 0.508829 1.98838e-10 3.08803e-07 2.85951 2.55901e+09
7.81286 0.975271 0.351577 3.22935e-10 5018 1.00874 3.34019e-10 2.66181e-07 6.08792 3.02002e+09
8.25637 0.842438 0.414914 2.36368e-10 5852 0.808563 2.26864e-10 2.29336e-07 6.03144 3.56409e+09
8.72507 0.551078 0.489662 1.31017e-10 7362 0.543601 1.29239e-10 1.97503e-07 4.8837 4.20617e+09
9.22037 0.770877 0.577876 1.55296e-10 8306 0.761377 1.53382e-10 1.70014e-07 7.58695 4.96392e+09
9.74378 0.266201 0.681982 4.54409e-11 9698 0.267043 4.55847e-11 1.46289e-07 3.01243 5.85818e+09
10.2969 0.786921 0.804843 1.13823e-10 11816 0.800479 1.15784e-10 1.25822e-07 10.6891 6.91355e+09
10.8814 0.642566 0.949838 7.87551e-11 13682 0.643782 7.89041e-11 1.08175e-07 9.96092 8.15905e+09
11.4992 0.635079 1.12095 6.59554e-11 16152 0.622897 6.46902e-11 9.29669e-08 11.459 9.62892e+09
12.1519 0.640218 1.3229 5.63394e-11 19472 0.625289 5.50256e-11 7.98658e-08 13.7361 1.13636e+10
12.8418 0.328864 1.56122 2.45223e-11 22670 0.332275 2.47767e-11 6.85852e-08 8.10556 1.34108e+10
13.5708 0.63986 1.84248 4.0429e-11 26224 0.649274 4.10238e-11 5.88765e-08 18.0073 1.58268e+10
14.3411 0.549411 2.17441 2.94149e-11 31640 0.556723 2.98063e-11 5.05241e-08 18.4206 1.8678e+10
15.1552 0.63633 2.56613 2.88678e-11 37484 0.641018 2.90805e-11 4.33417e-08 24.9663 2.20429e+10
16.0156 0.597877 3.02843 2.29829e-11 43856 0.60575 2.32855e-11 3.71677e-08 27.1186 2.6014e+10
16.9247 0.942782 3.574 3.0709e-11 51362 0.942042 3.06849e-11 3.18628e-08 49.5022 3.07005e+10
17.8855 0.969999 4.21787 2.67724e-11 61636 0.961285 2.65319e-11 2.73063e-08 60.4309 3.62312e+10
18.9008 1.41932 4.97773 3.3194e-11 72218 1.41118 3.30036e-11 2.33941e-08 102.47 4.27584e+10
19.9738 1.98125 5.87448 3.92627e-11 84586 1.9672 3.89843e-11 2.00364e-08 165.752 5.04614e+10
21.1076 2.91577 6.93279 4.89615e-11 100708 2.90803 4.88315e-11 1.71555e-08 287.419 5.95522e+10
22.3058 4.16323 8.18175 5.92372e-11 118712 4.16073 5.92017e-11 1.46847e-08 478.879 7.02807e+10
23.5721 5.49546 9.65571 6.62567e-11 140410 5.47814 6.60479e-11 1.25662e-08 740.33 8.29419e+10
24.9102 6.56971 11.3952 6.71172e-11 164374 6.5453 6.68678e-11 1.07504e-08 1026.23 9.78842e+10
26.3243 7.80154 13.4481 6.75351e-11 194680 7.7689 6.72525e-11 9.19452e-09 1429.95 1.15518e+11
27.8187 8.89319 15.8708 6.52332e-11 230196 8.85982 6.49884e-11 7.86182e-09 1910.04 1.36329e+11
29.3979 10.5625 18.73 6.56507e-11 271156 10.5254 6.54203e-11 6.72061e-09 2648.8 1.60889e+11
31.0667 12.711 22.1042 6.69445e-11 321076 12.6608 6.66802e-11 5.74366e-09 3742.26 1.89874e+11
32.8303 14.7738 26.0864 6.59308e-11 377436 14.7241 6.57089e-11 4.90756e-09 5070.68 2.2408e+11
34.694 17.1641 30.7859 6.49052e-11 447594 17.1097 6.46993e-11 4.19221e-09 6929.8 2.64449e+11
36.6634 19.6543 36.3321 6.29765e-11 525078 19.5941 6.27835e-11 3.58032e-09 9235.91 3.1209e+11
38.7447 22.4755 42.8774 6.10228e-11 621924 22.4074 6.08377e-11 3.05709e-09 12414.3 3.68314e+11
40.9442 26.109 50.6018 6.00668e-11 732630 26.0335 5.98931e-11 2.60976e-09 16862.4 4.34667e+11
43.2685 30.554 59.7179 5.95626e-11 865596 30.4545 5.93687e-11 2.22743e-09 23146.5 5.12973e+11
45.7247 36.2299 70.4762 5.9846e-11 1.02168e+06 36.106 5.96413e-11 1.90073e-09 32168.2 6.05386e+11
48.3204 43.3302 83.1727 6.06485e-11 1.20544e+06 43.1812 6.04399e-11 1.62163e-09 45082.9 7.14448e+11
51.0634 51.398 98.1565 6.09589e-11 1.42103e+06 51.2264 6.07554e-11 1.38326e-09 62623.6 8.43158e+11
53.9621 60.4247 115.84 6.0725e-11 1.67997e+06 60.2278 6.05271e-11 1.1797e-09 86476 9.95055e+11
57.0254 71.3933 136.709 6.07956e-11 1.98018e+06 71.1639 6.06002e-11 1.00592e-09 119678 1.17432e+12
60.2626 83.8508 161.337 6.05039e-11 2.33957e+06 83.5792 6.0308e-11 8.57591e-10 165059 1.38587e+12
63.6835 98.9456 190.402 6.04971e-11 2.75676e+06 98.62 6.02981e-11 7.3101e-10 228145 1.63554e+12
67.2987 116.469 224.704 6.03407e-11 3.25638e+06 116.092 6.01452e-11 6.23009e-10 315392 1.93019e+12
71.1191 137.774 265.185 6.04824e-11 3.84387e+06 137.317 6.0282e-11 5.30879e-10 437928 2.27792e+12
75.1563 162.502 312.958 6.0448e-11 4.53277e+06 161.972 6.02507e-11 4.52303e-10 605781 2.68829e+12
79.4227 191.475 369.339 6.03527e-11 5.35083e+06 190.854 6.0157e-11 3.85299e-10 838146 3.17259e+12
83.9313 226.188 435.876 6.04111e-11 6.32174e+06 225.445 6.02126e-11 3.28173e-10 1.16373e+06 3.74415e+12
88.6959 266.457 514.4 6.03025e-11 7.44986e+06 265.57 6.01018e-11 2.79476e-10 1.60745e+06 4.41866e+12
93.7309 314.883 607.071 6.03837e-11 8.79764e+06 313.851 6.01858e-11 2.37972e-10 2.23233e+06 5.2147e+12
99.0518 371.62 716.436 6.03854e-11 1.03827e+07 370.385 6.01847e-11 2.02605e-10 3.09451e+06 6.15414e+12
104.675 438.514 845.504 6.03779e-11 1.22515e+07 437.05 6.01763e-11 1.72471e-10 4.28896e+06 7.26283e+12
110.617 517.552 997.824 6.03823e-11 1.44573e+07 515.84 6.01826e-11 1.468e-10 5.94663e+06 8.57124e+12
116.896 610.776 1177.58 6.0381e-11 1.70664e+07 608.755 6.01812e-11 1.24935e-10 8.24819e+06 1.01154e+13
123.532 720.831 1389.73 6.03828e-11 2.0139e+07 718.439 6.01824e-11 1.06313e-10 1.14384e+07 1.19377e+13
130.545 850.979 1640.09 6.04033e-11 2.37643e+07 848.155 6.02028e-11 9.04567e-11 1.58688e+07 1.40883e+13
137.955 1004.92 1935.56 6.04417e-11 2.80503e+07 1001.59 6.02414e-11 7.69563e-11 2.20308e+07 1.66263e+13
145.787 1186.73 2284.26 6.04806e-11 3.30981e+07 1182.75 6.0278e-11 6.54636e-11 3.05787e+07 1.96216e+13
154.063 1402.11 2695.77 6.05492e-11 3.90634e+07 1397.42 6.03467e-11 5.56812e-11 4.24786e+07 2.31565e+13
162.808 1656.04 3181.42 6.05983e-11 4.61057e+07 1650.51 6.03959e-11 4.73556e-11 5.89988e+07 2.73282e+13
172.051 1956.42 3754.56 6.06616e-11 5.44046e+07 1949.87 6.04584e-11 4.02708e-11 8.19518e+07 3.22515e+13
181.818 2317.05 4430.96 6.08763e-11 6.42064e+07 2309.39 6.06749e-11 3.42426e-11 1.14146e+08 3.80616e+13
192.139 2735.34 5229.21 6.08956e-11 7.57748e+07 2726.14 6.06907e-11 2.91139e-11 1.58493e+08 4.49186e+13
203.046 3236.03 6171.26 6.10447e-11 8.94213e+07 3225.09 6.08384e-11 2.4751e-11 2.20544e+08 5.30108e+13
214.572 3830.46 7283.03 6.12278e-11 1.05538e+08 3817.54 6.10213e-11 2.10401e-11 3.07122e+08 6.25608e+13
226.753 4549.8 8595.09 6.16242e-11 1.24552e+08 4533.62 6.14051e-11 1.78839e-11 4.29179e+08 7.38313e+13
239.625 5384.14 10143.5 6.17928e-11 1.46987e+08 5365.72 6.15814e-11 1.51999e-11 5.97553e+08 8.71322e+13
253.228 6402.78 11970.9 6.22661e-11 1.7347e+08 6380.43 6.20487e-11 1.29176e-11 8.36169e+08 1.02829e+14
267.603 7615.55 14127.5 6.27547e-11 2.04703e+08 7589.11 6.25368e-11 1.09771e-11 1.17026e+09 1.21354e+14
282.795 9094.53 16672.6 6.35019e-11 2.4161e+08 9062.47 6.32781e-11 9.3274e-12 1.64491e+09 1.43217e+14
298.848 10899.1 19676.2 6.44848e-11 2.85122e+08 10859.9 6.42533e-11 7.925e-12 2.32001e+09 1.69017e+14
315.813 13137.5 23220.9 6.58633e-11 3.36491e+08 13089.2 6.56213e-11 6.73295e-12 3.29164e+09 1.99466e+14
333.741 15948.7 27404.3 6.77513e-11 3.97115e+08 15888.1 6.74938e-11 5.71979e-12 4.70385e+09 2.35401e+14
352.686 19573.9 32341.2 7.0458e-11 4.68637e+08 19496.1 7.01783e-11 4.85874e-12 6.79584e+09 2.77809e+14
372.707 24388.9 38167.6 7.43888e-11 5.53074e+08 24286.4 7.40762e-11 4.12703e-12 9.96904e+09 3.27857e+14
393.865 31033.2 45043.5 8.02055e-11 6.52716e+08 30892.9 7.98429e-11 3.50528e-12 1.4935e+10 3.86921e+14
416.224 36614.2 53158.3 8.01842e-11 2.2184e+08 38734.5 8.48277e-11 2.97701e-12 5.97514e+09 4.56626e+14
439.852 0 62734.9 0 0 0 0 2.52819e-12 0 5.38888e+14
464.821 0 74036.7 0 0 0 0 2.1469e-12 0 6.35971e+14
491.207 0 87374.6 0 0 0 0 1.82301e-12 0 7.50542e+14
519.092 0 103115 0 0 0 0 1.54789e-12 0 8.85755e+14
548.56 0 121692 0 0 0 0 1.31422e-12 0 1.04533e+15
579.7 0 143615 0 0 0 0 1.11576e-12 0 1.23364e+15
612.608 0 169488 0 0 0 0 9.47223e-13 0 1.45589e+15
647.384 0 200021 0 0 0 0 8.041e-13 0 1.71817e+15
684.134 0 236056 0 0 0 0 6.82568e-13 0 2.0277e+15
722.971 0 278582 0 0 0 0 5.79376e-13 0 2.393e+15
764.012 0 328769 0 0 0 0 4.91762e-13 0 2.8241e+15
0.0980024
200
1.0655e+09
8589934592
0.0129181 2.80215e-05 1.58924e-09 2.05264e-06 6 2.7765e-05 2.03385e-06 0.00677225 0.00181857 13.6515
0.0136515 0 1.87554e-09 0 0 0 0 0.00688819 0 16.1108
0.0144264 0 2.21343e-09 0 0 0 0 0.00699249 0 19.0132
0.0152454 0 2.61218e-09 0 0 0 0 0.00708412 0 22.4385
0.0161108 0 3.08278e-09 0 0 0 0 0.00716212 0 26.4808
0.0170254 0 3.63815e-09 0 0 0 0 0.00722559 0 31.2514
0.0179919 6.22052e-05 4.29357e-09 1.68663e-06 12 6.21251e-05 1.68445e-06 0.00727371 0.00278256 36.8815
0.0190132 0 5.06707e-09 0 0 0 0 0.00730578 0 43.5258
0.0200925 0 5.97991e-09 0 0 0 0 0.00732122 0 51.367
0.0212331 5.88201e-05 7.05721e-09 9.70293e-07 8 5.87689e-05 9.69449e-07 0.00731958 0.00106049 60.621
0.0224385 0 8.32858e-09 0 0 0 0 0.00730056 0 71.542
0.0237123 0 9.829e-09 0 0 0 0 0.00726401 0 84.4305
0.0250583 0.000378547 1.15997e-08 3.79911e-06 6 0.000378368 3.79732e-06 0.00720995 0.00316156 99.6408
0.0264808 0 1.36894e-08 0 0 0 0 0.00713857 0 117.591
0.0279841 0.000235981 1.61556e-08 1.70045e-06 24 0.000235739 1.6987e-06 0.00705021 0.0057886 138.776
0.0295727 0 1.90661e-08 0 0 0 0 0.00694538 0 163.777
0.0312514 0.000422041 2.25009e-08 2.18356e-06 24 0.000424184 2.19464e-06 0.00682475 0.00767872 193.281
0.0330255 0 2.65545e-08 0 0 0 0 0.00668915 0 228.102
0.0349003 0.000587357 3.13384e-08 2.1819e-06 12 0.000582653 2.16443e-06 0.00653951 0.00400379 269.195
0.0368815 0.000511523 3.69841e-08 1.61013e-06 30 0.000506076 1.59298e-06 0.00637693 0.00757479 317.691
0.0389751 0.00061171 4.36469e-08 1.63156e-06 24 0.000605417 1.61477e-06 0.00620256 0.0063131 374.924
0.0411876 0.000387534 5.151e-08 8.75847e-07 24 0.000384902 8.69898e-07 0.00601767 0.0034931 442.467
0.0435258 0.000826932 6.07896e-08 1.58362e-06 8 0.000826869 1.5835e-06 0.00582358 0.00217546 522.179
0.0459966 0.0010612 7.1741e-08 1.72203e-06 72 0.00105281 1.7084e-06 0.00562166 0.0220551 616.251
0.0486077 0 8.46654e-08 0 0 0 0 0.0054133 0 727.27
0.051367 0.00159832 9.99181e-08 1.86221e-06 54 0.00159327 1.85633e-06 0.00519989 0.0193387 858.29
0.054283 0.00123833 1.17919e-07 1.22254e-06 60 0.00124346 1.2276e-06 0.0049828 0.0147212 1012.91
0.0573645 0.00123874 1.39162e-07 1.03626e-06 96 0.00123556 1.0336e-06 0.00476339 0.0208845 1195.39
0.060621 0.00142762 1.64232e-07 1.01196e-06 24 0.00140828 9.98252e-07 0.00454293 0.00534613 1410.75
0.0640622 0.00251699 1.93819e-07 1.5118e-06 134 0.00251836 1.51262e-06 0.00432265 0.046865 1664.89
0.0676989 0.00241173 2.28736e-07 1.22745e-06 120 0.00240073 1.22185e-06 0.00410371 0.0358928 1964.83
0.071542 0.00219819 2.69944e-07 9.47988e-07 108 0.00217443 9.37739e-07 0.00388717 0.0263386 2318.8
0.0756032 0.00319014 3.18575e-07 1.16576e-06 174 0.00317362 1.15972e-06 0.00367401 0.0552099 2736.54
0.079895 0.00341793 3.75967e-07 1.05834e-06 168 0.00338566 1.04834e-06 0.0034651 0.0513119 3229.53
0.0844305 0.00292838 4.43698e-07 7.68332e-07 168 0.002943 7.72168e-07 0.00326121 0.0395804 3811.34
0.0892234 0.00328912 5.23632e-07 7.31246e-07 290 0.00327538 7.28192e-07 0.00306301 0.0692329 4497.96
0.0942883 0.00428245 6.17966e-07 8.06748e-07 288 0.00427151 8.04688e-07 0.00287109 0.0809252 5308.28
0.0996408 0.00391686 7.29294e-07 6.25239e-07 366 0.00388357 6.19925e-07 0.00268591 0.0851993 6264.59
0.105297 0.00421842 8.60678e-07 5.70583e-07 420 0.00418928 5.66643e-07 0.00250785 0.0955578 7393.17
0.111275 0.0044533 1.01573e-06 5.10403e-07 398 0.00444138 5.09037e-07 0.00233721 0.0869156 8725.07
0.117591 0.00530044 1.19872e-06 5.1476e-07 624 0.00531118 5.15803e-07 0.00217419 0.147738 10296.9
0.124267 0.00583958 1.41467e-06 4.80548e-07 642 0.00583262 4.79975e-07 0.00201893 0.15281 12151.9
0.131321 0.00742892 1.66953e-06 5.18015e-07 800 0.00743153 5.18197e-07 0.00187147 0.221437 14341.1
0.138776 0.00677616 1.9703e-06 4.00371e-07 858 0.00680896 4.02309e-07 0.00173182 0.198357 16924.7
0.146654 0.00727915 2.32525e-06 3.64436e-07 1080 0.00733989 3.67477e-07 0.00159991 0.246008 19973.8
0.154979 0.00859344 2.74415e-06 3.6456e-07 1286 0.00865321 3.67096e-07 0.00147563 0.31771 23572.1
0.163777 0.00815851 3.23852e-06 2.93275e-07 1650 0.00817273 2.93786e-07 0.00135884 0.356115 27818.7
0.173074 0.00961251 3.82195e-06 2.92794e-07 1778 0.00961359 2.92827e-07 0.00124933 0.416693 32830.3
0.182899 0.00941959 4.51048e-06 2.43119e-07 2112 0.00944148 2.43684e-07 0.00114689 0.447704 38744.7
0.193281 0.0110996 5.32305e-06 2.42748e-07 2570 0.0111162 2.43112e-07 0.00105127 0.593435 45724.7
0.204254 0.0122465 6.28202e-06 2.26946e-07 3030 0.0122422 2.26866e-07 0.000962209 0.714655 53962.1
0.215848 0.0121853 7.41374e-06 1.91342e-07 3434 0.0121841 1.91323e-07 0.000879423 0.747159 63683.5
0.228102 0.0127459 8.74934e-06 1.69591e-07 4218 0.0127485 1.69626e-07 0.000802624 0.891248 75156.3
0.24105 0.0144108 1.03256e-05 1.62474e-07 4766 0.014424 1.62623e-07 0.000731515 1.05856 88695.9
0.254734 0.0153507 1.21857e-05 1.46652e-07 6026 0.0153458 1.46605e-07 0.000665798 1.32731 104675
0.269195 0.0160345 1.4381e-05 1.298e-07 6480 0.0160278 1.29746e-07 0.000605173 1.38986 123532
0.284476 0.0173351 1.69718e-05 1.18907e-07 8162 0.0173752 1.19182e-07 0.000549345 1.76669 145787
0.300625 0.0174697 2.00293e-05 1.01538e-07 9578 0.0174922 1.01669e-07 0.000498021 1.9528 172051
0.317691 0.0193719 2.36377e-05 9.54065e-08 11234 0.0193586 9.53411e-08 0.000450916 2.37693 203046
0.335725 0.0202782 2.78961e-05 8.46247e-08 13344 0.0202707 8.45932e-08 0.000407755 2.76939 239625
0.354784 0.020978 3.29216e-05 7.41811e-08 15464 0.0209658 7.41379e-08 0.000368269 3.11494 282795
0.374924 0.022547 3.88525e-05 6.75584e-08 18458 0.0225424 6.75448e-08 0.000332202 3.75372 333741
0.396207 0.0236143 4.58519e-05 5.99552e-08 22232 0.0235801 5.98685e-08 0.000299307 4.45337 393865
0.418699 0.0255262 5.41123e-05 5.49162e-08 25628 0.0254768 5.48099e-08 0.00026935 5.22515 464821
0.442467 0.026452 6.38607e-05 4.82208e-08 30320 0.0264083 4.81413e-08 0.000242108 6.03886 548560
0.467585 0.0277344 7.53654e-05 4.28407e-08 35452 0.0276946 4.27792e-08 0.00021737 6.9871 647384
0.494129 0.0286641 8.89427e-05 3.75179e-08 41792 0.0286552 3.75062e-08 0.000194938 8.04331 764012
0.522179 0.0309906 0.000104966 3.4371e-08 49988 0.030983 3.43625e-08 0.000174625 9.83901 901651
0.551822 0.0323264 0.000123876 3.03795e-08 59110 0.0323077 3.03619e-08 0.000156255 11.4924 1.06409e+06
0.583147 0.0339605 0.000146192 2.70433e-08 69716 0.0339214 2.70122e-08 0.000139664 13.4992 1.25578e+06
0.616251 0.0358386 0.000172529 2.41823e-08 82210 0.0357833 2.4145e-08 0.0001247 15.9425 1.48202e+06
0.651234 0.0377716 0.000203611 2.1596e-08 96722 0.0377054 2.15582e-08 0.00011122 18.7808 1.74901e+06
0.688203 0.0395614 0.000240292 1.91665e-08 113098 0.0395279 1.91503e-08 9.90935e-05 21.8752 2.06409e+06
0.72727 0.0409134 0.000283581 1.67957e-08 135190 0.0408722 1.67788e-08 8.81969e-05 25.7448 2.43595e+06
0.768555 0.0433868 0.000334669 1.50922e-08 158170 0.043351 1.50797e-08 7.84179e-05 30.4411 2.87479e+06
0.812184 0.0452068 0.000394961 1.33248e-08 188560 0.0451645 1.33123e-08 6.96525e-05 36.0722 3.39269e+06
0.85829 0.0470556 0.000466114 1.17525e-08 220444 0.0470047 1.17398e-08 6.1805e-05 41.9183 4.00389e+06
0.907013 0.0494766 0.000550086 1.04708e-08 261388 0.0494311 1.04612e-08 5.47875e-05 49.9555 4.7252e+06
0.958501 0.0514574 0.000649185 9.22761e-09 308244 0.0514027 9.2178e-09 4.85194e-05 58.623 5.57646e+06
1.01291 0.0540419 0.000766138 8.21171e-09 364396 0.0539811 8.20248e-09 4.29272e-05 69.7068 6.58107e+06
1.07041 0.0562662 0.00090416 7.24457e-09 429162 0.0562018 7.23627e-09 3.79435e-05 81.9401 7.76667e+06
1.13118 0.0589948 0.00106705 6.43636e-09 506358 0.0589237 6.42861e-09 3.3507e-05 97.2663 9.16586e+06
1.19539 0.0612876 0.00125928 5.6658e-09 598590 0.0612134 5.65894e-09 2.9562e-05 114.725 1.08171e+07
1.26325 0.0640862 0.00148614 5.02013e-09 704844 0.0640096 5.01413e-09 2.60578e-05 135.791 1.27658e+07
1.33496 0.0667376 0.00175387 4.42979e-09 834620 0.0666558 4.42436e-09 2.29484e-05 161.109 1.50656e+07
1.41075 0.0694556 0.00206984 3.90644e-09 981444 0.069376 3.90196e-09 2.01923e-05 189.872 1.77798e+07
1.49083 0.0723464 0.00244272 3.44789e-09 1.15998e+06 0.0722569 3.44362e-09 1.77518e-05 225.3 2.09828e+07
1.57546 0.0755538 0.00288279 3.05108e-09 1.36931e+06 0.0754607 3.04732e-09 1.55929e-05 267.935 2.4763e+07
1.66489 0.0786962 0.00340213 2.69286e-09 1.61652e+06 0.0785901 2.68923e-09 1.3685e-05 318.088 2.92241e+07
1.75941 0.0818697 0.00401503 2.3738e-09 1.90601e+06 0.0817643 2.37075e-09 1.20007e-05 377.019 3.44889e+07
1.85928 0.0852803 0.00473835 2.09523e-09 2.24913e+06 0.0851748 2.09264e-09 1.05151e-05 448.159 4.07021e+07
1.96483 0.0886952 0.00559198 1.84648e-09 2.65744e+06 0.0885801 1.84409e-09 9.20606e-06 533.009 4.80347e+07
2.07637 0.0923082 0.00659939 1.62835e-09 3.13125e+06 0.0921914 1.62629e-09 8.05366e-06 633.099 5.66883e+07
2.19424 0.0961818 0.00778828 1.43768e-09 3.69915e+06 0.0960592 1.43584e-09 7.04008e-06 755.415 6.69008e+07
2.3188 0.100016 0.00919136 1.26678e-09 4.36472e+06 0.0998824 1.26508e-09 6.1494e-06 899.134 7.89532e+07
2.45043 0.104229 0.0108472 1.11861e-09 5.14913e+06 0.104095 1.11718e-09 5.36741e-06 1073.12 9.31768e+07
2.58954 0.108595 0.0128014 9.87558e-10 6.07894e+06 0.108454 9.86277e-10 4.68145e-06 1282.36 1.09963e+08
2.73654 0.113075 0.0151076 8.7133e-10 7.17304e+06 0.112929 8.70201e-10 4.08023e-06 1531.8 1.29773e+08
2.89188 0.117634 0.0178292 7.68085e-10 8.46557e+06 0.117478 7.67071e-10 3.55373e-06 1829.7 1.53152e+08
3.05605 0.122527 0.0210412 6.7791e-10 9.98773e+06 0.122372 6.77054e-10 3.09304e-06 2189.04 1.80743e+08
3.22953 0.127751 0.0248319 5.98915e-10 1.1797e+07 0.127583 5.98129e-10 2.69025e-06 2626.3 2.13304e+08
3.41286 0.133092 0.0293054 5.28708e-10 1.39144e+07 0.132911 5.27988e-10 2.33837e-06 3146.06 2.51731e+08
3.6066 0.138789 0.0345848 4.67176e-10 1.64163e+07 0.138605 4.66556e-10 2.0312e-06 3775.74 2.97081e+08
3.81134 0.144624 0.0408154 4.12503e-10 1.93821e+07 0.144431 4.11951e-10 1.76327e-06 4534.31 3.50601e+08
4.0277 0.150981 0.0481684 3.64896e-10 2.28754e+07 0.150775 3.64398e-10 1.52972e-06 5456.64 4.13763e+08
4.25634 0.157654 0.056846 3.22861e-10 2.69929e+07 0.157436 3.22414e-10 1.32631e-06 6570.84 4.88304e+08
4.49796 0.164751 0.067087 2.8589e-10 3.18542e+07 0.164515 2.85481e-10 1.14926e-06 7924.09 5.76273e+08
4.7533 0.17231 0.0791729 2.53363e-10 3.75892e+07 0.172065 2.53004e-10 9.95263e-07 9569.05 6.8009e+08
5.02313 0.180238 0.0934361 2.24564e-10 4.43706e+07 0.179978 2.2424e-10 8.61414e-07 11567.1 8.0261e+08
5.30828 0.188718 0.110269 1.99237e-10 5.23593e+07 0.188442 1.98945e-10 7.45152e-07 13999.7 9.47202e+08
5.60962 0.197927 0.130134 1.77062e-10 6.1787e+07 0.197636 1.76801e-10 6.44232e-07 16981.6 1.11784e+09
5.92807 0.207699 0.153578 1.5744e-10 7.29346e+07 0.207386 1.57203e-10 5.56685e-07 20627.2 1.31923e+09
6.26459 0.218055 0.181246 1.40058e-10 8.60651e+07 0.217721 1.39844e-10 4.80786e-07 25071.6 1.55689e+09
6.62021 0.22924 0.213898 1.24765e-10 1.01558e+08 0.228883 1.24571e-10 4.15026e-07 30530.5 1.83737e+09
6.99602 0.241222 0.252432 1.11246e-10 1.1986e+08 0.240845 1.11072e-10 3.58083e-07 37236.9 2.16837e+09
7.39317 0.253951 0.297908 9.92379e-11 1.41457e+08 0.253549 9.90808e-11 3.08803e-07 45458.9 2.55901e+09
7.81286 0.26752 0.351577 8.85822e-11 1.66936e+08 0.267094 8.84411e-11 2.66181e-07 55554.5 3.02002e+09
8.25637 0.282024 0.414914 7.91295e-11 1.97025e+08 0.281571 7.90022e-11 2.29336e-07 67981 3.56409e+09
8.72507 0.297616 0.489662 7.07571e-11 2.32497e+08 0.297134 7.06424e-11 1.97503e-07 83293.9 4.20617e+09
9.22037 0.314684 0.577876 6.33943e-11 2.74404e+08 0.314161 6.32889e-11 1.70014e-07 102319 4.96392e+09
9.74378 0.333729 0.681982 5.69679e-11 3.2382e+08 0.333154 5.68698e-11 1.46289e-07 126102 5.85818e+09
10.2969 0.355884 0.804843 5.14763e-11 3.82165e+08 0.355238 5.13829e-11 1.25822e-07 156351 6.91355e+09
10.8814 0.383237 0.949838 4.69708e-11 4.51027e+08 0.382476 4.68776e-11 1.08175e-07 195840 8.15905e+09
11.4992 0.419483 1.12095 4.35649e-11 5.32251e+08 0.418539 4.34669e-11 9.29669e-08 249416 9.62892e+09
12.1519 0.471952 1.3229 4.1532e-11 6.28157e+08 0.470684 4.14203e-11 7.98658e-08 326656 1.13636e+10
12.8418 0.531419 1.56122 3.96263e-11 3.82727e+08 0.550001 4.10118e-11 6.85852e-08 221127 1.34108e+10
13.5708 0 1.84248 0 0 0 0 5.88765e-08 0 1.58268e+10
14.3411 0 2.17441 0 0 0 0 5.05241e-08 0 1.8678e+10
15.1552 0 2.56613 0 0 0 0 4.33417e-08 0 2.20429e+10
16.0156 0 3.02843 0 0 0 0 3.71677e-08 0 2.6014e+10
16.9247 0 3.574 0 0 0 0 3.18628e-08 0 3.07005e+10
17.8855 0 4.21787 0 0 0 0 2.73063e-08 0 3.62312e+10
18.9008 0 4.97773 0 0 0 0 2.33941e-08 0 4.27584e+10
19.9738 0 5.87448 0 0 0 0 2.00364e-08 0 5.04614e+10
21.1076 0 6.93279 0 0 0 0 1.71555e-08 0 5.95522e+10
22.3058 0 8.18175 0 0 0 0 1.46847e-08 0 7.02807e+10
23.5721 0 9.65571 0 0 0 0 1.25662e-08 0 8.29419e+10
24.9102 0 11.3952 0 0 0 0 1.07504e-08 0 9.78842e+10
26.3243 0 13.4481 0 0 0 0 9.19452e-09 0 1.15518e+11
27.8187 0 15.8708 0 0 0 0 7.86182e-09 0 1.36329e+11
29.3979 0 18.73 0 0 0 0 6.72061e-09 0 1.60889e+11
31.0667 0 22.1042 0 0 0 0 5.74366e-09 0 1.89874e+11
32.8303 0 26.0864 0 0 0 0 4.90756e-09 0 2.2408e+11
34.694 0 30.7859 0 0 0 0 4.19221e-09 0 2.64449e+11
36.6634 0 36.3321 0 0 0 0 3.58032e-09 0 3.1209e+11
38.7447 0 42.8774 0 0 0 0 3.05709e-09 0 3.68314e+11
40.9442 0 50.6018 0 0 0 0 2.60976e-09 0 4.34667e+11
43.2685 0 59.7179 0 0 0 0 2.22743e-09 0 5.12973e+11
45.7247 0 70.4762 0 0 0 0 1.90073e-09 0 6.05386e+11
48.3204 0 83.1727 0 0 0 0 1.62163e-09 0 7.14448e+11
51.0634 0 98.1565 0 0 0 0 1.38326e-09 0 8.43158e+11
53.9621 0 115.84 0 0 0 0 1.1797e-09 0 9.95055e+11
57.0254 0 136.709 0 0 0 0 1.00592e-09 0 1.17432e+12
60.2626 0 161.337 0 0 0 0 8.57591e-10 0 1.38587e+12
63.6835 0 190.402 0 0 0 0 7.3101e-10 0 1.63554e+12
67.2987 0 224.704 0 0 0 0 6.23009e-10 0 1.93019e+12
71.1191 0 265.185 0 0 0 0 5.30879e-10 0 2.27792e+12
75.1563 0 312.958 0 0 0 0 4.52303e-10 0 2.68829e+12
79.4227 0 369.339 0 0 0 0 3.85299e-10 0 3.17259e+12
83.9313 0 435.876 0 0 0 0 3.28173e-10 0 3.74415e+12
88.6959 0 514.4 0 0 0 0 2.79476e-10 0 4.41866e+12
93.7309 0 607.071 0 0 0 0 2.37972e-10 0 5.2147e+12
99.0518 0 716.436 0 0 0 0 2.02605e-10 0 6.15414e+12
104.675 0 845.504 0 0 0 0 1.72471e-10 0 7.26283e+12
110.617 0 997.824 0 0 0 0 1.468e-10 0 8.57124e+12
116.896 0 1177.58 0 0 0 0 1.24935e-10 0 1.01154e+13
123.532 0 1389.73 0 0 0 0 1.06313e-10 0 1.19377e+13
130.545 0 1640.09 0 0 0 0 9.04567e-11 0 1.40883e+13
137.955 0 1935.56 0 0 0 0 7.69563e-11 0 1.66263e+13
145.787 0 2284.26 0 0 0 0 6.54636e-11 0 1.96216e+13
154.063 0 2695.77 0 0 0 0 5.56812e-11 0 2.31565e+13
162.808 0 3181.42 0 0 0 0 4.73556e-11 0 2.73282e+13
172.051 0 3754.56 0 0 0 0 4.02708e-11 0 3.22515e+13
181.818 0 4430.96 0 0 0 0 3.42426e-11 0 3.80616e+13
192.139 0 5229.21 0 0 0 0 2.91139e-11 0 4.49186e+13
203.046 0 6171.26 0 0 0 0 2.4751e-11 0 5.30108e+13
214.572 0 7283.03 0 0 0 0 2.10401e-11 0 6.25608e+13
226.753 0 8595.09 0 0 0 0 1.78839e-11 0 7.38313e+13
239.625 0 10143.5 0 0 0 0 1.51999e-11 0 8.71322e+13
253.228 0 11970.9 0 0 0 0 1.29176e-11 0 1.02829e+14
267.603 0 14127.5 0 0 0 0 1.09771e-11 0 1.21354e+14
282.795 0 16672.6 0 0 0 0 9.3274e-12 0 1.43217e+14
298.848 0 19676.2 0 0 0 0 7.925e-12 0 1.69017e+14
315.813 0 23220.9 0 0 0 0 6.73295e-12 0 1.99466e+14
333.741 0 27404.3 0 0 0 0 5.71979e-12 0 2.35401e+14
352.686 0 32341.2 0 0 0 0 4.85874e-12 0 2.77809e+14
372.707 0 38167.6 0 0 0 0 4.12703e-12 0 3.27857e+14
393.865 0 45043.5 0 0 0 0 3.50528e-12 0 3.86921e+14
416.224 0 53158.3 0 0 0 0 2.97701e-12 0 4.56626e+14
439.852 0 62734.9 0 0 0 0 2.52819e-12 0 5.38888e+14
464.821 0 74036.7 0 0 0 0 2.1469e-12 0 6.35971e+14
491.207 0 87374.6 0 0 0 0 1.82301e-12 0 7.50542e+14
519.092 0 103115 0 0 0 0 1.54789e-12 0 8.85755e+14
548.56 0 121692 0 0 0 0 1.31422e-12 0 1.04533e+15
579.7 0 143615 0 0 0 0 1.11576e-12 0 1.23364e+15
612.608 0 169488 0 0 0 0 9.47223e-13 0 1.45589e+15
647.384 0 200021 0 0 0 0 8.041e-13 0 1.71817e+15
684.134 0 236056 0 0 0 0 6.82568e-13 0 2.0277e+15
722.971 0 278582 0 0 0 0 5.79376e-13 0 2.393e+15
764.012 0 328769 0 0 0 0 4.91762e-13 0 2.8241e+15
