0.478506
200
1.0655e+09
8589934592
0.0129181 0 1.58924e-09 0 0 0 0 0.00677225 0 13.6515
0.0136515 0 1.87554e-09 0 0 0 0 0.00688819 0 16.1108
0.0144264 0 2.21343e-09 0 0 0 0 0.00699249 0 19.0132
0.0152454 0 2.61218e-09 0 0 0 0 0.00708412 0 22.4385
0.0161108 0 3.08278e-09 0 0 0 0 0.00716212 0 26.4808
0.0170254 0 3.63815e-09 0 0 0 0 0.00722559 0 31.2514
0.0179919 0 4.29357e-09 0 0 0 0 0.00727371 0 36.8815
0.0190132 0 5.06707e-09 0 0 0 0 0.00730578 0 43.5258
0.0200925 0 5.97991e-09 0 0 0 0 0.00732122 0 51.367
0.0212331 0 7.05721e-09 0 0 0 0 0.00731958 0 60.621
0.0224385 0 8.32858e-09 0 0 0 0 0.00730056 0 71.542
0.0237123 0 9.829e-09 0 0 0 0 0.00726401 0 84.4305
0.0250583 0 1.15997e-08 0 0 0 0 0.00720995 0 99.6408
0.0264808 0 1.36894e-08 0 0 0 0 0.00713857 0 117.591
0.0279841 0 1.61556e-08 0 0 0 0 0.00705021 0 138.776
0.0295727 0 1.90661e-08 0 0 0 0 0.00694538 0 163.777
0.0312514 0 2.25009e-08 0 0 0 0 0.00682475 0 193.281
0.0330255 0 2.65545e-08 0 0 0 0 0.00668915 0 228.102
0.0349003 0 3.13384e-08 0 0 0 0 0.00653951 0 269.195
0.0368815 0 3.69841e-08 0 0 0 0 0.00637693 0 317.691
0.0389751 0 4.36469e-08 0 0 0 0 0.00620256 0 374.924
0.0411876 0 5.151e-08 0 0 0 0 0.00601767 0 442.467
0.0435258 0 6.07896e-08 0 0 0 0 0.00582358 0 522.179
0.0459966 0 7.1741e-08 0 0 0 0 0.00562166 0 616.251
0.0486077 0 8.46654e-08 0 0 0 0 0.0054133 0 727.27
0.051367 0 9.99181e-08 0 0 0 0 0.00519989 0 858.29
0.054283 0 1.17919e-07 0 0 0 0 0.0049828 0 1012.91
0.0573645 0 1.39162e-07 0 0 0 0 0.00476339 0 1195.39
0.060621 0 1.64232e-07 0 0 0 0 0.00454293 0 1410.75
0.0640622 0 1.93819e-07 0 0 0 0 0.00432265 0 1664.89
0.0676989 0 2.28736e-07 0 0 0 0 0.00410371 0 1964.83
0.071542 0 2.69944e-07 0 0 0 0 0.00388717 0 2318.8
0.0756032 0 3.18575e-07 0 0 0 0 0.00367401 0 2736.54
0.079895 0 3.75967e-07 0 0 0 0 0.0034651 0 3229.53
0.0844305 0 4.43698e-07 0 0 0 0 0.00326121 0 3811.34
0.0892234 0 5.23632e-07 0 0 0 0 0.00306301 0 4497.96
0.0942883 0 6.17966e-07 0 0 0 0 0.00287109 0 5308.28
0.0996408 0 7.29294e-07 0 0 0 0 0.00268591 0 6264.59
0.105297 0 8.60678e-07 0 0 0 0 0.00250785 0 7393.17
0.111275 0 1.01573e-06 0 0 0 0 0.00233721 0 8725.07
0.117591 0 1.19872e-06 0 0 0 0 0.00217419 0 10296.9
0.124267 0 1.41467e-06 0 0 0 0 0.00201893 0 12151.9
0.131321 0 1.66953e-06 0 0 0 0 0.00187147 0 14341.1
0.138776 0 1.9703e-06 0 0 0 0 0.00173182 0 16924.7
0.146654 0 2.32525e-06 0 0 0 0 0.00159991 0 19973.8
0.154979 0 2.74415e-06 0 0 0 0 0.00147563 0 23572.1
0.163777 0 3.23852e-06 0 0 0 0 0.00135884 0 27818.7
0.173074 0 3.82195e-06 0 0 0 0 0.00124933 0 32830.3
0.182899 0 4.51048e-06 0 0 0 0 0.00114689 0 38744.7
0.193281 0 5.32305e-06 0 0 0 0 0.00105127 0 45724.7
0.204254 0 6.28202e-06 0 0 0 0 0.000962209 0 53962.1
0.215848 0 7.41374e-06 0 0 0 0 0.000879423 0 63683.5
0.228102 0 8.74934e-06 0 0 0 0 0.000802624 0 75156.3
0.24105 0 1.03256e-05 0 0 0 0 0.000731515 0 88695.9
0.254734 0 1.21857e-05 0 0 0 0 0.000665798 0 104675
0.269195 0 1.4381e-05 0 0 0 0 0.000605173 0 123532
0.284476 0 1.69718e-05 0 0 0 0 0.000549345 0 145787
0.300625 0 2.00293e-05 0 0 0 0 0.000498021 0 172051
0.317691 0 2.36377e-05 0 0 0 0 0.000450916 0 203046
0.335725 0 2.78961e-05 0 0 0 0 0.000407755 0 239625
0.354784 0 3.29216e-05 0 0 0 0 0.000368269 0 282795
0.374924 0 3.88525e-05 0 0 0 0 0.000332202 0 333741
0.396207 1.94162 4.58519e-05 4.92965e-06 6 1.88764 4.7926e-06 0.000299307 0.0988213 393865
0.418699 0 5.41123e-05 0 0 0 0 0.00026935 0 464821
0.442467 0 6.38607e-05 0 0 0 0 0.000242108 0 548560
0.467585 0 7.53654e-05 0 0 0 0 0.00021737 0 647384
0.494129 0 8.89427e-05 0 0 0 0 0.000194938 0 764012
0.522179 0 0.000104966 0 0 0 0 0.000174625 0 901651
0.551822 0 0.000123876 0 0 0 0 0.000156255 0 1.06409e+06
0.583147 5.93108 0.000146192 4.72301e-06 12 6.2425 4.971e-06 0.000139664 0.405804 1.25578e+06
0.616251 0 0.000172529 0 0 0 0 0.0001247 0 1.48202e+06
0.651234 0 0.000203611 0 0 0 0 0.00011122 0 1.74901e+06
0.688203 21.8081 0.000240292 1.05654e-05 8 21.2655 1.03026e-05 9.90935e-05 0.852968 2.06409e+06
0.72727 0 0.000283581 0 0 0 0 8.81969e-05 0 2.43595e+06
0.768555 0 0.000334669 0 0 0 0 7.84179e-05 0 2.87479e+06
0.812184 2.95255 0.000394961 8.70268e-07 6 3.01567 8.88874e-07 6.96525e-05 0.0749665 3.39269e+06
0.85829 0 0.000466114 0 0 0 0 6.1805e-05 0 4.00389e+06
0.907013 1.1919 0.000550086 2.52243e-07 24 1.21477 2.57083e-07 5.47875e-05 0.110497 4.7252e+06
0.958501 2.96534 0.000649185 5.31761e-07 24 2.79165 5.00614e-07 4.85194e-05 0.263034 5.57646e+06
1.01291 0 0.000766138 0 0 0 0 4.29272e-05 0 6.58107e+06
1.07041 0 0.00090416 0 0 0 0 3.79435e-05 0 7.76667e+06
1.13118 5.05713 0.00106705 5.51735e-07 12 4.99501 5.44958e-07 3.3507e-05 0.197595 9.16586e+06
1.19539 2.75402 0.00125928 2.54599e-07 30 2.69725 2.4935e-07 2.9562e-05 0.258371 1.08171e+07
1.26325 12.5426 0.00148614 9.8251e-07 24 12.3538 9.67726e-07 2.60578e-05 0.90492 1.27658e+07
1.33496 19.6449 0.00175387 1.30396e-06 24 19.6881 1.30682e-06 2.29484e-05 1.36371 1.50656e+07
1.41075 13.5264 0.00206984 7.60777e-07 32 13.8065 7.76526e-07 2.01923e-05 1.20565 1.77798e+07
1.49083 3.46502 0.00244272 1.65136e-07 48 3.39115 1.61616e-07 1.77518e-05 0.446521 2.09828e+07
1.57546 5.35321 0.00288279 2.16178e-07 6 5.09746 2.0585e-07 1.55929e-05 0.0831835 2.4763e+07
1.66489 3.10082 0.00340213 1.06105e-07 84 3.03734 1.03933e-07 1.3685e-05 0.651284 2.92241e+07
1.75941 5.261 0.00401503 1.52542e-07 48 5.24615 1.52111e-07 1.20007e-05 0.610134 3.44889e+07
1.85928 4.08698 0.00473835 1.00412e-07 72 4.11923 1.01204e-07 1.05151e-05 0.68755 4.07021e+07
1.96483 6.0752 0.00559198 1.26475e-07 54 5.94047 1.2367e-07 9.20606e-06 0.741866 4.80347e+07
2.07637 12.7928 0.00659939 2.25669e-07 104 12.8571 2.26804e-07 8.05366e-06 2.91415 5.66883e+07
2.19424 4.21597 0.00778828 6.30181e-08 120 4.24753 6.34899e-08 7.04008e-06 1.07416 6.69008e+07
2.3188 5.46652 0.00919136 6.92375e-08 156 5.33715 6.7599e-08 6.1494e-06 1.75644 7.89532e+07
2.45043 8.47162 0.0108472 9.09198e-08 126 8.45204 9.07096e-08 5.36741e-06 2.13434 9.31768e+07
2.58954 5.91844 0.0128014 5.38222e-08 192 5.94371 5.40519e-08 4.68145e-06 2.2074 1.09963e+08
2.73654 20.2515 0.0151076 1.56053e-07 152 20.6951 1.59471e-07 4.08023e-06 5.81341 1.29773e+08
2.89188 9.70525 0.0178292 6.33701e-08 378 9.73491 6.35638e-08 3.55373e-06 6.74049 1.53152e+08
3.05605 8.2958 0.0210412 4.58984e-08 264 8.18375 4.52784e-08 3.09304e-06 3.91756 1.80743e+08
3.22953 8.63835 0.0248319 4.04979e-08 366 8.55078 4.00873e-08 2.69025e-06 5.5096 2.13304e+08
3.41286 9.43209 0.0293054 3.74689e-08 428 9.34025 3.71041e-08 2.33837e-06 6.85805 2.51731e+08
3.6066 12.2064 0.0345848 4.10878e-08 486 12.0245 4.04754e-08 2.0312e-06 9.83096 2.97081e+08
3.81134 10.0396 0.0408154 2.86354e-08 600 10.0421 2.86424e-08 1.76327e-06 9.74399 3.50601e+08
4.0277 11.8902 0.0481684 2.87367e-08 738 11.7721 2.84514e-08 1.52972e-06 13.8638 4.13763e+08
4.25634 13.2894 0.056846 2.72155e-08 824 13.2544 2.71438e-08 1.32631e-06 16.9083 4.88304e+08
4.49796 15.4882 0.067087 2.68764e-08 954 15.3585 2.66515e-08 1.14926e-06 22.3102 5.76273e+08
4.7533 14.1531 0.0791729 2.08106e-08 1094 14.1055 2.07407e-08 9.95263e-07 22.8752 6.8009e+08
5.02313 14.829 0.0934361 1.8476e-08 1332 14.873 1.85308e-08 8.61414e-07 28.5693 8.0261e+08
5.30828 18.8341 0.110269 1.98839e-08 1614 18.8126 1.98612e-08 7.45152e-07 43.0685 9.47202e+08
5.60962 19.8397 0.130134 1.77482e-08 1850 19.8186 1.77293e-08 6.44232e-07 50.9663 1.11784e+09
5.92807 20.0051 0.153578 1.51643e-08 2238 19.9153 1.50962e-08 5.56685e-07 60.9639 1.31923e+09
6.26459 18.3544 0.181246 1.17891e-08 2546 18.4533 1.18527e-08 4.80786e-07 62.4292 1.55689e+09
6.62021 20.6642 0.213898 1.12466e-08 3264 20.703 1.12678e-08 4.15026e-07 88.4501 1.83737e+09
6.99602 23.1514 0.252432 1.06769e-08 3506 23.2283 1.07123e-08 3.58083e-07 104.537 2.16837e+09
7.39317 24.7027 0.297908 9.65324e-09 4506 24.6846 9.64617e-09 3.08803e-07 140.858 2.55901e+09
7.81286 26.5857 0.351577 8.80314e-09 5018 26.5209 8.7817e-09 2.66181e-07 165.955 3.02002e+09
8.25637 28.562 0.414914 8.01383e-09 5852 28.5342 8.00603e-09 2.29336e-07 204.49 3.56409e+09
8.72507 29.7499 0.489662 7.07293e-09 7362 29.7087 7.06313e-09 1.97503e-07 263.646 4.20617e+09
9.22037 31.2197 0.577876 6.28932e-09 8306 31.1431 6.27389e-09 1.70014e-07 307.263 4.96392e+09
9.74378 33.2288 0.681982 5.6722e-09 9698 33.1474 5.65831e-09 1.46289e-07 376.029 5.85818e+09
10.2969 34.9438 0.804843 5.05439e-09 11816 34.8973 5.04766e-09 1.25822e-07 474.659 6.91355e+09
10.8814 38.1942 0.949838 4.68121e-09 13682 38.102 4.66991e-09 1.08175e-07 592.079 8.15905e+09
11.4992 40.3946 1.12095 4.19513e-09 16152 40.331 4.18852e-09 9.29669e-08 728.859 9.62892e+09
12.1519 42.4284 1.3229 3.73371e-09 19472 42.3482 3.72665e-09 7.98658e-08 910.313 1.13636e+10
12.8418 43.7722 1.56122 3.26396e-09 22670 43.6427 3.2543e-09 6.85852e-08 1078.86 1.34108e+10
13.5708 47.8949 1.84248 3.0262e-09 26224 47.8354 3.02243e-09 5.88765e-08 1347.89 1.58268e+10
14.3411 50.4683 2.17441 2.70202e-09 31640 50.4282 2.69987e-09 5.05241e-08 1692.1 1.8678e+10
15.1552 52.2088 2.56613 2.36851e-09 37484 52.1616 2.36637e-09 4.33417e-08 2048.4 2.20429e+10
16.0156 56.013 3.02843 2.15319e-09 43856 55.9479 2.15069e-09 3.71677e-08 2540.65 2.6014e+10
16.9247 58.2722 3.574 1.89809e-09 51362 58.233 1.89681e-09 3.18628e-08 3059.67 3.07005e+10
17.8855 61.3082 4.21787 1.69214e-09 61636 61.2553 1.69068e-09 2.73063e-08 3819.5 3.62312e+10
18.9008 64.8429 4.97773 1.51649e-09 72218 64.6975 1.51309e-09 2.33941e-08 4681.44 4.27584e+10
19.9738 68.8091 5.87448 1.3636e-09 84586 68.6626 1.3607e-09 2.00364e-08 5756.59 5.04614e+10
21.1076 72.0924 6.93279 1.21058e-09 100708 71.9548 1.20826e-09 1.71555e-08 7106.43 5.95522e+10
22.3058 75.9928 8.18175 1.08128e-09 118712 75.8452 1.07917e-09 1.46847e-08 8741.13 7.02807e+10
23.5721 80.003 9.65571 9.64567e-10 140410 79.8287 9.62465e-10 1.25662e-08 10777.7 8.29419e+10
24.9102 83.5624 11.3952 8.53687e-10 164374 83.3944 8.5197e-10 1.07504e-08 13052.9 9.78842e+10
26.3243 87.343 13.4481 7.56097e-10 194680 87.1954 7.54819e-10 9.19452e-09 16009.2 1.15518e+11
27.8187 92.4679 15.8708 6.7827e-10 230196 92.3226 6.77203e-10 7.86182e-09 19859.9 1.36329e+11
29.3979 97.0975 18.73 6.03505e-10 271156 96.9605 6.02654e-10 6.72061e-09 24349.6 1.60889e+11
31.0667 102.236 22.1042 5.38441e-10 321076 102.068 5.37555e-10 5.74366e-09 30099.4 1.89874e+11
32.8303 107.329 26.0864 4.78975e-10 377436 107.134 4.78107e-10 4.90756e-09 36837.6 2.2408e+11
34.694 112.652 30.7859 4.2599e-10 447594 112.44 4.25187e-10 4.19221e-09 45482.1 2.64449e+11
36.6634 118.71 36.3321 3.80371e-10 525078 118.478 3.79626e-10 3.58032e-09 55783.8 3.1209e+11
38.7447 124.578 42.8774 3.38238e-10 621924 124.367 3.37666e-10 3.05709e-09 68810 3.68314e+11
40.9442 131.429 50.6018 3.02367e-10 732630 131.184 3.01805e-10 2.60976e-09 84882.5 4.34667e+11
43.2685 138.519 59.7179 2.70033e-10 865596 138.278 2.69562e-10 2.22743e-09 104937 5.12973e+11
45.7247 146.383 70.4762 2.418e-10 1.02168e+06 146.12 2.41366e-10 1.90073e-09 129972 6.05386e+11
48.3204 154.357 83.1727 2.1605e-10 1.20544e+06 154.062 2.15638e-10 1.62163e-09 160600 7.14448e+11
51.0634 163.834 98.1565 1.9431e-10 1.42103e+06 163.532 1.93952e-10 1.38326e-09 199616 8.43158e+11
53.9621 174.22 115.84 1.75085e-10 1.67997e+06 173.863 1.74727e-10 1.1797e-09 249332 9.95055e+11
57.0254 185.325 136.709 1.57815e-10 1.98018e+06 184.955 1.575e-10 1.00592e-09 310663 1.17432e+12
60.2626 198.839 161.337 1.43476e-10 2.33957e+06 198.439 1.43187e-10 8.57591e-10 391412 1.38587e+12
63.6835 213.838 190.402 1.30745e-10 2.75676e+06 213.387 1.30469e-10 7.3101e-10 493060 1.63554e+12
67.2987 230.682 224.704 1.19513e-10 3.25638e+06 230.2 1.19263e-10 6.23009e-10 624676 1.93019e+12
71.1191 249.891 265.185 1.09701e-10 3.84387e+06 249.342 1.0946e-10 5.30879e-10 794302 2.27792e+12
75.1563 273.381 312.958 1.01693e-10 4.53277e+06 272.723 1.01448e-10 4.52303e-10 1.01912e+06 2.68829e+12
79.4227 298.987 369.339 9.42405e-11 5.35083e+06 298.306 9.40258e-11 3.85299e-10 1.30876e+06 3.17259e+12
83.9313 330.423 435.876 8.82507e-11 6.32174e+06 329.617 8.80354e-11 3.28173e-10 1.70001e+06 3.74415e+12
88.6959 366.904 514.4 8.30349e-11 7.44986e+06 365.976 8.28251e-11 2.79476e-10 2.21342e+06 4.41866e+12
93.7309 410.032 607.071 7.863e-11 8.79764e+06 408.983 7.8429e-11 2.37972e-10 2.90689e+06 5.2147e+12
99.0518 460.716 716.436 7.48628e-11 1.03827e+07 459.49 7.46636e-11 2.02605e-10 3.83642e+06 6.15414e+12
104.675 520.983 845.504 7.17328e-11 1.22515e+07 519.549 7.15354e-11 1.72471e-10 5.09556e+06 7.26283e+12
110.617 592.45 997.824 6.91207e-11 1.44573e+07 590.78 6.89259e-11 1.468e-10 6.80721e+06 8.57124e+12
116.896 676.976 1177.58 6.69255e-11 1.70664e+07 675.027 6.67327e-11 1.24935e-10 9.14219e+06 1.01154e+13
123.532 777.398 1389.73 6.51213e-11 2.0139e+07 775.089 6.49279e-11 1.06313e-10 1.2336e+07 1.19377e+13
130.545 897.176 1640.09 6.36823e-11 2.37643e+07 894.497 6.34922e-11 9.04567e-11 1.67303e+07 1.40883e+13
137.955 1038.3 1935.56 6.24492e-11 2.80503e+07 1035.09 6.22562e-11 7.69563e-11 2.27625e+07 1.66263e+13
145.787 1205.06 2284.26 6.14148e-11 3.30981e+07 1201.28 6.12225e-11 6.54636e-11 3.10511e+07 1.96216e+13
154.063 1403.72 2695.77 6.06188e-11 3.90634e+07 1399.29 6.04274e-11 5.56812e-11 4.25275e+07 2.31565e+13
162.808 1639.79 3181.42 6.00035e-11 4.61057e+07 1634.53 5.98109e-11 4.73556e-11 5.84197e+07 2.73282e+13
172.051 1920.13 3754.56 5.95361e-11 5.44046e+07 1913.9 5.9343e-11 4.02708e-11 8.04313e+07 3.22515e+13
181.818 2252.54 4430.96 5.91813e-11 6.42064e+07 2245.19 5.89883e-11 3.42426e-11 1.10968e+08 3.80616e+13
192.139 2645.88 5229.21 5.8904e-11 7.57748e+07 2637.19 5.87105e-11 2.91139e-11 1.53309e+08 4.49186e+13
203.046 3115.28 6171.26 5.87669e-11 8.94213e+07 3104.98 5.85726e-11 2.4751e-11 2.12315e+08 5.30108e+13
214.572 3673.83 7283.03 5.87241e-11 1.05538e+08 3661.62 5.8529e-11 2.10401e-11 2.94564e+08 6.25608e+13
226.753 4339.17 8595.09 5.87715e-11 1.24552e+08 4324.58 5.85739e-11 1.78839e-11 4.09311e+08 7.38313e+13
239.625 5134.26 10143.5 5.89249e-11 1.46987e+08 5116.91 5.87259e-11 1.51999e-11 5.6982e+08 8.71322e+13
253.228 6088.16 11970.9 5.92065e-11 1.7347e+08 6067.28 5.90034e-11 1.29176e-11 7.9508e+08 1.02829e+14
267.603 7239.73 14127.5 5.96578e-11 2.04703e+08 7214.71 5.94516e-11 1.09771e-11 1.11251e+09 1.21354e+14
282.795 8637.99 16672.6 6.03142e-11 2.4161e+08 8607.63 6.01022e-11 9.3274e-12 1.56233e+09 1.43217e+14
298.848 10347.7 19676.2 6.12229e-11 2.85122e+08 10310.6 6.10031e-11 7.925e-12 2.20265e+09 1.69017e+14
315.813 12468.5 23220.9 6.25094e-11 3.36491e+08 12422.6 6.22793e-11 6.73295e-12 3.12402e+09 1.99466e+14
333.741 15146.8 27404.3 6.43446e-11 3.97115e+08 15089.1 6.40996e-11 5.71979e-12 4.46733e+09 2.35401e+14
352.686 18600.5 32341.2 6.69542e-11 4.68637e+08 18526.4 6.66875e-11 4.85874e-12 6.45789e+09 2.77809e+14
372.707 23194.7 38167.6 7.07464e-11 5.53074e+08 23096.9 7.04481e-11 4.12703e-12 9.48091e+09 3.27857e+14
393.865 29534.1 45043.5 7.63312e-11 6.52716e+08 29399.7 7.59838e-11 3.50528e-12 1.42136e+10 3.86921e+14
416.224 34871 53158.3 7.63666e-11 2.2184e+08 36890.2 8.07886e-11 2.97701e-12 5.69066e+09 4.56626e+14
439.852 0 62734.9 0 0 0 0 2.52819e-12 0 5.38888e+14
464.821 0 74036.7 0 0 0 0 2.1469e-12 0 6.35971e+14
491.207 0 87374.6 0 0 0 0 1.82301e-12 0 7.50542e+14
519.092 0 103115 0 0 0 0 1.54789e-12 0 8.85755e+14
548.56 0 121692 0 0 0 0 1.31422e-12 0 1.04533e+15
579.7 0 143615 0 0 0 0 1.11576e-12 0 1.23364e+15
612.608 0 169488 0 0 0 0 9.47223e-13 0 1.45589e+15
647.384 0 200021 0 0 0 0 8.041e-13 0 1.71817e+15
684.134 0 236056 0 0 0 0 6.82568e-13 0 2.0277e+15
722.971 0 278582 0 0 0 0 5.79376e-13 0 2.393e+15
764.012 0 328769 0 0 0 0 4.91762e-13 0 2.8241e+15
0.478506
200
1.0655e+09
8589934592
0.0129181 0.00061832 1.58924e-09 4.52934e-05 6 0.00061266 4.48787e-05 0.00677225 0.0401285 13.6515
0.0136515 0 1.87554e-09 0 0 0 0 0.00688819 0 16.1108
0.0144264 0 2.21343e-09 0 0 0 0 0.00699249 0 19.0132
0.0152454 0 2.61218e-09 0 0 0 0 0.00708412 0 22.4385
0.0161108 0 3.08278e-09 0 0 0 0 0.00716212 0 26.4808
0.0170254 0 3.63815e-09 0 0 0 0 0.00722559 0 31.2514
0.0179919 0.00137674 4.29357e-09 3.73287e-05 12 0.00137496 3.72806e-05 0.00727371 0.0615841 36.8815
0.0190132 0 5.06707e-09 0 0 0 0 0.00730578 0 43.5258
0.0200925 0 5.97991e-09 0 0 0 0 0.00732122 0 51.367
0.0212331 0.00130371 7.05721e-09 2.15059e-05 8 0.00130258 2.14872e-05 0.00731958 0.0235051 60.621
0.0224385 0 8.32858e-09 0 0 0 0 0.00730056 0 71.542
0.0237123 0 9.829e-09 0 0 0 0 0.00726401 0 84.4305
0.0250583 0.00830424 1.15997e-08 8.33417e-05 6 0.00830033 8.33025e-05 0.00720995 0.0693556 99.6408
0.0264808 0 1.36894e-08 0 0 0 0 0.00713857 0 117.591
0.0279841 0.00513771 1.61556e-08 3.70217e-05 24 0.00513244 3.69836e-05 0.00705021 0.126027 138.776
0.0295727 0 1.90661e-08 0 0 0 0 0.00694538 0 163.777
0.0312514 0.00916291 2.25009e-08 4.74071e-05 24 0.00920943 4.76478e-05 0.00682475 0.166712 193.281
0.0330255 0 2.65545e-08 0 0 0 0 0.00668915 0 228.102
0.0349003 0.013392 3.13384e-08 4.97484e-05 12 0.0132848 4.935e-05 0.00653951 0.0912882 269.195
0.0368815 0.0111273 3.69841e-08 3.50254e-05 30 0.0110088 3.46524e-05 0.00637693 0.164776 317.691
0.0389751 0.0129306 4.36469e-08 3.44885e-05 24 0.0127975 3.41337e-05 0.00620256 0.133449 374.924
0.0411876 0.0082345 5.151e-08 1.86104e-05 24 0.00817858 1.8484e-05 0.00601767 0.0742231 442.467
0.0435258 0.0191425 6.07896e-08 3.6659e-05 8 0.0191411 3.66561e-05 0.00582358 0.0503593 522.179
0.0459966 0.0239423 7.1741e-08 3.88515e-05 72 0.0237532 3.85446e-05 0.00562166 0.497594 616.251
0.0486077 0 8.46654e-08 0 0 0 0 0.0054133 0 727.27
0.051367 0.0342509 9.99181e-08 3.9906e-05 54 0.0341397 3.97764e-05 0.00519989 0.414417 858.29
0.054283 0.0271731 1.17919e-07 2.68266e-05 60 0.0272915 2.69436e-05 0.0049828 0.323031 1012.91
0.0573645 0.0261501 1.39162e-07 2.18757e-05 96 0.026083 2.18196e-05 0.00476339 0.440878 1195.39
0.060621 0.0306276 1.64232e-07 2.17103e-05 24 0.0302127 2.14161e-05 0.00454293 0.114694 1410.75
0.0640622 0.0535181 1.93819e-07 3.21451e-05 134 0.0535462 3.21619e-05 0.00432265 0.996481 1664.89
0.0676989 0.0518076 2.28736e-07 2.63675e-05 120 0.051563 2.6243e-05 0.00410371 0.771033 1964.83
0.071542 0.0480583 2.69944e-07 2.07255e-05 108 0.0475339 2.04994e-05 0.00388717 0.575831 2318.8
0.0756032 0.0706084 3.18575e-07 2.58021e-05 174 0.0702267 2.56626e-05 0.00367401 1.22198 2736.54
0.079895 0.0745707 3.75967e-07 2.30903e-05 168 0.0738701 2.28733e-05 0.0034651 1.1195 3229.53
0.0844305 0.0629379 4.43698e-07 1.65133e-05 168 0.0632525 1.65959e-05 0.00326121 0.850678 3811.34
0.0892234 0.0725734 5.23632e-07 1.61347e-05 290 0.0722541 1.60637e-05 0.00306301 1.5276 4497.96
0.0942883 0.0915503 6.17966e-07 1.72467e-05 288 0.0913342 1.7206e-05 0.00287109 1.73002 5308.28
0.0996408 0.0818205 7.29294e-07 1.30608e-05 366 0.0811606 1.29555e-05 0.00268591 1.77975 6264.59
0.105297 0.0925765 8.60678e-07 1.25219e-05 420 0.0919294 1.24344e-05 0.00250785 2.09709 7393.17
0.111275 0.0989566 1.01573e-06 1.13416e-05 398 0.0986611 1.13078e-05 0.00233721 1.93135 8725.07
0.117591 0.1179 1.19872e-06 1.14501e-05 624 0.118172 1.14764e-05 0.00217419 3.2862 10296.9
0.124267 0.133896 1.41467e-06 1.10185e-05 642 0.133655 1.09987e-05 0.00201893 3.5038 12151.9
0.131321 0.165365 1.66953e-06 1.15308e-05 800 0.165422 1.15348e-05 0.00187147 4.92909 14341.1
0.138776 0.148858 1.9703e-06 8.7953e-06 858 0.14954 8.83561e-06 0.00173182 4.35748 16924.7
0.146654 0.167017 2.32525e-06 8.36184e-06 1080 0.168422 8.43216e-06 0.00159991 5.64457 19973.8
0.154979 0.197498 2.74415e-06 8.37846e-06 1286 0.198806 8.43394e-06 0.00147563 7.30174 23572.1
0.163777 0.187794 3.23852e-06 6.75067e-06 1650 0.18823 6.76634e-06 0.00135884 8.19714 27818.7
0.173074 0.217099 3.82195e-06 6.61278e-06 1778 0.217174 6.61504e-06 0.00124933 9.41105 32830.3
0.182899 0.217619 4.51048e-06 5.61674e-06 2112 0.218174 5.63107e-06 0.00114689 10.3432 38744.7
0.193281 0.248394 5.32305e-06 5.43238e-06 2570 0.248681 5.43866e-06 0.00105127 13.2803 45724.7
0.204254 0.287492 6.28202e-06 5.32766e-06 3030 0.287323 5.32452e-06 0.000962209 16.7768 53962.1
0.215848 0.291237 7.41374e-06 4.5732e-06 3434 0.291113 4.57124e-06 0.000879423 17.8576 63683.5
0.228102 0.305504 8.74934e-06 4.06492e-06 4218 0.305512 4.06503e-06 0.000802624 21.3622 75156.3
0.24105 0.341775 1.03256e-05 3.85334e-06 4766 0.342043 3.85635e-06 0.000731515 25.1054 88695.9
0.254734 0.372896 1.21857e-05 3.56243e-06 6026 0.372851 3.562e-06 0.000665798 32.2428 104675
0.269195 0.405928 1.4381e-05 3.28601e-06 6480 0.405576 3.28316e-06 0.000605173 35.1855 123532
0.284476 0.443654 1.69718e-05 3.04317e-06 8162 0.444611 3.04974e-06 0.000549345 45.2145 145787
0.300625 0.464962 2.00293e-05 2.70247e-06 9578 0.465402 2.70503e-06 0.000498021 51.9742 172051
0.317691 0.514256 2.36377e-05 2.5327e-06 11234 0.513677 2.52985e-06 0.000450916 63.099 203046
0.335725 0.550465 2.78961e-05 2.29719e-06 13344 0.549707 2.29403e-06 0.000407755 75.1768 239625
0.354784 0.593496 3.29216e-05 2.09868e-06 15464 0.593035 2.09705e-06 0.000368269 88.1258 282795
0.374924 0.634594 3.88525e-05 1.90146e-06 18458 0.634447 1.90102e-06 0.000332202 105.65 333741
0.396207 0.704433 4.58519e-05 1.78851e-06 22232 0.703536 1.78624e-06 0.000299307 132.848 393865
0.418699 0.754666 5.41123e-05 1.62356e-06 25628 0.752763 1.61947e-06 0.00026935 154.478 464821
0.442467 0.823957 6.38607e-05 1.50204e-06 30320 0.822196 1.49883e-06 0.000242108 188.105 548560
0.467585 0.886248 7.53654e-05 1.36897e-06 35452 0.884955 1.36697e-06 0.00021737 223.272 647384
0.494129 0.970558 8.89427e-05 1.27034e-06 41792 0.970093 1.26974e-06 0.000194938 272.344 764012
0.522179 1.06698 0.000104966 1.18337e-06 49988 1.06679 1.18315e-06 0.000174625 338.75 901651
0.551822 1.15308 0.000123876 1.08363e-06 59110 1.15172 1.08235e-06 0.000156255 409.929 1.06409e+06
0.583147 1.25699 0.000146192 1.00096e-06 69716 1.25482 9.99235e-07 0.000139664 499.65 1.25578e+06
0.616251 1.37361 0.000172529 9.26853e-07 82210 1.37076 9.2493e-07 0.0001247 611.039 1.48202e+06
0.651234 1.49416 0.000203611 8.54293e-07 96722 1.49118 8.52588e-07 0.00011122 742.929 1.74901e+06
0.688203 1.64198 0.000240292 7.95495e-07 113098 1.63924 7.94169e-07 9.90935e-05 907.919 2.06409e+06
0.72727 1.79572 0.000283581 7.37175e-07 135190 1.79327 7.36172e-07 8.81969e-05 1129.96 2.43595e+06
0.768555 1.96687 0.000334669 6.84179e-07 158170 1.96429 6.83282e-07 7.84179e-05 1380 2.87479e+06
0.812184 2.18088 0.000394961 6.42818e-07 188560 2.17737 6.41784e-07 6.96525e-05 1740.21 3.39269e+06
0.85829 2.38847 0.000466114 5.96538e-07 220444 2.38485 5.95634e-07 6.1805e-05 2127.71 4.00389e+06
0.907013 2.62972 0.000550086 5.56532e-07 261388 2.62599 5.55741e-07 5.47875e-05 2655.18 4.7252e+06
0.958501 2.90303 0.000649185 5.20587e-07 308244 2.89867 5.19804e-07 4.85194e-05 3307.29 5.57646e+06
1.01291 3.21394 0.000766138 4.88361e-07 364396 3.2088 4.8758e-07 4.29272e-05 4145.55 6.58107e+06
1.07041 3.54554 0.00090416 4.56507e-07 429162 3.53943 4.5572e-07 3.79435e-05 5163.35 7.76667e+06
1.13118 3.92048 0.00106705 4.27726e-07 506358 3.91386 4.27004e-07 3.3507e-05 6463.8 9.16586e+06
1.19539 4.32925 0.00125928 4.00222e-07 598590 4.32178 3.99531e-07 2.9562e-05 8103.94 1.08171e+07
1.26325 4.80883 0.00148614 3.76695e-07 704844 4.80063 3.76053e-07 2.60578e-05 10189.3 1.27658e+07
1.33496 5.33049 0.00175387 3.53818e-07 834620 5.32019 3.53134e-07 2.29484e-05 12868.1 1.50656e+07
1.41075 5.8965 0.00206984 3.31641e-07 981444 5.88459 3.30971e-07 2.01923e-05 16119.4 1.77798e+07
1.49083 6.54573 0.00244272 3.11956e-07 1.15998e+06 6.53405 3.114e-07 1.77518e-05 20384.6 2.09828e+07
1.57546 7.25235 0.00288279 2.92871e-07 1.36931e+06 7.23803 2.92293e-07 1.55929e-05 25718.9 2.4763e+07
1.66489 8.06209 0.00340213 2.75872e-07 1.61652e+06 8.04618 2.75327e-07 1.3685e-05 32586.8 2.92241e+07
1.75941 8.94009 0.00401503 2.59217e-07 1.90601e+06 8.92298 2.58721e-07 1.20007e-05 41170.1 3.44889e+07
1.85928 9.90285 0.00473835 2.43301e-07 2.24913e+06 9.884 2.42837e-07 1.05151e-05 52040.8 4.07021e+07
1.96483 10.9966 0.00559198 2.28931e-07 2.65744e+06 10.9742 2.28463e-07 9.20606e-06 66083.6 4.80347e+07
2.07637 12.1376 0.00659939 2.14111e-07 3.13125e+06 12.1139 2.13693e-07 8.05366e-06 83245.9 5.66883e+07
2.19424 13.4367 0.00778828 2.00844e-07 3.69915e+06 13.4107 2.00457e-07 7.04008e-06 105532 6.69008e+07
2.3188 14.8425 0.00919136 1.87991e-07 4.36472e+06 14.8141 1.87631e-07 6.1494e-06 133433 7.89532e+07
2.45043 16.3778 0.0108472 1.75771e-07 5.14913e+06 16.3457 1.75426e-07 5.36741e-06 168623 9.31768e+07
2.58954 18.0012 0.0128014 1.63703e-07 6.07894e+06 17.9668 1.63389e-07 4.68145e-06 212571 1.09963e+08
2.73654 19.7646 0.0151076 1.52301e-07 7.17304e+06 19.7272 1.52013e-07 4.08023e-06 267745 1.29773e+08
2.89188 21.7016 0.0178292 1.417e-07 8.46557e+06 21.6601 1.41429e-07 3.55373e-06 337551 1.53152e+08
3.05605 23.7501 0.0210412 1.31403e-07 9.98773e+06 23.706 1.31159e-07 3.09304e-06 424313 1.80743e+08
3.22953 25.9698 0.0248319 1.2175e-07 1.1797e+07 25.9219 1.21526e-07 2.69025e-06 533886 2.13304e+08
3.41286 28.2977 0.0293054 1.12412e-07 1.39144e+07 28.2455 1.12205e-07 2.33837e-06 668905 2.51731e+08
3.6066 30.7635 0.0345848 1.03552e-07 1.64163e+07 30.7087 1.03368e-07 2.0312e-06 836917 2.97081e+08
3.81134 33.3514 0.0408154 9.51264e-08 1.93821e+07 33.2926 9.49585e-08 1.76327e-06 1.04565e+06 3.50601e+08
4.0277 36.0905 0.0481684 8.72251e-08 2.28754e+07 36.0253 8.70675e-08 1.52972e-06 1.30436e+06 4.13763e+08
4.25634 38.9563 0.056846 7.97788e-08 2.69929e+07 38.8871 7.96371e-08 1.32631e-06 1.62365e+06 4.88304e+08
4.49796 41.969 0.067087 7.28284e-08 3.18542e+07 41.8935 7.26974e-08 1.14926e-06 2.0186e+06 5.76273e+08
4.7533 45.1258 0.0791729 6.63526e-08 3.75892e+07 45.0471 6.62369e-08 9.95263e-07 2.50601e+06 6.8009e+08
5.02313 48.4119 0.0934361 6.03181e-08 4.43706e+07 48.3288 6.02145e-08 8.61414e-07 3.10693e+06 8.0261e+08
5.30828 51.833 0.110269 5.47222e-08 5.23593e+07 51.7443 5.46285e-08 7.45152e-07 3.84514e+06 9.47202e+08
5.60962 55.3949 0.130134 4.95552e-08 6.1787e+07 55.3011 4.94712e-08 6.44232e-07 4.75274e+06 1.11784e+09
5.92807 59.124 0.153578 4.48172e-08 7.29346e+07 59.0239 4.47413e-08 5.56685e-07 5.87177e+06 1.31923e+09
6.26459 62.987 0.181246 4.0457e-08 8.60651e+07 62.8799 4.03882e-08 4.80786e-07 7.24217e+06 1.55689e+09
6.62021 67.0121 0.213898 3.64718e-08 1.01558e+08 66.8995 3.64106e-08 4.15026e-07 8.92477e+06 1.83737e+09
6.99602 71.21 0.252432 3.28403e-08 1.1986e+08 71.0908 3.27853e-08 3.58083e-07 1.09925e+07 2.16837e+09
7.39317 75.5658 0.297908 2.95293e-08 1.41457e+08 75.4403 2.94803e-08 3.08803e-07 1.35268e+07 2.55901e+09
7.81286 80.1355 0.351577 2.65347e-08 1.66936e+08 80.0028 2.64908e-08 2.66181e-07 1.66413e+07 3.02002e+09
8.25637 84.9094 0.414914 2.38236e-08 1.97025e+08 84.7678 2.37839e-08 2.29336e-07 2.04671e+07 3.56409e+09
8.72507 89.9586 0.489662 2.13873e-08 2.32497e+08 89.808 2.13515e-08 1.97503e-07 2.51767e+07 4.20617e+09
9.22037 95.3926 0.577876 1.92172e-08 2.74404e+08 95.2316 1.91847e-08 1.70014e-07 3.10167e+07 4.96392e+09
9.74378 101.357 0.681982 1.73018e-08 3.2382e+08 101.182 1.72718e-08 1.46289e-07 3.82987e+07 5.85818e+09
10.2969 108.06 0.804843 1.56302e-08 3.82165e+08 107.866 1.56021e-08 1.25822e-07 4.74742e+07 6.91355e+09
10.8814 115.969 0.949838 1.42135e-08 4.51027e+08 115.746 1.41862e-08 1.08175e-07 5.92619e+07 8.15905e+09
11.4992 126.14 1.12095 1.31001e-08 5.32251e+08 125.868 1.30719e-08 9.29669e-08 7.50001e+07 9.62892e+09
12.1519 140.431 1.3229 1.23579e-08 6.28157e+08 140.076 1.23267e-08 7.98658e-08 9.71972e+07 1.13636e+10
12.8418 156.458 1.56122 1.16666e-08 3.82727e+08 161.938 1.20752e-08 6.85852e-08 6.51031e+07 1.34108e+10
13.5708 0 1.84248 0 0 0 0 5.88765e-08 0 1.58268e+10
14.3411 0 2.17441 0 0 0 0 5.05241e-08 0 1.8678e+10
15.1552 0 2.56613 0 0 0 0 4.33417e-08 0 2.20429e+10
16.0156 0 3.02843 0 0 0 0 3.71677e-08 0 2.6014e+10
16.9247 0 3.574 0 0 0 0 3.18628e-08 0 3.07005e+10
17.8855 0 4.21787 0 0 0 0 2.73063e-08 0 3.62312e+10
18.9008 0 4.97773 0 0 0 0 2.33941e-08 0 4.27584e+10
19.9738 0 5.87448 0 0 0 0 2.00364e-08 0 5.04614e+10
21.1076 0 6.93279 0 0 0 0 1.71555e-08 0 5.95522e+10
22.3058 0 8.18175 0 0 0 0 1.46847e-08 0 7.02807e+10
23.5721 0 9.65571 0 0 0 0 1.25662e-08 0 8.29419e+10
24.9102 0 11.3952 0 0 0 0 1.07504e-08 0 9.78842e+10
26.3243 0 13.4481 0 0 0 0 9.19452e-09 0 1.15518e+11
27.8187 0 15.8708 0 0 0 0 7.86182e-09 0 1.36329e+11
29.3979 0 18.73 0 0 0 0 6.72061e-09 0 1.60889e+11
31.0667 0 22.1042 0 0 0 0 5.74366e-09 0 1.89874e+11
32.8303 0 26.0864 0 0 0 0 4.90756e-09 0 2.2408e+11
34.694 0 30.7859 0 0 0 0 4.19221e-09 0 2.64449e+11
36.6634 0 36.3321 0 0 0 0 3.58032e-09 0 3.1209e+11
38.7447 0 42.8774 0 0 0 0 3.05709e-09 0 3.68314e+11
40.9442 0 50.6018 0 0 0 0 2.60976e-09 0 4.34667e+11
43.2685 0 59.7179 0 0 0 0 2.22743e-09 0 5.12973e+11
45.7247 0 70.4762 0 0 0 0 1.90073e-09 0 6.05386e+11
48.3204 0 83.1727 0 0 0 0 1.62163e-09 0 7.14448e+11
51.0634 0 98.1565 0 0 0 0 1.38326e-09 0 8.43158e+11
53.9621 0 115.84 0 0 0 0 1.1797e-09 0 9.95055e+11
57.0254 0 136.709 0 0 0 0 1.00592e-09 0 1.17432e+12
60.2626 0 161.337 0 0 0 0 8.57591e-10 0 1.38587e+12
63.6835 0 190.402 0 0 0 0 7.3101e-10 0 1.63554e+12
67.2987 0 224.704 0 0 0 0 6.23009e-10 0 1.93019e+12
71.1191 0 265.185 0 0 0 0 5.30879e-10 0 2.27792e+12
75.1563 0 312.958 0 0 0 0 4.52303e-10 0 2.68829e+12
79.4227 0 369.339 0 0 0 0 3.85299e-10 0 3.17259e+12
83.9313 0 435.876 0 0 0 0 3.28173e-10 0 3.74415e+12
88.6959 0 514.4 0 0 0 0 2.79476e-10 0 4.41866e+12
93.7309 0 607.071 0 0 0 0 2.37972e-10 0 5.2147e+12
99.0518 0 716.436 0 0 0 0 2.02605e-10 0 6.15414e+12
104.675 0 845.504 0 0 0 0 1.72471e-10 0 7.26283e+12
110.617 0 997.824 0 0 0 0 1.468e-10 0 8.57124e+12
116.896 0 1177.58 0 0 0 0 1.24935e-10 0 1.01154e+13
123.532 0 1389.73 0 0 0 0 1.06313e-10 0 1.19377e+13
130.545 0 1640.09 0 0 0 0 9.04567e-11 0 1.40883e+13
137.955 0 1935.56 0 0 0 0 7.69563e-11 0 1.66263e+13
145.787 0 2284.26 0 0 0 0 6.54636e-11 0 1.96216e+13
154.063 0 2695.77 0 0 0 0 5.56812e-11 0 2.31565e+13
162.808 0 3181.42 0 0 0 0 4.73556e-11 0 2.73282e+13
172.051 0 3754.56 0 0 0 0 4.02708e-11 0 3.22515e+13
181.818 0 4430.96 0 0 0 0 3.42426e-11 0 3.80616e+13
192.139 0 5229.21 0 0 0 0 2.91139e-11 0 4.49186e+13
203.046 0 6171.26 0 0 0 0 2.4751e-11 0 5.30108e+13
214.572 0 7283.03 0 0 0 0 2.10401e-11 0 6.25608e+13
226.753 0 8595.09 0 0 0 0 1.78839e-11 0 7.38313e+13
239.625 0 10143.5 0 0 0 0 1.51999e-11 0 8.71322e+13
253.228 0 11970.9 0 0 0 0 1.29176e-11 0 1.02829e+14
267.603 0 14127.5 0 0 0 0 1.09771e-11 0 1.21354e+14
282.795 0 16672.6 0 0 0 0 9.3274e-12 0 1.43217e+14
298.848 0 19676.2 0 0 0 0 7.925e-12 0 1.69017e+14
315.813 0 23220.9 0 0 0 0 6.73295e-12 0 1.99466e+14
333.741 0 27404.3 0 0 0 0 5.71979e-12 0 2.35401e+14
352.686 0 32341.2 0 0 0 0 4.85874e-12 0 2.77809e+14
372.707 0 38167.6 0 0 0 0 4.12703e-12 0 3.27857e+14
393.865 0 45043.5 0 0 0 0 3.50528e-12 0 3.86921e+14
416.224 0 53158.3 0 0 0 0 2.97701e-12 0 4.56626e+14
439.852 0 62734.9 0 0 0 0 2.52819e-12 0 5.38888e+14
464.821 0 74036.7 0 0 0 0 2.1469e-12 0 6.35971e+14
491.207 0 87374.6 0 0 0 0 1.82301e-12 0 7.50542e+14
519.092 0 103115 0 0 0 0 1.54789e-12 0 8.85755e+14
548.56 0 121692 0 0 0 0 1.31422e-12 0 1.04533e+15
579.7 0 143615 0 0 0 0 1.11576e-12 0 1.23364e+15
612.608 0 169488 0 0 0 0 9.47223e-13 0 1.45589e+15
647.384 0 200021 0 0 0 0 8.041e-13 0 1.71817e+15
684.134 0 236056 0 0 0 0 6.82568e-13 0 2.0277e+15
722.971 0 278582 0 0 0 0 5.79376e-13 0 2.393e+15
764.012 0 328769 0 0 0 0 4.91762e-13 0 2.8241e+15
