0.308306
200
1.0655e+09
8589934592
0.0129181 0 1.58924e-09 0 0 0 0 0.00677225 0 13.6515
0.0136515 0 1.87554e-09 0 0 0 0 0.00688819 0 16.1108
0.0144264 0 2.21343e-09 0 0 0 0 0.00699249 0 19.0132
0.0152454 0 2.61218e-09 0 0 0 0 0.00708412 0 22.4385
0.0161108 0 3.08278e-09 0 0 0 0 0.00716212 0 26.4808
0.0170254 0 3.63815e-09 0 0 0 0 0.00722559 0 31.2514
0.0179919 0 4.29357e-09 0 0 0 0 0.00727371 0 36.8815
0.0190132 0 5.06707e-09 0 0 0 0 0.00730578 0 43.5258
0.0200925 0 5.97991e-09 0 0 0 0 0.00732122 0 51.367
0.0212331 0 7.05721e-09 0 0 0 0 0.00731958 0 60.621
0.0224385 0 8.32858e-09 0 0 0 0 0.00730056 0 71.542
0.0237123 0 9.829e-09 0 0 0 0 0.00726401 0 84.4305
0.0250583 0 1.15997e-08 0 0 0 0 0.00720995 0 99.6408
0.0264808 0 1.36894e-08 0 0 0 0 0.00713857 0 117.591
0.0279841 0 1.61556e-08 0 0 0 0 0.00705021 0 138.776
0.0295727 0 1.90661e-08 0 0 0 0 0.00694538 0 163.777
0.0312514 0 2.25009e-08 0 0 0 0 0.00682475 0 193.281
0.0330255 0 2.65545e-08 0 0 0 0 0.00668915 0 228.102
0.0349003 0 3.13384e-08 0 0 0 0 0.00653951 0 269.195
0.0368815 0 3.69841e-08 0 0 0 0 0.00637693 0 317.691
0.0389751 0 4.36469e-08 0 0 0 0 0.00620256 0 374.924
0.0411876 0 5.151e-08 0 0 0 0 0.00601767 0 442.467
0.0435258 0 6.07896e-08 0 0 0 0 0.00582358 0 522.179
0.0459966 0 7.1741e-08 0 0 0 0 0.00562166 0 616.251
0.0486077 0 8.46654e-08 0 0 0 0 0.0054133 0 727.27
0.051367 0 9.99181e-08 0 0 0 0 0.00519989 0 858.29
0.054283 0 1.17919e-07 0 0 0 0 0.0049828 0 1012.91
0.0573645 0 1.39162e-07 0 0 0 0 0.00476339 0 1195.39
0.060621 0 1.64232e-07 0 0 0 0 0.00454293 0 1410.75
0.0640622 0 1.93819e-07 0 0 0 0 0.00432265 0 1664.89
0.0676989 0 2.28736e-07 0 0 0 0 0.00410371 0 1964.83
0.071542 0 2.69944e-07 0 0 0 0 0.00388717 0 2318.8
0.0756032 0 3.18575e-07 0 0 0 0 0.00367401 0 2736.54
0.079895 0 3.75967e-07 0 0 0 0 0.0034651 0 3229.53
0.0844305 0 4.43698e-07 0 0 0 0 0.00326121 0 3811.34
0.0892234 0 5.23632e-07 0 0 0 0 0.00306301 0 4497.96
0.0942883 0 6.17966e-07 0 0 0 0 0.00287109 0 5308.28
0.0996408 0 7.29294e-07 0 0 0 0 0.00268591 0 6264.59
0.105297 0 8.60678e-07 0 0 0 0 0.00250785 0 7393.17
0.111275 0 1.01573e-06 0 0 0 0 0.00233721 0 8725.07
0.117591 0 1.19872e-06 0 0 0 0 0.00217419 0 10296.9
0.124267 0 1.41467e-06 0 0 0 0 0.00201893 0 12151.9
0.131321 0 1.66953e-06 0 0 0 0 0.00187147 0 14341.1
0.138776 0 1.9703e-06 0 0 0 0 0.00173182 0 16924.7
0.146654 0 2.32525e-06 0 0 0 0 0.00159991 0 19973.8
0.154979 0 2.74415e-06 0 0 0 0 0.00147563 0 23572.1
0.163777 0 3.23852e-06 0 0 0 0 0.00135884 0 27818.7
0.173074 0 3.82195e-06 0 0 0 0 0.00124933 0 32830.3
0.182899 0 4.51048e-06 0 0 0 0 0.00114689 0 38744.7
0.193281 0 5.32305e-06 0 0 0 0 0.00105127 0 45724.7
0.204254 0 6.28202e-06 0 0 0 0 0.000962209 0 53962.1
0.215848 0 7.41374e-06 0 0 0 0 0.000879423 0 63683.5
0.228102 0 8.74934e-06 0 0 0 0 0.000802624 0 75156.3
0.24105 0 1.03256e-05 0 0 0 0 0.000731515 0 88695.9
0.254734 0 1.21857e-05 0 0 0 0 0.000665798 0 104675
0.269195 0 1.4381e-05 0 0 0 0 0.000605173 0 123532
0.284476 0 1.69718e-05 0 0 0 0 0.000549345 0 145787
0.300625 0 2.00293e-05 0 0 0 0 0.000498021 0 172051
0.317691 0 2.36377e-05 0 0 0 0 0.000450916 0 203046
0.335725 0 2.78961e-05 0 0 0 0 0.000407755 0 239625
0.354784 0 3.29216e-05 0 0 0 0 0.000368269 0 282795
0.374924 0 3.88525e-05 0 0 0 0 0.000332202 0 333741
0.396207 1.0926 4.58519e-05 2.77406e-06 6 1.06223 2.69693e-06 0.000299307 0.0556096 393865
0.418699 0 5.41123e-05 0 0 0 0 0.00026935 0 464821
0.442467 0 6.38607e-05 0 0 0 0 0.000242108 0 548560
0.467585 0 7.53654e-05 0 0 0 0 0.00021737 0 647384
0.494129 0 8.89427e-05 0 0 0 0 0.000194938 0 764012
0.522179 0 0.000104966 0 0 0 0 0.000174625 0 901651
0.551822 0 0.000123876 0 0 0 0 0.000156255 0 1.06409e+06
0.583147 7.99983 0.000146192 6.37039e-06 12 8.41987 6.70487e-06 0.000139664 0.547347 1.25578e+06
0.616251 0 0.000172529 0 0 0 0 0.0001247 0 1.48202e+06
0.651234 0 0.000203611 0 0 0 0 0.00011122 0 1.74901e+06
0.688203 24.2736 0.000240292 1.176e-05 8 23.6698 1.14674e-05 9.90935e-05 0.949403 2.06409e+06
0.72727 0 0.000283581 0 0 0 0 8.81969e-05 0 2.43595e+06
0.768555 0 0.000334669 0 0 0 0 7.84179e-05 0 2.87479e+06
0.812184 0.336425 0.000394961 9.91618e-08 6 0.343618 1.01282e-07 6.96525e-05 0.00854199 3.39269e+06
0.85829 0 0.000466114 0 0 0 0 6.1805e-05 0 4.00389e+06
0.907013 0.652382 0.000550086 1.38064e-07 24 0.6649 1.40714e-07 5.47875e-05 0.06048 4.7252e+06
0.958501 2.73999 0.000649185 4.91349e-07 24 2.5795 4.62569e-07 4.85194e-05 0.243045 5.57646e+06
1.01291 0 0.000766138 0 0 0 0 4.29272e-05 0 6.58107e+06
1.07041 0 0.00090416 0 0 0 0 3.79435e-05 0 7.76667e+06
1.13118 1.9008 0.00106705 2.07379e-07 12 1.87745 2.04831e-07 3.3507e-05 0.0742693 9.16586e+06
1.19539 1.85187 0.00125928 1.71198e-07 30 1.81369 1.67669e-07 2.9562e-05 0.173734 1.08171e+07
1.26325 9.08601 0.00148614 7.11743e-07 24 8.94929 7.01034e-07 2.60578e-05 0.655536 1.27658e+07
1.33496 23.0661 0.00175387 1.53104e-06 24 23.1168 1.53441e-06 2.29484e-05 1.6012 1.50656e+07
1.41075 9.98995 0.00206984 5.61872e-07 32 10.2094 5.74212e-07 2.01923e-05 0.890433 1.77798e+07
1.49083 2.43438 0.00244272 1.16017e-07 48 2.38248 1.13544e-07 1.77518e-05 0.313706 2.09828e+07
1.57546 1.20555 0.00288279 4.86834e-08 6 1.14795 4.63576e-08 1.55929e-05 0.018733 2.4763e+07
1.66489 1.75308 0.00340213 5.99874e-08 84 1.70627 5.83859e-08 1.3685e-05 0.368209 2.92241e+07
1.75941 4.87531 0.00401503 1.41359e-07 48 4.86531 1.41069e-07 1.20007e-05 0.565404 3.44889e+07
1.85928 2.07251 0.00473835 5.09191e-08 72 2.07318 5.09355e-08 1.05151e-05 0.348658 4.07021e+07
1.96483 2.6684 0.00559198 5.55515e-08 54 2.60543 5.42405e-08 9.20606e-06 0.325849 4.80347e+07
2.07637 10.9223 0.00659939 1.92673e-07 104 10.9728 1.93564e-07 8.05366e-06 2.48806 5.66883e+07
2.19424 2.13655 0.00778828 3.1936e-08 120 2.1518 3.21641e-08 7.04008e-06 0.544358 6.69008e+07
2.3188 4.32245 0.00919136 5.4747e-08 156 4.15713 5.26531e-08 6.1494e-06 1.38884 7.89532e+07
2.45043 3.41717 0.0108472 3.6674e-08 126 3.36943 3.61617e-08 5.36741e-06 0.860923 9.31768e+07
2.58954 2.65627 0.0128014 2.41561e-08 192 2.67553 2.43312e-08 4.68145e-06 0.990711 1.09963e+08
2.73654 8.88101 0.0151076 6.84349e-08 152 9.13068 7.03588e-08 4.08023e-06 2.54939 1.29773e+08
2.89188 6.6495 0.0178292 4.34177e-08 378 6.72932 4.39389e-08 3.55373e-06 4.61821 1.53152e+08
3.05605 4.21178 0.0210412 2.33026e-08 264 4.14732 2.2946e-08 3.09304e-06 1.98895 1.80743e+08
3.22953 2.74017 0.0248319 1.28463e-08 366 2.71443 1.27256e-08 2.69025e-06 1.7477 2.13304e+08
3.41286 4.32705 0.0293054 1.71892e-08 428 4.24811 1.68756e-08 2.33837e-06 3.14619 2.51731e+08
3.6066 6.88901 0.0345848 2.3189e-08 486 6.75771 2.2747e-08 2.0312e-06 5.54836 2.97081e+08
3.81134 4.59533 0.0408154 1.3107e-08 600 4.57862 1.30593e-08 1.76327e-06 4.46002 3.50601e+08
4.0277 5.38365 0.0481684 1.30114e-08 738 5.3161 1.28482e-08 1.52972e-06 6.27724 4.13763e+08
4.25634 6.38151 0.056846 1.30687e-08 824 6.43779 1.3184e-08 1.32631e-06 8.11927 4.88304e+08
4.49796 8.29687 0.067087 1.43975e-08 954 8.31587 1.44304e-08 1.14926e-06 11.9514 5.76273e+08
4.7533 6.06338 0.0791729 8.91556e-09 1094 6.03889 8.87955e-09 9.95263e-07 9.80005 6.8009e+08
5.02313 6.54111 0.0934361 8.14979e-09 1332 6.55321 8.16487e-09 8.61414e-07 12.602 8.0261e+08
5.30828 10.0384 0.110269 1.0598e-08 1614 10.0665 1.06276e-08 7.45152e-07 22.9552 9.47202e+08
5.60962 8.98756 0.130134 8.04009e-09 1850 8.92741 7.98628e-09 6.44232e-07 23.0882 1.11784e+09
5.92807 9.64493 0.153578 7.31106e-09 2238 9.59125 7.27036e-09 5.56685e-07 29.3921 1.31923e+09
6.26459 9.64544 0.181246 6.19533e-09 2546 9.69984 6.23027e-09 4.80786e-07 32.8073 1.55689e+09
6.62021 9.5181 0.213898 5.1803e-09 3264 9.53016 5.18686e-09 4.15026e-07 40.7408 1.83737e+09
6.99602 11.4868 0.252432 5.29744e-09 3506 11.5399 5.32191e-09 3.58083e-07 51.8675 2.16837e+09
7.39317 12.0924 0.297908 4.7254e-09 4506 12.1075 4.73134e-09 3.08803e-07 68.9522 2.55901e+09
7.81286 13.2004 0.351577 4.37097e-09 5018 13.2107 4.37437e-09 2.66181e-07 82.4008 3.02002e+09
8.25637 14.5592 0.414914 4.08498e-09 5852 14.5188 4.07363e-09 2.29336e-07 104.237 3.56409e+09
8.72507 14.8344 0.489662 3.52682e-09 7362 14.8007 3.5188e-09 1.97503e-07 131.464 4.20617e+09
9.22037 15.8458 0.577876 3.1922e-09 8306 15.7924 3.18143e-09 1.70014e-07 155.954 4.96392e+09
9.74378 16.3356 0.681982 2.78851e-09 9698 16.334 2.78824e-09 1.46289e-07 184.86 5.85818e+09
10.2969 18.2268 0.804843 2.63639e-09 11816 18.2138 2.6345e-09 1.25822e-07 247.584 6.91355e+09
10.8814 19.4854 0.949838 2.3882e-09 13682 19.4721 2.38656e-09 1.08175e-07 302.059 8.15905e+09
11.4992 20.413 1.12095 2.11997e-09 16152 20.3767 2.1162e-09 9.29669e-08 368.322 9.62892e+09
12.1519 21.6614 1.3229 1.90621e-09 19472 21.6198 1.90255e-09 7.98658e-08 464.751 1.13636e+10
12.8418 22.4904 1.56122 1.67704e-09 22670 22.419 1.67171e-09 6.85852e-08 554.325 1.34108e+10
13.5708 23.8493 1.84248 1.5069e-09 26224 23.8161 1.5048e-09 5.88765e-08 671.182 1.58268e+10
14.3411 25.4587 2.17441 1.36303e-09 31640 25.4303 1.36151e-09 5.05241e-08 853.578 1.8678e+10
15.1552 26.906 2.56613 1.22062e-09 37484 26.862 1.21862e-09 4.33417e-08 1055.65 2.20429e+10
16.0156 28.8635 3.02843 1.10954e-09 43856 28.8229 1.10798e-09 3.71677e-08 1309.2 2.6014e+10
16.9247 30.6499 3.574 9.98354e-10 51362 30.6056 9.96911e-10 3.18628e-08 1609.32 3.07005e+10
17.8855 32.1278 4.21787 8.86743e-10 61636 32.0708 8.85171e-10 2.73063e-08 2001.56 3.62312e+10
18.9008 33.8512 4.97773 7.91685e-10 72218 33.7781 7.89977e-10 2.33941e-08 2443.94 4.27584e+10
19.9738 36.1824 5.87448 7.17031e-10 84586 36.1186 7.15767e-10 2.00364e-08 3027.03 5.04614e+10
21.1076 37.9864 6.93279 6.37868e-10 100708 37.9386 6.37065e-10 1.71555e-08 3744.47 5.95522e+10
22.3058 40.3411 8.18175 5.73999e-10 118712 40.2647 5.72912e-10 1.46847e-08 4640.26 7.02807e+10
23.5721 42.3234 9.65571 5.10278e-10 140410 42.2484 5.09373e-10 1.25662e-08 5701.67 8.29419e+10
24.9102 44.8108 11.3952 4.57794e-10 164374 44.7278 4.56946e-10 1.07504e-08 6999.71 9.78842e+10
26.3243 47.5264 13.4481 4.11419e-10 194680 47.4327 4.10608e-10 9.19452e-09 8711.17 1.15518e+11
27.8187 50.071 15.8708 3.6728e-10 230196 49.9902 3.66687e-10 7.86182e-09 10754.1 1.36329e+11
29.3979 52.9594 18.73 3.29167e-10 271156 52.8585 3.2854e-10 6.72061e-09 13280.9 1.60889e+11
31.0667 56.1662 22.1042 2.95808e-10 321076 56.0641 2.9527e-10 5.74366e-09 16535.9 1.89874e+11
32.8303 59.5321 26.0864 2.65673e-10 377436 59.4213 2.65179e-10 4.90756e-09 20432.7 2.2408e+11
34.694 63.3981 30.7859 2.39737e-10 447594 63.28 2.3929e-10 4.19221e-09 25596.3 2.64449e+11
36.6634 67.5404 36.3321 2.16413e-10 525078 67.3982 2.15958e-10 3.58032e-09 31738.4 3.1209e+11
38.7447 72.1118 42.8774 1.95789e-10 621924 71.971 1.95407e-10 3.05709e-09 39830.7 3.68314e+11
40.9442 77.2227 50.6018 1.7766e-10 732630 77.0651 1.77297e-10 2.60976e-09 49873.8 4.34667e+11
43.2685 82.5917 59.7179 1.61006e-10 865596 82.4299 1.60691e-10 2.22743e-09 62568.1 5.12973e+11
45.7247 89.085 70.4762 1.47154e-10 1.02168e+06 88.9047 1.46856e-10 1.90073e-09 79097.8 6.05386e+11
48.3204 96.027 83.1727 1.34407e-10 1.20544e+06 95.8177 1.34114e-10 1.62163e-09 99911.3 7.14448e+11
51.0634 111.467 98.1565 1.32202e-10 1.42103e+06 111.08 1.31743e-10 1.38326e-09 135812 8.43158e+11
53.9621 113.601 115.84 1.14166e-10 1.67997e+06 113.343 1.13906e-10 1.1797e-09 162579 9.95055e+11
57.0254 124.371 136.709 1.05909e-10 1.98018e+06 124.08 1.05661e-10 1.00592e-09 208484 1.17432e+12
60.2626 137.077 161.337 9.89102e-11 2.33957e+06 136.745 9.86706e-11 8.57591e-10 269834 1.38587e+12
63.6835 151.658 190.402 9.27266e-11 2.75676e+06 151.28 9.24954e-11 7.3101e-10 349688 1.63554e+12
67.2987 168.558 224.704 8.73273e-11 3.25638e+06 168.138 8.71094e-11 6.23009e-10 456448 1.93019e+12
71.1191 188.875 265.185 8.29155e-11 3.84387e+06 188.382 8.2699e-11 5.30879e-10 600356 2.27792e+12
75.1563 212.519 312.958 7.90534e-11 4.53277e+06 211.938 7.88373e-11 4.52303e-10 792235 2.68829e+12
79.4227 240.385 369.339 7.57691e-11 5.35083e+06 239.741 7.55661e-11 3.85299e-10 1.05224e+06 3.17259e+12
83.9313 273.396 435.876 7.30196e-11 6.32174e+06 272.626 7.2814e-11 3.28173e-10 1.40661e+06 3.74415e+12
88.6959 312.089 514.4 7.06297e-11 7.44986e+06 311.178 7.04236e-11 2.79476e-10 1.88274e+06 4.41866e+12
93.7309 358.333 607.071 6.87159e-11 8.79764e+06 357.283 6.85146e-11 2.37972e-10 2.54037e+06 5.2147e+12
99.0518 413.128 716.436 6.71301e-11 1.03827e+07 411.891 6.6929e-11 2.02605e-10 3.44015e+06 6.15414e+12
104.675 477.52 845.504 6.57485e-11 1.22515e+07 476.064 6.5548e-11 1.72471e-10 4.67046e+06 7.26283e+12
110.617 553.815 997.824 6.46131e-11 1.44573e+07 552.119 6.44152e-11 1.468e-10 6.3633e+06 8.57124e+12
116.896 644.262 1177.58 6.36914e-11 1.70664e+07 642.253 6.34928e-11 1.24935e-10 8.7004e+06 1.01154e+13
123.532 751.34 1389.73 6.29385e-11 2.0139e+07 748.957 6.27388e-11 1.06313e-10 1.19225e+07 1.19377e+13
130.545 879.082 1640.09 6.23981e-11 2.37643e+07 876.304 6.22009e-11 9.04567e-11 1.63929e+07 1.40883e+13
137.955 1028.61 1935.56 6.18664e-11 2.80503e+07 1025.29 6.16669e-11 7.69563e-11 2.25501e+07 1.66263e+13
145.787 1205.86 2284.26 6.14558e-11 3.30981e+07 1201.95 6.12564e-11 6.54636e-11 3.10718e+07 1.96216e+13
154.063 1415.55 2695.77 6.11299e-11 3.90634e+07 1410.95 6.09309e-11 5.56812e-11 4.2886e+07 2.31565e+13
162.808 1663.73 3181.42 6.08794e-11 4.61057e+07 1658.27 6.06798e-11 4.73556e-11 5.92725e+07 2.73282e+13
172.051 1959.07 3754.56 6.07435e-11 5.44046e+07 1952.58 6.05424e-11 4.02708e-11 8.20626e+07 3.22515e+13
181.818 2308.38 4430.96 6.06485e-11 6.42064e+07 2300.7 6.04468e-11 3.42426e-11 1.13719e+08 3.80616e+13
192.139 2722.14 5229.21 6.06017e-11 7.57748e+07 2713.02 6.03987e-11 2.91139e-11 1.57728e+08 4.49186e+13
203.046 3213.86 6171.26 6.06266e-11 8.94213e+07 3203.11 6.04237e-11 2.4751e-11 2.19034e+08 5.30108e+13
214.572 3798.76 7283.03 6.07211e-11 1.05538e+08 3786.02 6.05174e-11 2.10401e-11 3.04581e+08 6.25608e+13
226.753 4494.59 8595.09 6.08766e-11 1.24552e+08 4479.39 6.06706e-11 1.78839e-11 4.23972e+08 7.38313e+13
239.625 5325.37 10143.5 6.11183e-11 1.46987e+08 5307.24 6.09102e-11 1.51999e-11 5.91031e+08 8.71322e+13
253.228 6323.38 11970.9 6.14939e-11 1.7347e+08 6301.65 6.12827e-11 1.29176e-11 8.25799e+08 1.02829e+14
267.603 7523.57 14127.5 6.19967e-11 2.04703e+08 7497.5 6.1782e-11 1.09771e-11 1.15612e+09 1.21354e+14
282.795 8980.14 16672.6 6.27032e-11 2.4161e+08 8948.51 6.24824e-11 9.3274e-12 1.62422e+09 1.43217e+14
298.848 10765.2 19676.2 6.36927e-11 2.85122e+08 10726.5 6.34638e-11 7.925e-12 2.29151e+09 1.69017e+14
315.813 12977.5 23220.9 6.50614e-11 3.36491e+08 12929.8 6.48221e-11 6.73295e-12 3.25156e+09 1.99466e+14
333.741 15764.3 27404.3 6.6968e-11 3.97115e+08 15704.3 6.6713e-11 5.71979e-12 4.64947e+09 2.35401e+14
352.686 19355.8 32341.2 6.96732e-11 4.68637e+08 19278.8 6.93958e-11 4.85874e-12 6.72014e+09 2.77809e+14
372.707 24128.5 38167.6 7.35947e-11 5.53074e+08 24026.8 7.32846e-11 4.12703e-12 9.86262e+09 3.27857e+14
393.865 30715.9 45043.5 7.93853e-11 6.52716e+08 30576.4 7.90248e-11 3.50528e-12 1.47823e+10 3.86921e+14
416.224 36255.1 53158.3 7.93978e-11 2.2184e+08 38354.5 8.39954e-11 2.97701e-12 5.91654e+09 4.56626e+14
439.852 0 62734.9 0 0 0 0 2.52819e-12 0 5.38888e+14
464.821 0 74036.7 0 0 0 0 2.1469e-12 0 6.35971e+14
491.207 0 87374.6 0 0 0 0 1.82301e-12 0 7.50542e+14
519.092 0 103115 0 0 0 0 1.54789e-12 0 8.85755e+14
548.56 0 121692 0 0 0 0 1.31422e-12 0 1.04533e+15
579.7 0 143615 0 0 0 0 1.11576e-12 0 1.23364e+15
612.608 0 169488 0 0 0 0 9.47223e-13 0 1.45589e+15
647.384 0 200021 0 0 0 0 8.041e-13 0 1.71817e+15
684.134 0 236056 0 0 0 0 6.82568e-13 0 2.0277e+15
722.971 0 278582 0 0 0 0 5.79376e-13 0 2.393e+15
764.012 0 328769 0 0 0 0 4.91762e-13 0 2.8241e+15
0.308306
200
1.0655e+09
8589934592
0.0129181 0.000569337 1.58924e-09 4.17052e-05 6 0.000564125 4.13234e-05 0.00677225 0.0369495 13.6515
0.0136515 0 1.87554e-09 0 0 0 0 0.00688819 0 16.1108
0.0144264 0 2.21343e-09 0 0 0 0 0.00699249 0 19.0132
0.0152454 0 2.61218e-09 0 0 0 0 0.00708412 0 22.4385
0.0161108 0 3.08278e-09 0 0 0 0 0.00716212 0 26.4808
0.0170254 0 3.63815e-09 0 0 0 0 0.00722559 0 31.2514
0.0179919 0.000996927 4.29357e-09 2.70306e-05 12 0.000995642 2.69957e-05 0.00727371 0.0445944 36.8815
0.0190132 0 5.06707e-09 0 0 0 0 0.00730578 0 43.5258
0.0200925 0 5.97991e-09 0 0 0 0 0.00732122 0 51.367
0.0212331 0.00235804 7.05721e-09 3.88982e-05 8 0.00235599 3.88643e-05 0.00731958 0.0425141 60.621
0.0224385 0 8.32858e-09 0 0 0 0 0.00730056 0 71.542
0.0237123 0 9.829e-09 0 0 0 0 0.00726401 0 84.4305
0.0250583 0.0014724 1.15997e-08 1.47771e-05 6 0.00147171 1.47701e-05 0.00720995 0.0122972 99.6408
0.0264808 0 1.36894e-08 0 0 0 0 0.00713857 0 117.591
0.0279841 0.00133706 1.61556e-08 9.63466e-06 24 0.00133568 9.62477e-06 0.00705021 0.0327979 138.776
0.0295727 0 1.90661e-08 0 0 0 0 0.00694538 0 163.777
0.0312514 0.00392392 2.25009e-08 2.03016e-05 24 0.00394384 2.04046e-05 0.00682475 0.0713927 193.281
0.0330255 0 2.65545e-08 0 0 0 0 0.00668915 0 228.102
0.0349003 0.00569247 3.13384e-08 2.11463e-05 12 0.00564689 2.0977e-05 0.00653951 0.0388034 269.195
0.0368815 0.00372362 3.69841e-08 1.17209e-05 30 0.00368397 1.15961e-05 0.00637693 0.0551405 317.691
0.0389751 0.00452043 4.36469e-08 1.20569e-05 24 0.00447393 1.19329e-05 0.00620256 0.0466528 374.924
0.0411876 0.00358255 5.151e-08 8.09675e-06 24 0.00355822 8.04176e-06 0.00601767 0.0322919 442.467
0.0435258 0.00809374 6.07896e-08 1.54999e-05 8 0.00809312 1.54987e-05 0.00582358 0.0212927 522.179
0.0459966 0.0122773 7.1741e-08 1.99225e-05 72 0.0121944 1.9788e-05 0.00562166 0.25516 616.251
0.0486077 0 8.46654e-08 0 0 0 0 0.0054133 0 727.27
0.051367 0.00900972 9.99181e-08 1.04973e-05 54 0.00897408 1.04558e-05 0.00519989 0.109013 858.29
0.054283 0.0177077 1.17919e-07 1.74819e-05 60 0.017856 1.76283e-05 0.0049828 0.210507 1012.91
0.0573645 0.0178034 1.39162e-07 1.48933e-05 96 0.0177015 1.48081e-05 0.00476339 0.300156 1195.39
0.060621 0.00958835 1.64232e-07 6.79666e-06 24 0.00945844 6.70457e-06 0.00454293 0.0359063 1410.75
0.0640622 0.0224431 1.93819e-07 1.34802e-05 134 0.0224102 1.34604e-05 0.00432265 0.417879 1664.89
0.0676989 0.0239014 2.28736e-07 1.21646e-05 120 0.0237723 1.20989e-05 0.00410371 0.355716 1964.83
0.071542 0.0219023 2.69944e-07 9.44554e-06 108 0.0216047 9.3172e-06 0.00388717 0.262432 2318.8
0.0756032 0.0328164 3.18575e-07 1.19919e-05 174 0.0324943 1.18742e-05 0.00367401 0.567934 2736.54
0.079895 0.0359027 3.75967e-07 1.1117e-05 168 0.0355571 1.101e-05 0.0034651 0.538991 3229.53
0.0844305 0.0455114 4.43698e-07 1.19411e-05 168 0.045763 1.20071e-05 0.00326121 0.615139 3811.34
0.0892234 0.0446641 5.23632e-07 9.92986e-06 290 0.0444292 9.87763e-06 0.00306301 0.940139 4497.96
0.0942883 0.0478163 6.17966e-07 9.00786e-06 288 0.0477438 8.99421e-06 0.00287109 0.903582 5308.28
0.0996408 0.0438314 7.29294e-07 6.99669e-06 366 0.0435705 6.95505e-06 0.00268591 0.953416 6264.59
0.105297 0.0468753 8.60678e-07 6.34036e-06 420 0.0467034 6.31711e-06 0.00250785 1.06184 7393.17
0.111275 0.0598732 1.01573e-06 6.8622e-06 398 0.0598275 6.85697e-06 0.00233721 1.16855 8725.07
0.117591 0.0553122 1.19872e-06 5.37173e-06 624 0.0555396 5.39381e-06 0.00217419 1.5417 10296.9
0.124267 0.0671441 1.41467e-06 5.52539e-06 642 0.0669836 5.51218e-06 0.00201893 1.75702 12151.9
0.131321 0.0753662 1.66953e-06 5.25525e-06 800 0.0755547 5.26839e-06 0.00187147 2.24647 14341.1
0.138776 0.0829408 1.9703e-06 4.90057e-06 858 0.0832233 4.91726e-06 0.00173182 2.42791 16924.7
0.146654 0.0839069 2.32525e-06 4.20086e-06 1080 0.0845747 4.23429e-06 0.00159991 2.83574 19973.8
0.154979 0.0846038 2.74415e-06 3.58915e-06 1286 0.085124 3.61122e-06 0.00147563 3.12791 23572.1
0.163777 0.0871665 3.23852e-06 3.13338e-06 1650 0.0873031 3.13829e-06 0.00135884 3.80478 27818.7
0.173074 0.101474 3.82195e-06 3.09086e-06 1778 0.101405 3.08877e-06 0.00124933 4.39879 32830.3
0.182899 0.118639 4.51048e-06 3.06208e-06 2112 0.119009 3.07163e-06 0.00114689 5.63881 38744.7
0.193281 0.123983 5.32305e-06 2.71151e-06 2570 0.123895 2.70959e-06 0.00105127 6.6287 45724.7
0.204254 0.136814 6.28202e-06 2.53537e-06 3030 0.136723 2.53368e-06 0.000962209 7.98389 53962.1
0.215848 0.140981 7.41374e-06 2.21377e-06 3434 0.140901 2.21252e-06 0.000879423 8.64442 63683.5
0.228102 0.14962 8.74934e-06 1.99079e-06 4218 0.149823 1.99348e-06 0.000802624 10.4621 75156.3
0.24105 0.162275 1.03256e-05 1.82956e-06 4766 0.162456 1.8316e-06 0.000731515 11.9201 88695.9
0.254734 0.172279 1.21857e-05 1.64586e-06 6026 0.172285 1.64591e-06 0.000665798 14.8963 104675
0.269195 0.188787 1.4381e-05 1.52824e-06 6480 0.188786 1.52823e-06 0.000605173 16.3639 123532
0.284476 0.201433 1.69718e-05 1.3817e-06 8162 0.201766 1.38398e-06 0.000549345 20.5289 145787
0.300625 0.210546 2.00293e-05 1.22374e-06 9578 0.210539 1.22371e-06 0.000498021 23.5352 172051
0.317691 0.227061 2.36377e-05 1.11827e-06 11234 0.227047 1.1182e-06 0.000450916 27.8603 203046
0.335725 0.243389 2.78961e-05 1.01571e-06 13344 0.243094 1.01448e-06 0.000407755 33.2396 239625
0.354784 0.265779 3.29216e-05 9.39832e-07 15464 0.265623 9.39278e-07 0.000368269 39.4645 282795
0.374924 0.278653 3.88525e-05 8.34938e-07 18458 0.278663 8.34968e-07 0.000332202 46.3914 333741
0.396207 0.297182 4.58519e-05 7.54526e-07 22232 0.296918 7.53857e-07 0.000299307 56.0449 393865
0.418699 0.326364 5.41123e-05 7.02129e-07 25628 0.325562 7.00403e-07 0.00026935 66.8059 464821
0.442467 0.352888 6.38607e-05 6.43299e-07 30320 0.352075 6.41818e-07 0.000242108 80.5625 548560
0.467585 0.370873 7.53654e-05 5.72879e-07 35452 0.370285 5.71971e-07 0.00021737 93.4337 647384
0.494129 0.400525 8.89427e-05 5.24239e-07 41792 0.400343 5.24002e-07 0.000194938 112.389 764012
0.522179 0.430844 0.000104966 4.7784e-07 49988 0.430641 4.77613e-07 0.000174625 136.786 901651
0.551822 0.463894 0.000123876 4.35956e-07 59110 0.463562 4.35644e-07 0.000156255 164.919 1.06409e+06
0.583147 0.494926 0.000146192 3.94117e-07 69716 0.494265 3.93591e-07 0.000139664 196.731 1.25578e+06
0.616251 0.534953 0.000172529 3.60963e-07 82210 0.534092 3.60382e-07 0.0001247 237.969 1.48202e+06
0.651234 0.572293 0.000203611 3.2721e-07 96722 0.571135 3.26549e-07 0.00011122 284.556 1.74901e+06
0.688203 0.616808 0.000240292 2.98827e-07 113098 0.615921 2.98398e-07 9.90935e-05 341.06 2.06409e+06
0.72727 0.663369 0.000283581 2.72325e-07 135190 0.662614 2.72015e-07 8.81969e-05 417.426 2.43595e+06
0.768555 0.713217 0.000334669 2.48094e-07 158170 0.712409 2.47813e-07 7.84179e-05 500.408 2.87479e+06
0.812184 0.775212 0.000394961 2.28495e-07 188560 0.77425 2.28211e-07 6.96525e-05 618.57 3.39269e+06
0.85829 0.836755 0.000466114 2.08986e-07 220444 0.835594 2.08696e-07 6.1805e-05 745.403 4.00389e+06
0.907013 0.908955 0.000550086 1.92363e-07 261388 0.907827 1.92125e-07 5.47875e-05 917.754 4.7252e+06
0.958501 0.981727 0.000649185 1.76048e-07 308244 0.980381 1.75807e-07 4.85194e-05 1118.44 5.57646e+06
1.01291 1.0714 0.000766138 1.628e-07 364396 1.06987 1.62568e-07 4.29272e-05 1381.96 6.58107e+06
1.07041 1.15974 0.00090416 1.49323e-07 429162 1.15786 1.49081e-07 3.79435e-05 1688.92 7.76667e+06
1.13118 1.25649 0.00106705 1.37084e-07 506358 1.25459 1.36876e-07 3.3507e-05 2071.62 9.16586e+06
1.19539 1.36618 0.00125928 1.26298e-07 598590 1.36405 1.26101e-07 2.9562e-05 2557.37 1.08171e+07
1.26325 1.49263 0.00148614 1.16924e-07 704844 1.49028 1.1674e-07 2.60578e-05 3162.69 1.27658e+07
1.33496 1.6277 0.00175387 1.08041e-07 834620 1.62493 1.07857e-07 2.29484e-05 3929.37 1.50656e+07
1.41075 1.77723 0.00206984 9.9958e-08 981444 1.77416 9.97856e-08 2.01923e-05 4858.45 1.77798e+07
1.49083 1.94537 0.00244272 9.27126e-08 1.15998e+06 1.94208 9.25558e-08 1.77518e-05 6058.24 2.09828e+07
1.57546 2.1304 0.00288279 8.60319e-08 1.36931e+06 2.12665 8.58802e-08 1.55929e-05 7555.01 2.4763e+07
1.66489 2.33227 0.00340213 7.98063e-08 1.61652e+06 2.32791 7.96575e-08 1.3685e-05 9426.97 2.92241e+07
1.75941 2.56067 0.00401503 7.42463e-08 1.90601e+06 2.55593 7.41087e-08 1.20007e-05 11792.2 3.44889e+07
1.85928 2.81394 0.00473835 6.91349e-08 2.24913e+06 2.80857 6.90031e-08 1.05151e-05 14787.6 4.07021e+07
1.96483 3.09599 0.00559198 6.44531e-08 2.65744e+06 3.09026 6.43338e-08 9.20606e-06 18605.2 4.80347e+07
2.07637 3.39613 0.00659939 5.99089e-08 3.13125e+06 3.38943 5.97907e-08 8.05366e-06 23292.5 5.66883e+07
2.19424 3.74129 0.00778828 5.5923e-08 3.69915e+06 3.73407 5.5815e-08 7.04008e-06 29384.2 6.69008e+07
2.3188 4.12198 0.00919136 5.22079e-08 4.36472e+06 4.11392 5.21058e-08 6.1494e-06 37056.1 7.89532e+07
2.45043 4.54149 0.0108472 4.87406e-08 5.14913e+06 4.53293 4.86487e-08 5.36741e-06 46758.4 9.31768e+07
2.58954 5.0031 0.0128014 4.5498e-08 6.07894e+06 4.99339 4.54097e-08 4.68145e-06 59079.9 1.09963e+08
2.73654 5.50974 0.0151076 4.24567e-08 7.17304e+06 5.49897 4.23738e-08 4.08023e-06 74638.8 1.29773e+08
2.89188 6.07698 0.0178292 3.96794e-08 8.46557e+06 6.06504 3.96014e-08 3.55373e-06 94522.8 1.53152e+08
3.05605 6.69566 0.0210412 3.70452e-08 9.98773e+06 6.68266 3.69733e-08 3.09304e-06 119623 1.80743e+08
3.22953 7.39102 0.0248319 3.46502e-08 1.1797e+07 7.3766 3.45826e-08 2.69025e-06 151944 2.13304e+08
3.41286 8.13186 0.0293054 3.23037e-08 1.39144e+07 8.11567 3.22394e-08 2.33837e-06 192222 2.51731e+08
3.6066 8.9501 0.0345848 3.01268e-08 1.64163e+07 8.93256 3.00677e-08 2.0312e-06 243486 2.97081e+08
3.81134 9.84343 0.0408154 2.80759e-08 1.93821e+07 9.82433 2.80214e-08 1.76327e-06 308615 3.50601e+08
4.0277 10.8008 0.0481684 2.61039e-08 2.28754e+07 10.7795 2.60524e-08 1.52972e-06 390356 4.13763e+08
4.25634 11.8509 0.056846 2.42695e-08 2.69929e+07 11.8276 2.42218e-08 1.32631e-06 493930 4.88304e+08
4.49796 12.9845 0.067087 2.25318e-08 3.18542e+07 12.9589 2.24874e-08 1.14926e-06 624520 5.76273e+08
4.7533 14.2036 0.0791729 2.08849e-08 3.75892e+07 14.1761 2.08444e-08 9.95263e-07 788782 6.8009e+08
5.02313 15.5138 0.0934361 1.93292e-08 4.43706e+07 15.4837 1.92917e-08 8.61414e-07 995628 8.0261e+08
5.30828 16.8986 0.110269 1.78406e-08 5.23593e+07 16.866 1.78061e-08 7.45152e-07 1.2536e+06 9.47202e+08
5.60962 18.3835 0.130134 1.64455e-08 6.1787e+07 18.3483 1.6414e-08 6.44232e-07 1.57726e+06 1.11784e+09
5.92807 19.9549 0.153578 1.51263e-08 7.29346e+07 19.9169 1.50974e-08 5.56685e-07 1.98178e+06 1.31923e+09
6.26459 21.604 0.181246 1.38764e-08 8.60651e+07 21.5632 1.38502e-08 4.80786e-07 2.484e+06 1.55689e+09
6.62021 23.3427 0.213898 1.27045e-08 1.01558e+08 23.299 1.26806e-08 4.15026e-07 3.10882e+06 1.83737e+09
6.99602 25.1738 0.252432 1.16095e-08 1.1986e+08 25.1274 1.15881e-08 3.58083e-07 3.88602e+06 2.16837e+09
7.39317 27.0921 0.297908 1.05869e-08 1.41457e+08 27.0424 1.05675e-08 3.08803e-07 4.84967e+06 2.55901e+09
7.81286 29.1071 0.351577 9.63804e-09 1.66936e+08 29.0541 9.6205e-09 2.66181e-07 6.04451e+06 3.02002e+09
8.25637 31.2363 0.414914 8.76418e-09 1.97025e+08 31.1793 8.7482e-09 2.29336e-07 7.5294e+06 3.56409e+09
8.72507 33.4868 0.489662 7.96135e-09 2.32497e+08 33.4259 7.94688e-09 1.97503e-07 9.37194e+06 4.20617e+09
9.22037 35.8901 0.577876 7.23019e-09 2.74404e+08 35.8246 7.21701e-09 1.70014e-07 1.16696e+07 4.96392e+09
9.74378 38.5145 0.681982 6.57448e-09 3.2382e+08 38.4429 6.56226e-09 1.46289e-07 1.4553e+07 5.85818e+09
10.2969 41.4684 0.804843 5.99813e-09 3.82165e+08 41.3887 5.9866e-09 1.25822e-07 1.82183e+07 6.91355e+09
10.8814 44.9408 0.949838 5.50809e-09 4.51027e+08 44.8488 5.49682e-09 1.08175e-07 2.29654e+07 8.15905e+09
11.4992 49.3478 1.12095 5.12496e-09 5.32251e+08 49.2361 5.11336e-09 9.29669e-08 2.93412e+07 9.62892e+09
12.1519 55.4424 1.3229 4.87895e-09 6.28157e+08 55.2958 4.86605e-09 7.98658e-08 3.83737e+07 1.13636e+10
12.8418 62.1453 1.56122 4.63398e-09 3.82727e+08 64.3201 4.79615e-09 6.85852e-08 2.58591e+07 1.34108e+10
13.5708 0 1.84248 0 0 0 0 5.88765e-08 0 1.58268e+10
14.3411 0 2.17441 0 0 0 0 5.05241e-08 0 1.8678e+10
15.1552 0 2.56613 0 0 0 0 4.33417e-08 0 2.20429e+10
16.0156 0 3.02843 0 0 0 0 3.71677e-08 0 2.6014e+10
16.9247 0 3.574 0 0 0 0 3.18628e-08 0 3.07005e+10
17.8855 0 4.21787 0 0 0 0 2.73063e-08 0 3.62312e+10
18.9008 0 4.97773 0 0 0 0 2.33941e-08 0 4.27584e+10
19.9738 0 5.87448 0 0 0 0 2.00364e-08 0 5.04614e+10
21.1076 0 6.93279 0 0 0 0 1.71555e-08 0 5.95522e+10
22.3058 0 8.18175 0 0 0 0 1.46847e-08 0 7.02807e+10
23.5721 0 9.65571 0 0 0 0 1.25662e-08 0 8.29419e+10
24.9102 0 11.3952 0 0 0 0 1.07504e-08 0 9.78842e+10
26.3243 0 13.4481 0 0 0 0 9.19452e-09 0 1.15518e+11
27.8187 0 15.8708 0 0 0 0 7.86182e-09 0 1.36329e+11
29.3979 0 18.73 0 0 0 0 6.72061e-09 0 1.60889e+11
31.0667 0 22.1042 0 0 0 0 5.74366e-09 0 1.89874e+11
32.8303 0 26.0864 0 0 0 0 4.90756e-09 0 2.2408e+11
34.694 0 30.7859 0 0 0 0 4.19221e-09 0 2.64449e+11
36.6634 0 36.3321 0 0 0 0 3.58032e-09 0 3.1209e+11
38.7447 0 42.8774 0 0 0 0 3.05709e-09 0 3.68314e+11
40.9442 0 50.6018 0 0 0 0 2.60976e-09 0 4.34667e+11
43.2685 0 59.7179 0 0 0 0 2.22743e-09 0 5.12973e+11
45.7247 0 70.4762 0 0 0 0 1.90073e-09 0 6.05386e+11
48.3204 0 83.1727 0 0 0 0 1.62163e-09 0 7.14448e+11
51.0634 0 98.1565 0 0 0 0 1.38326e-09 0 8.43158e+11
53.9621 0 115.84 0 0 0 0 1.1797e-09 0 9.95055e+11
57.0254 0 136.709 0 0 0 0 1.00592e-09 0 1.17432e+12
60.2626 0 161.337 0 0 0 0 8.57591e-10 0 1.38587e+12
63.6835 0 190.402 0 0 0 0 7.3101e-10 0 1.63554e+12
67.2987 0 224.704 0 0 0 0 6.23009e-10 0 1.93019e+12
71.1191 0 265.185 0 0 0 0 5.30879e-10 0 2.27792e+12
75.1563 0 312.958 0 0 0 0 4.52303e-10 0 2.68829e+12
79.4227 0 369.339 0 0 0 0 3.85299e-10 0 3.17259e+12
83.9313 0 435.876 0 0 0 0 3.28173e-10 0 3.74415e+12
88.6959 0 514.4 0 0 0 0 2.79476e-10 0 4.41866e+12
93.7309 0 607.071 0 0 0 0 2.37972e-10 0 5.2147e+12
99.0518 0 716.436 0 0 0 0 2.02605e-10 0 6.15414e+12
104.675 0 845.504 0 0 0 0 1.72471e-10 0 7.26283e+12
110.617 0 997.824 0 0 0 0 1.468e-10 0 8.57124e+12
116.896 0 1177.58 0 0 0 0 1.24935e-10 0 1.01154e+13
123.532 0 1389.73 0 0 0 0 1.06313e-10 0 1.19377e+13
130.545 0 1640.09 0 0 0 0 9.04567e-11 0 1.40883e+13
137.955 0 1935.56 0 0 0 0 7.69563e-11 0 1.66263e+13
145.787 0 2284.26 0 0 0 0 6.54636e-11 0 1.96216e+13
154.063 0 2695.77 0 0 0 0 5.56812e-11 0 2.31565e+13
162.808 0 3181.42 0 0 0 0 4.73556e-11 0 2.73282e+13
172.051 0 3754.56 0 0 0 0 4.02708e-11 0 3.22515e+13
181.818 0 4430.96 0 0 0 0 3.42426e-11 0 3.80616e+13
192.139 0 5229.21 0 0 0 0 2.91139e-11 0 4.49186e+13
203.046 0 6171.26 0 0 0 0 2.4751e-11 0 5.30108e+13
214.572 0 7283.03 0 0 0 0 2.10401e-11 0 6.25608e+13
226.753 0 8595.09 0 0 0 0 1.78839e-11 0 7.38313e+13
239.625 0 10143.5 0 0 0 0 1.51999e-11 0 8.71322e+13
253.228 0 11970.9 0 0 0 0 1.29176e-11 0 1.02829e+14
267.603 0 14127.5 0 0 0 0 1.09771e-11 0 1.21354e+14
282.795 0 16672.6 0 0 0 0 9.3274e-12 0 1.43217e+14
298.848 0 19676.2 0 0 0 0 7.925e-12 0 1.69017e+14
315.813 0 23220.9 0 0 0 0 6.73295e-12 0 1.99466e+14
333.741 0 27404.3 0 0 0 0 5.71979e-12 0 2.35401e+14
352.686 0 32341.2 0 0 0 0 4.85874e-12 0 2.77809e+14
372.707 0 38167.6 0 0 0 0 4.12703e-12 0 3.27857e+14
393.865 0 45043.5 0 0 0 0 3.50528e-12 0 3.86921e+14
416.224 0 53158.3 0 0 0 0 2.97701e-12 0 4.56626e+14
439.852 0 62734.9 0 0 0 0 2.52819e-12 0 5.38888e+14
464.821 0 74036.7 0 0 0 0 2.1469e-12 0 6.35971e+14
491.207 0 87374.6 0 0 0 0 1.82301e-12 0 7.50542e+14
519.092 0 103115 0 0 0 0 1.54789e-12 0 8.85755e+14
548.56 0 121692 0 0 0 0 1.31422e-12 0 1.04533e+15
579.7 0 143615 0 0 0 0 1.11576e-12 0 1.23364e+15
612.608 0 169488 0 0 0 0 9.47223e-13 0 1.45589e+15
647.384 0 200021 0 0 0 0 8.041e-13 0 1.71817e+15
684.134 0 236056 0 0 0 0 6.82568e-13 0 2.0277e+15
722.971 0 278582 0 0 0 0 5.79376e-13 0 2.393e+15
764.012 0 328769 0 0 0 0 4.91762e-13 0 2.8241e+15
