0.0610242
200
1.0655e+09
8589934592
0.0129181 0 1.58924e-09 0 0 0 0 0.00677225 0 13.6515
0.0136515 0 1.87554e-09 0 0 0 0 0.00688819 0 16.1108
0.0144264 0 2.21343e-09 0 0 0 0 0.00699249 0 19.0132
0.0152454 0 2.61218e-09 0 0 0 0 0.00708412 0 22.4385
0.0161108 0 3.08278e-09 0 0 0 0 0.00716212 0 26.4808
0.0170254 0 3.63815e-09 0 0 0 0 0.00722559 0 31.2514
0.0179919 0 4.29357e-09 0 0 0 0 0.00727371 0 36.8815
0.0190132 0 5.06707e-09 0 0 0 0 0.00730578 0 43.5258
0.0200925 0 5.97991e-09 0 0 0 0 0.00732122 0 51.367
0.0212331 0 7.05721e-09 0 0 0 0 0.00731958 0 60.621
0.0224385 0 8.32858e-09 0 0 0 0 0.00730056 0 71.542
0.0237123 0 9.829e-09 0 0 0 0 0.00726401 0 84.4305
0.0250583 0 1.15997e-08 0 0 0 0 0.00720995 0 99.6408
0.0264808 0 1.36894e-08 0 0 0 0 0.00713857 0 117.591
0.0279841 0 1.61556e-08 0 0 0 0 0.00705021 0 138.776
0.0295727 0 1.90661e-08 0 0 0 0 0.00694538 0 163.777
0.0312514 0 2.25009e-08 0 0 0 0 0.00682475 0 193.281
0.0330255 0 2.65545e-08 0 0 0 0 0.00668915 0 228.102
0.0349003 0 3.13384e-08 0 0 0 0 0.00653951 0 269.195
0.0368815 0 3.69841e-08 0 0 0 0 0.00637693 0 317.691
0.0389751 0 4.36469e-08 0 0 0 0 0.00620256 0 374.924
0.0411876 0 5.151e-08 0 0 0 0 0.00601767 0 442.467
0.0435258 0 6.07896e-08 0 0 0 0 0.00582358 0 522.179
0.0459966 0 7.1741e-08 0 0 0 0 0.00562166 0 616.251
0.0486077 0 8.46654e-08 0 0 0 0 0.0054133 0 727.27
0.051367 0 9.99181e-08 0 0 0 0 0.00519989 0 858.29
0.054283 0 1.17919e-07 0 0 0 0 0.0049828 0 1012.91
0.0573645 0 1.39162e-07 0 0 0 0 0.00476339 0 1195.39
0.060621 0 1.64232e-07 0 0 0 0 0.00454293 0 1410.75
0.0640622 0 1.93819e-07 0 0 0 0 0.00432265 0 1664.89
0.0676989 0 2.28736e-07 0 0 0 0 0.00410371 0 1964.83
0.071542 0 2.69944e-07 0 0 0 0 0.00388717 0 2318.8
0.0756032 0 3.18575e-07 0 0 0 0 0.00367401 0 2736.54
0.079895 0 3.75967e-07 0 0 0 0 0.0034651 0 3229.53
0.0844305 0 4.43698e-07 0 0 0 0 0.00326121 0 3811.34
0.0892234 0 5.23632e-07 0 0 0 0 0.00306301 0 4497.96
0.0942883 0 6.17966e-07 0 0 0 0 0.00287109 0 5308.28
0.0996408 0 7.29294e-07 0 0 0 0 0.00268591 0 6264.59
0.105297 0 8.60678e-07 0 0 0 0 0.00250785 0 7393.17
0.111275 0 1.01573e-06 0 0 0 0 0.00233721 0 8725.07
0.117591 0 1.19872e-06 0 0 0 0 0.00217419 0 10296.9
0.124267 0 1.41467e-06 0 0 0 0 0.00201893 0 12151.9
0.131321 0 1.66953e-06 0 0 0 0 0.00187147 0 14341.1
0.138776 0 1.9703e-06 0 0 0 0 0.00173182 0 16924.7
0.146654 0 2.32525e-06 0 0 0 0 0.00159991 0 19973.8
0.154979 0 2.74415e-06 0 0 0 0 0.00147563 0 23572.1
0.163777 0 3.23852e-06 0 0 0 0 0.00135884 0 27818.7
0.173074 0 3.82195e-06 0 0 0 0 0.00124933 0 32830.3
0.182899 0 4.51048e-06 0 0 0 0 0.00114689 0 38744.7
0.193281 0 5.32305e-06 0 0 0 0 0.00105127 0 45724.7
0.204254 0 6.28202e-06 0 0 0 0 0.000962209 0 53962.1
0.215848 0 7.41374e-06 0 0 0 0 0.000879423 0 63683.5
0.228102 0 8.74934e-06 0 0 0 0 0.000802624 0 75156.3
0.24105 0 1.03256e-05 0 0 0 0 0.000731515 0 88695.9
0.254734 0 1.21857e-05 0 0 0 0 0.000665798 0 104675
0.269195 0 1.4381e-05 0 0 0 0 0.000605173 0 123532
0.284476 0 1.69718e-05 0 0 0 0 0.000549345 0 145787
0.300625 0 2.00293e-05 0 0 0 0 0.000498021 0 172051
0.317691 0 2.36377e-05 0 0 0 0 0.000450916 0 203046
0.335725 0 2.78961e-05 0 0 0 0 0.000407755 0 239625
0.354784 0 3.29216e-05 0 0 0 0 0.000368269 0 282795
0.374924 0 3.88525e-05 0 0 0 0 0.000332202 0 333741
0.396207 0.295885 4.58519e-05 7.51234e-07 6 0.287659 7.30349e-07 0.000299307 0.0150595 393865
0.418699 0 5.41123e-05 0 0 0 0 0.00026935 0 464821
0.442467 0 6.38607e-05 0 0 0 0 0.000242108 0 548560
0.467585 0 7.53654e-05 0 0 0 0 0.00021737 0 647384
0.494129 0 8.89427e-05 0 0 0 0 0.000194938 0 764012
0.522179 0 0.000104966 0 0 0 0 0.000174625 0 901651
0.551822 0 0.000123876 0 0 0 0 0.000156255 0 1.06409e+06
0.583147 5.69264 0.000146192 4.53314e-06 12 5.99153 4.77115e-06 0.000139664 0.389489 1.25578e+06
0.616251 0 0.000172529 0 0 0 0 0.0001247 0 1.48202e+06
0.651234 0 0.000203611 0 0 0 0 0.00011122 0 1.74901e+06
0.688203 26.5926 0.000240292 1.28834e-05 8 25.931 1.25629e-05 9.90935e-05 1.0401 2.06409e+06
0.72727 0 0.000283581 0 0 0 0 8.81969e-05 0 2.43595e+06
0.768555 0 0.000334669 0 0 0 0 7.84179e-05 0 2.87479e+06
0.812184 0.0216313 0.000394961 6.37587e-09 6 0.0220938 6.51219e-09 6.96525e-05 0.00054923 3.39269e+06
0.85829 0 0.000466114 0 0 0 0 6.1805e-05 0 4.00389e+06
0.907013 0.200199 0.000550086 4.23683e-08 24 0.20404 4.31813e-08 5.47875e-05 0.0185597 4.7252e+06
0.958501 0.793252 0.000649185 1.4225e-07 24 0.746788 1.33918e-07 4.85194e-05 0.0703636 5.57646e+06
1.01291 0 0.000766138 0 0 0 0 4.29272e-05 0 6.58107e+06
1.07041 0 0.00090416 0 0 0 0 3.79435e-05 0 7.76667e+06
1.13118 1.2517 0.00106705 1.36561e-07 12 1.23632 1.34883e-07 3.3507e-05 0.048907 9.16586e+06
1.19539 0.407664 0.00125928 3.76869e-08 30 0.39926 3.691e-08 2.9562e-05 0.0382453 1.08171e+07
1.26325 6.97322 0.00148614 5.46241e-07 24 6.86829 5.38021e-07 2.60578e-05 0.503103 1.27658e+07
1.33496 20.9184 0.00175387 1.38848e-06 24 20.9644 1.39153e-06 2.29484e-05 1.45211 1.50656e+07
1.41075 6.24762 0.00206984 3.51389e-07 32 6.42444 3.61334e-07 2.01923e-05 0.556869 1.77798e+07
1.49083 0.316362 0.00244272 1.50772e-08 48 0.309617 1.47557e-08 1.77518e-05 0.0407681 2.09828e+07
1.57546 0.0411354 0.00288279 1.66117e-09 6 0.0391701 1.5818e-09 1.55929e-05 0.000639203 2.4763e+07
1.66489 0.350979 0.00340213 1.20099e-08 84 0.336325 1.15085e-08 1.3685e-05 0.0737181 2.92241e+07
1.75941 2.63518 0.00401503 7.64067e-08 48 2.65733 7.7049e-08 1.20007e-05 0.305609 3.44889e+07
1.85928 0.167806 0.00473835 4.12279e-09 72 0.170131 4.1799e-09 1.05151e-05 0.02823 4.07021e+07
1.96483 0.707675 0.00559198 1.47326e-08 54 0.693762 1.44429e-08 9.20606e-06 0.0864169 4.80347e+07
2.07637 9.15558 0.00659939 1.61507e-07 104 9.12982 1.61053e-07 8.05366e-06 2.08561 5.66883e+07
2.19424 0.237743 0.00778828 3.55367e-09 120 0.239466 3.57942e-09 7.04008e-06 0.0605732 6.69008e+07
2.3188 1.82097 0.00919136 2.30639e-08 156 1.72494 2.18476e-08 6.1494e-06 0.585093 7.89532e+07
2.45043 0.560646 0.0108472 6.01701e-09 126 0.557567 5.98397e-09 5.36741e-06 0.141249 9.31768e+07
2.58954 0.409142 0.0128014 3.72072e-09 192 0.415515 3.77868e-09 4.68145e-06 0.152598 1.09963e+08
2.73654 4.15821 0.0151076 3.20422e-08 152 4.32111 3.32975e-08 4.08023e-06 1.19366 1.29773e+08
2.89188 3.7896 0.0178292 2.47441e-08 378 3.87838 2.53237e-08 3.55373e-06 2.63195 1.53152e+08
3.05605 1.30063 0.0210412 7.19604e-09 264 1.27588 7.05912e-09 3.09304e-06 0.614203 1.80743e+08
3.22953 0.143681 0.0248319 6.73599e-10 366 0.140806 6.60119e-10 2.69025e-06 0.0916409 2.13304e+08
3.41286 0.682175 0.0293054 2.70993e-09 428 0.647764 2.57324e-09 2.33837e-06 0.496008 2.51731e+08
3.6066 3.48832 0.0345848 1.1742e-08 486 3.36709 1.13339e-08 2.0312e-06 2.80946 2.97081e+08
3.81134 0.717392 0.0408154 2.04618e-09 600 0.711365 2.02898e-09 1.76327e-06 0.696268 3.50601e+08
4.0277 0.458497 0.0481684 1.10812e-09 738 0.454232 1.09781e-09 1.52972e-06 0.5346 4.13763e+08
4.25634 1.09565 0.056846 2.24378e-09 824 1.14288 2.34051e-09 1.32631e-06 1.394 4.88304e+08
4.49796 2.72672 0.067087 4.73164e-09 954 2.74662 4.76617e-09 1.14926e-06 3.92775 5.76273e+08
4.7533 0.4868 0.0791729 7.15788e-10 1094 0.475803 6.99618e-10 9.95263e-07 0.786799 6.8009e+08
5.02313 0.238292 0.0934361 2.96896e-10 1332 0.237528 2.95944e-10 8.61414e-07 0.459089 8.0261e+08
5.30828 2.13235 0.110269 2.2512e-09 1614 2.15943 2.2798e-09 7.45152e-07 4.87611 9.47202e+08
5.60962 0.959529 0.130134 8.58375e-10 1850 0.924854 8.27356e-10 6.44232e-07 2.46494 1.11784e+09
5.92807 1.34298 0.153578 1.018e-09 2238 1.27921 9.69667e-10 5.56685e-07 4.09261 1.31923e+09
6.26459 0.542371 0.181246 3.48369e-10 2546 0.552385 3.548e-10 4.80786e-07 1.84478 1.55689e+09
6.62021 0.119205 0.213898 6.48781e-11 3264 0.119227 6.48901e-11 4.15026e-07 0.510239 1.83737e+09
6.99602 1.31816 0.252432 6.07904e-10 3506 1.36774 6.30767e-10 3.58083e-07 5.95201 2.16837e+09
7.39317 0.460109 0.297908 1.798e-10 4506 0.467937 1.82859e-10 3.08803e-07 2.6236 2.55901e+09
7.81286 1.05446 0.351577 3.49158e-10 5018 1.09355 3.62099e-10 2.66181e-07 6.58226 3.02002e+09
8.25637 0.931762 0.414914 2.61431e-10 5852 0.889346 2.4953e-10 2.29336e-07 6.67096 3.56409e+09
8.72507 0.514277 0.489662 1.22267e-10 7362 0.507351 1.20621e-10 1.97503e-07 4.55756 4.20617e+09
9.22037 0.806434 0.577876 1.62459e-10 8306 0.795095 1.60175e-10 1.70014e-07 7.9369 4.96392e+09
9.74378 0.190484 0.681982 3.25159e-11 9698 0.191323 3.2659e-11 1.46289e-07 2.15559 5.85818e+09
10.2969 0.791975 0.804843 1.14554e-10 11816 0.809566 1.17098e-10 1.25822e-07 10.7578 6.91355e+09
10.8814 0.658697 0.949838 8.07321e-11 13682 0.659904 8.088e-11 1.08175e-07 10.211 8.15905e+09
11.4992 0.608861 1.12095 6.32325e-11 16152 0.594546 6.17459e-11 9.29669e-08 10.986 9.62892e+09
12.1519 0.593806 1.3229 5.22551e-11 19472 0.575038 5.06035e-11 7.98658e-08 12.7403 1.13636e+10
12.8418 0.220774 1.56122 1.64625e-11 22670 0.225643 1.68255e-11 6.85852e-08 5.44146 1.34108e+10
13.5708 0.562137 1.84248 3.55182e-11 26224 0.574296 3.62864e-11 5.88765e-08 15.82 1.58268e+10
14.3411 0.458738 2.17441 2.45603e-11 31640 0.46881 2.50996e-11 5.05241e-08 15.3805 1.8678e+10
15.1552 0.511241 2.56613 2.3193e-11 37484 0.518782 2.35351e-11 4.33417e-08 20.0584 2.20429e+10
16.0156 0.408532 3.02843 1.57043e-11 43856 0.418894 1.61027e-11 3.71677e-08 18.5303 2.6014e+10
16.9247 0.709345 3.574 2.31054e-11 51362 0.711741 2.31834e-11 3.18628e-08 37.2452 3.07005e+10
17.8855 0.537922 4.21787 1.48469e-11 61636 0.531609 1.46727e-11 2.73063e-08 33.5125 3.62312e+10
18.9008 0.77285 4.97773 1.80748e-11 72218 0.769172 1.79888e-11 2.33941e-08 55.7972 4.27584e+10
19.9738 1.23983 5.87448 2.45698e-11 84586 1.22786 2.43327e-11 2.00364e-08 103.724 5.04614e+10
21.1076 1.80046 6.93279 3.02334e-11 100708 1.79504 3.01422e-11 1.71555e-08 177.479 5.95522e+10
22.3058 3.69249 8.18175 5.25393e-11 118712 3.68057 5.23695e-11 1.46847e-08 424.732 7.02807e+10
23.5721 6.83836 9.65571 8.24476e-11 140410 6.78119 8.17583e-11 1.25662e-08 921.242 8.29419e+10
24.9102 8.84182 11.3952 9.03294e-11 164374 8.78286 8.97271e-11 1.07504e-08 1381.14 9.78842e+10
26.3243 9.56592 13.4481 8.28087e-11 194680 9.52303 8.24374e-11 9.19452e-09 1753.35 1.15518e+11
27.8187 9.32242 15.8708 6.83817e-11 230196 9.29605 6.81882e-11 7.86182e-09 2002.23 1.36329e+11
29.3979 9.75698 18.73 6.06441e-11 271156 9.73009 6.04769e-11 6.72061e-09 2446.8 1.60889e+11
31.0667 11.5888 22.1042 6.10343e-11 321076 11.5313 6.07313e-11 5.74366e-09 3411.88 1.89874e+11
32.8303 15.1099 26.0864 6.74309e-11 377436 15.0287 6.70685e-11 4.90756e-09 5186.05 2.2408e+11
34.694 19.2075 30.7859 7.26321e-11 447594 19.135 7.23582e-11 4.19221e-09 7754.79 2.64449e+11
36.6634 21.7399 36.3321 6.96592e-11 525078 21.6766 6.94562e-11 3.58032e-09 10216 3.1209e+11
38.7447 23.7687 42.8774 6.45337e-11 621924 23.7096 6.43735e-11 3.05709e-09 13128.5 3.68314e+11
40.9442 25.9051 50.6018 5.95976e-11 732630 25.8558 5.94841e-11 2.60976e-09 16730.6 4.34667e+11
43.2685 28.5835 59.7179 5.57213e-11 865596 28.5025 5.55633e-11 2.22743e-09 21653.7 5.12973e+11
45.7247 32.6978 70.4762 5.40115e-11 1.02168e+06 32.5958 5.3843e-11 1.90073e-09 29032.1 6.05386e+11
48.3204 39.8674 83.1727 5.58016e-11 1.20544e+06 39.7077 5.55781e-11 1.62163e-09 41480 7.14448e+11
51.0634 49.6141 98.1565 5.88432e-11 1.42103e+06 49.4176 5.86101e-11 1.38326e-09 60450 8.43158e+11
53.9621 61.3917 115.84 6.16968e-11 1.67997e+06 61.16 6.14639e-11 1.1797e-09 87859.9 9.95055e+11
57.0254 73.7915 136.709 6.28378e-11 1.98018e+06 73.561 6.26415e-11 1.00592e-09 123698 1.17432e+12
60.2626 85.7531 161.337 6.18766e-11 2.33957e+06 85.4991 6.16933e-11 8.57591e-10 168804 1.38587e+12
63.6835 98.4517 190.402 6.01951e-11 2.75676e+06 98.1586 6.00159e-11 7.3101e-10 227006 1.63554e+12
67.2987 115.083 224.704 5.96224e-11 3.25638e+06 114.722 5.94354e-11 6.23009e-10 311638 1.93019e+12
71.1191 136.351 265.185 5.98576e-11 3.84387e+06 135.89 5.96553e-11 5.30879e-10 433404 2.27792e+12
75.1563 161.897 312.958 6.02231e-11 4.53277e+06 161.355 6.00212e-11 4.52303e-10 603526 2.68829e+12
79.4227 191.738 369.339 6.04357e-11 5.35083e+06 191.12 6.02408e-11 3.85299e-10 839299 3.17259e+12
83.9313 225.949 435.876 6.03473e-11 6.32174e+06 225.21 6.015e-11 3.28173e-10 1.1625e+06 3.74415e+12
88.6959 266.383 514.4 6.02858e-11 7.44986e+06 265.506 6.00873e-11 2.79476e-10 1.60701e+06 4.41866e+12
93.7309 314.336 607.071 6.02789e-11 8.79764e+06 313.297 6.00795e-11 2.37972e-10 2.22846e+06 5.2147e+12
99.0518 371.414 716.436 6.03519e-11 1.03827e+07 370.193 6.01534e-11 2.02605e-10 3.09279e+06 6.15414e+12
104.675 438.386 845.504 6.03602e-11 1.22515e+07 436.936 6.01606e-11 1.72471e-10 4.2877e+06 7.26283e+12
110.617 517.089 997.824 6.03284e-11 1.44573e+07 515.368 6.01276e-11 1.468e-10 5.94132e+06 8.57124e+12
116.896 610.781 1177.58 6.03814e-11 1.70664e+07 608.769 6.01825e-11 1.24935e-10 8.24825e+06 1.01154e+13
123.532 721.327 1389.73 6.04243e-11 2.0139e+07 718.956 6.02257e-11 1.06313e-10 1.14462e+07 1.19377e+13
130.545 851.471 1640.09 6.04382e-11 2.37643e+07 848.651 6.0238e-11 9.04567e-11 1.5878e+07 1.40883e+13
137.955 1005.89 1935.56 6.04996e-11 2.80503e+07 1002.53 6.02978e-11 7.69563e-11 2.20519e+07 1.66263e+13
145.787 1187.21 2284.26 6.05053e-11 3.30981e+07 1183.24 6.03031e-11 6.54636e-11 3.05912e+07 1.96216e+13
154.063 1402.84 2695.77 6.05806e-11 3.90634e+07 1398.18 6.03796e-11 5.56812e-11 4.25007e+07 2.31565e+13
162.808 1657.14 3181.42 6.06384e-11 4.61057e+07 1651.6 6.04357e-11 4.73556e-11 5.90379e+07 2.73282e+13
172.051 1959.19 3754.56 6.07473e-11 5.44046e+07 1952.6 6.0543e-11 4.02708e-11 8.20676e+07 3.22515e+13
181.818 2314.81 4430.96 6.08175e-11 6.42064e+07 2307.02 6.06128e-11 3.42426e-11 1.14036e+08 3.80616e+13
192.139 2736.95 5229.21 6.09313e-11 7.57748e+07 2727.75 6.07266e-11 2.91139e-11 1.58586e+08 4.49186e+13
203.046 3239.96 6171.26 6.11189e-11 8.94213e+07 3229.05 6.09132e-11 2.4751e-11 2.20812e+08 5.30108e+13
214.572 3836.12 7283.03 6.13184e-11 1.05538e+08 3823.18 6.11115e-11 2.10401e-11 3.07577e+08 6.25608e+13
226.753 4545.11 8595.09 6.15607e-11 1.24552e+08 4529.66 6.13516e-11 1.78839e-11 4.28737e+08 7.38313e+13
239.625 5393.07 10143.5 6.18953e-11 1.46987e+08 5374.59 6.16832e-11 1.51999e-11 5.98544e+08 8.71322e+13
253.228 6407.84 11970.9 6.23154e-11 1.7347e+08 6385.79 6.21009e-11 1.29176e-11 8.3683e+08 1.02829e+14
267.603 7629.11 14127.5 6.28664e-11 2.04703e+08 7602.57 6.26478e-11 1.09771e-11 1.17234e+09 1.21354e+14
282.795 9109.64 16672.6 6.36075e-11 2.4161e+08 9077.57 6.33835e-11 9.3274e-12 1.64764e+09 1.43217e+14
298.848 10920.1 19676.2 6.46095e-11 2.85122e+08 10880.9 6.43776e-11 7.925e-12 2.3245e+09 1.69017e+14
315.813 13163 23220.9 6.5991e-11 3.36491e+08 13114.6 6.57484e-11 6.73295e-12 3.29802e+09 1.99466e+14
333.741 15989.3 27404.3 6.79238e-11 3.97115e+08 15928.4 6.76651e-11 5.71979e-12 4.71583e+09 2.35401e+14
352.686 19624.3 32341.2 7.06396e-11 4.68637e+08 19546.2 7.03585e-11 4.85874e-12 6.81336e+09 2.77809e+14
372.707 24449.8 38167.6 7.45746e-11 5.53074e+08 24346.9 7.42608e-11 4.12703e-12 9.99394e+09 3.27857e+14
393.865 31112.2 45043.5 8.04096e-11 6.52716e+08 30971.2 8.00452e-11 3.50528e-12 1.4973e+10 3.86921e+14
416.224 36712.3 53158.3 8.03991e-11 2.2184e+08 38838.3 8.50549e-11 2.97701e-12 5.99115e+09 4.56626e+14
439.852 0 62734.9 0 0 0 0 2.52819e-12 0 5.38888e+14
464.821 0 74036.7 0 0 0 0 2.1469e-12 0 6.35971e+14
491.207 0 87374.6 0 0 0 0 1.82301e-12 0 7.50542e+14
519.092 0 103115 0 0 0 0 1.54789e-12 0 8.85755e+14
548.56 0 121692 0 0 0 0 1.31422e-12 0 1.04533e+15
579.7 0 143615 0 0 0 0 1.11576e-12 0 1.23364e+15
612.608 0 169488 0 0 0 0 9.47223e-13 0 1.45589e+15
647.384 0 200021 0 0 0 0 8.041e-13 0 1.71817e+15
684.134 0 236056 0 0 0 0 6.82568e-13 0 2.0277e+15
722.971 0 278582 0 0 0 0 5.79376e-13 0 2.393e+15
764.012 0 328769 0 0 0 0 4.91762e-13 0 2.8241e+15
0.0610242
200
1.0655e+09
8589934592
0.0129181 2.28039e-05 1.58924e-09 1.67044e-06 6 2.25951e-05 1.65515e-06 0.00677225 0.00147995 13.6515
0.0136515 0 1.87554e-09 0 0 0 0 0.00688819 0 16.1108
0.0144264 0 2.21343e-09 0 0 0 0 0.00699249 0 19.0132
0.0152454 0 2.61218e-09 0 0 0 0 0.00708412 0 22.4385
0.0161108 0 3.08278e-09 0 0 0 0 0.00716212 0 26.4808
0.0170254 0 3.63815e-09 0 0 0 0 0.00722559 0 31.2514
0.0179919 4.02664e-05 4.29357e-09 1.09178e-06 12 4.02145e-05 1.09037e-06 0.00727371 0.00180119 36.8815
0.0190132 0 5.06707e-09 0 0 0 0 0.00730578 0 43.5258
0.0200925 0 5.97991e-09 0 0 0 0 0.00732122 0 51.367
0.0212331 9.39984e-05 7.05721e-09 1.55059e-06 8 9.39166e-05 1.54924e-06 0.00731958 0.00169473 60.621
0.0224385 0 8.32858e-09 0 0 0 0 0.00730056 0 71.542
0.0237123 0 9.829e-09 0 0 0 0 0.00726401 0 84.4305
0.0250583 5.87137e-05 1.15997e-08 5.89254e-07 6 5.86861e-05 5.88976e-07 0.00720995 0.000490367 99.6408
0.0264808 0 1.36894e-08 0 0 0 0 0.00713857 0 117.591
0.0279841 5.45244e-05 1.61556e-08 3.92896e-07 24 5.44685e-05 3.92492e-07 0.00705021 0.00133748 138.776
0.0295727 0 1.90661e-08 0 0 0 0 0.00694538 0 163.777
0.0312514 0.00015584 2.25009e-08 8.06286e-07 24 0.000156631 8.1038e-07 0.00682475 0.0028354 193.281
0.0330255 0 2.65545e-08 0 0 0 0 0.00668915 0 228.102
0.0349003 0.000233318 3.13384e-08 8.66725e-07 12 0.00023145 8.59785e-07 0.00653951 0.00159044 269.195
0.0368815 0.0001494 3.69841e-08 4.7027e-07 30 0.00014781 4.65262e-07 0.00637693 0.00221237 317.691
0.0389751 0.000185809 4.36469e-08 4.95591e-07 24 0.000183898 4.90493e-07 0.00620256 0.00191763 374.924
0.0411876 0.000144904 5.151e-08 3.2749e-07 24 0.000143919 3.25266e-07 0.00601767 0.00130611 442.467
0.0435258 0.000318498 6.07896e-08 6.0994e-07 8 0.000318473 6.09893e-07 0.00582358 0.000837889 522.179
0.0459966 0.000498277 7.1741e-08 8.08561e-07 72 0.000494818 8.02949e-07 0.00562166 0.0103557 616.251
0.0486077 0 8.46654e-08 0 0 0 0 0.0054133 0 727.27
0.051367 0.000361273 9.99181e-08 4.20921e-07 54 0.000359872 4.19289e-07 0.00519989 0.0043712 858.29
0.054283 0.000704536 1.17919e-07 6.95554e-07 60 0.000710559 7.015e-07 0.0049828 0.00837545 1012.91
0.0573645 0.000703566 1.39162e-07 5.88565e-07 96 0.000699491 5.85156e-07 0.00476339 0.0118618 1195.39
0.060621 0.000384038 1.64232e-07 2.72224e-07 24 0.000378835 2.68536e-07 0.00454293 0.00143814 1410.75
0.0640622 0.000884754 1.93819e-07 5.31417e-07 134 0.000883333 5.30564e-07 0.00432265 0.0164737 1664.89
0.0676989 0.000950486 2.28736e-07 4.8375e-07 120 0.000945345 4.81133e-07 0.00410371 0.0141457 1964.83
0.071542 0.000907007 2.69944e-07 3.91154e-07 108 0.000894687 3.85841e-07 0.00388717 0.0108677 2318.8
0.0756032 0.00133183 3.18575e-07 4.86684e-07 174 0.00131857 4.8184e-07 0.00367401 0.0230492 2736.54
0.079895 0.00146686 3.75967e-07 4.54201e-07 168 0.00145262 4.49792e-07 0.0034651 0.0220213 3229.53
0.0844305 0.00187771 4.43698e-07 4.92665e-07 168 0.00188744 4.95218e-07 0.00326121 0.0253795 3811.34
0.0892234 0.00178831 5.23632e-07 3.97581e-07 290 0.00177865 3.95435e-07 0.00306301 0.0376422 4497.96
0.0942883 0.00187785 6.17966e-07 3.53758e-07 288 0.00187428 3.53086e-07 0.00287109 0.0354856 5308.28
0.0996408 0.00172742 7.29294e-07 2.75744e-07 366 0.00171706 2.7409e-07 0.00268591 0.0375747 6264.59
0.105297 0.00187032 8.60678e-07 2.5298e-07 420 0.00186432 2.52168e-07 0.00250785 0.0423675 7393.17
0.111275 0.00233375 1.01573e-06 2.67477e-07 398 0.00233108 2.67171e-07 0.00233721 0.0455482 8725.07
0.117591 0.00217757 1.19872e-06 2.11478e-07 624 0.00218725 2.12418e-07 0.00217419 0.0606948 10296.9
0.124267 0.00261102 1.41467e-06 2.14865e-07 642 0.00260593 2.14446e-07 0.00201893 0.0683251 12151.9
0.131321 0.00303633 1.66953e-06 2.11722e-07 800 0.00304418 2.12269e-07 0.00187147 0.0905051 14341.1
0.138776 0.00326568 1.9703e-06 1.92953e-07 858 0.00327553 1.93535e-07 0.00173182 0.0955955 16924.7
0.146654 0.00328405 2.32525e-06 1.64418e-07 1080 0.00330907 1.65671e-07 0.00159991 0.110989 19973.8
0.154979 0.00331826 2.74415e-06 1.40771e-07 1286 0.00333877 1.41641e-07 0.00147563 0.12268 23572.1
0.163777 0.00352832 3.23852e-06 1.26833e-07 1650 0.00353341 1.27016e-07 0.00135884 0.154009 27818.7
0.173074 0.00393984 3.82195e-06 1.20006e-07 1778 0.00393929 1.1999e-07 0.00124933 0.170788 32830.3
0.182899 0.0046004 4.51048e-06 1.18736e-07 2112 0.00461944 1.19228e-07 0.00114689 0.218653 38744.7
0.193281 0.00470013 5.32305e-06 1.02792e-07 2570 0.00469696 1.02723e-07 0.00105127 0.251291 45724.7
0.204254 0.00528224 6.28202e-06 9.78878e-08 3030 0.00528033 9.78525e-08 0.000962209 0.308249 53962.1
0.215848 0.00540962 7.41374e-06 8.49453e-08 3434 0.00540752 8.49124e-08 0.000879423 0.331697 63683.5
0.228102 0.00556797 8.74934e-06 7.40852e-08 4218 0.00557724 7.42085e-08 0.000802624 0.389337 75156.3
0.24105 0.00613297 1.03256e-05 6.9146e-08 4766 0.00614058 6.92318e-08 0.000731515 0.450503 88695.9
0.254734 0.00638491 1.21857e-05 6.09977e-08 6026 0.00638634 6.10113e-08 0.000665798 0.552077 104675
0.269195 0.00694518 1.4381e-05 5.62216e-08 6480 0.00694655 5.62327e-08 0.000605173 0.602003 123532
0.284476 0.00739319 1.69718e-05 5.07123e-08 8162 0.00740868 5.08186e-08 0.000549345 0.753469 145787
0.300625 0.00770793 2.00293e-05 4.48004e-08 9578 0.00771002 4.48125e-08 0.000498021 0.861607 172051
0.317691 0.0082466 2.36377e-05 4.06144e-08 11234 0.00824578 4.06104e-08 0.000450916 1.01186 203046
0.335725 0.00858697 2.78961e-05 3.5835e-08 13344 0.00857937 3.58033e-08 0.000407755 1.17272 239625
0.354784 0.00913239 3.29216e-05 3.22934e-08 15464 0.00912618 3.22714e-08 0.000368269 1.35603 282795
0.374924 0.00962566 3.88525e-05 2.88417e-08 18458 0.00962023 2.88255e-08 0.000332202 1.60252 333741
0.396207 0.0100288 4.58519e-05 2.54626e-08 22232 0.0100189 2.54374e-08 0.000299307 1.89132 393865
0.418699 0.0107357 5.41123e-05 2.30964e-08 25628 0.0107114 2.30442e-08 0.00026935 2.19757 464821
0.442467 0.0112872 6.38607e-05 2.05761e-08 30320 0.0112642 2.05342e-08 0.000242108 2.57681 548560
0.467585 0.0118336 7.53654e-05 1.82791e-08 35452 0.0118152 1.82507e-08 0.00021737 2.98122 647384
0.494129 0.0124958 8.89427e-05 1.63554e-08 41792 0.0124916 1.635e-08 0.000194938 3.50637 764012
0.522179 0.013019 0.000104966 1.44391e-08 49988 0.0130158 1.44355e-08 0.000174625 4.13332 901651
0.551822 0.0137621 0.000123876 1.29333e-08 59110 0.0137573 1.29287e-08 0.000156255 4.89256 1.06409e+06
0.583147 0.0143806 0.000146192 1.14515e-08 69716 0.0143653 1.14393e-08 0.000139664 5.71622 1.25578e+06
0.616251 0.0152279 0.000172529 1.02751e-08 82210 0.0152034 1.02586e-08 0.0001247 6.77399 1.48202e+06
0.651234 0.0156918 0.000203611 8.97184e-09 96722 0.0156667 8.95747e-09 0.00011122 7.80229 1.74901e+06
0.688203 0.0164933 0.000240292 7.99056e-09 113098 0.0164744 7.9814e-09 9.90935e-05 9.11983 2.06409e+06
0.72727 0.0172779 0.000283581 7.0929e-09 135190 0.0172633 7.0869e-09 8.81969e-05 10.8721 2.43595e+06
0.768555 0.0180788 0.000334669 6.28876e-09 158170 0.0180664 6.28442e-09 7.84179e-05 12.6845 2.87479e+06
0.812184 0.0188729 0.000394961 5.56283e-09 188560 0.0188531 5.55698e-09 6.96525e-05 15.0594 3.39269e+06
0.85829 0.0195358 0.000466114 4.8792e-09 220444 0.0195123 4.87334e-09 6.1805e-05 17.403 4.00389e+06
0.907013 0.0204795 0.000550086 4.33411e-09 261388 0.0204614 4.33028e-09 5.47875e-05 20.6778 4.7252e+06
0.958501 0.0213029 0.000649185 3.82015e-09 308244 0.0212862 3.81715e-09 4.85194e-05 24.2694 5.57646e+06
1.01291 0.0222587 0.000766138 3.38224e-09 364396 0.0222349 3.37861e-09 4.29272e-05 28.7108 6.58107e+06
1.07041 0.0230718 0.00090416 2.97061e-09 429162 0.023043 2.96691e-09 3.79435e-05 33.5993 7.76667e+06
1.13118 0.0240491 0.00106705 2.62376e-09 506358 0.024022 2.62081e-09 3.3507e-05 39.6503 9.16586e+06
1.19539 0.0249512 0.00125928 2.30665e-09 598590 0.0249254 2.30425e-09 2.9562e-05 46.7064 1.08171e+07
1.26325 0.0260435 0.00148614 2.04009e-09 704844 0.0260152 2.03788e-09 2.60578e-05 55.1829 1.27658e+07
1.33496 0.027026 0.00175387 1.79388e-09 834620 0.0269976 1.792e-09 2.29484e-05 65.2424 1.50656e+07
1.41075 0.0280753 0.00206984 1.57906e-09 981444 0.028041 1.57713e-09 2.01923e-05 76.7499 1.77798e+07
1.49083 0.0291342 0.00244272 1.38848e-09 1.15998e+06 0.0291031 1.38699e-09 1.77518e-05 90.7292 2.09828e+07
1.57546 0.0302032 0.00288279 1.21969e-09 1.36931e+06 0.0301686 1.2183e-09 1.55929e-05 107.109 2.4763e+07
1.66489 0.0313169 0.00340213 1.07161e-09 1.61652e+06 0.031278 1.07028e-09 1.3685e-05 126.582 2.92241e+07
1.75941 0.0324066 0.00401503 9.39625e-10 1.90601e+06 0.032367 9.38476e-10 1.20007e-05 149.236 3.44889e+07
1.85928 0.0336034 0.00473835 8.25593e-10 2.24913e+06 0.033563 8.24602e-10 1.05151e-05 176.59 4.07021e+07
1.96483 0.0348599 0.00559198 7.25723e-10 2.65744e+06 0.0348147 7.24781e-10 9.20606e-06 209.489 4.80347e+07
2.07637 0.0360732 0.00659939 6.36342e-10 3.13125e+06 0.0360281 6.35548e-10 8.05366e-06 247.409 5.66883e+07
2.19424 0.0372894 0.00778828 5.57383e-10 3.69915e+06 0.0372451 5.56721e-10 7.04008e-06 292.872 6.69008e+07
2.3188 0.0386221 0.00919136 4.89177e-10 4.36472e+06 0.0385743 4.88572e-10 6.1494e-06 347.208 7.89532e+07
2.45043 0.0399514 0.0108472 4.28769e-10 5.14913e+06 0.0399026 4.28246e-10 5.36741e-06 411.332 9.31768e+07
2.58954 0.0413801 0.0128014 3.76309e-10 6.07894e+06 0.0413295 3.75849e-10 4.68145e-06 488.644 1.09963e+08
2.73654 0.0427733 0.0151076 3.29601e-10 7.17304e+06 0.0427211 3.29199e-10 4.08023e-06 579.438 1.29773e+08
2.89188 0.044257 0.0178292 2.88974e-10 8.46557e+06 0.0442043 2.8863e-10 3.55373e-06 688.384 1.53152e+08
3.05605 0.0457942 0.0210412 2.53367e-10 9.98773e+06 0.0457391 2.53062e-10 3.09304e-06 818.146 1.80743e+08
3.22953 0.0473949 0.0248319 2.22194e-10 1.1797e+07 0.0473362 2.21919e-10 2.69025e-06 974.342 2.13304e+08
3.41286 0.0490657 0.0293054 1.94913e-10 1.39144e+07 0.049002 1.9466e-10 2.33837e-06 1159.82 2.51731e+08
3.6066 0.0507673 0.0345848 1.70887e-10 1.64163e+07 0.0507022 1.70668e-10 2.0312e-06 1381.12 2.97081e+08
3.81134 0.0525788 0.0408154 1.49968e-10 1.93821e+07 0.0525118 1.49776e-10 1.76327e-06 1648.47 3.50601e+08
4.0277 0.0544433 0.0481684 1.31581e-10 2.28754e+07 0.0543737 1.31413e-10 1.52972e-06 1967.66 4.13763e+08
4.25634 0.0563882 0.056846 1.15478e-10 2.69929e+07 0.0563138 1.15325e-10 1.32631e-06 2350.2 4.88304e+08
4.49796 0.0584905 0.067087 1.01498e-10 3.18542e+07 0.0584134 1.01364e-10 1.14926e-06 2813.24 5.76273e+08
4.7533 0.0606424 0.0791729 8.91682e-11 3.75892e+07 0.0605624 8.90506e-11 9.95263e-07 3367.71 6.8009e+08
5.02313 0.0628702 0.0934361 7.83322e-11 4.43706e+07 0.0627872 7.82288e-11 8.61414e-07 4034.82 8.0261e+08
5.30828 0.0652024 0.110269 6.88368e-11 5.23593e+07 0.0651148 6.87443e-11 7.45152e-07 4836.93 9.47202e+08
5.60962 0.0676774 0.130134 6.05428e-11 6.1787e+07 0.0675855 6.04606e-11 6.44232e-07 5806.54 1.11784e+09
5.92807 0.0702445 0.153578 5.32468e-11 7.29346e+07 0.0701481 5.31736e-11 5.56685e-07 6976.18 1.31923e+09
6.26459 0.0729893 0.181246 4.68816e-11 8.60651e+07 0.0728873 4.6816e-11 4.80786e-07 8392.22 1.55689e+09
6.62021 0.0758526 0.213898 4.12833e-11 1.01558e+08 0.0757457 4.12252e-11 4.15026e-07 10102.2 1.83737e+09
6.99602 0.0788647 0.252432 3.63705e-11 1.1986e+08 0.0787538 3.63193e-11 3.58083e-07 12174.2 2.16837e+09
7.39317 0.0820234 0.297908 3.20528e-11 1.41457e+08 0.0819065 3.20071e-11 3.08803e-07 14682.7 2.55901e+09
7.81286 0.0853908 0.351577 2.82749e-11 1.66936e+08 0.0852671 2.82339e-11 2.66181e-07 17732.6 3.02002e+09
8.25637 0.0889631 0.414914 2.4961e-11 1.97025e+08 0.0888328 2.49244e-11 2.29336e-07 21444.2 3.56409e+09
8.72507 0.0928382 0.489662 2.20719e-11 2.32497e+08 0.0926995 2.2039e-11 1.97503e-07 25982.6 4.20617e+09
9.22037 0.0970679 0.577876 1.95547e-11 2.74404e+08 0.0969186 1.95246e-11 1.70014e-07 31561.4 4.96392e+09
9.74378 0.101829 0.681982 1.73824e-11 3.2382e+08 0.101668 1.73549e-11 1.46289e-07 38477 5.85818e+09
10.2969 0.107395 0.804843 1.5534e-11 3.82165e+08 0.107215 1.55079e-11 1.25822e-07 47181.9 6.91355e+09
10.8814 0.11423 0.949838 1.40004e-11 4.51027e+08 0.114022 1.3975e-11 1.08175e-07 58373.4 8.15905e+09
11.4992 0.123182 1.12095 1.27929e-11 5.32251e+08 0.12293 1.27668e-11 9.29669e-08 73241.4 9.62892e+09
12.1519 0.135992 1.3229 1.19674e-11 6.28157e+08 0.135662 1.19383e-11 7.98658e-08 94125.3 1.13636e+10
12.8418 0.150623 1.56122 1.12315e-11 3.82727e+08 0.155903 1.16252e-11 6.85852e-08 62675.3 1.34108e+10
13.5708 0 1.84248 0 0 0 0 5.88765e-08 0 1.58268e+10
14.3411 0 2.17441 0 0 0 0 5.05241e-08 0 1.8678e+10
15.1552 0 2.56613 0 0 0 0 4.33417e-08 0 2.20429e+10
16.0156 0 3.02843 0 0 0 0 3.71677e-08 0 2.6014e+10
16.9247 0 3.574 0 0 0 0 3.18628e-08 0 3.07005e+10
17.8855 0 4.21787 0 0 0 0 2.73063e-08 0 3.62312e+10
18.9008 0 4.97773 0 0 0 0 2.33941e-08 0 4.27584e+10
19.9738 0 5.87448 0 0 0 0 2.00364e-08 0 5.04614e+10
21.1076 0 6.93279 0 0 0 0 1.71555e-08 0 5.95522e+10
22.3058 0 8.18175 0 0 0 0 1.46847e-08 0 7.02807e+10
23.5721 0 9.65571 0 0 0 0 1.25662e-08 0 8.29419e+10
24.9102 0 11.3952 0 0 0 0 1.07504e-08 0 9.78842e+10
26.3243 0 13.4481 0 0 0 0 9.19452e-09 0 1.15518e+11
27.8187 0 15.8708 0 0 0 0 7.86182e-09 0 1.36329e+11
29.3979 0 18.73 0 0 0 0 6.72061e-09 0 1.60889e+11
31.0667 0 22.1042 0 0 0 0 5.74366e-09 0 1.89874e+11
32.8303 0 26.0864 0 0 0 0 4.90756e-09 0 2.2408e+11
34.694 0 30.7859 0 0 0 0 4.19221e-09 0 2.64449e+11
36.6634 0 36.3321 0 0 0 0 3.58032e-09 0 3.1209e+11
38.7447 0 42.8774 0 0 0 0 3.05709e-09 0 3.68314e+11
40.9442 0 50.6018 0 0 0 0 2.60976e-09 0 4.34667e+11
43.2685 0 59.7179 0 0 0 0 2.22743e-09 0 5.12973e+11
45.7247 0 70.4762 0 0 0 0 1.90073e-09 0 6.05386e+11
48.3204 0 83.1727 0 0 0 0 1.62163e-09 0 7.14448e+11
51.0634 0 98.1565 0 0 0 0 1.38326e-09 0 8.43158e+11
53.9621 0 115.84 0 0 0 0 1.1797e-09 0 9.95055e+11
57.0254 0 136.709 0 0 0 0 1.00592e-09 0 1.17432e+12
60.2626 0 161.337 0 0 0 0 8.57591e-10 0 1.38587e+12
63.6835 0 190.402 0 0 0 0 7.3101e-10 0 1.63554e+12
67.2987 0 224.704 0 0 0 0 6.23009e-10 0 1.93019e+12
71.1191 0 265.185 0 0 0 0 5.30879e-10 0 2.27792e+12
75.1563 0 312.958 0 0 0 0 4.52303e-10 0 2.68829e+12
79.4227 0 369.339 0 0 0 0 3.85299e-10 0 3.17259e+12
83.9313 0 435.876 0 0 0 0 3.28173e-10 0 3.74415e+12
88.6959 0 514.4 0 0 0 0 2.79476e-10 0 4.41866e+12
93.7309 0 607.071 0 0 0 0 2.37972e-10 0 5.2147e+12
99.0518 0 716.436 0 0 0 0 2.02605e-10 0 6.15414e+12
104.675 0 845.504 0 0 0 0 1.72471e-10 0 7.26283e+12
110.617 0 997.824 0 0 0 0 1.468e-10 0 8.57124e+12
116.896 0 1177.58 0 0 0 0 1.24935e-10 0 1.01154e+13
123.532 0 1389.73 0 0 0 0 1.06313e-10 0 1.19377e+13
130.545 0 1640.09 0 0 0 0 9.04567e-11 0 1.40883e+13
137.955 0 1935.56 0 0 0 0 7.69563e-11 0 1.66263e+13
145.787 0 2284.26 0 0 0 0 6.54636e-11 0 1.96216e+13
154.063 0 2695.77 0 0 0 0 5.56812e-11 0 2.31565e+13
162.808 0 3181.42 0 0 0 0 4.73556e-11 0 2.73282e+13
172.051 0 3754.56 0 0 0 0 4.02708e-11 0 3.22515e+13
181.818 0 4430.96 0 0 0 0 3.42426e-11 0 3.80616e+13
192.139 0 5229.21 0 0 0 0 2.91139e-11 0 4.49186e+13
203.046 0 6171.26 0 0 0 0 2.4751e-11 0 5.30108e+13
214.572 0 7283.03 0 0 0 0 2.10401e-11 0 6.25608e+13
226.753 0 8595.09 0 0 0 0 1.78839e-11 0 7.38313e+13
239.625 0 10143.5 0 0 0 0 1.51999e-11 0 8.71322e+13
253.228 0 11970.9 0 0 0 0 1.29176e-11 0 1.02829e+14
267.603 0 14127.5 0 0 0 0 1.09771e-11 0 1.21354e+14
282.795 0 16672.6 0 0 0 0 9.3274e-12 0 1.43217e+14
298.848 0 19676.2 0 0 0 0 7.925e-12 0 1.69017e+14
315.813 0 23220.9 0 0 0 0 6.73295e-12 0 1.99466e+14
333.741 0 27404.3 0 0 0 0 5.71979e-12 0 2.35401e+14
352.686 0 32341.2 0 0 0 0 4.85874e-12 0 2.77809e+14
372.707 0 38167.6 0 0 0 0 4.12703e-12 0 3.27857e+14
393.865 0 45043.5 0 0 0 0 3.50528e-12 0 3.86921e+14
416.224 0 53158.3 0 0 0 0 2.97701e-12 0 4.56626e+14
439.852 0 62734.9 0 0 0 0 2.52819e-12 0 5.38888e+14
464.821 0 74036.7 0 0 0 0 2.1469e-12 0 6.35971e+14
491.207 0 87374.6 0 0 0 0 1.82301e-12 0 7.50542e+14
519.092 0 103115 0 0 0 0 1.54789e-12 0 8.85755e+14
548.56 0 121692 0 0 0 0 1.31422e-12 0 1.04533e+15
579.7 0 143615 0 0 0 0 1.11576e-12 0 1.23364e+15
612.608 0 169488 0 0 0 0 9.47223e-13 0 1.45589e+15
647.384 0 200021 0 0 0 0 8.041e-13 0 1.71817e+15
684.134 0 236056 0 0 0 0 6.82568e-13 0 2.0277e+15
722.971 0 278582 0 0 0 0 5.79376e-13 0 2.393e+15
764.012 0 328769 0 0 0 0 4.91762e-13 0 2.8241e+15
