0.502751
200
1.0655e+09
8589934592
0.0129181 0 1.58924e-09 0 0 0 0 0.00677225 0 13.6515
0.0136515 0 1.87554e-09 0 0 0 0 0.00688819 0 16.1108
0.0144264 0 2.21343e-09 0 0 0 0 0.00699249 0 19.0132
0.0152454 0 2.61218e-09 0 0 0 0 0.00708412 0 22.4385
0.0161108 0 3.08278e-09 0 0 0 0 0.00716212 0 26.4808
0.0170254 0 3.63815e-09 0 0 0 0 0.00722559 0 31.2514
0.0179919 0 4.29357e-09 0 0 0 0 0.00727371 0 36.8815
0.0190132 0 5.06707e-09 0 0 0 0 0.00730578 0 43.5258
0.0200925 0 5.97991e-09 0 0 0 0 0.00732122 0 51.367
0.0212331 0 7.05721e-09 0 0 0 0 0.00731958 0 60.621
0.0224385 0 8.32858e-09 0 0 0 0 0.00730056 0 71.542
0.0237123 0 9.829e-09 0 0 0 0 0.00726401 0 84.4305
0.0250583 0 1.15997e-08 0 0 0 0 0.00720995 0 99.6408
0.0264808 0 1.36894e-08 0 0 0 0 0.00713857 0 117.591
0.0279841 0 1.61556e-08 0 0 0 0 0.00705021 0 138.776
0.0295727 0 1.90661e-08 0 0 0 0 0.00694538 0 163.777
0.0312514 0 2.25009e-08 0 0 0 0 0.00682475 0 193.281
0.0330255 0 2.65545e-08 0 0 0 0 0.00668915 0 228.102
0.0349003 0 3.13384e-08 0 0 0 0 0.00653951 0 269.195
0.0368815 0 3.69841e-08 0 0 0 0 0.00637693 0 317.691
0.0389751 0 4.36469e-08 0 0 0 0 0.00620256 0 374.924
0.0411876 0 5.151e-08 0 0 0 0 0.00601767 0 442.467
0.0435258 0 6.07896e-08 0 0 0 0 0.00582358 0 522.179
0.0459966 0 7.1741e-08 0 0 0 0 0.00562166 0 616.251
0.0486077 0 8.46654e-08 0 0 0 0 0.0054133 0 727.27
0.051367 0 9.99181e-08 0 0 0 0 0.00519989 0 858.29
0.054283 0 1.17919e-07 0 0 0 0 0.0049828 0 1012.91
0.0573645 0 1.39162e-07 0 0 0 0 0.00476339 0 1195.39
0.060621 0 1.64232e-07 0 0 0 0 0.00454293 0 1410.75
0.0640622 0 1.93819e-07 0 0 0 0 0.00432265 0 1664.89
0.0676989 0 2.28736e-07 0 0 0 0 0.00410371 0 1964.83
0.071542 0 2.69944e-07 0 0 0 0 0.00388717 0 2318.8
0.0756032 0 3.18575e-07 0 0 0 0 0.00367401 0 2736.54
0.079895 0 3.75967e-07 0 0 0 0 0.0034651 0 3229.53
0.0844305 0 4.43698e-07 0 0 0 0 0.00326121 0 3811.34
0.0892234 0 5.23632e-07 0 0 0 0 0.00306301 0 4497.96
0.0942883 0 6.17966e-07 0 0 0 0 0.00287109 0 5308.28
0.0996408 0 7.29294e-07 0 0 0 0 0.00268591 0 6264.59
0.105297 0 8.60678e-07 0 0 0 0 0.00250785 0 7393.17
0.111275 0 1.01573e-06 0 0 0 0 0.00233721 0 8725.07
0.117591 0 1.19872e-06 0 0 0 0 0.00217419 0 10296.9
0.124267 0 1.41467e-06 0 0 0 0 0.00201893 0 12151.9
0.131321 0 1.66953e-06 0 0 0 0 0.00187147 0 14341.1
0.138776 0 1.9703e-06 0 0 0 0 0.00173182 0 16924.7
0.146654 0 2.32525e-06 0 0 0 0 0.00159991 0 19973.8
0.154979 0 2.74415e-06 0 0 0 0 0.00147563 0 23572.1
0.163777 0 3.23852e-06 0 0 0 0 0.00135884 0 27818.7
0.173074 0 3.82195e-06 0 0 0 0 0.00124933 0 32830.3
0.182899 0 4.51048e-06 0 0 0 0 0.00114689 0 38744.7
0.193281 0 5.32305e-06 0 0 0 0 0.00105127 0 45724.7
0.204254 0 6.28202e-06 0 0 0 0 0.000962209 0 53962.1
0.215848 0 7.41374e-06 0 0 0 0 0.000879423 0 63683.5
0.228102 0 8.74934e-06 0 0 0 0 0.000802624 0 75156.3
0.24105 0 1.03256e-05 0 0 0 0 0.000731515 0 88695.9
0.254734 0 1.21857e-05 0 0 0 0 0.000665798 0 104675
0.269195 0 1.4381e-05 0 0 0 0 0.000605173 0 123532
0.284476 0 1.69718e-05 0 0 0 0 0.000549345 0 145787
0.300625 0 2.00293e-05 0 0 0 0 0.000498021 0 172051
0.317691 0 2.36377e-05 0 0 0 0 0.000450916 0 203046
0.335725 0 2.78961e-05 0 0 0 0 0.000407755 0 239625
0.354784 0 3.29216e-05 0 0 0 0 0.000368269 0 282795
0.374924 0 3.88525e-05 0 0 0 0 0.000332202 0 333741
0.396207 1.88253 4.58519e-05 4.77964e-06 6 1.83019 4.64675e-06 0.000299307 0.0958141 393865
0.418699 0 5.41123e-05 0 0 0 0 0.00026935 0 464821
0.442467 0 6.38607e-05 0 0 0 0 0.000242108 0 548560
0.467585 0 7.53654e-05 0 0 0 0 0.00021737 0 647384
0.494129 0 8.89427e-05 0 0 0 0 0.000194938 0 764012
0.522179 0 0.000104966 0 0 0 0 0.000174625 0 901651
0.551822 0 0.000123876 0 0 0 0 0.000156255 0 1.06409e+06
0.583147 6.91651 0.000146192 5.50772e-06 12 7.27966 5.79691e-06 0.000139664 0.473226 1.25578e+06
0.616251 0 0.000172529 0 0 0 0 0.0001247 0 1.48202e+06
0.651234 0 0.000203611 0 0 0 0 0.00011122 0 1.74901e+06
0.688203 24.2035 0.000240292 1.1726e-05 8 23.6013 1.14342e-05 9.90935e-05 0.946659 2.06409e+06
0.72727 0 0.000283581 0 0 0 0 8.81969e-05 0 2.43595e+06
0.768555 0 0.000334669 0 0 0 0 7.84179e-05 0 2.87479e+06
0.812184 2.72936 0.000394961 8.04483e-07 6 2.78771 8.21682e-07 6.96525e-05 0.0692996 3.39269e+06
0.85829 0 0.000466114 0 0 0 0 6.1805e-05 0 4.00389e+06
0.907013 0.569589 0.000550086 1.20543e-07 24 0.580518 1.22856e-07 5.47875e-05 0.0528045 4.7252e+06
0.958501 4.12293 0.000649185 7.39345e-07 24 3.88143 6.96039e-07 4.85194e-05 0.365715 5.57646e+06
1.01291 0 0.000766138 0 0 0 0 4.29272e-05 0 6.58107e+06
1.07041 0 0.00090416 0 0 0 0 3.79435e-05 0 7.76667e+06
1.13118 5.8358 0.00106705 6.36689e-07 12 5.76411 6.28868e-07 3.3507e-05 0.22802 9.16586e+06
1.19539 1.40115 0.00125928 1.2953e-07 30 1.37226 1.2686e-07 2.9562e-05 0.13145 1.08171e+07
1.26325 11.3614 0.00148614 8.89982e-07 24 11.1904 8.7659e-07 2.60578e-05 0.819699 1.27658e+07
1.33496 20.8379 0.00175387 1.38314e-06 24 20.8837 1.38618e-06 2.29484e-05 1.44652 1.50656e+07
1.41075 15.9639 0.00206984 8.97872e-07 32 16.2813 9.15718e-07 2.01923e-05 1.42291 1.77798e+07
1.49083 3.88636 0.00244272 1.85216e-07 48 3.80351 1.81268e-07 1.77518e-05 0.500817 2.09828e+07
1.57546 13.7635 0.00288279 5.55809e-07 6 13.1059 5.29255e-07 1.55929e-05 0.21387 2.4763e+07
1.66489 4.12696 0.00340213 1.41218e-07 84 4.05301 1.38687e-07 1.3685e-05 0.86681 2.92241e+07
1.75941 6.31533 0.00401503 1.83112e-07 48 6.28831 1.82329e-07 1.20007e-05 0.732407 3.44889e+07
1.85928 3.33416 0.00473835 8.19162e-08 72 3.3583 8.25093e-08 1.05151e-05 0.560904 4.07021e+07
1.96483 9.3612 0.00559198 1.94884e-07 54 9.16733 1.90848e-07 9.20606e-06 1.14313 4.80347e+07
2.07637 12.6364 0.00659939 2.22911e-07 104 12.6945 2.23935e-07 8.05366e-06 2.87854 5.66883e+07
2.19424 5.05986 0.00778828 7.56323e-08 120 5.13278 7.67221e-08 7.04008e-06 1.28917 6.69008e+07
2.3188 6.44875 0.00919136 8.16781e-08 156 6.24403 7.90852e-08 6.1494e-06 2.07204 7.89532e+07
2.45043 8.95869 0.0108472 9.61472e-08 126 8.88113 9.53148e-08 5.36741e-06 2.25705 9.31768e+07
2.58954 6.60225 0.0128014 6.00407e-08 192 6.63049 6.02975e-08 4.68145e-06 2.46244 1.09963e+08
2.73654 19.7758 0.0151076 1.52387e-07 152 20.0532 1.54525e-07 4.08023e-06 5.67685 1.29773e+08
2.89188 10.315 0.0178292 6.73514e-08 378 10.4253 6.80717e-08 3.55373e-06 7.16397 1.53152e+08
3.05605 9.20791 0.0210412 5.09449e-08 264 9.1095 5.04004e-08 3.09304e-06 4.34829 1.80743e+08
3.22953 8.9587 0.0248319 4.19997e-08 366 8.88509 4.16546e-08 2.69025e-06 5.71392 2.13304e+08
3.41286 9.83951 0.0293054 3.90873e-08 428 9.7096 3.85713e-08 2.33837e-06 7.15428 2.51731e+08
3.6066 14.1123 0.0345848 4.7503e-08 486 13.9111 4.68258e-08 2.0312e-06 11.3659 2.97081e+08
3.81134 10.2705 0.0408154 2.9294e-08 600 10.2811 2.93241e-08 1.76327e-06 9.96809 3.50601e+08
4.0277 15.4266 0.0481684 3.72837e-08 738 15.386 3.71856e-08 1.52972e-06 17.9871 4.13763e+08
4.25634 15.0727 0.056846 3.08675e-08 824 15.0922 3.09074e-08 1.32631e-06 19.1772 4.88304e+08
4.49796 16.7954 0.067087 2.91449e-08 954 16.6831 2.89499e-08 1.14926e-06 24.1932 5.76273e+08
4.7533 16.2758 0.0791729 2.39318e-08 1094 16.1981 2.38175e-08 9.95263e-07 26.306 6.8009e+08
5.02313 18.2891 0.0934361 2.27871e-08 1332 18.2966 2.27964e-08 8.61414e-07 35.2355 8.0261e+08
5.30828 21.3263 0.110269 2.2515e-08 1614 21.3482 2.25381e-08 7.45152e-07 48.7675 9.47202e+08
5.60962 23.1157 0.130134 2.06788e-08 1850 23.1056 2.06698e-08 6.44232e-07 59.3821 1.11784e+09
5.92807 21.9798 0.153578 1.66611e-08 2238 21.9559 1.6643e-08 5.56685e-07 66.9814 1.31923e+09
6.26459 22.5628 0.181246 1.44923e-08 2546 22.6386 1.45409e-08 4.80786e-07 76.7436 1.55689e+09
6.62021 23.7581 0.213898 1.29305e-08 3264 23.7378 1.29195e-08 4.15026e-07 101.693 1.83737e+09
6.99602 26.4252 0.252432 1.21867e-08 3506 26.5182 1.22295e-08 3.58083e-07 119.32 2.16837e+09
7.39317 27.5349 0.297908 1.076e-08 4506 27.5287 1.07575e-08 3.08803e-07 157.007 2.55901e+09
7.81286 31.1791 0.351577 1.03241e-08 5018 31.0994 1.02977e-08 2.66181e-07 194.629 3.02002e+09
8.25637 33.0141 0.414914 9.263e-09 5852 32.9573 9.24704e-09 2.29336e-07 236.365 3.56409e+09
8.72507 34.3802 0.489662 8.17376e-09 7362 34.3187 8.15914e-09 1.97503e-07 304.68 4.20617e+09
9.22037 35.4267 0.577876 7.13684e-09 8306 35.3143 7.1142e-09 1.70014e-07 348.669 4.96392e+09
9.74378 38.1595 0.681982 6.51388e-09 9698 38.151 6.51243e-09 1.46289e-07 431.827 5.85818e+09
10.2969 40.4766 0.804843 5.85467e-09 11816 40.4303 5.84797e-09 1.25822e-07 549.813 6.91355e+09
10.8814 45.25 0.949838 5.546e-09 13682 45.1535 5.53417e-09 1.08175e-07 701.456 8.15905e+09
11.4992 45.6057 1.12095 4.73632e-09 16152 45.5986 4.73558e-09 9.29669e-08 822.885 9.62892e+09
12.1519 47.5079 1.3229 4.18071e-09 19472 47.439 4.17465e-09 7.98658e-08 1019.29 1.13636e+10
12.8418 49.4187 1.56122 3.685e-09 22670 49.293 3.67562e-09 6.85852e-08 1218.03 1.34108e+10
13.5708 54.3407 1.84248 3.43347e-09 26224 54.2706 3.42904e-09 5.88765e-08 1529.29 1.58268e+10
14.3411 55.7315 2.17441 2.9838e-09 31640 55.6623 2.9801e-09 5.05241e-08 1868.56 1.8678e+10
15.1552 59.8076 2.56613 2.71324e-09 37484 59.7121 2.70891e-09 4.33417e-08 2346.54 2.20429e+10
16.0156 63.2516 3.02843 2.43145e-09 43856 63.1473 2.42744e-09 3.71677e-08 2868.98 2.6014e+10
16.9247 67.4947 3.574 2.19849e-09 51362 67.4078 2.19566e-09 3.18628e-08 3543.91 3.07005e+10
17.8855 69.8975 4.21787 1.92921e-09 61636 69.8156 1.92694e-09 2.73063e-08 4354.62 3.62312e+10
18.9008 74.1464 4.97773 1.73408e-09 72218 73.9918 1.73046e-09 2.33941e-08 5353.12 4.27584e+10
19.9738 78.3603 5.87448 1.55288e-09 84586 78.1918 1.54954e-09 2.00364e-08 6555.65 5.04614e+10
21.1076 83.218 6.93279 1.3974e-09 100708 83.0908 1.39526e-09 1.71555e-08 8203.13 5.95522e+10
22.3058 87.455 8.18175 1.24437e-09 118712 87.3299 1.24259e-09 1.46847e-08 10059.6 7.02807e+10
23.5721 91.2796 9.65571 1.10052e-09 140410 91.0815 1.09814e-09 1.25662e-08 12296.9 8.29419e+10
24.9102 96.0824 11.3952 9.81593e-10 164374 95.9216 9.7995e-10 1.07504e-08 15008.6 9.78842e+10
26.3243 100.578 13.4481 8.70668e-10 194680 100.458 8.69633e-10 9.19452e-09 18435.1 1.15518e+11
27.8187 105.326 15.8708 7.72589e-10 230196 105.164 7.71398e-10 7.86182e-09 22621.6 1.36329e+11
29.3979 110.486 18.73 6.86719e-10 271156 110.312 6.85638e-10 6.72061e-09 27707 1.60889e+11
31.0667 116.956 22.1042 6.15966e-10 321076 116.752 6.14893e-10 5.74366e-09 34433.1 1.89874e+11
32.8303 122.434 26.0864 5.46386e-10 377436 122.202 5.45351e-10 4.90756e-09 42022 2.2408e+11
34.694 128.75 30.7859 4.86863e-10 447594 128.512 4.8596e-10 4.19221e-09 51981.4 2.64449e+11
36.6634 135.183 36.3321 4.33155e-10 525078 134.932 4.32349e-10 3.58032e-09 63525 3.1209e+11
38.7447 141.621 42.8774 3.84512e-10 621924 141.364 3.83814e-10 3.05709e-09 78223.9 3.68314e+11
40.9442 148.977 50.6018 3.42739e-10 732630 148.718 3.42144e-10 2.60976e-09 96216.2 4.34667e+11
43.2685 156.811 59.7179 3.05691e-10 865596 156.541 3.05164e-10 2.22743e-09 118794 5.12973e+11
45.7247 165 70.4762 2.72553e-10 1.02168e+06 164.702 2.7206e-10 1.90073e-09 146502 6.05386e+11
48.3204 174.217 83.1727 2.43848e-10 1.20544e+06 173.89 2.4339e-10 1.62163e-09 181264 7.14448e+11
51.0634 183.854 98.1565 2.18054e-10 1.42103e+06 183.507 2.17642e-10 1.38326e-09 224008 8.43158e+11
53.9621 194.239 115.84 1.95204e-10 1.67997e+06 193.883 1.94846e-10 1.1797e-09 277983 9.95055e+11
57.0254 206.293 136.709 1.75671e-10 1.98018e+06 205.888 1.75326e-10 1.00592e-09 345812 1.17432e+12
60.2626 220.167 161.337 1.58865e-10 2.33957e+06 219.717 1.5854e-10 8.57591e-10 433395 1.38587e+12
63.6835 235.179 190.402 1.43793e-10 2.75676e+06 234.714 1.43508e-10 7.3101e-10 542267 1.63554e+12
67.2987 252.225 224.704 1.30674e-10 3.25638e+06 251.732 1.30418e-10 6.23009e-10 683014 1.93019e+12
71.1191 272.047 265.185 1.19428e-10 3.84387e+06 271.475 1.19177e-10 5.30879e-10 864726 2.27792e+12
75.1563 294.372 312.958 1.09501e-10 4.53277e+06 293.728 1.09262e-10 4.52303e-10 1.09737e+06 2.68829e+12
79.4227 320.597 369.339 1.01052e-10 5.35083e+06 319.894 1.00831e-10 3.85299e-10 1.40335e+06 3.17259e+12
83.9313 351.146 435.876 9.37853e-11 6.32174e+06 350.324 9.35659e-11 3.28173e-10 1.80663e+06 3.74415e+12
88.6959 386.72 514.4 8.75198e-11 7.44986e+06 385.793 8.73098e-11 2.79476e-10 2.33297e+06 4.41866e+12
93.7309 429.11 607.071 8.22885e-11 8.79764e+06 428.053 8.20859e-11 2.37972e-10 3.04214e+06 5.2147e+12
99.0518 478.667 716.436 7.77796e-11 1.03827e+07 477.417 7.75766e-11 2.02605e-10 3.9859e+06 6.15414e+12
104.675 536.618 845.504 7.38855e-11 1.22515e+07 535.177 7.36872e-11 1.72471e-10 5.24848e+06 7.26283e+12
110.617 605.47 997.824 7.06397e-11 1.44573e+07 603.821 7.04473e-11 1.468e-10 6.95682e+06 8.57124e+12
116.896 688.564 1177.58 6.8071e-11 1.70664e+07 686.617 6.78785e-11 1.24935e-10 9.29867e+06 1.01154e+13
123.532 786.097 1389.73 6.585e-11 2.0139e+07 783.827 6.56599e-11 1.06313e-10 1.2474e+07 1.19377e+13
130.545 902.455 1640.09 6.40571e-11 2.37643e+07 899.793 6.38681e-11 9.04567e-11 1.68287e+07 1.40883e+13
137.955 1039.64 1935.56 6.25296e-11 2.80503e+07 1036.45 6.23381e-11 7.69563e-11 2.27918e+07 1.66263e+13
145.787 1202.99 2284.26 6.13096e-11 3.30981e+07 1199.3 6.11212e-11 6.54636e-11 3.09979e+07 1.96216e+13
154.063 1396.77 2695.77 6.03187e-11 3.90634e+07 1392.43 6.01312e-11 5.56812e-11 4.23169e+07 2.31565e+13
162.808 1627.85 3181.42 5.95665e-11 4.61057e+07 1622.7 5.93783e-11 4.73556e-11 5.79943e+07 2.73282e+13
172.051 1900.54 3754.56 5.89289e-11 5.44046e+07 1894.44 5.87396e-11 4.02708e-11 7.9611e+07 3.22515e+13
181.818 2224.85 4430.96 5.84538e-11 6.42064e+07 2217.65 5.82648e-11 3.42426e-11 1.09604e+08 3.80616e+13
192.139 2610.35 5229.21 5.8113e-11 7.57748e+07 2601.84 5.79236e-11 2.91139e-11 1.51251e+08 4.49186e+13
203.046 3069.43 6171.26 5.7902e-11 8.94213e+07 3059.33 5.77116e-11 2.4751e-11 2.0919e+08 5.30108e+13
214.572 3615.46 7283.03 5.77911e-11 1.05538e+08 3603.47 5.75994e-11 2.10401e-11 2.89884e+08 6.25608e+13
226.753 4266.36 8595.09 5.77852e-11 1.24552e+08 4252.05 5.75915e-11 1.78839e-11 4.02442e+08 7.38313e+13
239.625 5045.24 10143.5 5.79033e-11 1.46987e+08 5028.11 5.77067e-11 1.51999e-11 5.59941e+08 8.71322e+13
253.228 5979.61 11970.9 5.81509e-11 1.7347e+08 5959.19 5.79522e-11 1.29176e-11 7.80905e+08 1.02829e+14
267.603 7108.35 14127.5 5.85752e-11 2.04703e+08 7083.75 5.83725e-11 1.09771e-11 1.09232e+09 1.21354e+14
282.795 8478.14 16672.6 5.9198e-11 2.4161e+08 8448.28 5.89895e-11 9.3274e-12 1.53342e+09 1.43217e+14
298.848 10154.5 19676.2 6.00795e-11 2.85122e+08 10118 5.98639e-11 7.925e-12 2.16152e+09 1.69017e+14
315.813 12236.7 23220.9 6.13474e-11 3.36491e+08 12191.8 6.11219e-11 6.73295e-12 3.06595e+09 1.99466e+14
333.741 14859.7 27404.3 6.31253e-11 3.97115e+08 14803.2 6.28852e-11 5.71979e-12 4.38268e+09 2.35401e+14
352.686 18249.2 32341.2 6.56897e-11 4.68637e+08 18176.6 6.54283e-11 4.85874e-12 6.33593e+09 2.77809e+14
372.707 22756.5 38167.6 6.94098e-11 5.53074e+08 22660.5 6.91171e-11 4.12703e-12 9.30179e+09 3.27857e+14
393.865 28978 45043.5 7.48939e-11 6.52716e+08 28846.2 7.45533e-11 3.50528e-12 1.39459e+10 3.86921e+14
416.224 34219.8 53158.3 7.49405e-11 2.2184e+08 36201.3 7.928e-11 2.97701e-12 5.58439e+09 4.56626e+14
439.852 0 62734.9 0 0 0 0 2.52819e-12 0 5.38888e+14
464.821 0 74036.7 0 0 0 0 2.1469e-12 0 6.35971e+14
491.207 0 87374.6 0 0 0 0 1.82301e-12 0 7.50542e+14
519.092 0 103115 0 0 0 0 1.54789e-12 0 8.85755e+14
548.56 0 121692 0 0 0 0 1.31422e-12 0 1.04533e+15
579.7 0 143615 0 0 0 0 1.11576e-12 0 1.23364e+15
612.608 0 169488 0 0 0 0 9.47223e-13 0 1.45589e+15
647.384 0 200021 0 0 0 0 8.041e-13 0 1.71817e+15
684.134 0 236056 0 0 0 0 6.82568e-13 0 2.0277e+15
722.971 0 278582 0 0 0 0 5.79376e-13 0 2.393e+15
764.012 0 328769 0 0 0 0 4.91762e-13 0 2.8241e+15
0.502751
200
1.0655e+09
8589934592
0.0129181 0.00141095 1.58924e-09 0.000103355 6 0.00139803 0.000102409 0.00677225 0.0915695 13.6515
0.0136515 0 1.87554e-09 0 0 0 0 0.00688819 0 16.1108
0.0144264 0 2.21343e-09 0 0 0 0 0.00699249 0 19.0132
0.0152454 0 2.61218e-09 0 0 0 0 0.00708412 0 22.4385
0.0161108 0 3.08278e-09 0 0 0 0 0.00716212 0 26.4808
0.0170254 0 3.63815e-09 0 0 0 0 0.00722559 0 31.2514
0.0179919 0.00245516 4.29357e-09 6.65688e-05 12 0.00245199 6.64831e-05 0.00727371 0.109824 36.8815
0.0190132 0 5.06707e-09 0 0 0 0 0.00730578 0 43.5258
0.0200925 0 5.97991e-09 0 0 0 0 0.00732122 0 51.367
0.0212331 0.00585994 7.05721e-09 9.66652e-05 8 0.00585484 9.65811e-05 0.00731958 0.105651 60.621
0.0224385 0 8.32858e-09 0 0 0 0 0.00730056 0 71.542
0.0237123 0 9.829e-09 0 0 0 0 0.00726401 0 84.4305
0.0250583 0.00365873 1.15997e-08 3.67192e-05 6 0.00365701 3.67019e-05 0.00720995 0.0305571 99.6408
0.0264808 0 1.36894e-08 0 0 0 0 0.00713857 0 117.591
0.0279841 0.00327101 1.61556e-08 2.35705e-05 24 0.00326765 2.35463e-05 0.00705021 0.0802376 138.776
0.0295727 0 1.90661e-08 0 0 0 0 0.00694538 0 163.777
0.0312514 0.0097756 2.25009e-08 5.0577e-05 24 0.00982524 5.08338e-05 0.00682475 0.17786 193.281
0.0330255 0 2.65545e-08 0 0 0 0 0.00668915 0 228.102
0.0349003 0.0138395 3.13384e-08 5.14108e-05 12 0.0137287 5.09991e-05 0.00653951 0.0943387 269.195
0.0368815 0.00921426 3.69841e-08 2.90039e-05 30 0.00911615 2.8695e-05 0.00637693 0.136448 317.691
0.0389751 0.0109596 4.36469e-08 2.92315e-05 24 0.0108468 2.89308e-05 0.00620256 0.113107 374.924
0.0411876 0.00882321 5.151e-08 1.99409e-05 24 0.00876329 1.98055e-05 0.00601767 0.0795295 442.467
0.0435258 0.0202536 6.07896e-08 3.87867e-05 8 0.0202521 3.87838e-05 0.00582358 0.0532823 522.179
0.0459966 0.030003 7.1741e-08 4.86864e-05 72 0.0298046 4.83644e-05 0.00562166 0.623556 616.251
0.0486077 0 8.46654e-08 0 0 0 0 0.0054133 0 727.27
0.051367 0.0222781 9.99181e-08 2.59564e-05 54 0.0221887 2.58522e-05 0.00519989 0.269553 858.29
0.054283 0.0438411 1.17919e-07 4.32822e-05 60 0.0442019 4.36384e-05 0.0049828 0.521179 1012.91
0.0573645 0.0443879 1.39162e-07 3.71325e-05 96 0.0441375 3.6923e-05 0.00476339 0.748359 1195.39
0.060621 0.0236507 1.64232e-07 1.67647e-05 24 0.0233302 1.65375e-05 0.00454293 0.0885667 1410.75
0.0640622 0.0560201 1.93819e-07 3.36479e-05 134 0.0559443 3.36023e-05 0.00432265 1.04307 1664.89
0.0676989 0.0591505 2.28736e-07 3.01046e-05 120 0.0588302 2.99416e-05 0.00410371 0.880314 1964.83
0.071542 0.0528571 2.69944e-07 2.2795e-05 108 0.0521375 2.24847e-05 0.00388717 0.633329 2318.8
0.0756032 0.0801839 3.18575e-07 2.93012e-05 174 0.0794062 2.9017e-05 0.00367401 1.3877 2736.54
0.079895 0.0872482 3.75967e-07 2.70157e-05 168 0.0864128 2.67571e-05 0.0034651 1.30982 3229.53
0.0844305 0.109647 4.43698e-07 2.87686e-05 168 0.110278 2.89343e-05 0.00326121 1.482 3811.34
0.0892234 0.110094 5.23632e-07 2.44764e-05 290 0.109529 2.43507e-05 0.00306301 2.31738 4497.96
0.0942883 0.118764 6.17966e-07 2.23734e-05 288 0.118613 2.2345e-05 0.00287109 2.24428 5308.28
0.0996408 0.110011 7.29294e-07 1.75607e-05 366 0.109355 1.74561e-05 0.00268591 2.39294 6264.59
0.105297 0.117091 8.60678e-07 1.58377e-05 420 0.116613 1.5773e-05 0.00250785 2.65241 7393.17
0.111275 0.150264 1.01573e-06 1.72221e-05 398 0.150205 1.72153e-05 0.00233721 2.93272 8725.07
0.117591 0.13958 1.19872e-06 1.35555e-05 624 0.140092 1.36053e-05 0.00217419 3.89047 10296.9
0.124267 0.170786 1.41467e-06 1.40542e-05 642 0.170345 1.40179e-05 0.00201893 4.46912 12151.9
0.131321 0.186353 1.66953e-06 1.29943e-05 800 0.186793 1.3025e-05 0.00187147 5.5547 14341.1
0.138776 0.208833 1.9703e-06 1.23389e-05 858 0.2096 1.23842e-05 0.00173182 6.11311 16924.7
0.146654 0.2129 2.32525e-06 1.0659e-05 1080 0.214602 1.07442e-05 0.00159991 7.19523 19973.8
0.154979 0.214669 2.74415e-06 9.10692e-06 1286 0.215986 9.16279e-06 0.00147563 7.93659 23572.1
0.163777 0.218643 3.23852e-06 7.85957e-06 1650 0.219035 7.87369e-06 0.00135884 9.54366 27818.7
0.173074 0.258613 3.82195e-06 7.87726e-06 1778 0.258427 7.87161e-06 0.00124933 11.2106 32830.3
0.182899 0.304479 4.51048e-06 7.85859e-06 2112 0.305212 7.87751e-06 0.00114689 14.4716 38744.7
0.193281 0.325697 5.32305e-06 7.123e-06 2570 0.325433 7.11724e-06 0.00105127 17.4133 45724.7
0.204254 0.35187 6.28202e-06 6.52068e-06 3030 0.351534 6.51446e-06 0.000962209 20.5336 53962.1
0.215848 0.366914 7.41374e-06 5.76151e-06 3434 0.366649 5.75737e-06 0.000879423 22.4977 63683.5
0.228102 0.399079 8.74934e-06 5.30998e-06 4218 0.399375 5.31392e-06 0.000802624 27.9054 75156.3
0.24105 0.429645 1.03256e-05 4.84402e-06 4766 0.430003 4.84806e-06 0.000731515 31.56 88695.9
0.254734 0.466039 1.21857e-05 4.45226e-06 6026 0.465851 4.45046e-06 0.000665798 40.2965 104675
0.269195 0.510524 1.4381e-05 4.13272e-06 6480 0.51052 4.13269e-06 0.000605173 44.2518 123532
0.284476 0.558584 1.69718e-05 3.83151e-06 8162 0.559245 3.83605e-06 0.000549345 56.9275 145787
0.300625 0.583737 2.00293e-05 3.39282e-06 9578 0.583688 3.39254e-06 0.000498021 65.2511 172051
0.317691 0.632962 2.36377e-05 3.11733e-06 11234 0.632769 3.11638e-06 0.000450916 77.6642 203046
0.335725 0.695762 2.78961e-05 2.90354e-06 13344 0.694832 2.89966e-06 0.000407755 95.0199 239625
0.354784 0.767343 3.29216e-05 2.71343e-06 15464 0.766812 2.71155e-06 0.000368269 113.94 282795
0.374924 0.819863 3.88525e-05 2.45659e-06 18458 0.819826 2.45648e-06 0.000332202 136.494 333741
0.396207 0.887496 4.58519e-05 2.2533e-06 22232 0.886421 2.25057e-06 0.000299307 167.371 393865
0.418699 0.980554 5.41123e-05 2.10953e-06 25628 0.977802 2.10361e-06 0.00026935 200.717 464821
0.442467 1.07439 6.38607e-05 1.95857e-06 30320 1.07221 1.9546e-06 0.000242108 245.279 548560
0.467585 1.16318 7.53654e-05 1.79673e-06 35452 1.16149 1.79413e-06 0.00021737 293.038 647384
0.494129 1.2682 8.89427e-05 1.65993e-06 41792 1.26758 1.65911e-06 0.000194938 355.865 764012
0.522179 1.3983 0.000104966 1.55083e-06 49988 1.39756 1.55e-06 0.000174625 443.939 901651
0.551822 1.53019 0.000123876 1.43803e-06 59110 1.52857 1.43651e-06 0.000156255 543.995 1.06409e+06
0.583147 1.67107 0.000146192 1.3307e-06 69716 1.66835 1.32853e-06 0.000139664 664.246 1.25578e+06
0.616251 1.83311 0.000172529 1.2369e-06 82210 1.82947 1.23444e-06 0.0001247 815.444 1.48202e+06
0.651234 2.01947 0.000203611 1.15464e-06 96722 2.01481 1.15198e-06 0.00011122 1004.12 1.74901e+06
0.688203 2.21143 0.000240292 1.07138e-06 113098 2.20773 1.06959e-06 9.90935e-05 1222.8 2.06409e+06
0.72727 2.43289 0.000283581 9.98745e-07 135190 2.42924 9.97246e-07 8.81969e-05 1530.9 2.43595e+06
0.768555 2.69089 0.000334669 9.3603e-07 158170 2.68777 9.34945e-07 7.84179e-05 1887.98 2.87479e+06
0.812184 2.96564 0.000394961 8.74125e-07 188560 2.96145 8.72892e-07 6.96525e-05 2366.39 3.39269e+06
0.85829 3.28675 0.000466114 8.20889e-07 220444 3.28142 8.19558e-07 6.1805e-05 2927.92 4.00389e+06
0.907013 3.62415 0.000550086 7.66983e-07 261388 3.61866 7.65822e-07 5.47875e-05 3659.23 4.7252e+06
0.958501 4.02375 0.000649185 7.2156e-07 308244 4.01775 7.20484e-07 4.85194e-05 4584.08 5.57646e+06
1.01291 4.45917 0.000766138 6.77575e-07 364396 4.45225 6.76523e-07 4.29272e-05 5751.73 6.58107e+06
1.07041 4.92842 0.00090416 6.3456e-07 429162 4.91957 6.33421e-07 3.79435e-05 7177.23 7.76667e+06
1.13118 5.48859 0.00106705 5.98808e-07 506358 5.47952 5.97819e-07 3.3507e-05 9049.19 9.16586e+06
1.19539 6.08121 0.00125928 5.62184e-07 598590 6.07064 5.61207e-07 2.9562e-05 11383.5 1.08171e+07
1.26325 6.75101 0.00148614 5.28834e-07 704844 6.73847 5.27852e-07 2.60578e-05 14304.6 1.27658e+07
1.33496 7.49821 0.00175387 4.97703e-07 834620 7.48447 4.9679e-07 2.29484e-05 18101.1 1.50656e+07
1.41075 8.31096 0.00206984 4.67439e-07 981444 8.29457 4.66518e-07 2.01923e-05 22719.8 1.77798e+07
1.49083 9.22529 0.00244272 4.39659e-07 1.15998e+06 9.20785 4.38828e-07 1.77518e-05 28729.2 2.09828e+07
1.57546 10.2539 0.00288279 4.14081e-07 1.36931e+06 10.2343 4.13291e-07 1.55929e-05 36363.1 2.4763e+07
1.66489 11.3693 0.00340213 3.89039e-07 1.61652e+06 11.3468 3.88268e-07 1.3685e-05 45954.4 2.92241e+07
1.75941 12.5644 0.00401503 3.64304e-07 1.90601e+06 12.5397 3.63588e-07 1.20007e-05 57860.5 3.44889e+07
1.85928 13.919 0.00473835 3.41973e-07 2.24913e+06 13.8925 3.41322e-07 1.05151e-05 73146.2 4.07021e+07
1.96483 15.406 0.00559198 3.20727e-07 2.65744e+06 15.3763 3.20108e-07 9.20606e-06 92581.7 4.80347e+07
2.07637 17.0016 0.00659939 2.99914e-07 3.13125e+06 16.9684 2.99328e-07 8.05366e-06 116606 5.66883e+07
2.19424 18.7654 0.00778828 2.80496e-07 3.69915e+06 18.7299 2.79965e-07 7.04008e-06 147384 6.69008e+07
2.3188 20.6295 0.00919136 2.61287e-07 4.36472e+06 20.5904 2.60792e-07 6.1494e-06 185456 7.89532e+07
2.45043 22.6467 0.0108472 2.43051e-07 5.14913e+06 22.6051 2.42604e-07 5.36741e-06 233167 9.31768e+07
2.58954 24.8006 0.0128014 2.25537e-07 6.07894e+06 24.7543 2.25115e-07 4.68145e-06 292863 1.09963e+08
2.73654 27.1523 0.0151076 2.09229e-07 7.17304e+06 27.1025 2.08846e-07 4.08023e-06 367825 1.29773e+08
2.89188 29.6351 0.0178292 1.93502e-07 8.46557e+06 29.5813 1.9315e-07 3.55373e-06 460952 1.53152e+08
3.05605 32.2608 0.0210412 1.7849e-07 9.98773e+06 32.2032 1.78172e-07 3.09304e-06 576363 1.80743e+08
3.22953 35.0686 0.0248319 1.64407e-07 1.1797e+07 35.0071 1.64118e-07 2.69025e-06 720939 2.13304e+08
3.41286 38.0284 0.0293054 1.51068e-07 1.39144e+07 37.9596 1.50794e-07 2.33837e-06 898921 2.51731e+08
3.6066 41.0853 0.0345848 1.38297e-07 1.64163e+07 41.0125 1.38051e-07 2.0312e-06 1.11772e+06 2.97081e+08
3.81134 44.3578 0.0408154 1.26519e-07 1.93821e+07 44.2827 1.26305e-07 1.76327e-06 1.39072e+06 3.50601e+08
4.0277 47.7326 0.0481684 1.15362e-07 2.28754e+07 47.6506 1.15164e-07 1.52972e-06 1.72512e+06 4.13763e+08
4.25634 51.262 0.056846 1.0498e-07 2.69929e+07 51.1738 1.04799e-07 1.32631e-06 2.13654e+06 4.88304e+08
4.49796 55.0012 0.067087 9.5443e-08 3.18542e+07 54.907 9.52796e-08 1.14926e-06 2.64541e+06 5.76273e+08
4.7533 58.905 0.0791729 8.66135e-08 3.75892e+07 58.8058 8.64677e-08 9.95263e-07 3.27123e+06 6.8009e+08
5.02313 62.9803 0.0934361 7.84694e-08 4.43706e+07 62.8749 7.8338e-08 8.61414e-07 4.04188e+06 8.0261e+08
5.30828 67.16 0.110269 7.09035e-08 5.23593e+07 67.0471 7.07843e-08 7.45152e-07 4.98214e+06 9.47202e+08
5.60962 71.4601 0.130134 6.39267e-08 6.1787e+07 71.3403 6.38196e-08 6.44232e-07 6.13108e+06 1.11784e+09
5.92807 76.0491 0.153578 5.76468e-08 7.29346e+07 75.9239 5.75518e-08 5.56685e-07 7.55265e+06 1.31923e+09
6.26459 80.7516 0.181246 5.18673e-08 8.60651e+07 80.6177 5.17813e-08 4.80786e-07 9.28471e+06 1.55689e+09
6.62021 85.6812 0.213898 4.66326e-08 1.01558e+08 85.5394 4.65555e-08 4.15026e-07 1.14111e+07 1.83737e+09
6.99602 90.8756 0.252432 4.19096e-08 1.1986e+08 90.7259 4.18405e-08 3.58083e-07 1.40283e+07 2.16837e+09
7.39317 96.2528 0.297908 3.76133e-08 1.41457e+08 96.0955 3.75518e-08 3.08803e-07 1.72299e+07 2.55901e+09
7.81286 101.88 0.351577 3.37348e-08 1.66936e+08 101.712 3.36792e-08 2.66181e-07 2.11569e+07 3.02002e+09
8.25637 107.803 0.414914 3.02471e-08 1.97025e+08 107.625 3.0197e-08 2.29336e-07 2.59856e+07 3.56409e+09
8.72507 114.131 0.489662 2.71342e-08 2.32497e+08 113.942 2.70893e-08 1.97503e-07 3.19418e+07 4.20617e+09
9.22037 120.862 0.577876 2.43481e-08 2.74404e+08 120.659 2.43072e-08 1.70014e-07 3.92981e+07 4.96392e+09
9.74378 128.221 0.681982 2.18875e-08 3.2382e+08 128.001 2.18499e-08 1.46289e-07 4.84494e+07 5.85818e+09
10.2969 136.551 0.804843 1.97512e-08 3.82165e+08 136.307 1.97159e-08 1.25822e-07 5.9991e+07 6.91355e+09
10.8814 146.451 0.949838 1.79496e-08 4.51027e+08 146.171 1.79152e-08 1.08175e-07 7.4839e+07 8.15905e+09
11.4992 159.07 1.12095 1.652e-08 5.32251e+08 158.731 1.64848e-08 9.29669e-08 9.45797e+07 9.62892e+09
12.1519 176.889 1.3229 1.55663e-08 6.28157e+08 176.445 1.55272e-08 7.98658e-08 1.22431e+08 1.13636e+10
12.8418 196.814 1.56122 1.46758e-08 3.82727e+08 203.708 1.51899e-08 6.85852e-08 8.18957e+07 1.34108e+10
13.5708 0 1.84248 0 0 0 0 5.88765e-08 0 1.58268e+10
14.3411 0 2.17441 0 0 0 0 5.05241e-08 0 1.8678e+10
15.1552 0 2.56613 0 0 0 0 4.33417e-08 0 2.20429e+10
16.0156 0 3.02843 0 0 0 0 3.71677e-08 0 2.6014e+10
16.9247 0 3.574 0 0 0 0 3.18628e-08 0 3.07005e+10
17.8855 0 4.21787 0 0 0 0 2.73063e-08 0 3.62312e+10
18.9008 0 4.97773 0 0 0 0 2.33941e-08 0 4.27584e+10
19.9738 0 5.87448 0 0 0 0 2.00364e-08 0 5.04614e+10
21.1076 0 6.93279 0 0 0 0 1.71555e-08 0 5.95522e+10
22.3058 0 8.18175 0 0 0 0 1.46847e-08 0 7.02807e+10
23.5721 0 9.65571 0 0 0 0 1.25662e-08 0 8.29419e+10
24.9102 0 11.3952 0 0 0 0 1.07504e-08 0 9.78842e+10
26.3243 0 13.4481 0 0 0 0 9.19452e-09 0 1.15518e+11
27.8187 0 15.8708 0 0 0 0 7.86182e-09 0 1.36329e+11
29.3979 0 18.73 0 0 0 0 6.72061e-09 0 1.60889e+11
31.0667 0 22.1042 0 0 0 0 5.74366e-09 0 1.89874e+11
32.8303 0 26.0864 0 0 0 0 4.90756e-09 0 2.2408e+11
34.694 0 30.7859 0 0 0 0 4.19221e-09 0 2.64449e+11
36.6634 0 36.3321 0 0 0 0 3.58032e-09 0 3.1209e+11
38.7447 0 42.8774 0 0 0 0 3.05709e-09 0 3.68314e+11
40.9442 0 50.6018 0 0 0 0 2.60976e-09 0 4.34667e+11
43.2685 0 59.7179 0 0 0 0 2.22743e-09 0 5.12973e+11
45.7247 0 70.4762 0 0 0 0 1.90073e-09 0 6.05386e+11
48.3204 0 83.1727 0 0 0 0 1.62163e-09 0 7.14448e+11
51.0634 0 98.1565 0 0 0 0 1.38326e-09 0 8.43158e+11
53.9621 0 115.84 0 0 0 0 1.1797e-09 0 9.95055e+11
57.0254 0 136.709 0 0 0 0 1.00592e-09 0 1.17432e+12
60.2626 0 161.337 0 0 0 0 8.57591e-10 0 1.38587e+12
63.6835 0 190.402 0 0 0 0 7.3101e-10 0 1.63554e+12
67.2987 0 224.704 0 0 0 0 6.23009e-10 0 1.93019e+12
71.1191 0 265.185 0 0 0 0 5.30879e-10 0 2.27792e+12
75.1563 0 312.958 0 0 0 0 4.52303e-10 0 2.68829e+12
79.4227 0 369.339 0 0 0 0 3.85299e-10 0 3.17259e+12
83.9313 0 435.876 0 0 0 0 3.28173e-10 0 3.74415e+12
88.6959 0 514.4 0 0 0 0 2.79476e-10 0 4.41866e+12
93.7309 0 607.071 0 0 0 0 2.37972e-10 0 5.2147e+12
99.0518 0 716.436 0 0 0 0 2.02605e-10 0 6.15414e+12
104.675 0 845.504 0 0 0 0 1.72471e-10 0 7.26283e+12
110.617 0 997.824 0 0 0 0 1.468e-10 0 8.57124e+12
116.896 0 1177.58 0 0 0 0 1.24935e-10 0 1.01154e+13
123.532 0 1389.73 0 0 0 0 1.06313e-10 0 1.19377e+13
130.545 0 1640.09 0 0 0 0 9.04567e-11 0 1.40883e+13
137.955 0 1935.56 0 0 0 0 7.69563e-11 0 1.66263e+13
145.787 0 2284.26 0 0 0 0 6.54636e-11 0 1.96216e+13
154.063 0 2695.77 0 0 0 0 5.56812e-11 0 2.31565e+13
162.808 0 3181.42 0 0 0 0 4.73556e-11 0 2.73282e+13
172.051 0 3754.56 0 0 0 0 4.02708e-11 0 3.22515e+13
181.818 0 4430.96 0 0 0 0 3.42426e-11 0 3.80616e+13
192.139 0 5229.21 0 0 0 0 2.91139e-11 0 4.49186e+13
203.046 0 6171.26 0 0 0 0 2.4751e-11 0 5.30108e+13
214.572 0 7283.03 0 0 0 0 2.10401e-11 0 6.25608e+13
226.753 0 8595.09 0 0 0 0 1.78839e-11 0 7.38313e+13
239.625 0 10143.5 0 0 0 0 1.51999e-11 0 8.71322e+13
253.228 0 11970.9 0 0 0 0 1.29176e-11 0 1.02829e+14
267.603 0 14127.5 0 0 0 0 1.09771e-11 0 1.21354e+14
282.795 0 16672.6 0 0 0 0 9.3274e-12 0 1.43217e+14
298.848 0 19676.2 0 0 0 0 7.925e-12 0 1.69017e+14
315.813 0 23220.9 0 0 0 0 6.73295e-12 0 1.99466e+14
333.741 0 27404.3 0 0 0 0 5.71979e-12 0 2.35401e+14
352.686 0 32341.2 0 0 0 0 4.85874e-12 0 2.77809e+14
372.707 0 38167.6 0 0 0 0 4.12703e-12 0 3.27857e+14
393.865 0 45043.5 0 0 0 0 3.50528e-12 0 3.86921e+14
416.224 0 53158.3 0 0 0 0 2.97701e-12 0 4.56626e+14
439.852 0 62734.9 0 0 0 0 2.52819e-12 0 5.38888e+14
464.821 0 74036.7 0 0 0 0 2.1469e-12 0 6.35971e+14
491.207 0 87374.6 0 0 0 0 1.82301e-12 0 7.50542e+14
519.092 0 103115 0 0 0 0 1.54789e-12 0 8.85755e+14
548.56 0 121692 0 0 0 0 1.31422e-12 0 1.04533e+15
579.7 0 143615 0 0 0 0 1.11576e-12 0 1.23364e+15
612.608 0 169488 0 0 0 0 9.47223e-13 0 1.45589e+15
647.384 0 200021 0 0 0 0 8.041e-13 0 1.71817e+15
684.134 0 236056 0 0 0 0 6.82568e-13 0 2.0277e+15
722.971 0 278582 0 0 0 0 5.79376e-13 0 2.393e+15
764.012 0 328769 0 0 0 0 4.91762e-13 0 2.8241e+15
