0.642005
200
1.0655e+09
8589934592
0.0129181 0 1.58924e-09 0 0 0 0 0.00677225 0 13.6515
0.0136515 0 1.87554e-09 0 0 0 0 0.00688819 0 16.1108
0.0144264 0 2.21343e-09 0 0 0 0 0.00699249 0 19.0132
0.0152454 0 2.61218e-09 0 0 0 0 0.00708412 0 22.4385
0.0161108 0 3.08278e-09 0 0 0 0 0.00716212 0 26.4808
0.0170254 0 3.63815e-09 0 0 0 0 0.00722559 0 31.2514
0.0179919 0 4.29357e-09 0 0 0 0 0.00727371 0 36.8815
0.0190132 0 5.06707e-09 0 0 0 0 0.00730578 0 43.5258
0.0200925 0 5.97991e-09 0 0 0 0 0.00732122 0 51.367
0.0212331 0 7.05721e-09 0 0 0 0 0.00731958 0 60.621
0.0224385 0 8.32858e-09 0 0 0 0 0.00730056 0 71.542
0.0237123 0 9.829e-09 0 0 0 0 0.00726401 0 84.4305
0.0250583 0 1.15997e-08 0 0 0 0 0.00720995 0 99.6408
0.0264808 0 1.36894e-08 0 0 0 0 0.00713857 0 117.591
0.0279841 0 1.61556e-08 0 0 0 0 0.00705021 0 138.776
0.0295727 0 1.90661e-08 0 0 0 0 0.00694538 0 163.777
0.0312514 0 2.25009e-08 0 0 0 0 0.00682475 0 193.281
0.0330255 0 2.65545e-08 0 0 0 0 0.00668915 0 228.102
0.0349003 0 3.13384e-08 0 0 0 0 0.00653951 0 269.195
0.0368815 0 3.69841e-08 0 0 0 0 0.00637693 0 317.691
0.0389751 0 4.36469e-08 0 0 0 0 0.00620256 0 374.924
0.0411876 0 5.151e-08 0 0 0 0 0.00601767 0 442.467
0.0435258 0 6.07896e-08 0 0 0 0 0.00582358 0 522.179
0.0459966 0 7.1741e-08 0 0 0 0 0.00562166 0 616.251
0.0486077 0 8.46654e-08 0 0 0 0 0.0054133 0 727.27
0.051367 0 9.99181e-08 0 0 0 0 0.00519989 0 858.29
0.054283 0 1.17919e-07 0 0 0 0 0.0049828 0 1012.91
0.0573645 0 1.39162e-07 0 0 0 0 0.00476339 0 1195.39
0.060621 0 1.64232e-07 0 0 0 0 0.00454293 0 1410.75
0.0640622 0 1.93819e-07 0 0 0 0 0.00432265 0 1664.89
0.0676989 0 2.28736e-07 0 0 0 0 0.00410371 0 1964.83
0.071542 0 2.69944e-07 0 0 0 0 0.00388717 0 2318.8
0.0756032 0 3.18575e-07 0 0 0 0 0.00367401 0 2736.54
0.079895 0 3.75967e-07 0 0 0 0 0.0034651 0 3229.53
0.0844305 0 4.43698e-07 0 0 0 0 0.00326121 0 3811.34
0.0892234 0 5.23632e-07 0 0 0 0 0.00306301 0 4497.96
0.0942883 0 6.17966e-07 0 0 0 0 0.00287109 0 5308.28
0.0996408 0 7.29294e-07 0 0 0 0 0.00268591 0 6264.59
0.105297 0 8.60678e-07 0 0 0 0 0.00250785 0 7393.17
0.111275 0 1.01573e-06 0 0 0 0 0.00233721 0 8725.07
0.117591 0 1.19872e-06 0 0 0 0 0.00217419 0 10296.9
0.124267 0 1.41467e-06 0 0 0 0 0.00201893 0 12151.9
0.131321 0 1.66953e-06 0 0 0 0 0.00187147 0 14341.1
0.138776 0 1.9703e-06 0 0 0 0 0.00173182 0 16924.7
0.146654 0 2.32525e-06 0 0 0 0 0.00159991 0 19973.8
0.154979 0 2.74415e-06 0 0 0 0 0.00147563 0 23572.1
0.163777 0 3.23852e-06 0 0 0 0 0.00135884 0 27818.7
0.173074 0 3.82195e-06 0 0 0 0 0.00124933 0 32830.3
0.182899 0 4.51048e-06 0 0 0 0 0.00114689 0 38744.7
0.193281 0 5.32305e-06 0 0 0 0 0.00105127 0 45724.7
0.204254 0 6.28202e-06 0 0 0 0 0.000962209 0 53962.1
0.215848 0 7.41374e-06 0 0 0 0 0.000879423 0 63683.5
0.228102 0 8.74934e-06 0 0 0 0 0.000802624 0 75156.3
0.24105 0 1.03256e-05 0 0 0 0 0.000731515 0 88695.9
0.254734 0 1.21857e-05 0 0 0 0 0.000665798 0 104675
0.269195 0 1.4381e-05 0 0 0 0 0.000605173 0 123532
0.284476 0 1.69718e-05 0 0 0 0 0.000549345 0 145787
0.300625 0 2.00293e-05 0 0 0 0 0.000498021 0 172051
0.317691 0 2.36377e-05 0 0 0 0 0.000450916 0 203046
0.335725 0 2.78961e-05 0 0 0 0 0.000407755 0 239625
0.354784 0 3.29216e-05 0 0 0 0 0.000368269 0 282795
0.374924 0 3.88525e-05 0 0 0 0 0.000332202 0 333741
0.396207 1.76864 4.58519e-05 4.49046e-06 6 1.71946 4.36562e-06 0.000299307 0.0900172 393865
0.418699 0 5.41123e-05 0 0 0 0 0.00026935 0 464821
0.442467 0 6.38607e-05 0 0 0 0 0.000242108 0 548560
0.467585 0 7.53654e-05 0 0 0 0 0.00021737 0 647384
0.494129 0 8.89427e-05 0 0 0 0 0.000194938 0 764012
0.522179 0 0.000104966 0 0 0 0 0.000174625 0 901651
0.551822 0 0.000123876 0 0 0 0 0.000156255 0 1.06409e+06
0.583147 3.63643 0.000146192 2.89574e-06 12 3.82736 3.04778e-06 0.000139664 0.248804 1.25578e+06
0.616251 0 0.000172529 0 0 0 0 0.0001247 0 1.48202e+06
0.651234 0 0.000203611 0 0 0 0 0.00011122 0 1.74901e+06
0.688203 16.5592 0.000240292 8.0225e-06 8 16.1472 7.82291e-06 9.90935e-05 0.647671 2.06409e+06
0.72727 0 0.000283581 0 0 0 0 8.81969e-05 0 2.43595e+06
0.768555 0 0.000334669 0 0 0 0 7.84179e-05 0 2.87479e+06
0.812184 8.16682 0.000394961 2.40718e-06 6 8.34142 2.45865e-06 6.96525e-05 0.207359 3.39269e+06
0.85829 0 0.000466114 0 0 0 0 6.1805e-05 0 4.00389e+06
0.907013 1.24737 0.000550086 2.63983e-07 24 1.27131 2.69049e-07 5.47875e-05 0.11564 4.7252e+06
0.958501 3.92092 0.000649185 7.0312e-07 24 3.69126 6.61936e-07 4.85194e-05 0.347797 5.57646e+06
1.01291 0 0.000766138 0 0 0 0 4.29272e-05 0 6.58107e+06
1.07041 0 0.00090416 0 0 0 0 3.79435e-05 0 7.76667e+06
1.13118 4.03261 0.00106705 4.39959e-07 12 3.98307 4.34555e-07 3.3507e-05 0.157564 9.16586e+06
1.19539 1.83265 0.00125928 1.69421e-07 30 1.79487 1.65929e-07 2.9562e-05 0.171931 1.08171e+07
1.26325 9.13345 0.00148614 7.1546e-07 24 8.99601 7.04694e-07 2.60578e-05 0.658959 1.27658e+07
1.33496 13.7497 0.00175387 9.12655e-07 24 13.78 9.14662e-07 2.29484e-05 0.954475 1.50656e+07
1.41075 16.7659 0.00206984 9.42978e-07 32 17.0802 9.60657e-07 2.01923e-05 1.4944 1.77798e+07
1.49083 3.31526 0.00244272 1.57998e-07 48 3.24458 1.5463e-07 1.77518e-05 0.427221 2.09828e+07
1.57546 26.8165 0.00288279 1.08293e-06 6 25.5353 1.03119e-06 1.55929e-05 0.416702 2.4763e+07
1.66489 3.84913 0.00340213 1.31711e-07 84 3.81069 1.30396e-07 1.3685e-05 0.808456 2.92241e+07
1.75941 5.26324 0.00401503 1.52607e-07 48 5.17851 1.5015e-07 1.20007e-05 0.610393 3.44889e+07
1.85928 6.07386 0.00473835 1.49227e-07 72 6.01977 1.47898e-07 1.05151e-05 1.0218 4.07021e+07
1.96483 11.7534 0.00559198 2.44687e-07 54 11.5338 2.40114e-07 9.20606e-06 1.43526 4.80347e+07
2.07637 12.5002 0.00659939 2.20508e-07 104 12.5235 2.20919e-07 8.05366e-06 2.84751 5.66883e+07
2.19424 5.77375 0.00778828 8.63032e-08 120 5.87007 8.77428e-08 7.04008e-06 1.47106 6.69008e+07
2.3188 9.67755 0.00919136 1.22573e-07 156 9.43437 1.19493e-07 6.1494e-06 3.10948 7.89532e+07
2.45043 13.0234 0.0108472 1.39771e-07 126 13.0032 1.39554e-07 5.36741e-06 3.28112 9.31768e+07
2.58954 9.83047 0.0128014 8.93981e-08 192 9.83322 8.94231e-08 4.68145e-06 3.66648 1.09963e+08
2.73654 22.1782 0.0151076 1.709e-07 152 22.545 1.73726e-07 4.08023e-06 6.36651 1.29773e+08
2.89188 13.3955 0.0178292 8.74651e-08 378 13.4925 8.80988e-08 3.55373e-06 9.30341 1.53152e+08
3.05605 14.6359 0.0210412 8.09765e-08 264 14.508 8.0269e-08 3.09304e-06 6.91158 1.80743e+08
3.22953 12.5173 0.0248319 5.86828e-08 366 12.3907 5.80894e-08 2.69025e-06 7.9836 2.13304e+08
3.41286 12.8306 0.0293054 5.09694e-08 428 12.663 5.03038e-08 2.33837e-06 9.3291 2.51731e+08
3.6066 17.2915 0.0345848 5.82045e-08 486 17.0242 5.73048e-08 2.0312e-06 13.9264 2.97081e+08
3.81134 16.2106 0.0408154 4.62366e-08 600 16.1349 4.60207e-08 1.76327e-06 15.7333 3.50601e+08
4.0277 19.6141 0.0481684 4.74041e-08 738 19.48 4.70802e-08 1.52972e-06 22.8697 4.13763e+08
4.25634 19.4327 0.056846 3.97964e-08 824 19.3544 3.9636e-08 1.32631e-06 24.7245 4.88304e+08
4.49796 23.7405 0.067087 4.11967e-08 954 23.5168 4.08085e-08 1.14926e-06 34.1975 5.76273e+08
4.7533 22.5819 0.0791729 3.32043e-08 1094 22.4845 3.30611e-08 9.95263e-07 36.4985 6.8009e+08
5.02313 22.5762 0.0934361 2.81285e-08 1332 22.6655 2.82397e-08 8.61414e-07 43.4949 8.0261e+08
5.30828 29.2121 0.110269 3.08404e-08 1614 29.1905 3.08176e-08 7.45152e-07 66.8003 9.47202e+08
5.60962 31.9031 0.130134 2.85399e-08 1850 31.8613 2.85025e-08 6.44232e-07 81.9562 1.11784e+09
5.92807 28.377 0.153578 2.15103e-08 2238 28.3232 2.14695e-08 5.56685e-07 86.4764 1.31923e+09
6.26459 28.9499 0.181246 1.85947e-08 2546 29.0148 1.86364e-08 4.80786e-07 98.4681 1.55689e+09
6.62021 29.768 0.213898 1.62015e-08 3264 29.7802 1.62081e-08 4.15026e-07 127.418 1.83737e+09
6.99602 33.4875 0.252432 1.54436e-08 3506 33.467 1.54342e-08 3.58083e-07 151.209 2.16837e+09
7.39317 36.4711 0.297908 1.4252e-08 4506 36.451 1.42442e-08 3.08803e-07 207.963 2.55901e+09
7.81286 41.5114 0.351577 1.37454e-08 5018 41.3756 1.37004e-08 2.66181e-07 259.126 3.02002e+09
8.25637 43.1506 0.414914 1.21071e-08 5852 43.0958 1.20917e-08 2.29336e-07 308.937 3.56409e+09
8.72507 43.1815 0.489662 1.02662e-08 7362 43.0572 1.02367e-08 1.97503e-07 382.678 4.20617e+09
9.22037 46.5946 0.577876 9.38665e-09 8306 46.4931 9.36621e-09 1.70014e-07 458.582 4.96392e+09
9.74378 49.0777 0.681982 8.37763e-09 9698 49.017 8.36727e-09 1.46289e-07 555.382 5.85818e+09
10.2969 52.8283 0.804843 7.64127e-09 11816 52.7942 7.63633e-09 1.25822e-07 717.593 6.91355e+09
10.8814 58.5507 0.949838 7.17618e-09 13682 58.3819 7.15548e-09 1.08175e-07 907.641 8.15905e+09
11.4992 59.8966 1.12095 6.22049e-09 16152 59.8837 6.21915e-09 9.29669e-08 1080.74 9.62892e+09
12.1519 63.8517 1.3229 5.61897e-09 19472 63.7492 5.60995e-09 7.98658e-08 1369.96 1.13636e+10
12.8418 65.6694 1.56122 4.89676e-09 22670 65.4599 4.88114e-09 6.85852e-08 1618.57 1.34108e+10
13.5708 72.0168 1.84248 4.55032e-09 26224 71.8744 4.54132e-09 5.88765e-08 2026.74 1.58268e+10
14.3411 74.9307 2.17441 4.01171e-09 31640 74.8016 4.0048e-09 5.05241e-08 2512.27 1.8678e+10
15.1552 78.0955 2.56613 3.54289e-09 37484 77.929 3.53533e-09 4.33417e-08 3064.06 2.20429e+10
16.0156 84.9678 3.02843 3.26624e-09 43856 84.817 3.26044e-09 3.71677e-08 3853.99 2.6014e+10
16.9247 89.2723 3.574 2.90785e-09 51362 89.128 2.90315e-09 3.18628e-08 4687.37 3.07005e+10
17.8855 94.1339 4.21787 2.59814e-09 61636 93.9983 2.5944e-09 2.73063e-08 5864.54 3.62312e+10
18.9008 99.2781 4.97773 2.32184e-09 72218 99.0436 2.31635e-09 2.33941e-08 7167.55 4.27584e+10
19.9738 105.004 5.87448 2.08088e-09 84586 104.809 2.07702e-09 2.00364e-08 8784.7 5.04614e+10
21.1076 111.429 6.93279 1.87111e-09 100708 111.273 1.86849e-09 1.71555e-08 10984 5.95522e+10
22.3058 117.607 8.18175 1.67339e-09 118712 117.392 1.67033e-09 1.46847e-08 13527.8 7.02807e+10
23.5721 123.152 9.65571 1.48479e-09 140410 122.928 1.48209e-09 1.25662e-08 16590.6 8.29419e+10
24.9102 127.59 11.3952 1.30348e-09 164374 127.387 1.30141e-09 1.07504e-08 19930.3 9.78842e+10
26.3243 136.2 13.4481 1.17903e-09 194680 136.085 1.17804e-09 9.19452e-09 24964.3 1.15518e+11
27.8187 143.143 15.8708 1.04998e-09 230196 142.934 1.04844e-09 7.86182e-09 30743.7 1.36329e+11
29.3979 149.15 18.73 9.27037e-10 271156 148.89 9.2542e-10 6.72061e-09 37403.1 1.60889e+11
31.0667 156.874 22.1042 8.26201e-10 321076 156.591 8.24713e-10 5.74366e-09 46185.4 1.89874e+11
32.8303 164.913 26.0864 7.35956e-10 377436 164.613 7.34616e-10 4.90756e-09 56601.7 2.2408e+11
34.694 172.892 30.7859 6.53782e-10 447594 172.573 6.52576e-10 4.19221e-09 69803.1 2.64449e+11
36.6634 181.32 36.3321 5.80986e-10 525078 180.975 5.79881e-10 3.58032e-09 85205.3 3.1209e+11
38.7447 192.065 42.8774 5.21471e-10 621924 191.716 5.20523e-10 3.05709e-09 106086 3.68314e+11
40.9442 200.348 50.6018 4.60923e-10 732630 199.98 4.60077e-10 2.60976e-09 129393 4.34667e+11
43.2685 210.156 59.7179 4.09683e-10 865596 209.826 4.09039e-10 2.22743e-09 159206 5.12973e+11
45.7247 221.021 70.4762 3.65091e-10 1.02168e+06 220.671 3.64512e-10 1.90073e-09 196242 6.05386e+11
48.3204 231.865 83.1727 3.24537e-10 1.20544e+06 231.435 3.23935e-10 1.62163e-09 241244 7.14448e+11
51.0634 243.128 98.1565 2.88354e-10 1.42103e+06 242.698 2.87844e-10 1.38326e-09 296228 8.43158e+11
53.9621 256.377 115.84 2.57651e-10 1.67997e+06 255.935 2.57207e-10 1.1797e-09 366911 9.95055e+11
57.0254 270.457 136.709 2.3031e-10 1.98018e+06 269.969 2.29895e-10 1.00592e-09 453371 1.17432e+12
60.2626 284.685 161.337 2.05419e-10 2.33957e+06 284.163 2.05043e-10 8.57591e-10 560398 1.38587e+12
63.6835 301.313 190.402 1.84228e-10 2.75676e+06 300.76 1.8389e-10 7.3101e-10 694756 1.63554e+12
67.2987 319.878 224.704 1.65723e-10 3.25638e+06 319.286 1.65417e-10 6.23009e-10 866213 1.93019e+12
71.1191 339.867 265.185 1.492e-10 3.84387e+06 339.202 1.48909e-10 5.30879e-10 1.0803e+06 2.27792e+12
75.1563 362.612 312.958 1.34886e-10 4.53277e+06 361.877 1.34612e-10 4.52303e-10 1.35176e+06 2.68829e+12
79.4227 388.788 369.339 1.22546e-10 5.35083e+06 388.03 1.22307e-10 3.85299e-10 1.70185e+06 3.17259e+12
83.9313 419.04 435.876 1.11919e-10 6.32174e+06 418.159 1.11683e-10 3.28173e-10 2.15594e+06 3.74415e+12
88.6959 453.657 514.4 1.02668e-10 7.44986e+06 452.656 1.02442e-10 2.79476e-10 2.73678e+06 4.41866e+12
93.7309 493.65 607.071 9.46651e-11 8.79764e+06 492.549 9.44539e-11 2.37972e-10 3.49969e+06 5.2147e+12
99.0518 539.875 716.436 8.77255e-11 1.03827e+07 538.622 8.75219e-11 2.02605e-10 4.49558e+06 6.15414e+12
104.675 594.475 845.504 8.18517e-11 1.22515e+07 593.031 8.16529e-11 1.72471e-10 5.81436e+06 7.26283e+12
110.617 659.433 997.824 7.69355e-11 1.44573e+07 657.771 7.67416e-11 1.468e-10 7.57684e+06 8.57124e+12
116.896 735.423 1177.58 7.27035e-11 1.70664e+07 733.517 7.2515e-11 1.24935e-10 9.93148e+06 1.01154e+13
123.532 826.17 1389.73 6.92069e-11 2.0139e+07 823.94 6.90201e-11 1.06313e-10 1.31099e+07 1.19377e+13
130.545 933.752 1640.09 6.62786e-11 2.37643e+07 931.154 6.60941e-11 9.04567e-11 1.74124e+07 1.40883e+13
137.955 1061.37 1935.56 6.38367e-11 2.80503e+07 1058.34 6.36543e-11 7.69563e-11 2.32682e+07 1.66263e+13
145.787 1213.01 2284.26 6.18199e-11 3.30981e+07 1209.44 6.16383e-11 6.54636e-11 3.12559e+07 1.96216e+13
154.063 1393.1 2695.77 6.01602e-11 3.90634e+07 1388.94 5.99805e-11 5.56812e-11 4.22058e+07 2.31565e+13
162.808 1608.7 3181.42 5.88658e-11 4.61057e+07 1603.78 5.8686e-11 4.73556e-11 5.73121e+07 2.73282e+13
172.051 1863.17 3754.56 5.77701e-11 5.44046e+07 1857.38 5.75906e-11 4.02708e-11 7.80456e+07 3.22515e+13
181.818 2166.78 4430.96 5.69282e-11 6.42064e+07 2159.94 5.67484e-11 3.42426e-11 1.06743e+08 3.80616e+13
192.139 2529.18 5229.21 5.63058e-11 7.57748e+07 2521.06 5.6125e-11 2.91139e-11 1.46547e+08 4.49186e+13
203.046 2959.05 6171.26 5.58199e-11 8.94213e+07 2949.45 5.56386e-11 2.4751e-11 2.01668e+08 5.30108e+13
214.572 3472.93 7283.03 5.55128e-11 1.05538e+08 3461.57 5.53314e-11 2.10401e-11 2.78456e+08 6.25608e+13
226.753 4086.52 8595.09 5.53494e-11 1.24552e+08 4073.01 5.51665e-11 1.78839e-11 3.85479e+08 7.38313e+13
239.625 4821.54 10143.5 5.53359e-11 1.46987e+08 4805.35 5.51501e-11 1.51999e-11 5.35113e+08 8.71322e+13
253.228 5705.41 11970.9 5.54843e-11 1.7347e+08 5686.06 5.52961e-11 1.29176e-11 7.45096e+08 1.02829e+14
267.603 6770.55 14127.5 5.57916e-11 2.04703e+08 6747.22 5.55994e-11 1.09771e-11 1.04041e+09 1.21354e+14
282.795 8065.71 16672.6 5.63183e-11 2.4161e+08 8037.46 5.6121e-11 9.3274e-12 1.45883e+09 1.43217e+14
298.848 9654.44 19676.2 5.7121e-11 2.85122e+08 9619.97 5.69171e-11 7.925e-12 2.05508e+09 1.69017e+14
315.813 11626 23220.9 5.82855e-11 3.36491e+08 11583.3 5.80716e-11 6.73295e-12 2.91292e+09 1.99466e+14
333.741 14116.1 27404.3 5.99664e-11 3.97115e+08 14062.5 5.97384e-11 5.71979e-12 4.16336e+09 2.35401e+14
352.686 17329.3 32341.2 6.23785e-11 4.68637e+08 17260.4 6.21304e-11 4.85874e-12 6.01655e+09 2.77809e+14
372.707 21599.5 38167.6 6.5881e-11 5.53074e+08 21508.3 6.56029e-11 4.12703e-12 8.82888e+09 3.27857e+14
393.865 27513.1 45043.5 7.11077e-11 6.52716e+08 27387.9 7.07841e-11 3.50528e-12 1.32409e+10 3.86921e+14
416.224 32490.5 53158.3 7.11533e-11 2.2184e+08 34371.8 7.52735e-11 2.97701e-12 5.30218e+09 4.56626e+14
439.852 0 62734.9 0 0 0 0 2.52819e-12 0 5.38888e+14
464.821 0 74036.7 0 0 0 0 2.1469e-12 0 6.35971e+14
491.207 0 87374.6 0 0 0 0 1.82301e-12 0 7.50542e+14
519.092 0 103115 0 0 0 0 1.54789e-12 0 8.85755e+14
548.56 0 121692 0 0 0 0 1.31422e-12 0 1.04533e+15
579.7 0 143615 0 0 0 0 1.11576e-12 0 1.23364e+15
612.608 0 169488 0 0 0 0 9.47223e-13 0 1.45589e+15
647.384 0 200021 0 0 0 0 8.041e-13 0 1.71817e+15
684.134 0 236056 0 0 0 0 6.82568e-13 0 2.0277e+15
722.971 0 278582 0 0 0 0 5.79376e-13 0 2.393e+15
764.012 0 328769 0 0 0 0 4.91762e-13 0 2.8241e+15
0.642005
200
1.0655e+09
8589934592
0.0129181 0.00087194 1.58924e-09 6.38716e-05 6 0.000863957 6.32868e-05 0.00677225 0.0565882 13.6515
0.0136515 0 1.87554e-09 0 0 0 0 0.00688819 0 16.1108
0.0144264 0 2.21343e-09 0 0 0 0 0.00699249 0 19.0132
0.0152454 0 2.61218e-09 0 0 0 0 0.00708412 0 22.4385
0.0161108 0 3.08278e-09 0 0 0 0 0.00716212 0 26.4808
0.0170254 0 3.63815e-09 0 0 0 0 0.00722559 0 31.2514
0.0179919 0.00252097 4.29357e-09 6.83534e-05 12 0.00251773 6.82653e-05 0.00727371 0.112768 36.8815
0.0190132 0 5.06707e-09 0 0 0 0 0.00730578 0 43.5258
0.0200925 0 5.97991e-09 0 0 0 0 0.00732122 0 51.367
0.0212331 0.00576989 7.05721e-09 9.51798e-05 8 0.00576487 9.50969e-05 0.00731958 0.104028 60.621
0.0224385 0 8.32858e-09 0 0 0 0 0.00730056 0 71.542
0.0237123 0 9.829e-09 0 0 0 0 0.00726401 0 84.4305
0.0250583 0.00958215 1.15997e-08 9.61669e-05 6 0.00957763 9.61216e-05 0.00720995 0.0800284 99.6408
0.0264808 0 1.36894e-08 0 0 0 0 0.00713857 0 117.591
0.0279841 0.0139883 1.61556e-08 0.000100798 24 0.013974 0.000100695 0.00705021 0.343132 138.776
0.0295727 0 1.90661e-08 0 0 0 0 0.00694538 0 163.777
0.0312514 0.0179042 2.25009e-08 9.26328e-05 24 0.0179951 9.31032e-05 0.00682475 0.325754 193.281
0.0330255 0 2.65545e-08 0 0 0 0 0.00668915 0 228.102
0.0349003 0.0228427 3.13384e-08 8.48557e-05 12 0.0226598 8.41763e-05 0.00653951 0.15571 269.195
0.0368815 0.032196 3.69841e-08 0.000101344 30 0.0318531 0.000100265 0.00637693 0.476768 317.691
0.0389751 0.0256358 4.36469e-08 6.83759e-05 24 0.025372 6.76726e-05 0.00620256 0.264572 374.924
0.0411876 0.0319478 5.151e-08 7.22037e-05 24 0.0317308 7.17134e-05 0.00601767 0.287967 442.467
0.0435258 0.0235784 6.07896e-08 4.51538e-05 8 0.0235765 4.51503e-05 0.00582358 0.0620289 522.179
0.0459966 0.0385016 7.1741e-08 6.24771e-05 72 0.0382813 6.21196e-05 0.00562166 0.800182 616.251
0.0486077 0 8.46654e-08 0 0 0 0 0.0054133 0 727.27
0.051367 0.0650555 9.99181e-08 7.57966e-05 54 0.064905 7.56213e-05 0.00519989 0.787135 858.29
0.054283 0.0525852 1.17919e-07 5.19148e-05 60 0.052918 5.22434e-05 0.0049828 0.625128 1012.91
0.0573645 0.063792 1.39162e-07 5.33649e-05 96 0.0635354 5.31503e-05 0.00476339 1.0755 1195.39
0.060621 0.0706848 1.64232e-07 5.01046e-05 24 0.0697271 4.94257e-05 0.00454293 0.264699 1410.75
0.0640622 0.0714791 1.93819e-07 4.29331e-05 134 0.0712659 4.2805e-05 0.00432265 1.33091 1664.89
0.0676989 0.086923 2.28736e-07 4.42394e-05 120 0.0864274 4.39872e-05 0.00410371 1.29364 1964.83
0.071542 0.089998 2.69944e-07 3.88123e-05 108 0.0884856 3.81601e-05 0.00388717 1.07835 2318.8
0.0756032 0.116356 3.18575e-07 4.25194e-05 174 0.115399 4.21697e-05 0.00367401 2.01371 2736.54
0.079895 0.128557 3.75967e-07 3.98067e-05 168 0.127328 3.9426e-05 0.0034651 1.92997 3229.53
0.0844305 0.143318 4.43698e-07 3.76031e-05 168 0.143886 3.7752e-05 0.00326121 1.93711 3811.34
0.0892234 0.150214 5.23632e-07 3.33959e-05 290 0.149802 3.33043e-05 0.00306301 3.16186 4497.96
0.0942883 0.14327 6.17966e-07 2.69899e-05 288 0.143096 2.69571e-05 0.00287109 2.70736 5308.28
0.0996408 0.144568 7.29294e-07 2.30769e-05 366 0.143659 2.29319e-05 0.00268591 3.14462 6264.59
0.105297 0.196082 8.60678e-07 2.65221e-05 420 0.195073 2.63856e-05 0.00250785 4.44176 7393.17
0.111275 0.181025 1.01573e-06 2.07477e-05 398 0.180915 2.0735e-05 0.00233721 3.5331 8725.07
0.117591 0.234196 1.19872e-06 2.27443e-05 624 0.234581 2.27817e-05 0.00217419 6.52767 10296.9
0.124267 0.22413 1.41467e-06 1.8444e-05 642 0.224029 1.84356e-05 0.00201893 5.86502 12151.9
0.131321 0.273298 1.66953e-06 1.90569e-05 800 0.273348 1.90604e-05 0.00187147 8.1463 14341.1
0.138776 0.283685 1.9703e-06 1.67615e-05 858 0.284236 1.67941e-05 0.00173182 8.30423 16924.7
0.146654 0.306771 2.32525e-06 1.53587e-05 1080 0.309413 1.5491e-05 0.00159991 10.3677 19973.8
0.154979 0.325267 2.74415e-06 1.37988e-05 1286 0.327461 1.38919e-05 0.00147563 12.0255 23572.1
0.163777 0.394032 3.23852e-06 1.41643e-05 1650 0.394532 1.41823e-05 0.00135884 17.1993 27818.7
0.173074 0.418443 3.82195e-06 1.27457e-05 1778 0.419536 1.27789e-05 0.00124933 18.1391 32830.3
0.182899 0.456493 4.51048e-06 1.17821e-05 2112 0.456936 1.17935e-05 0.00114689 21.6967 38744.7
0.193281 0.497617 5.32305e-06 1.08829e-05 2570 0.498421 1.09005e-05 0.00105127 26.6049 45724.7
0.204254 0.535252 6.28202e-06 9.91903e-06 3030 0.534872 9.91199e-06 0.000962209 31.2351 53962.1
0.215848 0.58068 7.41374e-06 9.11821e-06 3434 0.580046 9.10826e-06 0.000879423 35.6051 63683.5
0.228102 0.616699 8.74934e-06 8.20555e-06 4218 0.616329 8.20063e-06 0.000802624 43.1223 75156.3
0.24105 0.665155 1.03256e-05 7.49928e-06 4766 0.665519 7.50338e-06 0.000731515 48.8596 88695.9
0.254734 0.704909 1.21857e-05 6.73428e-06 6026 0.704917 6.73436e-06 0.000665798 60.9506 104675
0.269195 0.787868 1.4381e-05 6.37783e-06 6480 0.787708 6.37655e-06 0.000605173 68.2918 123532
0.284476 0.889973 1.69718e-05 6.10462e-06 8162 0.891312 6.11381e-06 0.000549345 90.7006 145787
0.300625 0.929733 2.00293e-05 5.40383e-06 9578 0.929914 5.40488e-06 0.000498021 103.927 172051
0.317691 1.04893 2.36377e-05 5.16599e-06 11234 1.04804 5.1616e-06 0.000450916 128.704 203046
0.335725 1.12722 2.78961e-05 4.70407e-06 13344 1.12611 4.69944e-06 0.000407755 153.943 239625
0.354784 1.2236 3.29216e-05 4.3268e-06 15464 1.22185 4.32064e-06 0.000368269 181.687 282795
0.374924 1.37286 3.88525e-05 4.11356e-06 18458 1.37212 4.11134e-06 0.000332202 228.56 333741
0.396207 1.5128 4.58519e-05 3.8409e-06 22232 1.51066 3.83549e-06 0.000299307 285.295 393865
0.418699 1.62957 5.41123e-05 3.50581e-06 25628 1.62543 3.4969e-06 0.00026935 333.569 464821
0.442467 1.81446 6.38607e-05 3.30768e-06 30320 1.81108 3.30151e-06 0.000242108 414.232 548560
0.467585 1.98528 7.53654e-05 3.06662e-06 35452 1.98197 3.0615e-06 0.00021737 500.151 647384
0.494129 2.2032 8.89427e-05 2.88372e-06 41792 2.20115 2.88104e-06 0.000194938 618.228 764012
0.522179 2.42551 0.000104966 2.69007e-06 49988 2.42449 2.68894e-06 0.000174625 770.059 901651
0.551822 2.68889 0.000123876 2.52695e-06 59110 2.68583 2.52407e-06 0.000156255 955.926 1.06409e+06
0.583147 2.93676 0.000146192 2.33859e-06 69716 2.93226 2.335e-06 0.000139664 1167.35 1.25578e+06
0.616251 3.2711 0.000172529 2.2072e-06 82210 3.26395 2.20237e-06 0.0001247 1455.12 1.48202e+06
0.651234 3.6516 0.000203611 2.08782e-06 96722 3.64404 2.08349e-06 0.00011122 1815.65 1.74901e+06
0.688203 4.01126 0.000240292 1.94335e-06 113098 4.00489 1.94026e-06 9.90935e-05 2218 2.06409e+06
0.72727 4.45395 0.000283581 1.82843e-06 135190 4.44831 1.82611e-06 8.81969e-05 2802.65 2.43595e+06
0.768555 4.98329 0.000334669 1.73345e-06 158170 4.975 1.73056e-06 7.84179e-05 3496.38 2.87479e+06
0.812184 5.51328 0.000394961 1.62505e-06 188560 5.50556 1.62277e-06 6.96525e-05 4399.25 3.39269e+06
0.85829 6.16869 0.000466114 1.54067e-06 220444 6.15887 1.53822e-06 6.1805e-05 5495.22 4.00389e+06
0.907013 6.88608 0.000550086 1.45731e-06 261388 6.87507 1.45498e-06 5.47875e-05 6952.74 4.7252e+06
0.958501 7.65606 0.000649185 1.37293e-06 308244 7.64452 1.37086e-06 4.85194e-05 8722.2 5.57646e+06
1.01291 8.53578 0.000766138 1.29702e-06 364396 8.52199 1.29492e-06 4.29272e-05 11010 6.58107e+06
1.07041 9.51526 0.00090416 1.22514e-06 429162 9.49815 1.22294e-06 3.79435e-05 13857 7.76667e+06
1.13118 10.5907 0.00106705 1.15545e-06 506358 10.5716 1.15336e-06 3.3507e-05 17461.1 9.16586e+06
1.19539 11.8258 0.00125928 1.09325e-06 598590 11.8042 1.09125e-06 2.9562e-05 22136.8 1.08171e+07
1.26325 13.1454 0.00148614 1.02973e-06 704844 13.1217 1.02787e-06 2.60578e-05 27853.5 1.27658e+07
1.33496 14.6279 0.00175387 9.70947e-07 834620 14.6003 9.69112e-07 2.29484e-05 35312.7 1.50656e+07
1.41075 16.2471 0.00206984 9.13797e-07 981444 16.2152 9.12001e-07 2.01923e-05 44415 1.77798e+07
1.49083 18.0388 0.00244272 8.59692e-07 1.15998e+06 18.004 8.58034e-07 1.77518e-05 56176 2.09828e+07
1.57546 19.9253 0.00288279 8.04643e-07 1.36931e+06 19.888 8.03135e-07 1.55929e-05 70660.9 2.4763e+07
1.66489 22.0744 0.00340213 7.55349e-07 1.61652e+06 22.033 7.53933e-07 1.3685e-05 89224.1 2.92241e+07
1.75941 24.3856 0.00401503 7.07058e-07 1.90601e+06 24.3386 7.05696e-07 1.20007e-05 112298 3.44889e+07
1.85928 26.945 0.00473835 6.62006e-07 2.24913e+06 26.8927 6.60719e-07 1.05151e-05 141600 4.07021e+07
1.96483 29.6081 0.00559198 6.16389e-07 2.65744e+06 29.5527 6.15237e-07 9.20606e-06 177928 4.80347e+07
2.07637 32.4743 0.00659939 5.72858e-07 3.13125e+06 32.4141 5.71795e-07 8.05366e-06 222726 5.66883e+07
2.19424 35.5269 0.00778828 5.31038e-07 3.69915e+06 35.4626 5.30077e-07 7.04008e-06 279029 6.69008e+07
2.3188 38.8635 0.00919136 4.92235e-07 4.36472e+06 38.7941 4.91355e-07 6.1494e-06 349379 7.89532e+07
2.45043 42.3312 0.0108472 4.5431e-07 5.14913e+06 42.2528 4.53469e-07 5.36741e-06 435835 9.31768e+07
2.58954 45.9985 0.0128014 4.18309e-07 6.07894e+06 45.917 4.17568e-07 4.68145e-06 543181 1.09963e+08
2.73654 49.9225 0.0151076 3.84691e-07 7.17304e+06 49.8343 3.84012e-07 4.08023e-06 676286 1.29773e+08
2.89188 54.0958 0.0178292 3.53217e-07 8.46557e+06 54.0004 3.52593e-07 3.55373e-06 841419 1.53152e+08
3.05605 58.4748 0.0210412 3.23525e-07 9.98773e+06 58.3748 3.22972e-07 3.09304e-06 1.0447e+06 1.80743e+08
3.22953 62.971 0.0248319 2.95217e-07 1.1797e+07 62.8636 2.94714e-07 2.69025e-06 1.29456e+06 2.13304e+08
3.41286 67.8927 0.0293054 2.69703e-07 1.39144e+07 67.7755 2.69237e-07 2.33837e-06 1.60486e+06 2.51731e+08
3.6066 72.9845 0.0345848 2.45672e-07 1.64163e+07 72.8628 2.45262e-07 2.0312e-06 1.98553e+06 2.97081e+08
3.81134 78.2523 0.0408154 2.23195e-07 1.93821e+07 78.1234 2.22827e-07 1.76327e-06 2.4534e+06 3.50601e+08
4.0277 83.7785 0.0481684 2.02479e-07 2.28754e+07 83.6392 2.02143e-07 1.52972e-06 3.02787e+06 4.13763e+08
4.25634 89.5485 0.056846 1.83387e-07 2.69929e+07 89.4001 1.83083e-07 1.32631e-06 3.73228e+06 4.88304e+08
4.49796 95.5991 0.067087 1.65892e-07 3.18542e+07 95.4389 1.65614e-07 1.14926e-06 4.59807e+06 5.76273e+08
4.7533 101.92 0.0791729 1.49862e-07 3.75892e+07 101.752 1.49615e-07 9.95263e-07 5.66002e+06 6.8009e+08
5.02313 108.549 0.0934361 1.35245e-07 4.43706e+07 108.372 1.35024e-07 8.61414e-07 6.96635e+06 8.0261e+08
5.30828 115.463 0.110269 1.21898e-07 5.23593e+07 115.273 1.21698e-07 7.45152e-07 8.56538e+06 9.47202e+08
5.60962 122.649 0.130134 1.0972e-07 6.1787e+07 122.449 1.0954e-07 6.44232e-07 1.0523e+07 1.11784e+09
5.92807 130.214 0.153578 9.87049e-08 7.29346e+07 130 9.85429e-08 5.56685e-07 1.29319e+07 1.31923e+09
6.26459 138.155 0.181246 8.87379e-08 8.60651e+07 137.927 8.85917e-08 4.80786e-07 1.58849e+07 1.55689e+09
6.62021 146.39 0.213898 7.96738e-08 1.01558e+08 146.149 7.95429e-08 4.15026e-07 1.94964e+07 1.83737e+09
6.99602 155.088 0.252432 7.15226e-08 1.1986e+08 154.834 7.14058e-08 3.58083e-07 2.39405e+07 2.16837e+09
7.39317 164.09 0.297908 6.41225e-08 1.41457e+08 163.823 6.40183e-08 3.08803e-07 2.93733e+07 2.55901e+09
7.81286 173.555 0.351577 5.74682e-08 1.66936e+08 173.271 5.73741e-08 2.66181e-07 3.60413e+07 3.02002e+09
8.25637 183.532 0.414914 5.14947e-08 1.97025e+08 183.232 5.14106e-08 2.29336e-07 4.42396e+07 3.56409e+09
8.72507 194.053 0.489662 4.61353e-08 2.32497e+08 193.733 4.60594e-08 1.97503e-07 5.43096e+07 4.20617e+09
9.22037 205.289 0.577876 4.13563e-08 2.74404e+08 204.947 4.12874e-08 1.70014e-07 6.67494e+07 4.96392e+09
9.74378 217.632 0.681982 3.71502e-08 3.2382e+08 217.262 3.70869e-08 1.46289e-07 8.22342e+07 5.85818e+09
10.2969 231.474 0.804843 3.34813e-08 3.82165e+08 231.063 3.34218e-08 1.25822e-07 1.01694e+08 6.91355e+09
10.8814 247.999 0.949838 3.03956e-08 4.51027e+08 247.527 3.03377e-08 1.08175e-07 1.26731e+08 8.15905e+09
11.4992 269.04 1.12095 2.79408e-08 5.32251e+08 268.472 2.78818e-08 9.29669e-08 1.59966e+08 9.62892e+09
12.1519 298.729 1.3229 2.62883e-08 6.28157e+08 297.982 2.62225e-08 7.98658e-08 2.06762e+08 1.13636e+10
12.8418 332.115 1.56122 2.47648e-08 3.82727e+08 343.752 2.56325e-08 6.85852e-08 1.38195e+08 1.34108e+10
13.5708 0 1.84248 0 0 0 0 5.88765e-08 0 1.58268e+10
14.3411 0 2.17441 0 0 0 0 5.05241e-08 0 1.8678e+10
15.1552 0 2.56613 0 0 0 0 4.33417e-08 0 2.20429e+10
16.0156 0 3.02843 0 0 0 0 3.71677e-08 0 2.6014e+10
16.9247 0 3.574 0 0 0 0 3.18628e-08 0 3.07005e+10
17.8855 0 4.21787 0 0 0 0 2.73063e-08 0 3.62312e+10
18.9008 0 4.97773 0 0 0 0 2.33941e-08 0 4.27584e+10
19.9738 0 5.87448 0 0 0 0 2.00364e-08 0 5.04614e+10
21.1076 0 6.93279 0 0 0 0 1.71555e-08 0 5.95522e+10
22.3058 0 8.18175 0 0 0 0 1.46847e-08 0 7.02807e+10
23.5721 0 9.65571 0 0 0 0 1.25662e-08 0 8.29419e+10
24.9102 0 11.3952 0 0 0 0 1.07504e-08 0 9.78842e+10
26.3243 0 13.4481 0 0 0 0 9.19452e-09 0 1.15518e+11
27.8187 0 15.8708 0 0 0 0 7.86182e-09 0 1.36329e+11
29.3979 0 18.73 0 0 0 0 6.72061e-09 0 1.60889e+11
31.0667 0 22.1042 0 0 0 0 5.74366e-09 0 1.89874e+11
32.8303 0 26.0864 0 0 0 0 4.90756e-09 0 2.2408e+11
34.694 0 30.7859 0 0 0 0 4.19221e-09 0 2.64449e+11
36.6634 0 36.3321 0 0 0 0 3.58032e-09 0 3.1209e+11
38.7447 0 42.8774 0 0 0 0 3.05709e-09 0 3.68314e+11
40.9442 0 50.6018 0 0 0 0 2.60976e-09 0 4.34667e+11
43.2685 0 59.7179 0 0 0 0 2.22743e-09 0 5.12973e+11
45.7247 0 70.4762 0 0 0 0 1.90073e-09 0 6.05386e+11
48.3204 0 83.1727 0 0 0 0 1.62163e-09 0 7.14448e+11
51.0634 0 98.1565 0 0 0 0 1.38326e-09 0 8.43158e+11
53.9621 0 115.84 0 0 0 0 1.1797e-09 0 9.95055e+11
57.0254 0 136.709 0 0 0 0 1.00592e-09 0 1.17432e+12
60.2626 0 161.337 0 0 0 0 8.57591e-10 0 1.38587e+12
63.6835 0 190.402 0 0 0 0 7.3101e-10 0 1.63554e+12
67.2987 0 224.704 0 0 0 0 6.23009e-10 0 1.93019e+12
71.1191 0 265.185 0 0 0 0 5.30879e-10 0 2.27792e+12
75.1563 0 312.958 0 0 0 0 4.52303e-10 0 2.68829e+12
79.4227 0 369.339 0 0 0 0 3.85299e-10 0 3.17259e+12
83.9313 0 435.876 0 0 0 0 3.28173e-10 0 3.74415e+12
88.6959 0 514.4 0 0 0 0 2.79476e-10 0 4.41866e+12
93.7309 0 607.071 0 0 0 0 2.37972e-10 0 5.2147e+12
99.0518 0 716.436 0 0 0 0 2.02605e-10 0 6.15414e+12
104.675 0 845.504 0 0 0 0 1.72471e-10 0 7.26283e+12
110.617 0 997.824 0 0 0 0 1.468e-10 0 8.57124e+12
116.896 0 1177.58 0 0 0 0 1.24935e-10 0 1.01154e+13
123.532 0 1389.73 0 0 0 0 1.06313e-10 0 1.19377e+13
130.545 0 1640.09 0 0 0 0 9.04567e-11 0 1.40883e+13
137.955 0 1935.56 0 0 0 0 7.69563e-11 0 1.66263e+13
145.787 0 2284.26 0 0 0 0 6.54636e-11 0 1.96216e+13
154.063 0 2695.77 0 0 0 0 5.56812e-11 0 2.31565e+13
162.808 0 3181.42 0 0 0 0 4.73556e-11 0 2.73282e+13
172.051 0 3754.56 0 0 0 0 4.02708e-11 0 3.22515e+13
181.818 0 4430.96 0 0 0 0 3.42426e-11 0 3.80616e+13
192.139 0 5229.21 0 0 0 0 2.91139e-11 0 4.49186e+13
203.046 0 6171.26 0 0 0 0 2.4751e-11 0 5.30108e+13
214.572 0 7283.03 0 0 0 0 2.10401e-11 0 6.25608e+13
226.753 0 8595.09 0 0 0 0 1.78839e-11 0 7.38313e+13
239.625 0 10143.5 0 0 0 0 1.51999e-11 0 8.71322e+13
253.228 0 11970.9 0 0 0 0 1.29176e-11 0 1.02829e+14
267.603 0 14127.5 0 0 0 0 1.09771e-11 0 1.21354e+14
282.795 0 16672.6 0 0 0 0 9.3274e-12 0 1.43217e+14
298.848 0 19676.2 0 0 0 0 7.925e-12 0 1.69017e+14
315.813 0 23220.9 0 0 0 0 6.73295e-12 0 1.99466e+14
333.741 0 27404.3 0 0 0 0 5.71979e-12 0 2.35401e+14
352.686 0 32341.2 0 0 0 0 4.85874e-12 0 2.77809e+14
372.707 0 38167.6 0 0 0 0 4.12703e-12 0 3.27857e+14
393.865 0 45043.5 0 0 0 0 3.50528e-12 0 3.86921e+14
416.224 0 53158.3 0 0 0 0 2.97701e-12 0 4.56626e+14
439.852 0 62734.9 0 0 0 0 2.52819e-12 0 5.38888e+14
464.821 0 74036.7 0 0 0 0 2.1469e-12 0 6.35971e+14
491.207 0 87374.6 0 0 0 0 1.82301e-12 0 7.50542e+14
519.092 0 103115 0 0 0 0 1.54789e-12 0 8.85755e+14
548.56 0 121692 0 0 0 0 1.31422e-12 0 1.04533e+15
579.7 0 143615 0 0 0 0 1.11576e-12 0 1.23364e+15
612.608 0 169488 0 0 0 0 9.47223e-13 0 1.45589e+15
647.384 0 200021 0 0 0 0 8.041e-13 0 1.71817e+15
684.134 0 236056 0 0 0 0 6.82568e-13 0 2.0277e+15
722.971 0 278582 0 0 0 0 5.79376e-13 0 2.393e+15
764.012 0 328769 0 0 0 0 4.91762e-13 0 2.8241e+15
