0.898553
200
1.0655e+09
8589934592
0.0129181 0 1.58924e-09 0 0 0 0 0.00677225 0 13.6515
0.0136515 0 1.87554e-09 0 0 0 0 0.00688819 0 16.1108
0.0144264 0 2.21343e-09 0 0 0 0 0.00699249 0 19.0132
0.0152454 0 2.61218e-09 0 0 0 0 0.00708412 0 22.4385
0.0161108 0 3.08278e-09 0 0 0 0 0.00716212 0 26.4808
0.0170254 0 3.63815e-09 0 0 0 0 0.00722559 0 31.2514
0.0179919 0 4.29357e-09 0 0 0 0 0.00727371 0 36.8815
0.0190132 0 5.06707e-09 0 0 0 0 0.00730578 0 43.5258
0.0200925 0 5.97991e-09 0 0 0 0 0.00732122 0 51.367
0.0212331 0 7.05721e-09 0 0 0 0 0.00731958 0 60.621
0.0224385 0 8.32858e-09 0 0 0 0 0.00730056 0 71.542
0.0237123 0 9.829e-09 0 0 0 0 0.00726401 0 84.4305
0.0250583 0 1.15997e-08 0 0 0 0 0.00720995 0 99.6408
0.0264808 0 1.36894e-08 0 0 0 0 0.00713857 0 117.591
0.0279841 0 1.61556e-08 0 0 0 0 0.00705021 0 138.776
0.0295727 0 1.90661e-08 0 0 0 0 0.00694538 0 163.777
0.0312514 0 2.25009e-08 0 0 0 0 0.00682475 0 193.281
0.0330255 0 2.65545e-08 0 0 0 0 0.00668915 0 228.102
0.0349003 0 3.13384e-08 0 0 0 0 0.00653951 0 269.195
0.0368815 0 3.69841e-08 0 0 0 0 0.00637693 0 317.691
0.0389751 0 4.36469e-08 0 0 0 0 0.00620256 0 374.924
0.0411876 0 5.151e-08 0 0 0 0 0.00601767 0 442.467
0.0435258 0 6.07896e-08 0 0 0 0 0.00582358 0 522.179
0.0459966 0 7.1741e-08 0 0 0 0 0.00562166 0 616.251
0.0486077 0 8.46654e-08 0 0 0 0 0.0054133 0 727.27
0.051367 0 9.99181e-08 0 0 0 0 0.00519989 0 858.29
0.054283 0 1.17919e-07 0 0 0 0 0.0049828 0 1012.91
0.0573645 0 1.39162e-07 0 0 0 0 0.00476339 0 1195.39
0.060621 0 1.64232e-07 0 0 0 0 0.00454293 0 1410.75
0.0640622 0 1.93819e-07 0 0 0 0 0.00432265 0 1664.89
0.0676989 0 2.28736e-07 0 0 0 0 0.00410371 0 1964.83
0.071542 0 2.69944e-07 0 0 0 0 0.00388717 0 2318.8
0.0756032 0 3.18575e-07 0 0 0 0 0.00367401 0 2736.54
0.079895 0 3.75967e-07 0 0 0 0 0.0034651 0 3229.53
0.0844305 0 4.43698e-07 0 0 0 0 0.00326121 0 3811.34
0.0892234 0 5.23632e-07 0 0 0 0 0.00306301 0 4497.96
0.0942883 0 6.17966e-07 0 0 0 0 0.00287109 0 5308.28
0.0996408 0 7.29294e-07 0 0 0 0 0.00268591 0 6264.59
0.105297 0 8.60678e-07 0 0 0 0 0.00250785 0 7393.17
0.111275 0 1.01573e-06 0 0 0 0 0.00233721 0 8725.07
0.117591 0 1.19872e-06 0 0 0 0 0.00217419 0 10296.9
0.124267 0 1.41467e-06 0 0 0 0 0.00201893 0 12151.9
0.131321 0 1.66953e-06 0 0 0 0 0.00187147 0 14341.1
0.138776 0 1.9703e-06 0 0 0 0 0.00173182 0 16924.7
0.146654 0 2.32525e-06 0 0 0 0 0.00159991 0 19973.8
0.154979 0 2.74415e-06 0 0 0 0 0.00147563 0 23572.1
0.163777 0 3.23852e-06 0 0 0 0 0.00135884 0 27818.7
0.173074 0 3.82195e-06 0 0 0 0 0.00124933 0 32830.3
0.182899 0 4.51048e-06 0 0 0 0 0.00114689 0 38744.7
0.193281 0 5.32305e-06 0 0 0 0 0.00105127 0 45724.7
0.204254 0 6.28202e-06 0 0 0 0 0.000962209 0 53962.1
0.215848 0 7.41374e-06 0 0 0 0 0.000879423 0 63683.5
0.228102 0 8.74934e-06 0 0 0 0 0.000802624 0 75156.3
0.24105 0 1.03256e-05 0 0 0 0 0.000731515 0 88695.9
0.254734 0 1.21857e-05 0 0 0 0 0.000665798 0 104675
0.269195 0 1.4381e-05 0 0 0 0 0.000605173 0 123532
0.284476 0 1.69718e-05 0 0 0 0 0.000549345 0 145787
0.300625 0 2.00293e-05 0 0 0 0 0.000498021 0 172051
0.317691 0 2.36377e-05 0 0 0 0 0.000450916 0 203046
0.335725 0 2.78961e-05 0 0 0 0 0.000407755 0 239625
0.354784 0 3.29216e-05 0 0 0 0 0.000368269 0 282795
0.374924 0 3.88525e-05 0 0 0 0 0.000332202 0 333741
0.396207 0.97037 4.58519e-05 2.46371e-06 6 0.943392 2.39522e-06 0.000299307 0.0493884 393865
0.418699 0 5.41123e-05 0 0 0 0 0.00026935 0 464821
0.442467 0 6.38607e-05 0 0 0 0 0.000242108 0 548560
0.467585 0 7.53654e-05 0 0 0 0 0.00021737 0 647384
0.494129 0 8.89427e-05 0 0 0 0 0.000194938 0 764012
0.522179 0 0.000104966 0 0 0 0 0.000174625 0 901651
0.551822 0 0.000123876 0 0 0 0 0.000156255 0 1.06409e+06
0.583147 3.57953 0.000146192 2.85044e-06 12 3.76747 3.0001e-06 0.000139664 0.244911 1.25578e+06
0.616251 0 0.000172529 0 0 0 0 0.0001247 0 1.48202e+06
0.651234 0 0.000203611 0 0 0 0 0.00011122 0 1.74901e+06
0.688203 11.8331 0.000240292 5.73285e-06 8 11.5387 5.59023e-06 9.90935e-05 0.462824 2.06409e+06
0.72727 0 0.000283581 0 0 0 0 8.81969e-05 0 2.43595e+06
0.768555 0 0.000334669 0 0 0 0 7.84179e-05 0 2.87479e+06
0.812184 11.8393 0.000394961 3.48966e-06 6 12.0924 3.56427e-06 6.96525e-05 0.300606 3.39269e+06
0.85829 0 0.000466114 0 0 0 0 6.1805e-05 0 4.00389e+06
0.907013 1.35069 0.000550086 2.85847e-07 24 1.3766 2.91332e-07 5.47875e-05 0.125217 4.7252e+06
0.958501 6.19431 0.000649185 1.1108e-06 24 5.83149 1.04573e-06 4.85194e-05 0.549453 5.57646e+06
1.01291 0 0.000766138 0 0 0 0 4.29272e-05 0 6.58107e+06
1.07041 0 0.00090416 0 0 0 0 3.79435e-05 0 7.76667e+06
1.13118 3.46841 0.00106705 3.78405e-07 12 3.4258 3.73757e-07 3.3507e-05 0.13552 9.16586e+06
1.19539 5.65278 0.00125928 5.22577e-07 30 5.53625 5.11804e-07 2.9562e-05 0.53032 1.08171e+07
1.26325 12.6333 0.00148614 9.89621e-07 24 12.4432 9.7473e-07 2.60578e-05 0.911469 1.27658e+07
1.33496 13.5987 0.00175387 9.02627e-07 24 13.6286 9.04611e-07 2.29484e-05 0.943988 1.50656e+07
1.41075 23.5272 0.00206984 1.32326e-06 32 23.8228 1.33988e-06 2.01923e-05 2.09705 1.77798e+07
1.49083 6.52936 0.00244272 3.11176e-07 48 6.39016 3.04542e-07 1.77518e-05 0.841408 2.09828e+07
1.57546 42.2358 0.00288279 1.7056e-06 6 40.218 1.62412e-06 1.55929e-05 0.656302 2.4763e+07
1.66489 6.00712 0.00340213 2.05554e-07 84 5.88687 2.01439e-07 1.3685e-05 1.26171 2.92241e+07
1.75941 7.49867 0.00401503 2.17423e-07 48 7.38847 2.14228e-07 1.20007e-05 0.869642 3.44889e+07
1.85928 6.80893 0.00473835 1.67287e-07 72 6.83959 1.6804e-07 1.05151e-05 1.14546 4.07021e+07
1.96483 16.5442 0.00559198 3.44421e-07 54 16.17 3.36631e-07 9.20606e-06 2.02027 4.80347e+07
2.07637 13.3452 0.00659939 2.35414e-07 104 13.4415 2.37113e-07 8.05366e-06 3.03999 5.66883e+07
2.19424 6.97856 0.00778828 1.04312e-07 120 7.0773 1.05788e-07 7.04008e-06 1.77803 6.69008e+07
2.3188 11.8509 0.00919136 1.501e-07 156 11.6275 1.4727e-07 6.1494e-06 3.8078 7.89532e+07
2.45043 15.7387 0.0108472 1.68913e-07 126 15.5646 1.67044e-07 5.36741e-06 3.96522 9.31768e+07
2.58954 10.8828 0.0128014 9.89675e-08 192 10.9472 9.95539e-08 4.68145e-06 4.05895 1.09963e+08
2.73654 30.3351 0.0151076 2.33755e-07 152 30.8202 2.37493e-07 4.08023e-06 8.70802 1.29773e+08
2.89188 15.7963 0.0178292 1.03141e-07 378 15.8823 1.03703e-07 3.55373e-06 10.9708 1.53152e+08
3.05605 15.2822 0.0210412 8.45524e-08 264 15.0171 8.30855e-08 3.09304e-06 7.21679 1.80743e+08
3.22953 17.5498 0.0248319 8.22761e-08 366 17.3849 8.15031e-08 2.69025e-06 11.1934 2.13304e+08
3.41286 16.2585 0.0293054 6.45869e-08 428 16.1279 6.40678e-08 2.33837e-06 11.8215 2.51731e+08
3.6066 22.3968 0.0345848 7.53895e-08 486 22.0834 7.43346e-08 2.0312e-06 18.0382 2.97081e+08
3.81134 21.7024 0.0408154 6.19004e-08 600 21.6405 6.17238e-08 1.76327e-06 21.0633 3.50601e+08
4.0277 26.7416 0.0481684 6.46302e-08 738 26.5876 6.42581e-08 1.52972e-06 31.1802 4.13763e+08
4.25634 26.5088 0.056846 5.42876e-08 824 26.385 5.40341e-08 1.32631e-06 33.7275 4.88304e+08
4.49796 28.0534 0.067087 4.86807e-08 954 27.8994 4.84136e-08 1.14926e-06 40.41 5.76273e+08
4.7533 26.945 0.0791729 3.96198e-08 1094 26.7716 3.93648e-08 9.95263e-07 43.5503 6.8009e+08
5.02313 31.3372 0.0934361 3.90441e-08 1332 31.4246 3.9153e-08 8.61414e-07 60.3737 8.0261e+08
5.30828 37.0909 0.110269 3.91584e-08 1614 37.083 3.915e-08 7.45152e-07 84.8171 9.47202e+08
5.60962 44.6516 0.130134 3.99444e-08 1850 44.7601 4.00415e-08 6.44232e-07 114.706 1.11784e+09
5.92807 36.8573 0.153578 2.79386e-08 2238 36.8279 2.79163e-08 5.56685e-07 112.319 1.31923e+09
6.26459 38.7328 0.181246 2.48783e-08 2546 38.7714 2.49031e-08 4.80786e-07 131.743 1.55689e+09
6.62021 42.946 0.213898 2.33737e-08 3264 43.0071 2.34069e-08 4.15026e-07 183.824 1.83737e+09
6.99602 45.6151 0.252432 2.10366e-08 3506 45.6616 2.1058e-08 3.58083e-07 205.97 2.16837e+09
7.39317 53.2807 0.297908 2.08208e-08 4506 53.2518 2.08095e-08 3.08803e-07 303.814 2.55901e+09
7.81286 56.0572 0.351577 1.85619e-08 5018 55.8313 1.84871e-08 2.66181e-07 349.925 3.02002e+09
8.25637 58.537 0.414914 1.64241e-08 5852 58.534 1.64233e-08 2.29336e-07 419.096 3.56409e+09
8.72507 60.4129 0.489662 1.43629e-08 7362 60.3332 1.4344e-08 1.97503e-07 535.383 4.20617e+09
9.22037 64.1774 0.577876 1.29288e-08 8306 64.033 1.28997e-08 1.70014e-07 631.632 4.96392e+09
9.74378 68.7845 0.681982 1.17416e-08 9698 68.6939 1.17261e-08 1.46289e-07 778.392 5.85818e+09
10.2969 72.1138 0.804843 1.04308e-08 11816 71.957 1.04081e-08 1.25822e-07 979.557 6.91355e+09
10.8814 82.4529 0.949838 1.01057e-08 13682 82.1876 1.00732e-08 1.08175e-07 1278.17 8.15905e+09
11.4992 84.2549 1.12095 8.75019e-09 16152 84.2276 8.74736e-09 9.29669e-08 1520.25 9.62892e+09
12.1519 88.9084 1.3229 7.82397e-09 19472 88.7237 7.80771e-09 7.98658e-08 1907.56 1.13636e+10
12.8418 92.1029 1.56122 6.86783e-09 22670 91.8219 6.84688e-09 6.85852e-08 2270.08 1.34108e+10
13.5708 98.8905 1.84248 6.24831e-09 26224 98.7246 6.23782e-09 5.88765e-08 2783.04 1.58268e+10
14.3411 106.159 2.17441 5.68366e-09 31640 106.086 5.67973e-09 5.05241e-08 3559.31 1.8678e+10
15.1552 112.172 2.56613 5.08882e-09 37484 111.948 5.07864e-09 4.33417e-08 4401.06 2.20429e+10
16.0156 119.253 3.02843 4.58419e-09 43856 119.113 4.57881e-09 3.71677e-08 5409.11 2.6014e+10
16.9247 124.562 3.574 4.05733e-09 51362 124.364 4.05089e-09 3.18628e-08 6540.31 3.07005e+10
17.8855 130.981 4.21787 3.61514e-09 61636 130.726 3.60809e-09 2.73063e-08 8160.12 3.62312e+10
18.9008 140.377 4.97773 3.28304e-09 72218 140.044 3.27524e-09 2.33941e-08 10134.8 4.27584e+10
19.9738 149.554 5.87448 2.96374e-09 84586 149.312 2.95894e-09 2.00364e-08 12511.8 5.04614e+10
21.1076 159.798 6.93279 2.68332e-09 100708 159.518 2.67862e-09 1.71555e-08 15751.9 5.95522e+10
22.3058 167.433 8.18175 2.38235e-09 118712 167.113 2.3778e-09 1.46847e-08 19259.1 7.02807e+10
23.5721 176.639 9.65571 2.12967e-09 140410 176.298 2.12556e-09 1.25662e-08 23796.3 8.29419e+10
24.9102 186.069 11.3952 1.90091e-09 164374 185.747 1.89762e-09 1.07504e-08 29065 9.78842e+10
26.3243 195.14 13.4481 1.68926e-09 194680 194.76 1.68597e-09 9.19452e-09 35767.5 1.15518e+11
27.8187 204.852 15.8708 1.50263e-09 230196 204.539 1.50033e-09 7.86182e-09 43997.3 1.36329e+11
29.3979 217.363 18.73 1.35101e-09 271156 217.019 1.34887e-09 6.72061e-09 54509.1 1.60889e+11
31.0667 229.032 22.1042 1.20623e-09 321076 228.632 1.20412e-09 5.74366e-09 67429.5 1.89874e+11
32.8303 242.04 26.0864 1.08015e-09 377436 241.543 1.07793e-09 4.90756e-09 83073.4 2.2408e+11
34.694 253.378 30.7859 9.58135e-10 447594 252.914 9.56381e-10 4.19221e-09 102298 2.64449e+11
36.6634 267.503 36.3321 8.57134e-10 525078 267.007 8.55544e-10 3.58032e-09 125704 3.1209e+11
38.7447 281.218 42.8774 7.63528e-10 621924 280.642 7.61963e-10 3.05709e-09 155330 3.68314e+11
40.9442 295.945 50.6018 6.80856e-10 732630 295.392 6.79582e-10 2.60976e-09 191135 4.34667e+11
43.2685 311.513 59.7179 6.07269e-10 865596 311.01 6.06289e-10 2.22743e-09 235989 5.12973e+11
45.7247 326.242 70.4762 5.38899e-10 1.02168e+06 325.698 5.38e-10 1.90073e-09 289667 6.05386e+11
48.3204 341.257 83.1727 4.77651e-10 1.20544e+06 340.616 4.76753e-10 1.62163e-09 355060 7.14448e+11
51.0634 358.809 98.1565 4.25554e-10 1.42103e+06 358.195 4.24825e-10 1.38326e-09 437175 8.43158e+11
53.9621 375.421 115.84 3.77287e-10 1.67997e+06 374.746 3.76609e-10 1.1797e-09 537279 9.95055e+11
57.0254 394.301 136.709 3.3577e-10 1.98018e+06 393.59 3.35165e-10 1.00592e-09 660973 1.17432e+12
60.2626 414.888 161.337 2.99369e-10 2.33957e+06 414.097 2.98799e-10 8.57591e-10 816700 1.38587e+12
63.6835 436.051 190.402 2.66609e-10 2.75676e+06 435.287 2.66142e-10 7.3101e-10 1.00543e+06 1.63554e+12
67.2987 458.903 224.704 2.3775e-10 3.25638e+06 458.12 2.37345e-10 6.23009e-10 1.24269e+06 1.93019e+12
71.1191 483.991 265.185 2.12471e-10 3.84387e+06 483.135 2.12095e-10 5.30879e-10 1.53841e+06 2.27792e+12
75.1563 510.05 312.958 1.8973e-10 4.53277e+06 509.132 1.89389e-10 4.52303e-10 1.90138e+06 2.68829e+12
79.4227 538.434 369.339 1.69714e-10 5.35083e+06 537.479 1.69413e-10 3.85299e-10 2.3569e+06 3.17259e+12
83.9313 571.135 435.876 1.52541e-10 6.32174e+06 570.061 1.52254e-10 3.28173e-10 2.93846e+06 3.74415e+12
88.6959 607.113 514.4 1.37397e-10 7.44986e+06 605.964 1.37137e-10 2.79476e-10 3.66253e+06 4.41866e+12
93.7309 647.092 607.071 1.2409e-10 8.79764e+06 645.847 1.23851e-10 2.37972e-10 4.5875e+06 5.2147e+12
99.0518 690.68 716.436 1.1223e-10 1.03827e+07 689.304 1.12007e-10 2.02605e-10 5.75135e+06 6.15414e+12
104.675 741.674 845.504 1.02119e-10 1.22515e+07 740.156 1.0191e-10 1.72471e-10 7.25407e+06 7.26283e+12
110.617 801.693 997.824 9.35328e-11 1.44573e+07 799.985 9.33336e-11 1.468e-10 9.2114e+06 8.57124e+12
116.896 871.37 1177.58 8.61431e-11 1.70664e+07 869.441 8.59524e-11 1.24935e-10 1.17674e+07 1.01154e+13
123.532 953.945 1389.73 7.99103e-11 2.0139e+07 951.698 7.97221e-11 1.06313e-10 1.51375e+07 1.19377e+13
130.545 1050.08 1640.09 7.45356e-11 2.37643e+07 1047.53 7.43549e-11 9.04567e-11 1.95816e+07 1.40883e+13
137.955 1163.3 1935.56 6.99673e-11 2.80503e+07 1160.38 6.97915e-11 7.69563e-11 2.55028e+07 1.66263e+13
145.787 1298.93 2284.26 6.6199e-11 3.30981e+07 1295.5 6.60241e-11 6.54636e-11 3.347e+07 1.96216e+13
154.063 1459.24 2695.77 6.30166e-11 3.90634e+07 1455.29 6.28456e-11 5.56812e-11 4.42096e+07 2.31565e+13
162.808 1650.83 3181.42 6.04074e-11 4.61057e+07 1646.19 6.02378e-11 4.73556e-11 5.88129e+07 2.73282e+13
172.051 1878.59 3754.56 5.82481e-11 5.44046e+07 1873.14 5.80793e-11 4.02708e-11 7.86913e+07 3.22515e+13
181.818 2150.52 4430.96 5.65009e-11 6.42064e+07 2144.16 5.63338e-11 3.42426e-11 1.05942e+08 3.80616e+13
192.139 2475.03 5229.21 5.51003e-11 7.57748e+07 2467.54 5.49335e-11 2.91139e-11 1.4341e+08 4.49186e+13
203.046 2861.62 6171.26 5.39818e-11 8.94213e+07 2852.77 5.38149e-11 2.4751e-11 1.95027e+08 5.30108e+13
214.572 3324.82 7283.03 5.31455e-11 1.05538e+08 3314.36 5.29782e-11 2.10401e-11 2.66581e+08 6.25608e+13
226.753 3882.57 8595.09 5.2587e-11 1.24552e+08 3870.08 5.24179e-11 1.78839e-11 3.6624e+08 7.38313e+13
239.625 4549.88 10143.5 5.22181e-11 1.46987e+08 4534.98 5.20471e-11 1.51999e-11 5.04963e+08 8.71322e+13
253.228 5355.24 11970.9 5.20789e-11 1.7347e+08 5337.42 5.19056e-11 1.29176e-11 6.99365e+08 1.02829e+14
267.603 6329.73 14127.5 5.21591e-11 2.04703e+08 6308.25 5.19821e-11 1.09771e-11 9.72669e+08 1.21354e+14
282.795 7514.44 16672.6 5.24691e-11 2.4161e+08 7488.47 5.22877e-11 9.3274e-12 1.35912e+09 1.43217e+14
298.848 8971.58 19676.2 5.30808e-11 2.85122e+08 8939.8 5.28928e-11 7.925e-12 1.90972e+09 1.69017e+14
315.813 10781.6 23220.9 5.40523e-11 3.36491e+08 10742.2 5.38548e-11 6.73295e-12 2.70136e+09 1.99466e+14
333.741 13070.1 27404.3 5.55229e-11 3.97115e+08 13020.7 5.53129e-11 5.71979e-12 3.85486e+09 2.35401e+14
352.686 16033.2 32341.2 5.77129e-11 4.68637e+08 15969.5 5.74839e-11 4.85874e-12 5.56655e+09 2.77809e+14
372.707 19973.7 38167.6 6.0922e-11 5.53074e+08 19889.6 6.06657e-11 4.12703e-12 8.16432e+09 3.27857e+14
393.865 25424.3 45043.5 6.57094e-11 6.52716e+08 25308.6 6.54103e-11 3.50528e-12 1.22357e+10 3.86921e+14
416.224 30017.2 53158.3 6.5737e-11 2.2184e+08 31755.4 6.95435e-11 2.97701e-12 4.89857e+09 4.56626e+14
439.852 0 62734.9 0 0 0 0 2.52819e-12 0 5.38888e+14
464.821 0 74036.7 0 0 0 0 2.1469e-12 0 6.35971e+14
491.207 0 87374.6 0 0 0 0 1.82301e-12 0 7.50542e+14
519.092 0 103115 0 0 0 0 1.54789e-12 0 8.85755e+14
548.56 0 121692 0 0 0 0 1.31422e-12 0 1.04533e+15
579.7 0 143615 0 0 0 0 1.11576e-12 0 1.23364e+15
612.608 0 169488 0 0 0 0 9.47223e-13 0 1.45589e+15
647.384 0 200021 0 0 0 0 8.041e-13 0 1.71817e+15
684.134 0 236056 0 0 0 0 6.82568e-13 0 2.0277e+15
722.971 0 278582 0 0 0 0 5.79376e-13 0 2.393e+15
764.012 0 328769 0 0 0 0 4.91762e-13 0 2.8241e+15
0.898553
200
1.0655e+09
8589934592
0.0129181 0.00137298 1.58924e-09 0.000100574 6 0.00136041 9.9653e-05 0.00677225 0.0891051 13.6515
0.0136515 0 1.87554e-09 0 0 0 0 0.00688819 0 16.1108
0.0144264 0 2.21343e-09 0 0 0 0 0.00699249 0 19.0132
0.0152454 0 2.61218e-09 0 0 0 0 0.00708412 0 22.4385
0.0161108 0 3.08278e-09 0 0 0 0 0.00716212 0 26.4808
0.0170254 0 3.63815e-09 0 0 0 0 0.00722559 0 31.2514
0.0179919 0.00397784 4.29357e-09 0.000107855 12 0.00397271 0.000107716 0.00727371 0.177936 36.8815
0.0190132 0 5.06707e-09 0 0 0 0 0.00730578 0 43.5258
0.0200925 0 5.97991e-09 0 0 0 0 0.00732122 0 51.367
0.0212331 0.00902731 7.05721e-09 0.000148914 8 0.00901945 0.000148784 0.00731958 0.162757 60.621
0.0224385 0 8.32858e-09 0 0 0 0 0.00730056 0 71.542
0.0237123 0 9.829e-09 0 0 0 0 0.00726401 0 84.4305
0.0250583 0.014902 1.15997e-08 0.000149557 6 0.0148949 0.000149486 0.00720995 0.124459 99.6408
0.0264808 0 1.36894e-08 0 0 0 0 0.00713857 0 117.591
0.0279841 0.0220331 1.61556e-08 0.000158768 24 0.0220105 0.000158605 0.00705021 0.540471 138.776
0.0295727 0 1.90661e-08 0 0 0 0 0.00694538 0 163.777
0.0312514 0.0282126 2.25009e-08 0.000145967 24 0.0283559 0.000146708 0.00682475 0.513308 193.281
0.0330255 0 2.65545e-08 0 0 0 0 0.00668915 0 228.102
0.0349003 0.036089 3.13384e-08 0.000134063 12 0.0358 0.000132989 0.00653951 0.246005 269.195
0.0368815 0.0506678 3.69841e-08 0.000159488 30 0.0501282 0.000157789 0.00637693 0.750303 317.691
0.0389751 0.0401316 4.36469e-08 0.000107039 24 0.0397188 0.000105938 0.00620256 0.414175 374.924
0.0411876 0.0496287 5.151e-08 0.000112164 24 0.0492916 0.000111402 0.00601767 0.447337 442.467
0.0435258 0.0364101 6.07896e-08 6.97272e-05 8 0.0364073 6.97218e-05 0.00582358 0.095786 522.179
0.0459966 0.0606356 7.1741e-08 9.83943e-05 72 0.060285 9.78254e-05 0.00562166 1.26019 616.251
0.0486077 0 8.46654e-08 0 0 0 0 0.0054133 0 727.27
0.051367 0.103023 9.99181e-08 0.000120033 54 0.102794 0.000119766 0.00519989 1.24652 858.29
0.054283 0.0821431 1.17919e-07 8.10959e-05 60 0.0826577 8.1604e-05 0.0049828 0.976509 1012.91
0.0573645 0.0999408 1.39162e-07 8.3605e-05 96 0.0995385 8.32685e-05 0.00476339 1.68495 1195.39
0.060621 0.106855 1.64232e-07 7.57437e-05 24 0.105407 7.47175e-05 0.00454293 0.400149 1410.75
0.0640622 0.110955 1.93819e-07 6.66436e-05 134 0.110624 6.64452e-05 0.00432265 2.06592 1664.89
0.0676989 0.136482 2.28736e-07 6.94627e-05 120 0.135707 6.90681e-05 0.00410371 2.03122 1964.83
0.071542 0.142437 2.69944e-07 6.14269e-05 108 0.140032 6.03898e-05 0.00388717 1.70667 2318.8
0.0756032 0.180574 3.18575e-07 6.59863e-05 174 0.179063 6.5434e-05 0.00367401 3.12509 2736.54
0.079895 0.204569 3.75967e-07 6.33433e-05 168 0.202591 6.27308e-05 0.0034651 3.07111 3229.53
0.0844305 0.225292 4.43698e-07 5.91108e-05 168 0.226109 5.93252e-05 0.00326121 3.04508 3811.34
0.0892234 0.236145 5.23632e-07 5.25005e-05 290 0.235468 5.23499e-05 0.00306301 4.97065 4497.96
0.0942883 0.228888 6.17966e-07 4.31189e-05 288 0.228611 4.30668e-05 0.00287109 4.32528 5308.28
0.0996408 0.22782 7.29294e-07 3.63663e-05 366 0.226457 3.61488e-05 0.00268591 4.95552 6264.59
0.105297 0.311674 8.60678e-07 4.21571e-05 420 0.310109 4.19454e-05 0.00250785 7.06021 7393.17
0.111275 0.288079 1.01573e-06 3.30174e-05 398 0.287958 3.30036e-05 0.00233721 5.62247 8725.07
0.117591 0.375732 1.19872e-06 3.64898e-05 624 0.376301 3.6545e-05 0.00217419 10.4727 10296.9
0.124267 0.3645 1.41467e-06 2.99952e-05 642 0.364359 2.99836e-05 0.00201893 9.53821 12151.9
0.131321 0.440495 1.66953e-06 3.07155e-05 800 0.440645 3.07259e-05 0.00187147 13.13 14341.1
0.138776 0.455175 1.9703e-06 2.68941e-05 858 0.456225 2.69561e-05 0.00173182 13.3242 16924.7
0.146654 0.48913 2.32525e-06 2.44886e-05 1080 0.493426 2.47037e-05 0.00159991 16.5308 19973.8
0.154979 0.522586 2.74415e-06 2.21697e-05 1286 0.526019 2.23153e-05 0.00147563 19.3207 23572.1
0.163777 0.648119 3.23852e-06 2.3298e-05 1650 0.648846 2.33241e-05 0.00135884 28.2901 27818.7
0.173074 0.681705 3.82195e-06 2.07645e-05 1778 0.683542 2.08205e-05 0.00124933 29.5513 32830.3
0.182899 0.74397 4.51048e-06 1.92018e-05 2112 0.744627 1.92188e-05 0.00114689 35.3602 38744.7
0.193281 0.805084 5.32305e-06 1.76072e-05 2570 0.806521 1.76386e-05 0.00105127 43.0436 45724.7
0.204254 0.882071 6.28202e-06 1.63461e-05 3030 0.881313 1.63321e-05 0.000962209 51.474 53962.1
0.215848 0.982031 7.41374e-06 1.54205e-05 3434 0.981243 1.54081e-05 0.000879423 60.2144 63683.5
0.228102 1.03767 8.74934e-06 1.38068e-05 4218 1.03682 1.37955e-05 0.000802624 72.5584 75156.3
0.24105 1.13023 1.03256e-05 1.27427e-05 4766 1.13108 1.27523e-05 0.000731515 83.0221 88695.9
0.254734 1.19508 1.21857e-05 1.14171e-05 6026 1.19482 1.14146e-05 0.000665798 103.333 104675
0.269195 1.34027 1.4381e-05 1.08496e-05 6480 1.33983 1.0846e-05 0.000605173 116.174 123532
0.284476 1.54495 1.69718e-05 1.05973e-05 8162 1.54748 1.06146e-05 0.000549345 157.451 145787
0.300625 1.62526 2.00293e-05 9.44638e-06 9578 1.62547 9.44763e-06 0.000498021 181.674 172051
0.317691 1.83926 2.36377e-05 9.05835e-06 11234 1.83755 9.04991e-06 0.000450916 225.677 203046
0.335725 1.99941 2.78961e-05 8.34391e-06 13344 1.99725 8.33487e-06 0.000407755 273.059 239625
0.354784 2.1872 3.29216e-05 7.73424e-06 15464 2.18389 7.72253e-06 0.000368269 324.769 282795
0.374924 2.48179 3.88525e-05 7.43629e-06 18458 2.48055 7.43257e-06 0.000332202 413.18 333741
0.396207 2.77471 4.58519e-05 7.04484e-06 22232 2.77028 7.03359e-06 0.000299307 523.278 393865
0.418699 3.02885 5.41123e-05 6.51616e-06 25628 3.0213 6.49993e-06 0.00026935 619.997 464821
0.442467 3.40799 6.38607e-05 6.21261e-06 30320 3.4004 6.19878e-06 0.000242108 778.027 548560
0.467585 3.79682 7.53654e-05 5.86486e-06 35452 3.78971 5.85388e-06 0.00021737 956.53 647384
0.494129 4.21248 8.89427e-05 5.51364e-06 41792 4.20957 5.50983e-06 0.000194938 1182.05 764012
0.522179 4.69055 0.000104966 5.20218e-06 49988 4.68854 5.19995e-06 0.000174625 1489.17 901651
0.551822 5.26419 0.000123876 4.94715e-06 59110 5.25745 4.94081e-06 0.000156255 1871.47 1.06409e+06
0.583147 5.78008 0.000146192 4.60276e-06 69716 5.77057 4.5952e-06 0.000139664 2297.56 1.25578e+06
0.616251 6.53064 0.000172529 4.40659e-06 82210 6.51521 4.39618e-06 0.0001247 2905.1 1.48202e+06
0.651234 7.38728 0.000203611 4.2237e-06 96722 7.3703 4.214e-06 0.00011122 3673.11 1.74901e+06
0.688203 8.15837 0.000240292 3.95252e-06 113098 8.14459 3.94585e-06 9.90935e-05 4511.12 2.06409e+06
0.72727 9.18233 0.000283581 3.76951e-06 135190 9.16926 3.76415e-06 8.81969e-05 5777.99 2.43595e+06
0.768555 10.2645 0.000334669 3.57051e-06 158170 10.2465 3.56426e-06 7.84179e-05 7201.76 2.87479e+06
0.812184 11.3609 0.000394961 3.34865e-06 188560 11.3442 3.34372e-06 6.96525e-05 9065.3 3.39269e+06
0.85829 12.8643 0.000466114 3.21296e-06 220444 12.8428 3.20759e-06 6.1805e-05 11459.9 4.00389e+06
0.907013 14.3041 0.000550086 3.02719e-06 261388 14.2808 3.02226e-06 5.47875e-05 14442.6 4.7252e+06
0.958501 16.0588 0.000649185 2.87976e-06 308244 16.0355 2.87557e-06 4.85194e-05 18295.1 5.57646e+06
1.01291 17.9991 0.000766138 2.73498e-06 364396 17.9679 2.73024e-06 4.29272e-05 23216.4 6.58107e+06
1.07041 20.1087 0.00090416 2.5891e-06 429162 20.0707 2.58421e-06 3.79435e-05 29284.1 7.76667e+06
1.13118 22.434 0.00106705 2.44757e-06 506358 22.3952 2.44333e-06 3.3507e-05 36987.6 9.16586e+06
1.19539 25.012 0.00125928 2.31226e-06 598590 24.9661 2.30802e-06 2.9562e-05 46820 1.08171e+07
1.26325 27.6343 0.00148614 2.16471e-06 704844 27.5858 2.1609e-06 2.60578e-05 58553.7 1.27658e+07
1.33496 30.8255 0.00175387 2.04608e-06 834620 30.7687 2.04231e-06 2.29484e-05 74414.5 1.50656e+07
1.41075 34.1214 0.00206984 1.91911e-06 981444 34.0548 1.91537e-06 2.01923e-05 93278.2 1.77798e+07
1.49083 37.7777 0.00244272 1.80041e-06 1.15998e+06 37.709 1.79714e-06 1.77518e-05 117647 2.09828e+07
1.57546 41.614 0.00288279 1.6805e-06 1.36931e+06 41.5349 1.6773e-06 1.55929e-05 147575 2.4763e+07
1.66489 45.8759 0.00340213 1.5698e-06 1.61652e+06 45.7906 1.56688e-06 1.3685e-05 185429 2.92241e+07
1.75941 50.3854 0.00401503 1.46092e-06 1.90601e+06 50.2909 1.45818e-06 1.20007e-05 232030 3.44889e+07
1.85928 55.1802 0.00473835 1.35571e-06 2.24913e+06 55.0789 1.35322e-06 1.05151e-05 289979 4.07021e+07
1.96483 60.3874 0.00559198 1.25716e-06 2.65744e+06 60.2743 1.25481e-06 9.20606e-06 362895 4.80347e+07
2.07637 65.9028 0.00659939 1.16255e-06 3.13125e+06 65.7843 1.16046e-06 8.05366e-06 451996 5.66883e+07
2.19424 71.7681 0.00778828 1.07275e-06 3.69915e+06 71.6425 1.07088e-06 7.04008e-06 563669 6.69008e+07
2.3188 78.0343 0.00919136 9.88361e-07 4.36472e+06 77.8961 9.86611e-07 6.1494e-06 701519 7.89532e+07
2.45043 84.7416 0.0108472 9.09471e-07 5.14913e+06 84.5937 9.07883e-07 5.36741e-06 872485 9.31768e+07
2.58954 91.8161 0.0128014 8.34973e-07 6.07894e+06 91.6554 8.33512e-07 4.68145e-06 1.08423e+06 1.09963e+08
2.73654 99.2108 0.0151076 7.64495e-07 7.17304e+06 99.0413 7.63189e-07 4.08023e-06 1.34398e+06 1.29773e+08
2.89188 107.122 0.0178292 6.99451e-07 8.46557e+06 106.938 6.98247e-07 3.55373e-06 1.66621e+06 1.53152e+08
3.05605 115.515 0.0210412 6.39114e-07 9.98773e+06 115.327 6.38075e-07 3.09304e-06 2.06376e+06 1.80743e+08
3.22953 124.303 0.0248319 5.82752e-07 1.1797e+07 124.095 5.81776e-07 2.69025e-06 2.55542e+06 2.13304e+08
3.41286 133.536 0.0293054 5.30471e-07 1.39144e+07 133.308 5.29564e-07 2.33837e-06 3.15654e+06 2.51731e+08
3.6066 143.355 0.0345848 4.82545e-07 1.64163e+07 143.119 4.8175e-07 2.0312e-06 3.89996e+06 2.97081e+08
3.81134 153.588 0.0408154 4.38069e-07 1.93821e+07 153.337 4.37353e-07 1.76327e-06 4.81534e+06 3.50601e+08
4.0277 164.334 0.0481684 3.9717e-07 2.28754e+07 164.064 3.96517e-07 1.52972e-06 5.93926e+06 4.13763e+08
4.25634 175.749 0.056846 3.59918e-07 2.69929e+07 175.46 3.59326e-07 1.32631e-06 7.32503e+06 4.88304e+08
4.49796 187.677 0.067087 3.25674e-07 3.18542e+07 187.363 3.25129e-07 1.14926e-06 9.02677e+06 5.76273e+08
4.7533 200.184 0.0791729 2.94349e-07 3.75892e+07 199.853 2.93863e-07 9.95263e-07 1.1117e+07 6.8009e+08
5.02313 213.438 0.0934361 2.6593e-07 4.43706e+07 213.087 2.65493e-07 8.61414e-07 1.36978e+07 8.0261e+08
5.30828 227.32 0.110269 2.39991e-07 5.23593e+07 226.942 2.39592e-07 7.45152e-07 1.68634e+07 9.47202e+08
5.60962 241.91 0.130134 2.16408e-07 6.1787e+07 241.512 2.16052e-07 6.44232e-07 2.07552e+07 1.11784e+09
5.92807 257.162 0.153578 1.94934e-07 7.29346e+07 256.736 1.94611e-07 5.56685e-07 2.55394e+07 1.31923e+09
6.26459 273.143 0.181246 1.75442e-07 8.60651e+07 272.689 1.7515e-07 4.80786e-07 3.14057e+07 1.55689e+09
6.62021 289.862 0.213898 1.5776e-07 1.01558e+08 289.377 1.57496e-07 4.15026e-07 3.86043e+07 1.83737e+09
6.99602 307.47 0.252432 1.41797e-07 1.1986e+08 306.963 1.41564e-07 3.58083e-07 4.74634e+07 2.16837e+09
7.39317 325.858 0.297908 1.27337e-07 1.41457e+08 325.321 1.27128e-07 3.08803e-07 5.83307e+07 2.55901e+09
7.81286 345.123 0.351577 1.14278e-07 1.66936e+08 344.554 1.1409e-07 2.66181e-07 7.16697e+07 3.02002e+09
8.25637 365.136 0.414914 1.02449e-07 1.97025e+08 364.536 1.0228e-07 2.29336e-07 8.80147e+07 3.56409e+09
8.72507 386.394 0.489662 9.18636e-08 2.32497e+08 385.753 9.17112e-08 1.97503e-07 1.0814e+08 4.20617e+09
9.22037 409.206 0.577876 8.24361e-08 2.74404e+08 408.521 8.2298e-08 1.70014e-07 1.33053e+08 4.96392e+09
9.74378 433.906 0.681982 7.40683e-08 3.2382e+08 433.163 7.39416e-08 1.46289e-07 1.63955e+08 5.85818e+09
10.2969 461.719 0.804843 6.67846e-08 3.82165e+08 460.898 6.66659e-08 1.25822e-07 2.02847e+08 6.91355e+09
10.8814 494.841 0.949838 6.06493e-08 4.51027e+08 493.903 6.05344e-08 1.08175e-07 2.52871e+08 8.15905e+09
11.4992 537.115 1.12095 5.57815e-08 5.32251e+08 535.975 5.56631e-08 9.29669e-08 3.19358e+08 9.62892e+09
12.1519 596.383 1.3229 5.24819e-08 6.28157e+08 594.894 5.23509e-08 7.98658e-08 4.12779e+08 1.13636e+10
12.8418 662.944 1.56122 4.94337e-08 3.82727e+08 686.169 5.11655e-08 6.85852e-08 2.75855e+08 1.34108e+10
13.5708 0 1.84248 0 0 0 0 5.88765e-08 0 1.58268e+10
14.3411 0 2.17441 0 0 0 0 5.05241e-08 0 1.8678e+10
15.1552 0 2.56613 0 0 0 0 4.33417e-08 0 2.20429e+10
16.0156 0 3.02843 0 0 0 0 3.71677e-08 0 2.6014e+10
16.9247 0 3.574 0 0 0 0 3.18628e-08 0 3.07005e+10
17.8855 0 4.21787 0 0 0 0 2.73063e-08 0 3.62312e+10
18.9008 0 4.97773 0 0 0 0 2.33941e-08 0 4.27584e+10
19.9738 0 5.87448 0 0 0 0 2.00364e-08 0 5.04614e+10
21.1076 0 6.93279 0 0 0 0 1.71555e-08 0 5.95522e+10
22.3058 0 8.18175 0 0 0 0 1.46847e-08 0 7.02807e+10
23.5721 0 9.65571 0 0 0 0 1.25662e-08 0 8.29419e+10
24.9102 0 11.3952 0 0 0 0 1.07504e-08 0 9.78842e+10
26.3243 0 13.4481 0 0 0 0 9.19452e-09 0 1.15518e+11
27.8187 0 15.8708 0 0 0 0 7.86182e-09 0 1.36329e+11
29.3979 0 18.73 0 0 0 0 6.72061e-09 0 1.60889e+11
31.0667 0 22.1042 0 0 0 0 5.74366e-09 0 1.89874e+11
32.8303 0 26.0864 0 0 0 0 4.90756e-09 0 2.2408e+11
34.694 0 30.7859 0 0 0 0 4.19221e-09 0 2.64449e+11
36.6634 0 36.3321 0 0 0 0 3.58032e-09 0 3.1209e+11
38.7447 0 42.8774 0 0 0 0 3.05709e-09 0 3.68314e+11
40.9442 0 50.6018 0 0 0 0 2.60976e-09 0 4.34667e+11
43.2685 0 59.7179 0 0 0 0 2.22743e-09 0 5.12973e+11
45.7247 0 70.4762 0 0 0 0 1.90073e-09 0 6.05386e+11
48.3204 0 83.1727 0 0 0 0 1.62163e-09 0 7.14448e+11
51.0634 0 98.1565 0 0 0 0 1.38326e-09 0 8.43158e+11
53.9621 0 115.84 0 0 0 0 1.1797e-09 0 9.95055e+11
57.0254 0 136.709 0 0 0 0 1.00592e-09 0 1.17432e+12
60.2626 0 161.337 0 0 0 0 8.57591e-10 0 1.38587e+12
63.6835 0 190.402 0 0 0 0 7.3101e-10 0 1.63554e+12
67.2987 0 224.704 0 0 0 0 6.23009e-10 0 1.93019e+12
71.1191 0 265.185 0 0 0 0 5.30879e-10 0 2.27792e+12
75.1563 0 312.958 0 0 0 0 4.52303e-10 0 2.68829e+12
79.4227 0 369.339 0 0 0 0 3.85299e-10 0 3.17259e+12
83.9313 0 435.876 0 0 0 0 3.28173e-10 0 3.74415e+12
88.6959 0 514.4 0 0 0 0 2.79476e-10 0 4.41866e+12
93.7309 0 607.071 0 0 0 0 2.37972e-10 0 5.2147e+12
99.0518 0 716.436 0 0 0 0 2.02605e-10 0 6.15414e+12
104.675 0 845.504 0 0 0 0 1.72471e-10 0 7.26283e+12
110.617 0 997.824 0 0 0 0 1.468e-10 0 8.57124e+12
116.896 0 1177.58 0 0 0 0 1.24935e-10 0 1.01154e+13
123.532 0 1389.73 0 0 0 0 1.06313e-10 0 1.19377e+13
130.545 0 1640.09 0 0 0 0 9.04567e-11 0 1.40883e+13
137.955 0 1935.56 0 0 0 0 7.69563e-11 0 1.66263e+13
145.787 0 2284.26 0 0 0 0 6.54636e-11 0 1.96216e+13
154.063 0 2695.77 0 0 0 0 5.56812e-11 0 2.31565e+13
162.808 0 3181.42 0 0 0 0 4.73556e-11 0 2.73282e+13
172.051 0 3754.56 0 0 0 0 4.02708e-11 0 3.22515e+13
181.818 0 4430.96 0 0 0 0 3.42426e-11 0 3.80616e+13
192.139 0 5229.21 0 0 0 0 2.91139e-11 0 4.49186e+13
203.046 0 6171.26 0 0 0 0 2.4751e-11 0 5.30108e+13
214.572 0 7283.03 0 0 0 0 2.10401e-11 0 6.25608e+13
226.753 0 8595.09 0 0 0 0 1.78839e-11 0 7.38313e+13
239.625 0 10143.5 0 0 0 0 1.51999e-11 0 8.71322e+13
253.228 0 11970.9 0 0 0 0 1.29176e-11 0 1.02829e+14
267.603 0 14127.5 0 0 0 0 1.09771e-11 0 1.21354e+14
282.795 0 16672.6 0 0 0 0 9.3274e-12 0 1.43217e+14
298.848 0 19676.2 0 0 0 0 7.925e-12 0 1.69017e+14
315.813 0 23220.9 0 0 0 0 6.73295e-12 0 1.99466e+14
333.741 0 27404.3 0 0 0 0 5.71979e-12 0 2.35401e+14
352.686 0 32341.2 0 0 0 0 4.85874e-12 0 2.77809e+14
372.707 0 38167.6 0 0 0 0 4.12703e-12 0 3.27857e+14
393.865 0 45043.5 0 0 0 0 3.50528e-12 0 3.86921e+14
416.224 0 53158.3 0 0 0 0 2.97701e-12 0 4.56626e+14
439.852 0 62734.9 0 0 0 0 2.52819e-12 0 5.38888e+14
464.821 0 74036.7 0 0 0 0 2.1469e-12 0 6.35971e+14
491.207 0 87374.6 0 0 0 0 1.82301e-12 0 7.50542e+14
519.092 0 103115 0 0 0 0 1.54789e-12 0 8.85755e+14
548.56 0 121692 0 0 0 0 1.31422e-12 0 1.04533e+15
579.7 0 143615 0 0 0 0 1.11576e-12 0 1.23364e+15
612.608 0 169488 0 0 0 0 9.47223e-13 0 1.45589e+15
647.384 0 200021 0 0 0 0 8.041e-13 0 1.71817e+15
684.134 0 236056 0 0 0 0 6.82568e-13 0 2.0277e+15
722.971 0 278582 0 0 0 0 5.79376e-13 0 2.393e+15
764.012 0 328769 0 0 0 0 4.91762e-13 0 2.8241e+15
