0.327739
200
1.0655e+09
8589934592
0.0129181 0 1.58924e-09 0 0 0 0 0.00677225 0 13.6515
0.0136515 0 1.87554e-09 0 0 0 0 0.00688819 0 16.1108
0.0144264 0 2.21343e-09 0 0 0 0 0.00699249 0 19.0132
0.0152454 0 2.61218e-09 0 0 0 0 0.00708412 0 22.4385
0.0161108 0 3.08278e-09 0 0 0 0 0.00716212 0 26.4808
0.0170254 0 3.63815e-09 0 0 0 0 0.00722559 0 31.2514
0.0179919 0 4.29357e-09 0 0 0 0 0.00727371 0 36.8815
0.0190132 0 5.06707e-09 0 0 0 0 0.00730578 0 43.5258
0.0200925 0 5.97991e-09 0 0 0 0 0.00732122 0 51.367
0.0212331 0 7.05721e-09 0 0 0 0 0.00731958 0 60.621
0.0224385 0 8.32858e-09 0 0 0 0 0.00730056 0 71.542
0.0237123 0 9.829e-09 0 0 0 0 0.00726401 0 84.4305
0.0250583 0 1.15997e-08 0 0 0 0 0.00720995 0 99.6408
0.0264808 0 1.36894e-08 0 0 0 0 0.00713857 0 117.591
0.0279841 0 1.61556e-08 0 0 0 0 0.00705021 0 138.776
0.0295727 0 1.90661e-08 0 0 0 0 0.00694538 0 163.777
0.0312514 0 2.25009e-08 0 0 0 0 0.00682475 0 193.281
0.0330255 0 2.65545e-08 0 0 0 0 0.00668915 0 228.102
0.0349003 0 3.13384e-08 0 0 0 0 0.00653951 0 269.195
0.0368815 0 3.69841e-08 0 0 0 0 0.00637693 0 317.691
0.0389751 0 4.36469e-08 0 0 0 0 0.00620256 0 374.924
0.0411876 0 5.151e-08 0 0 0 0 0.00601767 0 442.467
0.0435258 0 6.07896e-08 0 0 0 0 0.00582358 0 522.179
0.0459966 0 7.1741e-08 0 0 0 0 0.00562166 0 616.251
0.0486077 0 8.46654e-08 0 0 0 0 0.0054133 0 727.27
0.051367 0 9.99181e-08 0 0 0 0 0.00519989 0 858.29
0.054283 0 1.17919e-07 0 0 0 0 0.0049828 0 1012.91
0.0573645 0 1.39162e-07 0 0 0 0 0.00476339 0 1195.39
0.060621 0 1.64232e-07 0 0 0 0 0.00454293 0 1410.75
0.0640622 0 1.93819e-07 0 0 0 0 0.00432265 0 1664.89
0.0676989 0 2.28736e-07 0 0 0 0 0.00410371 0 1964.83
0.071542 0 2.69944e-07 0 0 0 0 0.00388717 0 2318.8
0.0756032 0 3.18575e-07 0 0 0 0 0.00367401 0 2736.54
0.079895 0 3.75967e-07 0 0 0 0 0.0034651 0 3229.53
0.0844305 0 4.43698e-07 0 0 0 0 0.00326121 0 3811.34
0.0892234 0 5.23632e-07 0 0 0 0 0.00306301 0 4497.96
0.0942883 0 6.17966e-07 0 0 0 0 0.00287109 0 5308.28
0.0996408 0 7.29294e-07 0 0 0 0 0.00268591 0 6264.59
0.105297 0 8.60678e-07 0 0 0 0 0.00250785 0 7393.17
0.111275 0 1.01573e-06 0 0 0 0 0.00233721 0 8725.07
0.117591 0 1.19872e-06 0 0 0 0 0.00217419 0 10296.9
0.124267 0 1.41467e-06 0 0 0 0 0.00201893 0 12151.9
0.131321 0 1.66953e-06 0 0 0 0 0.00187147 0 14341.1
0.138776 0 1.9703e-06 0 0 0 0 0.00173182 0 16924.7
0.146654 0 2.32525e-06 0 0 0 0 0.00159991 0 19973.8
0.154979 0 2.74415e-06 0 0 0 0 0.00147563 0 23572.1
0.163777 0 3.23852e-06 0 0 0 0 0.00135884 0 27818.7
0.173074 0 3.82195e-06 0 0 0 0 0.00124933 0 32830.3
0.182899 0 4.51048e-06 0 0 0 0 0.00114689 0 38744.7
0.193281 0 5.32305e-06 0 0 0 0 0.00105127 0 45724.7
0.204254 0 6.28202e-06 0 0 0 0 0.000962209 0 53962.1
0.215848 0 7.41374e-06 0 0 0 0 0.000879423 0 63683.5
0.228102 0 8.74934e-06 0 0 0 0 0.000802624 0 75156.3
0.24105 0 1.03256e-05 0 0 0 0 0.000731515 0 88695.9
0.254734 0 1.21857e-05 0 0 0 0 0.000665798 0 104675
0.269195 0 1.4381e-05 0 0 0 0 0.000605173 0 123532
0.284476 0 1.69718e-05 0 0 0 0 0.000549345 0 145787
0.300625 0 2.00293e-05 0 0 0 0 0.000498021 0 172051
0.317691 0 2.36377e-05 0 0 0 0 0.000450916 0 203046
0.335725 0 2.78961e-05 0 0 0 0 0.000407755 0 239625
0.354784 0 3.29216e-05 0 0 0 0 0.000368269 0 282795
0.374924 0 3.88525e-05 0 0 0 0 0.000332202 0 333741
0.396207 1.41286 4.58519e-05 3.58717e-06 6 1.37358 3.48744e-06 0.000299307 0.0719096 393865
0.418699 0 5.41123e-05 0 0 0 0 0.00026935 0 464821
0.442467 0 6.38607e-05 0 0 0 0 0.000242108 0 548560
0.467585 0 7.53654e-05 0 0 0 0 0.00021737 0 647384
0.494129 0 8.89427e-05 0 0 0 0 0.000194938 0 764012
0.522179 0 0.000104966 0 0 0 0 0.000174625 0 901651
0.551822 0 0.000123876 0 0 0 0 0.000156255 0 1.06409e+06
0.583147 7.37622 0.000146192 5.8738e-06 12 7.76351 6.18221e-06 0.000139664 0.50468 1.25578e+06
0.616251 0 0.000172529 0 0 0 0 0.0001247 0 1.48202e+06
0.651234 0 0.000203611 0 0 0 0 0.00011122 0 1.74901e+06
0.688203 27.4133 0.000240292 1.32811e-05 8 26.7313 1.29506e-05 9.90935e-05 1.0722 2.06409e+06
0.72727 0 0.000283581 0 0 0 0 8.81969e-05 0 2.43595e+06
0.768555 0 0.000334669 0 0 0 0 7.84179e-05 0 2.87479e+06
0.812184 1.0425 0.000394961 3.07278e-07 6 1.06479 3.13847e-07 6.96525e-05 0.0264695 3.39269e+06
0.85829 0 0.000466114 0 0 0 0 6.1805e-05 0 4.00389e+06
0.907013 0.378878 0.000550086 8.01825e-08 24 0.386148 8.1721e-08 5.47875e-05 0.0351244 4.7252e+06
0.958501 3.0083 0.000649185 5.39464e-07 24 2.83209 5.07865e-07 4.85194e-05 0.266844 5.57646e+06
1.01291 0 0.000766138 0 0 0 0 4.29272e-05 0 6.58107e+06
1.07041 0 0.00090416 0 0 0 0 3.79435e-05 0 7.76667e+06
1.13118 2.21876 0.00106705 2.42068e-07 12 2.19151 2.39094e-07 3.3507e-05 0.0866928 9.16586e+06
1.19539 2.00148 0.00125928 1.85029e-07 30 1.96022 1.81214e-07 2.9562e-05 0.18777 1.08171e+07
1.26325 8.03637 0.00148614 6.29521e-07 24 7.91545 6.20049e-07 2.60578e-05 0.579807 1.27658e+07
1.33496 20.7026 0.00175387 1.37416e-06 24 20.7481 1.37718e-06 2.29484e-05 1.43713 1.50656e+07
1.41075 11.5037 0.00206984 6.47013e-07 32 11.773 6.62157e-07 2.01923e-05 1.02536 1.77798e+07
1.49083 2.66863 0.00244272 1.27181e-07 48 2.61173 1.2447e-07 1.77518e-05 0.343893 2.09828e+07
1.57546 3.12704 0.00288279 1.26279e-07 6 2.97765 1.20246e-07 1.55929e-05 0.0485911 2.4763e+07
1.66489 1.92403 0.00340213 6.58373e-08 84 1.88202 6.43996e-08 1.3685e-05 0.404116 2.92241e+07
1.75941 2.95738 0.00401503 8.57488e-08 48 2.95789 8.57635e-08 1.20007e-05 0.342976 3.44889e+07
1.85928 1.91303 0.00473835 4.70006e-08 72 1.92605 4.73206e-08 1.05151e-05 0.321827 4.07021e+07
1.96483 3.18605 0.00559198 6.63281e-08 54 3.11131 6.4772e-08 9.20606e-06 0.389061 4.80347e+07
2.07637 11.4279 0.00659939 2.01592e-07 104 11.4508 2.01996e-07 8.05366e-06 2.60323 5.66883e+07
2.19424 2.5632 0.00778828 3.83134e-08 120 2.58413 3.86263e-08 7.04008e-06 0.653063 6.69008e+07
2.3188 3.28608 0.00919136 4.16206e-08 156 3.18269 4.03111e-08 6.1494e-06 1.05584 7.89532e+07
2.45043 3.57529 0.0108472 3.8371e-08 126 3.53675 3.79574e-08 5.36741e-06 0.900759 9.31768e+07
2.58954 3.56858 0.0128014 3.24526e-08 192 3.57886 3.25461e-08 4.68145e-06 1.33097 1.09963e+08
2.73654 12.7572 0.0151076 9.83039e-08 152 13.1337 1.01205e-07 4.08023e-06 3.66209 1.29773e+08
2.89188 6.86636 0.0178292 4.48337e-08 378 6.95177 4.53913e-08 3.55373e-06 4.76882 1.53152e+08
3.05605 3.67094 0.0210412 2.03103e-08 264 3.62397 2.00504e-08 3.09304e-06 1.73355 1.80743e+08
3.22953 3.66774 0.0248319 1.71949e-08 366 3.62732 1.70054e-08 2.69025e-06 2.33931 2.13304e+08
3.41286 4.37481 0.0293054 1.73789e-08 428 4.2931 1.70543e-08 2.33837e-06 3.18092 2.51731e+08
3.6066 8.30205 0.0345848 2.79454e-08 486 8.12061 2.73346e-08 2.0312e-06 6.6864 2.97081e+08
3.81134 5.28694 0.0408154 1.50796e-08 600 5.28121 1.50633e-08 1.76327e-06 5.13126 3.50601e+08
4.0277 5.95858 0.0481684 1.44009e-08 738 5.90289 1.42664e-08 1.52972e-06 6.9476 4.13763e+08
4.25634 7.51431 0.056846 1.53886e-08 824 7.54625 1.5454e-08 1.32631e-06 9.56055 4.88304e+08
4.49796 9.0991 0.067087 1.57896e-08 954 9.07881 1.57544e-08 1.14926e-06 13.1069 5.76273e+08
4.7533 7.93753 0.0791729 1.16713e-08 1094 7.87814 1.1584e-08 9.95263e-07 12.8292 6.8009e+08
5.02313 7.36398 0.0934361 9.17504e-09 1332 7.38083 9.19603e-09 8.61414e-07 14.1873 8.0261e+08
5.30828 10.8116 0.110269 1.14143e-08 1614 10.8137 1.14165e-08 7.45152e-07 24.7233 9.47202e+08
5.60962 10.907 0.130134 9.75722e-09 1850 10.8548 9.71047e-09 6.44232e-07 28.0192 1.11784e+09
5.92807 10.9446 0.153578 8.2962e-09 2238 10.8889 8.25398e-09 5.56685e-07 33.3526 1.31923e+09
6.26459 10.6246 0.181246 6.82428e-09 2546 10.6741 6.85602e-09 4.80786e-07 36.1379 1.55689e+09
6.62021 10.8588 0.213898 5.90997e-09 3264 10.8498 5.90508e-09 4.15026e-07 46.4794 1.83737e+09
6.99602 13.4395 0.252432 6.19798e-09 3506 13.5131 6.23189e-09 3.58083e-07 60.6847 2.16837e+09
7.39317 13.7397 0.297908 5.36915e-09 4506 13.7703 5.3811e-09 3.08803e-07 78.3455 2.55901e+09
7.81286 15.163 0.351577 5.02082e-09 5018 15.1685 5.02263e-09 2.66181e-07 94.6516 3.02002e+09
8.25637 15.7158 0.414914 4.40948e-09 5852 15.6468 4.39012e-09 2.29336e-07 112.517 3.56409e+09
8.72507 16.9457 0.489662 4.02878e-09 7362 16.89 4.01554e-09 1.97503e-07 150.174 4.20617e+09
9.22037 17.9052 0.577876 3.60707e-09 8306 17.8563 3.59721e-09 1.70014e-07 176.222 4.96392e+09
9.74378 18.4786 0.681982 3.15431e-09 9698 18.4428 3.14822e-09 1.46289e-07 209.11 5.85818e+09
10.2969 20.3479 0.804843 2.94319e-09 11816 20.3409 2.94217e-09 1.25822e-07 276.396 6.91355e+09
10.8814 21.2967 0.949838 2.61019e-09 13682 21.267 2.60656e-09 1.08175e-07 330.137 8.15905e+09
11.4992 22.7487 1.12095 2.36254e-09 16152 22.7228 2.35985e-09 9.29669e-08 410.467 9.62892e+09
12.1519 24.3774 1.3229 2.14522e-09 19472 24.3116 2.13942e-09 7.98658e-08 523.025 1.13636e+10
12.8418 25.3327 1.56122 1.88898e-09 22670 25.2711 1.88438e-09 6.85852e-08 624.379 1.34108e+10
13.5708 27.4435 1.84248 1.73399e-09 26224 27.4265 1.73292e-09 5.88765e-08 772.333 1.58268e+10
14.3411 28.9379 2.17441 1.54931e-09 31640 28.9306 1.54891e-09 5.05241e-08 970.23 1.8678e+10
15.1552 30.3645 2.56613 1.37752e-09 37484 30.3207 1.37553e-09 4.33417e-08 1191.35 2.20429e+10
16.0156 32.558 3.02843 1.25156e-09 43856 32.4982 1.24926e-09 3.71677e-08 1476.77 2.6014e+10
16.9247 34.5755 3.574 1.12622e-09 51362 34.5381 1.125e-09 3.18628e-08 1815.44 3.07005e+10
17.8855 36.1152 4.21787 9.96797e-10 61636 36.0563 9.95171e-10 2.73063e-08 2249.98 3.62312e+10
18.9008 38.143 4.97773 8.92058e-10 72218 38.0656 8.90248e-10 2.33941e-08 2753.79 4.27584e+10
19.9738 40.2338 5.87448 7.97318e-10 84586 40.1636 7.95926e-10 2.00364e-08 3365.97 5.04614e+10
21.1076 42.277 6.93279 7.09916e-10 100708 42.2012 7.08643e-10 1.71555e-08 4167.42 5.95522e+10
22.3058 45.123 8.18175 6.42041e-10 118712 45.042 6.40888e-10 1.46847e-08 5190.31 7.02807e+10
23.5721 47.1073 9.65571 5.67956e-10 140410 47.0081 5.66759e-10 1.25662e-08 6346.14 8.29419e+10
24.9102 50.1762 11.3952 5.12607e-10 164374 50.0837 5.11663e-10 1.07504e-08 7837.81 9.78842e+10
26.3243 52.5122 13.4481 4.54579e-10 194680 52.4206 4.53786e-10 9.19452e-09 9625.03 1.15518e+11
27.8187 55.5632 15.8708 4.07567e-10 230196 55.4855 4.06996e-10 7.86182e-09 11933.6 1.36329e+11
29.3979 58.6236 18.73 3.64372e-10 271156 58.5209 3.63734e-10 6.72061e-09 14701.3 1.60889e+11
31.0667 62.129 22.1042 3.27212e-10 321076 62.0087 3.26578e-10 5.74366e-09 18291.5 1.89874e+11
32.8303 65.5808 26.0864 2.92667e-10 377436 65.4583 2.9212e-10 4.90756e-09 22508.7 2.2408e+11
34.694 69.3177 30.7859 2.62122e-10 447594 69.1754 2.61583e-10 4.19221e-09 27986.2 2.64449e+11
36.6634 74.0589 36.3321 2.373e-10 525078 73.9163 2.36843e-10 3.58032e-09 34801.6 3.1209e+11
38.7447 78.6704 42.8774 2.13596e-10 621924 78.5174 2.13181e-10 3.05709e-09 43453.3 3.68314e+11
40.9442 83.6051 50.6018 1.92343e-10 732630 83.4401 1.91964e-10 2.60976e-09 53995.9 4.34667e+11
43.2685 89.4074 59.7179 1.74293e-10 865596 89.2241 1.73935e-10 2.22743e-09 67731.4 5.12973e+11
45.7247 95.8468 70.4762 1.58323e-10 1.02168e+06 95.6429 1.57987e-10 1.90073e-09 85101.5 6.05386e+11
48.3204 103.453 83.1727 1.44802e-10 1.20544e+06 103.246 1.44512e-10 1.62163e-09 107638 7.14448e+11
51.0634 116.889 98.1565 1.38632e-10 1.42103e+06 116.532 1.38209e-10 1.38326e-09 142418 8.43158e+11
53.9621 121.092 115.84 1.21694e-10 1.67997e+06 120.835 1.21435e-10 1.1797e-09 173299 9.95055e+11
57.0254 131.966 136.709 1.12377e-10 1.98018e+06 131.671 1.12126e-10 1.00592e-09 221216 1.17432e+12
60.2626 144.544 161.337 1.04298e-10 2.33957e+06 144.2 1.0405e-10 8.57591e-10 284533 1.38587e+12
63.6835 158.91 190.402 9.71604e-11 2.75676e+06 158.532 9.69296e-11 7.3101e-10 366409 1.63554e+12
67.2987 176.121 224.704 9.12453e-11 3.25638e+06 175.688 9.1021e-11 6.23009e-10 476927 1.93019e+12
71.1191 196.143 265.185 8.61064e-11 3.84387e+06 195.643 8.58867e-11 5.30879e-10 623460 2.27792e+12
75.1563 219.603 312.958 8.16888e-11 4.53277e+06 219.034 8.1477e-11 4.52303e-10 818646 2.68829e+12
79.4227 247.313 369.339 7.79529e-11 5.35083e+06 246.657 7.77461e-11 3.85299e-10 1.08257e+06 3.17259e+12
83.9313 279.801 435.876 7.47303e-11 6.32174e+06 279.031 7.45246e-11 3.28173e-10 1.43956e+06 3.74415e+12
88.6959 318.563 514.4 7.20948e-11 7.44986e+06 317.659 7.18903e-11 2.79476e-10 1.9218e+06 4.41866e+12
93.7309 364.294 607.071 6.9859e-11 8.79764e+06 363.25 6.9659e-11 2.37972e-10 2.58263e+06 5.2147e+12
99.0518 418.343 716.436 6.79774e-11 1.03827e+07 417.088 6.77736e-11 2.02605e-10 3.48357e+06 6.15414e+12
104.675 482.702 845.504 6.64621e-11 1.22515e+07 481.234 6.62599e-11 1.72471e-10 4.72115e+06 7.26283e+12
110.617 558.373 997.824 6.51449e-11 1.44573e+07 556.686 6.49481e-11 1.468e-10 6.41567e+06 8.57124e+12
116.896 648.581 1177.58 6.41183e-11 1.70664e+07 646.566 6.39191e-11 1.24935e-10 8.75872e+06 1.01154e+13
123.532 754.843 1389.73 6.32319e-11 2.0139e+07 752.457 6.30321e-11 1.06313e-10 1.19781e+07 1.19377e+13
130.545 881.18 1640.09 6.25469e-11 2.37643e+07 878.376 6.2348e-11 9.04567e-11 1.6432e+07 1.40883e+13
137.955 1029.63 1935.56 6.19279e-11 2.80503e+07 1026.31 6.17282e-11 7.69563e-11 2.25725e+07 1.66263e+13
145.787 1206.1 2284.26 6.14682e-11 3.30981e+07 1202.22 6.127e-11 6.54636e-11 3.1078e+07 1.96216e+13
154.063 1415.33 2695.77 6.11203e-11 3.90634e+07 1410.73 6.09214e-11 5.56812e-11 4.28793e+07 2.31565e+13
162.808 1662.67 3181.42 6.08407e-11 4.61057e+07 1657.24 6.0642e-11 4.73556e-11 5.92348e+07 2.73282e+13
172.051 1956.05 3754.56 6.06499e-11 5.44046e+07 1949.59 6.04498e-11 4.02708e-11 8.19361e+07 3.22515e+13
181.818 2303.62 4430.96 6.05234e-11 6.42064e+07 2295.98 6.03226e-11 3.42426e-11 1.13484e+08 3.80616e+13
192.139 2716.49 5229.21 6.04759e-11 7.57748e+07 2707.43 6.02742e-11 2.91139e-11 1.57401e+08 4.49186e+13
203.046 3205.67 6171.26 6.0472e-11 8.94213e+07 3194.96 6.02701e-11 2.4751e-11 2.18475e+08 5.30108e+13
214.572 3787.46 7283.03 6.05405e-11 1.05538e+08 3774.77 6.03377e-11 2.10401e-11 3.03675e+08 6.25608e+13
226.753 4480.71 8595.09 6.06885e-11 1.24552e+08 4465.54 6.0483e-11 1.78839e-11 4.22662e+08 7.38313e+13
239.625 5309.81 10143.5 6.09397e-11 1.46987e+08 5291.74 6.07324e-11 1.51999e-11 5.89303e+08 8.71322e+13
253.228 6302.65 11970.9 6.12923e-11 1.7347e+08 6281.01 6.1082e-11 1.29176e-11 8.23092e+08 1.02829e+14
267.603 7499.49 14127.5 6.17983e-11 2.04703e+08 7473.4 6.15833e-11 1.09771e-11 1.15242e+09 1.21354e+14
282.795 8951.62 16672.6 6.25041e-11 2.4161e+08 8920.11 6.22841e-11 9.3274e-12 1.61906e+09 1.43217e+14
298.848 10728.6 19676.2 6.34761e-11 2.85122e+08 10690 6.32479e-11 7.925e-12 2.28372e+09 1.69017e+14
315.813 12934 23220.9 6.48428e-11 3.36491e+08 12886.3 6.46041e-11 6.73295e-12 3.24064e+09 1.99466e+14
333.741 15710 27404.3 6.67371e-11 3.97115e+08 15650.1 6.64826e-11 5.71979e-12 4.63344e+09 2.35401e+14
352.686 19289.4 32341.2 6.94341e-11 4.68637e+08 19212.7 6.91578e-11 4.85874e-12 6.69708e+09 2.77809e+14
372.707 24053.2 38167.6 7.33651e-11 5.53074e+08 23951.9 7.3056e-11 4.12703e-12 9.83184e+09 3.27857e+14
393.865 30620 45043.5 7.91376e-11 6.52716e+08 30480.8 7.87777e-11 3.50528e-12 1.47362e+10 3.86921e+14
416.224 36149.7 53158.3 7.91671e-11 2.2184e+08 38243.1 8.37515e-11 2.97701e-12 5.89934e+09 4.56626e+14
439.852 0 62734.9 0 0 0 0 2.52819e-12 0 5.38888e+14
464.821 0 74036.7 0 0 0 0 2.1469e-12 0 6.35971e+14
491.207 0 87374.6 0 0 0 0 1.82301e-12 0 7.50542e+14
519.092 0 103115 0 0 0 0 1.54789e-12 0 8.85755e+14
548.56 0 121692 0 0 0 0 1.31422e-12 0 1.04533e+15
579.7 0 143615 0 0 0 0 1.11576e-12 0 1.23364e+15
612.608 0 169488 0 0 0 0 9.47223e-13 0 1.45589e+15
647.384 0 200021 0 0 0 0 8.041e-13 0 1.71817e+15
684.134 0 236056 0 0 0 0 6.82568e-13 0 2.0277e+15
722.971 0 278582 0 0 0 0 5.79376e-13 0 2.393e+15
764.012 0 328769 0 0 0 0 4.91762e-13 0 2.8241e+15
0.327739
200
1.0655e+09
8589934592
0.0129181 0.00026671 1.58924e-09 1.95371e-05 6 0.000264268 1.93582e-05 0.00677225 0.0173092 13.6515
0.0136515 0 1.87554e-09 0 0 0 0 0.00688819 0 16.1108
0.0144264 0 2.21343e-09 0 0 0 0 0.00699249 0 19.0132
0.0152454 0 2.61218e-09 0 0 0 0 0.00708412 0 22.4385
0.0161108 0 3.08278e-09 0 0 0 0 0.00716212 0 26.4808
0.0170254 0 3.63815e-09 0 0 0 0 0.00722559 0 31.2514
0.0179919 0.000768194 4.29357e-09 2.08287e-05 12 0.000767204 2.08019e-05 0.00727371 0.0343628 36.8815
0.0190132 0 5.06707e-09 0 0 0 0 0.00730578 0 43.5258
0.0200925 0 5.97991e-09 0 0 0 0 0.00732122 0 51.367
0.0212331 0.00178274 7.05721e-09 2.9408e-05 8 0.00178119 2.93824e-05 0.00731958 0.0321417 60.621
0.0224385 0 8.32858e-09 0 0 0 0 0.00730056 0 71.542
0.0237123 0 9.829e-09 0 0 0 0 0.00726401 0 84.4305
0.0250583 0.00299196 1.15997e-08 3.00274e-05 6 0.00299055 3.00133e-05 0.00720995 0.0249883 99.6408
0.0264808 0 1.36894e-08 0 0 0 0 0.00713857 0 117.591
0.0279841 0.00427027 1.61556e-08 3.0771e-05 24 0.00426589 3.07394e-05 0.00705021 0.104749 138.776
0.0295727 0 1.90661e-08 0 0 0 0 0.00694538 0 163.777
0.0312514 0.00546009 2.25009e-08 2.82494e-05 24 0.00548781 2.83928e-05 0.00682475 0.0993422 193.281
0.0330255 0 2.65545e-08 0 0 0 0 0.00668915 0 228.102
0.0349003 0.00692995 3.13384e-08 2.57433e-05 12 0.00687446 2.55371e-05 0.00653951 0.0472389 269.195
0.0368815 0.00984057 3.69841e-08 3.09753e-05 30 0.00973579 3.06455e-05 0.00637693 0.145722 317.691
0.0389751 0.00789569 4.36469e-08 2.10595e-05 24 0.00781447 2.08428e-05 0.00620256 0.0814869 374.924
0.0411876 0.00997006 5.151e-08 2.25329e-05 24 0.00990235 2.23798e-05 0.00601767 0.0898669 442.467
0.0435258 0.0074498 6.07896e-08 1.42668e-05 8 0.00744923 1.42657e-05 0.00582358 0.0195986 522.179
0.0459966 0.0117228 7.1741e-08 1.90227e-05 72 0.011657 1.89159e-05 0.00562166 0.243635 616.251
0.0486077 0 8.46654e-08 0 0 0 0 0.0054133 0 727.27
0.051367 0.0196019 9.99181e-08 2.28384e-05 54 0.0195538 2.27823e-05 0.00519989 0.237173 858.29
0.054283 0.0162133 1.17919e-07 1.60066e-05 60 0.0163175 1.61094e-05 0.0049828 0.192742 1012.91
0.0573645 0.0195674 1.39162e-07 1.6369e-05 96 0.0194886 1.63031e-05 0.00476339 0.329897 1195.39
0.060621 0.0230664 1.64232e-07 1.63505e-05 24 0.0227539 1.6129e-05 0.00454293 0.0863788 1410.75
0.0640622 0.0224767 1.93819e-07 1.35004e-05 134 0.0224103 1.34605e-05 0.00432265 0.418505 1664.89
0.0676989 0.026587 2.28736e-07 1.35315e-05 120 0.0264348 1.3454e-05 0.00410371 0.395685 1964.83
0.071542 0.0271496 2.69944e-07 1.17085e-05 108 0.026698 1.15137e-05 0.00388717 0.325305 2318.8
0.0756032 0.0365965 3.18575e-07 1.33733e-05 174 0.0363046 1.32666e-05 0.00367401 0.633355 2736.54
0.079895 0.0383766 3.75967e-07 1.1883e-05 168 0.0380158 1.17713e-05 0.0034651 0.57613 3229.53
0.0844305 0.0438351 4.43698e-07 1.15012e-05 168 0.0440343 1.15535e-05 0.00326121 0.592482 3811.34
0.0892234 0.0457414 5.23632e-07 1.01693e-05 290 0.0456244 1.01433e-05 0.00306301 0.962813 4497.96
0.0942883 0.042719 6.17966e-07 8.04762e-06 288 0.0426656 8.03756e-06 0.00287109 0.807259 5308.28
0.0996408 0.0443986 7.29294e-07 7.08724e-06 366 0.0440981 7.03926e-06 0.00268591 0.965754 6264.59
0.105297 0.0586804 8.60678e-07 7.93711e-06 420 0.0583731 7.89555e-06 0.00250785 1.32926 7393.17
0.111275 0.0547758 1.01573e-06 6.27798e-06 398 0.0547234 6.27198e-06 0.00233721 1.06907 8725.07
0.117591 0.069236 1.19872e-06 6.72396e-06 624 0.0693559 6.7356e-06 0.00217419 1.9298 10296.9
0.124267 0.0654428 1.41467e-06 5.38538e-06 642 0.0653903 5.38106e-06 0.00201893 1.7125 12151.9
0.131321 0.0800594 1.66953e-06 5.58251e-06 800 0.0800597 5.58253e-06 0.00187147 2.38636 14341.1
0.138776 0.0855382 1.9703e-06 5.05404e-06 858 0.085649 5.06058e-06 0.00173182 2.50394 16924.7
0.146654 0.093326 2.32525e-06 4.67243e-06 1080 0.0940838 4.71037e-06 0.00159991 3.15407 19973.8
0.154979 0.0969675 2.74415e-06 4.11366e-06 1286 0.0976527 4.14273e-06 0.00147563 3.58501 23572.1
0.163777 0.112254 3.23852e-06 4.0352e-06 1650 0.112407 4.04072e-06 0.00135884 4.89983 27818.7
0.173074 0.119778 3.82195e-06 3.64841e-06 1778 0.120039 3.65637e-06 0.00124933 5.19227 32830.3
0.182899 0.132446 4.51048e-06 3.41843e-06 2112 0.132558 3.42133e-06 0.00114689 6.29504 38744.7
0.193281 0.145071 5.32305e-06 3.17271e-06 2570 0.145259 3.17683e-06 0.00105127 7.7562 45724.7
0.204254 0.153455 6.28202e-06 2.84375e-06 3030 0.153388 2.84251e-06 0.000962209 8.95498 53962.1
0.215848 0.159243 7.41374e-06 2.50053e-06 3434 0.159101 2.49831e-06 0.000879423 9.76416 63683.5
0.228102 0.168581 8.74934e-06 2.24308e-06 4218 0.168601 2.24334e-06 0.000802624 11.788 75156.3
0.24105 0.180945 1.03256e-05 2.04006e-06 4766 0.180926 2.03984e-06 0.000731515 13.2915 88695.9
0.254734 0.194118 1.21857e-05 1.85449e-06 6026 0.194176 1.85504e-06 0.000665798 16.7846 104675
0.269195 0.212202 1.4381e-05 1.71779e-06 6480 0.212261 1.71826e-06 0.000605173 18.3935 123532
0.284476 0.227351 1.69718e-05 1.55948e-06 8162 0.227769 1.56234e-06 0.000549345 23.1702 145787
0.300625 0.240342 2.00293e-05 1.39693e-06 9578 0.240485 1.39776e-06 0.000498021 26.8659 172051
0.317691 0.263653 2.36377e-05 1.29849e-06 11234 0.263585 1.29816e-06 0.000450916 32.3502 203046
0.335725 0.280039 2.78961e-05 1.16865e-06 13344 0.279891 1.16803e-06 0.000407755 38.2448 239625
0.354784 0.294909 3.29216e-05 1.04284e-06 15464 0.294644 1.0419e-06 0.000368269 43.7899 282795
0.374924 0.324623 3.88525e-05 9.72681e-07 18458 0.324465 9.72206e-07 0.000332202 54.0447 333741
0.396207 0.347717 4.58519e-05 8.82832e-07 22232 0.347307 8.81791e-07 0.000299307 65.5753 393865
0.418699 0.370044 5.41123e-05 7.96101e-07 25628 0.369193 7.94268e-07 0.00026935 75.7472 464821
0.442467 0.400106 6.38607e-05 7.29376e-07 30320 0.399241 7.27798e-07 0.000242108 91.3422 548560
0.467585 0.428924 7.53654e-05 6.6255e-07 35452 0.428406 6.6175e-07 0.00021737 108.059 647384
0.494129 0.464744 8.89427e-05 6.08294e-07 41792 0.46443 6.07884e-07 0.000194938 130.41 764012
0.522179 0.502574 0.000104966 5.57393e-07 49988 0.502587 5.57408e-07 0.000174625 159.559 901651
0.551822 0.535606 0.000123876 5.03349e-07 59110 0.535098 5.02871e-07 0.000156255 190.413 1.06409e+06
0.583147 0.578855 0.000146192 4.60951e-07 69716 0.578183 4.60416e-07 0.000139664 230.093 1.25578e+06
0.616251 0.617471 0.000172529 4.16642e-07 82210 0.616187 4.15776e-07 0.0001247 274.676 1.48202e+06
0.651234 0.665752 0.000203611 3.80646e-07 96722 0.664624 3.80001e-07 0.00011122 331.026 1.74901e+06
0.688203 0.725362 0.000240292 3.51419e-07 113098 0.724413 3.50959e-07 9.90935e-05 401.084 2.06409e+06
0.72727 0.784502 0.000283581 3.22052e-07 135190 0.783577 3.21673e-07 8.81969e-05 493.649 2.43595e+06
0.768555 0.845985 0.000334669 2.94277e-07 158170 0.844801 2.93865e-07 7.84179e-05 593.561 2.87479e+06
0.812184 0.916576 0.000394961 2.70162e-07 188560 0.915173 2.69749e-07 6.96525e-05 731.37 3.39269e+06
0.85829 0.998643 0.000466114 2.49418e-07 220444 0.997312 2.49086e-07 6.1805e-05 889.616 4.00389e+06
0.907013 1.08147 0.000550086 2.28873e-07 261388 1.07995 2.28551e-07 5.47875e-05 1091.94 4.7252e+06
0.958501 1.17474 0.000649185 2.1066e-07 308244 1.17303 2.10353e-07 4.85194e-05 1338.32 5.57646e+06
1.01291 1.27495 0.000766138 1.9373e-07 364396 1.273 1.93434e-07 4.29272e-05 1644.52 6.58107e+06
1.07041 1.38738 0.00090416 1.78633e-07 429162 1.38532 1.78367e-07 3.79435e-05 2020.44 7.76667e+06
1.13118 1.5162 0.00106705 1.65418e-07 506358 1.51386 1.65163e-07 3.3507e-05 2499.79 9.16586e+06
1.19539 1.6573 0.00125928 1.53211e-07 598590 1.65484 1.52983e-07 2.9562e-05 3102.3 1.08171e+07
1.26325 1.79959 0.00148614 1.40969e-07 704844 1.79649 1.40727e-07 2.60578e-05 3813.11 1.27658e+07
1.33496 1.97861 0.00175387 1.31332e-07 834620 1.97532 1.31114e-07 2.29484e-05 4776.47 1.50656e+07
1.41075 2.16198 0.00206984 1.21598e-07 981444 2.15803 1.21376e-07 2.01923e-05 5910.24 1.77798e+07
1.49083 2.37187 0.00244272 1.13038e-07 1.15998e+06 2.36777 1.12843e-07 1.77518e-05 7386.42 2.09828e+07
1.57546 2.60446 0.00288279 1.05176e-07 1.36931e+06 2.59992 1.04992e-07 1.55929e-05 9236.16 2.4763e+07
1.66489 2.86154 0.00340213 9.79171e-08 1.61652e+06 2.85617 9.77335e-08 1.3685e-05 11566.3 2.92241e+07
1.75941 3.14792 0.00401503 9.12735e-08 1.90601e+06 3.1418 9.10961e-08 1.20007e-05 14496.5 3.44889e+07
1.85928 3.4711 0.00473835 8.52806e-08 2.24913e+06 3.4643 8.51134e-08 1.05151e-05 18241.1 4.07021e+07
1.96483 3.82195 0.00559198 7.95665e-08 2.65744e+06 3.81452 7.94118e-08 9.20606e-06 22967.8 4.80347e+07
2.07637 4.20741 0.00659939 7.42201e-08 3.13125e+06 4.19914 7.40743e-08 8.05366e-06 28856.7 5.66883e+07
2.19424 4.64814 0.00778828 6.94781e-08 3.69915e+06 4.63911 6.93431e-08 7.04008e-06 36506.7 6.69008e+07
2.3188 5.12229 0.00919136 6.48775e-08 4.36472e+06 5.11242 6.47525e-08 6.1494e-06 46048.8 7.89532e+07
2.45043 5.65804 0.0108472 6.07237e-08 5.14913e+06 5.64715 6.06068e-08 5.36741e-06 58254.2 9.31768e+07
2.58954 6.24906 0.0128014 5.68288e-08 6.07894e+06 6.23712 5.67202e-08 4.68145e-06 73793.1 1.09963e+08
2.73654 6.88919 0.0151076 5.30865e-08 7.17304e+06 6.87556 5.29814e-08 4.08023e-06 93325.9 1.29773e+08
2.89188 7.59933 0.0178292 4.96195e-08 8.46557e+06 7.58457 4.95232e-08 3.55373e-06 118202 1.53152e+08
3.05605 8.37341 0.0210412 4.63278e-08 9.98773e+06 8.35717 4.6238e-08 3.09304e-06 149597 1.80743e+08
3.22953 9.22541 0.0248319 4.32501e-08 1.1797e+07 9.20735 4.31654e-08 2.69025e-06 189656 2.13304e+08
3.41286 10.1526 0.0293054 4.03309e-08 1.39144e+07 10.1326 4.02517e-08 2.33837e-06 239987 2.51731e+08
3.6066 11.1625 0.0345848 3.75739e-08 1.64163e+07 11.1405 3.75e-08 2.0312e-06 303675 2.97081e+08
3.81134 12.2586 0.0408154 3.49645e-08 1.93821e+07 12.2351 3.48974e-08 1.76327e-06 384336 3.50601e+08
4.0277 13.4508 0.0481684 3.25083e-08 2.28754e+07 13.4247 3.24454e-08 1.52972e-06 486128 4.13763e+08
4.25634 14.7266 0.056846 3.01587e-08 2.69929e+07 14.6979 3.00999e-08 1.32631e-06 613789 4.88304e+08
4.49796 16.1075 0.067087 2.79511e-08 3.18542e+07 16.0763 2.78971e-08 1.14926e-06 774728 5.76273e+08
4.7533 17.5586 0.0791729 2.58181e-08 3.75892e+07 17.525 2.57687e-08 9.95263e-07 975101 6.8009e+08
5.02313 19.1176 0.0934361 2.38193e-08 4.43706e+07 19.0813 2.3774e-08 8.61414e-07 1.22691e+06 8.0261e+08
5.30828 20.7817 0.110269 2.19401e-08 5.23593e+07 20.7422 2.18984e-08 7.45152e-07 1.54165e+06 9.47202e+08
5.60962 22.5193 0.130134 2.01453e-08 6.1787e+07 22.4774 2.01078e-08 6.44232e-07 1.9321e+06 1.11784e+09
5.92807 24.3591 0.153578 1.84647e-08 7.29346e+07 24.314 1.84305e-08 5.56685e-07 2.41916e+06 1.31923e+09
6.26459 26.2851 0.181246 1.68831e-08 8.60651e+07 26.2364 1.68518e-08 4.80786e-07 3.02222e+06 1.55689e+09
6.62021 28.2962 0.213898 1.54004e-08 1.01558e+08 28.2445 1.53723e-08 4.15026e-07 3.76853e+06 1.83737e+09
6.99602 30.4229 0.252432 1.40303e-08 1.1986e+08 30.3678 1.40049e-08 3.58083e-07 4.69632e+06 2.16837e+09
7.39317 32.6496 0.297908 1.27587e-08 1.41457e+08 32.5911 1.27358e-08 3.08803e-07 5.8445e+06 2.55901e+09
7.81286 34.959 0.351577 1.15757e-08 1.66936e+08 34.8969 1.15552e-08 2.66181e-07 7.25975e+06 3.02002e+09
8.25637 37.3902 0.414914 1.04908e-08 1.97025e+08 37.3243 1.04723e-08 2.29336e-07 9.01278e+06 3.56409e+09
8.72507 39.95 0.489662 9.49795e-09 2.32497e+08 39.879 9.48107e-09 1.97503e-07 1.11808e+07 4.20617e+09
9.22037 42.7031 0.577876 8.6027e-09 2.74404e+08 42.6268 8.58733e-09 1.70014e-07 1.38848e+07 4.96392e+09
9.74378 45.6871 0.681982 7.79885e-09 3.2382e+08 45.6037 7.78461e-09 1.46289e-07 1.72633e+07 5.85818e+09
10.2969 49.0438 0.804843 7.09387e-09 3.82165e+08 48.9515 7.08051e-09 1.25822e-07 2.15465e+07 6.91355e+09
10.8814 53.0097 0.949838 6.49704e-09 4.51027e+08 52.9031 6.48399e-09 1.08175e-07 2.70888e+07 8.15905e+09
11.4992 58.0341 1.12095 6.02706e-09 5.32251e+08 57.9048 6.01363e-09 9.29669e-08 3.45059e+07 9.62892e+09
12.1519 65.0311 1.3229 5.72276e-09 6.28157e+08 64.8609 5.70778e-09 7.98658e-08 4.50104e+07 1.13636e+10
12.8418 72.7723 1.56122 5.4264e-09 3.82727e+08 75.32 5.61637e-09 6.85852e-08 3.0281e+07 1.34108e+10
13.5708 0 1.84248 0 0 0 0 5.88765e-08 0 1.58268e+10
14.3411 0 2.17441 0 0 0 0 5.05241e-08 0 1.8678e+10
15.1552 0 2.56613 0 0 0 0 4.33417e-08 0 2.20429e+10
16.0156 0 3.02843 0 0 0 0 3.71677e-08 0 2.6014e+10
16.9247 0 3.574 0 0 0 0 3.18628e-08 0 3.07005e+10
17.8855 0 4.21787 0 0 0 0 2.73063e-08 0 3.62312e+10
18.9008 0 4.97773 0 0 0 0 2.33941e-08 0 4.27584e+10
19.9738 0 5.87448 0 0 0 0 2.00364e-08 0 5.04614e+10
21.1076 0 6.93279 0 0 0 0 1.71555e-08 0 5.95522e+10
22.3058 0 8.18175 0 0 0 0 1.46847e-08 0 7.02807e+10
23.5721 0 9.65571 0 0 0 0 1.25662e-08 0 8.29419e+10
24.9102 0 11.3952 0 0 0 0 1.07504e-08 0 9.78842e+10
26.3243 0 13.4481 0 0 0 0 9.19452e-09 0 1.15518e+11
27.8187 0 15.8708 0 0 0 0 7.86182e-09 0 1.36329e+11
29.3979 0 18.73 0 0 0 0 6.72061e-09 0 1.60889e+11
31.0667 0 22.1042 0 0 0 0 5.74366e-09 0 1.89874e+11
32.8303 0 26.0864 0 0 0 0 4.90756e-09 0 2.2408e+11
34.694 0 30.7859 0 0 0 0 4.19221e-09 0 2.64449e+11
36.6634 0 36.3321 0 0 0 0 3.58032e-09 0 3.1209e+11
38.7447 0 42.8774 0 0 0 0 3.05709e-09 0 3.68314e+11
40.9442 0 50.6018 0 0 0 0 2.60976e-09 0 4.34667e+11
43.2685 0 59.7179 0 0 0 0 2.22743e-09 0 5.12973e+11
45.7247 0 70.4762 0 0 0 0 1.90073e-09 0 6.05386e+11
48.3204 0 83.1727 0 0 0 0 1.62163e-09 0 7.14448e+11
51.0634 0 98.1565 0 0 0 0 1.38326e-09 0 8.43158e+11
53.9621 0 115.84 0 0 0 0 1.1797e-09 0 9.95055e+11
57.0254 0 136.709 0 0 0 0 1.00592e-09 0 1.17432e+12
60.2626 0 161.337 0 0 0 0 8.57591e-10 0 1.38587e+12
63.6835 0 190.402 0 0 0 0 7.3101e-10 0 1.63554e+12
67.2987 0 224.704 0 0 0 0 6.23009e-10 0 1.93019e+12
71.1191 0 265.185 0 0 0 0 5.30879e-10 0 2.27792e+12
75.1563 0 312.958 0 0 0 0 4.52303e-10 0 2.68829e+12
79.4227 0 369.339 0 0 0 0 3.85299e-10 0 3.17259e+12
83.9313 0 435.876 0 0 0 0 3.28173e-10 0 3.74415e+12
88.6959 0 514.4 0 0 0 0 2.79476e-10 0 4.41866e+12
93.7309 0 607.071 0 0 0 0 2.37972e-10 0 5.2147e+12
99.0518 0 716.436 0 0 0 0 2.02605e-10 0 6.15414e+12
104.675 0 845.504 0 0 0 0 1.72471e-10 0 7.26283e+12
110.617 0 997.824 0 0 0 0 1.468e-10 0 8.57124e+12
116.896 0 1177.58 0 0 0 0 1.24935e-10 0 1.01154e+13
123.532 0 1389.73 0 0 0 0 1.06313e-10 0 1.19377e+13
130.545 0 1640.09 0 0 0 0 9.04567e-11 0 1.40883e+13
137.955 0 1935.56 0 0 0 0 7.69563e-11 0 1.66263e+13
145.787 0 2284.26 0 0 0 0 6.54636e-11 0 1.96216e+13
154.063 0 2695.77 0 0 0 0 5.56812e-11 0 2.31565e+13
162.808 0 3181.42 0 0 0 0 4.73556e-11 0 2.73282e+13
172.051 0 3754.56 0 0 0 0 4.02708e-11 0 3.22515e+13
181.818 0 4430.96 0 0 0 0 3.42426e-11 0 3.80616e+13
192.139 0 5229.21 0 0 0 0 2.91139e-11 0 4.49186e+13
203.046 0 6171.26 0 0 0 0 2.4751e-11 0 5.30108e+13
214.572 0 7283.03 0 0 0 0 2.10401e-11 0 6.25608e+13
226.753 0 8595.09 0 0 0 0 1.78839e-11 0 7.38313e+13
239.625 0 10143.5 0 0 0 0 1.51999e-11 0 8.71322e+13
253.228 0 11970.9 0 0 0 0 1.29176e-11 0 1.02829e+14
267.603 0 14127.5 0 0 0 0 1.09771e-11 0 1.21354e+14
282.795 0 16672.6 0 0 0 0 9.3274e-12 0 1.43217e+14
298.848 0 19676.2 0 0 0 0 7.925e-12 0 1.69017e+14
315.813 0 23220.9 0 0 0 0 6.73295e-12 0 1.99466e+14
333.741 0 27404.3 0 0 0 0 5.71979e-12 0 2.35401e+14
352.686 0 32341.2 0 0 0 0 4.85874e-12 0 2.77809e+14
372.707 0 38167.6 0 0 0 0 4.12703e-12 0 3.27857e+14
393.865 0 45043.5 0 0 0 0 3.50528e-12 0 3.86921e+14
416.224 0 53158.3 0 0 0 0 2.97701e-12 0 4.56626e+14
439.852 0 62734.9 0 0 0 0 2.52819e-12 0 5.38888e+14
464.821 0 74036.7 0 0 0 0 2.1469e-12 0 6.35971e+14
491.207 0 87374.6 0 0 0 0 1.82301e-12 0 7.50542e+14
519.092 0 103115 0 0 0 0 1.54789e-12 0 8.85755e+14
548.56 0 121692 0 0 0 0 1.31422e-12 0 1.04533e+15
579.7 0 143615 0 0 0 0 1.11576e-12 0 1.23364e+15
612.608 0 169488 0 0 0 0 9.47223e-13 0 1.45589e+15
647.384 0 200021 0 0 0 0 8.041e-13 0 1.71817e+15
684.134 0 236056 0 0 0 0 6.82568e-13 0 2.0277e+15
722.971 0 278582 0 0 0 0 5.79376e-13 0 2.393e+15
764.012 0 328769 0 0 0 0 4.91762e-13 0 2.8241e+15
