0.399764
200
1.0655e+09
8589934592
0.0129181 0 1.58924e-09 0 0 0 0 0.00677225 0 13.6515
0.0136515 0 1.87554e-09 0 0 0 0 0.00688819 0 16.1108
0.0144264 0 2.21343e-09 0 0 0 0 0.00699249 0 19.0132
0.0152454 0 2.61218e-09 0 0 0 0 0.00708412 0 22.4385
0.0161108 0 3.08278e-09 0 0 0 0 0.00716212 0 26.4808
0.0170254 0 3.63815e-09 0 0 0 0 0.00722559 0 31.2514
0.0179919 0 4.29357e-09 0 0 0 0 0.00727371 0 36.8815
0.0190132 0 5.06707e-09 0 0 0 0 0.00730578 0 43.5258
0.0200925 0 5.97991e-09 0 0 0 0 0.00732122 0 51.367
0.0212331 0 7.05721e-09 0 0 0 0 0.00731958 0 60.621
0.0224385 0 8.32858e-09 0 0 0 0 0.00730056 0 71.542
0.0237123 0 9.829e-09 0 0 0 0 0.00726401 0 84.4305
0.0250583 0 1.15997e-08 0 0 0 0 0.00720995 0 99.6408
0.0264808 0 1.36894e-08 0 0 0 0 0.00713857 0 117.591
0.0279841 0 1.61556e-08 0 0 0 0 0.00705021 0 138.776
0.0295727 0 1.90661e-08 0 0 0 0 0.00694538 0 163.777
0.0312514 0 2.25009e-08 0 0 0 0 0.00682475 0 193.281
0.0330255 0 2.65545e-08 0 0 0 0 0.00668915 0 228.102
0.0349003 0 3.13384e-08 0 0 0 0 0.00653951 0 269.195
0.0368815 0 3.69841e-08 0 0 0 0 0.00637693 0 317.691
0.0389751 0 4.36469e-08 0 0 0 0 0.00620256 0 374.924
0.0411876 0 5.151e-08 0 0 0 0 0.00601767 0 442.467
0.0435258 0 6.07896e-08 0 0 0 0 0.00582358 0 522.179
0.0459966 0 7.1741e-08 0 0 0 0 0.00562166 0 616.251
0.0486077 0 8.46654e-08 0 0 0 0 0.0054133 0 727.27
0.051367 0 9.99181e-08 0 0 0 0 0.00519989 0 858.29
0.054283 0 1.17919e-07 0 0 0 0 0.0049828 0 1012.91
0.0573645 0 1.39162e-07 0 0 0 0 0.00476339 0 1195.39
0.060621 0 1.64232e-07 0 0 0 0 0.00454293 0 1410.75
0.0640622 0 1.93819e-07 0 0 0 0 0.00432265 0 1664.89
0.0676989 0 2.28736e-07 0 0 0 0 0.00410371 0 1964.83
0.071542 0 2.69944e-07 0 0 0 0 0.00388717 0 2318.8
0.0756032 0 3.18575e-07 0 0 0 0 0.00367401 0 2736.54
0.079895 0 3.75967e-07 0 0 0 0 0.0034651 0 3229.53
0.0844305 0 4.43698e-07 0 0 0 0 0.00326121 0 3811.34
0.0892234 0 5.23632e-07 0 0 0 0 0.00306301 0 4497.96
0.0942883 0 6.17966e-07 0 0 0 0 0.00287109 0 5308.28
0.0996408 0 7.29294e-07 0 0 0 0 0.00268591 0 6264.59
0.105297 0 8.60678e-07 0 0 0 0 0.00250785 0 7393.17
0.111275 0 1.01573e-06 0 0 0 0 0.00233721 0 8725.07
0.117591 0 1.19872e-06 0 0 0 0 0.00217419 0 10296.9
0.124267 0 1.41467e-06 0 0 0 0 0.00201893 0 12151.9
0.131321 0 1.66953e-06 0 0 0 0 0.00187147 0 14341.1
0.138776 0 1.9703e-06 0 0 0 0 0.00173182 0 16924.7
0.146654 0 2.32525e-06 0 0 0 0 0.00159991 0 19973.8
0.154979 0 2.74415e-06 0 0 0 0 0.00147563 0 23572.1
0.163777 0 3.23852e-06 0 0 0 0 0.00135884 0 27818.7
0.173074 0 3.82195e-06 0 0 0 0 0.00124933 0 32830.3
0.182899 0 4.51048e-06 0 0 0 0 0.00114689 0 38744.7
0.193281 0 5.32305e-06 0 0 0 0 0.00105127 0 45724.7
0.204254 0 6.28202e-06 0 0 0 0 0.000962209 0 53962.1
0.215848 0 7.41374e-06 0 0 0 0 0.000879423 0 63683.5
0.228102 0 8.74934e-06 0 0 0 0 0.000802624 0 75156.3
0.24105 0 1.03256e-05 0 0 0 0 0.000731515 0 88695.9
0.254734 0 1.21857e-05 0 0 0 0 0.000665798 0 104675
0.269195 0 1.4381e-05 0 0 0 0 0.000605173 0 123532
0.284476 0 1.69718e-05 0 0 0 0 0.000549345 0 145787
0.300625 0 2.00293e-05 0 0 0 0 0.000498021 0 172051
0.317691 0 2.36377e-05 0 0 0 0 0.000450916 0 203046
0.335725 0 2.78961e-05 0 0 0 0 0.000407755 0 239625
0.354784 0 3.29216e-05 0 0 0 0 0.000368269 0 282795
0.374924 0 3.88525e-05 0 0 0 0 0.000332202 0 333741
0.396207 1.46573 4.58519e-05 3.72141e-06 6 1.42498 3.61795e-06 0.000299307 0.0746005 393865
0.418699 0 5.41123e-05 0 0 0 0 0.00026935 0 464821
0.442467 0 6.38607e-05 0 0 0 0 0.000242108 0 548560
0.467585 0 7.53654e-05 0 0 0 0 0.00021737 0 647384
0.494129 0 8.89427e-05 0 0 0 0 0.000194938 0 764012
0.522179 0 0.000104966 0 0 0 0 0.000174625 0 901651
0.551822 0 0.000123876 0 0 0 0 0.000156255 0 1.06409e+06
0.583147 7.22342 0.000146192 5.75213e-06 12 7.60269 6.05414e-06 0.000139664 0.494225 1.25578e+06
0.616251 0 0.000172529 0 0 0 0 0.0001247 0 1.48202e+06
0.651234 0 0.000203611 0 0 0 0 0.00011122 0 1.74901e+06
0.688203 27.4203 0.000240292 1.32844e-05 8 26.7381 1.29539e-05 9.90935e-05 1.07248 2.06409e+06
0.72727 0 0.000283581 0 0 0 0 8.81969e-05 0 2.43595e+06
0.768555 0 0.000334669 0 0 0 0 7.84179e-05 0 2.87479e+06
0.812184 1.63727 0.000394961 4.82588e-07 6 1.67227 4.92905e-07 6.96525e-05 0.041571 3.39269e+06
0.85829 0 0.000466114 0 0 0 0 6.1805e-05 0 4.00389e+06
0.907013 0.481027 0.000550086 1.018e-07 24 0.490257 1.03754e-07 5.47875e-05 0.0445943 4.7252e+06
0.958501 3.54648 0.000649185 6.35973e-07 24 3.33875 5.98722e-07 4.85194e-05 0.314582 5.57646e+06
1.01291 0 0.000766138 0 0 0 0 4.29272e-05 0 6.58107e+06
1.07041 0 0.00090416 0 0 0 0 3.79435e-05 0 7.76667e+06
1.13118 3.60551 0.00106705 3.93363e-07 12 3.56122 3.88531e-07 3.3507e-05 0.140877 9.16586e+06
1.19539 1.94183 0.00125928 1.79515e-07 30 1.9018 1.75814e-07 2.9562e-05 0.182175 1.08171e+07
1.26325 10.4151 0.00148614 8.15854e-07 24 10.2583 8.03577e-07 2.60578e-05 0.751425 1.27658e+07
1.33496 20.5944 0.00175387 1.36698e-06 24 20.6397 1.36998e-06 2.29484e-05 1.42962 1.50656e+07
1.41075 11.6404 0.00206984 6.547e-07 32 11.9222 6.7055e-07 2.01923e-05 1.03754 1.77798e+07
1.49083 2.72431 0.00244272 1.29835e-07 48 2.66623 1.27067e-07 1.77518e-05 0.351068 2.09828e+07
1.57546 6.25157 0.00288279 2.52457e-07 6 5.9529 2.40395e-07 1.55929e-05 0.0971431 2.4763e+07
1.66489 2.8721 0.00340213 9.82785e-08 84 2.79389 9.56025e-08 1.3685e-05 0.603243 2.92241e+07
1.75941 5.08615 0.00401503 1.47472e-07 48 5.02898 1.45815e-07 1.20007e-05 0.589855 3.44889e+07
1.85928 3.39126 0.00473835 8.3319e-08 72 3.42894 8.42449e-08 1.05151e-05 0.57051 4.07021e+07
1.96483 4.96837 0.00559198 1.03433e-07 54 4.85417 1.01055e-07 9.20606e-06 0.606707 4.80347e+07
2.07637 14.5011 0.00659939 2.55804e-07 104 14.5974 2.57503e-07 8.05366e-06 3.3033 5.66883e+07
2.19424 3.88285 0.00778828 5.80388e-08 120 3.93927 5.88822e-08 7.04008e-06 0.989288 6.69008e+07
2.3188 3.77588 0.00919136 4.78243e-08 156 3.65239 4.62602e-08 6.1494e-06 1.21322 7.89532e+07
2.45043 5.10161 0.0108472 5.47519e-08 126 5.04308 5.41238e-08 5.36741e-06 1.2853 9.31768e+07
2.58954 4.52292 0.0128014 4.11313e-08 192 4.53511 4.12422e-08 4.68145e-06 1.68691 1.09963e+08
2.73654 16.7707 0.0151076 1.29231e-07 152 17.1923 1.3248e-07 4.08023e-06 4.81423 1.29773e+08
2.89188 9.72215 0.0178292 6.34804e-08 378 9.84595 6.42887e-08 3.55373e-06 6.75222 1.53152e+08
3.05605 6.60457 0.0210412 3.65413e-08 264 6.52481 3.61e-08 3.09304e-06 3.11891 1.80743e+08
3.22953 6.29842 0.0248319 2.95279e-08 366 6.24628 2.92834e-08 2.69025e-06 4.01717 2.13304e+08
3.41286 7.8997 0.0293054 3.13815e-08 428 7.79306 3.09578e-08 2.33837e-06 5.74385 2.51731e+08
3.6066 10.902 0.0345848 3.66972e-08 486 10.7185 3.60794e-08 2.0312e-06 8.78042 2.97081e+08
3.81134 7.88721 0.0408154 2.24962e-08 600 7.91888 2.25866e-08 1.76327e-06 7.65497 3.50601e+08
4.0277 9.42565 0.0481684 2.27803e-08 738 9.34924 2.25956e-08 1.52972e-06 10.9901 4.13763e+08
4.25634 10.6693 0.056846 2.18497e-08 824 10.664 2.18389e-08 1.32631e-06 13.5747 4.88304e+08
4.49796 12.7217 0.067087 2.20758e-08 954 12.6592 2.19674e-08 1.14926e-06 18.3252 5.76273e+08
4.7533 11.3664 0.0791729 1.67131e-08 1094 11.2962 1.66098e-08 9.95263e-07 18.3712 6.8009e+08
5.02313 12.1455 0.0934361 1.51325e-08 1332 12.1765 1.51711e-08 8.61414e-07 23.3993 8.0261e+08
5.30828 15.7138 0.110269 1.65896e-08 1614 15.7121 1.65879e-08 7.45152e-07 35.9332 9.47202e+08
5.60962 15.5928 0.130134 1.3949e-08 1850 15.5757 1.39337e-08 6.44232e-07 40.0564 1.11784e+09
5.92807 17.3023 0.153578 1.31155e-08 2238 17.2563 1.30806e-08 5.56685e-07 52.7273 1.31923e+09
6.26459 16.4103 0.181246 1.05405e-08 2546 16.482 1.05865e-08 4.80786e-07 55.817 1.55689e+09
6.62021 17.0854 0.213898 9.29885e-09 3264 17.0626 9.28643e-09 4.15026e-07 73.1315 1.83737e+09
6.99602 18.9044 0.252432 8.71823e-09 3506 18.9729 8.74985e-09 3.58083e-07 85.3605 2.16837e+09
7.39317 19.652 0.297908 7.67953e-09 4506 19.6456 7.67702e-09 3.08803e-07 112.058 2.55901e+09
7.81286 22.6496 0.351577 7.4998e-09 5018 22.6049 7.485e-09 2.66181e-07 141.385 3.02002e+09
8.25637 23.2369 0.414914 6.51974e-09 5852 23.2171 6.51417e-09 2.29336e-07 166.365 3.56409e+09
8.72507 24.2655 0.489662 5.76903e-09 7362 24.2276 5.76002e-09 1.97503e-07 215.043 4.20617e+09
9.22037 26.537 0.577876 5.34598e-09 8306 26.4508 5.3286e-09 1.70014e-07 261.177 4.96392e+09
9.74378 27.1484 0.681982 4.63426e-09 9698 27.1214 4.62967e-09 1.46289e-07 307.221 5.85818e+09
10.2969 29.0847 0.804843 4.20691e-09 11816 29.0535 4.20239e-09 1.25822e-07 395.071 6.91355e+09
10.8814 31.5816 0.949838 3.87075e-09 13682 31.5548 3.86746e-09 1.08175e-07 489.571 8.15905e+09
11.4992 33.7179 1.12095 3.50174e-09 16152 33.6791 3.4977e-09 9.29669e-08 608.389 9.62892e+09
12.1519 35.189 1.3229 3.09664e-09 19472 35.1315 3.09158e-09 7.98658e-08 754.99 1.13636e+10
12.8418 36.05 1.56122 2.68813e-09 22670 35.9811 2.683e-09 6.85852e-08 888.53 1.34108e+10
13.5708 38.9285 1.84248 2.45966e-09 26224 38.9082 2.45838e-09 5.88765e-08 1095.55 1.58268e+10
14.3411 40.8918 2.17441 2.1893e-09 31640 40.8429 2.18669e-09 5.05241e-08 1371.02 1.8678e+10
15.1552 43.2284 2.56613 1.9611e-09 37484 43.1629 1.95813e-09 4.33417e-08 1696.06 2.20429e+10
16.0156 46.0901 3.02843 1.77174e-09 43856 46.0262 1.76929e-09 3.71677e-08 2090.56 2.6014e+10
16.9247 48.4435 3.574 1.57794e-09 51362 48.3777 1.5758e-09 3.18628e-08 2543.6 3.07005e+10
17.8855 50.6873 4.21787 1.39899e-09 61636 50.6037 1.39669e-09 2.73063e-08 3157.82 3.62312e+10
18.9008 53.9113 4.97773 1.26084e-09 72218 53.7824 1.25782e-09 2.33941e-08 3892.22 4.27584e+10
19.9738 56.259 5.87448 1.11489e-09 84586 56.1641 1.11301e-09 2.00364e-08 4706.64 5.04614e+10
21.1076 59.6127 6.93279 1.00102e-09 100708 59.5234 9.99516e-10 1.71555e-08 5876.26 5.95522e+10
22.3058 63.1904 8.18175 8.99114e-10 118712 63.0797 8.9754e-10 1.46847e-08 7268.52 7.02807e+10
23.5721 66.2778 9.65571 7.99087e-10 140410 66.1229 7.97219e-10 1.25662e-08 8928.73 8.29419e+10
24.9102 69.6999 11.3952 7.12065e-10 164374 69.5597 7.10633e-10 1.07504e-08 10887.5 9.78842e+10
26.3243 72.7878 13.4481 6.30098e-10 194680 72.652 6.28922e-10 9.19452e-09 13341.4 1.15518e+11
27.8187 76.6929 15.8708 5.62557e-10 230196 76.5828 5.61749e-10 7.86182e-09 16471.8 1.36329e+11
29.3979 80.9228 18.73 5.02972e-10 271156 80.7894 5.02143e-10 6.72061e-09 20293.4 1.60889e+11
31.0667 85.1971 22.1042 4.48704e-10 321076 85.033 4.47839e-10 5.74366e-09 25083 1.89874e+11
32.8303 89.682 26.0864 4.00223e-10 377436 89.5128 3.99468e-10 4.90756e-09 30780.8 2.2408e+11
34.694 94.0979 30.7859 3.55826e-10 447594 93.9245 3.55171e-10 4.19221e-09 37990.9 2.64449e+11
36.6634 99.2603 36.3321 3.1805e-10 525078 99.0865 3.17493e-10 3.58032e-09 46644.1 3.1209e+11
38.7447 104.857 42.8774 2.84695e-10 621924 104.666 2.84177e-10 3.05709e-09 57917.4 3.68314e+11
40.9442 110.661 50.6018 2.54589e-10 732630 110.467 2.54141e-10 2.60976e-09 71469.9 4.34667e+11
43.2685 116.951 59.7179 2.27986e-10 865596 116.738 2.27572e-10 2.22743e-09 88597.1 5.12973e+11
45.7247 124.28 70.4762 2.05291e-10 1.02168e+06 124.068 2.0494e-10 1.90073e-09 110347 6.05386e+11
48.3204 132.012 83.1727 1.84775e-10 1.20544e+06 131.757 1.84418e-10 1.62163e-09 137352 7.14448e+11
51.0634 141.767 98.1565 1.68138e-10 1.42103e+06 141.459 1.67773e-10 1.38326e-09 172729 8.43158e+11
53.9621 150.749 115.84 1.51498e-10 1.67997e+06 150.446 1.51193e-10 1.1797e-09 215743 9.95055e+11
57.0254 161.816 136.709 1.37796e-10 1.98018e+06 161.484 1.37513e-10 1.00592e-09 271255 1.17432e+12
60.2626 174.414 161.337 1.25851e-10 2.33957e+06 174.051 1.25589e-10 8.57591e-10 343331 1.38587e+12
63.6835 189 190.402 1.15558e-10 2.75676e+06 188.577 1.15299e-10 7.3101e-10 435789 1.63554e+12
67.2987 205.778 224.704 1.0661e-10 3.25638e+06 205.325 1.06375e-10 6.23009e-10 557238 1.93019e+12
71.1191 225.467 265.185 9.89793e-11 3.84387e+06 224.924 9.8741e-11 5.30879e-10 716667 2.27792e+12
75.1563 248.897 312.958 9.25854e-11 4.53277e+06 248.268 9.23514e-11 4.52303e-10 927846 2.68829e+12
79.4227 275.64 369.339 8.68814e-11 5.35083e+06 274.973 8.66714e-11 3.85299e-10 1.20656e+06 3.17259e+12
83.9313 307.55 435.876 8.21416e-11 6.32174e+06 306.749 8.19277e-11 3.28173e-10 1.58233e+06 3.74415e+12
88.6959 344.583 514.4 7.79836e-11 7.44986e+06 343.664 7.77755e-11 2.79476e-10 2.07877e+06 4.41866e+12
93.7309 388.666 607.071 7.45327e-11 8.79764e+06 387.614 7.4331e-11 2.37972e-10 2.75541e+06 5.2147e+12
99.0518 441.063 716.436 7.16693e-11 1.03827e+07 439.813 7.14662e-11 2.02605e-10 3.67277e+06 6.15414e+12
104.675 502.782 845.504 6.92268e-11 1.22515e+07 501.33 6.90268e-11 1.72471e-10 4.91755e+06 7.26283e+12
110.617 576.19 997.824 6.72236e-11 1.44573e+07 574.515 6.70282e-11 1.468e-10 6.62039e+06 8.57124e+12
116.896 662.866 1177.58 6.55306e-11 1.70664e+07 660.894 6.53355e-11 1.24935e-10 8.95164e+06 1.01154e+13
123.532 766.709 1389.73 6.42259e-11 2.0139e+07 764.366 6.40297e-11 1.06313e-10 1.21664e+07 1.19377e+13
130.545 888.721 1640.09 6.30822e-11 2.37643e+07 885.977 6.28875e-11 9.04567e-11 1.65726e+07 1.40883e+13
137.955 1033.22 1935.56 6.21439e-11 2.80503e+07 1029.98 6.1949e-11 7.69563e-11 2.26512e+07 1.66263e+13
145.787 1205.32 2284.26 6.1428e-11 3.30981e+07 1201.47 6.12321e-11 6.54636e-11 3.10577e+07 1.96216e+13
154.063 1408.28 2695.77 6.08156e-11 3.90634e+07 1403.79 6.06217e-11 5.56812e-11 4.26655e+07 2.31565e+13
162.808 1649.74 3181.42 6.03675e-11 4.61057e+07 1644.4 6.01722e-11 4.73556e-11 5.87741e+07 2.73282e+13
172.051 1935.63 3754.56 6.00168e-11 5.44046e+07 1929.31 5.98207e-11 4.02708e-11 8.10808e+07 3.22515e+13
181.818 2274.93 4430.96 5.97695e-11 6.42064e+07 2267.47 5.95735e-11 3.42426e-11 1.12071e+08 3.80616e+13
192.139 2677.1 5229.21 5.95989e-11 7.57748e+07 2668.22 5.94012e-11 2.91139e-11 1.55118e+08 4.49186e+13
203.046 3154.72 6171.26 5.95108e-11 8.94213e+07 3144.25 5.93135e-11 2.4751e-11 2.15003e+08 5.30108e+13
214.572 3724.18 7283.03 5.95289e-11 1.05538e+08 3711.71 5.93297e-11 2.10401e-11 2.98601e+08 6.25608e+13
226.753 4402.23 8595.09 5.96256e-11 1.24552e+08 4387.39 5.94245e-11 1.78839e-11 4.1526e+08 7.38313e+13
239.625 5212.22 10143.5 5.98197e-11 1.46987e+08 5194.57 5.96171e-11 1.51999e-11 5.78473e+08 8.71322e+13
253.228 6184.1 11970.9 6.01394e-11 1.7347e+08 6162.85 5.99328e-11 1.29176e-11 8.07609e+08 1.02829e+14
267.603 7355.7 14127.5 6.06135e-11 2.04703e+08 7330.2 6.04033e-11 1.09771e-11 1.13033e+09 1.21354e+14
282.795 8777.96 16672.6 6.12915e-11 2.4161e+08 8747.07 6.10758e-11 9.3274e-12 1.58765e+09 1.43217e+14
298.848 10519.4 19676.2 6.22385e-11 2.85122e+08 10481.7 6.20153e-11 7.925e-12 2.23919e+09 1.69017e+14
315.813 12677.7 23220.9 6.35583e-11 3.36491e+08 12631.1 6.33247e-11 6.73295e-12 3.17644e+09 1.99466e+14
333.741 15399.7 27404.3 6.54191e-11 3.97115e+08 15341.1 6.51701e-11 5.71979e-12 4.54193e+09 2.35401e+14
352.686 18910.9 32341.2 6.80715e-11 4.68637e+08 18835.7 6.78008e-11 4.85874e-12 6.56566e+09 2.77809e+14
372.707 23578.8 38167.6 7.19179e-11 5.53074e+08 23479.3 7.16143e-11 4.12703e-12 9.6379e+09 3.27857e+14
393.865 30025.1 45043.5 7.75999e-11 6.52716e+08 29888.5 7.72469e-11 3.50528e-12 1.44498e+10 3.86921e+14
416.224 35447 53158.3 7.76281e-11 2.2184e+08 37499.6 8.21231e-11 2.97701e-12 5.78466e+09 4.56626e+14
439.852 0 62734.9 0 0 0 0 2.52819e-12 0 5.38888e+14
464.821 0 74036.7 0 0 0 0 2.1469e-12 0 6.35971e+14
491.207 0 87374.6 0 0 0 0 1.82301e-12 0 7.50542e+14
519.092 0 103115 0 0 0 0 1.54789e-12 0 8.85755e+14
548.56 0 121692 0 0 0 0 1.31422e-12 0 1.04533e+15
579.7 0 143615 0 0 0 0 1.11576e-12 0 1.23364e+15
612.608 0 169488 0 0 0 0 9.47223e-13 0 1.45589e+15
647.384 0 200021 0 0 0 0 8.041e-13 0 1.71817e+15
684.134 0 236056 0 0 0 0 6.82568e-13 0 2.0277e+15
722.971 0 278582 0 0 0 0 5.79376e-13 0 2.393e+15
764.012 0 328769 0 0 0 0 4.91762e-13 0 2.8241e+15
0.399764
200
1.0655e+09
8589934592
0.0129181 0.000387488 1.58924e-09 2.83844e-05 6 0.000383941 2.81245e-05 0.00677225 0.0251477 13.6515
0.0136515 0 1.87554e-09 0 0 0 0 0.00688819 0 16.1108
0.0144264 0 2.21343e-09 0 0 0 0 0.00699249 0 19.0132
0.0152454 0 2.61218e-09 0 0 0 0 0.00708412 0 22.4385
0.0161108 0 3.08278e-09 0 0 0 0 0.00716212 0 26.4808
0.0170254 0 3.63815e-09 0 0 0 0 0.00722559 0 31.2514
0.0179919 0.00111717 4.29357e-09 3.02909e-05 12 0.00111573 3.02518e-05 0.00727371 0.0499732 36.8815
0.0190132 0 5.06707e-09 0 0 0 0 0.00730578 0 43.5258
0.0200925 0 5.97991e-09 0 0 0 0 0.00732122 0 51.367
0.0212331 0.00258384 7.05721e-09 4.2623e-05 8 0.0025816 4.25859e-05 0.00731958 0.0465851 60.621
0.0224385 0 8.32858e-09 0 0 0 0 0.00730056 0 71.542
0.0237123 0 9.829e-09 0 0 0 0 0.00726401 0 84.4305
0.0250583 0.00432487 1.15997e-08 4.34046e-05 6 0.00432284 4.33842e-05 0.00720995 0.0361206 99.6408
0.0264808 0 1.36894e-08 0 0 0 0 0.00713857 0 117.591
0.0279841 0.00620835 1.61556e-08 4.47366e-05 24 0.00620198 4.46906e-05 0.00705021 0.15229 138.776
0.0295727 0 1.90661e-08 0 0 0 0 0.00694538 0 163.777
0.0312514 0.00794064 2.25009e-08 4.10833e-05 24 0.00798096 4.12919e-05 0.00682475 0.144474 193.281
0.0330255 0 2.65545e-08 0 0 0 0 0.00668915 0 228.102
0.0349003 0.0100927 3.13384e-08 3.74921e-05 12 0.0100119 3.71919e-05 0.00653951 0.0687979 269.195
0.0368815 0.0143032 3.69841e-08 4.50224e-05 30 0.0141509 4.45429e-05 0.00637693 0.211806 317.691
0.0389751 0.0114566 4.36469e-08 3.05571e-05 24 0.0113387 3.02427e-05 0.00620256 0.118237 374.924
0.0411876 0.0144186 5.151e-08 3.25869e-05 24 0.0143207 3.23656e-05 0.00601767 0.129965 442.467
0.0435258 0.0107382 6.07896e-08 2.05643e-05 8 0.0107374 2.05627e-05 0.00582358 0.0282496 522.179
0.0459966 0.0170609 7.1741e-08 2.7685e-05 72 0.0169647 2.75288e-05 0.00562166 0.354579 616.251
0.0486077 0 8.46654e-08 0 0 0 0 0.0054133 0 727.27
0.051367 0.028607 9.99181e-08 3.33302e-05 54 0.0285377 3.32495e-05 0.00519989 0.346129 858.29
0.054283 0.0235262 1.17919e-07 2.32263e-05 60 0.0236768 2.33749e-05 0.0049828 0.279677 1012.91
0.0573645 0.0284312 1.39162e-07 2.3784e-05 96 0.0283168 2.36883e-05 0.00476339 0.479336 1195.39
0.060621 0.0329952 1.64232e-07 2.33885e-05 24 0.0325482 2.30716e-05 0.00454293 0.12356 1410.75
0.0640622 0.032423 1.93819e-07 1.94745e-05 134 0.0323268 1.94168e-05 0.00432265 0.603701 1664.89
0.0676989 0.0386547 2.28736e-07 1.96733e-05 120 0.0384335 1.95607e-05 0.00410371 0.575283 1964.83
0.071542 0.039609 2.69944e-07 1.70817e-05 108 0.0389482 1.67967e-05 0.00388717 0.474592 2318.8
0.0756032 0.0527947 3.18575e-07 1.92925e-05 174 0.0523703 1.91374e-05 0.00367401 0.913687 2736.54
0.079895 0.0561416 3.75967e-07 1.73838e-05 168 0.0556117 1.72197e-05 0.0034651 0.842828 3229.53
0.0844305 0.0637187 4.43698e-07 1.67182e-05 168 0.063999 1.67917e-05 0.00326121 0.861232 3811.34
0.0892234 0.0665931 5.23632e-07 1.48052e-05 290 0.06642 1.47667e-05 0.00306301 1.40172 4497.96
0.0942883 0.0624654 6.17966e-07 1.17675e-05 288 0.0623881 1.1753e-05 0.00287109 1.18041 5308.28
0.0996408 0.0644027 7.29294e-07 1.02804e-05 366 0.063974 1.0212e-05 0.00268591 1.40088 6264.59
0.105297 0.0858024 8.60678e-07 1.16056e-05 420 0.0853533 1.15449e-05 0.00250785 1.94364 7393.17
0.111275 0.0797314 1.01573e-06 9.1382e-06 398 0.0796621 9.13026e-06 0.00233721 1.55613 8725.07
0.117591 0.101493 1.19872e-06 9.8566e-06 624 0.101668 9.8736e-06 0.00217419 2.82887 10296.9
0.124267 0.0960725 1.41467e-06 7.90595e-06 642 0.0960072 7.90057e-06 0.00201893 2.51402 12151.9
0.131321 0.117608 1.66953e-06 8.20078e-06 800 0.117612 8.20103e-06 0.00187147 3.5056 14341.1
0.138776 0.12446 1.9703e-06 7.35375e-06 858 0.124641 7.36445e-06 0.00173182 3.6433 16924.7
0.146654 0.135601 2.32525e-06 6.78897e-06 1080 0.13672 6.84496e-06 0.00159991 4.58281 19973.8
0.154979 0.141702 2.74415e-06 6.01141e-06 1286 0.142692 6.05341e-06 0.00147563 5.23888 23572.1
0.163777 0.165921 3.23852e-06 5.96439e-06 1650 0.166148 5.97254e-06 0.00135884 7.24239 27818.7
0.173074 0.177196 3.82195e-06 5.39733e-06 1778 0.177608 5.40988e-06 0.00124933 7.68126 32830.3
0.182899 0.194873 4.51048e-06 5.02968e-06 2112 0.195049 5.03422e-06 0.00114689 9.26215 38744.7
0.193281 0.21352 5.32305e-06 4.66969e-06 2570 0.213814 4.67611e-06 0.00105127 11.4158 45724.7
0.204254 0.22624 6.28202e-06 4.19257e-06 3030 0.226133 4.19058e-06 0.000962209 13.2024 53962.1
0.215848 0.237144 7.41374e-06 3.72378e-06 3434 0.236901 3.71997e-06 0.000879423 14.5408 63683.5
0.228102 0.251876 8.74934e-06 3.35136e-06 4218 0.251855 3.35109e-06 0.000802624 17.6123 75156.3
0.24105 0.270264 1.03256e-05 3.04709e-06 4766 0.270291 3.04739e-06 0.000731515 19.8525 88695.9
0.254734 0.288886 1.21857e-05 2.75985e-06 6026 0.288951 2.76047e-06 0.000665798 24.9788 104675
0.269195 0.317786 1.4381e-05 2.57249e-06 6480 0.317836 2.5729e-06 0.000605173 27.5454 123532
0.284476 0.34594 1.69718e-05 2.37291e-06 8162 0.346521 2.3769e-06 0.000549345 35.2561 145787
0.300625 0.363894 2.00293e-05 2.11504e-06 9578 0.364065 2.11604e-06 0.000498021 40.6767 172051
0.317691 0.402354 2.36377e-05 1.98159e-06 11234 0.402198 1.98082e-06 0.000450916 49.3687 203046
0.335725 0.428365 2.78961e-05 1.78764e-06 13344 0.42809 1.7865e-06 0.000407755 58.5016 239625
0.354784 0.45497 3.29216e-05 1.60884e-06 15464 0.454473 1.60708e-06 0.000368269 67.5567 282795
0.374924 0.503269 3.88525e-05 1.50797e-06 18458 0.503015 1.5072e-06 0.000332202 83.7865 333741
0.396207 0.543831 4.58519e-05 1.38076e-06 22232 0.543159 1.37905e-06 0.000299307 102.56 393865
0.418699 0.578496 5.41123e-05 1.24456e-06 25628 0.577103 1.24156e-06 0.00026935 118.417 464821
0.442467 0.632072 6.38607e-05 1.15224e-06 30320 0.630781 1.14989e-06 0.000242108 144.299 548560
0.467585 0.680899 7.53654e-05 1.05177e-06 35452 0.679993 1.05037e-06 0.00021737 171.538 647384
0.494129 0.743269 8.89427e-05 9.7285e-07 41792 0.742635 9.7202e-07 0.000194938 208.565 764012
0.522179 0.813556 0.000104966 9.02296e-07 49988 0.813436 9.02163e-07 0.000174625 258.291 901651
0.551822 0.869467 0.000123876 8.17102e-07 59110 0.868572 8.16261e-07 0.000156255 309.104 1.06409e+06
0.583147 0.948355 0.000146192 7.5519e-07 69716 0.94726 7.54318e-07 0.000139664 376.967 1.25578e+06
0.616251 1.02012 0.000172529 6.8833e-07 82210 1.01798 6.86888e-07 0.0001247 453.79 1.48202e+06
0.651234 1.11196 0.000203611 6.3577e-07 96722 1.10994 6.34614e-07 0.00011122 552.892 1.74901e+06
0.688203 1.21868 0.000240292 5.90417e-07 113098 1.21693 5.89573e-07 9.90935e-05 673.859 2.06409e+06
0.72727 1.33076 0.000283581 5.46302e-07 135190 1.32921 5.45664e-07 8.81969e-05 837.382 2.43595e+06
0.768555 1.45239 0.000334669 5.05215e-07 158170 1.4503 5.04491e-07 7.84179e-05 1019.03 2.87479e+06
0.812184 1.58674 0.000394961 4.67693e-07 188560 1.58432 4.66981e-07 6.96525e-05 1266.12 3.39269e+06
0.85829 1.74403 0.000466114 4.35583e-07 220444 1.74136 4.34916e-07 6.1805e-05 1553.62 4.00389e+06
0.907013 1.9037 0.000550086 4.02882e-07 261388 1.90079 4.02266e-07 5.47875e-05 1922.13 4.7252e+06
0.958501 2.09042 0.000649185 3.74865e-07 308244 2.08702 3.74256e-07 4.85194e-05 2381.52 5.57646e+06
1.01291 2.29475 0.000766138 3.48689e-07 364396 2.29097 3.48115e-07 4.29272e-05 2959.92 6.58107e+06
1.07041 2.52028 0.00090416 3.24499e-07 429162 2.51595 3.23941e-07 3.79435e-05 3670.27 7.76667e+06
1.13118 2.77588 0.00106705 3.0285e-07 506358 2.77133 3.02354e-07 3.3507e-05 4576.67 9.16586e+06
1.19539 3.06584 0.00125928 2.83425e-07 598590 3.06071 2.82951e-07 2.9562e-05 5738.96 1.08171e+07
1.26325 3.35807 0.00148614 2.63051e-07 704844 3.35229 2.62598e-07 2.60578e-05 7115.33 1.27658e+07
1.33496 3.73578 0.00175387 2.47967e-07 834620 3.72905 2.4752e-07 2.29484e-05 9018.38 1.50656e+07
1.41075 4.11325 0.00206984 2.31344e-07 981444 4.10551 2.30909e-07 2.01923e-05 11244.5 1.77798e+07
1.49083 4.54546 0.00244272 2.16628e-07 1.15998e+06 4.53723 2.16235e-07 1.77518e-05 14155.4 2.09828e+07
1.57546 5.03061 0.00288279 2.03151e-07 1.36931e+06 5.02141 2.02779e-07 1.55929e-05 17840 2.4763e+07
1.66489 5.55699 0.00340213 1.90151e-07 1.61652e+06 5.54623 1.89783e-07 1.3685e-05 22461.2 2.92241e+07
1.75941 6.15171 0.00401503 1.78368e-07 1.90601e+06 6.1394 1.78011e-07 1.20007e-05 28329.3 3.44889e+07
1.85928 6.81723 0.00473835 1.67491e-07 2.24913e+06 6.80368 1.67158e-07 1.05151e-05 35825.4 4.07021e+07
1.96483 7.54943 0.00559198 1.57166e-07 2.65744e+06 7.53458 1.56857e-07 9.20606e-06 45367.9 4.80347e+07
2.07637 8.35331 0.00659939 1.47355e-07 3.13125e+06 8.3365 1.47059e-07 8.05366e-06 57291.5 5.66883e+07
2.19424 9.25313 0.00778828 1.38311e-07 3.69915e+06 9.23488 1.38038e-07 7.04008e-06 72674.4 6.69008e+07
2.3188 10.2215 0.00919136 1.29463e-07 4.36472e+06 10.2012 1.29205e-07 6.1494e-06 91890.6 7.89532e+07
2.45043 11.2795 0.0108472 1.21055e-07 5.14913e+06 11.258 1.20824e-07 5.36741e-06 116132 9.31768e+07
2.58954 12.4453 0.0128014 1.13177e-07 6.07894e+06 12.4213 1.12959e-07 4.68145e-06 146963 1.09963e+08
2.73654 13.6847 0.0151076 1.05451e-07 7.17304e+06 13.6585 1.05249e-07 4.08023e-06 185383 1.29773e+08
2.89188 15.0653 0.0178292 9.83684e-08 8.46557e+06 15.0363 9.81786e-08 3.55373e-06 234329 1.53152e+08
3.05605 16.5391 0.0210412 9.15061e-08 9.98773e+06 16.5077 9.13328e-08 3.09304e-06 295482 1.80743e+08
3.22953 18.1405 0.0248319 8.50454e-08 1.1797e+07 18.1058 8.48828e-08 2.69025e-06 372932 2.13304e+08
3.41286 19.868 0.0293054 7.89252e-08 1.39144e+07 19.8303 7.87757e-08 2.33837e-06 469641 2.51731e+08
3.6066 21.7178 0.0345848 7.31038e-08 1.64163e+07 21.6772 7.29673e-08 2.0312e-06 590829 2.97081e+08
3.81134 23.6524 0.0408154 6.74624e-08 1.93821e+07 23.6094 6.73397e-08 1.76327e-06 741559 3.50601e+08
4.0277 25.7051 0.0481684 6.21251e-08 2.28754e+07 25.6576 6.20104e-08 1.52972e-06 929016 4.13763e+08
4.25634 27.8924 0.056846 5.71211e-08 2.69929e+07 27.8412 5.70162e-08 1.32631e-06 1.16252e+06 4.88304e+08
4.49796 30.1859 0.067087 5.23812e-08 3.18542e+07 30.1303 5.22849e-08 1.14926e-06 1.45186e+06 5.76273e+08
4.7533 32.6179 0.0791729 4.79611e-08 3.75892e+07 32.5592 4.78749e-08 9.95263e-07 1.8114e+06 6.8009e+08
5.02313 35.1401 0.0934361 4.37823e-08 4.43706e+07 35.0776 4.37044e-08 8.61414e-07 2.25518e+06 8.0261e+08
5.30828 37.7721 0.110269 3.98775e-08 5.23593e+07 37.7054 3.98071e-08 7.45152e-07 2.80206e+06 9.47202e+08
5.60962 40.5419 0.130134 3.6268e-08 6.1787e+07 40.4707 3.62042e-08 6.44232e-07 3.47839e+06 1.11784e+09
5.92807 43.3753 0.153578 3.28793e-08 7.29346e+07 43.3002 3.28224e-08 5.56685e-07 4.30772e+06 1.31923e+09
6.26459 46.3824 0.181246 2.97917e-08 8.60651e+07 46.3023 2.97403e-08 4.80786e-07 5.33299e+06 1.55689e+09
6.62021 49.4749 0.213898 2.69271e-08 1.01558e+08 49.39 2.68809e-08 4.15026e-07 6.58914e+06 1.83737e+09
6.99602 52.7002 0.252432 2.4304e-08 1.1986e+08 52.6106 2.42627e-08 3.58083e-07 8.13521e+06 2.16837e+09
7.39317 56.0618 0.297908 2.19076e-08 1.41457e+08 55.9667 2.18705e-08 3.08803e-07 1.00354e+07 2.55901e+09
7.81286 59.5818 0.351577 1.97289e-08 1.66936e+08 59.4814 1.96957e-08 2.66181e-07 1.2373e+07 3.02002e+09
8.25637 63.2647 0.414914 1.77506e-08 1.97025e+08 63.1581 1.77207e-08 2.29336e-07 1.52497e+07 3.56409e+09
8.72507 67.1173 0.489662 1.59569e-08 2.32497e+08 67.0039 1.59299e-08 1.97503e-07 1.87841e+07 4.20617e+09
9.22037 71.2578 0.577876 1.43551e-08 2.74404e+08 71.1355 1.43305e-08 1.70014e-07 2.31693e+07 4.96392e+09
9.74378 75.7848 0.681982 1.29366e-08 3.2382e+08 75.6525 1.2914e-08 1.46289e-07 2.86359e+07 5.85818e+09
10.2969 80.8819 0.804843 1.1699e-08 3.82165e+08 80.735 1.16778e-08 1.25822e-07 3.55339e+07 6.91355e+09
10.8814 86.9362 0.949838 1.06552e-08 4.51027e+08 86.7669 1.06344e-08 1.08175e-07 4.44257e+07 8.15905e+09
11.4992 94.6972 1.12095 9.83466e-09 5.32251e+08 94.4922 9.81338e-09 9.29669e-08 5.63051e+07 9.62892e+09
12.1519 105.556 1.3229 9.28895e-09 6.28157e+08 105.287 9.26532e-09 7.98658e-08 7.30591e+07 1.13636e+10
12.8418 117.686 1.56122 8.77548e-09 3.82727e+08 121.808 9.08281e-09 6.85852e-08 4.89699e+07 1.34108e+10
13.5708 0 1.84248 0 0 0 0 5.88765e-08 0 1.58268e+10
14.3411 0 2.17441 0 0 0 0 5.05241e-08 0 1.8678e+10
15.1552 0 2.56613 0 0 0 0 4.33417e-08 0 2.20429e+10
16.0156 0 3.02843 0 0 0 0 3.71677e-08 0 2.6014e+10
16.9247 0 3.574 0 0 0 0 3.18628e-08 0 3.07005e+10
17.8855 0 4.21787 0 0 0 0 2.73063e-08 0 3.62312e+10
18.9008 0 4.97773 0 0 0 0 2.33941e-08 0 4.27584e+10
19.9738 0 5.87448 0 0 0 0 2.00364e-08 0 5.04614e+10
21.1076 0 6.93279 0 0 0 0 1.71555e-08 0 5.95522e+10
22.3058 0 8.18175 0 0 0 0 1.46847e-08 0 7.02807e+10
23.5721 0 9.65571 0 0 0 0 1.25662e-08 0 8.29419e+10
24.9102 0 11.3952 0 0 0 0 1.07504e-08 0 9.78842e+10
26.3243 0 13.4481 0 0 0 0 9.19452e-09 0 1.15518e+11
27.8187 0 15.8708 0 0 0 0 7.86182e-09 0 1.36329e+11
29.3979 0 18.73 0 0 0 0 6.72061e-09 0 1.60889e+11
31.0667 0 22.1042 0 0 0 0 5.74366e-09 0 1.89874e+11
32.8303 0 26.0864 0 0 0 0 4.90756e-09 0 2.2408e+11
34.694 0 30.7859 0 0 0 0 4.19221e-09 0 2.64449e+11
36.6634 0 36.3321 0 0 0 0 3.58032e-09 0 3.1209e+11
38.7447 0 42.8774 0 0 0 0 3.05709e-09 0 3.68314e+11
40.9442 0 50.6018 0 0 0 0 2.60976e-09 0 4.34667e+11
43.2685 0 59.7179 0 0 0 0 2.22743e-09 0 5.12973e+11
45.7247 0 70.4762 0 0 0 0 1.90073e-09 0 6.05386e+11
48.3204 0 83.1727 0 0 0 0 1.62163e-09 0 7.14448e+11
51.0634 0 98.1565 0 0 0 0 1.38326e-09 0 8.43158e+11
53.9621 0 115.84 0 0 0 0 1.1797e-09 0 9.95055e+11
57.0254 0 136.709 0 0 0 0 1.00592e-09 0 1.17432e+12
60.2626 0 161.337 0 0 0 0 8.57591e-10 0 1.38587e+12
63.6835 0 190.402 0 0 0 0 7.3101e-10 0 1.63554e+12
67.2987 0 224.704 0 0 0 0 6.23009e-10 0 1.93019e+12
71.1191 0 265.185 0 0 0 0 5.30879e-10 0 2.27792e+12
75.1563 0 312.958 0 0 0 0 4.52303e-10 0 2.68829e+12
79.4227 0 369.339 0 0 0 0 3.85299e-10 0 3.17259e+12
83.9313 0 435.876 0 0 0 0 3.28173e-10 0 3.74415e+12
88.6959 0 514.4 0 0 0 0 2.79476e-10 0 4.41866e+12
93.7309 0 607.071 0 0 0 0 2.37972e-10 0 5.2147e+12
99.0518 0 716.436 0 0 0 0 2.02605e-10 0 6.15414e+12
104.675 0 845.504 0 0 0 0 1.72471e-10 0 7.26283e+12
110.617 0 997.824 0 0 0 0 1.468e-10 0 8.57124e+12
116.896 0 1177.58 0 0 0 0 1.24935e-10 0 1.01154e+13
123.532 0 1389.73 0 0 0 0 1.06313e-10 0 1.19377e+13
130.545 0 1640.09 0 0 0 0 9.04567e-11 0 1.40883e+13
137.955 0 1935.56 0 0 0 0 7.69563e-11 0 1.66263e+13
145.787 0 2284.26 0 0 0 0 6.54636e-11 0 1.96216e+13
154.063 0 2695.77 0 0 0 0 5.56812e-11 0 2.31565e+13
162.808 0 3181.42 0 0 0 0 4.73556e-11 0 2.73282e+13
172.051 0 3754.56 0 0 0 0 4.02708e-11 0 3.22515e+13
181.818 0 4430.96 0 0 0 0 3.42426e-11 0 3.80616e+13
192.139 0 5229.21 0 0 0 0 2.91139e-11 0 4.49186e+13
203.046 0 6171.26 0 0 0 0 2.4751e-11 0 5.30108e+13
214.572 0 7283.03 0 0 0 0 2.10401e-11 0 6.25608e+13
226.753 0 8595.09 0 0 0 0 1.78839e-11 0 7.38313e+13
239.625 0 10143.5 0 0 0 0 1.51999e-11 0 8.71322e+13
253.228 0 11970.9 0 0 0 0 1.29176e-11 0 1.02829e+14
267.603 0 14127.5 0 0 0 0 1.09771e-11 0 1.21354e+14
282.795 0 16672.6 0 0 0 0 9.3274e-12 0 1.43217e+14
298.848 0 19676.2 0 0 0 0 7.925e-12 0 1.69017e+14
315.813 0 23220.9 0 0 0 0 6.73295e-12 0 1.99466e+14
333.741 0 27404.3 0 0 0 0 5.71979e-12 0 2.35401e+14
352.686 0 32341.2 0 0 0 0 4.85874e-12 0 2.77809e+14
372.707 0 38167.6 0 0 0 0 4.12703e-12 0 3.27857e+14
393.865 0 45043.5 0 0 0 0 3.50528e-12 0 3.86921e+14
416.224 0 53158.3 0 0 0 0 2.97701e-12 0 4.56626e+14
439.852 0 62734.9 0 0 0 0 2.52819e-12 0 5.38888e+14
464.821 0 74036.7 0 0 0 0 2.1469e-12 0 6.35971e+14
491.207 0 87374.6 0 0 0 0 1.82301e-12 0 7.50542e+14
519.092 0 103115 0 0 0 0 1.54789e-12 0 8.85755e+14
548.56 0 121692 0 0 0 0 1.31422e-12 0 1.04533e+15
579.7 0 143615 0 0 0 0 1.11576e-12 0 1.23364e+15
612.608 0 169488 0 0 0 0 9.47223e-13 0 1.45589e+15
647.384 0 200021 0 0 0 0 8.041e-13 0 1.71817e+15
684.134 0 236056 0 0 0 0 6.82568e-13 0 2.0277e+15
722.971 0 278582 0 0 0 0 5.79376e-13 0 2.393e+15
764.012 0 328769 0 0 0 0 4.91762e-13 0 2.8241e+15
