0.871506
200
1.0655e+09
8589934592
0.0129181 0 1.58924e-09 0 0 0 0 0.00677225 0 13.6515
0.0136515 0 1.87554e-09 0 0 0 0 0.00688819 0 16.1108
0.0144264 0 2.21343e-09 0 0 0 0 0.00699249 0 19.0132
0.0152454 0 2.61218e-09 0 0 0 0 0.00708412 0 22.4385
0.0161108 0 3.08278e-09 0 0 0 0 0.00716212 0 26.4808
0.0170254 0 3.63815e-09 0 0 0 0 0.00722559 0 31.2514
0.0179919 0 4.29357e-09 0 0 0 0 0.00727371 0 36.8815
0.0190132 0 5.06707e-09 0 0 0 0 0.00730578 0 43.5258
0.0200925 0 5.97991e-09 0 0 0 0 0.00732122 0 51.367
0.0212331 0 7.05721e-09 0 0 0 0 0.00731958 0 60.621
0.0224385 0 8.32858e-09 0 0 0 0 0.00730056 0 71.542
0.0237123 0 9.829e-09 0 0 0 0 0.00726401 0 84.4305
0.0250583 0 1.15997e-08 0 0 0 0 0.00720995 0 99.6408
0.0264808 0 1.36894e-08 0 0 0 0 0.00713857 0 117.591
0.0279841 0 1.61556e-08 0 0 0 0 0.00705021 0 138.776
0.0295727 0 1.90661e-08 0 0 0 0 0.00694538 0 163.777
0.0312514 0 2.25009e-08 0 0 0 0 0.00682475 0 193.281
0.0330255 0 2.65545e-08 0 0 0 0 0.00668915 0 228.102
0.0349003 0 3.13384e-08 0 0 0 0 0.00653951 0 269.195
0.0368815 0 3.69841e-08 0 0 0 0 0.00637693 0 317.691
0.0389751 0 4.36469e-08 0 0 0 0 0.00620256 0 374.924
0.0411876 0 5.151e-08 0 0 0 0 0.00601767 0 442.467
0.0435258 0 6.07896e-08 0 0 0 0 0.00582358 0 522.179
0.0459966 0 7.1741e-08 0 0 0 0 0.00562166 0 616.251
0.0486077 0 8.46654e-08 0 0 0 0 0.0054133 0 727.27
0.051367 0 9.99181e-08 0 0 0 0 0.00519989 0 858.29
0.054283 0 1.17919e-07 0 0 0 0 0.0049828 0 1012.91
0.0573645 0 1.39162e-07 0 0 0 0 0.00476339 0 1195.39
0.060621 0 1.64232e-07 0 0 0 0 0.00454293 0 1410.75
0.0640622 0 1.93819e-07 0 0 0 0 0.00432265 0 1664.89
0.0676989 0 2.28736e-07 0 0 0 0 0.00410371 0 1964.83
0.071542 0 2.69944e-07 0 0 0 0 0.00388717 0 2318.8
0.0756032 0 3.18575e-07 0 0 0 0 0.00367401 0 2736.54
0.079895 0 3.75967e-07 0 0 0 0 0.0034651 0 3229.53
0.0844305 0 4.43698e-07 0 0 0 0 0.00326121 0 3811.34
0.0892234 0 5.23632e-07 0 0 0 0 0.00306301 0 4497.96
0.0942883 0 6.17966e-07 0 0 0 0 0.00287109 0 5308.28
0.0996408 0 7.29294e-07 0 0 0 0 0.00268591 0 6264.59
0.105297 0 8.60678e-07 0 0 0 0 0.00250785 0 7393.17
0.111275 0 1.01573e-06 0 0 0 0 0.00233721 0 8725.07
0.117591 0 1.19872e-06 0 0 0 0 0.00217419 0 10296.9
0.124267 0 1.41467e-06 0 0 0 0 0.00201893 0 12151.9
0.131321 0 1.66953e-06 0 0 0 0 0.00187147 0 14341.1
0.138776 0 1.9703e-06 0 0 0 0 0.00173182 0 16924.7
0.146654 0 2.32525e-06 0 0 0 0 0.00159991 0 19973.8
0.154979 0 2.74415e-06 0 0 0 0 0.00147563 0 23572.1
0.163777 0 3.23852e-06 0 0 0 0 0.00135884 0 27818.7
0.173074 0 3.82195e-06 0 0 0 0 0.00124933 0 32830.3
0.182899 0 4.51048e-06 0 0 0 0 0.00114689 0 38744.7
0.193281 0 5.32305e-06 0 0 0 0 0.00105127 0 45724.7
0.204254 0 6.28202e-06 0 0 0 0 0.000962209 0 53962.1
0.215848 0 7.41374e-06 0 0 0 0 0.000879423 0 63683.5
0.228102 0 8.74934e-06 0 0 0 0 0.000802624 0 75156.3
0.24105 0 1.03256e-05 0 0 0 0 0.000731515 0 88695.9
0.254734 0 1.21857e-05 0 0 0 0 0.000665798 0 104675
0.269195 0 1.4381e-05 0 0 0 0 0.000605173 0 123532
0.284476 0 1.69718e-05 0 0 0 0 0.000549345 0 145787
0.300625 0 2.00293e-05 0 0 0 0 0.000498021 0 172051
0.317691 0 2.36377e-05 0 0 0 0 0.000450916 0 203046
0.335725 0 2.78961e-05 0 0 0 0 0.000407755 0 239625
0.354784 0 3.29216e-05 0 0 0 0 0.000368269 0 282795
0.374924 0 3.88525e-05 0 0 0 0 0.000332202 0 333741
0.396207 1.56655 4.58519e-05 3.97738e-06 6 1.523 3.86681e-06 0.000299307 0.0797319 393865
0.418699 0 5.41123e-05 0 0 0 0 0.00026935 0 464821
0.442467 0 6.38607e-05 0 0 0 0 0.000242108 0 548560
0.467585 0 7.53654e-05 0 0 0 0 0.00021737 0 647384
0.494129 0 8.89427e-05 0 0 0 0 0.000194938 0 764012
0.522179 0 0.000104966 0 0 0 0 0.000174625 0 901651
0.551822 0 0.000123876 0 0 0 0 0.000156255 0 1.06409e+06
0.583147 4.34185 0.000146192 3.45748e-06 12 4.56982 3.63902e-06 0.000139664 0.297069 1.25578e+06
0.616251 0 0.000172529 0 0 0 0 0.0001247 0 1.48202e+06
0.651234 0 0.000203611 0 0 0 0 0.00011122 0 1.74901e+06
0.688203 10.5116 0.000240292 5.09261e-06 8 10.2501 4.96591e-06 9.90935e-05 0.411136 2.06409e+06
0.72727 0 0.000283581 0 0 0 0 8.81969e-05 0 2.43595e+06
0.768555 0 0.000334669 0 0 0 0 7.84179e-05 0 2.87479e+06
0.812184 10.0273 0.000394961 2.95557e-06 6 10.2417 3.01876e-06 6.96525e-05 0.254599 3.39269e+06
0.85829 0 0.000466114 0 0 0 0 6.1805e-05 0 4.00389e+06
0.907013 1.13646 0.000550086 2.40511e-07 24 1.15827 2.45126e-07 5.47875e-05 0.105358 4.7252e+06
0.958501 4.04349 0.000649185 7.25099e-07 24 3.80664 6.82627e-07 4.85194e-05 0.358668 5.57646e+06
1.01291 0 0.000766138 0 0 0 0 4.29272e-05 0 6.58107e+06
1.07041 0 0.00090416 0 0 0 0 3.79435e-05 0 7.76667e+06
1.13118 5.95884 0.00106705 6.50113e-07 12 5.88564 6.42127e-07 3.3507e-05 0.232827 9.16586e+06
1.19539 4.60882 0.00125928 4.26067e-07 30 4.51381 4.17284e-07 2.9562e-05 0.43238 1.08171e+07
1.26325 10.8787 0.00148614 8.5217e-07 24 10.715 8.39347e-07 2.60578e-05 0.784873 1.27658e+07
1.33496 16.3027 0.00175387 1.08211e-06 24 16.3385 1.08449e-06 2.29484e-05 1.13169 1.50656e+07
1.41075 16.7379 0.00206984 9.41401e-07 32 16.9906 9.55613e-07 2.01923e-05 1.4919 1.77798e+07
1.49083 3.52228 0.00244272 1.67865e-07 48 3.44719 1.64286e-07 1.77518e-05 0.4539 2.09828e+07
1.57546 42.5913 0.00288279 1.71996e-06 6 40.5565 1.63779e-06 1.55929e-05 0.661826 2.4763e+07
1.66489 4.24784 0.00340213 1.45354e-07 84 4.21329 1.44172e-07 1.3685e-05 0.892198 2.92241e+07
1.75941 5.04405 0.00401503 1.46252e-07 48 4.95141 1.43566e-07 1.20007e-05 0.584973 3.44889e+07
1.85928 7.71615 0.00473835 1.89576e-07 72 7.77837 1.91105e-07 1.05151e-05 1.29808 4.07021e+07
1.96483 13.2762 0.00559198 2.76388e-07 54 12.9906 2.70442e-07 9.20606e-06 1.62121 4.80347e+07
2.07637 12.8265 0.00659939 2.26264e-07 104 12.9175 2.2787e-07 8.05366e-06 2.92183 5.66883e+07
2.19424 8.11704 0.00778828 1.21329e-07 120 8.2731 1.23662e-07 7.04008e-06 2.06809 6.69008e+07
2.3188 10.2406 0.00919136 1.29705e-07 156 10.0439 1.27214e-07 6.1494e-06 3.2904 7.89532e+07
2.45043 9.95153 0.0108472 1.06803e-07 126 9.85906 1.0581e-07 5.36741e-06 2.50719 9.31768e+07
2.58954 11.1657 0.0128014 1.0154e-07 192 11.2199 1.02033e-07 4.68145e-06 4.16447 1.09963e+08
2.73654 30.6268 0.0151076 2.36003e-07 152 30.9326 2.3836e-07 4.08023e-06 8.79176 1.29773e+08
2.89188 16.8434 0.0178292 1.09978e-07 378 16.9237 1.10503e-07 3.55373e-06 11.698 1.53152e+08
3.05605 15.8615 0.0210412 8.77575e-08 264 15.6294 8.64734e-08 3.09304e-06 7.49036 1.80743e+08
3.22953 17.8458 0.0248319 8.36636e-08 366 17.6847 8.29084e-08 2.69025e-06 11.3822 2.13304e+08
3.41286 17.4978 0.0293054 6.95097e-08 428 17.2884 6.86781e-08 2.33837e-06 12.7226 2.51731e+08
3.6066 21.8947 0.0345848 7.36994e-08 486 21.6552 7.2893e-08 2.0312e-06 17.6338 2.97081e+08
3.81134 19.6146 0.0408154 5.59457e-08 600 19.58 5.58469e-08 1.76327e-06 19.0371 3.50601e+08
4.0277 27.6945 0.0481684 6.69332e-08 738 27.5808 6.66583e-08 1.52972e-06 32.2913 4.13763e+08
4.25634 25.5361 0.056846 5.22955e-08 824 25.3973 5.20113e-08 1.32631e-06 32.4898 4.88304e+08
4.49796 27.8551 0.067087 4.83367e-08 954 27.6933 4.80559e-08 1.14926e-06 40.1244 5.76273e+08
4.7533 28.1438 0.0791729 4.13824e-08 1094 28.0216 4.12028e-08 9.95263e-07 45.4878 6.8009e+08
5.02313 31.442 0.0934361 3.91747e-08 1332 31.5465 3.93049e-08 8.61414e-07 60.5757 8.0261e+08
5.30828 35.4912 0.110269 3.74695e-08 1614 35.4385 3.74138e-08 7.45152e-07 81.1589 9.47202e+08
5.60962 37.9331 0.130134 3.39342e-08 1850 37.9369 3.39376e-08 6.44232e-07 97.4467 1.11784e+09
5.92807 35.831 0.153578 2.71606e-08 2238 35.7954 2.71337e-08 5.56685e-07 109.192 1.31923e+09
6.26459 40.794 0.181246 2.62023e-08 2546 40.9059 2.62742e-08 4.80786e-07 138.754 1.55689e+09
6.62021 41.9818 0.213898 2.28489e-08 3264 42.041 2.28811e-08 4.15026e-07 179.697 1.83737e+09
6.99602 43.296 0.252432 1.99671e-08 3506 43.3456 1.99899e-08 3.58083e-07 195.498 2.16837e+09
7.39317 48.756 0.297908 1.90527e-08 4506 48.7292 1.90422e-08 3.08803e-07 278.013 2.55901e+09
7.81286 55.7321 0.351577 1.84542e-08 5018 55.4532 1.83618e-08 2.66181e-07 347.896 3.02002e+09
8.25637 54.5653 0.414914 1.53098e-08 5852 54.4778 1.52852e-08 2.29336e-07 390.661 3.56409e+09
8.72507 60.1452 0.489662 1.42993e-08 7362 60.0123 1.42677e-08 1.97503e-07 533.011 4.20617e+09
9.22037 62.2802 0.577876 1.25466e-08 8306 62.0785 1.25059e-08 1.70014e-07 612.959 4.96392e+09
9.74378 66.419 0.681982 1.13378e-08 9698 66.2874 1.13154e-08 1.46289e-07 751.622 5.85818e+09
10.2969 70.9894 0.804843 1.02682e-08 11816 70.9141 1.02573e-08 1.25822e-07 964.283 6.91355e+09
10.8814 80.5091 0.949838 9.86747e-09 13682 80.3248 9.84487e-09 1.08175e-07 1248.03 8.15905e+09
11.4992 80.6177 1.12095 8.37246e-09 16152 80.6658 8.37745e-09 9.29669e-08 1454.63 9.62892e+09
12.1519 85.1652 1.3229 7.49457e-09 19472 84.9726 7.47762e-09 7.98658e-08 1827.24 1.13636e+10
12.8418 88.663 1.56122 6.61132e-09 22670 88.4448 6.59505e-09 6.85852e-08 2185.29 1.34108e+10
13.5708 94.4632 1.84248 5.96857e-09 26224 94.2625 5.95589e-09 5.88765e-08 2658.45 1.58268e+10
14.3411 101.411 2.17441 5.42946e-09 31640 101.383 5.42796e-09 5.05241e-08 3400.12 1.8678e+10
15.1552 107.655 2.56613 4.88389e-09 37484 107.444 4.87431e-09 4.33417e-08 4223.82 2.20429e+10
16.0156 114.068 3.02843 4.38489e-09 43856 113.895 4.37824e-09 3.71677e-08 5173.94 2.6014e+10
16.9247 120.956 3.574 3.93986e-09 51362 120.785 3.93432e-09 3.18628e-08 6350.95 3.07005e+10
17.8855 126.835 4.21787 3.5007e-09 61636 126.653 3.49569e-09 2.73063e-08 7901.8 3.62312e+10
18.9008 134.539 4.97773 3.14648e-09 72218 134.239 3.13947e-09 2.33941e-08 9713.24 4.27584e+10
19.9738 143.814 5.87448 2.84998e-09 84586 143.622 2.84618e-09 2.00364e-08 12031.5 5.04614e+10
21.1076 153.429 6.93279 2.57639e-09 100708 153.173 2.57209e-09 1.71555e-08 15124.1 5.95522e+10
22.3058 161.46 8.18175 2.29737e-09 118712 161.17 2.29324e-09 1.46847e-08 18572.1 7.02807e+10
23.5721 169.437 9.65571 2.04284e-09 140410 169.136 2.03921e-09 1.25662e-08 22826 8.29419e+10
24.9102 177.623 11.3952 1.81463e-09 164374 177.253 1.81084e-09 1.07504e-08 27745.8 9.78842e+10
26.3243 186.937 13.4481 1.61825e-09 194680 186.668 1.61592e-09 9.19452e-09 34263.9 1.15518e+11
27.8187 197.207 15.8708 1.44655e-09 230196 196.924 1.44447e-09 7.86182e-09 42355.4 1.36329e+11
29.3979 209.649 18.73 1.30306e-09 271156 209.298 1.30089e-09 6.72061e-09 52574.5 1.60889e+11
31.0667 219.479 22.1042 1.15592e-09 321076 219.124 1.15405e-09 5.74366e-09 64617 1.89874e+11
32.8303 232.552 26.0864 1.03781e-09 377436 232.14 1.03597e-09 4.90756e-09 79816.8 2.2408e+11
34.694 244.228 30.7859 9.23536e-10 447594 243.749 9.21726e-10 4.19221e-09 98604.2 2.64449e+11
36.6634 257.098 36.3321 8.23795e-10 525078 256.598 8.22192e-10 3.58032e-09 120815 3.1209e+11
38.7447 270.609 42.8774 7.34725e-10 621924 270.076 7.33277e-10 3.05709e-09 149470 3.68314e+11
40.9442 282.907 50.6018 6.50861e-10 732630 282.441 6.49787e-10 2.60976e-09 182714 4.34667e+11
43.2685 298.786 59.7179 5.82459e-10 865596 298.287 5.81487e-10 2.22743e-09 226348 5.12973e+11
45.7247 313.026 70.4762 5.17069e-10 1.02168e+06 312.536 5.16259e-10 1.90073e-09 277933 6.05386e+11
48.3204 327.942 83.1727 4.59014e-10 1.20544e+06 327.38 4.58228e-10 1.62163e-09 341207 7.14448e+11
51.0634 344.505 98.1565 4.08589e-10 1.42103e+06 343.947 4.07927e-10 1.38326e-09 419747 8.43158e+11
53.9621 361.25 115.84 3.63045e-10 1.67997e+06 360.639 3.62431e-10 1.1797e-09 516998 9.95055e+11
57.0254 379.623 136.709 3.23272e-10 1.98018e+06 378.941 3.22691e-10 1.00592e-09 636369 1.17432e+12
60.2626 398.905 161.337 2.87837e-10 2.33957e+06 398.197 2.87326e-10 8.57591e-10 785239 1.38587e+12
63.6835 420.28 190.402 2.56967e-10 2.75676e+06 419.539 2.56513e-10 7.3101e-10 969066 1.63554e+12
67.2987 441.896 224.704 2.28939e-10 3.25638e+06 441.167 2.28562e-10 6.23009e-10 1.19663e+06 1.93019e+12
71.1191 465.916 265.185 2.04536e-10 3.84387e+06 465.103 2.04179e-10 5.30879e-10 1.48096e+06 2.27792e+12
75.1563 492.07 312.958 1.83042e-10 4.53277e+06 491.181 1.82711e-10 4.52303e-10 1.83436e+06 2.68829e+12
79.4227 520.394 369.339 1.64028e-10 5.35083e+06 519.462 1.63734e-10 3.85299e-10 2.27793e+06 3.17259e+12
83.9313 551.931 435.876 1.47412e-10 6.32174e+06 550.854 1.47124e-10 3.28173e-10 2.83966e+06 3.74415e+12
88.6959 587.653 514.4 1.32993e-10 7.44986e+06 586.54 1.32742e-10 2.79476e-10 3.54514e+06 4.41866e+12
93.7309 626.566 607.071 1.20154e-10 8.79764e+06 625.345 1.1992e-10 2.37972e-10 4.44199e+06 5.2147e+12
99.0518 670.838 716.436 1.09006e-10 1.03827e+07 669.485 1.08786e-10 2.02605e-10 5.58612e+06 6.15414e+12
104.675 722.985 845.504 9.95459e-11 1.22515e+07 721.452 9.9335e-11 1.72471e-10 7.07127e+06 7.26283e+12
110.617 782.329 997.824 9.12737e-11 1.44573e+07 780.626 9.10751e-11 1.468e-10 8.98891e+06 8.57124e+12
116.896 853.524 1177.58 8.43788e-11 1.70664e+07 851.583 8.4187e-11 1.24935e-10 1.15264e+07 1.01154e+13
123.532 935.118 1389.73 7.83332e-11 2.0139e+07 932.896 7.81471e-11 1.06313e-10 1.48387e+07 1.19377e+13
130.545 1033.2 1640.09 7.33376e-11 2.37643e+07 1030.63 7.31554e-11 9.04567e-11 1.92669e+07 1.40883e+13
137.955 1147.46 1935.56 6.90148e-11 2.80503e+07 1144.53 6.88383e-11 7.69563e-11 2.51556e+07 1.66263e+13
145.787 1284.13 2284.26 6.54448e-11 3.30981e+07 1280.71 6.52706e-11 6.54636e-11 3.30886e+07 1.96216e+13
154.063 1445.95 2695.77 6.24426e-11 3.90634e+07 1441.99 6.22714e-11 5.56812e-11 4.38069e+07 2.31565e+13
162.808 1639.69 3181.42 5.99997e-11 4.61057e+07 1635.04 5.98298e-11 4.73556e-11 5.8416e+07 2.73282e+13
172.051 1869.86 3754.56 5.79774e-11 5.44046e+07 1864.42 5.78088e-11 4.02708e-11 7.83256e+07 3.22515e+13
181.818 2145.35 4430.96 5.63652e-11 6.42064e+07 2138.94 5.61968e-11 3.42426e-11 1.05687e+08 3.80616e+13
192.139 2471.55 5229.21 5.50229e-11 7.57748e+07 2463.98 5.48543e-11 2.91139e-11 1.43208e+08 4.49186e+13
203.046 2862.61 6171.26 5.40006e-11 8.94213e+07 2853.66 5.38317e-11 2.4751e-11 1.95095e+08 5.30108e+13
214.572 3330.53 7283.03 5.32368e-11 1.05538e+08 3319.99 5.30683e-11 2.10401e-11 2.67039e+08 6.25608e+13
226.753 3892.07 8595.09 5.27157e-11 1.24552e+08 3879.52 5.25458e-11 1.78839e-11 3.67136e+08 7.38313e+13
239.625 4566.23 10143.5 5.24058e-11 1.46987e+08 4551.23 5.22337e-11 1.51999e-11 5.06778e+08 8.71322e+13
253.228 5377.89 11970.9 5.22992e-11 1.7347e+08 5359.9 5.21243e-11 1.29176e-11 7.02323e+08 1.02829e+14
267.603 6358.61 14127.5 5.23971e-11 2.04703e+08 6336.99 5.2219e-11 1.09771e-11 9.77107e+08 1.21354e+14
282.795 7552.8 16672.6 5.27369e-11 2.4161e+08 7526.67 5.25545e-11 9.3274e-12 1.36606e+09 1.43217e+14
298.848 9021.29 19676.2 5.33749e-11 2.85122e+08 8989.3 5.31856e-11 7.925e-12 1.9203e+09 1.69017e+14
315.813 10845.1 23220.9 5.43708e-11 3.36491e+08 10805.5 5.41722e-11 6.73295e-12 2.71728e+09 1.99466e+14
333.741 13151.3 27404.3 5.58677e-11 3.97115e+08 13101.4 5.56559e-11 5.71979e-12 3.87879e+09 2.35401e+14
352.686 16129 32341.2 5.8058e-11 4.68637e+08 16065 5.78275e-11 4.85874e-12 5.59983e+09 2.77809e+14
372.707 20097.2 38167.6 6.12987e-11 5.53074e+08 20012.6 6.10406e-11 4.12703e-12 8.2148e+09 3.27857e+14
393.865 25583.9 45043.5 6.61218e-11 6.52716e+08 25467.6 6.58212e-11 3.50528e-12 1.23125e+10 3.86921e+14
416.224 30211.7 53158.3 6.61628e-11 2.2184e+08 31961.2 6.99942e-11 2.97701e-12 4.9303e+09 4.56626e+14
439.852 0 62734.9 0 0 0 0 2.52819e-12 0 5.38888e+14
464.821 0 74036.7 0 0 0 0 2.1469e-12 0 6.35971e+14
491.207 0 87374.6 0 0 0 0 1.82301e-12 0 7.50542e+14
519.092 0 103115 0 0 0 0 1.54789e-12 0 8.85755e+14
548.56 0 121692 0 0 0 0 1.31422e-12 0 1.04533e+15
579.7 0 143615 0 0 0 0 1.11576e-12 0 1.23364e+15
612.608 0 169488 0 0 0 0 9.47223e-13 0 1.45589e+15
647.384 0 200021 0 0 0 0 8.041e-13 0 1.71817e+15
684.134 0 236056 0 0 0 0 6.82568e-13 0 2.0277e+15
722.971 0 278582 0 0 0 0 5.79376e-13 0 2.393e+15
764.012 0 328769 0 0 0 0 4.91762e-13 0 2.8241e+15
0.871506
200
1.0655e+09
8589934592
0.0129181 0.00209919 1.58924e-09 0.00015377 6 0.00207997 0.000152362 0.00677225 0.136235 13.6515
0.0136515 0 1.87554e-09 0 0 0 0 0.00688819 0 16.1108
0.0144264 0 2.21343e-09 0 0 0 0 0.00699249 0 19.0132
0.0152454 0 2.61218e-09 0 0 0 0 0.00708412 0 22.4385
0.0161108 0 3.08278e-09 0 0 0 0 0.00716212 0 26.4808
0.0170254 0 3.63815e-09 0 0 0 0 0.00722559 0 31.2514
0.0179919 0.00262766 4.29357e-09 7.1246e-05 12 0.00262427 7.11542e-05 0.00727371 0.11754 36.8815
0.0190132 0 5.06707e-09 0 0 0 0 0.00730578 0 43.5258
0.0200925 0 5.97991e-09 0 0 0 0 0.00732122 0 51.367
0.0212331 0.00893542 7.05721e-09 0.000147398 8 0.00892764 0.00014727 0.00731958 0.1611 60.621
0.0224385 0 8.32858e-09 0 0 0 0 0.00730056 0 71.542
0.0237123 0 9.829e-09 0 0 0 0 0.00726401 0 84.4305
0.0250583 0.0158846 1.15997e-08 0.000159418 6 0.0158771 0.000159343 0.00720995 0.132665 99.6408
0.0264808 0 1.36894e-08 0 0 0 0 0.00713857 0 117.591
0.0279841 0.0219727 1.61556e-08 0.000158332 24 0.0219501 0.00015817 0.00705021 0.538988 138.776
0.0295727 0 1.90661e-08 0 0 0 0 0.00694538 0 163.777
0.0312514 0.0350965 2.25009e-08 0.000181583 24 0.0352747 0.000182505 0.00682475 0.638555 193.281
0.0330255 0 2.65545e-08 0 0 0 0 0.00668915 0 228.102
0.0349003 0.0250909 3.13384e-08 9.32072e-05 12 0.02489 9.24609e-05 0.00653951 0.171035 269.195
0.0368815 0.0603101 3.69841e-08 0.000189839 30 0.0596679 0.000187818 0.00637693 0.893091 317.691
0.0389751 0.0357567 4.36469e-08 9.53707e-05 24 0.0353889 9.43896e-05 0.00620256 0.369025 374.924
0.0411876 0.0444837 5.151e-08 0.000100535 24 0.0441816 9.98527e-05 0.00601767 0.400961 442.467
0.0435258 0.0503521 6.07896e-08 9.6427e-05 8 0.0503483 9.64195e-05 0.00582358 0.132464 522.179
0.0459966 0.0685244 7.1741e-08 0.000111196 72 0.0680271 0.000110389 0.00562166 1.42415 616.251
0.0486077 0 8.46654e-08 0 0 0 0 0.0054133 0 727.27
0.051367 0.0564017 9.99181e-08 6.57141e-05 54 0.0561128 6.53775e-05 0.00519989 0.68243 858.29
0.054283 0.0913622 1.17919e-07 9.01974e-05 60 0.0919576 9.07853e-05 0.0049828 1.0861 1012.91
0.0573645 0.106205 1.39162e-07 8.88451e-05 96 0.10601 8.86825e-05 0.00476339 1.79056 1195.39
0.060621 0.0908172 1.64232e-07 6.43753e-05 24 0.0895868 6.35031e-05 0.00454293 0.340091 1410.75
0.0640622 0.127754 1.93819e-07 7.67339e-05 134 0.127733 7.67216e-05 0.00432265 2.37871 1664.89
0.0676989 0.143368 2.28736e-07 7.29669e-05 120 0.142557 7.25542e-05 0.00410371 2.13369 1964.83
0.071542 0.141903 2.69944e-07 6.11967e-05 108 0.140078 6.04095e-05 0.00388717 1.70027 2318.8
0.0756032 0.16151 3.18575e-07 5.90197e-05 174 0.160987 5.88287e-05 0.00367401 2.79515 2736.54
0.079895 0.196757 3.75967e-07 6.09244e-05 168 0.194978 6.03735e-05 0.0034651 2.95383 3229.53
0.0844305 0.179147 4.43698e-07 4.70036e-05 168 0.179965 4.72183e-05 0.00326121 2.42137 3811.34
0.0892234 0.215487 5.23632e-07 4.79078e-05 290 0.214773 4.7749e-05 0.00306301 4.53581 4497.96
0.0942883 0.2354 6.17966e-07 4.43458e-05 288 0.235492 4.43631e-05 0.00287109 4.44834 5308.28
0.0996408 0.231207 7.29294e-07 3.6907e-05 366 0.229499 3.66344e-05 0.00268591 5.0292 6264.59
0.105297 0.278688 8.60678e-07 3.76953e-05 420 0.276915 3.74556e-05 0.00250785 6.31298 7393.17
0.111275 0.289842 1.01573e-06 3.32195e-05 398 0.289524 3.3183e-05 0.00233721 5.65689 8725.07
0.117591 0.348249 1.19872e-06 3.38207e-05 624 0.349188 3.39119e-05 0.00217419 9.70666 10296.9
0.124267 0.378222 1.41467e-06 3.11245e-05 642 0.377543 3.10686e-05 0.00201893 9.89729 12151.9
0.131321 0.401896 1.66953e-06 2.8024e-05 800 0.402176 2.80435e-05 0.00187147 11.9795 14341.1
0.138776 0.482959 1.9703e-06 2.85357e-05 858 0.484381 2.86197e-05 0.00173182 14.1375 16924.7
0.146654 0.505498 2.32525e-06 2.53081e-05 1080 0.509263 2.54966e-05 0.00159991 17.0839 19973.8
0.154979 0.54628 2.74415e-06 2.31749e-05 1286 0.549468 2.33101e-05 0.00147563 20.1966 23572.1
0.163777 0.586749 3.23852e-06 2.10919e-05 1650 0.586845 2.10954e-05 0.00135884 25.6113 27818.7
0.173074 0.660748 3.82195e-06 2.01262e-05 1778 0.66203 2.01652e-05 0.00124933 28.6428 32830.3
0.182899 0.686661 4.51048e-06 1.77227e-05 2112 0.688235 1.77633e-05 0.00114689 32.6363 38744.7
0.193281 0.762705 5.32305e-06 1.66804e-05 2570 0.763945 1.67075e-05 0.00105127 40.7778 45724.7
0.204254 0.848242 6.28202e-06 1.57192e-05 3030 0.848512 1.57242e-05 0.000962209 49.4998 53962.1
0.215848 0.91382 7.41374e-06 1.43494e-05 3434 0.914051 1.4353e-05 0.000879423 56.032 63683.5
0.228102 1.00489 8.74934e-06 1.33706e-05 4218 1.00514 1.3374e-05 0.000802624 70.2661 75156.3
0.24105 1.09299 1.03256e-05 1.23229e-05 4766 1.09312 1.23244e-05 0.000731515 80.2865 88695.9
0.254734 1.21227 1.21857e-05 1.15813e-05 6026 1.21238 1.15823e-05 0.000665798 104.82 104675
0.269195 1.32007 1.4381e-05 1.06861e-05 6480 1.3208 1.06919e-05 0.000605173 114.423 123532
0.284476 1.45545 1.69718e-05 9.98341e-06 8162 1.45726 9.99585e-06 0.000549345 148.33 145787
0.300625 1.61946 2.00293e-05 9.41271e-06 9578 1.61957 9.41331e-06 0.000498021 181.026 172051
0.317691 1.78819 2.36377e-05 8.80681e-06 11234 1.78784 8.80508e-06 0.000450916 219.41 203046
0.335725 1.98224 2.78961e-05 8.27226e-06 13344 1.97871 8.25751e-06 0.000407755 270.714 239625
0.354784 2.20385 3.29216e-05 7.79313e-06 15464 2.20167 7.7854e-06 0.000368269 327.241 282795
0.374924 2.44485 3.88525e-05 7.32561e-06 18458 2.44279 7.31944e-06 0.000332202 407.03 333741
0.396207 2.671 4.58519e-05 6.78152e-06 22232 2.66505 6.76641e-06 0.000299307 503.719 393865
0.418699 2.9298 5.41123e-05 6.30308e-06 25628 2.92206 6.28643e-06 0.00026935 599.723 464821
0.442467 3.29952 6.38607e-05 6.01488e-06 30320 3.29165 6.00053e-06 0.000242108 753.264 548560
0.467585 3.71695 7.53654e-05 5.7415e-06 35452 3.71119 5.73259e-06 0.00021737 936.409 647384
0.494129 4.05837 8.89427e-05 5.31192e-06 41792 4.05775 5.31111e-06 0.000194938 1138.8 764012
0.522179 4.6076 0.000104966 5.11019e-06 49988 4.60539 5.10773e-06 0.000174625 1462.84 901651
0.551822 5.10282 0.000123876 4.7955e-06 59110 5.09602 4.78911e-06 0.000156255 1814.1 1.06409e+06
0.583147 5.63671 0.000146192 4.4886e-06 69716 5.62736 4.48115e-06 0.000139664 2240.57 1.25578e+06
0.616251 6.25844 0.000172529 4.22292e-06 82210 6.24598 4.21452e-06 0.0001247 2784.01 1.48202e+06
0.651234 7.12396 0.000203611 4.07315e-06 96722 7.10808 4.06407e-06 0.00011122 3542.18 1.74901e+06
0.688203 7.91898 0.000240292 3.83654e-06 113098 7.90568 3.8301e-06 9.90935e-05 4378.75 2.06409e+06
0.72727 8.87172 0.000283581 3.642e-06 135190 8.85976 3.63709e-06 8.81969e-05 5582.53 2.43595e+06
0.768555 9.93108 0.000334669 3.45454e-06 158170 9.91801 3.45e-06 7.84179e-05 6967.86 2.87479e+06
0.812184 11.1068 0.000394961 3.27375e-06 188560 11.0898 3.26874e-06 6.96525e-05 8862.53 3.39269e+06
0.85829 12.3395 0.000466114 3.08189e-06 220444 12.3186 3.07666e-06 6.1805e-05 10992.4 4.00389e+06
0.907013 13.7688 0.000550086 2.91391e-06 261388 13.7454 2.90895e-06 5.47875e-05 13902.1 4.7252e+06
0.958501 15.4148 0.000649185 2.76426e-06 308244 15.3888 2.7596e-06 4.85194e-05 17561.3 5.57646e+06
1.01291 17.2607 0.000766138 2.62278e-06 364396 17.2314 2.61832e-06 4.29272e-05 22264 6.58107e+06
1.07041 19.2341 0.00090416 2.4765e-06 429162 19.1977 2.4718e-06 3.79435e-05 28010.6 7.76667e+06
1.13118 21.4829 0.00106705 2.3438e-06 506358 21.4414 2.33927e-06 3.3507e-05 35419.4 9.16586e+06
1.19539 23.8591 0.00125928 2.20568e-06 598590 23.816 2.2017e-06 2.9562e-05 44661.9 1.08171e+07
1.26325 26.5686 0.00148614 2.08122e-06 704844 26.519 2.07734e-06 2.60578e-05 56295.5 1.27658e+07
1.33496 29.4623 0.00175387 1.95559e-06 834620 29.4067 1.9519e-06 2.29484e-05 71123.7 1.50656e+07
1.41075 32.5998 0.00206984 1.83353e-06 981444 32.5402 1.83018e-06 2.01923e-05 89118.6 1.77798e+07
1.49083 36.0023 0.00244272 1.7158e-06 1.15998e+06 35.9389 1.71277e-06 1.77518e-05 112117 2.09828e+07
1.57546 39.7102 0.00288279 1.60361e-06 1.36931e+06 39.6364 1.60063e-06 1.55929e-05 140824 2.4763e+07
1.66489 43.6889 0.00340213 1.49496e-06 1.61652e+06 43.6081 1.4922e-06 1.3685e-05 176590 2.92241e+07
1.75941 48.0594 0.00401503 1.39348e-06 1.90601e+06 47.9697 1.39087e-06 1.20007e-05 221319 3.44889e+07
1.85928 52.8034 0.00473835 1.29731e-06 2.24913e+06 52.712 1.29507e-06 1.05151e-05 277489 4.07021e+07
1.96483 57.5525 0.00559198 1.19814e-06 2.65744e+06 57.4495 1.196e-06 9.20606e-06 345859 4.80347e+07
2.07637 62.9348 0.00659939 1.11019e-06 3.13125e+06 62.8224 1.10821e-06 8.05366e-06 431641 5.66883e+07
2.19424 68.4299 0.00778828 1.02286e-06 3.69915e+06 68.3065 1.02101e-06 7.04008e-06 537451 6.69008e+07
2.3188 74.2704 0.00919136 9.40689e-07 4.36472e+06 74.1408 9.39048e-07 6.1494e-06 667683 7.89532e+07
2.45043 80.4901 0.0108472 8.63842e-07 5.14913e+06 80.3506 8.62345e-07 5.36741e-06 828712 9.31768e+07
2.58954 87.2125 0.0128014 7.93109e-07 6.07894e+06 87.0647 7.91764e-07 4.68145e-06 1.02986e+06 1.09963e+08
2.73654 94.08 0.0151076 7.24959e-07 7.17304e+06 93.9204 7.23729e-07 4.08023e-06 1.27448e+06 1.29773e+08
2.89188 101.583 0.0178292 6.63281e-07 8.46557e+06 101.414 6.62179e-07 3.55373e-06 1.58004e+06 1.53152e+08
3.05605 109.258 0.0210412 6.04492e-07 9.98773e+06 109.081 6.03517e-07 3.09304e-06 1.95197e+06 1.80743e+08
3.22953 117.392 0.0248319 5.50353e-07 1.1797e+07 117.198 5.49441e-07 2.69025e-06 2.41335e+06 2.13304e+08
3.41286 126.028 0.0293054 5.00643e-07 1.39144e+07 125.812 4.99786e-07 2.33837e-06 2.97905e+06 2.51731e+08
3.6066 135.039 0.0345848 4.54551e-07 1.64163e+07 134.815 4.53798e-07 2.0312e-06 3.67371e+06 2.97081e+08
3.81134 144.728 0.0408154 4.128e-07 1.93821e+07 144.488 4.12114e-07 1.76327e-06 4.53758e+06 3.50601e+08
4.0277 154.915 0.0481684 3.74405e-07 2.28754e+07 154.658 3.73784e-07 1.52972e-06 5.59884e+06 4.13763e+08
4.25634 165.63 0.056846 3.39195e-07 2.69929e+07 165.352 3.38625e-07 1.32631e-06 6.90327e+06 4.88304e+08
4.49796 176.708 0.067087 3.0664e-07 3.18542e+07 176.417 3.06134e-07 1.14926e-06 8.49921e+06 5.76273e+08
4.7533 188.54 0.0791729 2.77228e-07 3.75892e+07 188.228 2.7677e-07 9.95263e-07 1.04704e+07 6.8009e+08
5.02313 200.899 0.0934361 2.50307e-07 4.43706e+07 200.566 2.49892e-07 8.61414e-07 1.28931e+07 8.0261e+08
5.30828 213.852 0.110269 2.25772e-07 5.23593e+07 213.5 2.25401e-07 7.45152e-07 1.58642e+07 9.47202e+08
5.60962 227.596 0.130134 2.03603e-07 6.1787e+07 227.224 2.0327e-07 6.44232e-07 1.95271e+07 1.11784e+09
5.92807 241.847 0.153578 1.83325e-07 7.29346e+07 241.447 1.83022e-07 5.56685e-07 2.40185e+07 1.31923e+09
6.26459 256.824 0.181246 1.6496e-07 8.60651e+07 256.395 1.64684e-07 4.80786e-07 2.95293e+07 1.55689e+09
6.62021 272.308 0.213898 1.48206e-07 1.01558e+08 271.854 1.47958e-07 4.15026e-07 3.62664e+07 1.83737e+09
6.99602 288.775 0.252432 1.33176e-07 1.1986e+08 288.304 1.32959e-07 3.58083e-07 4.45775e+07 2.16837e+09
7.39317 305.851 0.297908 1.19519e-07 1.41457e+08 305.351 1.19324e-07 3.08803e-07 5.47494e+07 2.55901e+09
7.81286 323.705 0.351577 1.07186e-07 1.66936e+08 323.174 1.07011e-07 2.66181e-07 6.7222e+07 3.02002e+09
8.25637 342.716 0.414914 9.6158e-08 1.97025e+08 342.146 9.59982e-08 2.29336e-07 8.26104e+07 3.56409e+09
8.72507 362.624 0.489662 8.62125e-08 2.32497e+08 362.022 8.60694e-08 1.97503e-07 1.01488e+08 4.20617e+09
9.22037 384.099 0.577876 7.73782e-08 2.74404e+08 383.454 7.72482e-08 1.70014e-07 1.24889e+08 4.96392e+09
9.74378 407.309 0.681982 6.95283e-08 3.2382e+08 406.611 6.94091e-08 1.46289e-07 1.53905e+08 5.85818e+09
10.2969 433.579 0.804843 6.27143e-08 3.82165e+08 432.805 6.26024e-08 1.25822e-07 1.90484e+08 6.91355e+09
10.8814 464.793 0.949838 5.69666e-08 4.51027e+08 463.905 5.68578e-08 1.08175e-07 2.37516e+08 8.15905e+09
11.4992 504.417 1.12095 5.23856e-08 5.32251e+08 503.349 5.22747e-08 9.29669e-08 2.99917e+08 9.62892e+09
12.1519 560.357 1.3229 4.93116e-08 6.28157e+08 558.954 4.91881e-08 7.98658e-08 3.87844e+08 1.13636e+10
12.8418 623.072 1.56122 4.64605e-08 3.82727e+08 644.9 4.80882e-08 6.85852e-08 2.59264e+08 1.34108e+10
13.5708 0 1.84248 0 0 0 0 5.88765e-08 0 1.58268e+10
14.3411 0 2.17441 0 0 0 0 5.05241e-08 0 1.8678e+10
15.1552 0 2.56613 0 0 0 0 4.33417e-08 0 2.20429e+10
16.0156 0 3.02843 0 0 0 0 3.71677e-08 0 2.6014e+10
16.9247 0 3.574 0 0 0 0 3.18628e-08 0 3.07005e+10
17.8855 0 4.21787 0 0 0 0 2.73063e-08 0 3.62312e+10
18.9008 0 4.97773 0 0 0 0 2.33941e-08 0 4.27584e+10
19.9738 0 5.87448 0 0 0 0 2.00364e-08 0 5.04614e+10
21.1076 0 6.93279 0 0 0 0 1.71555e-08 0 5.95522e+10
22.3058 0 8.18175 0 0 0 0 1.46847e-08 0 7.02807e+10
23.5721 0 9.65571 0 0 0 0 1.25662e-08 0 8.29419e+10
24.9102 0 11.3952 0 0 0 0 1.07504e-08 0 9.78842e+10
26.3243 0 13.4481 0 0 0 0 9.19452e-09 0 1.15518e+11
27.8187 0 15.8708 0 0 0 0 7.86182e-09 0 1.36329e+11
29.3979 0 18.73 0 0 0 0 6.72061e-09 0 1.60889e+11
31.0667 0 22.1042 0 0 0 0 5.74366e-09 0 1.89874e+11
32.8303 0 26.0864 0 0 0 0 4.90756e-09 0 2.2408e+11
34.694 0 30.7859 0 0 0 0 4.19221e-09 0 2.64449e+11
36.6634 0 36.3321 0 0 0 0 3.58032e-09 0 3.1209e+11
38.7447 0 42.8774 0 0 0 0 3.05709e-09 0 3.68314e+11
40.9442 0 50.6018 0 0 0 0 2.60976e-09 0 4.34667e+11
43.2685 0 59.7179 0 0 0 0 2.22743e-09 0 5.12973e+11
45.7247 0 70.4762 0 0 0 0 1.90073e-09 0 6.05386e+11
48.3204 0 83.1727 0 0 0 0 1.62163e-09 0 7.14448e+11
51.0634 0 98.1565 0 0 0 0 1.38326e-09 0 8.43158e+11
53.9621 0 115.84 0 0 0 0 1.1797e-09 0 9.95055e+11
57.0254 0 136.709 0 0 0 0 1.00592e-09 0 1.17432e+12
60.2626 0 161.337 0 0 0 0 8.57591e-10 0 1.38587e+12
63.6835 0 190.402 0 0 0 0 7.3101e-10 0 1.63554e+12
67.2987 0 224.704 0 0 0 0 6.23009e-10 0 1.93019e+12
71.1191 0 265.185 0 0 0 0 5.30879e-10 0 2.27792e+12
75.1563 0 312.958 0 0 0 0 4.52303e-10 0 2.68829e+12
79.4227 0 369.339 0 0 0 0 3.85299e-10 0 3.17259e+12
83.9313 0 435.876 0 0 0 0 3.28173e-10 0 3.74415e+12
88.6959 0 514.4 0 0 0 0 2.79476e-10 0 4.41866e+12
93.7309 0 607.071 0 0 0 0 2.37972e-10 0 5.2147e+12
99.0518 0 716.436 0 0 0 0 2.02605e-10 0 6.15414e+12
104.675 0 845.504 0 0 0 0 1.72471e-10 0 7.26283e+12
110.617 0 997.824 0 0 0 0 1.468e-10 0 8.57124e+12
116.896 0 1177.58 0 0 0 0 1.24935e-10 0 1.01154e+13
123.532 0 1389.73 0 0 0 0 1.06313e-10 0 1.19377e+13
130.545 0 1640.09 0 0 0 0 9.04567e-11 0 1.40883e+13
137.955 0 1935.56 0 0 0 0 7.69563e-11 0 1.66263e+13
145.787 0 2284.26 0 0 0 0 6.54636e-11 0 1.96216e+13
154.063 0 2695.77 0 0 0 0 5.56812e-11 0 2.31565e+13
162.808 0 3181.42 0 0 0 0 4.73556e-11 0 2.73282e+13
172.051 0 3754.56 0 0 0 0 4.02708e-11 0 3.22515e+13
181.818 0 4430.96 0 0 0 0 3.42426e-11 0 3.80616e+13
192.139 0 5229.21 0 0 0 0 2.91139e-11 0 4.49186e+13
203.046 0 6171.26 0 0 0 0 2.4751e-11 0 5.30108e+13
214.572 0 7283.03 0 0 0 0 2.10401e-11 0 6.25608e+13
226.753 0 8595.09 0 0 0 0 1.78839e-11 0 7.38313e+13
239.625 0 10143.5 0 0 0 0 1.51999e-11 0 8.71322e+13
253.228 0 11970.9 0 0 0 0 1.29176e-11 0 1.02829e+14
267.603 0 14127.5 0 0 0 0 1.09771e-11 0 1.21354e+14
282.795 0 16672.6 0 0 0 0 9.3274e-12 0 1.43217e+14
298.848 0 19676.2 0 0 0 0 7.925e-12 0 1.69017e+14
315.813 0 23220.9 0 0 0 0 6.73295e-12 0 1.99466e+14
333.741 0 27404.3 0 0 0 0 5.71979e-12 0 2.35401e+14
352.686 0 32341.2 0 0 0 0 4.85874e-12 0 2.77809e+14
372.707 0 38167.6 0 0 0 0 4.12703e-12 0 3.27857e+14
393.865 0 45043.5 0 0 0 0 3.50528e-12 0 3.86921e+14
416.224 0 53158.3 0 0 0 0 2.97701e-12 0 4.56626e+14
439.852 0 62734.9 0 0 0 0 2.52819e-12 0 5.38888e+14
464.821 0 74036.7 0 0 0 0 2.1469e-12 0 6.35971e+14
491.207 0 87374.6 0 0 0 0 1.82301e-12 0 7.50542e+14
519.092 0 103115 0 0 0 0 1.54789e-12 0 8.85755e+14
548.56 0 121692 0 0 0 0 1.31422e-12 0 1.04533e+15
579.7 0 143615 0 0 0 0 1.11576e-12 0 1.23364e+15
612.608 0 169488 0 0 0 0 9.47223e-13 0 1.45589e+15
647.384 0 200021 0 0 0 0 8.041e-13 0 1.71817e+15
684.134 0 236056 0 0 0 0 6.82568e-13 0 2.0277e+15
722.971 0 278582 0 0 0 0 5.79376e-13 0 2.393e+15
764.012 0 328769 0 0 0 0 4.91762e-13 0 2.8241e+15
