0.359209
200
1.0655e+09
8589934592
0.0129181 0 1.58924e-09 0 0 0 0 0.00677225 0 13.6515
0.0136515 0 1.87554e-09 0 0 0 0 0.00688819 0 16.1108
0.0144264 0 2.21343e-09 0 0 0 0 0.00699249 0 19.0132
0.0152454 0 2.61218e-09 0 0 0 0 0.00708412 0 22.4385
0.0161108 0 3.08278e-09 0 0 0 0 0.00716212 0 26.4808
0.0170254 0 3.63815e-09 0 0 0 0 0.00722559 0 31.2514
0.0179919 0 4.29357e-09 0 0 0 0 0.00727371 0 36.8815
0.0190132 0 5.06707e-09 0 0 0 0 0.00730578 0 43.5258
0.0200925 0 5.97991e-09 0 0 0 0 0.00732122 0 51.367
0.0212331 0 7.05721e-09 0 0 0 0 0.00731958 0 60.621
0.0224385 0 8.32858e-09 0 0 0 0 0.00730056 0 71.542
0.0237123 0 9.829e-09 0 0 0 0 0.00726401 0 84.4305
0.0250583 0 1.15997e-08 0 0 0 0 0.00720995 0 99.6408
0.0264808 0 1.36894e-08 0 0 0 0 0.00713857 0 117.591
0.0279841 0 1.61556e-08 0 0 0 0 0.00705021 0 138.776
0.0295727 0 1.90661e-08 0 0 0 0 0.00694538 0 163.777
0.0312514 0 2.25009e-08 0 0 0 0 0.00682475 0 193.281
0.0330255 0 2.65545e-08 0 0 0 0 0.00668915 0 228.102
0.0349003 0 3.13384e-08 0 0 0 0 0.00653951 0 269.195
0.0368815 0 3.69841e-08 0 0 0 0 0.00637693 0 317.691
0.0389751 0 4.36469e-08 0 0 0 0 0.00620256 0 374.924
0.0411876 0 5.151e-08 0 0 0 0 0.00601767 0 442.467
0.0435258 0 6.07896e-08 0 0 0 0 0.00582358 0 522.179
0.0459966 0 7.1741e-08 0 0 0 0 0.00562166 0 616.251
0.0486077 0 8.46654e-08 0 0 0 0 0.0054133 0 727.27
0.051367 0 9.99181e-08 0 0 0 0 0.00519989 0 858.29
0.054283 0 1.17919e-07 0 0 0 0 0.0049828 0 1012.91
0.0573645 0 1.39162e-07 0 0 0 0 0.00476339 0 1195.39
0.060621 0 1.64232e-07 0 0 0 0 0.00454293 0 1410.75
0.0640622 0 1.93819e-07 0 0 0 0 0.00432265 0 1664.89
0.0676989 0 2.28736e-07 0 0 0 0 0.00410371 0 1964.83
0.071542 0 2.69944e-07 0 0 0 0 0.00388717 0 2318.8
0.0756032 0 3.18575e-07 0 0 0 0 0.00367401 0 2736.54
0.079895 0 3.75967e-07 0 0 0 0 0.0034651 0 3229.53
0.0844305 0 4.43698e-07 0 0 0 0 0.00326121 0 3811.34
0.0892234 0 5.23632e-07 0 0 0 0 0.00306301 0 4497.96
0.0942883 0 6.17966e-07 0 0 0 0 0.00287109 0 5308.28
0.0996408 0 7.29294e-07 0 0 0 0 0.00268591 0 6264.59
0.105297 0 8.60678e-07 0 0 0 0 0.00250785 0 7393.17
0.111275 0 1.01573e-06 0 0 0 0 0.00233721 0 8725.07
0.117591 0 1.19872e-06 0 0 0 0 0.00217419 0 10296.9
0.124267 0 1.41467e-06 0 0 0 0 0.00201893 0 12151.9
0.131321 0 1.66953e-06 0 0 0 0 0.00187147 0 14341.1
0.138776 0 1.9703e-06 0 0 0 0 0.00173182 0 16924.7
0.146654 0 2.32525e-06 0 0 0 0 0.00159991 0 19973.8
0.154979 0 2.74415e-06 0 0 0 0 0.00147563 0 23572.1
0.163777 0 3.23852e-06 0 0 0 0 0.00135884 0 27818.7
0.173074 0 3.82195e-06 0 0 0 0 0.00124933 0 32830.3
0.182899 0 4.51048e-06 0 0 0 0 0.00114689 0 38744.7
0.193281 0 5.32305e-06 0 0 0 0 0.00105127 0 45724.7
0.204254 0 6.28202e-06 0 0 0 0 0.000962209 0 53962.1
0.215848 0 7.41374e-06 0 0 0 0 0.000879423 0 63683.5
0.228102 0 8.74934e-06 0 0 0 0 0.000802624 0 75156.3
0.24105 0 1.03256e-05 0 0 0 0 0.000731515 0 88695.9
0.254734 0 1.21857e-05 0 0 0 0 0.000665798 0 104675
0.269195 0 1.4381e-05 0 0 0 0 0.000605173 0 123532
0.284476 0 1.69718e-05 0 0 0 0 0.000549345 0 145787
0.300625 0 2.00293e-05 0 0 0 0 0.000498021 0 172051
0.317691 0 2.36377e-05 0 0 0 0 0.000450916 0 203046
0.335725 0 2.78961e-05 0 0 0 0 0.000407755 0 239625
0.354784 0 3.29216e-05 0 0 0 0 0.000368269 0 282795
0.374924 0 3.88525e-05 0 0 0 0 0.000332202 0 333741
0.396207 1.04614 4.58519e-05 2.65608e-06 6 1.01705 2.58224e-06 0.000299307 0.0532446 393865
0.418699 0 5.41123e-05 0 0 0 0 0.00026935 0 464821
0.442467 0 6.38607e-05 0 0 0 0 0.000242108 0 548560
0.467585 0 7.53654e-05 0 0 0 0 0.00021737 0 647384
0.494129 0 8.89427e-05 0 0 0 0 0.000194938 0 764012
0.522179 0 0.000104966 0 0 0 0 0.000174625 0 901651
0.551822 0 0.000123876 0 0 0 0 0.000156255 0 1.06409e+06
0.583147 6.89088 0.000146192 5.48731e-06 12 7.25268 5.77543e-06 0.000139664 0.471472 1.25578e+06
0.616251 0 0.000172529 0 0 0 0 0.0001247 0 1.48202e+06
0.651234 0 0.000203611 0 0 0 0 0.00011122 0 1.74901e+06
0.688203 25.0924 0.000240292 1.21566e-05 8 24.4681 1.18542e-05 9.90935e-05 0.981425 2.06409e+06
0.72727 0 0.000283581 0 0 0 0 8.81969e-05 0 2.43595e+06
0.768555 0 0.000334669 0 0 0 0 7.84179e-05 0 2.87479e+06
0.812184 1.98426 0.000394961 5.84863e-07 6 2.02668 5.97367e-07 6.96525e-05 0.0503812 3.39269e+06
0.85829 0 0.000466114 0 0 0 0 6.1805e-05 0 4.00389e+06
0.907013 0.504756 0.000550086 1.06822e-07 24 0.514441 1.08872e-07 5.47875e-05 0.0467941 4.7252e+06
0.958501 3.32621 0.000649185 5.96474e-07 24 3.13138 5.61536e-07 4.85194e-05 0.295044 5.57646e+06
1.01291 0 0.000766138 0 0 0 0 4.29272e-05 0 6.58107e+06
1.07041 0 0.00090416 0 0 0 0 3.79435e-05 0 7.76667e+06
1.13118 2.13236 0.00106705 2.32642e-07 12 2.10617 2.29784e-07 3.3507e-05 0.0833169 9.16586e+06
1.19539 2.38581 0.00125928 2.20559e-07 30 2.33663 2.16012e-07 2.9562e-05 0.223826 1.08171e+07
1.26325 8.21694 0.00148614 6.43666e-07 24 8.09329 6.3398e-07 2.60578e-05 0.592835 1.27658e+07
1.33496 17.5541 0.00175387 1.16517e-06 24 17.5927 1.16774e-06 2.29484e-05 1.21857 1.50656e+07
1.41075 12.3722 0.00206984 6.95861e-07 32 12.646 7.11256e-07 2.01923e-05 1.10277 1.77798e+07
1.49083 2.60226 0.00244272 1.24019e-07 48 2.54678 1.21375e-07 1.77518e-05 0.335341 2.09828e+07
1.57546 3.91898 0.00288279 1.5826e-07 6 3.73175 1.50699e-07 1.55929e-05 0.060897 2.4763e+07
1.66489 2.05428 0.00340213 7.0294e-08 84 2.0171 6.90219e-08 1.3685e-05 0.431472 2.92241e+07
1.75941 3.65663 0.00401503 1.06023e-07 48 3.66848 1.06367e-07 1.20007e-05 0.42407 3.44889e+07
1.85928 2.2812 0.00473835 5.60463e-08 72 2.29008 5.62643e-08 1.05151e-05 0.383765 4.07021e+07
1.96483 3.40492 0.00559198 7.08846e-08 54 3.33023 6.93296e-08 9.20606e-06 0.415788 4.80347e+07
2.07637 10.5171 0.00659939 1.85524e-07 104 10.5316 1.85781e-07 8.05366e-06 2.39575 5.66883e+07
2.19424 2.42808 0.00778828 3.62938e-08 120 2.45677 3.67226e-08 7.04008e-06 0.618637 6.69008e+07
2.3188 4.71596 0.00919136 5.97311e-08 156 4.57807 5.79846e-08 6.1494e-06 1.51528 7.89532e+07
2.45043 4.05351 0.0108472 4.35035e-08 126 4.01276 4.3066e-08 5.36741e-06 1.02124 9.31768e+07
2.58954 4.01566 0.0128014 3.65183e-08 192 4.04258 3.67632e-08 4.68145e-06 1.49772 1.09963e+08
2.73654 12.5547 0.0151076 9.67437e-08 152 12.8144 9.87448e-08 4.08023e-06 3.60397 1.29773e+08
2.89188 7.87555 0.0178292 5.14231e-08 378 7.99987 5.22348e-08 3.55373e-06 5.46973 1.53152e+08
3.05605 5.41645 0.0210412 2.99677e-08 264 5.33393 2.95112e-08 3.09304e-06 2.55784 1.80743e+08
3.22953 4.42438 0.0248319 2.07421e-08 366 4.3906 2.05838e-08 2.69025e-06 2.8219 2.13304e+08
3.41286 5.33603 0.0293054 2.11973e-08 428 5.2422 2.08246e-08 2.33837e-06 3.87981 2.51731e+08
3.6066 9.4827 0.0345848 3.19195e-08 486 9.32773 3.13979e-08 2.0312e-06 7.63729 2.97081e+08
3.81134 7.00534 0.0408154 1.99809e-08 600 6.98603 1.99259e-08 1.76327e-06 6.79906 3.50601e+08
4.0277 7.28633 0.0481684 1.76099e-08 738 7.22333 1.74576e-08 1.52972e-06 8.49573 4.13763e+08
4.25634 8.58368 0.056846 1.75786e-08 824 8.5862 1.75837e-08 1.32631e-06 10.9211 4.88304e+08
4.49796 11.0319 0.067087 1.91435e-08 954 11.0112 1.91076e-08 1.14926e-06 15.891 5.76273e+08
4.7533 8.46693 0.0791729 1.24497e-08 1094 8.43016 1.23957e-08 9.95263e-07 13.6848 6.8009e+08
5.02313 9.36332 0.0934361 1.16661e-08 1332 9.38131 1.16885e-08 8.61414e-07 18.0392 8.0261e+08
5.30828 11.8382 0.110269 1.24981e-08 1614 11.8426 1.25027e-08 7.45152e-07 27.0709 9.47202e+08
5.60962 12.4 0.130134 1.10928e-08 1850 12.3227 1.10236e-08 6.44232e-07 31.8545 1.11784e+09
5.92807 12.4938 0.153578 9.47054e-09 2238 12.4776 9.45831e-09 5.56685e-07 38.0737 1.31923e+09
6.26459 12.998 0.181246 8.3487e-09 2546 13.0707 8.39542e-09 4.80786e-07 44.2105 1.55689e+09
6.62021 14.1848 0.213898 7.72019e-09 3264 14.2318 7.74575e-09 4.15026e-07 60.716 1.83737e+09
6.99602 15.1498 0.252432 6.9867e-09 3506 15.2095 7.01426e-09 3.58083e-07 68.4071 2.16837e+09
7.39317 16.0737 0.297908 6.28123e-09 4506 16.0638 6.27734e-09 3.08803e-07 91.6546 2.55901e+09
7.81286 17.88 0.351577 5.9205e-09 5018 17.8699 5.91715e-09 2.66181e-07 111.612 3.02002e+09
8.25637 19.4534 0.414914 5.45816e-09 5852 19.4024 5.44387e-09 2.29336e-07 139.277 3.56409e+09
8.72507 19.5019 0.489662 4.6365e-09 7362 19.4738 4.62983e-09 1.97503e-07 172.827 4.20617e+09
9.22037 20.6811 0.577876 4.16628e-09 8306 20.6076 4.15147e-09 1.70014e-07 203.543 4.96392e+09
9.74378 22.2419 0.681982 3.79672e-09 9698 22.2516 3.79839e-09 1.46289e-07 251.698 5.85818e+09
10.2969 24.022 0.804843 3.47463e-09 11816 24.0148 3.47358e-09 1.25822e-07 326.302 6.91355e+09
10.8814 25.6869 0.949838 3.14828e-09 13682 25.6632 3.14537e-09 1.08175e-07 398.193 8.15905e+09
11.4992 27.5702 1.12095 2.86327e-09 16152 27.5449 2.86064e-09 9.29669e-08 497.463 9.62892e+09
12.1519 29.5313 1.3229 2.59877e-09 19472 29.5 2.59601e-09 7.98658e-08 633.603 1.13636e+10
12.8418 30.1425 1.56122 2.24763e-09 22670 30.0837 2.24325e-09 6.85852e-08 742.926 1.34108e+10
13.5708 32.4029 1.84248 2.04735e-09 26224 32.3645 2.04492e-09 5.88765e-08 911.902 1.58268e+10
14.3411 34.0144 2.17441 1.82109e-09 31640 33.9898 1.81978e-09 5.05241e-08 1140.43 1.8678e+10
15.1552 35.8799 2.56613 1.62773e-09 37484 35.8333 1.62562e-09 4.33417e-08 1407.74 2.20429e+10
16.0156 37.9221 3.02843 1.45776e-09 43856 37.8871 1.45641e-09 3.71677e-08 1720.08 2.6014e+10
16.9247 40.6217 3.574 1.32316e-09 51362 40.5671 1.32138e-09 3.18628e-08 2132.9 3.07005e+10
17.8855 42.2856 4.21787 1.1671e-09 61636 42.2191 1.16527e-09 2.73063e-08 2634.39 3.62312e+10
18.9008 45.0919 4.97773 1.05457e-09 72218 45.0204 1.0529e-09 2.33941e-08 3255.49 4.27584e+10
19.9738 47.1661 5.87448 9.34697e-10 84586 47.0865 9.33118e-10 2.00364e-08 3945.93 5.04614e+10
21.1076 49.6078 6.93279 8.33014e-10 100708 49.5335 8.31767e-10 1.71555e-08 4890.04 5.95522e+10
22.3058 52.7358 8.18175 7.5036e-10 118712 52.656 7.49224e-10 1.46847e-08 6065.97 7.02807e+10
23.5721 55.3831 9.65571 6.67733e-10 140410 55.2813 6.66507e-10 1.25662e-08 7461.02 8.29419e+10
24.9102 58.4362 11.3952 5.96994e-10 164374 58.3272 5.9588e-10 1.07504e-08 9128.08 9.78842e+10
26.3243 61.2528 13.4481 5.30243e-10 194680 61.1517 5.29368e-10 9.19452e-09 11227.1 1.15518e+11
27.8187 64.6428 15.8708 4.74167e-10 230196 64.5355 4.7338e-10 7.86182e-09 13883.7 1.36329e+11
29.3979 68.1859 18.73 4.23807e-10 271156 68.074 4.23111e-10 6.72061e-09 17099.3 1.60889e+11
31.0667 72.03 22.1042 3.79357e-10 321076 71.8987 3.78666e-10 5.74366e-09 21206.4 1.89874e+11
32.8303 75.8683 26.0864 3.38577e-10 377436 75.7351 3.37982e-10 4.90756e-09 26039.6 2.2408e+11
34.694 79.9246 30.7859 3.02231e-10 447594 79.7776 3.01675e-10 4.19221e-09 32268.6 2.64449e+11
36.6634 84.5988 36.3321 2.71072e-10 525078 84.4319 2.70537e-10 3.58032e-09 39754.5 3.1209e+11
38.7447 89.4972 42.8774 2.42992e-10 621924 89.3156 2.42499e-10 3.05709e-09 49433.5 3.68314e+11
40.9442 95.0803 50.6018 2.18743e-10 732630 94.883 2.18289e-10 2.60976e-09 61407.1 4.34667e+11
43.2685 101.078 59.7179 1.97044e-10 865596 100.895 1.96686e-10 2.22743e-09 76572.8 5.12973e+11
45.7247 107.976 70.4762 1.78359e-10 1.02168e+06 107.783 1.7804e-10 1.90073e-09 95870.9 6.05386e+11
48.3204 115.732 83.1727 1.61988e-10 1.20544e+06 115.494 1.61655e-10 1.62163e-09 120413 7.14448e+11
51.0634 126.056 98.1565 1.49505e-10 1.42103e+06 125.75 1.49142e-10 1.38326e-09 153587 8.43158e+11
53.9621 133.114 115.84 1.33775e-10 1.67997e+06 132.834 1.33494e-10 1.1797e-09 190504 9.95055e+11
57.0254 144.261 136.709 1.22847e-10 1.98018e+06 143.948 1.2258e-10 1.00592e-09 241827 1.17432e+12
60.2626 156.795 161.337 1.13138e-10 2.33957e+06 156.433 1.12877e-10 8.57591e-10 308648 1.38587e+12
63.6835 171.457 190.402 1.04832e-10 2.75676e+06 171.055 1.04586e-10 7.3101e-10 395339 1.63554e+12
67.2987 188.703 224.704 9.77641e-11 3.25638e+06 188.262 9.75353e-11 6.23009e-10 510999 1.93019e+12
71.1191 208.205 265.185 9.14013e-11 3.84387e+06 207.691 9.1176e-11 5.30879e-10 661798 2.27792e+12
75.1563 231.295 312.958 8.6038e-11 4.53277e+06 230.718 8.58234e-11 4.52303e-10 862231 2.68829e+12
79.4227 258.587 369.339 8.15064e-11 5.35083e+06 257.921 8.12965e-11 3.85299e-10 1.13192e+06 3.17259e+12
83.9313 291.045 435.876 7.77333e-11 6.32174e+06 290.264 7.75247e-11 3.28173e-10 1.49741e+06 3.74415e+12
88.6959 328.813 514.4 7.44145e-11 7.44986e+06 327.901 7.42082e-11 2.79476e-10 1.98363e+06 4.41866e+12
93.7309 374.166 607.071 7.17521e-11 8.79764e+06 373.099 7.15476e-11 2.37972e-10 2.65262e+06 5.2147e+12
99.0518 427.157 716.436 6.94097e-11 1.03827e+07 425.915 6.92079e-11 2.02605e-10 3.55697e+06 6.15414e+12
104.675 490.149 845.504 6.74873e-11 1.22515e+07 488.703 6.72883e-11 1.72471e-10 4.79398e+06 7.26283e+12
110.617 565.22 997.824 6.59437e-11 1.44573e+07 563.51 6.57443e-11 1.468e-10 6.49434e+06 8.57124e+12
116.896 653.525 1177.58 6.46071e-11 1.70664e+07 651.523 6.44092e-11 1.24935e-10 8.82549e+06 1.01154e+13
123.532 758.563 1389.73 6.35435e-11 2.0139e+07 756.199 6.33455e-11 1.06313e-10 1.20371e+07 1.19377e+13
130.545 882.784 1640.09 6.26608e-11 2.37643e+07 879.983 6.2462e-11 9.04567e-11 1.64619e+07 1.40883e+13
137.955 1029.25 1935.56 6.1905e-11 2.80503e+07 1025.98 6.17084e-11 7.69563e-11 2.25641e+07 1.66263e+13
145.787 1203.79 2284.26 6.13504e-11 3.30981e+07 1199.93 6.11536e-11 6.54636e-11 3.10185e+07 1.96216e+13
154.063 1411.24 2695.77 6.09436e-11 3.90634e+07 1406.67 6.07463e-11 5.56812e-11 4.27553e+07 2.31565e+13
162.808 1655.32 3181.42 6.05717e-11 4.61057e+07 1649.9 6.03736e-11 4.73556e-11 5.89729e+07 2.73282e+13
172.051 1945.47 3754.56 6.03218e-11 5.44046e+07 1939.1 6.01244e-11 4.02708e-11 8.14929e+07 3.22515e+13
181.818 2289.32 4430.96 6.01476e-11 6.42064e+07 2281.72 5.99481e-11 3.42426e-11 1.12779e+08 3.80616e+13
192.139 2696.45 5229.21 6.00298e-11 7.57748e+07 2687.51 5.98308e-11 2.91139e-11 1.5624e+08 4.49186e+13
203.046 3179.69 6171.26 5.99819e-11 8.94213e+07 3169.09 5.9782e-11 2.4751e-11 2.16705e+08 5.30108e+13
214.572 3755.66 7283.03 6.00322e-11 1.05538e+08 3743.09 5.98313e-11 2.10401e-11 3.01125e+08 6.25608e+13
226.753 4442.33 8595.09 6.01687e-11 1.24552e+08 4427.34 5.99656e-11 1.78839e-11 4.19043e+08 7.38313e+13
239.625 5260.04 10143.5 6.03685e-11 1.46987e+08 5242.16 6.01634e-11 1.51999e-11 5.83779e+08 8.71322e+13
253.228 6244.1 11970.9 6.0723e-11 1.7347e+08 6222.72 6.05151e-11 1.29176e-11 8.15446e+08 1.02829e+14
267.603 7427.94 14127.5 6.12087e-11 2.04703e+08 7402.15 6.09962e-11 1.09771e-11 1.14143e+09 1.21354e+14
282.795 8864.93 16672.6 6.18988e-11 2.4161e+08 8833.79 6.16814e-11 9.3274e-12 1.60338e+09 1.43217e+14
298.848 10626.1 19676.2 6.28701e-11 2.85122e+08 10588 6.26443e-11 7.925e-12 2.26191e+09 1.69017e+14
315.813 12806.8 23220.9 6.42055e-11 3.36491e+08 12759.7 6.39693e-11 6.73295e-12 3.20879e+09 1.99466e+14
333.741 15558.1 27404.3 6.60919e-11 3.97115e+08 15498.8 6.58402e-11 5.71979e-12 4.58864e+09 2.35401e+14
352.686 19105 32341.2 6.87703e-11 4.68637e+08 19029 6.84968e-11 4.85874e-12 6.63306e+09 2.77809e+14
372.707 23822.5 38167.6 7.26613e-11 5.53074e+08 23722.1 7.23552e-11 4.12703e-12 9.73753e+09 3.27857e+14
393.865 30325.5 45043.5 7.83764e-11 6.52716e+08 30187.8 7.80204e-11 3.50528e-12 1.45944e+10 3.86921e+14
416.224 35803.8 53158.3 7.84096e-11 2.2184e+08 37877.1 8.29499e-11 2.97701e-12 5.8429e+09 4.56626e+14
439.852 0 62734.9 0 0 0 0 2.52819e-12 0 5.38888e+14
464.821 0 74036.7 0 0 0 0 2.1469e-12 0 6.35971e+14
491.207 0 87374.6 0 0 0 0 1.82301e-12 0 7.50542e+14
519.092 0 103115 0 0 0 0 1.54789e-12 0 8.85755e+14
548.56 0 121692 0 0 0 0 1.31422e-12 0 1.04533e+15
579.7 0 143615 0 0 0 0 1.11576e-12 0 1.23364e+15
612.608 0 169488 0 0 0 0 9.47223e-13 0 1.45589e+15
647.384 0 200021 0 0 0 0 8.041e-13 0 1.71817e+15
684.134 0 236056 0 0 0 0 6.82568e-13 0 2.0277e+15
722.971 0 278582 0 0 0 0 5.79376e-13 0 2.393e+15
764.012 0 328769 0 0 0 0 4.91762e-13 0 2.8241e+15
0.359209
200
1.0655e+09
8589934592
0.0129181 0.000496834 1.58924e-09 3.63942e-05 6 0.000492286 3.6061e-05 0.00677225 0.0322441 13.6515
0.0136515 0 1.87554e-09 0 0 0 0 0.00688819 0 16.1108
0.0144264 0 2.21343e-09 0 0 0 0 0.00699249 0 19.0132
0.0152454 0 2.61218e-09 0 0 0 0 0.00708412 0 22.4385
0.0161108 0 3.08278e-09 0 0 0 0 0.00716212 0 26.4808
0.0170254 0 3.63815e-09 0 0 0 0 0.00722559 0 31.2514
0.0179919 0.000634657 4.29357e-09 1.7208e-05 12 0.00063384 1.71859e-05 0.00727371 0.0283894 36.8815
0.0190132 0 5.06707e-09 0 0 0 0 0.00730578 0 43.5258
0.0200925 0 5.97991e-09 0 0 0 0 0.00732122 0 51.367
0.0212331 0.00213213 7.05721e-09 3.51715e-05 8 0.00213027 3.51409e-05 0.00731958 0.038441 60.621
0.0224385 0 8.32858e-09 0 0 0 0 0.00730056 0 71.542
0.0237123 0 9.829e-09 0 0 0 0 0.00726401 0 84.4305
0.0250583 0.00375316 1.15997e-08 3.76669e-05 6 0.00375139 3.76492e-05 0.00720995 0.0313458 99.6408
0.0264808 0 1.36894e-08 0 0 0 0 0.00713857 0 117.591
0.0279841 0.00515992 1.61556e-08 3.71817e-05 24 0.00515462 3.71435e-05 0.00705021 0.126572 138.776
0.0295727 0 1.90661e-08 0 0 0 0 0.00694538 0 163.777
0.0312514 0.00839331 2.25009e-08 4.34253e-05 24 0.00843593 4.36458e-05 0.00682475 0.15271 193.281
0.0330255 0 2.65545e-08 0 0 0 0 0.00668915 0 228.102
0.0349003 0.00615319 3.13384e-08 2.28578e-05 12 0.00610392 2.26747e-05 0.00653951 0.041944 269.195
0.0368815 0.0144982 3.69841e-08 4.56361e-05 30 0.0143438 4.51501e-05 0.00637693 0.214693 317.691
0.0389751 0.00857192 4.36469e-08 2.28631e-05 24 0.00848374 2.26279e-05 0.00620256 0.0884658 374.924
0.0411876 0.0107044 5.151e-08 2.41925e-05 24 0.0106317 2.40282e-05 0.00601767 0.0964857 442.467
0.0435258 0.0119223 6.07896e-08 2.28318e-05 8 0.0119214 2.28301e-05 0.00582358 0.0313647 522.179
0.0459966 0.0158137 7.1741e-08 2.56612e-05 72 0.015704 2.54831e-05 0.00562166 0.328658 616.251
0.0486077 0 8.46654e-08 0 0 0 0 0.0054133 0 727.27
0.051367 0.0134383 9.99181e-08 1.5657e-05 54 0.0133667 1.55736e-05 0.00519989 0.162595 858.29
0.054283 0.0214784 1.17919e-07 2.12045e-05 60 0.0216189 2.13433e-05 0.0049828 0.255333 1012.91
0.0573645 0.0243567 1.39162e-07 2.03755e-05 96 0.0242931 2.03223e-05 0.00476339 0.410641 1195.39
0.060621 0.020795 1.64232e-07 1.47404e-05 24 0.0205132 1.45407e-05 0.00454293 0.0778727 1410.75
0.0640622 0.0299222 1.93819e-07 1.79724e-05 134 0.0299323 1.79785e-05 0.00432265 0.557137 1664.89
0.0676989 0.0347297 2.28736e-07 1.76757e-05 120 0.0345228 1.75704e-05 0.00410371 0.516869 1964.83
0.071542 0.03362 2.69944e-07 1.44989e-05 108 0.0331828 1.43103e-05 0.00388717 0.402833 2318.8
0.0756032 0.0385618 3.18575e-07 1.40915e-05 174 0.0384605 1.40544e-05 0.00367401 0.667367 2736.54
0.079895 0.0491483 3.75967e-07 1.52184e-05 168 0.0487342 1.50902e-05 0.0034651 0.73784 3229.53
0.0844305 0.0429123 4.43698e-07 1.12591e-05 168 0.0430914 1.13061e-05 0.00326121 0.580009 3811.34
0.0892234 0.0526567 5.23632e-07 1.17068e-05 290 0.052505 1.16731e-05 0.00306301 1.10837 4497.96
0.0942883 0.0547414 6.17966e-07 1.03124e-05 288 0.0547721 1.03182e-05 0.00287109 1.03445 5308.28
0.0996408 0.056376 7.29294e-07 8.99915e-06 366 0.0559563 8.93216e-06 0.00268591 1.22628 6264.59
0.105297 0.0691782 8.60678e-07 9.35705e-06 420 0.0687377 9.29746e-06 0.00250785 1.56706 7393.17
0.111275 0.0672242 1.01573e-06 7.70472e-06 398 0.0671831 7.70001e-06 0.00233721 1.31202 8725.07
0.117591 0.0790439 1.19872e-06 7.67647e-06 624 0.0792511 7.69659e-06 0.00217419 2.20317 10296.9
0.124267 0.086574 1.41467e-06 7.1243e-06 642 0.0864325 7.11265e-06 0.00201893 2.26546 12151.9
0.131321 0.0936706 1.66953e-06 6.53161e-06 800 0.0937988 6.54054e-06 0.00187147 2.79208 14341.1
0.138776 0.113983 1.9703e-06 6.73472e-06 858 0.114393 6.75895e-06 0.00173182 3.33661 16924.7
0.146654 0.120133 2.32525e-06 6.01457e-06 1080 0.121075 6.06172e-06 0.00159991 4.06006 19973.8
0.154979 0.120536 2.74415e-06 5.11351e-06 1286 0.121236 5.14322e-06 0.00147563 4.45637 23572.1
0.163777 0.123491 3.23852e-06 4.43913e-06 1650 0.123534 4.44067e-06 0.00135884 5.39031 27818.7
0.173074 0.145071 3.82195e-06 4.41883e-06 1778 0.14529 4.4255e-06 0.00124933 6.28871 32830.3
0.182899 0.138992 4.51048e-06 3.58738e-06 2112 0.139264 3.59439e-06 0.00114689 6.60617 38744.7
0.193281 0.166622 5.32305e-06 3.64404e-06 2570 0.16704 3.65318e-06 0.00105127 8.90842 45724.7
0.204254 0.180096 6.28202e-06 3.33746e-06 3030 0.180232 3.33998e-06 0.000962209 10.5097 53962.1
0.215848 0.190485 7.41374e-06 2.99111e-06 3434 0.190372 2.98934e-06 0.000879423 11.6798 63683.5
0.228102 0.201398 8.74934e-06 2.67973e-06 4218 0.201466 2.68063e-06 0.000802624 14.0827 75156.3
0.24105 0.216723 1.03256e-05 2.44344e-06 4766 0.216852 2.4449e-06 0.000731515 15.9196 88695.9
0.254734 0.242497 1.21857e-05 2.31668e-06 6026 0.242463 2.31635e-06 0.000665798 20.9678 104675
0.269195 0.255805 1.4381e-05 2.07076e-06 6480 0.255781 2.07056e-06 0.000605173 22.173 123532
0.284476 0.273206 1.69718e-05 1.87401e-06 8162 0.273696 1.87737e-06 0.000549345 27.8435 145787
0.300625 0.291405 2.00293e-05 1.69372e-06 9578 0.291552 1.69457e-06 0.000498021 32.5738 172051
0.317691 0.321596 2.36377e-05 1.58386e-06 11234 0.321705 1.58439e-06 0.000450916 39.4597 203046
0.335725 0.345288 2.78961e-05 1.44095e-06 13344 0.344965 1.4396e-06 0.000407755 47.1558 239625
0.354784 0.374133 3.29216e-05 1.32299e-06 15464 0.373769 1.3217e-06 0.000368269 55.5535 282795
0.374924 0.393869 3.88525e-05 1.18016e-06 18458 0.393792 1.17993e-06 0.000332202 65.573 333741
0.396207 0.427729 4.58519e-05 1.08598e-06 22232 0.427209 1.08466e-06 0.000299307 80.6647 393865
0.418699 0.454822 5.41123e-05 9.7849e-07 25628 0.453832 9.7636e-07 0.00026935 93.101 464821
0.442467 0.496218 6.38607e-05 9.04584e-07 30320 0.495147 9.02632e-07 0.000242108 113.284 548560
0.467585 0.534637 7.53654e-05 8.25842e-07 35452 0.533792 8.24536e-07 0.00021737 134.691 647384
0.494129 0.571348 8.89427e-05 7.47826e-07 41792 0.57103 7.47409e-07 0.000194938 160.323 764012
0.522179 0.619398 0.000104966 6.8696e-07 49988 0.61951 6.87084e-07 0.000174625 196.649 901651
0.551822 0.678395 0.000123876 6.37538e-07 59110 0.677865 6.3704e-07 0.000156255 241.176 1.06409e+06
0.583147 0.730878 0.000146192 5.8201e-07 69716 0.729805 5.81155e-07 0.000139664 290.521 1.25578e+06
0.616251 0.778149 0.000172529 5.25061e-07 82210 0.776777 5.24135e-07 0.0001247 346.153 1.48202e+06
0.651234 0.85389 0.000203611 4.88214e-07 96722 0.852255 4.8728e-07 0.00011122 424.572 1.74901e+06
0.688203 0.924383 0.000240292 4.4784e-07 113098 0.92294 4.4714e-07 9.90935e-05 511.131 2.06409e+06
0.72727 1.00167 0.000283581 4.11205e-07 135190 1.00046 4.10709e-07 8.81969e-05 630.303 2.43595e+06
0.768555 1.08889 0.000334669 3.78774e-07 158170 1.08774 3.78373e-07 7.84179e-05 763.992 2.87479e+06
0.812184 1.18283 0.000394961 3.48641e-07 188560 1.18099 3.48098e-07 6.96525e-05 943.824 3.39269e+06
0.85829 1.28652 0.000466114 3.21316e-07 220444 1.28463 3.20845e-07 6.1805e-05 1146.06 4.00389e+06
0.907013 1.41392 0.000550086 2.9923e-07 261388 1.41221 2.98868e-07 5.47875e-05 1427.61 4.7252e+06
0.958501 1.5376 0.000649185 2.7573e-07 308244 1.53518 2.75296e-07 4.85194e-05 1751.71 5.57646e+06
1.01291 1.67014 0.000766138 2.53779e-07 364396 1.66761 2.53394e-07 4.29272e-05 2154.26 6.58107e+06
1.07041 1.8331 0.00090416 2.36022e-07 429162 1.83029 2.35659e-07 3.79435e-05 2669.54 7.76667e+06
1.13118 2.01345 0.00106705 2.19668e-07 506358 2.0101 2.19303e-07 3.3507e-05 3319.62 9.16586e+06
1.19539 2.20957 0.00125928 2.04266e-07 598590 2.20569 2.03907e-07 2.9562e-05 4136.1 1.08171e+07
1.26325 2.41779 0.00148614 1.89395e-07 704844 2.41376 1.8908e-07 2.60578e-05 5122.99 1.27658e+07
1.33496 2.65881 0.00175387 1.76482e-07 834620 2.65425 1.76179e-07 2.29484e-05 6418.53 1.50656e+07
1.41075 2.92675 0.00206984 1.64611e-07 981444 2.92122 1.643e-07 2.01923e-05 8000.9 1.77798e+07
1.49083 3.22154 0.00244272 1.53532e-07 1.15998e+06 3.21566 1.53252e-07 1.77518e-05 10032.4 2.09828e+07
1.57546 3.55529 0.00288279 1.43573e-07 1.36931e+06 3.54866 1.43305e-07 1.55929e-05 12608.1 2.4763e+07
1.66489 3.92171 0.00340213 1.34194e-07 1.61652e+06 3.91389 1.33927e-07 1.3685e-05 15851.5 2.92241e+07
1.75941 4.3231 0.00401503 1.25348e-07 1.90601e+06 4.31465 1.25103e-07 1.20007e-05 19908.3 3.44889e+07
1.85928 4.76737 0.00473835 1.17128e-07 2.24913e+06 4.75822 1.16903e-07 1.05151e-05 25053.1 4.07021e+07
1.96483 5.2784 0.00559198 1.09887e-07 2.65744e+06 5.26784 1.09667e-07 9.20606e-06 31720.3 4.80347e+07
2.07637 5.83489 0.00659939 1.02929e-07 3.13125e+06 5.82316 1.02723e-07 8.05366e-06 40018.8 5.66883e+07
2.19424 6.44077 0.00778828 9.62733e-08 3.69915e+06 6.42815 9.60848e-08 7.04008e-06 50586 6.69008e+07
2.3188 7.1157 0.00919136 9.01256e-08 4.36472e+06 7.10152 8.9946e-08 6.1494e-06 63969.4 7.89532e+07
2.45043 7.87335 0.0108472 8.4499e-08 5.14913e+06 7.85805 8.43347e-08 5.36741e-06 81062.6 9.31768e+07
2.58954 8.68482 0.0128014 7.89796e-08 6.07894e+06 8.66818 7.88282e-08 4.68145e-06 102556 1.09963e+08
2.73654 9.59077 0.0151076 7.39042e-08 7.17304e+06 9.57194 7.37591e-08 4.08023e-06 129923 1.29773e+08
2.89188 10.5579 0.0178292 6.89374e-08 8.46557e+06 10.5375 6.88045e-08 3.55373e-06 164220 1.53152e+08
3.05605 11.6137 0.0210412 6.42554e-08 9.98773e+06 11.5915 6.41328e-08 3.09304e-06 207487 1.80743e+08
3.22953 12.7739 0.0248319 5.98859e-08 1.1797e+07 12.7491 5.97698e-08 2.69025e-06 262605 2.13304e+08
3.41286 14.0307 0.0293054 5.57368e-08 1.39144e+07 14.0033 5.56281e-08 2.33837e-06 331660 2.51731e+08
3.6066 15.3821 0.0345848 5.17774e-08 1.64163e+07 15.3526 5.1678e-08 2.0312e-06 418468 2.97081e+08
3.81134 16.8548 0.0408154 4.80739e-08 1.93821e+07 16.823 4.79832e-08 1.76327e-06 528437 3.50601e+08
4.0277 18.3994 0.0481684 4.44684e-08 2.28754e+07 18.3641 4.43832e-08 1.52972e-06 664978 4.13763e+08
4.25634 20.0637 0.056846 4.10887e-08 2.69929e+07 20.0254 4.10102e-08 1.32631e-06 836233 4.88304e+08
4.49796 21.8389 0.067087 3.78968e-08 3.18542e+07 21.7976 3.78252e-08 1.14926e-06 1.05039e+06 5.76273e+08
4.7533 23.7143 0.0791729 3.48693e-08 3.75892e+07 23.6702 3.48046e-08 9.95263e-07 1.31695e+06 6.8009e+08
5.02313 25.6931 0.0934361 3.2012e-08 4.43706e+07 25.646 3.19533e-08 8.61414e-07 1.64891e+06 8.0261e+08
5.30828 27.7668 0.110269 2.93146e-08 5.23593e+07 27.7165 2.92615e-08 7.45152e-07 2.05983e+06 9.47202e+08
5.60962 29.9472 0.130134 2.67902e-08 6.1787e+07 29.8925 2.67412e-08 6.44232e-07 2.56939e+06 1.11784e+09
5.92807 32.2461 0.153578 2.44432e-08 7.29346e+07 32.1875 2.43988e-08 5.56685e-07 3.20245e+06 1.31923e+09
6.26459 34.6203 0.181246 2.22368e-08 8.60651e+07 34.5582 2.2197e-08 4.80786e-07 3.9806e+06 1.55689e+09
6.62021 37.0958 0.213898 2.01897e-08 1.01558e+08 37.0302 2.0154e-08 4.15026e-07 4.94047e+06 1.83737e+09
6.99602 39.6828 0.252432 1.83007e-08 1.1986e+08 39.6135 1.82688e-08 3.58083e-07 6.12575e+06 2.16837e+09
7.39317 42.3633 0.297908 1.65546e-08 1.41457e+08 42.2898 1.65258e-08 3.08803e-07 7.58331e+06 2.55901e+09
7.81286 45.1771 0.351577 1.49592e-08 1.66936e+08 45.0991 1.49334e-08 2.66181e-07 9.38167e+06 3.02002e+09
8.25637 48.1232 0.414914 1.35023e-08 1.97025e+08 48.04 1.34789e-08 2.29336e-07 1.15999e+07 3.56409e+09
8.72507 51.2219 0.489662 1.21778e-08 2.32497e+08 51.1337 1.21568e-08 1.97503e-07 1.43355e+07 4.20617e+09
9.22037 54.5396 0.577876 1.09872e-08 2.74404e+08 54.4443 1.0968e-08 1.70014e-07 1.77334e+07 4.96392e+09
9.74378 58.1592 0.681982 9.92786e-09 3.2382e+08 58.0556 9.91017e-09 1.46289e-07 2.1976e+07 5.85818e+09
10.2969 62.2246 0.804843 9.00038e-09 3.82165e+08 62.1097 8.98375e-09 1.25822e-07 2.73372e+07 6.91355e+09
10.8814 67.0492 0.949838 8.21778e-09 4.51027e+08 66.9169 8.20156e-09 1.08175e-07 3.42632e+07 8.15905e+09
11.4992 73.1809 1.12095 7.60012e-09 5.32251e+08 73.0205 7.58346e-09 9.29669e-08 4.35119e+07 9.62892e+09
12.1519 81.721 1.3229 7.19147e-09 6.28157e+08 81.5109 7.17298e-09 7.98658e-08 5.65621e+07 1.13636e+10
12.8418 91.2879 1.56122 6.80705e-09 3.82727e+08 94.4841 7.04539e-09 6.85852e-08 3.79855e+07 1.34108e+10
13.5708 0 1.84248 0 0 0 0 5.88765e-08 0 1.58268e+10
14.3411 0 2.17441 0 0 0 0 5.05241e-08 0 1.8678e+10
15.1552 0 2.56613 0 0 0 0 4.33417e-08 0 2.20429e+10
16.0156 0 3.02843 0 0 0 0 3.71677e-08 0 2.6014e+10
16.9247 0 3.574 0 0 0 0 3.18628e-08 0 3.07005e+10
17.8855 0 4.21787 0 0 0 0 2.73063e-08 0 3.62312e+10
18.9008 0 4.97773 0 0 0 0 2.33941e-08 0 4.27584e+10
19.9738 0 5.87448 0 0 0 0 2.00364e-08 0 5.04614e+10
21.1076 0 6.93279 0 0 0 0 1.71555e-08 0 5.95522e+10
22.3058 0 8.18175 0 0 0 0 1.46847e-08 0 7.02807e+10
23.5721 0 9.65571 0 0 0 0 1.25662e-08 0 8.29419e+10
24.9102 0 11.3952 0 0 0 0 1.07504e-08 0 9.78842e+10
26.3243 0 13.4481 0 0 0 0 9.19452e-09 0 1.15518e+11
27.8187 0 15.8708 0 0 0 0 7.86182e-09 0 1.36329e+11
29.3979 0 18.73 0 0 0 0 6.72061e-09 0 1.60889e+11
31.0667 0 22.1042 0 0 0 0 5.74366e-09 0 1.89874e+11
32.8303 0 26.0864 0 0 0 0 4.90756e-09 0 2.2408e+11
34.694 0 30.7859 0 0 0 0 4.19221e-09 0 2.64449e+11
36.6634 0 36.3321 0 0 0 0 3.58032e-09 0 3.1209e+11
38.7447 0 42.8774 0 0 0 0 3.05709e-09 0 3.68314e+11
40.9442 0 50.6018 0 0 0 0 2.60976e-09 0 4.34667e+11
43.2685 0 59.7179 0 0 0 0 2.22743e-09 0 5.12973e+11
45.7247 0 70.4762 0 0 0 0 1.90073e-09 0 6.05386e+11
48.3204 0 83.1727 0 0 0 0 1.62163e-09 0 7.14448e+11
51.0634 0 98.1565 0 0 0 0 1.38326e-09 0 8.43158e+11
53.9621 0 115.84 0 0 0 0 1.1797e-09 0 9.95055e+11
57.0254 0 136.709 0 0 0 0 1.00592e-09 0 1.17432e+12
60.2626 0 161.337 0 0 0 0 8.57591e-10 0 1.38587e+12
63.6835 0 190.402 0 0 0 0 7.3101e-10 0 1.63554e+12
67.2987 0 224.704 0 0 0 0 6.23009e-10 0 1.93019e+12
71.1191 0 265.185 0 0 0 0 5.30879e-10 0 2.27792e+12
75.1563 0 312.958 0 0 0 0 4.52303e-10 0 2.68829e+12
79.4227 0 369.339 0 0 0 0 3.85299e-10 0 3.17259e+12
83.9313 0 435.876 0 0 0 0 3.28173e-10 0 3.74415e+12
88.6959 0 514.4 0 0 0 0 2.79476e-10 0 4.41866e+12
93.7309 0 607.071 0 0 0 0 2.37972e-10 0 5.2147e+12
99.0518 0 716.436 0 0 0 0 2.02605e-10 0 6.15414e+12
104.675 0 845.504 0 0 0 0 1.72471e-10 0 7.26283e+12
110.617 0 997.824 0 0 0 0 1.468e-10 0 8.57124e+12
116.896 0 1177.58 0 0 0 0 1.24935e-10 0 1.01154e+13
123.532 0 1389.73 0 0 0 0 1.06313e-10 0 1.19377e+13
130.545 0 1640.09 0 0 0 0 9.04567e-11 0 1.40883e+13
137.955 0 1935.56 0 0 0 0 7.69563e-11 0 1.66263e+13
145.787 0 2284.26 0 0 0 0 6.54636e-11 0 1.96216e+13
154.063 0 2695.77 0 0 0 0 5.56812e-11 0 2.31565e+13
162.808 0 3181.42 0 0 0 0 4.73556e-11 0 2.73282e+13
172.051 0 3754.56 0 0 0 0 4.02708e-11 0 3.22515e+13
181.818 0 4430.96 0 0 0 0 3.42426e-11 0 3.80616e+13
192.139 0 5229.21 0 0 0 0 2.91139e-11 0 4.49186e+13
203.046 0 6171.26 0 0 0 0 2.4751e-11 0 5.30108e+13
214.572 0 7283.03 0 0 0 0 2.10401e-11 0 6.25608e+13
226.753 0 8595.09 0 0 0 0 1.78839e-11 0 7.38313e+13
239.625 0 10143.5 0 0 0 0 1.51999e-11 0 8.71322e+13
253.228 0 11970.9 0 0 0 0 1.29176e-11 0 1.02829e+14
267.603 0 14127.5 0 0 0 0 1.09771e-11 0 1.21354e+14
282.795 0 16672.6 0 0 0 0 9.3274e-12 0 1.43217e+14
298.848 0 19676.2 0 0 0 0 7.925e-12 0 1.69017e+14
315.813 0 23220.9 0 0 0 0 6.73295e-12 0 1.99466e+14
333.741 0 27404.3 0 0 0 0 5.71979e-12 0 2.35401e+14
352.686 0 32341.2 0 0 0 0 4.85874e-12 0 2.77809e+14
372.707 0 38167.6 0 0 0 0 4.12703e-12 0 3.27857e+14
393.865 0 45043.5 0 0 0 0 3.50528e-12 0 3.86921e+14
416.224 0 53158.3 0 0 0 0 2.97701e-12 0 4.56626e+14
439.852 0 62734.9 0 0 0 0 2.52819e-12 0 5.38888e+14
464.821 0 74036.7 0 0 0 0 2.1469e-12 0 6.35971e+14
491.207 0 87374.6 0 0 0 0 1.82301e-12 0 7.50542e+14
519.092 0 103115 0 0 0 0 1.54789e-12 0 8.85755e+14
548.56 0 121692 0 0 0 0 1.31422e-12 0 1.04533e+15
579.7 0 143615 0 0 0 0 1.11576e-12 0 1.23364e+15
612.608 0 169488 0 0 0 0 9.47223e-13 0 1.45589e+15
647.384 0 200021 0 0 0 0 8.041e-13 0 1.71817e+15
684.134 0 236056 0 0 0 0 6.82568e-13 0 2.0277e+15
722.971 0 278582 0 0 0 0 5.79376e-13 0 2.393e+15
764.012 0 328769 0 0 0 0 4.91762e-13 0 2.8241e+15
