0.343114
200
1.0655e+09
8589934592
0.0129181 0 1.58924e-09 0 0 0 0 0.00677225 0 13.6515
0.0136515 0 1.87554e-09 0 0 0 0 0.00688819 0 16.1108
0.0144264 0 2.21343e-09 0 0 0 0 0.00699249 0 19.0132
0.0152454 0 2.61218e-09 0 0 0 0 0.00708412 0 22.4385
0.0161108 0 3.08278e-09 0 0 0 0 0.00716212 0 26.4808
0.0170254 0 3.63815e-09 0 0 0 0 0.00722559 0 31.2514
0.0179919 0 4.29357e-09 0 0 0 0 0.00727371 0 36.8815
0.0190132 0 5.06707e-09 0 0 0 0 0.00730578 0 43.5258
0.0200925 0 5.97991e-09 0 0 0 0 0.00732122 0 51.367
0.0212331 0 7.05721e-09 0 0 0 0 0.00731958 0 60.621
0.0224385 0 8.32858e-09 0 0 0 0 0.00730056 0 71.542
0.0237123 0 9.829e-09 0 0 0 0 0.00726401 0 84.4305
0.0250583 0 1.15997e-08 0 0 0 0 0.00720995 0 99.6408
0.0264808 0 1.36894e-08 0 0 0 0 0.00713857 0 117.591
0.0279841 0 1.61556e-08 0 0 0 0 0.00705021 0 138.776
0.0295727 0 1.90661e-08 0 0 0 0 0.00694538 0 163.777
0.0312514 0 2.25009e-08 0 0 0 0 0.00682475 0 193.281
0.0330255 0 2.65545e-08 0 0 0 0 0.00668915 0 228.102
0.0349003 0 3.13384e-08 0 0 0 0 0.00653951 0 269.195
0.0368815 0 3.69841e-08 0 0 0 0 0.00637693 0 317.691
0.0389751 0 4.36469e-08 0 0 0 0 0.00620256 0 374.924
0.0411876 0 5.151e-08 0 0 0 0 0.00601767 0 442.467
0.0435258 0 6.07896e-08 0 0 0 0 0.00582358 0 522.179
0.0459966 0 7.1741e-08 0 0 0 0 0.00562166 0 616.251
0.0486077 0 8.46654e-08 0 0 0 0 0.0054133 0 727.27
0.051367 0 9.99181e-08 0 0 0 0 0.00519989 0 858.29
0.054283 0 1.17919e-07 0 0 0 0 0.0049828 0 1012.91
0.0573645 0 1.39162e-07 0 0 0 0 0.00476339 0 1195.39
0.060621 0 1.64232e-07 0 0 0 0 0.00454293 0 1410.75
0.0640622 0 1.93819e-07 0 0 0 0 0.00432265 0 1664.89
0.0676989 0 2.28736e-07 0 0 0 0 0.00410371 0 1964.83
0.071542 0 2.69944e-07 0 0 0 0 0.00388717 0 2318.8
0.0756032 0 3.18575e-07 0 0 0 0 0.00367401 0 2736.54
0.079895 0 3.75967e-07 0 0 0 0 0.0034651 0 3229.53
0.0844305 0 4.43698e-07 0 0 0 0 0.00326121 0 3811.34
0.0892234 0 5.23632e-07 0 0 0 0 0.00306301 0 4497.96
0.0942883 0 6.17966e-07 0 0 0 0 0.00287109 0 5308.28
0.0996408 0 7.29294e-07 0 0 0 0 0.00268591 0 6264.59
0.105297 0 8.60678e-07 0 0 0 0 0.00250785 0 7393.17
0.111275 0 1.01573e-06 0 0 0 0 0.00233721 0 8725.07
0.117591 0 1.19872e-06 0 0 0 0 0.00217419 0 10296.9
0.124267 0 1.41467e-06 0 0 0 0 0.00201893 0 12151.9
0.131321 0 1.66953e-06 0 0 0 0 0.00187147 0 14341.1
0.138776 0 1.9703e-06 0 0 0 0 0.00173182 0 16924.7
0.146654 0 2.32525e-06 0 0 0 0 0.00159991 0 19973.8
0.154979 0 2.74415e-06 0 0 0 0 0.00147563 0 23572.1
0.163777 0 3.23852e-06 0 0 0 0 0.00135884 0 27818.7
0.173074 0 3.82195e-06 0 0 0 0 0.00124933 0 32830.3
0.182899 0 4.51048e-06 0 0 0 0 0.00114689 0 38744.7
0.193281 0 5.32305e-06 0 0 0 0 0.00105127 0 45724.7
0.204254 0 6.28202e-06 0 0 0 0 0.000962209 0 53962.1
0.215848 0 7.41374e-06 0 0 0 0 0.000879423 0 63683.5
0.228102 0 8.74934e-06 0 0 0 0 0.000802624 0 75156.3
0.24105 0 1.03256e-05 0 0 0 0 0.000731515 0 88695.9
0.254734 0 1.21857e-05 0 0 0 0 0.000665798 0 104675
0.269195 0 1.4381e-05 0 0 0 0 0.000605173 0 123532
0.284476 0 1.69718e-05 0 0 0 0 0.000549345 0 145787
0.300625 0 2.00293e-05 0 0 0 0 0.000498021 0 172051
0.317691 0 2.36377e-05 0 0 0 0 0.000450916 0 203046
0.335725 0 2.78961e-05 0 0 0 0 0.000407755 0 239625
0.354784 0 3.29216e-05 0 0 0 0 0.000368269 0 282795
0.374924 0 3.88525e-05 0 0 0 0 0.000332202 0 333741
0.396207 1.00656 4.58519e-05 2.55559e-06 6 0.978574 2.48454e-06 0.000299307 0.0512302 393865
0.418699 0 5.41123e-05 0 0 0 0 0.00026935 0 464821
0.442467 0 6.38607e-05 0 0 0 0 0.000242108 0 548560
0.467585 0 7.53654e-05 0 0 0 0 0.00021737 0 647384
0.494129 0 8.89427e-05 0 0 0 0 0.000194938 0 764012
0.522179 0 0.000104966 0 0 0 0 0.000174625 0 901651
0.551822 0 0.000123876 0 0 0 0 0.000156255 0 1.06409e+06
0.583147 6.6758 0.000146192 5.31604e-06 12 7.02631 5.59516e-06 0.000139664 0.456757 1.25578e+06
0.616251 0 0.000172529 0 0 0 0 0.0001247 0 1.48202e+06
0.651234 0 0.000203611 0 0 0 0 0.00011122 0 1.74901e+06
0.688203 26.8992 0.000240292 1.30319e-05 8 26.2299 1.27077e-05 9.90935e-05 1.05209 2.06409e+06
0.72727 0 0.000283581 0 0 0 0 8.81969e-05 0 2.43595e+06
0.768555 0 0.000334669 0 0 0 0 7.84179e-05 0 2.87479e+06
0.812184 1.38295 0.000394961 4.07627e-07 6 1.41252 4.16342e-07 6.96525e-05 0.0351138 3.39269e+06
0.85829 0 0.000466114 0 0 0 0 6.1805e-05 0 4.00389e+06
0.907013 0.270886 0.000550086 5.73279e-08 24 0.276083 5.84279e-08 5.47875e-05 0.0251128 4.7252e+06
0.958501 3.17292 0.000649185 5.68985e-07 24 2.98707 5.35658e-07 4.85194e-05 0.281447 5.57646e+06
1.01291 0 0.000766138 0 0 0 0 4.29272e-05 0 6.58107e+06
1.07041 0 0.00090416 0 0 0 0 3.79435e-05 0 7.76667e+06
1.13118 1.9107 0.00106705 2.08458e-07 12 1.88723 2.05897e-07 3.3507e-05 0.0746559 9.16586e+06
1.19539 2.17448 0.00125928 2.01022e-07 30 2.12965 1.96878e-07 2.9562e-05 0.204 1.08171e+07
1.26325 8.53638 0.00148614 6.68689e-07 24 8.40793 6.58627e-07 2.60578e-05 0.615882 1.27658e+07
1.33496 21.2269 0.00175387 1.40896e-06 24 21.2735 1.41206e-06 2.29484e-05 1.47352 1.50656e+07
1.41075 11.9463 0.00206984 6.71902e-07 32 12.2562 6.89334e-07 2.01923e-05 1.06481 1.77798e+07
1.49083 1.48496 0.00244272 7.07701e-08 48 1.4533 6.92613e-08 1.77518e-05 0.191359 2.09828e+07
1.57546 1.64527 0.00288279 6.64408e-08 6 1.56667 6.32666e-08 1.55929e-05 0.0255659 2.4763e+07
1.66489 1.54465 0.00340213 5.28553e-08 84 1.50328 5.14397e-08 1.3685e-05 0.324431 2.92241e+07
1.75941 4.15408 0.00401503 1.20447e-07 48 4.15813 1.20565e-07 1.20007e-05 0.48176 3.44889e+07
1.85928 2.60866 0.00473835 6.40915e-08 72 2.62214 6.44227e-08 1.05151e-05 0.438854 4.07021e+07
1.96483 3.69518 0.00559198 7.69273e-08 54 3.61506 7.52594e-08 9.20606e-06 0.451232 4.80347e+07
2.07637 10.1253 0.00659939 1.78614e-07 104 10.132 1.78732e-07 8.05366e-06 2.30651 5.66883e+07
2.19424 2.4682 0.00778828 3.68933e-08 120 2.48885 3.72021e-08 7.04008e-06 0.628857 6.69008e+07
2.3188 3.80952 0.00919136 4.82503e-08 156 3.73323 4.72841e-08 6.1494e-06 1.22403 7.89532e+07
2.45043 3.74211 0.0108472 4.01614e-08 126 3.71273 3.98461e-08 5.36741e-06 0.942787 9.31768e+07
2.58954 3.27463 0.0128014 2.97794e-08 192 3.3135 3.01329e-08 4.68145e-06 1.22134 1.09963e+08
2.73654 12.1043 0.0151076 9.32726e-08 152 12.4529 9.59595e-08 4.08023e-06 3.47466 1.29773e+08
2.89188 7.36981 0.0178292 4.81209e-08 378 7.46054 4.87133e-08 3.55373e-06 5.11848 1.53152e+08
3.05605 5.07435 0.0210412 2.8075e-08 264 4.97207 2.75091e-08 3.09304e-06 2.39628 1.80743e+08
3.22953 3.83218 0.0248319 1.79658e-08 366 3.79921 1.78113e-08 2.69025e-06 2.44419 2.13304e+08
3.41286 5.49871 0.0293054 2.18436e-08 428 5.42203 2.1539e-08 2.33837e-06 3.9981 2.51731e+08
3.6066 9.09572 0.0345848 3.06169e-08 486 8.9046 2.99736e-08 2.0312e-06 7.32562 2.97081e+08
3.81134 6.29186 0.0408154 1.79459e-08 600 6.28328 1.79214e-08 1.76327e-06 6.10659 3.50601e+08
4.0277 6.7948 0.0481684 1.6422e-08 738 6.74841 1.63098e-08 1.52972e-06 7.92262 4.13763e+08
4.25634 8.12774 0.056846 1.66448e-08 824 8.14779 1.66859e-08 1.32631e-06 10.341 4.88304e+08
4.49796 9.45238 0.067087 1.64026e-08 954 9.43112 1.63657e-08 1.14926e-06 13.6158 5.76273e+08
4.7533 7.8544 0.0791729 1.15491e-08 1094 7.83205 1.15162e-08 9.95263e-07 12.6948 6.8009e+08
5.02313 8.55112 0.0934361 1.06541e-08 1332 8.55577 1.06599e-08 8.61414e-07 16.4744 8.0261e+08
5.30828 11.7057 0.110269 1.23582e-08 1614 11.73 1.23838e-08 7.45152e-07 26.7679 9.47202e+08
5.60962 11.7853 0.130134 1.05429e-08 1850 11.7149 1.04799e-08 6.44232e-07 30.2754 1.11784e+09
5.92807 11.9397 0.153578 9.05053e-09 2238 11.9102 9.02818e-09 5.56685e-07 36.3851 1.31923e+09
6.26459 12.532 0.181246 8.04942e-09 2546 12.5922 8.08806e-09 4.80786e-07 42.6256 1.55689e+09
6.62021 12.7177 0.213898 6.9217e-09 3264 12.7146 6.91999e-09 4.15026e-07 54.4363 1.83737e+09
6.99602 14.3746 0.252432 6.6292e-09 3506 14.4213 6.65075e-09 3.58083e-07 64.9068 2.16837e+09
7.39317 15.3746 0.297908 6.00804e-09 4506 15.3702 6.00632e-09 3.08803e-07 87.6681 2.55901e+09
7.81286 16.5751 0.351577 5.48841e-09 5018 16.553 5.48109e-09 2.66181e-07 103.467 3.02002e+09
8.25637 18.0299 0.414914 5.05877e-09 5852 17.9848 5.04611e-09 2.29336e-07 129.085 3.56409e+09
8.72507 18.9314 0.489662 4.50087e-09 7362 18.8985 4.49305e-09 1.97503e-07 167.772 4.20617e+09
9.22037 19.7273 0.577876 3.97414e-09 8306 19.659 3.96037e-09 1.70014e-07 194.156 4.96392e+09
9.74378 20.763 0.681982 3.54428e-09 9698 20.7492 3.54192e-09 1.46289e-07 234.962 5.85818e+09
10.2969 22.3398 0.804843 3.2313e-09 11816 22.3446 3.232e-09 1.25822e-07 303.452 6.91355e+09
10.8814 24.0847 0.949838 2.9519e-09 13682 24.0635 2.9493e-09 1.08175e-07 373.356 8.15905e+09
11.4992 24.4542 1.12095 2.53966e-09 16152 24.4406 2.53825e-09 9.29669e-08 441.239 9.62892e+09
12.1519 26.9051 1.3229 2.36766e-09 19472 26.8461 2.36247e-09 7.98658e-08 577.257 1.13636e+10
12.8418 27.6851 1.56122 2.06439e-09 22670 27.623 2.05976e-09 6.85852e-08 682.36 1.34108e+10
13.5708 30.0268 1.84248 1.89722e-09 26224 30.0028 1.8957e-09 5.88765e-08 845.034 1.58268e+10
14.3411 31.2094 2.17441 1.67092e-09 31640 31.1972 1.67027e-09 5.05241e-08 1046.39 1.8678e+10
15.1552 33.3452 2.56613 1.51274e-09 37484 33.2906 1.51026e-09 4.33417e-08 1308.29 2.20429e+10
16.0156 35.1777 3.02843 1.35226e-09 43856 35.1227 1.35015e-09 3.71677e-08 1595.6 2.6014e+10
16.9247 37.4864 3.574 1.22104e-09 51362 37.4347 1.21935e-09 3.18628e-08 1968.28 3.07005e+10
17.8855 39.0869 4.21787 1.07882e-09 61636 39.0225 1.07704e-09 2.73063e-08 2435.12 3.62312e+10
18.9008 41.6689 4.97773 9.74519e-10 72218 41.5725 9.72264e-10 2.33941e-08 3008.35 4.27584e+10
19.9738 44.1157 5.87448 8.74246e-10 84586 44.0428 8.72802e-10 2.00364e-08 3690.73 5.04614e+10
21.1076 45.9531 6.93279 7.71644e-10 100708 45.896 7.70685e-10 1.71555e-08 4529.78 5.95522e+10
22.3058 49.1109 8.18175 6.98783e-10 118712 49.0168 6.97444e-10 1.46847e-08 5649.02 7.02807e+10
23.5721 51.4231 9.65571 6.19989e-10 140410 51.3089 6.18612e-10 1.25662e-08 6927.55 8.29419e+10
24.9102 54.0323 11.3952 5.52003e-10 164374 53.9237 5.50893e-10 1.07504e-08 8440.17 9.78842e+10
26.3243 57.0736 13.4481 4.94065e-10 194680 56.9687 4.93158e-10 9.19452e-09 10461.1 1.15518e+11
27.8187 60.4029 15.8708 4.43066e-10 230196 60.3044 4.42344e-10 7.86182e-09 12973.1 1.36329e+11
29.3979 63.3663 18.73 3.9385e-10 271156 63.2678 3.93238e-10 6.72061e-09 15890.7 1.60889e+11
31.0667 67.0992 22.1042 3.53388e-10 321076 66.97 3.52708e-10 5.74366e-09 19754.7 1.89874e+11
32.8303 70.7089 26.0864 3.15552e-10 377436 70.5718 3.1494e-10 4.90756e-09 24268.8 2.2408e+11
34.694 74.811 30.7859 2.82894e-10 447594 74.6574 2.82313e-10 4.19221e-09 30204 2.64449e+11
36.6634 79.3174 36.3321 2.54149e-10 525078 79.1605 2.53646e-10 3.58032e-09 37272.6 3.1209e+11
38.7447 84.1612 42.8774 2.28504e-10 621924 84.0081 2.28088e-10 3.05709e-09 46486.2 3.68314e+11
40.9442 89.5604 50.6018 2.06044e-10 732630 89.3845 2.05639e-10 2.60976e-09 57842.1 4.34667e+11
43.2685 95.2527 59.7179 1.85688e-10 865596 95.0736 1.85339e-10 2.22743e-09 72159.5 5.12973e+11
45.7247 101.927 70.4762 1.68367e-10 1.02168e+06 101.726 1.68034e-10 1.90073e-09 90500 6.05386e+11
48.3204 109.195 83.1727 1.52838e-10 1.20544e+06 108.976 1.52532e-10 1.62163e-09 113612 7.14448e+11
51.0634 120.774 98.1565 1.43239e-10 1.42103e+06 120.457 1.42864e-10 1.38326e-09 147151 8.43158e+11
53.9621 126.981 115.84 1.27612e-10 1.67997e+06 126.715 1.27344e-10 1.1797e-09 181727 9.95055e+11
57.0254 138.162 136.709 1.17653e-10 1.98018e+06 137.855 1.17391e-10 1.00592e-09 231604 1.17432e+12
60.2626 150.684 161.337 1.08728e-10 2.33957e+06 150.338 1.08479e-10 8.57591e-10 296618 1.38587e+12
63.6835 165.238 190.402 1.0103e-10 2.75676e+06 164.852 1.00793e-10 7.3101e-10 381000 1.63554e+12
67.2987 182.022 224.704 9.43028e-11 3.25638e+06 181.599 9.40834e-11 6.23009e-10 492908 1.93019e+12
71.1191 202.003 265.185 8.86787e-11 3.84387e+06 201.492 8.84545e-11 5.30879e-10 642085 2.27792e+12
75.1563 225.459 312.958 8.3867e-11 4.53277e+06 224.883 8.36526e-11 4.52303e-10 840475 2.68829e+12
79.4227 253.178 369.339 7.98015e-11 5.35083e+06 252.516 7.9593e-11 3.85299e-10 1.10824e+06 3.17259e+12
83.9313 285.318 435.876 7.62039e-11 6.32174e+06 284.53 7.59934e-11 3.28173e-10 1.46795e+06 3.74415e+12
88.6959 323.568 514.4 7.32276e-11 7.44986e+06 322.649 7.30195e-11 2.79476e-10 1.95199e+06 4.41866e+12
93.7309 369.002 607.071 7.07619e-11 8.79764e+06 367.948 7.05599e-11 2.37972e-10 2.61601e+06 5.2147e+12
99.0518 422.717 716.436 6.86883e-11 1.03827e+07 421.485 6.8488e-11 2.02605e-10 3.52e+06 6.15414e+12
104.675 486.196 845.504 6.69431e-11 1.22515e+07 484.732 6.67415e-11 1.72471e-10 4.75532e+06 7.26283e+12
110.617 561.298 997.824 6.54861e-11 1.44573e+07 559.603 6.52884e-11 1.468e-10 6.44927e+06 8.57124e+12
116.896 650.446 1177.58 6.43027e-11 1.70664e+07 648.443 6.41047e-11 1.24935e-10 8.78391e+06 1.01154e+13
123.532 756.655 1389.73 6.33837e-11 2.0139e+07 754.284 6.31851e-11 1.06313e-10 1.20068e+07 1.19377e+13
130.545 881.874 1640.09 6.25962e-11 2.37643e+07 879.094 6.23989e-11 9.04567e-11 1.64449e+07 1.40883e+13
137.955 1029.68 1935.56 6.19306e-11 2.80503e+07 1026.39 6.17331e-11 7.69563e-11 2.25735e+07 1.66263e+13
145.787 1205.29 2284.26 6.14264e-11 3.30981e+07 1201.43 6.12297e-11 6.54636e-11 3.10569e+07 1.96216e+13
154.063 1413.35 2695.77 6.10347e-11 3.90634e+07 1408.76 6.08363e-11 5.56812e-11 4.28192e+07 2.31565e+13
162.808 1658.63 3181.42 6.06929e-11 4.61057e+07 1653.22 6.04949e-11 4.73556e-11 5.90909e+07 2.73282e+13
172.051 1950.3 3754.56 6.04715e-11 5.44046e+07 1943.86 6.02721e-11 4.02708e-11 8.16951e+07 3.22515e+13
181.818 2295.99 4430.96 6.0323e-11 6.42064e+07 2288.38 6.01229e-11 3.42426e-11 1.13108e+08 3.80616e+13
192.139 2705.78 5229.21 6.02374e-11 7.57748e+07 2696.8 6.00377e-11 2.91139e-11 1.5678e+08 4.49186e+13
203.046 3193.32 6171.26 6.0239e-11 8.94213e+07 3182.66 6.0038e-11 2.4751e-11 2.17633e+08 5.30108e+13
214.572 3771.73 7283.03 6.02891e-11 1.05538e+08 3759.12 6.00876e-11 2.10401e-11 3.02414e+08 6.25608e+13
226.753 4461.59 8595.09 6.04296e-11 1.24552e+08 4446.59 6.02263e-11 1.78839e-11 4.20859e+08 7.38313e+13
239.625 5285.29 10143.5 6.06582e-11 1.46987e+08 5267.3 6.04518e-11 1.51999e-11 5.86582e+08 8.71322e+13
253.228 6272.86 11970.9 6.10027e-11 1.7347e+08 6251.3 6.0793e-11 1.29176e-11 8.19201e+08 1.02829e+14
267.603 7464.66 14127.5 6.15113e-11 2.04703e+08 7438.68 6.12972e-11 1.09771e-11 1.14707e+09 1.21354e+14
282.795 8910.92 16672.6 6.22199e-11 2.4161e+08 8879.52 6.20007e-11 9.3274e-12 1.6117e+09 1.43217e+14
298.848 10679.1 19676.2 6.31834e-11 2.85122e+08 10640.7 6.29563e-11 7.925e-12 2.27319e+09 1.69017e+14
315.813 12869.3 23220.9 6.45187e-11 3.36491e+08 12822 6.42814e-11 6.73295e-12 3.22444e+09 1.99466e+14
333.741 15635.2 27404.3 6.64195e-11 3.97115e+08 15575.7 6.61668e-11 5.71979e-12 4.61139e+09 2.35401e+14
352.686 19198.5 32341.2 6.91069e-11 4.68637e+08 19122.1 6.88319e-11 4.85874e-12 6.66553e+09 2.77809e+14
372.707 23932.5 38167.6 7.2997e-11 5.53074e+08 23831.6 7.26891e-11 4.12703e-12 9.78251e+09 3.27857e+14
393.865 30470.8 45043.5 7.87519e-11 6.52716e+08 30332.3 7.8394e-11 3.50528e-12 1.46643e+10 3.86921e+14
416.224 35974 53158.3 7.87823e-11 2.2184e+08 38057.3 8.33445e-11 2.97701e-12 5.87067e+09 4.56626e+14
439.852 0 62734.9 0 0 0 0 2.52819e-12 0 5.38888e+14
464.821 0 74036.7 0 0 0 0 2.1469e-12 0 6.35971e+14
491.207 0 87374.6 0 0 0 0 1.82301e-12 0 7.50542e+14
519.092 0 103115 0 0 0 0 1.54789e-12 0 8.85755e+14
548.56 0 121692 0 0 0 0 1.31422e-12 0 1.04533e+15
579.7 0 143615 0 0 0 0 1.11576e-12 0 1.23364e+15
612.608 0 169488 0 0 0 0 9.47223e-13 0 1.45589e+15
647.384 0 200021 0 0 0 0 8.041e-13 0 1.71817e+15
684.134 0 236056 0 0 0 0 6.82568e-13 0 2.0277e+15
722.971 0 278582 0 0 0 0 5.79376e-13 0 2.393e+15
764.012 0 328769 0 0 0 0 4.91762e-13 0 2.8241e+15
0.343114
200
1.0655e+09
8589934592
0.0129181 0.000455359 1.58924e-09 3.33561e-05 6 0.00045119 3.30507e-05 0.00677225 0.0295524 13.6515
0.0136515 0 1.87554e-09 0 0 0 0 0.00688819 0 16.1108
0.0144264 0 2.21343e-09 0 0 0 0 0.00699249 0 19.0132
0.0152454 0 2.61218e-09 0 0 0 0 0.00708412 0 22.4385
0.0161108 0 3.08278e-09 0 0 0 0 0.00716212 0 26.4808
0.0170254 0 3.63815e-09 0 0 0 0 0.00722559 0 31.2514
0.0179919 0.000582145 4.29357e-09 1.57842e-05 12 0.000581395 1.57639e-05 0.00727371 0.0260404 36.8815
0.0190132 0 5.06707e-09 0 0 0 0 0.00730578 0 43.5258
0.0200925 0 5.97991e-09 0 0 0 0 0.00732122 0 51.367
0.0212331 0.00195469 7.05721e-09 3.22445e-05 8 0.00195299 3.22164e-05 0.00731958 0.0352419 60.621
0.0224385 0 8.32858e-09 0 0 0 0 0.00730056 0 71.542
0.0237123 0 9.829e-09 0 0 0 0 0.00726401 0 84.4305
0.0250583 0.00343939 1.15997e-08 3.45178e-05 6 0.00343777 3.45016e-05 0.00720995 0.0287252 99.6408
0.0264808 0 1.36894e-08 0 0 0 0 0.00713857 0 117.591
0.0279841 0.0047271 1.61556e-08 3.40629e-05 24 0.00472225 3.40279e-05 0.00705021 0.115955 138.776
0.0295727 0 1.90661e-08 0 0 0 0 0.00694538 0 163.777
0.0312514 0.00769459 2.25009e-08 3.98103e-05 24 0.00773366 4.00124e-05 0.00682475 0.139997 193.281
0.0330255 0 2.65545e-08 0 0 0 0 0.00668915 0 228.102
0.0349003 0.00564659 3.13384e-08 2.09759e-05 12 0.00560138 2.08079e-05 0.00653951 0.0384907 269.195
0.0368815 0.0132934 3.69841e-08 4.18438e-05 30 0.0131519 4.13983e-05 0.00637693 0.196853 317.691
0.0389751 0.00785941 4.36469e-08 2.09627e-05 24 0.00777856 2.0747e-05 0.00620256 0.0811125 374.924
0.0411876 0.00981624 5.151e-08 2.21852e-05 24 0.00974958 2.20346e-05 0.00601767 0.0884804 442.467
0.0435258 0.0109261 6.07896e-08 2.0924e-05 8 0.0109252 2.09224e-05 0.00582358 0.0287438 522.179
0.0459966 0.0144756 7.1741e-08 2.34898e-05 72 0.0143753 2.33271e-05 0.00562166 0.300848 616.251
0.0486077 0 8.46654e-08 0 0 0 0 0.0054133 0 727.27
0.051367 0.01232 9.99181e-08 1.43541e-05 54 0.0122543 1.42776e-05 0.00519989 0.149065 858.29
0.054283 0.0196726 1.17919e-07 1.94218e-05 60 0.0198014 1.95489e-05 0.0049828 0.233866 1012.91
0.0573645 0.0222968 1.39162e-07 1.86523e-05 96 0.0222379 1.86031e-05 0.00476339 0.375914 1195.39
0.060621 0.0190437 1.64232e-07 1.34991e-05 24 0.0187857 1.33162e-05 0.00454293 0.0713147 1410.75
0.0640622 0.0274076 1.93819e-07 1.64621e-05 134 0.0274174 1.64679e-05 0.00432265 0.510315 1664.89
0.0676989 0.0318551 2.28736e-07 1.62127e-05 120 0.0316649 1.61158e-05 0.00410371 0.474088 1964.83
0.071542 0.0308132 2.69944e-07 1.32884e-05 108 0.0304121 1.31155e-05 0.00388717 0.369201 2318.8
0.0756032 0.0353654 3.18575e-07 1.29234e-05 174 0.035273 1.28897e-05 0.00367401 0.612048 2736.54
0.079895 0.045126 3.75967e-07 1.39729e-05 168 0.0447468 1.38555e-05 0.0034651 0.677457 3229.53
0.0844305 0.0393544 4.43698e-07 1.03256e-05 168 0.0395179 1.03685e-05 0.00326121 0.53192 3811.34
0.0892234 0.0483229 5.23632e-07 1.07433e-05 290 0.0481844 1.07125e-05 0.00306301 1.01715 4497.96
0.0942883 0.0501538 6.17966e-07 9.44821e-06 288 0.0501822 9.45356e-06 0.00287109 0.947753 5308.28
0.0996408 0.0517454 7.29294e-07 8.25998e-06 366 0.05136 8.19846e-06 0.00268591 1.12556 6264.59
0.105297 0.0634888 8.60678e-07 8.58749e-06 420 0.0630847 8.53284e-06 0.00250785 1.43818 7393.17
0.111275 0.0615667 1.01573e-06 7.0563e-06 398 0.0615306 7.05216e-06 0.00233721 1.20161 8725.07
0.117591 0.0723274 1.19872e-06 7.02418e-06 624 0.0725162 7.04252e-06 0.00217419 2.01596 10296.9
0.124267 0.0792733 1.41467e-06 6.52351e-06 642 0.0791434 6.51283e-06 0.00201893 2.07442 12151.9
0.131321 0.0857835 1.66953e-06 5.98164e-06 800 0.0859034 5.99e-06 0.00187147 2.55698 14341.1
0.138776 0.104423 1.9703e-06 6.16983e-06 858 0.1048 6.19211e-06 0.00173182 3.05674 16924.7
0.146654 0.110057 2.32525e-06 5.51006e-06 1080 0.110919 5.55326e-06 0.00159991 3.7195 19973.8
0.154979 0.11015 2.74415e-06 4.67291e-06 1286 0.11079 4.70007e-06 0.00147563 4.07239 23572.1
0.163777 0.112583 3.23852e-06 4.04705e-06 1650 0.112624 4.04852e-06 0.00135884 4.91422 27818.7
0.173074 0.132554 3.82195e-06 4.03755e-06 1778 0.132753 4.04362e-06 0.00124933 5.74608 32830.3
0.182899 0.126686 4.51048e-06 3.26975e-06 2112 0.12693 3.27606e-06 0.00114689 6.02125 38744.7
0.193281 0.152244 5.32305e-06 3.32959e-06 2570 0.152628 3.33798e-06 0.00105127 8.1397 45724.7
0.204254 0.164504 6.28202e-06 3.0485e-06 3030 0.164627 3.05079e-06 0.000962209 9.59975 53962.1
0.215848 0.173822 7.41374e-06 2.72946e-06 3434 0.173717 2.72782e-06 0.000879423 10.6581 63683.5
0.228102 0.183454 8.74934e-06 2.44097e-06 4218 0.183515 2.44178e-06 0.000802624 12.8279 75156.3
0.24105 0.197316 1.03256e-05 2.22464e-06 4766 0.197437 2.22599e-06 0.000731515 14.4941 88695.9
0.254734 0.220948 1.21857e-05 2.11081e-06 6026 0.220912 2.11046e-06 0.000665798 19.1045 104675
0.269195 0.232749 1.4381e-05 1.88412e-06 6480 0.232723 1.88391e-06 0.000605173 20.1745 123532
0.284476 0.247957 1.69718e-05 1.70082e-06 8162 0.248411 1.70394e-06 0.000549345 25.2703 145787
0.300625 0.264014 2.00293e-05 1.53451e-06 9578 0.264144 1.53527e-06 0.000498021 29.512 172051
0.317691 0.291824 2.36377e-05 1.43723e-06 11234 0.291919 1.4377e-06 0.000450916 35.8068 203046
0.335725 0.312281 2.78961e-05 1.30321e-06 13344 0.311994 1.30201e-06 0.000407755 42.6481 239625
0.354784 0.33824 3.29216e-05 1.19606e-06 15464 0.337922 1.19494e-06 0.000368269 50.2239 282795
0.374924 0.355663 3.88525e-05 1.06569e-06 18458 0.3556 1.0655e-06 0.000332202 59.2123 333741
0.396207 0.386039 4.58519e-05 9.8013e-07 22232 0.385589 9.78987e-07 0.000299307 72.8023 393865
0.418699 0.410186 5.41123e-05 8.8246e-07 25628 0.409298 8.80549e-07 0.00026935 83.964 464821
0.442467 0.446209 6.38607e-05 8.13419e-07 30320 0.445249 8.1167e-07 0.000242108 101.867 548560
0.467585 0.479832 7.53654e-05 7.41186e-07 35452 0.47907 7.40009e-07 0.00021737 120.884 647384
0.494129 0.512152 8.89427e-05 6.70345e-07 41792 0.511885 6.69995e-07 0.000194938 143.712 764012
0.522179 0.554423 0.000104966 6.14897e-07 49988 0.554515 6.14999e-07 0.000174625 176.02 901651
0.551822 0.606113 0.000123876 5.6961e-07 59110 0.605651 5.69175e-07 0.000156255 215.479 1.06409e+06
0.583147 0.652052 0.000146192 5.19239e-07 69716 0.651095 5.18477e-07 0.000139664 259.188 1.25578e+06
0.616251 0.693315 0.000172529 4.67818e-07 82210 0.692108 4.67005e-07 0.0001247 308.415 1.48202e+06
0.651234 0.758354 0.000203611 4.33591e-07 96722 0.756909 4.32765e-07 0.00011122 377.069 1.74901e+06
0.688203 0.819633 0.000240292 3.97091e-07 113098 0.818373 3.96481e-07 9.90935e-05 453.21 2.06409e+06
0.72727 0.886243 0.000283581 3.63819e-07 135190 0.885205 3.63393e-07 8.81969e-05 557.669 2.43595e+06
0.768555 0.961575 0.000334669 3.34486e-07 158170 0.96054 3.34125e-07 7.84179e-05 674.662 2.87479e+06
0.812184 1.04227 0.000394961 3.07211e-07 188560 1.04067 3.06738e-07 6.96525e-05 831.668 3.39269e+06
0.85829 1.13215 0.000466114 2.82764e-07 220444 1.13052 2.82356e-07 6.1805e-05 1008.55 4.00389e+06
0.907013 1.23954 0.000550086 2.62325e-07 261388 1.23807 2.62015e-07 5.47875e-05 1251.54 4.7252e+06
0.958501 1.34602 0.000649185 2.41376e-07 308244 1.34393 2.41001e-07 4.85194e-05 1533.46 5.57646e+06
1.01291 1.45783 0.000766138 2.21518e-07 364396 1.45565 2.21188e-07 4.29272e-05 1880.4 6.58107e+06
1.07041 1.59692 0.00090416 2.05612e-07 429162 1.59449 2.05299e-07 3.79435e-05 2325.59 7.76667e+06
1.13118 1.75028 0.00106705 1.90956e-07 506358 1.74745 1.90648e-07 3.3507e-05 2885.73 9.16586e+06
1.19539 1.91581 0.00125928 1.77109e-07 598590 1.9125 1.76803e-07 2.9562e-05 3586.21 1.08171e+07
1.26325 2.09185 0.00148614 1.63863e-07 704844 2.08837 1.63591e-07 2.60578e-05 4432.36 1.27658e+07
1.33496 2.29533 0.00175387 1.52355e-07 834620 2.29148 1.521e-07 2.29484e-05 5541.06 1.50656e+07
1.41075 2.52284 0.00206984 1.41894e-07 981444 2.51818 1.41632e-07 2.01923e-05 6896.74 1.77798e+07
1.49083 2.77259 0.00244272 1.32136e-07 1.15998e+06 2.76755 1.31896e-07 1.77518e-05 8634.35 2.09828e+07
1.57546 3.05218 0.00288279 1.23256e-07 1.36931e+06 3.04658 1.2303e-07 1.55929e-05 10823.9 2.4763e+07
1.66489 3.36012 0.00340213 1.14978e-07 1.61652e+06 3.35353 1.14752e-07 1.3685e-05 13581.5 2.92241e+07
1.75941 3.6974 0.00401503 1.07206e-07 1.90601e+06 3.69018 1.06996e-07 1.20007e-05 17026.9 3.44889e+07
1.85928 4.07217 0.00473835 1.00048e-07 2.24913e+06 4.06438 9.98567e-08 1.05151e-05 21399.8 4.07021e+07
1.96483 4.50508 0.00559198 9.3788e-08 2.65744e+06 4.49619 9.36029e-08 9.20606e-06 27073 4.80347e+07
2.07637 4.97495 0.00659939 8.77597e-08 3.13125e+06 4.96497 8.75836e-08 8.05366e-06 34120.9 5.66883e+07
2.19424 5.48699 0.00778828 8.20168e-08 3.69915e+06 5.47636 8.18579e-08 7.04008e-06 43095 6.69008e+07
2.3188 6.0588 0.00919136 7.67391e-08 4.36472e+06 6.04678 7.65869e-08 6.1494e-06 54467.9 7.89532e+07
2.45043 6.69852 0.0108472 7.18904e-08 5.14913e+06 6.68558 7.17515e-08 5.36741e-06 68966.8 9.31768e+07
2.58954 7.38575 0.0128014 6.71658e-08 6.07894e+06 7.37155 6.70367e-08 4.68145e-06 87215.9 1.09963e+08
2.73654 8.15529 0.0151076 6.28427e-08 7.17304e+06 8.13943 6.27205e-08 4.08023e-06 110477 1.29773e+08
2.89188 8.98224 0.0178292 5.86492e-08 8.46557e+06 8.96473 5.85349e-08 3.55373e-06 139712 1.53152e+08
3.05605 9.89658 0.0210412 5.47551e-08 9.98773e+06 9.87759 5.465e-08 3.09304e-06 176810 1.80743e+08
3.22953 10.897 0.0248319 5.10865e-08 1.1797e+07 10.8757 5.09867e-08 2.69025e-06 224019 2.13304e+08
3.41286 11.9878 0.0293054 4.76214e-08 1.39144e+07 11.9641 4.75271e-08 2.33837e-06 283369 2.51731e+08
3.6066 13.1615 0.0345848 4.43027e-08 1.64163e+07 13.1361 4.42171e-08 2.0312e-06 358057 2.97081e+08
3.81134 14.4462 0.0408154 4.1204e-08 1.93821e+07 14.4187 4.11258e-08 1.76327e-06 452922 3.50601e+08
4.0277 15.7963 0.0481684 3.81772e-08 2.28754e+07 15.7657 3.81031e-08 1.52972e-06 570901 4.13763e+08
4.25634 17.2675 0.056846 3.53622e-08 2.69929e+07 17.234 3.52937e-08 1.32631e-06 719689 4.88304e+08
4.49796 18.8344 0.067087 3.26832e-08 3.18542e+07 18.7984 3.26207e-08 1.14926e-06 905887 5.76273e+08
4.7533 20.4888 0.0791729 3.01265e-08 3.75892e+07 20.4502 3.00699e-08 9.95263e-07 1.13782e+06 6.8009e+08
5.02313 22.2448 0.0934361 2.77156e-08 4.43706e+07 22.2034 2.7664e-08 8.61414e-07 1.4276e+06 8.0261e+08
5.30828 24.09 0.110269 2.54328e-08 5.23593e+07 24.0453 2.53856e-08 7.45152e-07 1.78707e+06 9.47202e+08
5.60962 26.0603 0.130134 2.3313e-08 6.1787e+07 26.0119 2.32697e-08 6.44232e-07 2.2359e+06 1.11784e+09
5.92807 28.1192 0.153578 2.1315e-08 7.29346e+07 28.0676 2.12758e-08 5.56685e-07 2.7926e+06 1.31923e+09
6.26459 30.2561 0.181246 1.94337e-08 8.60651e+07 30.201 1.93983e-08 4.80786e-07 3.47881e+06 1.55689e+09
6.62021 32.5001 0.213898 1.76884e-08 1.01558e+08 32.4419 1.76568e-08 4.15026e-07 4.32841e+06 1.83737e+09
6.99602 34.8571 0.252432 1.60752e-08 1.1986e+08 34.7949 1.60465e-08 3.58083e-07 5.38081e+06 2.16837e+09
7.39317 37.2997 0.297908 1.45758e-08 1.41457e+08 37.2338 1.45501e-08 3.08803e-07 6.67691e+06 2.55901e+09
7.81286 39.869 0.351577 1.32016e-08 1.66936e+08 39.7991 1.31784e-08 2.66181e-07 8.27938e+06 3.02002e+09
8.25637 42.5465 0.414914 1.19376e-08 1.97025e+08 42.4723 1.19167e-08 2.29336e-07 1.02557e+07 3.56409e+09
8.72507 45.365 0.489662 1.07854e-08 2.32497e+08 45.2856 1.07665e-08 1.97503e-07 1.26963e+07 4.20617e+09
9.22037 48.3921 0.577876 9.74877e-09 2.74404e+08 48.3071 9.73164e-09 1.70014e-07 1.57346e+07 4.96392e+09
9.74378 51.6826 0.681982 8.82229e-09 3.2382e+08 51.5897 8.80643e-09 1.46289e-07 1.95287e+07 5.85818e+09
10.2969 55.3613 0.804843 8.00766e-09 3.82165e+08 55.2581 7.99273e-09 1.25822e-07 2.43219e+07 6.91355e+09
10.8814 59.7126 0.949838 7.31857e-09 4.51027e+08 59.5939 7.30403e-09 1.08175e-07 3.05141e+07 8.15905e+09
11.4992 65.2433 1.12095 6.77576e-09 5.32251e+08 65.0992 6.7608e-09 9.29669e-08 3.87924e+07 9.62892e+09
12.1519 72.9536 1.3229 6.41994e-09 6.28157e+08 72.7649 6.40333e-09 7.98658e-08 5.04939e+07 1.13636e+10
12.8418 81.5265 1.56122 6.07918e-09 3.82727e+08 84.3808 6.29201e-09 6.85852e-08 3.39237e+07 1.34108e+10
13.5708 0 1.84248 0 0 0 0 5.88765e-08 0 1.58268e+10
14.3411 0 2.17441 0 0 0 0 5.05241e-08 0 1.8678e+10
15.1552 0 2.56613 0 0 0 0 4.33417e-08 0 2.20429e+10
16.0156 0 3.02843 0 0 0 0 3.71677e-08 0 2.6014e+10
16.9247 0 3.574 0 0 0 0 3.18628e-08 0 3.07005e+10
17.8855 0 4.21787 0 0 0 0 2.73063e-08 0 3.62312e+10
18.9008 0 4.97773 0 0 0 0 2.33941e-08 0 4.27584e+10
19.9738 0 5.87448 0 0 0 0 2.00364e-08 0 5.04614e+10
21.1076 0 6.93279 0 0 0 0 1.71555e-08 0 5.95522e+10
22.3058 0 8.18175 0 0 0 0 1.46847e-08 0 7.02807e+10
23.5721 0 9.65571 0 0 0 0 1.25662e-08 0 8.29419e+10
24.9102 0 11.3952 0 0 0 0 1.07504e-08 0 9.78842e+10
26.3243 0 13.4481 0 0 0 0 9.19452e-09 0 1.15518e+11
27.8187 0 15.8708 0 0 0 0 7.86182e-09 0 1.36329e+11
29.3979 0 18.73 0 0 0 0 6.72061e-09 0 1.60889e+11
31.0667 0 22.1042 0 0 0 0 5.74366e-09 0 1.89874e+11
32.8303 0 26.0864 0 0 0 0 4.90756e-09 0 2.2408e+11
34.694 0 30.7859 0 0 0 0 4.19221e-09 0 2.64449e+11
36.6634 0 36.3321 0 0 0 0 3.58032e-09 0 3.1209e+11
38.7447 0 42.8774 0 0 0 0 3.05709e-09 0 3.68314e+11
40.9442 0 50.6018 0 0 0 0 2.60976e-09 0 4.34667e+11
43.2685 0 59.7179 0 0 0 0 2.22743e-09 0 5.12973e+11
45.7247 0 70.4762 0 0 0 0 1.90073e-09 0 6.05386e+11
48.3204 0 83.1727 0 0 0 0 1.62163e-09 0 7.14448e+11
51.0634 0 98.1565 0 0 0 0 1.38326e-09 0 8.43158e+11
53.9621 0 115.84 0 0 0 0 1.1797e-09 0 9.95055e+11
57.0254 0 136.709 0 0 0 0 1.00592e-09 0 1.17432e+12
60.2626 0 161.337 0 0 0 0 8.57591e-10 0 1.38587e+12
63.6835 0 190.402 0 0 0 0 7.3101e-10 0 1.63554e+12
67.2987 0 224.704 0 0 0 0 6.23009e-10 0 1.93019e+12
71.1191 0 265.185 0 0 0 0 5.30879e-10 0 2.27792e+12
75.1563 0 312.958 0 0 0 0 4.52303e-10 0 2.68829e+12
79.4227 0 369.339 0 0 0 0 3.85299e-10 0 3.17259e+12
83.9313 0 435.876 0 0 0 0 3.28173e-10 0 3.74415e+12
88.6959 0 514.4 0 0 0 0 2.79476e-10 0 4.41866e+12
93.7309 0 607.071 0 0 0 0 2.37972e-10 0 5.2147e+12
99.0518 0 716.436 0 0 0 0 2.02605e-10 0 6.15414e+12
104.675 0 845.504 0 0 0 0 1.72471e-10 0 7.26283e+12
110.617 0 997.824 0 0 0 0 1.468e-10 0 8.57124e+12
116.896 0 1177.58 0 0 0 0 1.24935e-10 0 1.01154e+13
123.532 0 1389.73 0 0 0 0 1.06313e-10 0 1.19377e+13
130.545 0 1640.09 0 0 0 0 9.04567e-11 0 1.40883e+13
137.955 0 1935.56 0 0 0 0 7.69563e-11 0 1.66263e+13
145.787 0 2284.26 0 0 0 0 6.54636e-11 0 1.96216e+13
154.063 0 2695.77 0 0 0 0 5.56812e-11 0 2.31565e+13
162.808 0 3181.42 0 0 0 0 4.73556e-11 0 2.73282e+13
172.051 0 3754.56 0 0 0 0 4.02708e-11 0 3.22515e+13
181.818 0 4430.96 0 0 0 0 3.42426e-11 0 3.80616e+13
192.139 0 5229.21 0 0 0 0 2.91139e-11 0 4.49186e+13
203.046 0 6171.26 0 0 0 0 2.4751e-11 0 5.30108e+13
214.572 0 7283.03 0 0 0 0 2.10401e-11 0 6.25608e+13
226.753 0 8595.09 0 0 0 0 1.78839e-11 0 7.38313e+13
239.625 0 10143.5 0 0 0 0 1.51999e-11 0 8.71322e+13
253.228 0 11970.9 0 0 0 0 1.29176e-11 0 1.02829e+14
267.603 0 14127.5 0 0 0 0 1.09771e-11 0 1.21354e+14
282.795 0 16672.6 0 0 0 0 9.3274e-12 0 1.43217e+14
298.848 0 19676.2 0 0 0 0 7.925e-12 0 1.69017e+14
315.813 0 23220.9 0 0 0 0 6.73295e-12 0 1.99466e+14
333.741 0 27404.3 0 0 0 0 5.71979e-12 0 2.35401e+14
352.686 0 32341.2 0 0 0 0 4.85874e-12 0 2.77809e+14
372.707 0 38167.6 0 0 0 0 4.12703e-12 0 3.27857e+14
393.865 0 45043.5 0 0 0 0 3.50528e-12 0 3.86921e+14
416.224 0 53158.3 0 0 0 0 2.97701e-12 0 4.56626e+14
439.852 0 62734.9 0 0 0 0 2.52819e-12 0 5.38888e+14
464.821 0 74036.7 0 0 0 0 2.1469e-12 0 6.35971e+14
491.207 0 87374.6 0 0 0 0 1.82301e-12 0 7.50542e+14
519.092 0 103115 0 0 0 0 1.54789e-12 0 8.85755e+14
548.56 0 121692 0 0 0 0 1.31422e-12 0 1.04533e+15
579.7 0 143615 0 0 0 0 1.11576e-12 0 1.23364e+15
612.608 0 169488 0 0 0 0 9.47223e-13 0 1.45589e+15
647.384 0 200021 0 0 0 0 8.041e-13 0 1.71817e+15
684.134 0 236056 0 0 0 0 6.82568e-13 0 2.0277e+15
722.971 0 278582 0 0 0 0 5.79376e-13 0 2.393e+15
764.012 0 328769 0 0 0 0 4.91762e-13 0 2.8241e+15
