0.0610242
200
1.0655e+09
8589934592
0.0129181 0 1.58924e-09 0 0 0 0 0.00677225 0 13.6515
0.0136515 0 1.87554e-09 0 0 0 0 0.00688819 0 16.1108
0.0144264 0 2.21343e-09 0 0 0 0 0.00699249 0 19.0132
0.0152454 0 2.61218e-09 0 0 0 0 0.00708412 0 22.4385
0.0161108 0 3.08278e-09 0 0 0 0 0.00716212 0 26.4808
0.0170254 0 3.63815e-09 0 0 0 0 0.00722559 0 31.2514
0.0179919 0 4.29357e-09 0 0 0 0 0.00727371 0 36.8815
0.0190132 0 5.06707e-09 0 0 0 0 0.00730578 0 43.5258
0.0200925 0 5.97991e-09 0 0 0 0 0.00732122 0 51.367
0.0212331 0 7.05721e-09 0 0 0 0 0.00731958 0 60.621
0.0224385 0 8.32858e-09 0 0 0 0 0.00730056 0 71.542
0.0237123 0 9.829e-09 0 0 0 0 0.00726401 0 84.4305
0.0250583 0 1.15997e-08 0 0 0 0 0.00720995 0 99.6408
0.0264808 0 1.36894e-08 0 0 0 0 0.00713857 0 117.591
0.0279841 0 1.61556e-08 0 0 0 0 0.00705021 0 138.776
0.0295727 0 1.90661e-08 0 0 0 0 0.00694538 0 163.777
0.0312514 0 2.25009e-08 0 0 0 0 0.00682475 0 193.281
0.0330255 0 2.65545e-08 0 0 0 0 0.00668915 0 228.102
0.0349003 0 3.13384e-08 0 0 0 0 0.00653951 0 269.195
0.0368815 0 3.69841e-08 0 0 0 0 0.00637693 0 317.691
0.0389751 0 4.36469e-08 0 0 0 0 0.00620256 0 374.924
0.0411876 0 5.151e-08 0 0 0 0 0.00601767 0 442.467
0.0435258 0 6.07896e-08 0 0 0 0 0.00582358 0 522.179
0.0459966 0 7.1741e-08 0 0 0 0 0.00562166 0 616.251
0.0486077 0 8.46654e-08 0 0 0 0 0.0054133 0 727.27
0.051367 0 9.99181e-08 0 0 0 0 0.00519989 0 858.29
0.054283 0 1.17919e-07 0 0 0 0 0.0049828 0 1012.91
0.0573645 0 1.39162e-07 0 0 0 0 0.00476339 0 1195.39
0.060621 0 1.64232e-07 0 0 0 0 0.00454293 0 1410.75
0.0640622 0 1.93819e-07 0 0 0 0 0.00432265 0 1664.89
0.0676989 0 2.28736e-07 0 0 0 0 0.00410371 0 1964.83
0.071542 0 2.69944e-07 0 0 0 0 0.00388717 0 2318.8
0.0756032 0 3.18575e-07 0 0 0 0 0.00367401 0 2736.54
0.079895 0 3.75967e-07 0 0 0 0 0.0034651 0 3229.53
0.0844305 0 4.43698e-07 0 0 0 0 0.00326121 0 3811.34
0.0892234 0 5.23632e-07 0 0 0 0 0.00306301 0 4497.96
0.0942883 0 6.17966e-07 0 0 0 0 0.00287109 0 5308.28
0.0996408 0 7.29294e-07 0 0 0 0 0.00268591 0 6264.59
0.105297 0 8.60678e-07 0 0 0 0 0.00250785 0 7393.17
0.111275 0 1.01573e-06 0 0 0 0 0.00233721 0 8725.07
0.117591 0 1.19872e-06 0 0 0 0 0.00217419 0 10296.9
0.124267 0 1.41467e-06 0 0 0 0 0.00201893 0 12151.9
0.131321 0 1.66953e-06 0 0 0 0 0.00187147 0 14341.1
0.138776 0 1.9703e-06 0 0 0 0 0.00173182 0 16924.7
0.146654 0 2.32525e-06 0 0 0 0 0.00159991 0 19973.8
0.154979 0 2.74415e-06 0 0 0 0 0.00147563 0 23572.1
0.163777 0 3.23852e-06 0 0 0 0 0.00135884 0 27818.7
0.173074 0 3.82195e-06 0 0 0 0 0.00124933 0 32830.3
0.182899 0 4.51048e-06 0 0 0 0 0.00114689 0 38744.7
0.193281 0 5.32305e-06 0 0 0 0 0.00105127 0 45724.7
0.204254 0 6.28202e-06 0 0 0 0 0.000962209 0 53962.1
0.215848 0 7.41374e-06 0 0 0 0 0.000879423 0 63683.5
0.228102 0 8.74934e-06 0 0 0 0 0.000802624 0 75156.3
0.24105 0 1.03256e-05 0 0 0 0 0.000731515 0 88695.9
0.254734 0 1.21857e-05 0 0 0 0 0.000665798 0 104675
0.269195 0 1.4381e-05 0 0 0 0 0.000605173 0 123532
0.284476 0 1.69718e-05 0 0 0 0 0.000549345 0 145787
0.300625 0 2.00293e-05 0 0 0 0 0.000498021 0 172051
0.317691 0 2.36377e-05 0 0 0 0 0.000450916 0 203046
0.335725 0 2.78961e-05 0 0 0 0 0.000407755 0 239625
0.354784 0 3.29216e-05 0 0 0 0 0.000368269 0 282795
0.374924 0 3.88525e-05 0 0 0 0 0.000332202 0 333741
0.396207 0.229056 4.58519e-05 5.81561e-07 6 0.222688 5.65393e-07 0.000299307 0.0116582 393865
0.418699 0 5.41123e-05 0 0 0 0 0.00026935 0 464821
0.442467 0 6.38607e-05 0 0 0 0 0.000242108 0 548560
0.467585 0 7.53654e-05 0 0 0 0 0.00021737 0 647384
0.494129 0 8.89427e-05 0 0 0 0 0.000194938 0 764012
0.522179 0 0.000104966 0 0 0 0 0.000174625 0 901651
0.551822 0 0.000123876 0 0 0 0 0.000156255 0 1.06409e+06
0.583147 4.47465 0.000146192 3.56324e-06 12 4.7096 3.75032e-06 0.000139664 0.306155 1.25578e+06
0.616251 0 0.000172529 0 0 0 0 0.0001247 0 1.48202e+06
0.651234 0 0.000203611 0 0 0 0 0.00011122 0 1.74901e+06
0.688203 23.6827 0.000240292 1.14737e-05 8 23.0935 1.11882e-05 9.90935e-05 0.92629 2.06409e+06
0.72727 0 0.000283581 0 0 0 0 8.81969e-05 0 2.43595e+06
0.768555 0 0.000334669 0 0 0 0 7.84179e-05 0 2.87479e+06
0.812184 0.0397601 0.000394961 1.17193e-08 6 0.0406102 1.19699e-08 6.96525e-05 0.00100953 3.39269e+06
0.85829 0 0.000466114 0 0 0 0 6.1805e-05 0 4.00389e+06
0.907013 0.177358 0.000550086 3.75346e-08 24 0.180762 3.82548e-08 5.47875e-05 0.0164423 4.7252e+06
0.958501 0.714692 0.000649185 1.28162e-07 24 0.67283 1.20655e-07 4.85194e-05 0.0633951 5.57646e+06
1.01291 0 0.000766138 0 0 0 0 4.29272e-05 0 6.58107e+06
1.07041 0 0.00090416 0 0 0 0 3.79435e-05 0 7.76667e+06
1.13118 1.24829 0.00106705 1.36189e-07 12 1.23296 1.34516e-07 3.3507e-05 0.048774 9.16586e+06
1.19539 0.395687 0.00125928 3.65797e-08 30 0.38753 3.58256e-08 2.9562e-05 0.0371216 1.08171e+07
1.26325 5.64878 0.00148614 4.42491e-07 24 5.56378 4.35833e-07 2.60578e-05 0.407547 1.27658e+07
1.33496 18.7969 0.00175387 1.24767e-06 24 18.8383 1.25041e-06 2.29484e-05 1.30484 1.50656e+07
1.41075 6.08926 0.00206984 3.42483e-07 32 6.26596 3.52421e-07 2.01923e-05 0.542754 1.77798e+07
1.49083 0.274265 0.00244272 1.30709e-08 48 0.268418 1.27923e-08 1.77518e-05 0.0353433 2.09828e+07
1.57546 0.0304036 0.00288279 1.22779e-09 6 0.0289511 1.16913e-09 1.55929e-05 0.000472441 2.4763e+07
1.66489 0.309721 0.00340213 1.05982e-08 84 0.297452 1.01783e-08 1.3685e-05 0.0650525 2.92241e+07
1.75941 2.39437 0.00401503 6.94244e-08 48 2.41409 6.99962e-08 1.20007e-05 0.277682 3.44889e+07
1.85928 0.148156 0.00473835 3.64e-09 72 0.150308 3.69288e-09 1.05151e-05 0.0249242 4.07021e+07
1.96483 0.680139 0.00559198 1.41593e-08 54 0.669641 1.39408e-08 9.20606e-06 0.0830544 4.80347e+07
2.07637 8.14625 0.00659939 1.43702e-07 104 8.11524 1.43155e-07 8.05366e-06 1.85569 5.66883e+07
2.19424 0.213922 0.00778828 3.1976e-09 120 0.215974 3.22827e-09 7.04008e-06 0.054504 6.69008e+07
2.3188 1.56134 0.00919136 1.97755e-08 156 1.48083 1.87558e-08 6.1494e-06 0.501671 7.89532e+07
2.45043 0.494108 0.0108472 5.3029e-09 126 0.492944 5.29041e-09 5.36741e-06 0.124486 9.31768e+07
2.58954 0.39755 0.0128014 3.61531e-09 192 0.405158 3.6845e-09 4.68145e-06 0.148275 1.09963e+08
2.73654 4.17659 0.0151076 3.21838e-08 152 4.33693 3.34194e-08 4.08023e-06 1.19894 1.29773e+08
2.89188 3.33147 0.0178292 2.17527e-08 378 3.4072 2.22472e-08 3.55373e-06 2.31377 1.53152e+08
3.05605 1.16136 0.0210412 6.42551e-09 264 1.13899 6.30174e-09 3.09304e-06 0.548436 1.80743e+08
3.22953 0.131308 0.0248319 6.15591e-10 366 0.128253 6.0127e-10 2.69025e-06 0.0837491 2.13304e+08
3.41286 0.660079 0.0293054 2.62216e-09 428 0.6265 2.48876e-09 2.33837e-06 0.479941 2.51731e+08
3.6066 3.02271 0.0345848 1.01747e-08 486 2.91716 9.8194e-09 2.0312e-06 2.43447 2.97081e+08
3.81134 0.620788 0.0408154 1.77064e-09 600 0.61594 1.75681e-09 1.76327e-06 0.602508 3.50601e+08
4.0277 0.416401 0.0481684 1.00638e-09 738 0.41147 9.94459e-10 1.52972e-06 0.485516 4.13763e+08
4.25634 1.06643 0.056846 2.18395e-09 824 1.11316 2.27965e-09 1.32631e-06 1.35683 4.88304e+08
4.49796 2.41887 0.067087 4.19744e-09 954 2.43653 4.22808e-09 1.14926e-06 3.4843 5.76273e+08
4.7533 0.422745 0.0791729 6.21601e-10 1094 0.413819 6.08476e-10 9.95263e-07 0.683269 6.8009e+08
5.02313 0.237423 0.0934361 2.95813e-10 1332 0.236443 2.94593e-10 8.61414e-07 0.457415 8.0261e+08
5.30828 1.95595 0.110269 2.06497e-09 1614 1.97951 2.08985e-09 7.45152e-07 4.47273 9.47202e+08
5.60962 0.923179 0.130134 8.25858e-10 1850 0.889447 7.95681e-10 6.44232e-07 2.37156 1.11784e+09
5.92807 1.17455 0.153578 8.90329e-10 2238 1.11928 8.48434e-10 5.56685e-07 3.57932 1.31923e+09
6.26459 0.500825 0.181246 3.21683e-10 2546 0.509732 3.27405e-10 4.80786e-07 1.70347 1.55689e+09
6.62021 0.115452 0.213898 6.28354e-11 3264 0.115461 6.28403e-11 4.15026e-07 0.494173 1.83737e+09
6.99602 1.14962 0.252432 5.30175e-10 3506 1.19165 5.49562e-10 3.58083e-07 5.19097 2.16837e+09
7.39317 0.446743 0.297908 1.74577e-10 4506 0.454535 1.77621e-10 3.08803e-07 2.54739 2.55901e+09
7.81286 0.940879 0.351577 3.11547e-10 5018 0.97524 3.22925e-10 2.66181e-07 5.87323 3.02002e+09
8.25637 0.843741 0.414914 2.36734e-10 5852 0.805955 2.26132e-10 2.29336e-07 6.04078 3.56409e+09
8.72507 0.479142 0.489662 1.13914e-10 7362 0.472111 1.12243e-10 1.97503e-07 4.24619 4.20617e+09
9.22037 0.717383 0.577876 1.44519e-10 8306 0.70748 1.42525e-10 1.70014e-07 7.06046 4.96392e+09
9.74378 0.184924 0.681982 3.15668e-11 9698 0.185749 3.17076e-11 1.46289e-07 2.09267 5.85818e+09
10.2969 0.715748 0.804843 1.03528e-10 11816 0.730411 1.05649e-10 1.25822e-07 9.72235 6.91355e+09
10.8814 0.587117 0.949838 7.1959e-11 13682 0.588284 7.2102e-11 1.08175e-07 9.10135 8.15905e+09
11.4992 0.553361 1.12095 5.74687e-11 16152 0.541062 5.61913e-11 9.29669e-08 9.98457 9.62892e+09
12.1519 0.547909 1.3229 4.82161e-11 19472 0.532054 4.68209e-11 7.98658e-08 11.7555 1.13636e+10
12.8418 0.204119 1.56122 1.52205e-11 22670 0.208289 1.55314e-11 6.85852e-08 5.03095 1.34108e+10
13.5708 0.515135 1.84248 3.25483e-11 26224 0.525185 3.31833e-11 5.88765e-08 14.4973 1.58268e+10
14.3411 0.420557 2.17441 2.25162e-11 31640 0.428865 2.2961e-11 5.05241e-08 14.1004 1.8678e+10
15.1552 0.461985 2.56613 2.09584e-11 37484 0.46735 2.12018e-11 4.33417e-08 18.1259 2.20429e+10
16.0156 0.382027 3.02843 1.46854e-11 43856 0.39116 1.50365e-11 3.71677e-08 17.328 2.6014e+10
16.9247 0.655686 3.574 2.13575e-11 51362 0.656739 2.13918e-11 3.18628e-08 34.4278 3.07005e+10
17.8855 0.521723 4.21787 1.43998e-11 61636 0.516075 1.42439e-11 2.73063e-08 32.5034 3.62312e+10
18.9008 0.766113 4.97773 1.79172e-11 72218 0.763515 1.78565e-11 2.33941e-08 55.3108 4.27584e+10
19.9738 1.15002 5.87448 2.279e-11 84586 1.13972 2.25859e-11 2.00364e-08 96.2107 5.04614e+10
21.1076 1.83579 6.93279 3.08265e-11 100708 1.83039 3.07359e-11 1.71555e-08 180.961 5.95522e+10
22.3058 3.65026 8.18175 5.19383e-11 118712 3.64131 5.1811e-11 1.46847e-08 419.874 7.02807e+10
23.5721 6.77881 9.65571 8.17296e-11 140410 6.7376 8.12328e-11 1.25662e-08 913.219 8.29419e+10
24.9102 8.4663 11.3952 8.64931e-11 164374 8.40891 8.59067e-11 1.07504e-08 1322.49 9.78842e+10
26.3243 9.98439 13.4481 8.64313e-11 194680 9.94758 8.61126e-11 9.19452e-09 1830.05 1.15518e+11
27.8187 9.13585 15.8708 6.70132e-11 230196 9.10951 6.682e-11 7.86182e-09 1962.16 1.36329e+11
29.3979 9.84497 18.73 6.1191e-11 271156 9.82044 6.10385e-11 6.72061e-09 2468.87 1.60889e+11
31.0667 11.6767 22.1042 6.1497e-11 321076 11.613 6.11615e-11 5.74366e-09 3437.74 1.89874e+11
32.8303 15.0109 26.0864 6.69891e-11 377436 14.936 6.66548e-11 4.90756e-09 5152.07 2.2408e+11
34.694 19.1287 30.7859 7.23341e-11 447594 19.0473 7.20263e-11 4.19221e-09 7722.97 2.64449e+11
36.6634 21.7321 36.3321 6.96342e-11 525078 21.6551 6.93873e-11 3.58032e-09 10212.3 3.1209e+11
38.7447 23.6536 42.8774 6.42214e-11 621924 23.5959 6.40646e-11 3.05709e-09 13065 3.68314e+11
40.9442 25.8377 50.6018 5.94426e-11 732630 25.7929 5.93396e-11 2.60976e-09 16687.1 4.34667e+11
43.2685 28.6174 59.7179 5.57874e-11 865596 28.536 5.56288e-11 2.22743e-09 21679.4 5.12973e+11
45.7247 32.8141 70.4762 5.42035e-11 1.02168e+06 32.6996 5.40145e-11 1.90073e-09 29135.3 6.05386e+11
48.3204 39.8552 83.1727 5.57845e-11 1.20544e+06 39.7019 5.55701e-11 1.62163e-09 41467.3 7.14448e+11
51.0634 49.7868 98.1565 5.9048e-11 1.42103e+06 49.5841 5.88076e-11 1.38326e-09 60660.5 8.43158e+11
53.9621 61.5993 115.84 6.19054e-11 1.67997e+06 61.3784 6.16834e-11 1.1797e-09 88156.9 9.95055e+11
57.0254 73.5106 136.709 6.25986e-11 1.98018e+06 73.2772 6.23998e-11 1.00592e-09 123227 1.17432e+12
60.2626 85.6871 161.337 6.18289e-11 2.33957e+06 85.4297 6.16432e-11 8.57591e-10 168674 1.38587e+12
63.6835 98.8259 190.402 6.0424e-11 2.75676e+06 98.5308 6.02435e-11 7.3101e-10 227869 1.63554e+12
67.2987 115.143 224.704 5.96539e-11 3.25638e+06 114.777 5.94643e-11 6.23009e-10 311802 1.93019e+12
71.1191 136.171 265.185 5.97787e-11 3.84387e+06 135.717 5.95795e-11 5.30879e-10 432833 2.27792e+12
75.1563 161.774 312.958 6.01772e-11 4.53277e+06 161.223 5.99722e-11 4.52303e-10 603067 2.68829e+12
79.4227 191.601 369.339 6.03924e-11 5.35083e+06 190.979 6.01966e-11 3.85299e-10 838697 3.17259e+12
83.9313 226.081 435.876 6.03826e-11 6.32174e+06 225.339 6.01842e-11 3.28173e-10 1.16318e+06 3.74415e+12
88.6959 266.325 514.4 6.02727e-11 7.44986e+06 265.455 6.00759e-11 2.79476e-10 1.60666e+06 4.41866e+12
93.7309 314.17 607.071 6.0247e-11 8.79764e+06 313.138 6.00491e-11 2.37972e-10 2.22728e+06 5.2147e+12
99.0518 371.135 716.436 6.03065e-11 1.03827e+07 369.907 6.0107e-11 2.02605e-10 3.09047e+06 6.15414e+12
104.675 438.055 845.504 6.03147e-11 1.22515e+07 436.598 6.01141e-11 1.72471e-10 4.28447e+06 7.26283e+12
110.617 517.22 997.824 6.03437e-11 1.44573e+07 515.516 6.01448e-11 1.468e-10 5.94283e+06 8.57124e+12
116.896 610.273 1177.58 6.03312e-11 1.70664e+07 608.254 6.01316e-11 1.24935e-10 8.24139e+06 1.01154e+13
123.532 720.924 1389.73 6.03906e-11 2.0139e+07 718.524 6.01896e-11 1.06313e-10 1.14398e+07 1.19377e+13
130.545 851.124 1640.09 6.04136e-11 2.37643e+07 848.293 6.02126e-11 9.04567e-11 1.58715e+07 1.40883e+13
137.955 1004.69 1935.56 6.04278e-11 2.80503e+07 1001.34 6.02262e-11 7.69563e-11 2.20257e+07 1.66263e+13
145.787 1187.68 2284.26 6.05294e-11 3.30981e+07 1183.71 6.03269e-11 6.54636e-11 3.06034e+07 1.96216e+13
154.063 1402.77 2695.77 6.05777e-11 3.90634e+07 1398.09 6.03759e-11 5.56812e-11 4.24986e+07 2.31565e+13
162.808 1656.96 3181.42 6.06317e-11 4.61057e+07 1651.4 6.04286e-11 4.73556e-11 5.90313e+07 2.73282e+13
172.051 1958.14 3754.56 6.07147e-11 5.44046e+07 1951.58 6.05112e-11 4.02708e-11 8.20235e+07 3.22515e+13
181.818 2315.17 4430.96 6.08268e-11 6.42064e+07 2307.4 6.06226e-11 3.42426e-11 1.14053e+08 3.80616e+13
192.139 2737.03 5229.21 6.09331e-11 7.57748e+07 2727.79 6.07275e-11 2.91139e-11 1.58591e+08 4.49186e+13
203.046 3239.19 6171.26 6.11044e-11 8.94213e+07 3228.3 6.08989e-11 2.4751e-11 2.2076e+08 5.30108e+13
214.572 3835.13 7283.03 6.13024e-11 1.05538e+08 3822.13 6.10946e-11 2.10401e-11 3.07497e+08 6.25608e+13
226.753 4543.11 8595.09 6.15337e-11 1.24552e+08 4527.64 6.13242e-11 1.78839e-11 4.28548e+08 7.38313e+13
239.625 5389.79 10143.5 6.18576e-11 1.46987e+08 5371.33 6.16457e-11 1.51999e-11 5.9818e+08 8.71322e+13
253.228 6404.96 11970.9 6.22873e-11 1.7347e+08 6382.86 6.20724e-11 1.29176e-11 8.36453e+08 1.02829e+14
267.603 7625.31 14127.5 6.28351e-11 2.04703e+08 7598.79 6.26166e-11 1.09771e-11 1.17176e+09 1.21354e+14
282.795 9108.03 16672.6 6.35962e-11 2.4161e+08 9075.96 6.33723e-11 9.3274e-12 1.64735e+09 1.43217e+14
298.848 10915.9 19676.2 6.45846e-11 2.85122e+08 10876.8 6.43532e-11 7.925e-12 2.3236e+09 1.69017e+14
315.813 13155.5 23220.9 6.59534e-11 3.36491e+08 13107.1 6.57109e-11 6.73295e-12 3.29614e+09 1.99466e+14
333.741 15982.2 27404.3 6.78937e-11 3.97115e+08 15921.6 6.7636e-11 5.71979e-12 4.71374e+09 2.35401e+14
352.686 19616.9 32341.2 7.0613e-11 4.68637e+08 19538.8 7.03318e-11 4.85874e-12 6.8108e+09 2.77809e+14
372.707 24438.1 38167.6 7.45388e-11 5.53074e+08 24335.2 7.42251e-11 4.12703e-12 9.98914e+09 3.27857e+14
393.865 31094.8 45043.5 8.03646e-11 6.52716e+08 30953.7 8.00001e-11 3.50528e-12 1.49646e+10 3.86921e+14
416.224 36691.2 53158.3 8.03528e-11 2.2184e+08 38815.8 8.50057e-11 2.97701e-12 5.9877e+09 4.56626e+14
439.852 0 62734.9 0 0 0 0 2.52819e-12 0 5.38888e+14
464.821 0 74036.7 0 0 0 0 2.1469e-12 0 6.35971e+14
491.207 0 87374.6 0 0 0 0 1.82301e-12 0 7.50542e+14
519.092 0 103115 0 0 0 0 1.54789e-12 0 8.85755e+14
548.56 0 121692 0 0 0 0 1.31422e-12 0 1.04533e+15
579.7 0 143615 0 0 0 0 1.11576e-12 0 1.23364e+15
612.608 0 169488 0 0 0 0 9.47223e-13 0 1.45589e+15
647.384 0 200021 0 0 0 0 8.041e-13 0 1.71817e+15
684.134 0 236056 0 0 0 0 6.82568e-13 0 2.0277e+15
722.971 0 278582 0 0 0 0 5.79376e-13 0 2.393e+15
764.012 0 328769 0 0 0 0 4.91762e-13 0 2.8241e+15
0.0610242
200
1.0655e+09
8589934592
0.0129181 1.48559e-05 1.58924e-09 1.08823e-06 6 1.47199e-05 1.07826e-06 0.00677225 0.000964133 13.6515
0.0136515 0 1.87554e-09 0 0 0 0 0.00688819 0 16.1108
0.0144264 0 2.21343e-09 0 0 0 0 0.00699249 0 19.0132
0.0152454 0 2.61218e-09 0 0 0 0 0.00708412 0 22.4385
0.0161108 0 3.08278e-09 0 0 0 0 0.00716212 0 26.4808
0.0170254 0 3.63815e-09 0 0 0 0 0.00722559 0 31.2514
0.0179919 1.92714e-05 4.29357e-09 5.22524e-07 12 1.92466e-05 5.21851e-07 0.00727371 0.000862048 36.8815
0.0190132 0 5.06707e-09 0 0 0 0 0.00730578 0 43.5258
0.0200925 0 5.97991e-09 0 0 0 0 0.00732122 0 51.367
0.0212331 6.40558e-05 7.05721e-09 1.05666e-06 8 6.4e-05 1.05574e-06 0.00731958 0.00115489 60.621
0.0224385 0 8.32858e-09 0 0 0 0 0.00730056 0 71.542
0.0237123 0 9.829e-09 0 0 0 0 0.00726401 0 84.4305
0.0250583 0.000111818 1.15997e-08 1.12221e-06 6 0.000111766 1.12168e-06 0.00720995 0.000933886 99.6408
0.0264808 0 1.36894e-08 0 0 0 0 0.00713857 0 117.591
0.0279841 0.000152721 1.61556e-08 1.10049e-06 24 0.000152564 1.09936e-06 0.00705021 0.00374623 138.776
0.0295727 0 1.90661e-08 0 0 0 0 0.00694538 0 163.777
0.0312514 0.000251635 2.25009e-08 1.30191e-06 24 0.000252912 1.30852e-06 0.00682475 0.0045783 193.281
0.0330255 0 2.65545e-08 0 0 0 0 0.00668915 0 228.102
0.0349003 0.000188021 3.13384e-08 6.98457e-07 12 0.000186515 6.92864e-07 0.00653951 0.00128167 269.195
0.0368815 0.000435712 3.69841e-08 1.3715e-06 30 0.000431072 1.35689e-06 0.00637693 0.00645215 317.691
0.0389751 0.000257746 4.36469e-08 6.87462e-07 24 0.000255094 6.8039e-07 0.00620256 0.00266005 374.924
0.0411876 0.000322958 5.151e-08 7.29904e-07 24 0.000320765 7.24946e-07 0.00601767 0.00291104 442.467
0.0435258 0.000355554 6.07896e-08 6.80905e-07 8 0.000355527 6.80852e-07 0.00582358 0.000935376 522.179
0.0459966 0.000460335 7.1741e-08 7.46992e-07 72 0.000457265 7.42011e-07 0.00562166 0.00956718 616.251
0.0486077 0 8.46654e-08 0 0 0 0 0.0054133 0 727.27
0.051367 0.00040409 9.99181e-08 4.70808e-07 54 0.000401905 4.68262e-07 0.00519989 0.00488927 858.29
0.054283 0.000631095 1.17919e-07 6.2305e-07 60 0.000635225 6.27127e-07 0.0049828 0.0075024 1012.91
0.0573645 0.000713023 1.39162e-07 5.96476e-07 96 0.000710707 5.94539e-07 0.00476339 0.0120212 1195.39
0.060621 0.000616146 1.64232e-07 4.36752e-07 24 0.000607798 4.30835e-07 0.00454293 0.00230734 1410.75
0.0640622 0.00088203 1.93819e-07 5.29781e-07 134 0.000882674 5.30168e-07 0.00432265 0.016423 1664.89
0.0676989 0.00105045 2.28736e-07 5.34627e-07 120 0.0010439 5.31293e-07 0.00410371 0.0156335 1964.83
0.071542 0.00100395 2.69944e-07 4.32962e-07 108 0.00099061 4.27208e-07 0.00388717 0.0120293 2318.8
0.0756032 0.00117032 3.18575e-07 4.27665e-07 174 0.00116749 4.2663e-07 0.00367401 0.0202541 2736.54
0.079895 0.00151159 3.75967e-07 4.68052e-07 168 0.00149934 4.6426e-07 0.0034651 0.0226928 3229.53
0.0844305 0.0013005 4.43698e-07 3.41218e-07 168 0.00130544 3.42516e-07 0.00326121 0.0175777 3811.34
0.0892234 0.00161241 5.23632e-07 3.58475e-07 290 0.00160812 3.57522e-07 0.00306301 0.0339397 4497.96
0.0942883 0.00163578 6.17966e-07 3.08157e-07 288 0.00163687 3.08362e-07 0.00287109 0.0309113 5308.28
0.0996408 0.00174187 7.29294e-07 2.78051e-07 366 0.00172872 2.75952e-07 0.00268591 0.0378891 6264.59
0.105297 0.00210514 8.60678e-07 2.84742e-07 420 0.002092 2.82963e-07 0.00250785 0.0476868 7393.17
0.111275 0.00198789 1.01573e-06 2.27836e-07 398 0.00198761 2.27804e-07 0.00233721 0.0387978 8725.07
0.117591 0.00230566 1.19872e-06 2.23918e-07 624 0.00231117 2.24453e-07 0.00217419 0.064265 10296.9
0.124267 0.00256396 1.41467e-06 2.10992e-07 642 0.00255926 2.10605e-07 0.00201893 0.0670934 12151.9
0.131321 0.00276378 1.66953e-06 1.92717e-07 800 0.00276917 1.93093e-07 0.00187147 0.0823812 14341.1
0.138776 0.00337474 1.9703e-06 1.99397e-07 858 0.00338698 2.0012e-07 0.00173182 0.098788 16924.7
0.146654 0.00353569 2.32525e-06 1.77017e-07 1080 0.00356236 1.78352e-07 0.00159991 0.119493 19973.8
0.154979 0.00345475 2.74415e-06 1.46561e-07 1286 0.00347505 1.47422e-07 0.00147563 0.127727 23572.1
0.163777 0.00338621 3.23852e-06 1.21724e-07 1650 0.00338875 1.21816e-07 0.00135884 0.147807 27818.7
0.173074 0.0041325 3.82195e-06 1.25875e-07 1778 0.00413901 1.26073e-07 0.00124933 0.17914 32830.3
0.182899 0.00384365 4.51048e-06 9.92045e-08 2112 0.00384906 9.93442e-08 0.00114689 0.182685 38744.7
0.193281 0.00476354 5.32305e-06 1.04179e-07 2570 0.00477484 1.04426e-07 0.00105127 0.254681 45724.7
0.204254 0.00513464 6.28202e-06 9.51526e-08 3030 0.00513724 9.52009e-08 0.000962209 0.299636 53962.1
0.215848 0.00538671 7.41374e-06 8.45856e-08 3434 0.00538472 8.45543e-08 0.000879423 0.330293 63683.5
0.228102 0.00555831 8.74934e-06 7.39567e-08 4218 0.00555941 7.39713e-08 0.000802624 0.388662 75156.3
0.24105 0.00593924 1.03256e-05 6.69618e-08 4766 0.00594307 6.7005e-08 0.000731515 0.436273 88695.9
0.254734 0.00667103 1.21857e-05 6.37311e-08 6026 0.00666857 6.37075e-08 0.000665798 0.576817 104675
0.269195 0.00687275 1.4381e-05 5.56354e-08 6480 0.00687009 5.56138e-08 0.000605173 0.595725 123532
0.284476 0.00707259 1.69718e-05 4.85133e-08 8162 0.00708859 4.8623e-08 0.000549345 0.720796 145787
0.300625 0.00750057 2.00293e-05 4.35951e-08 9578 0.00750234 4.36054e-08 0.000498021 0.838427 172051
0.317691 0.00835139 2.36377e-05 4.11305e-08 11234 0.00835025 4.11249e-08 0.000450916 1.02471 203046
0.335725 0.0085453 2.78961e-05 3.56611e-08 13344 0.0085406 3.56415e-08 0.000407755 1.16703 239625
0.354784 0.00925237 3.29216e-05 3.27176e-08 15464 0.00924731 3.26997e-08 0.000368269 1.37385 282795
0.374924 0.00973393 3.88525e-05 2.91661e-08 18458 0.00973254 2.9162e-08 0.000332202 1.62055 333741
0.396207 0.0102666 4.58519e-05 2.60662e-08 22232 0.0102575 2.60433e-08 0.000299307 1.93615 393865
0.418699 0.0109034 5.41123e-05 2.34572e-08 25628 0.0108822 2.34115e-08 0.00026935 2.2319 464821
0.442467 0.0112438 6.38607e-05 2.0497e-08 30320 0.011223 2.0459e-08 0.000242108 2.56691 548560
0.467585 0.0118519 7.53654e-05 1.83074e-08 35452 0.0118348 1.8281e-08 0.00021737 2.98585 647384
0.494129 0.01234 8.89427e-05 1.61516e-08 41792 0.0123377 1.61486e-08 0.000194938 3.46268 764012
0.522179 0.0131001 0.000104966 1.4529e-08 49988 0.0131034 1.45326e-08 0.000174625 4.15906 901651
0.551822 0.013839 0.000123876 1.30056e-08 59110 0.0138285 1.29957e-08 0.000156255 4.91991 1.06409e+06
0.583147 0.0143753 0.000146192 1.14473e-08 69716 0.0143562 1.14321e-08 0.000139664 5.71412 1.25578e+06
0.616251 0.015021 0.000172529 1.01355e-08 82210 0.014999 1.01207e-08 0.0001247 6.68198 1.48202e+06
0.651234 0.0157569 0.000203611 9.00908e-09 96722 0.0157269 8.99193e-09 0.00011122 7.83467 1.74901e+06
0.688203 0.0164064 0.000240292 7.94846e-09 113098 0.0163896 7.94031e-09 9.90935e-05 9.07179 2.06409e+06
0.72727 0.017216 0.000283581 7.06747e-09 135190 0.0172036 7.0624e-09 8.81969e-05 10.8332 2.43595e+06
0.768555 0.0180956 0.000334669 6.29458e-09 158170 0.0180812 6.28957e-09 7.84179e-05 12.6962 2.87479e+06
0.812184 0.0188185 0.000394961 5.54679e-09 188560 0.0188031 5.54223e-09 6.96525e-05 15.016 3.39269e+06
0.85829 0.019562 0.000466114 4.88575e-09 220444 0.0195405 4.88039e-09 6.1805e-05 17.4263 4.00389e+06
0.907013 0.0204526 0.000550086 4.32841e-09 261388 0.0204356 4.32481e-09 5.47875e-05 20.6506 4.7252e+06
0.958501 0.0212924 0.000649185 3.81827e-09 308244 0.0212736 3.81489e-09 4.85194e-05 24.2575 5.57646e+06
1.01291 0.0223487 0.000766138 3.39591e-09 364396 0.0223272 3.39264e-09 4.29272e-05 28.8268 6.58107e+06
1.07041 0.0231117 0.00090416 2.97575e-09 429162 0.0230874 2.97262e-09 3.79435e-05 33.6574 7.76667e+06
1.13118 0.0239927 0.00106705 2.61761e-09 506358 0.0239646 2.61455e-09 3.3507e-05 39.5573 9.16586e+06
1.19539 0.0249664 0.00125928 2.30804e-09 598590 0.0249355 2.30519e-09 2.9562e-05 46.7347 1.08171e+07
1.26325 0.0259526 0.00148614 2.03297e-09 704844 0.0259231 2.03066e-09 2.60578e-05 54.9902 1.27658e+07
1.33496 0.0269757 0.00175387 1.79054e-09 834620 0.0269416 1.78828e-09 2.29484e-05 65.1208 1.50656e+07
1.41075 0.0279746 0.00206984 1.57339e-09 981444 0.0279385 1.57136e-09 2.01923e-05 76.4746 1.77798e+07
1.49083 0.0290877 0.00244272 1.38626e-09 1.15998e+06 0.0290548 1.38469e-09 1.77518e-05 90.5843 2.09828e+07
1.57546 0.0301239 0.00288279 1.21649e-09 1.36931e+06 0.0300888 1.21507e-09 1.55929e-05 106.828 2.4763e+07
1.66489 0.0312915 0.00340213 1.07074e-09 1.61652e+06 0.0312536 1.06945e-09 1.3685e-05 126.48 2.92241e+07
1.75941 0.0324407 0.00401503 9.40613e-10 1.90601e+06 0.0323985 9.39389e-10 1.20007e-05 149.393 3.44889e+07
1.85928 0.0336202 0.00473835 8.26006e-10 2.24913e+06 0.0335797 8.2501e-10 1.05151e-05 176.678 4.07021e+07
1.96483 0.0348354 0.00559198 7.25214e-10 2.65744e+06 0.0347932 7.24335e-10 9.20606e-06 209.342 4.80347e+07
2.07637 0.0360863 0.00659939 6.36574e-10 3.13125e+06 0.0360392 6.35744e-10 8.05366e-06 247.499 5.66883e+07
2.19424 0.0372207 0.00778828 5.56356e-10 3.69915e+06 0.037175 5.55673e-10 7.04008e-06 292.332 6.69008e+07
2.3188 0.0385864 0.00919136 4.88725e-10 4.36472e+06 0.0385387 4.88121e-10 6.1494e-06 346.887 7.89532e+07
2.45043 0.0399733 0.0108472 4.29005e-10 5.14913e+06 0.0399232 4.28467e-10 5.36741e-06 411.558 9.31768e+07
2.58954 0.0413139 0.0128014 3.75708e-10 6.07894e+06 0.0412645 3.75258e-10 4.68145e-06 487.863 1.09963e+08
2.73654 0.042782 0.0151076 3.29668e-10 7.17304e+06 0.0427301 3.29268e-10 4.08023e-06 579.555 1.29773e+08
2.89188 0.0442857 0.0178292 2.89162e-10 8.46557e+06 0.0442318 2.8881e-10 3.55373e-06 688.831 1.53152e+08
3.05605 0.0457727 0.0210412 2.53248e-10 9.98773e+06 0.0457162 2.52935e-10 3.09304e-06 817.762 1.80743e+08
3.22953 0.047394 0.0248319 2.2219e-10 1.1797e+07 0.0473352 2.21914e-10 2.69025e-06 974.325 2.13304e+08
3.41286 0.0490527 0.0293054 1.94861e-10 1.39144e+07 0.0489902 1.94613e-10 2.33837e-06 1159.51 2.51731e+08
3.6066 0.0508085 0.0345848 1.71026e-10 1.64163e+07 0.0507443 1.70809e-10 2.0312e-06 1382.24 2.97081e+08
3.81134 0.0525705 0.0408154 1.49944e-10 1.93821e+07 0.0525048 1.49756e-10 1.76327e-06 1648.21 3.50601e+08
4.0277 0.0544452 0.0481684 1.31585e-10 2.28754e+07 0.0543769 1.3142e-10 1.52972e-06 1967.72 4.13763e+08
4.25634 0.0564039 0.056846 1.1551e-10 2.69929e+07 0.0563292 1.15357e-10 1.32631e-06 2350.85 4.88304e+08
4.49796 0.0584672 0.067087 1.01457e-10 3.18542e+07 0.0583905 1.01324e-10 1.14926e-06 2812.12 5.76273e+08
4.7533 0.0606116 0.0791729 8.91229e-11 3.75892e+07 0.060531 8.90044e-11 9.95263e-07 3366 6.8009e+08
5.02313 0.0628548 0.0934361 7.83131e-11 4.43706e+07 0.0627717 7.82094e-11 8.61414e-07 4033.83 8.0261e+08
5.30828 0.0652072 0.110269 6.88419e-11 5.23593e+07 0.06512 6.87498e-11 7.45152e-07 4837.28 9.47202e+08
5.60962 0.0676487 0.130134 6.05171e-11 6.1787e+07 0.0675562 6.04344e-11 6.44232e-07 5804.08 1.11784e+09
5.92807 0.0702553 0.153578 5.32549e-11 7.29346e+07 0.0701592 5.31821e-11 5.56685e-07 6977.24 1.31923e+09
6.26459 0.0729752 0.181246 4.68725e-11 8.60651e+07 0.072873 4.68069e-11 4.80786e-07 8390.59 1.55689e+09
6.62021 0.0758314 0.213898 4.12718e-11 1.01558e+08 0.0757249 4.12139e-11 4.15026e-07 10099.3 1.83737e+09
6.99602 0.0788343 0.252432 3.63564e-11 1.1986e+08 0.0787232 3.63052e-11 3.58083e-07 12169.5 2.16837e+09
7.39317 0.0820056 0.297908 3.20458e-11 1.41457e+08 0.0818885 3.20001e-11 3.08803e-07 14679.5 2.55901e+09
7.81286 0.0853899 0.351577 2.82746e-11 1.66936e+08 0.0852661 2.82336e-11 2.66181e-07 17732.5 3.02002e+09
8.25637 0.0889443 0.414914 2.49557e-11 1.97025e+08 0.0888141 2.49192e-11 2.29336e-07 21439.7 3.56409e+09
8.72507 0.0928279 0.489662 2.20695e-11 2.32497e+08 0.0926891 2.20365e-11 1.97503e-07 25979.8 4.20617e+09
9.22037 0.0970454 0.577876 1.95502e-11 2.74404e+08 0.0968971 1.95203e-11 1.70014e-07 31554.1 4.96392e+09
9.74378 0.101812 0.681982 1.73794e-11 3.2382e+08 0.101651 1.73519e-11 1.46289e-07 38470.4 5.85818e+09
10.2969 0.107388 0.804843 1.5533e-11 3.82165e+08 0.107208 1.55069e-11 1.25822e-07 47178.8 6.91355e+09
10.8814 0.114206 0.949838 1.39974e-11 4.51027e+08 0.113998 1.39719e-11 1.08175e-07 58360.9 8.15905e+09
11.4992 0.123158 1.12095 1.27904e-11 5.32251e+08 0.122907 1.27643e-11 9.29669e-08 73227.3 9.62892e+09
12.1519 0.13596 1.3229 1.19645e-11 6.28157e+08 0.13563 1.19355e-11 7.98658e-08 94102.9 1.13636e+10
12.8418 0.1506 1.56122 1.12298e-11 3.82727e+08 0.155878 1.16233e-11 6.85852e-08 62665.5 1.34108e+10
13.5708 0 1.84248 0 0 0 0 5.88765e-08 0 1.58268e+10
14.3411 0 2.17441 0 0 0 0 5.05241e-08 0 1.8678e+10
15.1552 0 2.56613 0 0 0 0 4.33417e-08 0 2.20429e+10
16.0156 0 3.02843 0 0 0 0 3.71677e-08 0 2.6014e+10
16.9247 0 3.574 0 0 0 0 3.18628e-08 0 3.07005e+10
17.8855 0 4.21787 0 0 0 0 2.73063e-08 0 3.62312e+10
18.9008 0 4.97773 0 0 0 0 2.33941e-08 0 4.27584e+10
19.9738 0 5.87448 0 0 0 0 2.00364e-08 0 5.04614e+10
21.1076 0 6.93279 0 0 0 0 1.71555e-08 0 5.95522e+10
22.3058 0 8.18175 0 0 0 0 1.46847e-08 0 7.02807e+10
23.5721 0 9.65571 0 0 0 0 1.25662e-08 0 8.29419e+10
24.9102 0 11.3952 0 0 0 0 1.07504e-08 0 9.78842e+10
26.3243 0 13.4481 0 0 0 0 9.19452e-09 0 1.15518e+11
27.8187 0 15.8708 0 0 0 0 7.86182e-09 0 1.36329e+11
29.3979 0 18.73 0 0 0 0 6.72061e-09 0 1.60889e+11
31.0667 0 22.1042 0 0 0 0 5.74366e-09 0 1.89874e+11
32.8303 0 26.0864 0 0 0 0 4.90756e-09 0 2.2408e+11
34.694 0 30.7859 0 0 0 0 4.19221e-09 0 2.64449e+11
36.6634 0 36.3321 0 0 0 0 3.58032e-09 0 3.1209e+11
38.7447 0 42.8774 0 0 0 0 3.05709e-09 0 3.68314e+11
40.9442 0 50.6018 0 0 0 0 2.60976e-09 0 4.34667e+11
43.2685 0 59.7179 0 0 0 0 2.22743e-09 0 5.12973e+11
45.7247 0 70.4762 0 0 0 0 1.90073e-09 0 6.05386e+11
48.3204 0 83.1727 0 0 0 0 1.62163e-09 0 7.14448e+11
51.0634 0 98.1565 0 0 0 0 1.38326e-09 0 8.43158e+11
53.9621 0 115.84 0 0 0 0 1.1797e-09 0 9.95055e+11
57.0254 0 136.709 0 0 0 0 1.00592e-09 0 1.17432e+12
60.2626 0 161.337 0 0 0 0 8.57591e-10 0 1.38587e+12
63.6835 0 190.402 0 0 0 0 7.3101e-10 0 1.63554e+12
67.2987 0 224.704 0 0 0 0 6.23009e-10 0 1.93019e+12
71.1191 0 265.185 0 0 0 0 5.30879e-10 0 2.27792e+12
75.1563 0 312.958 0 0 0 0 4.52303e-10 0 2.68829e+12
79.4227 0 369.339 0 0 0 0 3.85299e-10 0 3.17259e+12
83.9313 0 435.876 0 0 0 0 3.28173e-10 0 3.74415e+12
88.6959 0 514.4 0 0 0 0 2.79476e-10 0 4.41866e+12
93.7309 0 607.071 0 0 0 0 2.37972e-10 0 5.2147e+12
99.0518 0 716.436 0 0 0 0 2.02605e-10 0 6.15414e+12
104.675 0 845.504 0 0 0 0 1.72471e-10 0 7.26283e+12
110.617 0 997.824 0 0 0 0 1.468e-10 0 8.57124e+12
116.896 0 1177.58 0 0 0 0 1.24935e-10 0 1.01154e+13
123.532 0 1389.73 0 0 0 0 1.06313e-10 0 1.19377e+13
130.545 0 1640.09 0 0 0 0 9.04567e-11 0 1.40883e+13
137.955 0 1935.56 0 0 0 0 7.69563e-11 0 1.66263e+13
145.787 0 2284.26 0 0 0 0 6.54636e-11 0 1.96216e+13
154.063 0 2695.77 0 0 0 0 5.56812e-11 0 2.31565e+13
162.808 0 3181.42 0 0 0 0 4.73556e-11 0 2.73282e+13
172.051 0 3754.56 0 0 0 0 4.02708e-11 0 3.22515e+13
181.818 0 4430.96 0 0 0 0 3.42426e-11 0 3.80616e+13
192.139 0 5229.21 0 0 0 0 2.91139e-11 0 4.49186e+13
203.046 0 6171.26 0 0 0 0 2.4751e-11 0 5.30108e+13
214.572 0 7283.03 0 0 0 0 2.10401e-11 0 6.25608e+13
226.753 0 8595.09 0 0 0 0 1.78839e-11 0 7.38313e+13
239.625 0 10143.5 0 0 0 0 1.51999e-11 0 8.71322e+13
253.228 0 11970.9 0 0 0 0 1.29176e-11 0 1.02829e+14
267.603 0 14127.5 0 0 0 0 1.09771e-11 0 1.21354e+14
282.795 0 16672.6 0 0 0 0 9.3274e-12 0 1.43217e+14
298.848 0 19676.2 0 0 0 0 7.925e-12 0 1.69017e+14
315.813 0 23220.9 0 0 0 0 6.73295e-12 0 1.99466e+14
333.741 0 27404.3 0 0 0 0 5.71979e-12 0 2.35401e+14
352.686 0 32341.2 0 0 0 0 4.85874e-12 0 2.77809e+14
372.707 0 38167.6 0 0 0 0 4.12703e-12 0 3.27857e+14
393.865 0 45043.5 0 0 0 0 3.50528e-12 0 3.86921e+14
416.224 0 53158.3 0 0 0 0 2.97701e-12 0 4.56626e+14
439.852 0 62734.9 0 0 0 0 2.52819e-12 0 5.38888e+14
464.821 0 74036.7 0 0 0 0 2.1469e-12 0 6.35971e+14
491.207 0 87374.6 0 0 0 0 1.82301e-12 0 7.50542e+14
519.092 0 103115 0 0 0 0 1.54789e-12 0 8.85755e+14
548.56 0 121692 0 0 0 0 1.31422e-12 0 1.04533e+15
579.7 0 143615 0 0 0 0 1.11576e-12 0 1.23364e+15
612.608 0 169488 0 0 0 0 9.47223e-13 0 1.45589e+15
647.384 0 200021 0 0 0 0 8.041e-13 0 1.71817e+15
684.134 0 236056 0 0 0 0 6.82568e-13 0 2.0277e+15
722.971 0 278582 0 0 0 0 5.79376e-13 0 2.393e+15
764.012 0 328769 0 0 0 0 4.91762e-13 0 2.8241e+15
