0.129031
200
1.0655e+09
8589934592
0.0129181 0 1.58924e-09 0 0 0 0 0.00677225 0 13.6515
0.0136515 0 1.87554e-09 0 0 0 0 0.00688819 0 16.1108
0.0144264 0 2.21343e-09 0 0 0 0 0.00699249 0 19.0132
0.0152454 0 2.61218e-09 0 0 0 0 0.00708412 0 22.4385
0.0161108 0 3.08278e-09 0 0 0 0 0.00716212 0 26.4808
0.0170254 0 3.63815e-09 0 0 0 0 0.00722559 0 31.2514
0.0179919 0 4.29357e-09 0 0 0 0 0.00727371 0 36.8815
0.0190132 0 5.06707e-09 0 0 0 0 0.00730578 0 43.5258
0.0200925 0 5.97991e-09 0 0 0 0 0.00732122 0 51.367
0.0212331 0 7.05721e-09 0 0 0 0 0.00731958 0 60.621
0.0224385 0 8.32858e-09 0 0 0 0 0.00730056 0 71.542
0.0237123 0 9.829e-09 0 0 0 0 0.00726401 0 84.4305
0.0250583 0 1.15997e-08 0 0 0 0 0.00720995 0 99.6408
0.0264808 0 1.36894e-08 0 0 0 0 0.00713857 0 117.591
0.0279841 0 1.61556e-08 0 0 0 0 0.00705021 0 138.776
0.0295727 0 1.90661e-08 0 0 0 0 0.00694538 0 163.777
0.0312514 0 2.25009e-08 0 0 0 0 0.00682475 0 193.281
0.0330255 0 2.65545e-08 0 0 0 0 0.00668915 0 228.102
0.0349003 0 3.13384e-08 0 0 0 0 0.00653951 0 269.195
0.0368815 0 3.69841e-08 0 0 0 0 0.00637693 0 317.691
0.0389751 0 4.36469e-08 0 0 0 0 0.00620256 0 374.924
0.0411876 0 5.151e-08 0 0 0 0 0.00601767 0 442.467
0.0435258 0 6.07896e-08 0 0 0 0 0.00582358 0 522.179
0.0459966 0 7.1741e-08 0 0 0 0 0.00562166 0 616.251
0.0486077 0 8.46654e-08 0 0 0 0 0.0054133 0 727.27
0.051367 0 9.99181e-08 0 0 0 0 0.00519989 0 858.29
0.054283 0 1.17919e-07 0 0 0 0 0.0049828 0 1012.91
0.0573645 0 1.39162e-07 0 0 0 0 0.00476339 0 1195.39
0.060621 0 1.64232e-07 0 0 0 0 0.00454293 0 1410.75
0.0640622 0 1.93819e-07 0 0 0 0 0.00432265 0 1664.89
0.0676989 0 2.28736e-07 0 0 0 0 0.00410371 0 1964.83
0.071542 0 2.69944e-07 0 0 0 0 0.00388717 0 2318.8
0.0756032 0 3.18575e-07 0 0 0 0 0.00367401 0 2736.54
0.079895 0 3.75967e-07 0 0 0 0 0.0034651 0 3229.53
0.0844305 0 4.43698e-07 0 0 0 0 0.00326121 0 3811.34
0.0892234 0 5.23632e-07 0 0 0 0 0.00306301 0 4497.96
0.0942883 0 6.17966e-07 0 0 0 0 0.00287109 0 5308.28
0.0996408 0 7.29294e-07 0 0 0 0 0.00268591 0 6264.59
0.105297 0 8.60678e-07 0 0 0 0 0.00250785 0 7393.17
0.111275 0 1.01573e-06 0 0 0 0 0.00233721 0 8725.07
0.117591 0 1.19872e-06 0 0 0 0 0.00217419 0 10296.9
0.124267 0 1.41467e-06 0 0 0 0 0.00201893 0 12151.9
0.131321 0 1.66953e-06 0 0 0 0 0.00187147 0 14341.1
0.138776 0 1.9703e-06 0 0 0 0 0.00173182 0 16924.7
0.146654 0 2.32525e-06 0 0 0 0 0.00159991 0 19973.8
0.154979 0 2.74415e-06 0 0 0 0 0.00147563 0 23572.1
0.163777 0 3.23852e-06 0 0 0 0 0.00135884 0 27818.7
0.173074 0 3.82195e-06 0 0 0 0 0.00124933 0 32830.3
0.182899 0 4.51048e-06 0 0 0 0 0.00114689 0 38744.7
0.193281 0 5.32305e-06 0 0 0 0 0.00105127 0 45724.7
0.204254 0 6.28202e-06 0 0 0 0 0.000962209 0 53962.1
0.215848 0 7.41374e-06 0 0 0 0 0.000879423 0 63683.5
0.228102 0 8.74934e-06 0 0 0 0 0.000802624 0 75156.3
0.24105 0 1.03256e-05 0 0 0 0 0.000731515 0 88695.9
0.254734 0 1.21857e-05 0 0 0 0 0.000665798 0 104675
0.269195 0 1.4381e-05 0 0 0 0 0.000605173 0 123532
0.284476 0 1.69718e-05 0 0 0 0 0.000549345 0 145787
0.300625 0 2.00293e-05 0 0 0 0 0.000498021 0 172051
0.317691 0 2.36377e-05 0 0 0 0 0.000450916 0 203046
0.335725 0 2.78961e-05 0 0 0 0 0.000407755 0 239625
0.354784 0 3.29216e-05 0 0 0 0 0.000368269 0 282795
0.374924 0 3.88525e-05 0 0 0 0 0.000332202 0 333741
0.396207 0.462282 4.58519e-05 1.17371e-06 6 0.44943 1.14108e-06 0.000299307 0.0235285 393865
0.418699 0 5.41123e-05 0 0 0 0 0.00026935 0 464821
0.442467 0 6.38607e-05 0 0 0 0 0.000242108 0 548560
0.467585 0 7.53654e-05 0 0 0 0 0.00021737 0 647384
0.494129 0 8.89427e-05 0 0 0 0 0.000194938 0 764012
0.522179 0 0.000104966 0 0 0 0 0.000174625 0 901651
0.551822 0 0.000123876 0 0 0 0 0.000156255 0 1.06409e+06
0.583147 4.61729 0.000146192 3.67682e-06 12 4.85972 3.86987e-06 0.000139664 0.315914 1.25578e+06
0.616251 0 0.000172529 0 0 0 0 0.0001247 0 1.48202e+06
0.651234 0 0.000203611 0 0 0 0 0.00011122 0 1.74901e+06
0.688203 22.8775 0.000240292 1.10835e-05 8 22.3083 1.08078e-05 9.90935e-05 0.894795 2.06409e+06
0.72727 0 0.000283581 0 0 0 0 8.81969e-05 0 2.43595e+06
0.768555 0 0.000334669 0 0 0 0 7.84179e-05 0 2.87479e+06
0.812184 0.170423 0.000394961 5.02324e-08 6 0.174067 5.13064e-08 6.96525e-05 0.00432711 3.39269e+06
0.85829 0 0.000466114 0 0 0 0 6.1805e-05 0 4.00389e+06
0.907013 0.240161 0.000550086 5.08256e-08 24 0.244769 5.18008e-08 5.47875e-05 0.0222645 4.7252e+06
0.958501 1.412 0.000649185 2.53208e-07 24 1.3293 2.38376e-07 4.85194e-05 0.125249 5.57646e+06
1.01291 0 0.000766138 0 0 0 0 4.29272e-05 0 6.58107e+06
1.07041 0 0.00090416 0 0 0 0 3.79435e-05 0 7.76667e+06
1.13118 1.3194 0.00106705 1.43947e-07 12 1.30319 1.42179e-07 3.3507e-05 0.0515524 9.16586e+06
1.19539 0.866591 0.00125928 8.0113e-08 30 0.848726 7.84615e-08 2.9562e-05 0.0812999 1.08171e+07
1.26325 5.63328 0.00148614 4.41277e-07 24 5.54851 4.34637e-07 2.60578e-05 0.406429 1.27658e+07
1.33496 18.0025 0.00175387 1.19493e-06 24 18.042 1.19756e-06 2.29484e-05 1.24969 1.50656e+07
1.41075 5.53962 0.00206984 3.11569e-07 32 5.69434 3.20271e-07 2.01923e-05 0.493763 1.77798e+07
1.49083 0.537507 0.00244272 2.56165e-08 48 0.526048 2.50704e-08 1.77518e-05 0.069266 2.09828e+07
1.57546 0.120977 0.00288279 4.8854e-09 6 0.115197 4.652e-09 1.55929e-05 0.00187986 2.4763e+07
1.66489 0.459506 0.00340213 1.57235e-08 84 0.444626 1.52144e-08 1.3685e-05 0.0965127 2.92241e+07
1.75941 2.41392 0.00401503 6.99912e-08 48 2.43098 7.04858e-08 1.20007e-05 0.279949 3.44889e+07
1.85928 0.256069 0.00473835 6.29131e-09 72 0.256128 6.29274e-09 1.05151e-05 0.0430784 4.07021e+07
1.96483 0.913657 0.00559198 1.90208e-08 54 0.893454 1.86002e-08 9.20606e-06 0.11157 4.80347e+07
2.07637 7.96402 0.00659939 1.40488e-07 104 7.94445 1.40143e-07 8.05366e-06 1.81417 5.66883e+07
2.19424 0.45885 0.00778828 6.85866e-09 120 0.461712 6.90144e-09 7.04008e-06 0.116908 6.69008e+07
2.3188 1.633 0.00919136 2.06832e-08 156 1.55254 1.9664e-08 6.1494e-06 0.524697 7.89532e+07
2.45043 0.847184 0.0108472 9.09221e-09 126 0.83659 8.97852e-09 5.36741e-06 0.21344 9.31768e+07
2.58954 0.599326 0.0128014 5.45025e-09 192 0.606323 5.51389e-09 4.68145e-06 0.223531 1.09963e+08
2.73654 4.15423 0.0151076 3.20115e-08 152 4.30473 3.31712e-08 4.08023e-06 1.19252 1.29773e+08
2.89188 3.28477 0.0178292 2.14478e-08 378 3.35674 2.19177e-08 3.55373e-06 2.28134 1.53152e+08
3.05605 1.2588 0.0210412 6.96461e-09 264 1.23599 6.83841e-09 3.09304e-06 0.59445 1.80743e+08
3.22953 0.308683 0.0248319 1.44715e-09 366 0.306068 1.43489e-09 2.69025e-06 0.19688 2.13304e+08
3.41286 0.762411 0.0293054 3.02867e-09 428 0.73084 2.90325e-09 2.33837e-06 0.554347 2.51731e+08
3.6066 3.04515 0.0345848 1.02502e-08 486 2.94372 9.90879e-09 2.0312e-06 2.45254 2.97081e+08
3.81134 0.773603 0.0408154 2.2065e-09 600 0.771563 2.20069e-09 1.76327e-06 0.750824 3.50601e+08
4.0277 0.679603 0.0481684 1.64249e-09 738 0.667184 1.61248e-09 1.52972e-06 0.792405 4.13763e+08
4.25634 1.17898 0.056846 2.41445e-09 824 1.21878 2.49594e-09 1.32631e-06 1.50003 4.88304e+08
4.49796 2.51379 0.067087 4.36215e-09 954 2.52614 4.38359e-09 1.14926e-06 3.62103 5.76273e+08
4.7533 0.614313 0.0791729 9.03282e-10 1094 0.604549 8.88926e-10 9.95263e-07 0.992894 6.8009e+08
5.02313 0.438555 0.0934361 5.4641e-10 1332 0.438668 5.46552e-10 8.61414e-07 0.844911 8.0261e+08
5.30828 2.04678 0.110269 2.16087e-09 1614 2.06959 2.18495e-09 7.45152e-07 4.68044 9.47202e+08
5.60962 1.15588 0.130134 1.03402e-09 1850 1.12366 1.0052e-09 6.44232e-07 2.96934 1.11784e+09
5.92807 1.43754 0.153578 1.08968e-09 2238 1.38452 1.04949e-09 5.56685e-07 4.38077 1.31923e+09
6.26459 0.776853 0.181246 4.98978e-10 2546 0.788962 5.06756e-10 4.80786e-07 2.64234 1.55689e+09
6.62021 0.428979 0.213898 2.33475e-10 3264 0.429301 2.33651e-10 4.15026e-07 1.83618 1.83737e+09
6.99602 1.43083 0.252432 6.59864e-10 3506 1.47172 6.78721e-10 3.58083e-07 6.46075 2.16837e+09
7.39317 0.799687 0.297908 3.12499e-10 4506 0.807938 3.15723e-10 3.08803e-07 4.55992 2.55901e+09
7.81286 1.28256 0.351577 4.24686e-10 5018 1.31497 4.35417e-10 2.66181e-07 8.00611 3.02002e+09
8.25637 1.1871 0.414914 3.33072e-10 5852 1.1536 3.23674e-10 2.29336e-07 8.49905 3.56409e+09
8.72507 0.955514 0.489662 2.2717e-10 7362 0.946955 2.25135e-10 1.97503e-07 8.46784 4.20617e+09
9.22037 1.18479 0.577876 2.3868e-10 8306 1.17378 2.36462e-10 1.70014e-07 11.6607 4.96392e+09
9.74378 0.68867 0.681982 1.17557e-10 9698 0.688319 1.17497e-10 1.46289e-07 7.79325 5.85818e+09
10.2969 1.24639 0.804843 1.80282e-10 11816 1.25898 1.82103e-10 1.25822e-07 16.9303 6.91355e+09
10.8814 1.13308 0.949838 1.38874e-10 13682 1.13364 1.38943e-10 1.08175e-07 17.5648 8.15905e+09
11.4992 1.15647 1.12095 1.20103e-10 16152 1.14412 1.18821e-10 9.29669e-08 20.8667 9.62892e+09
12.1519 1.22397 1.3229 1.0771e-10 19472 1.20791 1.06296e-10 7.98658e-08 26.2607 1.13636e+10
12.8418 0.974853 1.56122 7.26918e-11 22670 0.977142 7.28624e-11 6.85852e-08 24.0274 1.34108e+10
13.5708 1.33196 1.84248 8.41588e-11 26224 1.33909 8.46093e-11 5.88765e-08 37.4849 1.58268e+10
14.3411 1.33946 2.17441 7.17135e-11 31640 1.34675 7.21034e-11 5.05241e-08 44.9095 1.8678e+10
15.1552 1.5368 2.56613 6.97185e-11 37484 1.54016 6.98712e-11 4.33417e-08 60.296 2.20429e+10
16.0156 1.61657 3.02843 6.21425e-11 43856 1.62229 6.23622e-11 3.71677e-08 73.3249 2.6014e+10
16.9247 2.18409 3.574 7.1142e-11 51362 2.18252 7.10906e-11 3.18628e-08 114.679 3.07005e+10
17.8855 2.40055 4.21787 6.62563e-11 61636 2.38723 6.58888e-11 2.73063e-08 149.554 3.62312e+10
18.9008 2.97358 4.97773 6.95438e-11 72218 2.96174 6.92669e-11 2.33941e-08 214.682 4.27584e+10
19.9738 3.70044 5.87448 7.33321e-11 84586 3.68459 7.30179e-11 2.00364e-08 309.58 5.04614e+10
21.1076 4.54255 6.93279 7.62785e-11 100708 4.52993 7.60665e-11 1.71555e-08 447.777 5.95522e+10
22.3058 5.41572 8.18175 7.70585e-11 118712 5.40715 7.69365e-11 1.46847e-08 622.947 7.02807e+10
23.5721 6.47682 9.65571 7.80886e-11 140410 6.45844 7.7867e-11 1.25662e-08 872.535 8.29419e+10
24.9102 7.67923 11.3952 7.84522e-11 164374 7.65354 7.81898e-11 1.07504e-08 1199.54 9.78842e+10
26.3243 8.87321 13.4481 7.68122e-11 194680 8.84408 7.656e-11 9.19452e-09 1626.38 1.15518e+11
27.8187 10.4526 15.8708 7.66715e-11 230196 10.4158 7.64021e-11 7.86182e-09 2244.96 1.36329e+11
29.3979 12.0801 18.73 7.50833e-11 271156 12.0434 7.48555e-11 6.72061e-09 3029.38 1.60889e+11
31.0667 13.9703 22.1042 7.35769e-11 321076 13.9246 7.3336e-11 5.74366e-09 4113.02 1.89874e+11
32.8303 16.0378 26.0864 7.15716e-11 377436 15.9877 7.1348e-11 4.90756e-09 5504.51 2.2408e+11
34.694 18.4904 30.7859 6.99205e-11 447594 18.4313 6.96971e-11 4.19221e-09 7465.28 2.64449e+11
36.6634 21.4535 36.3321 6.87414e-11 525078 21.3853 6.85229e-11 3.58032e-09 10081.4 3.1209e+11
38.7447 24.8285 42.8774 6.74111e-11 621924 24.7498 6.71975e-11 3.05709e-09 13713.9 3.68314e+11
40.9442 28.9532 50.6018 6.66101e-11 732630 28.8636 6.64041e-11 2.60976e-09 18699.2 4.34667e+11
43.2685 33.9701 59.7179 6.62221e-11 865596 33.8649 6.60169e-11 2.22743e-09 25734.4 5.12973e+11
45.7247 39.6948 70.4762 6.55693e-11 1.02168e+06 39.561 6.53484e-11 1.90073e-09 35244.6 6.05386e+11
48.3204 46.3672 83.1727 6.48993e-11 1.20544e+06 46.2159 6.46875e-11 1.62163e-09 48242.8 7.14448e+11
51.0634 54.1847 98.1565 6.4264e-11 1.42103e+06 54.0114 6.40585e-11 1.38326e-09 66018.9 8.43158e+11
53.9621 63.3152 115.84 6.36298e-11 1.67997e+06 63.1121 6.34257e-11 1.1797e-09 90612.7 9.95055e+11
57.0254 74.4493 136.709 6.33979e-11 1.98018e+06 74.206 6.31908e-11 1.00592e-09 124801 1.17432e+12
60.2626 87.0996 161.337 6.28482e-11 2.33957e+06 86.8187 6.26455e-11 8.57591e-10 171454 1.38587e+12
63.6835 102.058 190.402 6.24004e-11 2.75676e+06 101.73 6.21994e-11 7.3101e-10 235323 1.63554e+12
67.2987 119.963 224.704 6.21507e-11 3.25638e+06 119.579 6.19518e-11 6.23009e-10 324853 1.93019e+12
71.1191 141.1 265.185 6.19427e-11 3.84387e+06 140.652 6.17459e-11 5.30879e-10 448501 2.27792e+12
75.1563 165.382 312.958 6.15193e-11 4.53277e+06 164.851 6.1322e-11 4.52303e-10 616516 2.68829e+12
79.4227 194.708 369.339 6.13719e-11 5.35083e+06 194.096 6.11789e-11 3.85299e-10 852299 3.17259e+12
83.9313 228.981 435.876 6.11571e-11 6.32174e+06 228.238 6.09585e-11 3.28173e-10 1.1781e+06 3.74415e+12
88.6959 269.75 514.4 6.10479e-11 7.44986e+06 268.87 6.08487e-11 2.79476e-10 1.62732e+06 4.41866e+12
93.7309 317.657 607.071 6.09158e-11 8.79764e+06 316.628 6.07183e-11 2.37972e-10 2.25201e+06 5.2147e+12
99.0518 374.347 716.436 6.08285e-11 1.03827e+07 373.111 6.06276e-11 2.02605e-10 3.11722e+06 6.15414e+12
104.675 441.57 845.504 6.07987e-11 1.22515e+07 440.12 6.0599e-11 1.72471e-10 4.31885e+06 7.26283e+12
110.617 520.065 997.824 6.06755e-11 1.44573e+07 518.371 6.04779e-11 1.468e-10 5.97551e+06 8.57124e+12
116.896 613.506 1177.58 6.06509e-11 1.70664e+07 611.487 6.04513e-11 1.24935e-10 8.28506e+06 1.01154e+13
123.532 723.921 1389.73 6.06417e-11 2.0139e+07 721.497 6.04386e-11 1.06313e-10 1.14874e+07 1.19377e+13
130.545 867.944 1640.09 6.16074e-11 2.37643e+07 865.75 6.14517e-11 9.04567e-11 1.61852e+07 1.40883e+13
137.955 1007.54 1935.56 6.05993e-11 2.80503e+07 1004.21 6.03986e-11 7.69563e-11 2.20882e+07 1.66263e+13
145.787 1188.33 2284.26 6.05621e-11 3.30981e+07 1184.37 6.03606e-11 6.54636e-11 3.06199e+07 1.96216e+13
154.063 1404.92 2695.77 6.06705e-11 3.90634e+07 1400.23 6.0468e-11 5.56812e-11 4.25637e+07 2.31565e+13
162.808 1657.03 3181.42 6.06344e-11 4.61057e+07 1651.49 6.04317e-11 4.73556e-11 5.90339e+07 2.73282e+13
172.051 1957.1 3754.56 6.06825e-11 5.44046e+07 1950.53 6.04787e-11 4.02708e-11 8.19801e+07 3.22515e+13
181.818 2317.73 4430.96 6.0894e-11 6.42064e+07 2310.11 6.06939e-11 3.42426e-11 1.14179e+08 3.80616e+13
192.139 2734.49 5229.21 6.08765e-11 7.57748e+07 2725.29 6.06717e-11 2.91139e-11 1.58443e+08 4.49186e+13
203.046 3239.66 6171.26 6.11132e-11 8.94213e+07 3228.58 6.09042e-11 2.4751e-11 2.20792e+08 5.30108e+13
214.572 3829.04 7283.03 6.1205e-11 1.05538e+08 3816.06 6.09977e-11 2.10401e-11 3.07008e+08 6.25608e+13
226.753 4537.62 8595.09 6.14593e-11 1.24552e+08 4522.08 6.12489e-11 1.78839e-11 4.28031e+08 7.38313e+13
239.625 5379.97 10143.5 6.17449e-11 1.46987e+08 5361.64 6.15345e-11 1.51999e-11 5.9709e+08 8.71322e+13
253.228 6390.09 11970.9 6.21427e-11 1.7347e+08 6368 6.19279e-11 1.29176e-11 8.3451e+08 1.02829e+14
267.603 7609.02 14127.5 6.27009e-11 2.04703e+08 7582.58 6.2483e-11 1.09771e-11 1.16925e+09 1.21354e+14
282.795 9084.8 16672.6 6.3434e-11 2.4161e+08 9052.83 6.32108e-11 9.3274e-12 1.64315e+09 1.43217e+14
298.848 10889.4 19676.2 6.44277e-11 2.85122e+08 10850.3 6.41964e-11 7.925e-12 2.31795e+09 1.69017e+14
315.813 13124.2 23220.9 6.57963e-11 3.36491e+08 13076.1 6.55556e-11 6.73295e-12 3.28829e+09 1.99466e+14
333.741 15937.7 27404.3 6.77046e-11 3.97115e+08 15877.1 6.74473e-11 5.71979e-12 4.70061e+09 2.35401e+14
352.686 19560.5 32341.2 7.04098e-11 4.68637e+08 19482.6 7.01296e-11 4.85874e-12 6.79119e+09 2.77809e+14
372.707 24363.3 38167.6 7.43108e-11 5.53074e+08 24260.8 7.39982e-11 4.12703e-12 9.95858e+09 3.27857e+14
393.865 30998.8 45043.5 8.01165e-11 6.52716e+08 30858.2 7.97532e-11 3.50528e-12 1.49184e+10 3.86921e+14
416.224 36578.4 53158.3 8.01058e-11 2.2184e+08 38696.5 8.47445e-11 2.97701e-12 5.9693e+09 4.56626e+14
439.852 0 62734.9 0 0 0 0 2.52819e-12 0 5.38888e+14
464.821 0 74036.7 0 0 0 0 2.1469e-12 0 6.35971e+14
491.207 0 87374.6 0 0 0 0 1.82301e-12 0 7.50542e+14
519.092 0 103115 0 0 0 0 1.54789e-12 0 8.85755e+14
548.56 0 121692 0 0 0 0 1.31422e-12 0 1.04533e+15
579.7 0 143615 0 0 0 0 1.11576e-12 0 1.23364e+15
612.608 0 169488 0 0 0 0 9.47223e-13 0 1.45589e+15
647.384 0 200021 0 0 0 0 8.041e-13 0 1.71817e+15
684.134 0 236056 0 0 0 0 6.82568e-13 0 2.0277e+15
722.971 0 278582 0 0 0 0 5.79376e-13 0 2.393e+15
764.012 0 328769 0 0 0 0 4.91762e-13 0 2.8241e+15
0.129031
200
1.0655e+09
8589934592
0.0129181 6.63324e-05 1.58924e-09 4.859e-06 6 6.57251e-05 4.81451e-06 0.00677225 0.00430492 13.6515
0.0136515 0 1.87554e-09 0 0 0 0 0.00688819 0 16.1108
0.0144264 0 2.21343e-09 0 0 0 0 0.00699249 0 19.0132
0.0152454 0 2.61218e-09 0 0 0 0 0.00708412 0 22.4385
0.0161108 0 3.08278e-09 0 0 0 0 0.00716212 0 26.4808
0.0170254 0 3.63815e-09 0 0 0 0 0.00722559 0 31.2514
0.0179919 8.57426e-05 4.29357e-09 2.32481e-06 12 8.56321e-05 2.32182e-06 0.00727371 0.00383543 36.8815
0.0190132 0 5.06707e-09 0 0 0 0 0.00730578 0 43.5258
0.0200925 0 5.97991e-09 0 0 0 0 0.00732122 0 51.367
0.0212331 0.000285733 7.05721e-09 4.71344e-06 8 0.000285485 4.70934e-06 0.00731958 0.0051516 60.621
0.0224385 0 8.32858e-09 0 0 0 0 0.00730056 0 71.542
0.0237123 0 9.829e-09 0 0 0 0 0.00726401 0 84.4305
0.0250583 0.000499786 1.15997e-08 5.01587e-06 6 0.00049955 5.01351e-06 0.00720995 0.00417412 99.6408
0.0264808 0 1.36894e-08 0 0 0 0 0.00713857 0 117.591
0.0279841 0.00068374 1.61556e-08 4.92694e-06 24 0.000683038 4.92188e-06 0.00705021 0.0167721 138.776
0.0295727 0 1.90661e-08 0 0 0 0 0.00694538 0 163.777
0.0312514 0.00112332 2.25009e-08 5.81185e-06 24 0.00112903 5.84136e-06 0.00682475 0.020438 193.281
0.0330255 0 2.65545e-08 0 0 0 0 0.00668915 0 228.102
0.0349003 0.000835685 3.13384e-08 3.10439e-06 12 0.000828993 3.07953e-06 0.00653951 0.00569655 269.195
0.0368815 0.00194425 3.69841e-08 6.11994e-06 30 0.00192354 6.05477e-06 0.00637693 0.028791 317.691
0.0389751 0.00114975 4.36469e-08 3.06662e-06 24 0.00113792 3.03507e-06 0.00620256 0.0118659 374.924
0.0411876 0.00143947 5.151e-08 3.25327e-06 24 0.00142969 3.23118e-06 0.00601767 0.0129749 442.467
0.0435258 0.00158871 6.07896e-08 3.04247e-06 8 0.00158859 3.04224e-06 0.00582358 0.00417952 522.179
0.0459966 0.0020692 7.1741e-08 3.35772e-06 72 0.00205527 3.33511e-06 0.00562166 0.0430044 616.251
0.0486077 0 8.46654e-08 0 0 0 0 0.0054133 0 727.27
0.051367 0.00180184 9.99181e-08 2.09934e-06 54 0.00179212 2.08801e-06 0.00519989 0.0218013 858.29
0.054283 0.00283174 1.17919e-07 2.79564e-06 60 0.00285027 2.81394e-06 0.0049828 0.0336634 1012.91
0.0573645 0.00319798 1.39162e-07 2.67526e-06 96 0.00318807 2.66697e-06 0.00476339 0.0539164 1195.39
0.060621 0.00275354 1.64232e-07 1.95184e-06 24 0.00271624 1.92539e-06 0.00454293 0.0103114 1410.75
0.0640622 0.00395286 1.93819e-07 2.37424e-06 134 0.00395539 2.37576e-06 0.00432265 0.0736003 1664.89
0.0676989 0.00468068 2.28736e-07 2.38223e-06 120 0.0046518 2.36753e-06 0.00410371 0.0696607 1964.83
0.071542 0.00448462 2.69944e-07 1.93402e-06 108 0.00442537 1.90847e-06 0.00388717 0.0537343 2318.8
0.0756032 0.00520507 3.18575e-07 1.90206e-06 174 0.00519232 1.89741e-06 0.00367401 0.0900811 2736.54
0.079895 0.00671302 3.75967e-07 2.07864e-06 168 0.00665822 2.06167e-06 0.0034651 0.10078 3229.53
0.0844305 0.00578644 4.43698e-07 1.51822e-06 168 0.00580897 1.52413e-06 0.00326121 0.0782105 3811.34
0.0892234 0.00716035 5.23632e-07 1.59191e-06 290 0.00714103 1.58761e-06 0.00306301 0.150719 4497.96
0.0942883 0.00729453 6.17966e-07 1.37418e-06 288 0.00729924 1.37507e-06 0.00287109 0.137844 5308.28
0.0996408 0.00771006 7.29294e-07 1.23074e-06 366 0.00765208 1.22148e-06 0.00268591 0.167708 6264.59
0.105297 0.00937343 8.60678e-07 1.26785e-06 420 0.00931455 1.25989e-06 0.00250785 0.212332 7393.17
0.111275 0.00888953 1.01573e-06 1.01885e-06 398 0.00888736 1.0186e-06 0.00233721 0.173498 8725.07
0.117591 0.0103344 1.19872e-06 1.00364e-06 624 0.0103597 1.0061e-06 0.00217419 0.288049 10296.9
0.124267 0.0114507 1.41467e-06 9.42297e-07 642 0.0114306 9.40638e-07 0.00201893 0.299642 12151.9
0.131321 0.0123663 1.66953e-06 8.62294e-07 800 0.0123887 8.63861e-07 0.00187147 0.368606 14341.1
0.138776 0.0150979 1.9703e-06 8.92062e-07 858 0.0151531 8.95326e-07 0.00173182 0.441957 16924.7
0.146654 0.0158572 2.32525e-06 7.939e-07 1080 0.0159788 7.9999e-07 0.00159991 0.535913 19973.8
0.154979 0.0155125 2.74415e-06 6.58087e-07 1286 0.0156034 6.61943e-07 0.00147563 0.573516 23572.1
0.163777 0.0153485 3.23852e-06 5.51735e-07 1650 0.0153583 5.52087e-07 0.00135884 0.669956 27818.7
0.173074 0.0186016 3.82195e-06 5.666e-07 1778 0.0186302 5.6747e-07 0.00124933 0.806364 32830.3
0.182899 0.0173566 4.51048e-06 4.47974e-07 2112 0.0173832 4.48659e-07 0.00114689 0.824945 38744.7
0.193281 0.0214041 5.32305e-06 4.68108e-07 2570 0.0214569 4.69262e-07 0.00105127 1.14436 45724.7
0.204254 0.0230869 6.28202e-06 4.27835e-07 3030 0.0231002 4.28083e-07 0.000962209 1.34725 53962.1
0.215848 0.0241879 7.41374e-06 3.79813e-07 3434 0.0241763 3.79632e-07 0.000879423 1.48311 63683.5
0.228102 0.0250374 8.74934e-06 3.33138e-07 4218 0.025043 3.33212e-07 0.000802624 1.75073 75156.3
0.24105 0.0267684 1.03256e-05 3.01799e-07 4766 0.0267862 3.02e-07 0.000731515 1.9663 88695.9
0.254734 0.0301303 1.21857e-05 2.87847e-07 6026 0.0301187 2.87736e-07 0.000665798 2.60524 104675
0.269195 0.0311734 1.4381e-05 2.52351e-07 6480 0.0311636 2.52271e-07 0.000605173 2.70209 123532
0.284476 0.032201 1.69718e-05 2.20878e-07 8162 0.0322727 2.21369e-07 0.000549345 3.28173 145787
0.300625 0.0339975 2.00293e-05 1.97602e-07 9578 0.034007 1.97657e-07 0.000498021 3.8003 172051
0.317691 0.0380348 2.36377e-05 1.87321e-07 11234 0.0380335 1.87315e-07 0.000450916 4.66686 203046
0.335725 0.0391011 2.78961e-05 1.63176e-07 13344 0.039076 1.63071e-07 0.000407755 5.34002 239625
0.354784 0.0423347 3.29216e-05 1.49701e-07 15464 0.0423105 1.49616e-07 0.000368269 6.28611 282795
0.374924 0.04444 3.88525e-05 1.33157e-07 18458 0.0444356 1.33144e-07 0.000332202 7.39857 333741
0.396207 0.047149 4.58519e-05 1.19709e-07 22232 0.0471074 1.19603e-07 0.000299307 8.89174 393865
0.418699 0.0500636 5.41123e-05 1.07705e-07 25628 0.0499626 1.07488e-07 0.00026935 10.2479 464821
0.442467 0.0519454 6.38607e-05 9.46942e-08 30320 0.0518474 9.45155e-08 0.000242108 11.8589 548560
0.467585 0.0550296 7.53654e-05 8.5003e-08 35452 0.0549489 8.48784e-08 0.00021737 13.8636 647384
0.494129 0.0574581 8.89427e-05 7.52057e-08 41792 0.0574518 7.51975e-08 0.000194938 16.123 764012
0.522179 0.0612966 0.000104966 6.79826e-08 49988 0.0613087 6.79961e-08 0.000174625 19.4607 901651
0.551822 0.0650336 0.000123876 6.11169e-08 59110 0.0649872 6.10733e-08 0.000156255 23.1201 1.06409e+06
0.583147 0.0682115 0.000146192 5.43179e-08 69716 0.0681197 5.42448e-08 0.000139664 27.1138 1.25578e+06
0.616251 0.0712843 0.000172529 4.80995e-08 82210 0.0711799 4.80291e-08 0.0001247 31.7102 1.48202e+06
0.651234 0.0751897 0.000203611 4.299e-08 96722 0.0750482 4.2909e-08 0.00011122 37.3859 1.74901e+06
0.688203 0.0788409 0.000240292 3.81964e-08 113098 0.0787542 3.81544e-08 9.90935e-05 43.5945 2.06409e+06
0.72727 0.0829984 0.000283581 3.40724e-08 135190 0.082934 3.40459e-08 8.81969e-05 52.2268 2.43595e+06
0.768555 0.0878245 0.000334669 3.05499e-08 158170 0.0877471 3.0523e-08 7.84179e-05 61.6196 2.87479e+06
0.812184 0.091686 0.000394961 2.70246e-08 188560 0.0916046 2.70006e-08 6.96525e-05 73.1597 3.39269e+06
0.85829 0.0962291 0.000466114 2.40339e-08 220444 0.096126 2.40082e-08 6.1805e-05 85.7233 4.00389e+06
0.907013 0.10153 0.000550086 2.14868e-08 261388 0.10143 2.14658e-08 5.47875e-05 102.513 4.7252e+06
0.958501 0.106013 0.000649185 1.90109e-08 308244 0.10591 1.89923e-08 4.85194e-05 120.776 5.57646e+06
1.01291 0.112293 0.000766138 1.7063e-08 364396 0.112171 1.70445e-08 4.29272e-05 144.843 6.58107e+06
1.07041 0.117167 0.00090416 1.50859e-08 429162 0.117041 1.50696e-08 3.79435e-05 170.63 7.76667e+06
1.13118 0.122686 0.00106705 1.33851e-08 506358 0.122531 1.33682e-08 3.3507e-05 202.276 9.16586e+06
1.19539 0.128824 0.00125928 1.19093e-08 598590 0.12866 1.18941e-08 2.9562e-05 241.146 1.08171e+07
1.26325 0.135366 0.00148614 1.06037e-08 704844 0.135196 1.05904e-08 2.60578e-05 286.823 1.27658e+07
1.33496 0.142496 0.00175387 9.45836e-09 834620 0.142305 9.44566e-09 2.29484e-05 343.994 1.50656e+07
1.41075 0.148977 0.00206984 8.37903e-09 981444 0.148768 8.36727e-09 2.01923e-05 407.262 1.77798e+07
1.49083 0.156447 0.00244272 7.45595e-09 1.15998e+06 0.156248 7.44649e-09 1.77518e-05 487.204 2.09828e+07
1.57546 0.163833 0.00288279 6.61604e-09 1.36931e+06 0.163619 6.60741e-09 1.55929e-05 580.997 2.4763e+07
1.66489 0.172647 0.00340213 5.9077e-09 1.61652e+06 0.172404 5.89939e-09 1.3685e-05 697.835 2.92241e+07
1.75941 0.181166 0.00401503 5.25289e-09 1.90601e+06 0.18091 5.24547e-09 1.20007e-05 834.289 3.44889e+07
1.85928 0.190126 0.00473835 4.67116e-09 2.24913e+06 0.189864 4.66471e-09 1.05151e-05 999.138 4.07021e+07
1.96483 0.200126 0.00559198 4.16629e-09 2.65744e+06 0.199846 4.16045e-09 9.20606e-06 1202.65 4.80347e+07
2.07637 0.210157 0.00659939 3.70724e-09 3.13125e+06 0.209855 3.70191e-09 8.05366e-06 1441.37 5.66883e+07
2.19424 0.220224 0.00778828 3.2918e-09 3.69915e+06 0.219912 3.28714e-09 7.04008e-06 1729.65 6.69008e+07
2.3188 0.231595 0.00919136 2.93332e-09 4.36472e+06 0.231261 2.92909e-09 6.1494e-06 2082.02 7.89532e+07
2.45043 0.244012 0.0108472 2.6188e-09 5.14913e+06 0.243664 2.61507e-09 5.36741e-06 2512.3 9.31768e+07
2.58954 0.256716 0.0128014 2.33457e-09 6.07894e+06 0.256368 2.33141e-09 4.68145e-06 3031.48 1.09963e+08
2.73654 0.270523 0.0151076 2.08459e-09 7.17304e+06 0.270127 2.08154e-09 4.08023e-06 3664.7 1.29773e+08
2.89188 0.285061 0.0178292 1.8613e-09 8.46557e+06 0.284659 1.85867e-09 3.55373e-06 4433.92 1.53152e+08
3.05605 0.300659 0.0210412 1.66347e-09 9.98773e+06 0.300236 1.66112e-09 3.09304e-06 5371.5 1.80743e+08
3.22953 0.31735 0.0248319 1.48778e-09 1.1797e+07 0.316887 1.48561e-09 2.69025e-06 6524.06 2.13304e+08
3.41286 0.335122 0.0293054 1.33127e-09 1.39144e+07 0.334614 1.32925e-09 2.33837e-06 7921.66 2.51731e+08
3.6066 0.354232 0.0345848 1.19237e-09 1.64163e+07 0.353708 1.19061e-09 2.0312e-06 9636.83 2.97081e+08
3.81134 0.374711 0.0408154 1.06877e-09 1.93821e+07 0.374155 1.06718e-09 1.76327e-06 11748.1 3.50601e+08
4.0277 0.396844 0.0481684 9.59108e-10 2.28754e+07 0.396232 9.5763e-10 1.52972e-06 14342.5 4.13763e+08
4.25634 0.42055 0.056846 8.61248e-10 2.69929e+07 0.419883 8.59881e-10 1.32631e-06 17528 4.88304e+08
4.49796 0.446379 0.067087 7.74596e-10 3.18542e+07 0.445668 7.73363e-10 1.14926e-06 21469.7 5.76273e+08
4.7533 0.47404 0.0791729 6.97026e-10 3.75892e+07 0.473278 6.95905e-10 9.95263e-07 26325.3 6.8009e+08
5.02313 0.503825 0.0934361 6.27734e-10 4.43706e+07 0.503007 6.26715e-10 8.61414e-07 32334 8.0261e+08
5.30828 0.535933 0.110269 5.65806e-10 5.23593e+07 0.535041 5.64864e-10 7.45152e-07 39757.3 9.47202e+08
5.60962 0.571309 0.130134 5.11081e-10 6.1787e+07 0.570345 5.10219e-10 6.44232e-07 49016.8 1.11784e+09
5.92807 0.609801 0.153578 4.62241e-10 7.29346e+07 0.60875 4.61445e-10 5.56685e-07 60560.9 1.31923e+09
6.26459 0.651764 0.181246 4.18633e-10 8.60651e+07 0.650618 4.17897e-10 4.80786e-07 74939 1.55689e+09
6.62021 0.698107 0.213898 3.7995e-10 1.01558e+08 0.696866 3.79275e-10 4.15026e-07 92975 1.83737e+09
6.99602 0.74889 0.252432 3.4537e-10 1.1986e+08 0.747534 3.44745e-10 3.58083e-07 115604 2.16837e+09
7.39317 0.804711 0.297908 3.14462e-10 1.41457e+08 0.803228 3.13882e-10 3.08803e-07 144049 2.55901e+09
7.81286 0.866629 0.351577 2.86961e-10 1.66936e+08 0.865003 2.86423e-10 2.66181e-07 179968 3.02002e+09
8.25637 0.935433 0.414914 2.62461e-10 1.97025e+08 0.933649 2.6196e-10 2.29336e-07 225483 3.56409e+09
8.72507 1.01266 0.489662 2.40756e-10 2.32497e+08 1.01069 2.40288e-10 1.97503e-07 283414 4.20617e+09
9.22037 1.09886 0.577876 2.21369e-10 2.74404e+08 1.09666 2.20927e-10 1.70014e-07 357291 4.96392e+09
9.74378 1.19719 0.681982 2.04363e-10 3.2382e+08 1.19472 2.0394e-10 1.46289e-07 452370 5.85818e+09
10.2969 1.31178 0.804843 1.89741e-10 3.82165e+08 1.30895 1.89332e-10 1.25822e-07 576307 6.91355e+09
10.8814 1.45118 0.949838 1.77861e-10 4.51027e+08 1.44782 1.7745e-10 1.08175e-07 741575 8.15905e+09
11.4992 1.63038 1.12095 1.69321e-10 5.32251e+08 1.62618 1.68885e-10 9.29669e-08 969393 9.62892e+09
12.1519 1.87897 1.3229 1.6535e-10 6.28157e+08 1.87337 1.64857e-10 7.98658e-08 1.3005e+06 1.13636e+10
12.8418 2.14917 1.56122 1.60257e-10 3.82727e+08 2.22417 1.65849e-10 6.85852e-08 894285 1.34108e+10
13.5708 0 1.84248 0 0 0 0 5.88765e-08 0 1.58268e+10
14.3411 0 2.17441 0 0 0 0 5.05241e-08 0 1.8678e+10
15.1552 0 2.56613 0 0 0 0 4.33417e-08 0 2.20429e+10
16.0156 0 3.02843 0 0 0 0 3.71677e-08 0 2.6014e+10
16.9247 0 3.574 0 0 0 0 3.18628e-08 0 3.07005e+10
17.8855 0 4.21787 0 0 0 0 2.73063e-08 0 3.62312e+10
18.9008 0 4.97773 0 0 0 0 2.33941e-08 0 4.27584e+10
19.9738 0 5.87448 0 0 0 0 2.00364e-08 0 5.04614e+10
21.1076 0 6.93279 0 0 0 0 1.71555e-08 0 5.95522e+10
22.3058 0 8.18175 0 0 0 0 1.46847e-08 0 7.02807e+10
23.5721 0 9.65571 0 0 0 0 1.25662e-08 0 8.29419e+10
24.9102 0 11.3952 0 0 0 0 1.07504e-08 0 9.78842e+10
26.3243 0 13.4481 0 0 0 0 9.19452e-09 0 1.15518e+11
27.8187 0 15.8708 0 0 0 0 7.86182e-09 0 1.36329e+11
29.3979 0 18.73 0 0 0 0 6.72061e-09 0 1.60889e+11
31.0667 0 22.1042 0 0 0 0 5.74366e-09 0 1.89874e+11
32.8303 0 26.0864 0 0 0 0 4.90756e-09 0 2.2408e+11
34.694 0 30.7859 0 0 0 0 4.19221e-09 0 2.64449e+11
36.6634 0 36.3321 0 0 0 0 3.58032e-09 0 3.1209e+11
38.7447 0 42.8774 0 0 0 0 3.05709e-09 0 3.68314e+11
40.9442 0 50.6018 0 0 0 0 2.60976e-09 0 4.34667e+11
43.2685 0 59.7179 0 0 0 0 2.22743e-09 0 5.12973e+11
45.7247 0 70.4762 0 0 0 0 1.90073e-09 0 6.05386e+11
48.3204 0 83.1727 0 0 0 0 1.62163e-09 0 7.14448e+11
51.0634 0 98.1565 0 0 0 0 1.38326e-09 0 8.43158e+11
53.9621 0 115.84 0 0 0 0 1.1797e-09 0 9.95055e+11
57.0254 0 136.709 0 0 0 0 1.00592e-09 0 1.17432e+12
60.2626 0 161.337 0 0 0 0 8.57591e-10 0 1.38587e+12
63.6835 0 190.402 0 0 0 0 7.3101e-10 0 1.63554e+12
67.2987 0 224.704 0 0 0 0 6.23009e-10 0 1.93019e+12
71.1191 0 265.185 0 0 0 0 5.30879e-10 0 2.27792e+12
75.1563 0 312.958 0 0 0 0 4.52303e-10 0 2.68829e+12
79.4227 0 369.339 0 0 0 0 3.85299e-10 0 3.17259e+12
83.9313 0 435.876 0 0 0 0 3.28173e-10 0 3.74415e+12
88.6959 0 514.4 0 0 0 0 2.79476e-10 0 4.41866e+12
93.7309 0 607.071 0 0 0 0 2.37972e-10 0 5.2147e+12
99.0518 0 716.436 0 0 0 0 2.02605e-10 0 6.15414e+12
104.675 0 845.504 0 0 0 0 1.72471e-10 0 7.26283e+12
110.617 0 997.824 0 0 0 0 1.468e-10 0 8.57124e+12
116.896 0 1177.58 0 0 0 0 1.24935e-10 0 1.01154e+13
123.532 0 1389.73 0 0 0 0 1.06313e-10 0 1.19377e+13
130.545 0 1640.09 0 0 0 0 9.04567e-11 0 1.40883e+13
137.955 0 1935.56 0 0 0 0 7.69563e-11 0 1.66263e+13
145.787 0 2284.26 0 0 0 0 6.54636e-11 0 1.96216e+13
154.063 0 2695.77 0 0 0 0 5.56812e-11 0 2.31565e+13
162.808 0 3181.42 0 0 0 0 4.73556e-11 0 2.73282e+13
172.051 0 3754.56 0 0 0 0 4.02708e-11 0 3.22515e+13
181.818 0 4430.96 0 0 0 0 3.42426e-11 0 3.80616e+13
192.139 0 5229.21 0 0 0 0 2.91139e-11 0 4.49186e+13
203.046 0 6171.26 0 0 0 0 2.4751e-11 0 5.30108e+13
214.572 0 7283.03 0 0 0 0 2.10401e-11 0 6.25608e+13
226.753 0 8595.09 0 0 0 0 1.78839e-11 0 7.38313e+13
239.625 0 10143.5 0 0 0 0 1.51999e-11 0 8.71322e+13
253.228 0 11970.9 0 0 0 0 1.29176e-11 0 1.02829e+14
267.603 0 14127.5 0 0 0 0 1.09771e-11 0 1.21354e+14
282.795 0 16672.6 0 0 0 0 9.3274e-12 0 1.43217e+14
298.848 0 19676.2 0 0 0 0 7.925e-12 0 1.69017e+14
315.813 0 23220.9 0 0 0 0 6.73295e-12 0 1.99466e+14
333.741 0 27404.3 0 0 0 0 5.71979e-12 0 2.35401e+14
352.686 0 32341.2 0 0 0 0 4.85874e-12 0 2.77809e+14
372.707 0 38167.6 0 0 0 0 4.12703e-12 0 3.27857e+14
393.865 0 45043.5 0 0 0 0 3.50528e-12 0 3.86921e+14
416.224 0 53158.3 0 0 0 0 2.97701e-12 0 4.56626e+14
439.852 0 62734.9 0 0 0 0 2.52819e-12 0 5.38888e+14
464.821 0 74036.7 0 0 0 0 2.1469e-12 0 6.35971e+14
491.207 0 87374.6 0 0 0 0 1.82301e-12 0 7.50542e+14
519.092 0 103115 0 0 0 0 1.54789e-12 0 8.85755e+14
548.56 0 121692 0 0 0 0 1.31422e-12 0 1.04533e+15
579.7 0 143615 0 0 0 0 1.11576e-12 0 1.23364e+15
612.608 0 169488 0 0 0 0 9.47223e-13 0 1.45589e+15
647.384 0 200021 0 0 0 0 8.041e-13 0 1.71817e+15
684.134 0 236056 0 0 0 0 6.82568e-13 0 2.0277e+15
722.971 0 278582 0 0 0 0 5.79376e-13 0 2.393e+15
764.012 0 328769 0 0 0 0 4.91762e-13 0 2.8241e+15
