0.204077
200
1.0655e+09
8589934592
0.0129181 0 1.58924e-09 0 0 0 0 0.00677225 0 13.6515
0.0136515 0 1.87554e-09 0 0 0 0 0.00688819 0 16.1108
0.0144264 0 2.21343e-09 0 0 0 0 0.00699249 0 19.0132
0.0152454 0 2.61218e-09 0 0 0 0 0.00708412 0 22.4385
0.0161108 0 3.08278e-09 0 0 0 0 0.00716212 0 26.4808
0.0170254 0 3.63815e-09 0 0 0 0 0.00722559 0 31.2514
0.0179919 0 4.29357e-09 0 0 0 0 0.00727371 0 36.8815
0.0190132 0 5.06707e-09 0 0 0 0 0.00730578 0 43.5258
0.0200925 0 5.97991e-09 0 0 0 0 0.00732122 0 51.367
0.0212331 0 7.05721e-09 0 0 0 0 0.00731958 0 60.621
0.0224385 0 8.32858e-09 0 0 0 0 0.00730056 0 71.542
0.0237123 0 9.829e-09 0 0 0 0 0.00726401 0 84.4305
0.0250583 0 1.15997e-08 0 0 0 0 0.00720995 0 99.6408
0.0264808 0 1.36894e-08 0 0 0 0 0.00713857 0 117.591
0.0279841 0 1.61556e-08 0 0 0 0 0.00705021 0 138.776
0.0295727 0 1.90661e-08 0 0 0 0 0.00694538 0 163.777
0.0312514 0 2.25009e-08 0 0 0 0 0.00682475 0 193.281
0.0330255 0 2.65545e-08 0 0 0 0 0.00668915 0 228.102
0.0349003 0 3.13384e-08 0 0 0 0 0.00653951 0 269.195
0.0368815 0 3.69841e-08 0 0 0 0 0.00637693 0 317.691
0.0389751 0 4.36469e-08 0 0 0 0 0.00620256 0 374.924
0.0411876 0 5.151e-08 0 0 0 0 0.00601767 0 442.467
0.0435258 0 6.07896e-08 0 0 0 0 0.00582358 0 522.179
0.0459966 0 7.1741e-08 0 0 0 0 0.00562166 0 616.251
0.0486077 0 8.46654e-08 0 0 0 0 0.0054133 0 727.27
0.051367 0 9.99181e-08 0 0 0 0 0.00519989 0 858.29
0.054283 0 1.17919e-07 0 0 0 0 0.0049828 0 1012.91
0.0573645 0 1.39162e-07 0 0 0 0 0.00476339 0 1195.39
0.060621 0 1.64232e-07 0 0 0 0 0.00454293 0 1410.75
0.0640622 0 1.93819e-07 0 0 0 0 0.00432265 0 1664.89
0.0676989 0 2.28736e-07 0 0 0 0 0.00410371 0 1964.83
0.071542 0 2.69944e-07 0 0 0 0 0.00388717 0 2318.8
0.0756032 0 3.18575e-07 0 0 0 0 0.00367401 0 2736.54
0.079895 0 3.75967e-07 0 0 0 0 0.0034651 0 3229.53
0.0844305 0 4.43698e-07 0 0 0 0 0.00326121 0 3811.34
0.0892234 0 5.23632e-07 0 0 0 0 0.00306301 0 4497.96
0.0942883 0 6.17966e-07 0 0 0 0 0.00287109 0 5308.28
0.0996408 0 7.29294e-07 0 0 0 0 0.00268591 0 6264.59
0.105297 0 8.60678e-07 0 0 0 0 0.00250785 0 7393.17
0.111275 0 1.01573e-06 0 0 0 0 0.00233721 0 8725.07
0.117591 0 1.19872e-06 0 0 0 0 0.00217419 0 10296.9
0.124267 0 1.41467e-06 0 0 0 0 0.00201893 0 12151.9
0.131321 0 1.66953e-06 0 0 0 0 0.00187147 0 14341.1
0.138776 0 1.9703e-06 0 0 0 0 0.00173182 0 16924.7
0.146654 0 2.32525e-06 0 0 0 0 0.00159991 0 19973.8
0.154979 0 2.74415e-06 0 0 0 0 0.00147563 0 23572.1
0.163777 0 3.23852e-06 0 0 0 0 0.00135884 0 27818.7
0.173074 0 3.82195e-06 0 0 0 0 0.00124933 0 32830.3
0.182899 0 4.51048e-06 0 0 0 0 0.00114689 0 38744.7
0.193281 0 5.32305e-06 0 0 0 0 0.00105127 0 45724.7
0.204254 0 6.28202e-06 0 0 0 0 0.000962209 0 53962.1
0.215848 0 7.41374e-06 0 0 0 0 0.000879423 0 63683.5
0.228102 0 8.74934e-06 0 0 0 0 0.000802624 0 75156.3
0.24105 0 1.03256e-05 0 0 0 0 0.000731515 0 88695.9
0.254734 0 1.21857e-05 0 0 0 0 0.000665798 0 104675
0.269195 0 1.4381e-05 0 0 0 0 0.000605173 0 123532
0.284476 0 1.69718e-05 0 0 0 0 0.000549345 0 145787
0.300625 0 2.00293e-05 0 0 0 0 0.000498021 0 172051
0.317691 0 2.36377e-05 0 0 0 0 0.000450916 0 203046
0.335725 0 2.78961e-05 0 0 0 0 0.000407755 0 239625
0.354784 0 3.29216e-05 0 0 0 0 0.000368269 0 282795
0.374924 0 3.88525e-05 0 0 0 0 0.000332202 0 333741
0.396207 0.683603 4.58519e-05 1.73563e-06 6 0.664598 1.68737e-06 0.000299307 0.034793 393865
0.418699 0 5.41123e-05 0 0 0 0 0.00026935 0 464821
0.442467 0 6.38607e-05 0 0 0 0 0.000242108 0 548560
0.467585 0 7.53654e-05 0 0 0 0 0.00021737 0 647384
0.494129 0 8.89427e-05 0 0 0 0 0.000194938 0 764012
0.522179 0 0.000104966 0 0 0 0 0.000174625 0 901651
0.551822 0 0.000123876 0 0 0 0 0.000156255 0 1.06409e+06
0.583147 6.71883 0.000146192 5.35031e-06 12 7.0716 5.63123e-06 0.000139664 0.459701 1.25578e+06
0.616251 0 0.000172529 0 0 0 0 0.0001247 0 1.48202e+06
0.651234 0 0.000203611 0 0 0 0 0.00011122 0 1.74901e+06
0.688203 26.081 0.000240292 1.26356e-05 8 25.4321 1.23212e-05 9.90935e-05 1.02009 2.06409e+06
0.72727 0 0.000283581 0 0 0 0 8.81969e-05 0 2.43595e+06
0.768555 0 0.000334669 0 0 0 0 7.84179e-05 0 2.87479e+06
0.812184 0.273446 0.000394961 8.05986e-08 6 0.279292 8.23218e-08 6.96525e-05 0.00694291 3.39269e+06
0.85829 0 0.000466114 0 0 0 0 6.1805e-05 0 4.00389e+06
0.907013 0.250469 0.000550086 5.30071e-08 24 0.255275 5.40242e-08 5.47875e-05 0.0232201 4.7252e+06
0.958501 1.32734 0.000649185 2.38026e-07 24 1.24959 2.24084e-07 4.85194e-05 0.117739 5.57646e+06
1.01291 0 0.000766138 0 0 0 0 4.29272e-05 0 6.58107e+06
1.07041 0 0.00090416 0 0 0 0 3.79435e-05 0 7.76667e+06
1.13118 1.62691 0.00106705 1.77496e-07 12 1.60692 1.75316e-07 3.3507e-05 0.0635675 9.16586e+06
1.19539 1.13863 0.00125928 1.05262e-07 30 1.11516 1.03092e-07 2.9562e-05 0.106822 1.08171e+07
1.26325 8.75649 0.00148614 6.85931e-07 24 8.62472 6.75609e-07 2.60578e-05 0.631762 1.27658e+07
1.33496 18.9976 0.00175387 1.26099e-06 24 19.0394 1.26376e-06 2.29484e-05 1.31877 1.50656e+07
1.41075 7.16704 0.00206984 4.03101e-07 32 7.35967 4.13935e-07 2.01923e-05 0.638819 1.77798e+07
1.49083 0.902745 0.00244272 4.3023e-08 48 0.8835 4.21058e-08 1.77518e-05 0.116332 2.09828e+07
1.57546 0.327617 0.00288279 1.32301e-08 6 0.311966 1.25981e-08 1.55929e-05 0.00509085 2.4763e+07
1.66489 0.956866 0.00340213 3.27424e-08 84 0.931499 3.18744e-08 1.3685e-05 0.200976 2.92241e+07
1.75941 2.70925 0.00401503 7.85542e-08 48 2.71944 7.88497e-08 1.20007e-05 0.314199 3.44889e+07
1.85928 0.701343 0.00473835 1.72311e-08 72 0.704411 1.73065e-08 1.05151e-05 0.117987 4.07021e+07
1.96483 1.20154 0.00559198 2.50139e-08 54 1.17675 2.44979e-08 9.20606e-06 0.146724 4.80347e+07
2.07637 10.1629 0.00659939 1.79277e-07 104 10.1548 1.79134e-07 8.05366e-06 2.31508 5.66883e+07
2.19424 0.764388 0.00778828 1.14257e-08 120 0.771325 1.15294e-08 7.04008e-06 0.194754 6.69008e+07
2.3188 2.43827 0.00919136 3.08825e-08 156 2.33214 2.95382e-08 6.1494e-06 0.783438 7.89532e+07
2.45043 1.43971 0.0108472 1.54514e-08 126 1.42615 1.53059e-08 5.36741e-06 0.36272 9.31768e+07
2.58954 1.41721 0.0128014 1.28881e-08 192 1.43121 1.30154e-08 4.68145e-06 0.528579 1.09963e+08
2.73654 5.20675 0.0151076 4.0122e-08 152 5.39142 4.1545e-08 4.08023e-06 1.49466 1.29773e+08
2.89188 4.71808 0.0178292 3.08065e-08 378 4.81129 3.14151e-08 3.55373e-06 3.2768 1.53152e+08
3.05605 2.02183 0.0210412 1.11862e-08 264 1.99304 1.1027e-08 3.09304e-06 0.954778 1.80743e+08
3.22953 1.01394 0.0248319 4.75351e-09 366 1.00649 4.71858e-09 2.69025e-06 0.646699 2.13304e+08
3.41286 1.43964 0.0293054 5.71897e-09 428 1.39561 5.54406e-09 2.33837e-06 1.04676 2.51731e+08
3.6066 4.10257 0.0345848 1.38096e-08 486 3.98499 1.34138e-08 2.0312e-06 3.30417 2.97081e+08
3.81134 1.64929 0.0408154 4.70417e-09 600 1.6481 4.70077e-09 1.76327e-06 1.60073 3.50601e+08
4.0277 1.63321 0.0481684 3.94721e-09 738 1.60496 3.87893e-09 1.52972e-06 1.9043 4.13763e+08
4.25634 2.25504 0.056846 4.61811e-09 824 2.29749 4.70504e-09 1.32631e-06 2.86912 4.88304e+08
4.49796 3.94118 0.067087 6.83909e-09 954 3.95366 6.86074e-09 1.14926e-06 5.67714 5.76273e+08
4.7533 1.66712 0.0791729 2.45132e-09 1094 1.6549 2.43335e-09 9.95263e-07 2.69451 6.8009e+08
5.02313 1.61738 0.0934361 2.01515e-09 1332 1.6201 2.01854e-09 8.61414e-07 3.11601 8.0261e+08
5.30828 3.8923 0.110269 4.10926e-09 1614 3.91804 4.13643e-09 7.45152e-07 8.90065 9.47202e+08
5.60962 2.86644 0.130134 2.56426e-09 1850 2.82622 2.52828e-09 6.44232e-07 7.36362 1.11784e+09
5.92807 3.14622 0.153578 2.3849e-09 2238 3.08881 2.34138e-09 5.56685e-07 9.58782 1.31923e+09
6.26459 2.59112 0.181246 1.6643e-09 2546 2.60732 1.6747e-09 4.80786e-07 8.81326 1.55689e+09
6.62021 2.27365 0.213898 1.23745e-09 3264 2.27589 1.23867e-09 4.15026e-07 9.73203 1.83737e+09
6.99602 3.68698 0.252432 1.70034e-09 3506 3.73316 1.72164e-09 3.58083e-07 16.6481 2.16837e+09
7.39317 3.26011 0.297908 1.27397e-09 4506 3.2643 1.27561e-09 3.08803e-07 18.5895 2.55901e+09
7.81286 4.00235 0.351577 1.32527e-09 5018 4.0323 1.33519e-09 2.66181e-07 24.9838 3.02002e+09
8.25637 4.07207 0.414914 1.14253e-09 5852 4.02825 1.13023e-09 2.29336e-07 29.154 3.56409e+09
8.72507 4.08907 0.489662 9.72161e-10 7362 4.07734 9.69371e-10 1.97503e-07 36.2377 4.20617e+09
9.22037 4.73094 0.577876 9.53065e-10 8306 4.70623 9.48087e-10 1.70014e-07 46.5617 4.96392e+09
9.74378 4.45234 0.681982 7.60021e-10 9698 4.45115 7.59818e-10 1.46289e-07 50.3844 5.85818e+09
10.2969 5.43 0.804843 7.85414e-10 11816 5.44082 7.86979e-10 1.25822e-07 73.7583 6.91355e+09
10.8814 5.55486 0.949838 6.80822e-10 13682 5.55345 6.80649e-10 1.08175e-07 86.1102 8.15905e+09
11.4992 6.07422 1.12095 6.30831e-10 16152 6.05957 6.2931e-10 9.29669e-08 109.6 9.62892e+09
12.1519 6.61764 1.3229 5.82354e-10 19472 6.58998 5.79921e-10 7.98658e-08 141.983 1.13636e+10
12.8418 6.70293 1.56122 4.99817e-10 22670 6.69092 4.98921e-10 6.85852e-08 165.208 1.34108e+10
13.5708 7.67455 1.84248 4.8491e-10 26224 7.67189 4.84741e-10 5.88765e-08 215.982 1.58268e+10
14.3411 8.18501 2.17441 4.38216e-10 31640 8.18245 4.3808e-10 5.05241e-08 274.427 1.8678e+10
15.1552 8.93776 2.56613 4.05471e-10 37484 8.92804 4.0503e-10 4.33417e-08 350.672 2.20429e+10
16.0156 9.48417 3.02843 3.6458e-10 43856 9.47031 3.64047e-10 3.71677e-08 430.185 2.6014e+10
16.9247 10.6121 3.574 3.45665e-10 51362 10.5953 3.45118e-10 3.18628e-08 557.204 3.07005e+10
17.8855 11.4072 4.21787 3.14846e-10 61636 11.3795 3.1408e-10 2.73063e-08 710.672 3.62312e+10
18.9008 12.3472 4.97773 2.88766e-10 72218 12.3184 2.88093e-10 2.33941e-08 891.426 4.27584e+10
19.9738 13.6485 5.87448 2.70475e-10 84586 13.6161 2.69832e-10 2.00364e-08 1141.84 5.04614e+10
21.1076 14.5913 6.93279 2.45017e-10 100708 14.5616 2.44518e-10 1.71555e-08 1438.32 5.95522e+10
22.3058 16.0443 8.18175 2.28288e-10 118712 16.0111 2.27816e-10 1.46847e-08 1845.5 7.02807e+10
23.5721 17.3526 9.65571 2.09214e-10 140410 17.3119 2.08723e-10 1.25662e-08 2337.69 8.29419e+10
24.9102 18.8797 11.3952 1.92878e-10 164374 18.8319 1.92389e-10 1.07504e-08 2949.12 9.78842e+10
26.3243 20.5367 13.4481 1.77779e-10 194680 20.4903 1.77377e-10 9.19452e-09 3764.19 1.15518e+11
27.8187 22.4813 15.8708 1.64905e-10 230196 22.4338 1.64556e-10 7.86182e-09 4828.44 1.36329e+11
29.3979 24.5591 18.73 1.52646e-10 271156 24.5014 1.52287e-10 6.72061e-09 6158.8 1.60889e+11
31.0667 26.7788 22.1042 1.41035e-10 321076 26.7178 1.40714e-10 5.74366e-09 7883.98 1.89874e+11
32.8303 29.196 26.0864 1.30293e-10 377436 29.1328 1.30011e-10 4.90756e-09 10020.7 2.2408e+11
34.694 32.2411 30.7859 1.21918e-10 447594 32.1619 1.21619e-10 4.19221e-09 13017 2.64449e+11
36.6634 35.6688 36.3321 1.1429e-10 525078 35.5773 1.13997e-10 3.58032e-09 16761.4 3.1209e+11
38.7447 39.5682 42.8774 1.07431e-10 621924 39.4712 1.07167e-10 3.05709e-09 21855.4 3.68314e+11
40.9442 43.9927 50.6018 1.0121e-10 732630 43.8765 1.00943e-10 2.60976e-09 28412.5 4.34667e+11
43.2685 49.0015 59.7179 9.55245e-11 865596 48.8817 9.52909e-11 2.22743e-09 37121.5 5.12973e+11
45.7247 54.9282 70.4762 9.07325e-11 1.02168e+06 54.7836 9.04936e-11 1.90073e-09 48770.3 6.05386e+11
48.3204 61.6461 83.1727 8.62849e-11 1.20544e+06 61.4755 8.60461e-11 1.62163e-09 64139.7 7.14448e+11
51.0634 69.5826 98.1565 8.25261e-11 1.42103e+06 69.4007 8.23105e-11 1.38326e-09 84779.7 8.43158e+11
53.9621 78.741 115.84 7.91323e-11 1.67997e+06 78.5183 7.89084e-11 1.1797e-09 112689 9.95055e+11
57.0254 89.4939 136.709 7.62093e-11 1.98018e+06 89.241 7.59939e-11 1.00592e-09 150020 1.17432e+12
60.2626 102.295 161.337 7.38127e-11 2.33957e+06 101.997 7.35976e-11 8.57591e-10 201366 1.38587e+12
63.6835 117.065 190.402 7.15754e-11 2.75676e+06 116.724 7.13672e-11 7.3101e-10 269923 1.63554e+12
67.2987 134.524 224.704 6.96948e-11 3.25638e+06 134.136 6.94937e-11 6.23009e-10 364285 1.93019e+12
71.1191 155.208 265.185 6.81361e-11 3.84387e+06 154.742 6.79314e-11 5.30879e-10 493344 2.27792e+12
75.1563 188.511 312.958 7.0123e-11 4.53277e+06 187.289 6.96685e-11 4.52303e-10 702739 2.68829e+12
79.4227 208.541 369.339 6.5732e-11 5.35083e+06 207.924 6.55374e-11 3.85299e-10 912851 3.17259e+12
83.9313 242.298 435.876 6.47138e-11 6.32174e+06 241.546 6.45129e-11 3.28173e-10 1.24661e+06 3.74415e+12
88.6959 282.629 514.4 6.39625e-11 7.44986e+06 281.745 6.37624e-11 2.79476e-10 1.70502e+06 4.41866e+12
93.7309 330.357 607.071 6.33512e-11 8.79764e+06 329.309 6.31502e-11 2.37972e-10 2.34204e+06 5.2147e+12
99.0518 386.268 716.436 6.27656e-11 1.03827e+07 385.045 6.25668e-11 2.02605e-10 3.21649e+06 6.15414e+12
104.675 457.974 845.504 6.30573e-11 1.22515e+07 456.742 6.28877e-11 1.72471e-10 4.47929e+06 7.26283e+12
110.617 531.536 997.824 6.20139e-11 1.44573e+07 529.82 6.18137e-11 1.468e-10 6.10732e+06 8.57124e+12
116.896 624.085 1177.58 6.16967e-11 1.70664e+07 622.065 6.1497e-11 1.24935e-10 8.42792e+06 1.01154e+13
123.532 734.368 1389.73 6.15167e-11 2.0139e+07 731.972 6.13161e-11 1.06313e-10 1.16532e+07 1.19377e+13
130.545 863.523 1640.09 6.12937e-11 2.37643e+07 860.718 6.10945e-11 9.04567e-11 1.61027e+07 1.40883e+13
137.955 1016.91 1935.56 6.11628e-11 2.80503e+07 1013.57 6.09616e-11 7.69563e-11 2.22936e+07 1.66263e+13
145.787 1197.9 2284.26 6.10499e-11 3.30981e+07 1193.96 6.08492e-11 6.54636e-11 3.08665e+07 1.96216e+13
154.063 1412.5 2695.77 6.09981e-11 3.90634e+07 1407.83 6.07963e-11 5.56812e-11 4.27936e+07 2.31565e+13
162.808 1663.66 3181.42 6.0877e-11 4.61057e+07 1658.15 6.06753e-11 4.73556e-11 5.92702e+07 2.73282e+13
172.051 1963.19 3754.56 6.08715e-11 5.44046e+07 1956.66 6.06687e-11 4.02708e-11 8.22354e+07 3.22515e+13
181.818 2320.45 4430.96 6.09655e-11 6.42064e+07 2312.76 6.07636e-11 3.42426e-11 1.14313e+08 3.80616e+13
192.139 2738.47 5229.21 6.09652e-11 7.57748e+07 2729.32 6.07615e-11 2.91139e-11 1.58674e+08 4.49186e+13
203.046 3238.3 6171.26 6.10876e-11 8.94213e+07 3227.38 6.08817e-11 2.4751e-11 2.20699e+08 5.30108e+13
214.572 3830.11 7283.03 6.12222e-11 1.05538e+08 3817.19 6.10158e-11 2.10401e-11 3.07095e+08 6.25608e+13
226.753 4536.65 8595.09 6.14462e-11 1.24552e+08 4521.27 6.12379e-11 1.78839e-11 4.2794e+08 7.38313e+13
239.625 5379.77 10143.5 6.17426e-11 1.46987e+08 5361.34 6.15312e-11 1.51999e-11 5.97068e+08 8.71322e+13
253.228 6391.06 11970.9 6.21522e-11 1.7347e+08 6369 6.19376e-11 1.29176e-11 8.34638e+08 1.02829e+14
267.603 7606.96 14127.5 6.2684e-11 2.04703e+08 7580.5 6.24659e-11 1.09771e-11 1.16894e+09 1.21354e+14
282.795 9083.64 16672.6 6.34259e-11 2.4161e+08 9051.65 6.32025e-11 9.3274e-12 1.64294e+09 1.43217e+14
298.848 10886.7 19676.2 6.44118e-11 2.85122e+08 10847.6 6.41805e-11 7.925e-12 2.31738e+09 1.69017e+14
315.813 13126.1 23220.9 6.58062e-11 3.36491e+08 13077.9 6.55645e-11 6.73295e-12 3.28878e+09 1.99466e+14
333.741 15939.8 27404.3 6.77135e-11 3.97115e+08 15879.2 6.74559e-11 5.71979e-12 4.70123e+09 2.35401e+14
352.686 19568.7 32341.2 7.04394e-11 4.68637e+08 19491 7.01598e-11 4.85874e-12 6.79405e+09 2.77809e+14
372.707 24384.8 38167.6 7.43763e-11 5.53074e+08 24282.1 7.40631e-11 4.12703e-12 9.96736e+09 3.27857e+14
393.865 31035.1 45043.5 8.02104e-11 6.52716e+08 30894.1 7.98461e-11 3.50528e-12 1.49359e+10 3.86921e+14
416.224 36623.6 53158.3 8.02047e-11 2.2184e+08 38744.3 8.48491e-11 2.97701e-12 5.97667e+09 4.56626e+14
439.852 0 62734.9 0 0 0 0 2.52819e-12 0 5.38888e+14
464.821 0 74036.7 0 0 0 0 2.1469e-12 0 6.35971e+14
491.207 0 87374.6 0 0 0 0 1.82301e-12 0 7.50542e+14
519.092 0 103115 0 0 0 0 1.54789e-12 0 8.85755e+14
548.56 0 121692 0 0 0 0 1.31422e-12 0 1.04533e+15
579.7 0 143615 0 0 0 0 1.11576e-12 0 1.23364e+15
612.608 0 169488 0 0 0 0 9.47223e-13 0 1.45589e+15
647.384 0 200021 0 0 0 0 8.041e-13 0 1.71817e+15
684.134 0 236056 0 0 0 0 6.82568e-13 0 2.0277e+15
722.971 0 278582 0 0 0 0 5.79376e-13 0 2.393e+15
764.012 0 328769 0 0 0 0 4.91762e-13 0 2.8241e+15
0.204077
200
1.0655e+09
8589934592
0.0129181 0.000134881 1.58924e-09 9.88032e-06 6 0.000133646 9.78987e-06 0.00677225 0.00875365 13.6515
0.0136515 0 1.87554e-09 0 0 0 0 0.00688819 0 16.1108
0.0144264 0 2.21343e-09 0 0 0 0 0.00699249 0 19.0132
0.0152454 0 2.61218e-09 0 0 0 0 0.00708412 0 22.4385
0.0161108 0 3.08278e-09 0 0 0 0 0.00716212 0 26.4808
0.0170254 0 3.63815e-09 0 0 0 0 0.00722559 0 31.2514
0.0179919 0.000299775 4.29357e-09 8.12806e-06 12 0.000299388 8.11759e-06 0.00727371 0.0134095 36.8815
0.0190132 0 5.06707e-09 0 0 0 0 0.00730578 0 43.5258
0.0200925 0 5.97991e-09 0 0 0 0 0.00732122 0 51.367
0.0212331 0.000283609 7.05721e-09 4.6784e-06 8 0.000283362 4.67433e-06 0.00731958 0.0051133 60.621
0.0224385 0 8.32858e-09 0 0 0 0 0.00730056 0 71.542
0.0237123 0 9.829e-09 0 0 0 0 0.00726401 0 84.4305
0.0250583 0.00181962 1.15997e-08 1.82617e-05 6 0.00181876 1.82531e-05 0.00720995 0.0151971 99.6408
0.0264808 0 1.36894e-08 0 0 0 0 0.00713857 0 117.591
0.0279841 0.00113129 1.61556e-08 8.15191e-06 24 0.00113013 8.14354e-06 0.00705021 0.0277504 138.776
0.0295727 0 1.90661e-08 0 0 0 0 0.00694538 0 163.777
0.0312514 0.00202206 2.25009e-08 1.04617e-05 24 0.00203232 1.05148e-05 0.00682475 0.0367898 193.281
0.0330255 0 2.65545e-08 0 0 0 0 0.00668915 0 228.102
0.0349003 0.00285989 3.13384e-08 1.06239e-05 12 0.00283699 1.05388e-05 0.00653951 0.0194948 269.195
0.0368815 0.0024523 3.69841e-08 7.71914e-06 30 0.00242619 7.63695e-06 0.00637693 0.0363144 317.691
0.0389751 0.00290664 4.36469e-08 7.75263e-06 24 0.00287674 7.67288e-06 0.00620256 0.0299978 374.924
0.0411876 0.00184352 5.151e-08 4.16646e-06 24 0.001831 4.13816e-06 0.00601767 0.0166169 442.467
0.0435258 0.00404813 6.07896e-08 7.75239e-06 8 0.00404782 7.75179e-06 0.00582358 0.0106497 522.179
0.0459966 0.00515112 7.1741e-08 8.3588e-06 72 0.00511039 8.2927e-06 0.00562166 0.107056 616.251
0.0486077 0 8.46654e-08 0 0 0 0 0.0054133 0 727.27
0.051367 0.00763 9.99181e-08 8.88977e-06 54 0.00760569 8.86144e-06 0.00519989 0.0923188 858.29
0.054283 0.00595755 1.17919e-07 5.8816e-06 60 0.00598264 5.90637e-06 0.0049828 0.0708228 1012.91
0.0573645 0.00588357 1.39162e-07 4.92187e-06 96 0.00586847 4.90924e-06 0.00476339 0.0991941 1195.39
0.060621 0.00681469 1.64232e-07 4.83056e-06 24 0.00672236 4.76511e-06 0.00454293 0.0255195 1410.75
0.0640622 0.0119971 1.93819e-07 7.20593e-06 134 0.0120036 7.20985e-06 0.00432265 0.22338 1664.89
0.0676989 0.0115274 2.28736e-07 5.86689e-06 120 0.0114743 5.83986e-06 0.00410371 0.171559 1964.83
0.071542 0.0105689 2.69944e-07 4.5579e-06 108 0.0104544 4.50852e-06 0.00388717 0.126635 2318.8
0.0756032 0.0153969 3.18575e-07 5.62641e-06 174 0.015316 5.59684e-06 0.00367401 0.266465 2736.54
0.079895 0.0164169 3.75967e-07 5.08336e-06 168 0.0162622 5.03546e-06 0.0034651 0.246459 3229.53
0.0844305 0.0139992 4.43698e-07 3.67304e-06 168 0.0140692 3.69141e-06 0.00326121 0.189215 3811.34
0.0892234 0.0158097 5.23632e-07 3.51486e-06 290 0.0157428 3.49999e-06 0.00306301 0.33278 4497.96
0.0942883 0.0204404 6.17966e-07 3.85067e-06 288 0.0203894 3.84105e-06 0.00287109 0.386262 5308.28
0.0996408 0.0185013 7.29294e-07 2.95331e-06 366 0.0183465 2.92861e-06 0.00268591 0.402438 6264.59
0.105297 0.0202389 8.60678e-07 2.73751e-06 420 0.0200988 2.71856e-06 0.00250785 0.458461 7393.17
0.111275 0.0214767 1.01573e-06 2.46149e-06 398 0.021416 2.45453e-06 0.00233721 0.419163 8725.07
0.117591 0.02557 1.19872e-06 2.48327e-06 624 0.025623 2.48842e-06 0.00217419 0.712706 10296.9
0.124267 0.0284624 1.41467e-06 2.34222e-06 642 0.0284232 2.33898e-06 0.00201893 0.744803 12151.9
0.131321 0.0359984 1.66953e-06 2.51015e-06 800 0.0360113 2.51105e-06 0.00187147 1.07302 14341.1
0.138776 0.032488 1.9703e-06 1.91956e-06 858 0.0326434 1.92874e-06 0.00173182 0.951013 16924.7
0.146654 0.0353598 2.32525e-06 1.77031e-06 1080 0.035656 1.78514e-06 0.00159991 1.19503 19973.8
0.154979 0.041938 2.74415e-06 1.77914e-06 1286 0.0422257 1.79134e-06 0.00147563 1.5505 23572.1
0.163777 0.039593 3.23852e-06 1.42325e-06 1650 0.0396672 1.42592e-06 0.00135884 1.72822 27818.7
0.173074 0.0465772 3.82195e-06 1.41873e-06 1778 0.0465831 1.41891e-06 0.00124933 2.01908 32830.3
0.182899 0.0455173 4.51048e-06 1.1748e-06 2112 0.0456285 1.17767e-06 0.00114689 2.16339 38744.7
0.193281 0.0533155 5.32305e-06 1.16601e-06 2570 0.0533907 1.16766e-06 0.00105127 2.8505 45724.7
0.204254 0.0598815 6.28202e-06 1.10969e-06 3030 0.0598518 1.10914e-06 0.000962209 3.49443 53962.1
0.215848 0.0596157 7.41374e-06 9.36125e-07 3434 0.0595997 9.35874e-07 0.000879423 3.65541 63683.5
0.228102 0.0622987 8.74934e-06 8.28922e-07 4218 0.062316 8.29152e-07 0.000802624 4.3562 75156.3
0.24105 0.0702438 1.03256e-05 7.91963e-07 4766 0.0703119 7.9273e-07 0.000731515 5.15983 88695.9
0.254734 0.0755669 1.21857e-05 7.21921e-07 6026 0.0755451 7.21713e-07 0.000665798 6.53396 104675
0.269195 0.0795333 1.4381e-05 6.43827e-07 6480 0.0794872 6.43454e-07 0.000605173 6.89389 123532
0.284476 0.0867074 1.69718e-05 5.94755e-07 8162 0.0869063 5.96119e-07 0.000549345 8.83668 145787
0.300625 0.0875652 2.00293e-05 5.0895e-07 9578 0.0876731 5.09577e-07 0.000498021 9.78819 172051
0.317691 0.0977363 2.36377e-05 4.8135e-07 11234 0.0976554 4.80952e-07 0.000450916 11.9922 203046
0.335725 0.102485 2.78961e-05 4.2769e-07 13344 0.102422 4.27424e-07 0.000407755 13.9964 239625
0.354784 0.10716 3.29216e-05 3.78931e-07 15464 0.107092 3.78691e-07 0.000368269 15.9117 282795
0.374924 0.115116 3.88525e-05 3.44926e-07 18458 0.115107 3.449e-07 0.000332202 19.165 333741
0.396207 0.121573 4.58519e-05 3.08666e-07 22232 0.121402 3.08234e-07 0.000299307 22.9272 393865
0.418699 0.131766 5.41123e-05 2.83477e-07 25628 0.131468 2.82836e-07 0.00026935 26.9722 464821
0.442467 0.139205 6.38607e-05 2.53765e-07 30320 0.138937 2.53276e-07 0.000242108 31.7798 548560
0.467585 0.14577 7.53654e-05 2.25167e-07 35452 0.145563 2.24848e-07 0.00021737 36.7236 647384
0.494129 0.153505 8.89427e-05 2.00919e-07 41792 0.153438 2.00832e-07 0.000194938 43.0742 764012
0.522179 0.165901 0.000104966 1.83997e-07 49988 0.165847 1.83937e-07 0.000174625 52.6708 901651
0.551822 0.17466 0.000123876 1.64141e-07 59110 0.174536 1.64024e-07 0.000156255 62.0932 1.06409e+06
0.583147 0.186492 0.000146192 1.48506e-07 69716 0.186238 1.48304e-07 0.000139664 74.1299 1.25578e+06
0.616251 0.197805 0.000172529 1.3347e-07 82210 0.197474 1.33247e-07 0.0001247 87.9917 1.48202e+06
0.651234 0.210928 0.000203611 1.20599e-07 96722 0.210519 1.20365e-07 0.00011122 104.878 1.74901e+06
0.688203 0.223869 0.000240292 1.08459e-07 113098 0.223625 1.08341e-07 9.90935e-05 123.787 2.06409e+06
0.72727 0.236576 0.000283581 9.71188e-08 135190 0.236321 9.7014e-08 8.81969e-05 148.866 2.43595e+06
0.768555 0.252557 0.000334669 8.78523e-08 158170 0.252307 8.77656e-08 7.84179e-05 177.199 2.87479e+06
0.812184 0.267167 0.000394961 7.87478e-08 188560 0.266877 7.86623e-08 6.96525e-05 213.182 3.39269e+06
0.85829 0.283931 0.000466114 7.09138e-08 220444 0.283577 7.08253e-08 6.1805e-05 252.933 4.00389e+06
0.907013 0.300568 0.000550086 6.36096e-08 261388 0.300237 6.35395e-08 5.47875e-05 303.478 4.7252e+06
0.958501 0.321305 0.000649185 5.7618e-08 308244 0.320933 5.75514e-08 4.85194e-05 366.048 5.57646e+06
1.01291 0.342756 0.000766138 5.20821e-08 364396 0.342325 5.20166e-08 4.29272e-05 442.11 6.58107e+06
1.07041 0.363507 0.00090416 4.68035e-08 429162 0.362997 4.67378e-08 3.79435e-05 529.374 7.76667e+06
1.13118 0.388556 0.00106705 4.23917e-08 506358 0.388045 4.2336e-08 3.3507e-05 640.623 9.16586e+06
1.19539 0.41415 0.00125928 3.82866e-08 598590 0.413542 3.82304e-08 2.9562e-05 775.25 1.08171e+07
1.26325 0.441416 0.00148614 3.45779e-08 704844 0.440807 3.45302e-08 2.60578e-05 935.306 1.27658e+07
1.33496 0.4697 0.00175387 3.11769e-08 834620 0.46899 3.11298e-08 2.29484e-05 1133.88 1.50656e+07
1.41075 0.502351 0.00206984 2.82541e-08 981444 0.501611 2.82125e-08 2.01923e-05 1373.29 1.77798e+07
1.49083 0.536562 0.00244272 2.55715e-08 1.15998e+06 0.535796 2.5535e-08 1.77518e-05 1670.95 2.09828e+07
1.57546 0.574367 0.00288279 2.31946e-08 1.36931e+06 0.57348 2.31588e-08 1.55929e-05 2036.87 2.4763e+07
1.66489 0.615549 0.00340213 2.10631e-08 1.61652e+06 0.614567 2.10295e-08 1.3685e-05 2488.04 2.92241e+07
1.75941 0.659476 0.00401503 1.91214e-08 1.90601e+06 0.658422 1.90909e-08 1.20007e-05 3036.96 3.44889e+07
1.85928 0.707755 0.00473835 1.73887e-08 2.24913e+06 0.70664 1.73613e-08 1.05151e-05 3719.34 4.07021e+07
1.96483 0.759397 0.00559198 1.58093e-08 2.65744e+06 0.758099 1.57823e-08 9.20606e-06 4563.55 4.80347e+07
2.07637 0.816631 0.00659939 1.44056e-08 3.13125e+06 0.815304 1.43822e-08 8.05366e-06 5600.89 5.66883e+07
2.19424 0.879364 0.00778828 1.31443e-08 3.69915e+06 0.877973 1.31235e-08 7.04008e-06 6906.55 6.69008e+07
2.3188 0.946968 0.00919136 1.1994e-08 4.36472e+06 0.945385 1.1974e-08 6.1494e-06 8513.14 7.89532e+07
2.45043 1.02095 0.0108472 1.09572e-08 5.14913e+06 1.01921 1.09385e-08 5.36741e-06 10511.6 9.31768e+07
2.58954 1.10488 0.0128014 1.00477e-08 6.07894e+06 1.10297 1.00304e-08 4.68145e-06 13047.1 1.09963e+08
2.73654 1.19406 0.0151076 9.20111e-09 7.17304e+06 1.19199 9.1852e-09 4.08023e-06 16175.5 1.29773e+08
2.89188 1.29341 0.0178292 8.44528e-09 8.46557e+06 1.29112 8.43029e-09 3.55373e-06 20118 1.53152e+08
3.05605 1.40373 0.0210412 7.76644e-09 9.98773e+06 1.40131 7.75309e-09 3.09304e-06 25078.6 1.80743e+08
3.22953 1.52255 0.0248319 7.13795e-09 1.1797e+07 1.51978 7.12493e-09 2.69025e-06 31300.6 2.13304e+08
3.41286 1.65374 0.0293054 6.56945e-09 1.39144e+07 1.65067 6.55727e-09 2.33837e-06 39091.2 2.51731e+08
3.6066 1.7995 0.0345848 6.05725e-09 1.64163e+07 1.79613 6.04593e-09 2.0312e-06 48955.1 2.97081e+08
3.81134 1.96082 0.0408154 5.59274e-09 1.93821e+07 1.95722 5.58247e-09 1.76327e-06 61476.4 3.50601e+08
4.0277 2.13828 0.0481684 5.16789e-09 2.28754e+07 2.13423 5.15808e-09 1.52972e-06 77280.4 4.13763e+08
4.25634 2.33399 0.056846 4.77979e-09 2.69929e+07 2.32948 4.77055e-09 1.32631e-06 97277.9 4.88304e+08
4.49796 2.54778 0.067087 4.42114e-09 3.18542e+07 2.5428 4.4125e-09 1.14926e-06 122542 5.76273e+08
4.7533 2.78666 0.0791729 4.09749e-09 3.75892e+07 2.78122 4.08948e-09 9.95263e-07 154754 6.8009e+08
5.02313 3.04784 0.0934361 3.79741e-09 4.43706e+07 3.04182 3.78991e-09 8.61414e-07 195601 8.0261e+08
5.30828 3.33663 0.110269 3.52261e-09 5.23593e+07 3.3299 3.51551e-09 7.45152e-07 247522 9.47202e+08
5.60962 3.6516 0.130134 3.26665e-09 6.1787e+07 3.64428 3.2601e-09 6.44232e-07 313298 1.11784e+09
5.92807 3.9977 0.153578 3.03034e-09 7.29346e+07 3.98964 3.02423e-09 5.56685e-07 397022 1.31923e+09
6.26459 4.37908 0.181246 2.81271e-09 8.60651e+07 4.37014 2.80697e-09 4.80786e-07 503501 1.55689e+09
6.62021 4.79594 0.213898 2.61022e-09 1.01558e+08 4.78611 2.60488e-09 4.15026e-07 638730 1.83737e+09
6.99602 5.25282 0.252432 2.42247e-09 1.1986e+08 5.2421 2.41753e-09 3.58083e-07 810867 2.16837e+09
7.39317 5.75294 0.297908 2.24811e-09 1.41457e+08 5.74106 2.24347e-09 3.08803e-07 1.02982e+06 2.55901e+09
7.81286 6.3001 0.351577 2.08611e-09 1.66936e+08 6.28716 2.08182e-09 2.66181e-07 1.30831e+06 3.02002e+09
8.25637 6.90146 0.414914 1.93639e-09 1.97025e+08 6.88717 1.93238e-09 2.29336e-07 1.66357e+06 3.56409e+09
8.72507 7.56491 0.489662 1.79853e-09 2.32497e+08 7.54899 1.79474e-09 1.97503e-07 2.11719e+06 4.20617e+09
9.22037 8.30285 0.577876 1.67264e-09 2.74404e+08 8.28522 1.66909e-09 1.70014e-07 2.69965e+06 4.96392e+09
9.74378 9.13408 0.681982 1.5592e-09 3.2382e+08 9.11422 1.55581e-09 1.46289e-07 3.45139e+06 5.85818e+09
10.2969 10.0929 0.804843 1.45987e-09 3.82165e+08 10.0701 1.45658e-09 1.25822e-07 4.43412e+06 6.91355e+09
10.8814 11.2415 0.949838 1.3778e-09 4.51027e+08 11.2146 1.3745e-09 1.08175e-07 5.74459e+06 8.15905e+09
11.4992 12.692 1.12095 1.31811e-09 5.32251e+08 12.6588 1.31466e-09 9.29669e-08 7.54641e+06 9.62892e+09
12.1519 14.6562 1.3229 1.28975e-09 6.28157e+08 14.6126 1.28591e-09 7.98658e-08 1.01441e+07 1.13636e+10
12.8418 16.7477 1.56122 1.24882e-09 3.82727e+08 17.3324 1.29242e-09 6.85852e-08 6.96883e+06 1.34108e+10
13.5708 0 1.84248 0 0 0 0 5.88765e-08 0 1.58268e+10
14.3411 0 2.17441 0 0 0 0 5.05241e-08 0 1.8678e+10
15.1552 0 2.56613 0 0 0 0 4.33417e-08 0 2.20429e+10
16.0156 0 3.02843 0 0 0 0 3.71677e-08 0 2.6014e+10
16.9247 0 3.574 0 0 0 0 3.18628e-08 0 3.07005e+10
17.8855 0 4.21787 0 0 0 0 2.73063e-08 0 3.62312e+10
18.9008 0 4.97773 0 0 0 0 2.33941e-08 0 4.27584e+10
19.9738 0 5.87448 0 0 0 0 2.00364e-08 0 5.04614e+10
21.1076 0 6.93279 0 0 0 0 1.71555e-08 0 5.95522e+10
22.3058 0 8.18175 0 0 0 0 1.46847e-08 0 7.02807e+10
23.5721 0 9.65571 0 0 0 0 1.25662e-08 0 8.29419e+10
24.9102 0 11.3952 0 0 0 0 1.07504e-08 0 9.78842e+10
26.3243 0 13.4481 0 0 0 0 9.19452e-09 0 1.15518e+11
27.8187 0 15.8708 0 0 0 0 7.86182e-09 0 1.36329e+11
29.3979 0 18.73 0 0 0 0 6.72061e-09 0 1.60889e+11
31.0667 0 22.1042 0 0 0 0 5.74366e-09 0 1.89874e+11
32.8303 0 26.0864 0 0 0 0 4.90756e-09 0 2.2408e+11
34.694 0 30.7859 0 0 0 0 4.19221e-09 0 2.64449e+11
36.6634 0 36.3321 0 0 0 0 3.58032e-09 0 3.1209e+11
38.7447 0 42.8774 0 0 0 0 3.05709e-09 0 3.68314e+11
40.9442 0 50.6018 0 0 0 0 2.60976e-09 0 4.34667e+11
43.2685 0 59.7179 0 0 0 0 2.22743e-09 0 5.12973e+11
45.7247 0 70.4762 0 0 0 0 1.90073e-09 0 6.05386e+11
48.3204 0 83.1727 0 0 0 0 1.62163e-09 0 7.14448e+11
51.0634 0 98.1565 0 0 0 0 1.38326e-09 0 8.43158e+11
53.9621 0 115.84 0 0 0 0 1.1797e-09 0 9.95055e+11
57.0254 0 136.709 0 0 0 0 1.00592e-09 0 1.17432e+12
60.2626 0 161.337 0 0 0 0 8.57591e-10 0 1.38587e+12
63.6835 0 190.402 0 0 0 0 7.3101e-10 0 1.63554e+12
67.2987 0 224.704 0 0 0 0 6.23009e-10 0 1.93019e+12
71.1191 0 265.185 0 0 0 0 5.30879e-10 0 2.27792e+12
75.1563 0 312.958 0 0 0 0 4.52303e-10 0 2.68829e+12
79.4227 0 369.339 0 0 0 0 3.85299e-10 0 3.17259e+12
83.9313 0 435.876 0 0 0 0 3.28173e-10 0 3.74415e+12
88.6959 0 514.4 0 0 0 0 2.79476e-10 0 4.41866e+12
93.7309 0 607.071 0 0 0 0 2.37972e-10 0 5.2147e+12
99.0518 0 716.436 0 0 0 0 2.02605e-10 0 6.15414e+12
104.675 0 845.504 0 0 0 0 1.72471e-10 0 7.26283e+12
110.617 0 997.824 0 0 0 0 1.468e-10 0 8.57124e+12
116.896 0 1177.58 0 0 0 0 1.24935e-10 0 1.01154e+13
123.532 0 1389.73 0 0 0 0 1.06313e-10 0 1.19377e+13
130.545 0 1640.09 0 0 0 0 9.04567e-11 0 1.40883e+13
137.955 0 1935.56 0 0 0 0 7.69563e-11 0 1.66263e+13
145.787 0 2284.26 0 0 0 0 6.54636e-11 0 1.96216e+13
154.063 0 2695.77 0 0 0 0 5.56812e-11 0 2.31565e+13
162.808 0 3181.42 0 0 0 0 4.73556e-11 0 2.73282e+13
172.051 0 3754.56 0 0 0 0 4.02708e-11 0 3.22515e+13
181.818 0 4430.96 0 0 0 0 3.42426e-11 0 3.80616e+13
192.139 0 5229.21 0 0 0 0 2.91139e-11 0 4.49186e+13
203.046 0 6171.26 0 0 0 0 2.4751e-11 0 5.30108e+13
214.572 0 7283.03 0 0 0 0 2.10401e-11 0 6.25608e+13
226.753 0 8595.09 0 0 0 0 1.78839e-11 0 7.38313e+13
239.625 0 10143.5 0 0 0 0 1.51999e-11 0 8.71322e+13
253.228 0 11970.9 0 0 0 0 1.29176e-11 0 1.02829e+14
267.603 0 14127.5 0 0 0 0 1.09771e-11 0 1.21354e+14
282.795 0 16672.6 0 0 0 0 9.3274e-12 0 1.43217e+14
298.848 0 19676.2 0 0 0 0 7.925e-12 0 1.69017e+14
315.813 0 23220.9 0 0 0 0 6.73295e-12 0 1.99466e+14
333.741 0 27404.3 0 0 0 0 5.71979e-12 0 2.35401e+14
352.686 0 32341.2 0 0 0 0 4.85874e-12 0 2.77809e+14
372.707 0 38167.6 0 0 0 0 4.12703e-12 0 3.27857e+14
393.865 0 45043.5 0 0 0 0 3.50528e-12 0 3.86921e+14
416.224 0 53158.3 0 0 0 0 2.97701e-12 0 4.56626e+14
439.852 0 62734.9 0 0 0 0 2.52819e-12 0 5.38888e+14
464.821 0 74036.7 0 0 0 0 2.1469e-12 0 6.35971e+14
491.207 0 87374.6 0 0 0 0 1.82301e-12 0 7.50542e+14
519.092 0 103115 0 0 0 0 1.54789e-12 0 8.85755e+14
548.56 0 121692 0 0 0 0 1.31422e-12 0 1.04533e+15
579.7 0 143615 0 0 0 0 1.11576e-12 0 1.23364e+15
612.608 0 169488 0 0 0 0 9.47223e-13 0 1.45589e+15
647.384 0 200021 0 0 0 0 8.041e-13 0 1.71817e+15
684.134 0 236056 0 0 0 0 6.82568e-13 0 2.0277e+15
722.971 0 278582 0 0 0 0 5.79376e-13 0 2.393e+15
764.012 0 328769 0 0 0 0 4.91762e-13 0 2.8241e+15
