0.543318
200
1.0655e+09
8589934592
0.0129181 0 1.58924e-09 0 0 0 0 0.00677225 0 13.6515
0.0136515 0 1.87554e-09 0 0 0 0 0.00688819 0 16.1108
0.0144264 0 2.21343e-09 0 0 0 0 0.00699249 0 19.0132
0.0152454 0 2.61218e-09 0 0 0 0 0.00708412 0 22.4385
0.0161108 0 3.08278e-09 0 0 0 0 0.00716212 0 26.4808
0.0170254 0 3.63815e-09 0 0 0 0 0.00722559 0 31.2514
0.0179919 0 4.29357e-09 0 0 0 0 0.00727371 0 36.8815
0.0190132 0 5.06707e-09 0 0 0 0 0.00730578 0 43.5258
0.0200925 0 5.97991e-09 0 0 0 0 0.00732122 0 51.367
0.0212331 0 7.05721e-09 0 0 0 0 0.00731958 0 60.621
0.0224385 0 8.32858e-09 0 0 0 0 0.00730056 0 71.542
0.0237123 0 9.829e-09 0 0 0 0 0.00726401 0 84.4305
0.0250583 0 1.15997e-08 0 0 0 0 0.00720995 0 99.6408
0.0264808 0 1.36894e-08 0 0 0 0 0.00713857 0 117.591
0.0279841 0 1.61556e-08 0 0 0 0 0.00705021 0 138.776
0.0295727 0 1.90661e-08 0 0 0 0 0.00694538 0 163.777
0.0312514 0 2.25009e-08 0 0 0 0 0.00682475 0 193.281
0.0330255 0 2.65545e-08 0 0 0 0 0.00668915 0 228.102
0.0349003 0 3.13384e-08 0 0 0 0 0.00653951 0 269.195
0.0368815 0 3.69841e-08 0 0 0 0 0.00637693 0 317.691
0.0389751 0 4.36469e-08 0 0 0 0 0.00620256 0 374.924
0.0411876 0 5.151e-08 0 0 0 0 0.00601767 0 442.467
0.0435258 0 6.07896e-08 0 0 0 0 0.00582358 0 522.179
0.0459966 0 7.1741e-08 0 0 0 0 0.00562166 0 616.251
0.0486077 0 8.46654e-08 0 0 0 0 0.0054133 0 727.27
0.051367 0 9.99181e-08 0 0 0 0 0.00519989 0 858.29
0.054283 0 1.17919e-07 0 0 0 0 0.0049828 0 1012.91
0.0573645 0 1.39162e-07 0 0 0 0 0.00476339 0 1195.39
0.060621 0 1.64232e-07 0 0 0 0 0.00454293 0 1410.75
0.0640622 0 1.93819e-07 0 0 0 0 0.00432265 0 1664.89
0.0676989 0 2.28736e-07 0 0 0 0 0.00410371 0 1964.83
0.071542 0 2.69944e-07 0 0 0 0 0.00388717 0 2318.8
0.0756032 0 3.18575e-07 0 0 0 0 0.00367401 0 2736.54
0.079895 0 3.75967e-07 0 0 0 0 0.0034651 0 3229.53
0.0844305 0 4.43698e-07 0 0 0 0 0.00326121 0 3811.34
0.0892234 0 5.23632e-07 0 0 0 0 0.00306301 0 4497.96
0.0942883 0 6.17966e-07 0 0 0 0 0.00287109 0 5308.28
0.0996408 0 7.29294e-07 0 0 0 0 0.00268591 0 6264.59
0.105297 0 8.60678e-07 0 0 0 0 0.00250785 0 7393.17
0.111275 0 1.01573e-06 0 0 0 0 0.00233721 0 8725.07
0.117591 0 1.19872e-06 0 0 0 0 0.00217419 0 10296.9
0.124267 0 1.41467e-06 0 0 0 0 0.00201893 0 12151.9
0.131321 0 1.66953e-06 0 0 0 0 0.00187147 0 14341.1
0.138776 0 1.9703e-06 0 0 0 0 0.00173182 0 16924.7
0.146654 0 2.32525e-06 0 0 0 0 0.00159991 0 19973.8
0.154979 0 2.74415e-06 0 0 0 0 0.00147563 0 23572.1
0.163777 0 3.23852e-06 0 0 0 0 0.00135884 0 27818.7
0.173074 0 3.82195e-06 0 0 0 0 0.00124933 0 32830.3
0.182899 0 4.51048e-06 0 0 0 0 0.00114689 0 38744.7
0.193281 0 5.32305e-06 0 0 0 0 0.00105127 0 45724.7
0.204254 0 6.28202e-06 0 0 0 0 0.000962209 0 53962.1
0.215848 0 7.41374e-06 0 0 0 0 0.000879423 0 63683.5
0.228102 0 8.74934e-06 0 0 0 0 0.000802624 0 75156.3
0.24105 0 1.03256e-05 0 0 0 0 0.000731515 0 88695.9
0.254734 0 1.21857e-05 0 0 0 0 0.000665798 0 104675
0.269195 0 1.4381e-05 0 0 0 0 0.000605173 0 123532
0.284476 0 1.69718e-05 0 0 0 0 0.000549345 0 145787
0.300625 0 2.00293e-05 0 0 0 0 0.000498021 0 172051
0.317691 0 2.36377e-05 0 0 0 0 0.000450916 0 203046
0.335725 0 2.78961e-05 0 0 0 0 0.000407755 0 239625
0.354784 0 3.29216e-05 0 0 0 0 0.000368269 0 282795
0.374924 0 3.88525e-05 0 0 0 0 0.000332202 0 333741
0.396207 1.87791 4.58519e-05 4.76791e-06 6 1.8257 4.63536e-06 0.000299307 0.0955791 393865
0.418699 0 5.41123e-05 0 0 0 0 0.00026935 0 464821
0.442467 0 6.38607e-05 0 0 0 0 0.000242108 0 548560
0.467585 0 7.53654e-05 0 0 0 0 0.00021737 0 647384
0.494129 0 8.89427e-05 0 0 0 0 0.000194938 0 764012
0.522179 0 0.000104966 0 0 0 0 0.000174625 0 901651
0.551822 0 0.000123876 0 0 0 0 0.000156255 0 1.06409e+06
0.583147 7.39513 0.000146192 5.88886e-06 12 7.78341 6.19805e-06 0.000139664 0.505973 1.25578e+06
0.616251 0 0.000172529 0 0 0 0 0.0001247 0 1.48202e+06
0.651234 0 0.000203611 0 0 0 0 0.00011122 0 1.74901e+06
0.688203 22.1705 0.000240292 1.0741e-05 8 21.6189 1.04738e-05 9.90935e-05 0.867143 2.06409e+06
0.72727 0 0.000283581 0 0 0 0 8.81969e-05 0 2.43595e+06
0.768555 0 0.000334669 0 0 0 0 7.84179e-05 0 2.87479e+06
0.812184 3.45684 0.000394961 1.01891e-06 6 3.53075 1.04069e-06 6.96525e-05 0.0877708 3.39269e+06
0.85829 0 0.000466114 0 0 0 0 6.1805e-05 0 4.00389e+06
0.907013 1.92626 0.000550086 4.07658e-07 24 1.96322 4.1548e-07 5.47875e-05 0.178577 4.7252e+06
0.958501 2.98534 0.000649185 5.35347e-07 24 2.81048 5.0399e-07 4.85194e-05 0.264808 5.57646e+06
1.01291 0 0.000766138 0 0 0 0 4.29272e-05 0 6.58107e+06
1.07041 0 0.00090416 0 0 0 0 3.79435e-05 0 7.76667e+06
1.13118 4.74812 0.00106705 5.18023e-07 12 4.6898 5.11659e-07 3.3507e-05 0.185521 9.16586e+06
1.19539 1.76768 0.00125928 1.63415e-07 30 1.73124 1.60047e-07 2.9562e-05 0.165836 1.08171e+07
1.26325 14.4288 0.00148614 1.13026e-06 24 14.2117 1.11326e-06 2.60578e-05 1.04101 1.27658e+07
1.33496 19.2068 0.00175387 1.27487e-06 24 19.249 1.27768e-06 2.29484e-05 1.33329 1.50656e+07
1.41075 15.7834 0.00206984 8.8772e-07 32 16.1108 9.06133e-07 2.01923e-05 1.40683 1.77798e+07
1.49083 2.78592 0.00244272 1.32772e-07 48 2.72653 1.29941e-07 1.77518e-05 0.359009 2.09828e+07
1.57546 16.0626 0.00288279 6.48653e-07 6 15.2952 6.17663e-07 1.55929e-05 0.249596 2.4763e+07
1.66489 3.60014 0.00340213 1.23191e-07 84 3.53904 1.211e-07 1.3685e-05 0.756158 2.92241e+07
1.75941 6.72587 0.00401503 1.95016e-07 48 6.67841 1.9364e-07 1.20007e-05 0.780019 3.44889e+07
1.85928 5.51573 0.00473835 1.35515e-07 72 5.5831 1.3717e-07 1.05151e-05 0.927908 4.07021e+07
1.96483 7.59771 0.00559198 1.58171e-07 54 7.46671 1.55444e-07 9.20606e-06 0.927785 4.80347e+07
2.07637 14.8078 0.00659939 2.61214e-07 104 14.9096 2.6301e-07 8.05366e-06 3.37315 5.66883e+07
2.19424 4.35968 0.00778828 6.51662e-08 120 4.43677 6.63186e-08 7.04008e-06 1.11078 6.69008e+07
2.3188 8.26133 0.00919136 1.04636e-07 156 8.07455 1.0227e-07 6.1494e-06 2.65443 7.89532e+07
2.45043 6.96685 0.0108472 7.47701e-08 126 6.95845 7.46801e-08 5.36741e-06 1.75523 9.31768e+07
2.58954 7.13129 0.0128014 6.48518e-08 192 7.18637 6.53527e-08 4.68145e-06 2.65976 1.09963e+08
2.73654 22.1957 0.0151076 1.71035e-07 152 22.6105 1.74231e-07 4.08023e-06 6.37153 1.29773e+08
2.89188 11.4232 0.0178292 7.45872e-08 378 11.5027 7.51063e-08 3.55373e-06 7.93362 1.53152e+08
3.05605 11.0215 0.0210412 6.09787e-08 264 10.912 6.03729e-08 3.09304e-06 5.20471 1.80743e+08
3.22953 10.0775 0.0248319 4.72447e-08 366 9.97844 4.67804e-08 2.69025e-06 6.42748 2.13304e+08
3.41286 10.1161 0.0293054 4.01863e-08 428 10.0502 3.99245e-08 2.33837e-06 7.35542 2.51731e+08
3.6066 14.7121 0.0345848 4.9522e-08 486 14.4614 4.86782e-08 2.0312e-06 11.849 2.97081e+08
3.81134 13.7192 0.0408154 3.91304e-08 600 13.707 3.90957e-08 1.76327e-06 13.3152 3.50601e+08
4.0277 17.0915 0.0481684 4.13076e-08 738 17.0602 4.12317e-08 1.52972e-06 19.9284 4.13763e+08
4.25634 15.8243 0.056846 3.24066e-08 824 15.7589 3.22728e-08 1.32631e-06 20.1334 4.88304e+08
4.49796 18.478 0.067087 3.20647e-08 954 18.4043 3.19368e-08 1.14926e-06 26.6169 5.76273e+08
4.7533 19.3055 0.0791729 2.83866e-08 1094 19.2267 2.82708e-08 9.95263e-07 31.2028 6.8009e+08
5.02313 19.5348 0.0934361 2.43391e-08 1332 19.6778 2.45173e-08 8.61414e-07 37.6354 8.0261e+08
5.30828 24.0391 0.110269 2.5379e-08 1614 24.0582 2.53992e-08 7.45152e-07 54.971 9.47202e+08
5.60962 25.6274 0.130134 2.29257e-08 1850 25.5581 2.28637e-08 6.44232e-07 65.8343 1.11784e+09
5.92807 23.6688 0.153578 1.79414e-08 2238 23.6227 1.79065e-08 5.56685e-07 72.1286 1.31923e+09
6.26459 23.6614 0.181246 1.51979e-08 2546 23.7661 1.52651e-08 4.80786e-07 80.4802 1.55689e+09
6.62021 26.9813 0.213898 1.46848e-08 3264 27.0273 1.47098e-08 4.15026e-07 115.49 1.83737e+09
6.99602 28.5498 0.252432 1.31665e-08 3506 28.616 1.3197e-08 3.58083e-07 128.914 2.16837e+09
7.39317 31.8084 0.297908 1.243e-08 4506 31.8544 1.24479e-08 3.08803e-07 181.376 2.55901e+09
7.81286 35.6561 0.351577 1.18066e-08 5018 35.5515 1.17719e-08 2.66181e-07 222.575 3.02002e+09
8.25637 37.6951 0.414914 1.05764e-08 5852 37.6655 1.05681e-08 2.29336e-07 269.879 3.56409e+09
8.72507 38.1449 0.489662 9.06879e-09 7362 38.049 9.046e-09 1.97503e-07 338.043 4.20617e+09
9.22037 40.1474 0.577876 8.08783e-09 8306 39.9797 8.05406e-09 1.70014e-07 395.129 4.96392e+09
9.74378 43.6741 0.681982 7.45523e-09 9698 43.5685 7.4372e-09 1.46289e-07 494.233 5.85818e+09
10.2969 45.6783 0.804843 6.60707e-09 11816 45.6153 6.59795e-09 1.25822e-07 620.47 6.91355e+09
10.8814 49.838 0.949838 6.10831e-09 13682 49.7502 6.09756e-09 1.08175e-07 772.577 8.15905e+09
11.4992 51.0854 1.12095 5.30541e-09 16152 51.1217 5.30919e-09 9.29669e-08 921.758 9.62892e+09
12.1519 53.343 1.3229 4.6942e-09 19472 53.2482 4.68586e-09 7.98658e-08 1144.49 1.13636e+10
12.8418 57.0225 1.56122 4.25199e-09 22670 56.8647 4.24023e-09 6.85852e-08 1405.44 1.34108e+10
13.5708 59.5047 1.84248 3.75975e-09 26224 59.4214 3.75449e-09 5.88765e-08 1674.62 1.58268e+10
14.3411 63.958 2.17441 3.42424e-09 31640 63.9088 3.42161e-09 5.05241e-08 2144.38 1.8678e+10
15.1552 66.8253 2.56613 3.0316e-09 37484 66.7198 3.02682e-09 4.33417e-08 2621.88 2.20429e+10
16.0156 70.7948 3.02843 2.72141e-09 43856 70.6454 2.71567e-09 3.71677e-08 3211.13 2.6014e+10
16.9247 75.4254 3.574 2.45682e-09 51362 75.3301 2.45371e-09 3.18628e-08 3960.32 3.07005e+10
17.8855 78.2694 4.21787 2.16027e-09 61636 78.1117 2.15592e-09 2.73063e-08 4876.18 3.62312e+10
18.9008 82.6533 4.97773 1.93303e-09 72218 82.468 1.9287e-09 2.33941e-08 5967.29 4.27584e+10
19.9738 87.7776 5.87448 1.7395e-09 84586 87.6145 1.73627e-09 2.00364e-08 7343.5 5.04614e+10
21.1076 92.1724 6.93279 1.54776e-09 100708 92.0222 1.54524e-09 1.71555e-08 9085.8 5.95522e+10
22.3058 96.9001 8.18175 1.37876e-09 118712 96.7337 1.37639e-09 1.46847e-08 11146 7.02807e+10
23.5721 101.031 9.65571 1.21809e-09 140410 100.851 1.21592e-09 1.25662e-08 13610.6 8.29419e+10
24.9102 106.315 11.3952 1.08613e-09 164374 106.1 1.08393e-09 1.07504e-08 16607 9.78842e+10
26.3243 111.315 13.4481 9.63614e-10 194680 111.218 9.62775e-10 9.19452e-09 20403.1 1.15518e+11
27.8187 116.95 15.8708 8.57853e-10 230196 116.771 8.56534e-10 7.86182e-09 25118.1 1.36329e+11
29.3979 122.332 18.73 7.60347e-10 271156 122.137 7.59135e-10 6.72061e-09 30677.7 1.60889e+11
31.0667 129.333 22.1042 6.8115e-10 321076 129.093 6.79886e-10 5.74366e-09 38076.9 1.89874e+11
32.8303 135.494 26.0864 6.04669e-10 377436 135.262 6.03633e-10 4.90756e-09 46504.5 2.2408e+11
34.694 141.945 30.7859 5.36759e-10 447594 141.684 5.3577e-10 4.19221e-09 57308.7 2.64449e+11
36.6634 148.929 36.3321 4.77198e-10 525078 148.656 4.76325e-10 3.58032e-09 69984.2 3.1209e+11
38.7447 156.315 42.8774 4.24407e-10 621924 156.045 4.23675e-10 3.05709e-09 86340.1 3.68314e+11
40.9442 163.853 50.6018 3.76963e-10 732630 163.562 3.76292e-10 2.60976e-09 105824 4.34667e+11
43.2685 173.224 59.7179 3.37685e-10 865596 172.935 3.37122e-10 2.22743e-09 131227 5.12973e+11
45.7247 181.984 70.4762 3.00608e-10 1.02168e+06 181.685 3.00114e-10 1.90073e-09 161582 6.05386e+11
48.3204 191.218 83.1727 2.67644e-10 1.20544e+06 190.876 2.67165e-10 1.62163e-09 198953 7.14448e+11
51.0634 200.703 98.1565 2.38037e-10 1.42103e+06 200.345 2.37613e-10 1.38326e-09 244537 8.43158e+11
53.9621 211.914 115.84 2.12967e-10 1.67997e+06 211.539 2.12591e-10 1.1797e-09 303278 9.95055e+11
57.0254 224.332 136.709 1.91032e-10 1.98018e+06 223.896 1.90661e-10 1.00592e-09 376051 1.17432e+12
60.2626 238.397 161.337 1.72019e-10 2.33957e+06 237.915 1.71672e-10 8.57591e-10 469280 1.38587e+12
63.6835 252.858 190.402 1.54602e-10 2.75676e+06 252.364 1.543e-10 7.3101e-10 583030 1.63554e+12
67.2987 271.251 224.704 1.40531e-10 3.25638e+06 270.728 1.4026e-10 6.23009e-10 734536 1.93019e+12
71.1191 290.216 265.185 1.27404e-10 3.84387e+06 289.606 1.27136e-10 5.30879e-10 922480 2.27792e+12
75.1563 312.809 312.958 1.1636e-10 4.53277e+06 312.151 1.16115e-10 4.52303e-10 1.1661e+06 2.68829e+12
79.4227 338.489 369.339 1.06691e-10 5.35083e+06 337.779 1.06468e-10 3.85299e-10 1.48167e+06 3.17259e+12
83.9313 368.984 435.876 9.85495e-11 6.32174e+06 368.142 9.83248e-11 3.28173e-10 1.8984e+06 3.74415e+12
88.6959 403.551 514.4 9.13288e-11 7.44986e+06 402.599 9.11134e-11 2.79476e-10 2.43451e+06 4.41866e+12
93.7309 444.932 607.071 8.53227e-11 8.79764e+06 443.866 8.51182e-11 2.37972e-10 3.15431e+06 5.2147e+12
99.0518 493.5 716.436 8.019e-11 1.03827e+07 492.287 7.99928e-11 2.02605e-10 4.10942e+06 6.15414e+12
104.675 550.237 845.504 7.57607e-11 1.22515e+07 548.797 7.55624e-11 1.72471e-10 5.38168e+06 7.26283e+12
110.617 618.202 997.824 7.21251e-11 1.44573e+07 616.552 7.19326e-11 1.468e-10 7.1031e+06 8.57124e+12
116.896 698.748 1177.58 6.90778e-11 1.70664e+07 696.807 6.88859e-11 1.24935e-10 9.4362e+06 1.01154e+13
123.532 793.515 1389.73 6.64715e-11 2.0139e+07 791.257 6.62823e-11 1.06313e-10 1.25917e+07 1.19377e+13
130.545 906.848 1640.09 6.43689e-11 2.37643e+07 904.227 6.41828e-11 9.04567e-11 1.69106e+07 1.40883e+13
137.955 1041.34 1935.56 6.26318e-11 2.80503e+07 1038.25 6.24463e-11 7.69563e-11 2.28291e+07 1.66263e+13
145.787 1201.19 2284.26 6.12176e-11 3.30981e+07 1197.53 6.10312e-11 6.54636e-11 3.09513e+07 1.96216e+13
154.063 1390.43 2695.77 6.00448e-11 3.90634e+07 1386.15 5.986e-11 5.56812e-11 4.21248e+07 2.31565e+13
162.808 1615.18 3181.42 5.91031e-11 4.61057e+07 1610.09 5.89169e-11 4.73556e-11 5.75431e+07 2.73282e+13
172.051 1882.76 3754.56 5.83774e-11 5.44046e+07 1876.78 5.81921e-11 4.02708e-11 7.8866e+07 3.22515e+13
181.818 2200.68 4430.96 5.78188e-11 6.42064e+07 2193.57 5.76319e-11 3.42426e-11 1.08413e+08 3.80616e+13
192.139 2579.16 5229.21 5.74187e-11 7.57748e+07 2570.81 5.72327e-11 2.91139e-11 1.49444e+08 4.49186e+13
203.046 3027.5 6171.26 5.71111e-11 8.94213e+07 3017.58 5.6924e-11 2.4751e-11 2.06333e+08 5.30108e+13
214.572 3562.55 7283.03 5.69454e-11 1.05538e+08 3550.75 5.67568e-11 2.10401e-11 2.85641e+08 6.25608e+13
226.753 4201.05 8595.09 5.69006e-11 1.24552e+08 4187.01 5.67105e-11 1.78839e-11 3.96282e+08 7.38313e+13
239.625 4965.4 10143.5 5.69869e-11 1.46987e+08 4948.65 5.67947e-11 1.51999e-11 5.51079e+08 8.71322e+13
253.228 5882.07 11970.9 5.72023e-11 1.7347e+08 5861.99 5.7007e-11 1.29176e-11 7.68166e+08 1.02829e+14
267.603 6988.3 14127.5 5.75859e-11 2.04703e+08 6964.17 5.73871e-11 1.09771e-11 1.07387e+09 1.21354e+14
282.795 8333.37 16672.6 5.81872e-11 2.4161e+08 8304.18 5.79834e-11 9.3274e-12 1.50724e+09 1.43217e+14
298.848 9978.39 19676.2 5.90377e-11 2.85122e+08 9942.69 5.88264e-11 7.925e-12 2.12403e+09 1.69017e+14
315.813 12023 23220.9 6.0276e-11 3.36491e+08 11978.8 6.00541e-11 6.73295e-12 3.0124e+09 1.99466e+14
333.741 14602.9 27404.3 6.20343e-11 3.97115e+08 14547.4 6.17983e-11 5.71979e-12 4.30693e+09 2.35401e+14
352.686 17930.5 32341.2 6.45426e-11 4.68637e+08 17859.1 6.42857e-11 4.85874e-12 6.22529e+09 2.77809e+14
372.707 22355.7 38167.6 6.81874e-11 5.53074e+08 22261.4 6.78997e-11 4.12703e-12 9.13797e+09 3.27857e+14
393.865 28472.6 45043.5 7.35876e-11 6.52716e+08 28342.9 7.32525e-11 3.50528e-12 1.37027e+10 3.86921e+14
416.224 33617.5 53158.3 7.36216e-11 2.2184e+08 35564.2 7.78847e-11 2.97701e-12 5.48611e+09 4.56626e+14
439.852 0 62734.9 0 0 0 0 2.52819e-12 0 5.38888e+14
464.821 0 74036.7 0 0 0 0 2.1469e-12 0 6.35971e+14
491.207 0 87374.6 0 0 0 0 1.82301e-12 0 7.50542e+14
519.092 0 103115 0 0 0 0 1.54789e-12 0 8.85755e+14
548.56 0 121692 0 0 0 0 1.31422e-12 0 1.04533e+15
579.7 0 143615 0 0 0 0 1.11576e-12 0 1.23364e+15
612.608 0 169488 0 0 0 0 9.47223e-13 0 1.45589e+15
647.384 0 200021 0 0 0 0 8.041e-13 0 1.71817e+15
684.134 0 236056 0 0 0 0 6.82568e-13 0 2.0277e+15
722.971 0 278582 0 0 0 0 5.79376e-13 0 2.393e+15
764.012 0 328769 0 0 0 0 4.91762e-13 0 2.8241e+15
0.543318
200
1.0655e+09
8589934592
0.0129181 0.000874154 1.58924e-09 6.40338e-05 6 0.000866151 6.34475e-05 0.00677225 0.0567319 13.6515
0.0136515 0 1.87554e-09 0 0 0 0 0.00688819 0 16.1108
0.0144264 0 2.21343e-09 0 0 0 0 0.00699249 0 19.0132
0.0152454 0 2.61218e-09 0 0 0 0 0.00708412 0 22.4385
0.0161108 0 3.08278e-09 0 0 0 0 0.00716212 0 26.4808
0.0170254 0 3.63815e-09 0 0 0 0 0.00722559 0 31.2514
0.0179919 0.0019475 4.29357e-09 5.28042e-05 12 0.00194499 5.27362e-05 0.00727371 0.0871152 36.8815
0.0190132 0 5.06707e-09 0 0 0 0 0.00730578 0 43.5258
0.0200925 0 5.97991e-09 0 0 0 0 0.00732122 0 51.367
0.0212331 0.00184459 7.05721e-09 3.04283e-05 8 0.00184299 3.04018e-05 0.00731958 0.0332569 60.621
0.0224385 0 8.32858e-09 0 0 0 0 0.00730056 0 71.542
0.0237123 0 9.829e-09 0 0 0 0 0.00726401 0 84.4305
0.0250583 0.0117178 1.15997e-08 0.0001176 6 0.0117122 0.000117545 0.00720995 0.0978647 99.6408
0.0264808 0 1.36894e-08 0 0 0 0 0.00713857 0 117.591
0.0279841 0.00723875 1.61556e-08 5.21614e-05 24 0.00723132 5.21079e-05 0.00705021 0.177566 138.776
0.0295727 0 1.90661e-08 0 0 0 0 0.00694538 0 163.777
0.0312514 0.0128964 2.25009e-08 6.67232e-05 24 0.0129618 6.7062e-05 0.00682475 0.234639 193.281
0.0330255 0 2.65545e-08 0 0 0 0 0.00668915 0 228.102
0.0349003 0.0190591 3.13384e-08 7.08003e-05 12 0.0189065 7.02334e-05 0.00653951 0.129919 269.195
0.0368815 0.0156661 3.69841e-08 4.93125e-05 30 0.0154993 4.87874e-05 0.00637693 0.231989 317.691
0.0389751 0.0180736 4.36469e-08 4.82059e-05 24 0.0178876 4.771e-05 0.00620256 0.186527 374.924
0.0411876 0.0115316 5.151e-08 2.60621e-05 24 0.0114533 2.58851e-05 0.00601767 0.103942 442.467
0.0435258 0.0273287 6.07896e-08 5.23359e-05 8 0.0273266 5.23319e-05 0.00582358 0.0718951 522.179
0.0459966 0.033976 7.1741e-08 5.51333e-05 72 0.0337078 5.46981e-05 0.00562166 0.706126 616.251
0.0486077 0 8.46654e-08 0 0 0 0 0.0054133 0 727.27
0.051367 0.0480195 9.99181e-08 5.59479e-05 54 0.0478626 5.57651e-05 0.00519989 0.58101 858.29
0.054283 0.0383044 1.17919e-07 3.78161e-05 60 0.0384734 3.7983e-05 0.0049828 0.455359 1012.91
0.0573645 0.0365404 1.39162e-07 3.05677e-05 96 0.0364466 3.04893e-05 0.00476339 0.616054 1195.39
0.060621 0.0429738 1.64232e-07 3.04618e-05 24 0.0423916 3.00491e-05 0.00454293 0.160928 1410.75
0.0640622 0.0747899 1.93819e-07 4.49217e-05 134 0.0748279 4.49445e-05 0.00432265 1.39255 1664.89
0.0676989 0.0726211 2.28736e-07 3.69605e-05 120 0.0722749 3.67843e-05 0.00410371 1.08079 1964.83
0.071542 0.0676473 2.69944e-07 2.91734e-05 108 0.0669068 2.88541e-05 0.00388717 0.810545 2318.8
0.0756032 0.0996665 3.18575e-07 3.64207e-05 174 0.099123 3.6222e-05 0.00367401 1.72487 2736.54
0.079895 0.10494 3.75967e-07 3.24937e-05 168 0.103954 3.21885e-05 0.0034651 1.57541 3229.53
0.0844305 0.0882453 4.43698e-07 2.31534e-05 168 0.0886857 2.32689e-05 0.00326121 1.19274 3811.34
0.0892234 0.102758 5.23632e-07 2.28454e-05 290 0.102298 2.27431e-05 0.00306301 2.16295 4497.96
0.0942883 0.128149 6.17966e-07 2.41414e-05 288 0.127854 2.40857e-05 0.00287109 2.42163 5308.28
0.0996408 0.11437 7.29294e-07 1.82566e-05 366 0.11346 1.81114e-05 0.00268591 2.48776 6264.59
0.105297 0.130917 8.60678e-07 1.77078e-05 420 0.129997 1.75834e-05 0.00250785 2.96559 7393.17
0.111275 0.140088 1.01573e-06 1.60559e-05 398 0.139671 1.6008e-05 0.00233721 2.73413 8725.07
0.117591 0.166901 1.19872e-06 1.62088e-05 624 0.167306 1.62481e-05 0.00217419 4.65198 10296.9
0.124267 0.190809 1.41467e-06 1.57019e-05 642 0.190437 1.56714e-05 0.00201893 4.99307 12151.9
0.131321 0.232921 1.66953e-06 1.62415e-05 800 0.232998 1.62468e-05 0.00187147 6.94278 14341.1
0.138776 0.210667 1.9703e-06 1.24473e-05 858 0.211614 1.25033e-05 0.00173182 6.16681 16924.7
0.146654 0.238954 2.32525e-06 1.19634e-05 1080 0.240961 1.20639e-05 0.00159991 8.07576 19973.8
0.154979 0.281468 2.74415e-06 1.19407e-05 1286 0.283305 1.20187e-05 0.00147563 10.4062 23572.1
0.163777 0.269554 3.23852e-06 9.68968e-06 1650 0.270227 9.71386e-06 0.00135884 11.7659 27818.7
0.173074 0.308617 3.82195e-06 9.40037e-06 1778 0.308759 9.40469e-06 0.00124933 13.3782 32830.3
0.182899 0.314857 4.51048e-06 8.12645e-06 2112 0.315651 8.14694e-06 0.00114689 14.9649 38744.7
0.193281 0.355436 5.32305e-06 7.77339e-06 2570 0.355811 7.7816e-06 0.00105127 19.0033 45724.7
0.204254 0.414086 6.28202e-06 7.67364e-06 3030 0.41384 7.66909e-06 0.000962209 24.1643 53962.1
0.215848 0.422873 7.41374e-06 6.64022e-06 3434 0.422691 6.63737e-06 0.000879423 25.929 63683.5
0.228102 0.444871 8.74934e-06 5.91928e-06 4218 0.444806 5.91841e-06 0.000802624 31.1074 75156.3
0.24105 0.496505 1.03256e-05 5.59783e-06 4766 0.496851 5.60173e-06 0.000731515 36.4712 88695.9
0.254734 0.542349 1.21857e-05 5.18128e-06 6026 0.542314 5.18095e-06 0.000665798 46.8947 104675
0.269195 0.599081 1.4381e-05 4.84959e-06 6480 0.598544 4.84525e-06 0.000605173 51.9279 123532
0.284476 0.652405 1.69718e-05 4.47506e-06 8162 0.653765 4.48439e-06 0.000549345 66.4891 145787
0.300625 0.696187 2.00293e-05 4.04641e-06 9578 0.696755 4.04971e-06 0.000498021 77.8211 172051
0.317691 0.766442 2.36377e-05 3.77472e-06 11234 0.765552 3.77034e-06 0.000450916 94.0422 203046
0.335725 0.825784 2.78961e-05 3.44615e-06 13344 0.824436 3.44052e-06 0.000407755 112.777 239625
0.354784 0.901086 3.29216e-05 3.18636e-06 15464 0.900394 3.18391e-06 0.000368269 133.799 282795
0.374924 0.962302 3.88525e-05 2.88338e-06 18458 0.961882 2.88213e-06 0.000332202 160.208 333741
0.396207 1.08711 4.58519e-05 2.76012e-06 22232 1.08572 2.75658e-06 0.000299307 205.017 393865
0.418699 1.16265 5.41123e-05 2.50129e-06 25628 1.15974 2.49502e-06 0.00026935 237.992 464821
0.442467 1.2687 6.38607e-05 2.31278e-06 30320 1.26615 2.30814e-06 0.000242108 289.637 548560
0.467585 1.39313 7.53654e-05 2.15194e-06 35452 1.39089 2.14848e-06 0.00021737 350.971 647384
0.494129 1.52786 8.89427e-05 1.99978e-06 41792 1.52685 1.99846e-06 0.000194938 428.724 764012
0.522179 1.69867 0.000104966 1.88396e-06 49988 1.69851 1.88378e-06 0.000174625 539.301 901651
0.551822 1.85248 0.000123876 1.74091e-06 59110 1.85005 1.73863e-06 0.000156255 658.573 1.06409e+06
0.583147 2.03337 0.000146192 1.6192e-06 69716 2.02974 1.61632e-06 0.000139664 808.257 1.25578e+06
0.616251 2.23851 0.000172529 1.51045e-06 82210 2.23385 1.5073e-06 0.0001247 995.781 1.48202e+06
0.651234 2.45265 0.000203611 1.40231e-06 96722 2.44739 1.3993e-06 0.00011122 1219.51 1.74901e+06
0.688203 2.72689 0.000240292 1.32111e-06 113098 2.72249 1.31898e-06 9.90935e-05 1507.82 2.06409e+06
0.72727 2.98932 0.000283581 1.22717e-06 135190 2.98514 1.22545e-06 8.81969e-05 1881.03 2.43595e+06
0.768555 3.29344 0.000334669 1.14563e-06 158170 3.28926 1.14418e-06 7.84179e-05 2310.75 2.87479e+06
0.812184 3.68183 0.000394961 1.08522e-06 188560 3.67584 1.08346e-06 6.96525e-05 2937.87 3.39269e+06
0.85829 4.06533 0.000466114 1.01534e-06 220444 4.0589 1.01374e-06 6.1805e-05 3621.5 4.00389e+06
0.907013 4.51077 0.000550086 9.5462e-07 261388 4.50409 9.53205e-07 5.47875e-05 4554.44 4.7252e+06
0.958501 5.00617 0.000649185 8.97733e-07 308244 4.99882 8.96415e-07 4.85194e-05 5703.3 5.57646e+06
1.01291 5.59056 0.000766138 8.4949e-07 364396 5.5813 8.48084e-07 4.29272e-05 7211.07 6.58107e+06
1.07041 6.20277 0.00090416 7.98639e-07 429162 6.19207 7.97262e-07 3.79435e-05 9033.06 7.76667e+06
1.13118 6.91451 0.00106705 7.54377e-07 506358 6.90291 7.53111e-07 3.3507e-05 11400.1 9.16586e+06
1.19539 7.68903 0.00125928 7.10821e-07 598590 7.67512 7.09535e-07 2.9562e-05 14393.1 1.08171e+07
1.26325 8.55418 0.00148614 6.70084e-07 704844 8.53903 6.68896e-07 2.60578e-05 18125.3 1.27658e+07
1.33496 9.55303 0.00175387 6.34094e-07 834620 9.53396 6.32828e-07 2.29484e-05 23061.6 1.50656e+07
1.41075 10.5764 0.00206984 5.94856e-07 981444 10.5547 5.93634e-07 2.01923e-05 28912.9 1.77798e+07
1.49083 11.7955 0.00244272 5.62151e-07 1.15998e+06 11.7736 5.61104e-07 1.77518e-05 36733.4 2.09828e+07
1.57546 13.0819 0.00288279 5.28287e-07 1.36931e+06 13.0568 5.27273e-07 1.55929e-05 46392.3 2.4763e+07
1.66489 14.4981 0.00340213 4.96102e-07 1.61652e+06 14.4701 4.95142e-07 1.3685e-05 58601.1 2.92241e+07
1.75941 16.0674 0.00401503 4.65873e-07 1.90601e+06 16.037 4.6499e-07 1.20007e-05 73992.2 3.44889e+07
1.85928 17.8185 0.00473835 4.37778e-07 2.24913e+06 17.7848 4.3695e-07 1.05151e-05 93638.5 4.07021e+07
1.96483 19.6981 0.00559198 4.1008e-07 2.65744e+06 19.6598 4.09282e-07 9.20606e-06 118374 4.80347e+07
2.07637 21.7364 0.00659939 3.83438e-07 3.13125e+06 21.6958 3.82721e-07 8.05366e-06 149080 5.66883e+07
2.19424 23.8748 0.00778828 3.56869e-07 3.69915e+06 23.8302 3.56201e-07 7.04008e-06 187514 6.69008e+07
2.3188 26.2411 0.00919136 3.32363e-07 4.36472e+06 26.1921 3.31742e-07 6.1494e-06 235905 7.89532e+07
2.45043 28.7397 0.0108472 3.08443e-07 5.14913e+06 28.6868 3.07875e-07 5.36741e-06 295899 9.31768e+07
2.58954 31.4384 0.0128014 2.859e-07 6.07894e+06 31.3815 2.85383e-07 4.68145e-06 371246 1.09963e+08
2.73654 34.2774 0.0151076 2.64134e-07 7.17304e+06 34.2155 2.63656e-07 4.08023e-06 464347 1.29773e+08
2.89188 37.2807 0.0178292 2.43423e-07 8.46557e+06 37.2132 2.42982e-07 3.55373e-06 579874 1.53152e+08
3.05605 40.4379 0.0210412 2.23732e-07 9.98773e+06 40.3664 2.23336e-07 3.09304e-06 722452 1.80743e+08
3.22953 43.8121 0.0248319 2.05397e-07 1.1797e+07 43.7349 2.05036e-07 2.69025e-06 900688 2.13304e+08
3.41286 47.3903 0.0293054 1.88257e-07 1.39144e+07 47.3064 1.87924e-07 2.33837e-06 1.12022e+06 2.51731e+08
3.6066 51.1014 0.0345848 1.72011e-07 1.64163e+07 51.0137 1.71716e-07 2.0312e-06 1.39021e+06 2.97081e+08
3.81134 54.9452 0.0408154 1.56717e-07 1.93821e+07 54.8515 1.5645e-07 1.76327e-06 1.72266e+06 3.50601e+08
4.0277 58.9384 0.0481684 1.42445e-07 2.28754e+07 58.8378 1.42202e-07 1.52972e-06 2.13011e+06 4.13763e+08
4.25634 63.2025 0.056846 1.29433e-07 2.69929e+07 63.0929 1.29208e-07 1.32631e-06 2.63421e+06 4.88304e+08
4.49796 67.646 0.067087 1.17385e-07 3.18542e+07 67.5316 1.17187e-07 1.14926e-06 3.2536e+06 5.76273e+08
4.7533 72.2166 0.0791729 1.06187e-07 3.75892e+07 72.0968 1.06011e-07 9.95263e-07 4.01047e+06 6.8009e+08
5.02313 77.002 0.0934361 9.59394e-08 4.43706e+07 76.8752 9.57815e-08 8.61414e-07 4.94175e+06 8.0261e+08
5.30828 81.9374 0.110269 8.65046e-08 5.23593e+07 81.8024 8.63621e-08 7.45152e-07 6.07838e+06 9.47202e+08
5.60962 87.1004 0.130134 7.79183e-08 6.1787e+07 86.9578 7.77906e-08 6.44232e-07 7.47299e+06 1.11784e+09
5.92807 92.48 0.153578 7.01017e-08 7.29346e+07 92.328 6.99865e-08 5.56685e-07 9.18444e+06 1.31923e+09
6.26459 98.1201 0.181246 6.30232e-08 8.60651e+07 97.9574 6.29187e-08 4.80786e-07 1.12817e+07 1.55689e+09
6.62021 104.002 0.213898 5.66039e-08 1.01558e+08 103.832 5.65115e-08 4.15026e-07 1.38511e+07 1.83737e+09
6.99602 110.141 0.252432 5.07941e-08 1.1986e+08 109.96 5.0711e-08 3.58083e-07 1.70021e+07 2.16837e+09
7.39317 116.534 0.297908 4.55388e-08 1.41457e+08 116.344 4.54645e-08 3.08803e-07 2.08604e+07 2.55901e+09
7.81286 123.265 0.351577 4.08158e-08 1.66936e+08 123.064 4.07495e-08 2.66181e-07 2.55977e+07 3.02002e+09
8.25637 130.329 0.414914 3.65673e-08 1.97025e+08 130.116 3.65076e-08 2.29336e-07 3.14153e+07 3.56409e+09
8.72507 137.805 0.489662 3.27626e-08 2.32497e+08 137.577 3.27085e-08 1.97503e-07 3.85675e+07 4.20617e+09
9.22037 145.782 0.577876 2.93684e-08 2.74404e+08 145.54 2.93195e-08 1.70014e-07 4.74008e+07 4.96392e+09
9.74378 154.451 0.681982 2.6365e-08 3.2382e+08 154.188 2.632e-08 1.46289e-07 5.83606e+07 5.85818e+09
10.2969 164.362 0.804843 2.37739e-08 3.82165e+08 164.07 2.37316e-08 1.25822e-07 7.22095e+07 6.91355e+09
10.8814 176.039 0.949838 2.15759e-08 4.51027e+08 175.705 2.1535e-08 1.08175e-07 8.99584e+07 8.15905e+09
11.4992 190.974 1.12095 1.98334e-08 5.32251e+08 190.57 1.97914e-08 9.29669e-08 1.1355e+08 9.62892e+09
12.1519 212.1 1.3229 1.86649e-08 6.28157e+08 211.571 1.86183e-08 7.98658e-08 1.46802e+08 1.13636e+10
12.8418 235.81 1.56122 1.75836e-08 3.82727e+08 244.071 1.81996e-08 6.85852e-08 9.81219e+07 1.34108e+10
13.5708 0 1.84248 0 0 0 0 5.88765e-08 0 1.58268e+10
14.3411 0 2.17441 0 0 0 0 5.05241e-08 0 1.8678e+10
15.1552 0 2.56613 0 0 0 0 4.33417e-08 0 2.20429e+10
16.0156 0 3.02843 0 0 0 0 3.71677e-08 0 2.6014e+10
16.9247 0 3.574 0 0 0 0 3.18628e-08 0 3.07005e+10
17.8855 0 4.21787 0 0 0 0 2.73063e-08 0 3.62312e+10
18.9008 0 4.97773 0 0 0 0 2.33941e-08 0 4.27584e+10
19.9738 0 5.87448 0 0 0 0 2.00364e-08 0 5.04614e+10
21.1076 0 6.93279 0 0 0 0 1.71555e-08 0 5.95522e+10
22.3058 0 8.18175 0 0 0 0 1.46847e-08 0 7.02807e+10
23.5721 0 9.65571 0 0 0 0 1.25662e-08 0 8.29419e+10
24.9102 0 11.3952 0 0 0 0 1.07504e-08 0 9.78842e+10
26.3243 0 13.4481 0 0 0 0 9.19452e-09 0 1.15518e+11
27.8187 0 15.8708 0 0 0 0 7.86182e-09 0 1.36329e+11
29.3979 0 18.73 0 0 0 0 6.72061e-09 0 1.60889e+11
31.0667 0 22.1042 0 0 0 0 5.74366e-09 0 1.89874e+11
32.8303 0 26.0864 0 0 0 0 4.90756e-09 0 2.2408e+11
34.694 0 30.7859 0 0 0 0 4.19221e-09 0 2.64449e+11
36.6634 0 36.3321 0 0 0 0 3.58032e-09 0 3.1209e+11
38.7447 0 42.8774 0 0 0 0 3.05709e-09 0 3.68314e+11
40.9442 0 50.6018 0 0 0 0 2.60976e-09 0 4.34667e+11
43.2685 0 59.7179 0 0 0 0 2.22743e-09 0 5.12973e+11
45.7247 0 70.4762 0 0 0 0 1.90073e-09 0 6.05386e+11
48.3204 0 83.1727 0 0 0 0 1.62163e-09 0 7.14448e+11
51.0634 0 98.1565 0 0 0 0 1.38326e-09 0 8.43158e+11
53.9621 0 115.84 0 0 0 0 1.1797e-09 0 9.95055e+11
57.0254 0 136.709 0 0 0 0 1.00592e-09 0 1.17432e+12
60.2626 0 161.337 0 0 0 0 8.57591e-10 0 1.38587e+12
63.6835 0 190.402 0 0 0 0 7.3101e-10 0 1.63554e+12
67.2987 0 224.704 0 0 0 0 6.23009e-10 0 1.93019e+12
71.1191 0 265.185 0 0 0 0 5.30879e-10 0 2.27792e+12
75.1563 0 312.958 0 0 0 0 4.52303e-10 0 2.68829e+12
79.4227 0 369.339 0 0 0 0 3.85299e-10 0 3.17259e+12
83.9313 0 435.876 0 0 0 0 3.28173e-10 0 3.74415e+12
88.6959 0 514.4 0 0 0 0 2.79476e-10 0 4.41866e+12
93.7309 0 607.071 0 0 0 0 2.37972e-10 0 5.2147e+12
99.0518 0 716.436 0 0 0 0 2.02605e-10 0 6.15414e+12
104.675 0 845.504 0 0 0 0 1.72471e-10 0 7.26283e+12
110.617 0 997.824 0 0 0 0 1.468e-10 0 8.57124e+12
116.896 0 1177.58 0 0 0 0 1.24935e-10 0 1.01154e+13
123.532 0 1389.73 0 0 0 0 1.06313e-10 0 1.19377e+13
130.545 0 1640.09 0 0 0 0 9.04567e-11 0 1.40883e+13
137.955 0 1935.56 0 0 0 0 7.69563e-11 0 1.66263e+13
145.787 0 2284.26 0 0 0 0 6.54636e-11 0 1.96216e+13
154.063 0 2695.77 0 0 0 0 5.56812e-11 0 2.31565e+13
162.808 0 3181.42 0 0 0 0 4.73556e-11 0 2.73282e+13
172.051 0 3754.56 0 0 0 0 4.02708e-11 0 3.22515e+13
181.818 0 4430.96 0 0 0 0 3.42426e-11 0 3.80616e+13
192.139 0 5229.21 0 0 0 0 2.91139e-11 0 4.49186e+13
203.046 0 6171.26 0 0 0 0 2.4751e-11 0 5.30108e+13
214.572 0 7283.03 0 0 0 0 2.10401e-11 0 6.25608e+13
226.753 0 8595.09 0 0 0 0 1.78839e-11 0 7.38313e+13
239.625 0 10143.5 0 0 0 0 1.51999e-11 0 8.71322e+13
253.228 0 11970.9 0 0 0 0 1.29176e-11 0 1.02829e+14
267.603 0 14127.5 0 0 0 0 1.09771e-11 0 1.21354e+14
282.795 0 16672.6 0 0 0 0 9.3274e-12 0 1.43217e+14
298.848 0 19676.2 0 0 0 0 7.925e-12 0 1.69017e+14
315.813 0 23220.9 0 0 0 0 6.73295e-12 0 1.99466e+14
333.741 0 27404.3 0 0 0 0 5.71979e-12 0 2.35401e+14
352.686 0 32341.2 0 0 0 0 4.85874e-12 0 2.77809e+14
372.707 0 38167.6 0 0 0 0 4.12703e-12 0 3.27857e+14
393.865 0 45043.5 0 0 0 0 3.50528e-12 0 3.86921e+14
416.224 0 53158.3 0 0 0 0 2.97701e-12 0 4.56626e+14
439.852 0 62734.9 0 0 0 0 2.52819e-12 0 5.38888e+14
464.821 0 74036.7 0 0 0 0 2.1469e-12 0 6.35971e+14
491.207 0 87374.6 0 0 0 0 1.82301e-12 0 7.50542e+14
519.092 0 103115 0 0 0 0 1.54789e-12 0 8.85755e+14
548.56 0 121692 0 0 0 0 1.31422e-12 0 1.04533e+15
579.7 0 143615 0 0 0 0 1.11576e-12 0 1.23364e+15
612.608 0 169488 0 0 0 0 9.47223e-13 0 1.45589e+15
647.384 0 200021 0 0 0 0 8.041e-13 0 1.71817e+15
684.134 0 236056 0 0 0 0 6.82568e-13 0 2.0277e+15
722.971 0 278582 0 0 0 0 5.79376e-13 0 2.393e+15
764.012 0 328769 0 0 0 0 4.91762e-13 0 2.8241e+15
