0.506728
200
1.0655e+09
8589934592
0.0129181 0 1.58924e-09 0 0 0 0 0.00677225 0 13.6515
0.0136515 0 1.87554e-09 0 0 0 0 0.00688819 0 16.1108
0.0144264 0 2.21343e-09 0 0 0 0 0.00699249 0 19.0132
0.0152454 0 2.61218e-09 0 0 0 0 0.00708412 0 22.4385
0.0161108 0 3.08278e-09 0 0 0 0 0.00716212 0 26.4808
0.0170254 0 3.63815e-09 0 0 0 0 0.00722559 0 31.2514
0.0179919 0 4.29357e-09 0 0 0 0 0.00727371 0 36.8815
0.0190132 0 5.06707e-09 0 0 0 0 0.00730578 0 43.5258
0.0200925 0 5.97991e-09 0 0 0 0 0.00732122 0 51.367
0.0212331 0 7.05721e-09 0 0 0 0 0.00731958 0 60.621
0.0224385 0 8.32858e-09 0 0 0 0 0.00730056 0 71.542
0.0237123 0 9.829e-09 0 0 0 0 0.00726401 0 84.4305
0.0250583 0 1.15997e-08 0 0 0 0 0.00720995 0 99.6408
0.0264808 0 1.36894e-08 0 0 0 0 0.00713857 0 117.591
0.0279841 0 1.61556e-08 0 0 0 0 0.00705021 0 138.776
0.0295727 0 1.90661e-08 0 0 0 0 0.00694538 0 163.777
0.0312514 0 2.25009e-08 0 0 0 0 0.00682475 0 193.281
0.0330255 0 2.65545e-08 0 0 0 0 0.00668915 0 228.102
0.0349003 0 3.13384e-08 0 0 0 0 0.00653951 0 269.195
0.0368815 0 3.69841e-08 0 0 0 0 0.00637693 0 317.691
0.0389751 0 4.36469e-08 0 0 0 0 0.00620256 0 374.924
0.0411876 0 5.151e-08 0 0 0 0 0.00601767 0 442.467
0.0435258 0 6.07896e-08 0 0 0 0 0.00582358 0 522.179
0.0459966 0 7.1741e-08 0 0 0 0 0.00562166 0 616.251
0.0486077 0 8.46654e-08 0 0 0 0 0.0054133 0 727.27
0.051367 0 9.99181e-08 0 0 0 0 0.00519989 0 858.29
0.054283 0 1.17919e-07 0 0 0 0 0.0049828 0 1012.91
0.0573645 0 1.39162e-07 0 0 0 0 0.00476339 0 1195.39
0.060621 0 1.64232e-07 0 0 0 0 0.00454293 0 1410.75
0.0640622 0 1.93819e-07 0 0 0 0 0.00432265 0 1664.89
0.0676989 0 2.28736e-07 0 0 0 0 0.00410371 0 1964.83
0.071542 0 2.69944e-07 0 0 0 0 0.00388717 0 2318.8
0.0756032 0 3.18575e-07 0 0 0 0 0.00367401 0 2736.54
0.079895 0 3.75967e-07 0 0 0 0 0.0034651 0 3229.53
0.0844305 0 4.43698e-07 0 0 0 0 0.00326121 0 3811.34
0.0892234 0 5.23632e-07 0 0 0 0 0.00306301 0 4497.96
0.0942883 0 6.17966e-07 0 0 0 0 0.00287109 0 5308.28
0.0996408 0 7.29294e-07 0 0 0 0 0.00268591 0 6264.59
0.105297 0 8.60678e-07 0 0 0 0 0.00250785 0 7393.17
0.111275 0 1.01573e-06 0 0 0 0 0.00233721 0 8725.07
0.117591 0 1.19872e-06 0 0 0 0 0.00217419 0 10296.9
0.124267 0 1.41467e-06 0 0 0 0 0.00201893 0 12151.9
0.131321 0 1.66953e-06 0 0 0 0 0.00187147 0 14341.1
0.138776 0 1.9703e-06 0 0 0 0 0.00173182 0 16924.7
0.146654 0 2.32525e-06 0 0 0 0 0.00159991 0 19973.8
0.154979 0 2.74415e-06 0 0 0 0 0.00147563 0 23572.1
0.163777 0 3.23852e-06 0 0 0 0 0.00135884 0 27818.7
0.173074 0 3.82195e-06 0 0 0 0 0.00124933 0 32830.3
0.182899 0 4.51048e-06 0 0 0 0 0.00114689 0 38744.7
0.193281 0 5.32305e-06 0 0 0 0 0.00105127 0 45724.7
0.204254 0 6.28202e-06 0 0 0 0 0.000962209 0 53962.1
0.215848 0 7.41374e-06 0 0 0 0 0.000879423 0 63683.5
0.228102 0 8.74934e-06 0 0 0 0 0.000802624 0 75156.3
0.24105 0 1.03256e-05 0 0 0 0 0.000731515 0 88695.9
0.254734 0 1.21857e-05 0 0 0 0 0.000665798 0 104675
0.269195 0 1.4381e-05 0 0 0 0 0.000605173 0 123532
0.284476 0 1.69718e-05 0 0 0 0 0.000549345 0 145787
0.300625 0 2.00293e-05 0 0 0 0 0.000498021 0 172051
0.317691 0 2.36377e-05 0 0 0 0 0.000450916 0 203046
0.335725 0 2.78961e-05 0 0 0 0 0.000407755 0 239625
0.354784 0 3.29216e-05 0 0 0 0 0.000368269 0 282795
0.374924 0 3.88525e-05 0 0 0 0 0.000332202 0 333741
0.396207 1.84637 4.58519e-05 4.68783e-06 6 1.79504 4.5575e-06 0.000299307 0.0939738 393865
0.418699 0 5.41123e-05 0 0 0 0 0.00026935 0 464821
0.442467 0 6.38607e-05 0 0 0 0 0.000242108 0 548560
0.467585 0 7.53654e-05 0 0 0 0 0.00021737 0 647384
0.494129 0 8.89427e-05 0 0 0 0 0.000194938 0 764012
0.522179 0 0.000104966 0 0 0 0 0.000174625 0 901651
0.551822 0 0.000123876 0 0 0 0 0.000156255 0 1.06409e+06
0.583147 6.87179 0.000146192 5.47212e-06 12 7.2326 5.75943e-06 0.000139664 0.470167 1.25578e+06
0.616251 0 0.000172529 0 0 0 0 0.0001247 0 1.48202e+06
0.651234 0 0.000203611 0 0 0 0 0.00011122 0 1.74901e+06
0.688203 20.4466 0.000240292 9.90587e-06 8 19.938 9.65943e-06 9.90935e-05 0.799719 2.06409e+06
0.72727 0 0.000283581 0 0 0 0 8.81969e-05 0 2.43595e+06
0.768555 0 0.000334669 0 0 0 0 7.84179e-05 0 2.87479e+06
0.812184 4.90799 0.000394961 1.44664e-06 6 5.01292 1.47757e-06 6.96525e-05 0.124616 3.39269e+06
0.85829 0 0.000466114 0 0 0 0 6.1805e-05 0 4.00389e+06
0.907013 1.02333 0.000550086 2.16569e-07 24 1.04297 2.20725e-07 5.47875e-05 0.0948695 4.7252e+06
0.958501 2.42513 0.000649185 4.34888e-07 24 2.28308 4.09415e-07 4.85194e-05 0.215116 5.57646e+06
1.01291 0 0.000766138 0 0 0 0 4.29272e-05 0 6.58107e+06
1.07041 0 0.00090416 0 0 0 0 3.79435e-05 0 7.76667e+06
1.13118 4.70436 0.00106705 5.13248e-07 12 4.64657 5.06943e-07 3.3507e-05 0.183811 9.16586e+06
1.19539 2.56182 0.00125928 2.3683e-07 30 2.50901 2.31948e-07 2.9562e-05 0.240339 1.08171e+07
1.26325 12.0282 0.00148614 9.42217e-07 24 11.8472 9.28039e-07 2.60578e-05 0.867809 1.27658e+07
1.33496 19.1317 0.00175387 1.26989e-06 24 19.1737 1.27268e-06 2.29484e-05 1.32808 1.50656e+07
1.41075 14.2383 0.00206984 8.00817e-07 32 14.5265 8.17026e-07 2.01923e-05 1.2691 1.77798e+07
1.49083 2.84972 0.00244272 1.35812e-07 48 2.78897 1.32917e-07 1.77518e-05 0.36723 2.09828e+07
1.57546 9.35914 0.00288279 3.77949e-07 6 8.91201 3.59893e-07 1.55929e-05 0.145432 2.4763e+07
1.66489 3.91011 0.00340213 1.33798e-07 84 3.82788 1.30984e-07 1.3685e-05 0.821264 2.92241e+07
1.75941 4.60762 0.00401503 1.33597e-07 48 4.54662 1.31829e-07 1.20007e-05 0.534359 3.44889e+07
1.85928 5.45081 0.00473835 1.3392e-07 72 5.52318 1.35698e-07 1.05151e-05 0.916987 4.07021e+07
1.96483 6.92395 0.00559198 1.44145e-07 54 6.76848 1.40908e-07 9.20606e-06 0.84551 4.80347e+07
2.07637 14.0218 0.00659939 2.47349e-07 104 14.1127 2.48953e-07 8.05366e-06 3.19412 5.66883e+07
2.19424 4.4553 0.00778828 6.65956e-08 120 4.52694 6.76665e-08 7.04008e-06 1.13514 6.69008e+07
2.3188 6.41252 0.00919136 8.12193e-08 156 6.22621 7.88595e-08 6.1494e-06 2.0604 7.89532e+07
2.45043 8.04762 0.0108472 8.63694e-08 126 8.05385 8.64362e-08 5.36741e-06 2.02752 9.31768e+07
2.58954 7.67574 0.0128014 6.9803e-08 192 7.74052 7.03921e-08 4.68145e-06 2.86283 1.09963e+08
2.73654 23.8419 0.0151076 1.8372e-07 152 24.2089 1.86548e-07 4.08023e-06 6.84408 1.29773e+08
2.89188 11.0259 0.0178292 7.19935e-08 378 11.1186 7.25984e-08 3.55373e-06 7.65773 1.53152e+08
3.05605 9.18231 0.0210412 5.08032e-08 264 9.05938 5.01231e-08 3.09304e-06 4.3362 1.80743e+08
3.22953 9.3348 0.0248319 4.37629e-08 366 9.28521 4.35304e-08 2.69025e-06 5.95379 2.13304e+08
3.41286 9.37626 0.0293054 3.72471e-08 428 9.27916 3.68614e-08 2.33837e-06 6.81745 2.51731e+08
3.6066 13.8751 0.0345848 4.67048e-08 486 13.6209 4.58491e-08 2.0312e-06 11.1749 2.97081e+08
3.81134 13.4178 0.0408154 3.82708e-08 600 13.4023 3.82266e-08 1.76327e-06 13.0227 3.50601e+08
4.0277 14.7389 0.0481684 3.56216e-08 738 14.6209 3.53363e-08 1.52972e-06 17.1853 4.13763e+08
4.25634 15.51 0.056846 3.1763e-08 824 15.5169 3.17772e-08 1.32631e-06 19.7335 4.88304e+08
4.49796 17.756 0.067087 3.08119e-08 954 17.6579 3.06416e-08 1.14926e-06 25.577 5.76273e+08
4.7533 16.6894 0.0791729 2.45401e-08 1094 16.5746 2.43712e-08 9.95263e-07 26.9746 6.8009e+08
5.02313 17.9401 0.0934361 2.23521e-08 1332 18.0127 2.24426e-08 8.61414e-07 34.563 8.0261e+08
5.30828 22.8291 0.110269 2.41016e-08 1614 22.8192 2.40911e-08 7.45152e-07 52.2041 9.47202e+08
5.60962 24.3064 0.130134 2.1744e-08 1850 24.2255 2.16716e-08 6.44232e-07 62.4408 1.11784e+09
5.92807 22.2412 0.153578 1.68592e-08 2238 22.2286 1.68497e-08 5.56685e-07 67.778 1.31923e+09
6.26459 23.9311 0.181246 1.53711e-08 2546 24.0283 1.54336e-08 4.80786e-07 81.3976 1.55689e+09
6.62021 23.3802 0.213898 1.27248e-08 3264 23.4082 1.27401e-08 4.15026e-07 100.075 1.83737e+09
6.99602 26.7428 0.252432 1.23331e-08 3506 26.7847 1.23524e-08 3.58083e-07 120.754 2.16837e+09
7.39317 27.2397 0.297908 1.06446e-08 4506 27.2359 1.06431e-08 3.08803e-07 155.324 2.55901e+09
7.81286 30.6337 0.351577 1.01435e-08 5018 30.5488 1.01154e-08 2.66181e-07 191.224 3.02002e+09
8.25637 34.0577 0.414914 9.55579e-09 5852 34.0575 9.55574e-09 2.29336e-07 243.836 3.56409e+09
8.72507 35.3374 0.489662 8.40134e-09 7362 35.2624 8.38351e-09 1.97503e-07 313.163 4.20617e+09
9.22037 37.7557 0.577876 7.60602e-09 8306 37.6643 7.58762e-09 1.70014e-07 371.59 4.96392e+09
9.74378 38.6524 0.681982 6.59801e-09 9698 38.6002 6.58912e-09 1.46289e-07 437.405 5.85818e+09
10.2969 42.59 0.804843 6.16037e-09 11816 42.5745 6.15813e-09 1.25822e-07 578.521 6.91355e+09
10.8814 44.9076 0.949838 5.50402e-09 13682 44.8236 5.49372e-09 1.08175e-07 696.147 8.15905e+09
11.4992 47.4045 1.12095 4.92314e-09 16152 47.3539 4.91789e-09 9.29669e-08 855.342 9.62892e+09
12.1519 49.4661 1.3229 4.35303e-09 19472 49.3885 4.34621e-09 7.98658e-08 1061.31 1.13636e+10
12.8418 50.9303 1.56122 3.79772e-09 22670 50.8145 3.78908e-09 6.85852e-08 1255.29 1.34108e+10
13.5708 55.1753 1.84248 3.4862e-09 26224 55.0943 3.48108e-09 5.88765e-08 1552.78 1.58268e+10
14.3411 57.9967 2.17441 3.10508e-09 31640 57.933 3.10167e-09 5.05241e-08 1944.51 1.8678e+10
15.1552 61.3642 2.56613 2.78385e-09 37484 61.2561 2.77895e-09 4.33417e-08 2407.61 2.20429e+10
16.0156 64.0846 3.02843 2.46347e-09 43856 63.9706 2.45909e-09 3.71677e-08 2906.76 2.6014e+10
16.9247 68.9334 3.574 2.24535e-09 51362 68.8766 2.2435e-09 3.18628e-08 3619.45 3.07005e+10
17.8855 73.0687 4.21787 2.01673e-09 61636 72.9597 2.01372e-09 2.73063e-08 4552.18 3.62312e+10
18.9008 74.9337 4.97773 1.75249e-09 72218 74.7963 1.74928e-09 2.33941e-08 5409.96 4.27584e+10
19.9738 80.2643 5.87448 1.59061e-09 84586 80.1309 1.58796e-09 2.00364e-08 6714.94 5.04614e+10
21.1076 84.2576 6.93279 1.41485e-09 100708 84.1056 1.4123e-09 1.71555e-08 8305.6 5.95522e+10
22.3058 89.068 8.18175 1.26732e-09 118712 88.9175 1.26518e-09 1.46847e-08 10245.1 7.02807e+10
23.5721 93.1437 9.65571 1.123e-09 140410 92.9629 1.12082e-09 1.25662e-08 12548 8.29419e+10
24.9102 97.8945 11.3952 1.00011e-09 164374 97.6984 9.98102e-10 1.07504e-08 15291.7 9.78842e+10
26.3243 102.476 13.4481 8.87102e-10 194680 102.324 8.85783e-10 9.19452e-09 18783 1.15518e+11
27.8187 108.049 15.8708 7.9256e-10 230196 107.883 7.91342e-10 7.86182e-09 23206.3 1.36329e+11
29.3979 112.537 18.73 6.99466e-10 271156 112.346 6.98282e-10 6.72061e-09 28221.3 1.60889e+11
31.0667 118.888 22.1042 6.2614e-10 321076 118.686 6.25081e-10 5.74366e-09 35001.8 1.89874e+11
32.8303 124.298 26.0864 5.54702e-10 377436 124.081 5.53737e-10 4.90756e-09 42661.6 2.2408e+11
34.694 130.384 30.7859 4.9304e-10 447594 130.149 4.92153e-10 4.19221e-09 52640.9 2.64449e+11
36.6634 136.835 36.3321 4.38446e-10 525078 136.578 4.37625e-10 3.58032e-09 64301 3.1209e+11
38.7447 143.646 42.8774 3.90011e-10 621924 143.391 3.89318e-10 3.05709e-09 79342.6 3.68314e+11
40.9442 151.05 50.6018 3.47507e-10 732630 150.79 3.4691e-10 2.60976e-09 97554.7 4.34667e+11
43.2685 158.894 59.7179 3.09751e-10 865596 158.632 3.09241e-10 2.22743e-09 120372 5.12973e+11
45.7247 167.583 70.4762 2.76819e-10 1.02168e+06 167.304 2.76359e-10 1.90073e-09 148795 6.05386e+11
48.3204 176.012 83.1727 2.46361e-10 1.20544e+06 175.681 2.45897e-10 1.62163e-09 183132 7.14448e+11
51.0634 186.3 98.1565 2.20955e-10 1.42103e+06 185.965 2.20558e-10 1.38326e-09 226989 8.43158e+11
53.9621 196.905 115.84 1.97884e-10 1.67997e+06 196.583 1.9756e-10 1.1797e-09 281798 9.95055e+11
57.0254 208.518 136.709 1.77566e-10 1.98018e+06 208.115 1.77223e-10 1.00592e-09 349543 1.17432e+12
60.2626 221.884 161.337 1.60104e-10 2.33957e+06 221.454 1.59794e-10 8.57591e-10 436775 1.38587e+12
63.6835 237.214 190.402 1.45037e-10 2.75676e+06 236.743 1.44749e-10 7.3101e-10 546960 1.63554e+12
67.2987 254.246 224.704 1.31721e-10 3.25638e+06 253.729 1.31453e-10 6.23009e-10 688485 1.93019e+12
71.1191 273.833 265.185 1.20212e-10 3.84387e+06 273.241 1.19952e-10 5.30879e-10 870403 2.27792e+12
75.1563 296.59 312.958 1.10326e-10 4.53277e+06 295.95 1.10089e-10 4.52303e-10 1.10564e+06 2.68829e+12
79.4227 322.221 369.339 1.01564e-10 5.35083e+06 321.525 1.01345e-10 3.85299e-10 1.41046e+06 3.17259e+12
83.9313 353.442 435.876 9.43987e-11 6.32174e+06 352.614 9.41775e-11 3.28173e-10 1.81844e+06 3.74415e+12
88.6959 388.426 514.4 8.79058e-11 7.44986e+06 387.472 8.76898e-11 2.79476e-10 2.34326e+06 4.41866e+12
93.7309 430.379 607.071 8.2532e-11 8.79764e+06 429.326 8.23301e-11 2.37972e-10 3.05114e+06 5.2147e+12
99.0518 480.164 716.436 7.80229e-11 1.03827e+07 478.912 7.78195e-11 2.02605e-10 3.99836e+06 6.15414e+12
104.675 538.199 845.504 7.41033e-11 1.22515e+07 536.749 7.39036e-11 1.72471e-10 5.26395e+06 7.26283e+12
110.617 606.913 997.824 7.08081e-11 1.44573e+07 605.239 7.06128e-11 1.468e-10 6.9734e+06 8.57124e+12
116.896 689.194 1177.58 6.81333e-11 1.70664e+07 687.259 6.7942e-11 1.24935e-10 9.30718e+06 1.01154e+13
123.532 786.809 1389.73 6.59097e-11 2.0139e+07 784.514 6.57174e-11 1.06313e-10 1.24853e+07 1.19377e+13
130.545 902.453 1640.09 6.40569e-11 2.37643e+07 899.768 6.38663e-11 9.04567e-11 1.68287e+07 1.40883e+13
137.955 1039.96 1935.56 6.25488e-11 2.80503e+07 1036.82 6.23599e-11 7.69563e-11 2.27988e+07 1.66263e+13
145.787 1203.43 2284.26 6.13319e-11 3.30981e+07 1199.74 6.11439e-11 6.54636e-11 3.10091e+07 1.96216e+13
154.063 1396.43 2695.77 6.0304e-11 3.90634e+07 1392.07 6.01157e-11 5.56812e-11 4.23066e+07 2.31565e+13
162.808 1626.73 3181.42 5.95256e-11 4.61057e+07 1621.57 5.93368e-11 4.73556e-11 5.79545e+07 2.73282e+13
172.051 1899.37 3754.56 5.88926e-11 5.44046e+07 1893.28 5.87038e-11 4.02708e-11 7.9562e+07 3.22515e+13
181.818 2223.18 4430.96 5.841e-11 6.42064e+07 2215.98 5.82208e-11 3.42426e-11 1.09521e+08 3.80616e+13
192.139 2608.56 5229.21 5.80731e-11 7.57748e+07 2600.07 5.7884e-11 2.91139e-11 1.51147e+08 4.49186e+13
203.046 3066.19 6171.26 5.78408e-11 8.94213e+07 3056.14 5.76513e-11 2.4751e-11 2.08969e+08 5.30108e+13
214.572 3611.97 7283.03 5.77354e-11 1.05538e+08 3599.94 5.7543e-11 2.10401e-11 2.89604e+08 6.25608e+13
226.753 4260.99 8595.09 5.77125e-11 1.24552e+08 4246.74 5.75195e-11 1.78839e-11 4.01936e+08 7.38313e+13
239.625 5039.7 10143.5 5.78397e-11 1.46987e+08 5022.6 5.76435e-11 1.51999e-11 5.59326e+08 8.71322e+13
253.228 5972.18 11970.9 5.80786e-11 1.7347e+08 5951.75 5.78799e-11 1.29176e-11 7.79934e+08 1.02829e+14
267.603 7098.52 14127.5 5.84942e-11 2.04703e+08 7073.95 5.82917e-11 1.09771e-11 1.09081e+09 1.21354e+14
282.795 8466.09 16672.6 5.91139e-11 2.4161e+08 8436.38 5.89064e-11 9.3274e-12 1.53124e+09 1.43217e+14
298.848 10141.1 19676.2 6.00005e-11 2.85122e+08 10104.7 5.97851e-11 7.925e-12 2.15867e+09 1.69017e+14
315.813 12219.8 23220.9 6.12624e-11 3.36491e+08 12174.9 6.10372e-11 6.73295e-12 3.0617e+09 1.99466e+14
333.741 14842 27404.3 6.305e-11 3.97115e+08 14785.5 6.281e-11 5.71979e-12 4.37745e+09 2.35401e+14
352.686 18226.4 32341.2 6.56076e-11 4.68637e+08 18153.8 6.53465e-11 4.85874e-12 6.32801e+09 2.77809e+14
372.707 22724.3 38167.6 6.93116e-11 5.53074e+08 22628.5 6.90194e-11 4.12703e-12 9.28862e+09 3.27857e+14
393.865 28941.6 45043.5 7.47998e-11 6.52716e+08 28809.8 7.44592e-11 3.50528e-12 1.39284e+10 3.86921e+14
416.224 34173.4 53158.3 7.4839e-11 2.2184e+08 36152.3 7.91728e-11 2.97701e-12 5.57683e+09 4.56626e+14
439.852 0 62734.9 0 0 0 0 2.52819e-12 0 5.38888e+14
464.821 0 74036.7 0 0 0 0 2.1469e-12 0 6.35971e+14
491.207 0 87374.6 0 0 0 0 1.82301e-12 0 7.50542e+14
519.092 0 103115 0 0 0 0 1.54789e-12 0 8.85755e+14
548.56 0 121692 0 0 0 0 1.31422e-12 0 1.04533e+15
579.7 0 143615 0 0 0 0 1.11576e-12 0 1.23364e+15
612.608 0 169488 0 0 0 0 9.47223e-13 0 1.45589e+15
647.384 0 200021 0 0 0 0 8.041e-13 0 1.71817e+15
684.134 0 236056 0 0 0 0 6.82568e-13 0 2.0277e+15
722.971 0 278582 0 0 0 0 5.79376e-13 0 2.393e+15
764.012 0 328769 0 0 0 0 4.91762e-13 0 2.8241e+15
0.506728
200
1.0655e+09
8589934592
0.0129181 0.000774227 1.58924e-09 5.67139e-05 6 0.000767139 5.61947e-05 0.00677225 0.0502467 13.6515
0.0136515 0 1.87554e-09 0 0 0 0 0.00688819 0 16.1108
0.0144264 0 2.21343e-09 0 0 0 0 0.00699249 0 19.0132
0.0152454 0 2.61218e-09 0 0 0 0 0.00708412 0 22.4385
0.0161108 0 3.08278e-09 0 0 0 0 0.00716212 0 26.4808
0.0170254 0 3.63815e-09 0 0 0 0 0.00722559 0 31.2514
0.0179919 0.00172455 4.29357e-09 4.67594e-05 12 0.00172233 4.66991e-05 0.00727371 0.0771426 36.8815
0.0190132 0 5.06707e-09 0 0 0 0 0.00730578 0 43.5258
0.0200925 0 5.97991e-09 0 0 0 0 0.00732122 0 51.367
0.0212331 0.00163329 7.05721e-09 2.69427e-05 8 0.00163187 2.69193e-05 0.00731958 0.0294473 60.621
0.0224385 0 8.32858e-09 0 0 0 0 0.00730056 0 71.542
0.0237123 0 9.829e-09 0 0 0 0 0.00726401 0 84.4305
0.0250583 0.0103862 1.15997e-08 0.000104236 6 0.0103813 0.000104187 0.00720995 0.0867433 99.6408
0.0264808 0 1.36894e-08 0 0 0 0 0.00713857 0 117.591
0.0279841 0.00641956 1.61556e-08 4.62585e-05 24 0.00641297 4.6211e-05 0.00705021 0.157471 138.776
0.0295727 0 1.90661e-08 0 0 0 0 0.00694538 0 163.777
0.0312514 0.0114417 2.25009e-08 5.91971e-05 24 0.0114998 5.94976e-05 0.00682475 0.208173 193.281
0.0330255 0 2.65545e-08 0 0 0 0 0.00668915 0 228.102
0.0349003 0.0168398 3.13384e-08 6.25563e-05 12 0.016705 6.20554e-05 0.00653951 0.114791 269.195
0.0368815 0.0138972 3.69841e-08 4.37444e-05 30 0.0137492 4.32786e-05 0.00637693 0.205794 317.691
0.0389751 0.0160764 4.36469e-08 4.28791e-05 24 0.015911 4.2438e-05 0.00620256 0.165915 374.924
0.0411876 0.0102497 5.151e-08 2.31649e-05 24 0.0101801 2.30076e-05 0.00601767 0.0923875 442.467
0.0435258 0.0241203 6.07896e-08 4.61917e-05 8 0.0241185 4.61881e-05 0.00582358 0.0634547 522.179
0.0459966 0.0300528 7.1741e-08 4.87672e-05 72 0.0298155 4.83822e-05 0.00562166 0.624591 616.251
0.0486077 0 8.46654e-08 0 0 0 0 0.0054133 0 727.27
0.051367 0.0426656 9.99181e-08 4.971e-05 54 0.0425265 4.9548e-05 0.00519989 0.51623 858.29
0.054283 0.0339655 1.17919e-07 3.35325e-05 60 0.0341147 3.36798e-05 0.0049828 0.403779 1012.91
0.0573645 0.0325057 1.39162e-07 2.71925e-05 96 0.0324223 2.71227e-05 0.00476339 0.548031 1195.39
0.060621 0.0381703 1.64232e-07 2.70568e-05 24 0.0376532 2.66903e-05 0.00454293 0.14294 1410.75
0.0640622 0.0665347 1.93819e-07 3.99633e-05 134 0.0665689 3.99839e-05 0.00432265 1.23884 1664.89
0.0676989 0.06453 2.28736e-07 3.28425e-05 120 0.0642235 3.26866e-05 0.00410371 0.960375 1964.83
0.071542 0.0600168 2.69944e-07 2.58827e-05 108 0.0593606 2.55997e-05 0.00388717 0.719117 2318.8
0.0756032 0.0883358 3.18575e-07 3.22802e-05 174 0.0878556 3.21047e-05 0.00367401 1.52878 2736.54
0.079895 0.0931126 3.75967e-07 2.88316e-05 168 0.092238 2.85608e-05 0.0034651 1.39786 3229.53
0.0844305 0.0784051 4.43698e-07 2.05715e-05 168 0.0787967 2.06743e-05 0.00326121 1.05974 3811.34
0.0892234 0.0909574 5.23632e-07 2.02219e-05 290 0.0905529 2.0132e-05 0.00306301 1.91457 4497.96
0.0942883 0.113932 6.17966e-07 2.1463e-05 288 0.113667 2.14131e-05 0.00287109 2.15296 5308.28
0.0996408 0.101713 7.29294e-07 1.62362e-05 366 0.1009 1.61064e-05 0.00268591 2.21245 6264.59
0.105297 0.115934 8.60678e-07 1.56813e-05 420 0.115121 1.55713e-05 0.00250785 2.6262 7393.17
0.111275 0.124018 1.01573e-06 1.4214e-05 398 0.123648 1.41716e-05 0.00233721 2.42048 8725.07
0.117591 0.147761 1.19872e-06 1.435e-05 624 0.148112 1.43842e-05 0.00217419 4.1185 10296.9
0.124267 0.168516 1.41467e-06 1.38675e-05 642 0.168197 1.38412e-05 0.00201893 4.40973 12151.9
0.131321 0.206632 1.66953e-06 1.44084e-05 800 0.206701 1.44132e-05 0.00187147 6.15917 14341.1
0.138776 0.186507 1.9703e-06 1.10198e-05 858 0.187352 1.10697e-05 0.00173182 5.45957 16924.7
0.146654 0.210703 2.32525e-06 1.0549e-05 1080 0.212473 1.06376e-05 0.00159991 7.12097 19973.8
0.154979 0.248571 2.74415e-06 1.05452e-05 1286 0.250203 1.06144e-05 0.00147563 9.18999 23572.1
0.163777 0.237376 3.23852e-06 8.53299e-06 1650 0.237954 8.55374e-06 0.00135884 10.3614 27818.7
0.173074 0.272785 3.82195e-06 8.30896e-06 1778 0.272899 8.31241e-06 0.00124933 11.825 32830.3
0.182899 0.276377 4.51048e-06 7.13328e-06 2112 0.277078 7.15138e-06 0.00114689 13.1359 38744.7
0.193281 0.313267 5.32305e-06 6.85116e-06 2570 0.31361 6.85866e-06 0.00105127 16.7488 45724.7
0.204254 0.364173 6.28202e-06 6.74868e-06 3030 0.363957 6.74468e-06 0.000962209 21.2516 53962.1
0.215848 0.370794 7.41374e-06 5.82245e-06 3434 0.370634 5.81993e-06 0.000879423 22.7357 63683.5
0.228102 0.389637 8.74934e-06 5.18436e-06 4218 0.389606 5.18395e-06 0.000802624 27.2452 75156.3
0.24105 0.435217 1.03256e-05 4.90685e-06 4766 0.435533 4.91041e-06 0.000731515 31.9693 88695.9
0.254734 0.475292 1.21857e-05 4.54066e-06 6026 0.475253 4.54028e-06 0.000665798 41.0965 104675
0.269195 0.522188 1.4381e-05 4.22715e-06 6480 0.521724 4.22339e-06 0.000605173 45.2629 123532
0.284476 0.569503 1.69718e-05 3.90641e-06 8162 0.570708 3.91467e-06 0.000549345 58.0403 145787
0.300625 0.603704 2.00293e-05 3.50887e-06 9578 0.604226 3.51191e-06 0.000498021 67.4831 172051
0.317691 0.665554 2.36377e-05 3.27785e-06 11234 0.664784 3.27406e-06 0.000450916 81.6633 203046
0.335725 0.715663 2.78961e-05 2.98659e-06 13344 0.714557 2.98198e-06 0.000407755 97.7378 239625
0.354784 0.777331 3.29216e-05 2.74875e-06 15464 0.776728 2.74662e-06 0.000368269 115.423 282795
0.374924 0.830369 3.88525e-05 2.48807e-06 18458 0.830073 2.48718e-06 0.000332202 138.244 333741
0.396207 0.932407 4.58519e-05 2.36733e-06 22232 0.931219 2.36431e-06 0.000299307 175.841 393865
0.418699 0.997537 5.41123e-05 2.14607e-06 25628 0.995026 2.14066e-06 0.00026935 204.193 464821
0.442467 1.08924 6.38607e-05 1.98563e-06 30320 1.08699 1.98154e-06 0.000242108 248.667 548560
0.467585 1.18696 7.53654e-05 1.83347e-06 35452 1.18511 1.83062e-06 0.00021737 299.029 647384
0.494129 1.30142 8.89427e-05 1.7034e-06 41792 1.30066 1.70241e-06 0.000194938 365.184 764012
0.522179 1.44139 0.000104966 1.59861e-06 49988 1.44121 1.59841e-06 0.000174625 457.618 901651
0.551822 1.56683 0.000123876 1.47247e-06 59110 1.56484 1.47059e-06 0.000156255 557.024 1.06409e+06
0.583147 1.71526 0.000146192 1.36589e-06 69716 1.71224 1.36348e-06 0.000139664 681.808 1.25578e+06
0.616251 1.88359 0.000172529 1.27097e-06 82210 1.87966 1.26831e-06 0.0001247 837.899 1.48202e+06
0.651234 2.05835 0.000203611 1.17687e-06 96722 2.05406 1.17442e-06 0.00011122 1023.45 1.74901e+06
0.688203 2.27884 0.000240292 1.10404e-06 113098 2.2751 1.10223e-06 9.90935e-05 1260.07 2.06409e+06
0.72727 2.49576 0.000283581 1.02455e-06 135190 2.49228 1.02313e-06 8.81969e-05 1570.46 2.43595e+06
0.768555 2.74474 0.000334669 9.54763e-07 158170 2.74119 9.53527e-07 7.84179e-05 1925.77 2.87479e+06
0.812184 3.06301 0.000394961 9.02826e-07 188560 3.05805 9.01364e-07 6.96525e-05 2444.09 3.39269e+06
0.85829 3.3721 0.000466114 8.42206e-07 220444 3.36682 8.40888e-07 6.1805e-05 3003.95 4.00389e+06
0.907013 3.73392 0.000550086 7.90214e-07 261388 3.72848 7.89063e-07 5.47875e-05 3770.07 4.7252e+06
0.958501 4.13663 0.000649185 7.41802e-07 308244 4.13038 7.40682e-07 4.85194e-05 4712.67 5.57646e+06
1.01291 4.60806 0.000766138 7.00198e-07 364396 4.6005 6.9905e-07 4.29272e-05 5943.78 6.58107e+06
1.07041 5.10624 0.00090416 6.57456e-07 429162 5.09745 6.56323e-07 3.79435e-05 7436.2 7.76667e+06
1.13118 5.67607 0.00106705 6.19262e-07 506358 5.66653 6.18221e-07 3.3507e-05 9358.29 9.16586e+06
1.19539 6.30123 0.00125928 5.82524e-07 598590 6.29002 5.81488e-07 2.9562e-05 11795.3 1.08171e+07
1.26325 7.00786 0.00148614 5.48954e-07 704844 6.99564 5.47997e-07 2.60578e-05 14848.8 1.27658e+07
1.33496 7.80765 0.00175387 5.18242e-07 834620 7.79238 5.17228e-07 2.29484e-05 18848.1 1.50656e+07
1.41075 8.64186 0.00206984 4.8605e-07 981444 8.62414 4.85054e-07 2.01923e-05 23624.4 1.77798e+07
1.49083 9.62342 0.00244272 4.58633e-07 1.15998e+06 9.60577 4.57792e-07 1.77518e-05 29969.1 2.09828e+07
1.57546 10.6599 0.00288279 4.30476e-07 1.36931e+06 10.6392 4.29641e-07 1.55929e-05 37802.9 2.4763e+07
1.66489 11.8388 0.00340213 4.05105e-07 1.61652e+06 11.8154 4.04304e-07 1.3685e-05 47852.2 2.92241e+07
1.75941 13.1283 0.00401503 3.80652e-07 1.90601e+06 13.1035 3.79934e-07 1.20007e-05 60457 3.44889e+07
1.85928 14.5626 0.00473835 3.57785e-07 2.24913e+06 14.5352 3.57113e-07 1.05151e-05 76528.4 4.07021e+07
1.96483 16.1167 0.00559198 3.35523e-07 2.65744e+06 16.0849 3.3486e-07 9.20606e-06 96852.8 4.80347e+07
2.07637 17.7896 0.00659939 3.13815e-07 3.13125e+06 17.7565 3.1323e-07 8.05366e-06 122011 5.66883e+07
2.19424 19.5857 0.00778828 2.92758e-07 3.69915e+06 19.5486 2.92203e-07 7.04008e-06 153827 6.69008e+07
2.3188 21.5725 0.00919136 2.73232e-07 4.36472e+06 21.5316 2.72714e-07 6.1494e-06 193934 7.89532e+07
2.45043 23.7017 0.0108472 2.54373e-07 5.14913e+06 23.6564 2.53887e-07 5.36741e-06 244029 9.31768e+07
2.58954 25.9794 0.0128014 2.36256e-07 6.07894e+06 25.9311 2.35817e-07 4.68145e-06 306782 1.09963e+08
2.73654 28.3992 0.0151076 2.18837e-07 7.17304e+06 28.3466 2.18433e-07 4.08023e-06 384715 1.29773e+08
2.89188 31.012 0.0178292 2.02492e-07 8.46557e+06 30.9549 2.02119e-07 3.55373e-06 482368 1.53152e+08
3.05605 33.7687 0.0210412 1.86833e-07 9.98773e+06 33.7073 1.86493e-07 3.09304e-06 603302 1.80743e+08
3.22953 36.7132 0.0248319 1.72117e-07 1.1797e+07 36.648 1.71811e-07 2.69025e-06 754749 2.13304e+08
3.41286 39.8346 0.0293054 1.58243e-07 1.39144e+07 39.7634 1.5796e-07 2.33837e-06 941616 2.51731e+08
3.6066 43.0505 0.0345848 1.44911e-07 1.64163e+07 42.976 1.44661e-07 2.0312e-06 1.17118e+06 2.97081e+08
3.81134 46.4356 0.0408154 1.32446e-07 1.93821e+07 46.3547 1.32215e-07 1.76327e-06 1.45587e+06 3.50601e+08
4.0277 49.9627 0.0481684 1.20752e-07 2.28754e+07 49.8749 1.2054e-07 1.52972e-06 1.80572e+06 4.13763e+08
4.25634 53.6681 0.056846 1.09907e-07 2.69929e+07 53.5753 1.09717e-07 1.32631e-06 2.23682e+06 4.88304e+08
4.49796 57.491 0.067087 9.97635e-08 3.18542e+07 57.3925 9.95926e-08 1.14926e-06 2.76517e+06 5.76273e+08
4.7533 61.4481 0.0791729 9.0353e-08 3.75892e+07 61.3449 9.02012e-08 9.95263e-07 3.41246e+06 6.8009e+08
5.02313 65.6224 0.0934361 8.17613e-08 4.43706e+07 65.5131 8.16251e-08 8.61414e-07 4.21145e+06 8.0261e+08
5.30828 69.9235 0.110269 7.38211e-08 5.23593e+07 69.8075 7.36986e-08 7.45152e-07 5.18715e+06 9.47202e+08
5.60962 74.4563 0.130134 6.66071e-08 6.1787e+07 74.333 6.64968e-08 6.44232e-07 6.38815e+06 1.11784e+09
5.92807 79.1798 0.153578 6.00199e-08 7.29346e+07 79.0486 5.99205e-08 5.56685e-07 7.86356e+06 1.31923e+09
6.26459 84.0709 0.181246 5.39993e-08 8.60651e+07 83.9324 5.39103e-08 4.80786e-07 9.66636e+06 1.55689e+09
6.62021 89.1604 0.213898 4.85262e-08 1.01558e+08 89.014 4.84465e-08 4.15026e-07 1.18745e+07 1.83737e+09
6.99602 94.4203 0.252432 4.35443e-08 1.1986e+08 94.2662 4.34732e-08 3.58083e-07 1.45755e+07 2.16837e+09
7.39317 99.93 0.297908 3.90503e-08 1.41457e+08 99.7661 3.89862e-08 3.08803e-07 1.78882e+07 2.55901e+09
7.81286 105.745 0.351577 3.50145e-08 1.66936e+08 105.572 3.49573e-08 2.66181e-07 2.19594e+07 3.02002e+09
8.25637 111.833 0.414914 3.13777e-08 1.97025e+08 111.65 3.13264e-08 2.29336e-07 2.69569e+07 3.56409e+09
8.72507 118.261 0.489662 2.8116e-08 2.32497e+08 118.066 2.80697e-08 1.97503e-07 3.30976e+07 4.20617e+09
9.22037 125.166 0.577876 2.52151e-08 2.74404e+08 124.957 2.51731e-08 1.70014e-07 4.06973e+07 4.96392e+09
9.74378 132.713 0.681982 2.26542e-08 3.2382e+08 132.486 2.26155e-08 1.46289e-07 5.01466e+07 5.85818e+09
10.2969 141.219 0.804843 2.04264e-08 3.82165e+08 140.969 2.03902e-08 1.25822e-07 6.20419e+07 6.91355e+09
10.8814 151.33 0.949838 1.85476e-08 4.51027e+08 151.043 1.85123e-08 1.08175e-07 7.73322e+07 8.15905e+09
11.4992 164.316 1.12095 1.70648e-08 5.32251e+08 163.966 1.70285e-08 9.29669e-08 9.76991e+07 9.62892e+09
12.1519 182.586 1.3229 1.60676e-08 6.28157e+08 182.128 1.60273e-08 7.98658e-08 1.26374e+08 1.13636e+10
12.8418 203.13 1.56122 1.51467e-08 3.82727e+08 210.245 1.56773e-08 6.85852e-08 8.45235e+07 1.34108e+10
13.5708 0 1.84248 0 0 0 0 5.88765e-08 0 1.58268e+10
14.3411 0 2.17441 0 0 0 0 5.05241e-08 0 1.8678e+10
15.1552 0 2.56613 0 0 0 0 4.33417e-08 0 2.20429e+10
16.0156 0 3.02843 0 0 0 0 3.71677e-08 0 2.6014e+10
16.9247 0 3.574 0 0 0 0 3.18628e-08 0 3.07005e+10
17.8855 0 4.21787 0 0 0 0 2.73063e-08 0 3.62312e+10
18.9008 0 4.97773 0 0 0 0 2.33941e-08 0 4.27584e+10
19.9738 0 5.87448 0 0 0 0 2.00364e-08 0 5.04614e+10
21.1076 0 6.93279 0 0 0 0 1.71555e-08 0 5.95522e+10
22.3058 0 8.18175 0 0 0 0 1.46847e-08 0 7.02807e+10
23.5721 0 9.65571 0 0 0 0 1.25662e-08 0 8.29419e+10
24.9102 0 11.3952 0 0 0 0 1.07504e-08 0 9.78842e+10
26.3243 0 13.4481 0 0 0 0 9.19452e-09 0 1.15518e+11
27.8187 0 15.8708 0 0 0 0 7.86182e-09 0 1.36329e+11
29.3979 0 18.73 0 0 0 0 6.72061e-09 0 1.60889e+11
31.0667 0 22.1042 0 0 0 0 5.74366e-09 0 1.89874e+11
32.8303 0 26.0864 0 0 0 0 4.90756e-09 0 2.2408e+11
34.694 0 30.7859 0 0 0 0 4.19221e-09 0 2.64449e+11
36.6634 0 36.3321 0 0 0 0 3.58032e-09 0 3.1209e+11
38.7447 0 42.8774 0 0 0 0 3.05709e-09 0 3.68314e+11
40.9442 0 50.6018 0 0 0 0 2.60976e-09 0 4.34667e+11
43.2685 0 59.7179 0 0 0 0 2.22743e-09 0 5.12973e+11
45.7247 0 70.4762 0 0 0 0 1.90073e-09 0 6.05386e+11
48.3204 0 83.1727 0 0 0 0 1.62163e-09 0 7.14448e+11
51.0634 0 98.1565 0 0 0 0 1.38326e-09 0 8.43158e+11
53.9621 0 115.84 0 0 0 0 1.1797e-09 0 9.95055e+11
57.0254 0 136.709 0 0 0 0 1.00592e-09 0 1.17432e+12
60.2626 0 161.337 0 0 0 0 8.57591e-10 0 1.38587e+12
63.6835 0 190.402 0 0 0 0 7.3101e-10 0 1.63554e+12
67.2987 0 224.704 0 0 0 0 6.23009e-10 0 1.93019e+12
71.1191 0 265.185 0 0 0 0 5.30879e-10 0 2.27792e+12
75.1563 0 312.958 0 0 0 0 4.52303e-10 0 2.68829e+12
79.4227 0 369.339 0 0 0 0 3.85299e-10 0 3.17259e+12
83.9313 0 435.876 0 0 0 0 3.28173e-10 0 3.74415e+12
88.6959 0 514.4 0 0 0 0 2.79476e-10 0 4.41866e+12
93.7309 0 607.071 0 0 0 0 2.37972e-10 0 5.2147e+12
99.0518 0 716.436 0 0 0 0 2.02605e-10 0 6.15414e+12
104.675 0 845.504 0 0 0 0 1.72471e-10 0 7.26283e+12
110.617 0 997.824 0 0 0 0 1.468e-10 0 8.57124e+12
116.896 0 1177.58 0 0 0 0 1.24935e-10 0 1.01154e+13
123.532 0 1389.73 0 0 0 0 1.06313e-10 0 1.19377e+13
130.545 0 1640.09 0 0 0 0 9.04567e-11 0 1.40883e+13
137.955 0 1935.56 0 0 0 0 7.69563e-11 0 1.66263e+13
145.787 0 2284.26 0 0 0 0 6.54636e-11 0 1.96216e+13
154.063 0 2695.77 0 0 0 0 5.56812e-11 0 2.31565e+13
162.808 0 3181.42 0 0 0 0 4.73556e-11 0 2.73282e+13
172.051 0 3754.56 0 0 0 0 4.02708e-11 0 3.22515e+13
181.818 0 4430.96 0 0 0 0 3.42426e-11 0 3.80616e+13
192.139 0 5229.21 0 0 0 0 2.91139e-11 0 4.49186e+13
203.046 0 6171.26 0 0 0 0 2.4751e-11 0 5.30108e+13
214.572 0 7283.03 0 0 0 0 2.10401e-11 0 6.25608e+13
226.753 0 8595.09 0 0 0 0 1.78839e-11 0 7.38313e+13
239.625 0 10143.5 0 0 0 0 1.51999e-11 0 8.71322e+13
253.228 0 11970.9 0 0 0 0 1.29176e-11 0 1.02829e+14
267.603 0 14127.5 0 0 0 0 1.09771e-11 0 1.21354e+14
282.795 0 16672.6 0 0 0 0 9.3274e-12 0 1.43217e+14
298.848 0 19676.2 0 0 0 0 7.925e-12 0 1.69017e+14
315.813 0 23220.9 0 0 0 0 6.73295e-12 0 1.99466e+14
333.741 0 27404.3 0 0 0 0 5.71979e-12 0 2.35401e+14
352.686 0 32341.2 0 0 0 0 4.85874e-12 0 2.77809e+14
372.707 0 38167.6 0 0 0 0 4.12703e-12 0 3.27857e+14
393.865 0 45043.5 0 0 0 0 3.50528e-12 0 3.86921e+14
416.224 0 53158.3 0 0 0 0 2.97701e-12 0 4.56626e+14
439.852 0 62734.9 0 0 0 0 2.52819e-12 0 5.38888e+14
464.821 0 74036.7 0 0 0 0 2.1469e-12 0 6.35971e+14
491.207 0 87374.6 0 0 0 0 1.82301e-12 0 7.50542e+14
519.092 0 103115 0 0 0 0 1.54789e-12 0 8.85755e+14
548.56 0 121692 0 0 0 0 1.31422e-12 0 1.04533e+15
579.7 0 143615 0 0 0 0 1.11576e-12 0 1.23364e+15
612.608 0 169488 0 0 0 0 9.47223e-13 0 1.45589e+15
647.384 0 200021 0 0 0 0 8.041e-13 0 1.71817e+15
684.134 0 236056 0 0 0 0 6.82568e-13 0 2.0277e+15
722.971 0 278582 0 0 0 0 5.79376e-13 0 2.393e+15
764.012 0 328769 0 0 0 0 4.91762e-13 0 2.8241e+15
