0.139277
200
1.0655e+09
8589934592
0.0129181 0 1.58924e-09 0 0 0 0 0.00677225 0 13.6515
0.0136515 0 1.87554e-09 0 0 0 0 0.00688819 0 16.1108
0.0144264 0 2.21343e-09 0 0 0 0 0.00699249 0 19.0132
0.0152454 0 2.61218e-09 0 0 0 0 0.00708412 0 22.4385
0.0161108 0 3.08278e-09 0 0 0 0 0.00716212 0 26.4808
0.0170254 0 3.63815e-09 0 0 0 0 0.00722559 0 31.2514
0.0179919 0 4.29357e-09 0 0 0 0 0.00727371 0 36.8815
0.0190132 0 5.06707e-09 0 0 0 0 0.00730578 0 43.5258
0.0200925 0 5.97991e-09 0 0 0 0 0.00732122 0 51.367
0.0212331 0 7.05721e-09 0 0 0 0 0.00731958 0 60.621
0.0224385 0 8.32858e-09 0 0 0 0 0.00730056 0 71.542
0.0237123 0 9.829e-09 0 0 0 0 0.00726401 0 84.4305
0.0250583 0 1.15997e-08 0 0 0 0 0.00720995 0 99.6408
0.0264808 0 1.36894e-08 0 0 0 0 0.00713857 0 117.591
0.0279841 0 1.61556e-08 0 0 0 0 0.00705021 0 138.776
0.0295727 0 1.90661e-08 0 0 0 0 0.00694538 0 163.777
0.0312514 0 2.25009e-08 0 0 0 0 0.00682475 0 193.281
0.0330255 0 2.65545e-08 0 0 0 0 0.00668915 0 228.102
0.0349003 0 3.13384e-08 0 0 0 0 0.00653951 0 269.195
0.0368815 0 3.69841e-08 0 0 0 0 0.00637693 0 317.691
0.0389751 0 4.36469e-08 0 0 0 0 0.00620256 0 374.924
0.0411876 0 5.151e-08 0 0 0 0 0.00601767 0 442.467
0.0435258 0 6.07896e-08 0 0 0 0 0.00582358 0 522.179
0.0459966 0 7.1741e-08 0 0 0 0 0.00562166 0 616.251
0.0486077 0 8.46654e-08 0 0 0 0 0.0054133 0 727.27
0.051367 0 9.99181e-08 0 0 0 0 0.00519989 0 858.29
0.054283 0 1.17919e-07 0 0 0 0 0.0049828 0 1012.91
0.0573645 0 1.39162e-07 0 0 0 0 0.00476339 0 1195.39
0.060621 0 1.64232e-07 0 0 0 0 0.00454293 0 1410.75
0.0640622 0 1.93819e-07 0 0 0 0 0.00432265 0 1664.89
0.0676989 0 2.28736e-07 0 0 0 0 0.00410371 0 1964.83
0.071542 0 2.69944e-07 0 0 0 0 0.00388717 0 2318.8
0.0756032 0 3.18575e-07 0 0 0 0 0.00367401 0 2736.54
0.079895 0 3.75967e-07 0 0 0 0 0.0034651 0 3229.53
0.0844305 0 4.43698e-07 0 0 0 0 0.00326121 0 3811.34
0.0892234 0 5.23632e-07 0 0 0 0 0.00306301 0 4497.96
0.0942883 0 6.17966e-07 0 0 0 0 0.00287109 0 5308.28
0.0996408 0 7.29294e-07 0 0 0 0 0.00268591 0 6264.59
0.105297 0 8.60678e-07 0 0 0 0 0.00250785 0 7393.17
0.111275 0 1.01573e-06 0 0 0 0 0.00233721 0 8725.07
0.117591 0 1.19872e-06 0 0 0 0 0.00217419 0 10296.9
0.124267 0 1.41467e-06 0 0 0 0 0.00201893 0 12151.9
0.131321 0 1.66953e-06 0 0 0 0 0.00187147 0 14341.1
0.138776 0 1.9703e-06 0 0 0 0 0.00173182 0 16924.7
0.146654 0 2.32525e-06 0 0 0 0 0.00159991 0 19973.8
0.154979 0 2.74415e-06 0 0 0 0 0.00147563 0 23572.1
0.163777 0 3.23852e-06 0 0 0 0 0.00135884 0 27818.7
0.173074 0 3.82195e-06 0 0 0 0 0.00124933 0 32830.3
0.182899 0 4.51048e-06 0 0 0 0 0.00114689 0 38744.7
0.193281 0 5.32305e-06 0 0 0 0 0.00105127 0 45724.7
0.204254 0 6.28202e-06 0 0 0 0 0.000962209 0 53962.1
0.215848 0 7.41374e-06 0 0 0 0 0.000879423 0 63683.5
0.228102 0 8.74934e-06 0 0 0 0 0.000802624 0 75156.3
0.24105 0 1.03256e-05 0 0 0 0 0.000731515 0 88695.9
0.254734 0 1.21857e-05 0 0 0 0 0.000665798 0 104675
0.269195 0 1.4381e-05 0 0 0 0 0.000605173 0 123532
0.284476 0 1.69718e-05 0 0 0 0 0.000549345 0 145787
0.300625 0 2.00293e-05 0 0 0 0 0.000498021 0 172051
0.317691 0 2.36377e-05 0 0 0 0 0.000450916 0 203046
0.335725 0 2.78961e-05 0 0 0 0 0.000407755 0 239625
0.354784 0 3.29216e-05 0 0 0 0 0.000368269 0 282795
0.374924 0 3.88525e-05 0 0 0 0 0.000332202 0 333741
0.396207 0.494785 4.58519e-05 1.25623e-06 6 0.481029 1.2213e-06 0.000299307 0.0251828 393865
0.418699 0 5.41123e-05 0 0 0 0 0.00026935 0 464821
0.442467 0 6.38607e-05 0 0 0 0 0.000242108 0 548560
0.467585 0 7.53654e-05 0 0 0 0 0.00021737 0 647384
0.494129 0 8.89427e-05 0 0 0 0 0.000194938 0 764012
0.522179 0 0.000104966 0 0 0 0 0.000174625 0 901651
0.551822 0 0.000123876 0 0 0 0 0.000156255 0 1.06409e+06
0.583147 4.61082 0.000146192 3.67167e-06 12 4.85292 3.86445e-06 0.000139664 0.315472 1.25578e+06
0.616251 0 0.000172529 0 0 0 0 0.0001247 0 1.48202e+06
0.651234 0 0.000203611 0 0 0 0 0.00011122 0 1.74901e+06
0.688203 23.9265 0.000240292 1.15918e-05 8 23.3312 1.13034e-05 9.90935e-05 0.935824 2.06409e+06
0.72727 0 0.000283581 0 0 0 0 8.81969e-05 0 2.43595e+06
0.768555 0 0.000334669 0 0 0 0 7.84179e-05 0 2.87479e+06
0.812184 0.219428 0.000394961 6.46768e-08 6 0.22412 6.60596e-08 6.96525e-05 0.00557138 3.39269e+06
0.85829 0 0.000466114 0 0 0 0 6.1805e-05 0 4.00389e+06
0.907013 0.296059 0.000550086 6.26552e-08 24 0.301739 6.38574e-08 5.47875e-05 0.0274465 4.7252e+06
0.958501 0.783168 0.000649185 1.40442e-07 24 0.737295 1.32216e-07 4.85194e-05 0.0694692 5.57646e+06
1.01291 0 0.000766138 0 0 0 0 4.29272e-05 0 6.58107e+06
1.07041 0 0.00090416 0 0 0 0 3.79435e-05 0 7.76667e+06
1.13118 1.38387 0.00106705 1.50981e-07 12 1.36687 1.49126e-07 3.3507e-05 0.0540713 9.16586e+06
1.19539 0.733707 0.00125928 6.78283e-08 30 0.718581 6.643e-08 2.9562e-05 0.0688332 1.08171e+07
1.26325 5.75401 0.00148614 4.50735e-07 24 5.66743 4.43952e-07 2.60578e-05 0.41514 1.27658e+07
1.33496 19.0101 0.00175387 1.26182e-06 24 19.0519 1.26459e-06 2.29484e-05 1.31964 1.50656e+07
1.41075 6.01856 0.00206984 3.38506e-07 32 6.18062 3.47621e-07 2.01923e-05 0.536452 1.77798e+07
1.49083 0.494635 0.00244272 2.35733e-08 48 0.48409 2.30708e-08 1.77518e-05 0.0637413 2.09828e+07
1.57546 0.0709802 0.00288279 2.86639e-09 6 0.0675891 2.72945e-09 1.55929e-05 0.00110296 2.4763e+07
1.66489 0.435801 0.00340213 1.49124e-08 84 0.423278 1.44839e-08 1.3685e-05 0.0915339 2.92241e+07
1.75941 2.60846 0.00401503 7.56321e-08 48 2.62865 7.62174e-08 1.20007e-05 0.302511 3.44889e+07
1.85928 0.339468 0.00473835 8.34031e-09 72 0.34094 8.37648e-09 1.05151e-05 0.0571086 4.07021e+07
1.96483 0.704929 0.00559198 1.46754e-08 54 0.689922 1.4363e-08 9.20606e-06 0.0860816 4.80347e+07
2.07637 8.42588 0.00659939 1.48635e-07 104 8.39125 1.48024e-07 8.05366e-06 1.91939 5.66883e+07
2.19424 0.31926 0.00778828 4.77213e-09 120 0.321623 4.80746e-09 7.04008e-06 0.0813423 6.69008e+07
2.3188 1.84831 0.00919136 2.34102e-08 156 1.75713 2.22553e-08 6.1494e-06 0.593878 7.89532e+07
2.45043 0.694663 0.0108472 7.45532e-09 126 0.689535 7.40028e-09 5.36741e-06 0.175014 9.31768e+07
2.58954 0.757116 0.0128014 6.8852e-09 192 0.768528 6.98898e-09 4.68145e-06 0.282382 1.09963e+08
2.73654 4.09111 0.0151076 3.15252e-08 152 4.25123 3.2759e-08 4.08023e-06 1.1744 1.29773e+08
2.89188 3.6828 0.0178292 2.40467e-08 378 3.7632 2.45716e-08 3.55373e-06 2.55778 1.53152e+08
3.05605 1.40099 0.0210412 7.75128e-09 264 1.37779 7.62295e-09 3.09304e-06 0.661595 1.80743e+08
3.22953 0.318988 0.0248319 1.49546e-09 366 0.314678 1.47526e-09 2.69025e-06 0.203453 2.13304e+08
3.41286 0.851198 0.0293054 3.38137e-09 428 0.816101 3.24195e-09 2.33837e-06 0.618904 2.51731e+08
3.6066 3.34822 0.0345848 1.12704e-08 486 3.2367 1.0895e-08 2.0312e-06 2.69663 2.97081e+08
3.81134 0.915415 0.0408154 2.61098e-09 600 0.911304 2.59926e-09 1.76327e-06 0.88846 3.50601e+08
4.0277 0.715005 0.0481684 1.72806e-09 738 0.702479 1.69778e-09 1.52972e-06 0.833684 4.13763e+08
4.25634 1.31766 0.056846 2.69843e-09 824 1.36186 2.78896e-09 1.32631e-06 1.67647 4.88304e+08
4.49796 2.80167 0.067087 4.86171e-09 954 2.81797 4.89e-09 1.14926e-06 4.03571 5.76273e+08
4.7533 0.70175 0.0791729 1.03185e-09 1094 0.692234 1.01786e-09 9.95263e-07 1.13422 6.8009e+08
5.02313 0.491969 0.0934361 6.12962e-10 1332 0.492144 6.1318e-10 8.61414e-07 0.947819 8.0261e+08
5.30828 2.26472 0.110269 2.39095e-09 1614 2.29024 2.4179e-09 7.45152e-07 5.1788 9.47202e+08
5.60962 1.24779 0.130134 1.11625e-09 1850 1.21396 1.08598e-09 6.44232e-07 3.20546 1.11784e+09
5.92807 1.61096 0.153578 1.22114e-09 2238 1.55328 1.17742e-09 5.56685e-07 4.90926 1.31923e+09
6.26459 0.89742 0.181246 5.76419e-10 2546 0.906008 5.81935e-10 4.80786e-07 3.05242 1.55689e+09
6.62021 0.557482 0.213898 3.03414e-10 3264 0.557952 3.03669e-10 4.15026e-07 2.38622 1.83737e+09
6.99602 1.63154 0.252432 7.52428e-10 3506 1.6762 7.73022e-10 3.58083e-07 7.36705 2.16837e+09
7.39317 0.981061 0.297908 3.83375e-10 4506 0.989585 3.86706e-10 3.08803e-07 5.59413 2.55901e+09
7.81286 1.49452 0.351577 4.94871e-10 5018 1.52993 5.06596e-10 2.66181e-07 9.32923 3.02002e+09
8.25637 1.43777 0.414914 4.03404e-10 5852 1.39942 3.92646e-10 2.29336e-07 10.2937 3.56409e+09
8.72507 1.10915 0.489662 2.63696e-10 7362 1.10087 2.61728e-10 1.97503e-07 9.82939 4.20617e+09
9.22037 1.40475 0.577876 2.82992e-10 8306 1.39346 2.80718e-10 1.70014e-07 13.8255 4.96392e+09
9.74378 0.906931 0.681982 1.54814e-10 9698 0.906885 1.54806e-10 1.46289e-07 10.2632 5.85818e+09
10.2969 1.49924 0.804843 2.16855e-10 11816 1.51044 2.18475e-10 1.25822e-07 20.3649 6.91355e+09
10.8814 1.42506 0.949838 1.7466e-10 13682 1.42443 1.74583e-10 1.08175e-07 22.091 8.15905e+09
11.4992 1.49105 1.12095 1.54851e-10 16152 1.47787 1.53482e-10 9.29669e-08 26.9038 9.62892e+09
12.1519 1.55259 1.3229 1.36628e-10 19472 1.53422 1.35012e-10 7.98658e-08 33.3112 1.13636e+10
12.8418 1.32534 1.56122 9.88265e-11 22670 1.32568 9.88515e-11 6.85852e-08 32.6659 1.34108e+10
13.5708 1.75164 1.84248 1.10676e-10 26224 1.76046 1.11233e-10 5.88765e-08 49.2959 1.58268e+10
14.3411 1.78172 2.17441 9.53916e-11 31640 1.7878 9.5717e-11 5.05241e-08 59.7376 1.8678e+10
15.1552 2.05227 2.56613 9.31033e-11 37484 2.05365 9.31659e-11 4.33417e-08 80.5203 2.20429e+10
16.0156 2.1986 3.02843 8.4516e-11 43856 2.20272 8.46744e-11 3.71677e-08 99.7244 2.6014e+10
16.9247 2.85486 3.574 9.29907e-11 51362 2.84936 9.28117e-11 3.18628e-08 149.899 3.07005e+10
17.8855 3.06138 4.21787 8.44955e-11 61636 3.04615 8.40752e-11 2.73063e-08 190.724 3.62312e+10
18.9008 3.78341 4.97773 8.84835e-11 72218 3.77105 8.81944e-11 2.33941e-08 273.15 4.27584e+10
19.9738 4.54056 5.87448 8.99807e-11 84586 4.52464 8.96653e-11 2.00364e-08 379.864 5.04614e+10
21.1076 5.25805 6.93279 8.82932e-11 100708 5.24621 8.80943e-11 1.71555e-08 518.307 5.95522e+10
22.3058 6.25441 8.18175 8.89919e-11 118712 6.24147 8.88077e-11 1.46847e-08 719.418 7.02807e+10
23.5721 7.36651 9.65571 8.88153e-11 140410 7.34452 8.85501e-11 1.25662e-08 992.392 8.29419e+10
24.9102 8.55022 11.3952 8.73504e-11 164374 8.51914 8.70329e-11 1.07504e-08 1335.59 9.78842e+10
26.3243 9.82351 13.4481 8.50386e-11 194680 9.79194 8.47653e-11 9.19452e-09 1800.56 1.15518e+11
27.8187 11.3285 15.8708 8.30965e-11 230196 11.2942 8.28452e-11 7.86182e-09 2433.08 1.36329e+11
29.3979 13.0183 18.73 8.0915e-11 271156 12.9791 8.06709e-11 6.72061e-09 3264.67 1.60889e+11
31.0667 15.0127 22.1042 7.90667e-11 321076 14.9622 7.88009e-11 5.74366e-09 4419.91 1.89874e+11
32.8303 17.1445 26.0864 7.65105e-11 377436 17.0935 7.6283e-11 4.90756e-09 5884.35 2.2408e+11
34.694 19.7288 30.7859 7.46036e-11 447594 19.6712 7.43858e-11 4.19221e-09 7965.29 2.64449e+11
36.6634 22.6948 36.3321 7.27188e-11 525078 22.6224 7.24867e-11 3.58032e-09 10664.7 3.1209e+11
38.7447 26.2483 42.8774 7.12662e-11 621924 26.1685 7.10493e-11 3.05709e-09 14498.2 3.68314e+11
40.9442 30.4034 50.6018 6.99464e-11 732630 30.3127 6.97378e-11 2.60976e-09 19635.8 4.34667e+11
43.2685 35.3743 59.7179 6.89593e-11 865596 35.2681 6.87524e-11 2.22743e-09 26798.1 5.12973e+11
45.7247 41.026 70.4762 6.77682e-11 1.02168e+06 40.9002 6.75605e-11 1.90073e-09 36426.6 6.05386e+11
48.3204 47.9714 83.1727 6.71447e-11 1.20544e+06 47.8205 6.69334e-11 1.62163e-09 49911.9 7.14448e+11
51.0634 55.7509 98.1565 6.61215e-11 1.42103e+06 55.5816 6.59207e-11 1.38326e-09 67927.2 8.43158e+11
53.9621 65.0001 115.84 6.53231e-11 1.67997e+06 64.7968 6.51188e-11 1.1797e-09 93024.1 9.95055e+11
57.0254 75.8182 136.709 6.45636e-11 1.98018e+06 75.5823 6.43628e-11 1.00592e-09 127095 1.17432e+12
60.2626 88.6548 161.337 6.39704e-11 2.33957e+06 88.3738 6.37676e-11 8.57591e-10 174516 1.38587e+12
63.6835 103.883 190.402 6.35159e-11 2.75676e+06 103.552 6.33136e-11 7.3101e-10 239529 1.63554e+12
67.2987 121.639 224.704 6.30193e-11 3.25638e+06 121.255 6.28202e-11 6.23009e-10 329393 1.93019e+12
71.1191 142.351 265.185 6.24919e-11 3.84387e+06 141.9 6.22935e-11 5.30879e-10 452477 2.27792e+12
75.1563 167.113 312.958 6.21634e-11 4.53277e+06 166.586 6.19672e-11 4.52303e-10 622972 2.68829e+12
79.4227 196.222 369.339 6.18492e-11 5.35083e+06 195.596 6.16518e-11 3.85299e-10 858928 3.17259e+12
83.9313 230.893 435.876 6.16677e-11 6.32174e+06 230.137 6.14659e-11 3.28173e-10 1.18793e+06 3.74415e+12
88.6959 271.355 514.4 6.14111e-11 7.44986e+06 270.475 6.12118e-11 2.79476e-10 1.63701e+06 4.41866e+12
93.7309 319.107 607.071 6.11937e-11 8.79764e+06 318.077 6.09962e-11 2.37972e-10 2.26228e+06 5.2147e+12
99.0518 375.981 716.436 6.1094e-11 1.03827e+07 374.729 6.08906e-11 2.02605e-10 3.13083e+06 6.15414e+12
104.675 442.942 845.504 6.09876e-11 1.22515e+07 441.48 6.07862e-11 1.72471e-10 4.33227e+06 7.26283e+12
110.617 521.796 997.824 6.08775e-11 1.44573e+07 520.089 6.06783e-11 1.468e-10 5.9954e+06 8.57124e+12
116.896 615.697 1177.58 6.08675e-11 1.70664e+07 613.659 6.0666e-11 1.24935e-10 8.31465e+06 1.01154e+13
123.532 725.041 1389.73 6.07354e-11 2.0139e+07 722.648 6.0535e-11 1.06313e-10 1.15052e+07 1.19377e+13
130.545 866.127 1640.09 6.14785e-11 2.37643e+07 863.736 6.13087e-11 9.04567e-11 1.61513e+07 1.40883e+13
137.955 1009.41 1935.56 6.07114e-11 2.80503e+07 1006.05 6.05094e-11 7.69563e-11 2.21291e+07 1.66263e+13
145.787 1190.36 2284.26 6.06658e-11 3.30981e+07 1186.4 6.04637e-11 6.54636e-11 3.06723e+07 1.96216e+13
154.063 1412.72 2695.77 6.10077e-11 3.90634e+07 1408 6.08036e-11 5.56812e-11 4.28003e+07 2.31565e+13
162.808 1659.05 3181.42 6.07082e-11 4.61057e+07 1653.5 6.05053e-11 4.73556e-11 5.91058e+07 2.73282e+13
172.051 1959.91 3754.56 6.07695e-11 5.44046e+07 1953.34 6.05659e-11 4.02708e-11 8.20976e+07 3.22515e+13
181.818 2319.13 4430.96 6.09309e-11 6.42064e+07 2311.46 6.07295e-11 3.42426e-11 1.14248e+08 3.80616e+13
192.139 2738.07 5229.21 6.09564e-11 7.57748e+07 2728.87 6.07516e-11 2.91139e-11 1.58651e+08 4.49186e+13
203.046 3241.94 6171.26 6.11562e-11 8.94213e+07 3230.88 6.09476e-11 2.4751e-11 2.20947e+08 5.30108e+13
214.572 3833.21 7283.03 6.12718e-11 1.05538e+08 3820.29 6.10652e-11 2.10401e-11 3.07343e+08 6.25608e+13
226.753 4541.01 8595.09 6.15053e-11 1.24552e+08 4525.6 6.12964e-11 1.78839e-11 4.28351e+08 7.38313e+13
239.625 5384.77 10143.5 6.18e-11 1.46987e+08 5366.35 6.15886e-11 1.51999e-11 5.97623e+08 8.71322e+13
253.228 6397.28 11970.9 6.22126e-11 1.7347e+08 6375.2 6.19979e-11 1.29176e-11 8.35449e+08 1.02829e+14
267.603 7615.03 14127.5 6.27504e-11 2.04703e+08 7588.52 6.25319e-11 1.09771e-11 1.17018e+09 1.21354e+14
282.795 9096.62 16672.6 6.35165e-11 2.4161e+08 9064.55 6.32926e-11 9.3274e-12 1.64528e+09 1.43217e+14
298.848 10897.6 19676.2 6.4476e-11 2.85122e+08 10858.5 6.42448e-11 7.925e-12 2.31969e+09 1.69017e+14
315.813 13134 23220.9 6.58455e-11 3.36491e+08 13085.8 6.5604e-11 6.73295e-12 3.29075e+09 1.99466e+14
333.741 15951.7 27404.3 6.7764e-11 3.97115e+08 15891 6.75064e-11 5.71979e-12 4.70474e+09 2.35401e+14
352.686 19579 32341.2 7.04765e-11 4.68637e+08 19501.2 7.01966e-11 4.85874e-12 6.79763e+09 2.77809e+14
372.707 24390.4 38167.6 7.43935e-11 5.53074e+08 24287.8 7.40806e-11 4.12703e-12 9.96967e+09 3.27857e+14
393.865 31033.8 45043.5 8.02072e-11 6.52716e+08 30893.1 7.98434e-11 3.50528e-12 1.49353e+10 3.86921e+14
416.224 36623.9 53158.3 8.02055e-11 2.2184e+08 38744.7 8.485e-11 2.97701e-12 5.97672e+09 4.56626e+14
439.852 0 62734.9 0 0 0 0 2.52819e-12 0 5.38888e+14
464.821 0 74036.7 0 0 0 0 2.1469e-12 0 6.35971e+14
491.207 0 87374.6 0 0 0 0 1.82301e-12 0 7.50542e+14
519.092 0 103115 0 0 0 0 1.54789e-12 0 8.85755e+14
548.56 0 121692 0 0 0 0 1.31422e-12 0 1.04533e+15
579.7 0 143615 0 0 0 0 1.11576e-12 0 1.23364e+15
612.608 0 169488 0 0 0 0 9.47223e-13 0 1.45589e+15
647.384 0 200021 0 0 0 0 8.041e-13 0 1.71817e+15
684.134 0 236056 0 0 0 0 6.82568e-13 0 2.0277e+15
722.971 0 278582 0 0 0 0 5.79376e-13 0 2.393e+15
764.012 0 328769 0 0 0 0 4.91762e-13 0 2.8241e+15
0.139277
200
1.0655e+09
8589934592
0.0129181 6.29183e-05 1.58924e-09 4.60891e-06 6 6.23423e-05 4.56671e-06 0.00677225 0.00408334 13.6515
0.0136515 0 1.87554e-09 0 0 0 0 0.00688819 0 16.1108
0.0144264 0 2.21343e-09 0 0 0 0 0.00699249 0 19.0132
0.0152454 0 2.61218e-09 0 0 0 0 0.00708412 0 22.4385
0.0161108 0 3.08278e-09 0 0 0 0 0.00716212 0 26.4808
0.0170254 0 3.63815e-09 0 0 0 0 0.00722559 0 31.2514
0.0179919 0.000139749 4.29357e-09 3.78913e-06 12 0.000139569 3.78425e-06 0.00727371 0.00625122 36.8815
0.0190132 0 5.06707e-09 0 0 0 0 0.00730578 0 43.5258
0.0200925 0 5.97991e-09 0 0 0 0 0.00732122 0 51.367
0.0212331 0.000132172 7.05721e-09 2.1803e-06 8 0.000132057 2.1784e-06 0.00731958 0.00238297 60.621
0.0224385 0 8.32858e-09 0 0 0 0 0.00730056 0 71.542
0.0237123 0 9.829e-09 0 0 0 0 0.00726401 0 84.4305
0.0250583 0.000849563 1.15997e-08 8.52626e-06 6 0.000849163 8.52224e-06 0.00720995 0.00709541 99.6408
0.0264808 0 1.36894e-08 0 0 0 0 0.00713857 0 117.591
0.0279841 0.000528999 1.61556e-08 3.81189e-06 24 0.000528456 3.80798e-06 0.00705021 0.0129763 138.776
0.0295727 0 1.90661e-08 0 0 0 0 0.00694538 0 163.777
0.0312514 0.000945895 2.25009e-08 4.89387e-06 24 0.000950697 4.91872e-06 0.00682475 0.0172098 193.281
0.0330255 0 2.65545e-08 0 0 0 0 0.00668915 0 228.102
0.0349003 0.00132531 3.13384e-08 4.92323e-06 12 0.0013147 4.88381e-06 0.00653951 0.00903412 269.195
0.0368815 0.00114671 3.69841e-08 3.60952e-06 30 0.0011345 3.57109e-06 0.00637693 0.0169809 317.691
0.0389751 0.00136631 4.36469e-08 3.64422e-06 24 0.00135225 3.60673e-06 0.00620256 0.0141009 374.924
0.0411876 0.000865935 5.151e-08 1.95706e-06 24 0.000860054 1.94377e-06 0.00601767 0.00780525 442.467
0.0435258 0.00187028 6.07896e-08 3.58168e-06 8 0.00187014 3.58141e-06 0.00582358 0.00492025 522.179
0.0459966 0.00239152 7.1741e-08 3.88075e-06 72 0.0023726 3.85005e-06 0.00562166 0.0497031 616.251
0.0486077 0 8.46654e-08 0 0 0 0 0.0054133 0 727.27
0.051367 0.003577 9.99181e-08 4.16759e-06 54 0.00356566 4.15438e-06 0.00519989 0.0432797 858.29
0.054283 0.00278036 1.17919e-07 2.74492e-06 60 0.00279195 2.75636e-06 0.0049828 0.0330527 1012.91
0.0573645 0.00276632 1.39162e-07 2.31415e-06 96 0.00275922 2.30821e-06 0.00476339 0.0466387 1195.39
0.060621 0.00319472 1.64232e-07 2.26456e-06 24 0.00315143 2.23388e-06 0.00454293 0.0119635 1410.75
0.0640622 0.00562998 1.93819e-07 3.38158e-06 134 0.00563305 3.38343e-06 0.00432265 0.104827 1664.89
0.0676989 0.00540039 2.28736e-07 2.74853e-06 120 0.00537566 2.73594e-06 0.00410371 0.0803719 1964.83
0.071542 0.00493456 2.69944e-07 2.12807e-06 108 0.00488117 2.10504e-06 0.00388717 0.0591255 2318.8
0.0756032 0.00717243 3.18575e-07 2.62099e-06 174 0.00713505 2.60733e-06 0.00367401 0.124129 2736.54
0.079895 0.00766903 3.75967e-07 2.37466e-06 168 0.00759669 2.35226e-06 0.0034651 0.115132 3229.53
0.0844305 0.00655779 4.43698e-07 1.7206e-06 168 0.00659056 1.7292e-06 0.00326121 0.0886361 3811.34
0.0892234 0.00737946 5.23632e-07 1.64062e-06 290 0.0073485 1.63374e-06 0.00306301 0.155331 4497.96
0.0942883 0.00958382 6.17966e-07 1.80545e-06 288 0.00955957 1.80088e-06 0.00287109 0.181105 5308.28
0.0996408 0.0087246 7.29294e-07 1.39269e-06 366 0.00865093 1.38093e-06 0.00268591 0.189777 6264.59
0.105297 0.0094568 8.60678e-07 1.27913e-06 420 0.00939145 1.27029e-06 0.00250785 0.21422 7393.17
0.111275 0.0100057 1.01573e-06 1.14678e-06 398 0.00997828 1.14363e-06 0.00233721 0.195283 8725.07
0.117591 0.0119104 1.19872e-06 1.1567e-06 624 0.0119347 1.15906e-06 0.00217419 0.331976 10296.9
0.124267 0.0131787 1.41467e-06 1.08449e-06 642 0.013162 1.08312e-06 0.00201893 0.344859 12151.9
0.131321 0.0167325 1.66953e-06 1.16675e-06 800 0.0167385 1.16716e-06 0.00187147 0.498753 14341.1
0.138776 0.0151829 1.9703e-06 8.97084e-07 858 0.0152561 9.01409e-07 0.00173182 0.444446 16924.7
0.146654 0.0163964 2.32525e-06 8.20896e-07 1080 0.0165334 8.27757e-07 0.00159991 0.554136 19973.8
0.154979 0.0194047 2.74415e-06 8.23207e-07 1286 0.0195389 8.28902e-07 0.00147563 0.717416 23572.1
0.163777 0.0183655 3.23852e-06 6.60187e-07 1650 0.0183984 6.61369e-07 0.00135884 0.801647 27818.7
0.173074 0.0216361 3.82195e-06 6.5903e-07 1778 0.0216386 6.59104e-07 0.00124933 0.937906 32830.3
0.182899 0.0211536 4.51048e-06 5.45975e-07 2112 0.0212039 5.47272e-07 0.00114689 1.00541 38744.7
0.193281 0.0248787 5.32305e-06 5.44098e-07 2570 0.0249153 5.44897e-07 0.00105127 1.33013 45724.7
0.204254 0.0276543 6.28202e-06 5.12476e-07 3030 0.0276427 5.12261e-07 0.000962209 1.61379 53962.1
0.215848 0.0275003 7.41374e-06 4.31827e-07 3434 0.0274954 4.31751e-07 0.000879423 1.68621 63683.5
0.228102 0.0287468 8.74934e-06 3.82494e-07 4218 0.028754 3.8259e-07 0.000802624 2.01011 75156.3
0.24105 0.0324713 1.03256e-05 3.66096e-07 4766 0.0325023 3.66446e-07 0.000731515 2.38521 88695.9
0.254734 0.0347283 1.21857e-05 3.31774e-07 6026 0.0347176 3.31671e-07 0.000665798 3.00282 104675
0.269195 0.0363622 1.4381e-05 2.94354e-07 6480 0.0363446 2.94212e-07 0.000605173 3.15185 123532
0.284476 0.0394595 1.69718e-05 2.70666e-07 8162 0.0395507 2.71291e-07 0.000549345 4.02147 145787
0.300625 0.0397485 2.00293e-05 2.31028e-07 9578 0.039799 2.31321e-07 0.000498021 4.44316 172051
0.317691 0.044231 2.36377e-05 2.17837e-07 11234 0.0441982 2.17676e-07 0.000450916 5.42713 203046
0.335725 0.0463047 2.78961e-05 1.93238e-07 13344 0.0462833 1.93148e-07 0.000407755 6.32382 239625
0.354784 0.0480766 3.29216e-05 1.70005e-07 15464 0.0480478 1.69904e-07 0.000368269 7.1387 282795
0.374924 0.0516575 3.88525e-05 1.54783e-07 18458 0.0516502 1.54761e-07 0.000332202 8.60016 333741
0.396207 0.0542144 4.58519e-05 1.37647e-07 22232 0.0541366 1.3745e-07 0.000299307 10.2242 393865
0.418699 0.0587083 5.41123e-05 1.26303e-07 25628 0.0585862 1.2604e-07 0.00026935 12.0174 464821
0.442467 0.0612589 6.38607e-05 1.11672e-07 30320 0.0611519 1.11477e-07 0.000242108 13.9851 548560
0.467585 0.0642137 7.53654e-05 9.91895e-08 35452 0.0641209 9.90461e-08 0.00021737 16.1773 647384
0.494129 0.0667077 8.89427e-05 8.73124e-08 41792 0.0666823 8.72792e-08 0.000194938 18.7185 764012
0.522179 0.072161 0.000104966 8.00321e-08 49988 0.0721399 8.00087e-08 0.000174625 22.91 901651
0.551822 0.0755246 0.000123876 7.0976e-08 59110 0.0754757 7.09301e-08 0.000156255 26.8497 1.06409e+06
0.583147 0.0798398 0.000146192 6.35777e-08 69716 0.0797429 6.35005e-08 0.000139664 31.736 1.25578e+06
0.616251 0.0843185 0.000172529 5.68945e-08 82210 0.0841848 5.68042e-08 0.0001247 37.5084 1.48202e+06
0.651234 0.0892849 0.000203611 5.1049e-08 96722 0.0891209 5.09552e-08 0.00011122 44.3943 1.74901e+06
0.688203 0.0940025 0.000240292 4.55418e-08 113098 0.0939158 4.54998e-08 9.90935e-05 51.978 2.06409e+06
0.72727 0.0978896 0.000283581 4.01855e-08 135190 0.0977883 4.01439e-08 8.81969e-05 61.5971 2.43595e+06
0.768555 0.104064 0.000334669 3.61989e-08 158170 0.103971 3.61664e-08 7.84179e-05 73.0137 2.87479e+06
0.812184 0.10904 0.000394961 3.21396e-08 188560 0.108932 3.21078e-08 6.96525e-05 87.0068 3.39269e+06
0.85829 0.114304 0.000466114 2.85482e-08 220444 0.114172 2.85153e-08 6.1805e-05 101.825 4.00389e+06
0.907013 0.12043 0.000550086 2.54868e-08 261388 0.120308 2.54608e-08 5.47875e-05 121.596 4.7252e+06
0.958501 0.126473 0.000649185 2.26797e-08 308244 0.126337 2.26554e-08 4.85194e-05 144.084 5.57646e+06
1.01291 0.133793 0.000766138 2.03299e-08 364396 0.133644 2.03073e-08 4.29272e-05 172.575 6.58107e+06
1.07041 0.14004 0.00090416 1.80309e-08 429162 0.139865 1.80084e-08 3.79435e-05 203.939 7.76667e+06
1.13118 0.148011 0.00106705 1.61481e-08 506358 0.147834 1.61288e-08 3.3507e-05 244.03 9.16586e+06
1.19539 0.155068 0.00125928 1.43354e-08 598590 0.154868 1.43169e-08 2.9562e-05 290.272 1.08171e+07
1.26325 0.163263 0.00148614 1.2789e-08 704844 0.163051 1.27725e-08 2.60578e-05 345.934 1.27658e+07
1.33496 0.171253 0.00175387 1.13671e-08 834620 0.171027 1.13521e-08 2.29484e-05 413.415 1.50656e+07
1.41075 0.17995 0.00206984 1.01211e-08 981444 0.179729 1.01087e-08 2.01923e-05 491.933 1.77798e+07
1.49083 0.189287 0.00244272 9.02102e-09 1.15998e+06 0.189038 9.00919e-09 1.77518e-05 589.472 2.09828e+07
1.57546 0.1998 0.00288279 8.06851e-09 1.36931e+06 0.199532 8.0577e-09 1.55929e-05 708.548 2.4763e+07
1.66489 0.210015 0.00340213 7.18637e-09 1.61652e+06 0.209708 7.17588e-09 1.3685e-05 848.876 2.92241e+07
1.75941 0.220877 0.00401503 6.40431e-09 1.90601e+06 0.220564 6.39524e-09 1.20007e-05 1017.16 3.44889e+07
1.85928 0.232896 0.00473835 5.72195e-09 2.24913e+06 0.232584 5.71429e-09 1.05151e-05 1223.9 4.07021e+07
1.96483 0.244714 0.00559198 5.09453e-09 2.65744e+06 0.244355 5.08705e-09 9.20606e-06 1470.6 4.80347e+07
2.07637 0.258192 0.00659939 4.55459e-09 3.13125e+06 0.257826 4.54813e-09 8.05366e-06 1770.82 5.66883e+07
2.19424 0.272207 0.00778828 4.06881e-09 3.69915e+06 0.271827 4.06314e-09 7.04008e-06 2137.92 6.69008e+07
2.3188 0.286986 0.00919136 3.63489e-09 4.36472e+06 0.286565 3.62955e-09 6.1494e-06 2579.97 7.89532e+07
2.45043 0.303143 0.0108472 3.25341e-09 5.14913e+06 0.302697 3.24863e-09 5.36741e-06 3121.11 9.31768e+07
2.58954 0.320604 0.0128014 2.91557e-09 6.07894e+06 0.32012 2.91117e-09 4.68145e-06 3785.91 1.09963e+08
2.73654 0.338604 0.0151076 2.6092e-09 7.17304e+06 0.338099 2.60531e-09 4.08023e-06 4586.97 1.29773e+08
2.89188 0.358168 0.0178292 2.33864e-09 8.46557e+06 0.357631 2.33514e-09 3.55373e-06 5571.03 1.53152e+08
3.05605 0.379332 0.0210412 2.09874e-09 9.98773e+06 0.378785 2.09572e-09 3.09304e-06 6777.04 1.80743e+08
3.22953 0.401832 0.0248319 1.88385e-09 1.1797e+07 0.401223 1.88099e-09 2.69025e-06 8260.84 2.13304e+08
3.41286 0.426499 0.0293054 1.69426e-09 1.39144e+07 0.425821 1.69157e-09 2.33837e-06 10081.6 2.51731e+08
3.6066 0.452476 0.0345848 1.52307e-09 1.64163e+07 0.451778 1.52072e-09 2.0312e-06 12309.5 2.97081e+08
3.81134 0.480935 0.0408154 1.37174e-09 1.93821e+07 0.480175 1.36958e-09 1.76327e-06 15078.4 3.50601e+08
4.0277 0.511589 0.0481684 1.23643e-09 2.28754e+07 0.510769 1.23445e-09 1.52972e-06 18489.5 4.13763e+08
4.25634 0.544615 0.056846 1.11532e-09 2.69929e+07 0.543721 1.11349e-09 1.32631e-06 22698.9 4.88304e+08
4.49796 0.58089 0.067087 1.00801e-09 3.18542e+07 0.579924 1.00634e-09 1.14926e-06 27939.3 5.76273e+08
4.7533 0.619977 0.0791729 9.1161e-10 3.75892e+07 0.618936 9.10079e-10 9.95263e-07 34429.8 6.8009e+08
5.02313 0.662256 0.0934361 8.25128e-10 4.43706e+07 0.661141 8.23739e-10 8.61414e-07 42501.6 8.0261e+08
5.30828 0.708281 0.110269 7.47761e-10 5.23593e+07 0.707053 7.46464e-10 7.45152e-07 52542.6 9.47202e+08
5.60962 0.758848 0.130134 6.7885e-10 6.1787e+07 0.757537 6.77677e-10 6.44232e-07 65107.1 1.11784e+09
5.92807 0.814056 0.153578 6.17071e-10 7.29346e+07 0.812596 6.15965e-10 5.56685e-07 80846.1 1.31923e+09
6.26459 0.874237 0.181246 5.61528e-10 8.60651e+07 0.87265 5.60509e-10 4.80786e-07 100519 1.55689e+09
6.62021 0.941109 0.213898 5.12205e-10 1.01558e+08 0.939381 5.11265e-10 4.15026e-07 125338 1.83737e+09
6.99602 1.01448 0.252432 4.67853e-10 1.1986e+08 1.01259 4.66983e-10 3.58083e-07 156603 2.16837e+09
7.39317 1.09618 0.297908 4.28363e-10 1.41457e+08 1.09411 4.27551e-10 3.08803e-07 196224 2.55901e+09
7.81286 1.18655 0.351577 3.92894e-10 1.66936e+08 1.18425 3.92132e-10 2.66181e-07 246404 3.02002e+09
8.25637 1.28753 0.414914 3.6125e-10 1.97025e+08 1.28499 3.60539e-10 2.29336e-07 310354 3.56409e+09
8.72507 1.40049 0.489662 3.32961e-10 2.32497e+08 1.39767 3.32291e-10 1.97503e-07 391955 4.20617e+09
9.22037 1.52817 0.577876 3.07856e-10 2.74404e+08 1.525 3.07217e-10 1.70014e-07 496882 4.96392e+09
9.74378 1.67465 0.681982 2.85864e-10 3.2382e+08 1.67107 2.85253e-10 1.46289e-07 632779 5.85818e+09
10.2969 1.84578 0.804843 2.6698e-10 3.82165e+08 1.84166 2.66383e-10 1.25822e-07 810909 6.91355e+09
10.8814 2.05363 0.949838 2.51699e-10 4.51027e+08 2.04873 2.51099e-10 1.08175e-07 1.04944e+06 8.15905e+09
11.4992 2.31919 1.12095 2.40856e-10 5.32251e+08 2.31308 2.40222e-10 9.29669e-08 1.37894e+06 9.62892e+09
12.1519 2.68504 1.3229 2.36285e-10 6.28157e+08 2.67692 2.35569e-10 7.98658e-08 1.85842e+06 1.13636e+10
12.8418 3.07917 1.56122 2.29604e-10 3.82727e+08 3.18658 2.37613e-10 6.85852e-08 1.28126e+06 1.34108e+10
13.5708 0 1.84248 0 0 0 0 5.88765e-08 0 1.58268e+10
14.3411 0 2.17441 0 0 0 0 5.05241e-08 0 1.8678e+10
15.1552 0 2.56613 0 0 0 0 4.33417e-08 0 2.20429e+10
16.0156 0 3.02843 0 0 0 0 3.71677e-08 0 2.6014e+10
16.9247 0 3.574 0 0 0 0 3.18628e-08 0 3.07005e+10
17.8855 0 4.21787 0 0 0 0 2.73063e-08 0 3.62312e+10
18.9008 0 4.97773 0 0 0 0 2.33941e-08 0 4.27584e+10
19.9738 0 5.87448 0 0 0 0 2.00364e-08 0 5.04614e+10
21.1076 0 6.93279 0 0 0 0 1.71555e-08 0 5.95522e+10
22.3058 0 8.18175 0 0 0 0 1.46847e-08 0 7.02807e+10
23.5721 0 9.65571 0 0 0 0 1.25662e-08 0 8.29419e+10
24.9102 0 11.3952 0 0 0 0 1.07504e-08 0 9.78842e+10
26.3243 0 13.4481 0 0 0 0 9.19452e-09 0 1.15518e+11
27.8187 0 15.8708 0 0 0 0 7.86182e-09 0 1.36329e+11
29.3979 0 18.73 0 0 0 0 6.72061e-09 0 1.60889e+11
31.0667 0 22.1042 0 0 0 0 5.74366e-09 0 1.89874e+11
32.8303 0 26.0864 0 0 0 0 4.90756e-09 0 2.2408e+11
34.694 0 30.7859 0 0 0 0 4.19221e-09 0 2.64449e+11
36.6634 0 36.3321 0 0 0 0 3.58032e-09 0 3.1209e+11
38.7447 0 42.8774 0 0 0 0 3.05709e-09 0 3.68314e+11
40.9442 0 50.6018 0 0 0 0 2.60976e-09 0 4.34667e+11
43.2685 0 59.7179 0 0 0 0 2.22743e-09 0 5.12973e+11
45.7247 0 70.4762 0 0 0 0 1.90073e-09 0 6.05386e+11
48.3204 0 83.1727 0 0 0 0 1.62163e-09 0 7.14448e+11
51.0634 0 98.1565 0 0 0 0 1.38326e-09 0 8.43158e+11
53.9621 0 115.84 0 0 0 0 1.1797e-09 0 9.95055e+11
57.0254 0 136.709 0 0 0 0 1.00592e-09 0 1.17432e+12
60.2626 0 161.337 0 0 0 0 8.57591e-10 0 1.38587e+12
63.6835 0 190.402 0 0 0 0 7.3101e-10 0 1.63554e+12
67.2987 0 224.704 0 0 0 0 6.23009e-10 0 1.93019e+12
71.1191 0 265.185 0 0 0 0 5.30879e-10 0 2.27792e+12
75.1563 0 312.958 0 0 0 0 4.52303e-10 0 2.68829e+12
79.4227 0 369.339 0 0 0 0 3.85299e-10 0 3.17259e+12
83.9313 0 435.876 0 0 0 0 3.28173e-10 0 3.74415e+12
88.6959 0 514.4 0 0 0 0 2.79476e-10 0 4.41866e+12
93.7309 0 607.071 0 0 0 0 2.37972e-10 0 5.2147e+12
99.0518 0 716.436 0 0 0 0 2.02605e-10 0 6.15414e+12
104.675 0 845.504 0 0 0 0 1.72471e-10 0 7.26283e+12
110.617 0 997.824 0 0 0 0 1.468e-10 0 8.57124e+12
116.896 0 1177.58 0 0 0 0 1.24935e-10 0 1.01154e+13
123.532 0 1389.73 0 0 0 0 1.06313e-10 0 1.19377e+13
130.545 0 1640.09 0 0 0 0 9.04567e-11 0 1.40883e+13
137.955 0 1935.56 0 0 0 0 7.69563e-11 0 1.66263e+13
145.787 0 2284.26 0 0 0 0 6.54636e-11 0 1.96216e+13
154.063 0 2695.77 0 0 0 0 5.56812e-11 0 2.31565e+13
162.808 0 3181.42 0 0 0 0 4.73556e-11 0 2.73282e+13
172.051 0 3754.56 0 0 0 0 4.02708e-11 0 3.22515e+13
181.818 0 4430.96 0 0 0 0 3.42426e-11 0 3.80616e+13
192.139 0 5229.21 0 0 0 0 2.91139e-11 0 4.49186e+13
203.046 0 6171.26 0 0 0 0 2.4751e-11 0 5.30108e+13
214.572 0 7283.03 0 0 0 0 2.10401e-11 0 6.25608e+13
226.753 0 8595.09 0 0 0 0 1.78839e-11 0 7.38313e+13
239.625 0 10143.5 0 0 0 0 1.51999e-11 0 8.71322e+13
253.228 0 11970.9 0 0 0 0 1.29176e-11 0 1.02829e+14
267.603 0 14127.5 0 0 0 0 1.09771e-11 0 1.21354e+14
282.795 0 16672.6 0 0 0 0 9.3274e-12 0 1.43217e+14
298.848 0 19676.2 0 0 0 0 7.925e-12 0 1.69017e+14
315.813 0 23220.9 0 0 0 0 6.73295e-12 0 1.99466e+14
333.741 0 27404.3 0 0 0 0 5.71979e-12 0 2.35401e+14
352.686 0 32341.2 0 0 0 0 4.85874e-12 0 2.77809e+14
372.707 0 38167.6 0 0 0 0 4.12703e-12 0 3.27857e+14
393.865 0 45043.5 0 0 0 0 3.50528e-12 0 3.86921e+14
416.224 0 53158.3 0 0 0 0 2.97701e-12 0 4.56626e+14
439.852 0 62734.9 0 0 0 0 2.52819e-12 0 5.38888e+14
464.821 0 74036.7 0 0 0 0 2.1469e-12 0 6.35971e+14
491.207 0 87374.6 0 0 0 0 1.82301e-12 0 7.50542e+14
519.092 0 103115 0 0 0 0 1.54789e-12 0 8.85755e+14
548.56 0 121692 0 0 0 0 1.31422e-12 0 1.04533e+15
579.7 0 143615 0 0 0 0 1.11576e-12 0 1.23364e+15
612.608 0 169488 0 0 0 0 9.47223e-13 0 1.45589e+15
647.384 0 200021 0 0 0 0 8.041e-13 0 1.71817e+15
684.134 0 236056 0 0 0 0 6.82568e-13 0 2.0277e+15
722.971 0 278582 0 0 0 0 5.79376e-13 0 2.393e+15
764.012 0 328769 0 0 0 0 4.91762e-13 0 2.8241e+15
