0.0907932
200
1.0655e+09
8589934592
0.0129181 0 1.58924e-09 0 0 0 0 0.00677225 0 13.6515
0.0136515 0 1.87554e-09 0 0 0 0 0.00688819 0 16.1108
0.0144264 0 2.21343e-09 0 0 0 0 0.00699249 0 19.0132
0.0152454 0 2.61218e-09 0 0 0 0 0.00708412 0 22.4385
0.0161108 0 3.08278e-09 0 0 0 0 0.00716212 0 26.4808
0.0170254 0 3.63815e-09 0 0 0 0 0.00722559 0 31.2514
0.0179919 0 4.29357e-09 0 0 0 0 0.00727371 0 36.8815
0.0190132 0 5.06707e-09 0 0 0 0 0.00730578 0 43.5258
0.0200925 0 5.97991e-09 0 0 0 0 0.00732122 0 51.367
0.0212331 0 7.05721e-09 0 0 0 0 0.00731958 0 60.621
0.0224385 0 8.32858e-09 0 0 0 0 0.00730056 0 71.542
0.0237123 0 9.829e-09 0 0 0 0 0.00726401 0 84.4305
0.0250583 0 1.15997e-08 0 0 0 0 0.00720995 0 99.6408
0.0264808 0 1.36894e-08 0 0 0 0 0.00713857 0 117.591
0.0279841 0 1.61556e-08 0 0 0 0 0.00705021 0 138.776
0.0295727 0 1.90661e-08 0 0 0 0 0.00694538 0 163.777
0.0312514 0 2.25009e-08 0 0 0 0 0.00682475 0 193.281
0.0330255 0 2.65545e-08 0 0 0 0 0.00668915 0 228.102
0.0349003 0 3.13384e-08 0 0 0 0 0.00653951 0 269.195
0.0368815 0 3.69841e-08 0 0 0 0 0.00637693 0 317.691
0.0389751 0 4.36469e-08 0 0 0 0 0.00620256 0 374.924
0.0411876 0 5.151e-08 0 0 0 0 0.00601767 0 442.467
0.0435258 0 6.07896e-08 0 0 0 0 0.00582358 0 522.179
0.0459966 0 7.1741e-08 0 0 0 0 0.00562166 0 616.251
0.0486077 0 8.46654e-08 0 0 0 0 0.0054133 0 727.27
0.051367 0 9.99181e-08 0 0 0 0 0.00519989 0 858.29
0.054283 0 1.17919e-07 0 0 0 0 0.0049828 0 1012.91
0.0573645 0 1.39162e-07 0 0 0 0 0.00476339 0 1195.39
0.060621 0 1.64232e-07 0 0 0 0 0.00454293 0 1410.75
0.0640622 0 1.93819e-07 0 0 0 0 0.00432265 0 1664.89
0.0676989 0 2.28736e-07 0 0 0 0 0.00410371 0 1964.83
0.071542 0 2.69944e-07 0 0 0 0 0.00388717 0 2318.8
0.0756032 0 3.18575e-07 0 0 0 0 0.00367401 0 2736.54
0.079895 0 3.75967e-07 0 0 0 0 0.0034651 0 3229.53
0.0844305 0 4.43698e-07 0 0 0 0 0.00326121 0 3811.34
0.0892234 0 5.23632e-07 0 0 0 0 0.00306301 0 4497.96
0.0942883 0 6.17966e-07 0 0 0 0 0.00287109 0 5308.28
0.0996408 0 7.29294e-07 0 0 0 0 0.00268591 0 6264.59
0.105297 0 8.60678e-07 0 0 0 0 0.00250785 0 7393.17
0.111275 0 1.01573e-06 0 0 0 0 0.00233721 0 8725.07
0.117591 0 1.19872e-06 0 0 0 0 0.00217419 0 10296.9
0.124267 0 1.41467e-06 0 0 0 0 0.00201893 0 12151.9
0.131321 0 1.66953e-06 0 0 0 0 0.00187147 0 14341.1
0.138776 0 1.9703e-06 0 0 0 0 0.00173182 0 16924.7
0.146654 0 2.32525e-06 0 0 0 0 0.00159991 0 19973.8
0.154979 0 2.74415e-06 0 0 0 0 0.00147563 0 23572.1
0.163777 0 3.23852e-06 0 0 0 0 0.00135884 0 27818.7
0.173074 0 3.82195e-06 0 0 0 0 0.00124933 0 32830.3
0.182899 0 4.51048e-06 0 0 0 0 0.00114689 0 38744.7
0.193281 0 5.32305e-06 0 0 0 0 0.00105127 0 45724.7
0.204254 0 6.28202e-06 0 0 0 0 0.000962209 0 53962.1
0.215848 0 7.41374e-06 0 0 0 0 0.000879423 0 63683.5
0.228102 0 8.74934e-06 0 0 0 0 0.000802624 0 75156.3
0.24105 0 1.03256e-05 0 0 0 0 0.000731515 0 88695.9
0.254734 0 1.21857e-05 0 0 0 0 0.000665798 0 104675
0.269195 0 1.4381e-05 0 0 0 0 0.000605173 0 123532
0.284476 0 1.69718e-05 0 0 0 0 0.000549345 0 145787
0.300625 0 2.00293e-05 0 0 0 0 0.000498021 0 172051
0.317691 0 2.36377e-05 0 0 0 0 0.000450916 0 203046
0.335725 0 2.78961e-05 0 0 0 0 0.000407755 0 239625
0.354784 0 3.29216e-05 0 0 0 0 0.000368269 0 282795
0.374924 0 3.88525e-05 0 0 0 0 0.000332202 0 333741
0.396207 0.379067 4.58519e-05 9.62429e-07 6 0.368528 9.35672e-07 0.000299307 0.0192932 393865
0.418699 0 5.41123e-05 0 0 0 0 0.00026935 0 464821
0.442467 0 6.38607e-05 0 0 0 0 0.000242108 0 548560
0.467585 0 7.53654e-05 0 0 0 0 0.00021737 0 647384
0.494129 0 8.89427e-05 0 0 0 0 0.000194938 0 764012
0.522179 0 0.000104966 0 0 0 0 0.000174625 0 901651
0.551822 0 0.000123876 0 0 0 0 0.000156255 0 1.06409e+06
0.583147 4.74777 0.000146192 3.78072e-06 12 4.99705 3.97923e-06 0.000139664 0.324841 1.25578e+06
0.616251 0 0.000172529 0 0 0 0 0.0001247 0 1.48202e+06
0.651234 0 0.000203611 0 0 0 0 0.00011122 0 1.74901e+06
0.688203 22.9056 0.000240292 1.10972e-05 8 22.3358 1.08211e-05 9.90935e-05 0.895896 2.06409e+06
0.72727 0 0.000283581 0 0 0 0 8.81969e-05 0 2.43595e+06
0.768555 0 0.000334669 0 0 0 0 7.84179e-05 0 2.87479e+06
0.812184 0.0705884 0.000394961 2.08061e-08 6 0.0720976 2.12509e-08 6.96525e-05 0.00179227 3.39269e+06
0.85829 0 0.000466114 0 0 0 0 6.1805e-05 0 4.00389e+06
0.907013 0.12793 0.000550086 2.70741e-08 24 0.130385 2.75936e-08 5.47875e-05 0.01186 4.7252e+06
0.958501 0.650085 0.000649185 1.16577e-07 24 0.612007 1.09748e-07 4.85194e-05 0.0576643 5.57646e+06
1.01291 0 0.000766138 0 0 0 0 4.29272e-05 0 6.58107e+06
1.07041 0 0.00090416 0 0 0 0 3.79435e-05 0 7.76667e+06
1.13118 1.08763 0.00106705 1.18661e-07 12 1.07427 1.17203e-07 3.3507e-05 0.0424965 9.16586e+06
1.19539 0.478162 0.00125928 4.42042e-08 30 0.468305 4.3293e-08 2.9562e-05 0.0448591 1.08171e+07
1.26325 5.54561 0.00148614 4.3441e-07 24 5.46216 4.27873e-07 2.60578e-05 0.400104 1.27658e+07
1.33496 17.5223 0.00175387 1.16306e-06 24 17.5608 1.16562e-06 2.29484e-05 1.21636 1.50656e+07
1.41075 5.9631 0.00206984 3.35387e-07 32 6.13427 3.45014e-07 2.01923e-05 0.531509 1.77798e+07
1.49083 0.304064 0.00244272 1.44911e-08 48 0.297582 1.41822e-08 1.77518e-05 0.0391833 2.09828e+07
1.57546 0.0369687 0.00288279 1.4929e-09 6 0.0352025 1.42158e-09 1.55929e-05 0.000574457 2.4763e+07
1.66489 0.350518 0.00340213 1.19942e-08 84 0.338294 1.15759e-08 1.3685e-05 0.0736213 2.92241e+07
1.75941 2.22451 0.00401503 6.44995e-08 48 2.2426 6.50239e-08 1.20007e-05 0.257983 3.44889e+07
1.85928 0.202796 0.00473835 4.98245e-09 72 0.204169 5.01618e-09 1.05151e-05 0.0341163 4.07021e+07
1.96483 0.616793 0.00559198 1.28406e-08 54 0.605115 1.25975e-08 9.20606e-06 0.0753189 4.80347e+07
2.07637 7.68227 0.00659939 1.35518e-07 104 7.66241 1.35167e-07 8.05366e-06 1.74999 5.66883e+07
2.19424 0.208908 0.00778828 3.12265e-09 120 0.211033 3.15441e-09 7.04008e-06 0.0532265 6.69008e+07
2.3188 1.5945 0.00919136 2.01955e-08 156 1.51406 1.91766e-08 6.1494e-06 0.512327 7.89532e+07
2.45043 0.447533 0.0108472 4.80305e-09 126 0.445812 4.78458e-09 5.36741e-06 0.112751 9.31768e+07
2.58954 0.416704 0.0128014 3.78949e-09 192 0.422205 3.83952e-09 4.68145e-06 0.155418 1.09963e+08
2.73654 3.88674 0.0151076 2.99503e-08 152 4.03471 3.10906e-08 4.08023e-06 1.11573 1.29773e+08
2.89188 3.28134 0.0178292 2.14254e-08 378 3.35635 2.19152e-08 3.55373e-06 2.27896 1.53152e+08
3.05605 1.12625 0.0210412 6.23122e-09 264 1.10588 6.11852e-09 3.09304e-06 0.531853 1.80743e+08
3.22953 0.155893 0.0248319 7.30851e-10 366 0.15329 7.18647e-10 2.69025e-06 0.0994298 2.13304e+08
3.41286 0.643547 0.0293054 2.55648e-09 428 0.612468 2.43302e-09 2.33837e-06 0.467922 2.51731e+08
3.6066 2.90815 0.0345848 9.78906e-09 486 2.80833 9.45308e-09 2.0312e-06 2.3422 2.97081e+08
3.81134 0.633233 0.0408154 1.80613e-09 600 0.628412 1.79238e-09 1.76327e-06 0.614587 3.50601e+08
4.0277 0.390151 0.0481684 9.42933e-10 738 0.38422 9.286e-10 1.52972e-06 0.454909 4.13763e+08
4.25634 1.02752 0.056846 2.10425e-09 824 1.07046 2.19221e-09 1.32631e-06 1.30732 4.88304e+08
4.49796 2.38305 0.067087 4.13529e-09 954 2.3995 4.16382e-09 1.14926e-06 3.43271 5.76273e+08
4.7533 0.486424 0.0791729 7.15235e-10 1094 0.476534 7.00693e-10 9.95263e-07 0.786192 6.8009e+08
5.02313 0.249103 0.0934361 3.10366e-10 1332 0.248371 3.09454e-10 8.61414e-07 0.479918 8.0261e+08
5.30828 1.87049 0.110269 1.97475e-09 1614 1.89343 1.99898e-09 7.45152e-07 4.27731 9.47202e+08
5.60962 0.87368 0.130134 7.81576e-10 1850 0.84257 7.53746e-10 6.44232e-07 2.2444 1.11784e+09
5.92807 1.17738 0.153578 8.92477e-10 2238 1.12431 8.5225e-10 5.56685e-07 3.58796 1.31923e+09
6.26459 0.530945 0.181246 3.4103e-10 2546 0.539518 3.46536e-10 4.80786e-07 1.80592 1.55689e+09
6.62021 0.173815 0.213898 9.46004e-11 3264 0.173695 9.45348e-11 4.15026e-07 0.743992 1.83737e+09
6.99602 1.17361 0.252432 5.41241e-10 3506 1.21543 5.60528e-10 3.58083e-07 5.29931 2.16837e+09
7.39317 0.490266 0.297908 1.91584e-10 4506 0.497453 1.94393e-10 3.08803e-07 2.79556 2.55901e+09
7.81286 0.977012 0.351577 3.23511e-10 5018 1.01069 3.34663e-10 2.66181e-07 6.09879 3.02002e+09
8.25637 0.858204 0.414914 2.40792e-10 5852 0.823755 2.31126e-10 2.29336e-07 6.14432 3.56409e+09
8.72507 0.544562 0.489662 1.29467e-10 7362 0.537609 1.27814e-10 1.97503e-07 4.82595 4.20617e+09
9.22037 0.779835 0.577876 1.57101e-10 8306 0.76984 1.55087e-10 1.70014e-07 7.67512 4.96392e+09
9.74378 0.254605 0.681982 4.34615e-11 9698 0.255362 4.35906e-11 1.46289e-07 2.88121 5.85818e+09
10.2969 0.786566 0.804843 1.13772e-10 11816 0.80099 1.15858e-10 1.25822e-07 10.6843 6.91355e+09
10.8814 0.649102 0.949838 7.95561e-11 13682 0.649911 7.96552e-11 1.08175e-07 10.0622 8.15905e+09
11.4992 0.634812 1.12095 6.59276e-11 16152 0.622711 6.46709e-11 9.29669e-08 11.4542 9.62892e+09
12.1519 0.630405 1.3229 5.54758e-11 19472 0.614956 5.41164e-11 7.98658e-08 13.5255 1.13636e+10
12.8418 0.322378 1.56122 2.40388e-11 22670 0.326163 2.43209e-11 6.85852e-08 7.94572 1.34108e+10
13.5708 0.630337 1.84248 3.98273e-11 26224 0.639825 4.04268e-11 5.88765e-08 17.7394 1.58268e+10
14.3411 0.541982 2.17441 2.90171e-11 31640 0.55 2.94464e-11 5.05241e-08 18.1715 1.8678e+10
15.1552 0.617738 2.56613 2.80244e-11 37484 0.623011 2.82636e-11 4.33417e-08 24.2369 2.20429e+10
16.0156 0.576964 3.02843 2.2179e-11 43856 0.585457 2.25055e-11 3.71677e-08 26.1701 2.6014e+10
16.9247 0.904785 3.574 2.94714e-11 51362 0.904008 2.94461e-11 3.18628e-08 47.5071 3.07005e+10
17.8855 0.928699 4.21787 2.56325e-11 61636 0.92022 2.53985e-11 2.73063e-08 57.8579 3.62312e+10
18.9008 1.36408 4.97773 3.1902e-11 72218 1.35689 3.17339e-11 2.33941e-08 98.4819 4.27584e+10
19.9738 1.96094 5.87448 3.88602e-11 84586 1.9444 3.85325e-11 2.00364e-08 164.053 5.04614e+10
21.1076 2.83037 6.93279 4.75275e-11 100708 2.82556 4.74467e-11 1.71555e-08 279.001 5.95522e+10
22.3058 4.22849 8.18175 6.01658e-11 118712 4.22303 6.00881e-11 1.46847e-08 486.385 7.02807e+10
23.5721 5.54589 9.65571 6.68647e-11 140410 5.52633 6.6629e-11 1.25662e-08 747.123 8.29419e+10
24.9102 6.54963 11.3952 6.69121e-11 164374 6.5239 6.66491e-11 1.07504e-08 1023.09 9.78842e+10
26.3243 7.77191 13.4481 6.72787e-11 194680 7.73702 6.69766e-11 9.19452e-09 1424.52 1.15518e+11
27.8187 8.86311 15.8708 6.50125e-11 230196 8.8253 6.47353e-11 7.86182e-09 1903.58 1.36329e+11
29.3979 10.4934 18.73 6.5221e-11 271156 10.4529 6.49695e-11 6.72061e-09 2631.47 1.60889e+11
31.0667 12.6404 22.1042 6.65724e-11 321076 12.5928 6.63217e-11 5.74366e-09 3721.46 1.89874e+11
32.8303 14.8991 26.0864 6.64901e-11 377436 14.8496 6.62693e-11 4.90756e-09 5113.7 2.2408e+11
34.694 17.2553 30.7859 6.52501e-11 447594 17.2015 6.50465e-11 4.19221e-09 6966.64 2.64449e+11
36.6634 19.7291 36.3321 6.32161e-11 525078 19.6682 6.30211e-11 3.58032e-09 9271.05 3.1209e+11
38.7447 22.356 42.8774 6.06983e-11 621924 22.2883 6.05144e-11 3.05709e-09 12348.3 3.68314e+11
40.9442 25.8955 50.6018 5.95756e-11 732630 25.8192 5.93999e-11 2.60976e-09 16724.5 4.34667e+11
43.2685 30.3658 59.7179 5.91957e-11 865596 30.2639 5.8997e-11 2.22743e-09 23003.9 5.12973e+11
45.7247 36.1009 70.4762 5.96328e-11 1.02168e+06 35.9768 5.94278e-11 1.90073e-09 32053.6 6.05386e+11
48.3204 43.1293 83.1727 6.03673e-11 1.20544e+06 42.9782 6.01557e-11 1.62163e-09 44873.9 7.14448e+11
51.0634 51.2423 98.1565 6.07743e-11 1.42103e+06 51.0742 6.05749e-11 1.38326e-09 62433.9 8.43158e+11
53.9621 60.3634 115.84 6.06634e-11 1.67997e+06 60.1649 6.04638e-11 1.1797e-09 86388.3 9.95055e+11
57.0254 71.2866 136.709 6.07047e-11 1.98018e+06 71.0606 6.05123e-11 1.00592e-09 119499 1.17432e+12
60.2626 83.803 161.337 6.04695e-11 2.33957e+06 83.5298 6.02723e-11 8.57591e-10 164965 1.38587e+12
63.6835 98.8472 190.402 6.0437e-11 2.75676e+06 98.5253 6.02401e-11 7.3101e-10 227918 1.63554e+12
67.2987 116.582 224.704 6.03994e-11 3.25638e+06 116.213 6.02078e-11 6.23009e-10 315699 1.93019e+12
71.1191 137.674 265.185 6.04386e-11 3.84387e+06 137.218 6.02382e-11 5.30879e-10 437610 2.27792e+12
75.1563 162.39 312.958 6.04065e-11 4.53277e+06 161.855 6.02073e-11 4.52303e-10 605364 2.68829e+12
79.4227 191.451 369.339 6.03452e-11 5.35083e+06 190.839 6.01524e-11 3.85299e-10 838042 3.17259e+12
83.9313 225.857 435.876 6.03226e-11 6.32174e+06 225.104 6.01216e-11 3.28173e-10 1.16202e+06 3.74415e+12
88.6959 266.542 514.4 6.0322e-11 7.44986e+06 265.653 6.01207e-11 2.79476e-10 1.60797e+06 4.41866e+12
93.7309 314.637 607.071 6.03367e-11 8.79764e+06 313.619 6.01414e-11 2.37972e-10 2.2306e+06 5.2147e+12
99.0518 371.507 716.436 6.03671e-11 1.03827e+07 370.279 6.01674e-11 2.02605e-10 3.09357e+06 6.15414e+12
104.675 438.435 845.504 6.0367e-11 1.22515e+07 436.985 6.01674e-11 1.72471e-10 4.28819e+06 7.26283e+12
110.617 517.99 997.824 6.04335e-11 1.44573e+07 516.294 6.02356e-11 1.468e-10 5.95167e+06 8.57124e+12
116.896 610.866 1177.58 6.03898e-11 1.70664e+07 608.84 6.01896e-11 1.24935e-10 8.2494e+06 1.01154e+13
123.532 721.11 1389.73 6.04061e-11 2.0139e+07 718.719 6.02059e-11 1.06313e-10 1.14428e+07 1.19377e+13
130.545 851.713 1640.09 6.04553e-11 2.37643e+07 848.88 6.02543e-11 9.04567e-11 1.58825e+07 1.40883e+13
137.955 1005.42 1935.56 6.04717e-11 2.80503e+07 1002.1 6.02719e-11 7.69563e-11 2.20417e+07 1.66263e+13
145.787 1187.8 2284.26 6.05353e-11 3.30981e+07 1183.83 6.03328e-11 6.54636e-11 3.06064e+07 1.96216e+13
154.063 1402.23 2695.77 6.05544e-11 3.90634e+07 1397.55 6.03523e-11 5.56812e-11 4.24823e+07 2.31565e+13
162.808 1657.33 3181.42 6.06452e-11 4.61057e+07 1651.79 6.04426e-11 4.73556e-11 5.90445e+07 2.73282e+13
172.051 1957.12 3754.56 6.0683e-11 5.44046e+07 1950.53 6.04788e-11 4.02708e-11 8.19808e+07 3.22515e+13
181.818 2319.71 4430.96 6.0946e-11 6.42064e+07 2312.06 6.07452e-11 3.42426e-11 1.14277e+08 3.80616e+13
192.139 2736.5 5229.21 6.09214e-11 7.57748e+07 2727.31 6.07169e-11 2.91139e-11 1.5856e+08 4.49186e+13
203.046 3238.01 6171.26 6.10821e-11 8.94213e+07 3227.12 6.08768e-11 2.4751e-11 2.20679e+08 5.30108e+13
214.572 3832.12 7283.03 6.12544e-11 1.05538e+08 3819.18 6.10476e-11 2.10401e-11 3.07256e+08 6.25608e+13
226.753 4547 8595.09 6.15864e-11 1.24552e+08 4531.22 6.13727e-11 1.78839e-11 4.28916e+08 7.38313e+13
239.625 5388.41 10143.5 6.18418e-11 1.46987e+08 5369.98 6.16303e-11 1.51999e-11 5.98027e+08 8.71322e+13
253.228 6408.24 11970.9 6.23192e-11 1.7347e+08 6385.89 6.21019e-11 1.29176e-11 8.36881e+08 1.02829e+14
267.603 7621.48 14127.5 6.28036e-11 2.04703e+08 7594.99 6.25853e-11 1.09771e-11 1.17117e+09 1.21354e+14
282.795 9101.83 16672.6 6.35529e-11 2.4161e+08 9069.77 6.3329e-11 9.3274e-12 1.64623e+09 1.43217e+14
298.848 10906 19676.2 6.45256e-11 2.85122e+08 10866.8 6.42941e-11 7.925e-12 2.32148e+09 1.69017e+14
315.813 13144.2 23220.9 6.58968e-11 3.36491e+08 13095.9 6.56546e-11 6.73295e-12 3.29331e+09 1.99466e+14
333.741 15962.2 27404.3 6.78087e-11 3.97115e+08 15901.5 6.75508e-11 5.71979e-12 4.70783e+09 2.35401e+14
352.686 19588.6 32341.2 7.05111e-11 4.68637e+08 19511 7.02318e-11 4.85874e-12 6.80096e+09 2.77809e+14
372.707 24403.6 38167.6 7.44337e-11 5.53074e+08 24301 7.41207e-11 4.12703e-12 9.97505e+09 3.27857e+14
393.865 31063 45043.5 8.02826e-11 6.52716e+08 30922.9 7.99205e-11 3.50528e-12 1.49494e+10 3.86921e+14
416.224 36638.6 53158.3 8.02376e-11 2.2184e+08 38760.2 8.4884e-11 2.97701e-12 5.97912e+09 4.56626e+14
439.852 0 62734.9 0 0 0 0 2.52819e-12 0 5.38888e+14
464.821 0 74036.7 0 0 0 0 2.1469e-12 0 6.35971e+14
491.207 0 87374.6 0 0 0 0 1.82301e-12 0 7.50542e+14
519.092 0 103115 0 0 0 0 1.54789e-12 0 8.85755e+14
548.56 0 121692 0 0 0 0 1.31422e-12 0 1.04533e+15
579.7 0 143615 0 0 0 0 1.11576e-12 0 1.23364e+15
612.608 0 169488 0 0 0 0 9.47223e-13 0 1.45589e+15
647.384 0 200021 0 0 0 0 8.041e-13 0 1.71817e+15
684.134 0 236056 0 0 0 0 6.82568e-13 0 2.0277e+15
722.971 0 278582 0 0 0 0 5.79376e-13 0 2.393e+15
764.012 0 328769 0 0 0 0 4.91762e-13 0 2.8241e+15
0.0907932
200
1.0655e+09
8589934592
0.0129181 2.67335e-05 1.58924e-09 1.95829e-06 6 2.64888e-05 1.94036e-06 0.00677225 0.00173498 13.6515
0.0136515 0 1.87554e-09 0 0 0 0 0.00688819 0 16.1108
0.0144264 0 2.21343e-09 0 0 0 0 0.00699249 0 19.0132
0.0152454 0 2.61218e-09 0 0 0 0 0.00708412 0 22.4385
0.0161108 0 3.08278e-09 0 0 0 0 0.00716212 0 26.4808
0.0170254 0 3.63815e-09 0 0 0 0 0.00722559 0 31.2514
0.0179919 5.93483e-05 4.29357e-09 1.60916e-06 12 5.92719e-05 1.60709e-06 0.00727371 0.00265476 36.8815
0.0190132 0 5.06707e-09 0 0 0 0 0.00730578 0 43.5258
0.0200925 0 5.97991e-09 0 0 0 0 0.00732122 0 51.367
0.0212331 5.61168e-05 7.05721e-09 9.257e-07 8 5.6068e-05 9.24895e-07 0.00731958 0.00101175 60.621
0.0224385 0 8.32858e-09 0 0 0 0 0.00730056 0 71.542
0.0237123 0 9.829e-09 0 0 0 0 0.00726401 0 84.4305
0.0250583 0.000361185 1.15997e-08 3.62487e-06 6 0.000361015 3.62316e-06 0.00720995 0.00301656 99.6408
0.0264808 0 1.36894e-08 0 0 0 0 0.00713857 0 117.591
0.0279841 0.000225168 1.61556e-08 1.62253e-06 24 0.000224937 1.62087e-06 0.00705021 0.00552336 138.776
0.0295727 0 1.90661e-08 0 0 0 0 0.00694538 0 163.777
0.0312514 0.000402713 2.25009e-08 2.08356e-06 24 0.000404758 2.09414e-06 0.00682475 0.00732707 193.281
0.0330255 0 2.65545e-08 0 0 0 0 0.00668915 0 228.102
0.0349003 0.000560239 3.13384e-08 2.08117e-06 12 0.000555753 2.0645e-06 0.00653951 0.00381894 269.195
0.0368815 0.000488067 3.69841e-08 1.5363e-06 30 0.00048287 1.51994e-06 0.00637693 0.00722744 317.691
0.0389751 0.000583777 4.36469e-08 1.55705e-06 24 0.000577771 1.54104e-06 0.00620256 0.00602482 374.924
0.0411876 0.000369825 5.151e-08 8.35824e-07 24 0.000367313 8.30148e-07 0.00601767 0.00333348 442.467
0.0435258 0.000788775 6.07896e-08 1.51054e-06 8 0.000788714 1.51043e-06 0.00582358 0.00207507 522.179
0.0459966 0.00101231 7.1741e-08 1.6427e-06 72 0.0010043 1.6297e-06 0.00562166 0.021039 616.251
0.0486077 0 8.46654e-08 0 0 0 0 0.0054133 0 727.27
0.051367 0.00152521 9.99181e-08 1.77703e-06 54 0.0015204 1.77142e-06 0.00519989 0.0184542 858.29
0.054283 0.00118151 1.17919e-07 1.16644e-06 60 0.00118639 1.17127e-06 0.0049828 0.0140456 1012.91
0.0573645 0.00118219 1.39162e-07 9.88953e-07 96 0.00117915 9.86416e-07 0.00476339 0.0199311 1195.39
0.060621 0.00136234 1.64232e-07 9.65688e-07 24 0.00134388 9.52605e-07 0.00454293 0.00510167 1410.75
0.0640622 0.00240194 1.93819e-07 1.4427e-06 134 0.00240324 1.44348e-06 0.00432265 0.0447228 1664.89
0.0676989 0.00230133 2.28736e-07 1.17126e-06 120 0.00229084 1.16592e-06 0.00410371 0.0342498 1964.83
0.071542 0.00209733 2.69944e-07 9.0449e-07 108 0.00207466 8.94712e-07 0.00388717 0.0251301 2318.8
0.0756032 0.00304354 3.18575e-07 1.11219e-06 174 0.00302778 1.10643e-06 0.00367401 0.0526727 2736.54
0.079895 0.00326123 3.75967e-07 1.00981e-06 168 0.00323043 1.00028e-06 0.0034651 0.0489593 3229.53
0.0844305 0.00279436 4.43698e-07 7.3317e-07 168 0.00280831 7.36831e-07 0.00326121 0.037769 3811.34
0.0892234 0.00313835 5.23632e-07 6.97727e-07 290 0.00312525 6.94814e-07 0.00306301 0.0660594 4497.96
0.0942883 0.00408657 6.17966e-07 7.69847e-07 288 0.00407613 7.67881e-07 0.00287109 0.0772236 5308.28
0.0996408 0.00373852 7.29294e-07 5.96771e-07 366 0.00370674 5.91698e-07 0.00268591 0.08132 6264.59
0.105297 0.00402518 8.60678e-07 5.44446e-07 420 0.00399739 5.40687e-07 0.00250785 0.0911806 7393.17
0.111275 0.00424884 1.01573e-06 4.86969e-07 398 0.00423748 4.85668e-07 0.00233721 0.0829251 8725.07
0.117591 0.005057 1.19872e-06 4.91118e-07 624 0.00506725 4.92113e-07 0.00217419 0.140952 10296.9
0.124267 0.00557033 1.41467e-06 4.5839e-07 642 0.00556371 4.57846e-07 0.00201893 0.145764 12151.9
0.131321 0.00708685 1.66953e-06 4.94163e-07 800 0.00708934 4.94336e-07 0.00187147 0.211241 14341.1
0.138776 0.00646595 1.9703e-06 3.82041e-07 858 0.00649724 3.83891e-07 0.00173182 0.189276 16924.7
0.146654 0.00694425 2.32525e-06 3.47668e-07 1080 0.00700218 3.50569e-07 0.00159991 0.23469 19973.8
0.154979 0.00819706 2.74415e-06 3.47745e-07 1286 0.00825409 3.50164e-07 0.00147563 0.303056 23572.1
0.163777 0.00778345 3.23852e-06 2.79792e-07 1650 0.007797 2.8028e-07 0.00135884 0.339744 27818.7
0.173074 0.00917049 3.82195e-06 2.7933e-07 1778 0.00917152 2.79362e-07 0.00124933 0.397532 32830.3
0.182899 0.00898765 4.51048e-06 2.31971e-07 2112 0.00900852 2.3251e-07 0.00114689 0.427175 38744.7
0.193281 0.0105915 5.32305e-06 2.31637e-07 2570 0.0106074 2.31985e-07 0.00105127 0.566272 45724.7
0.204254 0.0116818 6.28202e-06 2.16481e-07 3030 0.0116777 2.16406e-07 0.000962209 0.6817 53962.1
0.215848 0.011624 7.41374e-06 1.82528e-07 3434 0.0116229 1.8251e-07 0.000879423 0.71274 63683.5
0.228102 0.0121594 8.74934e-06 1.61788e-07 4218 0.0121619 1.61821e-07 0.000802624 0.85024 75156.3
0.24105 0.0137483 1.03256e-05 1.55005e-07 4766 0.0137609 1.55147e-07 0.000731515 1.0099 88695.9
0.254734 0.0146421 1.21857e-05 1.39882e-07 6026 0.0146375 1.39838e-07 0.000665798 1.26605 104675
0.269195 0.015293 1.4381e-05 1.23798e-07 6480 0.0152866 1.23746e-07 0.000605173 1.32559 123532
0.284476 0.0165304 1.69718e-05 1.13388e-07 8162 0.0165686 1.1365e-07 0.000549345 1.68468 145787
0.300625 0.0166601 2.00293e-05 9.68324e-08 9578 0.0166815 9.69568e-08 0.000498021 1.86229 172051
0.317691 0.0184708 2.36377e-05 9.09684e-08 11234 0.0184582 9.09063e-08 0.000450916 2.26636 203046
0.335725 0.019335 2.78961e-05 8.06885e-08 13344 0.0193279 8.06587e-08 0.000407755 2.64057 239625
0.354784 0.0199996 3.29216e-05 7.07214e-08 15464 0.019988 7.06804e-08 0.000368269 2.96967 282795
0.374924 0.0214959 3.88525e-05 6.44089e-08 18458 0.0214915 6.43958e-08 0.000332202 3.57873 333741
0.396207 0.0225121 4.58519e-05 5.71568e-08 22232 0.0224795 5.70742e-08 0.000299307 4.24551 393865
0.418699 0.0243329 5.41123e-05 5.23489e-08 25628 0.0242859 5.22479e-08 0.00026935 4.98088 464821
0.442467 0.0252083 6.38607e-05 4.59536e-08 30320 0.0251668 4.5878e-08 0.000242108 5.75493 548560
0.467585 0.0264302 7.53654e-05 4.08261e-08 35452 0.0263923 4.07676e-08 0.00021737 6.65854 647384
0.494129 0.0273133 8.89427e-05 3.57498e-08 41792 0.0273049 3.57388e-08 0.000194938 7.66425 764012
0.522179 0.0295278 0.000104966 3.27486e-08 49988 0.0295206 3.27406e-08 0.000174625 9.3746 901651
0.551822 0.0307966 0.000123876 2.89418e-08 59110 0.0307788 2.89251e-08 0.000156255 10.9485 1.06409e+06
0.583147 0.0323456 0.000146192 2.57573e-08 69716 0.0323084 2.57277e-08 0.000139664 12.8572 1.25578e+06
0.616251 0.0341347 0.000172529 2.30326e-08 82210 0.0340821 2.29971e-08 0.0001247 15.1845 1.48202e+06
0.651234 0.0359686 0.000203611 2.05652e-08 96722 0.0359057 2.05292e-08 0.00011122 17.8844 1.74901e+06
0.688203 0.0376647 0.000240292 1.82476e-08 113098 0.037633 1.82322e-08 9.90935e-05 20.8264 2.06409e+06
0.72727 0.0389434 0.000283581 1.5987e-08 135190 0.0389042 1.59709e-08 8.81969e-05 24.5052 2.43595e+06
0.768555 0.0412949 0.000334669 1.43645e-08 158170 0.041261 1.43527e-08 7.84179e-05 28.9734 2.87479e+06
0.812184 0.0430158 0.000394961 1.2679e-08 188560 0.0429756 1.26671e-08 6.96525e-05 34.3239 3.39269e+06
0.85829 0.0447659 0.000466114 1.11806e-08 220444 0.0447177 1.11686e-08 6.1805e-05 39.8786 4.00389e+06
0.907013 0.0470657 0.000550086 9.96057e-09 261388 0.0470227 9.95147e-09 5.47875e-05 47.5213 4.7252e+06
0.958501 0.0489335 0.000649185 8.77501e-09 308244 0.0488815 8.76569e-09 4.85194e-05 55.7477 5.57646e+06
1.01291 0.0513764 0.000766138 7.8067e-09 364396 0.0513185 7.7979e-09 4.29272e-05 66.2687 6.58107e+06
1.07041 0.0534819 0.00090416 6.88608e-09 429162 0.0534209 6.87822e-09 3.79435e-05 77.8854 7.76667e+06
1.13118 0.0560582 0.00106705 6.11598e-09 506358 0.0559906 6.1086e-09 3.3507e-05 92.4247 9.16586e+06
1.19539 0.058222 0.00125928 5.3824e-09 598590 0.0581517 5.3759e-09 2.9562e-05 108.986 1.08171e+07
1.26325 0.0608667 0.00148614 4.76794e-09 704844 0.0607942 4.76226e-09 2.60578e-05 128.969 1.27658e+07
1.33496 0.0633684 0.00175387 4.20615e-09 834620 0.0632909 4.20101e-09 2.29484e-05 152.975 1.50656e+07
1.41075 0.0659292 0.00206984 3.7081e-09 981444 0.0658538 3.70386e-09 2.01923e-05 180.232 1.77798e+07
1.49083 0.0686459 0.00244272 3.27153e-09 1.15998e+06 0.0685613 3.26749e-09 1.77518e-05 213.776 2.09828e+07
1.57546 0.0716636 0.00288279 2.89398e-09 1.36931e+06 0.0715756 2.89043e-09 1.55929e-05 254.14 2.4763e+07
1.66489 0.0746215 0.00340213 2.55343e-09 1.61652e+06 0.0745212 2.54999e-09 1.3685e-05 301.618 2.92241e+07
1.75941 0.0776036 0.00401503 2.25011e-09 1.90601e+06 0.0775041 2.24722e-09 1.20007e-05 357.373 3.44889e+07
1.85928 0.0808 0.00473835 1.98515e-09 2.24913e+06 0.0807003 1.9827e-09 1.05151e-05 424.614 4.07021e+07
1.96483 0.0840116 0.00559198 1.74898e-09 2.65744e+06 0.0839031 1.74672e-09 9.20606e-06 504.863 4.80347e+07
2.07637 0.0873906 0.00659939 1.5416e-09 3.13125e+06 0.0872806 1.53966e-09 8.05366e-06 599.371 5.66883e+07
2.19424 0.0910211 0.00778828 1.36054e-09 3.69915e+06 0.0909054 1.35881e-09 7.04008e-06 714.883 6.69008e+07
2.3188 0.0946082 0.00919136 1.19828e-09 4.36472e+06 0.0944823 1.19669e-09 6.1494e-06 850.517 7.89532e+07
2.45043 0.098549 0.0108472 1.05766e-09 5.14913e+06 0.0984233 1.05631e-09 5.36741e-06 1014.64 9.31768e+07
2.58954 0.102624 0.0128014 9.33261e-10 6.07894e+06 0.102492 9.32058e-10 4.68145e-06 1211.85 1.09963e+08
2.73654 0.106808 0.0151076 8.23041e-10 7.17304e+06 0.106671 8.21979e-10 4.08023e-06 1446.9 1.29773e+08
2.89188 0.111054 0.0178292 7.25121e-10 8.46557e+06 0.110908 7.24169e-10 3.55373e-06 1727.36 1.53152e+08
3.05605 0.115612 0.0210412 6.39647e-10 9.98773e+06 0.115466 6.38842e-10 3.09304e-06 2065.48 1.80743e+08
3.22953 0.12047 0.0248319 5.64782e-10 1.1797e+07 0.120313 5.64044e-10 2.69025e-06 2476.62 2.13304e+08
3.41286 0.125428 0.0293054 4.98263e-10 1.39144e+07 0.125259 4.97588e-10 2.33837e-06 2964.89 2.51731e+08
3.6066 0.130725 0.0345848 4.40032e-10 1.64163e+07 0.130553 4.39452e-10 2.0312e-06 3556.37 2.97081e+08
3.81134 0.136135 0.0408154 3.88291e-10 1.93821e+07 0.135954 3.87775e-10 1.76327e-06 4268.17 3.50601e+08
4.0277 0.142026 0.0481684 3.43254e-10 2.28754e+07 0.141833 3.42788e-10 1.52972e-06 5133 4.13763e+08
4.25634 0.148211 0.056846 3.03523e-10 2.69929e+07 0.148007 3.03105e-10 1.32631e-06 6177.27 4.88304e+08
4.49796 0.154777 0.067087 2.68583e-10 3.18542e+07 0.154557 2.68201e-10 1.14926e-06 7444.38 5.76273e+08
4.7533 0.161768 0.0791729 2.37863e-10 3.75892e+07 0.16154 2.37528e-10 9.95263e-07 8983.63 6.8009e+08
5.02313 0.169094 0.0934361 2.1068e-10 4.43706e+07 0.168851 2.10377e-10 8.61414e-07 10851.9 8.0261e+08
5.30828 0.176919 0.110269 1.8678e-10 5.23593e+07 0.176661 1.86508e-10 7.45152e-07 13124.4 9.47202e+08
5.60962 0.185413 0.130134 1.65867e-10 6.1787e+07 0.185142 1.65624e-10 6.44232e-07 15907.9 1.11784e+09
5.92807 0.194403 0.153578 1.47362e-10 7.29346e+07 0.194112 1.47141e-10 5.56685e-07 19306.7 1.31923e+09
6.26459 0.203922 0.181246 1.30981e-10 8.60651e+07 0.203612 1.30782e-10 4.80786e-07 23446.7 1.55689e+09
6.62021 0.214178 0.213898 1.16568e-10 1.01558e+08 0.213846 1.16387e-10 4.15026e-07 28524.5 1.83737e+09
6.99602 0.225157 0.252432 1.03837e-10 1.1986e+08 0.224809 1.03676e-10 3.58083e-07 34757.1 2.16837e+09
7.39317 0.236792 0.297908 9.25326e-11 1.41457e+08 0.23642 9.23871e-11 3.08803e-07 42387.3 2.55901e+09
7.81286 0.249187 0.351577 8.25115e-11 1.66936e+08 0.248792 8.2381e-11 2.66181e-07 51747.2 3.02002e+09
8.25637 0.262418 0.414914 7.36283e-11 1.97025e+08 0.261999 7.35108e-11 2.29336e-07 63254.9 3.56409e+09
8.72507 0.276634 0.489662 6.57685e-11 2.32497e+08 0.276188 6.56626e-11 1.97503e-07 77421.5 4.20617e+09
9.22037 0.29219 0.577876 5.88628e-11 2.74404e+08 0.291708 5.87657e-11 1.70014e-07 95005.1 4.96392e+09
9.74378 0.309558 0.681982 5.28419e-11 3.2382e+08 0.309028 5.27516e-11 1.46289e-07 116969 5.85818e+09
10.2969 0.329803 0.804843 4.77038e-11 3.82165e+08 0.329208 4.76177e-11 1.25822e-07 144892 6.91355e+09
10.8814 0.354756 0.949838 4.34801e-11 4.51027e+08 0.354057 4.33944e-11 1.08175e-07 181286 8.15905e+09
11.4992 0.387826 1.12095 4.02772e-11 5.32251e+08 0.386959 4.01872e-11 9.29669e-08 230594 9.62892e+09
12.1519 0.43573 1.3229 3.83444e-11 6.28157e+08 0.434568 3.82421e-11 7.98658e-08 301585 1.13636e+10
12.8418 0.490093 1.56122 3.65447e-11 3.82727e+08 0.507232 3.78227e-11 6.85852e-08 203931 1.34108e+10
13.5708 0 1.84248 0 0 0 0 5.88765e-08 0 1.58268e+10
14.3411 0 2.17441 0 0 0 0 5.05241e-08 0 1.8678e+10
15.1552 0 2.56613 0 0 0 0 4.33417e-08 0 2.20429e+10
16.0156 0 3.02843 0 0 0 0 3.71677e-08 0 2.6014e+10
16.9247 0 3.574 0 0 0 0 3.18628e-08 0 3.07005e+10
17.8855 0 4.21787 0 0 0 0 2.73063e-08 0 3.62312e+10
18.9008 0 4.97773 0 0 0 0 2.33941e-08 0 4.27584e+10
19.9738 0 5.87448 0 0 0 0 2.00364e-08 0 5.04614e+10
21.1076 0 6.93279 0 0 0 0 1.71555e-08 0 5.95522e+10
22.3058 0 8.18175 0 0 0 0 1.46847e-08 0 7.02807e+10
23.5721 0 9.65571 0 0 0 0 1.25662e-08 0 8.29419e+10
24.9102 0 11.3952 0 0 0 0 1.07504e-08 0 9.78842e+10
26.3243 0 13.4481 0 0 0 0 9.19452e-09 0 1.15518e+11
27.8187 0 15.8708 0 0 0 0 7.86182e-09 0 1.36329e+11
29.3979 0 18.73 0 0 0 0 6.72061e-09 0 1.60889e+11
31.0667 0 22.1042 0 0 0 0 5.74366e-09 0 1.89874e+11
32.8303 0 26.0864 0 0 0 0 4.90756e-09 0 2.2408e+11
34.694 0 30.7859 0 0 0 0 4.19221e-09 0 2.64449e+11
36.6634 0 36.3321 0 0 0 0 3.58032e-09 0 3.1209e+11
38.7447 0 42.8774 0 0 0 0 3.05709e-09 0 3.68314e+11
40.9442 0 50.6018 0 0 0 0 2.60976e-09 0 4.34667e+11
43.2685 0 59.7179 0 0 0 0 2.22743e-09 0 5.12973e+11
45.7247 0 70.4762 0 0 0 0 1.90073e-09 0 6.05386e+11
48.3204 0 83.1727 0 0 0 0 1.62163e-09 0 7.14448e+11
51.0634 0 98.1565 0 0 0 0 1.38326e-09 0 8.43158e+11
53.9621 0 115.84 0 0 0 0 1.1797e-09 0 9.95055e+11
57.0254 0 136.709 0 0 0 0 1.00592e-09 0 1.17432e+12
60.2626 0 161.337 0 0 0 0 8.57591e-10 0 1.38587e+12
63.6835 0 190.402 0 0 0 0 7.3101e-10 0 1.63554e+12
67.2987 0 224.704 0 0 0 0 6.23009e-10 0 1.93019e+12
71.1191 0 265.185 0 0 0 0 5.30879e-10 0 2.27792e+12
75.1563 0 312.958 0 0 0 0 4.52303e-10 0 2.68829e+12
79.4227 0 369.339 0 0 0 0 3.85299e-10 0 3.17259e+12
83.9313 0 435.876 0 0 0 0 3.28173e-10 0 3.74415e+12
88.6959 0 514.4 0 0 0 0 2.79476e-10 0 4.41866e+12
93.7309 0 607.071 0 0 0 0 2.37972e-10 0 5.2147e+12
99.0518 0 716.436 0 0 0 0 2.02605e-10 0 6.15414e+12
104.675 0 845.504 0 0 0 0 1.72471e-10 0 7.26283e+12
110.617 0 997.824 0 0 0 0 1.468e-10 0 8.57124e+12
116.896 0 1177.58 0 0 0 0 1.24935e-10 0 1.01154e+13
123.532 0 1389.73 0 0 0 0 1.06313e-10 0 1.19377e+13
130.545 0 1640.09 0 0 0 0 9.04567e-11 0 1.40883e+13
137.955 0 1935.56 0 0 0 0 7.69563e-11 0 1.66263e+13
145.787 0 2284.26 0 0 0 0 6.54636e-11 0 1.96216e+13
154.063 0 2695.77 0 0 0 0 5.56812e-11 0 2.31565e+13
162.808 0 3181.42 0 0 0 0 4.73556e-11 0 2.73282e+13
172.051 0 3754.56 0 0 0 0 4.02708e-11 0 3.22515e+13
181.818 0 4430.96 0 0 0 0 3.42426e-11 0 3.80616e+13
192.139 0 5229.21 0 0 0 0 2.91139e-11 0 4.49186e+13
203.046 0 6171.26 0 0 0 0 2.4751e-11 0 5.30108e+13
214.572 0 7283.03 0 0 0 0 2.10401e-11 0 6.25608e+13
226.753 0 8595.09 0 0 0 0 1.78839e-11 0 7.38313e+13
239.625 0 10143.5 0 0 0 0 1.51999e-11 0 8.71322e+13
253.228 0 11970.9 0 0 0 0 1.29176e-11 0 1.02829e+14
267.603 0 14127.5 0 0 0 0 1.09771e-11 0 1.21354e+14
282.795 0 16672.6 0 0 0 0 9.3274e-12 0 1.43217e+14
298.848 0 19676.2 0 0 0 0 7.925e-12 0 1.69017e+14
315.813 0 23220.9 0 0 0 0 6.73295e-12 0 1.99466e+14
333.741 0 27404.3 0 0 0 0 5.71979e-12 0 2.35401e+14
352.686 0 32341.2 0 0 0 0 4.85874e-12 0 2.77809e+14
372.707 0 38167.6 0 0 0 0 4.12703e-12 0 3.27857e+14
393.865 0 45043.5 0 0 0 0 3.50528e-12 0 3.86921e+14
416.224 0 53158.3 0 0 0 0 2.97701e-12 0 4.56626e+14
439.852 0 62734.9 0 0 0 0 2.52819e-12 0 5.38888e+14
464.821 0 74036.7 0 0 0 0 2.1469e-12 0 6.35971e+14
491.207 0 87374.6 0 0 0 0 1.82301e-12 0 7.50542e+14
519.092 0 103115 0 0 0 0 1.54789e-12 0 8.85755e+14
548.56 0 121692 0 0 0 0 1.31422e-12 0 1.04533e+15
579.7 0 143615 0 0 0 0 1.11576e-12 0 1.23364e+15
612.608 0 169488 0 0 0 0 9.47223e-13 0 1.45589e+15
647.384 0 200021 0 0 0 0 8.041e-13 0 1.71817e+15
684.134 0 236056 0 0 0 0 6.82568e-13 0 2.0277e+15
722.971 0 278582 0 0 0 0 5.79376e-13 0 2.393e+15
764.012 0 328769 0 0 0 0 4.91762e-13 0 2.8241e+15
