0.204077
200
1.0655e+09
8589934592
0.0129181 0 1.58924e-09 0 0 0 0 0.00677225 0 13.6515
0.0136515 0 1.87554e-09 0 0 0 0 0.00688819 0 16.1108
0.0144264 0 2.21343e-09 0 0 0 0 0.00699249 0 19.0132
0.0152454 0 2.61218e-09 0 0 0 0 0.00708412 0 22.4385
0.0161108 0 3.08278e-09 0 0 0 0 0.00716212 0 26.4808
0.0170254 0 3.63815e-09 0 0 0 0 0.00722559 0 31.2514
0.0179919 0 4.29357e-09 0 0 0 0 0.00727371 0 36.8815
0.0190132 0 5.06707e-09 0 0 0 0 0.00730578 0 43.5258
0.0200925 0 5.97991e-09 0 0 0 0 0.00732122 0 51.367
0.0212331 0 7.05721e-09 0 0 0 0 0.00731958 0 60.621
0.0224385 0 8.32858e-09 0 0 0 0 0.00730056 0 71.542
0.0237123 0 9.829e-09 0 0 0 0 0.00726401 0 84.4305
0.0250583 0 1.15997e-08 0 0 0 0 0.00720995 0 99.6408
0.0264808 0 1.36894e-08 0 0 0 0 0.00713857 0 117.591
0.0279841 0 1.61556e-08 0 0 0 0 0.00705021 0 138.776
0.0295727 0 1.90661e-08 0 0 0 0 0.00694538 0 163.777
0.0312514 0 2.25009e-08 0 0 0 0 0.00682475 0 193.281
0.0330255 0 2.65545e-08 0 0 0 0 0.00668915 0 228.102
0.0349003 0 3.13384e-08 0 0 0 0 0.00653951 0 269.195
0.0368815 0 3.69841e-08 0 0 0 0 0.00637693 0 317.691
0.0389751 0 4.36469e-08 0 0 0 0 0.00620256 0 374.924
0.0411876 0 5.151e-08 0 0 0 0 0.00601767 0 442.467
0.0435258 0 6.07896e-08 0 0 0 0 0.00582358 0 522.179
0.0459966 0 7.1741e-08 0 0 0 0 0.00562166 0 616.251
0.0486077 0 8.46654e-08 0 0 0 0 0.0054133 0 727.27
0.051367 0 9.99181e-08 0 0 0 0 0.00519989 0 858.29
0.054283 0 1.17919e-07 0 0 0 0 0.0049828 0 1012.91
0.0573645 0 1.39162e-07 0 0 0 0 0.00476339 0 1195.39
0.060621 0 1.64232e-07 0 0 0 0 0.00454293 0 1410.75
0.0640622 0 1.93819e-07 0 0 0 0 0.00432265 0 1664.89
0.0676989 0 2.28736e-07 0 0 0 0 0.00410371 0 1964.83
0.071542 0 2.69944e-07 0 0 0 0 0.00388717 0 2318.8
0.0756032 0 3.18575e-07 0 0 0 0 0.00367401 0 2736.54
0.079895 0 3.75967e-07 0 0 0 0 0.0034651 0 3229.53
0.0844305 0 4.43698e-07 0 0 0 0 0.00326121 0 3811.34
0.0892234 0 5.23632e-07 0 0 0 0 0.00306301 0 4497.96
0.0942883 0 6.17966e-07 0 0 0 0 0.00287109 0 5308.28
0.0996408 0 7.29294e-07 0 0 0 0 0.00268591 0 6264.59
0.105297 0 8.60678e-07 0 0 0 0 0.00250785 0 7393.17
0.111275 0 1.01573e-06 0 0 0 0 0.00233721 0 8725.07
0.117591 0 1.19872e-06 0 0 0 0 0.00217419 0 10296.9
0.124267 0 1.41467e-06 0 0 0 0 0.00201893 0 12151.9
0.131321 0 1.66953e-06 0 0 0 0 0.00187147 0 14341.1
0.138776 0 1.9703e-06 0 0 0 0 0.00173182 0 16924.7
0.146654 0 2.32525e-06 0 0 0 0 0.00159991 0 19973.8
0.154979 0 2.74415e-06 0 0 0 0 0.00147563 0 23572.1
0.163777 0 3.23852e-06 0 0 0 0 0.00135884 0 27818.7
0.173074 0 3.82195e-06 0 0 0 0 0.00124933 0 32830.3
0.182899 0 4.51048e-06 0 0 0 0 0.00114689 0 38744.7
0.193281 0 5.32305e-06 0 0 0 0 0.00105127 0 45724.7
0.204254 0 6.28202e-06 0 0 0 0 0.000962209 0 53962.1
0.215848 0 7.41374e-06 0 0 0 0 0.000879423 0 63683.5
0.228102 0 8.74934e-06 0 0 0 0 0.000802624 0 75156.3
0.24105 0 1.03256e-05 0 0 0 0 0.000731515 0 88695.9
0.254734 0 1.21857e-05 0 0 0 0 0.000665798 0 104675
0.269195 0 1.4381e-05 0 0 0 0 0.000605173 0 123532
0.284476 0 1.69718e-05 0 0 0 0 0.000549345 0 145787
0.300625 0 2.00293e-05 0 0 0 0 0.000498021 0 172051
0.317691 0 2.36377e-05 0 0 0 0 0.000450916 0 203046
0.335725 0 2.78961e-05 0 0 0 0 0.000407755 0 239625
0.354784 0 3.29216e-05 0 0 0 0 0.000368269 0 282795
0.374924 0 3.88525e-05 0 0 0 0 0.000332202 0 333741
0.396207 0.607528 4.58519e-05 1.54248e-06 6 0.590638 1.49959e-06 0.000299307 0.030921 393865
0.418699 0 5.41123e-05 0 0 0 0 0.00026935 0 464821
0.442467 0 6.38607e-05 0 0 0 0 0.000242108 0 548560
0.467585 0 7.53654e-05 0 0 0 0 0.00021737 0 647384
0.494129 0 8.89427e-05 0 0 0 0 0.000194938 0 764012
0.522179 0 0.000104966 0 0 0 0 0.000174625 0 901651
0.551822 0 0.000123876 0 0 0 0 0.000156255 0 1.06409e+06
0.583147 6.65252 0.000146192 5.2975e-06 12 7.00181 5.57565e-06 0.000139664 0.455164 1.25578e+06
0.616251 0 0.000172529 0 0 0 0 0.0001247 0 1.48202e+06
0.651234 0 0.000203611 0 0 0 0 0.00011122 0 1.74901e+06
0.688203 26.4898 0.000240292 1.28336e-05 8 25.8307 1.25143e-05 9.90935e-05 1.03608 2.06409e+06
0.72727 0 0.000283581 0 0 0 0 8.81969e-05 0 2.43595e+06
0.768555 0 0.000334669 0 0 0 0 7.84179e-05 0 2.87479e+06
0.812184 0.320778 0.000394961 9.45499e-08 6 0.327637 9.65714e-08 6.96525e-05 0.00814471 3.39269e+06
0.85829 0 0.000466114 0 0 0 0 6.1805e-05 0 4.00389e+06
0.907013 0.358842 0.000550086 7.59421e-08 24 0.365727 7.73992e-08 5.47875e-05 0.0332669 4.7252e+06
0.958501 1.43412 0.000649185 2.57174e-07 24 1.35012 2.4211e-07 4.85194e-05 0.12721 5.57646e+06
1.01291 0 0.000766138 0 0 0 0 4.29272e-05 0 6.58107e+06
1.07041 0 0.00090416 0 0 0 0 3.79435e-05 0 7.76667e+06
1.13118 1.47748 0.00106705 1.61194e-07 12 1.45933 1.59214e-07 3.3507e-05 0.057729 9.16586e+06
1.19539 1.33206 0.00125928 1.23143e-07 30 1.3046 1.20605e-07 2.9562e-05 0.124968 1.08171e+07
1.26325 8.09599 0.00148614 6.34191e-07 24 7.97416 6.24648e-07 2.60578e-05 0.584108 1.27658e+07
1.33496 19.6063 0.00175387 1.30139e-06 24 19.6494 1.30425e-06 2.29484e-05 1.36103 1.50656e+07
1.41075 6.82689 0.00206984 3.8397e-07 32 7.00916 3.94221e-07 2.01923e-05 0.608501 1.77798e+07
1.49083 0.784341 0.00244272 3.73801e-08 48 0.76762 3.65832e-08 1.77518e-05 0.101074 2.09828e+07
1.57546 0.222393 0.00288279 8.98089e-09 6 0.211769 8.55183e-09 1.55929e-05 0.00345577 2.4763e+07
1.66489 0.757316 0.00340213 2.59141e-08 84 0.737297 2.52291e-08 1.3685e-05 0.159063 2.92241e+07
1.75941 2.82214 0.00401503 8.18275e-08 48 2.83895 8.23151e-08 1.20007e-05 0.327292 3.44889e+07
1.85928 0.724499 0.00473835 1.78e-08 72 0.7301 1.79377e-08 1.05151e-05 0.121882 4.07021e+07
1.96483 1.14324 0.00559198 2.38002e-08 54 1.12219 2.33621e-08 9.20606e-06 0.139605 4.80347e+07
2.07637 9.98471 0.00659939 1.76134e-07 104 9.98826 1.76196e-07 8.05366e-06 2.27448 5.66883e+07
2.19424 0.776069 0.00778828 1.16003e-08 120 0.786043 1.17494e-08 7.04008e-06 0.19773 6.69008e+07
2.3188 2.67873 0.00919136 3.3928e-08 156 2.56683 3.25108e-08 6.1494e-06 0.860698 7.89532e+07
2.45043 1.244 0.0108472 1.3351e-08 126 1.23318 1.32349e-08 5.36741e-06 0.313414 9.31768e+07
2.58954 1.28703 0.0128014 1.17042e-08 192 1.30109 1.18321e-08 4.68145e-06 0.480025 1.09963e+08
2.73654 5.43754 0.0151076 4.19004e-08 152 5.624 4.33372e-08 4.08023e-06 1.56091 1.29773e+08
2.89188 4.68317 0.0178292 3.05786e-08 378 4.77782 3.11966e-08 3.55373e-06 3.25255 1.53152e+08
3.05605 2.01209 0.0210412 1.11323e-08 264 1.98457 1.09801e-08 3.09304e-06 0.950176 1.80743e+08
3.22953 0.939357 0.0248319 4.40384e-09 366 0.933158 4.37478e-09 2.69025e-06 0.599128 2.13304e+08
3.41286 1.3737 0.0293054 5.45702e-09 428 1.33578 5.30639e-09 2.33837e-06 0.998816 2.51731e+08
3.6066 4.15731 0.0345848 1.39938e-08 486 4.03925 1.35964e-08 2.0312e-06 3.34827 2.97081e+08
3.81134 1.70511 0.0408154 4.86338e-09 600 1.70297 4.85728e-09 1.76327e-06 1.6549 3.50601e+08
4.0277 1.64462 0.0481684 3.97478e-09 738 1.61846 3.91157e-09 1.52972e-06 1.91759 4.13763e+08
4.25634 2.07362 0.056846 4.24658e-09 824 2.10741 4.31578e-09 1.32631e-06 2.63829 4.88304e+08
4.49796 3.77817 0.067087 6.55622e-09 954 3.79522 6.58581e-09 1.14926e-06 5.44233 5.76273e+08
4.7533 1.7202 0.0791729 2.52937e-09 1094 1.7062 2.50878e-09 9.95263e-07 2.7803 6.8009e+08
5.02313 1.77118 0.0934361 2.20678e-09 1332 1.77243 2.20833e-09 8.61414e-07 3.41233 8.0261e+08
5.30828 3.73021 0.110269 3.93813e-09 1614 3.75995 3.96954e-09 7.45152e-07 8.52999 9.47202e+08
5.60962 2.71812 0.130134 2.43158e-09 1850 2.67891 2.3965e-09 6.44232e-07 6.9826 1.11784e+09
5.92807 3.2117 0.153578 2.43454e-09 2238 3.14805 2.38628e-09 5.56685e-07 9.78738 1.31923e+09
6.26459 2.53089 0.181246 1.62561e-09 2546 2.54778 1.63645e-09 4.80786e-07 8.60838 1.55689e+09
6.62021 2.21658 0.213898 1.20639e-09 3264 2.21862 1.2075e-09 4.15026e-07 9.48775 1.83737e+09
6.99602 3.64053 0.252432 1.67892e-09 3506 3.6881 1.70086e-09 3.58083e-07 16.4384 2.16837e+09
7.39317 3.28834 0.297908 1.285e-09 4506 3.29387 1.28717e-09 3.08803e-07 18.7505 2.55901e+09
7.81286 4.01516 0.351577 1.32951e-09 5018 4.05406 1.34239e-09 2.66181e-07 25.0638 3.02002e+09
8.25637 4.03499 0.414914 1.13212e-09 5852 3.99133 1.11987e-09 2.29336e-07 28.8886 3.56409e+09
8.72507 4.1099 0.489662 9.77113e-10 7362 4.09631 9.73881e-10 1.97503e-07 36.4223 4.20617e+09
9.22037 4.57047 0.577876 9.20738e-10 8306 4.54582 9.15773e-10 1.70014e-07 44.9824 4.96392e+09
9.74378 4.24142 0.681982 7.24016e-10 9698 4.2328 7.22544e-10 1.46289e-07 47.9975 5.85818e+09
10.2969 5.24775 0.804843 7.59052e-10 11816 5.25441 7.60016e-10 1.25822e-07 71.2827 6.91355e+09
10.8814 5.52392 0.949838 6.7703e-10 13682 5.51427 6.75847e-10 1.08175e-07 85.6306 8.15905e+09
11.4992 5.95169 1.12095 6.18106e-10 16152 5.93409 6.16277e-10 9.29669e-08 107.389 9.62892e+09
12.1519 6.59227 1.3229 5.80122e-10 19472 6.55965 5.77251e-10 7.98658e-08 141.439 1.13636e+10
12.8418 6.50113 1.56122 4.84769e-10 22670 6.48736 4.83742e-10 6.85852e-08 160.235 1.34108e+10
13.5708 7.47543 1.84248 4.72328e-10 26224 7.47364 4.72216e-10 5.88765e-08 210.378 1.58268e+10
14.3411 7.99968 2.17441 4.28294e-10 31640 8.00296 4.2847e-10 5.05241e-08 268.213 1.8678e+10
15.1552 8.78592 2.56613 3.98583e-10 37484 8.77555 3.98112e-10 4.33417e-08 344.714 2.20429e+10
16.0156 9.31325 3.02843 3.58009e-10 43856 9.29568 3.57334e-10 3.71677e-08 422.432 2.6014e+10
16.9247 10.4703 3.574 3.41046e-10 51362 10.4522 3.40458e-10 3.18628e-08 549.758 3.07005e+10
17.8855 11.1925 4.21787 3.08919e-10 61636 11.1635 3.08119e-10 2.73063e-08 697.294 3.62312e+10
18.9008 12.2305 4.97773 2.86038e-10 72218 12.198 2.85277e-10 2.33941e-08 883.002 4.27584e+10
19.9738 13.5044 5.87448 2.67618e-10 84586 13.4714 2.66965e-10 2.00364e-08 1129.78 5.04614e+10
21.1076 14.4806 6.93279 2.43158e-10 100708 14.4517 2.42672e-10 1.71555e-08 1427.41 5.95522e+10
22.3058 15.8972 8.18175 2.26195e-10 118712 15.8645 2.25731e-10 1.46847e-08 1828.58 7.02807e+10
23.5721 17.2844 9.65571 2.08392e-10 140410 17.2436 2.07899e-10 1.25662e-08 2328.5 8.29419e+10
24.9102 18.8505 11.3952 1.9258e-10 164374 18.7988 1.92052e-10 1.07504e-08 2944.56 9.78842e+10
26.3243 20.4714 13.4481 1.77214e-10 194680 20.4252 1.76814e-10 9.19452e-09 3752.24 1.15518e+11
27.8187 22.3775 15.8708 1.64143e-10 230196 22.325 1.63758e-10 7.86182e-09 4806.14 1.36329e+11
29.3979 24.4235 18.73 1.51803e-10 271156 24.3727 1.51488e-10 6.72061e-09 6124.79 1.60889e+11
31.0667 26.6557 22.1042 1.40387e-10 321076 26.5894 1.40037e-10 5.74366e-09 7847.74 1.89874e+11
32.8303 29.1915 26.0864 1.30273e-10 377436 29.1244 1.29973e-10 4.90756e-09 10019.1 2.2408e+11
34.694 32.0952 30.7859 1.21366e-10 447594 32.0126 1.21054e-10 4.19221e-09 12958 2.64449e+11
36.6634 35.557 36.3321 1.13932e-10 525078 35.4628 1.1363e-10 3.58032e-09 16708.9 3.1209e+11
38.7447 39.4482 42.8774 1.07105e-10 621924 39.35 1.06838e-10 3.05709e-09 21789.1 3.68314e+11
40.9442 43.967 50.6018 1.01151e-10 732630 43.8606 1.00906e-10 2.60976e-09 28395.9 4.34667e+11
43.2685 48.8276 59.7179 9.51855e-11 865596 48.7079 9.49522e-11 2.22743e-09 36989.8 5.12973e+11
45.7247 54.774 70.4762 9.04778e-11 1.02168e+06 54.6307 9.0241e-11 1.90073e-09 48633.4 6.05386e+11
48.3204 61.6228 83.1727 8.62522e-11 1.20544e+06 61.449 8.6009e-11 1.62163e-09 64115.4 7.14448e+11
51.0634 69.4711 98.1565 8.23939e-11 1.42103e+06 69.2856 8.21739e-11 1.38326e-09 84643.9 8.43158e+11
53.9621 78.6093 115.84 7.89999e-11 1.67997e+06 78.396 7.87856e-11 1.1797e-09 112501 9.95055e+11
57.0254 89.5019 136.709 7.62161e-11 1.98018e+06 89.2387 7.5992e-11 1.00592e-09 150033 1.17432e+12
60.2626 102.044 161.337 7.36317e-11 2.33957e+06 101.745 7.3416e-11 8.57591e-10 200872 1.38587e+12
63.6835 116.903 190.402 7.14769e-11 2.75676e+06 116.555 7.12641e-11 7.3101e-10 269552 1.63554e+12
67.2987 134.56 224.704 6.97133e-11 3.25638e+06 134.168 6.95104e-11 6.23009e-10 364382 1.93019e+12
71.1191 155.266 265.185 6.81614e-11 3.84387e+06 154.796 6.79549e-11 5.30879e-10 493528 2.27792e+12
75.1563 188.467 312.958 7.01066e-11 4.53277e+06 187.242 6.96511e-11 4.52303e-10 702574 2.68829e+12
79.4227 208.342 369.339 6.56691e-11 5.35083e+06 207.724 6.54744e-11 3.85299e-10 911977 3.17259e+12
83.9313 242.184 435.876 6.46834e-11 6.32174e+06 241.43 6.44821e-11 3.28173e-10 1.24603e+06 3.74415e+12
88.6959 282.355 514.4 6.39006e-11 7.44986e+06 281.47 6.37002e-11 2.79476e-10 1.70337e+06 4.41866e+12
93.7309 329.944 607.071 6.3272e-11 8.79764e+06 328.895 6.30707e-11 2.37972e-10 2.33911e+06 5.2147e+12
99.0518 386.176 716.436 6.27506e-11 1.03827e+07 384.942 6.25502e-11 2.02605e-10 3.21572e+06 6.15414e+12
104.675 457.903 845.504 6.30474e-11 1.22515e+07 456.701 6.2882e-11 1.72471e-10 4.47859e+06 7.26283e+12
110.617 530.902 997.824 6.19399e-11 1.44573e+07 529.196 6.17409e-11 1.468e-10 6.10003e+06 8.57124e+12
116.896 624.316 1177.58 6.17195e-11 1.70664e+07 622.314 6.15216e-11 1.24935e-10 8.43103e+06 1.01154e+13
123.532 733.918 1389.73 6.14791e-11 2.0139e+07 731.524 6.12785e-11 1.06313e-10 1.1646e+07 1.19377e+13
130.545 863.904 1640.09 6.13207e-11 2.37643e+07 861.083 6.11205e-11 9.04567e-11 1.61098e+07 1.40883e+13
137.955 1016.22 1935.56 6.11212e-11 2.80503e+07 1012.89 6.09209e-11 7.69563e-11 2.22784e+07 1.66263e+13
145.787 1197.65 2284.26 6.10374e-11 3.30981e+07 1193.69 6.08356e-11 6.54636e-11 3.08602e+07 1.96216e+13
154.063 1411.98 2695.77 6.09753e-11 3.90634e+07 1407.3 6.07734e-11 5.56812e-11 4.27776e+07 2.31565e+13
162.808 1663.22 3181.42 6.08609e-11 4.61057e+07 1657.68 6.06584e-11 4.73556e-11 5.92545e+07 2.73282e+13
172.051 1962.62 3754.56 6.08536e-11 5.44046e+07 1956.07 6.06506e-11 4.02708e-11 8.22113e+07 3.22515e+13
181.818 2319.72 4430.96 6.09463e-11 6.42064e+07 2312.02 6.0744e-11 3.42426e-11 1.14277e+08 3.80616e+13
192.139 2737.95 5229.21 6.09535e-11 7.57748e+07 2728.73 6.07484e-11 2.91139e-11 1.58644e+08 4.49186e+13
203.046 3237.65 6171.26 6.10753e-11 8.94213e+07 3226.71 6.0869e-11 2.4751e-11 2.20655e+08 5.30108e+13
214.572 3829.87 7283.03 6.12184e-11 1.05538e+08 3816.95 6.10118e-11 2.10401e-11 3.07075e+08 6.25608e+13
226.753 4535.41 8595.09 6.14294e-11 1.24552e+08 4520 6.12207e-11 1.78839e-11 4.27822e+08 7.38313e+13
239.625 5378.06 10143.5 6.1723e-11 1.46987e+08 5359.69 6.15122e-11 1.51999e-11 5.96878e+08 8.71322e+13
253.228 6388.35 11970.9 6.21258e-11 1.7347e+08 6366.36 6.19119e-11 1.29176e-11 8.34283e+08 1.02829e+14
267.603 7603.9 14127.5 6.26587e-11 2.04703e+08 7577.48 6.2441e-11 1.09771e-11 1.16847e+09 1.21354e+14
282.795 9081.6 16672.6 6.34117e-11 2.4161e+08 9049.6 6.31882e-11 9.3274e-12 1.64257e+09 1.43217e+14
298.848 10883.2 19676.2 6.43908e-11 2.85122e+08 10844.1 6.41599e-11 7.925e-12 2.31663e+09 1.69017e+14
315.813 13120.8 23220.9 6.57793e-11 3.36491e+08 13072.5 6.55373e-11 6.73295e-12 3.28744e+09 1.99466e+14
333.741 15932.4 27404.3 6.76821e-11 3.97115e+08 15871.8 6.74244e-11 5.71979e-12 4.69905e+09 2.35401e+14
352.686 19559.5 32341.2 7.04063e-11 4.68637e+08 19481.8 7.01265e-11 4.85874e-12 6.79085e+09 2.77809e+14
372.707 24376 38167.6 7.43496e-11 5.53074e+08 24273.4 7.40366e-11 4.12703e-12 9.96378e+09 3.27857e+14
393.865 31017.9 45043.5 8.0166e-11 6.52716e+08 30877 7.98018e-11 3.50528e-12 1.49276e+10 3.86921e+14
416.224 36609.2 53158.3 8.01732e-11 2.2184e+08 38729.1 8.48158e-11 2.97701e-12 5.97432e+09 4.56626e+14
439.852 0 62734.9 0 0 0 0 2.52819e-12 0 5.38888e+14
464.821 0 74036.7 0 0 0 0 2.1469e-12 0 6.35971e+14
491.207 0 87374.6 0 0 0 0 1.82301e-12 0 7.50542e+14
519.092 0 103115 0 0 0 0 1.54789e-12 0 8.85755e+14
548.56 0 121692 0 0 0 0 1.31422e-12 0 1.04533e+15
579.7 0 143615 0 0 0 0 1.11576e-12 0 1.23364e+15
612.608 0 169488 0 0 0 0 9.47223e-13 0 1.45589e+15
647.384 0 200021 0 0 0 0 8.041e-13 0 1.71817e+15
684.134 0 236056 0 0 0 0 6.82568e-13 0 2.0277e+15
722.971 0 278582 0 0 0 0 5.79376e-13 0 2.393e+15
764.012 0 328769 0 0 0 0 4.91762e-13 0 2.8241e+15
0.204077
200
1.0655e+09
8589934592
0.0129181 0.000133749 1.58924e-09 9.79738e-06 6 0.000132524 9.70769e-06 0.00677225 0.00868017 13.6515
0.0136515 0 1.87554e-09 0 0 0 0 0.00688819 0 16.1108
0.0144264 0 2.21343e-09 0 0 0 0 0.00699249 0 19.0132
0.0152454 0 2.61218e-09 0 0 0 0 0.00708412 0 22.4385
0.0161108 0 3.08278e-09 0 0 0 0 0.00716212 0 26.4808
0.0170254 0 3.63815e-09 0 0 0 0 0.00722559 0 31.2514
0.0179919 0.000297224 4.29357e-09 8.05889e-06 12 0.000296841 8.04851e-06 0.00727371 0.0132954 36.8815
0.0190132 0 5.06707e-09 0 0 0 0 0.00730578 0 43.5258
0.0200925 0 5.97991e-09 0 0 0 0 0.00732122 0 51.367
0.0212331 0.00028119 7.05721e-09 4.63849e-06 8 0.000280945 4.63445e-06 0.00731958 0.00506968 60.621
0.0224385 0 8.32858e-09 0 0 0 0 0.00730056 0 71.542
0.0237123 0 9.829e-09 0 0 0 0 0.00726401 0 84.4305
0.0250583 0.00180445 1.15997e-08 1.81096e-05 6 0.0018036 1.8101e-05 0.00720995 0.0150705 99.6408
0.0264808 0 1.36894e-08 0 0 0 0 0.00713857 0 117.591
0.0279841 0.00112165 1.61556e-08 8.08247e-06 24 0.0011205 8.07418e-06 0.00705021 0.027514 138.776
0.0295727 0 1.90661e-08 0 0 0 0 0.00694538 0 163.777
0.0312514 0.0020048 2.25009e-08 1.03724e-05 24 0.00201498 1.04251e-05 0.00682475 0.0364759 193.281
0.0330255 0 2.65545e-08 0 0 0 0 0.00668915 0 228.102
0.0349003 0.0028351 3.13384e-08 1.05318e-05 12 0.0028124 1.04475e-05 0.00653951 0.0193258 269.195
0.0368815 0.00243133 3.69841e-08 7.65313e-06 30 0.00240544 7.57163e-06 0.00637693 0.0360038 317.691
0.0389751 0.00288199 4.36469e-08 7.68686e-06 24 0.00285234 7.60779e-06 0.00620256 0.0297433 374.924
0.0411876 0.00182783 5.151e-08 4.13099e-06 24 0.00181541 4.10293e-06 0.00601767 0.0164754 442.467
0.0435258 0.00401271 6.07896e-08 7.68455e-06 8 0.0040124 7.68396e-06 0.00582358 0.0105565 522.179
0.0459966 0.00510663 7.1741e-08 8.28661e-06 72 0.00506625 8.22108e-06 0.00562166 0.106132 616.251
0.0486077 0 8.46654e-08 0 0 0 0 0.0054133 0 727.27
0.051367 0.00756479 9.99181e-08 8.8138e-06 54 0.00754069 8.78572e-06 0.00519989 0.0915299 858.29
0.054283 0.00590609 1.17919e-07 5.8308e-06 60 0.00593096 5.85535e-06 0.0049828 0.070211 1012.91
0.0573645 0.00583371 1.39162e-07 4.88016e-06 96 0.00581873 4.86764e-06 0.00476339 0.0983535 1195.39
0.060621 0.00675633 1.64232e-07 4.78919e-06 24 0.00666479 4.72431e-06 0.00454293 0.025301 1410.75
0.0640622 0.0118952 1.93819e-07 7.14472e-06 134 0.0119017 7.14861e-06 0.00432265 0.221483 1664.89
0.0676989 0.0114291 2.28736e-07 5.81685e-06 120 0.0113765 5.79005e-06 0.00410371 0.170095 1964.83
0.071542 0.0104783 2.69944e-07 4.51885e-06 108 0.0103648 4.46989e-06 0.00388717 0.12555 2318.8
0.0756032 0.0152646 3.18575e-07 5.57806e-06 174 0.0151844 5.54875e-06 0.00367401 0.264175 2736.54
0.079895 0.0162761 3.75967e-07 5.03976e-06 168 0.0161227 4.99228e-06 0.0034651 0.244345 3229.53
0.0844305 0.0138796 4.43698e-07 3.64167e-06 168 0.0139491 3.65988e-06 0.00326121 0.187599 3811.34
0.0892234 0.0156737 5.23632e-07 3.48463e-06 290 0.0156075 3.46989e-06 0.00306301 0.329918 4497.96
0.0942883 0.020266 6.17966e-07 3.81781e-06 288 0.0202154 3.80828e-06 0.00287109 0.382966 5308.28
0.0996408 0.0183449 7.29294e-07 2.92836e-06 366 0.0181914 2.90385e-06 0.00268591 0.399037 6264.59
0.105297 0.0200653 8.60678e-07 2.71403e-06 420 0.0199264 2.69525e-06 0.00250785 0.454529 7393.17
0.111275 0.0212916 1.01573e-06 2.44028e-06 398 0.0212315 2.43339e-06 0.00233721 0.415551 8725.07
0.117591 0.0253499 1.19872e-06 2.46189e-06 624 0.0254024 2.46699e-06 0.00217419 0.70657 10296.9
0.124267 0.0282145 1.41467e-06 2.32182e-06 642 0.0281757 2.31862e-06 0.00201893 0.738316 12151.9
0.131321 0.0356874 1.66953e-06 2.48846e-06 800 0.0357001 2.48935e-06 0.00187147 1.06375 14341.1
0.138776 0.0322092 1.9703e-06 1.90309e-06 858 0.0323634 1.91219e-06 0.00173182 0.942853 16924.7
0.146654 0.0350528 2.32525e-06 1.75494e-06 1080 0.0353464 1.76964e-06 0.00159991 1.18465 19973.8
0.154979 0.0415723 2.74415e-06 1.76363e-06 1286 0.0418575 1.77573e-06 0.00147563 1.53698 23572.1
0.163777 0.0392494 3.23852e-06 1.4109e-06 1650 0.039323 1.41355e-06 0.00135884 1.71322 27818.7
0.173074 0.0461733 3.82195e-06 1.40643e-06 1778 0.0461792 1.4066e-06 0.00124933 2.00157 32830.3
0.182899 0.045123 4.51048e-06 1.16462e-06 2112 0.0452333 1.16747e-06 0.00114689 2.14466 38744.7
0.193281 0.0528563 5.32305e-06 1.15597e-06 2570 0.052931 1.1576e-06 0.00105127 2.82595 45724.7
0.204254 0.059357 6.28202e-06 1.09998e-06 3030 0.0593276 1.09943e-06 0.000962209 3.46383 53962.1
0.215848 0.059093 7.41374e-06 9.27916e-07 3434 0.0590772 9.27668e-07 0.000879423 3.62336 63683.5
0.228102 0.0617524 8.74934e-06 8.21653e-07 4218 0.0617695 8.21881e-07 0.000802624 4.318 75156.3
0.24105 0.0696303 1.03256e-05 7.85045e-07 4766 0.0696978 7.85806e-07 0.000731515 5.11476 88695.9
0.254734 0.0748996 1.21857e-05 7.15546e-07 6026 0.074878 7.1534e-07 0.000665798 6.47626 104675
0.269195 0.0788259 1.4381e-05 6.381e-07 6480 0.0787803 6.37731e-07 0.000605173 6.83257 123532
0.284476 0.0859318 1.69718e-05 5.89435e-07 8162 0.086129 5.90787e-07 0.000549345 8.75764 145787
0.300625 0.0867758 2.00293e-05 5.04362e-07 9578 0.0868828 5.04984e-07 0.000498021 9.69995 172051
0.317691 0.0968529 2.36377e-05 4.77e-07 11234 0.0967728 4.76605e-07 0.000450916 11.8838 203046
0.335725 0.101556 2.78961e-05 4.23811e-07 13344 0.101493 4.23548e-07 0.000407755 13.8694 239625
0.354784 0.106177 3.29216e-05 3.75455e-07 15464 0.106109 3.75217e-07 0.000368269 15.7657 282795
0.374924 0.11406 3.88525e-05 3.41764e-07 18458 0.114052 3.41738e-07 0.000332202 18.9893 333741
0.396207 0.120445 4.58519e-05 3.05803e-07 22232 0.120276 3.05374e-07 0.000299307 22.7145 393865
0.418699 0.130544 5.41123e-05 2.80848e-07 25628 0.130249 2.80214e-07 0.00026935 26.722 464821
0.442467 0.13789 6.38607e-05 2.51367e-07 30320 0.137625 2.50884e-07 0.000242108 31.4796 548560
0.467585 0.144394 7.53654e-05 2.23043e-07 35452 0.144189 2.22726e-07 0.00021737 36.3771 647384
0.494129 0.152022 8.89427e-05 1.98979e-07 41792 0.151957 1.98893e-07 0.000194938 42.6583 764012
0.522179 0.164303 0.000104966 1.82225e-07 49988 0.16425 1.82166e-07 0.000174625 52.1635 901651
0.551822 0.172964 0.000123876 1.62547e-07 59110 0.172841 1.62432e-07 0.000156255 61.4903 1.06409e+06
0.583147 0.184657 0.000146192 1.47045e-07 69716 0.184406 1.46845e-07 0.000139664 73.4004 1.25578e+06
0.616251 0.195842 0.000172529 1.32146e-07 82210 0.195515 1.31925e-07 0.0001247 87.1188 1.48202e+06
0.651234 0.208816 0.000203611 1.19391e-07 96722 0.208411 1.1916e-07 0.00011122 103.828 1.74901e+06
0.688203 0.221601 0.000240292 1.0736e-07 113098 0.221361 1.07244e-07 9.90935e-05 122.533 2.06409e+06
0.72727 0.234129 0.000283581 9.61143e-08 135190 0.233877 9.60106e-08 8.81969e-05 147.326 2.43595e+06
0.768555 0.24993 0.000334669 8.69386e-08 158170 0.249684 8.68529e-08 7.84179e-05 175.356 2.87479e+06
0.812184 0.264354 0.000394961 7.79187e-08 188560 0.264067 7.78342e-08 6.96525e-05 210.938 3.39269e+06
0.85829 0.280888 0.000466114 7.01538e-08 220444 0.280538 7.00663e-08 6.1805e-05 250.222 4.00389e+06
0.907013 0.297321 0.000550086 6.29223e-08 261388 0.296993 6.2853e-08 5.47875e-05 300.199 4.7252e+06
0.958501 0.317758 0.000649185 5.69821e-08 308244 0.317392 5.69163e-08 4.85194e-05 362.008 5.57646e+06
1.01291 0.33894 0.000766138 5.15022e-08 364396 0.338514 5.14376e-08 4.29272e-05 437.187 6.58107e+06
1.07041 0.359389 0.00090416 4.62732e-08 429162 0.358886 4.62084e-08 3.79435e-05 523.376 7.76667e+06
1.13118 0.384098 0.00106705 4.19053e-08 506358 0.383594 4.18503e-08 3.3507e-05 633.272 9.16586e+06
1.19539 0.409303 0.00125928 3.78385e-08 598590 0.408703 3.7783e-08 2.9562e-05 766.177 1.08171e+07
1.26325 0.436169 0.00148614 3.41669e-08 704844 0.435568 3.41198e-08 2.60578e-05 924.188 1.27658e+07
1.33496 0.464026 0.00175387 3.08003e-08 834620 0.463325 3.07537e-08 2.29484e-05 1120.19 1.50656e+07
1.41075 0.496163 0.00206984 2.79061e-08 981444 0.495435 2.78651e-08 2.01923e-05 1356.37 1.77798e+07
1.49083 0.529838 0.00244272 2.5251e-08 1.15998e+06 0.529083 2.5215e-08 1.77518e-05 1650.01 2.09828e+07
1.57546 0.567082 0.00288279 2.29004e-08 1.36931e+06 0.566207 2.28651e-08 1.55929e-05 2011.03 2.4763e+07
1.66489 0.607584 0.00340213 2.07906e-08 1.61652e+06 0.606616 2.07574e-08 1.3685e-05 2455.84 2.92241e+07
1.75941 0.65078 0.00401503 1.88693e-08 1.90601e+06 0.649741 1.88392e-08 1.20007e-05 2996.91 3.44889e+07
1.85928 0.698281 0.00473835 1.71559e-08 2.24913e+06 0.697184 1.71289e-08 1.05151e-05 3669.56 4.07021e+07
1.96483 0.74902 0.00559198 1.55933e-08 2.65744e+06 0.747741 1.55667e-08 9.20606e-06 4501.2 4.80347e+07
2.07637 0.80529 0.00659939 1.42056e-08 3.13125e+06 0.803984 1.41825e-08 8.05366e-06 5523.11 5.66883e+07
2.19424 0.866918 0.00778828 1.29582e-08 3.69915e+06 0.865549 1.29378e-08 7.04008e-06 6808.8 6.69008e+07
2.3188 0.933341 0.00919136 1.18214e-08 4.36472e+06 0.931784 1.18017e-08 6.1494e-06 8390.63 7.89532e+07
2.45043 1.00601 0.0108472 1.07968e-08 5.14913e+06 1.0043 1.07784e-08 5.36741e-06 10357.7 9.31768e+07
2.58954 1.08845 0.0128014 9.89837e-09 6.07894e+06 1.08658 9.88131e-09 4.68145e-06 12853.2 1.09963e+08
2.73654 1.17598 0.0151076 9.06178e-09 7.17304e+06 1.17395 9.04614e-09 4.08023e-06 15930.6 1.29773e+08
2.89188 1.27354 0.0178292 8.31552e-09 8.46557e+06 1.27128 8.30078e-09 3.55373e-06 19808.9 1.53152e+08
3.05605 1.38176 0.0210412 7.64493e-09 9.98773e+06 1.37939 7.63181e-09 3.09304e-06 24686.2 1.80743e+08
3.22953 1.49838 0.0248319 7.02461e-09 1.1797e+07 1.49565 7.01182e-09 2.69025e-06 30803.6 2.13304e+08
3.41286 1.62711 0.0293054 6.46367e-09 1.39144e+07 1.62409 6.4517e-09 2.33837e-06 38461.8 2.51731e+08
3.6066 1.77017 0.0345848 5.95855e-09 1.64163e+07 1.76687 5.94743e-09 2.0312e-06 48157.4 2.97081e+08
3.81134 1.9284 0.0408154 5.50027e-09 1.93821e+07 1.92487 5.49018e-09 1.76327e-06 60460 3.50601e+08
4.0277 2.10255 0.0481684 5.08153e-09 2.28754e+07 2.09857 5.07191e-09 1.52972e-06 75989 4.13763e+08
4.25634 2.2945 0.056846 4.69892e-09 2.69929e+07 2.29007 4.68985e-09 1.32631e-06 95632 4.88304e+08
4.49796 2.50436 0.067087 4.34578e-09 3.18542e+07 2.49947 4.3373e-09 1.14926e-06 120453 5.76273e+08
4.7533 2.73874 0.0791729 4.02703e-09 3.75892e+07 2.73339 4.01916e-09 9.95263e-07 152093 6.8009e+08
5.02313 2.99506 0.0934361 3.73165e-09 4.43706e+07 2.98915 3.72429e-09 8.61414e-07 192214 8.0261e+08
5.30828 3.27857 0.110269 3.46132e-09 5.23593e+07 3.27197 3.45435e-09 7.45152e-07 243215 9.47202e+08
5.60962 3.58768 0.130134 3.20947e-09 6.1787e+07 3.58049 3.20303e-09 6.44232e-07 307814 1.11784e+09
5.92807 3.92765 0.153578 2.97723e-09 7.29346e+07 3.91973 2.97124e-09 5.56685e-07 390065 1.31923e+09
6.26459 4.30223 0.181246 2.76335e-09 8.60651e+07 4.29344 2.75771e-09 4.80786e-07 494664 1.55689e+09
6.62021 4.71182 0.213898 2.56444e-09 1.01558e+08 4.70217 2.55919e-09 4.15026e-07 627528 1.83737e+09
6.99602 5.16102 0.252432 2.38014e-09 1.1986e+08 5.15048 2.37528e-09 3.58083e-07 796696 2.16837e+09
7.39317 5.65303 0.297908 2.20907e-09 1.41457e+08 5.64135 2.2045e-09 3.08803e-07 1.01193e+06 2.55901e+09
7.81286 6.19136 0.351577 2.0501e-09 1.66936e+08 6.17862 2.04589e-09 2.66181e-07 1.28573e+06 3.02002e+09
8.25637 6.7836 0.414914 1.90332e-09 1.97025e+08 6.76953 1.89937e-09 2.29336e-07 1.63516e+06 3.56409e+09
8.72507 7.43731 0.489662 1.76819e-09 2.32497e+08 7.42164 1.76447e-09 1.97503e-07 2.08148e+06 4.20617e+09
9.22037 8.1648 0.577876 1.64483e-09 2.74404e+08 8.14744 1.64133e-09 1.70014e-07 2.65477e+06 4.96392e+09
9.74378 8.98459 0.681982 1.53368e-09 3.2382e+08 8.96502 1.53034e-09 1.46289e-07 3.3949e+06 5.85818e+09
10.2969 9.93094 0.804843 1.43645e-09 3.82165e+08 9.9085 1.4332e-09 1.25822e-07 4.36297e+06 6.91355e+09
10.8814 11.0651 0.949838 1.35617e-09 4.51027e+08 11.0385 1.35292e-09 1.08175e-07 5.65442e+06 8.15905e+09
11.4992 12.4975 1.12095 1.29791e-09 5.32251e+08 12.4647 1.29451e-09 9.29669e-08 7.43077e+06 9.62892e+09
12.1519 14.4371 1.3229 1.27047e-09 6.28157e+08 14.3941 1.26668e-09 7.98658e-08 9.99247e+06 1.13636e+10
12.8418 16.5011 1.56122 1.23044e-09 3.82727e+08 17.0772 1.27339e-09 6.85852e-08 6.86623e+06 1.34108e+10
13.5708 0 1.84248 0 0 0 0 5.88765e-08 0 1.58268e+10
14.3411 0 2.17441 0 0 0 0 5.05241e-08 0 1.8678e+10
15.1552 0 2.56613 0 0 0 0 4.33417e-08 0 2.20429e+10
16.0156 0 3.02843 0 0 0 0 3.71677e-08 0 2.6014e+10
16.9247 0 3.574 0 0 0 0 3.18628e-08 0 3.07005e+10
17.8855 0 4.21787 0 0 0 0 2.73063e-08 0 3.62312e+10
18.9008 0 4.97773 0 0 0 0 2.33941e-08 0 4.27584e+10
19.9738 0 5.87448 0 0 0 0 2.00364e-08 0 5.04614e+10
21.1076 0 6.93279 0 0 0 0 1.71555e-08 0 5.95522e+10
22.3058 0 8.18175 0 0 0 0 1.46847e-08 0 7.02807e+10
23.5721 0 9.65571 0 0 0 0 1.25662e-08 0 8.29419e+10
24.9102 0 11.3952 0 0 0 0 1.07504e-08 0 9.78842e+10
26.3243 0 13.4481 0 0 0 0 9.19452e-09 0 1.15518e+11
27.8187 0 15.8708 0 0 0 0 7.86182e-09 0 1.36329e+11
29.3979 0 18.73 0 0 0 0 6.72061e-09 0 1.60889e+11
31.0667 0 22.1042 0 0 0 0 5.74366e-09 0 1.89874e+11
32.8303 0 26.0864 0 0 0 0 4.90756e-09 0 2.2408e+11
34.694 0 30.7859 0 0 0 0 4.19221e-09 0 2.64449e+11
36.6634 0 36.3321 0 0 0 0 3.58032e-09 0 3.1209e+11
38.7447 0 42.8774 0 0 0 0 3.05709e-09 0 3.68314e+11
40.9442 0 50.6018 0 0 0 0 2.60976e-09 0 4.34667e+11
43.2685 0 59.7179 0 0 0 0 2.22743e-09 0 5.12973e+11
45.7247 0 70.4762 0 0 0 0 1.90073e-09 0 6.05386e+11
48.3204 0 83.1727 0 0 0 0 1.62163e-09 0 7.14448e+11
51.0634 0 98.1565 0 0 0 0 1.38326e-09 0 8.43158e+11
53.9621 0 115.84 0 0 0 0 1.1797e-09 0 9.95055e+11
57.0254 0 136.709 0 0 0 0 1.00592e-09 0 1.17432e+12
60.2626 0 161.337 0 0 0 0 8.57591e-10 0 1.38587e+12
63.6835 0 190.402 0 0 0 0 7.3101e-10 0 1.63554e+12
67.2987 0 224.704 0 0 0 0 6.23009e-10 0 1.93019e+12
71.1191 0 265.185 0 0 0 0 5.30879e-10 0 2.27792e+12
75.1563 0 312.958 0 0 0 0 4.52303e-10 0 2.68829e+12
79.4227 0 369.339 0 0 0 0 3.85299e-10 0 3.17259e+12
83.9313 0 435.876 0 0 0 0 3.28173e-10 0 3.74415e+12
88.6959 0 514.4 0 0 0 0 2.79476e-10 0 4.41866e+12
93.7309 0 607.071 0 0 0 0 2.37972e-10 0 5.2147e+12
99.0518 0 716.436 0 0 0 0 2.02605e-10 0 6.15414e+12
104.675 0 845.504 0 0 0 0 1.72471e-10 0 7.26283e+12
110.617 0 997.824 0 0 0 0 1.468e-10 0 8.57124e+12
116.896 0 1177.58 0 0 0 0 1.24935e-10 0 1.01154e+13
123.532 0 1389.73 0 0 0 0 1.06313e-10 0 1.19377e+13
130.545 0 1640.09 0 0 0 0 9.04567e-11 0 1.40883e+13
137.955 0 1935.56 0 0 0 0 7.69563e-11 0 1.66263e+13
145.787 0 2284.26 0 0 0 0 6.54636e-11 0 1.96216e+13
154.063 0 2695.77 0 0 0 0 5.56812e-11 0 2.31565e+13
162.808 0 3181.42 0 0 0 0 4.73556e-11 0 2.73282e+13
172.051 0 3754.56 0 0 0 0 4.02708e-11 0 3.22515e+13
181.818 0 4430.96 0 0 0 0 3.42426e-11 0 3.80616e+13
192.139 0 5229.21 0 0 0 0 2.91139e-11 0 4.49186e+13
203.046 0 6171.26 0 0 0 0 2.4751e-11 0 5.30108e+13
214.572 0 7283.03 0 0 0 0 2.10401e-11 0 6.25608e+13
226.753 0 8595.09 0 0 0 0 1.78839e-11 0 7.38313e+13
239.625 0 10143.5 0 0 0 0 1.51999e-11 0 8.71322e+13
253.228 0 11970.9 0 0 0 0 1.29176e-11 0 1.02829e+14
267.603 0 14127.5 0 0 0 0 1.09771e-11 0 1.21354e+14
282.795 0 16672.6 0 0 0 0 9.3274e-12 0 1.43217e+14
298.848 0 19676.2 0 0 0 0 7.925e-12 0 1.69017e+14
315.813 0 23220.9 0 0 0 0 6.73295e-12 0 1.99466e+14
333.741 0 27404.3 0 0 0 0 5.71979e-12 0 2.35401e+14
352.686 0 32341.2 0 0 0 0 4.85874e-12 0 2.77809e+14
372.707 0 38167.6 0 0 0 0 4.12703e-12 0 3.27857e+14
393.865 0 45043.5 0 0 0 0 3.50528e-12 0 3.86921e+14
416.224 0 53158.3 0 0 0 0 2.97701e-12 0 4.56626e+14
439.852 0 62734.9 0 0 0 0 2.52819e-12 0 5.38888e+14
464.821 0 74036.7 0 0 0 0 2.1469e-12 0 6.35971e+14
491.207 0 87374.6 0 0 0 0 1.82301e-12 0 7.50542e+14
519.092 0 103115 0 0 0 0 1.54789e-12 0 8.85755e+14
548.56 0 121692 0 0 0 0 1.31422e-12 0 1.04533e+15
579.7 0 143615 0 0 0 0 1.11576e-12 0 1.23364e+15
612.608 0 169488 0 0 0 0 9.47223e-13 0 1.45589e+15
647.384 0 200021 0 0 0 0 8.041e-13 0 1.71817e+15
684.134 0 236056 0 0 0 0 6.82568e-13 0 2.0277e+15
722.971 0 278582 0 0 0 0 5.79376e-13 0 2.393e+15
764.012 0 328769 0 0 0 0 4.91762e-13 0 2.8241e+15
