0.121381
200
1.0655e+09
8589934592
0.0129181 0 1.58924e-09 0 0 0 0 0.00677225 0 13.6515
0.0136515 0 1.87554e-09 0 0 0 0 0.00688819 0 16.1108
0.0144264 0 2.21343e-09 0 0 0 0 0.00699249 0 19.0132
0.0152454 0 2.61218e-09 0 0 0 0 0.00708412 0 22.4385
0.0161108 0 3.08278e-09 0 0 0 0 0.00716212 0 26.4808
0.0170254 0 3.63815e-09 0 0 0 0 0.00722559 0 31.2514
0.0179919 0 4.29357e-09 0 0 0 0 0.00727371 0 36.8815
0.0190132 0 5.06707e-09 0 0 0 0 0.00730578 0 43.5258
0.0200925 0 5.97991e-09 0 0 0 0 0.00732122 0 51.367
0.0212331 0 7.05721e-09 0 0 0 0 0.00731958 0 60.621
0.0224385 0 8.32858e-09 0 0 0 0 0.00730056 0 71.542
0.0237123 0 9.829e-09 0 0 0 0 0.00726401 0 84.4305
0.0250583 0 1.15997e-08 0 0 0 0 0.00720995 0 99.6408
0.0264808 0 1.36894e-08 0 0 0 0 0.00713857 0 117.591
0.0279841 0 1.61556e-08 0 0 0 0 0.00705021 0 138.776
0.0295727 0 1.90661e-08 0 0 0 0 0.00694538 0 163.777
0.0312514 0 2.25009e-08 0 0 0 0 0.00682475 0 193.281
0.0330255 0 2.65545e-08 0 0 0 0 0.00668915 0 228.102
0.0349003 0 3.13384e-08 0 0 0 0 0.00653951 0 269.195
0.0368815 0 3.69841e-08 0 0 0 0 0.00637693 0 317.691
0.0389751 0 4.36469e-08 0 0 0 0 0.00620256 0 374.924
0.0411876 0 5.151e-08 0 0 0 0 0.00601767 0 442.467
0.0435258 0 6.07896e-08 0 0 0 0 0.00582358 0 522.179
0.0459966 0 7.1741e-08 0 0 0 0 0.00562166 0 616.251
0.0486077 0 8.46654e-08 0 0 0 0 0.0054133 0 727.27
0.051367 0 9.99181e-08 0 0 0 0 0.00519989 0 858.29
0.054283 0 1.17919e-07 0 0 0 0 0.0049828 0 1012.91
0.0573645 0 1.39162e-07 0 0 0 0 0.00476339 0 1195.39
0.060621 0 1.64232e-07 0 0 0 0 0.00454293 0 1410.75
0.0640622 0 1.93819e-07 0 0 0 0 0.00432265 0 1664.89
0.0676989 0 2.28736e-07 0 0 0 0 0.00410371 0 1964.83
0.071542 0 2.69944e-07 0 0 0 0 0.00388717 0 2318.8
0.0756032 0 3.18575e-07 0 0 0 0 0.00367401 0 2736.54
0.079895 0 3.75967e-07 0 0 0 0 0.0034651 0 3229.53
0.0844305 0 4.43698e-07 0 0 0 0 0.00326121 0 3811.34
0.0892234 0 5.23632e-07 0 0 0 0 0.00306301 0 4497.96
0.0942883 0 6.17966e-07 0 0 0 0 0.00287109 0 5308.28
0.0996408 0 7.29294e-07 0 0 0 0 0.00268591 0 6264.59
0.105297 0 8.60678e-07 0 0 0 0 0.00250785 0 7393.17
0.111275 0 1.01573e-06 0 0 0 0 0.00233721 0 8725.07
0.117591 0 1.19872e-06 0 0 0 0 0.00217419 0 10296.9
0.124267 0 1.41467e-06 0 0 0 0 0.00201893 0 12151.9
0.131321 0 1.66953e-06 0 0 0 0 0.00187147 0 14341.1
0.138776 0 1.9703e-06 0 0 0 0 0.00173182 0 16924.7
0.146654 0 2.32525e-06 0 0 0 0 0.00159991 0 19973.8
0.154979 0 2.74415e-06 0 0 0 0 0.00147563 0 23572.1
0.163777 0 3.23852e-06 0 0 0 0 0.00135884 0 27818.7
0.173074 0 3.82195e-06 0 0 0 0 0.00124933 0 32830.3
0.182899 0 4.51048e-06 0 0 0 0 0.00114689 0 38744.7
0.193281 0 5.32305e-06 0 0 0 0 0.00105127 0 45724.7
0.204254 0 6.28202e-06 0 0 0 0 0.000962209 0 53962.1
0.215848 0 7.41374e-06 0 0 0 0 0.000879423 0 63683.5
0.228102 0 8.74934e-06 0 0 0 0 0.000802624 0 75156.3
0.24105 0 1.03256e-05 0 0 0 0 0.000731515 0 88695.9
0.254734 0 1.21857e-05 0 0 0 0 0.000665798 0 104675
0.269195 0 1.4381e-05 0 0 0 0 0.000605173 0 123532
0.284476 0 1.69718e-05 0 0 0 0 0.000549345 0 145787
0.300625 0 2.00293e-05 0 0 0 0 0.000498021 0 172051
0.317691 0 2.36377e-05 0 0 0 0 0.000450916 0 203046
0.335725 0 2.78961e-05 0 0 0 0 0.000407755 0 239625
0.354784 0 3.29216e-05 0 0 0 0 0.000368269 0 282795
0.374924 0 3.88525e-05 0 0 0 0 0.000332202 0 333741
0.396207 0.598074 4.58519e-05 1.51847e-06 6 0.581446 1.47626e-06 0.000299307 0.0304398 393865
0.418699 0 5.41123e-05 0 0 0 0 0.00026935 0 464821
0.442467 0 6.38607e-05 0 0 0 0 0.000242108 0 548560
0.467585 0 7.53654e-05 0 0 0 0 0.00021737 0 647384
0.494129 0 8.89427e-05 0 0 0 0 0.000194938 0 764012
0.522179 0 0.000104966 0 0 0 0 0.000174625 0 901651
0.551822 0 0.000123876 0 0 0 0 0.000156255 0 1.06409e+06
0.583147 5.53868 0.000146192 4.41054e-06 12 5.82949 4.64211e-06 0.000139664 0.378955 1.25578e+06
0.616251 0 0.000172529 0 0 0 0 0.0001247 0 1.48202e+06
0.651234 0 0.000203611 0 0 0 0 0.00011122 0 1.74901e+06
0.688203 23.2994 0.000240292 1.12879e-05 8 22.7197 1.10071e-05 9.90935e-05 0.911296 2.06409e+06
0.72727 0 0.000283581 0 0 0 0 8.81969e-05 0 2.43595e+06
0.768555 0 0.000334669 0 0 0 0 7.84179e-05 0 2.87479e+06
0.812184 0.127662 0.000394961 3.76285e-08 6 0.130391 3.8433e-08 6.96525e-05 0.00324139 3.39269e+06
0.85829 0 0.000466114 0 0 0 0 6.1805e-05 0 4.00389e+06
0.907013 0.195075 0.000550086 4.12839e-08 24 0.198818 4.20761e-08 5.47875e-05 0.0180847 4.7252e+06
0.958501 0.805168 0.000649185 1.44387e-07 24 0.758006 1.3593e-07 4.85194e-05 0.0714206 5.57646e+06
1.01291 0 0.000766138 0 0 0 0 4.29272e-05 0 6.58107e+06
1.07041 0 0.00090416 0 0 0 0 3.79435e-05 0 7.76667e+06
1.13118 1.16454 0.00106705 1.27052e-07 12 1.15024 1.25491e-07 3.3507e-05 0.0455016 9.16586e+06
1.19539 0.876508 0.00125928 8.10297e-08 30 0.858438 7.93593e-08 2.9562e-05 0.0822302 1.08171e+07
1.26325 6.6331 0.00148614 5.19598e-07 24 6.53329 5.11779e-07 2.60578e-05 0.478564 1.27658e+07
1.33496 18.1475 0.00175387 1.20456e-06 24 18.1873 1.20721e-06 2.29484e-05 1.25975 1.50656e+07
1.41075 5.83178 0.00206984 3.28001e-07 32 5.99512 3.37188e-07 2.01923e-05 0.519804 1.77798e+07
1.49083 0.427163 0.00244272 2.03578e-08 48 0.418057 1.99238e-08 1.77518e-05 0.0550465 2.09828e+07
1.57546 0.0140239 0.00288279 5.66327e-10 6 0.0133539 5.39271e-10 1.55929e-05 0.000217918 2.4763e+07
1.66489 0.519816 0.00340213 1.77873e-08 84 0.503638 1.72337e-08 1.3685e-05 0.10918 2.92241e+07
1.75941 2.18452 0.00401503 6.33398e-08 48 2.20157 6.38341e-08 1.20007e-05 0.253345 3.44889e+07
1.85928 0.268296 0.00473835 6.59169e-09 72 0.269579 6.62321e-09 1.05151e-05 0.0451352 4.07021e+07
1.96483 0.763965 0.00559198 1.59044e-08 54 0.743925 1.54872e-08 9.20606e-06 0.0932907 4.80347e+07
2.07637 8.60944 0.00659939 1.51873e-07 104 8.59995 1.51706e-07 8.05366e-06 1.9612 5.66883e+07
2.19424 0.315588 0.00778828 4.71724e-09 120 0.317972 4.75289e-09 7.04008e-06 0.0804067 6.69008e+07
2.3188 1.6697 0.00919136 2.11479e-08 156 1.58649 2.00941e-08 6.1494e-06 0.536488 7.89532e+07
2.45043 0.613151 0.0108472 6.58051e-09 126 0.608202 6.5274e-09 5.36741e-06 0.154477 9.31768e+07
2.58954 0.539131 0.0128014 4.90284e-09 192 0.547119 4.97549e-09 4.68145e-06 0.20108 1.09963e+08
2.73654 4.039 0.0151076 3.11235e-08 152 4.19625 3.23353e-08 4.08023e-06 1.15944 1.29773e+08
2.89188 3.55908 0.0178292 2.32389e-08 378 3.64243 2.37831e-08 3.55373e-06 2.47185 1.53152e+08
3.05605 1.29567 0.0210412 7.1686e-09 264 1.27247 7.04021e-09 3.09304e-06 0.611861 1.80743e+08
3.22953 0.208996 0.0248319 9.79805e-10 366 0.206278 9.6706e-10 2.69025e-06 0.133299 2.13304e+08
3.41286 0.73643 0.0293054 2.92546e-09 428 0.705425 2.80229e-09 2.33837e-06 0.535457 2.51731e+08
3.6066 3.22346 0.0345848 1.08504e-08 486 3.1166 1.04907e-08 2.0312e-06 2.59615 2.97081e+08
3.81134 0.731704 0.0408154 2.087e-09 600 0.727415 2.07476e-09 1.76327e-06 0.710159 3.50601e+08
4.0277 0.519692 0.0481684 1.25601e-09 738 0.510632 1.23412e-09 1.52972e-06 0.605952 4.13763e+08
4.25634 1.15255 0.056846 2.36032e-09 824 1.19364 2.44447e-09 1.32631e-06 1.46641 4.88304e+08
4.49796 2.69776 0.067087 4.6814e-09 954 2.72021 4.72035e-09 1.14926e-06 3.88604 5.76273e+08
4.7533 0.590584 0.0791729 8.6839e-10 1094 0.580866 8.54102e-10 9.95263e-07 0.954541 6.8009e+08
5.02313 0.364802 0.0934361 4.5452e-10 1332 0.365578 4.55487e-10 8.61414e-07 0.702822 8.0261e+08
5.30828 2.10142 0.110269 2.21855e-09 1614 2.12876 2.24742e-09 7.45152e-07 4.80538 9.47202e+08
5.60962 1.02064 0.130134 9.13039e-10 1850 0.989945 8.85584e-10 6.44232e-07 2.62192 1.11784e+09
5.92807 1.46944 0.153578 1.11386e-09 2238 1.41069 1.06933e-09 5.56685e-07 4.47798 1.31923e+09
6.26459 0.678655 0.181246 4.35905e-10 2546 0.687076 4.41314e-10 4.80786e-07 2.30833 1.55689e+09
6.62021 0.334112 0.213898 1.81843e-10 3264 0.334281 1.81935e-10 4.15026e-07 1.43012 1.83737e+09
6.99602 1.43667 0.252432 6.62556e-10 3506 1.4816 6.83276e-10 3.58083e-07 6.48711 2.16837e+09
7.39317 0.709708 0.297908 2.77337e-10 4506 0.717495 2.8038e-10 3.08803e-07 4.04685 2.55901e+09
7.81286 1.21254 0.351577 4.01499e-10 5018 1.24803 4.13252e-10 2.66181e-07 7.569 3.02002e+09
8.25637 1.12207 0.414914 3.14828e-10 5852 1.08342 3.03983e-10 2.29336e-07 8.0335 3.56409e+09
8.72507 0.782564 0.489662 1.86051e-10 7362 0.775516 1.84376e-10 1.97503e-07 6.93514 4.20617e+09
9.22037 1.07544 0.577876 2.16652e-10 8306 1.06438 2.14423e-10 1.70014e-07 10.5845 4.96392e+09
9.74378 0.539974 0.681982 9.21742e-11 9698 0.540351 9.22386e-11 1.46289e-07 6.11055 5.85818e+09
10.2969 1.13385 0.804843 1.64004e-10 11816 1.14813 1.6607e-10 1.25822e-07 15.4016 6.91355e+09
10.8814 0.999903 0.949838 1.22551e-10 13682 1.00054 1.22629e-10 1.08175e-07 15.5003 8.15905e+09
11.4992 0.998563 1.12095 1.03705e-10 16152 0.986156 1.02416e-10 9.29669e-08 18.0176 9.62892e+09
12.1519 1.05641 1.3229 9.29645e-11 19472 1.03839 9.13786e-11 7.98658e-08 22.6656 1.13636e+10
12.8418 0.753983 1.56122 5.62222e-11 22670 0.756587 5.64164e-11 6.85852e-08 18.5835 1.34108e+10
13.5708 1.12657 1.84248 7.11811e-11 26224 1.13602 7.17787e-11 5.88765e-08 31.7046 1.58268e+10
14.3411 1.08404 2.17441 5.80382e-11 31640 1.09196 5.84622e-11 5.05241e-08 36.3456 1.8678e+10
15.1552 1.25776 2.56613 5.70595e-11 37484 1.2619 5.72476e-11 4.33417e-08 49.3478 2.20429e+10
16.0156 1.28627 3.02843 4.94455e-11 43856 1.29287 4.96992e-11 3.71677e-08 58.3431 2.6014e+10
16.9247 1.78122 3.574 5.80194e-11 51362 1.77983 5.7974e-11 3.18628e-08 93.5257 3.07005e+10
17.8855 1.94267 4.21787 5.36187e-11 61636 1.93076 5.329e-11 2.73063e-08 121.029 3.62312e+10
18.9008 2.4886 4.97773 5.82015e-11 72218 2.47706 5.79316e-11 2.33941e-08 179.669 4.27584e+10
19.9738 3.26718 5.87448 6.47461e-11 84586 3.25039 6.44133e-11 2.00364e-08 273.334 5.04614e+10
21.1076 3.99217 6.93279 6.70364e-11 100708 3.9828 6.68791e-11 1.71555e-08 393.524 5.95522e+10
22.3058 4.97887 8.18175 7.08427e-11 118712 4.96935 7.07072e-11 1.46847e-08 572.698 7.02807e+10
23.5721 6.06853 9.65571 7.3166e-11 140410 6.0499 7.29414e-11 1.25662e-08 817.533 8.29419e+10
24.9102 7.1482 11.3952 7.30272e-11 164374 7.12418 7.27818e-11 1.07504e-08 1116.59 9.78842e+10
26.3243 8.49276 13.4481 7.35188e-11 194680 8.46252 7.3257e-11 9.19452e-09 1556.65 1.15518e+11
27.8187 9.85159 15.8708 7.22633e-11 230196 9.82025 7.20334e-11 7.86182e-09 2115.89 1.36329e+11
29.3979 11.4406 18.73 7.11085e-11 271156 11.4007 7.08604e-11 6.72061e-09 2869.01 1.60889e+11
31.0667 13.4526 22.1042 7.08501e-11 321076 13.4074 7.06119e-11 5.74366e-09 3960.59 1.89874e+11
32.8303 15.4448 26.0864 6.89252e-11 377436 15.3966 6.87101e-11 4.90756e-09 5300.98 2.2408e+11
34.694 17.8979 30.7859 6.76801e-11 447594 17.8395 6.74591e-11 4.19221e-09 7226.07 2.64449e+11
36.6634 20.7424 36.3321 6.6463e-11 525078 20.6805 6.62645e-11 3.58032e-09 9747.23 3.1209e+11
38.7447 24.0941 42.8774 6.54174e-11 621924 24.0208 6.52183e-11 3.05709e-09 13308.3 3.68314e+11
40.9442 28.1468 50.6018 6.4755e-11 732630 28.0615 6.45588e-11 2.60976e-09 18178.5 4.34667e+11
43.2685 32.999 59.7179 6.43289e-11 865596 32.8946 6.41254e-11 2.22743e-09 24998.7 5.12973e+11
45.7247 38.7123 70.4762 6.39464e-11 1.02168e+06 38.59 6.37443e-11 1.90073e-09 34372.3 6.05386e+11
48.3204 45.401 83.1727 6.3547e-11 1.20544e+06 45.2561 6.33441e-11 1.62163e-09 47237.5 7.14448e+11
51.0634 53.3519 98.1565 6.32762e-11 1.42103e+06 53.1829 6.30759e-11 1.38326e-09 65004.2 8.43158e+11
53.9621 62.4469 115.84 6.27572e-11 1.67997e+06 62.2536 6.25629e-11 1.1797e-09 89370.1 9.95055e+11
57.0254 73.2878 136.709 6.24089e-11 1.98018e+06 73.0535 6.22093e-11 1.00592e-09 122854 1.17432e+12
60.2626 86.1392 161.337 6.21552e-11 2.33957e+06 85.8642 6.19567e-11 8.57591e-10 169564 1.38587e+12
63.6835 101.294 190.402 6.1933e-11 2.75676e+06 100.965 6.1732e-11 7.3101e-10 233560 1.63554e+12
67.2987 119.118 224.704 6.17133e-11 3.25638e+06 118.743 6.15189e-11 6.23009e-10 322567 1.93019e+12
71.1191 140.079 265.185 6.14942e-11 3.84387e+06 139.619 6.12922e-11 5.30879e-10 445253 2.27792e+12
75.1563 164.651 312.958 6.12473e-11 4.53277e+06 164.121 6.10502e-11 4.52303e-10 613791 2.68829e+12
79.4227 193.704 369.339 6.10555e-11 5.35083e+06 193.077 6.08577e-11 3.85299e-10 847905 3.17259e+12
83.9313 228.206 435.876 6.09501e-11 6.32174e+06 227.459 6.07507e-11 3.28173e-10 1.17411e+06 3.74415e+12
88.6959 269.313 514.4 6.09489e-11 7.44986e+06 268.441 6.07517e-11 2.79476e-10 1.62468e+06 4.41866e+12
93.7309 317.097 607.071 6.08084e-11 8.79764e+06 316.071 6.06116e-11 2.37972e-10 2.24804e+06 5.2147e+12
99.0518 373.817 716.436 6.07423e-11 1.03827e+07 372.582 6.05417e-11 2.02605e-10 3.1128e+06 6.15414e+12
104.675 440.765 845.504 6.06878e-11 1.22515e+07 439.304 6.04867e-11 1.72471e-10 4.31098e+06 7.26283e+12
110.617 519.781 997.824 6.06424e-11 1.44573e+07 518.055 6.0441e-11 1.468e-10 5.97225e+06 8.57124e+12
116.896 613.234 1177.58 6.0624e-11 1.70664e+07 611.222 6.04251e-11 1.24935e-10 8.28139e+06 1.01154e+13
123.532 723.556 1389.73 6.06111e-11 2.0139e+07 721.158 6.04102e-11 1.06313e-10 1.14816e+07 1.19377e+13
130.545 873.168 1640.09 6.19783e-11 2.37643e+07 871.153 6.18353e-11 9.04567e-11 1.62826e+07 1.40883e+13
137.955 1007.58 1935.56 6.06015e-11 2.80503e+07 1004.25 6.04011e-11 7.69563e-11 2.2089e+07 1.66263e+13
145.787 1189.89 2284.26 6.06416e-11 3.30981e+07 1185.91 6.04391e-11 6.54636e-11 3.06601e+07 1.96216e+13
154.063 1406.98 2695.77 6.07596e-11 3.90634e+07 1402.28 6.05567e-11 5.56812e-11 4.26262e+07 2.31565e+13
162.808 1658.22 3181.42 6.06781e-11 4.61057e+07 1652.69 6.04757e-11 4.73556e-11 5.90765e+07 2.73282e+13
172.051 1959.2 3754.56 6.07476e-11 5.44046e+07 1952.62 6.05435e-11 4.02708e-11 8.2068e+07 3.22515e+13
181.818 2323.47 4430.96 6.10448e-11 6.42064e+07 2315.96 6.08476e-11 3.42426e-11 1.14462e+08 3.80616e+13
192.139 2736.63 5229.21 6.09242e-11 7.57748e+07 2727.44 6.07197e-11 2.91139e-11 1.58568e+08 4.49186e+13
203.046 3244.35 6171.26 6.12017e-11 8.94213e+07 3233.17 6.09908e-11 2.4751e-11 2.21111e+08 5.30108e+13
214.572 3832.19 7283.03 6.12554e-11 1.05538e+08 3819.27 6.10489e-11 2.10401e-11 3.07261e+08 6.25608e+13
226.753 4543.88 8595.09 6.15441e-11 1.24552e+08 4528.22 6.1332e-11 1.78839e-11 4.28621e+08 7.38313e+13
239.625 5385.76 10143.5 6.18113e-11 1.46987e+08 5367.3 6.15995e-11 1.51999e-11 5.97732e+08 8.71322e+13
253.228 6399.19 11970.9 6.22312e-11 1.7347e+08 6377.1 6.20164e-11 1.29176e-11 8.357e+08 1.02829e+14
267.603 7618.58 14127.5 6.27797e-11 2.04703e+08 7592.16 6.2562e-11 1.09771e-11 1.17072e+09 1.21354e+14
282.795 9095.58 16672.6 6.35093e-11 2.4161e+08 9063.51 6.32854e-11 9.3274e-12 1.6451e+09 1.43217e+14
298.848 10903.7 19676.2 6.4512e-11 2.85122e+08 10864.5 6.42801e-11 7.925e-12 2.32099e+09 1.69017e+14
315.813 13143.9 23220.9 6.58952e-11 3.36491e+08 13095.9 6.56548e-11 6.73295e-12 3.29323e+09 1.99466e+14
333.741 15958 27404.3 6.7791e-11 3.97115e+08 15897.4 6.75332e-11 5.71979e-12 4.70661e+09 2.35401e+14
352.686 19586 32341.2 7.05018e-11 4.68637e+08 19508.2 7.02218e-11 4.85874e-12 6.80006e+09 2.77809e+14
372.707 24403.1 38167.6 7.44323e-11 5.53074e+08 24300.4 7.41189e-11 4.12703e-12 9.97486e+09 3.27857e+14
393.865 31051.1 45043.5 8.02518e-11 6.52716e+08 30910.3 7.98878e-11 3.50528e-12 1.49436e+10 3.86921e+14
416.224 36635.3 53158.3 8.02304e-11 2.2184e+08 38756.8 8.48764e-11 2.97701e-12 5.97858e+09 4.56626e+14
439.852 0 62734.9 0 0 0 0 2.52819e-12 0 5.38888e+14
464.821 0 74036.7 0 0 0 0 2.1469e-12 0 6.35971e+14
491.207 0 87374.6 0 0 0 0 1.82301e-12 0 7.50542e+14
519.092 0 103115 0 0 0 0 1.54789e-12 0 8.85755e+14
548.56 0 121692 0 0 0 0 1.31422e-12 0 1.04533e+15
579.7 0 143615 0 0 0 0 1.11576e-12 0 1.23364e+15
612.608 0 169488 0 0 0 0 9.47223e-13 0 1.45589e+15
647.384 0 200021 0 0 0 0 8.041e-13 0 1.71817e+15
684.134 0 236056 0 0 0 0 6.82568e-13 0 2.0277e+15
722.971 0 278582 0 0 0 0 5.79376e-13 0 2.393e+15
764.012 0 328769 0 0 0 0 4.91762e-13 0 2.8241e+15
0.121381
200
1.0655e+09
8589934592
0.0129181 4.76858e-05 1.58924e-09 3.4931e-06 6 4.72493e-05 3.46112e-06 0.00677225 0.00309477 13.6515
0.0136515 0 1.87554e-09 0 0 0 0 0.00688819 0 16.1108
0.0144264 0 2.21343e-09 0 0 0 0 0.00699249 0 19.0132
0.0152454 0 2.61218e-09 0 0 0 0 0.00708412 0 22.4385
0.0161108 0 3.08278e-09 0 0 0 0 0.00716212 0 26.4808
0.0170254 0 3.63815e-09 0 0 0 0 0.00722559 0 31.2514
0.0179919 0.000105885 4.29357e-09 2.87094e-06 12 0.000105748 2.86724e-06 0.00727371 0.00473642 36.8815
0.0190132 0 5.06707e-09 0 0 0 0 0.00730578 0 43.5258
0.0200925 0 5.97991e-09 0 0 0 0 0.00732122 0 51.367
0.0212331 0.000100133 7.05721e-09 1.65179e-06 8 0.000100046 1.65035e-06 0.00731958 0.00180534 60.621
0.0224385 0 8.32858e-09 0 0 0 0 0.00730056 0 71.542
0.0237123 0 9.829e-09 0 0 0 0 0.00726401 0 84.4305
0.0250583 0.000644062 1.15997e-08 6.46384e-06 6 0.000643759 6.46079e-06 0.00720995 0.00537909 99.6408
0.0264808 0 1.36894e-08 0 0 0 0 0.00713857 0 117.591
0.0279841 0.000401132 1.61556e-08 2.89051e-06 24 0.000400721 2.88754e-06 0.00705021 0.00983974 138.776
0.0295727 0 1.90661e-08 0 0 0 0 0.00694538 0 163.777
0.0312514 0.000717309 2.25009e-08 3.71122e-06 24 0.000720951 3.73006e-06 0.00682475 0.0130509 193.281
0.0330255 0 2.65545e-08 0 0 0 0 0.00668915 0 228.102
0.0349003 0.00100237 3.13384e-08 3.72358e-06 12 0.000994341 3.69376e-06 0.00653951 0.00683276 269.195
0.0368815 0.000869489 3.69841e-08 2.7369e-06 30 0.00086023 2.70776e-06 0.00637693 0.0128757 317.691
0.0389751 0.00103749 4.36469e-08 2.7672e-06 24 0.00102682 2.73873e-06 0.00620256 0.0107073 374.924
0.0411876 0.00065741 5.151e-08 1.48578e-06 24 0.000652946 1.47569e-06 0.00601767 0.00592568 442.467
0.0435258 0.00141327 6.07896e-08 2.70648e-06 8 0.00141316 2.70627e-06 0.00582358 0.00371796 522.179
0.0459966 0.0018097 7.1741e-08 2.93662e-06 72 0.00179538 2.91339e-06 0.00562166 0.0376111 616.251
0.0486077 0 8.46654e-08 0 0 0 0 0.0054133 0 727.27
0.051367 0.00271402 9.99181e-08 3.16212e-06 54 0.00270543 3.15212e-06 0.00519989 0.0328381 858.29
0.054283 0.00210685 1.17919e-07 2.07999e-06 60 0.00211561 2.08864e-06 0.0049828 0.025046 1012.91
0.0573645 0.00210073 1.39162e-07 1.75735e-06 96 0.00209534 1.75285e-06 0.00476339 0.0354173 1195.39
0.060621 0.00242398 1.64232e-07 1.71823e-06 24 0.00239114 1.69495e-06 0.00454293 0.0090773 1410.75
0.0640622 0.00427283 1.93819e-07 2.56642e-06 134 0.00427515 2.56782e-06 0.00432265 0.0795579 1664.89
0.0676989 0.00409672 2.28736e-07 2.08503e-06 120 0.00407799 2.07549e-06 0.00410371 0.06097 1964.83
0.071542 0.00373976 2.69944e-07 1.6128e-06 108 0.00369931 1.59535e-06 0.00388717 0.0448095 2318.8
0.0756032 0.00543247 3.18575e-07 1.98516e-06 174 0.00540423 1.97484e-06 0.00367401 0.0940167 2736.54
0.079895 0.00581309 3.75967e-07 1.79998e-06 168 0.00575823 1.78299e-06 0.0034651 0.0872692 3229.53
0.0844305 0.00497455 4.43698e-07 1.3052e-06 168 0.0049994 1.31172e-06 0.00326121 0.0672367 3811.34
0.0892234 0.00559333 5.23632e-07 1.24352e-06 290 0.00556991 1.23832e-06 0.00306301 0.117734 4497.96
0.0942883 0.0072718 6.17966e-07 1.3699e-06 288 0.00725334 1.36642e-06 0.00287109 0.137415 5308.28
0.0996408 0.00663166 7.29294e-07 1.05859e-06 366 0.00657551 1.04963e-06 0.00268591 0.144251 6264.59
0.105297 0.00717012 8.60678e-07 9.6983e-07 420 0.00712058 9.6313e-07 0.00250785 0.162421 7393.17
0.111275 0.00757975 1.01573e-06 8.68733e-07 398 0.00755916 8.66372e-07 0.00233721 0.147935 8725.07
0.117591 0.00902228 1.19872e-06 8.76212e-07 624 0.00904063 8.77994e-07 0.00217419 0.251475 10296.9
0.124267 0.00996604 1.41467e-06 8.2012e-07 642 0.00995371 8.19106e-07 0.00201893 0.260791 12151.9
0.131321 0.0126644 1.66953e-06 8.8308e-07 800 0.0126689 8.83393e-07 0.00187147 0.377492 14341.1
0.138776 0.0115134 1.9703e-06 6.8027e-07 858 0.011569 6.83555e-07 0.00173182 0.337028 16924.7
0.146654 0.0124076 2.32525e-06 6.21197e-07 1080 0.0125113 6.26385e-07 0.00159991 0.419332 19973.8
0.154979 0.0146711 2.74415e-06 6.22395e-07 1286 0.0147728 6.2671e-07 0.00147563 0.542411 23572.1
0.163777 0.0139007 3.23852e-06 4.9969e-07 1650 0.0139253 5.00574e-07 0.00135884 0.606759 27818.7
0.173074 0.016378 3.82195e-06 4.98868e-07 1778 0.0163798 4.98923e-07 0.00124933 0.709969 32830.3
0.182899 0.0160243 4.51048e-06 4.13587e-07 2112 0.0160621 4.14562e-07 0.00114689 0.761621 38744.7
0.193281 0.0188618 5.32305e-06 4.12509e-07 2570 0.0188898 4.1312e-07 0.00105127 1.00844 45724.7
0.204254 0.0209048 6.28202e-06 3.87399e-07 3030 0.0208966 3.87246e-07 0.000962209 1.21992 53962.1
0.215848 0.0207905 7.41374e-06 3.26466e-07 3434 0.0207874 3.26418e-07 0.000879423 1.2748 63683.5
0.228102 0.0217375 8.74934e-06 2.8923e-07 4218 0.0217426 2.89298e-07 0.000802624 1.51998 75156.3
0.24105 0.024564 1.03256e-05 2.76947e-07 4766 0.0245872 2.77208e-07 0.000731515 1.80437 88695.9
0.254734 0.0262287 1.21857e-05 2.50573e-07 6026 0.0262204 2.50494e-07 0.000665798 2.26788 104675
0.269195 0.0274341 1.4381e-05 2.2208e-07 6480 0.0274215 2.21979e-07 0.000605173 2.37796 123532
0.284476 0.029728 1.69718e-05 2.03914e-07 8162 0.0297968 2.04386e-07 0.000549345 3.0297 145787
0.300625 0.0299441 2.00293e-05 1.74042e-07 9578 0.0299823 1.74264e-07 0.000498021 3.3472 172051
0.317691 0.0332789 2.36377e-05 1.63898e-07 11234 0.033255 1.63781e-07 0.000450916 4.08332 203046
0.335725 0.0348349 2.78961e-05 1.45372e-07 13344 0.0348201 1.4531e-07 0.000407755 4.75739 239625
0.354784 0.0361107 3.29216e-05 1.27692e-07 15464 0.0360893 1.27617e-07 0.000368269 5.36193 282795
0.374924 0.0388032 3.88525e-05 1.16267e-07 18458 0.0387968 1.16248e-07 0.000332202 6.46012 333741
0.396207 0.040683 4.58519e-05 1.03292e-07 22232 0.0406244 1.03143e-07 0.000299307 7.67234 393865
0.418699 0.0440273 5.41123e-05 9.47188e-08 25628 0.0439381 9.4527e-08 0.00026935 9.01228 464821
0.442467 0.0458053 6.38607e-05 8.35011e-08 30320 0.0457272 8.33587e-08 0.000242108 10.4571 548560
0.467585 0.0480242 7.53654e-05 7.4182e-08 35452 0.0479548 7.40748e-08 0.00021737 12.0987 647384
0.494129 0.0497614 8.89427e-05 6.51317e-08 41792 0.0497436 6.51085e-08 0.000194938 13.9633 764012
0.522179 0.0538288 0.000104966 5.97003e-08 49988 0.0538139 5.96838e-08 0.000174625 17.0898 901651
0.551822 0.0562577 0.000123876 5.28696e-08 59110 0.0562226 5.28365e-08 0.000156255 20.0002 1.06409e+06
0.583147 0.0593175 0.000146192 4.72355e-08 69716 0.0592472 4.71795e-08 0.000139664 23.5785 1.25578e+06
0.616251 0.0626106 0.000172529 4.22469e-08 82210 0.0625125 4.21807e-08 0.0001247 27.8518 1.48202e+06
0.651234 0.0661712 0.000203611 3.78336e-08 96722 0.0660519 3.77654e-08 0.00011122 32.9017 1.74901e+06
0.688203 0.0695221 0.000240292 3.36816e-08 113098 0.0694604 3.36518e-08 9.90935e-05 38.4417 2.06409e+06
0.72727 0.072168 0.000283581 2.96263e-08 135190 0.0720941 2.9596e-08 8.81969e-05 45.4118 2.43595e+06
0.768555 0.0766481 0.000334669 2.66622e-08 158170 0.0765814 2.6639e-08 7.84179e-05 53.778 2.87479e+06
0.812184 0.0801264 0.000394961 2.36174e-08 188560 0.080049 2.35946e-08 6.96525e-05 63.9358 3.39269e+06
0.85829 0.083728 0.000466114 2.09117e-08 220444 0.0836339 2.08882e-08 6.1805e-05 74.587 4.00389e+06
0.907013 0.0881406 0.000550086 1.86533e-08 261388 0.0880538 1.86349e-08 5.47875e-05 88.9938 4.7252e+06
0.958501 0.092169 0.000649185 1.65282e-08 308244 0.0920707 1.65106e-08 4.85194e-05 105.004 5.57646e+06
1.01291 0.0972278 0.000766138 1.47738e-08 364396 0.0971199 1.47575e-08 4.29272e-05 125.411 6.58107e+06
1.07041 0.101518 0.00090416 1.30709e-08 429162 0.101395 1.30552e-08 3.79435e-05 147.84 7.76667e+06
1.13118 0.106954 0.00106705 1.16687e-08 506358 0.106827 1.16548e-08 3.3507e-05 176.338 9.16586e+06
1.19539 0.111621 0.00125928 1.0319e-08 598590 0.111481 1.0306e-08 2.9562e-05 208.945 1.08171e+07
1.26325 0.117179 0.00148614 9.17907e-09 704844 0.117031 9.16754e-09 2.60578e-05 248.287 1.27658e+07
1.33496 0.12253 0.00175387 8.13307e-09 834620 0.122374 8.1227e-09 2.29484e-05 295.795 1.50656e+07
1.41075 0.128207 0.00206984 7.21086e-09 981444 0.128055 7.2023e-09 2.01923e-05 350.483 1.77798e+07
1.49083 0.134336 0.00244272 6.40221e-09 1.15998e+06 0.134163 6.39394e-09 1.77518e-05 418.348 2.09828e+07
1.57546 0.141159 0.00288279 5.70041e-09 1.36931e+06 0.140976 5.69303e-09 1.55929e-05 500.59 2.4763e+07
1.66489 0.147784 0.00340213 5.05693e-09 1.61652e+06 0.147574 5.04975e-09 1.3685e-05 597.339 2.92241e+07
1.75941 0.154699 0.00401503 4.48548e-09 1.90601e+06 0.154487 4.47934e-09 1.20007e-05 712.405 3.44889e+07
1.85928 0.162294 0.00473835 3.98736e-09 2.24913e+06 0.162084 3.98221e-09 1.05151e-05 852.876 4.07021e+07
1.96483 0.169756 0.00559198 3.53402e-09 2.65744e+06 0.169519 3.52909e-09 9.20606e-06 1020.14 4.80347e+07
2.07637 0.178092 0.00659939 3.1416e-09 3.13125e+06 0.17785 3.13733e-09 8.05366e-06 1221.45 5.66883e+07
2.19424 0.186828 0.00778828 2.7926e-09 3.69915e+06 0.186576 2.78884e-09 7.04008e-06 1467.35 6.69008e+07
2.3188 0.195816 0.00919136 2.48015e-09 4.36472e+06 0.195538 2.47663e-09 6.1494e-06 1760.36 7.89532e+07
2.45043 0.205656 0.0108472 2.20716e-09 5.14913e+06 0.205369 2.20408e-09 5.36741e-06 2117.4 9.31768e+07
2.58954 0.216139 0.0128014 1.96556e-09 6.07894e+06 0.21583 1.96275e-09 4.68145e-06 2552.31 1.09963e+08
2.73654 0.226925 0.0151076 1.74863e-09 7.17304e+06 0.226604 1.74615e-09 4.08023e-06 3074.09 1.29773e+08
2.89188 0.238325 0.0178292 1.55614e-09 8.46557e+06 0.237985 1.55392e-09 3.55373e-06 3706.97 1.53152e+08
3.05605 0.25062 0.0210412 1.38661e-09 9.98773e+06 0.250279 1.38473e-09 3.09304e-06 4477.5 1.80743e+08
3.22953 0.263748 0.0248319 1.23649e-09 1.1797e+07 0.263374 1.23473e-09 2.69025e-06 5422.13 2.13304e+08
3.41286 0.277825 0.0293054 1.10366e-09 1.39144e+07 0.27741 1.10201e-09 2.33837e-06 6567.27 2.51731e+08
3.6066 0.292529 0.0345848 9.84678e-10 1.64163e+07 0.292104 9.83245e-10 2.0312e-06 7958.22 2.97081e+08
3.81134 0.308396 0.0408154 8.79621e-10 1.93821e+07 0.307941 8.78323e-10 1.76327e-06 9668.96 3.50601e+08
4.0277 0.32548 0.0481684 7.86633e-10 2.28754e+07 0.32499 7.8545e-10 1.52972e-06 11763.3 4.13763e+08
4.25634 0.343647 0.056846 7.03758e-10 2.69929e+07 0.343119 7.02676e-10 1.32631e-06 14322.8 4.88304e+08
4.49796 0.363359 0.067087 6.30534e-10 3.18542e+07 0.36279 6.29546e-10 1.14926e-06 17476.6 5.76273e+08
4.7533 0.384552 0.0791729 5.65443e-10 3.75892e+07 0.38395 5.64558e-10 9.95263e-07 21355.7 6.8009e+08
5.02313 0.407183 0.0934361 5.07324e-10 4.43706e+07 0.406538 5.06521e-10 8.61414e-07 26131.8 8.0261e+08
5.30828 0.431709 0.110269 4.55773e-10 5.23593e+07 0.431002 4.55026e-10 7.45152e-07 32025.6 9.47202e+08
5.60962 0.458287 0.130134 4.09974e-10 6.1787e+07 0.457542 4.09308e-10 6.44232e-07 39319.8 1.11784e+09
5.92807 0.48744 0.153578 3.6949e-10 7.29346e+07 0.486624 3.68871e-10 5.56685e-07 48409 1.31923e+09
6.26459 0.518802 0.181246 3.3323e-10 8.60651e+07 0.517914 3.3266e-10 4.80786e-07 59651.1 1.55689e+09
6.62021 0.553382 0.213898 3.01182e-10 1.01558e+08 0.552423 3.0066e-10 4.15026e-07 73700.3 1.83737e+09
6.99602 0.591367 0.252432 2.72724e-10 1.1986e+08 0.590334 2.72247e-10 3.58083e-07 91288 2.16837e+09
7.39317 0.633022 0.297908 2.4737e-10 1.41457e+08 0.631895 2.46929e-10 3.08803e-07 113315 2.55901e+09
7.81286 0.678783 0.351577 2.24761e-10 1.66936e+08 0.677551 2.24353e-10 2.66181e-07 140959 3.02002e+09
8.25637 0.729403 0.414914 2.04653e-10 1.97025e+08 0.728061 2.04277e-10 2.29336e-07 175820 3.56409e+09
8.72507 0.785232 0.489662 1.86686e-10 2.32497e+08 0.783753 1.86334e-10 1.97503e-07 219763 4.20617e+09
9.22037 0.847958 0.577876 1.70824e-10 2.74404e+08 0.84632 1.70494e-10 1.70014e-07 275712 4.96392e+09
9.74378 0.918687 0.681982 1.56821e-10 3.2382e+08 0.916857 1.56509e-10 1.46289e-07 347134 5.85818e+09
10.2969 1.00109 0.804843 1.44801e-10 3.82165e+08 0.999002 1.44499e-10 1.25822e-07 439809 6.91355e+09
10.8814 1.10128 0.949838 1.34976e-10 4.51027e+08 1.0988 1.34673e-10 1.08175e-07 562769 8.15905e+09
11.4992 1.23109 1.12095 1.27854e-10 5.32251e+08 1.228 1.27533e-10 9.29669e-08 731984 9.62892e+09
12.1519 1.41248 1.3229 1.24298e-10 6.28157e+08 1.40834 1.23934e-10 7.98658e-08 977626 1.13636e+10
12.8418 1.61138 1.56122 1.20155e-10 3.82727e+08 1.66762 1.24349e-10 6.85852e-08 670504 1.34108e+10
13.5708 0 1.84248 0 0 0 0 5.88765e-08 0 1.58268e+10
14.3411 0 2.17441 0 0 0 0 5.05241e-08 0 1.8678e+10
15.1552 0 2.56613 0 0 0 0 4.33417e-08 0 2.20429e+10
16.0156 0 3.02843 0 0 0 0 3.71677e-08 0 2.6014e+10
16.9247 0 3.574 0 0 0 0 3.18628e-08 0 3.07005e+10
17.8855 0 4.21787 0 0 0 0 2.73063e-08 0 3.62312e+10
18.9008 0 4.97773 0 0 0 0 2.33941e-08 0 4.27584e+10
19.9738 0 5.87448 0 0 0 0 2.00364e-08 0 5.04614e+10
21.1076 0 6.93279 0 0 0 0 1.71555e-08 0 5.95522e+10
22.3058 0 8.18175 0 0 0 0 1.46847e-08 0 7.02807e+10
23.5721 0 9.65571 0 0 0 0 1.25662e-08 0 8.29419e+10
24.9102 0 11.3952 0 0 0 0 1.07504e-08 0 9.78842e+10
26.3243 0 13.4481 0 0 0 0 9.19452e-09 0 1.15518e+11
27.8187 0 15.8708 0 0 0 0 7.86182e-09 0 1.36329e+11
29.3979 0 18.73 0 0 0 0 6.72061e-09 0 1.60889e+11
31.0667 0 22.1042 0 0 0 0 5.74366e-09 0 1.89874e+11
32.8303 0 26.0864 0 0 0 0 4.90756e-09 0 2.2408e+11
34.694 0 30.7859 0 0 0 0 4.19221e-09 0 2.64449e+11
36.6634 0 36.3321 0 0 0 0 3.58032e-09 0 3.1209e+11
38.7447 0 42.8774 0 0 0 0 3.05709e-09 0 3.68314e+11
40.9442 0 50.6018 0 0 0 0 2.60976e-09 0 4.34667e+11
43.2685 0 59.7179 0 0 0 0 2.22743e-09 0 5.12973e+11
45.7247 0 70.4762 0 0 0 0 1.90073e-09 0 6.05386e+11
48.3204 0 83.1727 0 0 0 0 1.62163e-09 0 7.14448e+11
51.0634 0 98.1565 0 0 0 0 1.38326e-09 0 8.43158e+11
53.9621 0 115.84 0 0 0 0 1.1797e-09 0 9.95055e+11
57.0254 0 136.709 0 0 0 0 1.00592e-09 0 1.17432e+12
60.2626 0 161.337 0 0 0 0 8.57591e-10 0 1.38587e+12
63.6835 0 190.402 0 0 0 0 7.3101e-10 0 1.63554e+12
67.2987 0 224.704 0 0 0 0 6.23009e-10 0 1.93019e+12
71.1191 0 265.185 0 0 0 0 5.30879e-10 0 2.27792e+12
75.1563 0 312.958 0 0 0 0 4.52303e-10 0 2.68829e+12
79.4227 0 369.339 0 0 0 0 3.85299e-10 0 3.17259e+12
83.9313 0 435.876 0 0 0 0 3.28173e-10 0 3.74415e+12
88.6959 0 514.4 0 0 0 0 2.79476e-10 0 4.41866e+12
93.7309 0 607.071 0 0 0 0 2.37972e-10 0 5.2147e+12
99.0518 0 716.436 0 0 0 0 2.02605e-10 0 6.15414e+12
104.675 0 845.504 0 0 0 0 1.72471e-10 0 7.26283e+12
110.617 0 997.824 0 0 0 0 1.468e-10 0 8.57124e+12
116.896 0 1177.58 0 0 0 0 1.24935e-10 0 1.01154e+13
123.532 0 1389.73 0 0 0 0 1.06313e-10 0 1.19377e+13
130.545 0 1640.09 0 0 0 0 9.04567e-11 0 1.40883e+13
137.955 0 1935.56 0 0 0 0 7.69563e-11 0 1.66263e+13
145.787 0 2284.26 0 0 0 0 6.54636e-11 0 1.96216e+13
154.063 0 2695.77 0 0 0 0 5.56812e-11 0 2.31565e+13
162.808 0 3181.42 0 0 0 0 4.73556e-11 0 2.73282e+13
172.051 0 3754.56 0 0 0 0 4.02708e-11 0 3.22515e+13
181.818 0 4430.96 0 0 0 0 3.42426e-11 0 3.80616e+13
192.139 0 5229.21 0 0 0 0 2.91139e-11 0 4.49186e+13
203.046 0 6171.26 0 0 0 0 2.4751e-11 0 5.30108e+13
214.572 0 7283.03 0 0 0 0 2.10401e-11 0 6.25608e+13
226.753 0 8595.09 0 0 0 0 1.78839e-11 0 7.38313e+13
239.625 0 10143.5 0 0 0 0 1.51999e-11 0 8.71322e+13
253.228 0 11970.9 0 0 0 0 1.29176e-11 0 1.02829e+14
267.603 0 14127.5 0 0 0 0 1.09771e-11 0 1.21354e+14
282.795 0 16672.6 0 0 0 0 9.3274e-12 0 1.43217e+14
298.848 0 19676.2 0 0 0 0 7.925e-12 0 1.69017e+14
315.813 0 23220.9 0 0 0 0 6.73295e-12 0 1.99466e+14
333.741 0 27404.3 0 0 0 0 5.71979e-12 0 2.35401e+14
352.686 0 32341.2 0 0 0 0 4.85874e-12 0 2.77809e+14
372.707 0 38167.6 0 0 0 0 4.12703e-12 0 3.27857e+14
393.865 0 45043.5 0 0 0 0 3.50528e-12 0 3.86921e+14
416.224 0 53158.3 0 0 0 0 2.97701e-12 0 4.56626e+14
439.852 0 62734.9 0 0 0 0 2.52819e-12 0 5.38888e+14
464.821 0 74036.7 0 0 0 0 2.1469e-12 0 6.35971e+14
491.207 0 87374.6 0 0 0 0 1.82301e-12 0 7.50542e+14
519.092 0 103115 0 0 0 0 1.54789e-12 0 8.85755e+14
548.56 0 121692 0 0 0 0 1.31422e-12 0 1.04533e+15
579.7 0 143615 0 0 0 0 1.11576e-12 0 1.23364e+15
612.608 0 169488 0 0 0 0 9.47223e-13 0 1.45589e+15
647.384 0 200021 0 0 0 0 8.041e-13 0 1.71817e+15
684.134 0 236056 0 0 0 0 6.82568e-13 0 2.0277e+15
722.971 0 278582 0 0 0 0 5.79376e-13 0 2.393e+15
764.012 0 328769 0 0 0 0 4.91762e-13 0 2.8241e+15
