0.260603
200
1.0655e+09
8589934592
0.0129181 0 1.58924e-09 0 0 0 0 0.00677225 0 13.6515
0.0136515 0 1.87554e-09 0 0 0 0 0.00688819 0 16.1108
0.0144264 0 2.21343e-09 0 0 0 0 0.00699249 0 19.0132
0.0152454 0 2.61218e-09 0 0 0 0 0.00708412 0 22.4385
0.0161108 0 3.08278e-09 0 0 0 0 0.00716212 0 26.4808
0.0170254 0 3.63815e-09 0 0 0 0 0.00722559 0 31.2514
0.0179919 0 4.29357e-09 0 0 0 0 0.00727371 0 36.8815
0.0190132 0 5.06707e-09 0 0 0 0 0.00730578 0 43.5258
0.0200925 0 5.97991e-09 0 0 0 0 0.00732122 0 51.367
0.0212331 0 7.05721e-09 0 0 0 0 0.00731958 0 60.621
0.0224385 0 8.32858e-09 0 0 0 0 0.00730056 0 71.542
0.0237123 0 9.829e-09 0 0 0 0 0.00726401 0 84.4305
0.0250583 0 1.15997e-08 0 0 0 0 0.00720995 0 99.6408
0.0264808 0 1.36894e-08 0 0 0 0 0.00713857 0 117.591
0.0279841 0 1.61556e-08 0 0 0 0 0.00705021 0 138.776
0.0295727 0 1.90661e-08 0 0 0 0 0.00694538 0 163.777
0.0312514 0 2.25009e-08 0 0 0 0 0.00682475 0 193.281
0.0330255 0 2.65545e-08 0 0 0 0 0.00668915 0 228.102
0.0349003 0 3.13384e-08 0 0 0 0 0.00653951 0 269.195
0.0368815 0 3.69841e-08 0 0 0 0 0.00637693 0 317.691
0.0389751 0 4.36469e-08 0 0 0 0 0.00620256 0 374.924
0.0411876 0 5.151e-08 0 0 0 0 0.00601767 0 442.467
0.0435258 0 6.07896e-08 0 0 0 0 0.00582358 0 522.179
0.0459966 0 7.1741e-08 0 0 0 0 0.00562166 0 616.251
0.0486077 0 8.46654e-08 0 0 0 0 0.0054133 0 727.27
0.051367 0 9.99181e-08 0 0 0 0 0.00519989 0 858.29
0.054283 0 1.17919e-07 0 0 0 0 0.0049828 0 1012.91
0.0573645 0 1.39162e-07 0 0 0 0 0.00476339 0 1195.39
0.060621 0 1.64232e-07 0 0 0 0 0.00454293 0 1410.75
0.0640622 0 1.93819e-07 0 0 0 0 0.00432265 0 1664.89
0.0676989 0 2.28736e-07 0 0 0 0 0.00410371 0 1964.83
0.071542 0 2.69944e-07 0 0 0 0 0.00388717 0 2318.8
0.0756032 0 3.18575e-07 0 0 0 0 0.00367401 0 2736.54
0.079895 0 3.75967e-07 0 0 0 0 0.0034651 0 3229.53
0.0844305 0 4.43698e-07 0 0 0 0 0.00326121 0 3811.34
0.0892234 0 5.23632e-07 0 0 0 0 0.00306301 0 4497.96
0.0942883 0 6.17966e-07 0 0 0 0 0.00287109 0 5308.28
0.0996408 0 7.29294e-07 0 0 0 0 0.00268591 0 6264.59
0.105297 0 8.60678e-07 0 0 0 0 0.00250785 0 7393.17
0.111275 0 1.01573e-06 0 0 0 0 0.00233721 0 8725.07
0.117591 0 1.19872e-06 0 0 0 0 0.00217419 0 10296.9
0.124267 0 1.41467e-06 0 0 0 0 0.00201893 0 12151.9
0.131321 0 1.66953e-06 0 0 0 0 0.00187147 0 14341.1
0.138776 0 1.9703e-06 0 0 0 0 0.00173182 0 16924.7
0.146654 0 2.32525e-06 0 0 0 0 0.00159991 0 19973.8
0.154979 0 2.74415e-06 0 0 0 0 0.00147563 0 23572.1
0.163777 0 3.23852e-06 0 0 0 0 0.00135884 0 27818.7
0.173074 0 3.82195e-06 0 0 0 0 0.00124933 0 32830.3
0.182899 0 4.51048e-06 0 0 0 0 0.00114689 0 38744.7
0.193281 0 5.32305e-06 0 0 0 0 0.00105127 0 45724.7
0.204254 0 6.28202e-06 0 0 0 0 0.000962209 0 53962.1
0.215848 0 7.41374e-06 0 0 0 0 0.000879423 0 63683.5
0.228102 0 8.74934e-06 0 0 0 0 0.000802624 0 75156.3
0.24105 0 1.03256e-05 0 0 0 0 0.000731515 0 88695.9
0.254734 0 1.21857e-05 0 0 0 0 0.000665798 0 104675
0.269195 0 1.4381e-05 0 0 0 0 0.000605173 0 123532
0.284476 0 1.69718e-05 0 0 0 0 0.000549345 0 145787
0.300625 0 2.00293e-05 0 0 0 0 0.000498021 0 172051
0.317691 0 2.36377e-05 0 0 0 0 0.000450916 0 203046
0.335725 0 2.78961e-05 0 0 0 0 0.000407755 0 239625
0.354784 0 3.29216e-05 0 0 0 0 0.000368269 0 282795
0.374924 0 3.88525e-05 0 0 0 0 0.000332202 0 333741
0.396207 0.868091 4.58519e-05 2.20403e-06 6 0.843956 2.14276e-06 0.000299307 0.0441827 393865
0.418699 0 5.41123e-05 0 0 0 0 0.00026935 0 464821
0.442467 0 6.38607e-05 0 0 0 0 0.000242108 0 548560
0.467585 0 7.53654e-05 0 0 0 0 0.00021737 0 647384
0.494129 0 8.89427e-05 0 0 0 0 0.000194938 0 764012
0.522179 0 0.000104966 0 0 0 0 0.000174625 0 901651
0.551822 0 0.000123876 0 0 0 0 0.000156255 0 1.06409e+06
0.583147 6.29835 0.000146192 5.01548e-06 12 6.62905 5.27882e-06 0.000139664 0.430932 1.25578e+06
0.616251 0 0.000172529 0 0 0 0 0.0001247 0 1.48202e+06
0.651234 0 0.000203611 0 0 0 0 0.00011122 0 1.74901e+06
0.688203 28.2852 0.000240292 1.37034e-05 8 27.5815 1.33625e-05 9.90935e-05 1.1063 2.06409e+06
0.72727 0 0.000283581 0 0 0 0 8.81969e-05 0 2.43595e+06
0.768555 0 0.000334669 0 0 0 0 7.84179e-05 0 2.87479e+06
0.812184 0.840116 0.000394961 2.47626e-07 6 0.858078 2.5292e-07 6.96525e-05 0.0213309 3.39269e+06
0.85829 0 0.000466114 0 0 0 0 6.1805e-05 0 4.00389e+06
0.907013 0.59427 0.000550086 1.25766e-07 24 0.605672 1.28179e-07 5.47875e-05 0.0550926 4.7252e+06
0.958501 1.70879 0.000649185 3.0643e-07 24 1.6087 2.88481e-07 4.85194e-05 0.151575 5.57646e+06
1.01291 0 0.000766138 0 0 0 0 4.29272e-05 0 6.58107e+06
1.07041 0 0.00090416 0 0 0 0 3.79435e-05 0 7.76667e+06
1.13118 1.86784 0.00106705 2.03783e-07 12 1.8449 2.01279e-07 3.3507e-05 0.0729814 9.16586e+06
1.19539 1.92375 0.00125928 1.77843e-07 30 1.88409 1.74177e-07 2.9562e-05 0.180478 1.08171e+07
1.26325 7.52955 0.00148614 5.8982e-07 24 7.41625 5.80945e-07 2.60578e-05 0.543241 1.27658e+07
1.33496 21.0889 0.00175387 1.3998e-06 24 21.1353 1.40288e-06 2.29484e-05 1.46394 1.50656e+07
1.41075 8.08375 0.00206984 4.5466e-07 32 8.29233 4.66391e-07 2.01923e-05 0.720528 1.77798e+07
1.49083 1.11963 0.00244272 5.33592e-08 48 1.09576 5.22216e-08 1.77518e-05 0.144281 2.09828e+07
1.57546 0.932876 0.00288279 3.76722e-08 6 0.888308 3.58724e-08 1.55929e-05 0.014496 2.4763e+07
1.66489 1.10904 0.00340213 3.79495e-08 84 1.08126 3.69988e-08 1.3685e-05 0.232938 2.92241e+07
1.75941 3.69651 0.00401503 1.0718e-07 48 3.69533 1.07146e-07 1.20007e-05 0.428695 3.44889e+07
1.85928 1.07448 0.00473835 2.63987e-08 72 1.08863 2.67462e-08 1.05151e-05 0.180759 4.07021e+07
1.96483 2.16048 0.00559198 4.49774e-08 54 2.1203 4.41411e-08 9.20606e-06 0.263824 4.80347e+07
2.07637 11.3693 0.00659939 2.00559e-07 104 11.3687 2.00548e-07 8.05366e-06 2.58989 5.66883e+07
2.19424 1.15995 0.00778828 1.73383e-08 120 1.17587 1.75763e-08 7.04008e-06 0.295536 6.69008e+07
2.3188 3.33643 0.00919136 4.22583e-08 156 3.1943 4.04581e-08 6.1494e-06 1.07202 7.89532e+07
2.45043 2.40632 0.0108472 2.58252e-08 126 2.39357 2.56885e-08 5.36741e-06 0.606247 9.31768e+07
2.58954 2.2248 0.0128014 2.02323e-08 192 2.24337 2.04011e-08 4.68145e-06 0.829785 1.09963e+08
2.73654 7.17723 0.0151076 5.53061e-08 152 7.43477 5.72905e-08 4.08023e-06 2.0603 1.29773e+08
2.89188 5.45449 0.0178292 3.56149e-08 378 5.55037 3.62409e-08 3.55373e-06 3.78825 1.53152e+08
3.05605 2.77986 0.0210412 1.53802e-08 264 2.74086 1.51644e-08 3.09304e-06 1.31274 1.80743e+08
3.22953 1.84106 0.0248319 8.63113e-09 366 1.8317 8.58726e-09 2.69025e-06 1.17424 2.13304e+08
3.41286 2.78267 0.0293054 1.10541e-08 428 2.72696 1.08328e-08 2.33837e-06 2.02327 2.51731e+08
3.6066 5.58663 0.0345848 1.8805e-08 486 5.45319 1.83559e-08 2.0312e-06 4.49943 2.97081e+08
3.81134 2.82795 0.0408154 8.066e-09 600 2.83342 8.08161e-09 1.76327e-06 2.74468 3.50601e+08
4.0277 2.90272 0.0481684 7.01541e-09 738 2.8637 6.92112e-09 1.52972e-06 3.38452 4.13763e+08
4.25634 3.73905 0.056846 7.65721e-09 824 3.75798 7.69598e-09 1.32631e-06 4.75723 4.88304e+08
4.49796 5.73589 0.067087 9.95342e-09 954 5.72426 9.93325e-09 1.14926e-06 8.26236 5.76273e+08
4.7533 3.80979 0.0791729 5.60189e-09 1094 3.79238 5.57628e-09 9.95263e-07 6.15764 6.8009e+08
5.02313 4.00562 0.0934361 4.99074e-09 1332 4.01342 5.00047e-09 8.61414e-07 7.71715 8.0261e+08
5.30828 6.47515 0.110269 6.83607e-09 1614 6.50854 6.87133e-09 7.45152e-07 14.8069 9.47202e+08
5.60962 5.48926 0.130134 4.91058e-09 1850 5.45361 4.87869e-09 6.44232e-07 14.1014 1.11784e+09
5.92807 5.93629 0.153578 4.49983e-09 2238 5.88821 4.46338e-09 5.56685e-07 18.0903 1.31923e+09
6.26459 5.89283 0.181246 3.78501e-09 2546 5.91884 3.80171e-09 4.80786e-07 20.0435 1.55689e+09
6.62021 6.05916 0.213898 3.29774e-09 3264 6.0587 3.2975e-09 4.15026e-07 25.9353 1.83737e+09
6.99602 7.07376 0.252432 3.26224e-09 3506 7.11065 3.27926e-09 3.58083e-07 31.9407 2.16837e+09
7.39317 7.27855 0.297908 2.84428e-09 4506 7.29053 2.84897e-09 3.08803e-07 41.5032 2.55901e+09
7.81286 8.48332 0.351577 2.80902e-09 5018 8.5089 2.81749e-09 2.66181e-07 52.9553 3.02002e+09
8.25637 9.14474 0.414914 2.5658e-09 5852 9.10264 2.55399e-09 2.29336e-07 65.4719 3.56409e+09
8.72507 9.31244 0.489662 2.214e-09 7362 9.29232 2.20921e-09 1.97503e-07 82.5275 4.20617e+09
9.22037 10.0115 0.577876 2.01686e-09 8306 9.98283 2.01108e-09 1.70014e-07 98.5331 4.96392e+09
9.74378 10.3226 0.681982 1.76208e-09 9698 10.318 1.76129e-09 1.46289e-07 116.814 5.85818e+09
10.2969 11.8351 0.804843 1.71187e-09 11816 11.8318 1.7114e-09 1.25822e-07 160.762 6.91355e+09
10.8814 12.6568 0.949838 1.55126e-09 13682 12.6431 1.54958e-09 1.08175e-07 196.203 8.15905e+09
11.4992 13.0672 1.12095 1.35708e-09 16152 13.0513 1.35543e-09 9.29669e-08 235.779 9.62892e+09
12.1519 14.1478 1.3229 1.24501e-09 19472 14.1009 1.24089e-09 7.98658e-08 303.544 1.13636e+10
12.8418 14.8164 1.56122 1.10481e-09 22670 14.7868 1.10261e-09 6.85852e-08 365.182 1.34108e+10
13.5708 16.1802 1.84248 1.02233e-09 26224 16.1766 1.02211e-09 5.88765e-08 455.354 1.58268e+10
14.3411 16.9382 2.17441 9.06852e-10 31640 16.9341 9.06632e-10 5.05241e-08 567.903 1.8678e+10
15.1552 18.4796 2.56613 8.38348e-10 37484 18.449 8.36959e-10 4.33417e-08 725.044 2.20429e+10
16.0156 19.4163 3.02843 7.46378e-10 43856 19.3855 7.45194e-10 3.71677e-08 880.688 2.6014e+10
16.9247 20.9178 3.574 6.8135e-10 51362 20.8892 6.80419e-10 3.18628e-08 1098.32 3.07005e+10
17.8855 21.9386 4.21787 6.05515e-10 61636 21.8985 6.04411e-10 2.73063e-08 1366.77 3.62312e+10
18.9008 23.4036 4.97773 5.47345e-10 72218 23.3597 5.46319e-10 2.33941e-08 1689.66 4.27584e+10
19.9738 25.0786 5.87448 4.96985e-10 84586 25.0193 4.9581e-10 2.00364e-08 2098.08 5.04614e+10
21.1076 26.3817 6.93279 4.43002e-10 100708 26.342 4.42334e-10 1.71555e-08 2600.55 5.95522e+10
22.3058 28.2001 8.18175 4.01249e-10 118712 28.143 4.00438e-10 1.46847e-08 3243.73 7.02807e+10
23.5721 29.93 9.65571 3.60854e-10 140410 29.8678 3.60105e-10 1.25662e-08 4032.07 8.29419e+10
24.9102 31.9098 11.3952 3.25996e-10 164374 31.8476 3.2536e-10 1.07504e-08 4984.51 9.78842e+10
26.3243 34.1155 13.4481 2.95326e-10 194680 34.0523 2.94779e-10 9.19452e-09 6253.08 1.15518e+11
27.8187 36.5971 15.8708 2.68447e-10 230196 36.5273 2.67934e-10 7.86182e-09 7860.18 1.36329e+11
29.3979 38.6621 18.73 2.40303e-10 271156 38.5902 2.39856e-10 6.72061e-09 9695.47 1.60889e+11
31.0667 41.5583 22.1042 2.18873e-10 321076 41.4695 2.18406e-10 5.74366e-09 12235.2 1.89874e+11
32.8303 44.6286 26.0864 1.99163e-10 377436 44.5307 1.98727e-10 4.90756e-09 15317.5 2.2408e+11
34.694 48.0916 30.7859 1.81856e-10 447594 47.9882 1.81465e-10 4.19221e-09 19416.4 2.64449e+11
36.6634 51.5706 36.3321 1.65243e-10 525078 51.4553 1.64873e-10 3.58032e-09 24233.9 3.1209e+11
38.7447 55.8907 42.8774 1.51748e-10 621924 55.7619 1.51398e-10 3.05709e-09 30871 3.68314e+11
40.9442 60.535 50.6018 1.39268e-10 732630 60.3982 1.38953e-10 2.60976e-09 39096.2 4.34667e+11
43.2685 65.7755 59.7179 1.28224e-10 865596 65.6368 1.27954e-10 2.22743e-09 49828.8 5.12973e+11
45.7247 71.812 70.4762 1.18622e-10 1.02168e+06 71.6469 1.18349e-10 1.90073e-09 63761.3 6.05386e+11
48.3204 79.0241 83.1727 1.10609e-10 1.20544e+06 78.8402 1.10351e-10 1.62163e-09 82220.6 7.14448e+11
51.0634 90.53 98.1565 1.0737e-10 1.42103e+06 90.2285 1.07013e-10 1.38326e-09 110302 8.43158e+11
53.9621 96.1796 115.84 9.66576e-11 1.67997e+06 95.9424 9.64192e-11 1.1797e-09 137646 9.95055e+11
57.0254 106.842 136.709 9.09824e-11 1.98018e+06 106.563 9.0745e-11 1.00592e-09 179101 1.17432e+12
60.2626 119.481 161.337 8.62133e-11 2.33957e+06 119.158 8.59804e-11 8.57591e-10 235196 1.38587e+12
63.6835 134.117 190.402 8.20018e-11 2.75676e+06 133.766 8.1787e-11 7.3101e-10 309243 1.63554e+12
67.2987 151.565 224.704 7.85232e-11 3.25638e+06 151.153 7.83099e-11 6.23009e-10 410430 1.93019e+12
71.1191 171.747 265.185 7.53965e-11 3.84387e+06 171.267 7.51858e-11 5.30879e-10 545914 2.27792e+12
75.1563 196.979 312.958 7.3273e-11 4.53277e+06 196.353 7.30402e-11 4.52303e-10 734307 2.68829e+12
79.4227 224.209 369.339 7.06707e-11 5.35083e+06 223.569 7.0469e-11 3.85299e-10 981436 3.17259e+12
83.9313 257.996 435.876 6.89065e-11 6.32174e+06 257.234 6.87029e-11 3.28173e-10 1.32738e+06 3.74415e+12
88.6959 297.547 514.4 6.73386e-11 7.44986e+06 296.656 6.7137e-11 2.79476e-10 1.79501e+06 4.41866e+12
93.7309 344.423 607.071 6.60486e-11 8.79764e+06 343.39 6.58504e-11 2.37972e-10 2.44176e+06 5.2147e+12
99.0518 400.15 716.436 6.50213e-11 1.03827e+07 398.911 6.482e-11 2.02605e-10 3.33208e+06 6.15414e+12
104.675 465.944 845.504 6.41546e-11 1.22515e+07 464.497 6.39554e-11 1.72471e-10 4.55724e+06 7.26283e+12
110.617 543.771 997.824 6.34413e-11 1.44573e+07 542.052 6.32408e-11 1.468e-10 6.24789e+06 8.57124e+12
116.896 635.298 1177.58 6.28051e-11 1.70664e+07 633.272 6.26049e-11 1.24935e-10 8.57934e+06 1.01154e+13
123.532 744.827 1389.73 6.23929e-11 2.0139e+07 742.429 6.21921e-11 1.06313e-10 1.18191e+07 1.19377e+13
130.545 874.158 1640.09 6.20486e-11 2.37643e+07 871.382 6.18515e-11 9.04567e-11 1.63011e+07 1.40883e+13
137.955 1024.2 1935.56 6.1601e-11 2.80503e+07 1020.88 6.14015e-11 7.69563e-11 2.24533e+07 1.66263e+13
145.787 1204.44 2284.26 6.13834e-11 3.30981e+07 1200.52 6.11833e-11 6.54636e-11 3.10352e+07 1.96216e+13
154.063 1419 2695.77 6.12786e-11 3.90634e+07 1414.33 6.10772e-11 5.56812e-11 4.29903e+07 2.31565e+13
162.808 1668.77 3181.42 6.10642e-11 4.61057e+07 1663.27 6.08627e-11 4.73556e-11 5.94524e+07 2.73282e+13
172.051 1965.54 3754.56 6.09442e-11 5.44046e+07 1958.99 6.07411e-11 4.02708e-11 8.23336e+07 3.22515e+13
181.818 2318.83 4430.96 6.0923e-11 6.42064e+07 2311.14 6.0721e-11 3.42426e-11 1.14233e+08 3.80616e+13
192.139 2737.64 5229.21 6.09467e-11 7.57748e+07 2728.5 6.07433e-11 2.91139e-11 1.58626e+08 4.49186e+13
203.046 3233.7 6171.26 6.10008e-11 8.94213e+07 3222.83 6.07958e-11 2.4751e-11 2.20386e+08 5.30108e+13
214.572 3824.59 7283.03 6.1134e-11 1.05538e+08 3811.69 6.09278e-11 2.10401e-11 3.06652e+08 6.25608e+13
226.753 4528 8595.09 6.13291e-11 1.24552e+08 4512.64 6.11209e-11 1.78839e-11 4.27124e+08 7.38313e+13
239.625 5367.48 10143.5 6.16016e-11 1.46987e+08 5349.12 6.13908e-11 1.51999e-11 5.95704e+08 8.71322e+13
253.228 6373.86 11970.9 6.19849e-11 1.7347e+08 6351.94 6.17717e-11 1.29176e-11 8.32391e+08 1.02829e+14
267.603 7584.78 14127.5 6.25011e-11 2.04703e+08 7558.48 6.22844e-11 1.09771e-11 1.16553e+09 1.21354e+14
282.795 9057.04 16672.6 6.32402e-11 2.4161e+08 9025.13 6.30173e-11 9.3274e-12 1.63813e+09 1.43217e+14
298.848 10856.7 19676.2 6.42342e-11 2.85122e+08 10817.7 6.40033e-11 7.925e-12 2.31099e+09 1.69017e+14
315.813 13086.3 23220.9 6.56066e-11 3.36491e+08 13038.2 6.53653e-11 6.73295e-12 3.27881e+09 1.99466e+14
333.741 15897 27404.3 6.75315e-11 3.97115e+08 15836.5 6.72746e-11 5.71979e-12 4.68859e+09 2.35401e+14
352.686 19520.1 32341.2 7.02646e-11 4.68637e+08 19442.5 6.99853e-11 4.85874e-12 6.77719e+09 2.77809e+14
372.707 24327.7 38167.6 7.42023e-11 5.53074e+08 24225.1 7.38894e-11 4.12703e-12 9.94405e+09 3.27857e+14
393.865 30963.6 45043.5 8.00257e-11 6.52716e+08 30823 7.96623e-11 3.50528e-12 1.49015e+10 3.86921e+14
416.224 36551.2 53158.3 8.00463e-11 2.2184e+08 38667.7 8.46814e-11 2.97701e-12 5.96486e+09 4.56626e+14
439.852 0 62734.9 0 0 0 0 2.52819e-12 0 5.38888e+14
464.821 0 74036.7 0 0 0 0 2.1469e-12 0 6.35971e+14
491.207 0 87374.6 0 0 0 0 1.82301e-12 0 7.50542e+14
519.092 0 103115 0 0 0 0 1.54789e-12 0 8.85755e+14
548.56 0 121692 0 0 0 0 1.31422e-12 0 1.04533e+15
579.7 0 143615 0 0 0 0 1.11576e-12 0 1.23364e+15
612.608 0 169488 0 0 0 0 9.47223e-13 0 1.45589e+15
647.384 0 200021 0 0 0 0 8.041e-13 0 1.71817e+15
684.134 0 236056 0 0 0 0 6.82568e-13 0 2.0277e+15
722.971 0 278582 0 0 0 0 5.79376e-13 0 2.393e+15
764.012 0 328769 0 0 0 0 4.91762e-13 0 2.8241e+15
0.260603
200
1.0655e+09
8589934592
0.0129181 0.000215857 1.58924e-09 1.5812e-05 6 0.000213881 1.56673e-05 0.00677225 0.014009 13.6515
0.0136515 0 1.87554e-09 0 0 0 0 0.00688819 0 16.1108
0.0144264 0 2.21343e-09 0 0 0 0 0.00699249 0 19.0132
0.0152454 0 2.61218e-09 0 0 0 0 0.00708412 0 22.4385
0.0161108 0 3.08278e-09 0 0 0 0 0.00716212 0 26.4808
0.0170254 0 3.63815e-09 0 0 0 0 0.00722559 0 31.2514
0.0179919 0.000479933 4.29357e-09 1.30128e-05 12 0.000479314 1.29961e-05 0.00727371 0.0214683 36.8815
0.0190132 0 5.06707e-09 0 0 0 0 0.00730578 0 43.5258
0.0200925 0 5.97991e-09 0 0 0 0 0.00732122 0 51.367
0.0212331 0.000454153 7.05721e-09 7.49169e-06 8 0.000453758 7.48517e-06 0.00731958 0.00818811 60.621
0.0224385 0 8.32858e-09 0 0 0 0 0.00730056 0 71.542
0.0237123 0 9.829e-09 0 0 0 0 0.00726401 0 84.4305
0.0250583 0.0029097 1.15997e-08 2.92018e-05 6 0.00290833 2.91881e-05 0.00720995 0.0243013 99.6408
0.0264808 0 1.36894e-08 0 0 0 0 0.00713857 0 117.591
0.0279841 0.00180642 1.61556e-08 1.30168e-05 24 0.00180457 1.30035e-05 0.00705021 0.0443113 138.776
0.0295727 0 1.90661e-08 0 0 0 0 0.00694538 0 163.777
0.0312514 0.00322744 2.25009e-08 1.66981e-05 24 0.00324382 1.67829e-05 0.00682475 0.0587208 193.281
0.0330255 0 2.65545e-08 0 0 0 0 0.00668915 0 228.102
0.0349003 0.00460025 3.13384e-08 1.70889e-05 12 0.00456341 1.69521e-05 0.00653951 0.0313582 269.195
0.0368815 0.00391534 3.69841e-08 1.23244e-05 30 0.00387365 1.21931e-05 0.00637693 0.0579796 317.691
0.0389751 0.00462006 4.36469e-08 1.23227e-05 24 0.00457253 1.21959e-05 0.00620256 0.0476809 374.924
0.0411876 0.00293238 5.151e-08 6.62735e-06 24 0.00291247 6.58234e-06 0.00601767 0.0264316 442.467
0.0435258 0.00652733 6.07896e-08 1.25002e-05 8 0.00652682 1.24992e-05 0.00582358 0.0171718 522.179
0.0459966 0.00827248 7.1741e-08 1.34239e-05 72 0.00820708 1.33178e-05 0.00562166 0.171928 616.251
0.0486077 0 8.46654e-08 0 0 0 0 0.0054133 0 727.27
0.051367 0.0121539 9.99181e-08 1.41606e-05 54 0.012115 1.41153e-05 0.00519989 0.147056 858.29
0.054283 0.00952522 1.17919e-07 9.40379e-06 60 0.00956566 9.44371e-06 0.0049828 0.113235 1012.91
0.0573645 0.00935 1.39162e-07 7.8217e-06 96 0.00932599 7.80162e-06 0.00476339 0.157636 1195.39
0.060621 0.0108565 1.64232e-07 7.69555e-06 24 0.0107094 7.59129e-06 0.00454293 0.0406551 1410.75
0.0640622 0.0190905 1.93819e-07 1.14665e-05 134 0.0191008 1.14727e-05 0.00432265 0.355455 1664.89
0.0676989 0.0183714 2.28736e-07 9.35012e-06 120 0.0182863 9.30682e-06 0.00410371 0.273415 1964.83
0.071542 0.0168904 2.69944e-07 7.28412e-06 108 0.0167072 7.20509e-06 0.00388717 0.20238 2318.8
0.0756032 0.0246547 3.18575e-07 9.00944e-06 174 0.0245242 8.96176e-06 0.00367401 0.426684 2736.54
0.079895 0.0262271 3.75967e-07 8.12103e-06 168 0.0259802 8.04459e-06 0.0034651 0.393736 3229.53
0.0844305 0.022312 4.43698e-07 5.8541e-06 168 0.0224236 5.8834e-06 0.00326121 0.301572 3811.34
0.0892234 0.0252931 5.23632e-07 5.62323e-06 290 0.0251853 5.59926e-06 0.00306301 0.532396 4497.96
0.0942883 0.0325523 6.17966e-07 6.13236e-06 288 0.032472 6.11723e-06 0.00287109 0.615139 5308.28
0.0996408 0.0293446 7.29294e-07 4.6842e-06 366 0.0291011 4.64533e-06 0.00268591 0.638301 6264.59
0.105297 0.0323523 8.60678e-07 4.37598e-06 420 0.0321281 4.34564e-06 0.00250785 0.732862 7393.17
0.111275 0.0344069 1.01573e-06 3.94345e-06 398 0.0343077 3.93208e-06 0.00233721 0.671524 8725.07
0.117591 0.0409721 1.19872e-06 3.97907e-06 624 0.0410586 3.98747e-06 0.00217419 1.14201 10296.9
0.124267 0.04583 1.41467e-06 3.77142e-06 642 0.0457623 3.76585e-06 0.00201893 1.19928 12151.9
0.131321 0.0577219 1.66953e-06 4.02492e-06 800 0.0577426 4.02636e-06 0.00187147 1.72054 14341.1
0.138776 0.0519426 1.9703e-06 3.06904e-06 858 0.0521892 3.08361e-06 0.00173182 1.5205 16924.7
0.146654 0.056922 2.32525e-06 2.84984e-06 1080 0.0573995 2.87375e-06 0.00159991 1.92375 19973.8
0.154979 0.0675584 2.74415e-06 2.86604e-06 1286 0.0680184 2.88555e-06 0.00147563 2.49772 23572.1
0.163777 0.0637515 3.23852e-06 2.29168e-06 1650 0.0638767 2.29618e-06 0.00135884 2.78273 27818.7
0.173074 0.0748165 3.82195e-06 2.27889e-06 1778 0.0748282 2.27924e-06 0.00124933 3.24323 32830.3
0.182899 0.0732737 4.51048e-06 1.89119e-06 2112 0.0734562 1.8959e-06 0.00114689 3.48263 38744.7
0.193281 0.0854322 5.32305e-06 1.8684e-06 2570 0.0855483 1.87094e-06 0.00105127 4.56761 45724.7
0.204254 0.0967478 6.28202e-06 1.79288e-06 3030 0.0966955 1.79192e-06 0.000962209 5.64579 53962.1
0.215848 0.0965626 7.41374e-06 1.51629e-06 3434 0.0965308 1.51579e-06 0.000879423 5.92085 63683.5
0.228102 0.100933 8.74934e-06 1.34298e-06 4218 0.10096 1.34333e-06 0.000802624 7.05772 75156.3
0.24105 0.113604 1.03256e-05 1.28082e-06 4766 0.113712 1.28204e-06 0.000731515 8.34487 88695.9
0.254734 0.122771 1.21857e-05 1.17288e-06 6026 0.122739 1.17258e-06 0.000665798 10.6155 104675
0.269195 0.129987 1.4381e-05 1.05226e-06 6480 0.129901 1.05156e-06 0.000605173 11.2672 123532
0.284476 0.142103 1.69718e-05 9.74734e-07 8162 0.142426 9.76948e-07 0.000549345 14.4823 145787
0.300625 0.144237 2.00293e-05 8.38338e-07 9578 0.144407 8.39331e-07 0.000498021 16.123 172051
0.317691 0.161055 2.36377e-05 7.93195e-07 11234 0.16091 7.92478e-07 0.000450916 19.7614 203046
0.335725 0.169395 2.78961e-05 7.06915e-07 13344 0.169263 7.06366e-07 0.000407755 23.1342 239625
0.354784 0.178342 3.29216e-05 6.30642e-07 15464 0.178222 6.30218e-07 0.000368269 26.4813 282795
0.374924 0.191487 3.88525e-05 5.7376e-07 18458 0.191478 5.73731e-07 0.000332202 31.8796 333741
0.396207 0.203988 4.58519e-05 5.17913e-07 22232 0.20371 5.17208e-07 0.000299307 38.4697 393865
0.418699 0.220774 5.41123e-05 4.74966e-07 25628 0.22025 4.73839e-07 0.00026935 45.1919 464821
0.442467 0.235845 6.38607e-05 4.29935e-07 30320 0.235359 4.29048e-07 0.000242108 53.8423 548560
0.467585 0.247086 7.53654e-05 3.81669e-07 35452 0.246746 3.81143e-07 0.00021737 62.2482 647384
0.494129 0.263743 8.89427e-05 3.45208e-07 41792 0.263628 3.45057e-07 0.000194938 74.0077 764012
0.522179 0.285005 0.000104966 3.16093e-07 49988 0.284913 3.1599e-07 0.000174625 90.4845 901651
0.551822 0.301691 0.000123876 2.83521e-07 59110 0.301455 2.833e-07 0.000156255 107.254 1.06409e+06
0.583147 0.324532 0.000146192 2.5843e-07 69716 0.324044 2.58041e-07 0.000139664 129 1.25578e+06
0.616251 0.346319 0.000172529 2.33681e-07 82210 0.345707 2.33268e-07 0.0001247 154.057 1.48202e+06
0.651234 0.371176 0.000203611 2.12221e-07 96722 0.370444 2.11803e-07 0.00011122 184.557 1.74901e+06
0.688203 0.396913 0.000240292 1.92294e-07 113098 0.396415 1.92053e-07 9.90935e-05 219.471 2.06409e+06
0.72727 0.424946 0.000283581 1.74448e-07 135190 0.424468 1.74252e-07 8.81969e-05 267.398 2.43595e+06
0.768555 0.455921 0.000334669 1.58593e-07 158170 0.455443 1.58427e-07 7.84179e-05 319.884 2.87479e+06
0.812184 0.487185 0.000394961 1.43598e-07 188560 0.486599 1.43426e-07 6.96525e-05 388.743 3.39269e+06
0.85829 0.523143 0.000466114 1.30659e-07 220444 0.522448 1.30485e-07 6.1805e-05 466.029 4.00389e+06
0.907013 0.557812 0.000550086 1.1805e-07 261388 0.55715 1.1791e-07 5.47875e-05 563.212 4.7252e+06
0.958501 0.604077 0.000649185 1.08326e-07 308244 0.603307 1.08188e-07 4.85194e-05 688.197 5.57646e+06
1.01291 0.649132 0.000766138 9.86361e-08 364396 0.648194 9.84936e-08 4.29272e-05 837.293 6.58107e+06
1.07041 0.696607 0.00090416 8.96918e-08 429162 0.695578 8.95593e-08 3.79435e-05 1014.47 7.76667e+06
1.13118 0.751739 0.00106705 8.20151e-08 506358 0.750641 8.18953e-08 3.3507e-05 1239.41 9.16586e+06
1.19539 0.81172 0.00125928 7.50404e-08 598590 0.810408 7.49191e-08 2.9562e-05 1519.46 1.08171e+07
1.26325 0.876284 0.00148614 6.86429e-08 704844 0.875034 6.85449e-08 2.60578e-05 1856.74 1.27658e+07
1.33496 0.944467 0.00175387 6.26901e-08 834620 0.942957 6.25899e-08 2.29484e-05 2280 1.50656e+07
1.41075 1.02332 0.00206984 5.75553e-08 981444 1.0216 5.74583e-08 2.01923e-05 2797.47 1.77798e+07
1.49083 1.10834 0.00244272 5.28212e-08 1.15998e+06 1.10653 5.27351e-08 1.77518e-05 3451.56 2.09828e+07
1.57546 1.20003 0.00288279 4.84608e-08 1.36931e+06 1.19802 4.83796e-08 1.55929e-05 4255.66 2.4763e+07
1.66489 1.30278 0.00340213 4.45789e-08 1.61652e+06 1.30052 4.45018e-08 1.3685e-05 5265.8 2.92241e+07
1.75941 1.41853 0.00401503 4.11301e-08 1.90601e+06 1.41607 4.10586e-08 1.20007e-05 6532.49 3.44889e+07
1.85928 1.54093 0.00473835 3.78588e-08 2.24913e+06 1.53828 3.77936e-08 1.05151e-05 8097.81 4.07021e+07
1.96483 1.67903 0.00559198 3.49546e-08 2.65744e+06 1.67602 3.48918e-08 9.20606e-06 10090.1 4.80347e+07
2.07637 1.83075 0.00659939 3.22951e-08 3.13125e+06 1.82752 3.2238e-08 8.05366e-06 12556.3 5.66883e+07
2.19424 2 0.00778828 2.98949e-08 3.69915e+06 1.99637 2.98407e-08 7.04008e-06 15708 6.69008e+07
2.3188 2.18276 0.00919136 2.76462e-08 4.36472e+06 2.17881 2.75962e-08 6.1494e-06 19622.8 7.89532e+07
2.45043 2.38949 0.0108472 2.56447e-08 5.14913e+06 2.38509 2.55975e-08 5.36741e-06 24601.8 9.31768e+07
2.58954 2.61711 0.0128014 2.37999e-08 6.07894e+06 2.61216 2.3755e-08 4.68145e-06 30904.6 1.09963e+08
2.73654 2.86936 0.0151076 2.21106e-08 7.17304e+06 2.86397 2.20691e-08 4.08023e-06 38870.4 1.29773e+08
2.89188 3.14581 0.0178292 2.05404e-08 8.46557e+06 3.13988 2.05017e-08 3.55373e-06 48930.7 1.53152e+08
3.05605 3.45746 0.0210412 1.91292e-08 9.98773e+06 3.45091 1.90929e-08 3.09304e-06 61769.9 1.80743e+08
3.22953 3.79811 0.0248319 1.78061e-08 1.1797e+07 3.79079 1.77718e-08 2.69025e-06 78081.5 2.13304e+08
3.41286 4.17321 0.0293054 1.6578e-08 1.39144e+07 4.16498 1.65454e-08 2.33837e-06 98646.9 2.51731e+08
3.6066 4.58575 0.0345848 1.5436e-08 1.64163e+07 4.57692 1.54063e-08 2.0312e-06 124755 2.97081e+08
3.81134 5.04695 0.0408154 1.43951e-08 1.93821e+07 5.037 1.43668e-08 1.76327e-06 158234 3.50601e+08
4.0277 5.5487 0.0481684 1.34103e-08 2.28754e+07 5.53772 1.33838e-08 1.52972e-06 200538 4.13763e+08
4.25634 6.10261 0.056846 1.24976e-08 2.69929e+07 6.09031 1.24724e-08 1.32631e-06 254350 4.88304e+08
4.49796 6.71233 0.067087 1.16478e-08 3.18542e+07 6.69881 1.16244e-08 1.14926e-06 322846 5.76273e+08
4.7533 7.37126 0.0791729 1.08387e-08 3.75892e+07 7.35647 1.08169e-08 9.95263e-07 409355 6.8009e+08
5.02313 8.08643 0.0934361 1.00752e-08 4.43706e+07 8.07025 1.0055e-08 8.61414e-07 518962 8.0261e+08
5.30828 8.86895 0.110269 9.36331e-09 5.23593e+07 8.85108 9.34445e-09 7.45152e-07 657928 9.47202e+08
5.60962 9.71384 0.130134 8.6898e-09 6.1787e+07 9.69454 8.67253e-09 6.44232e-07 833422 1.11784e+09
5.92807 10.6299 0.153578 8.05766e-09 7.29346e+07 10.6087 8.04162e-09 5.56685e-07 1.05568e+06 1.31923e+09
6.26459 11.6107 0.181246 7.45761e-09 8.60651e+07 11.5874 7.44268e-09 4.80786e-07 1.33498e+06 1.55689e+09
6.62021 12.6652 0.213898 6.89315e-09 1.01558e+08 12.6401 6.87945e-09 4.15026e-07 1.68677e+06 1.83737e+09
6.99602 13.7974 0.252432 6.36302e-09 1.1986e+08 13.7703 6.35052e-09 3.58083e-07 2.12987e+06 2.16837e+09
7.39317 15.0052 0.297908 5.86369e-09 1.41457e+08 14.9757 5.85214e-09 3.08803e-07 2.68604e+06 2.55901e+09
7.81286 16.2925 0.351577 5.39483e-09 1.66936e+08 16.2607 5.3843e-09 2.66181e-07 3.38337e+06 3.02002e+09
8.25637 17.665 0.414914 4.95639e-09 1.97025e+08 17.6306 4.94674e-09 2.29336e-07 4.25809e+06 3.56409e+09
8.72507 19.1382 0.489662 4.55003e-09 2.32497e+08 19.1009 4.54116e-09 1.97503e-07 5.35621e+06 4.20617e+09
9.22037 20.7331 0.577876 4.17676e-09 2.74404e+08 20.6925 4.16858e-09 1.70014e-07 6.74133e+06 4.96392e+09
9.74378 22.4876 0.681982 3.83867e-09 3.2382e+08 22.443 3.83105e-09 1.46289e-07 8.49714e+06 5.85818e+09
10.2969 24.4722 0.804843 3.53974e-09 3.82165e+08 24.4217 3.53244e-09 1.25822e-07 1.07514e+07 6.91355e+09
10.8814 26.818 0.949838 3.28691e-09 4.51027e+08 26.7597 3.27976e-09 1.08175e-07 1.37044e+07 8.15905e+09
11.4992 29.7686 1.12095 3.09158e-09 5.32251e+08 29.6971 3.08415e-09 9.29669e-08 1.76998e+07 9.62892e+09
12.1519 33.7993 1.3229 2.97434e-09 6.28157e+08 33.7058 2.96612e-09 7.98658e-08 2.33937e+07 1.13636e+10
12.8418 38.163 1.56122 2.8457e-09 3.82727e+08 39.4973 2.94519e-09 6.85852e-08 1.58799e+07 1.34108e+10
13.5708 0 1.84248 0 0 0 0 5.88765e-08 0 1.58268e+10
14.3411 0 2.17441 0 0 0 0 5.05241e-08 0 1.8678e+10
15.1552 0 2.56613 0 0 0 0 4.33417e-08 0 2.20429e+10
16.0156 0 3.02843 0 0 0 0 3.71677e-08 0 2.6014e+10
16.9247 0 3.574 0 0 0 0 3.18628e-08 0 3.07005e+10
17.8855 0 4.21787 0 0 0 0 2.73063e-08 0 3.62312e+10
18.9008 0 4.97773 0 0 0 0 2.33941e-08 0 4.27584e+10
19.9738 0 5.87448 0 0 0 0 2.00364e-08 0 5.04614e+10
21.1076 0 6.93279 0 0 0 0 1.71555e-08 0 5.95522e+10
22.3058 0 8.18175 0 0 0 0 1.46847e-08 0 7.02807e+10
23.5721 0 9.65571 0 0 0 0 1.25662e-08 0 8.29419e+10
24.9102 0 11.3952 0 0 0 0 1.07504e-08 0 9.78842e+10
26.3243 0 13.4481 0 0 0 0 9.19452e-09 0 1.15518e+11
27.8187 0 15.8708 0 0 0 0 7.86182e-09 0 1.36329e+11
29.3979 0 18.73 0 0 0 0 6.72061e-09 0 1.60889e+11
31.0667 0 22.1042 0 0 0 0 5.74366e-09 0 1.89874e+11
32.8303 0 26.0864 0 0 0 0 4.90756e-09 0 2.2408e+11
34.694 0 30.7859 0 0 0 0 4.19221e-09 0 2.64449e+11
36.6634 0 36.3321 0 0 0 0 3.58032e-09 0 3.1209e+11
38.7447 0 42.8774 0 0 0 0 3.05709e-09 0 3.68314e+11
40.9442 0 50.6018 0 0 0 0 2.60976e-09 0 4.34667e+11
43.2685 0 59.7179 0 0 0 0 2.22743e-09 0 5.12973e+11
45.7247 0 70.4762 0 0 0 0 1.90073e-09 0 6.05386e+11
48.3204 0 83.1727 0 0 0 0 1.62163e-09 0 7.14448e+11
51.0634 0 98.1565 0 0 0 0 1.38326e-09 0 8.43158e+11
53.9621 0 115.84 0 0 0 0 1.1797e-09 0 9.95055e+11
57.0254 0 136.709 0 0 0 0 1.00592e-09 0 1.17432e+12
60.2626 0 161.337 0 0 0 0 8.57591e-10 0 1.38587e+12
63.6835 0 190.402 0 0 0 0 7.3101e-10 0 1.63554e+12
67.2987 0 224.704 0 0 0 0 6.23009e-10 0 1.93019e+12
71.1191 0 265.185 0 0 0 0 5.30879e-10 0 2.27792e+12
75.1563 0 312.958 0 0 0 0 4.52303e-10 0 2.68829e+12
79.4227 0 369.339 0 0 0 0 3.85299e-10 0 3.17259e+12
83.9313 0 435.876 0 0 0 0 3.28173e-10 0 3.74415e+12
88.6959 0 514.4 0 0 0 0 2.79476e-10 0 4.41866e+12
93.7309 0 607.071 0 0 0 0 2.37972e-10 0 5.2147e+12
99.0518 0 716.436 0 0 0 0 2.02605e-10 0 6.15414e+12
104.675 0 845.504 0 0 0 0 1.72471e-10 0 7.26283e+12
110.617 0 997.824 0 0 0 0 1.468e-10 0 8.57124e+12
116.896 0 1177.58 0 0 0 0 1.24935e-10 0 1.01154e+13
123.532 0 1389.73 0 0 0 0 1.06313e-10 0 1.19377e+13
130.545 0 1640.09 0 0 0 0 9.04567e-11 0 1.40883e+13
137.955 0 1935.56 0 0 0 0 7.69563e-11 0 1.66263e+13
145.787 0 2284.26 0 0 0 0 6.54636e-11 0 1.96216e+13
154.063 0 2695.77 0 0 0 0 5.56812e-11 0 2.31565e+13
162.808 0 3181.42 0 0 0 0 4.73556e-11 0 2.73282e+13
172.051 0 3754.56 0 0 0 0 4.02708e-11 0 3.22515e+13
181.818 0 4430.96 0 0 0 0 3.42426e-11 0 3.80616e+13
192.139 0 5229.21 0 0 0 0 2.91139e-11 0 4.49186e+13
203.046 0 6171.26 0 0 0 0 2.4751e-11 0 5.30108e+13
214.572 0 7283.03 0 0 0 0 2.10401e-11 0 6.25608e+13
226.753 0 8595.09 0 0 0 0 1.78839e-11 0 7.38313e+13
239.625 0 10143.5 0 0 0 0 1.51999e-11 0 8.71322e+13
253.228 0 11970.9 0 0 0 0 1.29176e-11 0 1.02829e+14
267.603 0 14127.5 0 0 0 0 1.09771e-11 0 1.21354e+14
282.795 0 16672.6 0 0 0 0 9.3274e-12 0 1.43217e+14
298.848 0 19676.2 0 0 0 0 7.925e-12 0 1.69017e+14
315.813 0 23220.9 0 0 0 0 6.73295e-12 0 1.99466e+14
333.741 0 27404.3 0 0 0 0 5.71979e-12 0 2.35401e+14
352.686 0 32341.2 0 0 0 0 4.85874e-12 0 2.77809e+14
372.707 0 38167.6 0 0 0 0 4.12703e-12 0 3.27857e+14
393.865 0 45043.5 0 0 0 0 3.50528e-12 0 3.86921e+14
416.224 0 53158.3 0 0 0 0 2.97701e-12 0 4.56626e+14
439.852 0 62734.9 0 0 0 0 2.52819e-12 0 5.38888e+14
464.821 0 74036.7 0 0 0 0 2.1469e-12 0 6.35971e+14
491.207 0 87374.6 0 0 0 0 1.82301e-12 0 7.50542e+14
519.092 0 103115 0 0 0 0 1.54789e-12 0 8.85755e+14
548.56 0 121692 0 0 0 0 1.31422e-12 0 1.04533e+15
579.7 0 143615 0 0 0 0 1.11576e-12 0 1.23364e+15
612.608 0 169488 0 0 0 0 9.47223e-13 0 1.45589e+15
647.384 0 200021 0 0 0 0 8.041e-13 0 1.71817e+15
684.134 0 236056 0 0 0 0 6.82568e-13 0 2.0277e+15
722.971 0 278582 0 0 0 0 5.79376e-13 0 2.393e+15
764.012 0 328769 0 0 0 0 4.91762e-13 0 2.8241e+15
