0.806627
200
1.0655e+09
8589934592
0.0129181 0 1.58924e-09 0 0 0 0 0.00677225 0 13.6515
0.0136515 0 1.87554e-09 0 0 0 0 0.00688819 0 16.1108
0.0144264 0 2.21343e-09 0 0 0 0 0.00699249 0 19.0132
0.0152454 0 2.61218e-09 0 0 0 0 0.00708412 0 22.4385
0.0161108 0 3.08278e-09 0 0 0 0 0.00716212 0 26.4808
0.0170254 0 3.63815e-09 0 0 0 0 0.00722559 0 31.2514
0.0179919 0 4.29357e-09 0 0 0 0 0.00727371 0 36.8815
0.0190132 0 5.06707e-09 0 0 0 0 0.00730578 0 43.5258
0.0200925 0 5.97991e-09 0 0 0 0 0.00732122 0 51.367
0.0212331 0 7.05721e-09 0 0 0 0 0.00731958 0 60.621
0.0224385 0 8.32858e-09 0 0 0 0 0.00730056 0 71.542
0.0237123 0 9.829e-09 0 0 0 0 0.00726401 0 84.4305
0.0250583 0 1.15997e-08 0 0 0 0 0.00720995 0 99.6408
0.0264808 0 1.36894e-08 0 0 0 0 0.00713857 0 117.591
0.0279841 0 1.61556e-08 0 0 0 0 0.00705021 0 138.776
0.0295727 0 1.90661e-08 0 0 0 0 0.00694538 0 163.777
0.0312514 0 2.25009e-08 0 0 0 0 0.00682475 0 193.281
0.0330255 0 2.65545e-08 0 0 0 0 0.00668915 0 228.102
0.0349003 0 3.13384e-08 0 0 0 0 0.00653951 0 269.195
0.0368815 0 3.69841e-08 0 0 0 0 0.00637693 0 317.691
0.0389751 0 4.36469e-08 0 0 0 0 0.00620256 0 374.924
0.0411876 0 5.151e-08 0 0 0 0 0.00601767 0 442.467
0.0435258 0 6.07896e-08 0 0 0 0 0.00582358 0 522.179
0.0459966 0 7.1741e-08 0 0 0 0 0.00562166 0 616.251
0.0486077 0 8.46654e-08 0 0 0 0 0.0054133 0 727.27
0.051367 0 9.99181e-08 0 0 0 0 0.00519989 0 858.29
0.054283 0 1.17919e-07 0 0 0 0 0.0049828 0 1012.91
0.0573645 0 1.39162e-07 0 0 0 0 0.00476339 0 1195.39
0.060621 0 1.64232e-07 0 0 0 0 0.00454293 0 1410.75
0.0640622 0 1.93819e-07 0 0 0 0 0.00432265 0 1664.89
0.0676989 0 2.28736e-07 0 0 0 0 0.00410371 0 1964.83
0.071542 0 2.69944e-07 0 0 0 0 0.00388717 0 2318.8
0.0756032 0 3.18575e-07 0 0 0 0 0.00367401 0 2736.54
0.079895 0 3.75967e-07 0 0 0 0 0.0034651 0 3229.53
0.0844305 0 4.43698e-07 0 0 0 0 0.00326121 0 3811.34
0.0892234 0 5.23632e-07 0 0 0 0 0.00306301 0 4497.96
0.0942883 0 6.17966e-07 0 0 0 0 0.00287109 0 5308.28
0.0996408 0 7.29294e-07 0 0 0 0 0.00268591 0 6264.59
0.105297 0 8.60678e-07 0 0 0 0 0.00250785 0 7393.17
0.111275 0 1.01573e-06 0 0 0 0 0.00233721 0 8725.07
0.117591 0 1.19872e-06 0 0 0 0 0.00217419 0 10296.9
0.124267 0 1.41467e-06 0 0 0 0 0.00201893 0 12151.9
0.131321 0 1.66953e-06 0 0 0 0 0.00187147 0 14341.1
0.138776 0 1.9703e-06 0 0 0 0 0.00173182 0 16924.7
0.146654 0 2.32525e-06 0 0 0 0 0.00159991 0 19973.8
0.154979 0 2.74415e-06 0 0 0 0 0.00147563 0 23572.1
0.163777 0 3.23852e-06 0 0 0 0 0.00135884 0 27818.7
0.173074 0 3.82195e-06 0 0 0 0 0.00124933 0 32830.3
0.182899 0 4.51048e-06 0 0 0 0 0.00114689 0 38744.7
0.193281 0 5.32305e-06 0 0 0 0 0.00105127 0 45724.7
0.204254 0 6.28202e-06 0 0 0 0 0.000962209 0 53962.1
0.215848 0 7.41374e-06 0 0 0 0 0.000879423 0 63683.5
0.228102 0 8.74934e-06 0 0 0 0 0.000802624 0 75156.3
0.24105 0 1.03256e-05 0 0 0 0 0.000731515 0 88695.9
0.254734 0 1.21857e-05 0 0 0 0 0.000665798 0 104675
0.269195 0 1.4381e-05 0 0 0 0 0.000605173 0 123532
0.284476 0 1.69718e-05 0 0 0 0 0.000549345 0 145787
0.300625 0 2.00293e-05 0 0 0 0 0.000498021 0 172051
0.317691 0 2.36377e-05 0 0 0 0 0.000450916 0 203046
0.335725 0 2.78961e-05 0 0 0 0 0.000407755 0 239625
0.354784 0 3.29216e-05 0 0 0 0 0.000368269 0 282795
0.374924 0 3.88525e-05 0 0 0 0 0.000332202 0 333741
0.396207 1.91753 4.58519e-05 4.86849e-06 6 1.86422 4.73314e-06 0.000299307 0.0975954 393865
0.418699 0 5.41123e-05 0 0 0 0 0.00026935 0 464821
0.442467 0 6.38607e-05 0 0 0 0 0.000242108 0 548560
0.467585 0 7.53654e-05 0 0 0 0 0.00021737 0 647384
0.494129 0 8.89427e-05 0 0 0 0 0.000194938 0 764012
0.522179 0 0.000104966 0 0 0 0 0.000174625 0 901651
0.551822 0 0.000123876 0 0 0 0 0.000156255 0 1.06409e+06
0.583147 7.8637 0.000146192 6.26198e-06 12 8.27658 6.59077e-06 0.000139664 0.538033 1.25578e+06
0.616251 0 0.000172529 0 0 0 0 0.0001247 0 1.48202e+06
0.651234 0 0.000203611 0 0 0 0 0.00011122 0 1.74901e+06
0.688203 14.2779 0.000240292 6.91727e-06 8 13.9227 6.74518e-06 9.90935e-05 0.558444 2.06409e+06
0.72727 0 0.000283581 0 0 0 0 8.81969e-05 0 2.43595e+06
0.768555 0 0.000334669 0 0 0 0 7.84179e-05 0 2.87479e+06
0.812184 11.7888 0.000394961 3.47475e-06 6 12.0408 3.54904e-06 6.96525e-05 0.299322 3.39269e+06
0.85829 0 0.000466114 0 0 0 0 6.1805e-05 0 4.00389e+06
0.907013 1.38207 0.000550086 2.92489e-07 24 1.40859 2.98101e-07 5.47875e-05 0.128127 4.7252e+06
0.958501 4.64517 0.000649185 8.32997e-07 24 4.37309 7.84205e-07 4.85194e-05 0.41204 5.57646e+06
1.01291 0 0.000766138 0 0 0 0 4.29272e-05 0 6.58107e+06
1.07041 0 0.00090416 0 0 0 0 3.79435e-05 0 7.76667e+06
1.13118 6.28308 0.00106705 6.85487e-07 12 6.2059 6.77067e-07 3.3507e-05 0.245496 9.16586e+06
1.19539 3.15238 0.00125928 2.91425e-07 30 3.08739 2.85417e-07 2.9562e-05 0.295743 1.08171e+07
1.26325 9.65186 0.00148614 7.56069e-07 24 9.50662 7.44692e-07 2.60578e-05 0.696361 1.27658e+07
1.33496 19.0931 0.00175387 1.26732e-06 24 19.135 1.27011e-06 2.29484e-05 1.3254 1.50656e+07
1.41075 17.3172 0.00206984 9.73986e-07 32 17.5872 9.89168e-07 2.01923e-05 1.54354 1.77798e+07
1.49083 4.80602 0.00244272 2.29045e-07 48 4.70356 2.24162e-07 1.77518e-05 0.619329 2.09828e+07
1.57546 46.2903 0.00288279 1.86934e-06 6 44.0788 1.78003e-06 1.55929e-05 0.719305 2.4763e+07
1.66489 5.58799 0.00340213 1.91212e-07 84 5.43374 1.85934e-07 1.3685e-05 1.17368 2.92241e+07
1.75941 8.61951 0.00401503 2.49922e-07 48 8.582 2.48834e-07 1.20007e-05 0.99963 3.44889e+07
1.85928 5.19912 0.00473835 1.27736e-07 72 5.21321 1.28082e-07 1.05151e-05 0.874645 4.07021e+07
1.96483 14.988 0.00559198 3.12023e-07 54 14.6856 3.05728e-07 9.20606e-06 1.83024 4.80347e+07
2.07637 14.6147 0.00659939 2.57807e-07 104 14.7357 2.59942e-07 8.05366e-06 3.32917 5.66883e+07
2.19424 8.5303 0.00778828 1.27507e-07 120 8.6485 1.29273e-07 7.04008e-06 2.17339 6.69008e+07
2.3188 10.5677 0.00919136 1.33847e-07 156 10.4082 1.31828e-07 6.1494e-06 3.39548 7.89532e+07
2.45043 9.8223 0.0108472 1.05416e-07 126 9.71625 1.04277e-07 5.36741e-06 2.47463 9.31768e+07
2.58954 11.7405 0.0128014 1.06768e-07 192 11.7872 1.07192e-07 4.68145e-06 4.37885 1.09963e+08
2.73654 33.0667 0.0151076 2.54804e-07 152 33.7166 2.59812e-07 4.08023e-06 9.49216 1.29773e+08
2.89188 15.0711 0.0178292 9.84061e-08 378 15.1152 9.86939e-08 3.55373e-06 10.4672 1.53152e+08
3.05605 17.0822 0.0210412 9.45112e-08 264 16.9022 9.35151e-08 3.09304e-06 8.06681 1.80743e+08
3.22953 17.0398 0.0248319 7.98849e-08 366 16.9441 7.94366e-08 2.69025e-06 10.8681 2.13304e+08
3.41286 18.3808 0.0293054 7.30177e-08 428 18.179 7.22159e-08 2.33837e-06 13.3647 2.51731e+08
3.6066 20.1804 0.0345848 6.79288e-08 486 19.9805 6.7256e-08 2.0312e-06 16.2531 2.97081e+08
3.81134 17.7546 0.0408154 5.06405e-08 600 17.7118 5.05184e-08 1.76327e-06 17.2318 3.50601e+08
4.0277 22.9965 0.0481684 5.55788e-08 738 22.8689 5.52705e-08 1.52972e-06 26.8135 4.13763e+08
4.25634 22.9587 0.056846 4.70173e-08 824 22.9483 4.6996e-08 1.32631e-06 29.2106 4.88304e+08
4.49796 26.3164 0.067087 4.56666e-08 954 26.1719 4.54158e-08 1.14926e-06 37.9079 5.76273e+08
4.7533 24.4686 0.0791729 3.59785e-08 1094 24.3566 3.58138e-08 9.95263e-07 39.5479 6.8009e+08
5.02313 27.0169 0.0934361 3.36614e-08 1332 27.0909 3.37535e-08 8.61414e-07 52.0504 8.0261e+08
5.30828 34.6643 0.110269 3.65965e-08 1614 34.6407 3.65715e-08 7.45152e-07 79.268 9.47202e+08
5.60962 35.9047 0.130134 3.21196e-08 1850 35.8847 3.21018e-08 6.44232e-07 92.2358 1.11784e+09
5.92807 35.1155 0.153578 2.66183e-08 2238 35.1903 2.66749e-08 5.56685e-07 107.012 1.31923e+09
6.26459 36.8288 0.181246 2.36554e-08 2546 36.8703 2.3682e-08 4.80786e-07 125.267 1.55689e+09
6.62021 38.1187 0.213898 2.07464e-08 3264 38.1106 2.0742e-08 4.15026e-07 163.162 1.83737e+09
6.99602 41.1051 0.252432 1.89567e-08 3506 41.1636 1.89837e-08 3.58083e-07 185.605 2.16837e+09
7.39317 43.9662 0.297908 1.71809e-08 4506 43.9886 1.71897e-08 3.08803e-07 250.701 2.55901e+09
7.81286 49.3236 0.351577 1.63322e-08 5018 49.1682 1.62807e-08 2.66181e-07 307.892 3.02002e+09
8.25637 52.4594 0.414914 1.47189e-08 5852 52.433 1.47115e-08 2.29336e-07 375.584 3.56409e+09
8.72507 53.7624 0.489662 1.27818e-08 7362 53.7083 1.2769e-08 1.97503e-07 476.447 4.20617e+09
9.22037 56.9714 0.577876 1.14771e-08 8306 56.8387 1.14504e-08 1.70014e-07 560.71 4.96392e+09
9.74378 62.5786 0.681982 1.06823e-08 9698 62.51 1.06705e-08 1.46289e-07 708.163 5.85818e+09
10.2969 64.6282 0.804843 9.34804e-09 11816 64.52 9.33239e-09 1.25822e-07 877.876 6.91355e+09
10.8814 75.2893 0.949838 9.22771e-09 13682 75.0943 9.2038e-09 1.08175e-07 1167.12 8.15905e+09
11.4992 74.029 1.12095 7.68819e-09 16152 73.9711 7.68217e-09 9.29669e-08 1335.74 9.62892e+09
12.1519 79.2589 1.3229 6.97481e-09 19472 79.1208 6.96266e-09 7.98658e-08 1700.52 1.13636e+10
12.8418 83.2842 1.56122 6.21024e-09 22670 83.0852 6.1954e-09 6.85852e-08 2052.72 1.34108e+10
13.5708 87.9353 1.84248 5.55611e-09 26224 87.7958 5.5473e-09 5.88765e-08 2474.73 1.58268e+10
14.3411 93.0403 2.17441 4.98128e-09 31640 92.9143 4.97453e-09 5.05241e-08 3119.45 1.8678e+10
15.1552 99.264 2.56613 4.50322e-09 37484 99.0814 4.49494e-09 4.33417e-08 3894.6 2.20429e+10
16.0156 107.7 3.02843 4.14006e-09 43856 107.53 4.13354e-09 3.71677e-08 4885.06 2.6014e+10
16.9247 114.044 3.574 3.71472e-09 51362 113.949 3.71162e-09 3.18628e-08 5988.04 3.07005e+10
17.8855 118.645 4.21787 3.27465e-09 61636 118.497 3.27059e-09 2.73063e-08 7391.56 3.62312e+10
18.9008 125.804 4.97773 2.9422e-09 72218 125.54 2.93604e-09 2.33941e-08 9082.62 4.27584e+10
19.9738 134.245 5.87448 2.66035e-09 84586 134.036 2.65621e-09 2.00364e-08 11231 5.04614e+10
21.1076 142.981 6.93279 2.40094e-09 100708 142.711 2.3964e-09 1.71555e-08 14094.2 5.95522e+10
22.3058 149.134 8.18175 2.12198e-09 118712 148.88 2.11837e-09 1.46847e-08 17154.2 7.02807e+10
23.5721 158.138 9.65571 1.90661e-09 140410 157.827 1.90286e-09 1.25662e-08 21303.8 8.29419e+10
24.9102 165.686 11.3952 1.69268e-09 164374 165.395 1.6897e-09 1.07504e-08 25881.2 9.78842e+10
26.3243 173.805 13.4481 1.50457e-09 194680 173.549 1.50235e-09 9.19452e-09 31856.9 1.15518e+11
27.8187 183.838 15.8708 1.34849e-09 230196 183.501 1.34601e-09 7.86182e-09 39484 1.36329e+11
29.3979 194.104 18.73 1.20645e-09 271156 193.742 1.2042e-09 6.72061e-09 48676.4 1.60889e+11
31.0667 205.522 22.1042 1.08242e-09 321076 205.105 1.08022e-09 5.74366e-09 60508 1.89874e+11
32.8303 216.618 26.0864 9.66701e-10 377436 216.179 9.6474e-10 4.90756e-09 74348.1 2.2408e+11
34.694 227.317 30.7859 8.59588e-10 447594 226.867 8.57888e-10 4.19221e-09 91776.5 2.64449e+11
36.6634 238.648 36.3321 7.64676e-10 525078 238.204 7.63255e-10 3.58032e-09 112145 3.1209e+11
38.7447 251.216 42.8774 6.82069e-10 621924 250.766 6.80848e-10 3.05709e-09 138758 3.68314e+11
40.9442 264.687 50.6018 6.08942e-10 732630 264.216 6.07858e-10 2.60976e-09 170946 4.34667e+11
43.2685 277.982 59.7179 5.41903e-10 865596 277.546 5.41053e-10 2.22743e-09 210588 5.12973e+11
45.7247 291.558 70.4762 4.81606e-10 1.02168e+06 291.095 4.80842e-10 1.90073e-09 258872 6.05386e+11
48.3204 305.834 83.1727 4.2807e-10 1.20544e+06 305.291 4.27311e-10 1.62163e-09 318205 7.14448e+11
51.0634 320.547 98.1565 3.80174e-10 1.42103e+06 320.003 3.7953e-10 1.38326e-09 390556 8.43158e+11
53.9621 336.384 115.84 3.38056e-10 1.67997e+06 335.805 3.37474e-10 1.1797e-09 481412 9.95055e+11
57.0254 353.209 136.709 3.00778e-10 1.98018e+06 352.585 3.00247e-10 1.00592e-09 592089 1.17432e+12
60.2626 371.909 161.337 2.68357e-10 2.33957e+06 371.251 2.67882e-10 8.57591e-10 732098 1.38587e+12
63.6835 391.458 190.402 2.39344e-10 2.75676e+06 390.758 2.38917e-10 7.3101e-10 902609 1.63554e+12
67.2987 413.425 224.704 2.14189e-10 3.25638e+06 412.686 2.13806e-10 6.23009e-10 1.11953e+06 1.93019e+12
71.1191 435.777 265.185 1.91305e-10 3.84387e+06 434.982 1.90956e-10 5.30879e-10 1.38516e+06 2.27792e+12
75.1563 461.832 312.958 1.71794e-10 4.53277e+06 460.964 1.71471e-10 4.52303e-10 1.72163e+06 2.68829e+12
79.4227 488.356 369.339 1.53929e-10 5.35083e+06 487.447 1.53643e-10 3.85299e-10 2.13769e+06 3.17259e+12
83.9313 520.611 435.876 1.39047e-10 6.32174e+06 519.603 1.38777e-10 3.28173e-10 2.67852e+06 3.74415e+12
88.6959 555.445 514.4 1.25704e-10 7.44986e+06 554.331 1.25452e-10 2.79476e-10 3.35084e+06 4.41866e+12
93.7309 594.739 607.071 1.1405e-10 8.79764e+06 593.559 1.13824e-10 2.37972e-10 4.21635e+06 5.2147e+12
99.0518 639.78 716.436 1.03959e-10 1.03827e+07 638.424 1.03739e-10 2.02605e-10 5.3275e+06 6.15414e+12
104.675 692.243 845.504 9.53131e-11 1.22515e+07 690.736 9.51057e-11 1.72471e-10 6.7706e+06 7.26283e+12
110.617 754.369 997.824 8.80116e-11 1.44573e+07 752.678 8.78144e-11 1.468e-10 8.66765e+06 8.57124e+12
116.896 826.729 1177.58 8.173e-11 1.70664e+07 824.785 8.15378e-11 1.24935e-10 1.11645e+07 1.01154e+13
123.532 911.498 1389.73 7.63547e-11 2.0139e+07 909.288 7.61695e-11 1.06313e-10 1.44639e+07 1.19377e+13
130.545 1012.78 1640.09 7.18879e-11 2.37643e+07 1010.19 7.1704e-11 9.04567e-11 1.8886e+07 1.40883e+13
137.955 1131.86 1935.56 6.80766e-11 2.80503e+07 1128.9 6.78982e-11 7.69563e-11 2.48137e+07 1.66263e+13
145.787 1273.69 2284.26 6.49127e-11 3.30981e+07 1270.21 6.4735e-11 6.54636e-11 3.28196e+07 1.96216e+13
154.063 1441.68 2695.77 6.22579e-11 3.90634e+07 1437.63 6.20833e-11 5.56812e-11 4.36774e+07 2.31565e+13
162.808 1642.04 3181.42 6.00861e-11 4.61057e+07 1637.3 5.99126e-11 4.73556e-11 5.85001e+07 2.73282e+13
172.051 1881.43 3754.56 5.83363e-11 5.44046e+07 1875.85 5.81633e-11 4.02708e-11 7.88105e+07 3.22515e+13
181.818 2166.15 4430.96 5.69115e-11 6.42064e+07 2159.57 5.67387e-11 3.42426e-11 1.06712e+08 3.80616e+13
192.139 2505.62 5229.21 5.57815e-11 7.57748e+07 2497.89 5.56094e-11 2.91139e-11 1.45183e+08 4.49186e+13
203.046 2910.66 6171.26 5.49069e-11 8.94213e+07 2901.53 5.47347e-11 2.4751e-11 1.98369e+08 5.30108e+13
214.572 3395.44 7283.03 5.42743e-11 1.05538e+08 3384.59 5.41008e-11 2.10401e-11 2.72243e+08 6.25608e+13
226.753 3976.03 8595.09 5.3853e-11 1.24552e+08 3963.03 5.36768e-11 1.78839e-11 3.75057e+08 7.38313e+13
239.625 4672.43 10143.5 5.36246e-11 1.46987e+08 4656.97 5.34472e-11 1.51999e-11 5.18565e+08 8.71322e+13
253.228 5509.2 11970.9 5.35762e-11 1.7347e+08 5490.68 5.3396e-11 1.29176e-11 7.19472e+08 1.02829e+14
267.603 6522.47 14127.5 5.37473e-11 2.04703e+08 6500.22 5.3564e-11 1.09771e-11 1.00229e+09 1.21354e+14
282.795 7756.01 16672.6 5.41558e-11 2.4161e+08 7729.04 5.39675e-11 9.3274e-12 1.40281e+09 1.43217e+14
298.848 9270.09 19676.2 5.48469e-11 2.85122e+08 9237.22 5.46525e-11 7.925e-12 1.97326e+09 1.69017e+14
315.813 11148.9 23220.9 5.58936e-11 3.36491e+08 11108.1 5.56893e-11 6.73295e-12 2.79338e+09 1.99466e+14
333.741 13523.5 27404.3 5.74488e-11 3.97115e+08 13472.2 5.72309e-11 5.71979e-12 3.98857e+09 2.35401e+14
352.686 16596 32341.2 5.97389e-11 4.68637e+08 16530.2 5.95019e-11 4.85874e-12 5.76196e+09 2.77809e+14
372.707 20678.6 38167.6 6.30719e-11 5.53074e+08 20591.5 6.28064e-11 4.12703e-12 8.45243e+09 3.27857e+14
393.865 26332.4 45043.5 6.80562e-11 6.52716e+08 26212.6 6.77465e-11 3.50528e-12 1.26727e+10 3.86921e+14
416.224 31084 53158.3 6.80732e-11 2.2184e+08 32884 7.20152e-11 2.97701e-12 5.07266e+09 4.56626e+14
439.852 0 62734.9 0 0 0 0 2.52819e-12 0 5.38888e+14
464.821 0 74036.7 0 0 0 0 2.1469e-12 0 6.35971e+14
491.207 0 87374.6 0 0 0 0 1.82301e-12 0 7.50542e+14
519.092 0 103115 0 0 0 0 1.54789e-12 0 8.85755e+14
548.56 0 121692 0 0 0 0 1.31422e-12 0 1.04533e+15
579.7 0 143615 0 0 0 0 1.11576e-12 0 1.23364e+15
612.608 0 169488 0 0 0 0 9.47223e-13 0 1.45589e+15
647.384 0 200021 0 0 0 0 8.041e-13 0 1.71817e+15
684.134 0 236056 0 0 0 0 6.82568e-13 0 2.0277e+15
722.971 0 278582 0 0 0 0 5.79376e-13 0 2.393e+15
764.012 0 328769 0 0 0 0 4.91762e-13 0 2.8241e+15
0.806627
200
1.0655e+09
8589934592
0.0129181 0.00148141 1.58924e-09 0.000108516 6 0.00146785 0.000107523 0.00677225 0.0961421 13.6515
0.0136515 0 1.87554e-09 0 0 0 0 0.00688819 0 16.1108
0.0144264 0 2.21343e-09 0 0 0 0 0.00699249 0 19.0132
0.0152454 0 2.61218e-09 0 0 0 0 0.00708412 0 22.4385
0.0161108 0 3.08278e-09 0 0 0 0 0.00716212 0 26.4808
0.0170254 0 3.63815e-09 0 0 0 0 0.00722559 0 31.2514
0.0179919 0.00330279 4.29357e-09 8.95514e-05 12 0.00329853 8.94361e-05 0.00727371 0.14774 36.8815
0.0190132 0 5.06707e-09 0 0 0 0 0.00730578 0 43.5258
0.0200925 0 5.97991e-09 0 0 0 0 0.00732122 0 51.367
0.0212331 0.00312949 7.05721e-09 5.16238e-05 8 0.00312676 5.15789e-05 0.00731958 0.0564228 60.621
0.0224385 0 8.32858e-09 0 0 0 0 0.00730056 0 71.542
0.0237123 0 9.829e-09 0 0 0 0 0.00726401 0 84.4305
0.0250583 0.0197747 1.15997e-08 0.00019846 6 0.0197654 0.000198367 0.00720995 0.165155 99.6408
0.0264808 0 1.36894e-08 0 0 0 0 0.00713857 0 117.591
0.0279841 0.0121843 1.61556e-08 8.77987e-05 24 0.0121718 8.77086e-05 0.00705021 0.298881 138.776
0.0295727 0 1.90661e-08 0 0 0 0 0.00694538 0 163.777
0.0312514 0.0216522 2.25009e-08 0.000112024 24 0.0217621 0.000112593 0.00682475 0.393945 193.281
0.0330255 0 2.65545e-08 0 0 0 0 0.00668915 0 228.102
0.0349003 0.032669 3.13384e-08 0.000121358 12 0.0324074 0.000120387 0.00653951 0.222692 269.195
0.0368815 0.0263169 3.69841e-08 8.28381e-05 30 0.0260367 8.1956e-05 0.00637693 0.389709 317.691
0.0389751 0.029931 4.36469e-08 7.98323e-05 24 0.0296231 7.9011e-05 0.00620256 0.308901 374.924
0.0411876 0.0191849 5.151e-08 4.3359e-05 24 0.0190546 4.30645e-05 0.00601767 0.172927 442.467
0.0435258 0.0470823 6.07896e-08 9.0165e-05 8 0.0470787 9.01581e-05 0.00582358 0.123862 522.179
0.0459966 0.0578918 7.1741e-08 9.3942e-05 72 0.0574352 9.32009e-05 0.00562166 1.20317 616.251
0.0486077 0 8.46654e-08 0 0 0 0 0.0054133 0 727.27
0.051367 0.0799879 9.99181e-08 9.31945e-05 54 0.0797236 9.28866e-05 0.00519989 0.96781 858.29
0.054283 0.0644397 1.17919e-07 6.36182e-05 60 0.0647304 6.39052e-05 0.0049828 0.766053 1012.91
0.0573645 0.0605105 1.39162e-07 5.06198e-05 96 0.0603554 5.049e-05 0.00476339 1.02018 1195.39
0.060621 0.0717454 1.64232e-07 5.08564e-05 24 0.0707734 5.01674e-05 0.00454293 0.268671 1410.75
0.0640622 0.123675 1.93819e-07 7.42842e-05 134 0.123733 7.43188e-05 0.00432265 2.30277 1664.89
0.0676989 0.120853 2.28736e-07 6.1508e-05 120 0.120266 6.12092e-05 0.00410371 1.79861 1964.83
0.071542 0.113544 2.69944e-07 4.89667e-05 108 0.112291 4.84266e-05 0.00388717 1.36047 2318.8
0.0756032 0.167997 3.18575e-07 6.13905e-05 174 0.167068 6.10508e-05 0.00367401 2.90743 2736.54
0.079895 0.175989 3.75967e-07 5.44936e-05 168 0.174335 5.39816e-05 0.0034651 2.64204 3229.53
0.0844305 0.147001 4.43698e-07 3.85693e-05 168 0.147731 3.87608e-05 0.00326121 1.98689 3811.34
0.0892234 0.174829 5.23632e-07 3.88684e-05 290 0.174017 3.86879e-05 0.00306301 3.67998 4497.96
0.0942883 0.212722 6.17966e-07 4.00736e-05 288 0.212256 3.99859e-05 0.00287109 4.01979 5308.28
0.0996408 0.190244 7.29294e-07 3.03681e-05 366 0.188772 3.01332e-05 0.00268591 4.13817 6264.59
0.105297 0.222335 8.60678e-07 3.00731e-05 420 0.220755 2.98593e-05 0.00250785 5.03646 7393.17
0.111275 0.237934 1.01573e-06 2.72702e-05 398 0.237253 2.71921e-05 0.00233721 4.64379 8725.07
0.117591 0.283086 1.19872e-06 2.74923e-05 624 0.283847 2.75663e-05 0.00217419 7.89037 10296.9
0.124267 0.327724 1.41467e-06 2.69689e-05 642 0.327006 2.69098e-05 0.00201893 8.57587 12151.9
0.131321 0.39004 1.66953e-06 2.71973e-05 800 0.390145 2.72046e-05 0.00187147 11.6261 14341.1
0.138776 0.358175 1.9703e-06 2.11629e-05 858 0.35972 2.12541e-05 0.00173182 10.4848 16924.7
0.146654 0.414458 2.32525e-06 2.07501e-05 1080 0.417915 2.09232e-05 0.00159991 14.0071 19973.8
0.154979 0.484154 2.74415e-06 2.05393e-05 1286 0.487231 2.06698e-05 0.00147563 17.8998 23572.1
0.163777 0.471403 3.23852e-06 1.69456e-05 1650 0.472714 1.69927e-05 0.00135884 20.5765 27818.7
0.173074 0.529314 3.82195e-06 1.61227e-05 1778 0.529681 1.61339e-05 0.00124933 22.9452 32830.3
0.182899 0.562044 4.51048e-06 1.45063e-05 2112 0.56338 1.45408e-05 0.00114689 26.7134 38744.7
0.193281 0.623647 5.32305e-06 1.36392e-05 2570 0.624175 1.36507e-05 0.00105127 33.3431 45724.7
0.204254 0.730904 6.28202e-06 1.35448e-05 3030 0.730441 1.35362e-05 0.000962209 42.6525 53962.1
0.215848 0.75718 7.41374e-06 1.18897e-05 3434 0.756875 1.18849e-05 0.000879423 46.4274 63683.5
0.228102 0.802271 8.74934e-06 1.06747e-05 4218 0.801875 1.06694e-05 0.000802624 56.0984 75156.3
0.24105 0.893672 1.03256e-05 1.00757e-05 4766 0.894213 1.00818e-05 0.000731515 65.6455 88695.9
0.254734 0.975121 1.21857e-05 9.31573e-06 6026 0.975102 9.31554e-06 0.000665798 84.3147 104675
0.269195 1.10435 1.4381e-05 8.93981e-06 6480 1.10336 8.93178e-06 0.000605173 95.7245 123532
0.284476 1.19359 1.69718e-05 8.18721e-06 8162 1.19582 8.20252e-06 0.000549345 121.643 145787
0.300625 1.31003 2.00293e-05 7.61423e-06 9578 1.31071 7.61816e-06 0.000498021 146.438 172051
0.317691 1.44635 2.36377e-05 7.12328e-06 11234 1.44491 7.11619e-06 0.000450916 177.467 203046
0.335725 1.56023 2.78961e-05 6.51114e-06 13344 1.55734 6.49904e-06 0.000407755 213.081 239625
0.354784 1.7451 3.29216e-05 6.17093e-06 15464 1.74392 6.16675e-06 0.000368269 259.124 282795
0.374924 1.87476 3.88525e-05 5.6174e-06 18458 1.87316 5.61262e-06 0.000332202 312.118 333741
0.396207 2.16289 4.58519e-05 5.49145e-06 22232 2.15971 5.48336e-06 0.000299307 407.895 393865
0.418699 2.31964 5.41123e-05 4.99039e-06 25628 2.31402 4.9783e-06 0.00026935 474.824 464821
0.442467 2.52619 6.38607e-05 4.60514e-06 30320 2.52182 4.59717e-06 0.000242108 576.718 548560
0.467585 2.85439 7.53654e-05 4.40911e-06 35452 2.84929 4.40123e-06 0.00021737 719.104 647384
0.494129 3.14769 8.89427e-05 4.11994e-06 41792 3.1443 4.11551e-06 0.000194938 883.258 764012
0.522179 3.53881 0.000104966 3.92482e-06 49988 3.53847 3.92444e-06 0.000174625 1123.52 901651
0.551822 3.9242 0.000123876 3.68786e-06 59110 3.91887 3.68285e-06 0.000156255 1395.09 1.06409e+06
0.583147 4.35322 0.000146192 3.46654e-06 69716 4.34585 3.46067e-06 0.000139664 1730.39 1.25578e+06
0.616251 4.84134 0.000172529 3.26673e-06 82210 4.83176 3.26026e-06 0.0001247 2153.63 1.48202e+06
0.651234 5.35558 0.000203611 3.06207e-06 96722 5.34328 3.05504e-06 0.00011122 2662.91 1.74901e+06
0.688203 6.06126 0.000240292 2.93653e-06 113098 6.05164 2.93186e-06 9.90935e-05 3351.54 2.06409e+06
0.72727 6.73942 0.000283581 2.76666e-06 135190 6.72969 2.76266e-06 8.81969e-05 4240.79 2.43595e+06
0.768555 7.5223 0.000334669 2.61665e-06 158170 7.5118 2.61299e-06 7.84179e-05 5277.81 2.87479e+06
0.812184 8.40956 0.000394961 2.47873e-06 188560 8.39496 2.47443e-06 6.96525e-05 6710.3 3.39269e+06
0.85829 9.38587 0.000466114 2.34419e-06 220444 9.37041 2.34033e-06 6.1805e-05 8361.17 4.00389e+06
0.907013 10.4859 0.000550086 2.21915e-06 261388 10.4681 2.21538e-06 5.47875e-05 10587.5 4.7252e+06
0.958501 11.7181 0.000649185 2.10136e-06 308244 11.7009 2.09827e-06 4.85194e-05 13349.9 5.57646e+06
1.01291 13.1424 0.000766138 1.997e-06 364396 13.1202 1.99362e-06 4.29272e-05 16951.9 6.58107e+06
1.07041 14.592 0.00090416 1.87879e-06 429162 14.565 1.87532e-06 3.79435e-05 21250.2 7.76667e+06
1.13118 16.2934 0.00106705 1.77762e-06 506358 16.2656 1.77459e-06 3.3507e-05 26863.3 9.16586e+06
1.19539 18.2333 0.00125928 1.6856e-06 598590 18.1997 1.68249e-06 2.9562e-05 34131.1 1.08171e+07
1.26325 20.2925 0.00148614 1.58959e-06 704844 20.254 1.58658e-06 2.60578e-05 42997.2 1.27658e+07
1.33496 22.5638 0.00175387 1.4977e-06 834620 22.5182 1.49467e-06 2.29484e-05 54470.2 1.50656e+07
1.41075 25.0103 0.00206984 1.40667e-06 981444 24.9613 1.40392e-06 2.01923e-05 68371.1 1.77798e+07
1.49083 27.7557 0.00244272 1.32278e-06 1.15998e+06 27.705 1.32036e-06 1.77518e-05 86436.2 2.09828e+07
1.57546 30.7788 0.00288279 1.24294e-06 1.36931e+06 30.7224 1.24066e-06 1.55929e-05 109150 2.4763e+07
1.66489 34.0959 0.00340213 1.16671e-06 1.61652e+06 34.0315 1.1645e-06 1.3685e-05 137815 2.92241e+07
1.75941 37.5876 0.00401503 1.08985e-06 1.90601e+06 37.5186 1.08785e-06 1.20007e-05 173095 3.44889e+07
1.85928 41.3561 0.00473835 1.01607e-06 2.24913e+06 41.2788 1.01417e-06 1.05151e-05 217331 4.07021e+07
1.96483 45.3377 0.00559198 9.43852e-07 2.65744e+06 45.25 9.42028e-07 9.20606e-06 272454 4.80347e+07
2.07637 49.6609 0.00659939 8.76035e-07 3.13125e+06 49.5665 8.74369e-07 8.05366e-06 340601 5.66883e+07
2.19424 54.2764 0.00778828 8.11296e-07 3.69915e+06 54.1759 8.09793e-07 7.04008e-06 426288 6.69008e+07
2.3188 59.1363 0.00919136 7.49005e-07 4.36472e+06 59.0301 7.4766e-07 6.1494e-06 531629 7.89532e+07
2.45043 64.4874 0.0108472 6.92097e-07 5.14913e+06 64.376 6.90902e-07 5.36741e-06 663951 9.31768e+07
2.58954 70.0293 0.0128014 6.36845e-07 6.07894e+06 69.904 6.35705e-07 4.68145e-06 826953 1.09963e+08
2.73654 75.9605 0.0151076 5.85334e-07 7.17304e+06 75.829 5.8432e-07 4.08023e-06 1.02902e+06 1.29773e+08
2.89188 82.2008 0.0178292 5.36727e-07 8.46557e+06 82.0608 5.35813e-07 3.55373e-06 1.27857e+06 1.53152e+08
3.05605 88.7358 0.0210412 4.90951e-07 9.98773e+06 88.585 4.90117e-07 3.09304e-06 1.58533e+06 1.80743e+08
3.22953 95.5781 0.0248319 4.48084e-07 1.1797e+07 95.4181 4.47334e-07 2.69025e-06 1.96489e+06 2.13304e+08
3.41286 102.736 0.0293054 4.08116e-07 1.39144e+07 102.56 4.07417e-07 2.33837e-06 2.42848e+06 2.51731e+08
3.6066 110.477 0.0345848 3.71875e-07 1.64163e+07 110.29 3.71246e-07 2.0312e-06 3.00551e+06 2.97081e+08
3.81134 118.617 0.0408154 3.38323e-07 1.93821e+07 118.418 3.37756e-07 1.76327e-06 3.71891e+06 3.50601e+08
4.0277 127.111 0.0481684 3.07208e-07 2.28754e+07 126.898 3.06692e-07 1.52972e-06 4.59398e+06 4.13763e+08
4.25634 136.108 0.056846 2.78736e-07 2.69929e+07 135.876 2.78261e-07 1.32631e-06 5.67281e+06 4.88304e+08
4.49796 145.463 0.067087 2.5242e-07 3.18542e+07 145.216 2.51991e-07 1.14926e-06 6.99638e+06 5.76273e+08
4.7533 155.402 0.0791729 2.28502e-07 3.75892e+07 155.139 2.28115e-07 9.95263e-07 8.6301e+06 6.8009e+08
5.02313 165.834 0.0934361 2.06619e-07 4.43706e+07 165.559 2.06276e-07 8.61414e-07 1.06427e+07 8.0261e+08
5.30828 176.723 0.110269 1.86574e-07 5.23593e+07 176.429 1.86263e-07 7.45152e-07 1.31099e+07 9.47202e+08
5.60962 188.05 0.130134 1.68226e-07 6.1787e+07 187.74 1.67948e-07 6.44232e-07 1.61342e+07 1.11784e+09
5.92807 199.972 0.153578 1.51583e-07 7.29346e+07 199.639 1.5133e-07 5.56685e-07 1.98598e+07 1.31923e+09
6.26459 212.549 0.181246 1.36522e-07 8.60651e+07 212.195 1.36294e-07 4.80786e-07 2.44386e+07 1.55689e+09
6.62021 225.71 0.213898 1.22845e-07 1.01558e+08 225.335 1.2264e-07 4.15026e-07 3.00605e+07 1.83737e+09
6.99602 239.66 0.252432 1.10525e-07 1.1986e+08 239.264 1.10343e-07 3.58083e-07 3.69958e+07 2.16837e+09
7.39317 254.025 0.297908 9.9267e-08 1.41457e+08 253.604 9.91024e-08 3.08803e-07 4.54723e+07 2.55901e+09
7.81286 269.17 0.351577 8.91283e-08 1.66936e+08 268.724 8.89807e-08 2.66181e-07 5.5897e+07 3.02002e+09
8.25637 285.121 0.414914 7.99983e-08 1.97025e+08 284.648 7.98655e-08 2.29336e-07 6.87274e+07 3.56409e+09
8.72507 302.169 0.489662 7.18394e-08 2.32497e+08 301.665 7.17197e-08 1.97503e-07 8.4568e+07 4.20617e+09
9.22037 320.232 0.577876 6.45119e-08 2.74404e+08 319.694 6.44035e-08 1.70014e-07 1.04123e+08 4.96392e+09
9.74378 339.967 0.681982 5.80328e-08 3.2382e+08 339.38 5.79326e-08 1.46289e-07 1.28459e+08 5.85818e+09
10.2969 362.192 0.804843 5.23888e-08 3.82165e+08 361.542 5.22948e-08 1.25822e-07 1.59122e+08 6.91355e+09
10.8814 388.643 0.949838 4.76334e-08 4.51027e+08 387.898 4.75421e-08 1.08175e-07 1.98603e+08 8.15905e+09
11.4992 422.403 1.12095 4.38682e-08 5.32251e+08 421.499 4.37743e-08 9.29669e-08 2.51153e+08 9.62892e+09
12.1519 469.694 1.3229 4.13333e-08 6.28157e+08 468.513 4.12293e-08 7.98658e-08 3.25093e+08 1.13636e+10
12.8418 522.847 1.56122 3.89871e-08 3.82727e+08 541.161 4.03527e-08 6.85852e-08 2.1756e+08 1.34108e+10
13.5708 0 1.84248 0 0 0 0 5.88765e-08 0 1.58268e+10
14.3411 0 2.17441 0 0 0 0 5.05241e-08 0 1.8678e+10
15.1552 0 2.56613 0 0 0 0 4.33417e-08 0 2.20429e+10
16.0156 0 3.02843 0 0 0 0 3.71677e-08 0 2.6014e+10
16.9247 0 3.574 0 0 0 0 3.18628e-08 0 3.07005e+10
17.8855 0 4.21787 0 0 0 0 2.73063e-08 0 3.62312e+10
18.9008 0 4.97773 0 0 0 0 2.33941e-08 0 4.27584e+10
19.9738 0 5.87448 0 0 0 0 2.00364e-08 0 5.04614e+10
21.1076 0 6.93279 0 0 0 0 1.71555e-08 0 5.95522e+10
22.3058 0 8.18175 0 0 0 0 1.46847e-08 0 7.02807e+10
23.5721 0 9.65571 0 0 0 0 1.25662e-08 0 8.29419e+10
24.9102 0 11.3952 0 0 0 0 1.07504e-08 0 9.78842e+10
26.3243 0 13.4481 0 0 0 0 9.19452e-09 0 1.15518e+11
27.8187 0 15.8708 0 0 0 0 7.86182e-09 0 1.36329e+11
29.3979 0 18.73 0 0 0 0 6.72061e-09 0 1.60889e+11
31.0667 0 22.1042 0 0 0 0 5.74366e-09 0 1.89874e+11
32.8303 0 26.0864 0 0 0 0 4.90756e-09 0 2.2408e+11
34.694 0 30.7859 0 0 0 0 4.19221e-09 0 2.64449e+11
36.6634 0 36.3321 0 0 0 0 3.58032e-09 0 3.1209e+11
38.7447 0 42.8774 0 0 0 0 3.05709e-09 0 3.68314e+11
40.9442 0 50.6018 0 0 0 0 2.60976e-09 0 4.34667e+11
43.2685 0 59.7179 0 0 0 0 2.22743e-09 0 5.12973e+11
45.7247 0 70.4762 0 0 0 0 1.90073e-09 0 6.05386e+11
48.3204 0 83.1727 0 0 0 0 1.62163e-09 0 7.14448e+11
51.0634 0 98.1565 0 0 0 0 1.38326e-09 0 8.43158e+11
53.9621 0 115.84 0 0 0 0 1.1797e-09 0 9.95055e+11
57.0254 0 136.709 0 0 0 0 1.00592e-09 0 1.17432e+12
60.2626 0 161.337 0 0 0 0 8.57591e-10 0 1.38587e+12
63.6835 0 190.402 0 0 0 0 7.3101e-10 0 1.63554e+12
67.2987 0 224.704 0 0 0 0 6.23009e-10 0 1.93019e+12
71.1191 0 265.185 0 0 0 0 5.30879e-10 0 2.27792e+12
75.1563 0 312.958 0 0 0 0 4.52303e-10 0 2.68829e+12
79.4227 0 369.339 0 0 0 0 3.85299e-10 0 3.17259e+12
83.9313 0 435.876 0 0 0 0 3.28173e-10 0 3.74415e+12
88.6959 0 514.4 0 0 0 0 2.79476e-10 0 4.41866e+12
93.7309 0 607.071 0 0 0 0 2.37972e-10 0 5.2147e+12
99.0518 0 716.436 0 0 0 0 2.02605e-10 0 6.15414e+12
104.675 0 845.504 0 0 0 0 1.72471e-10 0 7.26283e+12
110.617 0 997.824 0 0 0 0 1.468e-10 0 8.57124e+12
116.896 0 1177.58 0 0 0 0 1.24935e-10 0 1.01154e+13
123.532 0 1389.73 0 0 0 0 1.06313e-10 0 1.19377e+13
130.545 0 1640.09 0 0 0 0 9.04567e-11 0 1.40883e+13
137.955 0 1935.56 0 0 0 0 7.69563e-11 0 1.66263e+13
145.787 0 2284.26 0 0 0 0 6.54636e-11 0 1.96216e+13
154.063 0 2695.77 0 0 0 0 5.56812e-11 0 2.31565e+13
162.808 0 3181.42 0 0 0 0 4.73556e-11 0 2.73282e+13
172.051 0 3754.56 0 0 0 0 4.02708e-11 0 3.22515e+13
181.818 0 4430.96 0 0 0 0 3.42426e-11 0 3.80616e+13
192.139 0 5229.21 0 0 0 0 2.91139e-11 0 4.49186e+13
203.046 0 6171.26 0 0 0 0 2.4751e-11 0 5.30108e+13
214.572 0 7283.03 0 0 0 0 2.10401e-11 0 6.25608e+13
226.753 0 8595.09 0 0 0 0 1.78839e-11 0 7.38313e+13
239.625 0 10143.5 0 0 0 0 1.51999e-11 0 8.71322e+13
253.228 0 11970.9 0 0 0 0 1.29176e-11 0 1.02829e+14
267.603 0 14127.5 0 0 0 0 1.09771e-11 0 1.21354e+14
282.795 0 16672.6 0 0 0 0 9.3274e-12 0 1.43217e+14
298.848 0 19676.2 0 0 0 0 7.925e-12 0 1.69017e+14
315.813 0 23220.9 0 0 0 0 6.73295e-12 0 1.99466e+14
333.741 0 27404.3 0 0 0 0 5.71979e-12 0 2.35401e+14
352.686 0 32341.2 0 0 0 0 4.85874e-12 0 2.77809e+14
372.707 0 38167.6 0 0 0 0 4.12703e-12 0 3.27857e+14
393.865 0 45043.5 0 0 0 0 3.50528e-12 0 3.86921e+14
416.224 0 53158.3 0 0 0 0 2.97701e-12 0 4.56626e+14
439.852 0 62734.9 0 0 0 0 2.52819e-12 0 5.38888e+14
464.821 0 74036.7 0 0 0 0 2.1469e-12 0 6.35971e+14
491.207 0 87374.6 0 0 0 0 1.82301e-12 0 7.50542e+14
519.092 0 103115 0 0 0 0 1.54789e-12 0 8.85755e+14
548.56 0 121692 0 0 0 0 1.31422e-12 0 1.04533e+15
579.7 0 143615 0 0 0 0 1.11576e-12 0 1.23364e+15
612.608 0 169488 0 0 0 0 9.47223e-13 0 1.45589e+15
647.384 0 200021 0 0 0 0 8.041e-13 0 1.71817e+15
684.134 0 236056 0 0 0 0 6.82568e-13 0 2.0277e+15
722.971 0 278582 0 0 0 0 5.79376e-13 0 2.393e+15
764.012 0 328769 0 0 0 0 4.91762e-13 0 2.8241e+15
