0.0779269
200
1.0655e+09
8589934592
0.0129181 0 1.58924e-09 0 0 0 0 0.00677225 0 13.6515
0.0136515 0 1.87554e-09 0 0 0 0 0.00688819 0 16.1108
0.0144264 0 2.21343e-09 0 0 0 0 0.00699249 0 19.0132
0.0152454 0 2.61218e-09 0 0 0 0 0.00708412 0 22.4385
0.0161108 0 3.08278e-09 0 0 0 0 0.00716212 0 26.4808
0.0170254 0 3.63815e-09 0 0 0 0 0.00722559 0 31.2514
0.0179919 0 4.29357e-09 0 0 0 0 0.00727371 0 36.8815
0.0190132 0 5.06707e-09 0 0 0 0 0.00730578 0 43.5258
0.0200925 0 5.97991e-09 0 0 0 0 0.00732122 0 51.367
0.0212331 0 7.05721e-09 0 0 0 0 0.00731958 0 60.621
0.0224385 0 8.32858e-09 0 0 0 0 0.00730056 0 71.542
0.0237123 0 9.829e-09 0 0 0 0 0.00726401 0 84.4305
0.0250583 0 1.15997e-08 0 0 0 0 0.00720995 0 99.6408
0.0264808 0 1.36894e-08 0 0 0 0 0.00713857 0 117.591
0.0279841 0 1.61556e-08 0 0 0 0 0.00705021 0 138.776
0.0295727 0 1.90661e-08 0 0 0 0 0.00694538 0 163.777
0.0312514 0 2.25009e-08 0 0 0 0 0.00682475 0 193.281
0.0330255 0 2.65545e-08 0 0 0 0 0.00668915 0 228.102
0.0349003 0 3.13384e-08 0 0 0 0 0.00653951 0 269.195
0.0368815 0 3.69841e-08 0 0 0 0 0.00637693 0 317.691
0.0389751 0 4.36469e-08 0 0 0 0 0.00620256 0 374.924
0.0411876 0 5.151e-08 0 0 0 0 0.00601767 0 442.467
0.0435258 0 6.07896e-08 0 0 0 0 0.00582358 0 522.179
0.0459966 0 7.1741e-08 0 0 0 0 0.00562166 0 616.251
0.0486077 0 8.46654e-08 0 0 0 0 0.0054133 0 727.27
0.051367 0 9.99181e-08 0 0 0 0 0.00519989 0 858.29
0.054283 0 1.17919e-07 0 0 0 0 0.0049828 0 1012.91
0.0573645 0 1.39162e-07 0 0 0 0 0.00476339 0 1195.39
0.060621 0 1.64232e-07 0 0 0 0 0.00454293 0 1410.75
0.0640622 0 1.93819e-07 0 0 0 0 0.00432265 0 1664.89
0.0676989 0 2.28736e-07 0 0 0 0 0.00410371 0 1964.83
0.071542 0 2.69944e-07 0 0 0 0 0.00388717 0 2318.8
0.0756032 0 3.18575e-07 0 0 0 0 0.00367401 0 2736.54
0.079895 0 3.75967e-07 0 0 0 0 0.0034651 0 3229.53
0.0844305 0 4.43698e-07 0 0 0 0 0.00326121 0 3811.34
0.0892234 0 5.23632e-07 0 0 0 0 0.00306301 0 4497.96
0.0942883 0 6.17966e-07 0 0 0 0 0.00287109 0 5308.28
0.0996408 0 7.29294e-07 0 0 0 0 0.00268591 0 6264.59
0.105297 0 8.60678e-07 0 0 0 0 0.00250785 0 7393.17
0.111275 0 1.01573e-06 0 0 0 0 0.00233721 0 8725.07
0.117591 0 1.19872e-06 0 0 0 0 0.00217419 0 10296.9
0.124267 0 1.41467e-06 0 0 0 0 0.00201893 0 12151.9
0.131321 0 1.66953e-06 0 0 0 0 0.00187147 0 14341.1
0.138776 0 1.9703e-06 0 0 0 0 0.00173182 0 16924.7
0.146654 0 2.32525e-06 0 0 0 0 0.00159991 0 19973.8
0.154979 0 2.74415e-06 0 0 0 0 0.00147563 0 23572.1
0.163777 0 3.23852e-06 0 0 0 0 0.00135884 0 27818.7
0.173074 0 3.82195e-06 0 0 0 0 0.00124933 0 32830.3
0.182899 0 4.51048e-06 0 0 0 0 0.00114689 0 38744.7
0.193281 0 5.32305e-06 0 0 0 0 0.00105127 0 45724.7
0.204254 0 6.28202e-06 0 0 0 0 0.000962209 0 53962.1
0.215848 0 7.41374e-06 0 0 0 0 0.000879423 0 63683.5
0.228102 0 8.74934e-06 0 0 0 0 0.000802624 0 75156.3
0.24105 0 1.03256e-05 0 0 0 0 0.000731515 0 88695.9
0.254734 0 1.21857e-05 0 0 0 0 0.000665798 0 104675
0.269195 0 1.4381e-05 0 0 0 0 0.000605173 0 123532
0.284476 0 1.69718e-05 0 0 0 0 0.000549345 0 145787
0.300625 0 2.00293e-05 0 0 0 0 0.000498021 0 172051
0.317691 0 2.36377e-05 0 0 0 0 0.000450916 0 203046
0.335725 0 2.78961e-05 0 0 0 0 0.000407755 0 239625
0.354784 0 3.29216e-05 0 0 0 0 0.000368269 0 282795
0.374924 0 3.88525e-05 0 0 0 0 0.000332202 0 333741
0.396207 0.317752 4.58519e-05 8.06752e-07 6 0.308918 7.84323e-07 0.000299307 0.0161724 393865
0.418699 0 5.41123e-05 0 0 0 0 0.00026935 0 464821
0.442467 0 6.38607e-05 0 0 0 0 0.000242108 0 548560
0.467585 0 7.53654e-05 0 0 0 0 0.00021737 0 647384
0.494129 0 8.89427e-05 0 0 0 0 0.000194938 0 764012
0.522179 0 0.000104966 0 0 0 0 0.000174625 0 901651
0.551822 0 0.000123876 0 0 0 0 0.000156255 0 1.06409e+06
0.583147 4.80925 0.000146192 3.82968e-06 12 5.06176 4.03076e-06 0.000139664 0.329048 1.25578e+06
0.616251 0 0.000172529 0 0 0 0 0.0001247 0 1.48202e+06
0.651234 0 0.000203611 0 0 0 0 0.00011122 0 1.74901e+06
0.688203 23.1256 0.000240292 1.12037e-05 8 22.5502 1.0925e-05 9.90935e-05 0.904498 2.06409e+06
0.72727 0 0.000283581 0 0 0 0 8.81969e-05 0 2.43595e+06
0.768555 0 0.000334669 0 0 0 0 7.84179e-05 0 2.87479e+06
0.812184 0.0605317 0.000394961 1.78418e-08 6 0.0618259 1.82233e-08 6.96525e-05 0.00153693 3.39269e+06
0.85829 0 0.000466114 0 0 0 0 6.1805e-05 0 4.00389e+06
0.907013 0.111036 0.000550086 2.34988e-08 24 0.113167 2.39496e-08 5.47875e-05 0.0102938 4.7252e+06
0.958501 0.764994 0.000649185 1.37183e-07 24 0.720185 1.29147e-07 4.85194e-05 0.067857 5.57646e+06
1.01291 0 0.000766138 0 0 0 0 4.29272e-05 0 6.58107e+06
1.07041 0 0.00090416 0 0 0 0 3.79435e-05 0 7.76667e+06
1.13118 1.35558 0.00106705 1.47895e-07 12 1.33893 1.46078e-07 3.3507e-05 0.0529661 9.16586e+06
1.19539 0.655705 0.00125928 6.06174e-08 30 0.642188 5.93677e-08 2.9562e-05 0.0615154 1.08171e+07
1.26325 5.91574 0.00148614 4.63404e-07 24 5.82672 4.56431e-07 2.60578e-05 0.426808 1.27658e+07
1.33496 18.1889 0.00175387 1.20731e-06 24 18.2289 1.20996e-06 2.29484e-05 1.26263 1.50656e+07
1.41075 5.17999 0.00206984 2.91342e-07 32 5.33078 2.99823e-07 2.01923e-05 0.461708 1.77798e+07
1.49083 0.37527 0.00244272 1.78846e-08 48 0.36727 1.75034e-08 1.77518e-05 0.0483593 2.09828e+07
1.57546 0.0215501 0.00288279 8.70256e-10 6 0.0205206 8.2868e-10 1.55929e-05 0.000334867 2.4763e+07
1.66489 0.367552 0.00340213 1.2577e-08 84 0.356398 1.21954e-08 1.3685e-05 0.0771991 2.92241e+07
1.75941 2.22932 0.00401503 6.46389e-08 48 2.24721 6.51574e-08 1.20007e-05 0.258541 3.44889e+07
1.85928 0.175309 0.00473835 4.30713e-09 72 0.175768 4.3184e-09 1.05151e-05 0.0294922 4.07021e+07
1.96483 0.664157 0.00559198 1.38266e-08 54 0.652628 1.35866e-08 9.20606e-06 0.0811028 4.80347e+07
2.07637 7.85567 0.00659939 1.38577e-07 104 7.8326 1.3817e-07 8.05366e-06 1.78949 5.66883e+07
2.19424 0.222297 0.00778828 3.32278e-09 120 0.2234 3.33927e-09 7.04008e-06 0.0566376 6.69008e+07
2.3188 1.52518 0.00919136 1.93176e-08 156 1.44982 1.8363e-08 6.1494e-06 0.490055 7.89532e+07
2.45043 0.463121 0.0108472 4.97034e-09 126 0.460186 4.93885e-09 5.36741e-06 0.116679 9.31768e+07
2.58954 0.46374 0.0128014 4.21724e-09 192 0.471981 4.29218e-09 4.68145e-06 0.172961 1.09963e+08
2.73654 3.58991 0.0151076 2.7663e-08 152 3.72196 2.86805e-08 4.08023e-06 1.03052 1.29773e+08
2.89188 3.34222 0.0178292 2.18229e-08 378 3.41882 2.2323e-08 3.55373e-06 2.32124 1.53152e+08
3.05605 1.1285 0.0210412 6.24369e-09 264 1.10868 6.13401e-09 3.09304e-06 0.532917 1.80743e+08
3.22953 0.150202 0.0248319 7.04169e-10 366 0.148285 6.9518e-10 2.69025e-06 0.0957999 2.13304e+08
3.41286 0.597202 0.0293054 2.37238e-09 428 0.567874 2.25587e-09 2.33837e-06 0.434224 2.51731e+08
3.6066 2.97525 0.0345848 1.00149e-08 486 2.8727 9.66975e-09 2.0312e-06 2.39625 2.97081e+08
3.81134 0.631664 0.0408154 1.80166e-09 600 0.627741 1.79047e-09 1.76327e-06 0.613065 3.50601e+08
4.0277 0.418509 0.0481684 1.01147e-09 738 0.411693 9.94996e-10 1.52972e-06 0.487974 4.13763e+08
4.25634 0.979479 0.056846 2.00588e-09 824 1.01984 2.08854e-09 1.32631e-06 1.2462 4.88304e+08
4.49796 2.39453 0.067087 4.1552e-09 954 2.41235 4.18612e-09 1.14926e-06 3.44924 5.76273e+08
4.7533 0.427826 0.0791729 6.29072e-10 1094 0.419031 6.16141e-10 9.95263e-07 0.691481 6.8009e+08
5.02313 0.227316 0.0934361 2.83221e-10 1332 0.226855 2.82646e-10 8.61414e-07 0.437943 8.0261e+08
5.30828 1.83487 0.110269 1.93715e-09 1614 1.85787 1.96143e-09 7.45152e-07 4.19587 9.47202e+08
5.60962 0.815537 0.130134 7.29563e-10 1850 0.78589 7.03041e-10 6.44232e-07 2.09504 1.11784e+09
5.92807 1.19735 0.153578 9.07616e-10 2238 1.14274 8.66218e-10 5.56685e-07 3.64882 1.31923e+09
6.26459 0.498743 0.181246 3.20346e-10 2546 0.507441 3.25933e-10 4.80786e-07 1.69639 1.55689e+09
6.62021 0.140431 0.213898 7.64306e-11 3264 0.14044 7.64357e-11 4.15026e-07 0.601095 1.83737e+09
6.99602 1.17637 0.252432 5.42512e-10 3506 1.2195 5.62405e-10 3.58083e-07 5.31175 2.16837e+09
7.39317 0.458467 0.297908 1.79158e-10 4506 0.465682 1.81977e-10 3.08803e-07 2.61424 2.55901e+09
7.81286 0.938198 0.351577 3.10659e-10 5018 0.972438 3.21997e-10 2.66181e-07 5.8565 3.02002e+09
8.25637 0.832174 0.414914 2.33489e-10 5852 0.796746 2.23548e-10 2.29336e-07 5.95796 3.56409e+09
8.72507 0.487321 0.489662 1.15859e-10 7362 0.481073 1.14373e-10 1.97503e-07 4.31868 4.20617e+09
9.22037 0.73998 0.577876 1.49072e-10 8306 0.730305 1.47123e-10 1.70014e-07 7.28286 4.96392e+09
9.74378 0.20792 0.681982 3.54922e-11 9698 0.208628 3.5613e-11 1.46289e-07 2.3529 5.85818e+09
10.2969 0.733091 0.804843 1.06037e-10 11816 0.747899 1.08179e-10 1.25822e-07 9.95793 6.91355e+09
10.8814 0.593716 0.949838 7.27678e-11 13682 0.594738 7.2893e-11 1.08175e-07 9.20365 8.15905e+09
11.4992 0.575904 1.12095 5.98099e-11 16152 0.563531 5.85248e-11 9.29669e-08 10.3913 9.62892e+09
12.1519 0.575756 1.3229 5.06667e-11 19472 0.559744 4.92577e-11 7.98658e-08 12.353 1.13636e+10
12.8418 0.248919 1.56122 1.85611e-11 22670 0.252787 1.88496e-11 6.85852e-08 6.13514 1.34108e+10
13.5708 0.553233 1.84248 3.49555e-11 26224 0.562964 3.55704e-11 5.88765e-08 15.5694 1.58268e+10
14.3411 0.464258 2.17441 2.48559e-11 31640 0.472373 2.52904e-11 5.05241e-08 15.5656 1.8678e+10
15.1552 0.517066 2.56613 2.34573e-11 37484 0.522375 2.36981e-11 4.33417e-08 20.287 2.20429e+10
16.0156 0.464794 3.02843 1.78671e-11 43856 0.474009 1.82213e-11 3.71677e-08 21.0823 2.6014e+10
16.9247 0.763463 3.574 2.48681e-11 51362 0.763382 2.48655e-11 3.18628e-08 40.0868 3.07005e+10
17.8855 0.686863 4.21787 1.89578e-11 61636 0.679801 1.87628e-11 2.73063e-08 42.7916 3.62312e+10
18.9008 1.07208 4.97773 2.50729e-11 72218 1.06606 2.49322e-11 2.33941e-08 77.4003 4.27584e+10
19.9738 1.60121 5.87448 3.17313e-11 84586 1.58542 3.14184e-11 2.00364e-08 133.957 5.04614e+10
21.1076 2.43281 6.93279 4.08517e-11 100708 2.42753 4.07631e-11 1.71555e-08 239.812 5.95522e+10
22.3058 4.08385 8.18175 5.81076e-11 118712 4.08173 5.80776e-11 1.46847e-08 469.747 7.02807e+10
23.5721 5.97816 9.65571 7.20764e-11 140410 5.95551 7.18034e-11 1.25662e-08 805.357 8.29419e+10
24.9102 6.97003 11.3952 7.12069e-11 164374 6.93935 7.08935e-11 1.07504e-08 1088.76 9.78842e+10
26.3243 8.1446 13.4481 7.05049e-11 194680 8.11548 7.02528e-11 9.19452e-09 1492.83 1.15518e+11
27.8187 8.77001 15.8708 6.43297e-11 230196 8.74144 6.41201e-11 7.86182e-09 1883.59 1.36329e+11
29.3979 10.4185 18.73 6.47556e-11 271156 10.3805 6.45196e-11 6.72061e-09 2612.69 1.60889e+11
31.0667 12.5991 22.1042 6.63553e-11 321076 12.542 6.60543e-11 5.74366e-09 3709.32 1.89874e+11
32.8303 15.0778 26.0864 6.72873e-11 377436 15.0191 6.70254e-11 4.90756e-09 5175.01 2.2408e+11
34.694 17.718 30.7859 6.69997e-11 447594 17.6579 6.67726e-11 4.19221e-09 7153.43 2.64449e+11
36.6634 20.284 36.3321 6.4994e-11 525078 20.2175 6.47811e-11 3.58032e-09 9531.79 3.1209e+11
38.7447 22.7156 42.8774 6.16746e-11 621924 22.6481 6.14914e-11 3.05709e-09 12546.9 3.68314e+11
40.9442 25.7029 50.6018 5.91324e-11 732630 25.6341 5.89743e-11 2.60976e-09 16600.1 4.34667e+11
43.2685 29.8447 59.7179 5.81799e-11 865596 29.7532 5.80014e-11 2.22743e-09 22609.1 5.12973e+11
45.7247 35.0125 70.4762 5.7835e-11 1.02168e+06 34.8897 5.76322e-11 1.90073e-09 31087.3 6.05386e+11
48.3204 42.1923 83.1727 5.90557e-11 1.20544e+06 42.0374 5.8839e-11 1.62163e-09 43898.9 7.14448e+11
51.0634 50.8251 98.1565 6.02795e-11 1.42103e+06 50.6473 6.00686e-11 1.38326e-09 61925.6 8.43158e+11
53.9621 60.7851 115.84 6.10871e-11 1.67997e+06 60.5885 6.08896e-11 1.1797e-09 86991.7 9.95055e+11
57.0254 71.488 136.709 6.08762e-11 1.98018e+06 71.26 6.06821e-11 1.00592e-09 119836 1.17432e+12
60.2626 83.8759 161.337 6.0522e-11 2.33957e+06 83.6037 6.03256e-11 8.57591e-10 165108 1.38587e+12
63.6835 98.4534 190.402 6.01962e-11 2.75676e+06 98.1287 5.99977e-11 7.3101e-10 227010 1.63554e+12
67.2987 116.101 224.704 6.01502e-11 3.25638e+06 115.728 5.9957e-11 6.23009e-10 314396 1.93019e+12
71.1191 137.324 265.185 6.02848e-11 3.84387e+06 136.87 6.00855e-11 5.30879e-10 436497 2.27792e+12
75.1563 162.036 312.958 6.02745e-11 4.53277e+06 161.503 6.00763e-11 4.52303e-10 604042 2.68829e+12
79.4227 191.331 369.339 6.03076e-11 5.35083e+06 190.716 6.01136e-11 3.85299e-10 837519 3.17259e+12
83.9313 225.805 435.876 6.03088e-11 6.32174e+06 225.057 6.01091e-11 3.28173e-10 1.16176e+06 3.74415e+12
88.6959 266.471 514.4 6.03057e-11 7.44986e+06 265.581 6.01044e-11 2.79476e-10 1.60754e+06 4.41866e+12
93.7309 314.693 607.071 6.03474e-11 8.79764e+06 313.673 6.01517e-11 2.37972e-10 2.23099e+06 5.2147e+12
99.0518 371.267 716.436 6.03281e-11 1.03827e+07 370.035 6.01278e-11 2.02605e-10 3.09157e+06 6.15414e+12
104.675 438.588 845.504 6.03881e-11 1.22515e+07 437.138 6.01884e-11 1.72471e-10 4.28968e+06 7.26283e+12
110.617 517.42 997.824 6.0367e-11 1.44573e+07 515.723 6.0169e-11 1.468e-10 5.94513e+06 8.57124e+12
116.896 610.909 1177.58 6.03941e-11 1.70664e+07 608.893 6.01948e-11 1.24935e-10 8.24999e+06 1.01154e+13
123.532 721.104 1389.73 6.04057e-11 2.0139e+07 718.696 6.02039e-11 1.06313e-10 1.14427e+07 1.19377e+13
130.545 851.47 1640.09 6.04381e-11 2.37643e+07 848.635 6.02369e-11 9.04567e-11 1.5878e+07 1.40883e+13
137.955 1005.71 1935.56 6.0489e-11 2.80503e+07 1002.37 6.02883e-11 7.69563e-11 2.2048e+07 1.66263e+13
145.787 1187.56 2284.26 6.0523e-11 3.30981e+07 1183.58 6.03201e-11 6.54636e-11 3.06002e+07 1.96216e+13
154.063 1402.88 2695.77 6.05827e-11 3.90634e+07 1398.2 6.03805e-11 5.56812e-11 4.25021e+07 2.31565e+13
162.808 1656.98 3181.42 6.06324e-11 4.61057e+07 1651.44 6.04298e-11 4.73556e-11 5.9032e+07 2.73282e+13
172.051 1957.77 3754.56 6.07033e-11 5.44046e+07 1951.23 6.05005e-11 4.02708e-11 8.20082e+07 3.22515e+13
181.818 2315.15 4430.96 6.08264e-11 6.42064e+07 2307.35 6.06213e-11 3.42426e-11 1.14052e+08 3.80616e+13
192.139 2737.3 5229.21 6.09392e-11 7.57748e+07 2728.1 6.07343e-11 2.91139e-11 1.58607e+08 4.49186e+13
203.046 3239.36 6171.26 6.11075e-11 8.94213e+07 3228.44 6.09016e-11 2.4751e-11 2.20771e+08 5.30108e+13
214.572 3835.14 7283.03 6.13026e-11 1.05538e+08 3822.16 6.10951e-11 2.10401e-11 3.07498e+08 6.25608e+13
226.753 4545.21 8595.09 6.15622e-11 1.24552e+08 4529.74 6.13526e-11 1.78839e-11 4.28747e+08 7.38313e+13
239.625 5392.29 10143.5 6.18863e-11 1.46987e+08 5373.89 6.16751e-11 1.51999e-11 5.98457e+08 8.71322e+13
253.228 6406.22 11970.9 6.22996e-11 1.7347e+08 6384.14 6.20848e-11 1.29176e-11 8.36618e+08 1.02829e+14
267.603 7629.53 14127.5 6.28699e-11 2.04703e+08 7602.99 6.26512e-11 1.09771e-11 1.1724e+09 1.21354e+14
282.795 9116.12 16672.6 6.36527e-11 2.4161e+08 9084.06 6.34289e-11 9.3274e-12 1.64881e+09 1.43217e+14
298.848 10921.1 19676.2 6.46154e-11 2.85122e+08 10881.9 6.43833e-11 7.925e-12 2.32471e+09 1.69017e+14
315.813 13165.6 23220.9 6.60041e-11 3.36491e+08 13117.3 6.5762e-11 6.73295e-12 3.29867e+09 1.99466e+14
333.741 15987.3 27404.3 6.79151e-11 3.97115e+08 15926.4 6.76568e-11 5.71979e-12 4.71522e+09 2.35401e+14
352.686 19626.3 32341.2 7.06468e-11 4.68637e+08 19548.1 7.03653e-11 4.85874e-12 6.81405e+09 2.77809e+14
372.707 24451 38167.6 7.45782e-11 5.53074e+08 24348.1 7.42644e-11 4.12703e-12 9.99442e+09 3.27857e+14
393.865 31120.7 45043.5 8.04317e-11 6.52716e+08 30979.6 8.00671e-11 3.50528e-12 1.49771e+10 3.86921e+14
416.224 36720.2 53158.3 8.04163e-11 2.2184e+08 38846.5 8.50729e-11 2.97701e-12 5.99243e+09 4.56626e+14
439.852 0 62734.9 0 0 0 0 2.52819e-12 0 5.38888e+14
464.821 0 74036.7 0 0 0 0 2.1469e-12 0 6.35971e+14
491.207 0 87374.6 0 0 0 0 1.82301e-12 0 7.50542e+14
519.092 0 103115 0 0 0 0 1.54789e-12 0 8.85755e+14
548.56 0 121692 0 0 0 0 1.31422e-12 0 1.04533e+15
579.7 0 143615 0 0 0 0 1.11576e-12 0 1.23364e+15
612.608 0 169488 0 0 0 0 9.47223e-13 0 1.45589e+15
647.384 0 200021 0 0 0 0 8.041e-13 0 1.71817e+15
684.134 0 236056 0 0 0 0 6.82568e-13 0 2.0277e+15
722.971 0 278582 0 0 0 0 5.79376e-13 0 2.393e+15
764.012 0 328769 0 0 0 0 4.91762e-13 0 2.8241e+15
0.0779269
200
1.0655e+09
8589934592
0.0129181 1.96808e-05 1.58924e-09 1.44166e-06 6 1.95006e-05 1.42847e-06 0.00677225 0.00127727 13.6515
0.0136515 0 1.87554e-09 0 0 0 0 0.00688819 0 16.1108
0.0144264 0 2.21343e-09 0 0 0 0 0.00699249 0 19.0132
0.0152454 0 2.61218e-09 0 0 0 0 0.00708412 0 22.4385
0.0161108 0 3.08278e-09 0 0 0 0 0.00716212 0 26.4808
0.0170254 0 3.63815e-09 0 0 0 0 0.00722559 0 31.2514
0.0179919 4.36806e-05 4.29357e-09 1.18435e-06 12 4.36243e-05 1.18282e-06 0.00727371 0.00195391 36.8815
0.0190132 0 5.06707e-09 0 0 0 0 0.00730578 0 43.5258
0.0200925 0 5.97991e-09 0 0 0 0 0.00732122 0 51.367
0.0212331 4.12987e-05 7.05721e-09 6.81261e-07 8 4.12627e-05 6.80668e-07 0.00731958 0.00074459 60.621
0.0224385 0 8.32858e-09 0 0 0 0 0.00730056 0 71.542
0.0237123 0 9.829e-09 0 0 0 0 0.00726401 0 84.4305
0.0250583 0.00026595 1.15997e-08 2.66909e-06 6 0.000265825 2.66783e-06 0.00720995 0.00222117 99.6408
0.0264808 0 1.36894e-08 0 0 0 0 0.00713857 0 117.591
0.0279841 0.000165817 1.61556e-08 1.19485e-06 24 0.000165647 1.19363e-06 0.00705021 0.00406747 138.776
0.0295727 0 1.90661e-08 0 0 0 0 0.00694538 0 163.777
0.0312514 0.000296573 2.25009e-08 1.53441e-06 24 0.000298079 1.5422e-06 0.00682475 0.00539592 193.281
0.0330255 0 2.65545e-08 0 0 0 0 0.00668915 0 228.102
0.0349003 0.000411789 3.13384e-08 1.52971e-06 12 0.000408492 1.51746e-06 0.00653951 0.00280701 269.195
0.0368815 0.000359397 3.69841e-08 1.13128e-06 30 0.00035557 1.11923e-06 0.00637693 0.00532205 317.691
0.0389751 0.00043031 4.36469e-08 1.14773e-06 24 0.000425884 1.13592e-06 0.00620256 0.00444099 374.924
0.0411876 0.000272571 5.151e-08 6.16025e-07 24 0.00027072 6.11842e-07 0.00601767 0.00245687 442.467
0.0435258 0.00057938 6.07896e-08 1.10954e-06 8 0.000579335 1.10946e-06 0.00582358 0.00152421 522.179
0.0459966 0.000744342 7.1741e-08 1.20785e-06 72 0.000738451 1.1983e-06 0.00562166 0.0154697 616.251
0.0486077 0 8.46654e-08 0 0 0 0 0.0054133 0 727.27
0.051367 0.0011236 9.99181e-08 1.30912e-06 54 0.00112006 1.30499e-06 0.00519989 0.013595 858.29
0.054283 0.000869586 1.17919e-07 8.585e-07 60 0.000873178 8.62046e-07 0.0049828 0.0103376 1012.91
0.0573645 0.00087146 1.39162e-07 7.29016e-07 96 0.000869225 7.27146e-07 0.00476339 0.0146924 1195.39
0.060621 0.00100365 1.64232e-07 7.1143e-07 24 0.000990049 7.01792e-07 0.00454293 0.00375844 1410.75
0.0640622 0.00176976 1.93819e-07 1.06299e-06 134 0.00177072 1.06356e-06 0.00432265 0.0329521 1664.89
0.0676989 0.00169513 2.28736e-07 8.62735e-07 120 0.0016874 8.58805e-07 0.00410371 0.0252279 1964.83
0.071542 0.00154378 2.69944e-07 6.65767e-07 108 0.00152709 6.58571e-07 0.00388717 0.0184975 2318.8
0.0756032 0.00223933 3.18575e-07 8.18307e-07 174 0.00222776 8.14078e-07 0.00367401 0.0387548 2736.54
0.079895 0.00240083 3.75967e-07 7.43397e-07 168 0.00237815 7.36375e-07 0.0034651 0.0360425 3229.53
0.0844305 0.00205823 4.43698e-07 5.40028e-07 168 0.0020685 5.42723e-07 0.00326121 0.0278194 3811.34
0.0892234 0.00231064 5.23632e-07 5.13709e-07 290 0.00230101 5.11566e-07 0.00306301 0.0486369 4497.96
0.0942883 0.00301056 6.17966e-07 5.67144e-07 288 0.00300285 5.65692e-07 0.00287109 0.0568904 5308.28
0.0996408 0.00275803 7.29294e-07 4.40257e-07 366 0.00273454 4.36508e-07 0.00268591 0.0599924 6264.59
0.105297 0.00296429 8.60678e-07 4.0095e-07 420 0.00294382 3.98181e-07 0.00250785 0.0671486 7393.17
0.111275 0.003127 1.01573e-06 3.58392e-07 398 0.0031187 3.57441e-07 0.00233721 0.06103 8725.07
0.117591 0.00372171 1.19872e-06 3.61439e-07 624 0.00372924 3.62171e-07 0.00217419 0.103734 10296.9
0.124267 0.0040945 1.41467e-06 3.36943e-07 642 0.00408972 3.36549e-07 0.00201893 0.107145 12151.9
0.131321 0.00521145 1.66953e-06 3.63392e-07 800 0.00521327 3.63519e-07 0.00187147 0.15534 14341.1
0.138776 0.00476278 1.9703e-06 2.8141e-07 858 0.00478586 2.82773e-07 0.00173182 0.13942 16924.7
0.146654 0.00510791 2.32525e-06 2.55731e-07 1080 0.00515051 2.57864e-07 0.00159991 0.172628 19973.8
0.154979 0.00602431 2.74415e-06 2.5557e-07 1286 0.00606628 2.5735e-07 0.00147563 0.222726 23572.1
0.163777 0.00572656 3.23852e-06 2.05853e-07 1650 0.00573647 2.0621e-07 0.00135884 0.249962 27818.7
0.173074 0.00674619 3.82195e-06 2.05487e-07 1778 0.00674696 2.0551e-07 0.00124933 0.292441 32830.3
0.182899 0.00661795 4.51048e-06 1.70809e-07 2112 0.00663322 1.71203e-07 0.00114689 0.314545 38744.7
0.193281 0.00780177 5.32305e-06 1.70625e-07 2570 0.00781357 1.70883e-07 0.00105127 0.417119 45724.7
0.204254 0.00858734 6.28202e-06 1.59136e-07 3030 0.00858452 1.59084e-07 0.000962209 0.501121 53962.1
0.215848 0.00854833 7.41374e-06 1.34231e-07 3434 0.00854769 1.34221e-07 0.000879423 0.524151 63683.5
0.228102 0.00894437 8.74934e-06 1.1901e-07 4218 0.00894602 1.19032e-07 0.000802624 0.62543 75156.3
0.24105 0.0101152 1.03256e-05 1.14044e-07 4766 0.0101243 1.14147e-07 0.000731515 0.743023 88695.9
0.254734 0.0107614 1.21857e-05 1.02808e-07 6026 0.0107579 1.02775e-07 0.000665798 0.93049 104675
0.269195 0.0112348 1.4381e-05 9.09461e-08 6480 0.0112303 9.09097e-08 0.000605173 0.973821 123532
0.284476 0.012131 1.69718e-05 8.32105e-08 8162 0.012159 8.34029e-08 0.000549345 1.23632 145787
0.300625 0.0122317 2.00293e-05 7.10937e-08 9578 0.0122475 7.11852e-08 0.000498021 1.36728 172051
0.317691 0.0135461 2.36377e-05 6.67143e-08 11234 0.013537 6.66697e-08 0.000450916 1.6621 203046
0.335725 0.0141812 2.78961e-05 5.91806e-08 13344 0.0141763 5.91601e-08 0.000407755 1.93672 239625
0.354784 0.0146584 3.29216e-05 5.18339e-08 15464 0.0146499 5.1804e-08 0.000368269 2.17656 282795
0.374924 0.0157574 3.88525e-05 4.72145e-08 18458 0.0157539 4.7204e-08 0.000332202 2.62336 333741
0.396207 0.0164977 4.58519e-05 4.18866e-08 22232 0.0164738 4.18261e-08 0.000299307 3.11127 393865
0.418699 0.0178225 5.41123e-05 3.83427e-08 25628 0.0177888 3.82702e-08 0.00026935 3.64822 464821
0.442467 0.0184363 6.38607e-05 3.36085e-08 30320 0.0184062 3.35537e-08 0.000242108 4.20891 548560
0.467585 0.0193276 7.53654e-05 2.98549e-08 35452 0.0193 2.98123e-08 0.00021737 4.86918 647384
0.494129 0.0199634 8.89427e-05 2.61297e-08 41792 0.0199577 2.61223e-08 0.000194938 5.60184 764012
0.522179 0.021572 0.000104966 2.3925e-08 49988 0.021567 2.39195e-08 0.000174625 6.84875 901651
0.551822 0.0224831 0.000123876 2.1129e-08 59110 0.0224707 2.11174e-08 0.000156255 7.99295 1.06409e+06
0.583147 0.0235808 0.000146192 1.87778e-08 69716 0.023554 1.87564e-08 0.000139664 9.3733 1.25578e+06
0.616251 0.0248902 0.000172529 1.67948e-08 82210 0.0248521 1.67691e-08 0.0001247 11.0722 1.48202e+06
0.651234 0.0261972 0.000203611 1.49784e-08 96722 0.026152 1.49525e-08 0.00011122 13.0258 1.74901e+06
0.688203 0.0273959 0.000240292 1.32726e-08 113098 0.0273732 1.32616e-08 9.90935e-05 15.1484 2.06409e+06
0.72727 0.0282939 0.000283581 1.16152e-08 135190 0.0282656 1.16035e-08 8.81969e-05 17.804 2.43595e+06
0.768555 0.0299822 0.000334669 1.04294e-08 158170 0.0299582 1.0421e-08 7.84179e-05 21.0362 2.87479e+06
0.812184 0.0311941 0.000394961 9.19452e-09 188560 0.0311653 9.18603e-09 6.96525e-05 24.891 3.39269e+06
0.85829 0.0324223 0.000466114 8.09771e-09 220444 0.032388 8.08914e-09 6.1805e-05 28.8826 4.00389e+06
0.907013 0.03407 0.000550086 7.21028e-09 261388 0.0340401 7.20395e-09 5.47875e-05 34.3998 4.7252e+06
0.958501 0.035358 0.000649185 6.34058e-09 308244 0.0353206 6.33387e-09 4.85194e-05 40.2817 5.57646e+06
1.01291 0.0370575 0.000766138 5.63092e-09 364396 0.0370153 5.62451e-09 4.29272e-05 47.7992 6.58107e+06
1.07041 0.0385395 0.00090416 4.96216e-09 429162 0.0384963 4.9566e-09 3.79435e-05 56.1248 7.76667e+06
1.13118 0.0403155 0.00106705 4.39844e-09 506358 0.0402663 4.39308e-09 3.3507e-05 66.4692 9.16586e+06
1.19539 0.0418177 0.00125928 3.86588e-09 598590 0.0417679 3.86128e-09 2.9562e-05 78.2787 1.08171e+07
1.26325 0.0436574 0.00148614 3.41986e-09 704844 0.0436064 3.41586e-09 2.60578e-05 92.5045 1.27658e+07
1.33496 0.0453776 0.00175387 3.01199e-09 834620 0.0453229 3.00836e-09 2.29484e-05 109.544 1.50656e+07
1.41075 0.0471312 0.00206984 2.65084e-09 981444 0.0470779 2.64784e-09 2.01923e-05 128.844 1.77798e+07
1.49083 0.0489539 0.00244272 2.33305e-09 1.15998e+06 0.0488951 2.33024e-09 1.77518e-05 152.451 2.09828e+07
1.57546 0.0510002 0.00288279 2.05954e-09 1.36931e+06 0.0509388 2.05706e-09 1.55929e-05 180.861 2.4763e+07
1.66489 0.0530018 0.00340213 1.81363e-09 1.61652e+06 0.0529321 1.81125e-09 1.3685e-05 214.232 2.92241e+07
1.75941 0.0550086 0.00401503 1.59497e-09 1.90601e+06 0.0549397 1.59297e-09 1.20007e-05 253.32 3.44889e+07
1.85928 0.0571224 0.00473835 1.40343e-09 2.24913e+06 0.0570532 1.40173e-09 1.05151e-05 300.185 4.07021e+07
1.96483 0.0592864 0.00559198 1.23424e-09 2.65744e+06 0.0592121 1.23269e-09 9.20606e-06 356.279 4.80347e+07
2.07637 0.061493 0.00659939 1.08476e-09 3.13125e+06 0.0614178 1.08343e-09 8.05366e-06 421.752 5.66883e+07
2.19424 0.0638835 0.00778828 9.54899e-10 3.69915e+06 0.0638039 9.53709e-10 7.04008e-06 501.743 6.69008e+07
2.3188 0.0662377 0.00919136 8.38949e-10 4.36472e+06 0.0661525 8.37869e-10 6.1494e-06 595.47 7.89532e+07
2.45043 0.0688067 0.0108472 7.38453e-10 5.14913e+06 0.0687214 7.37537e-10 5.36741e-06 708.422 9.31768e+07
2.58954 0.07142 0.0128014 6.49491e-10 6.07894e+06 0.0713314 6.48686e-10 4.68145e-06 843.375 1.09963e+08
2.73654 0.0741363 0.0151076 5.71277e-10 7.17304e+06 0.0740435 5.70562e-10 4.08023e-06 1004.3 1.29773e+08
2.89188 0.076833 0.0178292 5.01678e-10 8.46557e+06 0.076735 5.01038e-10 3.55373e-06 1195.08 1.53152e+08
3.05605 0.0797368 0.0210412 4.41162e-10 9.98773e+06 0.079639 4.40621e-10 3.09304e-06 1424.56 1.80743e+08
3.22953 0.0828014 0.0248319 3.88185e-10 1.1797e+07 0.0826966 3.87693e-10 2.69025e-06 1702.23 2.13304e+08
3.41286 0.085922 0.0293054 3.41324e-10 1.39144e+07 0.085809 3.40875e-10 2.33837e-06 2031.03 2.51731e+08
3.6066 0.0892402 0.0345848 3.0039e-10 1.64163e+07 0.0891259 3.00005e-10 2.0312e-06 2427.77 2.97081e+08
3.81134 0.0926342 0.0408154 2.64215e-10 1.93821e+07 0.0925148 2.63874e-10 1.76327e-06 2904.3 3.50601e+08
4.0277 0.096283 0.0481684 2.32701e-10 2.28754e+07 0.0961555 2.32393e-10 1.52972e-06 3479.8 4.13763e+08
4.25634 0.100125 0.056846 2.05047e-10 2.69929e+07 0.0999915 2.04773e-10 1.32631e-06 4173.1 4.88304e+08
4.49796 0.104157 0.067087 1.80742e-10 3.18542e+07 0.104014 1.80495e-10 1.14926e-06 5009.66 5.76273e+08
4.7533 0.108436 0.0791729 1.59443e-10 3.75892e+07 0.108287 1.59225e-10 9.95263e-07 6021.87 6.8009e+08
5.02313 0.112893 0.0934361 1.40658e-10 4.43706e+07 0.112736 1.40462e-10 8.61414e-07 7245.15 8.0261e+08
5.30828 0.117618 0.110269 1.24175e-10 5.23593e+07 0.117453 1.24e-10 7.45152e-07 8725.32 9.47202e+08
5.60962 0.122693 0.130134 1.09759e-10 6.1787e+07 0.122521 1.09605e-10 6.44232e-07 10526.8 1.11784e+09
5.92807 0.127979 0.153578 9.70103e-11 7.29346e+07 0.127794 9.68707e-11 5.56685e-07 12709.9 1.31923e+09
6.26459 0.133565 0.181246 8.579e-11 8.60651e+07 0.133371 8.56652e-11 4.80786e-07 15357.2 1.55689e+09
6.62021 0.139489 0.213898 7.59177e-11 1.01558e+08 0.139282 7.58051e-11 4.15026e-07 18577.3 1.83737e+09
6.99602 0.145745 0.252432 6.72141e-11 1.1986e+08 0.145531 6.71152e-11 3.58083e-07 22498.3 2.16837e+09
7.39317 0.152311 0.297908 5.95197e-11 1.41457e+08 0.152084 5.94309e-11 3.08803e-07 27264.8 2.55901e+09
7.81286 0.159265 0.351577 5.27364e-11 1.66936e+08 0.159026 5.26573e-11 2.66181e-07 33073.7 3.02002e+09
8.25637 0.166625 0.414914 4.67511e-11 1.97025e+08 0.166372 4.66802e-11 2.29336e-07 40164.4 3.56409e+09
8.72507 0.174528 0.489662 4.14933e-11 2.32497e+08 0.174259 4.14294e-11 1.97503e-07 48845.1 4.20617e+09
9.22037 0.183151 0.577876 3.68964e-11 2.74404e+08 0.182863 3.68384e-11 1.70014e-07 59551 4.96392e+09
9.74378 0.192865 0.681982 3.29224e-11 3.2382e+08 0.192551 3.28688e-11 1.46289e-07 72875.8 5.85818e+09
10.2969 0.204198 0.804843 2.9536e-11 3.82165e+08 0.203844 2.94847e-11 1.25822e-07 89710.7 6.91355e+09
10.8814 0.218263 0.949838 2.6751e-11 4.51027e+08 0.217849 2.67003e-11 1.08175e-07 111536 8.15905e+09
11.4992 0.236982 1.12095 2.46115e-11 5.32251e+08 0.236474 2.45587e-11 9.29669e-08 140905 9.62892e+09
12.1519 0.264174 1.3229 2.32474e-11 6.28157e+08 0.263496 2.31877e-11 7.98658e-08 182845 1.13636e+10
12.8418 0.295311 1.56122 2.20204e-11 3.82727e+08 0.305647 2.27912e-11 6.85852e-08 122881 1.34108e+10
13.5708 0 1.84248 0 0 0 0 5.88765e-08 0 1.58268e+10
14.3411 0 2.17441 0 0 0 0 5.05241e-08 0 1.8678e+10
15.1552 0 2.56613 0 0 0 0 4.33417e-08 0 2.20429e+10
16.0156 0 3.02843 0 0 0 0 3.71677e-08 0 2.6014e+10
16.9247 0 3.574 0 0 0 0 3.18628e-08 0 3.07005e+10
17.8855 0 4.21787 0 0 0 0 2.73063e-08 0 3.62312e+10
18.9008 0 4.97773 0 0 0 0 2.33941e-08 0 4.27584e+10
19.9738 0 5.87448 0 0 0 0 2.00364e-08 0 5.04614e+10
21.1076 0 6.93279 0 0 0 0 1.71555e-08 0 5.95522e+10
22.3058 0 8.18175 0 0 0 0 1.46847e-08 0 7.02807e+10
23.5721 0 9.65571 0 0 0 0 1.25662e-08 0 8.29419e+10
24.9102 0 11.3952 0 0 0 0 1.07504e-08 0 9.78842e+10
26.3243 0 13.4481 0 0 0 0 9.19452e-09 0 1.15518e+11
27.8187 0 15.8708 0 0 0 0 7.86182e-09 0 1.36329e+11
29.3979 0 18.73 0 0 0 0 6.72061e-09 0 1.60889e+11
31.0667 0 22.1042 0 0 0 0 5.74366e-09 0 1.89874e+11
32.8303 0 26.0864 0 0 0 0 4.90756e-09 0 2.2408e+11
34.694 0 30.7859 0 0 0 0 4.19221e-09 0 2.64449e+11
36.6634 0 36.3321 0 0 0 0 3.58032e-09 0 3.1209e+11
38.7447 0 42.8774 0 0 0 0 3.05709e-09 0 3.68314e+11
40.9442 0 50.6018 0 0 0 0 2.60976e-09 0 4.34667e+11
43.2685 0 59.7179 0 0 0 0 2.22743e-09 0 5.12973e+11
45.7247 0 70.4762 0 0 0 0 1.90073e-09 0 6.05386e+11
48.3204 0 83.1727 0 0 0 0 1.62163e-09 0 7.14448e+11
51.0634 0 98.1565 0 0 0 0 1.38326e-09 0 8.43158e+11
53.9621 0 115.84 0 0 0 0 1.1797e-09 0 9.95055e+11
57.0254 0 136.709 0 0 0 0 1.00592e-09 0 1.17432e+12
60.2626 0 161.337 0 0 0 0 8.57591e-10 0 1.38587e+12
63.6835 0 190.402 0 0 0 0 7.3101e-10 0 1.63554e+12
67.2987 0 224.704 0 0 0 0 6.23009e-10 0 1.93019e+12
71.1191 0 265.185 0 0 0 0 5.30879e-10 0 2.27792e+12
75.1563 0 312.958 0 0 0 0 4.52303e-10 0 2.68829e+12
79.4227 0 369.339 0 0 0 0 3.85299e-10 0 3.17259e+12
83.9313 0 435.876 0 0 0 0 3.28173e-10 0 3.74415e+12
88.6959 0 514.4 0 0 0 0 2.79476e-10 0 4.41866e+12
93.7309 0 607.071 0 0 0 0 2.37972e-10 0 5.2147e+12
99.0518 0 716.436 0 0 0 0 2.02605e-10 0 6.15414e+12
104.675 0 845.504 0 0 0 0 1.72471e-10 0 7.26283e+12
110.617 0 997.824 0 0 0 0 1.468e-10 0 8.57124e+12
116.896 0 1177.58 0 0 0 0 1.24935e-10 0 1.01154e+13
123.532 0 1389.73 0 0 0 0 1.06313e-10 0 1.19377e+13
130.545 0 1640.09 0 0 0 0 9.04567e-11 0 1.40883e+13
137.955 0 1935.56 0 0 0 0 7.69563e-11 0 1.66263e+13
145.787 0 2284.26 0 0 0 0 6.54636e-11 0 1.96216e+13
154.063 0 2695.77 0 0 0 0 5.56812e-11 0 2.31565e+13
162.808 0 3181.42 0 0 0 0 4.73556e-11 0 2.73282e+13
172.051 0 3754.56 0 0 0 0 4.02708e-11 0 3.22515e+13
181.818 0 4430.96 0 0 0 0 3.42426e-11 0 3.80616e+13
192.139 0 5229.21 0 0 0 0 2.91139e-11 0 4.49186e+13
203.046 0 6171.26 0 0 0 0 2.4751e-11 0 5.30108e+13
214.572 0 7283.03 0 0 0 0 2.10401e-11 0 6.25608e+13
226.753 0 8595.09 0 0 0 0 1.78839e-11 0 7.38313e+13
239.625 0 10143.5 0 0 0 0 1.51999e-11 0 8.71322e+13
253.228 0 11970.9 0 0 0 0 1.29176e-11 0 1.02829e+14
267.603 0 14127.5 0 0 0 0 1.09771e-11 0 1.21354e+14
282.795 0 16672.6 0 0 0 0 9.3274e-12 0 1.43217e+14
298.848 0 19676.2 0 0 0 0 7.925e-12 0 1.69017e+14
315.813 0 23220.9 0 0 0 0 6.73295e-12 0 1.99466e+14
333.741 0 27404.3 0 0 0 0 5.71979e-12 0 2.35401e+14
352.686 0 32341.2 0 0 0 0 4.85874e-12 0 2.77809e+14
372.707 0 38167.6 0 0 0 0 4.12703e-12 0 3.27857e+14
393.865 0 45043.5 0 0 0 0 3.50528e-12 0 3.86921e+14
416.224 0 53158.3 0 0 0 0 2.97701e-12 0 4.56626e+14
439.852 0 62734.9 0 0 0 0 2.52819e-12 0 5.38888e+14
464.821 0 74036.7 0 0 0 0 2.1469e-12 0 6.35971e+14
491.207 0 87374.6 0 0 0 0 1.82301e-12 0 7.50542e+14
519.092 0 103115 0 0 0 0 1.54789e-12 0 8.85755e+14
548.56 0 121692 0 0 0 0 1.31422e-12 0 1.04533e+15
579.7 0 143615 0 0 0 0 1.11576e-12 0 1.23364e+15
612.608 0 169488 0 0 0 0 9.47223e-13 0 1.45589e+15
647.384 0 200021 0 0 0 0 8.041e-13 0 1.71817e+15
684.134 0 236056 0 0 0 0 6.82568e-13 0 2.0277e+15
722.971 0 278582 0 0 0 0 5.79376e-13 0 2.393e+15
764.012 0 328769 0 0 0 0 4.91762e-13 0 2.8241e+15
