0.0515821
200
1.0655e+09
8589934592
0.0129181 0 1.58924e-09 0 0 0 0 0.00677225 0 13.6515
0.0136515 0 1.87554e-09 0 0 0 0 0.00688819 0 16.1108
0.0144264 0 2.21343e-09 0 0 0 0 0.00699249 0 19.0132
0.0152454 0 2.61218e-09 0 0 0 0 0.00708412 0 22.4385
0.0161108 0 3.08278e-09 0 0 0 0 0.00716212 0 26.4808
0.0170254 0 3.63815e-09 0 0 0 0 0.00722559 0 31.2514
0.0179919 0 4.29357e-09 0 0 0 0 0.00727371 0 36.8815
0.0190132 0 5.06707e-09 0 0 0 0 0.00730578 0 43.5258
0.0200925 0 5.97991e-09 0 0 0 0 0.00732122 0 51.367
0.0212331 0 7.05721e-09 0 0 0 0 0.00731958 0 60.621
0.0224385 0 8.32858e-09 0 0 0 0 0.00730056 0 71.542
0.0237123 0 9.829e-09 0 0 0 0 0.00726401 0 84.4305
0.0250583 0 1.15997e-08 0 0 0 0 0.00720995 0 99.6408
0.0264808 0 1.36894e-08 0 0 0 0 0.00713857 0 117.591
0.0279841 0 1.61556e-08 0 0 0 0 0.00705021 0 138.776
0.0295727 0 1.90661e-08 0 0 0 0 0.00694538 0 163.777
0.0312514 0 2.25009e-08 0 0 0 0 0.00682475 0 193.281
0.0330255 0 2.65545e-08 0 0 0 0 0.00668915 0 228.102
0.0349003 0 3.13384e-08 0 0 0 0 0.00653951 0 269.195
0.0368815 0 3.69841e-08 0 0 0 0 0.00637693 0 317.691
0.0389751 0 4.36469e-08 0 0 0 0 0.00620256 0 374.924
0.0411876 0 5.151e-08 0 0 0 0 0.00601767 0 442.467
0.0435258 0 6.07896e-08 0 0 0 0 0.00582358 0 522.179
0.0459966 0 7.1741e-08 0 0 0 0 0.00562166 0 616.251
0.0486077 0 8.46654e-08 0 0 0 0 0.0054133 0 727.27
0.051367 0 9.99181e-08 0 0 0 0 0.00519989 0 858.29
0.054283 0 1.17919e-07 0 0 0 0 0.0049828 0 1012.91
0.0573645 0 1.39162e-07 0 0 0 0 0.00476339 0 1195.39
0.060621 0 1.64232e-07 0 0 0 0 0.00454293 0 1410.75
0.0640622 0 1.93819e-07 0 0 0 0 0.00432265 0 1664.89
0.0676989 0 2.28736e-07 0 0 0 0 0.00410371 0 1964.83
0.071542 0 2.69944e-07 0 0 0 0 0.00388717 0 2318.8
0.0756032 0 3.18575e-07 0 0 0 0 0.00367401 0 2736.54
0.079895 0 3.75967e-07 0 0 0 0 0.0034651 0 3229.53
0.0844305 0 4.43698e-07 0 0 0 0 0.00326121 0 3811.34
0.0892234 0 5.23632e-07 0 0 0 0 0.00306301 0 4497.96
0.0942883 0 6.17966e-07 0 0 0 0 0.00287109 0 5308.28
0.0996408 0 7.29294e-07 0 0 0 0 0.00268591 0 6264.59
0.105297 0 8.60678e-07 0 0 0 0 0.00250785 0 7393.17
0.111275 0 1.01573e-06 0 0 0 0 0.00233721 0 8725.07
0.117591 0 1.19872e-06 0 0 0 0 0.00217419 0 10296.9
0.124267 0 1.41467e-06 0 0 0 0 0.00201893 0 12151.9
0.131321 0 1.66953e-06 0 0 0 0 0.00187147 0 14341.1
0.138776 0 1.9703e-06 0 0 0 0 0.00173182 0 16924.7
0.146654 0 2.32525e-06 0 0 0 0 0.00159991 0 19973.8
0.154979 0 2.74415e-06 0 0 0 0 0.00147563 0 23572.1
0.163777 0 3.23852e-06 0 0 0 0 0.00135884 0 27818.7
0.173074 0 3.82195e-06 0 0 0 0 0.00124933 0 32830.3
0.182899 0 4.51048e-06 0 0 0 0 0.00114689 0 38744.7
0.193281 0 5.32305e-06 0 0 0 0 0.00105127 0 45724.7
0.204254 0 6.28202e-06 0 0 0 0 0.000962209 0 53962.1
0.215848 0 7.41374e-06 0 0 0 0 0.000879423 0 63683.5
0.228102 0 8.74934e-06 0 0 0 0 0.000802624 0 75156.3
0.24105 0 1.03256e-05 0 0 0 0 0.000731515 0 88695.9
0.254734 0 1.21857e-05 0 0 0 0 0.000665798 0 104675
0.269195 0 1.4381e-05 0 0 0 0 0.000605173 0 123532
0.284476 0 1.69718e-05 0 0 0 0 0.000549345 0 145787
0.300625 0 2.00293e-05 0 0 0 0 0.000498021 0 172051
0.317691 0 2.36377e-05 0 0 0 0 0.000450916 0 203046
0.335725 0 2.78961e-05 0 0 0 0 0.000407755 0 239625
0.354784 0 3.29216e-05 0 0 0 0 0.000368269 0 282795
0.374924 0 3.88525e-05 0 0 0 0 0.000332202 0 333741
0.396207 0.242817 4.58519e-05 6.16498e-07 6 0.236066 5.99359e-07 0.000299307 0.0123585 393865
0.418699 0 5.41123e-05 0 0 0 0 0.00026935 0 464821
0.442467 0 6.38607e-05 0 0 0 0 0.000242108 0 548560
0.467585 0 7.53654e-05 0 0 0 0 0.00021737 0 647384
0.494129 0 8.89427e-05 0 0 0 0 0.000194938 0 764012
0.522179 0 0.000104966 0 0 0 0 0.000174625 0 901651
0.551822 0 0.000123876 0 0 0 0 0.000156255 0 1.06409e+06
0.583147 5.26858 0.000146192 4.19545e-06 12 5.54521 4.41573e-06 0.000139664 0.360475 1.25578e+06
0.616251 0 0.000172529 0 0 0 0 0.0001247 0 1.48202e+06
0.651234 0 0.000203611 0 0 0 0 0.00011122 0 1.74901e+06
0.688203 27.1883 0.000240292 1.3172e-05 8 26.5119 1.28443e-05 9.90935e-05 1.0634 2.06409e+06
0.72727 0 0.000283581 0 0 0 0 8.81969e-05 0 2.43595e+06
0.768555 0 0.000334669 0 0 0 0 7.84179e-05 0 2.87479e+06
0.812184 0.0604341 0.000394961 1.7813e-08 6 0.0617262 1.81939e-08 6.96525e-05 0.00153445 3.39269e+06
0.85829 0 0.000466114 0 0 0 0 6.1805e-05 0 4.00389e+06
0.907013 0.187312 0.000550086 3.96411e-08 24 0.190906 4.04017e-08 5.47875e-05 0.017365 4.7252e+06
0.958501 0.842853 0.000649185 1.51145e-07 24 0.793483 1.42292e-07 4.85194e-05 0.0747634 5.57646e+06
1.01291 0 0.000766138 0 0 0 0 4.29272e-05 0 6.58107e+06
1.07041 0 0.00090416 0 0 0 0 3.79435e-05 0 7.76667e+06
1.13118 1.13817 0.00106705 1.24175e-07 12 1.12419 1.2265e-07 3.3507e-05 0.0444712 9.16586e+06
1.19539 0.32341 0.00125928 2.9898e-08 30 0.316742 2.92816e-08 2.9562e-05 0.0303409 1.08171e+07
1.26325 6.25719 0.00148614 4.90151e-07 24 6.16304 4.82775e-07 2.60578e-05 0.451443 1.27658e+07
1.33496 21.6799 0.00175387 1.43903e-06 24 21.7276 1.44219e-06 2.29484e-05 1.50497 1.50656e+07
1.41075 6.6748 0.00206984 3.75415e-07 32 6.86787 3.86274e-07 2.01923e-05 0.594944 1.77798e+07
1.49083 0.33976 0.00244272 1.61923e-08 48 0.332517 1.58471e-08 1.77518e-05 0.0437833 2.09828e+07
1.57546 0.0804302 0.00288279 3.24801e-09 6 0.0765877 3.09283e-09 1.55929e-05 0.00124981 2.4763e+07
1.66489 0.343373 0.00340213 1.17497e-08 84 0.328958 1.12564e-08 1.3685e-05 0.0721207 2.92241e+07
1.75941 2.69026 0.00401503 7.80036e-08 48 2.71232 7.86433e-08 1.20007e-05 0.311997 3.44889e+07
1.85928 0.171607 0.00473835 4.21617e-09 72 0.174063 4.27651e-09 1.05151e-05 0.0288694 4.07021e+07
1.96483 0.785646 0.00559198 1.63558e-08 54 0.774513 1.6124e-08 9.20606e-06 0.0959382 4.80347e+07
2.07637 9.28274 0.00659939 1.63751e-07 104 9.24807 1.63139e-07 8.05366e-06 2.11457 5.66883e+07
2.19424 0.244658 0.00778828 3.65702e-09 120 0.246871 3.6901e-09 7.04008e-06 0.0623349 6.69008e+07
2.3188 1.85808 0.00919136 2.35339e-08 156 1.7604 2.22968e-08 6.1494e-06 0.597015 7.89532e+07
2.45043 0.579626 0.0108472 6.2207e-09 126 0.578613 6.20983e-09 5.36741e-06 0.146031 9.31768e+07
2.58954 0.405369 0.0128014 3.68641e-09 192 0.411642 3.74346e-09 4.68145e-06 0.151191 1.09963e+08
2.73654 4.64992 0.0151076 3.58312e-08 152 4.81716 3.71199e-08 4.08023e-06 1.33481 1.29773e+08
2.89188 3.7979 0.0178292 2.47982e-08 378 3.88357 2.53576e-08 3.55373e-06 2.63771 1.53152e+08
3.05605 1.34178 0.0210412 7.4237e-09 264 1.31618 7.28209e-09 3.09304e-06 0.633635 1.80743e+08
3.22953 0.139424 0.0248319 6.53638e-10 366 0.136553 6.40179e-10 2.69025e-06 0.0889253 2.13304e+08
3.41286 0.729616 0.0293054 2.89839e-09 428 0.691996 2.74895e-09 2.33837e-06 0.530502 2.51731e+08
3.6066 3.50294 0.0345848 1.17912e-08 486 3.37988 1.1377e-08 2.0312e-06 2.82124 2.97081e+08
3.81134 0.718443 0.0408154 2.04917e-09 600 0.712292 2.03163e-09 1.76327e-06 0.697288 3.50601e+08
4.0277 0.463179 0.0481684 1.11943e-09 738 0.460485 1.11292e-09 1.52972e-06 0.540059 4.13763e+08
4.25634 1.1646 0.056846 2.38499e-09 824 1.21581 2.48987e-09 1.32631e-06 1.48173 4.88304e+08
4.49796 2.7494 0.067087 4.771e-09 954 2.77155 4.80944e-09 1.14926e-06 3.96041 5.76273e+08
4.7533 0.487189 0.0791729 7.16359e-10 1094 0.476049 6.99979e-10 9.95263e-07 0.787427 6.8009e+08
5.02313 0.263242 0.0934361 3.27982e-10 1332 0.262712 3.27322e-10 8.61414e-07 0.507157 8.0261e+08
5.30828 2.17287 0.110269 2.29399e-09 1614 2.19865 2.32121e-09 7.45152e-07 4.96878 9.47202e+08
5.60962 1.02579 0.130134 9.1765e-10 1850 0.989086 8.84816e-10 6.44232e-07 2.63515 1.11784e+09
5.92807 1.34461 0.153578 1.01924e-09 2238 1.28027 9.70468e-10 5.56685e-07 4.09759 1.31923e+09
6.26459 0.549852 0.181246 3.53174e-10 2546 0.559957 3.59664e-10 4.80786e-07 1.87023 1.55689e+09
6.62021 0.11662 0.213898 6.34711e-11 3264 0.116508 6.34106e-11 4.15026e-07 0.499173 1.83737e+09
6.99602 1.33008 0.252432 6.134e-10 3506 1.38 6.3642e-10 3.58083e-07 6.00582 2.16837e+09
7.39317 0.481185 0.297908 1.88036e-10 4506 0.489717 1.9137e-10 3.08803e-07 2.74378 2.55901e+09
7.81286 1.06751 0.351577 3.53478e-10 5018 1.10759 3.66748e-10 2.66181e-07 6.66371 3.02002e+09
8.25637 0.954498 0.414914 2.6781e-10 5852 0.911824 2.55837e-10 2.29336e-07 6.83374 3.56409e+09
8.72507 0.52157 0.489662 1.24001e-10 7362 0.514041 1.22211e-10 1.97503e-07 4.62219 4.20617e+09
9.22037 0.805539 0.577876 1.62279e-10 8306 0.794249 1.60004e-10 1.70014e-07 7.92809 4.96392e+09
9.74378 0.194866 0.681982 3.32639e-11 9698 0.195847 3.34313e-11 1.46289e-07 2.20518 5.85818e+09
10.2969 0.794815 0.804843 1.14965e-10 11816 0.812049 1.17458e-10 1.25822e-07 10.7964 6.91355e+09
10.8814 0.669297 0.949838 8.20313e-11 13682 0.67085 8.22217e-11 1.08175e-07 10.3753 8.15905e+09
11.4992 0.615062 1.12095 6.38765e-11 16152 0.600858 6.24014e-11 9.29669e-08 11.0979 9.62892e+09
12.1519 0.599209 1.3229 5.27306e-11 19472 0.580953 5.1124e-11 7.98658e-08 12.8562 1.13636e+10
12.8418 0.208781 1.56122 1.55682e-11 22670 0.213666 1.59324e-11 6.85852e-08 5.14587 1.34108e+10
13.5708 0.559045 1.84248 3.53228e-11 26224 0.570919 3.6073e-11 5.88765e-08 15.733 1.58268e+10
14.3411 0.45616 2.17441 2.44223e-11 31640 0.465795 2.49382e-11 5.05241e-08 15.2941 1.8678e+10
15.1552 0.498961 2.56613 2.26359e-11 37484 0.505843 2.29481e-11 4.33417e-08 19.5766 2.20429e+10
16.0156 0.38971 3.02843 1.49808e-11 43856 0.400678 1.54024e-11 3.71677e-08 17.6765 2.6014e+10
16.9247 0.684607 3.574 2.22995e-11 51362 0.686888 2.23739e-11 3.18628e-08 35.9463 3.07005e+10
17.8855 0.493484 4.21787 1.36204e-11 61636 0.487145 1.34454e-11 2.73063e-08 30.7441 3.62312e+10
18.9008 0.655257 4.97773 1.53246e-11 72218 0.654613 1.53096e-11 2.33941e-08 47.3073 4.27584e+10
19.9738 0.978688 5.87448 1.93948e-11 84586 0.968016 1.91833e-11 2.00364e-08 81.8773 5.04614e+10
21.1076 1.42101 6.93279 2.38617e-11 100708 1.41285 2.37246e-11 1.71555e-08 140.075 5.95522e+10
22.3058 3.15407 8.18175 4.48782e-11 118712 3.14608 4.47644e-11 1.46847e-08 362.799 7.02807e+10
23.5721 6.73477 9.65571 8.11986e-11 140410 6.66241 8.03262e-11 1.25662e-08 907.286 8.29419e+10
24.9102 9.01954 11.3952 9.2145e-11 164374 8.96713 9.16096e-11 1.07504e-08 1408.91 9.78842e+10
26.3243 11.5805 13.4481 1.00248e-10 194680 11.5571 1.00046e-10 9.19452e-09 2122.6 1.15518e+11
27.8187 9.68661 15.8708 7.10531e-11 230196 9.66427 7.08892e-11 7.86182e-09 2080.45 1.36329e+11
29.3979 8.95181 18.73 5.56396e-11 271156 8.93744 5.55503e-11 6.72061e-09 2244.89 1.60889e+11
31.0667 10.2319 22.1042 5.3888e-11 321076 10.1707 5.35658e-11 5.74366e-09 3012.39 1.89874e+11
32.8303 14.3189 26.0864 6.39009e-11 377436 14.2144 6.34346e-11 4.90756e-09 4914.56 2.2408e+11
34.694 20.4237 30.7859 7.72312e-11 447594 20.31 7.68013e-11 4.19221e-09 8245.83 2.64449e+11
36.6634 23.8187 36.3321 7.63199e-11 525078 23.7327 7.60445e-11 3.58032e-09 11192.8 3.1209e+11
38.7447 24.5532 42.8774 6.66637e-11 621924 24.5177 6.65675e-11 3.05709e-09 13561.9 3.68314e+11
40.9442 25.905 50.6018 5.95974e-11 732630 25.8586 5.94907e-11 2.60976e-09 16730.6 4.34667e+11
43.2685 27.7606 59.7179 5.41172e-11 865596 27.6909 5.39813e-11 2.22743e-09 21030.3 5.12973e+11
45.7247 31.1158 70.4762 5.13982e-11 1.02168e+06 31.0223 5.12438e-11 1.90073e-09 27627.4 6.05386e+11
48.3204 37.0368 83.1727 5.18397e-11 1.20544e+06 36.8783 5.16179e-11 1.62163e-09 38534.9 7.14448e+11
51.0634 47.7332 98.1565 5.66124e-11 1.42103e+06 47.513 5.63512e-11 1.38326e-09 58158.4 8.43158e+11
53.9621 62.2056 115.84 6.25147e-11 1.67997e+06 61.9488 6.22566e-11 1.1797e-09 89024.7 9.95055e+11
57.0254 76.9843 136.709 6.55567e-11 1.98018e+06 76.7396 6.53482e-11 1.00592e-09 129050 1.17432e+12
60.2626 88.8273 161.337 6.40948e-11 2.33957e+06 88.5909 6.39242e-11 8.57591e-10 174855 1.38587e+12
63.6835 99.1925 190.402 6.06481e-11 2.75676e+06 98.9386 6.04928e-11 7.3101e-10 228714 1.63554e+12
67.2987 113.011 224.704 5.85489e-11 3.25638e+06 112.66 5.83671e-11 6.23009e-10 306027 1.93019e+12
71.1191 134.148 265.185 5.88906e-11 3.84387e+06 133.679 5.86845e-11 5.30879e-10 426402 2.27792e+12
75.1563 161.424 312.958 6.00472e-11 4.53277e+06 160.86 5.98372e-11 4.52303e-10 601764 2.68829e+12
79.4227 192.416 369.339 6.06495e-11 5.35083e+06 191.779 6.04487e-11 3.85299e-10 842267 3.17259e+12
83.9313 227.122 435.876 6.06607e-11 6.32174e+06 226.388 6.04646e-11 3.28173e-10 1.16853e+06 3.74415e+12
88.6959 266.35 514.4 6.02783e-11 7.44986e+06 265.488 6.00834e-11 2.79476e-10 1.60681e+06 4.41866e+12
93.7309 313.86 607.071 6.01876e-11 8.79764e+06 312.822 5.99885e-11 2.37972e-10 2.22509e+06 5.2147e+12
99.0518 370.789 716.436 6.02504e-11 1.03827e+07 369.552 6.00493e-11 2.02605e-10 3.08759e+06 6.15414e+12
104.675 438.439 845.504 6.03675e-11 1.22515e+07 436.985 6.01673e-11 1.72471e-10 4.28822e+06 7.26283e+12
110.617 517.312 997.824 6.03543e-11 1.44573e+07 515.617 6.01566e-11 1.468e-10 5.94388e+06 8.57124e+12
116.896 610.706 1177.58 6.03741e-11 1.70664e+07 608.697 6.01754e-11 1.24935e-10 8.24725e+06 1.01154e+13
123.532 721.229 1389.73 6.04161e-11 2.0139e+07 718.832 6.02154e-11 1.06313e-10 1.14447e+07 1.19377e+13
130.545 851.393 1640.09 6.04326e-11 2.37643e+07 848.555 6.02312e-11 9.04567e-11 1.58765e+07 1.40883e+13
137.955 1006.03 1935.56 6.0508e-11 2.80503e+07 1002.69 6.03073e-11 7.69563e-11 2.20549e+07 1.66263e+13
145.787 1188.17 2284.26 6.05542e-11 3.30981e+07 1184.2 6.03519e-11 6.54636e-11 3.06159e+07 1.96216e+13
154.063 1402.54 2695.77 6.0568e-11 3.90634e+07 1397.86 6.03658e-11 5.56812e-11 4.24918e+07 2.31565e+13
162.808 1657.47 3181.42 6.06504e-11 4.61057e+07 1651.96 6.04487e-11 4.73556e-11 5.90496e+07 2.73282e+13
172.051 1959.14 3754.56 6.07459e-11 5.44046e+07 1952.58 6.05423e-11 4.02708e-11 8.20657e+07 3.22515e+13
181.818 2315.85 4430.96 6.08446e-11 6.42064e+07 2308.11 6.06414e-11 3.42426e-11 1.14086e+08 3.80616e+13
192.139 2739.69 5229.21 6.09925e-11 7.57748e+07 2730.46 6.07868e-11 2.91139e-11 1.58745e+08 4.49186e+13
203.046 3240.69 6171.26 6.11326e-11 8.94213e+07 3229.75 6.09263e-11 2.4751e-11 2.20862e+08 5.30108e+13
214.572 3836.45 7283.03 6.13235e-11 1.05538e+08 3823.48 6.11162e-11 2.10401e-11 3.07602e+08 6.25608e+13
226.753 4548.37 8595.09 6.16049e-11 1.24552e+08 4532.94 6.13959e-11 1.78839e-11 4.29045e+08 7.38313e+13
239.625 5395.21 10143.5 6.19198e-11 1.46987e+08 5376.75 6.17079e-11 1.51999e-11 5.98781e+08 8.71322e+13
253.228 6411.03 11970.9 6.23464e-11 1.7347e+08 6388.89 6.21311e-11 1.29176e-11 8.37246e+08 1.02829e+14
267.603 7633.61 14127.5 6.29035e-11 2.04703e+08 7607.02 6.26844e-11 1.09771e-11 1.17303e+09 1.21354e+14
282.795 9115.44 16672.6 6.36479e-11 2.4161e+08 9083.25 6.34232e-11 9.3274e-12 1.64869e+09 1.43217e+14
298.848 10928 19676.2 6.46562e-11 2.85122e+08 10888.7 6.44238e-11 7.925e-12 2.32617e+09 1.69017e+14
315.813 13173.1 23220.9 6.60418e-11 3.36491e+08 13124.7 6.57988e-11 6.73295e-12 3.30056e+09 1.99466e+14
333.741 16000.1 27404.3 6.79697e-11 3.97115e+08 15939.4 6.77116e-11 5.71979e-12 4.71901e+09 2.35401e+14
352.686 19647.8 32341.2 7.07243e-11 4.68637e+08 19569.6 7.04429e-11 4.85874e-12 6.82153e+09 2.77809e+14
372.707 24481.5 38167.6 7.46712e-11 5.53074e+08 24378.4 7.43569e-11 4.12703e-12 1.00069e+10 3.27857e+14
393.865 31154 45043.5 8.05177e-11 6.52716e+08 31012.5 8.0152e-11 3.50528e-12 1.49932e+10 3.86921e+14
416.224 36766.8 53158.3 8.05185e-11 2.2184e+08 38895.8 8.51809e-11 2.97701e-12 6.00005e+09 4.56626e+14
439.852 0 62734.9 0 0 0 0 2.52819e-12 0 5.38888e+14
464.821 0 74036.7 0 0 0 0 2.1469e-12 0 6.35971e+14
491.207 0 87374.6 0 0 0 0 1.82301e-12 0 7.50542e+14
519.092 0 103115 0 0 0 0 1.54789e-12 0 8.85755e+14
548.56 0 121692 0 0 0 0 1.31422e-12 0 1.04533e+15
579.7 0 143615 0 0 0 0 1.11576e-12 0 1.23364e+15
612.608 0 169488 0 0 0 0 9.47223e-13 0 1.45589e+15
647.384 0 200021 0 0 0 0 8.041e-13 0 1.71817e+15
684.134 0 236056 0 0 0 0 6.82568e-13 0 2.0277e+15
722.971 0 278582 0 0 0 0 5.79376e-13 0 2.393e+15
764.012 0 328769 0 0 0 0 4.91762e-13 0 2.8241e+15
0.0515821
200
1.0655e+09
8589934592
0.0129181 8.6243e-06 1.58924e-09 6.31749e-07 6 8.54534e-06 6.25966e-07 0.00677225 0.00055971 13.6515
0.0136515 0 1.87554e-09 0 0 0 0 0.00688819 0 16.1108
0.0144264 0 2.21343e-09 0 0 0 0 0.00699249 0 19.0132
0.0152454 0 2.61218e-09 0 0 0 0 0.00708412 0 22.4385
0.0161108 0 3.08278e-09 0 0 0 0 0.00716212 0 26.4808
0.0170254 0 3.63815e-09 0 0 0 0 0.00722559 0 31.2514
0.0179919 1.91357e-05 4.29357e-09 5.18844e-07 12 1.91111e-05 5.18176e-07 0.00727371 0.000855978 36.8815
0.0190132 0 5.06707e-09 0 0 0 0 0.00730578 0 43.5258
0.0200925 0 5.97991e-09 0 0 0 0 0.00732122 0 51.367
0.0212331 1.80898e-05 7.05721e-09 2.98408e-07 8 1.8074e-05 2.98148e-07 0.00731958 0.000326148 60.621
0.0224385 0 8.32858e-09 0 0 0 0 0.00730056 0 71.542
0.0237123 0 9.829e-09 0 0 0 0 0.00726401 0 84.4305
0.0250583 0.000116575 1.15997e-08 1.16995e-06 6 0.00011652 1.1694e-06 0.00720995 0.000973611 99.6408
0.0264808 0 1.36894e-08 0 0 0 0 0.00713857 0 117.591
0.0279841 7.27314e-05 1.61556e-08 5.24093e-07 24 7.26567e-05 5.23554e-07 0.00705021 0.00178409 138.776
0.0295727 0 1.90661e-08 0 0 0 0 0.00694538 0 163.777
0.0312514 0.000130097 2.25009e-08 6.73096e-07 24 0.000130758 6.76514e-07 0.00682475 0.00236702 193.281
0.0330255 0 2.65545e-08 0 0 0 0 0.00668915 0 228.102
0.0349003 0.000179934 3.13384e-08 6.68417e-07 12 0.000178494 6.63065e-07 0.00653951 0.00122654 269.195
0.0368815 0.000157631 3.69841e-08 4.96176e-07 30 0.000155952 4.90892e-07 0.00637693 0.00233424 317.691
0.0389751 0.000189122 4.36469e-08 5.04427e-07 24 0.000187176 4.99238e-07 0.00620256 0.00195182 374.924
0.0411876 0.000119774 5.151e-08 2.70696e-07 24 0.000118961 2.68857e-07 0.00601767 0.0010796 442.467
0.0435258 0.000252839 6.07896e-08 4.84201e-07 8 0.00025282 4.84163e-07 0.00582358 0.000665159 522.179
0.0459966 0.000325478 7.1741e-08 5.28158e-07 72 0.000322901 5.23977e-07 0.00562166 0.00676444 616.251
0.0486077 0 8.46654e-08 0 0 0 0 0.0054133 0 727.27
0.051367 0.00049327 9.99181e-08 5.74712e-07 54 0.000491719 5.72905e-07 0.00519989 0.00596829 858.29
0.054283 0.000381049 1.17919e-07 3.76191e-07 60 0.000382616 3.77738e-07 0.0049828 0.00452987 1012.91
0.0573645 0.000383054 1.39162e-07 3.20442e-07 96 0.000382072 3.1962e-07 0.00476339 0.0064581 1195.39
0.060621 0.000440657 1.64232e-07 3.12358e-07 24 0.000434687 3.08126e-07 0.00454293 0.00165017 1410.75
0.0640622 0.000777107 1.93819e-07 4.66761e-07 134 0.000777528 4.67013e-07 0.00432265 0.0144693 1664.89
0.0676989 0.000743917 2.28736e-07 3.78616e-07 120 0.000740535 3.76895e-07 0.00410371 0.0110714 1964.83
0.071542 0.000676509 2.69944e-07 2.91749e-07 108 0.000669199 2.88597e-07 0.00388717 0.00810587 2318.8
0.0756032 0.000980491 3.18575e-07 3.58296e-07 174 0.000975441 3.56451e-07 0.00367401 0.0169688 2736.54
0.079895 0.00105244 3.75967e-07 3.2588e-07 168 0.00104249 3.228e-07 0.0034651 0.0157998 3229.53
0.0844305 0.000903239 4.43698e-07 2.36987e-07 168 0.000907744 2.38169e-07 0.00326121 0.0122083 3811.34
0.0892234 0.00101331 5.23632e-07 2.25282e-07 290 0.00100909 2.24344e-07 0.00306301 0.0213292 4497.96
0.0942883 0.00132166 6.17966e-07 2.48981e-07 288 0.00131826 2.4834e-07 0.00287109 0.0249754 5308.28
0.0996408 0.00121438 7.29294e-07 1.93848e-07 366 0.001204 1.92191e-07 0.00268591 0.026415 6264.59
0.105297 0.00130059 8.60678e-07 1.75918e-07 420 0.00129161 1.74703e-07 0.00250785 0.0294616 7393.17
0.111275 0.00137018 1.01573e-06 1.57039e-07 398 0.0013666 1.56629e-07 0.00233721 0.026742 8725.07
0.117591 0.00163069 1.19872e-06 1.58367e-07 624 0.00163398 1.58687e-07 0.00217419 0.0454517 10296.9
0.124267 0.00178968 1.41467e-06 1.47275e-07 642 0.00178766 1.47109e-07 0.00201893 0.0468322 12151.9
0.131321 0.00227943 1.66953e-06 1.58943e-07 800 0.00228022 1.58998e-07 0.00187147 0.0679438 14341.1
0.138776 0.00209085 1.9703e-06 1.23538e-07 858 0.00210099 1.24137e-07 0.00173182 0.0612049 16924.7
0.146654 0.00223608 2.32525e-06 1.11951e-07 1080 0.00225471 1.12884e-07 0.00159991 0.075571 19973.8
0.154979 0.0026323 2.74415e-06 1.1167e-07 1286 0.00265069 1.1245e-07 0.00147563 0.0973194 23572.1
0.163777 0.00250829 3.23852e-06 9.01658e-08 1650 0.00251259 9.03204e-08 0.00135884 0.109486 27818.7
0.173074 0.00295381 3.82195e-06 8.9972e-08 1778 0.00295416 8.99828e-08 0.00124933 0.128045 32830.3
0.182899 0.0029041 4.51048e-06 7.49547e-08 2112 0.00291071 7.51254e-08 0.00114689 0.138029 38744.7
0.193281 0.0034256 5.32305e-06 7.49179e-08 2570 0.00343084 7.50325e-08 0.00105127 0.183149 45724.7
0.204254 0.00375531 6.28202e-06 6.95917e-08 3030 0.00375425 6.95719e-08 0.000962209 0.219144 53962.1
0.215848 0.00374224 7.41374e-06 5.8763e-08 3434 0.00374214 5.87614e-08 0.000879423 0.22946 63683.5
0.228102 0.00391809 8.74934e-06 5.21325e-08 4218 0.00391865 5.21401e-08 0.000802624 0.27397 75156.3
0.24105 0.00443234 1.03256e-05 4.99723e-08 4766 0.00443619 5.00157e-08 0.000731515 0.325582 88695.9
0.254734 0.00470614 1.21857e-05 4.49596e-08 6026 0.00470463 4.49452e-08 0.000665798 0.40692 104675
0.269195 0.00490975 1.4381e-05 3.97447e-08 6480 0.00490794 3.97301e-08 0.000605173 0.425574 123532
0.284476 0.00529019 1.69718e-05 3.62872e-08 8162 0.0053024 3.63709e-08 0.000549345 0.539144 145787
0.300625 0.00534139 2.00293e-05 3.10454e-08 9578 0.00534828 3.10855e-08 0.000498021 0.59707 172051
0.317691 0.00590134 2.36377e-05 2.90641e-08 11234 0.00589757 2.90455e-08 0.000450916 0.724093 203046
0.335725 0.00617986 2.78961e-05 2.57897e-08 13344 0.00617795 2.57817e-08 0.000407755 0.843981 239625
0.354784 0.0063813 3.29216e-05 2.25652e-08 15464 0.00637765 2.25523e-08 0.000368269 0.947534 282795
0.374924 0.00686291 3.88525e-05 2.05636e-08 18458 0.00686115 2.05583e-08 0.000332202 1.14257 333741
0.396207 0.00718299 4.58519e-05 1.82372e-08 22232 0.00717263 1.82109e-08 0.000299307 1.35463 393865
0.418699 0.00775227 5.41123e-05 1.6678e-08 25628 0.0077382 1.66477e-08 0.00026935 1.58687 464821
0.442467 0.00799962 6.38607e-05 1.4583e-08 30320 0.00798679 1.45596e-08 0.000242108 1.82627 548560
0.467585 0.00838243 7.53654e-05 1.29482e-08 35452 0.00837063 1.29299e-08 0.00021737 2.11178 647384
0.494129 0.00865997 8.89427e-05 1.13349e-08 41792 0.00865792 1.13322e-08 0.000194938 2.43003 764012
0.522179 0.00934428 0.000104966 1.03635e-08 49988 0.00934249 1.03615e-08 0.000174625 2.96666 901651
0.551822 0.00972888 0.000123876 9.14295e-09 59110 0.00972413 9.13848e-09 0.000156255 3.45871 1.06409e+06
0.583147 0.0101798 0.000146192 8.10637e-09 69716 0.0101684 8.09724e-09 0.000139664 4.04645 1.25578e+06
0.616251 0.0107556 0.000172529 7.2574e-09 82210 0.0107393 7.2464e-09 0.0001247 4.78453 1.48202e+06
0.651234 0.0112965 0.000203611 6.45881e-09 96722 0.0112774 6.44788e-09 0.00011122 5.61686 1.74901e+06
0.688203 0.0117851 0.000240292 5.70959e-09 113098 0.0117756 5.70495e-09 9.90935e-05 6.51651 2.06409e+06
0.72727 0.0121549 0.000283581 4.98981e-09 135190 0.0121429 4.98487e-09 8.81969e-05 7.64848 2.43595e+06
0.768555 0.0128614 0.000334669 4.47386e-09 158170 0.0128516 4.47044e-09 7.84179e-05 9.02383 2.87479e+06
0.812184 0.0133583 0.000394961 3.93738e-09 188560 0.0133462 3.93382e-09 6.96525e-05 10.6591 3.39269e+06
0.85829 0.0138604 0.000466114 3.46173e-09 220444 0.0138462 3.45819e-09 6.1805e-05 12.3472 4.00389e+06
0.907013 0.01455 0.000550086 3.07924e-09 261388 0.0145384 3.07679e-09 5.47875e-05 14.6909 4.7252e+06
0.958501 0.0150637 0.000649185 2.70129e-09 308244 0.0150479 2.69847e-09 4.85194e-05 17.1613 5.57646e+06
1.01291 0.0157437 0.000766138 2.39227e-09 364396 0.0157256 2.38951e-09 4.29272e-05 20.3073 6.58107e+06
1.07041 0.0163463 0.00090416 2.10467e-09 429162 0.0163284 2.10237e-09 3.79435e-05 23.805 7.76667e+06
1.13118 0.0170429 0.00106705 1.85939e-09 506358 0.0170218 1.85709e-09 3.3507e-05 28.0991 9.16586e+06
1.19539 0.0176581 0.00125928 1.63243e-09 598590 0.0176377 1.63053e-09 2.9562e-05 33.0544 1.08171e+07
1.26325 0.018396 0.00148614 1.44104e-09 704844 0.0183753 1.43941e-09 2.60578e-05 38.9789 1.27658e+07
1.33496 0.0190671 0.00175387 1.2656e-09 834620 0.0190446 1.26411e-09 2.29484e-05 46.0291 1.50656e+07
1.41075 0.0197634 0.00206984 1.11157e-09 981444 0.0197413 1.11033e-09 2.01923e-05 54.0277 1.77798e+07
1.49083 0.0204422 0.00244272 9.74236e-10 1.15998e+06 0.020419 9.73128e-10 1.77518e-05 63.6608 2.09828e+07
1.57546 0.0212396 0.00288279 8.57716e-10 1.36931e+06 0.021215 8.56725e-10 1.55929e-05 75.3216 2.4763e+07
1.66489 0.0220039 0.00340213 7.52936e-10 1.61652e+06 0.021976 7.51982e-10 1.3685e-05 88.9391 2.92241e+07
1.75941 0.0227755 0.00401503 6.60374e-10 1.90601e+06 0.0227477 6.59566e-10 1.20007e-05 104.884 3.44889e+07
1.85928 0.0235597 0.00473835 5.78832e-10 2.24913e+06 0.0235321 5.78153e-10 1.05151e-05 123.809 4.07021e+07
1.96483 0.0244025 0.00559198 5.08018e-10 2.65744e+06 0.024373 5.07403e-10 9.20606e-06 146.646 4.80347e+07
2.07637 0.0252057 0.00659939 4.44637e-10 3.13125e+06 0.0251766 4.44123e-10 8.05366e-06 172.874 5.66883e+07
2.19424 0.0260897 0.00778828 3.89976e-10 3.69915e+06 0.026058 3.89502e-10 7.04008e-06 204.91 6.69008e+07
2.3188 0.0269816 0.00919136 3.41742e-10 4.36472e+06 0.0269491 3.4133e-10 6.1494e-06 242.562 7.89532e+07
2.45043 0.0279176 0.0108472 2.99619e-10 5.14913e+06 0.0278836 2.99255e-10 5.36741e-06 287.434 9.31768e+07
2.58954 0.0288519 0.0128014 2.62378e-10 6.07894e+06 0.0288176 2.62066e-10 4.68145e-06 340.702 1.09963e+08
2.73654 0.029853 0.0151076 2.3004e-10 7.17304e+06 0.0298169 2.29762e-10 4.08023e-06 404.41 1.29773e+08
2.89188 0.0308218 0.0178292 2.0125e-10 8.46557e+06 0.0307836 2.01001e-10 3.55373e-06 479.41 1.53152e+08
3.05605 0.0318612 0.0210412 1.76279e-10 9.98773e+06 0.0318236 1.76071e-10 3.09304e-06 569.224 1.80743e+08
3.22953 0.0329453 0.0248319 1.54452e-10 1.1797e+07 0.0329051 1.54264e-10 2.69025e-06 677.288 2.13304e+08
3.41286 0.0340471 0.0293054 1.35252e-10 1.39144e+07 0.0340039 1.3508e-10 2.33837e-06 804.811 2.51731e+08
3.6066 0.035194 0.0345848 1.18466e-10 1.64163e+07 0.0351498 1.18317e-10 2.0312e-06 957.448 2.97081e+08
3.81134 0.0363949 0.0408154 1.03807e-10 1.93821e+07 0.0363502 1.03679e-10 1.76327e-06 1141.07 3.50601e+08
4.0277 0.0376381 0.0481684 9.09654e-11 2.28754e+07 0.0375899 9.08489e-11 1.52972e-06 1360.29 4.13763e+08
4.25634 0.0389333 0.056846 7.97317e-11 2.69929e+07 0.0388834 7.96295e-11 1.32631e-06 1622.69 4.88304e+08
4.49796 0.0402903 0.067087 6.99154e-11 3.18542e+07 0.0402386 6.98256e-11 1.14926e-06 1937.86 5.76273e+08
4.7533 0.0417117 0.0791729 6.13326e-11 3.75892e+07 0.0416571 6.12523e-11 9.95263e-07 2316.41 6.8009e+08
5.02313 0.0431708 0.0934361 5.37881e-11 4.43706e+07 0.0431141 5.37174e-11 8.61414e-07 2770.57 8.0261e+08
5.30828 0.0447021 0.110269 4.71938e-11 5.23593e+07 0.0446427 4.71311e-11 7.45152e-07 3316.15 9.47202e+08
5.60962 0.0463172 0.130134 4.14344e-11 6.1787e+07 0.0462555 4.13793e-11 6.44232e-07 3973.89 1.11784e+09
5.92807 0.0480095 0.153578 3.63922e-11 7.29346e+07 0.047944 3.63426e-11 5.56685e-07 4767.95 1.31923e+09
6.26459 0.0497771 0.181246 3.19722e-11 8.60651e+07 0.0497084 3.19281e-11 4.80786e-07 5723.3 1.55689e+09
6.62021 0.0516514 0.213898 2.81116e-11 1.01558e+08 0.0515792 2.80724e-11 4.15026e-07 6879.01 1.83737e+09
6.99602 0.0536134 0.252432 2.47252e-11 1.1986e+08 0.0535384 2.46906e-11 3.58083e-07 8276.18 2.16837e+09
7.39317 0.0557102 0.297908 2.17702e-11 1.41457e+08 0.0556314 2.17394e-11 3.08803e-07 9972.5 2.55901e+09
7.81286 0.0579307 0.351577 1.91822e-11 1.66936e+08 0.0578481 1.91549e-11 2.66181e-07 12030.1 3.02002e+09
8.25637 0.0603088 0.414914 1.69213e-11 1.97025e+08 0.0602211 1.68966e-11 2.29336e-07 14537.2 3.56409e+09
8.72507 0.062858 0.489662 1.49442e-11 2.32497e+08 0.0627647 1.49221e-11 1.97503e-07 17592.1 4.20617e+09
9.22037 0.0656551 0.577876 1.32265e-11 2.74404e+08 0.0655553 1.32064e-11 1.70014e-07 21347.6 4.96392e+09
9.74378 0.0688242 0.681982 1.17484e-11 3.2382e+08 0.0687156 1.17298e-11 1.46289e-07 26005.8 5.85818e+09
10.2969 0.0724691 0.804843 1.04822e-11 3.82165e+08 0.0723487 1.04648e-11 1.25822e-07 31837.9 6.91355e+09
10.8814 0.0769287 0.949838 9.42863e-12 4.51027e+08 0.0767918 9.41186e-12 1.08175e-07 39311.7 8.15905e+09
11.4992 0.0826655 1.12095 8.58512e-12 5.32251e+08 0.0825015 8.56809e-12 9.29669e-08 49151.3 9.62892e+09
12.1519 0.0907218 1.3229 7.98354e-12 6.28157e+08 0.09051 7.96491e-12 7.98658e-08 62791.9 1.13636e+10
12.8418 0.0998625 1.56122 7.44644e-12 3.82727e+08 0.103366 7.70766e-12 6.85852e-08 41553.4 1.34108e+10
13.5708 0 1.84248 0 0 0 0 5.88765e-08 0 1.58268e+10
14.3411 0 2.17441 0 0 0 0 5.05241e-08 0 1.8678e+10
15.1552 0 2.56613 0 0 0 0 4.33417e-08 0 2.20429e+10
16.0156 0 3.02843 0 0 0 0 3.71677e-08 0 2.6014e+10
16.9247 0 3.574 0 0 0 0 3.18628e-08 0 3.07005e+10
17.8855 0 4.21787 0 0 0 0 2.73063e-08 0 3.62312e+10
18.9008 0 4.97773 0 0 0 0 2.33941e-08 0 4.27584e+10
19.9738 0 5.87448 0 0 0 0 2.00364e-08 0 5.04614e+10
21.1076 0 6.93279 0 0 0 0 1.71555e-08 0 5.95522e+10
22.3058 0 8.18175 0 0 0 0 1.46847e-08 0 7.02807e+10
23.5721 0 9.65571 0 0 0 0 1.25662e-08 0 8.29419e+10
24.9102 0 11.3952 0 0 0 0 1.07504e-08 0 9.78842e+10
26.3243 0 13.4481 0 0 0 0 9.19452e-09 0 1.15518e+11
27.8187 0 15.8708 0 0 0 0 7.86182e-09 0 1.36329e+11
29.3979 0 18.73 0 0 0 0 6.72061e-09 0 1.60889e+11
31.0667 0 22.1042 0 0 0 0 5.74366e-09 0 1.89874e+11
32.8303 0 26.0864 0 0 0 0 4.90756e-09 0 2.2408e+11
34.694 0 30.7859 0 0 0 0 4.19221e-09 0 2.64449e+11
36.6634 0 36.3321 0 0 0 0 3.58032e-09 0 3.1209e+11
38.7447 0 42.8774 0 0 0 0 3.05709e-09 0 3.68314e+11
40.9442 0 50.6018 0 0 0 0 2.60976e-09 0 4.34667e+11
43.2685 0 59.7179 0 0 0 0 2.22743e-09 0 5.12973e+11
45.7247 0 70.4762 0 0 0 0 1.90073e-09 0 6.05386e+11
48.3204 0 83.1727 0 0 0 0 1.62163e-09 0 7.14448e+11
51.0634 0 98.1565 0 0 0 0 1.38326e-09 0 8.43158e+11
53.9621 0 115.84 0 0 0 0 1.1797e-09 0 9.95055e+11
57.0254 0 136.709 0 0 0 0 1.00592e-09 0 1.17432e+12
60.2626 0 161.337 0 0 0 0 8.57591e-10 0 1.38587e+12
63.6835 0 190.402 0 0 0 0 7.3101e-10 0 1.63554e+12
67.2987 0 224.704 0 0 0 0 6.23009e-10 0 1.93019e+12
71.1191 0 265.185 0 0 0 0 5.30879e-10 0 2.27792e+12
75.1563 0 312.958 0 0 0 0 4.52303e-10 0 2.68829e+12
79.4227 0 369.339 0 0 0 0 3.85299e-10 0 3.17259e+12
83.9313 0 435.876 0 0 0 0 3.28173e-10 0 3.74415e+12
88.6959 0 514.4 0 0 0 0 2.79476e-10 0 4.41866e+12
93.7309 0 607.071 0 0 0 0 2.37972e-10 0 5.2147e+12
99.0518 0 716.436 0 0 0 0 2.02605e-10 0 6.15414e+12
104.675 0 845.504 0 0 0 0 1.72471e-10 0 7.26283e+12
110.617 0 997.824 0 0 0 0 1.468e-10 0 8.57124e+12
116.896 0 1177.58 0 0 0 0 1.24935e-10 0 1.01154e+13
123.532 0 1389.73 0 0 0 0 1.06313e-10 0 1.19377e+13
130.545 0 1640.09 0 0 0 0 9.04567e-11 0 1.40883e+13
137.955 0 1935.56 0 0 0 0 7.69563e-11 0 1.66263e+13
145.787 0 2284.26 0 0 0 0 6.54636e-11 0 1.96216e+13
154.063 0 2695.77 0 0 0 0 5.56812e-11 0 2.31565e+13
162.808 0 3181.42 0 0 0 0 4.73556e-11 0 2.73282e+13
172.051 0 3754.56 0 0 0 0 4.02708e-11 0 3.22515e+13
181.818 0 4430.96 0 0 0 0 3.42426e-11 0 3.80616e+13
192.139 0 5229.21 0 0 0 0 2.91139e-11 0 4.49186e+13
203.046 0 6171.26 0 0 0 0 2.4751e-11 0 5.30108e+13
214.572 0 7283.03 0 0 0 0 2.10401e-11 0 6.25608e+13
226.753 0 8595.09 0 0 0 0 1.78839e-11 0 7.38313e+13
239.625 0 10143.5 0 0 0 0 1.51999e-11 0 8.71322e+13
253.228 0 11970.9 0 0 0 0 1.29176e-11 0 1.02829e+14
267.603 0 14127.5 0 0 0 0 1.09771e-11 0 1.21354e+14
282.795 0 16672.6 0 0 0 0 9.3274e-12 0 1.43217e+14
298.848 0 19676.2 0 0 0 0 7.925e-12 0 1.69017e+14
315.813 0 23220.9 0 0 0 0 6.73295e-12 0 1.99466e+14
333.741 0 27404.3 0 0 0 0 5.71979e-12 0 2.35401e+14
352.686 0 32341.2 0 0 0 0 4.85874e-12 0 2.77809e+14
372.707 0 38167.6 0 0 0 0 4.12703e-12 0 3.27857e+14
393.865 0 45043.5 0 0 0 0 3.50528e-12 0 3.86921e+14
416.224 0 53158.3 0 0 0 0 2.97701e-12 0 4.56626e+14
439.852 0 62734.9 0 0 0 0 2.52819e-12 0 5.38888e+14
464.821 0 74036.7 0 0 0 0 2.1469e-12 0 6.35971e+14
491.207 0 87374.6 0 0 0 0 1.82301e-12 0 7.50542e+14
519.092 0 103115 0 0 0 0 1.54789e-12 0 8.85755e+14
548.56 0 121692 0 0 0 0 1.31422e-12 0 1.04533e+15
579.7 0 143615 0 0 0 0 1.11576e-12 0 1.23364e+15
612.608 0 169488 0 0 0 0 9.47223e-13 0 1.45589e+15
647.384 0 200021 0 0 0 0 8.041e-13 0 1.71817e+15
684.134 0 236056 0 0 0 0 6.82568e-13 0 2.0277e+15
722.971 0 278582 0 0 0 0 5.79376e-13 0 2.393e+15
764.012 0 328769 0 0 0 0 4.91762e-13 0 2.8241e+15
