0.0721946
200
1.0655e+09
8589934592
0.0129181 0 1.58924e-09 0 0 0 0 0.00677225 0 13.6515
0.0136515 0 1.87554e-09 0 0 0 0 0.00688819 0 16.1108
0.0144264 0 2.21343e-09 0 0 0 0 0.00699249 0 19.0132
0.0152454 0 2.61218e-09 0 0 0 0 0.00708412 0 22.4385
0.0161108 0 3.08278e-09 0 0 0 0 0.00716212 0 26.4808
0.0170254 0 3.63815e-09 0 0 0 0 0.00722559 0 31.2514
0.0179919 0 4.29357e-09 0 0 0 0 0.00727371 0 36.8815
0.0190132 0 5.06707e-09 0 0 0 0 0.00730578 0 43.5258
0.0200925 0 5.97991e-09 0 0 0 0 0.00732122 0 51.367
0.0212331 0 7.05721e-09 0 0 0 0 0.00731958 0 60.621
0.0224385 0 8.32858e-09 0 0 0 0 0.00730056 0 71.542
0.0237123 0 9.829e-09 0 0 0 0 0.00726401 0 84.4305
0.0250583 0 1.15997e-08 0 0 0 0 0.00720995 0 99.6408
0.0264808 0 1.36894e-08 0 0 0 0 0.00713857 0 117.591
0.0279841 0 1.61556e-08 0 0 0 0 0.00705021 0 138.776
0.0295727 0 1.90661e-08 0 0 0 0 0.00694538 0 163.777
0.0312514 0 2.25009e-08 0 0 0 0 0.00682475 0 193.281
0.0330255 0 2.65545e-08 0 0 0 0 0.00668915 0 228.102
0.0349003 0 3.13384e-08 0 0 0 0 0.00653951 0 269.195
0.0368815 0 3.69841e-08 0 0 0 0 0.00637693 0 317.691
0.0389751 0 4.36469e-08 0 0 0 0 0.00620256 0 374.924
0.0411876 0 5.151e-08 0 0 0 0 0.00601767 0 442.467
0.0435258 0 6.07896e-08 0 0 0 0 0.00582358 0 522.179
0.0459966 0 7.1741e-08 0 0 0 0 0.00562166 0 616.251
0.0486077 0 8.46654e-08 0 0 0 0 0.0054133 0 727.27
0.051367 0 9.99181e-08 0 0 0 0 0.00519989 0 858.29
0.054283 0 1.17919e-07 0 0 0 0 0.0049828 0 1012.91
0.0573645 0 1.39162e-07 0 0 0 0 0.00476339 0 1195.39
0.060621 0 1.64232e-07 0 0 0 0 0.00454293 0 1410.75
0.0640622 0 1.93819e-07 0 0 0 0 0.00432265 0 1664.89
0.0676989 0 2.28736e-07 0 0 0 0 0.00410371 0 1964.83
0.071542 0 2.69944e-07 0 0 0 0 0.00388717 0 2318.8
0.0756032 0 3.18575e-07 0 0 0 0 0.00367401 0 2736.54
0.079895 0 3.75967e-07 0 0 0 0 0.0034651 0 3229.53
0.0844305 0 4.43698e-07 0 0 0 0 0.00326121 0 3811.34
0.0892234 0 5.23632e-07 0 0 0 0 0.00306301 0 4497.96
0.0942883 0 6.17966e-07 0 0 0 0 0.00287109 0 5308.28
0.0996408 0 7.29294e-07 0 0 0 0 0.00268591 0 6264.59
0.105297 0 8.60678e-07 0 0 0 0 0.00250785 0 7393.17
0.111275 0 1.01573e-06 0 0 0 0 0.00233721 0 8725.07
0.117591 0 1.19872e-06 0 0 0 0 0.00217419 0 10296.9
0.124267 0 1.41467e-06 0 0 0 0 0.00201893 0 12151.9
0.131321 0 1.66953e-06 0 0 0 0 0.00187147 0 14341.1
0.138776 0 1.9703e-06 0 0 0 0 0.00173182 0 16924.7
0.146654 0 2.32525e-06 0 0 0 0 0.00159991 0 19973.8
0.154979 0 2.74415e-06 0 0 0 0 0.00147563 0 23572.1
0.163777 0 3.23852e-06 0 0 0 0 0.00135884 0 27818.7
0.173074 0 3.82195e-06 0 0 0 0 0.00124933 0 32830.3
0.182899 0 4.51048e-06 0 0 0 0 0.00114689 0 38744.7
0.193281 0 5.32305e-06 0 0 0 0 0.00105127 0 45724.7
0.204254 0 6.28202e-06 0 0 0 0 0.000962209 0 53962.1
0.215848 0 7.41374e-06 0 0 0 0 0.000879423 0 63683.5
0.228102 0 8.74934e-06 0 0 0 0 0.000802624 0 75156.3
0.24105 0 1.03256e-05 0 0 0 0 0.000731515 0 88695.9
0.254734 0 1.21857e-05 0 0 0 0 0.000665798 0 104675
0.269195 0 1.4381e-05 0 0 0 0 0.000605173 0 123532
0.284476 0 1.69718e-05 0 0 0 0 0.000549345 0 145787
0.300625 0 2.00293e-05 0 0 0 0 0.000498021 0 172051
0.317691 0 2.36377e-05 0 0 0 0 0.000450916 0 203046
0.335725 0 2.78961e-05 0 0 0 0 0.000407755 0 239625
0.354784 0 3.29216e-05 0 0 0 0 0.000368269 0 282795
0.374924 0 3.88525e-05 0 0 0 0 0.000332202 0 333741
0.396207 0.515154 4.58519e-05 1.30794e-06 6 0.500832 1.27158e-06 0.000299307 0.0262195 393865
0.418699 0 5.41123e-05 0 0 0 0 0.00026935 0 464821
0.442467 0 6.38607e-05 0 0 0 0 0.000242108 0 548560
0.467585 0 7.53654e-05 0 0 0 0 0.00021737 0 647384
0.494129 0 8.89427e-05 0 0 0 0 0.000194938 0 764012
0.522179 0 0.000104966 0 0 0 0 0.000174625 0 901651
0.551822 0 0.000123876 0 0 0 0 0.000156255 0 1.06409e+06
0.583147 4.27855 0.000146192 3.40707e-06 12 4.50319 3.58596e-06 0.000139664 0.292737 1.25578e+06
0.616251 0 0.000172529 0 0 0 0 0.0001247 0 1.48202e+06
0.651234 0 0.000203611 0 0 0 0 0.00011122 0 1.74901e+06
0.688203 22.3687 0.000240292 1.08371e-05 8 21.8122 1.05675e-05 9.90935e-05 0.874897 2.06409e+06
0.72727 0 0.000283581 0 0 0 0 8.81969e-05 0 2.43595e+06
0.768555 0 0.000334669 0 0 0 0 7.84179e-05 0 2.87479e+06
0.812184 0.0563664 0.000394961 1.66141e-08 6 0.0575715 1.69693e-08 6.96525e-05 0.00143117 3.39269e+06
0.85829 0 0.000466114 0 0 0 0 6.1805e-05 0 4.00389e+06
0.907013 0.185453 0.000550086 3.92476e-08 24 0.189011 4.00006e-08 5.47875e-05 0.0171926 4.7252e+06
0.958501 0.799473 0.000649185 1.43366e-07 24 0.752645 1.34968e-07 4.85194e-05 0.0709154 5.57646e+06
1.01291 0 0.000766138 0 0 0 0 4.29272e-05 0 6.58107e+06
1.07041 0 0.00090416 0 0 0 0 3.79435e-05 0 7.76667e+06
1.13118 1.17144 0.00106705 1.27804e-07 12 1.15705 1.26234e-07 3.3507e-05 0.0457711 9.16586e+06
1.19539 0.688202 0.00125928 6.36216e-08 30 0.674014 6.231e-08 2.9562e-05 0.0645641 1.08171e+07
1.26325 5.19586 0.00148614 4.07012e-07 24 5.11767 4.00888e-07 2.60578e-05 0.37487 1.27658e+07
1.33496 17.5121 0.00175387 1.16239e-06 24 17.5506 1.16494e-06 2.29484e-05 1.21565 1.50656e+07
1.41075 5.5795 0.00206984 3.13812e-07 32 5.7402 3.2285e-07 2.01923e-05 0.497317 1.77798e+07
1.49083 0.363388 0.00244272 1.73184e-08 48 0.355641 1.69491e-08 1.77518e-05 0.0468281 2.09828e+07
1.57546 0.00902323 0.00288279 3.64384e-10 6 0.00859214 3.46976e-10 1.55929e-05 0.000140212 2.4763e+07
1.66489 0.327913 0.00340213 1.12207e-08 84 0.318284 1.08912e-08 1.3685e-05 0.0688735 2.92241e+07
1.75941 1.90648 0.00401503 5.52782e-08 48 1.92232 5.57373e-08 1.20007e-05 0.2211 3.44889e+07
1.85928 0.166905 0.00473835 4.10066e-09 72 0.167819 4.1231e-09 1.05151e-05 0.0280784 4.07021e+07
1.96483 0.757918 0.00559198 1.57786e-08 54 0.740302 1.54118e-08 9.20606e-06 0.0925523 4.80347e+07
2.07637 7.451 0.00659939 1.31438e-07 104 7.42663 1.31008e-07 8.05366e-06 1.69731 5.66883e+07
2.19424 0.212192 0.00778828 3.17174e-09 120 0.213271 3.18786e-09 7.04008e-06 0.0540631 6.69008e+07
2.3188 1.4233 0.00919136 1.80271e-08 156 1.35317 1.71389e-08 6.1494e-06 0.457318 7.89532e+07
2.45043 0.529303 0.0108472 5.68062e-09 126 0.526874 5.65456e-09 5.36741e-06 0.133353 9.31768e+07
2.58954 0.406085 0.0128014 3.69293e-09 192 0.413792 3.76302e-09 4.68145e-06 0.151458 1.09963e+08
2.73654 3.71119 0.0151076 2.85976e-08 152 3.85335 2.9693e-08 4.08023e-06 1.06534 1.29773e+08
2.89188 3.18263 0.0178292 2.07809e-08 378 3.25459 2.12507e-08 3.55373e-06 2.2104 1.53152e+08
3.05605 1.04142 0.0210412 5.76192e-09 264 1.02384 5.66464e-09 3.09304e-06 0.491797 1.80743e+08
3.22953 0.146572 0.0248319 6.87149e-10 366 0.144355 6.76755e-10 2.69025e-06 0.0934844 2.13304e+08
3.41286 0.591665 0.0293054 2.35038e-09 428 0.562384 2.23407e-09 2.33837e-06 0.430198 2.51731e+08
3.6066 2.89669 0.0345848 9.75049e-09 486 2.79572 9.4106e-09 2.0312e-06 2.33297 2.97081e+08
3.81134 0.602997 0.0408154 1.71989e-09 600 0.599096 1.70877e-09 1.76327e-06 0.585241 3.50601e+08
4.0277 0.409781 0.0481684 9.90376e-10 738 0.403342 9.74815e-10 1.52972e-06 0.477797 4.13763e+08
4.25634 0.993916 0.056846 2.03545e-09 824 1.0356 2.1208e-09 1.32631e-06 1.26457 4.88304e+08
4.49796 2.30415 0.067087 3.99836e-09 954 2.32416 4.03309e-09 1.14926e-06 3.31905 5.76273e+08
4.7533 0.413104 0.0791729 6.07426e-10 1094 0.404925 5.95399e-10 9.95263e-07 0.667687 6.8009e+08
5.02313 0.235499 0.0934361 2.93416e-10 1332 0.234471 2.92136e-10 8.61414e-07 0.453707 8.0261e+08
5.30828 1.75781 0.110269 1.85579e-09 1614 1.77988 1.87909e-09 7.45152e-07 4.01963 9.47202e+08
5.60962 0.826354 0.130134 7.3924e-10 1850 0.795478 7.11619e-10 6.44232e-07 2.12283 1.11784e+09
5.92807 1.16277 0.153578 8.814e-10 2238 1.1097 8.41178e-10 5.56685e-07 3.54342 1.31923e+09
6.26459 0.480394 0.181246 3.0856e-10 2546 0.488625 3.13847e-10 4.80786e-07 1.63398 1.55689e+09
6.62021 0.125535 0.213898 6.83232e-11 3264 0.125525 6.83178e-11 4.15026e-07 0.537333 1.83737e+09
6.99602 1.12754 0.252432 5.19995e-10 3506 1.16949 5.39338e-10 3.58083e-07 5.09129 2.16837e+09
7.39317 0.440755 0.297908 1.72236e-10 4506 0.447882 1.75022e-10 3.08803e-07 2.51324 2.55901e+09
7.81286 0.904073 0.351577 2.9936e-10 5018 0.937484 3.10423e-10 2.66181e-07 5.64348 3.02002e+09
8.25637 0.809908 0.414914 2.27241e-10 5852 0.774712 2.17366e-10 2.29336e-07 5.79855 3.56409e+09
8.72507 0.472264 0.489662 1.12279e-10 7362 0.465156 1.10589e-10 1.97503e-07 4.18524 4.20617e+09
9.22037 0.703762 0.577876 1.41775e-10 8306 0.69452 1.39914e-10 1.70014e-07 6.9264 4.96392e+09
9.74378 0.194033 0.681982 3.31217e-11 9698 0.194822 3.32563e-11 1.46289e-07 2.19575 5.85818e+09
10.2969 0.703124 0.804843 1.01702e-10 11816 0.717446 1.03774e-10 1.25822e-07 9.55088 6.91355e+09
10.8814 0.558898 0.949838 6.85004e-11 13682 0.560039 6.86402e-11 1.08175e-07 8.66391 8.15905e+09
11.4992 0.543604 1.12095 5.64554e-11 16152 0.532084 5.52589e-11 9.29669e-08 9.80852 9.62892e+09
12.1519 0.54336 1.3229 4.78158e-11 19472 0.528016 4.64655e-11 7.98658e-08 11.6579 1.13636e+10
12.8418 0.226372 1.56122 1.68798e-11 22670 0.230138 1.71606e-11 6.85852e-08 5.57942 1.34108e+10
13.5708 0.527056 1.84248 3.33016e-11 26224 0.53636 3.38894e-11 5.88765e-08 14.8327 1.58268e+10
14.3411 0.429397 2.17441 2.29894e-11 31640 0.437007 2.33969e-11 5.05241e-08 14.3968 1.8678e+10
15.1552 0.483341 2.56613 2.19273e-11 37484 0.488243 2.21497e-11 4.33417e-08 18.9638 2.20429e+10
16.0156 0.413753 3.02843 1.5905e-11 43856 0.422327 1.62346e-11 3.71677e-08 18.7671 2.6014e+10
16.9247 0.697428 3.574 2.27172e-11 51362 0.697681 2.27254e-11 3.18628e-08 36.6195 3.07005e+10
17.8855 0.619835 4.21787 1.71078e-11 61636 0.61301 1.69194e-11 2.73063e-08 38.6158 3.62312e+10
18.9008 0.908472 4.97773 2.12466e-11 72218 0.903094 2.11208e-11 2.33941e-08 65.5886 4.27584e+10
19.9738 1.42597 5.87448 2.82586e-11 84586 1.4114 2.79699e-11 2.00364e-08 119.297 5.04614e+10
21.1076 2.22713 6.93279 3.7398e-11 100708 2.21874 3.72571e-11 1.71555e-08 219.537 5.95522e+10
22.3058 4.03267 8.18175 5.73794e-11 118712 4.02698 5.72985e-11 1.46847e-08 463.86 7.02807e+10
23.5721 6.14073 9.65571 7.40365e-11 140410 6.12064 7.37943e-11 1.25662e-08 827.259 8.29419e+10
24.9102 7.52362 11.3952 7.68625e-11 164374 7.47724 7.63887e-11 1.07504e-08 1175.23 9.78842e+10
26.3243 8.43145 13.4481 7.29881e-11 194680 8.41266 7.28254e-11 9.19452e-09 1545.41 1.15518e+11
27.8187 8.98806 15.8708 6.59291e-11 230196 8.96172 6.57359e-11 7.86182e-09 1930.42 1.36329e+11
29.3979 10.4002 18.73 6.46418e-11 271156 10.3633 6.44129e-11 6.72061e-09 2608.1 1.60889e+11
31.0667 12.5326 22.1042 6.60048e-11 321076 12.4728 6.56897e-11 5.74366e-09 3689.73 1.89874e+11
32.8303 15.056 26.0864 6.71901e-11 377436 14.9924 6.69063e-11 4.90756e-09 5167.53 2.2408e+11
34.694 18.0631 30.7859 6.83046e-11 447594 18.0057 6.80878e-11 4.19221e-09 7292.76 2.64449e+11
36.6634 20.7238 36.3321 6.64034e-11 525078 20.6582 6.61931e-11 3.58032e-09 9738.49 3.1209e+11
38.7447 22.787 42.8774 6.18685e-11 621924 22.7303 6.17144e-11 3.05709e-09 12586.3 3.68314e+11
40.9442 25.7111 50.6018 5.91512e-11 732630 25.6433 5.89954e-11 2.60976e-09 16605.3 4.34667e+11
43.2685 29.3536 59.7179 5.72225e-11 865596 29.2692 5.7058e-11 2.22743e-09 22237.1 5.12973e+11
45.7247 34.3748 70.4762 5.67816e-11 1.02168e+06 34.2545 5.65829e-11 1.90073e-09 30521.1 6.05386e+11
48.3204 41.7264 83.1727 5.84037e-11 1.20544e+06 41.5633 5.81754e-11 1.62163e-09 43414.2 7.14448e+11
51.0634 50.6373 98.1565 6.00567e-11 1.42103e+06 50.452 5.9837e-11 1.38326e-09 61696.7 8.43158e+11
53.9621 61.0614 115.84 6.13648e-11 1.67997e+06 60.8533 6.11557e-11 1.1797e-09 87387.2 9.95055e+11
57.0254 71.8695 136.709 6.12011e-11 1.98018e+06 71.6385 6.10043e-11 1.00592e-09 120476 1.17432e+12
60.2626 84.3383 161.337 6.08557e-11 2.33957e+06 84.0708 6.06627e-11 8.57591e-10 166019 1.38587e+12
63.6835 98.3726 190.402 6.01468e-11 2.75676e+06 98.057 5.99538e-11 7.3101e-10 226824 1.63554e+12
67.2987 115.835 224.704 6.00121e-11 3.25638e+06 115.456 5.98158e-11 6.23009e-10 313675 1.93019e+12
71.1191 136.992 265.185 6.0139e-11 3.84387e+06 136.534 5.99381e-11 5.30879e-10 435441 2.27792e+12
75.1563 162.198 312.958 6.0335e-11 4.53277e+06 161.667 6.01375e-11 4.52303e-10 604648 2.68829e+12
79.4227 191.323 369.339 6.0305e-11 5.35083e+06 190.7 6.01086e-11 3.85299e-10 837483 3.17259e+12
83.9313 225.55 435.876 6.02407e-11 6.32174e+06 224.803 6.00412e-11 3.28173e-10 1.16044e+06 3.74415e+12
88.6959 266.43 514.4 6.02965e-11 7.44986e+06 265.55 6.00973e-11 2.79476e-10 1.6073e+06 4.41866e+12
93.7309 314.662 607.071 6.03413e-11 8.79764e+06 313.633 6.0144e-11 2.37972e-10 2.23077e+06 5.2147e+12
99.0518 371.259 716.436 6.03267e-11 1.03827e+07 370.031 6.01271e-11 2.02605e-10 3.0915e+06 6.15414e+12
104.675 438.056 845.504 6.03148e-11 1.22515e+07 436.607 6.01153e-11 1.72471e-10 4.28448e+06 7.26283e+12
110.617 517.077 997.824 6.0327e-11 1.44573e+07 515.384 6.01295e-11 1.468e-10 5.94119e+06 8.57124e+12
116.896 610.591 1177.58 6.03627e-11 1.70664e+07 608.566 6.01625e-11 1.24935e-10 8.24569e+06 1.01154e+13
123.532 721.118 1389.73 6.04068e-11 2.0139e+07 718.718 6.02058e-11 1.06313e-10 1.14429e+07 1.19377e+13
130.545 851.088 1640.09 6.0411e-11 2.37643e+07 848.273 6.02112e-11 9.04567e-11 1.58709e+07 1.40883e+13
137.955 1005.3 1935.56 6.04645e-11 2.80503e+07 1001.96 6.02631e-11 7.69563e-11 2.20391e+07 1.66263e+13
145.787 1187.04 2284.26 6.04966e-11 3.30981e+07 1183.09 6.02954e-11 6.54636e-11 3.05868e+07 1.96216e+13
154.063 1402.68 2695.77 6.05739e-11 3.90634e+07 1398.01 6.03721e-11 5.56812e-11 4.24959e+07 2.31565e+13
162.808 1657.33 3181.42 6.06453e-11 4.61057e+07 1651.8 6.04431e-11 4.73556e-11 5.90446e+07 2.73282e+13
172.051 1958.16 3754.56 6.07154e-11 5.44046e+07 1951.58 6.05114e-11 4.02708e-11 8.20245e+07 3.22515e+13
181.818 2314.44 4430.96 6.08078e-11 6.42064e+07 2306.68 6.06037e-11 3.42426e-11 1.14017e+08 3.80616e+13
192.139 2736.88 5229.21 6.09297e-11 7.57748e+07 2727.64 6.0724e-11 2.91139e-11 1.58582e+08 4.49186e+13
203.046 3238.78 6171.26 6.10967e-11 8.94213e+07 3227.88 6.0891e-11 2.4751e-11 2.20732e+08 5.30108e+13
214.572 3834.2 7283.03 6.12876e-11 1.05538e+08 3821.23 6.10803e-11 2.10401e-11 3.07423e+08 6.25608e+13
226.753 4544.03 8595.09 6.15461e-11 1.24552e+08 4528.59 6.13371e-11 1.78839e-11 4.28635e+08 7.38313e+13
239.625 5390.11 10143.5 6.18613e-11 1.46987e+08 5371.69 6.16499e-11 1.51999e-11 5.98215e+08 8.71322e+13
253.228 6403.95 11970.9 6.22775e-11 1.7347e+08 6381.84 6.20625e-11 1.29176e-11 8.36321e+08 1.02829e+14
267.603 7625.56 14127.5 6.28372e-11 2.04703e+08 7598.94 6.26178e-11 1.09771e-11 1.17179e+09 1.21354e+14
282.795 9113.93 16672.6 6.36374e-11 2.4161e+08 9081.85 6.34134e-11 9.3274e-12 1.64841e+09 1.43217e+14
298.848 10912.6 19676.2 6.45651e-11 2.85122e+08 10873.4 6.43333e-11 7.925e-12 2.3229e+09 1.69017e+14
315.813 13158.4 23220.9 6.59681e-11 3.36491e+08 13110.5 6.57279e-11 6.73295e-12 3.29687e+09 1.99466e+14
333.741 15973.8 27404.3 6.7858e-11 3.97115e+08 15913.1 6.75999e-11 5.71979e-12 4.71126e+09 2.35401e+14
352.686 19606.4 32341.2 7.05751e-11 4.68637e+08 19528.5 7.02947e-11 4.85874e-12 6.80714e+09 2.77809e+14
372.707 24424.2 38167.6 7.44966e-11 5.53074e+08 24321.4 7.41831e-11 4.12703e-12 9.98348e+09 3.27857e+14
393.865 31073.1 45043.5 8.03085e-11 6.52716e+08 30932.1 7.99441e-11 3.50528e-12 1.49542e+10 3.86921e+14
416.224 36662.2 53158.3 8.02894e-11 2.2184e+08 38785.3 8.49389e-11 2.97701e-12 5.98298e+09 4.56626e+14
439.852 0 62734.9 0 0 0 0 2.52819e-12 0 5.38888e+14
464.821 0 74036.7 0 0 0 0 2.1469e-12 0 6.35971e+14
491.207 0 87374.6 0 0 0 0 1.82301e-12 0 7.50542e+14
519.092 0 103115 0 0 0 0 1.54789e-12 0 8.85755e+14
548.56 0 121692 0 0 0 0 1.31422e-12 0 1.04533e+15
579.7 0 143615 0 0 0 0 1.11576e-12 0 1.23364e+15
612.608 0 169488 0 0 0 0 9.47223e-13 0 1.45589e+15
647.384 0 200021 0 0 0 0 8.041e-13 0 1.71817e+15
684.134 0 236056 0 0 0 0 6.82568e-13 0 2.0277e+15
722.971 0 278582 0 0 0 0 5.79376e-13 0 2.393e+15
764.012 0 328769 0 0 0 0 4.91762e-13 0 2.8241e+15
0.0721946
200
1.0655e+09
8589934592
0.0129181 1.6893e-05 1.58924e-09 1.23745e-06 6 1.67383e-05 1.22612e-06 0.00677225 0.00109634 13.6515
0.0136515 0 1.87554e-09 0 0 0 0 0.00688819 0 16.1108
0.0144264 0 2.21343e-09 0 0 0 0 0.00699249 0 19.0132
0.0152454 0 2.61218e-09 0 0 0 0 0.00708412 0 22.4385
0.0161108 0 3.08278e-09 0 0 0 0 0.00716212 0 26.4808
0.0170254 0 3.63815e-09 0 0 0 0 0.00722559 0 31.2514
0.0179919 3.74908e-05 4.29357e-09 1.01652e-06 12 3.74425e-05 1.01521e-06 0.00727371 0.00167703 36.8815
0.0190132 0 5.06707e-09 0 0 0 0 0.00730578 0 43.5258
0.0200925 0 5.97991e-09 0 0 0 0 0.00732122 0 51.367
0.0212331 3.54454e-05 7.05721e-09 5.84705e-07 8 3.54145e-05 5.84196e-07 0.00731958 0.000639059 60.621
0.0224385 0 8.32858e-09 0 0 0 0 0.00730056 0 71.542
0.0237123 0 9.829e-09 0 0 0 0 0.00726401 0 84.4305
0.0250583 0.000228292 1.15997e-08 2.29115e-06 6 0.000228185 2.29007e-06 0.00720995 0.00190666 99.6408
0.0264808 0 1.36894e-08 0 0 0 0 0.00713857 0 117.591
0.0279841 0.000142358 1.61556e-08 1.02581e-06 24 0.000142212 1.02476e-06 0.00705021 0.00349202 138.776
0.0295727 0 1.90661e-08 0 0 0 0 0.00694538 0 163.777
0.0312514 0.000254621 2.25009e-08 1.31736e-06 24 0.000255914 1.32405e-06 0.00682475 0.00463264 193.281
0.0330255 0 2.65545e-08 0 0 0 0 0.00668915 0 228.102
0.0349003 0.00035324 3.13384e-08 1.31221e-06 12 0.000350411 1.3017e-06 0.00653951 0.0024079 269.195
0.0368815 0.000308547 3.69841e-08 9.71219e-07 30 0.000305262 9.60877e-07 0.00637693 0.00456906 317.691
0.0389751 0.000369594 4.36469e-08 9.85784e-07 24 0.000365792 9.75643e-07 0.00620256 0.00381436 374.924
0.0411876 0.000234102 5.151e-08 5.29083e-07 24 0.000232512 5.25489e-07 0.00601767 0.00211012 442.467
0.0435258 0.000496863 6.07896e-08 9.51519e-07 8 0.000496825 9.51446e-07 0.00582358 0.00130713 522.179
0.0459966 0.000638608 7.1741e-08 1.03628e-06 72 0.000633554 1.02808e-06 0.00562166 0.0132722 616.251
0.0486077 0 8.46654e-08 0 0 0 0 0.0054133 0 727.27
0.051367 0.000964828 9.99181e-08 1.12413e-06 54 0.000961789 1.12059e-06 0.00519989 0.0116739 858.29
0.054283 0.000746405 1.17919e-07 7.36889e-07 60 0.000749485 7.3993e-07 0.0049828 0.00887319 1012.91
0.0573645 0.000748516 1.39162e-07 6.26168e-07 96 0.000746596 6.24562e-07 0.00476339 0.0126196 1195.39
0.060621 0.000861841 1.64232e-07 6.10912e-07 24 0.000850164 6.02635e-07 0.00454293 0.00322741 1410.75
0.0640622 0.00151976 1.93819e-07 9.12824e-07 134 0.00152058 9.13319e-07 0.00432265 0.0282971 1664.89
0.0676989 0.00145548 2.28736e-07 7.40767e-07 120 0.00144885 7.37394e-07 0.00410371 0.0216614 1964.83
0.071542 0.00132511 2.69944e-07 5.71465e-07 108 0.00131079 5.65288e-07 0.00388717 0.0158774 2318.8
0.0756032 0.00192179 3.18575e-07 7.0227e-07 174 0.00191186 6.98643e-07 0.00367401 0.0332593 2736.54
0.079895 0.00206091 3.75967e-07 6.38145e-07 168 0.00204144 6.32116e-07 0.0034651 0.0309395 3229.53
0.0844305 0.00176724 4.43698e-07 4.63679e-07 168 0.00177606 4.65993e-07 0.00326121 0.0238863 3811.34
0.0892234 0.00198364 5.23632e-07 4.41007e-07 290 0.00197537 4.39169e-07 0.00306301 0.0417537 4497.96
0.0942883 0.00258514 6.17966e-07 4.87001e-07 288 0.00257852 4.85753e-07 0.00287109 0.0488513 5308.28
0.0996408 0.00236979 7.29294e-07 3.78283e-07 366 0.00234959 3.75059e-07 0.00268591 0.0515474 6264.59
0.105297 0.00254504 8.60678e-07 3.44242e-07 420 0.00252747 3.41865e-07 0.00250785 0.0576516 7393.17
0.111275 0.00268397 1.01573e-06 3.07616e-07 398 0.00267688 3.06803e-07 0.00233721 0.0523835 8725.07
0.117591 0.00319439 1.19872e-06 3.10228e-07 624 0.00320085 3.10856e-07 0.00217419 0.0890363 10296.9
0.124267 0.0035125 1.41467e-06 2.89049e-07 642 0.00350843 2.88714e-07 0.00201893 0.0919149 12151.9
0.131321 0.00447142 1.66953e-06 3.1179e-07 800 0.00447298 3.11899e-07 0.00187147 0.133282 14341.1
0.138776 0.00408961 1.9703e-06 2.41635e-07 858 0.00410943 2.42806e-07 0.00173182 0.119714 16924.7
0.146654 0.00438324 2.32525e-06 2.1945e-07 1080 0.00441979 2.2128e-07 0.00159991 0.148137 19973.8
0.154979 0.00516763 2.74415e-06 2.19227e-07 1286 0.00520365 2.20755e-07 0.00147563 0.191054 23572.1
0.163777 0.00491467 3.23852e-06 1.76668e-07 1650 0.00492316 1.76973e-07 0.00135884 0.214523 27818.7
0.173074 0.00578938 3.82195e-06 1.76343e-07 1778 0.00579005 1.76363e-07 0.00124933 0.250964 32830.3
0.182899 0.00568186 4.51048e-06 1.46649e-07 2112 0.00569493 1.46986e-07 0.00114689 0.270053 38744.7
0.193281 0.00669923 5.32305e-06 1.46512e-07 2570 0.00670939 1.46735e-07 0.00105127 0.358173 45724.7
0.204254 0.00736721 6.28202e-06 1.36526e-07 3030 0.00736486 1.36482e-07 0.000962209 0.42992 53962.1
0.215848 0.00733521 7.41374e-06 1.15182e-07 3434 0.00733474 1.15175e-07 0.000879423 0.449767 63683.5
0.228102 0.00767601 8.74934e-06 1.02134e-07 4218 0.00767736 1.02152e-07 0.000802624 0.536741 75156.3
0.24105 0.0086815 1.03256e-05 9.78794e-08 4766 0.00868927 9.7967e-08 0.000731515 0.637708 88695.9
0.254734 0.00923193 1.21857e-05 8.81964e-08 6026 0.00922897 8.81681e-08 0.000665798 0.798247 104675
0.269195 0.00963631 1.4381e-05 7.80065e-08 6480 0.00963252 7.79758e-08 0.000605173 0.835268 123532
0.284476 0.0104001 1.69718e-05 7.13381e-08 8162 0.0104242 7.1503e-08 0.000549345 1.05992 145787
0.300625 0.0104892 2.00293e-05 6.09655e-08 9578 0.0105027 6.10441e-08 0.000498021 1.1725 172051
0.317691 0.0116104 2.36377e-05 5.7181e-08 11234 0.0116027 5.71432e-08 0.000450916 1.42459 203046
0.335725 0.0121554 2.78961e-05 5.07267e-08 13344 0.0121513 5.07095e-08 0.000407755 1.66006 239625
0.354784 0.012561 3.29216e-05 4.44174e-08 15464 0.0125538 4.43918e-08 0.000368269 1.86513 282795
0.374924 0.0135039 3.88525e-05 4.04622e-08 18458 0.0135008 4.0453e-08 0.000332202 2.24819 333741
0.396207 0.0141369 4.58519e-05 3.58928e-08 22232 0.0141165 3.58409e-08 0.000299307 2.66605 393865
0.418699 0.0152688 5.41123e-05 3.28487e-08 25628 0.0152401 3.27871e-08 0.00026935 3.12548 464821
0.442467 0.015785 6.38607e-05 2.87754e-08 30320 0.0157594 2.87288e-08 0.000242108 3.60365 548560
0.467585 0.0165469 7.53654e-05 2.55596e-08 35452 0.0165234 2.55233e-08 0.00021737 4.16865 647384
0.494129 0.0170897 8.89427e-05 2.23684e-08 41792 0.017085 2.23622e-08 0.000194938 4.79546 764012
0.522179 0.0184618 0.000104966 2.04756e-08 49988 0.0184578 2.04711e-08 0.000174625 5.86133 901651
0.551822 0.0192363 0.000123876 1.80777e-08 59110 0.0192259 1.8068e-08 0.000156255 6.83867 1.06409e+06
0.583147 0.020164 0.000146192 1.60569e-08 69716 0.0201411 1.60387e-08 0.000139664 8.01512 1.25578e+06
0.616251 0.0212868 0.000172529 1.43634e-08 82210 0.0212543 1.43415e-08 0.0001247 9.46924 1.48202e+06
0.651234 0.0223937 0.000203611 1.28037e-08 96722 0.0223552 1.27817e-08 0.00011122 11.1346 1.74901e+06
0.688203 0.0234052 0.000240292 1.13392e-08 113098 0.0233859 1.13299e-08 9.90935e-05 12.9417 2.06409e+06
0.72727 0.0241628 0.000283581 9.91926e-09 135190 0.0241387 9.90937e-09 8.81969e-05 15.2045 2.43595e+06
0.768555 0.0255966 0.000334669 8.90383e-09 158170 0.0255763 8.89678e-09 7.84179e-05 17.9592 2.87479e+06
0.812184 0.0266189 0.000394961 7.84595e-09 188560 0.0265944 7.83875e-09 6.96525e-05 21.2402 3.39269e+06
0.85829 0.0276537 0.000466114 6.90672e-09 220444 0.0276247 6.89947e-09 6.1805e-05 24.6346 4.00389e+06
0.907013 0.0290526 0.000550086 6.14844e-09 261388 0.0290276 6.14314e-09 5.47875e-05 29.3338 4.7252e+06
0.958501 0.0301306 0.000649185 5.40318e-09 308244 0.0300988 5.39747e-09 4.85194e-05 34.3264 5.57646e+06
1.01291 0.0315564 0.000766138 4.79502e-09 364396 0.0315203 4.78954e-09 4.29272e-05 40.7035 6.58107e+06
1.07041 0.0328058 0.00090416 4.22392e-09 429162 0.0327693 4.21922e-09 3.79435e-05 47.7749 7.76667e+06
1.13118 0.0342891 0.00106705 3.74095e-09 506358 0.0342471 3.73638e-09 3.3507e-05 56.5333 9.16586e+06
1.19539 0.0355533 0.00125928 3.28676e-09 598590 0.0355112 3.28287e-09 2.9562e-05 66.5523 1.08171e+07
1.26325 0.0370963 0.00148614 2.90591e-09 704844 0.0370534 2.90254e-09 2.60578e-05 78.6025 1.27658e+07
1.33496 0.0385321 0.00175387 2.55761e-09 834620 0.0384859 2.55455e-09 2.29484e-05 93.0187 1.50656e+07
1.41075 0.0399973 0.00206984 2.2496e-09 981444 0.0399522 2.24706e-09 2.01923e-05 109.341 1.77798e+07
1.49083 0.0415008 0.00244272 1.97784e-09 1.15998e+06 0.0414515 1.9755e-09 1.77518e-05 129.241 2.09828e+07
1.57546 0.0432028 0.00288279 1.74465e-09 1.36931e+06 0.0431513 1.74257e-09 1.55929e-05 153.209 2.4763e+07
1.66489 0.0448631 0.00340213 1.53514e-09 1.61652e+06 0.0448047 1.53314e-09 1.3685e-05 181.336 2.92241e+07
1.75941 0.0465272 0.00401503 1.34905e-09 1.90601e+06 0.0464693 1.34737e-09 1.20007e-05 214.262 3.44889e+07
1.85928 0.0482634 0.00473835 1.18577e-09 2.24913e+06 0.0482054 1.18435e-09 1.05151e-05 253.63 4.07021e+07
1.96483 0.0500612 0.00559198 1.04219e-09 2.65744e+06 0.049999 1.04089e-09 9.20606e-06 300.84 4.80347e+07
2.07637 0.0518666 0.00659939 9.14944e-10 3.13125e+06 0.0518041 9.13841e-10 8.05366e-06 355.729 5.66883e+07
2.19424 0.053829 0.00778828 8.04609e-10 3.69915e+06 0.0537625 8.03614e-10 7.04008e-06 422.775 6.69008e+07
2.3188 0.0557639 0.00919136 7.06291e-10 4.36472e+06 0.0556933 7.05396e-10 6.1494e-06 501.312 7.89532e+07
2.45043 0.057867 0.0108472 6.21045e-10 5.14913e+06 0.0577959 6.20282e-10 5.36741e-06 595.789 9.31768e+07
2.58954 0.0599867 0.0128014 5.45517e-10 6.07894e+06 0.0599134 5.44851e-10 4.68145e-06 708.363 1.09963e+08
2.73654 0.0622111 0.0151076 4.79384e-10 7.17304e+06 0.0621342 4.78791e-10 4.08023e-06 842.757 1.29773e+08
2.89188 0.0643973 0.0178292 4.2048e-10 8.46557e+06 0.064316 4.19949e-10 3.55373e-06 1001.65 1.53152e+08
3.05605 0.0667591 0.0210412 3.6936e-10 9.98773e+06 0.0666781 3.68912e-10 3.09304e-06 1192.7 1.80743e+08
3.22953 0.0692408 0.0248319 3.24611e-10 1.1797e+07 0.0691539 3.24204e-10 2.69025e-06 1423.45 2.13304e+08
3.41286 0.071764 0.0293054 2.85082e-10 1.39144e+07 0.0716708 2.84711e-10 2.33837e-06 1696.37 2.51731e+08
3.6066 0.0744356 0.0345848 2.50556e-10 1.64163e+07 0.0743409 2.50238e-10 2.0312e-06 2025.01 2.97081e+08
3.81134 0.0771813 0.0408154 2.2014e-10 1.93821e+07 0.077083 2.19859e-10 1.76327e-06 2419.82 3.50601e+08
4.0277 0.0801199 0.0481684 1.93637e-10 2.28754e+07 0.0800148 1.93383e-10 1.52972e-06 2895.64 4.13763e+08
4.25634 0.0832022 0.056846 1.7039e-10 2.69929e+07 0.083092 1.70165e-10 1.32631e-06 3467.77 4.88304e+08
4.49796 0.086427 0.067087 1.49976e-10 3.18542e+07 0.0863109 1.49774e-10 1.14926e-06 4156.92 5.76273e+08
4.7533 0.0898543 0.0791729 1.32121e-10 3.75892e+07 0.0897325 1.31942e-10 9.95263e-07 4989.96 6.8009e+08
5.02313 0.0933992 0.0934361 1.16369e-10 4.43706e+07 0.0932711 1.1621e-10 8.61414e-07 5994.07 8.0261e+08
5.30828 0.0971522 0.110269 1.02568e-10 5.23593e+07 0.0970178 1.02426e-10 7.45152e-07 7207.07 9.47202e+08
5.60962 0.101155 0.130134 9.04911e-11 6.1787e+07 0.101015 9.0366e-11 6.44232e-07 8678.82 1.11784e+09
5.92807 0.105318 0.153578 7.9833e-11 7.29346e+07 0.105169 7.97201e-11 5.56685e-07 10459.4 1.31923e+09
6.26459 0.109699 0.181246 7.04603e-11 8.60651e+07 0.109542 7.03598e-11 4.80786e-07 12613 1.55689e+09
6.62021 0.114311 0.213898 6.22145e-11 1.01558e+08 0.114144 6.21239e-11 4.15026e-07 15224.1 1.83737e+09
6.99602 0.119182 0.252432 5.4964e-11 1.1986e+08 0.119011 5.48848e-11 3.58083e-07 18397.9 2.16837e+09
7.39317 0.124306 0.297908 4.85757e-11 1.41457e+08 0.124124 4.85045e-11 3.08803e-07 22251.6 2.55901e+09
7.81286 0.129708 0.351577 4.29494e-11 1.66936e+08 0.129517 4.28863e-11 2.66181e-07 26935.8 3.02002e+09
8.25637 0.135452 0.414914 3.80046e-11 1.97025e+08 0.13525 3.79479e-11 2.29336e-07 32650.1 3.56409e+09
8.72507 0.141623 0.489662 3.36703e-11 2.32497e+08 0.141408 3.36191e-11 1.97503e-07 39636 4.20617e+09
9.22037 0.148339 0.577876 2.98835e-11 2.74404e+08 0.148109 2.98371e-11 1.70014e-07 48232.1 4.96392e+09
9.74378 0.155951 0.681982 2.66211e-11 3.2382e+08 0.1557 2.65782e-11 1.46289e-07 58927.4 5.85818e+09
10.2969 0.164838 0.804843 2.38427e-11 3.82165e+08 0.164556 2.3802e-11 1.25822e-07 72418.4 6.91355e+09
10.8814 0.175852 0.949838 2.1553e-11 4.51027e+08 0.175524 2.15129e-11 1.08175e-07 89863 8.15905e+09
11.4992 0.190474 1.12095 1.97815e-11 5.32251e+08 0.190073 1.97398e-11 9.29669e-08 113252 9.62892e+09
12.1519 0.211643 1.3229 1.86246e-11 6.28157e+08 0.211108 1.85776e-11 7.98658e-08 146486 1.13636e+10
12.8418 0.235949 1.56122 1.7594e-11 3.82727e+08 0.244211 1.82101e-11 6.85852e-08 98179.7 1.34108e+10
13.5708 0 1.84248 0 0 0 0 5.88765e-08 0 1.58268e+10
14.3411 0 2.17441 0 0 0 0 5.05241e-08 0 1.8678e+10
15.1552 0 2.56613 0 0 0 0 4.33417e-08 0 2.20429e+10
16.0156 0 3.02843 0 0 0 0 3.71677e-08 0 2.6014e+10
16.9247 0 3.574 0 0 0 0 3.18628e-08 0 3.07005e+10
17.8855 0 4.21787 0 0 0 0 2.73063e-08 0 3.62312e+10
18.9008 0 4.97773 0 0 0 0 2.33941e-08 0 4.27584e+10
19.9738 0 5.87448 0 0 0 0 2.00364e-08 0 5.04614e+10
21.1076 0 6.93279 0 0 0 0 1.71555e-08 0 5.95522e+10
22.3058 0 8.18175 0 0 0 0 1.46847e-08 0 7.02807e+10
23.5721 0 9.65571 0 0 0 0 1.25662e-08 0 8.29419e+10
24.9102 0 11.3952 0 0 0 0 1.07504e-08 0 9.78842e+10
26.3243 0 13.4481 0 0 0 0 9.19452e-09 0 1.15518e+11
27.8187 0 15.8708 0 0 0 0 7.86182e-09 0 1.36329e+11
29.3979 0 18.73 0 0 0 0 6.72061e-09 0 1.60889e+11
31.0667 0 22.1042 0 0 0 0 5.74366e-09 0 1.89874e+11
32.8303 0 26.0864 0 0 0 0 4.90756e-09 0 2.2408e+11
34.694 0 30.7859 0 0 0 0 4.19221e-09 0 2.64449e+11
36.6634 0 36.3321 0 0 0 0 3.58032e-09 0 3.1209e+11
38.7447 0 42.8774 0 0 0 0 3.05709e-09 0 3.68314e+11
40.9442 0 50.6018 0 0 0 0 2.60976e-09 0 4.34667e+11
43.2685 0 59.7179 0 0 0 0 2.22743e-09 0 5.12973e+11
45.7247 0 70.4762 0 0 0 0 1.90073e-09 0 6.05386e+11
48.3204 0 83.1727 0 0 0 0 1.62163e-09 0 7.14448e+11
51.0634 0 98.1565 0 0 0 0 1.38326e-09 0 8.43158e+11
53.9621 0 115.84 0 0 0 0 1.1797e-09 0 9.95055e+11
57.0254 0 136.709 0 0 0 0 1.00592e-09 0 1.17432e+12
60.2626 0 161.337 0 0 0 0 8.57591e-10 0 1.38587e+12
63.6835 0 190.402 0 0 0 0 7.3101e-10 0 1.63554e+12
67.2987 0 224.704 0 0 0 0 6.23009e-10 0 1.93019e+12
71.1191 0 265.185 0 0 0 0 5.30879e-10 0 2.27792e+12
75.1563 0 312.958 0 0 0 0 4.52303e-10 0 2.68829e+12
79.4227 0 369.339 0 0 0 0 3.85299e-10 0 3.17259e+12
83.9313 0 435.876 0 0 0 0 3.28173e-10 0 3.74415e+12
88.6959 0 514.4 0 0 0 0 2.79476e-10 0 4.41866e+12
93.7309 0 607.071 0 0 0 0 2.37972e-10 0 5.2147e+12
99.0518 0 716.436 0 0 0 0 2.02605e-10 0 6.15414e+12
104.675 0 845.504 0 0 0 0 1.72471e-10 0 7.26283e+12
110.617 0 997.824 0 0 0 0 1.468e-10 0 8.57124e+12
116.896 0 1177.58 0 0 0 0 1.24935e-10 0 1.01154e+13
123.532 0 1389.73 0 0 0 0 1.06313e-10 0 1.19377e+13
130.545 0 1640.09 0 0 0 0 9.04567e-11 0 1.40883e+13
137.955 0 1935.56 0 0 0 0 7.69563e-11 0 1.66263e+13
145.787 0 2284.26 0 0 0 0 6.54636e-11 0 1.96216e+13
154.063 0 2695.77 0 0 0 0 5.56812e-11 0 2.31565e+13
162.808 0 3181.42 0 0 0 0 4.73556e-11 0 2.73282e+13
172.051 0 3754.56 0 0 0 0 4.02708e-11 0 3.22515e+13
181.818 0 4430.96 0 0 0 0 3.42426e-11 0 3.80616e+13
192.139 0 5229.21 0 0 0 0 2.91139e-11 0 4.49186e+13
203.046 0 6171.26 0 0 0 0 2.4751e-11 0 5.30108e+13
214.572 0 7283.03 0 0 0 0 2.10401e-11 0 6.25608e+13
226.753 0 8595.09 0 0 0 0 1.78839e-11 0 7.38313e+13
239.625 0 10143.5 0 0 0 0 1.51999e-11 0 8.71322e+13
253.228 0 11970.9 0 0 0 0 1.29176e-11 0 1.02829e+14
267.603 0 14127.5 0 0 0 0 1.09771e-11 0 1.21354e+14
282.795 0 16672.6 0 0 0 0 9.3274e-12 0 1.43217e+14
298.848 0 19676.2 0 0 0 0 7.925e-12 0 1.69017e+14
315.813 0 23220.9 0 0 0 0 6.73295e-12 0 1.99466e+14
333.741 0 27404.3 0 0 0 0 5.71979e-12 0 2.35401e+14
352.686 0 32341.2 0 0 0 0 4.85874e-12 0 2.77809e+14
372.707 0 38167.6 0 0 0 0 4.12703e-12 0 3.27857e+14
393.865 0 45043.5 0 0 0 0 3.50528e-12 0 3.86921e+14
416.224 0 53158.3 0 0 0 0 2.97701e-12 0 4.56626e+14
439.852 0 62734.9 0 0 0 0 2.52819e-12 0 5.38888e+14
464.821 0 74036.7 0 0 0 0 2.1469e-12 0 6.35971e+14
491.207 0 87374.6 0 0 0 0 1.82301e-12 0 7.50542e+14
519.092 0 103115 0 0 0 0 1.54789e-12 0 8.85755e+14
548.56 0 121692 0 0 0 0 1.31422e-12 0 1.04533e+15
579.7 0 143615 0 0 0 0 1.11576e-12 0 1.23364e+15
612.608 0 169488 0 0 0 0 9.47223e-13 0 1.45589e+15
647.384 0 200021 0 0 0 0 8.041e-13 0 1.71817e+15
684.134 0 236056 0 0 0 0 6.82568e-13 0 2.0277e+15
722.971 0 278582 0 0 0 0 5.79376e-13 0 2.393e+15
764.012 0 328769 0 0 0 0 4.91762e-13 0 2.8241e+15
