1
200
1.0655e+09
8589934592
0.0129181 0 1.58924e-09 0 0 0 0 0.00677225 0 13.6515
0.0136515 0 1.87554e-09 0 0 0 0 0.00688819 0 16.1108
0.0144264 0 2.21343e-09 0 0 0 0 0.00699249 0 19.0132
0.0152454 0 2.61218e-09 0 0 0 0 0.00708412 0 22.4385
0.0161108 0 3.08278e-09 0 0 0 0 0.00716212 0 26.4808
0.0170254 0 3.63815e-09 0 0 0 0 0.00722559 0 31.2514
0.0179919 0 4.29357e-09 0 0 0 0 0.00727371 0 36.8815
0.0190132 0 5.06707e-09 0 0 0 0 0.00730578 0 43.5258
0.0200925 0 5.97991e-09 0 0 0 0 0.00732122 0 51.367
0.0212331 0 7.05721e-09 0 0 0 0 0.00731958 0 60.621
0.0224385 0 8.32858e-09 0 0 0 0 0.00730056 0 71.542
0.0237123 0 9.829e-09 0 0 0 0 0.00726401 0 84.4305
0.0250583 0 1.15997e-08 0 0 0 0 0.00720995 0 99.6408
0.0264808 0 1.36894e-08 0 0 0 0 0.00713857 0 117.591
0.0279841 0 1.61556e-08 0 0 0 0 0.00705021 0 138.776
0.0295727 0 1.90661e-08 0 0 0 0 0.00694538 0 163.777
0.0312514 0 2.25009e-08 0 0 0 0 0.00682475 0 193.281
0.0330255 0 2.65545e-08 0 0 0 0 0.00668915 0 228.102
0.0349003 0 3.13384e-08 0 0 0 0 0.00653951 0 269.195
0.0368815 0 3.69841e-08 0 0 0 0 0.00637693 0 317.691
0.0389751 0 4.36469e-08 0 0 0 0 0.00620256 0 374.924
0.0411876 0 5.151e-08 0 0 0 0 0.00601767 0 442.467
0.0435258 0 6.07896e-08 0 0 0 0 0.00582358 0 522.179
0.0459966 0 7.1741e-08 0 0 0 0 0.00562166 0 616.251
0.0486077 0 8.46654e-08 0 0 0 0 0.0054133 0 727.27
0.051367 0 9.99181e-08 0 0 0 0 0.00519989 0 858.29
0.054283 0 1.17919e-07 0 0 0 0 0.0049828 0 1012.91
0.0573645 0 1.39162e-07 0 0 0 0 0.00476339 0 1195.39
0.060621 0 1.64232e-07 0 0 0 0 0.00454293 0 1410.75
0.0640622 0 1.93819e-07 0 0 0 0 0.00432265 0 1664.89
0.0676989 0 2.28736e-07 0 0 0 0 0.00410371 0 1964.83
0.071542 0 2.69944e-07 0 0 0 0 0.00388717 0 2318.8
0.0756032 0 3.18575e-07 0 0 0 0 0.00367401 0 2736.54
0.079895 0 3.75967e-07 0 0 0 0 0.0034651 0 3229.53
0.0844305 0 4.43698e-07 0 0 0 0 0.00326121 0 3811.34
0.0892234 0 5.23632e-07 0 0 0 0 0.00306301 0 4497.96
0.0942883 0 6.17966e-07 0 0 0 0 0.00287109 0 5308.28
0.0996408 0 7.29294e-07 0 0 0 0 0.00268591 0 6264.59
0.105297 0 8.60678e-07 0 0 0 0 0.00250785 0 7393.17
0.111275 0 1.01573e-06 0 0 0 0 0.00233721 0 8725.07
0.117591 0 1.19872e-06 0 0 0 0 0.00217419 0 10296.9
0.124267 0 1.41467e-06 0 0 0 0 0.00201893 0 12151.9
0.131321 0 1.66953e-06 0 0 0 0 0.00187147 0 14341.1
0.138776 0 1.9703e-06 0 0 0 0 0.00173182 0 16924.7
0.146654 0 2.32525e-06 0 0 0 0 0.00159991 0 19973.8
0.154979 0 2.74415e-06 0 0 0 0 0.00147563 0 23572.1
0.163777 0 3.23852e-06 0 0 0 0 0.00135884 0 27818.7
0.173074 0 3.82195e-06 0 0 0 0 0.00124933 0 32830.3
0.182899 0 4.51048e-06 0 0 0 0 0.00114689 0 38744.7
0.193281 0 5.32305e-06 0 0 0 0 0.00105127 0 45724.7
0.204254 0 6.28202e-06 0 0 0 0 0.000962209 0 53962.1
0.215848 0 7.41374e-06 0 0 0 0 0.000879423 0 63683.5
0.228102 0 8.74934e-06 0 0 0 0 0.000802624 0 75156.3
0.24105 0 1.03256e-05 0 0 0 0 0.000731515 0 88695.9
0.254734 0 1.21857e-05 0 0 0 0 0.000665798 0 104675
0.269195 0 1.4381e-05 0 0 0 0 0.000605173 0 123532
0.284476 0 1.69718e-05 0 0 0 0 0.000549345 0 145787
0.300625 0 2.00293e-05 0 0 0 0 0.000498021 0 172051
0.317691 0 2.36377e-05 0 0 0 0 0.000450916 0 203046
0.335725 0 2.78961e-05 0 0 0 0 0.000407755 0 239625
0.354784 0 3.29216e-05 0 0 0 0 0.000368269 0 282795
0.374924 0 3.88525e-05 0 0 0 0 0.000332202 0 333741
0.396207 2.05125 4.58519e-05 5.208e-06 6 1.99422 5.0632e-06 0.000299307 0.104401 393865
0.418699 0 5.41123e-05 0 0 0 0 0.00026935 0 464821
0.442467 0 6.38607e-05 0 0 0 0 0.000242108 0 548560
0.467585 0 7.53654e-05 0 0 0 0 0.00021737 0 647384
0.494129 0 8.89427e-05 0 0 0 0 0.000194938 0 764012
0.522179 0 0.000104966 0 0 0 0 0.000174625 0 901651
0.551822 0 0.000123876 0 0 0 0 0.000156255 0 1.06409e+06
0.583147 6.53021 0.000146192 5.20011e-06 12 6.87308 5.47314e-06 0.000139664 0.446796 1.25578e+06
0.616251 0 0.000172529 0 0 0 0 0.0001247 0 1.48202e+06
0.651234 0 0.000203611 0 0 0 0 0.00011122 0 1.74901e+06
0.688203 11.5952 0.000240292 5.6176e-06 8 11.3068 5.47784e-06 9.90935e-05 0.453519 2.06409e+06
0.72727 0 0.000283581 0 0 0 0 8.81969e-05 0 2.43595e+06
0.768555 0 0.000334669 0 0 0 0 7.84179e-05 0 2.87479e+06
0.812184 8.18746 0.000394961 2.41327e-06 6 8.36251 2.46486e-06 6.96525e-05 0.207883 3.39269e+06
0.85829 0 0.000466114 0 0 0 0 6.1805e-05 0 4.00389e+06
0.907013 0.926826 0.000550086 1.96145e-07 24 0.944609 1.99909e-07 5.47875e-05 0.0859227 4.7252e+06
0.958501 4.71227 0.000649185 8.45029e-07 24 4.43625 7.95532e-07 4.85194e-05 0.417991 5.57646e+06
1.01291 0 0.000766138 0 0 0 0 4.29272e-05 0 6.58107e+06
1.07041 0 0.00090416 0 0 0 0 3.79435e-05 0 7.76667e+06
1.13118 10.8291 0.00106705 1.18146e-06 12 10.6961 1.16695e-06 3.3507e-05 0.423121 9.16586e+06
1.19539 3.97336 0.00125928 3.67322e-07 30 3.89145 3.5975e-07 2.9562e-05 0.372764 1.08171e+07
1.26325 9.69276 0.00148614 7.59273e-07 24 9.54691 7.47848e-07 2.60578e-05 0.699312 1.27658e+07
1.33496 15.8348 0.00175387 1.05105e-06 24 15.8696 1.05336e-06 2.29484e-05 1.09922 1.50656e+07
1.41075 16.3199 0.00206984 9.1789e-07 32 16.5175 9.29003e-07 2.01923e-05 1.45464 1.77798e+07
1.49083 4.66863 0.00244272 2.22498e-07 48 4.5691 2.17754e-07 1.77518e-05 0.601625 2.09828e+07
1.57546 43.3877 0.00288279 1.75212e-06 6 41.3149 1.66841e-06 1.55929e-05 0.674201 2.4763e+07
1.66489 8.10901 0.00340213 2.77477e-07 84 7.94289 2.71793e-07 1.3685e-05 1.70318 2.92241e+07
1.75941 6.99328 0.00401503 2.02769e-07 48 6.89298 1.99861e-07 1.20007e-05 0.811031 3.44889e+07
1.85928 6.46643 0.00473835 1.58872e-07 72 6.43168 1.58018e-07 1.05151e-05 1.08784 4.07021e+07
1.96483 16.5271 0.00559198 3.44065e-07 54 16.1814 3.36868e-07 9.20606e-06 2.01819 4.80347e+07
2.07637 13.3449 0.00659939 2.35409e-07 104 13.4298 2.36905e-07 8.05366e-06 3.03992 5.66883e+07
2.19424 11.131 0.00778828 1.66381e-07 120 11.3179 1.69175e-07 7.04008e-06 2.83601 6.69008e+07
2.3188 10.5516 0.00919136 1.33644e-07 156 10.249 1.29811e-07 6.1494e-06 3.39032 7.89532e+07
2.45043 12.6521 0.0108472 1.35786e-07 126 12.5407 1.3459e-07 5.36741e-06 3.18758 9.31768e+07
2.58954 12.7141 0.0128014 1.15621e-07 192 12.7771 1.16195e-07 4.68145e-06 4.74197 1.09963e+08
2.73654 34.9003 0.0151076 2.68933e-07 152 35.1995 2.71239e-07 4.08023e-06 10.0185 1.29773e+08
2.89188 14.7359 0.0178292 9.62174e-08 378 14.8698 9.70916e-08 3.55373e-06 10.2344 1.53152e+08
3.05605 17.1242 0.0210412 9.47437e-08 264 16.8638 9.3303e-08 3.09304e-06 8.08665 1.80743e+08
3.22953 20.8806 0.0248319 9.78915e-08 366 20.7763 9.74025e-08 2.69025e-06 13.3178 2.13304e+08
3.41286 16.8277 0.0293054 6.68479e-08 428 16.6418 6.61092e-08 2.33837e-06 12.2354 2.51731e+08
3.6066 23.4475 0.0345848 7.89261e-08 486 22.9841 7.73662e-08 2.0312e-06 18.8844 2.97081e+08
3.81134 22.0686 0.0408154 6.29451e-08 600 22.0669 6.29401e-08 1.76327e-06 21.4188 3.50601e+08
4.0277 26.1509 0.0481684 6.32026e-08 738 26.1707 6.32505e-08 1.52972e-06 30.4915 4.13763e+08
4.25634 28.764 0.056846 5.8906e-08 824 28.6351 5.86421e-08 1.32631e-06 36.5968 4.88304e+08
4.49796 28.4429 0.067087 4.93566e-08 954 28.1859 4.89107e-08 1.14926e-06 40.971 5.76273e+08
4.7533 32.2447 0.0791729 4.74123e-08 1094 32.0849 4.71775e-08 9.95263e-07 52.116 6.8009e+08
5.02313 34.1518 0.0934361 4.25509e-08 1332 34.291 4.27244e-08 8.61414e-07 65.7963 8.0261e+08
5.30828 41.802 0.110269 4.4132e-08 1614 41.7632 4.40911e-08 7.45152e-07 95.59 9.47202e+08
5.60962 43.1498 0.130134 3.86009e-08 1850 43.2808 3.87182e-08 6.44232e-07 110.848 1.11784e+09
5.92807 40.8611 0.153578 3.09735e-08 2238 40.8991 3.10024e-08 5.56685e-07 124.521 1.31923e+09
6.26459 44.7684 0.181246 2.8755e-08 2546 44.8822 2.88281e-08 4.80786e-07 152.272 1.55689e+09
6.62021 44.4399 0.213898 2.41867e-08 3264 44.4666 2.42013e-08 4.15026e-07 190.218 1.83737e+09
6.99602 48.9855 0.252432 2.25909e-08 3506 49.0351 2.26138e-08 3.58083e-07 221.189 2.16837e+09
7.39317 53.6378 0.297908 2.09604e-08 4506 53.5792 2.09375e-08 3.08803e-07 305.85 2.55901e+09
7.81286 62.048 0.351577 2.05455e-08 5018 61.8404 2.04768e-08 2.66181e-07 387.321 3.02002e+09
8.25637 64.149 0.414914 1.79987e-08 5852 64.0815 1.79798e-08 2.29336e-07 459.276 3.56409e+09
8.72507 65.4537 0.489662 1.55614e-08 7362 65.3212 1.55299e-08 1.97503e-07 580.056 4.20617e+09
9.22037 68.5895 0.577876 1.38176e-08 8306 68.406 1.37806e-08 1.70014e-07 675.056 4.96392e+09
9.74378 75.4726 0.681982 1.28833e-08 9698 75.3693 1.28656e-08 1.46289e-07 854.076 5.85818e+09
10.2969 78.5108 0.804843 1.13561e-08 11816 78.4184 1.13427e-08 1.25822e-07 1066.45 6.91355e+09
10.8814 89.842 0.949838 1.10113e-08 13682 89.5836 1.09797e-08 1.08175e-07 1392.71 8.15905e+09
11.4992 91.3462 1.12095 9.48665e-09 16152 91.295 9.48133e-09 9.29669e-08 1648.21 9.62892e+09
12.1519 96.8766 1.3229 8.52517e-09 19472 96.6948 8.50917e-09 7.98658e-08 2078.52 1.13636e+10
12.8418 100.873 1.56122 7.52181e-09 22670 100.583 7.50015e-09 6.85852e-08 2486.24 1.34108e+10
13.5708 107.566 1.84248 6.79649e-09 26224 107.41 6.78661e-09 5.88765e-08 3027.2 1.58268e+10
14.3411 117.404 2.17441 6.28566e-09 31640 117.367 6.2837e-09 5.05241e-08 3936.3 1.8678e+10
15.1552 122.486 2.56613 5.55672e-09 37484 122.316 5.54898e-09 4.33417e-08 4805.72 2.20429e+10
16.0156 132.13 3.02843 5.07921e-09 43856 131.932 5.07157e-09 3.71677e-08 5993.2 2.6014e+10
16.9247 140.265 3.574 4.56881e-09 51362 140.15 4.56508e-09 3.18628e-08 7364.81 3.07005e+10
17.8855 148.051 4.21787 4.08627e-09 61636 147.843 4.08054e-09 2.73063e-08 9223.55 3.62312e+10
18.9008 156.915 4.97773 3.6698e-09 72218 156.564 3.66159e-09 2.33941e-08 11328.7 4.27584e+10
19.9738 166.993 5.87448 3.30932e-09 84586 166.667 3.30285e-09 2.00364e-08 13970.7 5.04614e+10
21.1076 178.807 6.93279 3.00253e-09 100708 178.582 2.99875e-09 1.71555e-08 17625.7 5.95522e+10
22.3058 189.296 8.18175 2.69343e-09 118712 188.933 2.68827e-09 1.46847e-08 21773.9 7.02807e+10
23.5721 198.242 9.65571 2.39013e-09 140410 197.829 2.38515e-09 1.25662e-08 26706.6 8.29419e+10
24.9102 207.863 11.3952 2.12356e-09 164374 207.482 2.11967e-09 1.07504e-08 32469.4 9.78842e+10
26.3243 219.654 13.4481 1.90147e-09 194680 219.306 1.89845e-09 9.19452e-09 40260.7 1.15518e+11
27.8187 232.325 15.8708 1.70415e-09 230196 231.941 1.70133e-09 7.86182e-09 49897.8 1.36329e+11
29.3979 244.687 18.73 1.52084e-09 271156 244.328 1.51861e-09 6.72061e-09 61361.3 1.60889e+11
31.0667 259.929 22.1042 1.36895e-09 321076 259.45 1.36643e-09 5.74366e-09 76525.8 1.89874e+11
32.8303 273.521 26.0864 1.22064e-09 377436 272.978 1.21822e-09 4.90756e-09 93878.1 2.2408e+11
34.694 288.512 30.7859 1.09099e-09 447594 287.977 1.08897e-09 4.19221e-09 116483 2.64449e+11
36.6634 304.16 36.3321 9.74591e-10 525078 303.651 9.7296e-10 3.58032e-09 142930 3.1209e+11
38.7447 321.225 42.8774 8.72149e-10 621924 320.569 8.70368e-10 3.05709e-09 177427 3.68314e+11
40.9442 336.8 50.6018 7.74847e-10 732630 336.151 7.73354e-10 2.60976e-09 217520 4.34667e+11
43.2685 355.286 59.7179 6.92602e-10 865596 354.744 6.91546e-10 2.22743e-09 269150 5.12973e+11
45.7247 375.133 70.4762 6.19659e-10 1.02168e+06 374.517 6.18641e-10 1.90073e-09 333077 6.05386e+11
48.3204 392.689 83.1727 5.4964e-10 1.20544e+06 392 5.48675e-10 1.62163e-09 408573 7.14448e+11
51.0634 412.41 98.1565 4.89126e-10 1.42103e+06 411.693 4.88275e-10 1.38326e-09 502483 8.43158e+11
53.9621 432.321 115.84 4.3447e-10 1.67997e+06 431.583 4.33728e-10 1.1797e-09 618711 9.95055e+11
57.0254 453.974 136.709 3.86586e-10 1.98018e+06 453.124 3.85862e-10 1.00592e-09 761005 1.17432e+12
60.2626 477.368 161.337 3.44453e-10 2.33957e+06 476.49 3.43819e-10 8.57591e-10 939692 1.38587e+12
63.6835 501.662 190.402 3.06725e-10 2.75676e+06 500.798 3.06197e-10 7.3101e-10 1.15671e+06 1.63554e+12
67.2987 527.016 224.704 2.73038e-10 3.25638e+06 526.079 2.72553e-10 6.23009e-10 1.42713e+06 1.93019e+12
71.1191 554.279 265.185 2.43327e-10 3.84387e+06 553.292 2.42894e-10 5.30879e-10 1.76183e+06 2.27792e+12
75.1563 583.307 312.958 2.16981e-10 4.53277e+06 582.271 2.16595e-10 4.52303e-10 2.17447e+06 2.68829e+12
79.4227 615.308 369.339 1.93945e-10 5.35083e+06 614.241 1.93608e-10 3.85299e-10 2.6934e+06 3.17259e+12
83.9313 649.454 435.876 1.73459e-10 6.32174e+06 648.247 1.73136e-10 3.28173e-10 3.34141e+06 3.74415e+12
88.6959 687.221 514.4 1.55527e-10 7.44986e+06 685.921 1.55233e-10 2.79476e-10 4.1458e+06 4.41866e+12
93.7309 728.06 607.071 1.39617e-10 8.79764e+06 726.721 1.3936e-10 2.37972e-10 5.16152e+06 5.2147e+12
99.0518 774.474 716.436 1.25846e-10 1.03827e+07 772.999 1.25606e-10 2.02605e-10 6.4491e+06 6.15414e+12
104.675 825.932 845.504 1.1372e-10 1.22515e+07 824.296 1.13495e-10 1.72471e-10 8.07816e+06 7.26283e+12
110.617 885.776 997.824 1.03343e-10 1.44573e+07 883.944 1.03129e-10 1.468e-10 1.01775e+07 8.57124e+12
116.896 955.85 1177.58 9.44948e-11 1.70664e+07 953.782 9.42903e-11 1.24935e-10 1.29082e+07 1.01154e+13
123.532 1036.63 1389.73 8.68365e-11 2.0139e+07 1034.31 8.66423e-11 1.06313e-10 1.64495e+07 1.19377e+13
130.545 1131.29 1640.09 8.03e-11 2.37643e+07 1128.68 8.01144e-11 9.04567e-11 2.1096e+07 1.40883e+13
137.955 1242.7 1935.56 7.47427e-11 2.80503e+07 1239.72 7.45633e-11 7.69563e-11 2.72434e+07 1.66263e+13
145.787 1374.54 2284.26 7.00522e-11 3.30981e+07 1371.1 6.98773e-11 6.54636e-11 3.54181e+07 1.96216e+13
154.063 1530.6 2695.77 6.60981e-11 3.90634e+07 1526.66 6.59278e-11 5.56812e-11 4.63715e+07 2.31565e+13
162.808 1715.48 3181.42 6.27733e-11 4.61057e+07 1710.85 6.26039e-11 4.73556e-11 6.11164e+07 2.73282e+13
172.051 1937.31 3754.56 6.0069e-11 5.44046e+07 1931.9 5.99013e-11 4.02708e-11 8.11513e+07 3.22515e+13
181.818 2202.34 4430.96 5.78624e-11 6.42064e+07 2196.04 5.7697e-11 3.42426e-11 1.08495e+08 3.80616e+13
192.139 2516.91 5229.21 5.60329e-11 7.57748e+07 2509.51 5.58681e-11 2.91139e-11 1.45837e+08 4.49186e+13
203.046 2894.12 6171.26 5.45949e-11 8.94213e+07 2885.39 5.44302e-11 2.4751e-11 1.97242e+08 5.30108e+13
214.572 3345.6 7283.03 5.34776e-11 1.05538e+08 3335.22 5.33116e-11 2.10401e-11 2.68247e+08 6.25608e+13
226.753 3889.25 8595.09 5.26776e-11 1.24552e+08 3876.93 5.25107e-11 1.78839e-11 3.66871e+08 7.38313e+13
239.625 4542.79 10143.5 5.21368e-11 1.46987e+08 4528.09 5.1968e-11 1.51999e-11 5.04177e+08 8.71322e+13
253.228 5329.82 11970.9 5.18317e-11 1.7347e+08 5312.24 5.16607e-11 1.29176e-11 6.96045e+08 1.02829e+14
267.603 6284.36 14127.5 5.17852e-11 2.04703e+08 6263.3 5.16117e-11 1.09771e-11 9.65696e+08 1.21354e+14
282.795 7449.08 16672.6 5.20127e-11 2.4161e+08 7423.46 5.18338e-11 9.3274e-12 1.3473e+09 1.43217e+14
298.848 8878.72 19676.2 5.25314e-11 2.85122e+08 8847.41 5.23462e-11 7.925e-12 1.88995e+09 1.69017e+14
315.813 10658.9 23220.9 5.34369e-11 3.36491e+08 10620.2 5.32429e-11 6.73295e-12 2.6706e+09 1.99466e+14
333.741 12912 27404.3 5.4851e-11 3.97115e+08 12863.3 5.46441e-11 5.71979e-12 3.8082e+09 2.35401e+14
352.686 15826.6 32341.2 5.69693e-11 4.68637e+08 15764 5.6744e-11 4.85874e-12 5.49482e+09 2.77809e+14
372.707 19705.7 38167.6 6.01046e-11 5.53074e+08 19622.9 5.9852e-11 4.12703e-12 8.05477e+09 3.27857e+14
393.865 25078.1 45043.5 6.48145e-11 6.52716e+08 24964.1 6.452e-11 3.50528e-12 1.20691e+10 3.86921e+14
416.224 29606.7 53158.3 6.48381e-11 2.2184e+08 31321.2 6.85926e-11 2.97701e-12 4.83158e+09 4.56626e+14
439.852 0 62734.9 0 0 0 0 2.52819e-12 0 5.38888e+14
464.821 0 74036.7 0 0 0 0 2.1469e-12 0 6.35971e+14
491.207 0 87374.6 0 0 0 0 1.82301e-12 0 7.50542e+14
519.092 0 103115 0 0 0 0 1.54789e-12 0 8.85755e+14
548.56 0 121692 0 0 0 0 1.31422e-12 0 1.04533e+15
579.7 0 143615 0 0 0 0 1.11576e-12 0 1.23364e+15
612.608 0 169488 0 0 0 0 9.47223e-13 0 1.45589e+15
647.384 0 200021 0 0 0 0 8.041e-13 0 1.71817e+15
684.134 0 236056 0 0 0 0 6.82568e-13 0 2.0277e+15
722.971 0 278582 0 0 0 0 5.79376e-13 0 2.393e+15
764.012 0 328769 0 0 0 0 4.91762e-13 0 2.8241e+15
1
200
1.0655e+09
8589934592
0.0129181 0.00189989 1.58924e-09 0.000139171 6 0.0018825 0.000137897 0.00677225 0.123301 13.6515
0.0136515 0 1.87554e-09 0 0 0 0 0.00688819 0 16.1108
0.0144264 0 2.21343e-09 0 0 0 0 0.00699249 0 19.0132
0.0152454 0 2.61218e-09 0 0 0 0 0.00708412 0 22.4385
0.0161108 0 3.08278e-09 0 0 0 0 0.00716212 0 26.4808
0.0170254 0 3.63815e-09 0 0 0 0 0.00722559 0 31.2514
0.0179919 0.00423745 4.29357e-09 0.000114894 12 0.00423199 0.000114746 0.00727371 0.189549 36.8815
0.0190132 0 5.06707e-09 0 0 0 0 0.00730578 0 43.5258
0.0200925 0 5.97991e-09 0 0 0 0 0.00732122 0 51.367
0.0212331 0.00401583 7.05721e-09 6.6245e-05 8 0.00401234 6.61873e-05 0.00731958 0.0724031 60.621
0.0224385 0 8.32858e-09 0 0 0 0 0.00730056 0 71.542
0.0237123 0 9.829e-09 0 0 0 0 0.00726401 0 84.4305
0.0250583 0.0252924 1.15997e-08 0.000253836 6 0.0252805 0.000253716 0.00720995 0.211238 99.6408
0.0264808 0 1.36894e-08 0 0 0 0 0.00713857 0 117.591
0.0279841 0.0155664 1.61556e-08 0.00011217 24 0.0155504 0.000112054 0.00705021 0.381843 138.776
0.0295727 0 1.90661e-08 0 0 0 0 0.00694538 0 163.777
0.0312514 0.0276151 2.25009e-08 0.000142875 24 0.0277553 0.000143601 0.00682475 0.502437 193.281
0.0330255 0 2.65545e-08 0 0 0 0 0.00668915 0 228.102
0.0349003 0.0421508 3.13384e-08 0.000156581 12 0.0418133 0.000155327 0.00653951 0.287326 269.195
0.0368815 0.0335729 3.69841e-08 0.000105678 30 0.0332154 0.000104552 0.00637693 0.497157 317.691
0.0389751 0.0378679 4.36469e-08 0.000101002 24 0.0374783 9.99626e-05 0.00620256 0.390813 374.924
0.0411876 0.0243485 5.151e-08 5.50289e-05 24 0.0241831 5.46551e-05 0.00601767 0.219469 442.467
0.0435258 0.0609029 6.07896e-08 0.000116632 8 0.0608982 0.000116623 0.00582358 0.160221 522.179
0.0459966 0.0744243 7.1741e-08 0.000120769 72 0.0738374 0.000119817 0.00562166 1.54677 616.251
0.0486077 0 8.46654e-08 0 0 0 0 0.0054133 0 727.27
0.051367 0.101546 9.99181e-08 0.000118311 54 0.101208 0.000117918 0.00519989 1.22865 858.29
0.054283 0.0822464 1.17919e-07 8.11979e-05 60 0.0826221 8.15688e-05 0.0049828 0.977737 1012.91
0.0573645 0.076582 1.39162e-07 6.40643e-05 96 0.0763857 6.39001e-05 0.00476339 1.29114 1195.39
0.060621 0.0912461 1.64232e-07 6.46793e-05 24 0.0900098 6.3803e-05 0.00454293 0.341697 1410.75
0.0640622 0.156258 1.93819e-07 9.38548e-05 134 0.156326 9.38957e-05 0.00432265 2.90945 1664.89
0.0676989 0.153274 2.28736e-07 7.80089e-05 120 0.152521 7.76255e-05 0.00410371 2.28112 1964.83
0.071542 0.144808 2.69944e-07 6.24497e-05 108 0.143203 6.17575e-05 0.00388717 1.73508 2318.8
0.0756032 0.214573 3.18575e-07 7.84105e-05 174 0.213378 7.79736e-05 0.00367401 3.7135 2736.54
0.079895 0.224276 3.75967e-07 6.94454e-05 168 0.222167 6.87925e-05 0.0034651 3.36696 3229.53
0.0844305 0.186641 4.43698e-07 4.897e-05 168 0.187564 4.92121e-05 0.00326121 2.52267 3811.34
0.0892234 0.224902 5.23632e-07 5.00008e-05 290 0.223834 4.97633e-05 0.00306301 4.73397 4497.96
0.0942883 0.269508 6.17966e-07 5.07711e-05 288 0.268938 5.06639e-05 0.00287109 5.09287 5308.28
0.0996408 0.241915 7.29294e-07 3.86163e-05 366 0.240073 3.83223e-05 0.00268591 5.26211 6264.59
0.105297 0.28579 8.60678e-07 3.86559e-05 420 0.283743 3.83791e-05 0.00250785 6.47386 7393.17
0.111275 0.305589 1.01573e-06 3.50243e-05 398 0.30475 3.49281e-05 0.00233721 5.96422 8725.07
0.117591 0.3629 1.19872e-06 3.52436e-05 624 0.363939 3.53445e-05 0.00217419 10.115 10296.9
0.124267 0.423221 1.41467e-06 3.48275e-05 642 0.422243 3.4747e-05 0.00201893 11.0748 12151.9
0.131321 0.495825 1.66953e-06 3.45736e-05 800 0.49593 3.4581e-05 0.00187147 14.7793 14341.1
0.138776 0.460542 1.9703e-06 2.72112e-05 858 0.462479 2.73256e-05 0.00173182 13.4813 16924.7
0.146654 0.538574 2.32525e-06 2.69641e-05 1080 0.543037 2.71875e-05 0.00159991 18.2018 19973.8
0.154979 0.626584 2.74415e-06 2.65816e-05 1286 0.630509 2.67481e-05 0.00147563 23.1656 23572.1
0.163777 0.6159 3.23852e-06 2.21398e-05 1650 0.617683 2.22039e-05 0.00135884 26.8837 27818.7
0.173074 0.684895 3.82195e-06 2.08617e-05 1778 0.685444 2.08784e-05 0.00124933 29.6895 32830.3
0.182899 0.74423 4.51048e-06 1.92086e-05 2112 0.745915 1.9252e-05 0.00114689 35.3726 38744.7
0.193281 0.821239 5.32305e-06 1.79605e-05 2570 0.821823 1.79733e-05 0.00105127 43.9073 45724.7
0.204254 0.962615 6.28202e-06 1.78387e-05 3030 0.961964 1.78267e-05 0.000962209 56.1742 53962.1
0.215848 1.00508 7.41374e-06 1.57825e-05 3434 1.00468 1.57761e-05 0.000879423 61.628 63683.5
0.228102 1.0697 8.74934e-06 1.4233e-05 4218 1.06898 1.42234e-05 0.000802624 74.7979 75156.3
0.24105 1.19255 1.03256e-05 1.34454e-05 4766 1.19327 1.34535e-05 0.000731515 87.5998 88695.9
0.254734 1.30073 1.21857e-05 1.24264e-05 6026 1.30068 1.24259e-05 0.000665798 112.469 104675
0.269195 1.48847 1.4381e-05 1.20492e-05 6480 1.48712 1.20383e-05 0.000605173 129.019 123532
0.284476 1.60504 1.69718e-05 1.10095e-05 8162 1.60777 1.10283e-05 0.000549345 163.576 145787
0.300625 1.77919 2.00293e-05 1.03411e-05 9578 1.77973 1.03442e-05 0.000498021 198.881 172051
0.317691 1.97953 2.36377e-05 9.74916e-06 11234 1.97794 9.74136e-06 0.000450916 242.888 203046
0.335725 2.12905 2.78961e-05 8.88493e-06 13344 2.12518 8.86876e-06 0.000407755 290.764 239625
0.354784 2.40839 3.29216e-05 8.51638e-06 15464 2.40686 8.51099e-06 0.000368269 357.612 282795
0.374924 2.61189 3.88525e-05 7.82612e-06 18458 2.6092 7.81806e-06 0.000332202 434.84 333741
0.396207 3.02839 4.58519e-05 7.68891e-06 22232 3.02332 7.67604e-06 0.000299307 571.119 393865
0.418699 3.25953 5.41123e-05 7.01245e-06 25628 3.25155 6.99527e-06 0.00026935 667.219 464821
0.442467 3.5779 6.38607e-05 6.52235e-06 30320 3.57173 6.5111e-06 0.000242108 816.816 548560
0.467585 4.05383 7.53654e-05 6.26186e-06 35452 4.04632 6.25027e-06 0.00021737 1021.28 647384
0.494129 4.49981 8.89427e-05 5.88971e-06 41792 4.4946 5.88289e-06 0.000194938 1262.67 764012
0.522179 5.0721 0.000104966 5.62534e-06 49988 5.07131 5.62447e-06 0.000174625 1610.31 901651
0.551822 5.68415 0.000123876 5.34182e-06 59110 5.67647 5.3346e-06 0.000156255 2020.77 1.06409e+06
0.583147 6.34149 0.000146192 5.04983e-06 69716 6.33135 5.04176e-06 0.000139664 2520.72 1.25578e+06
0.616251 7.10302 0.000172529 4.79281e-06 82210 7.08891 4.78329e-06 0.0001247 3159.72 1.48202e+06
0.651234 7.84115 0.000203611 4.48321e-06 96722 7.82379 4.47328e-06 0.00011122 3898.78 1.74901e+06
0.688203 8.91804 0.000240292 4.32056e-06 113098 8.90337 4.31345e-06 9.90935e-05 4931.17 2.06409e+06
0.72727 10.0159 0.000283581 4.11172e-06 135190 10.0009 4.10554e-06 8.81969e-05 6302.53 2.43595e+06
0.768555 11.1986 0.000334669 3.89545e-06 158170 11.1802 3.88904e-06 7.84179e-05 7857.16 2.87479e+06
0.812184 12.5813 0.000394961 3.70835e-06 188560 12.5608 3.7023e-06 6.96525e-05 10039.1 3.39269e+06
0.85829 14.0963 0.000466114 3.52065e-06 220444 14.0728 3.51479e-06 6.1805e-05 12557.4 4.00389e+06
0.907013 15.7698 0.000550086 3.33739e-06 261388 15.743 3.3317e-06 5.47875e-05 15922.5 4.7252e+06
0.958501 17.6963 0.000649185 3.1734e-06 308244 17.6686 3.16842e-06 4.85194e-05 20160.6 5.57646e+06
1.01291 19.8861 0.000766138 3.02172e-06 364396 19.8518 3.01649e-06 4.29272e-05 25650.5 6.58107e+06
1.07041 22.1672 0.00090416 2.85414e-06 429162 22.1261 2.84886e-06 3.79435e-05 32282 7.76667e+06
1.13118 24.7775 0.00106705 2.70324e-06 506358 24.7345 2.69854e-06 3.3507e-05 40851.4 9.16586e+06
1.19539 27.7408 0.00125928 2.56453e-06 598590 27.6884 2.55968e-06 2.9562e-05 51928.1 1.08171e+07
1.26325 30.8647 0.00148614 2.41776e-06 704844 30.8098 2.41346e-06 2.60578e-05 65398.5 1.27658e+07
1.33496 34.35 0.00175387 2.28002e-06 834620 34.2822 2.27552e-06 2.29484e-05 82922.8 1.50656e+07
1.41075 38.1803 0.00206984 2.1474e-06 981444 38.1077 2.14332e-06 2.01923e-05 104374 1.77798e+07
1.49083 42.226 0.00244272 2.0124e-06 1.15998e+06 42.1483 2.0087e-06 1.77518e-05 131499 2.09828e+07
1.57546 46.7024 0.00288279 1.88598e-06 1.36931e+06 46.6166 1.88251e-06 1.55929e-05 165620 2.4763e+07
1.66489 51.5339 0.00340213 1.76341e-06 1.61652e+06 51.4383 1.76014e-06 1.3685e-05 208299 2.92241e+07
1.75941 56.8256 0.00401503 1.64765e-06 1.90601e+06 56.718 1.64453e-06 1.20007e-05 261688 3.44889e+07
1.85928 62.4468 0.00473835 1.53424e-06 2.24913e+06 62.3291 1.53135e-06 1.05151e-05 328166 4.07021e+07
1.96483 68.29 0.00559198 1.42168e-06 2.65744e+06 68.1641 1.41906e-06 9.20606e-06 410385 4.80347e+07
2.07637 74.5923 0.00659939 1.31583e-06 3.13125e+06 74.459 1.31348e-06 8.05366e-06 511594 5.66883e+07
2.19424 81.6145 0.00778828 1.21993e-06 3.69915e+06 81.4648 1.2177e-06 7.04008e-06 641003 6.69008e+07
2.3188 88.7643 0.00919136 1.12426e-06 4.36472e+06 88.6081 1.12229e-06 6.1494e-06 797981 7.89532e+07
2.45043 96.6753 0.0108472 1.03755e-06 5.14913e+06 96.5008 1.03567e-06 5.36741e-06 995352 9.31768e+07
2.58954 104.8 0.0128014 9.53045e-07 6.07894e+06 104.622 9.51431e-07 4.68145e-06 1.23754e+06 1.09963e+08
2.73654 113.722 0.0151076 8.76319e-07 7.17304e+06 113.525 8.74793e-07 4.08023e-06 1.54057e+06 1.29773e+08
2.89188 122.936 0.0178292 8.02708e-07 8.46557e+06 122.728 8.01349e-07 3.55373e-06 1.91218e+06 1.53152e+08
3.05605 132.769 0.0210412 7.34572e-07 9.98773e+06 132.543 7.33323e-07 3.09304e-06 2.37201e+06 1.80743e+08
3.22953 143.117 0.0248319 6.70952e-07 1.1797e+07 142.874 6.69814e-07 2.69025e-06 2.94219e+06 2.13304e+08
3.41286 154.089 0.0293054 6.12118e-07 1.39144e+07 153.824 6.11063e-07 2.33837e-06 3.64238e+06 2.51731e+08
3.6066 165.705 0.0345848 5.57775e-07 1.64163e+07 165.418 5.56809e-07 2.0312e-06 4.50797e+06 2.97081e+08
3.81134 178.155 0.0408154 5.08142e-07 1.93821e+07 177.859 5.07298e-07 1.76327e-06 5.58559e+06 3.50601e+08
4.0277 191.224 0.0481684 4.62158e-07 2.28754e+07 190.9 4.61375e-07 1.52972e-06 6.91109e+06 4.13763e+08
4.25634 204.746 0.056846 4.19301e-07 2.69929e+07 204.396 4.18584e-07 1.32631e-06 8.53359e+06 4.88304e+08
4.49796 219.081 0.067087 3.80168e-07 3.18542e+07 218.712 3.79528e-07 1.14926e-06 1.05372e+07 5.76273e+08
4.7533 234.497 0.0791729 3.44802e-07 3.75892e+07 234.101 3.44221e-07 9.95263e-07 1.30225e+07 6.8009e+08
5.02313 250.406 0.0934361 3.1199e-07 4.43706e+07 249.983 3.11463e-07 8.61414e-07 1.60703e+07 8.0261e+08
5.30828 267.29 0.110269 2.82189e-07 5.23593e+07 266.837 2.81711e-07 7.45152e-07 1.98284e+07 9.47202e+08
5.60962 284.975 0.130134 2.54933e-07 6.1787e+07 284.501 2.54509e-07 6.44232e-07 2.44501e+07 1.11784e+09
5.92807 303.752 0.153578 2.3025e-07 7.29346e+07 303.24 2.29862e-07 5.56685e-07 3.01665e+07 1.31923e+09
6.26459 323.213 0.181246 2.07602e-07 8.60651e+07 322.664 2.07249e-07 4.80786e-07 3.71626e+07 1.55689e+09
6.62021 343.924 0.213898 1.87183e-07 1.01558e+08 343.347 1.86869e-07 4.15026e-07 4.58043e+07 1.83737e+09
6.99602 365.471 0.252432 1.68546e-07 1.1986e+08 364.858 1.68263e-07 3.58083e-07 5.64169e+07 2.16837e+09
7.39317 388.382 0.297908 1.51771e-07 1.41457e+08 387.729 1.51515e-07 3.08803e-07 6.95231e+07 2.55901e+09
7.81286 412.119 0.351577 1.36462e-07 1.66936e+08 411.436 1.36236e-07 2.66181e-07 8.55825e+07 3.02002e+09
8.25637 437.244 0.414914 1.22681e-07 1.97025e+08 436.509 1.22474e-07 2.29336e-07 1.05396e+08 3.56409e+09
8.72507 463.772 0.489662 1.1026e-07 2.32497e+08 462.99 1.10074e-07 1.97503e-07 1.29796e+08 4.20617e+09
9.22037 492.161 0.577876 9.91476e-08 2.74404e+08 491.318 9.89779e-08 1.70014e-07 1.60025e+08 4.96392e+09
9.74378 523.297 0.681982 8.93275e-08 3.2382e+08 522.377 8.91705e-08 1.46289e-07 1.97732e+08 5.85818e+09
10.2969 558.172 0.804843 8.07359e-08 3.82165e+08 557.17 8.0591e-08 1.25822e-07 2.45222e+08 6.91355e+09
10.8814 599.304 0.949838 7.34527e-08 4.51027e+08 598.149 7.33111e-08 1.08175e-07 3.06254e+08 8.15905e+09
11.4992 651.684 1.12095 6.76799e-08 5.32251e+08 650.286 6.75347e-08 9.29669e-08 3.87479e+08 9.62892e+09
12.1519 725.334 1.3229 6.38296e-08 6.28157e+08 723.503 6.36685e-08 7.98658e-08 5.0203e+08 1.13636e+10
12.8418 807.592 1.56122 6.02196e-08 3.82727e+08 835.882 6.23291e-08 6.85852e-08 3.36044e+08 1.34108e+10
13.5708 0 1.84248 0 0 0 0 5.88765e-08 0 1.58268e+10
14.3411 0 2.17441 0 0 0 0 5.05241e-08 0 1.8678e+10
15.1552 0 2.56613 0 0 0 0 4.33417e-08 0 2.20429e+10
16.0156 0 3.02843 0 0 0 0 3.71677e-08 0 2.6014e+10
16.9247 0 3.574 0 0 0 0 3.18628e-08 0 3.07005e+10
17.8855 0 4.21787 0 0 0 0 2.73063e-08 0 3.62312e+10
18.9008 0 4.97773 0 0 0 0 2.33941e-08 0 4.27584e+10
19.9738 0 5.87448 0 0 0 0 2.00364e-08 0 5.04614e+10
21.1076 0 6.93279 0 0 0 0 1.71555e-08 0 5.95522e+10
22.3058 0 8.18175 0 0 0 0 1.46847e-08 0 7.02807e+10
23.5721 0 9.65571 0 0 0 0 1.25662e-08 0 8.29419e+10
24.9102 0 11.3952 0 0 0 0 1.07504e-08 0 9.78842e+10
26.3243 0 13.4481 0 0 0 0 9.19452e-09 0 1.15518e+11
27.8187 0 15.8708 0 0 0 0 7.86182e-09 0 1.36329e+11
29.3979 0 18.73 0 0 0 0 6.72061e-09 0 1.60889e+11
31.0667 0 22.1042 0 0 0 0 5.74366e-09 0 1.89874e+11
32.8303 0 26.0864 0 0 0 0 4.90756e-09 0 2.2408e+11
34.694 0 30.7859 0 0 0 0 4.19221e-09 0 2.64449e+11
36.6634 0 36.3321 0 0 0 0 3.58032e-09 0 3.1209e+11
38.7447 0 42.8774 0 0 0 0 3.05709e-09 0 3.68314e+11
40.9442 0 50.6018 0 0 0 0 2.60976e-09 0 4.34667e+11
43.2685 0 59.7179 0 0 0 0 2.22743e-09 0 5.12973e+11
45.7247 0 70.4762 0 0 0 0 1.90073e-09 0 6.05386e+11
48.3204 0 83.1727 0 0 0 0 1.62163e-09 0 7.14448e+11
51.0634 0 98.1565 0 0 0 0 1.38326e-09 0 8.43158e+11
53.9621 0 115.84 0 0 0 0 1.1797e-09 0 9.95055e+11
57.0254 0 136.709 0 0 0 0 1.00592e-09 0 1.17432e+12
60.2626 0 161.337 0 0 0 0 8.57591e-10 0 1.38587e+12
63.6835 0 190.402 0 0 0 0 7.3101e-10 0 1.63554e+12
67.2987 0 224.704 0 0 0 0 6.23009e-10 0 1.93019e+12
71.1191 0 265.185 0 0 0 0 5.30879e-10 0 2.27792e+12
75.1563 0 312.958 0 0 0 0 4.52303e-10 0 2.68829e+12
79.4227 0 369.339 0 0 0 0 3.85299e-10 0 3.17259e+12
83.9313 0 435.876 0 0 0 0 3.28173e-10 0 3.74415e+12
88.6959 0 514.4 0 0 0 0 2.79476e-10 0 4.41866e+12
93.7309 0 607.071 0 0 0 0 2.37972e-10 0 5.2147e+12
99.0518 0 716.436 0 0 0 0 2.02605e-10 0 6.15414e+12
104.675 0 845.504 0 0 0 0 1.72471e-10 0 7.26283e+12
110.617 0 997.824 0 0 0 0 1.468e-10 0 8.57124e+12
116.896 0 1177.58 0 0 0 0 1.24935e-10 0 1.01154e+13
123.532 0 1389.73 0 0 0 0 1.06313e-10 0 1.19377e+13
130.545 0 1640.09 0 0 0 0 9.04567e-11 0 1.40883e+13
137.955 0 1935.56 0 0 0 0 7.69563e-11 0 1.66263e+13
145.787 0 2284.26 0 0 0 0 6.54636e-11 0 1.96216e+13
154.063 0 2695.77 0 0 0 0 5.56812e-11 0 2.31565e+13
162.808 0 3181.42 0 0 0 0 4.73556e-11 0 2.73282e+13
172.051 0 3754.56 0 0 0 0 4.02708e-11 0 3.22515e+13
181.818 0 4430.96 0 0 0 0 3.42426e-11 0 3.80616e+13
192.139 0 5229.21 0 0 0 0 2.91139e-11 0 4.49186e+13
203.046 0 6171.26 0 0 0 0 2.4751e-11 0 5.30108e+13
214.572 0 7283.03 0 0 0 0 2.10401e-11 0 6.25608e+13
226.753 0 8595.09 0 0 0 0 1.78839e-11 0 7.38313e+13
239.625 0 10143.5 0 0 0 0 1.51999e-11 0 8.71322e+13
253.228 0 11970.9 0 0 0 0 1.29176e-11 0 1.02829e+14
267.603 0 14127.5 0 0 0 0 1.09771e-11 0 1.21354e+14
282.795 0 16672.6 0 0 0 0 9.3274e-12 0 1.43217e+14
298.848 0 19676.2 0 0 0 0 7.925e-12 0 1.69017e+14
315.813 0 23220.9 0 0 0 0 6.73295e-12 0 1.99466e+14
333.741 0 27404.3 0 0 0 0 5.71979e-12 0 2.35401e+14
352.686 0 32341.2 0 0 0 0 4.85874e-12 0 2.77809e+14
372.707 0 38167.6 0 0 0 0 4.12703e-12 0 3.27857e+14
393.865 0 45043.5 0 0 0 0 3.50528e-12 0 3.86921e+14
416.224 0 53158.3 0 0 0 0 2.97701e-12 0 4.56626e+14
439.852 0 62734.9 0 0 0 0 2.52819e-12 0 5.38888e+14
464.821 0 74036.7 0 0 0 0 2.1469e-12 0 6.35971e+14
491.207 0 87374.6 0 0 0 0 1.82301e-12 0 7.50542e+14
519.092 0 103115 0 0 0 0 1.54789e-12 0 8.85755e+14
548.56 0 121692 0 0 0 0 1.31422e-12 0 1.04533e+15
579.7 0 143615 0 0 0 0 1.11576e-12 0 1.23364e+15
612.608 0 169488 0 0 0 0 9.47223e-13 0 1.45589e+15
647.384 0 200021 0 0 0 0 8.041e-13 0 1.71817e+15
684.134 0 236056 0 0 0 0 6.82568e-13 0 2.0277e+15
722.971 0 278582 0 0 0 0 5.79376e-13 0 2.393e+15
764.012 0 328769 0 0 0 0 4.91762e-13 0 2.8241e+15
